// Created by Crowbar 0.34.0.0

$ModelName "weapons/tfa_cso/w_xtracker_nrm.mdl"

$BodyGroup "studio"
{
	studio "v_lockongun_scope"
}

$collisionmodel "v_lockongun_scope.smd"
{
	$mass 9
}

$CDMaterials "models\weapons\tfa_cso\xtracker\"

$attachment "0" "root" 0.00 -9.80 -0.30 rotate -0 0 0

$Sequence "idle" {
	"anims\idle.smd"
	fps 30
}