"UnlitGeneric"
{
	"$baseTexture" "sprites/ef_aircyclone"
	"$translucent" 1
	"$additive" 1
	"$nocull" 0
	"Proxies"
	{
	"AnimatedTexture"
		{
		"animatedTextureVar" "$basetexture"
		"animatedTextureFrameNumVar" "$frame"
		"animatedTextureFrameRate" "19"
		}
	}
}