"UnlitGeneric"
{
	"$baseTexture" "sprites/thanatos1_exp"
	"$translucent" 1
	"$additive" 1
	"Proxies"
	{
	"AnimatedTexture"
		{
		"animatedTextureVar" "$basetexture"
		"animatedTextureFrameNumVar" "$frame"
		"animatedTextureFrameRate" "15"
		}
	}
}