// Created by Crowbar 0.68

$modelname "weapons/tfa_cso/w_usp_red.mdl"

$bodygroup "studio"
{
	studio "w_usp"
}

$collisionmodel "w_usp.smd"
{
	$mass 9
}

$cdmaterials "models/weapons/tfa_cso/usp_red"

$attachment "0" "root" -0.10 -5.10 0.90 rotate -0 -90 0

$sequence "idle" {
	"anims\idle"
	fps 30
}
