// Created by Crowbar 0.68

$modelname "weapons/tfa_cso/w_uspred_silencer.mdl"

$bodygroup "studio"
{
	studio "w_silencer"
}

$collisionmodel "w_silencer.smd"
{
	$mass 9
}

$cdmaterials "models/weapons/tfa_cso/usp_red"

$sequence "idle" {
	"anims\idle"
	fps 30
}
