// Created by Crowbar 0.49.0.0

$modelname "weapons/tfa_cso/w_m249.mdl"

$bodygroup "studio"
{
	studio "w_m249_m249_new_w_reference"
}

$collisionmodel "w_m249_m249_new_w_reference.smd"
{
	$mass 9
}

$CDMaterials "models\weapons\tfa_cso\m249"

$attachment "0" "CSO_PW_m249new" 0.20 -17.40 1.80 rotate -0 0 0

$sequence "idle" {
	"w_m249_anims\idle"
	fps 30
}
