version 1
nodes
  0 "root" -1
  1 "Bone01" 0
  2 "Bone_Lefthand" 1
  3 "Dummy02" 2
  4 "Bone02" 3
  5 "Dummy01" 4
  6 "Bone08" 5
  7 "Bone03" 5
  8 "Bone24" 4
  9 "Bone16" 4
  10 "Bone26" 4
  11 "Bone_L_Upper" 1
  12 "Bone13" 2
  13 "Bone14" 12
  14 "Bone15" 13
  15 "Bone17" 2
  16 "Bone18" 15
  17 "Bone19" 16
  18 "Bone21" 2
  19 "Bone22" 18
  20 "Bone23" 19
  21 "Bone09" 2
  22 "Bone10" 21
  23 "Bone11" 22
  24 "Bone05" 2
  25 "Bone06" 24
  26 "Bone07" 25
  27 "Bone_Se_Hand-L" 2
  28 "Bone04" 0
  29 "Bone_Righthand" 28
  30 "Bone39" 29
  31 "Bone40" 30
  32 "Bone41" 31
  33 "Bone35" 29
  34 "Bone36" 33
  35 "Bone37" 34
  36 "Bone31" 29
  37 "Bone32" 36
  38 "Bone33" 37
  39 "Bone43" 29
  40 "Bone44" 39
  41 "Bone45" 40
  42 "Bone27" 29
  43 "Bone28" 42
  44 "Bone29" 43
  45 "Bone_Se_Hand-R" 29
  46 "Bone_R_Upper" 28
end
skeleton
  time 0
    0 -0.999830 1.628925 1.837942 0.000000 0.000000 0.000000
    1 9.213061 3.032097 -9.113669 -0.149964 -1.612728 -0.045697
    2 -0.071918 -8.498730 -0.104136 0.151113 0.283294 0.053585
    3 2.895287 -1.754041 1.313274 0.246376 0.052132 -1.568741
    4 0.000002 0.000000 0.000000 0.000000 0.000000 -0.000001
    5 6.494406 -3.211587 0.000000 -0.000001 0.000000 -1.501248
    6 -0.000002 0.000002 0.000000 0.000000 0.000000 0.000000
    7 12.389346 -0.862831 0.000007 0.000002 0.000000 0.000000
    8 5.464948 0.934905 0.501473 -1.570796 0.000000 -1.570796
    9 14.981817 0.785508 0.038393 -1.570797 -1.570796 0.000000
    10 2.962811 -1.683644 0.000000 0.000000 0.000000 -1.570796
    11 1.257180 8.762585 -0.153713 -1.570562 0.002683 -1.566807
    12 -0.488518 -2.755602 -0.228260 -0.871637 -0.202562 -0.209541
    13 0.039887 -1.479790 0.029854 -2.058999 0.000000 0.000001
    14 0.028786 -1.075731 -0.023109 -0.606348 0.000000 0.000000
    15 0.250027 -2.820665 -0.238396 -0.797118 -0.167517 -0.114938
    16 -0.049759 -1.680544 0.100479 -1.934788 0.000000 -0.000002
    17 -0.034142 -1.148312 0.084782 -0.925906 0.000000 0.000000
    18 0.957766 -2.746780 -0.090302 0.005853 -0.162684 0.097910
    19 -0.033420 -1.397129 -0.011257 -0.520985 0.000000 -0.000001
    20 -0.022360 -0.957436 0.018784 -0.975478 0.000000 0.000000
    21 -1.180681 -2.507217 -0.193859 -0.671414 -0.081516 -0.261329
    22 -0.024967 -1.123934 0.017597 -2.056303 0.000000 0.000001
    23 -0.020057 -0.890968 0.010090 -0.677843 0.000000 0.000000
    24 0.583510 -1.197277 0.185379 0.180205 -0.812060 -1.291294
    25 1.535927 0.010246 0.005009 -0.002964 -0.012979 -0.506650
    26 1.100771 0.004527 -0.010679 -0.015488 -0.004784 -1.694062
    27 0.120153 -0.050270 -0.054489 0.287569 3.110905 1.561085
    28 0.705823 -13.305725 -12.720421 -1.753527 -5.377333 -0.933880
    29 0.096944 -8.450418 -0.009365 0.441504 -1.298311 0.044599
    30 0.447953 -2.798986 -0.200443 -0.867750 -0.067958 0.142839
    31 -0.032909 -1.480204 0.004940 -1.563671 0.000000 0.000002
    32 -0.027022 -1.076920 -0.020210 0.067112 0.000000 0.000000
    33 -0.249534 -2.846964 -0.174213 -0.411782 -0.046302 0.113811
    34 0.043235 -1.683941 0.096012 -1.755602 0.002823 -0.000167
    35 0.031729 -1.160830 0.058838 -0.271631 0.000642 0.008372
    36 -0.963866 -2.785145 -0.085350 0.029165 0.013044 0.093174
    37 0.028479 -1.403067 0.006271 -1.265374 0.000000 0.000000
    38 0.021413 -0.957781 0.020046 -0.738159 0.000000 0.000000
    39 1.164475 -2.543940 -0.170330 -1.086001 -0.190582 0.231608
    40 0.024032 -1.129042 0.017807 -1.235601 0.000000 0.000001
    41 0.014898 -0.883989 -0.019848 -0.241922 0.000000 0.000000
    42 -0.586770 -1.264477 0.200161 0.031359 -0.425403 -2.681131
    43 1.522835 0.058681 0.016848 0.001410 0.008985 0.513078
    44 1.117947 0.048424 -0.005766 0.001267 -0.025174 0.005124
    45 -0.139399 -0.111698 0.014397 0.730903 0.255277 1.513298
    46 -1.393470 8.839177 -0.239433 1.580804 -0.005023 -1.566847
  time 1
    0 -0.999830 1.628925 1.837942 0.000000 0.000000 0.000000
    1 9.037275 6.165005 -7.879257 -0.151034 -1.612435 -0.044616
    2 -0.071918 -8.498730 -0.104136 0.144869 0.233342 0.081186
    3 2.895287 -1.754041 1.313274 0.246376 0.052132 -1.568741
    4 0.000002 0.000000 0.000000 0.000000 0.000000 -0.000001
    5 6.494406 -3.211587 0.000000 -0.000001 0.000000 -1.501248
    6 -0.000002 0.000002 0.000000 0.000000 0.000000 0.000000
    7 14.194088 1.621620 0.378925 -0.006352 -0.042974 -0.038077
    8 5.464948 0.934905 0.501473 1.570796 -1.519222 1.570700
    9 14.981817 0.785508 0.038393 -1.570797 -1.570796 0.000000
    10 2.962811 -1.683644 0.000000 0.000000 0.000000 -1.570796
    11 1.257180 8.762585 -0.153713 -1.570562 0.002683 -1.566807
    12 -0.488518 -2.755602 -0.228260 -0.871637 -0.202562 -0.209541
    13 0.039887 -1.479790 0.029854 -2.058999 0.000000 0.000001
    14 0.028786 -1.075731 -0.023109 -0.606348 0.000000 0.000000
    15 0.250027 -2.820665 -0.238396 -0.797118 -0.167517 -0.114938
    16 -0.049759 -1.680544 0.100479 -1.934788 0.000000 -0.000002
    17 -0.034142 -1.148312 0.084782 -0.925906 0.000000 0.000000
    18 0.957766 -2.746780 -0.090302 0.005853 -0.162684 0.097910
    19 -0.033420 -1.397129 -0.011257 -0.520985 0.000000 -0.000001
    20 -0.022360 -0.957436 0.018784 -0.975478 0.000000 0.000000
    21 -1.180681 -2.507217 -0.193859 -0.671414 -0.081516 -0.261329
    22 -0.024967 -1.123934 0.017597 -2.056303 0.000000 0.000001
    23 -0.020057 -0.890968 0.010090 -0.677843 0.000000 0.000000
    24 0.583510 -1.197277 0.185379 0.180205 -0.812060 -1.291294
    25 1.535927 0.010246 0.005009 -0.002964 -0.012979 -0.506650
    26 1.100771 0.004527 -0.010679 -0.015488 -0.004784 -1.694062
    27 0.120153 -0.050270 -0.054489 0.287569 3.110905 1.561085
    28 0.049553 -11.208005 -11.556323 -1.756244 -5.449978 -0.775900
    29 0.096944 -8.450418 -0.009365 0.881654 -1.153005 -0.329424
    30 0.447953 -2.798986 -0.200443 -0.867750 -0.067958 0.142839
    31 -0.032909 -1.480204 0.004940 -1.563671 0.000000 0.000002
    32 -0.027022 -1.076920 -0.020210 0.067112 0.000000 0.000000
    33 -0.249534 -2.846964 -0.174213 -0.411782 -0.046302 0.113811
    34 0.043235 -1.683941 0.096012 -1.755602 0.002823 -0.000167
    35 0.031729 -1.160830 0.058838 -0.271631 0.000642 0.008372
    36 -0.963866 -2.785145 -0.085350 0.029165 0.013044 0.093174
    37 0.028479 -1.403067 0.006271 -1.265374 0.000000 0.000000
    38 0.021413 -0.957781 0.020046 -0.738159 0.000000 0.000000
    39 1.164475 -2.543940 -0.170330 -1.086001 -0.190582 0.231608
    40 0.024032 -1.129042 0.017807 -1.235601 0.000000 0.000001
    41 0.014898 -0.883989 -0.019848 -0.241922 0.000000 0.000000
    42 -0.586770 -1.264477 0.200161 0.031359 -0.425403 -2.681131
    43 1.522835 0.058681 0.016848 0.001410 0.008985 0.513078
    44 1.117947 0.048424 -0.005766 0.001267 -0.025174 0.005124
    45 -0.139399 -0.111698 0.014397 0.711942 0.298326 1.601817
    46 -1.393470 8.839177 -0.239433 1.580804 -0.005023 -1.566847
  time 2
    0 -0.999830 1.628925 1.837942 0.000000 0.000000 0.000000
    1 9.185717 8.157254 -7.504245 -0.153320 -1.611815 -0.042354
    2 -0.071918 -8.498730 -0.104136 0.145348 0.173263 0.060341
    3 2.895287 -1.754041 1.313274 0.246376 0.052132 -1.568741
    4 0.000002 0.000000 0.000000 0.000000 0.000000 -0.000001
    5 6.494406 -3.211587 0.000000 -0.000001 0.000000 -1.501248
    6 -0.000002 0.000002 0.000000 0.000000 0.000000 0.000000
    7 14.561287 3.707621 1.468802 -0.006171 -0.105386 -0.028864
    8 5.464948 0.934905 0.501473 1.570796 -1.261815 -4.712388
    9 14.981817 0.785508 0.038393 -1.570797 -1.570796 0.000000
    10 2.962811 -1.683644 0.000000 0.000000 0.000000 -1.570796
    11 1.257180 8.762585 -0.153713 -1.570562 0.002683 -1.566807
    12 -0.488518 -2.755602 -0.228260 -0.871637 -0.202562 -0.209541
    13 0.039887 -1.479790 0.029854 -2.058999 0.000000 0.000001
    14 0.028786 -1.075731 -0.023109 -0.606348 0.000000 0.000000
    15 0.250027 -2.820665 -0.238396 -0.797118 -0.167517 -0.114938
    16 -0.049759 -1.680544 0.100479 -1.934788 0.000000 -0.000002
    17 -0.034142 -1.148312 0.084782 -0.925879 0.000000 0.000000
    18 0.957766 -2.746780 -0.090302 0.005853 -0.162684 0.097910
    19 -0.033420 -1.397129 -0.011257 -0.520985 0.000000 -0.000001
    20 -0.022360 -0.957436 0.018784 -0.975478 0.000000 0.000000
    21 -1.180681 -2.507217 -0.193859 -0.671414 -0.081516 -0.261329
    22 -0.024967 -1.123934 0.017597 -2.056303 0.000000 0.000001
    23 -0.020057 -0.890968 0.010090 -0.677843 0.000000 0.000000
    24 0.583510 -1.197277 0.185379 0.180205 -0.812060 -1.291294
    25 1.535927 0.010246 0.005009 -0.002964 -0.012979 -0.506650
    26 1.100771 0.004527 -0.010679 -0.015488 -0.004784 -1.694062
    27 0.120153 -0.050270 -0.054489 0.287569 3.110905 1.561085
    28 0.467535 -9.243101 -11.720391 -1.686295 -5.490337 -0.714963
    29 0.096944 -8.450418 -0.009365 0.887511 -1.149651 -0.333922
    30 0.447953 -2.798986 -0.200443 -0.867750 -0.067958 0.142839
    31 -0.032909 -1.480204 0.004940 -1.563671 0.000000 0.000002
    32 -0.027022 -1.076920 -0.020210 0.067112 0.000000 0.000000
    33 -0.249534 -2.846964 -0.174213 -0.411782 -0.046302 0.113811
    34 0.043235 -1.683941 0.096012 -1.755602 0.002823 -0.000167
    35 0.031729 -1.160830 0.058838 -0.271631 0.000642 0.008372
    36 -0.963866 -2.785145 -0.085350 0.029165 0.013044 0.093174
    37 0.028479 -1.403067 0.006271 -1.265374 0.000000 0.000000
    38 0.021413 -0.957781 0.020046 -0.738159 0.000000 0.000000
    39 1.164475 -2.543940 -0.170330 -1.086001 -0.190582 0.231608
    40 0.024032 -1.129042 0.017807 -1.235601 0.000000 0.000001
    41 0.014898 -0.883989 -0.019848 -0.241922 0.000000 0.000000
    42 -0.586770 -1.264477 0.200161 0.031359 -0.425403 -2.681131
    43 1.522835 0.058681 0.016848 0.001410 0.008985 0.513078
    44 1.117947 0.048424 -0.005766 0.001267 -0.025174 0.005124
    45 -0.139399 -0.111698 0.014397 0.711942 0.298326 1.601817
    46 -1.393470 8.839177 -0.239433 1.580804 -0.005023 -1.566847
  time 3
    0 -0.999830 1.628925 1.837942 0.000000 0.000000 0.000000
    1 9.166185 7.051751 -7.578466 -0.155071 -1.611359 -0.040585
    2 -0.071918 -8.498730 -0.104136 0.149064 0.209433 0.092589
    3 2.895287 -1.754041 1.313274 0.246376 0.052132 -1.568741
    4 0.000002 0.000000 0.000000 0.000000 0.000000 -0.000001
    5 6.494406 -3.211587 0.000000 -0.000001 0.000000 -1.501248
    6 -0.000002 0.000002 0.000000 0.000000 0.000000 0.000000
    7 14.709729 2.246639 0.871127 -0.001360 -0.063270 -0.052873
    8 5.464948 0.934905 0.501473 -1.570796 -0.939870 -1.570796
    9 14.981817 0.785508 0.038393 -1.570797 -1.570796 0.000000
    10 2.962811 -1.683644 0.000000 0.000000 0.000000 -1.570796
    11 1.257180 8.762585 -0.153713 -1.570562 0.002683 -1.566807
    12 -0.488518 -2.755602 -0.228260 -0.871637 -0.202562 -0.209541
    13 0.039887 -1.479790 0.029854 -2.058999 0.000000 0.000001
    14 0.028786 -1.075731 -0.023109 -0.606348 0.000000 0.000000
    15 0.250027 -2.820665 -0.238396 -0.797118 -0.167517 -0.114938
    16 -0.049759 -1.680544 0.100479 -1.934788 0.000000 -0.000002
    17 -0.034142 -1.148312 0.084782 -0.925906 0.000000 0.000000
    18 0.957766 -2.746780 -0.090302 0.005853 -0.162684 0.097910
    19 -0.033420 -1.397129 -0.011257 -0.520985 0.000000 -0.000001
    20 -0.022360 -0.957436 0.018784 -0.975478 0.000000 0.000000
    21 -1.180681 -2.507217 -0.193859 -0.671414 -0.081516 -0.261329
    22 -0.024967 -1.123934 0.017597 -2.056303 0.000000 0.000001
    23 -0.020057 -0.890968 0.010090 -0.677843 0.000000 0.000000
    24 0.583510 -1.197277 0.185379 0.180205 -0.812060 -1.291294
    25 1.535927 0.010246 0.005009 -0.002964 -0.012979 -0.506650
    26 1.100771 0.004527 -0.010679 -0.015488 -0.004784 -1.694062
    27 0.120153 -0.050270 -0.054489 0.287569 3.110905 1.561085
    28 0.276123 -10.446263 -11.271158 -1.752828 -5.475294 -0.760714
    29 0.096944 -8.450418 -0.009365 0.891019 -1.147632 -0.336605
    30 0.447953 -2.798986 -0.200443 -0.867750 -0.067958 0.142839
    31 -0.032909 -1.480204 0.004940 -1.563671 0.000000 0.000002
    32 -0.027022 -1.076920 -0.020210 0.067112 0.000000 0.000000
    33 -0.249534 -2.846964 -0.174213 -0.411782 -0.046302 0.113811
    34 0.043235 -1.683941 0.096012 -1.755602 0.002823 -0.000167
    35 0.031729 -1.160830 0.058838 -0.271631 0.000642 0.008372
    36 -0.963866 -2.785145 -0.085350 0.029165 0.013044 0.093174
    37 0.028479 -1.403067 0.006271 -1.265374 0.000000 0.000000
    38 0.021413 -0.957781 0.020046 -0.738159 0.000000 0.000000
    39 1.164475 -2.543940 -0.170330 -1.086001 -0.190582 0.231608
    40 0.024032 -1.129042 0.017807 -1.235601 0.000000 0.000001
    41 0.014898 -0.883989 -0.019848 -0.241922 0.000000 0.000000
    42 -0.586770 -1.264477 0.200161 0.031359 -0.425403 -2.681131
    43 1.522835 0.058681 0.016848 0.001410 0.008985 0.513078
    44 1.117947 0.048424 -0.005766 0.001267 -0.025174 0.005124
    45 -0.139399 -0.111698 0.014397 0.711942 0.298326 1.601817
    46 -1.393470 8.839177 -0.239433 1.580804 -0.005023 -1.566847
  time 4
    0 -0.999830 1.628925 1.837942 0.000000 0.000000 0.000000
    1 9.111496 5.395450 -7.734721 -0.154487 -1.611522 -0.041175
    2 -0.071918 -8.498730 -0.104136 0.155284 0.262477 0.134038
    3 2.895287 -1.754041 1.313274 0.246376 0.052132 -1.568741
    4 0.000002 0.000000 0.000000 0.000000 0.000000 -0.000001
    5 6.494406 -3.211587 0.000000 -0.000001 0.000000 -1.501248
    6 -0.000002 0.000002 0.000000 0.000000 0.000000 0.000000
    7 14.662852 0.176264 -0.027338 0.002453 -0.003335 -0.081692
    8 5.464948 0.934905 0.501473 -1.570796 0.000000 -1.570796
    9 14.981817 0.785508 0.038393 -1.570797 -1.570796 0.000000
    10 2.962811 -1.683644 0.000000 0.000000 0.000000 -1.570796
    11 1.257180 8.762585 -0.153713 -1.570562 0.002683 -1.566807
    12 -0.488518 -2.755602 -0.228260 -0.871637 -0.202562 -0.209541
    13 0.039887 -1.479790 0.029854 -2.058999 0.000000 0.000001
    14 0.028786 -1.075731 -0.023109 -0.606348 0.000000 0.000000
    15 0.250027 -2.820665 -0.238396 -0.797118 -0.167517 -0.114938
    16 -0.049759 -1.680544 0.100479 -1.934788 0.000000 -0.000002
    17 -0.034142 -1.148312 0.084782 -0.925906 0.000000 0.000000
    18 0.957766 -2.746780 -0.090302 0.005853 -0.162684 0.097910
    19 -0.033420 -1.397129 -0.011257 -0.520985 0.000000 -0.000001
    20 -0.022360 -0.957436 0.018784 -0.975478 0.000000 0.000000
    21 -1.180681 -2.507217 -0.193859 -0.671414 -0.081516 -0.261329
    22 -0.024967 -1.123934 0.017597 -2.056303 0.000000 0.000001
    23 -0.020057 -0.890968 0.010090 -0.677843 0.000000 0.000000
    24 0.583510 -1.197277 0.185379 0.180205 -0.812060 -1.291294
    25 1.535927 0.010246 0.005009 -0.002964 -0.012979 -0.506650
    26 1.100771 0.004527 -0.010679 -0.015488 -0.004784 -1.694062
    27 0.120153 -0.050270 -0.054489 0.287569 3.110905 1.561085
    28 0.018302 -12.184597 -10.716454 -1.845058 -5.453830 -0.829388
    29 0.096944 -8.450418 -0.009365 0.892211 -1.146916 -0.337532
    30 0.447953 -2.798986 -0.200443 -0.867750 -0.067958 0.142839
    31 -0.032909 -1.480204 0.004940 -1.563671 0.000000 0.000002
    32 -0.027022 -1.076920 -0.020210 0.067112 0.000000 0.000000
    33 -0.249534 -2.846964 -0.174213 -0.411782 -0.046302 0.113811
    34 0.043235 -1.683941 0.096012 -1.755602 0.002823 -0.000167
    35 0.031729 -1.160830 0.058838 -0.271631 0.000642 0.008372
    36 -0.963866 -2.785145 -0.085350 0.029165 0.013044 0.093174
    37 0.028479 -1.403067 0.006271 -1.265374 0.000000 0.000000
    38 0.021413 -0.957781 0.020046 -0.738159 0.000000 0.000000
    39 1.164475 -2.543940 -0.170330 -1.086001 -0.190582 0.231608
    40 0.024032 -1.129042 0.017807 -1.235601 0.000000 0.000001
    41 0.014898 -0.883989 -0.019848 -0.241922 0.000000 0.000000
    42 -0.586770 -1.264477 0.200161 0.031359 -0.425403 -2.681131
    43 1.522835 0.058681 0.016848 0.001410 0.008985 0.513078
    44 1.117947 0.048424 -0.005766 0.001267 -0.025174 0.005124
    45 -0.139399 -0.111698 0.014397 0.711942 0.298326 1.601817
    46 -1.393470 8.839177 -0.239433 1.580804 -0.005023 -1.566847
  time 5
    0 -0.999830 1.628925 1.837942 0.000000 0.000000 0.000000
    1 9.076338 4.168851 -7.906601 -0.149964 -1.612728 -0.045697
    2 -0.071918 -8.498730 -0.104136 0.160030 0.299845 0.152607
    3 2.895287 -1.754041 1.313274 0.246376 0.052132 -1.568741
    4 0.000002 0.000000 0.000000 0.000000 0.000000 -0.000001
    5 6.494406 -3.211587 0.000000 -0.000001 0.000000 -1.501248
    6 -0.000002 0.000002 0.000000 0.000000 0.000000 0.000000
    7 14.389407 -1.151902 -0.617199 0.003724 0.035637 -0.091359
    8 5.464948 0.934905 0.501473 -1.570796 -0.269833 -1.570796
    9 14.981817 0.785508 0.038393 -1.570797 -1.570796 0.000000
    10 2.962811 -1.683644 0.000000 0.000000 0.000000 -1.570796
    11 1.257180 8.762585 -0.153713 -1.570562 0.002683 -1.566807
    12 -0.488518 -2.755602 -0.228260 -0.871637 -0.202562 -0.209541
    13 0.039887 -1.479790 0.029854 -2.058999 0.000000 0.000001
    14 0.028786 -1.075731 -0.023109 -0.606348 0.000000 0.000000
    15 0.250027 -2.820665 -0.238396 -0.797118 -0.167517 -0.114938
    16 -0.049759 -1.680544 0.100479 -1.934788 0.000000 -0.000002
    17 -0.034142 -1.148312 0.084782 -0.925906 0.000000 0.000000
    18 0.957766 -2.746780 -0.090302 0.005853 -0.162684 0.097910
    19 -0.033420 -1.397129 -0.011257 -0.520985 0.000000 -0.000001
    20 -0.022360 -0.957436 0.018784 -0.975478 0.000000 0.000000
    21 -1.180681 -2.507217 -0.193859 -0.671414 -0.081516 -0.261329
    22 -0.024967 -1.123934 0.017597 -2.056303 0.000000 0.000001
    23 -0.020057 -0.890968 0.010090 -0.677843 0.000000 0.000000
    24 0.583510 -1.197277 0.185379 0.180205 -0.812060 -1.291294
    25 1.535927 0.010246 0.005009 -0.002964 -0.012979 -0.506650
    26 1.100771 0.004527 -0.010679 -0.015488 -0.004784 -1.694062
    27 0.120153 -0.050270 -0.054489 0.287569 3.110905 1.561085
    28 -0.130140 -13.415103 -10.497697 -1.898393 -5.435394 -0.871987
    29 0.096944 -8.450418 -0.009365 0.891086 -1.147567 -0.336663
    30 0.447953 -2.798986 -0.200443 -0.867750 -0.067958 0.142839
    31 -0.032909 -1.480204 0.004940 -1.563671 0.000000 0.000002
    32 -0.027022 -1.076920 -0.020210 0.067112 0.000000 0.000000
    33 -0.249534 -2.846964 -0.174213 -0.411782 -0.046302 0.113811
    34 0.043235 -1.683941 0.096012 -1.755602 0.002823 -0.000167
    35 0.031729 -1.160830 0.058838 -0.271631 0.000642 0.008372
    36 -0.963866 -2.785145 -0.085350 0.029165 0.013044 0.093174
    37 0.028479 -1.403067 0.006271 -1.265374 0.000000 0.000000
    38 0.021413 -0.957781 0.020046 -0.738159 0.000000 0.000000
    39 1.164475 -2.543940 -0.170330 -1.086001 -0.190582 0.231608
    40 0.024032 -1.129042 0.017807 -1.235601 0.000000 0.000001
    41 0.014898 -0.883989 -0.019848 -0.241922 0.000000 0.000000
    42 -0.586770 -1.264477 0.200161 0.031359 -0.425403 -2.681131
    43 1.522835 0.058681 0.016848 0.001410 0.008985 0.513078
    44 1.117947 0.048424 -0.005766 0.001267 -0.025174 0.005124
    45 -0.139399 -0.111698 0.014397 0.711942 0.298326 1.601817
    46 -1.393470 8.839177 -0.239433 1.580804 -0.005023 -1.566847
  time 6
    0 -0.999830 1.628925 1.837942 0.000000 0.000000 0.000000
    1 9.068526 3.590708 -8.070669 -0.136930 -1.615922 -0.058723
    2 -0.071918 -8.498730 -0.104136 0.160233 0.313879 0.140607
    3 2.895287 -1.754041 1.313274 0.246376 0.052132 -1.568741
    4 0.000002 0.000000 0.000000 0.000000 0.000000 -0.000001
    5 6.494406 -3.211587 0.000000 -0.000001 0.000000 -1.501248
    6 -0.000002 0.000002 0.000000 0.000000 0.000000 0.000000
    7 14.041740 -1.491756 -0.734390 0.003542 0.043736 -0.077471
    8 5.464948 0.934905 0.501473 -1.570796 0.000000 -1.570796
    9 14.981817 0.785508 0.038393 -1.570797 -1.570796 0.000000
    10 2.962811 -1.683644 0.000000 0.000000 0.000000 -1.570796
    11 1.257180 8.762585 -0.153713 -1.570562 0.002683 -1.566807
    12 -0.488518 -2.755602 -0.228260 -0.871637 -0.202562 -0.209541
    13 0.039887 -1.479790 0.029854 -2.058999 0.000000 0.000001
    14 0.028786 -1.075731 -0.023109 -0.606348 0.000000 0.000000
    15 0.250027 -2.820665 -0.238396 -0.797118 -0.167517 -0.114938
    16 -0.049759 -1.680544 0.100479 -1.934788 0.000000 -0.000002
    17 -0.034142 -1.148312 0.084782 -0.925879 0.000000 0.000000
    18 0.957766 -2.746780 -0.090302 0.005853 -0.162684 0.097910
    19 -0.033420 -1.397129 -0.011257 -0.520985 0.000000 -0.000001
    20 -0.022360 -0.957436 0.018784 -0.975478 0.000000 0.000000
    21 -1.180681 -2.507217 -0.193859 -0.671414 -0.081516 -0.261329
    22 -0.024967 -1.123934 0.017597 -2.056303 0.000000 0.000001
    23 -0.020057 -0.890968 0.010090 -0.677843 0.000000 0.000000
    24 0.583510 -1.197277 0.185379 0.180205 -0.812060 -1.291294
    25 1.535927 0.010246 0.005009 -0.002964 -0.012979 -0.506650
    26 1.100771 0.004527 -0.010679 -0.015488 -0.004784 -1.694062
    27 0.120153 -0.050270 -0.054489 0.287569 3.110905 1.561085
    28 -0.161391 -13.934650 -10.728173 -1.894046 -5.419526 -0.872464
    29 0.096944 -8.450418 -0.009365 0.887611 -1.149618 -0.333999
    30 0.447953 -2.798986 -0.200443 -0.867750 -0.067958 0.142839
    31 -0.032909 -1.480204 0.004940 -1.563671 0.000000 0.000002
    32 -0.027022 -1.076920 -0.020210 0.067112 0.000000 0.000000
    33 -0.249534 -2.846964 -0.174213 -0.411782 -0.046302 0.113811
    34 0.043235 -1.683941 0.096012 -1.755602 0.002823 -0.000167
    35 0.031729 -1.160830 0.058838 -0.271631 0.000642 0.008372
    36 -0.963866 -2.785145 -0.085350 0.029165 0.013044 0.093174
    37 0.028479 -1.403067 0.006271 -1.265374 0.000000 0.000000
    38 0.021413 -0.957781 0.020046 -0.738159 0.000000 0.000000
    39 1.164475 -2.543940 -0.170330 -1.086001 -0.190582 0.231608
    40 0.024032 -1.129042 0.017807 -1.235601 0.000000 0.000001
    41 0.014898 -0.883989 -0.019848 -0.241922 0.000000 0.000000
    42 -0.586770 -1.264477 0.200161 0.031359 -0.425403 -2.681131
    43 1.522835 0.058681 0.016848 0.001410 0.008985 0.513078
    44 1.117947 0.048424 -0.005766 0.001267 -0.025174 0.005124
    45 -0.139399 -0.111698 0.014397 0.711942 0.298326 1.601817
    46 -1.393470 8.839177 -0.239433 1.580804 -0.005023 -1.566847
  time 7
    0 -0.999830 1.628925 1.837942 0.000000 0.000000 0.000000
    1 9.068526 3.200071 -8.258175 -0.119275 -1.620843 -0.076419
    2 -0.071918 -8.498730 -0.104136 0.158328 0.320302 0.116290
    3 2.895287 -1.754041 1.313274 0.246376 0.052132 -1.568741
    4 0.000002 0.000000 0.000000 0.000000 0.000000 -0.000001
    5 6.494406 -3.211587 0.000000 -0.000001 0.000000 -1.501248
    6 -0.000002 0.000002 0.000000 0.000000 0.000000 0.000000
    7 13.651103 -1.515194 -0.687514 0.002816 0.040401 -0.054053
    8 5.464948 0.934905 0.501473 -1.570796 0.000000 -1.570796
    9 14.981817 0.785508 0.038393 -1.570797 -1.570796 0.000000
    10 2.962811 -1.683644 0.000000 0.000000 0.000000 -1.570796
    11 1.257180 8.762585 -0.153713 -1.570562 0.002683 -1.566807
    12 -0.488518 -2.755602 -0.228260 -0.871637 -0.202562 -0.209541
    13 0.039887 -1.479790 0.029854 -2.058999 0.000000 0.000001
    14 0.028786 -1.075731 -0.023109 -0.606348 0.000000 0.000000
    15 0.250027 -2.820665 -0.238396 -0.797118 -0.167517 -0.114938
    16 -0.049759 -1.680544 0.100479 -1.934788 0.000000 -0.000002
    17 -0.034142 -1.148312 0.084782 -0.925906 0.000000 0.000000
    18 0.957766 -2.746780 -0.090302 0.005853 -0.162684 0.097910
    19 -0.033420 -1.397129 -0.011257 -0.520985 0.000000 -0.000001
    20 -0.022360 -0.957436 0.018784 -0.975478 0.000000 0.000000
    21 -1.180681 -2.507217 -0.193859 -0.671414 -0.081516 -0.261329
    22 -0.024967 -1.123934 0.017597 -2.056303 0.000000 0.000001
    23 -0.020057 -0.890968 0.010090 -0.677843 0.000000 0.000000
    24 0.583510 -1.197277 0.185379 0.180205 -0.812060 -1.291294
    25 1.535927 0.010246 0.005009 -0.002964 -0.012979 -0.506650
    26 1.100771 0.004527 -0.010679 -0.015488 -0.004784 -1.694062
    27 0.120153 -0.050270 -0.054489 0.287569 3.110905 1.561085
    28 -0.157484 -14.243254 -11.150061 -1.866097 -5.403933 -0.855559
    29 0.096944 -8.450418 -0.009365 0.881654 -1.153005 -0.329424
    30 0.447953 -2.798986 -0.200443 -0.867750 -0.067958 0.142839
    31 -0.032909 -1.480204 0.004940 -1.563671 0.000000 0.000002
    32 -0.027022 -1.076920 -0.020210 0.067112 0.000000 0.000000
    33 -0.249534 -2.846964 -0.174213 -0.411782 -0.046302 0.113811
    34 0.043235 -1.683941 0.096012 -1.755602 0.002823 -0.000167
    35 0.031729 -1.160830 0.058838 -0.271631 0.000642 0.008372
    36 -0.963866 -2.785145 -0.085350 0.029165 0.013044 0.093174
    37 0.028479 -1.403067 0.006271 -1.265374 0.000000 0.000000
    38 0.021413 -0.957781 0.020046 -0.738159 0.000000 0.000000
    39 1.164475 -2.543940 -0.170330 -1.086001 -0.190582 0.231608
    40 0.024032 -1.129042 0.017807 -1.235601 0.000000 0.000001
    41 0.014898 -0.883989 -0.019848 -0.241922 0.000000 0.000000
    42 -0.586770 -1.264477 0.200161 0.031359 -0.425403 -2.681131
    43 1.522835 0.058681 0.016848 0.001410 0.008985 0.513078
    44 1.117947 0.048424 -0.005766 0.001267 -0.025174 0.005124
    45 -0.139399 -0.111698 0.014397 0.711942 0.298326 1.601817
    46 -1.393470 8.839177 -0.239433 1.580804 -0.005023 -1.566847
  time 8
    0 -0.999830 1.628925 1.837942 0.000000 0.000000 0.000000
    1 9.072432 2.950063 -8.437868 -0.105171 -1.626090 -0.090526
    2 -0.071918 -8.498730 -0.104136 0.155284 0.322100 0.085199
    3 2.895287 -1.754041 1.313274 0.246376 0.052132 -1.568741
    4 0.000002 0.000000 0.000000 0.000000 0.000000 -0.000001
    5 6.494406 -3.211587 0.000000 -0.000001 0.000000 -1.501248
    6 -0.000002 0.000002 0.000000 0.000000 0.000000 0.000000
    7 13.252653 -1.343314 -0.550791 0.001727 0.030873 -0.025279
    8 5.464948 0.934905 0.501473 -1.570796 0.000000 -1.570796
    9 14.981817 0.785508 0.038393 -1.570797 -1.570796 0.000000
    10 2.962811 -1.683644 0.000000 0.000000 0.000000 -1.570796
    11 1.257180 8.762585 -0.153713 -1.570562 0.002683 -1.566807
    12 -0.488518 -2.755602 -0.228260 -0.871637 -0.202562 -0.209541
    13 0.039887 -1.479790 0.029854 -2.058999 0.000000 0.000001
    14 0.028786 -1.075731 -0.023109 -0.606348 0.000000 0.000000
    15 0.250027 -2.820665 -0.238396 -0.797118 -0.167517 -0.114938
    16 -0.049759 -1.680544 0.100479 -1.934788 0.000000 -0.000002
    17 -0.034142 -1.148312 0.084782 -0.925879 0.000000 0.000000
    18 0.957766 -2.746780 -0.090302 0.005853 -0.162684 0.097910
    19 -0.033420 -1.397129 -0.011257 -0.520985 0.000000 -0.000001
    20 -0.022360 -0.957436 0.018784 -0.975478 0.000000 0.000000
    21 -1.180681 -2.507217 -0.193859 -0.671414 -0.081516 -0.261329
    22 -0.024967 -1.123934 0.017597 -2.056303 0.000000 0.000001
    23 -0.020057 -0.890968 0.010090 -0.677843 0.000000 0.000000
    24 0.583510 -1.197277 0.185379 0.180205 -0.812060 -1.291294
    25 1.535927 0.010246 0.005009 -0.002964 -0.012979 -0.506650
    26 1.100771 0.004527 -0.010679 -0.015488 -0.004784 -1.694062
    27 0.120153 -0.050270 -0.054489 0.287569 3.110905 1.561085
    28 -0.110608 -14.356538 -11.661795 -1.824097 -5.388523 -0.832731
    29 0.096944 -8.450418 -0.009365 0.865107 -1.162221 -0.316568
    30 0.447953 -2.798986 -0.200443 -0.867750 -0.067958 0.142839
    31 -0.032909 -1.480204 0.004940 -1.563671 0.000000 0.000002
    32 -0.027022 -1.076920 -0.020210 0.067112 0.000000 0.000000
    33 -0.249534 -2.846964 -0.174213 -0.411782 -0.046302 0.113811
    34 0.043235 -1.683941 0.096012 -1.755602 0.002823 -0.000167
    35 0.031729 -1.160830 0.058838 -0.271631 0.000642 0.008372
    36 -0.963866 -2.785145 -0.085350 0.029165 0.013044 0.093174
    37 0.028479 -1.403067 0.006271 -1.265374 0.000000 0.000000
    38 0.021413 -0.957781 0.020046 -0.738159 0.000000 0.000000
    39 1.164475 -2.543940 -0.170330 -1.086001 -0.190582 0.231608
    40 0.024032 -1.129042 0.017807 -1.235601 0.000000 0.000001
    41 0.014898 -0.883989 -0.019848 -0.241922 0.000000 0.000000
    42 -0.586770 -1.264477 0.200161 0.031359 -0.425403 -2.681131
    43 1.522835 0.058681 0.016848 0.001410 0.008985 0.513078
    44 1.117947 0.048424 -0.005766 0.001267 -0.025174 0.005124
    45 -0.139399 -0.111698 0.014397 0.712765 0.296480 1.598005
    46 -1.393470 8.839177 -0.239433 1.580804 -0.005023 -1.566847
  time 9
    0 -0.999830 1.628925 1.837942 0.000000 0.000000 0.000000
    1 9.080245 2.797715 -8.598029 -0.098654 -1.630262 -0.097014
    2 -0.071918 -8.498730 -0.104136 0.152048 0.322328 0.052913
    3 2.895287 -1.754041 1.313274 0.246376 0.052132 -1.568741
    4 0.000002 0.000000 0.000000 0.000000 0.000000 -0.000001
    5 6.494406 -3.211587 0.000000 -0.000001 0.000000 -1.501248
    6 -0.000002 0.000002 0.000000 0.000000 0.000000 0.000000
    7 12.869829 -1.069868 -0.410162 0.000456 0.020772 0.004720
    8 5.464948 0.934905 0.501473 -1.570796 0.000000 -1.570796
    9 14.981817 0.785508 0.038393 -1.570797 -1.570796 0.000000
    10 2.962811 -1.683644 0.000000 0.000000 0.000000 -1.570796
    11 1.257180 8.762585 -0.153713 -1.570562 0.002683 -1.566807
    12 -0.488518 -2.755602 -0.228260 -0.871637 -0.202562 -0.209541
    13 0.039887 -1.479790 0.029854 -2.058999 0.000000 0.000001
    14 0.028786 -1.075731 -0.023109 -0.606348 0.000000 0.000000
    15 0.250027 -2.820665 -0.238396 -0.797118 -0.167517 -0.114938
    16 -0.049759 -1.680544 0.100479 -1.934788 0.000000 -0.000002
    17 -0.034142 -1.148312 0.084782 -0.925906 0.000000 0.000000
    18 0.957766 -2.746780 -0.090302 0.005853 -0.162684 0.097910
    19 -0.033420 -1.397129 -0.011257 -0.520985 0.000000 -0.000001
    20 -0.022360 -0.957436 0.018784 -0.975478 0.000000 0.000000
    21 -1.180681 -2.507217 -0.193859 -0.671414 -0.081516 -0.261329
    22 -0.024967 -1.123934 0.017597 -2.056303 0.000000 0.000001
    23 -0.020057 -0.890968 0.010090 -0.677843 0.000000 0.000000
    24 0.583510 -1.197277 0.185379 0.180205 -0.812060 -1.291294
    25 1.535927 0.010246 0.005009 -0.002964 -0.012979 -0.506650
    26 1.100771 0.004527 -0.010679 -0.015488 -0.004784 -1.694062
    27 0.120153 -0.050270 -0.054489 0.287569 3.110905 1.561085
    28 -0.016855 -14.305755 -12.157904 -1.778525 -5.372288 -0.815347
    29 0.096944 -8.450418 -0.009365 0.831384 -1.179676 -0.289949
    30 0.447953 -2.798986 -0.200443 -0.867750 -0.067958 0.142839
    31 -0.032909 -1.480204 0.004940 -1.563671 0.000000 0.000002
    32 -0.027022 -1.076920 -0.020210 0.067112 0.000000 0.000000
    33 -0.249534 -2.846964 -0.174213 -0.411782 -0.046302 0.113811
    34 0.043235 -1.683941 0.096012 -1.755602 0.002823 -0.000167
    35 0.031729 -1.160830 0.058838 -0.271631 0.000642 0.008372
    36 -0.963866 -2.785145 -0.085350 0.029165 0.013044 0.093174
    37 0.028479 -1.403067 0.006271 -1.265374 0.000000 0.000000
    38 0.021413 -0.957781 0.020046 -0.738159 0.000000 0.000000
    39 1.164475 -2.543940 -0.170330 -1.086001 -0.190582 0.231608
    40 0.024032 -1.129042 0.017807 -1.235601 0.000000 0.000001
    41 0.014898 -0.883989 -0.019848 -0.241922 0.000000 0.000000
    42 -0.586770 -1.264477 0.200161 0.031359 -0.425403 -2.681131
    43 1.522835 0.058681 0.016848 0.001410 0.008985 0.513078
    44 1.117947 0.048424 -0.005766 0.001267 -0.025174 0.005124
    45 -0.139399 -0.111698 0.014397 0.714910 0.291603 1.587974
    46 -1.393470 8.839177 -0.239433 1.580804 -0.005023 -1.566847
  time 10
    0 -0.999830 1.628925 1.837942 0.000000 0.000000 0.000000
    1 9.091964 2.700056 -8.711313 -0.102739 -1.631891 -0.092984
    2 -0.071918 -8.498730 -0.104136 0.149399 0.324114 0.024883
    3 2.895287 -1.754041 1.313274 0.246376 0.052132 -1.568741
    4 0.000002 0.000000 0.000000 0.000000 0.000000 -0.000001
    5 6.494406 -3.211587 0.000000 -0.000001 0.000000 -1.501248
    6 -0.000002 0.000002 0.000000 0.000000 0.000000 0.000000
    7 12.549507 -0.796422 -0.332034 -0.000270 0.015532 0.031905
    8 5.464948 0.934905 0.501473 -1.570796 0.000000 -1.570796
    9 14.981817 0.785508 0.038393 -1.570797 -1.570796 0.000000
    10 2.962811 -1.683644 0.000000 0.000000 0.000000 -1.570796
    11 1.257180 8.762585 -0.153713 -1.570562 0.002683 -1.566807
    12 -0.488518 -2.755602 -0.228260 -0.871637 -0.202562 -0.209541
    13 0.039887 -1.479790 0.029854 -2.058999 0.000000 0.000001
    14 0.028786 -1.075731 -0.023109 -0.606348 0.000000 0.000000
    15 0.250027 -2.820665 -0.238396 -0.797118 -0.167517 -0.114938
    16 -0.049759 -1.680544 0.100479 -1.934788 0.000000 -0.000002
    17 -0.034142 -1.148312 0.084782 -0.925906 0.000000 0.000000
    18 0.957766 -2.746780 -0.090302 0.005853 -0.162684 0.097910
    19 -0.033420 -1.397129 -0.011257 -0.520985 0.000000 -0.000001
    20 -0.022360 -0.957436 0.018784 -0.975478 0.000000 0.000000
    21 -1.180681 -2.507217 -0.193859 -0.671414 -0.081516 -0.261329
    22 -0.024967 -1.123934 0.017597 -2.056303 0.000000 0.000001
    23 -0.020057 -0.890968 0.010090 -0.677843 0.000000 0.000000
    24 0.583510 -1.197277 0.185379 0.180205 -0.812060 -1.291294
    25 1.535927 0.010246 0.005009 -0.002964 -0.012979 -0.506650
    26 1.100771 0.004527 -0.010679 -0.015488 -0.004784 -1.694062
    27 0.120153 -0.050270 -0.054489 0.287569 3.110905 1.561085
    28 0.088617 -14.169033 -12.532916 -1.741027 -5.354035 -0.809808
    29 0.096944 -8.450418 -0.009365 0.782074 -1.202342 -0.250087
    30 0.447953 -2.798986 -0.200443 -0.867750 -0.067958 0.142839
    31 -0.032909 -1.480204 0.004940 -1.563671 0.000000 0.000002
    32 -0.027022 -1.076920 -0.020210 0.067112 0.000000 0.000000
    33 -0.249534 -2.846964 -0.174213 -0.411782 -0.046302 0.113811
    34 0.043235 -1.683941 0.096012 -1.755602 0.002823 -0.000167
    35 0.031729 -1.160830 0.058838 -0.271631 0.000642 0.008372
    36 -0.963866 -2.785145 -0.085350 0.029165 0.013044 0.093174
    37 0.028479 -1.403067 0.006271 -1.265374 0.000000 0.000000
    38 0.021413 -0.957781 0.020046 -0.738159 0.000000 0.000000
    39 1.164475 -2.543940 -0.170330 -1.086001 -0.190582 0.231608
    40 0.024032 -1.129042 0.017807 -1.235601 0.000000 0.000001
    41 0.014898 -0.883989 -0.019848 -0.241922 0.000000 0.000000
    42 -0.586770 -1.264477 0.200161 0.031359 -0.425403 -2.681131
    43 1.522835 0.058681 0.016848 0.001410 0.008985 0.513078
    44 1.117947 0.048424 -0.005766 0.001267 -0.025174 0.005124
    45 -0.139399 -0.111698 0.014397 0.717948 0.284711 1.573809
    46 -1.393470 8.839177 -0.239433 1.580804 -0.005023 -1.566847
  time 11
    0 -0.999830 1.628925 1.837942 0.000000 0.000000 0.000000
    1 9.103683 2.645367 -8.793347 -0.115287 -1.631631 -0.080449
    2 -0.071918 -8.498730 -0.104136 0.147158 0.328116 -0.001655
    3 2.895287 -1.754041 1.313274 0.246376 0.052132 -1.568741
    4 0.000002 0.000000 0.000000 0.000000 0.000000 -0.000001
    5 6.494406 -3.211587 0.000000 -0.000001 0.000000 -1.501248
    6 -0.000002 0.000002 0.000000 0.000000 0.000000 0.000000
    7 12.260435 -0.503445 -0.308596 -0.000543 0.014674 0.058909
    8 5.464948 0.934905 0.501473 -1.570796 0.000000 -1.570796
    9 14.981817 0.785508 0.038393 -1.570797 -1.570796 0.000000
    10 2.962811 -1.683644 0.000000 0.000000 0.000000 -1.570796
    11 1.257180 8.762585 -0.153713 -1.570562 0.002683 -1.566807
    12 -0.488518 -2.755602 -0.228260 -0.871637 -0.202562 -0.209541
    13 0.039887 -1.479790 0.029854 -2.058999 0.000000 0.000001
    14 0.028786 -1.075731 -0.023109 -0.606348 0.000000 0.000000
    15 0.250027 -2.820665 -0.238396 -0.797118 -0.167517 -0.114938
    16 -0.049759 -1.680544 0.100479 -1.934788 0.000000 -0.000002
    17 -0.034142 -1.148312 0.084782 -0.925906 0.000000 0.000000
    18 0.957766 -2.746780 -0.090302 0.005853 -0.162684 0.097910
    19 -0.033420 -1.397129 -0.011257 -0.520985 0.000000 -0.000001
    20 -0.022360 -0.957436 0.018784 -0.975478 0.000000 0.000000
    21 -1.180681 -2.507217 -0.193859 -0.671414 -0.081516 -0.261329
    22 -0.024967 -1.123934 0.017597 -2.056303 0.000000 0.000001
    23 -0.020057 -0.890968 0.010090 -0.677843 0.000000 0.000000
    24 0.583510 -1.197277 0.185379 0.180205 -0.812060 -1.291294
    25 1.535927 0.010246 0.005009 -0.002964 -0.012979 -0.506650
    26 1.100771 0.004527 -0.010679 -0.015488 -0.004784 -1.694062
    27 0.120153 -0.050270 -0.054489 0.287569 3.110905 1.561085
    28 0.197995 -13.965901 -12.833706 -1.708886 -5.332205 -0.811240
    29 0.096944 -8.450418 -0.009365 0.718898 -1.227189 -0.197678
    30 0.447953 -2.798986 -0.200443 -0.867750 -0.067958 0.142839
    31 -0.032909 -1.480204 0.004940 -1.563671 0.000000 0.000002
    32 -0.027022 -1.076920 -0.020210 0.067112 0.000000 0.000000
    33 -0.249534 -2.846964 -0.174213 -0.411782 -0.046302 0.113811
    34 0.043235 -1.683941 0.096012 -1.755602 0.002823 -0.000167
    35 0.031729 -1.160830 0.058838 -0.271631 0.000642 0.008372
    36 -0.963866 -2.785145 -0.085350 0.029165 0.013044 0.093174
    37 0.028479 -1.403067 0.006271 -1.265374 0.000000 0.000000
    38 0.021413 -0.957781 0.020046 -0.738159 0.000000 0.000000
    39 1.164475 -2.543940 -0.170330 -1.086001 -0.190582 0.231608
    40 0.024032 -1.129042 0.017807 -1.235601 0.000000 0.000001
    41 0.014898 -0.883989 -0.019848 -0.241922 0.000000 0.000000
    42 -0.586770 -1.264477 0.200161 0.031359 -0.425403 -2.681131
    43 1.522835 0.058681 0.016848 0.001410 0.008985 0.513078
    44 1.117947 0.048424 -0.005766 0.001267 -0.025174 0.005124
    45 -0.139399 -0.111698 0.014397 0.721431 0.276802 1.557558
    46 -1.393470 8.839177 -0.239433 1.580804 -0.005023 -1.566847
  time 12
    0 -0.999830 1.628925 1.837942 0.000000 0.000000 0.000000
    1 9.115402 2.637554 -8.859755 -0.131385 -1.630946 -0.064376
    2 -0.071918 -8.498730 -0.104136 0.145193 0.330849 -0.026457
    3 2.895287 -1.754041 1.313274 0.246376 0.052132 -1.568741
    4 0.000002 0.000000 0.000000 0.000000 0.000000 -0.000001
    5 6.494406 -3.211587 0.000000 -0.000001 0.000000 -1.501248
    6 -0.000002 0.000002 0.000000 0.000000 0.000000 0.000000
    7 11.986989 -0.187029 -0.277345 -0.000543 0.013340 0.084233
    8 5.464948 0.934905 0.501473 -1.570796 0.000000 -1.570796
    9 14.981817 0.785508 0.038393 -1.570797 -1.570796 0.000000
    10 2.962811 -1.683644 0.000000 0.000000 0.000000 -1.570796
    11 1.257180 8.762585 -0.153713 -1.570562 0.002683 -1.566807
    12 -0.488518 -2.755602 -0.228260 -0.871637 -0.202562 -0.209541
    13 0.039887 -1.479790 0.029854 -2.058999 0.000000 0.000001
    14 0.028786 -1.075731 -0.023109 -0.606348 0.000000 0.000000
    15 0.250027 -2.820665 -0.238396 -0.797118 -0.167517 -0.114938
    16 -0.049759 -1.680544 0.100479 -1.934788 0.000000 -0.000002
    17 -0.034142 -1.148312 0.084782 -0.925879 0.000000 0.000000
    18 0.957766 -2.746780 -0.090302 0.005853 -0.162684 0.097910
    19 -0.033420 -1.397129 -0.011257 -0.520985 0.000000 -0.000001
    20 -0.022360 -0.957436 0.018784 -0.975478 0.000000 0.000000
    21 -1.180681 -2.507217 -0.193859 -0.671414 -0.081516 -0.261329
    22 -0.024967 -1.123934 0.017597 -2.056303 0.000000 0.000001
    23 -0.020057 -0.890968 0.010090 -0.677843 0.000000 0.000000
    24 0.583510 -1.197277 0.185379 0.180205 -0.812060 -1.291294
    25 1.535927 0.010246 0.005009 -0.002964 -0.012979 -0.506650
    26 1.100771 0.004527 -0.010679 -0.015488 -0.004784 -1.694062
    27 0.120153 -0.050270 -0.054489 0.287569 3.110905 1.561085
    28 0.315187 -13.715894 -13.099339 -1.678065 -5.311200 -0.813819
    29 0.096944 -8.450418 -0.009365 0.645098 -1.251385 -0.134807
    30 0.447953 -2.798986 -0.200443 -0.867750 -0.067958 0.142839
    31 -0.032909 -1.480204 0.004940 -1.563671 0.000000 0.000002
    32 -0.027022 -1.076920 -0.020210 0.067112 0.000000 0.000000
    33 -0.249534 -2.846964 -0.174213 -0.411782 -0.046302 0.113811
    34 0.043235 -1.683941 0.096012 -1.755602 0.002823 -0.000167
    35 0.031729 -1.160830 0.058838 -0.271631 0.000642 0.008372
    36 -0.963866 -2.785145 -0.085350 0.029165 0.013044 0.093174
    37 0.028479 -1.403067 0.006271 -1.265374 0.000000 0.000000
    38 0.021413 -0.957781 0.020046 -0.738159 0.000000 0.000000
    39 1.164475 -2.543940 -0.170330 -1.086001 -0.190582 0.231608
    40 0.024032 -1.129042 0.017807 -1.235601 0.000000 0.000001
    41 0.014898 -0.883989 -0.019848 -0.241922 0.000000 0.000000
    42 -0.586770 -1.264477 0.200161 0.031359 -0.425403 -2.681131
    43 1.522835 0.058681 0.016848 0.001410 0.008985 0.513078
    44 1.117947 0.048424 -0.005766 0.001267 -0.025174 0.005124
    45 -0.139399 -0.111698 0.014397 0.724915 0.268904 1.541306
    46 -1.393470 8.839177 -0.239433 1.580804 -0.005023 -1.566847
  time 13
    0 -0.999830 1.628925 1.837942 0.000000 0.000000 0.000000
    1 9.131028 2.664898 -8.914445 -0.150791 -1.629936 -0.044960
    2 -0.071918 -8.498730 -0.104136 0.144246 0.329363 -0.039483
    3 2.895287 -1.754041 1.313274 0.246376 0.052132 -1.568741
    4 0.000002 0.000000 0.000000 0.000000 0.000000 -0.000001
    5 6.494406 -3.211587 0.000000 -0.000001 0.000000 -1.501248
    6 -0.000002 0.000002 0.000000 0.000000 0.000000 0.000000
    7 11.815109 0.004383 -0.222656 -0.000815 0.010386 0.097667
    8 5.464948 0.934905 0.501473 -1.570796 0.000000 -1.570796
    9 14.981817 0.785508 0.038393 -1.570797 -1.570796 0.000000
    10 2.962811 -1.683644 0.000000 0.000000 0.000000 -1.570796
    11 1.257180 8.762585 -0.153713 -1.570562 0.002683 -1.566807
    12 -0.488518 -2.755602 -0.228260 -0.871637 -0.202562 -0.209541
    13 0.039887 -1.479790 0.029854 -2.058999 0.000000 0.000001
    14 0.028786 -1.075731 -0.023109 -0.606348 0.000000 0.000000
    15 0.250027 -2.820665 -0.238396 -0.797118 -0.167517 -0.114938
    16 -0.049759 -1.680544 0.100479 -1.934788 0.000000 -0.000002
    17 -0.034142 -1.148312 0.084782 -0.925906 0.000000 0.000000
    18 0.957766 -2.746780 -0.090302 0.005853 -0.162684 0.097910
    19 -0.033420 -1.397129 -0.011257 -0.520985 0.000000 -0.000001
    20 -0.022360 -0.957436 0.018784 -0.975478 0.000000 0.000000
    21 -1.180681 -2.507217 -0.193859 -0.671414 -0.081516 -0.261329
    22 -0.024967 -1.123934 0.017597 -2.056303 0.000000 0.000001
    23 -0.020057 -0.890968 0.010090 -0.677843 0.000000 0.000000
    24 0.583510 -1.197277 0.185379 0.180205 -0.812060 -1.291294
    25 1.535927 0.010246 0.005009 -0.002964 -0.012979 -0.506650
    26 1.100771 0.004527 -0.010679 -0.015488 -0.004784 -1.694062
    27 0.120153 -0.050270 -0.054489 0.287569 3.110905 1.561085
    28 0.436284 -13.485418 -13.263407 -1.659743 -5.299643 -0.824517
    29 0.096944 -8.450418 -0.009365 0.566731 -1.272389 -0.066646
    30 0.447953 -2.798986 -0.200443 -0.867750 -0.067958 0.142839
    31 -0.032909 -1.480204 0.004940 -1.563671 0.000000 0.000002
    32 -0.027022 -1.076920 -0.020210 0.067112 0.000000 0.000000
    33 -0.249534 -2.846964 -0.174213 -0.411782 -0.046302 0.113811
    34 0.043235 -1.683941 0.096012 -1.755602 0.002823 -0.000167
    35 0.031729 -1.160830 0.058838 -0.271631 0.000642 0.008372
    36 -0.963866 -2.785145 -0.085350 0.029165 0.013044 0.093174
    37 0.028479 -1.403067 0.006271 -1.265374 0.000000 0.000000
    38 0.021413 -0.957781 0.020046 -0.738159 0.000000 0.000000
    39 1.164475 -2.543940 -0.170330 -1.086001 -0.190582 0.231608
    40 0.024032 -1.129042 0.017807 -1.235601 0.000000 0.000001
    41 0.014898 -0.883989 -0.019848 -0.241922 0.000000 0.000000
    42 -0.586770 -1.264477 0.200161 0.031359 -0.425403 -2.681131
    43 1.522835 0.058681 0.016848 0.001410 0.008985 0.513078
    44 1.117947 0.048424 -0.005766 0.001267 -0.025174 0.005124
    45 -0.139399 -0.111698 0.014397 0.727952 0.262001 1.527129
    46 -1.393470 8.839177 -0.239433 1.580804 -0.005023 -1.566847
  time 14
    0 -0.999830 1.628925 1.837942 0.000000 0.000000 0.000000
    1 9.146653 2.715681 -8.961321 -0.173358 -1.628665 -0.022447
    2 -0.071918 -8.498730 -0.104136 0.144318 0.323394 -0.041070
    3 2.895287 -1.754041 1.313274 0.246376 0.052132 -1.568741
    4 0.000002 0.000000 0.000000 0.000000 0.000000 -0.000001
    5 6.494406 -3.211587 0.000000 -0.000001 0.000000 -1.501248
    6 -0.000002 0.000002 0.000000 0.000000 0.000000 0.000000
    7 11.740888 0.078604 -0.144529 -0.001269 0.005431 0.099437
    8 5.464948 0.934905 0.501473 -1.570796 0.000000 -1.570796
    9 14.981817 0.785508 0.038393 -1.570797 -1.570796 0.000000
    10 2.962811 -1.683644 0.000000 0.000000 0.000000 -1.570796
    11 1.257180 8.762585 -0.153713 -1.570562 0.002683 -1.566807
    12 -0.488518 -2.755602 -0.228260 -0.871637 -0.202562 -0.209541
    13 0.039887 -1.479790 0.029854 -2.058999 0.000000 0.000001
    14 0.028786 -1.075731 -0.023109 -0.606348 0.000000 0.000000
    15 0.250027 -2.820665 -0.238396 -0.797118 -0.167517 -0.114938
    16 -0.049759 -1.680544 0.100479 -1.934788 0.000000 -0.000002
    17 -0.034142 -1.148312 0.084782 -0.925906 0.000000 0.000000
    18 0.957766 -2.746780 -0.090302 0.005853 -0.162684 0.097910
    19 -0.033420 -1.397129 -0.011257 -0.520985 0.000000 -0.000001
    20 -0.022360 -0.957436 0.018784 -0.975478 0.000000 0.000000
    21 -1.180681 -2.507217 -0.193859 -0.671414 -0.081516 -0.261329
    22 -0.024967 -1.123934 0.017597 -2.056303 0.000000 0.000001
    23 -0.020057 -0.890968 0.010090 -0.677843 0.000000 0.000000
    24 0.583510 -1.197277 0.185379 0.180205 -0.812060 -1.291294
    25 1.535927 0.010246 0.005009 -0.002964 -0.012979 -0.506650
    26 1.100771 0.004527 -0.010679 -0.015488 -0.004784 -1.694062
    27 0.120153 -0.050270 -0.054489 0.287569 3.110905 1.561085
    28 0.549569 -13.305725 -13.345441 -1.652834 -5.298450 -0.839990
    29 0.096944 -8.450418 -0.009365 0.494189 -1.288412 -0.002501
    30 0.447953 -2.798986 -0.200443 -0.867750 -0.067958 0.142839
    31 -0.032909 -1.480204 0.004940 -1.563671 0.000000 0.000002
    32 -0.027022 -1.076920 -0.020210 0.067112 0.000000 0.000000
    33 -0.249534 -2.846964 -0.174213 -0.411782 -0.046302 0.113811
    34 0.043235 -1.683941 0.096012 -1.755602 0.002823 -0.000167
    35 0.031729 -1.160830 0.058838 -0.271631 0.000642 0.008372
    36 -0.963866 -2.785145 -0.085350 0.029165 0.013044 0.093174
    37 0.028479 -1.403067 0.006271 -1.265374 0.000000 0.000000
    38 0.021413 -0.957781 0.020046 -0.738159 0.000000 0.000000
    39 1.164475 -2.543940 -0.170330 -1.086001 -0.190582 0.231608
    40 0.024032 -1.129042 0.017807 -1.235601 0.000000 0.000001
    41 0.014898 -0.883989 -0.019848 -0.241922 0.000000 0.000000
    42 -0.586770 -1.264477 0.200161 0.031359 -0.425403 -2.681131
    43 1.522835 0.058681 0.016848 0.001410 0.008985 0.513078
    44 1.117947 0.048424 -0.005766 0.001267 -0.025174 0.005124
    45 -0.139399 -0.111698 0.014397 0.730097 0.257123 1.517098
    46 -1.393470 8.839177 -0.239433 1.580804 -0.005023 -1.566847
  time 15
    0 -0.999830 1.628925 1.837942 0.000000 0.000000 0.000000
    1 9.162279 2.785996 -9.000385 -0.198648 -1.627198 0.002868
    2 -0.071918 -8.498730 -0.104136 0.144749 0.315353 -0.038830
    3 2.895287 -1.754041 1.313274 0.246376 0.052132 -1.568741
    4 0.000002 0.000000 0.000000 0.000000 0.000000 -0.000001
    5 6.494406 -3.211587 0.000000 -0.000001 0.000000 -1.501248
    6 -0.000002 0.000002 0.000000 0.000000 0.000000 0.000000
    7 11.701825 0.121575 -0.054682 -0.001813 -0.000476 0.097304
    8 5.464948 0.934905 0.501473 -1.570796 0.000000 -1.570796
    9 14.981817 0.785508 0.038393 -1.570797 -1.570796 0.000000
    10 2.962811 -1.683644 0.000000 0.000000 0.000000 -1.570796
    11 1.257180 8.762585 -0.153713 -1.570562 0.002683 -1.566807
    12 -0.488518 -2.755602 -0.228260 -0.871637 -0.202562 -0.209541
    13 0.039887 -1.479790 0.029854 -2.058999 0.000000 0.000001
    14 0.028786 -1.075731 -0.023109 -0.606348 0.000000 0.000000
    15 0.250027 -2.820665 -0.238396 -0.797118 -0.167517 -0.114938
    16 -0.049759 -1.680544 0.100479 -1.934788 0.000000 -0.000002
    17 -0.034142 -1.148312 0.084782 -0.925906 0.000000 0.000000
    18 0.957766 -2.746780 -0.090302 0.005853 -0.162684 0.097910
    19 -0.033420 -1.397129 -0.011257 -0.520985 0.000000 -0.000001
    20 -0.022360 -0.957436 0.018784 -0.975478 0.000000 0.000000
    21 -1.180681 -2.507217 -0.193859 -0.671414 -0.081516 -0.261329
    22 -0.024967 -1.123934 0.017597 -2.056303 0.000000 0.000001
    23 -0.020057 -0.890968 0.010090 -0.677843 0.000000 0.000000
    24 0.583510 -1.197277 0.185379 0.180205 -0.812060 -1.291294
    25 1.535927 0.010246 0.005009 -0.002964 -0.012979 -0.506650
    26 1.100771 0.004527 -0.010679 -0.015488 -0.004784 -1.694062
    27 0.120153 -0.050270 -0.054489 0.287569 3.110905 1.561085
    28 0.643322 -13.165096 -13.407942 -1.648486 -5.301936 -0.850496
    29 0.096944 -8.450418 -0.009365 0.441504 -1.298311 0.044599
    30 0.447953 -2.798986 -0.200443 -0.867750 -0.067958 0.142839
    31 -0.032909 -1.480204 0.004940 -1.563671 0.000000 0.000002
    32 -0.027022 -1.076920 -0.020210 0.067112 0.000000 0.000000
    33 -0.249534 -2.846964 -0.174213 -0.411782 -0.046302 0.113811
    34 0.043235 -1.683941 0.096012 -1.755602 0.002823 -0.000167
    35 0.031729 -1.160830 0.058838 -0.271631 0.000642 0.008372
    36 -0.963866 -2.785145 -0.085350 0.029165 0.013044 0.093174
    37 0.028479 -1.403067 0.006271 -1.265374 0.000000 0.000000
    38 0.021413 -0.957781 0.020046 -0.738159 0.000000 0.000000
    39 1.164475 -2.543940 -0.170330 -1.086001 -0.190582 0.231608
    40 0.024032 -1.129042 0.017807 -1.235601 0.000000 0.000001
    41 0.014898 -0.883989 -0.019848 -0.241922 0.000000 0.000000
    42 -0.586770 -1.264477 0.200161 0.031359 -0.425403 -2.681131
    43 1.522835 0.058681 0.016848 0.001410 0.008985 0.513078
    44 1.117947 0.048424 -0.005766 0.001267 -0.025174 0.005124
    45 -0.139399 -0.111698 0.014397 0.730903 0.255277 1.513298
    46 -1.393470 8.839177 -0.239433 1.580804 -0.005023 -1.566847
  time 16
    0 -0.999830 1.628925 1.837942 0.000000 0.000000 0.000000
    1 9.177904 2.860217 -9.031636 -0.226467 -1.625601 0.030640
    2 -0.071918 -8.498730 -0.104136 0.145396 0.306256 -0.033661
    3 2.895287 -1.754041 1.313274 0.246376 0.052132 -1.568741
    4 0.000002 0.000000 0.000000 0.000000 0.000000 -0.000001
    5 6.494406 -3.211587 0.000000 -0.000001 0.000000 -1.501248
    6 -0.000002 0.000002 0.000000 0.000000 0.000000 0.000000
    7 11.694012 0.133294 0.035164 -0.002267 -0.006765 0.092176
    8 5.464948 0.934905 0.501473 -1.570796 0.000000 -1.570796
    9 14.981817 0.785508 0.038393 -1.570797 -1.570796 0.000000
    10 2.962811 -1.683644 0.000000 0.000000 0.000000 -1.570796
    11 1.257180 8.762585 -0.153713 -1.570562 0.002683 -1.566807
    12 -0.488518 -2.755602 -0.228260 -0.871637 -0.202562 -0.209541
    13 0.039887 -1.479790 0.029854 -2.058999 0.000000 0.000001
    14 0.028786 -1.075731 -0.023109 -0.606348 0.000000 0.000000
    15 0.250027 -2.820665 -0.238396 -0.797118 -0.167517 -0.114938
    16 -0.049759 -1.680544 0.100479 -1.934788 0.000000 -0.000002
    17 -0.034142 -1.148312 0.084782 -0.925906 0.000000 0.000000
    18 0.957766 -2.746780 -0.090302 0.005853 -0.162684 0.097910
    19 -0.033420 -1.397129 -0.011257 -0.520985 0.000000 -0.000001
    20 -0.022360 -0.957436 0.018784 -0.975478 0.000000 0.000000
    21 -1.180681 -2.507217 -0.193859 -0.671414 -0.081516 -0.261329
    22 -0.024967 -1.123934 0.017597 -2.056303 0.000000 0.000001
    23 -0.020057 -0.890968 0.010090 -0.677843 0.000000 0.000000
    24 0.583510 -1.197277 0.185379 0.180205 -0.812060 -1.291294
    25 1.535927 0.010246 0.005009 -0.002964 -0.012979 -0.506650
    26 1.100771 0.004527 -0.010679 -0.015488 -0.004784 -1.694062
    27 0.120153 -0.050270 -0.054489 0.287569 3.110905 1.561085
    28 0.713636 -13.067436 -13.447006 -1.646545 -5.308723 -0.856514
    29 0.096944 -8.450418 -0.009365 0.411289 -1.303424 0.071779
    30 0.447953 -2.798986 -0.200443 -0.867750 -0.067958 0.142839
    31 -0.032909 -1.480204 0.004940 -1.563671 0.000000 0.000002
    32 -0.027022 -1.076920 -0.020210 0.067112 0.000000 0.000000
    33 -0.249534 -2.846964 -0.174213 -0.411782 -0.046302 0.113811
    34 0.043235 -1.683941 0.096012 -1.755602 0.002823 -0.000167
    35 0.031729 -1.160830 0.058838 -0.271631 0.000642 0.008372
    36 -0.963866 -2.785145 -0.085350 0.029165 0.013044 0.093174
    37 0.028479 -1.403067 0.006271 -1.265374 0.000000 0.000000
    38 0.021413 -0.957781 0.020046 -0.738159 0.000000 0.000000
    39 1.164475 -2.543940 -0.170330 -1.086001 -0.190582 0.231608
    40 0.024032 -1.129042 0.017807 -1.235601 0.000000 0.000001
    41 0.014898 -0.883989 -0.019848 -0.241922 0.000000 0.000000
    42 -0.586770 -1.264477 0.200161 0.031359 -0.425403 -2.681131
    43 1.522835 0.058681 0.016848 0.001410 0.008985 0.513078
    44 1.117947 0.048424 -0.005766 0.001267 -0.025174 0.005124
    45 -0.139399 -0.111698 0.014397 0.730903 0.255277 1.513298
    46 -1.393470 8.839177 -0.239433 1.580804 -0.005023 -1.566847
  time 17
    0 -0.999830 1.628925 1.837942 0.000000 0.000000 0.000000
    1 9.193529 2.934438 -9.062887 -0.256281 -1.623907 0.060428
    2 -0.071918 -8.498730 -0.104136 0.146103 0.297148 -0.026439
    3 2.895287 -1.754041 1.313274 0.246376 0.052132 -1.568741
    4 0.000002 0.000000 0.000000 0.000000 0.000000 -0.000001
    5 6.494406 -3.211587 0.000000 -0.000001 0.000000 -1.501248
    6 -0.000002 0.000002 0.000000 0.000000 0.000000 0.000000
    7 11.709637 0.117668 0.121104 -0.002630 -0.012578 0.085050
    8 5.464948 0.934905 0.501473 -1.570796 0.000000 -1.570796
    9 14.981817 0.785508 0.038393 -1.570797 -1.570796 0.000000
    10 2.962811 -1.683644 0.000000 0.000000 0.000000 -1.570796
    11 1.257180 8.762585 -0.153713 -1.570562 0.002683 -1.566807
    12 -0.488518 -2.755602 -0.228260 -0.871637 -0.202562 -0.209541
    13 0.039887 -1.479790 0.029854 -2.058999 0.000000 0.000001
    14 0.028786 -1.075731 -0.023109 -0.606348 0.000000 0.000000
    15 0.250027 -2.820665 -0.238396 -0.797118 -0.167517 -0.114938
    16 -0.049759 -1.680544 0.100479 -1.934788 0.000000 -0.000002
    17 -0.034142 -1.148312 0.084782 -0.925879 0.000000 0.000000
    18 0.957766 -2.746780 -0.090302 0.005853 -0.162684 0.097910
    19 -0.033420 -1.397129 -0.011257 -0.520985 0.000000 -0.000001
    20 -0.022360 -0.957436 0.018784 -0.975478 0.000000 0.000000
    21 -1.180681 -2.507217 -0.193859 -0.671414 -0.081516 -0.261329
    22 -0.024967 -1.123934 0.017597 -2.056303 0.000000 0.000001
    23 -0.020057 -0.890968 0.010090 -0.677843 0.000000 0.000000
    24 0.583510 -1.197277 0.185379 0.180205 -0.812060 -1.291294
    25 1.535927 0.010246 0.005009 -0.002964 -0.012979 -0.506650
    26 1.100771 0.004527 -0.010679 -0.015488 -0.004784 -1.694062
    27 0.120153 -0.050270 -0.054489 0.287569 3.110905 1.561085
    28 0.764419 -13.001028 -13.466538 -1.647167 -5.317345 -0.861194
    29 0.096944 -8.450418 -0.009365 0.394808 -1.306029 0.086642
    30 0.447953 -2.798986 -0.200443 -0.867750 -0.067958 0.142839
    31 -0.032909 -1.480204 0.004940 -1.563671 0.000000 0.000002
    32 -0.027022 -1.076920 -0.020210 0.067112 0.000000 0.000000
    33 -0.249534 -2.846964 -0.174213 -0.411782 -0.046302 0.113811
    34 0.043235 -1.683941 0.096012 -1.755602 0.002823 -0.000167
    35 0.031729 -1.160830 0.058838 -0.271631 0.000642 0.008372
    36 -0.963866 -2.785145 -0.085350 0.029165 0.013044 0.093174
    37 0.028479 -1.403067 0.006271 -1.265374 0.000000 0.000000
    38 0.021413 -0.957781 0.020046 -0.738159 0.000000 0.000000
    39 1.164475 -2.543940 -0.170330 -1.086001 -0.190582 0.231608
    40 0.024032 -1.129042 0.017807 -1.235601 0.000000 0.000001
    41 0.014898 -0.883989 -0.019848 -0.241922 0.000000 0.000000
    42 -0.586770 -1.264477 0.200161 0.031359 -0.425403 -2.681131
    43 1.522835 0.058681 0.016848 0.001410 0.008985 0.513078
    44 1.117947 0.048424 -0.005766 0.001267 -0.025174 0.005124
    45 -0.139399 -0.111698 0.014397 0.730903 0.255277 1.513298
    46 -1.393470 8.839177 -0.239433 1.580804 -0.005023 -1.566847
  time 18
    0 -0.999830 1.628925 1.837942 0.000000 0.000000 0.000000
    1 9.205249 2.996940 -9.090231 -0.287456 -1.622212 0.091592
    2 -0.071918 -8.498730 -0.104136 0.146787 0.289059 -0.018078
    3 2.895287 -1.754041 1.313274 0.246376 0.052132 -1.568741
    4 0.000002 0.000000 0.000000 0.000000 0.000000 -0.000001
    5 6.494406 -3.211587 0.000000 -0.000001 0.000000 -1.501248
    6 -0.000002 0.000002 0.000000 0.000000 0.000000 0.000000
    7 11.736982 0.078604 0.191419 -0.002903 -0.017151 0.076972
    8 5.464948 0.934905 0.501473 -1.570796 0.000000 -1.570796
    9 14.981817 0.785508 0.038393 -1.570797 -1.570796 0.000000
    10 2.962811 -1.683644 0.000000 0.000000 0.000000 -1.570796
    11 1.257180 8.762585 -0.153713 -1.570562 0.002683 -1.566807
    12 -0.488518 -2.755602 -0.228260 -0.871637 -0.202562 -0.209541
    13 0.039887 -1.479790 0.029854 -2.058999 0.000000 0.000001
    14 0.028786 -1.075731 -0.023109 -0.606348 0.000000 0.000000
    15 0.250027 -2.820665 -0.238396 -0.797118 -0.167517 -0.114938
    16 -0.049759 -1.680544 0.100479 -1.934788 0.000000 -0.000002
    17 -0.034142 -1.148312 0.084782 -0.925906 0.000000 0.000000
    18 0.957766 -2.746780 -0.090302 0.005853 -0.162684 0.097910
    19 -0.033420 -1.397129 -0.011257 -0.520985 0.000000 -0.000001
    20 -0.022360 -0.957436 0.018784 -0.975478 0.000000 0.000000
    21 -1.180681 -2.507217 -0.193859 -0.671414 -0.081516 -0.261329
    22 -0.024967 -1.123934 0.017597 -2.056303 0.000000 0.000001
    23 -0.020057 -0.890968 0.010090 -0.677843 0.000000 0.000000
    24 0.583510 -1.197277 0.185379 0.180205 -0.812060 -1.291294
    25 1.535927 0.010246 0.005009 -0.002964 -0.012979 -0.506650
    26 1.100771 0.004527 -0.010679 -0.015488 -0.004784 -1.694062
    27 0.120153 -0.050270 -0.054489 0.287569 3.110905 1.561085
    28 0.799576 -12.965871 -13.474351 -1.650427 -5.326243 -0.865014
    29 0.096944 -8.450418 -0.009365 0.389910 -1.306778 0.091082
    30 0.447953 -2.798986 -0.200443 -0.867750 -0.067958 0.142839
    31 -0.032909 -1.480204 0.004940 -1.563671 0.000000 0.000002
    32 -0.027022 -1.076920 -0.020210 0.067112 0.000000 0.000000
    33 -0.249534 -2.846964 -0.174213 -0.411782 -0.046302 0.113811
    34 0.043235 -1.683941 0.096012 -1.755602 0.002823 -0.000167
    35 0.031729 -1.160830 0.058838 -0.271631 0.000642 0.008372
    36 -0.963866 -2.785145 -0.085350 0.029165 0.013044 0.093174
    37 0.028479 -1.403067 0.006271 -1.265374 0.000000 0.000000
    38 0.021413 -0.957781 0.020046 -0.738159 0.000000 0.000000
    39 1.164475 -2.543940 -0.170330 -1.086001 -0.190582 0.231608
    40 0.024032 -1.129042 0.017807 -1.235601 0.000000 0.000001
    41 0.014898 -0.883989 -0.019848 -0.241922 0.000000 0.000000
    42 -0.586770 -1.264477 0.200161 0.031359 -0.425403 -2.681131
    43 1.522835 0.058681 0.016848 0.001410 0.008985 0.513078
    44 1.117947 0.048424 -0.005766 0.001267 -0.025174 0.005124
    45 -0.139399 -0.111698 0.014397 0.730903 0.255277 1.513298
    46 -1.393470 8.839177 -0.239433 1.580804 -0.005023 -1.566847
  time 19
    0 -0.999830 1.628925 1.837942 0.000000 0.000000 0.000000
    1 9.213061 3.032097 -9.113669 -0.319264 -1.620550 0.123345
    2 -0.071918 -8.498730 -0.104136 0.147338 0.283042 -0.009400
    3 2.895287 -1.754041 1.313274 0.246376 0.052132 -1.568741
    4 0.000002 0.000000 0.000000 0.000000 0.000000 -0.000001
    5 6.494406 -3.211587 0.000000 -0.000001 0.000000 -1.501248
    6 -0.000002 0.000002 0.000000 0.000000 0.000000 0.000000
    7 11.764326 0.016103 0.230483 -0.002903 -0.019629 0.068848
    8 5.464948 0.934905 0.501473 -1.570796 0.000000 -1.570796
    9 14.981817 0.785508 0.038393 -1.570797 -1.570796 0.000000
    10 2.962811 -1.683644 0.000000 0.000000 0.000000 -1.570796
    11 1.257180 8.762585 -0.153713 -1.570562 0.002683 -1.566807
    12 -0.488518 -2.755602 -0.228260 -0.871637 -0.202562 -0.209541
    13 0.039887 -1.479790 0.029854 -2.058999 0.000000 0.000001
    14 0.028786 -1.075731 -0.023109 -0.606348 0.000000 0.000000
    15 0.250027 -2.820665 -0.238396 -0.797118 -0.167517 -0.114938
    16 -0.049759 -1.680544 0.100479 -1.934788 0.000000 -0.000002
    17 -0.034142 -1.148312 0.084782 -0.925906 0.000000 0.000000
    18 0.957766 -2.746780 -0.090302 0.005853 -0.162684 0.097910
    19 -0.033420 -1.397129 -0.011257 -0.520985 0.000000 -0.000001
    20 -0.022360 -0.957436 0.018784 -0.975478 0.000000 0.000000
    21 -1.180681 -2.507217 -0.193859 -0.671414 -0.081516 -0.261329
    22 -0.024967 -1.123934 0.017597 -2.056303 0.000000 0.000001
    23 -0.020057 -0.890968 0.010090 -0.677843 0.000000 0.000000
    24 0.583510 -1.197277 0.185379 0.180205 -0.812060 -1.291294
    25 1.535927 0.010246 0.005009 -0.002964 -0.012979 -0.506650
    26 1.100771 0.004527 -0.010679 -0.015488 -0.004784 -1.694062
    27 0.120153 -0.050270 -0.054489 0.287569 3.110905 1.561085
    28 0.819108 -12.965871 -13.462632 -1.656250 -5.334131 -0.868835
    29 0.096944 -8.450418 -0.009365 0.393815 -1.306160 0.087530
    30 0.447953 -2.798986 -0.200443 -0.867750 -0.067958 0.142839
    31 -0.032909 -1.480204 0.004940 -1.563671 0.000000 0.000002
    32 -0.027022 -1.076920 -0.020210 0.067112 0.000000 0.000000
    33 -0.249534 -2.846964 -0.174213 -0.411782 -0.046302 0.113811
    34 0.043235 -1.683941 0.096012 -1.755602 0.002823 -0.000167
    35 0.031729 -1.160830 0.058838 -0.271631 0.000642 0.008372
    36 -0.963866 -2.785145 -0.085350 0.029165 0.013044 0.093174
    37 0.028479 -1.403067 0.006271 -1.265374 0.000000 0.000000
    38 0.021413 -0.957781 0.020046 -0.738159 0.000000 0.000000
    39 1.164475 -2.543940 -0.170330 -1.086001 -0.190582 0.231608
    40 0.024032 -1.129042 0.017807 -1.235601 0.000000 0.000001
    41 0.014898 -0.883989 -0.019848 -0.241922 0.000000 0.000000
    42 -0.586770 -1.264477 0.200161 0.031359 -0.425403 -2.681131
    43 1.522835 0.058681 0.016848 0.001410 0.008985 0.513078
    44 1.117947 0.048424 -0.005766 0.001267 -0.025174 0.005124
    45 -0.139399 -0.111698 0.014397 0.730903 0.255277 1.513298
    46 -1.393470 8.839177 -0.239433 1.580804 -0.005023 -1.566847
  time 20
    0 -0.999830 1.628925 1.837942 0.000000 0.000000 0.000000
    1 9.216968 3.043816 -9.125389 -0.350536 -1.618953 0.154657
    2 -0.071918 -8.498730 -0.104136 0.147877 0.279531 0.001816
    3 2.895287 -1.754041 1.313274 0.246376 0.052132 -1.568741
    4 0.000002 0.000000 0.000000 0.000000 0.000000 -0.000001
    5 6.494406 -3.211587 0.000000 -0.000001 0.000000 -1.501248
    6 -0.000002 0.000002 0.000000 0.000000 0.000000 0.000000
    7 11.826828 -0.097182 0.230483 -0.002721 -0.019152 0.058591
    8 5.464948 0.934905 0.501473 -1.570796 0.000000 -1.570796
    9 14.981817 0.785508 0.038393 -1.570797 -1.570796 0.000000
    10 2.962811 -1.683644 0.000000 0.000000 0.000000 -1.570796
    11 1.257180 8.762585 -0.153713 -1.570562 0.002683 -1.566807
    12 -0.488518 -2.755602 -0.228260 -0.871637 -0.202562 -0.209541
    13 0.039887 -1.479790 0.029854 -2.058999 0.000000 0.000001
    14 0.028786 -1.075731 -0.023109 -0.606348 0.000000 0.000000
    15 0.250027 -2.820665 -0.238396 -0.797118 -0.167517 -0.114938
    16 -0.049759 -1.680544 0.100479 -1.934788 0.000000 -0.000002
    17 -0.034142 -1.148312 0.084782 -0.925879 0.000000 0.000000
    18 0.957766 -2.746780 -0.090302 0.005853 -0.162684 0.097910
    19 -0.033420 -1.397129 -0.011257 -0.520985 0.000000 -0.000001
    20 -0.022360 -0.957436 0.018784 -0.975478 0.000000 0.000000
    21 -1.180681 -2.507217 -0.193859 -0.671414 -0.081516 -0.261329
    22 -0.024967 -1.123934 0.017597 -2.056303 0.000000 0.000001
    23 -0.020057 -0.890968 0.010090 -0.677843 0.000000 0.000000
    24 0.583510 -1.197277 0.185379 0.180205 -0.812060 -1.291294
    25 1.535927 0.010246 0.005009 -0.002964 -0.012979 -0.506650
    26 1.100771 0.004527 -0.010679 -0.015488 -0.004784 -1.694062
    27 0.120153 -0.050270 -0.054489 0.287569 3.110905 1.561085
    28 0.811295 -13.008841 -13.407942 -1.668128 -5.342019 -0.876189
    29 0.096944 -8.450418 -0.009365 0.403578 -1.304662 0.078728
    30 0.447953 -2.798986 -0.200443 -0.867750 -0.067958 0.142839
    31 -0.032909 -1.480204 0.004940 -1.563671 0.000000 0.000002
    32 -0.027022 -1.076920 -0.020210 0.067112 0.000000 0.000000
    33 -0.249534 -2.846964 -0.174213 -0.411782 -0.046302 0.113811
    34 0.043235 -1.683941 0.096012 -1.755602 0.002823 -0.000167
    35 0.031729 -1.160830 0.058838 -0.271631 0.000642 0.008372
    36 -0.963866 -2.785145 -0.085350 0.029165 0.013044 0.093174
    37 0.028479 -1.403067 0.006271 -1.265374 0.000000 0.000000
    38 0.021413 -0.957781 0.020046 -0.738159 0.000000 0.000000
    39 1.164475 -2.543940 -0.170330 -1.086001 -0.190582 0.231608
    40 0.024032 -1.129042 0.017807 -1.235601 0.000000 0.000001
    41 0.014898 -0.883989 -0.019848 -0.241922 0.000000 0.000000
    42 -0.586770 -1.264477 0.200161 0.031359 -0.425403 -2.681131
    43 1.522835 0.058681 0.016848 0.001410 0.008985 0.513078
    44 1.117947 0.048424 -0.005766 0.001267 -0.025174 0.005124
    45 -0.139399 -0.111698 0.014397 0.730903 0.255277 1.513298
    46 -1.393470 8.839177 -0.239433 1.580804 -0.005023 -1.566847
  time 21
    0 -0.999830 1.628925 1.837942 0.000000 0.000000 0.000000
    1 9.216968 3.047723 -9.121482 -0.380009 -1.617454 0.184100
    2 -0.071918 -8.498730 -0.104136 0.148488 0.277925 0.016541
    3 2.895287 -1.754041 1.313274 0.246376 0.052132 -1.568741
    4 0.000002 0.000000 0.000000 0.000000 0.000000 -0.000001
    5 6.494406 -3.211587 0.000000 -0.000001 0.000000 -1.501248
    6 -0.000002 0.000002 0.000000 0.000000 0.000000 0.000000
    7 11.936207 -0.261250 0.199232 -0.002358 -0.016199 0.045112
    8 5.464948 0.934905 0.501473 -1.570796 0.000000 -1.570796
    9 14.981817 0.785508 0.038393 -1.570797 -1.570796 0.000000
    10 2.962811 -1.683644 0.000000 0.000000 0.000000 -1.570796
    11 1.257180 8.762585 -0.153713 -1.570562 0.002683 -1.566807
    12 -0.488518 -2.755602 -0.228260 -0.871637 -0.202562 -0.209541
    13 0.039887 -1.479790 0.029854 -2.058999 0.000000 0.000001
    14 0.028786 -1.075731 -0.023109 -0.606348 0.000000 0.000000
    15 0.250027 -2.820665 -0.238396 -0.797118 -0.167517 -0.114938
    16 -0.049759 -1.680544 0.100479 -1.934788 0.000000 -0.000002
    17 -0.034142 -1.148312 0.084782 -0.925879 0.000000 0.000000
    18 0.957766 -2.746780 -0.090302 0.005853 -0.162684 0.097910
    19 -0.033420 -1.397129 -0.011257 -0.520985 0.000000 -0.000001
    20 -0.022360 -0.957436 0.018784 -0.975478 0.000000 0.000000
    21 -1.180681 -2.507217 -0.193859 -0.671414 -0.081516 -0.261329
    22 -0.024967 -1.123934 0.017597 -2.056303 0.000000 0.000001
    23 -0.020057 -0.890968 0.010090 -0.677843 0.000000 0.000000
    24 0.583510 -1.197277 0.185379 0.180205 -0.812060 -1.291294
    25 1.535927 0.010246 0.005009 -0.002964 -0.012979 -0.506650
    26 1.100771 0.004527 -0.010679 -0.015488 -0.004784 -1.694062
    27 0.120153 -0.050270 -0.054489 0.287569 3.110905 1.561085
    28 0.787857 -13.075249 -13.286845 -1.686450 -5.351008 -0.887842
    29 0.096944 -8.450418 -0.009365 0.416087 -1.302643 0.067455
    30 0.447953 -2.798986 -0.200443 -0.867750 -0.067958 0.142839
    31 -0.032909 -1.480204 0.004940 -1.563671 0.000000 0.000002
    32 -0.027022 -1.076920 -0.020210 0.067112 0.000000 0.000000
    33 -0.249534 -2.846964 -0.174213 -0.411782 -0.046302 0.113811
    34 0.043235 -1.683941 0.096012 -1.755602 0.002823 -0.000167
    35 0.031729 -1.160830 0.058838 -0.271631 0.000642 0.008372
    36 -0.963866 -2.785145 -0.085350 0.029165 0.013044 0.093174
    37 0.028479 -1.403067 0.006271 -1.265374 0.000000 0.000000
    38 0.021413 -0.957781 0.020046 -0.738159 0.000000 0.000000
    39 1.164475 -2.543940 -0.170330 -1.086001 -0.190582 0.231608
    40 0.024032 -1.129042 0.017807 -1.235601 0.000000 0.000001
    41 0.014898 -0.883989 -0.019848 -0.241922 0.000000 0.000000
    42 -0.586770 -1.264477 0.200161 0.031359 -0.425403 -2.681131
    43 1.522835 0.058681 0.016848 0.001410 0.008985 0.513078
    44 1.117947 0.048424 -0.005766 0.001267 -0.025174 0.005124
    45 -0.139399 -0.111698 0.014397 0.730903 0.255277 1.513298
    46 -1.393470 8.839177 -0.239433 1.580804 -0.005023 -1.566847
  time 22
    0 -0.999830 1.628925 1.837942 0.000000 0.000000 0.000000
    1 9.216968 3.039910 -9.109763 -0.406126 -1.616117 0.210251
    2 -0.071918 -8.498730 -0.104136 0.149124 0.277565 0.032086
    3 2.895287 -1.754041 1.313274 0.246376 0.052132 -1.568741
    4 0.000002 0.000000 0.000000 0.000000 0.000000 -0.000001
    5 6.494406 -3.211587 0.000000 -0.000001 0.000000 -1.501248
    6 -0.000002 0.000002 0.000000 0.000000 0.000000 0.000000
    7 12.061211 -0.448755 0.144543 -0.001904 -0.012006 0.030861
    8 5.464948 0.934905 0.501473 -1.570796 0.000000 -1.570796
    9 14.981817 0.785508 0.038393 -1.570797 -1.570796 0.000000
    10 2.962811 -1.683644 0.000000 0.000000 0.000000 -1.570796
    11 1.257180 8.762585 -0.153713 -1.570562 0.002683 -1.566807
    12 -0.488518 -2.755602 -0.228260 -0.871637 -0.202562 -0.209541
    13 0.039887 -1.479790 0.029854 -2.058999 0.000000 0.000001
    14 0.028786 -1.075731 -0.023109 -0.606348 0.000000 0.000000
    15 0.250027 -2.820665 -0.238396 -0.797118 -0.167517 -0.114938
    16 -0.049759 -1.680544 0.100479 -1.934788 0.000000 -0.000002
    17 -0.034142 -1.148312 0.084782 -0.925906 0.000000 0.000000
    18 0.957766 -2.746780 -0.090302 0.005853 -0.162684 0.097910
    19 -0.033420 -1.397129 -0.011257 -0.520985 0.000000 -0.000001
    20 -0.022360 -0.957436 0.018784 -0.975478 0.000000 0.000000
    21 -1.180681 -2.507217 -0.193859 -0.671414 -0.081516 -0.261329
    22 -0.024967 -1.123934 0.017597 -2.056303 0.000000 0.000001
    23 -0.020057 -0.890968 0.010090 -0.677843 0.000000 0.000000
    24 0.583510 -1.197277 0.185379 0.180205 -0.812060 -1.291294
    25 1.535927 0.010246 0.005009 -0.002964 -0.012979 -0.506650
    26 1.100771 0.004527 -0.010679 -0.015488 -0.004784 -1.694062
    27 0.120153 -0.050270 -0.054489 0.287569 3.110905 1.561085
    28 0.760513 -13.153377 -13.138403 -1.706790 -5.359813 -0.901118
    29 0.096944 -8.450418 -0.009365 0.428398 -1.300558 0.056355
    30 0.447953 -2.798986 -0.200443 -0.867750 -0.067958 0.142839
    31 -0.032909 -1.480204 0.004940 -1.563671 0.000000 0.000002
    32 -0.027022 -1.076920 -0.020210 0.067112 0.000000 0.000000
    33 -0.249534 -2.846964 -0.174213 -0.411782 -0.046302 0.113811
    34 0.043235 -1.683941 0.096012 -1.755602 0.002823 -0.000167
    35 0.031729 -1.160830 0.058838 -0.271631 0.000642 0.008372
    36 -0.963866 -2.785145 -0.085350 0.029165 0.013044 0.093174
    37 0.028479 -1.403067 0.006271 -1.265374 0.000000 0.000000
    38 0.021413 -0.957781 0.020046 -0.738159 0.000000 0.000000
    39 1.164475 -2.543940 -0.170330 -1.086001 -0.190582 0.231608
    40 0.024032 -1.129042 0.017807 -1.235601 0.000000 0.000001
    41 0.014898 -0.883989 -0.019848 -0.241922 0.000000 0.000000
    42 -0.586770 -1.264477 0.200161 0.031359 -0.425403 -2.681131
    43 1.522835 0.058681 0.016848 0.001410 0.008985 0.513078
    44 1.117947 0.048424 -0.005766 0.001267 -0.025174 0.005124
    45 -0.139399 -0.111698 0.014397 0.730903 0.255277 1.513298
    46 -1.393470 8.839177 -0.239433 1.580804 -0.005023 -1.566847
  time 23
    0 -0.999830 1.628925 1.837942 0.000000 0.000000 0.000000
    1 9.213061 3.032097 -9.090231 -0.427088 -1.614944 0.231141
    2 -0.071918 -8.498730 -0.104136 0.149699 0.277817 0.045710
    3 2.895287 -1.754041 1.313274 0.246376 0.052132 -1.568741
    4 0.000002 0.000000 0.000000 0.000000 0.000000 -0.000001
    5 6.494406 -3.211587 0.000000 -0.000001 0.000000 -1.501248
    6 -0.000002 0.000002 0.000000 0.000000 0.000000 0.000000
    7 12.170589 -0.616729 0.089853 -0.001450 -0.007813 0.018335
    8 5.464948 0.934905 0.501473 -1.570796 0.000000 -1.570796
    9 14.981817 0.785508 0.038393 -1.570797 -1.570796 0.000000
    10 2.962811 -1.683644 0.000000 0.000000 0.000000 -1.570796
    11 1.257180 8.762585 -0.153713 -1.570562 0.002683 -1.566807
    12 -0.488518 -2.755602 -0.228260 -0.871637 -0.202562 -0.209541
    13 0.039887 -1.479790 0.029854 -2.058999 0.000000 0.000001
    14 0.028786 -1.075731 -0.023109 -0.606348 0.000000 0.000000
    15 0.250027 -2.820665 -0.238396 -0.797118 -0.167517 -0.114938
    16 -0.049759 -1.680544 0.100479 -1.934788 0.000000 -0.000002
    17 -0.034142 -1.148312 0.084782 -0.925906 0.000000 0.000000
    18 0.957766 -2.746780 -0.090302 0.005853 -0.162684 0.097910
    19 -0.033420 -1.397129 -0.011257 -0.520985 0.000000 -0.000001
    20 -0.022360 -0.957436 0.018784 -0.975478 0.000000 0.000000
    21 -1.180681 -2.507217 -0.193859 -0.671414 -0.081516 -0.261329
    22 -0.024967 -1.123934 0.017597 -2.056303 0.000000 0.000001
    23 -0.020057 -0.890968 0.010090 -0.677843 0.000000 0.000000
    24 0.583510 -1.197277 0.185379 0.180205 -0.812060 -1.291294
    25 1.535927 0.010246 0.005009 -0.002964 -0.012979 -0.506650
    26 1.100771 0.004527 -0.010679 -0.015488 -0.004784 -1.694062
    27 0.120153 -0.050270 -0.054489 0.287569 3.110905 1.561085
    28 0.733168 -13.223691 -12.997774 -1.725034 -5.367335 -0.913249
    29 0.096944 -8.450418 -0.009365 0.437764 -1.298963 0.047939
    30 0.447953 -2.798986 -0.200443 -0.867750 -0.067958 0.142839
    31 -0.032909 -1.480204 0.004940 -1.563671 0.000000 0.000002
    32 -0.027022 -1.076920 -0.020210 0.067112 0.000000 0.000000
    33 -0.249534 -2.846964 -0.174213 -0.411782 -0.046302 0.113811
    34 0.043235 -1.683941 0.096012 -1.755602 0.002823 -0.000167
    35 0.031729 -1.160830 0.058838 -0.271631 0.000642 0.008372
    36 -0.963866 -2.785145 -0.085350 0.029165 0.013044 0.093174
    37 0.028479 -1.403067 0.006271 -1.265374 0.000000 0.000000
    38 0.021413 -0.957781 0.020046 -0.738159 0.000000 0.000000
    39 1.164475 -2.543940 -0.170330 -1.086001 -0.190582 0.231608
    40 0.024032 -1.129042 0.017807 -1.235601 0.000000 0.000001
    41 0.014898 -0.883989 -0.019848 -0.241922 0.000000 0.000000
    42 -0.586770 -1.264477 0.200161 0.031359 -0.425403 -2.681131
    43 1.522835 0.058681 0.016848 0.001410 0.008985 0.513078
    44 1.117947 0.048424 -0.005766 0.001267 -0.025174 0.005124
    45 -0.139399 -0.111698 0.014397 0.730903 0.255277 1.513298
    46 -1.393470 8.839177 -0.239433 1.580804 -0.005023 -1.566847
  time 24
    0 -0.999830 1.628925 1.837942 0.000000 0.000000 0.000000
    1 9.213061 3.032097 -9.086325 -0.440901 -1.613966 0.244954
    2 -0.071918 -8.498730 -0.104136 0.150130 0.278057 0.054649
    3 2.895287 -1.754041 1.313274 0.246376 0.052132 -1.568741
    4 0.000002 0.000000 0.000000 0.000000 0.000000 -0.000001
    5 6.494406 -3.211587 0.000000 -0.000001 0.000000 -1.501248
    6 -0.000002 0.000002 0.000000 0.000000 0.000000 0.000000
    7 12.240903 -0.726108 0.050790 -0.001087 -0.004764 0.010075
    8 5.464948 0.934905 0.501473 -1.570796 0.000000 -1.570796
    9 14.981817 0.785508 0.038393 -1.570797 -1.570796 0.000000
    10 2.962811 -1.683644 0.000000 0.000000 0.000000 -1.570796
    11 1.257180 8.762585 -0.153713 -1.570562 0.002683 -1.566807
    12 -0.488518 -2.755602 -0.228260 -0.871637 -0.202562 -0.209541
    13 0.039887 -1.479790 0.029854 -2.058999 0.000000 0.000001
    14 0.028786 -1.075731 -0.023109 -0.606348 0.000000 0.000000
    15 0.250027 -2.820665 -0.238396 -0.797118 -0.167517 -0.114938
    16 -0.049759 -1.680544 0.100479 -1.934788 0.000000 -0.000002
    17 -0.034142 -1.148312 0.084782 -0.925879 0.000000 0.000000
    18 0.957766 -2.746780 -0.090302 0.005853 -0.162684 0.097910
    19 -0.033420 -1.397129 -0.011257 -0.520985 0.000000 -0.000001
    20 -0.022360 -0.957436 0.018784 -0.975478 0.000000 0.000000
    21 -1.180681 -2.507217 -0.193859 -0.671414 -0.081516 -0.261329
    22 -0.024967 -1.123934 0.017597 -2.056303 0.000000 0.000001
    23 -0.020057 -0.890968 0.010090 -0.677843 0.000000 0.000000
    24 0.583510 -1.197277 0.185379 0.180205 -0.812060 -1.291294
    25 1.535927 0.010246 0.005009 -0.002964 -0.012979 -0.506650
    26 1.100771 0.004527 -0.010679 -0.015488 -0.004784 -1.694062
    27 0.120153 -0.050270 -0.054489 0.287569 3.110905 1.561085
    28 0.717543 -13.262755 -12.904021 -1.737223 -5.372196 -0.921845
    29 0.096944 -8.450418 -0.009365 0.441504 -1.298311 0.044599
    30 0.447953 -2.798986 -0.200443 -0.867750 -0.067958 0.142839
    31 -0.032909 -1.480204 0.004940 -1.563671 0.000000 0.000002
    32 -0.027022 -1.076920 -0.020210 0.067112 0.000000 0.000000
    33 -0.249534 -2.846964 -0.174213 -0.411782 -0.046302 0.113811
    34 0.043235 -1.683941 0.096012 -1.755602 0.002823 -0.000167
    35 0.031729 -1.160830 0.058838 -0.271631 0.000642 0.008372
    36 -0.963866 -2.785145 -0.085350 0.029165 0.013044 0.093174
    37 0.028479 -1.403067 0.006271 -1.265374 0.000000 0.000000
    38 0.021413 -0.957781 0.020046 -0.738159 0.000000 0.000000
    39 1.164475 -2.543940 -0.170330 -1.086001 -0.190582 0.231608
    40 0.024032 -1.129042 0.017807 -1.235601 0.000000 0.000001
    41 0.014898 -0.883989 -0.019848 -0.241922 0.000000 0.000000
    42 -0.586770 -1.264477 0.200161 0.031359 -0.425403 -2.681131
    43 1.522835 0.058681 0.016848 0.001410 0.008985 0.513078
    44 1.117947 0.048424 -0.005766 0.001267 -0.025174 0.005124
    45 -0.139399 -0.111698 0.014397 0.730903 0.255277 1.513298
    46 -1.393470 8.839177 -0.239433 1.580804 -0.005023 -1.566847
  time 25
    0 -0.999830 1.628925 1.837942 0.000000 0.000000 0.000000
    1 9.213061 3.032097 -9.086325 -0.433168 -1.613184 0.237286
    2 -0.071918 -8.498730 -0.104136 0.150406 0.278332 0.058568
    3 2.895287 -1.754041 1.313274 0.246376 0.052132 -1.568741
    4 0.000002 0.000000 0.000000 0.000000 0.000000 -0.000001
    5 6.494406 -3.211587 0.000000 -0.000001 0.000000 -1.501248
    6 -0.000002 0.000002 0.000000 0.000000 0.000000 0.000000
    7 12.276061 -0.776890 0.031258 -0.000815 -0.003144 0.005855
    8 5.464948 0.934905 0.501473 -1.570796 0.000000 -1.570796
    9 14.981817 0.785508 0.038393 -1.570797 -1.570796 0.000000
    10 2.962811 -1.683644 0.000000 0.000000 0.000000 -1.570796
    11 1.257180 8.762585 -0.153713 -1.570562 0.002683 -1.566807
    12 -0.488518 -2.755602 -0.228260 -0.871637 -0.202562 -0.209541
    13 0.039887 -1.479790 0.029854 -2.058999 0.000000 0.000001
    14 0.028786 -1.075731 -0.023109 -0.606348 0.000000 0.000000
    15 0.250027 -2.820665 -0.238396 -0.797118 -0.167517 -0.114938
    16 -0.049759 -1.680544 0.100479 -1.934788 0.000000 -0.000002
    17 -0.034142 -1.148312 0.084782 -0.925906 0.000000 0.000000
    18 0.957766 -2.746780 -0.090302 0.005853 -0.162684 0.097910
    19 -0.033420 -1.397129 -0.011257 -0.520985 0.000000 -0.000001
    20 -0.022360 -0.957436 0.018784 -0.975478 0.000000 0.000000
    21 -1.180681 -2.507217 -0.193859 -0.671414 -0.081516 -0.261329
    22 -0.024967 -1.123934 0.017597 -2.056303 0.000000 0.000001
    23 -0.020057 -0.890968 0.010090 -0.677843 0.000000 0.000000
    24 0.583510 -1.197277 0.185379 0.180205 -0.812060 -1.291294
    25 1.535927 0.010246 0.005009 -0.002964 -0.012979 -0.506650
    26 1.100771 0.004527 -0.010679 -0.015488 -0.004784 -1.694062
    27 0.120153 -0.050270 -0.054489 0.287569 3.110905 1.561085
    28 0.709730 -13.278380 -12.857144 -1.743589 -5.374489 -0.926716
    29 0.096944 -8.450418 -0.009365 0.441504 -1.298311 0.044599
    30 0.447953 -2.798986 -0.200443 -0.867750 -0.067958 0.142839
    31 -0.032909 -1.480204 0.004940 -1.563671 0.000000 0.000002
    32 -0.027022 -1.076920 -0.020210 0.067112 0.000000 0.000000
    33 -0.249534 -2.846964 -0.174213 -0.411782 -0.046302 0.113811
    34 0.043235 -1.683941 0.096012 -1.755602 0.002823 -0.000167
    35 0.031729 -1.160830 0.058838 -0.271631 0.000642 0.008372
    36 -0.963866 -2.785145 -0.085350 0.029165 0.013044 0.093174
    37 0.028479 -1.403067 0.006271 -1.265374 0.000000 0.000000
    38 0.021413 -0.957781 0.020046 -0.738159 0.000000 0.000000
    39 1.164475 -2.543940 -0.170330 -1.086001 -0.190582 0.231608
    40 0.024032 -1.129042 0.017807 -1.235601 0.000000 0.000001
    41 0.014898 -0.883989 -0.019848 -0.241922 0.000000 0.000000
    42 -0.586770 -1.264477 0.200161 0.031359 -0.425403 -2.681131
    43 1.522835 0.058681 0.016848 0.001410 0.008985 0.513078
    44 1.117947 0.048424 -0.005766 0.001267 -0.025174 0.005124
    45 -0.139399 -0.111698 0.014397 0.730903 0.255277 1.513298
    46 -1.393470 8.839177 -0.239433 1.580804 -0.005023 -1.566847
  time 26
    0 -0.999830 1.628925 1.837942 0.000000 0.000000 0.000000
    1 9.213061 3.032097 -9.090231 -0.396448 -1.612695 0.200567
    2 -0.071918 -8.498730 -0.104136 0.150610 0.279039 0.059538
    3 2.895287 -1.754041 1.313274 0.246376 0.052132 -1.568741
    4 0.000002 0.000000 0.000000 0.000000 0.000000 -0.000001
    5 6.494406 -3.211587 0.000000 -0.000001 0.000000 -1.501248
    6 -0.000002 0.000002 0.000000 0.000000 0.000000 0.000000
    7 12.307312 -0.812048 0.019539 -0.000633 -0.002096 0.003449
    8 5.464948 0.934905 0.501473 -1.570796 0.000000 -1.570796
    9 14.981817 0.785508 0.038393 -1.570797 -1.570796 0.000000
    10 2.962811 -1.683644 0.000000 0.000000 0.000000 -1.570796
    11 1.257180 8.762585 -0.153713 -1.570562 0.002683 -1.566807
    12 -0.488518 -2.755602 -0.228260 -0.871637 -0.202562 -0.209541
    13 0.039887 -1.479790 0.029854 -2.058999 0.000000 0.000001
    14 0.028786 -1.075731 -0.023109 -0.606348 0.000000 0.000000
    15 0.250027 -2.820665 -0.238396 -0.797118 -0.167517 -0.114938
    16 -0.049759 -1.680544 0.100479 -1.934788 0.000000 -0.000002
    17 -0.034142 -1.148312 0.084782 -0.925906 0.000000 0.000000
    18 0.957766 -2.746780 -0.090302 0.005853 -0.162684 0.097910
    19 -0.033420 -1.397129 -0.011257 -0.520985 0.000000 -0.000001
    20 -0.022360 -0.957436 0.018784 -0.975478 0.000000 0.000000
    21 -1.180681 -2.507217 -0.193859 -0.671414 -0.081516 -0.261329
    22 -0.024967 -1.123934 0.017597 -2.056303 0.000000 0.000001
    23 -0.020057 -0.890968 0.010090 -0.677843 0.000000 0.000000
    24 0.583510 -1.197277 0.185379 0.180205 -0.812060 -1.291294
    25 1.535927 0.010246 0.005009 -0.002964 -0.012979 -0.506650
    26 1.100771 0.004527 -0.010679 -0.015488 -0.004784 -1.694062
    27 0.120153 -0.050270 -0.054489 0.287569 3.110905 1.561085
    28 0.709730 -13.286193 -12.818081 -1.747316 -5.375773 -0.929581
    29 0.096944 -8.450418 -0.009365 0.441504 -1.298311 0.044599
    30 0.447953 -2.798986 -0.200443 -0.867750 -0.067958 0.142839
    31 -0.032909 -1.480204 0.004940 -1.563671 0.000000 0.000002
    32 -0.027022 -1.076920 -0.020210 0.067112 0.000000 0.000000
    33 -0.249534 -2.846964 -0.174213 -0.411782 -0.046302 0.113811
    34 0.043235 -1.683941 0.096012 -1.755602 0.002823 -0.000167
    35 0.031729 -1.160830 0.058838 -0.271631 0.000642 0.008372
    36 -0.963866 -2.785145 -0.085350 0.029165 0.013044 0.093174
    37 0.028479 -1.403067 0.006271 -1.265374 0.000000 0.000000
    38 0.021413 -0.957781 0.020046 -0.738159 0.000000 0.000000
    39 1.164475 -2.543940 -0.170330 -1.086001 -0.190582 0.231608
    40 0.024032 -1.129042 0.017807 -1.235601 0.000000 0.000001
    41 0.014898 -0.883989 -0.019848 -0.241922 0.000000 0.000000
    42 -0.586770 -1.264477 0.200161 0.031359 -0.425403 -2.681131
    43 1.522835 0.058681 0.016848 0.001410 0.008985 0.513078
    44 1.117947 0.048424 -0.005766 0.001267 -0.025174 0.005124
    45 -0.139399 -0.111698 0.014397 0.730903 0.255277 1.513298
    46 -1.393470 8.839177 -0.239433 1.580804 -0.005023 -1.566847
  time 27
    0 -0.999830 1.628925 1.837942 0.000000 0.000000 0.000000
    1 9.213061 3.032097 -9.094138 -0.339739 -1.612435 0.143892
    2 -0.071918 -8.498730 -0.104136 0.150753 0.280034 0.058530
    3 2.895287 -1.754041 1.313274 0.246376 0.052132 -1.568741
    4 0.000002 0.000000 0.000000 0.000000 0.000000 -0.000001
    5 6.494406 -3.211587 0.000000 -0.000001 0.000000 -1.501248
    6 -0.000002 0.000002 0.000000 0.000000 0.000000 0.000000
    7 12.330750 -0.827673 0.011726 -0.000452 -0.001429 0.002269
    8 5.464948 0.934905 0.501473 -1.570796 0.000000 -1.570796
    9 14.981817 0.785508 0.038393 -1.570797 -1.570796 0.000000
    10 2.962811 -1.683644 0.000000 0.000000 0.000000 -1.570796
    11 1.257180 8.762585 -0.153713 -1.570562 0.002683 -1.566807
    12 -0.488518 -2.755602 -0.228260 -0.871637 -0.202562 -0.209541
    13 0.039887 -1.479790 0.029854 -2.058999 0.000000 0.000001
    14 0.028786 -1.075731 -0.023109 -0.606348 0.000000 0.000000
    15 0.250027 -2.820665 -0.238396 -0.797118 -0.167517 -0.114938
    16 -0.049759 -1.680544 0.100479 -1.934788 0.000000 -0.000002
    17 -0.034142 -1.148312 0.084782 -0.925906 0.000000 0.000000
    18 0.957766 -2.746780 -0.090302 0.005853 -0.162684 0.097910
    19 -0.033420 -1.397129 -0.011257 -0.520985 0.000000 -0.000001
    20 -0.022360 -0.957436 0.018784 -0.975478 0.000000 0.000000
    21 -1.180681 -2.507217 -0.193859 -0.671414 -0.081516 -0.261329
    22 -0.024967 -1.123934 0.017597 -2.056303 0.000000 0.000001
    23 -0.020057 -0.890968 0.010090 -0.677843 0.000000 0.000000
    24 0.583510 -1.197277 0.185379 0.180205 -0.812060 -1.291294
    25 1.535927 0.010246 0.005009 -0.002964 -0.012979 -0.506650
    26 1.100771 0.004527 -0.010679 -0.015488 -0.004784 -1.694062
    27 0.120153 -0.050270 -0.054489 0.287569 3.110905 1.561085
    28 0.705823 -13.294006 -12.790736 -1.749257 -5.376324 -0.931014
    29 0.096944 -8.450418 -0.009365 0.441504 -1.298311 0.044599
    30 0.447953 -2.798986 -0.200443 -0.867750 -0.067958 0.142839
    31 -0.032909 -1.480204 0.004940 -1.563671 0.000000 0.000002
    32 -0.027022 -1.076920 -0.020210 0.067112 0.000000 0.000000
    33 -0.249534 -2.846964 -0.174213 -0.411782 -0.046302 0.113811
    34 0.043235 -1.683941 0.096012 -1.755602 0.002823 -0.000167
    35 0.031729 -1.160830 0.058838 -0.271631 0.000642 0.008372
    36 -0.963866 -2.785145 -0.085350 0.029165 0.013044 0.093174
    37 0.028479 -1.403067 0.006271 -1.265374 0.000000 0.000000
    38 0.021413 -0.957781 0.020046 -0.738159 0.000000 0.000000
    39 1.164475 -2.543940 -0.170330 -1.086001 -0.190582 0.231608
    40 0.024032 -1.129042 0.017807 -1.235601 0.000000 0.000001
    41 0.014898 -0.883989 -0.019848 -0.241922 0.000000 0.000000
    42 -0.586770 -1.264477 0.200161 0.031359 -0.425403 -2.681131
    43 1.522835 0.058681 0.016848 0.001410 0.008985 0.513078
    44 1.117947 0.048424 -0.005766 0.001267 -0.025174 0.005124
    45 -0.139399 -0.111698 0.014397 0.730903 0.255277 1.513298
    46 -1.393470 8.839177 -0.239433 1.580804 -0.005023 -1.566847
  time 28
    0 -0.999830 1.628925 1.837942 0.000000 0.000000 0.000000
    1 9.213061 3.032097 -9.101950 -0.273109 -1.612402 0.077337
    2 -0.071918 -8.498730 -0.104136 0.150873 0.281173 0.056552
    3 2.895287 -1.754041 1.313274 0.246376 0.052132 -1.568741
    4 0.000002 0.000000 0.000000 0.000000 0.000000 -0.000001
    5 6.494406 -3.211587 0.000000 -0.000001 0.000000 -1.501248
    6 -0.000002 0.000002 0.000000 0.000000 0.000000 0.000000
    7 12.350282 -0.835486 0.007820 -0.000270 -0.001048 0.001725
    8 5.464948 0.934905 0.501473 -1.570796 0.000000 -1.570796
    9 14.981817 0.785508 0.038393 -1.570797 -1.570796 0.000000
    10 2.962811 -1.683644 0.000000 0.000000 0.000000 -1.570796
    11 1.257180 8.762585 -0.153713 -1.570562 0.002683 -1.566807
    12 -0.488518 -2.755602 -0.228260 -0.871637 -0.202562 -0.209541
    13 0.039887 -1.479790 0.029854 -2.058999 0.000000 0.000001
    14 0.028786 -1.075731 -0.023109 -0.606348 0.000000 0.000000
    15 0.250027 -2.820665 -0.238396 -0.797118 -0.167517 -0.114938
    16 -0.049759 -1.680544 0.100479 -1.934788 0.000000 -0.000002
    17 -0.034142 -1.148312 0.084782 -0.925906 0.000000 0.000000
    18 0.957766 -2.746780 -0.090302 0.005853 -0.162684 0.097910
    19 -0.033420 -1.397129 -0.011257 -0.520985 0.000000 -0.000001
    20 -0.022360 -0.957436 0.018784 -0.975478 0.000000 0.000000
    21 -1.180681 -2.507217 -0.193859 -0.671414 -0.081516 -0.261329
    22 -0.024967 -1.123934 0.017597 -2.056303 0.000000 0.000001
    23 -0.020057 -0.890968 0.010090 -0.677843 0.000000 0.000000
    24 0.583510 -1.197277 0.185379 0.180205 -0.812060 -1.291294
    25 1.535927 0.010246 0.005009 -0.002964 -0.012979 -0.506650
    26 1.100771 0.004527 -0.010679 -0.015488 -0.004784 -1.694062
    27 0.120153 -0.050270 -0.054489 0.287569 3.110905 1.561085
    28 0.705823 -13.297912 -12.767298 -1.750421 -5.376507 -0.931683
    29 0.096944 -8.450418 -0.009365 0.441504 -1.298311 0.044599
    30 0.447953 -2.798986 -0.200443 -0.867750 -0.067958 0.142839
    31 -0.032909 -1.480204 0.004940 -1.563671 0.000000 0.000002
    32 -0.027022 -1.076920 -0.020210 0.067112 0.000000 0.000000
    33 -0.249534 -2.846964 -0.174213 -0.411782 -0.046302 0.113811
    34 0.043235 -1.683941 0.096012 -1.755602 0.002823 -0.000167
    35 0.031729 -1.160830 0.058838 -0.271631 0.000642 0.008372
    36 -0.963866 -2.785145 -0.085350 0.029165 0.013044 0.093174
    37 0.028479 -1.403067 0.006271 -1.265374 0.000000 0.000000
    38 0.021413 -0.957781 0.020046 -0.738159 0.000000 0.000000
    39 1.164475 -2.543940 -0.170330 -1.086001 -0.190582 0.231608
    40 0.024032 -1.129042 0.017807 -1.235601 0.000000 0.000001
    41 0.014898 -0.883989 -0.019848 -0.241922 0.000000 0.000000
    42 -0.586770 -1.264477 0.200161 0.031359 -0.425403 -2.681131
    43 1.522835 0.058681 0.016848 0.001410 0.008985 0.513078
    44 1.117947 0.048424 -0.005766 0.001267 -0.025174 0.005124
    45 -0.139399 -0.111698 0.014397 0.730903 0.255277 1.513298
    46 -1.393470 8.839177 -0.239433 1.580804 -0.005023 -1.566847
  time 29
    0 -0.999830 1.628925 1.837942 0.000000 0.000000 0.000000
    1 9.213061 3.032097 -9.109763 -0.206770 -1.612565 0.011027
    2 -0.071918 -8.498730 -0.104136 0.150981 0.282311 0.054574
    3 2.895287 -1.754041 1.313274 0.246376 0.052132 -1.568741
    4 0.000002 0.000000 0.000000 0.000000 0.000000 -0.000001
    5 6.494406 -3.211587 0.000000 -0.000001 0.000000 -1.501248
    6 -0.000002 0.000002 0.000000 0.000000 0.000000 0.000000
    7 12.369814 -0.843299 0.003913 -0.000089 -0.000572 0.001135
    8 5.464948 0.934905 0.501473 -1.570796 0.000000 -1.570796
    9 14.981817 0.785508 0.038393 -1.570797 -1.570796 0.000000
    10 2.962811 -1.683644 0.000000 0.000000 0.000000 -1.570796
    11 1.257180 8.762585 -0.153713 -1.570562 0.002683 -1.566807
    12 -0.488518 -2.755602 -0.228260 -0.871637 -0.202562 -0.209541
    13 0.039887 -1.479790 0.029854 -2.058999 0.000000 0.000001
    14 0.028786 -1.075731 -0.023109 -0.606348 0.000000 0.000000
    15 0.250027 -2.820665 -0.238396 -0.797118 -0.167517 -0.114938
    16 -0.049759 -1.680544 0.100479 -1.934788 0.000000 -0.000002
    17 -0.034142 -1.148312 0.084782 -0.925879 0.000000 0.000000
    18 0.957766 -2.746780 -0.090302 0.005853 -0.162684 0.097910
    19 -0.033420 -1.397129 -0.011257 -0.520985 0.000000 -0.000001
    20 -0.022360 -0.957436 0.018784 -0.975478 0.000000 0.000000
    21 -1.180681 -2.507217 -0.193859 -0.671414 -0.081516 -0.261329
    22 -0.024967 -1.123934 0.017597 -2.056303 0.000000 0.000001
    23 -0.020057 -0.890968 0.010090 -0.677843 0.000000 0.000000
    24 0.583510 -1.197277 0.185379 0.180205 -0.812060 -1.291294
    25 1.535927 0.010246 0.005009 -0.002964 -0.012979 -0.506650
    26 1.100771 0.004527 -0.010679 -0.015488 -0.004784 -1.694062
    27 0.120153 -0.050270 -0.054489 0.287569 3.110905 1.561085
    28 0.705823 -13.301819 -12.743860 -1.751508 -5.376782 -0.932447
    29 0.096944 -8.450418 -0.009365 0.441504 -1.298311 0.044599
    30 0.447953 -2.798986 -0.200443 -0.867750 -0.067958 0.142839
    31 -0.032909 -1.480204 0.004940 -1.563671 0.000000 0.000002
    32 -0.027022 -1.076920 -0.020210 0.067112 0.000000 0.000000
    33 -0.249534 -2.846964 -0.174213 -0.411782 -0.046302 0.113811
    34 0.043235 -1.683941 0.096012 -1.755602 0.002823 -0.000167
    35 0.031729 -1.160830 0.058838 -0.271631 0.000642 0.008372
    36 -0.963866 -2.785145 -0.085350 0.029165 0.013044 0.093174
    37 0.028479 -1.403067 0.006271 -1.265374 0.000000 0.000000
    38 0.021413 -0.957781 0.020046 -0.738159 0.000000 0.000000
    39 1.164475 -2.543940 -0.170330 -1.086001 -0.190582 0.231608
    40 0.024032 -1.129042 0.017807 -1.235601 0.000000 0.000001
    41 0.014898 -0.883989 -0.019848 -0.241922 0.000000 0.000000
    42 -0.586770 -1.264477 0.200161 0.031359 -0.425403 -2.681131
    43 1.522835 0.058681 0.016848 0.001410 0.008985 0.513078
    44 1.117947 0.048424 -0.005766 0.001267 -0.025174 0.005124
    45 -0.139399 -0.111698 0.014397 0.730903 0.255277 1.513298
    46 -1.393470 8.839177 -0.239433 1.580804 -0.005023 -1.566847
  time 30
    0 -0.999830 1.628925 1.837942 0.000000 0.000000 0.000000
    1 9.213061 3.032097 -9.113669 -0.149964 -1.612728 -0.045697
    2 -0.071918 -8.498730 -0.104136 0.151113 0.283294 0.053585
    3 2.895287 -1.754041 1.313274 0.246376 0.052132 -1.568741
    4 0.000002 0.000000 0.000000 0.000000 0.000000 -0.000001
    5 6.494406 -3.211587 0.000000 -0.000001 0.000000 -1.501248
    6 -0.000002 0.000002 0.000000 0.000000 0.000000 0.000000
    7 12.389346 -0.862831 0.000007 0.000002 0.000000 0.000000
    8 5.464948 0.934905 0.501473 -1.570796 0.000000 -1.570796
    9 14.981817 0.785508 0.038393 -1.570797 -1.570796 0.000000
    10 2.962811 -1.683644 0.000000 0.000000 0.000000 -1.570796
    11 1.257180 8.762585 -0.153713 -1.570562 0.002683 -1.566807
    12 -0.488518 -2.755602 -0.228260 -0.871637 -0.202562 -0.209541
    13 0.039887 -1.479790 0.029854 -2.058999 0.000000 0.000001
    14 0.028786 -1.075731 -0.023109 -0.606348 0.000000 0.000000
    15 0.250027 -2.820665 -0.238396 -0.797118 -0.167517 -0.114938
    16 -0.049759 -1.680544 0.100479 -1.934788 0.000000 -0.000002
    17 -0.034142 -1.148312 0.084782 -0.925906 0.000000 0.000000
    18 0.957766 -2.746780 -0.090302 0.005853 -0.162684 0.097910
    19 -0.033420 -1.397129 -0.011257 -0.520985 0.000000 -0.000001
    20 -0.022360 -0.957436 0.018784 -0.975478 0.000000 0.000000
    21 -1.180681 -2.507217 -0.193859 -0.671414 -0.081516 -0.261329
    22 -0.024967 -1.123934 0.017597 -2.056303 0.000000 0.000001
    23 -0.020057 -0.890968 0.010090 -0.677843 0.000000 0.000000
    24 0.583510 -1.197277 0.185379 0.180205 -0.812060 -1.291294
    25 1.535927 0.010246 0.005009 -0.002964 -0.012979 -0.506650
    26 1.100771 0.004527 -0.010679 -0.015488 -0.004784 -1.694062
    27 0.120153 -0.050270 -0.054489 0.287569 3.110905 1.561085
    28 0.705823 -13.305725 -12.720421 -1.753527 -5.377333 -0.933880
    29 0.096944 -8.450418 -0.009365 0.441504 -1.298311 0.044599
    30 0.447953 -2.798986 -0.200443 -0.867750 -0.067958 0.142839
    31 -0.032909 -1.480204 0.004940 -1.563671 0.000000 0.000002
    32 -0.027022 -1.076920 -0.020210 0.067112 0.000000 0.000000
    33 -0.249534 -2.846964 -0.174213 -0.411782 -0.046302 0.113811
    34 0.043235 -1.683941 0.096012 -1.755602 0.002823 -0.000167
    35 0.031729 -1.160830 0.058838 -0.271631 0.000642 0.008372
    36 -0.963866 -2.785145 -0.085350 0.029165 0.013044 0.093174
    37 0.028479 -1.403067 0.006271 -1.265374 0.000000 0.000000
    38 0.021413 -0.957781 0.020046 -0.738159 0.000000 0.000000
    39 1.164475 -2.543940 -0.170330 -1.086001 -0.190582 0.231608
    40 0.024032 -1.129042 0.017807 -1.235601 0.000000 0.000001
    41 0.014898 -0.883989 -0.019848 -0.241922 0.000000 0.000000
    42 -0.586770 -1.264477 0.200161 0.031359 -0.425403 -2.681131
    43 1.522835 0.058681 0.016848 0.001410 0.008985 0.513078
    44 1.117947 0.048424 -0.005766 0.001267 -0.025174 0.005124
    45 -0.139399 -0.111698 0.014397 0.730903 0.255277 1.513298
    46 -1.393470 8.839177 -0.239433 1.580804 -0.005023 -1.566847
end
