// Created by Crowbar 0.68

$modelname "s_svd.mdl"
$cd "."
$cdtexture "."
$cliptotextures
$scale 1.0

$bodygroup "studio"
{
	studio "p_svd"
}

$flags 0


$cbox 0 0 0 0 0 0

$bbox 0 0 0 0 0 0

$hbox 0 "SVD_shop" -1.53 -42.459999 -3.52 1.23 11.66 6.61

$sequence "idle" {
	"s_svd_anims\idle"
	fps 30
}
