version 1
nodes
  0 "argus3_root" -1
  1 "magazine" 0
  2 "lever" 0
  3 "trigger" 0
  4 "scope_L" 0
  5 "scope_R" 0
  6 "scope_U" 0
  7 "scope_D" 0
  8 "ef" 0
  9 "PUPPET" 0
  10 "argus3_scope" 9
  11 "root" -1
  12 "Bone01" 11
  13 "Bone_L_Upper" 12
  14 "Bone_Lefthand" 12
  15 "Bone13" 14
  16 "Bone14" 15
  17 "Bone15" 16
  18 "Bone17" 14
  19 "Bone18" 18
  20 "Bone19" 19
  21 "Bone21" 14
  22 "Bone22" 21
  23 "Bone23" 22
  24 "Bone09" 14
  25 "Bone10" 24
  26 "Bone11" 25
  27 "Bone05" 14
  28 "Bone06" 27
  29 "Bone07" 28
  30 "Bone_Se_Hand-L" 14
  31 "Bone04" 11
  32 "Bone_Righthand" 31
  33 "Bone39" 32
  34 "Bone40" 33
  35 "Bone41" 34
  36 "Bone35" 32
  37 "Bone36" 36
  38 "Bone37" 37
  39 "Bone31" 32
  40 "Bone32" 39
  41 "Bone33" 40
  42 "Bone43" 32
  43 "Bone44" 42
  44 "Bone45" 43
  45 "Bone27" 32
  46 "Bone28" 45
  47 "Bone29" 46
  48 "Bone_Se_Hand-R" 32
  49 "Bone_R_Upper" 31
end
skeleton
  time 0
    0 0.122085 0.098590 -3.969404 1.576736 -0.108623 -1.550439
    1 2.233774 0.695171 0.000000 0.000000 0.000000 0.000000
    2 6.733442 -0.196285 0.641147 0.000000 0.000000 0.000000
    3 6.676370 -1.361634 0.000000 0.000000 0.000000 -0.000652
    4 6.664584 2.139774 -0.388086 0.000000 1.570451 0.000000
    5 6.664583 2.139775 0.389469 3.141592 1.570451 0.000000
    6 5.904568 2.208994 -0.000001 -1.570796 0.000000 1.570796
    7 5.904569 2.109217 0.000000 1.570797 0.000000 1.570796
    8 5.997545 -9.506489 0.000000 0.000000 0.000000 0.000000
    9 6.826621 2.896115 -0.002619 0.000000 -1.570451 0.000000
    10 0.002616 0.001794 0.000000 0.000000 0.000000 0.000000
    11 -0.002752 -0.001265 -0.003287 0.000000 0.000000 0.000000
    12 6.704555 3.528780 -7.882035 0.624349 -1.807365 -1.319009
    13 7.796442 -1.401788 -0.403721 -1.568261 -0.029051 -3.239038
    14 -0.095359 -8.580770 -0.139291 0.665139 0.111267 0.083890
    15 -0.488518 -2.755602 -0.228260 -1.298350 0.189322 -0.563158
    16 0.039887 -1.522760 0.010322 -1.322195 -0.013315 0.028824
    17 0.028786 -1.114795 -0.093424 -0.619026 -0.011889 0.011289
    18 0.250027 -2.820665 -0.238396 -1.050916 0.227243 -0.420355
    19 -0.049759 -1.602417 0.049696 -1.314758 -0.064885 -0.044525
    20 -0.030236 -1.171750 0.045718 -1.205284 -0.118072 -0.078427
    21 0.957766 -2.746780 -0.090302 -0.092628 -0.150640 0.125858
    22 -0.033420 -1.393223 -0.019070 -0.600109 0.008389 -0.029363
    23 -0.022360 -0.961342 -0.004654 -0.961139 0.004159 -0.046692
    24 -1.180681 -2.507217 -0.193859 -1.675178 0.258966 -0.570879
    25 -0.024967 -1.123934 0.017597 -0.442076 0.101390 0.095962
    26 -0.020057 -0.902687 0.021809 -0.661508 0.007994 -0.025791
    27 0.583510 -1.197277 0.185379 0.245968 -0.714739 -0.750502
    28 1.504676 -0.173353 0.067511 0.291210 -0.168203 -0.611852
    29 1.065614 -0.128290 0.028385 -0.243734 -0.207444 -0.700792
    30 0.120153 -0.050270 -0.054489 0.287569 3.110905 1.561085
    31 -3.208359 -0.027976 -11.271158 0.761160 -3.923559 0.886853
    32 -0.117906 -8.442606 0.041418 -0.150459 -1.223223 0.118805
    33 0.447953 -2.798986 -0.200443 -1.097799 0.006143 0.545691
    34 -0.032909 -1.499736 0.036191 -1.658992 0.022711 -0.034070
    35 -0.027022 -1.092546 -0.028023 -0.440957 0.011769 -0.004255
    36 -0.249534 -2.846964 -0.174213 -0.842445 0.089328 0.502056
    37 0.043235 -1.656596 0.060855 -1.618932 -0.023831 0.011015
    38 0.031729 -1.137392 0.051025 -1.351253 -0.015082 0.007581
    39 -0.963866 -2.785145 -0.085350 -0.391242 0.243460 0.427445
    40 0.028479 -1.406973 -0.021074 -1.092231 -0.030645 -0.036337
    41 0.021413 -0.938249 0.008327 -1.221799 -0.036397 -0.037212
    42 1.164475 -2.543940 -0.170330 -1.131105 -0.277926 0.648745
    43 0.024032 -1.152480 -0.009538 -1.452510 0.031304 0.066983
    44 0.014898 -0.899614 -0.015942 -0.858363 0.004374 0.043444
    45 -0.586770 -1.264477 0.200161 -0.004477 0.016935 -2.138016
    46 1.546273 0.039149 0.009035 0.229586 0.005865 0.576088
    47 1.114041 0.048424 -0.005766 0.036585 0.173291 -0.079292
    48 -0.139399 -0.111698 0.014397 0.285382 -0.030687 1.580508
    49 -7.807728 3.354635 -0.442564 1.573613 -0.031444 -0.491168
  time 1
    0 0.114273 0.094684 -3.965498 1.576354 -0.107954 -1.549068
    1 2.233774 0.695171 0.000000 0.000000 0.000000 0.000000
    2 6.733442 -0.196285 0.641147 0.000000 0.000000 0.000000
    3 6.676370 -1.361634 0.000000 0.000000 0.000000 -0.000652
    4 6.668490 2.159306 -0.356835 0.000000 1.570451 0.000000
    5 6.668489 2.159307 0.358218 3.141592 1.570451 0.000000
    6 5.904568 2.208994 -0.000001 -1.570796 0.000000 1.570796
    7 5.904569 2.109217 0.000000 1.570797 0.000000 1.570796
    8 5.997545 -9.506489 0.000000 0.000000 0.000000 0.000000
    9 6.826621 2.896115 -0.002619 0.000000 -1.570451 0.000000
    10 0.002616 0.001794 0.000000 0.000000 0.000000 0.000000
    11 -0.002752 -0.001265 -0.003287 0.000000 0.000000 0.000000
    12 6.724087 3.513155 -7.878128 0.612017 -1.810914 -1.309728
    13 7.796442 -1.401788 -0.403721 -1.568261 -0.029051 -3.238946
    14 -0.095359 -8.580770 -0.139291 0.670249 0.115476 0.083736
    15 -0.488518 -2.755602 -0.228260 -1.298350 0.189322 -0.563158
    16 0.039887 -1.522760 0.010322 -1.322195 -0.013315 0.028824
    17 0.028786 -1.114795 -0.093424 -0.619026 -0.011889 0.011289
    18 0.250027 -2.820665 -0.238396 -1.050916 0.227243 -0.420355
    19 -0.049759 -1.602417 0.049696 -1.314758 -0.064885 -0.044525
    20 -0.030236 -1.171750 0.045718 -1.205284 -0.118072 -0.078427
    21 0.957766 -2.746780 -0.090302 -0.092628 -0.150640 0.125858
    22 -0.033420 -1.393223 -0.019070 -0.600109 0.008389 -0.029363
    23 -0.022360 -0.961342 -0.004654 -0.961139 0.004159 -0.046692
    24 -1.180681 -2.507217 -0.193859 -1.675178 0.258966 -0.570879
    25 -0.024967 -1.123934 0.017597 -0.442062 0.101390 0.095962
    26 -0.020057 -0.902687 0.021809 -0.661508 0.007994 -0.025791
    27 0.583510 -1.197277 0.185379 0.245968 -0.714739 -0.750502
    28 1.504676 -0.173353 0.067511 0.291210 -0.168203 -0.611852
    29 1.065614 -0.128290 0.028385 -0.243734 -0.207444 -0.700792
    30 0.120153 -0.050270 -0.054489 0.287569 3.110905 1.561085
    31 -3.200546 -0.031882 -11.275065 0.762745 -3.924830 0.888276
    32 -0.117906 -8.442606 0.041418 -0.156080 -1.221903 0.123752
    33 0.447953 -2.798986 -0.200443 -1.097799 0.006143 0.545691
    34 -0.032909 -1.499736 0.036191 -1.658992 0.022711 -0.034070
    35 -0.027022 -1.092546 -0.028023 -0.440957 0.011769 -0.004255
    36 -0.249534 -2.846964 -0.174213 -0.842445 0.089328 0.502056
    37 0.043235 -1.656596 0.060855 -1.618932 -0.023831 0.011015
    38 0.031729 -1.137392 0.051025 -1.351253 -0.015082 0.007581
    39 -0.963866 -2.785145 -0.085350 -0.391242 0.243460 0.427445
    40 0.028479 -1.406973 -0.021074 -1.092231 -0.030645 -0.036337
    41 0.021413 -0.938249 0.008327 -1.221799 -0.036397 -0.037212
    42 1.164475 -2.543940 -0.170330 -1.131105 -0.277926 0.648745
    43 0.024032 -1.152480 -0.009538 -1.452510 0.031304 0.066983
    44 0.014898 -0.899614 -0.015942 -0.858363 0.004374 0.043444
    45 -0.586770 -1.264477 0.200161 -0.004477 0.016935 -2.138016
    46 1.546273 0.039149 0.009035 0.229586 0.005865 0.576088
    47 1.114041 0.048424 -0.005766 0.036585 0.173291 -0.079292
    48 -0.139399 -0.111698 0.014397 0.285382 -0.030687 1.580508
    49 -7.807728 3.362448 -0.442564 1.573613 -0.031348 -0.491740
  time 2
    0 0.106460 0.090777 -3.957685 1.575971 -0.106234 -1.547491
    1 2.233774 0.695171 0.000000 0.000000 0.000000 0.000000
    2 6.733442 -0.196285 0.641147 0.000000 0.000000 0.000000
    3 6.676370 -1.361634 0.000000 0.000000 0.000000 -0.000652
    4 6.676303 2.171025 -0.325584 0.000000 1.570451 0.000000
    5 6.676302 2.171026 0.330873 3.141592 1.570451 0.000000
    6 5.904568 2.208994 -0.000001 -1.570796 0.000000 1.570796
    7 5.904569 2.109217 0.000000 1.570797 0.000000 1.570796
    8 5.997545 -9.506489 0.000000 0.000000 0.000000 0.000000
    9 6.826621 2.896115 -0.002619 0.000000 -1.570451 0.000000
    10 0.002616 0.001794 0.000000 0.000000 0.000000 0.000000
    11 -0.002752 -0.001265 -0.003287 0.000000 0.000000 0.000000
    12 6.743619 3.493623 -7.874222 0.599877 -1.814919 -1.300926
    13 7.796442 -1.405694 -0.403721 -1.568261 -0.029051 -3.239129
    14 -0.095359 -8.580770 -0.139291 0.675777 0.120815 0.082449
    15 -0.488518 -2.755602 -0.228260 -1.298350 0.189322 -0.563158
    16 0.039887 -1.522760 0.010322 -1.322195 -0.013315 0.028824
    17 0.028786 -1.114795 -0.093424 -0.619026 -0.011889 0.011289
    18 0.250027 -2.820665 -0.238396 -1.050916 0.227243 -0.420355
    19 -0.049759 -1.602417 0.049696 -1.314758 -0.064885 -0.044525
    20 -0.030236 -1.171750 0.045718 -1.205284 -0.118072 -0.078427
    21 0.957766 -2.746780 -0.090302 -0.092628 -0.150640 0.125858
    22 -0.033420 -1.393223 -0.019070 -0.600109 0.008389 -0.029363
    23 -0.022360 -0.961342 -0.004654 -0.961139 0.004159 -0.046692
    24 -1.180681 -2.507217 -0.193859 -1.675178 0.258966 -0.570879
    25 -0.024967 -1.123934 0.017597 -0.442062 0.101390 0.095962
    26 -0.020057 -0.902687 0.021809 -0.661508 0.007994 -0.025791
    27 0.583510 -1.197277 0.185379 0.245968 -0.714739 -0.750502
    28 1.504676 -0.173353 0.067511 0.291210 -0.168203 -0.611852
    29 1.065614 -0.128290 0.028385 -0.243734 -0.207444 -0.700792
    30 0.120153 -0.050270 -0.054489 0.287569 3.110905 1.561085
    31 -3.196639 -0.031882 -11.275065 0.764014 -3.925862 0.889415
    32 -0.117906 -8.442606 0.041418 -0.162992 -1.221042 0.130902
    33 0.447953 -2.798986 -0.200443 -1.097799 0.006143 0.545691
    34 -0.032909 -1.499736 0.036191 -1.658992 0.022711 -0.034070
    35 -0.027022 -1.092546 -0.028023 -0.440957 0.011769 -0.004255
    36 -0.249534 -2.846964 -0.174213 -0.842445 0.089328 0.502056
    37 0.043235 -1.656596 0.060855 -1.618932 -0.023831 0.011015
    38 0.031729 -1.137392 0.051025 -1.351253 -0.015082 0.007581
    39 -0.963866 -2.785145 -0.085350 -0.391242 0.243460 0.427445
    40 0.028479 -1.406973 -0.021074 -1.092231 -0.030645 -0.036337
    41 0.021413 -0.938249 0.008327 -1.221799 -0.036397 -0.037212
    42 1.164475 -2.543940 -0.170330 -1.131105 -0.277926 0.648745
    43 0.024032 -1.152480 -0.009538 -1.452510 0.031304 0.066983
    44 0.014898 -0.899614 -0.015942 -0.858363 0.004374 0.043444
    45 -0.586770 -1.264477 0.200161 -0.004477 0.016935 -2.138016
    46 1.546273 0.039149 0.009035 0.229586 0.005865 0.576088
    47 1.114041 0.048424 -0.005766 0.036585 0.173291 -0.079292
    48 -0.139399 -0.111698 0.014397 0.285382 -0.030687 1.580508
    49 -7.803822 3.362448 -0.442564 1.573613 -0.031348 -0.492027
  time 3
    0 0.098647 0.082965 -3.945966 1.575589 -0.104418 -1.545984
    1 2.233774 0.695171 0.000000 0.000000 0.000000 0.000000
    2 6.733442 -0.196285 0.641147 0.000000 0.000000 0.000000
    3 6.676370 -1.361634 0.000000 0.000000 0.000000 -0.000652
    4 6.676303 2.171025 -0.325584 0.000000 1.570451 0.000000
    5 6.676302 2.171026 0.330873 3.141592 1.570451 0.000000
    6 5.900662 2.208994 -0.000001 -1.570796 0.000000 1.570796
    7 5.900663 2.109217 0.000000 1.570797 0.000000 1.570796
    8 5.997545 -9.506489 0.000000 0.000000 0.000000 0.000000
    9 6.826621 2.896115 -0.002619 0.000000 -1.570451 0.000000
    10 0.002616 0.001794 0.000000 0.000000 0.000000 0.000000
    11 -0.002752 -0.001265 -0.003287 0.000000 0.000000 0.000000
    12 6.767057 3.474091 -7.870316 0.588023 -1.819014 -1.292507
    13 7.796442 -1.405694 -0.403721 -1.568261 -0.029051 -3.239312
    14 -0.095359 -8.580770 -0.139291 0.681305 0.126178 0.081197
    15 -0.488518 -2.755602 -0.228260 -1.298350 0.189322 -0.563158
    16 0.039887 -1.522760 0.010322 -1.322195 -0.013315 0.028824
    17 0.028786 -1.114795 -0.093424 -0.619026 -0.011889 0.011289
    18 0.250027 -2.820665 -0.238396 -1.050916 0.227243 -0.420355
    19 -0.049759 -1.602417 0.049696 -1.314758 -0.064885 -0.044525
    20 -0.030236 -1.171750 0.045718 -1.205284 -0.118072 -0.078427
    21 0.957766 -2.746780 -0.090302 -0.092628 -0.150640 0.125858
    22 -0.033420 -1.393223 -0.019070 -0.600109 0.008389 -0.029363
    23 -0.022360 -0.961342 -0.004654 -0.961139 0.004159 -0.046692
    24 -1.180681 -2.507217 -0.193859 -1.675178 0.258966 -0.570879
    25 -0.024967 -1.123934 0.017597 -0.442062 0.101390 0.095962
    26 -0.020057 -0.902687 0.021809 -0.661508 0.007994 -0.025791
    27 0.583510 -1.197277 0.185379 0.245968 -0.714739 -0.750502
    28 1.504676 -0.173353 0.067511 0.291210 -0.168203 -0.611852
    29 1.065614 -0.128290 0.028385 -0.243734 -0.207444 -0.700792
    30 0.120153 -0.050270 -0.054489 0.287569 3.110905 1.561085
    31 -3.192733 -0.031882 -11.278971 0.764902 -3.926736 0.890364
    32 -0.117906 -8.442606 0.041418 -0.169612 -1.220468 0.137761
    33 0.447953 -2.798986 -0.200443 -1.097799 0.006143 0.545691
    34 -0.032909 -1.499736 0.036191 -1.658992 0.022711 -0.034070
    35 -0.027022 -1.092546 -0.028023 -0.440957 0.011769 -0.004255
    36 -0.249534 -2.846964 -0.174213 -0.842445 0.089328 0.502056
    37 0.043235 -1.656596 0.060855 -1.618932 -0.023831 0.011015
    38 0.031729 -1.137392 0.051025 -1.351253 -0.015082 0.007581
    39 -0.963866 -2.785145 -0.085350 -0.391242 0.243460 0.427445
    40 0.028479 -1.406973 -0.021074 -1.092231 -0.030645 -0.036337
    41 0.021413 -0.938249 0.008327 -1.221799 -0.036397 -0.037212
    42 1.164475 -2.543940 -0.170330 -1.131105 -0.277926 0.648745
    43 0.024032 -1.152480 -0.009538 -1.452510 0.031304 0.066983
    44 0.014898 -0.899614 -0.015942 -0.858363 0.004374 0.043444
    45 -0.586770 -1.264477 0.200161 -0.004477 0.016935 -2.138016
    46 1.546273 0.039149 0.009035 0.229586 0.005865 0.576088
    47 1.114041 0.048424 -0.005766 0.036585 0.173291 -0.079292
    48 -0.139399 -0.111698 0.014397 0.285382 -0.030687 1.580508
    49 -7.803822 3.366354 -0.442564 1.573613 -0.031348 -0.492409
  time 4
    0 0.090834 0.082965 -3.942059 1.575206 -0.103844 -1.544613
    1 2.233774 0.695171 0.000000 0.000000 0.000000 0.000000
    2 6.733442 -0.196285 0.641147 0.000000 0.000000 0.000000
    3 6.676370 -1.361634 0.000000 0.000000 0.000000 -0.000652
    4 6.676303 2.171025 -0.325584 0.000000 1.570451 0.000000
    5 6.676302 2.171026 0.330873 3.141592 1.570451 0.000000
    6 5.900662 2.208994 -0.000001 -1.570796 0.000000 1.570796
    7 5.900663 2.109217 0.000000 1.570797 0.000000 1.570796
    8 5.997545 -9.506489 0.000000 0.000000 0.000000 0.000000
    9 6.826621 2.896115 -0.002619 0.000000 -1.570451 0.000000
    10 0.002616 0.001794 0.000000 0.000000 0.000000 0.000000
    11 -0.002752 -0.001265 -0.003287 0.000000 0.000000 0.000000
    12 6.786589 3.458466 -7.866409 0.576648 -1.822563 -1.284087
    13 7.796442 -1.405694 -0.403721 -1.568261 -0.029051 -3.239221
    14 -0.095359 -8.580770 -0.139291 0.686416 0.130409 0.081112
    15 -0.488518 -2.755602 -0.228260 -1.298350 0.189322 -0.563158
    16 0.039887 -1.522760 0.010322 -1.322195 -0.013315 0.028824
    17 0.028786 -1.114795 -0.093424 -0.619026 -0.011889 0.011289
    18 0.250027 -2.820665 -0.238396 -1.050916 0.227243 -0.420355
    19 -0.049759 -1.602417 0.049696 -1.314758 -0.064885 -0.044525
    20 -0.030236 -1.171750 0.045718 -1.205284 -0.118072 -0.078427
    21 0.957766 -2.746780 -0.090302 -0.092628 -0.150640 0.125858
    22 -0.033420 -1.393223 -0.019070 -0.600109 0.008389 -0.029363
    23 -0.022360 -0.961342 -0.004654 -0.961139 0.004159 -0.046692
    24 -1.180681 -2.507217 -0.193859 -1.675178 0.258966 -0.570879
    25 -0.024967 -1.123934 0.017597 -0.442062 0.101390 0.095962
    26 -0.020057 -0.902687 0.021809 -0.661508 0.007994 -0.025791
    27 0.583510 -1.197277 0.185379 0.245968 -0.714739 -0.750502
    28 1.504676 -0.173353 0.067511 0.291210 -0.168203 -0.611852
    29 1.065614 -0.128290 0.028385 -0.243734 -0.207444 -0.700792
    30 0.120153 -0.050270 -0.054489 0.287569 3.110905 1.561085
    31 -3.188827 -0.035789 -11.278971 0.765663 -3.927451 0.891029
    32 -0.117906 -8.438699 0.041418 -0.174192 -1.219894 0.141835
    33 0.447953 -2.798986 -0.200443 -1.097799 0.006143 0.545691
    34 -0.032909 -1.499736 0.036191 -1.658992 0.022711 -0.034070
    35 -0.027022 -1.092546 -0.028023 -0.440957 0.011769 -0.004255
    36 -0.249534 -2.846964 -0.174213 -0.842445 0.089328 0.502056
    37 0.043235 -1.656596 0.060855 -1.618932 -0.023831 0.011015
    38 0.031729 -1.137392 0.051025 -1.351253 -0.015082 0.007581
    39 -0.963866 -2.785145 -0.085350 -0.391242 0.243460 0.427445
    40 0.028479 -1.406973 -0.021074 -1.092231 -0.030645 -0.036337
    41 0.021413 -0.938249 0.008327 -1.221799 -0.036397 -0.037212
    42 1.164475 -2.543940 -0.170330 -1.131105 -0.277926 0.648745
    43 0.024032 -1.152480 -0.009538 -1.452510 0.031304 0.066983
    44 0.014898 -0.899614 -0.015942 -0.858363 0.004374 0.043444
    45 -0.586770 -1.264477 0.200161 -0.004477 0.016935 -2.138016
    46 1.546273 0.039149 0.009035 0.229586 0.005865 0.576088
    47 1.114041 0.048424 -0.005766 0.036585 0.173291 -0.079292
    48 -0.139399 -0.111698 0.014397 0.285382 -0.030687 1.580508
    49 -7.803822 3.370260 -0.442564 1.573613 -0.031348 -0.492886
  time 5
    0 0.086928 0.082965 -3.949872 1.574919 -0.105469 -1.543448
    1 2.233774 0.695171 0.000000 0.000000 0.000000 0.000000
    2 6.733442 -0.196285 0.641147 0.000000 0.000000 0.000000
    3 6.676370 -1.361634 0.000000 0.000000 0.000000 -0.000652
    4 6.676303 2.171025 -0.325584 0.000000 1.570451 0.000000
    5 6.676302 2.171026 0.330873 3.141592 1.570451 0.000000
    6 5.896756 2.212901 -0.000001 -1.570796 0.000000 1.570796
    7 5.896757 2.109217 0.000000 1.570797 0.000000 1.570796
    8 5.997545 -9.506489 0.000000 0.000000 0.000000 0.000000
    9 6.826621 2.896115 -0.002619 0.000000 -1.570451 0.000000
    10 0.002616 0.001794 0.000000 0.000000 0.000000 0.000000
    11 -0.002752 -0.001265 -0.003287 0.000000 0.000000 0.000000
    12 6.798308 3.442840 -7.862503 0.565559 -1.825202 -1.275572
    13 7.796442 -1.397882 -0.403721 -1.568261 -0.029051 -3.238580
    14 -0.095359 -8.584677 -0.139291 0.690671 0.132354 0.083272
    15 -0.488518 -2.755602 -0.228260 -1.298350 0.189322 -0.563158
    16 0.039887 -1.522760 0.010322 -1.322195 -0.013315 0.028824
    17 0.028786 -1.114795 -0.093424 -0.619026 -0.011889 0.011289
    18 0.250027 -2.820665 -0.238396 -1.050916 0.227243 -0.420355
    19 -0.049759 -1.602417 0.049696 -1.314758 -0.064885 -0.044525
    20 -0.030236 -1.171750 0.045718 -1.205284 -0.118072 -0.078427
    21 0.957766 -2.746780 -0.090302 -0.092628 -0.150640 0.125858
    22 -0.033420 -1.393223 -0.019070 -0.600109 0.008389 -0.029363
    23 -0.022360 -0.961342 -0.004654 -0.961139 0.004159 -0.046692
    24 -1.180681 -2.507217 -0.193859 -1.675178 0.258966 -0.570879
    25 -0.024967 -1.123934 0.017597 -0.442062 0.101390 0.095962
    26 -0.020057 -0.902687 0.021809 -0.661508 0.007994 -0.025791
    27 0.583510 -1.197277 0.185379 0.245968 -0.714739 -0.750502
    28 1.504676 -0.173353 0.067511 0.291210 -0.168203 -0.611852
    29 1.065614 -0.128290 0.028385 -0.243734 -0.207444 -0.700792
    30 0.120153 -0.050270 -0.054489 0.287569 3.110905 1.561085
    31 -3.181014 -0.035789 -11.275065 0.766298 -3.927928 0.891503
    32 -0.117906 -8.438699 0.041418 -0.175191 -1.219147 0.140754
    33 0.447953 -2.798986 -0.200443 -1.097799 0.006143 0.545691
    34 -0.032909 -1.499736 0.036191 -1.658992 0.022711 -0.034070
    35 -0.027022 -1.092546 -0.028023 -0.440957 0.011769 -0.004255
    36 -0.249534 -2.846964 -0.174213 -0.842445 0.089328 0.502056
    37 0.043235 -1.656596 0.060855 -1.618932 -0.023831 0.011015
    38 0.031729 -1.137392 0.051025 -1.351253 -0.015082 0.007581
    39 -0.963866 -2.785145 -0.085350 -0.391242 0.243460 0.427445
    40 0.028479 -1.406973 -0.021074 -1.092231 -0.030645 -0.036337
    41 0.021413 -0.938249 0.008327 -1.221799 -0.036397 -0.037212
    42 1.164475 -2.543940 -0.170330 -1.131105 -0.277926 0.648745
    43 0.024032 -1.152480 -0.009538 -1.452510 0.031304 0.066983
    44 0.014898 -0.899614 -0.015942 -0.858363 0.004374 0.043444
    45 -0.586770 -1.264477 0.200161 -0.004477 0.016935 -2.138016
    46 1.546273 0.039149 0.009035 0.229586 0.005865 0.576088
    47 1.114041 0.048424 -0.005766 0.036585 0.173291 -0.079292
    48 -0.139399 -0.111698 0.014397 0.285382 -0.030687 1.580508
    49 -7.799916 3.378073 -0.442564 1.573613 -0.031348 -0.493936
  time 6
    0 0.083022 0.094684 -3.981123 1.574633 -0.110630 -1.542625
    1 2.233774 0.695171 0.000000 0.000000 0.000000 0.000000
    2 6.733442 -0.196285 0.641147 0.000000 0.000000 0.000000
    3 6.676370 -1.361634 0.000000 0.000000 0.000000 -0.000652
    4 6.676303 2.171025 -0.376367 0.000000 1.570451 0.000000
    5 6.676302 2.171026 0.377749 3.141592 1.570451 0.000000
    6 5.892849 2.212901 -0.000001 -1.570796 0.000000 1.570796
    7 5.892850 2.109217 0.000000 1.570797 0.000000 1.570796
    8 5.997545 -9.506489 0.000000 0.000000 0.000000 0.000000
    9 6.826621 2.896115 -0.002619 0.000000 -1.570451 0.000000
    10 0.002616 0.001794 0.000000 0.000000 0.000000 0.000000
    11 -0.002752 -0.001265 -0.003287 0.000000 0.000000 0.000000
    12 6.810027 3.435028 -7.862503 0.554757 -1.826295 -1.266387
    13 7.800348 -1.386163 -0.403721 -1.568357 -0.029051 -3.237025
    14 -0.091453 -8.584677 -0.139291 0.693698 0.130839 0.088829
    15 -0.488518 -2.755602 -0.228260 -1.298350 0.189322 -0.563158
    16 0.039887 -1.522760 0.010322 -1.322195 -0.013315 0.028824
    17 0.028786 -1.114795 -0.093424 -0.619026 -0.011889 0.011289
    18 0.250027 -2.820665 -0.238396 -1.050916 0.227243 -0.420355
    19 -0.049759 -1.602417 0.049696 -1.314758 -0.064885 -0.044525
    20 -0.030236 -1.171750 0.045718 -1.205284 -0.118072 -0.078427
    21 0.957766 -2.746780 -0.090302 -0.092628 -0.150640 0.125858
    22 -0.033420 -1.393223 -0.019070 -0.600109 0.008389 -0.029363
    23 -0.022360 -0.961342 -0.004654 -0.961139 0.004159 -0.046692
    24 -1.180681 -2.507217 -0.193859 -1.675178 0.258966 -0.570879
    25 -0.024967 -1.123934 0.017597 -0.442062 0.101390 0.095962
    26 -0.020057 -0.902687 0.021809 -0.661508 0.007994 -0.025791
    27 0.583510 -1.197277 0.185379 0.245968 -0.714739 -0.750502
    28 1.504676 -0.173353 0.067511 0.291210 -0.168203 -0.611852
    29 1.065614 -0.128290 0.028385 -0.243734 -0.207444 -0.700792
    30 0.120153 -0.050270 -0.054489 0.287569 3.110905 1.561085
    31 -3.177108 -0.043602 -11.271158 0.766995 -3.928166 0.891883
    32 -0.117906 -8.438699 0.041418 -0.170944 -1.217971 0.132066
    33 0.447953 -2.798986 -0.200443 -1.097799 0.006143 0.545691
    34 -0.032909 -1.499736 0.036191 -1.658992 0.022711 -0.034070
    35 -0.027022 -1.092546 -0.028023 -0.440957 0.011769 -0.004255
    36 -0.249534 -2.846964 -0.174213 -0.842445 0.089328 0.502056
    37 0.043235 -1.656596 0.060855 -1.618932 -0.023831 0.011015
    38 0.031729 -1.137392 0.051025 -1.351253 -0.015082 0.007581
    39 -0.963866 -2.785145 -0.085350 -0.391242 0.243460 0.427445
    40 0.028479 -1.406973 -0.021074 -1.092231 -0.030645 -0.036337
    41 0.021413 -0.938249 0.008327 -1.221799 -0.036397 -0.037212
    42 1.164475 -2.543940 -0.170330 -1.131105 -0.277926 0.648745
    43 0.024032 -1.152480 -0.009538 -1.452510 0.031304 0.066983
    44 0.014898 -0.899614 -0.015942 -0.858363 0.004374 0.043444
    45 -0.586770 -1.264477 0.200161 -0.004477 0.016935 -2.138016
    46 1.546273 0.039149 0.009035 0.229586 0.005865 0.576088
    47 1.114041 0.048424 -0.005766 0.036585 0.173291 -0.079292
    48 -0.139399 -0.111698 0.014397 0.285382 -0.030687 1.580508
    49 -7.796009 3.389792 -0.442564 1.573709 -0.031348 -0.495559
  time 7
    0 0.055677 0.168905 -4.067063 1.573772 -0.134332 -1.543174
    1 2.233774 0.695171 0.000000 0.000000 0.000000 0.000000
    2 6.733442 -0.196285 0.641147 0.000000 0.000000 0.000000
    3 6.676370 -1.361634 0.000000 0.000000 0.000000 -0.000652
    4 6.676303 2.155399 -0.099015 0.000000 1.570451 0.000000
    5 6.676302 2.155400 0.092584 3.141592 1.570787 0.000000
    6 5.888943 2.212901 -0.000001 -1.570796 0.000000 1.570796
    7 5.888944 2.113124 0.000000 1.570797 0.000000 1.570796
    8 5.997545 -9.506489 0.000000 0.000000 0.000000 0.000000
    9 6.826621 2.896115 -0.002619 0.000000 -1.570451 0.000000
    10 0.002616 0.001794 0.000000 0.000000 0.000000 0.000000
    11 -0.002752 -0.001265 -0.003287 0.000000 0.000000 0.000000
    12 6.786589 3.446747 -7.870316 0.563169 -1.821744 -1.275572
    13 7.804255 -1.370537 -0.403721 -1.568357 -0.029051 -3.235012
    14 -0.095359 -8.588583 -0.143198 0.693325 0.110317 0.107282
    15 -0.488518 -2.755602 -0.228260 -1.298350 0.189322 -0.563158
    16 0.039887 -1.522760 0.010322 -1.322195 -0.013315 0.028824
    17 0.028786 -1.114795 -0.093424 -0.619026 -0.011889 0.011289
    18 0.250027 -2.820665 -0.238396 -1.050916 0.227243 -0.420355
    19 -0.049759 -1.602417 0.049696 -1.314758 -0.064885 -0.044525
    20 -0.030236 -1.171750 0.045718 -1.205284 -0.118072 -0.078427
    21 0.957766 -2.746780 -0.090302 -0.092628 -0.150640 0.125858
    22 -0.033420 -1.393223 -0.019070 -0.600109 0.008389 -0.029363
    23 -0.022360 -0.961342 -0.004654 -0.961139 0.004159 -0.046692
    24 -1.180681 -2.507217 -0.193859 -1.675178 0.258966 -0.570879
    25 -0.024967 -1.123934 0.017597 -0.442062 0.101390 0.095962
    26 -0.020057 -0.902687 0.021809 -0.661508 0.007994 -0.025791
    27 0.583510 -1.197277 0.185379 0.245968 -0.714739 -0.750502
    28 1.504676 -0.173353 0.067511 0.291210 -0.168203 -0.611852
    29 1.065614 -0.128290 0.028385 -0.243734 -0.207444 -0.700792
    30 0.120153 -0.050270 -0.054489 0.287569 3.110905 1.561085
    31 -3.184920 -0.063133 -11.232095 0.774290 -3.923638 0.894540
    32 -0.114000 -8.442606 0.045324 -0.153624 -1.214153 0.100222
    33 0.447953 -2.798986 -0.200443 -1.097799 0.006143 0.545691
    34 -0.032909 -1.499736 0.036191 -1.658992 0.022711 -0.034070
    35 -0.027022 -1.092546 -0.028023 -0.440957 0.011769 -0.004255
    36 -0.249534 -2.846964 -0.174213 -0.842445 0.089328 0.502056
    37 0.043235 -1.656596 0.060855 -1.618932 -0.023831 0.011015
    38 0.031729 -1.137392 0.051025 -1.351253 -0.015082 0.007581
    39 -0.963866 -2.785145 -0.085350 -0.391242 0.243460 0.427445
    40 0.028479 -1.406973 -0.021074 -1.092231 -0.030645 -0.036337
    41 0.021413 -0.938249 0.008327 -1.221799 -0.036397 -0.037212
    42 1.164475 -2.543940 -0.170330 -1.131105 -0.277926 0.648745
    43 0.024032 -1.152480 -0.009538 -1.452510 0.031304 0.066983
    44 0.014898 -0.899614 -0.015942 -0.858363 0.004374 0.043444
    45 -0.586770 -1.264477 0.200161 -0.004477 0.016935 -2.138016
    46 1.546273 0.039149 0.009035 0.229586 0.005865 0.576088
    47 1.114041 0.048424 -0.005766 0.036585 0.173291 -0.079292
    48 -0.139399 -0.111698 0.014397 0.285382 -0.030687 1.580508
    49 -7.792103 3.397605 -0.442564 1.573709 -0.031348 -0.496514
  time 8
    0 0.040052 0.254845 -4.207693 1.574824 -0.166348 -1.545504
    1 2.233774 0.695171 0.000000 0.000000 0.000000 0.000000
    2 6.733442 -0.196285 0.641147 0.000000 0.000000 0.000000
    3 6.676370 -1.361634 0.000000 0.000000 0.000000 -0.000652
    4 6.676303 2.135867 0.186150 0.000000 1.570451 0.000000
    5 6.676302 2.135868 -0.192580 3.141592 1.570451 0.000000
    6 5.888943 2.212901 -0.000001 -1.570796 0.000000 1.570796
    7 5.888944 2.113124 0.000000 1.570797 0.000000 1.570796
    8 5.997545 -9.506489 0.000000 0.000000 0.000000 0.000000
    9 6.826621 2.896115 -0.002619 0.000000 -1.570787 0.000000
    10 0.002616 0.001794 0.000000 0.000000 0.000000 0.000000
    11 -0.002752 -0.001265 -0.003287 0.000000 0.000000 0.000000
    12 6.739712 3.474091 -7.882035 0.576935 -1.812097 -1.286001
    13 7.812068 -1.339286 -0.403721 -1.568453 -0.028955 -3.230986
    14 -0.099266 -8.592489 -0.147104 0.685648 0.079297 0.132868
    15 -0.488518 -2.755602 -0.228260 -1.298350 0.189322 -0.563158
    16 0.039887 -1.522760 0.010322 -1.322195 -0.013315 0.028824
    17 0.028786 -1.114795 -0.093424 -0.619026 -0.011889 0.011289
    18 0.250027 -2.820665 -0.238396 -1.050916 0.227243 -0.420355
    19 -0.049759 -1.602417 0.049696 -1.314758 -0.064885 -0.044525
    20 -0.030236 -1.171750 0.045718 -1.205284 -0.118072 -0.078427
    21 0.957766 -2.746780 -0.090302 -0.092628 -0.150640 0.125858
    22 -0.033420 -1.393223 -0.019070 -0.600109 0.008389 -0.029363
    23 -0.022360 -0.961342 -0.004654 -0.961139 0.004159 -0.046692
    24 -1.180681 -2.507217 -0.193859 -1.675178 0.258966 -0.570879
    25 -0.024967 -1.123934 0.017597 -0.442062 0.101390 0.095962
    26 -0.020057 -0.902687 0.021809 -0.661508 0.007994 -0.025791
    27 0.583510 -1.197277 0.185379 0.245968 -0.714739 -0.750502
    28 1.504676 -0.173353 0.067511 0.291210 -0.168203 -0.611852
    29 1.065614 -0.128290 0.028385 -0.243734 -0.207444 -0.700792
    30 0.120153 -0.050270 -0.054489 0.287569 3.110905 1.561085
    31 -3.192733 -0.086572 -11.193031 0.781712 -3.918951 0.897293
    32 -0.114000 -8.442606 0.045324 -0.120191 -1.209560 0.047260
    33 0.447953 -2.798986 -0.200443 -1.097799 0.006143 0.545691
    34 -0.032909 -1.499736 0.036191 -1.658992 0.022711 -0.034070
    35 -0.027022 -1.092546 -0.028023 -0.440957 0.011769 -0.004255
    36 -0.249534 -2.846964 -0.174213 -0.842445 0.089328 0.502056
    37 0.043235 -1.656596 0.060855 -1.618932 -0.023831 0.011015
    38 0.031729 -1.137392 0.051025 -1.351253 -0.015082 0.007581
    39 -0.963866 -2.785145 -0.085350 -0.391242 0.243460 0.427445
    40 0.028479 -1.406973 -0.021074 -1.092231 -0.030645 -0.036337
    41 0.021413 -0.938249 0.008327 -1.221799 -0.036397 -0.037212
    42 1.164475 -2.543940 -0.170330 -1.131105 -0.277926 0.648745
    43 0.024032 -1.152480 -0.009538 -1.452510 0.031304 0.066995
    44 0.014898 -0.899614 -0.015942 -0.858363 0.004374 0.043444
    45 -0.586770 -1.264477 0.200161 -0.004477 0.016935 -2.138016
    46 1.546273 0.039149 0.009035 0.229586 0.005865 0.576088
    47 1.114041 0.048424 -0.005766 0.036585 0.173291 -0.079292
    48 -0.139399 -0.111698 0.014397 0.285382 -0.030687 1.580508
    49 -7.788196 3.413230 -0.442564 1.573709 -0.031252 -0.498423
  time 9
    0 0.102554 0.250939 -4.375666 1.585438 -0.181926 -1.551398
    1 2.233774 0.695171 0.000000 0.000000 0.000000 0.000000
    2 6.733442 -0.196285 0.641147 0.000000 0.000000 0.000000
    3 6.676370 -1.361634 0.000000 0.000000 0.000000 -0.000652
    4 6.676303 2.135867 0.139274 0.000000 1.570451 0.000000
    5 6.672396 2.135868 -0.145704 3.141592 1.570451 0.000000
    6 5.885037 2.212901 -0.000001 -1.570796 0.000000 1.570796
    7 5.885038 2.113124 0.000000 1.570797 0.000000 1.570796
    8 5.997545 -9.506489 0.000000 0.000000 0.000000 0.000000
    9 6.826621 2.896115 -0.002619 0.000000 -1.570787 0.000000
    10 0.002616 0.001794 0.000000 0.000000 0.000000 0.000000
    11 -0.002752 -0.001265 -0.003287 0.000000 0.000000 0.000000
    12 6.704555 3.536593 -7.893754 0.566515 -1.796535 -1.259690
    13 7.827693 -1.276784 -0.403721 -1.568549 -0.028859 -3.222934
    14 -0.099266 -8.592489 -0.151010 0.661432 0.055110 0.150498
    15 -0.488518 -2.755602 -0.228260 -1.298350 0.189322 -0.563158
    16 0.039887 -1.522760 0.010322 -1.322195 -0.013315 0.028824
    17 0.028786 -1.114795 -0.093424 -0.619026 -0.011889 0.011289
    18 0.250027 -2.820665 -0.238396 -1.050916 0.227243 -0.420355
    19 -0.049759 -1.602417 0.049696 -1.314758 -0.064885 -0.044525
    20 -0.030236 -1.171750 0.045718 -1.205284 -0.118072 -0.078427
    21 0.957766 -2.746780 -0.090302 -0.092628 -0.150640 0.125858
    22 -0.033420 -1.393223 -0.019070 -0.600109 0.008389 -0.029363
    23 -0.022360 -0.961342 -0.004654 -0.961139 0.004159 -0.046692
    24 -1.180681 -2.507217 -0.193859 -1.675178 0.258966 -0.570879
    25 -0.024967 -1.123934 0.017597 -0.442062 0.101390 0.095962
    26 -0.020057 -0.902687 0.021809 -0.661508 0.007994 -0.025791
    27 0.583510 -1.197277 0.185379 0.245968 -0.714739 -0.750502
    28 1.504676 -0.173353 0.067511 0.291210 -0.168203 -0.611852
    29 1.065614 -0.128290 0.028385 -0.243734 -0.207444 -0.700792
    30 0.120153 -0.050270 -0.054489 0.287569 3.110905 1.561085
    31 -3.161482 -0.090478 -11.204750 0.773656 -3.924512 0.895300
    32 -0.110094 -8.446512 0.045324 -0.056822 -1.209905 -0.027486
    33 0.447953 -2.798986 -0.200443 -1.097799 0.006143 0.545691
    34 -0.032909 -1.499736 0.036191 -1.658992 0.022711 -0.034070
    35 -0.027022 -1.092546 -0.028023 -0.440957 0.011769 -0.004255
    36 -0.249534 -2.846964 -0.174213 -0.842445 0.089328 0.502056
    37 0.043235 -1.656596 0.060855 -1.618932 -0.023831 0.011015
    38 0.031729 -1.137392 0.051025 -1.351253 -0.015082 0.007581
    39 -0.963866 -2.785145 -0.085350 -0.391242 0.243460 0.427445
    40 0.028479 -1.406973 -0.021074 -1.092231 -0.030645 -0.036337
    41 0.021413 -0.938249 0.008327 -1.221799 -0.036397 -0.037212
    42 1.164475 -2.543940 -0.170330 -1.131105 -0.277926 0.648745
    43 0.024032 -1.152480 -0.009538 -1.452510 0.031304 0.066983
    44 0.014898 -0.899614 -0.015942 -0.858363 0.004374 0.043444
    45 -0.586770 -1.264477 0.200161 -0.004477 0.016935 -2.138016
    46 1.546273 0.039149 0.009035 0.229586 0.005865 0.576088
    47 1.114041 0.048424 -0.005766 0.036585 0.173291 -0.079292
    48 -0.139399 -0.111698 0.014397 0.285382 -0.030687 1.580508
    49 -7.772571 3.464013 -0.442564 1.573901 -0.031157 -0.504819
  time 10
    0 0.422876 -0.006882 -4.121752 1.583812 -0.139397 -1.558800
    1 2.233774 0.695171 0.000000 0.000000 0.000000 0.000000
    2 6.733442 -0.196285 0.641147 0.000000 0.000000 0.000000
    3 6.676370 -1.361634 0.000000 0.000000 0.000000 -0.000652
    4 6.680209 2.139774 0.092398 0.000000 1.570451 0.000000
    5 6.668489 2.135868 -0.094921 3.141592 1.570451 0.000000
    6 5.881130 2.216807 -0.000001 -1.570796 0.000000 1.570796
    7 5.881131 2.113124 0.000000 1.570797 0.000000 1.570796
    8 5.997545 -9.506489 0.000000 0.000000 0.000000 0.000000
    9 6.826621 2.896115 -0.002619 0.000000 -1.570787 0.000000
    10 0.002616 0.001794 0.000000 0.000000 0.000000 0.000000
    11 -0.002752 -0.001265 -0.003287 0.000000 0.000000 0.000000
    12 6.665491 3.599095 -7.893754 0.641842 -1.795807 -1.286957
    13 7.804255 -1.366631 -0.403721 -1.568357 -0.029051 -3.234463
    14 -0.099266 -8.576864 -0.143198 0.606506 0.087736 0.111672
    15 -0.488518 -2.755602 -0.228260 -1.298350 0.189322 -0.563158
    16 0.039887 -1.522760 0.010322 -1.322195 -0.013315 0.028824
    17 0.028786 -1.114795 -0.093424 -0.619026 -0.011889 0.011289
    18 0.250027 -2.820665 -0.238396 -1.050916 0.227243 -0.420355
    19 -0.049759 -1.602417 0.049696 -1.314758 -0.064885 -0.044525
    20 -0.030236 -1.171750 0.045718 -1.205284 -0.118072 -0.078427
    21 0.957766 -2.746780 -0.090302 -0.092628 -0.150640 0.125858
    22 -0.033420 -1.393223 -0.019070 -0.600109 0.008389 -0.029363
    23 -0.022360 -0.961342 -0.004654 -0.961139 0.004159 -0.046692
    24 -1.180681 -2.507217 -0.193859 -1.675178 0.258966 -0.570879
    25 -0.024967 -1.123934 0.017597 -0.442062 0.101390 0.095962
    26 -0.020057 -0.902687 0.021809 -0.661508 0.007994 -0.025791
    27 0.583510 -1.197277 0.185379 0.245968 -0.714739 -0.750502
    28 1.504676 -0.173353 0.067511 0.291210 -0.168203 -0.611852
    29 1.065614 -0.128290 0.028385 -0.243734 -0.207444 -0.700792
    30 0.120153 -0.050270 -0.054489 0.287569 3.110905 1.561085
    31 -3.016946 -0.192044 -11.146155 0.757417 -3.935396 0.899001
    32 -0.114000 -8.450418 0.045324 -0.044706 -1.205513 -0.004081
    33 0.447953 -2.798986 -0.200443 -1.097799 0.006143 0.545691
    34 -0.032909 -1.499736 0.036191 -1.658992 0.022711 -0.034070
    35 -0.027022 -1.092546 -0.028023 -0.440957 0.011769 -0.004255
    36 -0.249534 -2.846964 -0.174213 -0.842445 0.089328 0.502056
    37 0.043235 -1.656596 0.060855 -1.618932 -0.023831 0.011015
    38 0.031729 -1.137392 0.051025 -1.351253 -0.015082 0.007581
    39 -0.963866 -2.785145 -0.085350 -0.391242 0.243460 0.427445
    40 0.028479 -1.406973 -0.021074 -1.092231 -0.030645 -0.036337
    41 0.021413 -0.938249 0.008327 -1.221799 -0.036397 -0.037212
    42 1.164475 -2.543940 -0.170330 -1.131105 -0.277926 0.648745
    43 0.024032 -1.152480 -0.009538 -1.452510 0.031304 0.066983
    44 0.014898 -0.899614 -0.015942 -0.858363 0.004374 0.043444
    45 -0.586770 -1.264477 0.200161 -0.004477 0.016935 -2.138016
    46 1.546273 0.039149 0.009035 0.229586 0.005865 0.576088
    47 1.114041 0.048424 -0.005766 0.036585 0.173291 -0.079292
    48 -0.139399 -0.111698 0.014397 0.285382 -0.030687 1.580508
    49 -7.671005 3.729646 -0.434751 1.574476 -0.030487 -0.539281
  time 11
    0 0.852576 -0.315485 -3.856119 1.579796 -0.096390 -1.568327
    1 2.233774 0.695171 0.000000 0.000000 0.000000 0.000000
    2 6.733442 -0.196285 0.641147 0.000000 0.000000 0.000000
    3 6.676370 -1.361634 0.000000 0.000000 0.000000 -0.000652
    4 6.680209 2.139774 0.092398 0.000000 1.570451 0.000000
    5 6.668489 2.135868 -0.094921 3.141592 1.570451 0.000000
    6 5.881130 2.216807 -0.000001 -1.570796 0.000000 1.570796
    7 5.881131 2.113124 0.000000 1.570797 0.000000 1.570796
    8 5.997545 -9.506489 0.000000 0.000000 0.000000 0.000000
    9 6.826621 2.896115 -0.002619 0.000000 -1.570451 0.000000
    10 0.002616 0.001794 0.000000 0.000000 0.000000 0.000000
    11 -0.002752 -0.001265 -0.003287 0.000000 0.000000 0.000000
    12 6.614709 3.657691 -7.897660 0.726250 -1.796444 -1.310111
    13 7.780817 -1.452571 -0.403721 -1.568165 -0.029147 -3.245534
    14 -0.095359 -8.557332 -0.131479 0.535678 0.121404 0.068918
    15 -0.488518 -2.755602 -0.228260 -1.298350 0.189322 -0.563158
    16 0.039887 -1.522760 0.010322 -1.322195 -0.013315 0.028824
    17 0.028786 -1.114795 -0.093424 -0.619026 -0.011889 0.011289
    18 0.250027 -2.820665 -0.238396 -1.050916 0.227243 -0.420355
    19 -0.049759 -1.602417 0.049696 -1.314758 -0.064885 -0.044525
    20 -0.030236 -1.171750 0.045718 -1.205284 -0.118072 -0.078427
    21 0.957766 -2.746780 -0.090302 -0.092628 -0.150640 0.125858
    22 -0.033420 -1.393223 -0.019070 -0.600109 0.008389 -0.029363
    23 -0.022360 -0.961342 -0.004654 -0.961139 0.004159 -0.046692
    24 -1.180681 -2.507217 -0.193859 -1.675178 0.258966 -0.570879
    25 -0.024967 -1.123934 0.017597 -0.442062 0.101390 0.095962
    26 -0.020057 -0.902687 0.021809 -0.661508 0.007994 -0.025791
    27 0.583510 -1.197277 0.185379 0.245968 -0.714739 -0.750502
    28 1.504676 -0.173353 0.067511 0.291210 -0.168203 -0.611852
    29 1.065614 -0.128290 0.028385 -0.243734 -0.207444 -0.700792
    30 0.120153 -0.050270 -0.054489 0.287569 3.110905 1.561085
    31 -2.821628 -0.328766 -11.052402 0.738134 -3.947710 0.904316
    32 -0.114000 -8.450418 0.049231 -0.019267 -1.197448 0.008598
    33 0.447953 -2.798986 -0.200443 -1.097799 0.006143 0.545691
    34 -0.032909 -1.499736 0.036191 -1.658992 0.022711 -0.034070
    35 -0.027022 -1.092546 -0.028023 -0.440957 0.011769 -0.004255
    36 -0.249534 -2.846964 -0.174213 -0.842445 0.089328 0.502056
    37 0.043235 -1.656596 0.060855 -1.618932 -0.023831 0.011015
    38 0.031729 -1.137392 0.051025 -1.351253 -0.015082 0.007581
    39 -0.963866 -2.785145 -0.085350 -0.391242 0.243460 0.427445
    40 0.028479 -1.406973 -0.021074 -1.092231 -0.030645 -0.036337
    41 0.021413 -0.938249 0.008327 -1.221799 -0.036397 -0.037212
    42 1.164475 -2.543940 -0.170330 -1.131105 -0.277926 0.648745
    43 0.024032 -1.152480 -0.009538 -1.452510 0.031304 0.066983
    44 0.014898 -0.899614 -0.015942 -0.858363 0.004374 0.043444
    45 -0.586770 -1.264477 0.200161 -0.004477 0.016935 -2.138016
    46 1.546273 0.039149 0.009035 0.229586 0.005865 0.576088
    47 1.114041 0.048424 -0.005766 0.036585 0.173291 -0.079292
    48 -0.139399 -0.111698 0.014397 0.285382 -0.030687 1.580508
    49 -7.526470 4.077313 -0.430845 1.575339 -0.029529 -0.585294
  time 12
    0 1.391655 -0.596744 -3.777992 -1.567351 -3.058160 -4.720651
    1 2.233774 0.695171 0.000000 0.000000 0.000000 0.000000
    2 6.733442 -0.196285 0.641147 0.000000 0.000000 0.000000
    3 6.676370 -1.361634 0.000000 0.000000 0.000000 -0.000652
    4 6.680209 2.139774 0.092398 0.000000 1.570451 0.000000
    5 6.668489 2.135868 -0.094921 3.141592 1.570451 0.000000
    6 5.881130 2.216807 -0.000001 -1.570796 0.000000 1.570796
    7 5.881131 2.113124 0.000000 1.570797 0.000000 1.570796
    8 5.997545 -9.506489 0.000000 0.000000 0.000000 0.000000
    9 6.826621 2.896115 -0.002619 0.000000 -1.570787 0.000000
    10 0.002616 0.001794 0.000000 0.000000 0.000000 0.000000
    11 -0.002752 -0.001265 -0.003287 0.000000 0.000000 0.000000
    12 6.532675 3.720193 -7.909379 0.796033 -1.788344 -1.302552
    13 7.784723 -1.444758 -0.403721 -1.568165 -0.029147 -3.244070
    14 -0.095359 -8.541706 -0.127572 0.447851 0.135409 0.058080
    15 -0.488518 -2.755602 -0.228260 -1.298350 0.189322 -0.563158
    16 0.039887 -1.522760 0.010322 -1.322195 -0.013315 0.028824
    17 0.028786 -1.114795 -0.093424 -0.619026 -0.011889 0.011289
    18 0.250027 -2.820665 -0.238396 -1.050916 0.227243 -0.420355
    19 -0.049759 -1.602417 0.049696 -1.314758 -0.064885 -0.044525
    20 -0.030236 -1.171750 0.045718 -1.205284 -0.118072 -0.078427
    21 0.957766 -2.746780 -0.090302 -0.092628 -0.150640 0.125858
    22 -0.033420 -1.393223 -0.019070 -0.600109 0.008389 -0.029363
    23 -0.022360 -0.961342 -0.004654 -0.961139 0.004159 -0.046692
    24 -1.180681 -2.507217 -0.193859 -1.675178 0.258966 -0.570879
    25 -0.024967 -1.123934 0.017597 -0.442076 0.101390 0.095962
    26 -0.020057 -0.902687 0.021809 -0.661508 0.007994 -0.025791
    27 0.583510 -1.197277 0.185379 0.245968 -0.714739 -0.750502
    28 1.504676 -0.173353 0.067511 0.291210 -0.168203 -0.611852
    29 1.065614 -0.128290 0.028385 -0.243734 -0.207444 -0.700792
    30 0.120153 -0.050270 -0.054489 0.287569 3.110905 1.561085
    31 -2.548182 -0.512366 -10.884428 0.713141 -3.963281 0.907542
    32 -0.110094 -8.458231 0.049231 0.052137 -1.177613 -0.049311
    33 0.447953 -2.798986 -0.200443 -1.097799 0.006143 0.545691
    34 -0.032909 -1.499736 0.036191 -1.658992 0.022711 -0.034070
    35 -0.027022 -1.092546 -0.028023 -0.440957 0.011769 -0.004255
    36 -0.249534 -2.846964 -0.174213 -0.842445 0.089328 0.502056
    37 0.043235 -1.656596 0.060855 -1.618932 -0.023831 0.011015
    38 0.031729 -1.137392 0.051025 -1.351253 -0.015082 0.007581
    39 -0.963866 -2.785145 -0.085350 -0.391242 0.243460 0.427445
    40 0.028479 -1.406973 -0.021074 -1.092231 -0.030645 -0.036337
    41 0.021413 -0.938249 0.008327 -1.221799 -0.036397 -0.037212
    42 1.164475 -2.543940 -0.170330 -1.131105 -0.277926 0.648745
    43 0.024032 -1.152480 -0.009538 -1.452510 0.031304 0.066995
    44 0.014898 -0.899614 -0.015942 -0.858363 0.004374 0.043444
    45 -0.586770 -1.264477 0.200161 -0.004477 0.016935 -2.138016
    46 1.546273 0.039149 0.009035 0.229586 0.005865 0.576088
    47 1.114041 0.048424 -0.005766 0.036585 0.173291 -0.079292
    48 -0.139399 -0.111698 0.014397 0.285382 -0.030687 1.580508
    49 -7.276462 4.592954 -0.419126 1.576490 -0.028093 -0.654792
  time 13
    0 2.016674 -0.799875 -3.781898 -1.566681 -3.058351 -4.739156
    1 2.233774 0.695171 0.000000 0.000000 0.000000 0.000000
    2 6.733442 -0.196285 0.641147 0.000000 0.000000 0.000000
    3 6.676370 -1.361634 0.000000 0.000000 0.000000 -0.000652
    4 6.680209 2.139774 0.092398 0.000000 1.570451 0.000000
    5 6.668489 2.135868 -0.094921 3.141592 1.570451 0.000000
    6 5.881130 2.216807 -0.000001 -1.570796 0.000000 1.570796
    7 5.881131 2.113124 0.000000 1.570797 0.000000 1.570796
    8 5.997545 -9.506489 0.000000 0.000000 0.000000 0.000000
    9 6.826621 2.896115 -0.002619 0.000000 -1.570787 0.000000
    10 0.002616 0.001794 0.000000 0.000000 0.000000 0.000000
    11 -0.002752 -0.001265 -0.003287 0.000000 0.000000 0.000000
    12 6.454548 3.798320 -7.917192 0.856830 -1.777696 -1.279686
    13 7.784723 -1.440852 -0.403721 -1.568165 -0.029147 -3.243887
    14 -0.095359 -8.526081 -0.123666 0.345743 0.139979 0.057360
    15 -0.488518 -2.755602 -0.228260 -1.298350 0.189322 -0.563158
    16 0.039887 -1.522760 0.010322 -1.322195 -0.013315 0.028824
    17 0.028786 -1.114795 -0.093424 -0.619026 -0.011889 0.011289
    18 0.250027 -2.820665 -0.238396 -1.050916 0.227243 -0.420355
    19 -0.049759 -1.602417 0.049696 -1.314758 -0.064885 -0.044525
    20 -0.030236 -1.171750 0.045718 -1.205284 -0.118072 -0.078427
    21 0.957766 -2.746780 -0.090302 -0.092628 -0.150640 0.125858
    22 -0.033420 -1.393223 -0.019070 -0.600109 0.008389 -0.029363
    23 -0.022360 -0.961342 -0.004654 -0.961139 0.004159 -0.046692
    24 -1.180681 -2.507217 -0.193859 -1.675178 0.258966 -0.570879
    25 -0.024967 -1.123934 0.017597 -0.442076 0.101390 0.095962
    26 -0.020057 -0.902687 0.021809 -0.661508 0.007994 -0.025791
    27 0.583510 -1.197277 0.185379 0.245968 -0.714739 -0.750502
    28 1.504676 -0.173353 0.067511 0.291210 -0.168203 -0.611852
    29 1.065614 -0.128290 0.028385 -0.243734 -0.207444 -0.700792
    30 0.120153 -0.050270 -0.054489 0.287569 3.110905 1.561085
    31 -2.255204 -0.668621 -10.724267 0.687895 -3.977105 0.914281
    32 -0.102281 -8.469950 0.053137 0.158016 -1.152527 -0.142514
    33 0.447953 -2.798986 -0.200443 -1.097799 0.006143 0.545691
    34 -0.032909 -1.499736 0.036191 -1.658992 0.022711 -0.034070
    35 -0.027022 -1.092546 -0.028023 -0.440957 0.011769 -0.004255
    36 -0.249534 -2.846964 -0.174213 -0.842445 0.089328 0.502056
    37 0.043235 -1.656596 0.060855 -1.618932 -0.023831 0.011015
    38 0.031729 -1.137392 0.051025 -1.351253 -0.015082 0.007581
    39 -0.963866 -2.785145 -0.085350 -0.391242 0.243460 0.427445
    40 0.028479 -1.406973 -0.021074 -1.092231 -0.030645 -0.036337
    41 0.021413 -0.938249 0.008327 -1.221799 -0.036397 -0.037212
    42 1.164475 -2.543940 -0.170330 -1.131105 -0.277926 0.648745
    43 0.024032 -1.152480 -0.009538 -1.452510 0.031304 0.066983
    44 0.014898 -0.899614 -0.015942 -0.858363 0.004374 0.043444
    45 -0.586770 -1.264477 0.200161 -0.004477 0.016935 -2.138016
    46 1.546273 0.039149 0.009035 0.229586 0.005865 0.576088
    47 1.114041 0.048424 -0.005766 0.036585 0.173291 -0.079292
    48 -0.139399 -0.111698 0.014397 0.285382 -0.030687 1.580508
    49 -7.010829 5.053905 -0.411313 1.577448 -0.026753 -0.719229
  time 14
    0 2.731540 -0.893628 -3.817056 -1.552720 -3.056153 -4.772260
    1 2.233774 0.695171 0.000000 0.000000 0.000000 0.000000
    2 6.733442 -0.196285 0.641147 0.000000 0.000000 0.000000
    3 6.676370 -1.361634 0.000000 0.000000 0.000000 -0.000652
    4 6.680209 2.139774 0.092398 0.000000 1.570451 0.000000
    5 6.668489 2.135868 -0.094921 3.141592 1.570451 0.000000
    6 5.881130 2.224620 -0.000001 -1.570796 0.000000 1.570796
    7 5.881131 2.120936 0.000000 1.570797 0.000000 1.570796
    8 5.997545 -9.506489 0.000000 0.000000 0.000000 0.000000
    9 6.826621 2.896115 -0.002619 0.000000 -1.570787 0.000000
    10 0.002616 0.001794 0.000000 0.000000 0.000000 0.000000
    11 -0.002752 -0.001265 -0.003287 0.000000 0.000000 0.000000
    12 6.403765 3.919417 -7.913286 0.904721 -1.768323 -1.239885
    13 7.765191 -1.515073 -0.403721 -1.568070 -0.029243 -3.253403
    14 -0.095359 -8.506549 -0.123666 0.223631 0.138192 0.054444
    15 -0.488518 -2.755602 -0.228260 -1.298350 0.189322 -0.563158
    16 0.039887 -1.522760 0.010322 -1.322195 -0.013315 0.028824
    17 0.028786 -1.114795 -0.093424 -0.619026 -0.011889 0.011289
    18 0.250027 -2.820665 -0.238396 -1.050916 0.227243 -0.420355
    19 -0.049759 -1.602417 0.049696 -1.314758 -0.064885 -0.044525
    20 -0.030236 -1.171750 0.045718 -1.205284 -0.118072 -0.078427
    21 0.957766 -2.746780 -0.090302 -0.092628 -0.150640 0.125858
    22 -0.033420 -1.393223 -0.019070 -0.600109 0.008389 -0.029363
    23 -0.022360 -0.961342 -0.004654 -0.961139 0.004159 -0.046692
    24 -1.180681 -2.507217 -0.193859 -1.675178 0.258966 -0.570879
    25 -0.024967 -1.123934 0.017597 -0.442076 0.101390 0.095962
    26 -0.020057 -0.902687 0.021809 -0.661508 0.007994 -0.025791
    27 0.583510 -1.197277 0.185379 0.245968 -0.714739 -0.750502
    28 1.504676 -0.173353 0.067511 0.291210 -0.168203 -0.611852
    29 1.065614 -0.128290 0.028385 -0.243734 -0.207444 -0.700792
    30 0.120153 -0.050270 -0.054489 0.287569 3.110905 1.561085
    31 -1.977852 -0.750654 -10.642233 0.667787 -3.985288 0.932218
    32 -0.098374 -8.485576 0.057043 0.303406 -1.123220 -0.257377
    33 0.447953 -2.798986 -0.200443 -1.097799 0.006143 0.545691
    34 -0.032909 -1.499736 0.036191 -1.658992 0.022711 -0.034070
    35 -0.027022 -1.092546 -0.028023 -0.440957 0.011769 -0.004255
    36 -0.249534 -2.846964 -0.174213 -0.842445 0.089328 0.502056
    37 0.043235 -1.656596 0.060855 -1.618932 -0.023831 0.011015
    38 0.031729 -1.137392 0.051025 -1.351253 -0.015082 0.007581
    39 -0.963866 -2.785145 -0.085350 -0.391242 0.243460 0.427445
    40 0.028479 -1.406973 -0.021074 -1.092231 -0.030645 -0.036337
    41 0.021413 -0.938249 0.008327 -1.221799 -0.036397 -0.037212
    42 1.164475 -2.543940 -0.170330 -1.131105 -0.277926 0.648745
    43 0.024032 -1.152480 -0.009538 -1.452510 0.031304 0.066983
    44 0.014898 -0.899614 -0.015942 -0.858363 0.004374 0.043444
    45 -0.586770 -1.264477 0.200161 -0.004477 0.016935 -2.138016
    46 1.546273 0.039149 0.009035 0.229586 0.005865 0.576088
    47 1.114041 0.048424 -0.005766 0.036585 0.173291 -0.079292
    48 -0.139399 -0.111698 0.014397 0.285382 -0.030687 1.580508
    49 -6.842855 5.315632 -0.403501 1.578024 -0.025892 -0.756937
  time 15
    0 3.516720 -0.967849 -3.863932 -1.533404 -3.052425 -4.812354
    1 2.233774 0.695171 0.000000 0.000000 0.000000 0.000000
    2 6.733442 -0.196285 0.641147 0.000000 0.000000 0.000000
    3 6.676370 -1.361634 0.000000 0.000000 0.000000 -0.000652
    4 6.680209 2.139774 0.092398 0.000000 1.570451 0.000000
    5 6.668489 2.135868 -0.094921 3.141592 1.570451 0.000000
    6 5.881130 2.236339 -0.000001 -1.570796 0.000000 1.570796
    7 5.881131 2.113124 0.000000 4.712389 3.141592 -1.570796
    8 5.997545 -9.506489 0.000000 0.000000 0.000000 0.000000
    9 6.826621 2.896115 -0.002619 0.000000 -1.570451 0.000000
    10 0.002616 0.001794 0.000000 0.000000 0.000000 0.000000
    11 -0.002752 -0.001265 -0.003287 0.000000 0.000000 0.000000
    12 6.333450 4.005358 -7.913286 0.954429 -1.759859 -1.193961
    13 7.757378 -1.546324 -0.403721 -1.567974 -0.029339 -3.257338
    14 -0.099266 -8.490924 -0.127572 0.086340 0.134006 0.052146
    15 -0.488518 -2.755602 -0.228260 -1.298350 0.189322 -0.563158
    16 0.039887 -1.522760 0.010322 -1.322195 -0.013315 0.028824
    17 0.028786 -1.114795 -0.093424 -0.619026 -0.011889 0.011289
    18 0.250027 -2.820665 -0.238396 -1.050916 0.227243 -0.420355
    19 -0.049759 -1.602417 0.049696 -1.314758 -0.064885 -0.044525
    20 -0.030236 -1.171750 0.045718 -1.205284 -0.118072 -0.078427
    21 0.957766 -2.746780 -0.090302 -0.092628 -0.150640 0.125858
    22 -0.033420 -1.393223 -0.019070 -0.600109 0.008389 -0.029363
    23 -0.022360 -0.961342 -0.004654 -0.961139 0.004159 -0.046692
    24 -1.180681 -2.507217 -0.193859 -1.675178 0.258966 -0.570879
    25 -0.024967 -1.123934 0.017597 -0.442076 0.101390 0.095962
    26 -0.020057 -0.902687 0.021809 -0.661508 0.007994 -0.025791
    27 0.583510 -1.197277 0.185379 0.245968 -0.714739 -0.750502
    28 1.504676 -0.173353 0.067511 0.291210 -0.168203 -0.611852
    29 1.065614 -0.128290 0.028385 -0.243734 -0.207444 -0.700792
    30 0.120153 -0.050270 -0.054489 0.287569 3.110905 1.561085
    31 -1.677062 -0.817063 -10.564106 0.645713 -3.993471 0.951294
    32 -0.094468 -8.505108 0.057043 0.455541 -1.083982 -0.375024
    33 0.447953 -2.798986 -0.200443 -1.097799 0.006143 0.545691
    34 -0.032909 -1.499736 0.036191 -1.658992 0.022711 -0.034070
    35 -0.027022 -1.092546 -0.028023 -0.440957 0.011769 -0.004255
    36 -0.249534 -2.846964 -0.174213 -0.842445 0.089328 0.502056
    37 0.043235 -1.656596 0.060855 -1.618932 -0.023831 0.011015
    38 0.031729 -1.137392 0.051025 -1.351253 -0.015082 0.007581
    39 -0.963866 -2.785145 -0.085350 -0.391242 0.243460 0.427445
    40 0.028479 -1.406973 -0.021074 -1.092231 -0.030645 -0.036337
    41 0.021413 -0.938249 0.008327 -1.221799 -0.036397 -0.037212
    42 1.164475 -2.543940 -0.170330 -1.131105 -0.277926 0.648745
    43 0.024032 -1.152480 -0.009538 -1.452510 0.031304 0.066983
    44 0.014898 -0.899614 -0.015942 -0.858363 0.004374 0.043444
    45 -0.586770 -1.264477 0.200161 -0.004477 0.016935 -2.138016
    46 1.546273 0.039149 0.009035 0.229586 0.005865 0.576088
    47 1.114041 0.048424 -0.005766 0.036585 0.173291 -0.079292
    48 -0.139399 -0.111698 0.014397 0.285382 -0.030687 1.580508
    49 -6.659256 5.573452 -0.395688 1.578503 -0.024934 -0.795218
  time 16
    0 4.286275 -1.026444 -3.914715 -1.513515 -3.048985 -4.852106
    1 2.233774 0.695171 0.000000 0.000000 0.000000 0.000000
    2 6.733442 -0.196285 0.641147 0.000000 0.000000 0.000000
    3 6.676370 -1.361634 0.000000 0.000000 0.000000 -0.000652
    4 6.680209 2.139774 0.092398 0.000000 1.570451 0.000000
    5 6.668489 2.135868 -0.094921 3.141592 1.570451 0.000000
    6 5.908475 2.138680 -0.000001 -1.570796 0.000000 1.570796
    7 5.900663 2.183438 0.000000 4.712389 3.141592 -1.570796
    8 5.997545 -9.506489 0.000000 0.000000 0.000000 0.000000
    9 6.826621 2.896115 -0.002619 0.000000 -1.570451 0.000000
    10 0.002616 0.001794 0.000000 0.000000 0.000000 0.000000
    11 -0.002752 -0.001265 -0.003287 0.000000 0.000000 0.000000
    12 6.251416 4.020983 -7.921098 1.007770 -1.753033 -1.154160
    13 7.765191 -1.511166 -0.403721 -1.568070 -0.029243 -3.252671
    14 -0.103172 -8.467485 -0.131479 -0.047749 0.129142 0.050414
    15 -0.488518 -2.755602 -0.228260 -1.298350 0.189322 -0.563158
    16 0.039887 -1.522760 0.010322 -1.322195 -0.013315 0.028824
    17 0.028786 -1.114795 -0.093424 -0.619026 -0.011889 0.011289
    18 0.250027 -2.820665 -0.238396 -1.050916 0.227243 -0.420355
    19 -0.049759 -1.602417 0.049696 -1.314758 -0.064885 -0.044525
    20 -0.030236 -1.171750 0.045718 -1.205284 -0.118072 -0.078427
    21 0.957766 -2.746780 -0.090302 -0.092628 -0.150640 0.125858
    22 -0.033420 -1.393223 -0.019070 -0.600109 0.008389 -0.029363
    23 -0.022360 -0.961342 -0.004654 -0.961139 0.004159 -0.046692
    24 -1.180681 -2.507217 -0.193859 -1.675178 0.258966 -0.570879
    25 -0.024967 -1.123934 0.017597 -0.442076 0.101390 0.095962
    26 -0.020057 -0.902687 0.021809 -0.661508 0.007994 -0.025791
    27 0.583510 -1.197277 0.185379 0.245968 -0.714739 -0.750502
    28 1.504676 -0.173353 0.067511 0.291210 -0.168203 -0.611852
    29 1.065614 -0.128290 0.028385 -0.243734 -0.207444 -0.700792
    30 0.120153 -0.050270 -0.054489 0.287569 3.110905 1.561085
    31 -1.372365 -0.871752 -10.478166 0.622433 -4.002528 0.967333
    32 -0.090562 -8.524639 0.057043 0.584651 -1.039205 -0.473507
    33 0.447953 -2.798986 -0.200443 -1.097799 0.006143 0.545691
    34 -0.032909 -1.499736 0.036191 -1.658992 0.022711 -0.034070
    35 -0.027022 -1.092546 -0.028023 -0.440957 0.011769 -0.004255
    36 -0.249534 -2.846964 -0.174213 -0.842445 0.089328 0.502056
    37 0.043235 -1.656596 0.060855 -1.618932 -0.023831 0.011015
    38 0.031729 -1.137392 0.051025 -1.351253 -0.015082 0.007581
    39 -0.963866 -2.785145 -0.085350 -0.391242 0.243460 0.427445
    40 0.028479 -1.406973 -0.021074 -1.092231 -0.030645 -0.036337
    41 0.021413 -0.938249 0.008327 -1.221799 -0.036397 -0.037212
    42 1.164475 -2.543940 -0.170330 -1.131105 -0.277926 0.648745
    43 0.024032 -1.152480 -0.009538 -1.452510 0.031304 0.066983
    44 0.014898 -0.899614 -0.015942 -0.858363 0.004374 0.043444
    45 -0.586770 -1.264477 0.200161 -0.004477 0.016935 -2.138016
    46 1.546273 0.039149 0.009035 0.229586 0.005865 0.576088
    47 1.114041 0.048424 -0.005766 0.036585 0.173291 -0.079292
    48 -0.139399 -0.111698 0.014397 0.285382 -0.030687 1.580508
    49 -6.456125 5.842992 -0.387875 1.579078 -0.023977 -0.836649
  time 17
    0 4.942545 -1.081133 -3.953779 -1.498119 -3.046882 -4.883908
    1 2.233774 0.695171 0.000000 0.000000 0.000000 0.000000
    2 6.733442 -0.196285 0.641147 0.000000 0.000000 0.000000
    3 6.676370 -1.361634 0.000000 0.000000 0.000000 -0.000652
    4 6.680209 2.139774 0.092398 0.000000 1.570451 0.000000
    5 6.668489 2.135868 -0.094921 3.141592 1.570451 0.000000
    6 5.908475 2.138680 -0.000001 -1.570796 0.000000 1.570796
    7 5.900663 2.183438 0.000000 4.712389 3.141592 -1.570796
    8 5.997545 -9.506489 0.000000 0.000000 0.000000 0.000000
    9 6.826621 2.896115 -0.002619 0.000000 -1.570451 0.000000
    10 0.002616 0.001794 0.000000 0.000000 0.000000 0.000000
    11 -0.002752 -0.001265 -0.003287 0.000000 0.000000 0.000000
    12 6.173289 3.981919 -7.936724 1.063214 -1.747664 -1.130050
    13 7.792536 -1.421320 -0.403721 -1.568261 -0.029051 -3.241325
    14 -0.103172 -8.451860 -0.139291 -0.160144 0.125227 0.048614
    15 -0.488518 -2.755602 -0.228260 -1.298350 0.189322 -0.563158
    16 0.039887 -1.522760 0.010322 -1.322195 -0.013315 0.028824
    17 0.028786 -1.114795 -0.093424 -0.619026 -0.011889 0.011289
    18 0.250027 -2.820665 -0.238396 -1.050916 0.227243 -0.420355
    19 -0.049759 -1.602417 0.049696 -1.314758 -0.064885 -0.044525
    20 -0.030236 -1.171750 0.045718 -1.205284 -0.118072 -0.078427
    21 0.957766 -2.746780 -0.090302 -0.092628 -0.150640 0.125858
    22 -0.033420 -1.393223 -0.019070 -0.600109 0.008389 -0.029363
    23 -0.022360 -0.961342 -0.004654 -0.961139 0.004159 -0.046692
    24 -1.180681 -2.507217 -0.193859 -1.675178 0.258966 -0.570879
    25 -0.024967 -1.123934 0.017597 -0.442076 0.101390 0.095962
    26 -0.020057 -0.902687 0.021809 -0.661508 0.007994 -0.025791
    27 0.583510 -1.197277 0.185379 0.245968 -0.714739 -0.750502
    28 1.504676 -0.173353 0.067511 0.291210 -0.168203 -0.611852
    29 1.065614 -0.128290 0.028385 -0.243734 -0.207444 -0.700792
    30 0.120153 -0.050270 -0.054489 0.287569 3.110905 1.561085
    31 -1.091106 -0.910815 -10.384413 0.599407 -4.012299 0.976729
    32 -0.090562 -8.540265 0.057043 0.675333 -0.997958 -0.543098
    33 0.447953 -2.798986 -0.200443 -1.097799 0.006143 0.545691
    34 -0.032909 -1.499736 0.036191 -1.658992 0.022711 -0.034070
    35 -0.027022 -1.092546 -0.028023 -0.440957 0.011769 -0.004255
    36 -0.249534 -2.846964 -0.174213 -0.842445 0.089328 0.502056
    37 0.043235 -1.656596 0.060855 -1.618932 -0.023831 0.011015
    38 0.031729 -1.137392 0.051025 -1.351253 -0.015082 0.007581
    39 -0.963866 -2.785145 -0.085350 -0.391242 0.243460 0.427445
    40 0.028479 -1.406973 -0.021074 -1.092231 -0.030645 -0.036337
    41 0.021413 -0.938249 0.008327 -1.221799 -0.036397 -0.037212
    42 1.164475 -2.543940 -0.170330 -1.131105 -0.277926 0.648745
    43 0.024032 -1.152480 -0.009538 -1.452510 0.031304 0.066995
    44 0.014898 -0.899614 -0.015942 -0.858363 0.004374 0.043444
    45 -0.586770 -1.264477 0.200161 -0.004477 0.016935 -2.138016
    46 1.546273 0.039149 0.009035 0.229586 0.005865 0.576088
    47 1.114041 0.048424 -0.005766 0.036585 0.173291 -0.079292
    48 -0.139399 -0.111698 0.014397 0.285382 -0.030687 1.580508
    49 -6.225649 6.120344 -0.380062 1.579558 -0.022924 -0.880276
  time 18
    0 5.395684 -1.131916 -3.973310 -1.492286 -3.047073 -4.900220
    1 2.233774 0.695171 0.000000 0.000000 0.000000 0.000000
    2 6.733442 -0.196285 0.641147 0.000000 0.000000 0.000000
    3 6.676370 -1.361634 0.000000 0.000000 0.000000 -0.000652
    4 6.680209 2.139774 0.092398 0.000000 1.570451 0.000000
    5 6.668489 2.135868 -0.094921 3.141592 1.570451 0.000000
    6 5.908475 2.138680 -0.000001 -1.570796 0.000000 1.570796
    7 5.900663 2.183438 0.000000 4.712389 3.141592 -1.570796
    8 5.997545 -9.506489 0.000000 0.000000 0.000000 0.000000
    9 6.826621 2.896115 -0.002619 0.000000 -1.570787 0.000000
    10 0.002616 0.001794 0.000000 0.000000 0.000000 0.000000
    11 -0.002752 -0.001265 -0.003287 0.000000 0.000000 0.000000
    12 6.110787 3.919417 -7.948443 1.115790 -1.743295 -1.126702
    13 7.819880 -1.319754 -0.403721 -1.568453 -0.028955 -3.228607
    14 -0.103172 -8.440141 -0.143198 -0.232968 0.123824 0.045664
    15 -0.488518 -2.755602 -0.228260 -1.298350 0.189322 -0.563158
    16 0.039887 -1.522760 0.010322 -1.322195 -0.013315 0.028824
    17 0.028786 -1.114795 -0.093424 -0.619026 -0.011889 0.011289
    18 0.250027 -2.820665 -0.238396 -1.050916 0.227243 -0.420355
    19 -0.049759 -1.602417 0.049696 -1.314758 -0.064885 -0.044525
    20 -0.030236 -1.171750 0.045718 -1.205284 -0.118072 -0.078427
    21 0.957766 -2.746780 -0.090302 -0.092628 -0.150640 0.125858
    22 -0.033420 -1.393223 -0.019070 -0.600109 0.008389 -0.029363
    23 -0.022360 -0.961342 -0.004654 -0.961139 0.004159 -0.046692
    24 -1.180681 -2.507217 -0.193859 -1.675178 0.258966 -0.570879
    25 -0.024967 -1.123934 0.017597 -0.442076 0.101390 0.095962
    26 -0.020057 -0.902687 0.021809 -0.661508 0.007994 -0.025791
    27 0.583510 -1.197277 0.185379 0.245968 -0.714739 -0.750502
    28 1.504676 -0.173353 0.067511 0.291210 -0.168203 -0.611852
    29 1.065614 -0.128290 0.028385 -0.243734 -0.207444 -0.700792
    30 0.120153 -0.050270 -0.054489 0.287569 3.110905 1.561085
    31 -0.868443 -0.945973 -10.286753 0.578411 -4.021038 0.977393
    32 -0.086655 -8.551984 0.057043 0.720965 -0.971063 -0.580595
    33 0.447953 -2.798986 -0.200443 -1.097799 0.006143 0.545691
    34 -0.032909 -1.499736 0.036191 -1.658992 0.022711 -0.034070
    35 -0.027022 -1.092546 -0.028023 -0.440957 0.011769 -0.004255
    36 -0.249534 -2.846964 -0.174213 -0.842445 0.089328 0.502056
    37 0.043235 -1.656596 0.060855 -1.618932 -0.023831 0.011015
    38 0.031729 -1.137392 0.051025 -1.351253 -0.015082 0.007581
    39 -0.963866 -2.785145 -0.085350 -0.391242 0.243460 0.427445
    40 0.028479 -1.406973 -0.021074 -1.092231 -0.030645 -0.036337
    41 0.021413 -0.938249 0.008327 -1.221799 -0.036397 -0.037212
    42 1.164475 -2.543940 -0.170330 -1.131105 -0.277926 0.648745
    43 0.024032 -1.152480 -0.009538 -1.452510 0.031304 0.066983
    44 0.014898 -0.899614 -0.015942 -0.858363 0.004374 0.043444
    45 -0.586770 -1.264477 0.200161 -0.004477 0.016935 -2.138016
    46 1.546273 0.039149 0.009035 0.229586 0.005865 0.576088
    47 1.114041 0.048424 -0.005766 0.036585 0.173291 -0.079292
    48 -0.139399 -0.111698 0.014397 0.285382 -0.030687 1.580508
    49 -5.991267 6.378165 -0.372250 1.579941 -0.021871 -0.922375
  time 19
    0 5.505062 -1.167073 -3.961591 -1.503092 -3.050227 -4.889528
    1 2.233774 0.695171 0.000000 0.000000 0.000000 0.000000
    2 6.733442 -0.196285 0.641147 0.000000 0.000000 0.000000
    3 6.676370 -1.361634 0.000000 0.000000 0.000000 -0.000652
    4 6.680209 2.139774 0.092398 0.000000 1.570451 0.000000
    5 6.668489 2.135868 -0.094921 3.141592 1.570451 0.000000
    6 5.908475 2.138680 -0.000001 -1.570796 0.000000 1.570796
    7 5.900663 2.183438 0.000000 4.712389 3.141592 -1.570796
    8 5.997545 -9.506489 0.000000 0.000000 0.000000 0.000000
    9 6.826621 2.896115 -0.002619 0.000000 -1.570787 0.000000
    10 0.002616 0.001794 0.000000 0.000000 0.000000 0.000000
    11 -0.002752 -0.001265 -0.003287 0.000000 0.000000 0.000000
    12 6.067817 3.903792 -7.952349 1.154027 -1.739200 -1.146889
    13 7.827693 -1.288503 -0.403721 -1.568549 -0.028859 -3.224490
    14 -0.103172 -8.440141 -0.143198 -0.240601 0.127739 0.041188
    15 -0.488518 -2.755602 -0.228260 -1.298350 0.189322 -0.563158
    16 0.039887 -1.522760 0.010322 -1.322195 -0.013315 0.028824
    17 0.028786 -1.114795 -0.093424 -0.619026 -0.011889 0.011289
    18 0.250027 -2.820665 -0.238396 -1.050916 0.227243 -0.420355
    19 -0.049759 -1.602417 0.049696 -1.314758 -0.064885 -0.044525
    20 -0.030236 -1.171750 0.045718 -1.205284 -0.118072 -0.078427
    21 0.957766 -2.746780 -0.090302 -0.092628 -0.150640 0.125858
    22 -0.033420 -1.393223 -0.019070 -0.600109 0.008389 -0.029363
    23 -0.022360 -0.961342 -0.004654 -0.961139 0.004159 -0.046692
    24 -1.180681 -2.507217 -0.193859 -1.675178 0.258966 -0.570879
    25 -0.024967 -1.123934 0.017597 -0.442076 0.101390 0.095962
    26 -0.020057 -0.902687 0.021809 -0.661508 0.007994 -0.025791
    27 0.583510 -1.197277 0.185379 0.245968 -0.714739 -0.750502
    28 1.504676 -0.173353 0.067511 0.291210 -0.168203 -0.611852
    29 1.065614 -0.128290 0.028385 -0.243734 -0.207444 -0.700792
    30 0.120153 -0.050270 -0.054489 0.287569 3.110905 1.561085
    31 -0.759065 -0.969411 -10.208626 0.565661 -4.026758 0.970560
    32 -0.086655 -8.548078 0.057043 0.704644 -0.970890 -0.573196
    33 0.447953 -2.798986 -0.200443 -1.097799 0.006143 0.545691
    34 -0.032909 -1.499736 0.036191 -1.658992 0.022711 -0.034070
    35 -0.027022 -1.092546 -0.028023 -0.440957 0.011769 -0.004255
    36 -0.249534 -2.846964 -0.174213 -0.842445 0.089328 0.502056
    37 0.043235 -1.656596 0.060855 -1.618932 -0.023831 0.011015
    38 0.031729 -1.137392 0.051025 -1.351253 -0.015082 0.007581
    39 -0.963866 -2.785145 -0.085350 -0.391242 0.243460 0.427445
    40 0.028479 -1.406973 -0.021074 -1.092231 -0.030645 -0.036337
    41 0.021413 -0.938249 0.008327 -1.221799 -0.036397 -0.037212
    42 1.164475 -2.543940 -0.170330 -1.131105 -0.277926 0.648745
    43 0.024032 -1.152480 -0.009538 -1.452510 0.031304 0.066983
    44 0.014898 -0.899614 -0.015942 -0.858363 0.004374 0.043444
    45 -0.586770 -1.264477 0.200161 -0.004477 0.016935 -2.138016
    46 1.546273 0.039149 0.009035 0.229586 0.005865 0.576088
    47 1.114041 0.048424 -0.005766 0.036585 0.173291 -0.079292
    48 -0.139399 -0.111698 0.014397 0.285382 -0.030687 1.580508
    49 -5.819386 6.557858 -0.368343 1.580229 -0.021105 -0.952732
  time 20
    0 5.325369 -1.182699 -3.926434 -1.526998 -3.056248 -4.856904
    1 2.233774 0.695171 0.000000 0.000000 0.000000 0.000000
    2 6.733442 -0.196285 0.641147 0.000000 0.000000 0.000000
    3 6.676370 -1.361634 0.000000 0.000000 0.000000 -0.000652
    4 6.680209 2.139774 0.092398 0.000000 1.570451 0.000000
    5 6.668489 2.135868 -0.094921 3.141592 1.570451 0.000000
    6 5.908475 2.138680 -0.000001 -1.570796 0.000000 1.570796
    7 5.900663 2.183438 0.000000 4.712389 3.141592 -1.570796
    8 5.997545 -9.506489 0.000000 0.000000 0.000000 0.000000
    9 6.826621 2.896115 -0.002619 0.000000 -1.570787 0.000000
    10 0.002616 0.001794 0.000000 0.000000 0.000000 0.000000
    11 -0.002752 -0.001265 -0.003287 0.000000 0.000000 0.000000
    12 6.040472 3.946762 -7.948443 1.176873 -1.735105 -1.183246
    13 7.815974 -1.335380 -0.403721 -1.568453 -0.028955 -3.230162
    14 -0.103172 -8.444047 -0.139291 -0.193902 0.136540 0.036849
    15 -0.488518 -2.755602 -0.228260 -1.298350 0.189322 -0.563158
    16 0.039887 -1.522760 0.010322 -1.322195 -0.013315 0.028824
    17 0.028786 -1.114795 -0.093424 -0.619026 -0.011889 0.011289
    18 0.250027 -2.820665 -0.238396 -1.050916 0.227243 -0.420355
    19 -0.049759 -1.602417 0.049696 -1.314758 -0.064885 -0.044525
    20 -0.030236 -1.171750 0.045718 -1.205284 -0.118072 -0.078427
    21 0.957766 -2.746780 -0.090302 -0.092628 -0.150640 0.125858
    22 -0.033420 -1.393223 -0.019070 -0.600109 0.008389 -0.029363
    23 -0.022360 -0.961342 -0.004654 -0.961139 0.004159 -0.046692
    24 -1.180681 -2.507217 -0.193859 -1.675178 0.258966 -0.570879
    25 -0.024967 -1.123934 0.017597 -0.442076 0.101390 0.095962
    26 -0.020057 -0.902687 0.021809 -0.661508 0.007994 -0.025791
    27 0.583510 -1.197277 0.185379 0.245968 -0.714739 -0.750502
    28 1.504676 -0.173353 0.067511 0.291210 -0.168203 -0.611852
    29 1.065614 -0.128290 0.028385 -0.243734 -0.207444 -0.700792
    30 0.120153 -0.050270 -0.054489 0.287569 3.110905 1.561085
    31 -0.755159 -0.992849 -10.157843 0.562490 -4.029539 0.961069
    32 -0.086655 -8.536359 0.057043 0.636445 -0.990839 -0.525846
    33 0.447953 -2.798986 -0.200443 -1.097799 0.006143 0.545691
    34 -0.032909 -1.499736 0.036191 -1.658992 0.022711 -0.034070
    35 -0.027022 -1.092546 -0.028023 -0.440957 0.011769 -0.004255
    36 -0.249534 -2.846964 -0.174213 -0.842445 0.089328 0.502056
    37 0.043235 -1.656596 0.060855 -1.618932 -0.023831 0.011015
    38 0.031729 -1.137392 0.051025 -1.351253 -0.015082 0.007581
    39 -0.963866 -2.785145 -0.085350 -0.391242 0.243460 0.427445
    40 0.028479 -1.406973 -0.021074 -1.092231 -0.030645 -0.036337
    41 0.021413 -0.938249 0.008327 -1.221799 -0.036397 -0.037212
    42 1.164475 -2.543940 -0.170330 -1.131105 -0.277926 0.648745
    43 0.024032 -1.152480 -0.009538 -1.452510 0.031304 0.066983
    44 0.014898 -0.899614 -0.015942 -0.858363 0.004374 0.043444
    45 -0.586770 -1.264477 0.200161 -0.004477 0.016935 -2.138016
    46 1.546273 0.039149 0.009035 0.229586 0.005865 0.576088
    47 1.114041 0.048424 -0.005766 0.036585 0.173291 -0.079292
    48 -0.139399 -0.111698 0.014397 0.285382 -0.030687 1.580508
    49 -5.729540 6.643798 -0.364437 1.580420 -0.020722 -0.967911
  time 21
    0 5.051923 -1.194418 -3.883464 -1.553390 -3.063607 -4.819482
    1 2.233774 0.695171 0.000000 0.000000 0.000000 0.000000
    2 6.733442 -0.196285 0.641147 0.000000 0.000000 0.000000
    3 6.676370 -1.361634 0.000000 0.000000 0.000000 -0.000652
    4 6.680209 2.139774 0.092398 0.000000 1.570451 0.000000
    5 6.668489 2.135868 -0.094921 3.141592 1.570451 0.000000
    6 5.908475 2.138680 -0.000001 -1.570796 0.000000 1.570796
    7 5.900663 2.183438 0.000000 4.712389 3.141592 -1.570796
    8 5.997545 -9.506489 0.000000 0.000000 0.000000 0.000000
    9 6.826621 2.896115 -0.002619 0.000000 -1.570787 0.000000
    10 0.002616 0.001794 0.000000 0.000000 0.000000 0.000000
    11 -0.002752 -0.001265 -0.003287 0.000000 0.000000 0.000000
    12 6.024847 4.001451 -7.940630 1.193124 -1.731737 -1.224673
    13 7.800348 -1.393975 -0.403721 -1.568261 -0.029051 -3.238031
    14 -0.099266 -8.451860 -0.135385 -0.130224 0.146631 0.034020
    15 -0.488518 -2.755602 -0.228260 -1.298350 0.189322 -0.563158
    16 0.039887 -1.522760 0.010322 -1.322195 -0.013315 0.028824
    17 0.028786 -1.114795 -0.093424 -0.619026 -0.011889 0.011289
    18 0.250027 -2.820665 -0.238396 -1.050916 0.227243 -0.420355
    19 -0.049759 -1.602417 0.049696 -1.314758 -0.064885 -0.044525
    20 -0.030236 -1.171750 0.045718 -1.205284 -0.118072 -0.078427
    21 0.957766 -2.746780 -0.090302 -0.092628 -0.150640 0.125858
    22 -0.033420 -1.393223 -0.019070 -0.600109 0.008389 -0.029363
    23 -0.022360 -0.961342 -0.004654 -0.961139 0.004159 -0.046692
    24 -1.180681 -2.507217 -0.193859 -1.675178 0.258966 -0.570879
    25 -0.024967 -1.123934 0.017597 -0.442076 0.101390 0.095962
    26 -0.020057 -0.902687 0.021809 -0.661508 0.007994 -0.025791
    27 0.583510 -1.197277 0.185379 0.245968 -0.714739 -0.750502
    28 1.504676 -0.173353 0.067511 0.291210 -0.168203 -0.611852
    29 1.065614 -0.128290 0.028385 -0.243734 -0.207444 -0.700792
    30 0.120153 -0.050270 -0.054489 0.287569 3.110905 1.561085
    31 -0.786410 -1.008475 -10.130499 0.563885 -4.031128 0.952148
    32 -0.082749 -8.524639 0.057043 0.549803 -1.013487 -0.462033
    33 0.447953 -2.798986 -0.200443 -1.097799 0.006143 0.545691
    34 -0.032909 -1.499736 0.036191 -1.658992 0.022711 -0.034070
    35 -0.027022 -1.092546 -0.028023 -0.440957 0.011769 -0.004255
    36 -0.249534 -2.846964 -0.174213 -0.842445 0.089328 0.502056
    37 0.043235 -1.656596 0.060855 -1.618932 -0.023831 0.011015
    38 0.031729 -1.137392 0.051025 -1.351253 -0.015082 0.007581
    39 -0.963866 -2.785145 -0.085350 -0.391242 0.243460 0.427445
    40 0.028479 -1.406973 -0.021074 -1.092231 -0.030645 -0.036337
    41 0.021413 -0.938249 0.008327 -1.221799 -0.036397 -0.037212
    42 1.164475 -2.543940 -0.170330 -1.131105 -0.277926 0.648745
    43 0.024032 -1.152480 -0.009538 -1.452510 0.031304 0.066983
    44 0.014898 -0.899614 -0.015942 -0.858363 0.004374 0.043444
    45 -0.586770 -1.264477 0.200161 -0.004477 0.016935 -2.138016
    46 1.546273 0.039149 0.009035 0.229586 0.005865 0.576088
    47 1.114041 0.048424 -0.005766 0.036585 0.173291 -0.079292
    48 -0.139399 -0.111698 0.014397 0.285382 -0.030687 1.580508
    49 -5.686570 6.686768 -0.364437 1.580420 -0.020531 -0.975071
  time 22
    0 4.876137 -1.206137 -3.848307 1.569851 -0.072019 -1.652560
    1 2.233774 0.695171 0.000000 0.000000 0.000000 0.000000
    2 6.733442 -0.196285 0.641147 0.000000 0.000000 0.000000
    3 6.676370 -1.361634 0.000000 0.000000 0.000000 -0.000652
    4 6.680209 2.139774 0.092398 0.000000 1.570451 0.000000
    5 6.668489 2.135868 -0.094921 3.141592 1.570451 0.000000
    6 5.908475 2.138680 -0.000001 -1.570796 0.000000 1.570796
    7 5.900663 2.183438 0.000000 4.712389 3.141592 -1.570796
    8 5.997545 -9.506489 0.000000 0.000000 0.000000 0.000000
    9 6.826621 2.896115 -0.002619 0.000000 -1.570787 0.000000
    10 0.002616 0.001794 0.000000 0.000000 0.000000 0.000000
    11 -0.002752 -0.001265 -0.003287 0.000000 0.000000 0.000000
    12 6.009221 4.032702 -7.936724 1.207750 -1.729553 -1.255767
    13 7.788629 -1.429133 -0.403721 -1.568261 -0.029147 -3.242423
    14 -0.095359 -8.459673 -0.131479 -0.087517 0.154007 0.032287
    15 -0.488518 -2.755602 -0.228260 -1.298350 0.189322 -0.563158
    16 0.039887 -1.522760 0.010322 -1.322195 -0.013315 0.028824
    17 0.028786 -1.114795 -0.093424 -0.619026 -0.011889 0.011289
    18 0.250027 -2.820665 -0.238396 -1.050916 0.227243 -0.420355
    19 -0.049759 -1.602417 0.049696 -1.314758 -0.064885 -0.044525
    20 -0.030236 -1.171750 0.045718 -1.205284 -0.118072 -0.078427
    21 0.957766 -2.746780 -0.090302 -0.092628 -0.150640 0.125858
    22 -0.033420 -1.393223 -0.019070 -0.600109 0.008389 -0.029363
    23 -0.022360 -0.961342 -0.004654 -0.961139 0.004159 -0.046692
    24 -1.180681 -2.507217 -0.193859 -1.675178 0.258966 -0.570879
    25 -0.024967 -1.123934 0.017597 -0.442076 0.101390 0.095962
    26 -0.020057 -0.902687 0.021809 -0.661508 0.007994 -0.025791
    27 0.583510 -1.197277 0.185379 0.245968 -0.714739 -0.750502
    28 1.504676 -0.173353 0.067511 0.291210 -0.168203 -0.611852
    29 1.065614 -0.128290 0.028385 -0.243734 -0.207444 -0.700792
    30 0.120153 -0.050270 -0.054489 0.287569 3.110905 1.561085
    31 -0.802035 -1.020194 -10.107060 0.564837 -4.032955 0.946644
    32 -0.082749 -8.516827 0.057043 0.487600 -1.025944 -0.414517
    33 0.447953 -2.798986 -0.200443 -1.097799 0.006143 0.545691
    34 -0.032909 -1.499736 0.036191 -1.658992 0.022711 -0.034070
    35 -0.027022 -1.092546 -0.028023 -0.440957 0.011769 -0.004255
    36 -0.249534 -2.846964 -0.174213 -0.842445 0.089328 0.502056
    37 0.043235 -1.656596 0.060855 -1.618932 -0.023831 0.011015
    38 0.031729 -1.137392 0.051025 -1.351253 -0.015082 0.007581
    39 -0.963866 -2.785145 -0.085350 -0.391242 0.243460 0.427445
    40 0.028479 -1.406973 -0.021074 -1.092231 -0.030645 -0.036337
    41 0.021413 -0.938249 0.008327 -1.221799 -0.036397 -0.037212
    42 1.164475 -2.543940 -0.170330 -1.131105 -0.277926 0.648745
    43 0.024032 -1.152480 -0.009538 -1.452510 0.031304 0.066983
    44 0.014898 -0.899614 -0.015942 -0.858363 0.004374 0.043444
    45 -0.586770 -1.264477 0.200161 -0.004477 0.016935 -2.138016
    46 1.546273 0.039149 0.009035 0.229586 0.005865 0.576088
    47 1.114041 0.048424 -0.005766 0.036585 0.173291 -0.079292
    48 -0.139399 -0.111698 0.014397 0.285382 -0.030687 1.580508
    49 -5.651412 6.718019 -0.364437 1.580516 -0.020435 -0.981085
  time 23
    0 4.856605 -1.213950 -3.836587 1.565261 -0.070012 -1.648036
    1 2.233774 0.695171 0.000000 0.000000 0.000000 0.000000
    2 6.733442 -0.196285 0.641147 0.000000 0.000000 0.000000
    3 6.676370 -1.361634 0.000000 0.000000 0.000000 -0.000652
    4 6.680209 2.139774 0.092398 0.000000 1.570451 0.000000
    5 6.668489 2.135868 -0.094921 3.141592 1.570451 0.000000
    6 5.908475 2.138680 -0.000001 -1.570796 0.000000 1.570796
    7 5.900663 2.183438 0.000000 4.712389 3.141592 -1.570796
    8 5.997545 -9.506489 0.000000 0.000000 0.000000 0.000000
    9 6.826621 2.896115 -0.002619 0.000000 -1.570787 0.000000
    10 0.002616 0.001794 0.000000 0.000000 0.000000 0.000000
    11 -0.002752 -0.001265 -0.003287 0.000000 0.000000 0.000000
    12 6.005315 4.036608 -7.936724 1.213294 -1.729098 -1.263134
    13 7.788629 -1.433039 -0.403721 -1.568165 -0.029147 -3.242972
    14 -0.095359 -8.459673 -0.127572 -0.080871 0.156315 0.031001
    15 -0.488518 -2.755602 -0.228260 -1.298350 0.189322 -0.563158
    16 0.039887 -1.522760 0.010322 -1.322195 -0.013315 0.028824
    17 0.028786 -1.114795 -0.093424 -0.619026 -0.011889 0.011289
    18 0.250027 -2.820665 -0.238396 -1.050916 0.227243 -0.420355
    19 -0.049759 -1.602417 0.049696 -1.314758 -0.064885 -0.044525
    20 -0.030236 -1.171750 0.045718 -1.205284 -0.118072 -0.078427
    21 0.957766 -2.746780 -0.090302 -0.092628 -0.150640 0.125858
    22 -0.033420 -1.393223 -0.019070 -0.600109 0.008389 -0.029363
    23 -0.022360 -0.961342 -0.004654 -0.961139 0.004159 -0.046692
    24 -1.180681 -2.507217 -0.193859 -1.675178 0.258966 -0.570879
    25 -0.024967 -1.123934 0.017597 -0.442076 0.101390 0.095962
    26 -0.020057 -0.902687 0.021809 -0.661508 0.007994 -0.025791
    27 0.583510 -1.197277 0.185379 0.245968 -0.714739 -0.750502
    28 1.504676 -0.173353 0.067511 0.291210 -0.168203 -0.611852
    29 1.065614 -0.128290 0.028385 -0.243734 -0.207444 -0.700792
    30 0.120153 -0.050270 -0.054489 0.287569 3.110905 1.561085
    31 -0.798129 -1.020194 -10.103154 0.565788 -4.034226 0.946833
    32 -0.082749 -8.512920 0.057043 0.475234 -1.026489 -0.402711
    33 0.447953 -2.798986 -0.200443 -1.097799 0.006143 0.545691
    34 -0.032909 -1.499736 0.036191 -1.658992 0.022711 -0.034070
    35 -0.027022 -1.092546 -0.028023 -0.440957 0.011769 -0.004255
    36 -0.249534 -2.846964 -0.174213 -0.842445 0.089328 0.502056
    37 0.043235 -1.656596 0.060855 -1.618932 -0.023831 0.011015
    38 0.031729 -1.137392 0.051025 -1.351253 -0.015082 0.007581
    39 -0.963866 -2.785145 -0.085350 -0.391242 0.243460 0.427445
    40 0.028479 -1.406973 -0.021074 -1.092231 -0.030645 -0.036337
    41 0.021413 -0.938249 0.008327 -1.221799 -0.036397 -0.037212
    42 1.164475 -2.543940 -0.170330 -1.131105 -0.277926 0.648745
    43 0.024032 -1.152480 -0.009538 -1.452510 0.031304 0.066983
    44 0.014898 -0.899614 -0.015942 -0.858363 0.004374 0.043444
    45 -0.586770 -1.264477 0.200161 -0.004477 0.016935 -2.138016
    46 1.546273 0.039149 0.009035 0.229586 0.005865 0.576088
    47 1.114041 0.048424 -0.005766 0.036585 0.173291 -0.079292
    48 -0.139399 -0.111698 0.014397 0.285382 -0.030687 1.580508
    49 -5.639693 6.729738 -0.360530 1.580516 -0.020339 -0.982708
  time 24
    0 4.887856 -1.210044 -3.840494 1.568321 -0.070394 -1.654547
    1 2.233774 0.695171 0.000000 0.000000 0.000000 0.000000
    2 6.733442 -0.196285 0.641147 0.000000 0.000000 0.000000
    3 6.676370 -1.361634 0.000000 0.000000 0.000000 -0.000652
    4 6.680209 2.139774 0.092398 0.000000 1.570451 0.000000
    5 6.668489 2.135868 -0.094921 3.141592 1.570451 0.000000
    6 5.908475 2.138680 -0.000001 -1.570796 0.000000 1.570796
    7 5.900663 2.183438 0.000000 4.712389 3.141592 -1.570796
    8 5.997545 -9.506489 0.000000 0.000000 0.000000 0.000000
    9 6.826621 2.896115 -0.002619 0.000000 -1.570787 0.000000
    10 0.002616 0.001794 0.000000 0.000000 0.000000 0.000000
    11 -0.002752 -0.001265 -0.003287 0.000000 0.000000 0.000000
    12 6.009221 4.032702 -7.936724 1.207845 -1.729735 -1.255767
    13 7.788629 -1.429133 -0.403721 -1.568261 -0.029147 -3.242423
    14 -0.095359 -8.459673 -0.131479 -0.089491 0.155818 0.030281
    15 -0.488518 -2.755602 -0.228260 -1.298350 0.189322 -0.563158
    16 0.039887 -1.522760 0.010322 -1.322195 -0.013315 0.028824
    17 0.028786 -1.114795 -0.093424 -0.619026 -0.011889 0.011289
    18 0.250027 -2.820665 -0.238396 -1.050916 0.227243 -0.420355
    19 -0.049759 -1.602417 0.049696 -1.314758 -0.064885 -0.044525
    20 -0.030236 -1.171750 0.045718 -1.205284 -0.118072 -0.078427
    21 0.957766 -2.746780 -0.090302 -0.092628 -0.150640 0.125858
    22 -0.033420 -1.393223 -0.019070 -0.600109 0.008389 -0.029363
    23 -0.022360 -0.961342 -0.004654 -0.961139 0.004159 -0.046692
    24 -1.180681 -2.507217 -0.193859 -1.675178 0.258966 -0.570879
    25 -0.024967 -1.123934 0.017597 -0.442076 0.101390 0.095962
    26 -0.020057 -0.902687 0.021809 -0.661508 0.007994 -0.025791
    27 0.583510 -1.197277 0.185379 0.245968 -0.714739 -0.750502
    28 1.504676 -0.173353 0.067511 0.291210 -0.168203 -0.611852
    29 1.065614 -0.128290 0.028385 -0.243734 -0.207444 -0.700792
    30 0.120153 -0.050270 -0.054489 0.287569 3.110905 1.561085
    31 -0.802035 -1.012381 -10.118780 0.568706 -4.034147 0.950725
    32 -0.082749 -8.516827 0.057043 0.488141 -1.022643 -0.408572
    33 0.447953 -2.798986 -0.200443 -1.097799 0.006143 0.545691
    34 -0.032909 -1.499736 0.036191 -1.658992 0.022711 -0.034070
    35 -0.027022 -1.092546 -0.028023 -0.440957 0.011769 -0.004255
    36 -0.249534 -2.846964 -0.174213 -0.842445 0.089328 0.502056
    37 0.043235 -1.656596 0.060855 -1.618932 -0.023831 0.011015
    38 0.031729 -1.137392 0.051025 -1.351253 -0.015082 0.007581
    39 -0.963866 -2.785145 -0.085350 -0.391242 0.243460 0.427445
    40 0.028479 -1.406973 -0.021074 -1.092231 -0.030645 -0.036337
    41 0.021413 -0.938249 0.008327 -1.221799 -0.036397 -0.037212
    42 1.164475 -2.543940 -0.170330 -1.131105 -0.277926 0.648745
    43 0.024032 -1.152480 -0.009538 -1.452510 0.031304 0.066983
    44 0.014898 -0.899614 -0.015942 -0.858363 0.004374 0.043444
    45 -0.586770 -1.264477 0.200161 -0.004477 0.016935 -2.138016
    46 1.546273 0.039149 0.009035 0.229586 0.005865 0.576088
    47 1.114041 0.048424 -0.005766 0.036585 0.173291 -0.079292
    48 -0.139399 -0.111698 0.014397 0.285382 -0.030687 1.580508
    49 -5.670944 6.698487 -0.364437 1.580516 -0.020531 -0.977457
  time 25
    0 4.919107 -1.210044 -3.844400 -1.570028 -3.070871 -4.802553
    1 2.233774 0.695171 0.000000 0.000000 0.000000 0.000000
    2 6.733442 -0.196285 0.641147 0.000000 0.000000 0.000000
    3 6.676370 -1.361634 0.000000 0.000000 0.000000 -0.000652
    4 6.680209 2.139774 0.092398 0.000000 1.570451 0.000000
    5 6.668489 2.135868 -0.094921 3.141592 1.570451 0.000000
    6 5.908475 2.138680 -0.000001 -1.570796 0.000000 1.570796
    7 5.900663 2.183438 0.000000 4.712389 3.141592 -1.570796
    8 5.997545 -9.506489 0.000000 0.000000 0.000000 0.000000
    9 6.826621 2.896115 -0.002619 0.000000 -1.570787 0.000000
    10 0.002616 0.001794 0.000000 0.000000 0.000000 0.000000
    11 -0.002752 -0.001265 -0.003287 0.000000 0.000000 0.000000
    12 6.017034 4.024889 -7.936724 1.202588 -1.730463 -1.248496
    13 7.788629 -1.425226 -0.403721 -1.568261 -0.029147 -3.241874
    14 -0.095359 -8.455766 -0.131479 -0.098133 0.155320 0.029578
    15 -0.488518 -2.755602 -0.228260 -1.298350 0.189322 -0.563158
    16 0.039887 -1.522760 0.010322 -1.322195 -0.013315 0.028824
    17 0.028786 -1.114795 -0.093424 -0.619026 -0.011889 0.011289
    18 0.250027 -2.820665 -0.238396 -1.050916 0.227243 -0.420355
    19 -0.049759 -1.602417 0.049696 -1.314758 -0.064885 -0.044525
    20 -0.030236 -1.171750 0.045718 -1.205284 -0.118072 -0.078427
    21 0.957766 -2.746780 -0.090302 -0.092628 -0.150640 0.125858
    22 -0.033420 -1.393223 -0.019070 -0.600109 0.008389 -0.029363
    23 -0.022360 -0.961342 -0.004654 -0.961139 0.004159 -0.046692
    24 -1.180681 -2.507217 -0.193859 -1.675178 0.258966 -0.570879
    25 -0.024967 -1.123934 0.017597 -0.442076 0.101390 0.095962
    26 -0.020057 -0.902687 0.021809 -0.661508 0.007994 -0.025791
    27 0.583510 -1.197277 0.185379 0.245968 -0.714739 -0.750502
    28 1.504676 -0.173353 0.067511 0.291210 -0.168203 -0.611852
    29 1.065614 -0.128290 0.028385 -0.243734 -0.207444 -0.700792
    30 0.120153 -0.050270 -0.054489 0.287569 3.110905 1.561085
    31 -0.813754 -1.008475 -10.134405 0.570355 -4.033273 0.953097
    32 -0.082749 -8.516827 0.057043 0.500340 -1.019859 -0.415057
    33 0.447953 -2.798986 -0.200443 -1.097799 0.006143 0.545691
    34 -0.032909 -1.499736 0.036191 -1.658992 0.022711 -0.034070
    35 -0.027022 -1.092546 -0.028023 -0.440957 0.011769 -0.004255
    36 -0.249534 -2.846964 -0.174213 -0.842445 0.089328 0.502056
    37 0.043235 -1.656596 0.060855 -1.618932 -0.023831 0.011015
    38 0.031729 -1.137392 0.051025 -1.351253 -0.015082 0.007581
    39 -0.963866 -2.785145 -0.085350 -0.391242 0.243460 0.427445
    40 0.028479 -1.406973 -0.021074 -1.092231 -0.030645 -0.036337
    41 0.021413 -0.938249 0.008327 -1.221799 -0.036397 -0.037212
    42 1.164475 -2.543940 -0.170330 -1.131105 -0.277926 0.648745
    43 0.024032 -1.152480 -0.009538 -1.452510 0.031304 0.066983
    44 0.014898 -0.899614 -0.015942 -0.858363 0.004386 0.043444
    45 -0.586770 -1.264477 0.200161 -0.004477 0.016935 -2.138016
    46 1.546273 0.039149 0.009035 0.229586 0.005865 0.576088
    47 1.114041 0.048424 -0.005766 0.036585 0.173291 -0.079292
    48 -0.139399 -0.111698 0.014397 0.285382 -0.030687 1.580508
    49 -5.702195 6.671142 -0.364437 1.580420 -0.020627 -0.972398
end
