version 1
nodes
  0 "Bone01" -1
  1 "Bone_Lefthand" 0
  2 "Bone17" 1
  3 "M14_Bone02" 2
  4 "M14_Bone06" 3
  5 "M14_Bone07" 4
  6 "M14_Bone04" 3
  7 "M14_Bone03" 3
  8 "M14_Bone08" 3
  9 "M14_Bone05" 3
  10 "M14_Bone11" 9
  11 "M14_Bone12" 9
  12 "M14_Bone09" 3
  13 "M14_Bone10" 12
  14 "Bone04" -1
  15 "Bone_Righthand" 14
  16 "Bone39" 15
  17 "Bone40" 16
  18 "Bone41" 17
  19 "Bone35" 15
  20 "Bone36" 19
  21 "Bone37" 20
  22 "Bone31" 15
  23 "Bone32" 22
  24 "Bone33" 23
  25 "Bone43" 15
  26 "Bone44" 25
  27 "Bone45" 26
  28 "Bone27" 15
  29 "Bone28" 28
  30 "Bone29" 29
  31 "Bone_Se_Hand-R" 15
  32 "Bone13" 1
  33 "Bone14" 32
  34 "Bone15" 33
  35 "Bone18" 2
  36 "Bone19" 35
  37 "Bone21" 1
  38 "Bone22" 37
  39 "Bone23" 38
  40 "Bone09" 1
  41 "Bone10" 40
  42 "Bone11" 41
  43 "Bone05" 1
  44 "Bone06" 43
  45 "Bone07" 44
  46 "Bone_Se_Hand-L" 1
end
skeleton
  time 0
    0 11.662686 5.865773 -10.754228 0.934392 -1.907294 -1.453648
    1 -0.071918 -8.498731 -0.104137 0.269871 0.181476 -0.141146
    2 0.250028 -2.820663 -0.238396 -0.758577 0.008668 -0.269408
    3 1.034835 -0.368954 0.962382 1.438903 -5.718260 1.593918
    4 0.000004 7.330805 -0.181574 0.000000 0.000000 0.000000
    5 -0.000006 -4.491440 2.746747 0.000000 0.000000 0.000000
    6 -0.000006 -5.215600 0.521221 0.000000 0.000000 0.000000
    7 -0.000004 -2.584793 0.626897 0.000000 0.000000 0.000000
    8 -0.000006 -3.113141 3.685755 0.000000 0.000000 0.000000
    9 -0.000007 -7.713655 -1.563225 0.000000 0.000000 0.000000
    10 -0.000003 0.619987 3.519732 0.000000 0.000000 0.000000
    11 -0.000001 -0.041039 4.583956 0.000000 0.000000 0.000000
    12 -1.112914 -8.867437 2.842189 0.000000 0.000000 0.000000
    13 1.112910 1.686673 0.481230 0.000000 0.000000 0.000000
    14 -1.640473 -9.390476 -12.013804 -1.857372 -5.341387 -0.958692
    15 0.096944 -8.450419 -0.009364 0.644320 -1.866922 -0.246031
    16 0.447952 -2.798982 -0.200442 -0.632518 -0.188188 0.437361
    17 -0.032910 -1.480206 0.004936 -0.767246 0.000000 0.000002
    18 -0.027022 -1.076919 -0.020212 -0.201651 0.000000 0.000000
    19 -0.249534 -2.846962 -0.174215 -0.511223 -0.169887 0.357523
    20 0.043235 -1.683939 0.096014 -0.815309 0.002823 -0.000167
    21 0.031729 -1.160831 0.058836 -0.220796 0.000642 0.008372
    22 -0.963866 -2.785142 -0.085346 0.047968 -0.066833 0.271976
    23 0.028479 -1.403068 0.006271 -0.840841 0.000000 0.000000
    24 0.021413 -0.957782 0.020047 -0.601214 0.000000 0.000000
    25 1.164474 -2.543938 -0.170328 -0.568466 -0.246526 0.363210
    26 0.024032 -1.129043 0.017806 -0.754842 0.000000 0.000001
    27 0.014896 -0.883989 -0.019845 -0.334519 0.000000 0.000000
    28 -0.586770 -1.264475 0.200164 0.343013 -0.969972 -3.051832
    29 1.522835 0.058681 0.016850 0.296119 0.032403 0.392684
    30 1.117948 0.048424 -0.005764 -0.004929 -0.024719 0.252806
    31 -0.139399 -0.111697 0.014397 1.521828 0.323016 1.395694
    32 -0.488517 -2.755600 -0.228261 -0.945124 0.023395 -0.387835
    33 0.039888 -1.479789 0.029853 -1.586857 0.000000 0.000000
    34 0.028785 -1.075730 -0.023111 -0.303352 0.000000 0.000000
    35 -0.049759 -1.680545 0.100480 -1.511590 0.000000 -0.000002
    36 -0.034141 -1.148312 0.084779 -0.918049 0.000000 0.000000
    37 0.957766 -2.746776 -0.090301 0.290325 -0.167658 -0.045602
    38 -0.033419 -1.397129 -0.011255 -0.390032 0.000000 -0.000001
    39 -0.022361 -0.957434 0.018783 -0.162619 0.000000 0.000000
    40 -1.180680 -2.507215 -0.193861 -0.849276 0.096358 -0.405085
    41 -0.024966 -1.123934 0.017594 -1.517723 0.000000 0.000001
    42 -0.020057 -0.890966 0.010091 -0.909695 0.000000 0.000000
    43 0.583510 -1.197274 0.185377 1.121813 -0.962663 -1.143982
    44 1.535926 0.010245 0.005008 0.283120 -0.138086 -1.134210
    45 1.100770 0.004526 -0.010676 -0.009124 0.013408 -0.421109
    46 0.120152 -0.050266 -0.054488 -2.315902 -0.029011 -1.484394
  time 1
    0 11.662686 5.865773 -10.754228 0.934392 -1.907294 -1.453648
    1 -0.071918 -8.498731 -0.104137 0.269823 0.181693 -0.141534
    2 0.250028 -2.820663 -0.238396 -0.758577 0.008668 -0.269408
    3 1.034835 -0.368954 0.962382 1.438903 -5.718260 1.593918
    4 0.000004 7.330805 -0.181574 0.000000 0.000000 0.000000
    5 -0.000006 -4.491440 2.746747 0.000000 0.000000 0.000000
    6 -0.000006 -5.215600 0.521221 0.000000 0.000000 0.000000
    7 -0.000004 -2.584793 0.626897 0.000000 0.000000 0.000000
    8 -0.000006 -3.113141 3.685755 0.000000 0.000000 0.000000
    9 -0.000007 -7.713655 -1.563225 0.000000 0.000000 0.000000
    10 -0.000003 0.619987 3.519732 0.000000 0.000000 0.000000
    11 -0.000001 -0.041039 4.583956 0.000000 0.000000 0.000000
    12 -1.112914 -8.867437 2.842189 0.000000 0.000000 0.000000
    13 1.112910 1.686673 0.481230 0.000000 0.000000 0.000000
    14 -1.640473 -9.390476 -12.013804 -1.857578 -5.340824 -0.958788
    15 0.096944 -8.450419 -0.009364 0.644401 -1.866922 -0.246054
    16 0.447952 -2.798982 -0.200442 -0.632518 -0.188188 0.437361
    17 -0.032910 -1.480206 0.004936 -0.767246 0.000000 0.000002
    18 -0.027022 -1.076919 -0.020212 -0.201651 0.000000 0.000000
    19 -0.249534 -2.846962 -0.174215 -0.511223 -0.169887 0.357523
    20 0.043235 -1.683939 0.096014 -0.815309 0.002823 -0.000167
    21 0.031729 -1.160831 0.058836 -0.220796 0.000642 0.008372
    22 -0.963866 -2.785142 -0.085346 0.047968 -0.066833 0.271976
    23 0.028479 -1.403068 0.006271 -0.840841 0.000000 0.000000
    24 0.021413 -0.957782 0.020047 -0.601214 0.000000 0.000000
    25 1.164474 -2.543938 -0.170328 -0.568466 -0.246526 0.363210
    26 0.024032 -1.129043 0.017806 -0.754842 0.000000 0.000001
    27 0.014896 -0.883989 -0.019845 -0.334519 0.000000 0.000000
    28 -0.586770 -1.264475 0.200164 0.343013 -0.969972 -3.051832
    29 1.522835 0.058681 0.016850 0.295898 0.032451 0.393099
    30 1.117948 0.048424 -0.005764 -0.004737 -0.024922 0.252424
    31 -0.139399 -0.111697 0.014397 1.521828 0.323016 1.395694
    32 -0.488517 -2.755600 -0.228261 -0.945124 0.023395 -0.387835
    33 0.039888 -1.479789 0.029853 -1.586857 0.000000 0.000000
    34 0.028785 -1.075730 -0.023111 -0.303352 0.000000 0.000000
    35 -0.049759 -1.680545 0.100480 -1.511590 0.000000 -0.000002
    36 -0.034141 -1.148312 0.084779 -0.918049 0.000000 0.000000
    37 0.957766 -2.746776 -0.090301 0.290325 -0.167658 -0.045602
    38 -0.033419 -1.397129 -0.011255 -0.390032 0.000000 -0.000001
    39 -0.022361 -0.957434 0.018783 -0.162619 0.000000 0.000000
    40 -1.180680 -2.507215 -0.193861 -0.849276 0.096358 -0.405085
    41 -0.024966 -1.123934 0.017594 -1.517723 0.000000 0.000001
    42 -0.020057 -0.890966 0.010091 -0.909695 0.000000 0.000000
    43 0.583510 -1.197274 0.185377 1.121813 -0.962663 -1.143982
    44 1.535926 0.010245 0.005008 0.283120 -0.138086 -1.134210
    45 1.100770 0.004526 -0.010676 -0.009124 0.013408 -0.421109
    46 0.120152 -0.050266 -0.054488 -2.315902 -0.029011 -1.484394
  time 2
    0 11.662686 5.865773 -10.750321 0.934392 -1.907294 -1.453648
    1 -0.071918 -8.498731 -0.104137 0.269691 0.182255 -0.142553
    2 0.250028 -2.820663 -0.238396 -0.758577 0.008668 -0.269408
    3 1.034835 -0.368954 0.962382 1.438903 -5.718260 1.593918
    4 0.000004 7.330805 -0.181574 0.000000 0.000000 0.000000
    5 -0.000006 -4.491440 2.746747 0.000000 0.000000 0.000000
    6 -0.000006 -5.215600 0.521221 0.000000 0.000000 0.000000
    7 -0.000004 -2.584793 0.626897 0.000000 0.000000 0.000000
    8 -0.000006 -3.113141 3.685755 0.000000 0.000000 0.000000
    9 -0.000007 -7.713655 -1.563225 0.000000 0.000000 0.000000
    10 -0.000003 0.619987 3.519732 0.000000 0.000000 0.000000
    11 -0.000001 -0.041039 4.583956 0.000000 0.000000 0.000000
    12 -1.112914 -8.867437 2.842189 0.000000 0.000000 0.000000
    13 1.112910 1.686673 0.481230 0.000000 0.000000 0.000000
    14 -1.644379 -9.390476 -12.013804 -1.858263 -5.339606 -0.959363
    15 0.096944 -8.450419 -0.009364 0.644523 -1.866922 -0.246124
    16 0.447952 -2.798982 -0.200442 -0.632518 -0.188188 0.437361
    17 -0.032910 -1.480206 0.004936 -0.767246 0.000000 0.000002
    18 -0.027022 -1.076919 -0.020212 -0.201651 0.000000 0.000000
    19 -0.249534 -2.846962 -0.174215 -0.511223 -0.169887 0.357523
    20 0.043235 -1.683939 0.096014 -0.815309 0.002823 -0.000167
    21 0.031729 -1.160831 0.058836 -0.220796 0.000642 0.008372
    22 -0.963866 -2.785142 -0.085346 0.047968 -0.066833 0.271976
    23 0.028479 -1.403068 0.006271 -0.840841 0.000000 0.000000
    24 0.021413 -0.957782 0.020047 -0.601214 0.000000 0.000000
    25 1.164474 -2.543938 -0.170328 -0.568466 -0.246526 0.363210
    26 0.024032 -1.129043 0.017806 -0.754842 0.000000 0.000001
    27 0.014896 -0.883989 -0.019845 -0.334519 0.000000 0.000000
    28 -0.586770 -1.264475 0.200164 0.343013 -0.969972 -3.051832
    29 1.522835 0.058681 0.016850 0.295256 0.032559 0.394260
    30 1.117948 0.048424 -0.005764 -0.004198 -0.025474 0.251354
    31 -0.139399 -0.111697 0.014397 1.521828 0.323016 1.395694
    32 -0.488517 -2.755600 -0.228261 -0.945124 0.023395 -0.387835
    33 0.039888 -1.479789 0.029853 -1.586857 0.000000 0.000000
    34 0.028785 -1.075730 -0.023111 -0.303352 0.000000 0.000000
    35 -0.049759 -1.680545 0.100480 -1.511590 0.000000 -0.000002
    36 -0.034141 -1.148312 0.084779 -0.918049 0.000000 0.000000
    37 0.957766 -2.746776 -0.090301 0.290325 -0.167658 -0.045602
    38 -0.033419 -1.397129 -0.011255 -0.390032 0.000000 -0.000001
    39 -0.022361 -0.957434 0.018783 -0.162619 0.000000 0.000000
    40 -1.180680 -2.507215 -0.193861 -0.849276 0.096358 -0.405085
    41 -0.024966 -1.123934 0.017594 -1.517723 0.000000 0.000001
    42 -0.020057 -0.890966 0.010091 -0.909695 0.000000 0.000000
    43 0.583510 -1.197274 0.185377 1.121813 -0.962663 -1.143982
    44 1.535926 0.010245 0.005008 0.283120 -0.138086 -1.134210
    45 1.100770 0.004526 -0.010676 -0.009124 0.013408 -0.421109
    46 0.120152 -0.050266 -0.054488 -2.315902 -0.029011 -1.484394
  time 3
    0 11.662686 5.865773 -10.750321 0.934392 -1.907294 -1.453648
    1 -0.071918 -8.498731 -0.104137 0.269499 0.183085 -0.144041
    2 0.250028 -2.820663 -0.238396 -0.758577 0.008668 -0.269408
    3 1.034835 -0.368954 0.962382 1.438903 -5.718260 1.593918
    4 0.000004 7.330805 -0.181574 0.000000 0.000000 0.000000
    5 -0.000006 -4.491440 2.746747 0.000000 0.000000 0.000000
    6 -0.000006 -5.215600 0.521221 0.000000 0.000000 0.000000
    7 -0.000004 -2.584793 0.626897 0.000000 0.000000 0.000000
    8 -0.000006 -3.113141 3.685755 0.000000 0.000000 0.000000
    9 -0.000007 -7.713655 -1.563225 0.000000 0.000000 0.000000
    10 -0.000003 0.619987 3.519732 0.000000 0.000000 0.000000
    11 -0.000001 -0.041039 4.583956 0.000000 0.000000 0.000000
    12 -1.112914 -8.867437 2.842189 0.000000 0.000000 0.000000
    13 1.112910 1.686673 0.481230 0.000000 0.000000 0.000000
    14 -1.652192 -9.390476 -12.013804 -1.859223 -5.337637 -0.960129
    15 0.096944 -8.450419 -0.009364 0.644727 -1.866871 -0.246240
    16 0.447952 -2.798982 -0.200442 -0.632518 -0.188188 0.437361
    17 -0.032910 -1.480206 0.004936 -0.767246 0.000000 0.000002
    18 -0.027022 -1.076919 -0.020212 -0.201651 0.000000 0.000000
    19 -0.249534 -2.846962 -0.174215 -0.511223 -0.169887 0.357523
    20 0.043235 -1.683939 0.096014 -0.815309 0.002823 -0.000167
    21 0.031729 -1.160831 0.058836 -0.220796 0.000642 0.008372
    22 -0.963866 -2.785142 -0.085346 0.047968 -0.066833 0.271976
    23 0.028479 -1.403068 0.006271 -0.840841 0.000000 0.000000
    24 0.021413 -0.957782 0.020047 -0.601214 0.000000 0.000000
    25 1.164474 -2.543938 -0.170328 -0.568466 -0.246526 0.363210
    26 0.024032 -1.129043 0.017806 -0.754842 0.000000 0.000001
    27 0.014896 -0.883989 -0.019845 -0.334519 0.000000 0.000000
    28 -0.586770 -1.264475 0.200164 0.343013 -0.969972 -3.051832
    29 1.522835 0.058681 0.016850 0.294252 0.032750 0.396044
    30 1.117948 0.048424 -0.005764 -0.003359 -0.026361 0.249711
    31 -0.139399 -0.111697 0.014397 1.521828 0.323016 1.395694
    32 -0.488517 -2.755600 -0.228261 -0.945124 0.023395 -0.387835
    33 0.039888 -1.479789 0.029853 -1.586857 0.000000 0.000000
    34 0.028785 -1.075730 -0.023111 -0.303352 0.000000 0.000000
    35 -0.049759 -1.680545 0.100480 -1.511590 0.000000 -0.000002
    36 -0.034141 -1.148312 0.084779 -0.918049 0.000000 0.000000
    37 0.957766 -2.746776 -0.090301 0.290325 -0.167658 -0.045602
    38 -0.033419 -1.397129 -0.011255 -0.390032 0.000000 -0.000001
    39 -0.022361 -0.957434 0.018783 -0.162619 0.000000 0.000000
    40 -1.180680 -2.507215 -0.193861 -0.849276 0.096358 -0.405085
    41 -0.024966 -1.123934 0.017594 -1.517723 0.000000 0.000001
    42 -0.020057 -0.890966 0.010091 -0.909695 0.000000 0.000000
    43 0.583510 -1.197274 0.185377 1.121813 -0.962680 -1.143982
    44 1.535926 0.010245 0.005008 0.283120 -0.138086 -1.134210
    45 1.100770 0.004526 -0.010676 -0.009124 0.013408 -0.421109
    46 0.120152 -0.050266 -0.054488 -2.315902 -0.029011 -1.484394
  time 4
    0 11.662686 5.865773 -10.746415 0.934392 -1.907294 -1.453648
    1 -0.071918 -8.498731 -0.104137 0.269272 0.184069 -0.145815
    2 0.250028 -2.820663 -0.238396 -0.758577 0.008668 -0.269408
    3 1.034835 -0.368954 0.962382 1.438903 -5.718260 1.593918
    4 0.000004 7.330805 -0.181574 0.000000 0.000000 0.000000
    5 -0.000006 -4.491440 2.746747 0.000000 0.000000 0.000000
    6 -0.000006 -5.215600 0.521221 0.000000 0.000000 0.000000
    7 -0.000004 -2.584793 0.626897 0.000000 0.000000 0.000000
    8 -0.000006 -3.113141 3.685755 0.000000 0.000000 0.000000
    9 -0.000007 -7.713655 -1.563225 0.000000 0.000000 0.000000
    10 -0.000003 0.619987 3.519732 0.000000 0.000000 0.000000
    11 -0.000001 -0.041039 4.583956 0.000000 0.000000 0.000000
    12 -1.112914 -8.867437 2.842189 0.000000 0.000000 0.000000
    13 1.112910 1.686673 0.481230 0.000000 0.000000 0.000000
    14 -1.660005 -9.390476 -12.013804 -1.860457 -5.335387 -0.961087
    15 0.096944 -8.450419 -0.009364 0.645012 -1.866820 -0.246403
    16 0.447952 -2.798982 -0.200442 -0.632518 -0.188188 0.437361
    17 -0.032910 -1.480206 0.004936 -0.767246 0.000000 0.000002
    18 -0.027022 -1.076919 -0.020212 -0.201651 0.000000 0.000000
    19 -0.249534 -2.846962 -0.174215 -0.511223 -0.169887 0.357523
    20 0.043235 -1.683939 0.096014 -0.815309 0.002823 -0.000167
    21 0.031729 -1.160831 0.058836 -0.220796 0.000642 0.008372
    22 -0.963866 -2.785142 -0.085346 0.047968 -0.066833 0.271976
    23 0.028479 -1.403068 0.006271 -0.840841 0.000000 0.000000
    24 0.021413 -0.957782 0.020047 -0.601214 0.000000 0.000000
    25 1.164474 -2.543938 -0.170328 -0.568466 -0.246526 0.363210
    26 0.024032 -1.129043 0.017806 -0.754842 0.000000 0.000001
    27 0.014896 -0.883989 -0.019845 -0.334519 0.000000 0.000000
    28 -0.586770 -1.264475 0.200164 0.343013 -0.969972 -3.051832
    29 1.522835 0.058681 0.016850 0.292986 0.032978 0.398367
    30 1.117948 0.048424 -0.005764 -0.002292 -0.027487 0.247609
    31 -0.139399 -0.111697 0.014397 1.521828 0.323016 1.395694
    32 -0.488517 -2.755600 -0.228261 -0.945124 0.023395 -0.387835
    33 0.039888 -1.479789 0.029853 -1.586857 0.000000 0.000000
    34 0.028785 -1.075730 -0.023111 -0.303352 0.000000 0.000000
    35 -0.049759 -1.680545 0.100480 -1.511590 0.000000 -0.000002
    36 -0.034141 -1.148312 0.084779 -0.918049 0.000000 0.000000
    37 0.957766 -2.746776 -0.090301 0.290325 -0.167658 -0.045602
    38 -0.033419 -1.397129 -0.011255 -0.390032 0.000000 -0.000001
    39 -0.022361 -0.957434 0.018783 -0.162619 0.000000 0.000000
    40 -1.180680 -2.507215 -0.193861 -0.849276 0.096358 -0.405085
    41 -0.024966 -1.123934 0.017594 -1.517723 0.000000 0.000001
    42 -0.020057 -0.890966 0.010091 -0.909695 0.000000 0.000000
    43 0.583510 -1.197274 0.185377 1.121813 -0.962663 -1.143982
    44 1.535926 0.010245 0.005008 0.283120 -0.138086 -1.134210
    45 1.100770 0.004526 -0.010676 -0.009124 0.013408 -0.421109
    46 0.120152 -0.050266 -0.054488 -2.315902 -0.029011 -1.484394
  time 5
    0 11.662686 5.865773 -10.746415 0.934392 -1.907294 -1.453648
    1 -0.071918 -8.498731 -0.104137 0.269032 0.185091 -0.147670
    2 0.250028 -2.820663 -0.238396 -0.758577 0.008668 -0.269408
    3 1.034835 -0.368954 0.962382 1.438903 -5.718260 1.593918
    4 0.000004 7.330805 -0.181574 0.000000 0.000000 0.000000
    5 -0.000006 -4.491440 2.746747 0.000000 0.000000 0.000000
    6 -0.000006 -5.215600 0.521221 0.000000 0.000000 0.000000
    7 -0.000004 -2.584793 0.626897 0.000000 0.000000 0.000000
    8 -0.000006 -3.113141 3.685755 0.000000 0.000000 0.000000
    9 -0.000007 -7.713655 -1.563225 0.000000 0.000000 0.000000
    10 -0.000003 0.619987 3.519732 0.000000 0.000000 0.000000
    11 -0.000001 -0.041039 4.583956 0.000000 0.000000 0.000000
    12 -1.112914 -8.867437 2.842189 0.000000 0.000000 0.000000
    13 1.112910 1.686673 0.481230 0.000000 0.000000 0.000000
    14 -1.667817 -9.390476 -12.013804 -1.861760 -5.333043 -0.962046
    15 0.096944 -8.450419 -0.009364 0.645338 -1.866768 -0.246589
    16 0.447952 -2.798982 -0.200442 -0.632518 -0.188188 0.437361
    17 -0.032910 -1.480206 0.004936 -0.767246 0.000000 0.000002
    18 -0.027022 -1.076919 -0.020212 -0.201651 0.000000 0.000000
    19 -0.249534 -2.846962 -0.174215 -0.511223 -0.169887 0.357523
    20 0.043235 -1.683939 0.096014 -0.815309 0.002823 -0.000167
    21 0.031729 -1.160831 0.058836 -0.220796 0.000642 0.008372
    22 -0.963866 -2.785142 -0.085346 0.047968 -0.066833 0.271976
    23 0.028479 -1.403068 0.006271 -0.840841 0.000000 0.000000
    24 0.021413 -0.957782 0.020047 -0.601214 0.000000 0.000000
    25 1.164474 -2.543938 -0.170328 -0.568466 -0.246526 0.363210
    26 0.024032 -1.129043 0.017806 -0.754842 0.000000 0.000001
    27 0.014896 -0.883989 -0.019845 -0.334519 0.000000 0.000000
    28 -0.586770 -1.264475 0.200164 0.343013 -0.969972 -3.051832
    29 1.522835 0.058681 0.016850 0.291480 0.033254 0.401063
    30 1.117948 0.048424 -0.005764 -0.001034 -0.028817 0.245125
    31 -0.139399 -0.111697 0.014397 1.521828 0.323016 1.395694
    32 -0.488517 -2.755600 -0.228261 -0.945124 0.023395 -0.387835
    33 0.039888 -1.479789 0.029853 -1.586857 0.000000 0.000000
    34 0.028785 -1.075730 -0.023111 -0.303352 0.000000 0.000000
    35 -0.049759 -1.680545 0.100480 -1.511590 0.000000 -0.000002
    36 -0.034141 -1.148312 0.084779 -0.918049 0.000000 0.000000
    37 0.957766 -2.746776 -0.090301 0.290325 -0.167658 -0.045602
    38 -0.033419 -1.397129 -0.011255 -0.390032 0.000000 -0.000001
    39 -0.022361 -0.957434 0.018783 -0.162619 0.000000 0.000000
    40 -1.180680 -2.507215 -0.193861 -0.849276 0.096358 -0.405085
    41 -0.024966 -1.123934 0.017594 -1.517723 0.000000 0.000001
    42 -0.020057 -0.890966 0.010091 -0.909695 0.000000 0.000000
    43 0.583510 -1.197274 0.185377 1.121813 -0.962663 -1.143982
    44 1.535926 0.010245 0.005008 0.283120 -0.138086 -1.134210
    45 1.100770 0.004526 -0.010676 -0.009124 0.013408 -0.421109
    46 0.120152 -0.050266 -0.054488 -2.315902 -0.029011 -1.484394
  time 6
    0 11.662686 5.865773 -10.742508 0.934392 -1.907294 -1.453648
    1 -0.071918 -8.498731 -0.104137 0.268804 0.186075 -0.149444
    2 0.250028 -2.820663 -0.238396 -0.758577 0.008668 -0.269408
    3 1.034835 -0.368954 0.962382 1.438903 -5.718260 1.593918
    4 0.000004 7.330805 -0.181574 0.000000 0.000000 0.000000
    5 -0.000006 -4.491440 2.746747 0.000000 0.000000 0.000000
    6 -0.000006 -5.215600 0.521221 0.000000 0.000000 0.000000
    7 -0.000004 -2.584793 0.626897 0.000000 0.000000 0.000000
    8 -0.000006 -3.113141 3.685755 0.000000 0.000000 0.000000
    9 -0.000007 -7.713655 -1.563225 0.000000 0.000000 0.000000
    10 -0.000003 0.619987 3.519732 0.000000 0.000000 0.000000
    11 -0.000001 -0.041039 4.583956 0.000000 0.000000 0.000000
    12 -1.112914 -8.867437 2.842189 0.000000 0.000000 0.000000
    13 1.112910 1.686673 0.481230 0.000000 0.000000 0.000000
    14 -1.675630 -9.390476 -12.013804 -1.863131 -5.330793 -0.963004
    15 0.096944 -8.450419 -0.009364 0.645664 -1.866717 -0.246798
    16 0.447952 -2.798982 -0.200442 -0.632518 -0.188188 0.437361
    17 -0.032910 -1.480206 0.004936 -0.767246 0.000000 0.000002
    18 -0.027022 -1.076919 -0.020212 -0.201651 0.000000 0.000000
    19 -0.249534 -2.846962 -0.174215 -0.511223 -0.169887 0.357523
    20 0.043235 -1.683939 0.096014 -0.815309 0.002823 -0.000167
    21 0.031729 -1.160831 0.058836 -0.220796 0.000642 0.008372
    22 -0.963866 -2.785142 -0.085346 0.047968 -0.066833 0.271976
    23 0.028479 -1.403068 0.006271 -0.840841 0.000000 0.000000
    24 0.021413 -0.957782 0.020047 -0.601214 0.000000 0.000000
    25 1.164474 -2.543938 -0.170328 -0.568466 -0.246526 0.363210
    26 0.024032 -1.129043 0.017806 -0.754842 0.000000 0.000001
    27 0.014896 -0.883989 -0.019845 -0.334519 0.000000 0.000000
    28 -0.586770 -1.264475 0.200164 0.343013 -0.969972 -3.051832
    29 1.522835 0.058681 0.016850 0.289813 0.033565 0.404091
    30 1.117948 0.048424 -0.005764 0.000356 -0.030291 0.242413
    31 -0.139399 -0.111697 0.014397 1.521828 0.323016 1.395694
    32 -0.488517 -2.755600 -0.228261 -0.945124 0.023395 -0.387835
    33 0.039888 -1.479789 0.029853 -1.586857 0.000000 0.000000
    34 0.028785 -1.075730 -0.023111 -0.303352 0.000000 0.000000
    35 -0.049759 -1.680545 0.100480 -1.511590 0.000000 -0.000002
    36 -0.034141 -1.148312 0.084779 -0.918049 0.000000 0.000000
    37 0.957766 -2.746776 -0.090301 0.290325 -0.167658 -0.045602
    38 -0.033419 -1.397129 -0.011255 -0.390032 0.000000 -0.000001
    39 -0.022361 -0.957434 0.018783 -0.162619 0.000000 0.000000
    40 -1.180680 -2.507215 -0.193861 -0.849276 0.096358 -0.405085
    41 -0.024966 -1.123934 0.017594 -1.517723 0.000000 0.000001
    42 -0.020057 -0.890966 0.010091 -0.909695 0.000000 0.000000
    43 0.583510 -1.197274 0.185377 1.121813 -0.962663 -1.143982
    44 1.535926 0.010245 0.005008 0.283120 -0.138086 -1.134210
    45 1.100770 0.004526 -0.010676 -0.009124 0.013408 -0.421109
    46 0.120152 -0.050266 -0.054488 -2.315902 -0.029011 -1.484394
  time 7
    0 11.662686 5.865773 -10.738602 0.934392 -1.907294 -1.453648
    1 -0.071918 -8.498731 -0.104137 0.268612 0.186918 -0.150953
    2 0.250028 -2.820663 -0.238396 -0.758577 0.008668 -0.269408
    3 1.034835 -0.368954 0.962382 1.438903 -5.718260 1.593918
    4 0.000004 7.330805 -0.181574 0.000000 0.000000 0.000000
    5 -0.000006 -4.491440 2.746747 0.000000 0.000000 0.000000
    6 -0.000006 -5.215600 0.521221 0.000000 0.000000 0.000000
    7 -0.000004 -2.584793 0.626897 0.000000 0.000000 0.000000
    8 -0.000006 -3.113141 3.685755 0.000000 0.000000 0.000000
    9 -0.000007 -7.713655 -1.563225 0.000000 0.000000 0.000000
    10 -0.000003 0.619987 3.519732 0.000000 0.000000 0.000000
    11 -0.000001 -0.041039 4.583956 0.000000 0.000000 0.000000
    12 -1.112914 -8.867437 2.842189 0.000000 0.000000 0.000000
    13 1.112910 1.686673 0.481230 0.000000 0.000000 0.000000
    14 -1.687349 -9.390476 -12.013804 -1.864365 -5.328825 -0.963770
    15 0.096944 -8.450419 -0.009364 0.646071 -1.866665 -0.247007
    16 0.447952 -2.798982 -0.200442 -0.632518 -0.188188 0.437361
    17 -0.032910 -1.480206 0.004936 -0.767246 0.000000 0.000002
    18 -0.027022 -1.076919 -0.020212 -0.201651 0.000000 0.000000
    19 -0.249534 -2.846962 -0.174215 -0.511223 -0.169887 0.357523
    20 0.043235 -1.683939 0.096014 -0.815309 0.002823 -0.000167
    21 0.031729 -1.160831 0.058836 -0.220796 0.000642 0.008372
    22 -0.963866 -2.785142 -0.085346 0.047968 -0.066833 0.271976
    23 0.028479 -1.403068 0.006271 -0.840841 0.000000 0.000000
    24 0.021413 -0.957782 0.020047 -0.601214 0.000000 0.000000
    25 1.164474 -2.543938 -0.170328 -0.568466 -0.246526 0.363210
    26 0.024032 -1.129043 0.017806 -0.754842 0.000000 0.000001
    27 0.014896 -0.883989 -0.019845 -0.334519 0.000000 0.000000
    28 -0.586770 -1.264475 0.200164 0.343013 -0.969972 -3.051832
    29 1.522835 0.058681 0.016850 0.288066 0.033889 0.407244
    30 1.117948 0.048424 -0.005764 0.001830 -0.031849 0.239509
    31 -0.139399 -0.111697 0.014397 1.521828 0.323016 1.395694
    32 -0.488517 -2.755600 -0.228261 -0.945124 0.023395 -0.387835
    33 0.039888 -1.479789 0.029853 -1.586857 0.000000 0.000000
    34 0.028785 -1.075730 -0.023111 -0.303352 0.000000 0.000000
    35 -0.049759 -1.680545 0.100480 -1.511590 0.000000 -0.000002
    36 -0.034141 -1.148312 0.084779 -0.918049 0.000000 0.000000
    37 0.957766 -2.746776 -0.090301 0.290325 -0.167658 -0.045602
    38 -0.033419 -1.397129 -0.011255 -0.390032 0.000000 -0.000001
    39 -0.022361 -0.957434 0.018783 -0.162619 0.000000 0.000000
    40 -1.180680 -2.507215 -0.193861 -0.849276 0.096358 -0.405085
    41 -0.024966 -1.123934 0.017594 -1.517723 0.000000 0.000001
    42 -0.020057 -0.890966 0.010091 -0.909695 0.000000 0.000000
    43 0.583510 -1.197274 0.185377 1.121813 -0.962663 -1.143982
    44 1.535926 0.010245 0.005008 0.283120 -0.138086 -1.134210
    45 1.100770 0.004526 -0.010676 -0.009124 0.013408 -0.421109
    46 0.120152 -0.050266 -0.054488 -2.315902 -0.029011 -1.484394
  time 8
    0 11.662686 5.865773 -10.734696 0.934392 -1.907294 -1.453648
    1 -0.071918 -8.498731 -0.104137 0.268481 0.187493 -0.152013
    2 0.250028 -2.820663 -0.238396 -0.758577 0.008668 -0.269408
    3 1.034835 -0.368954 0.962382 1.438903 -5.718260 1.593918
    4 0.000004 7.330805 -0.181574 0.000000 0.000000 0.000000
    5 -0.000006 -4.491440 2.746747 0.000000 0.000000 0.000000
    6 -0.000006 -5.215600 0.521221 0.000000 0.000000 0.000000
    7 -0.000004 -2.584793 0.626897 0.000000 0.000000 0.000000
    8 -0.000006 -3.113141 3.685755 0.000000 0.000000 0.000000
    9 -0.000007 -7.713655 -1.563225 0.000000 0.000000 0.000000
    10 -0.000003 0.619987 3.519732 0.000000 0.000000 0.000000
    11 -0.000001 -0.041039 4.583956 0.000000 0.000000 0.000000
    12 -1.112914 -8.867437 2.842189 0.000000 0.000000 0.000000
    13 1.112910 1.686673 0.481230 0.000000 0.000000 0.000000
    14 -1.699068 -9.390476 -12.013804 -1.865393 -5.327419 -0.964345
    15 0.096944 -8.450419 -0.009364 0.646438 -1.866614 -0.247217
    16 0.447952 -2.798982 -0.200442 -0.632518 -0.188188 0.437361
    17 -0.032910 -1.480206 0.004936 -0.767246 0.000000 0.000002
    18 -0.027022 -1.076919 -0.020212 -0.201651 0.000000 0.000000
    19 -0.249534 -2.846962 -0.174215 -0.511223 -0.169887 0.357523
    20 0.043235 -1.683939 0.096014 -0.815309 0.002823 -0.000167
    21 0.031729 -1.160831 0.058836 -0.220796 0.000642 0.008372
    22 -0.963866 -2.785142 -0.085346 0.047968 -0.066833 0.271976
    23 0.028479 -1.403068 0.006271 -0.840841 0.000000 0.000000
    24 0.021413 -0.957782 0.020047 -0.601214 0.000000 0.000000
    25 1.164474 -2.543938 -0.170328 -0.568466 -0.246526 0.363210
    26 0.024032 -1.129043 0.017806 -0.754842 0.000000 0.000001
    27 0.014896 -0.883989 -0.019845 -0.334519 0.000000 0.000000
    28 -0.586770 -1.264475 0.200164 0.343013 -0.969972 -3.051832
    29 1.522835 0.058681 0.016850 0.286279 0.034213 0.410479
    30 1.117948 0.048424 -0.005764 0.003328 -0.033431 0.236566
    31 -0.139399 -0.111697 0.014397 1.521828 0.323016 1.395694
    32 -0.488517 -2.755600 -0.228261 -0.945124 0.023395 -0.387835
    33 0.039888 -1.479789 0.029853 -1.586857 0.000000 0.000000
    34 0.028785 -1.075730 -0.023111 -0.303352 0.000000 0.000000
    35 -0.049759 -1.680545 0.100480 -1.511590 0.000000 -0.000002
    36 -0.034141 -1.148312 0.084779 -0.918049 0.000000 0.000000
    37 0.957766 -2.746776 -0.090301 0.290325 -0.167658 -0.045602
    38 -0.033419 -1.397129 -0.011255 -0.390032 0.000000 -0.000001
    39 -0.022361 -0.957434 0.018783 -0.162619 0.000000 0.000000
    40 -1.180680 -2.507215 -0.193861 -0.849276 0.096358 -0.405085
    41 -0.024966 -1.123934 0.017594 -1.517723 0.000000 0.000001
    42 -0.020057 -0.890966 0.010091 -0.909695 0.000000 0.000000
    43 0.583510 -1.197274 0.185377 1.121813 -0.962663 -1.143982
    44 1.535926 0.010245 0.005008 0.283120 -0.138086 -1.134210
    45 1.100770 0.004526 -0.010676 -0.009124 0.013408 -0.421109
    46 0.120152 -0.050266 -0.054488 -2.315902 -0.029011 -1.484394
  time 9
    0 11.662686 5.865773 -10.730789 0.934392 -1.907294 -1.453648
    1 -0.071918 -8.498731 -0.104137 0.268385 0.187889 -0.152726
    2 0.250028 -2.820663 -0.238396 -0.758577 0.008668 -0.269408
    3 1.034835 -0.368954 0.962382 1.438903 -5.718260 1.593918
    4 0.000004 7.330805 -0.181574 0.000000 0.000000 0.000000
    5 -0.000006 -4.491440 2.746747 0.000000 0.000000 0.000000
    6 -0.000006 -5.215600 0.521221 0.000000 0.000000 0.000000
    7 -0.000004 -2.584793 0.626897 0.000000 0.000000 0.000000
    8 -0.000006 -3.113141 3.685755 0.000000 0.000000 0.000000
    9 -0.000007 -7.713655 -1.563225 0.000000 0.000000 0.000000
    10 -0.000003 0.619987 3.519732 0.000000 0.000000 0.000000
    11 -0.000001 -0.041039 4.583956 0.000000 0.000000 0.000000
    12 -1.112914 -8.867437 2.842189 0.000000 0.000000 0.000000
    13 1.112910 1.686673 0.481230 0.000000 0.000000 0.000000
    14 -1.710787 -9.390476 -12.013804 -1.866284 -5.326481 -0.964728
    15 0.096944 -8.450419 -0.009364 0.646804 -1.866562 -0.247426
    16 0.447952 -2.798982 -0.200442 -0.632518 -0.188188 0.437361
    17 -0.032910 -1.480206 0.004936 -0.767246 0.000000 0.000002
    18 -0.027022 -1.076919 -0.020212 -0.201651 0.000000 0.000000
    19 -0.249534 -2.846962 -0.174215 -0.511223 -0.169887 0.357523
    20 0.043235 -1.683939 0.096014 -0.815309 0.002823 -0.000167
    21 0.031729 -1.160831 0.058836 -0.220796 0.000642 0.008372
    22 -0.963866 -2.785142 -0.085346 0.047968 -0.066833 0.271976
    23 0.028479 -1.403068 0.006271 -0.840841 0.000000 0.000000
    24 0.021413 -0.957782 0.020047 -0.601214 0.000000 0.000000
    25 1.164474 -2.543938 -0.170328 -0.568466 -0.246526 0.363210
    26 0.024032 -1.129043 0.017806 -0.754842 0.000000 0.000001
    27 0.014896 -0.883989 -0.019845 -0.334519 0.000000 0.000000
    28 -0.586770 -1.264475 0.200164 0.343013 -0.969972 -3.051832
    29 1.522835 0.058681 0.016850 0.284532 0.034536 0.413632
    30 1.117948 0.048424 -0.005764 0.004803 -0.034989 0.233662
    31 -0.139399 -0.111697 0.014397 1.521828 0.323016 1.395694
    32 -0.488517 -2.755600 -0.228261 -0.945124 0.023395 -0.387835
    33 0.039888 -1.479789 0.029853 -1.586857 0.000000 0.000000
    34 0.028785 -1.075730 -0.023111 -0.303352 0.000000 0.000000
    35 -0.049759 -1.680545 0.100480 -1.511590 0.000000 -0.000002
    36 -0.034141 -1.148312 0.084779 -0.918049 0.000000 0.000000
    37 0.957766 -2.746776 -0.090301 0.290325 -0.167658 -0.045602
    38 -0.033419 -1.397129 -0.011255 -0.390032 0.000000 -0.000001
    39 -0.022361 -0.957434 0.018783 -0.162619 0.000000 0.000000
    40 -1.180680 -2.507215 -0.193861 -0.849276 0.096358 -0.405085
    41 -0.024966 -1.123934 0.017594 -1.517723 0.000000 0.000001
    42 -0.020057 -0.890966 0.010091 -0.909695 0.000000 0.000000
    43 0.583510 -1.197274 0.185377 1.121813 -0.962663 -1.143982
    44 1.535926 0.010245 0.005008 0.283120 -0.138086 -1.134210
    45 1.100770 0.004526 -0.010676 -0.009124 0.013408 -0.421109
    46 0.120152 -0.050266 -0.054488 -2.315902 -0.029011 -1.484394
  time 10
    0 11.662686 5.865773 -10.730789 0.934392 -1.907294 -1.453648
    1 -0.071918 -8.498731 -0.104137 0.268301 0.188247 -0.153358
    2 0.250028 -2.820663 -0.238396 -0.758577 0.008668 -0.269408
    3 1.034835 -0.368954 0.962382 1.438903 -5.718260 1.593918
    4 0.000004 7.330805 -0.181574 0.000000 0.000000 0.000000
    5 -0.000006 -4.491440 2.746747 0.000000 0.000000 0.000000
    6 -0.000006 -5.215600 0.521221 0.000000 0.000000 0.000000
    7 -0.000004 -2.584793 0.626897 0.000000 0.000000 0.000000
    8 -0.000006 -3.113141 3.685755 0.000000 0.000000 0.000000
    9 -0.000007 -7.713655 -1.563225 0.000000 0.000000 0.000000
    10 -0.000003 0.619987 3.519732 0.000000 0.000000 0.000000
    11 -0.000001 -0.041039 4.583956 0.000000 0.000000 0.000000
    12 -1.112914 -8.867437 2.842189 0.000000 0.000000 0.000000
    13 1.112910 1.686673 0.481230 0.000000 0.000000 0.000000
    14 -1.718600 -9.390476 -12.013804 -1.867107 -5.325637 -0.965112
    15 0.096944 -8.450419 -0.009364 0.647171 -1.866511 -0.247635
    16 0.447952 -2.798982 -0.200442 -0.632518 -0.188188 0.437361
    17 -0.032910 -1.480206 0.004936 -0.767246 0.000000 0.000002
    18 -0.027022 -1.076919 -0.020212 -0.201651 0.000000 0.000000
    19 -0.249534 -2.846962 -0.174215 -0.511223 -0.169887 0.357523
    20 0.043235 -1.683939 0.096014 -0.815309 0.002823 -0.000167
    21 0.031729 -1.160831 0.058836 -0.220796 0.000642 0.008372
    22 -0.963866 -2.785142 -0.085346 0.047968 -0.066833 0.271976
    23 0.028479 -1.403068 0.006271 -0.840841 0.000000 0.000000
    24 0.021413 -0.957782 0.020047 -0.601214 0.000000 0.000000
    25 1.164474 -2.543938 -0.170328 -0.568466 -0.246526 0.363210
    26 0.024032 -1.129043 0.017806 -0.754842 0.000000 0.000001
    27 0.014896 -0.883989 -0.019845 -0.334519 0.000000 0.000000
    28 -0.586770 -1.264475 0.200164 0.343013 -0.969972 -3.051832
    29 1.522835 0.058681 0.016850 0.282865 0.034836 0.416618
    30 1.117948 0.048424 -0.005764 0.006193 -0.036464 0.230911
    31 -0.139399 -0.111697 0.014397 1.521828 0.323016 1.395694
    32 -0.488517 -2.755600 -0.228261 -0.945124 0.023395 -0.387835
    33 0.039888 -1.479789 0.029853 -1.586857 0.000000 0.000000
    34 0.028785 -1.075730 -0.023111 -0.303352 0.000000 0.000000
    35 -0.049759 -1.680545 0.100480 -1.511590 0.000000 -0.000002
    36 -0.034141 -1.148312 0.084779 -0.918049 0.000000 0.000000
    37 0.957766 -2.746776 -0.090301 0.290325 -0.167658 -0.045602
    38 -0.033419 -1.397129 -0.011255 -0.390032 0.000000 -0.000001
    39 -0.022361 -0.957434 0.018783 -0.162619 0.000000 0.000000
    40 -1.180680 -2.507215 -0.193861 -0.849276 0.096358 -0.405085
    41 -0.024966 -1.123934 0.017594 -1.517723 0.000000 0.000001
    42 -0.020057 -0.890966 0.010091 -0.909695 0.000000 0.000000
    43 0.583510 -1.197274 0.185377 1.121813 -0.962680 -1.143982
    44 1.535926 0.010245 0.005008 0.283120 -0.138086 -1.134210
    45 1.100770 0.004526 -0.010676 -0.009124 0.013408 -0.421109
    46 0.120152 -0.050266 -0.054488 -2.315902 -0.029011 -1.484394
  time 11
    0 11.662686 5.865773 -10.726883 0.934392 -1.907294 -1.453648
    1 -0.071918 -8.498731 -0.104137 0.268229 0.188541 -0.153888
    2 0.250028 -2.820663 -0.238396 -0.758577 0.008668 -0.269408
    3 1.034835 -0.368954 0.962382 1.438903 -5.718260 1.593918
    4 0.000004 7.330805 -0.181574 0.000000 0.000000 0.000000
    5 -0.000006 -4.491440 2.746747 0.000000 0.000000 0.000000
    6 -0.000006 -5.215600 0.521221 0.000000 0.000000 0.000000
    7 -0.000004 -2.584793 0.626897 0.000000 0.000000 0.000000
    8 -0.000006 -3.113141 3.685755 0.000000 0.000000 0.000000
    9 -0.000007 -7.713655 -1.563225 0.000000 0.000000 0.000000
    10 -0.000003 0.619987 3.519732 0.000000 0.000000 0.000000
    11 -0.000001 -0.041039 4.583956 0.000000 0.000000 0.000000
    12 -1.112914 -8.867437 2.842189 0.000000 0.000000 0.000000
    13 1.112910 1.686673 0.481230 0.000000 0.000000 0.000000
    14 -1.726413 -9.390476 -12.013804 -1.867792 -5.324981 -0.965399
    15 0.096944 -8.450419 -0.009364 0.647497 -1.866459 -0.247821
    16 0.447952 -2.798982 -0.200442 -0.632518 -0.188188 0.437361
    17 -0.032910 -1.480206 0.004936 -0.767246 0.000000 0.000002
    18 -0.027022 -1.076919 -0.020212 -0.201651 0.000000 0.000000
    19 -0.249534 -2.846962 -0.174215 -0.511223 -0.169887 0.357523
    20 0.043235 -1.683939 0.096014 -0.815309 0.002823 -0.000167
    21 0.031729 -1.160831 0.058836 -0.220796 0.000642 0.008372
    22 -0.963866 -2.785142 -0.085346 0.047968 -0.066833 0.271976
    23 0.028479 -1.403068 0.006271 -0.840841 0.000000 0.000000
    24 0.021413 -0.957782 0.020047 -0.601214 0.000000 0.000000
    25 1.164474 -2.543938 -0.170328 -0.568466 -0.246526 0.363210
    26 0.024032 -1.129043 0.017806 -0.754842 0.000000 0.000001
    27 0.014896 -0.883989 -0.019845 -0.334519 0.000000 0.000000
    28 -0.586770 -1.264475 0.200164 0.343013 -0.969972 -3.051832
    29 1.522835 0.058681 0.016850 0.281359 0.035111 0.419356
    30 1.117948 0.048424 -0.005764 0.007451 -0.037794 0.228466
    31 -0.139399 -0.111697 0.014397 1.521828 0.323016 1.395694
    32 -0.488517 -2.755600 -0.228261 -0.945124 0.023395 -0.387835
    33 0.039888 -1.479789 0.029853 -1.586857 0.000000 0.000000
    34 0.028785 -1.075730 -0.023111 -0.303352 0.000000 0.000000
    35 -0.049759 -1.680545 0.100480 -1.511590 0.000000 -0.000002
    36 -0.034141 -1.148312 0.084779 -0.918049 0.000000 0.000000
    37 0.957766 -2.746776 -0.090301 0.290325 -0.167658 -0.045602
    38 -0.033419 -1.397129 -0.011255 -0.390032 0.000000 -0.000001
    39 -0.022361 -0.957434 0.018783 -0.162619 0.000000 0.000000
    40 -1.180680 -2.507215 -0.193861 -0.849276 0.096358 -0.405085
    41 -0.024966 -1.123934 0.017594 -1.517723 0.000000 0.000001
    42 -0.020057 -0.890966 0.010091 -0.909695 0.000000 0.000000
    43 0.583510 -1.197274 0.185377 1.121813 -0.962663 -1.143982
    44 1.535926 0.010245 0.005008 0.283120 -0.138086 -1.134210
    45 1.100770 0.004526 -0.010676 -0.009124 0.013408 -0.421109
    46 0.120152 -0.050266 -0.054488 -2.315902 -0.029011 -1.484394
  time 12
    0 11.662686 5.865773 -10.722977 0.934392 -1.907294 -1.453648
    1 -0.071918 -8.498731 -0.104137 0.268169 0.188796 -0.154357
    2 0.250028 -2.820663 -0.238396 -0.758577 0.008668 -0.269408
    3 1.034835 -0.368954 0.962382 1.438903 -5.718260 1.593918
    4 0.000004 7.330805 -0.181574 0.000000 0.000000 0.000000
    5 -0.000006 -4.491440 2.746747 0.000000 0.000000 0.000000
    6 -0.000006 -5.215600 0.521221 0.000000 0.000000 0.000000
    7 -0.000004 -2.584793 0.626897 0.000000 0.000000 0.000000
    8 -0.000006 -3.113141 3.685755 0.000000 0.000000 0.000000
    9 -0.000007 -7.713655 -1.563225 0.000000 0.000000 0.000000
    10 -0.000003 0.619987 3.519732 0.000000 0.000000 0.000000
    11 -0.000001 -0.041039 4.583956 0.000000 0.000000 0.000000
    12 -1.112914 -8.867437 2.842189 0.000000 0.000000 0.000000
    13 1.112910 1.686673 0.481230 0.000000 0.000000 0.000000
    14 -1.734226 -9.390476 -12.013804 -1.868409 -5.324325 -0.965687
    15 0.096944 -8.450419 -0.009364 0.647741 -1.866408 -0.247984
    16 0.447952 -2.798982 -0.200442 -0.632518 -0.188188 0.437361
    17 -0.032910 -1.480206 0.004936 -0.767246 0.000000 0.000002
    18 -0.027022 -1.076919 -0.020212 -0.201651 0.000000 0.000000
    19 -0.249534 -2.846962 -0.174215 -0.511223 -0.169887 0.357523
    20 0.043235 -1.683939 0.096014 -0.815309 0.002823 -0.000167
    21 0.031729 -1.160831 0.058836 -0.220796 0.000642 0.008372
    22 -0.963866 -2.785142 -0.085346 0.047968 -0.066833 0.271976
    23 0.028479 -1.403068 0.006271 -0.840841 0.000000 0.000000
    24 0.021413 -0.957782 0.020047 -0.601214 0.000000 0.000000
    25 1.164474 -2.543938 -0.170328 -0.568466 -0.246526 0.363210
    26 0.024032 -1.129043 0.017806 -0.754842 0.000000 0.000001
    27 0.014896 -0.883989 -0.019845 -0.334519 0.000000 0.000000
    28 -0.586770 -1.264475 0.200164 0.343013 -0.969972 -3.051832
    29 1.522835 0.058681 0.016850 0.280093 0.035351 0.421637
    30 1.117948 0.048424 -0.005764 0.008530 -0.038920 0.226364
    31 -0.139399 -0.111697 0.014397 1.521828 0.323016 1.395694
    32 -0.488517 -2.755600 -0.228261 -0.945124 0.023395 -0.387835
    33 0.039888 -1.479789 0.029853 -1.586857 0.000000 0.000000
    34 0.028785 -1.075730 -0.023111 -0.303352 0.000000 0.000000
    35 -0.049759 -1.680545 0.100480 -1.511590 0.000000 -0.000002
    36 -0.034141 -1.148312 0.084779 -0.918049 0.000000 0.000000
    37 0.957766 -2.746776 -0.090301 0.290325 -0.167658 -0.045602
    38 -0.033419 -1.397129 -0.011255 -0.390032 0.000000 -0.000001
    39 -0.022361 -0.957434 0.018783 -0.162619 0.000000 0.000000
    40 -1.180680 -2.507215 -0.193861 -0.849276 0.096358 -0.405085
    41 -0.024966 -1.123934 0.017594 -1.517723 0.000000 0.000001
    42 -0.020057 -0.890966 0.010091 -0.909695 0.000000 0.000000
    43 0.583510 -1.197274 0.185377 1.121813 -0.962663 -1.143982
    44 1.535926 0.010245 0.005008 0.283120 -0.138086 -1.134210
    45 1.100770 0.004526 -0.010676 -0.009124 0.013408 -0.421109
    46 0.120152 -0.050266 -0.054488 -2.315902 -0.029011 -1.484394
  time 13
    0 11.662686 5.865773 -10.722977 0.934392 -1.907294 -1.453648
    1 -0.071918 -8.498731 -0.104137 0.268121 0.189013 -0.154745
    2 0.250028 -2.820663 -0.238396 -0.758577 0.008668 -0.269408
    3 1.034835 -0.368954 0.962382 1.438903 -5.718260 1.593918
    4 0.000004 7.330805 -0.181574 0.000000 0.000000 0.000000
    5 -0.000006 -4.491440 2.746747 0.000000 0.000000 0.000000
    6 -0.000006 -5.215600 0.521221 0.000000 0.000000 0.000000
    7 -0.000004 -2.584793 0.626897 0.000000 0.000000 0.000000
    8 -0.000006 -3.113141 3.685755 0.000000 0.000000 0.000000
    9 -0.000007 -7.713655 -1.563225 0.000000 0.000000 0.000000
    10 -0.000003 0.619987 3.519732 0.000000 0.000000 0.000000
    11 -0.000001 -0.041039 4.583956 0.000000 0.000000 0.000000
    12 -1.112914 -8.867437 2.842189 0.000000 0.000000 0.000000
    13 1.112910 1.686673 0.481230 0.000000 0.000000 0.000000
    14 -1.742038 -9.390476 -12.013804 -1.868889 -5.323856 -0.965782
    15 0.096944 -8.450419 -0.009364 0.647986 -1.866408 -0.248100
    16 0.447952 -2.798982 -0.200442 -0.632518 -0.188188 0.437361
    17 -0.032910 -1.480206 0.004936 -0.767246 0.000000 0.000002
    18 -0.027022 -1.076919 -0.020212 -0.201651 0.000000 0.000000
    19 -0.249534 -2.846962 -0.174215 -0.511223 -0.169887 0.357523
    20 0.043235 -1.683939 0.096014 -0.815309 0.002823 -0.000167
    21 0.031729 -1.160831 0.058836 -0.220796 0.000642 0.008372
    22 -0.963866 -2.785142 -0.085346 0.047968 -0.066833 0.271976
    23 0.028479 -1.403068 0.006271 -0.840841 0.000000 0.000000
    24 0.021413 -0.957782 0.020047 -0.601214 0.000000 0.000000
    25 1.164474 -2.543938 -0.170328 -0.568466 -0.246526 0.363210
    26 0.024032 -1.129043 0.017806 -0.754842 0.000000 0.000001
    27 0.014896 -0.883989 -0.019845 -0.334519 0.000000 0.000000
    28 -0.586770 -1.264475 0.200164 0.343013 -0.969972 -3.051832
    29 1.522835 0.058681 0.016850 0.279089 0.035531 0.423462
    30 1.117948 0.048424 -0.005764 0.009357 -0.039807 0.224721
    31 -0.139399 -0.111697 0.014397 1.521828 0.323016 1.395694
    32 -0.488517 -2.755600 -0.228261 -0.945124 0.023395 -0.387835
    33 0.039888 -1.479789 0.029853 -1.586857 0.000000 0.000000
    34 0.028785 -1.075730 -0.023111 -0.303352 0.000000 0.000000
    35 -0.049759 -1.680545 0.100480 -1.511590 0.000000 -0.000002
    36 -0.034141 -1.148312 0.084779 -0.918049 0.000000 0.000000
    37 0.957766 -2.746776 -0.090301 0.290325 -0.167658 -0.045602
    38 -0.033419 -1.397129 -0.011255 -0.390032 0.000000 -0.000001
    39 -0.022361 -0.957434 0.018783 -0.162619 0.000000 0.000000
    40 -1.180680 -2.507215 -0.193861 -0.849276 0.096358 -0.405085
    41 -0.024966 -1.123934 0.017594 -1.517723 0.000000 0.000001
    42 -0.020057 -0.890966 0.010091 -0.909695 0.000000 0.000000
    43 0.583510 -1.197274 0.185377 1.121813 -0.962663 -1.143982
    44 1.535926 0.010245 0.005008 0.283120 -0.138086 -1.134210
    45 1.100770 0.004526 -0.010676 -0.009124 0.013408 -0.421109
    46 0.120152 -0.050266 -0.054488 -2.315902 -0.029011 -1.484394
  time 14
    0 11.662686 5.865773 -10.722977 0.934392 -1.907294 -1.453648
    1 -0.071918 -8.498731 -0.104137 0.268073 0.189179 -0.155051
    2 0.250028 -2.820663 -0.238396 -0.758577 0.008668 -0.269408
    3 1.034835 -0.368954 0.962382 1.438903 -5.718260 1.593918
    4 0.000004 7.330805 -0.181574 0.000000 0.000000 0.000000
    5 -0.000006 -4.491440 2.746747 0.000000 0.000000 0.000000
    6 -0.000006 -5.215600 0.521221 0.000000 0.000000 0.000000
    7 -0.000004 -2.584793 0.626897 0.000000 0.000000 0.000000
    8 -0.000006 -3.113141 3.685755 0.000000 0.000000 0.000000
    9 -0.000007 -7.713655 -1.563225 0.000000 0.000000 0.000000
    10 -0.000003 0.619987 3.519732 0.000000 0.000000 0.000000
    11 -0.000001 -0.041039 4.583956 0.000000 0.000000 0.000000
    12 -1.112914 -8.867437 2.842189 0.000000 0.000000 0.000000
    13 1.112910 1.686673 0.481230 0.000000 0.000000 0.000000
    14 -1.745945 -9.390476 -12.013804 -1.869232 -5.323387 -0.965974
    15 0.096944 -8.450419 -0.009364 0.648108 -1.866356 -0.248170
    16 0.447952 -2.798982 -0.200442 -0.632518 -0.188188 0.437361
    17 -0.032910 -1.480206 0.004936 -0.767246 0.000000 0.000002
    18 -0.027022 -1.076919 -0.020212 -0.201651 0.000000 0.000000
    19 -0.249534 -2.846962 -0.174215 -0.511223 -0.169887 0.357523
    20 0.043235 -1.683939 0.096014 -0.815309 0.002823 -0.000167
    21 0.031729 -1.160831 0.058836 -0.220796 0.000642 0.008372
    22 -0.963866 -2.785142 -0.085346 0.047968 -0.066833 0.271976
    23 0.028479 -1.403068 0.006271 -0.840841 0.000000 0.000000
    24 0.021413 -0.957782 0.020047 -0.601214 0.000000 0.000000
    25 1.164474 -2.543938 -0.170328 -0.568466 -0.246526 0.363210
    26 0.024032 -1.129043 0.017806 -0.754842 0.000000 0.000001
    27 0.014896 -0.883989 -0.019845 -0.334519 0.000000 0.000000
    28 -0.586770 -1.264475 0.200164 0.343013 -0.969972 -3.051832
    29 1.522835 0.058681 0.016850 0.278447 0.035651 0.424624
    30 1.117948 0.048424 -0.005764 0.009896 -0.040370 0.223651
    31 -0.139399 -0.111697 0.014397 1.521828 0.323016 1.395694
    32 -0.488517 -2.755600 -0.228261 -0.945124 0.023395 -0.387835
    33 0.039888 -1.479789 0.029853 -1.586857 0.000000 0.000000
    34 0.028785 -1.075730 -0.023111 -0.303352 0.000000 0.000000
    35 -0.049759 -1.680545 0.100480 -1.511590 0.000000 -0.000002
    36 -0.034141 -1.148312 0.084779 -0.918049 0.000000 0.000000
    37 0.957766 -2.746776 -0.090301 0.290325 -0.167658 -0.045602
    38 -0.033419 -1.397129 -0.011255 -0.390032 0.000000 -0.000001
    39 -0.022361 -0.957434 0.018783 -0.162619 0.000000 0.000000
    40 -1.180680 -2.507215 -0.193861 -0.849276 0.096358 -0.405085
    41 -0.024966 -1.123934 0.017594 -1.517723 0.000000 0.000001
    42 -0.020057 -0.890966 0.010091 -0.909695 0.000000 0.000000
    43 0.583510 -1.197274 0.185377 1.121813 -0.962663 -1.143982
    44 1.535926 0.010245 0.005008 0.283120 -0.138086 -1.134210
    45 1.100770 0.004526 -0.010676 -0.009124 0.013408 -0.421109
    46 0.120152 -0.050266 -0.054488 -2.315902 -0.029011 -1.484394
  time 15
    0 11.662686 5.865773 -10.722977 0.934392 -1.907294 -1.453648
    1 -0.071918 -8.498731 -0.104137 0.268037 0.189320 -0.155295
    2 0.250028 -2.820663 -0.238396 -0.758577 0.008668 -0.269408
    3 1.034835 -0.368954 0.962382 1.438903 -5.718260 1.593918
    4 0.000004 7.330805 -0.181574 0.000000 0.000000 0.000000
    5 -0.000006 -4.491440 2.746747 0.000000 0.000000 0.000000
    6 -0.000006 -5.215600 0.521221 0.000000 0.000000 0.000000
    7 -0.000004 -2.584793 0.626897 0.000000 0.000000 0.000000
    8 -0.000006 -3.113141 3.685755 0.000000 0.000000 0.000000
    9 -0.000007 -7.713655 -1.563225 0.000000 0.000000 0.000000
    10 -0.000003 0.619987 3.519732 0.000000 0.000000 0.000000
    11 -0.000001 -0.041039 4.583956 0.000000 0.000000 0.000000
    12 -1.112914 -8.867437 2.842189 0.000000 0.000000 0.000000
    13 1.112910 1.686673 0.481230 0.000000 0.000000 0.000000
    14 -1.745945 -9.390476 -12.013804 -1.869438 -5.323106 -0.966166
    15 0.096944 -8.450419 -0.009364 0.648149 -1.866356 -0.248216
    16 0.447952 -2.798982 -0.200442 -0.632518 -0.188188 0.437361
    17 -0.032910 -1.480206 0.004936 -0.767246 0.000000 0.000002
    18 -0.027022 -1.076919 -0.020212 -0.201651 0.000000 0.000000
    19 -0.249534 -2.846962 -0.174215 -0.511223 -0.169887 0.357523
    20 0.043235 -1.683939 0.096014 -0.815309 0.002823 -0.000167
    21 0.031729 -1.160831 0.058836 -0.220796 0.000642 0.008372
    22 -0.963866 -2.785142 -0.085346 0.047968 -0.066833 0.271976
    23 0.028479 -1.403068 0.006271 -0.840841 0.000000 0.000000
    24 0.021413 -0.957782 0.020047 -0.601214 0.000000 0.000000
    25 1.164474 -2.543938 -0.170328 -0.568466 -0.246526 0.363210
    26 0.024032 -1.129043 0.017806 -0.754842 0.000000 0.000001
    27 0.014896 -0.883989 -0.019845 -0.334519 0.000000 0.000000
    28 -0.586770 -1.264475 0.200164 0.343013 -0.969972 -3.051832
    29 1.522835 0.058681 0.016850 0.278226 0.035687 0.425039
    30 1.117948 0.048424 -0.005764 0.010088 -0.040574 0.223269
    31 -0.139399 -0.111697 0.014397 1.521828 0.323016 1.395694
    32 -0.488517 -2.755600 -0.228261 -0.945124 0.023395 -0.387835
    33 0.039888 -1.479789 0.029853 -1.586857 0.000000 0.000000
    34 0.028785 -1.075730 -0.023111 -0.303352 0.000000 0.000000
    35 -0.049759 -1.680545 0.100480 -1.511590 0.000000 -0.000002
    36 -0.034141 -1.148312 0.084779 -0.918049 0.000000 0.000000
    37 0.957766 -2.746776 -0.090301 0.290325 -0.167658 -0.045602
    38 -0.033419 -1.397129 -0.011255 -0.390032 0.000000 -0.000001
    39 -0.022361 -0.957434 0.018783 -0.162619 0.000000 0.000000
    40 -1.180680 -2.507215 -0.193861 -0.849276 0.096358 -0.405085
    41 -0.024966 -1.123934 0.017594 -1.517723 0.000000 0.000001
    42 -0.020057 -0.890966 0.010091 -0.909695 0.000000 0.000000
    43 0.583510 -1.197274 0.185377 1.121813 -0.962663 -1.143982
    44 1.535926 0.010245 0.005008 0.283120 -0.138086 -1.134210
    45 1.100770 0.004526 -0.010676 -0.009124 0.013408 -0.421109
    46 0.120152 -0.050266 -0.054488 -2.315902 -0.029011 -1.484394
  time 16
    0 11.662686 5.865773 -10.722977 0.934392 -1.907294 -1.453648
    1 -0.071918 -8.498731 -0.104137 0.268013 0.189409 -0.155479
    2 0.250028 -2.820663 -0.238396 -0.758577 0.008668 -0.269408
    3 1.034835 -0.368954 0.962382 1.438903 -5.718260 1.593918
    4 0.000004 7.330805 -0.181574 0.000000 0.000000 0.000000
    5 -0.000006 -4.491440 2.746747 0.000000 0.000000 0.000000
    6 -0.000006 -5.215600 0.521221 0.000000 0.000000 0.000000
    7 -0.000004 -2.584793 0.626897 0.000000 0.000000 0.000000
    8 -0.000006 -3.113141 3.685755 0.000000 0.000000 0.000000
    9 -0.000007 -7.713655 -1.563225 0.000000 0.000000 0.000000
    10 -0.000003 0.619987 3.519732 0.000000 0.000000 0.000000
    11 -0.000001 -0.041039 4.583956 0.000000 0.000000 0.000000
    12 -1.112914 -8.867437 2.842189 0.000000 0.000000 0.000000
    13 1.112910 1.686673 0.481230 0.000000 0.000000 0.000000
    14 -1.745945 -9.390476 -12.013804 -1.869438 -5.322919 -0.966262
    15 0.096944 -8.450419 -0.009364 0.648108 -1.866356 -0.248170
    16 0.447952 -2.798982 -0.200442 -0.632518 -0.188188 0.437361
    17 -0.032910 -1.480206 0.004936 -0.767246 0.000000 0.000002
    18 -0.027022 -1.076919 -0.020212 -0.201651 0.000000 0.000000
    19 -0.249534 -2.846962 -0.174215 -0.511223 -0.169887 0.357523
    20 0.043235 -1.683939 0.096014 -0.815309 0.002823 -0.000167
    21 0.031729 -1.160831 0.058836 -0.220796 0.000642 0.008372
    22 -0.963866 -2.785142 -0.085346 0.047968 -0.066833 0.271976
    23 0.028479 -1.403068 0.006271 -0.840841 0.000000 0.000000
    24 0.021413 -0.957782 0.020047 -0.601214 0.000000 0.000000
    25 1.164474 -2.543938 -0.170328 -0.568466 -0.246526 0.363210
    26 0.024032 -1.129043 0.017806 -0.754842 0.000000 0.000001
    27 0.014896 -0.883989 -0.019845 -0.334519 0.000000 0.000000
    28 -0.586770 -1.264475 0.200164 0.343013 -0.969972 -3.051832
    29 1.522835 0.058681 0.016850 0.278447 0.035651 0.424624
    30 1.117948 0.048424 -0.005764 0.009896 -0.040370 0.223651
    31 -0.139399 -0.111697 0.014397 1.521828 0.323016 1.395694
    32 -0.488517 -2.755600 -0.228261 -0.945124 0.023395 -0.387835
    33 0.039888 -1.479789 0.029853 -1.586857 0.000000 0.000000
    34 0.028785 -1.075730 -0.023111 -0.303352 0.000000 0.000000
    35 -0.049759 -1.680545 0.100480 -1.511590 0.000000 -0.000002
    36 -0.034141 -1.148312 0.084779 -0.918049 0.000000 0.000000
    37 0.957766 -2.746776 -0.090301 0.290325 -0.167658 -0.045602
    38 -0.033419 -1.397129 -0.011255 -0.390032 0.000000 -0.000001
    39 -0.022361 -0.957434 0.018783 -0.162619 0.000000 0.000000
    40 -1.180680 -2.507215 -0.193861 -0.849276 0.096358 -0.405085
    41 -0.024966 -1.123934 0.017594 -1.517723 0.000000 0.000001
    42 -0.020057 -0.890966 0.010091 -0.909695 0.000000 0.000000
    43 0.583510 -1.197274 0.185377 1.121813 -0.962663 -1.143982
    44 1.535926 0.010245 0.005008 0.283120 -0.138086 -1.134210
    45 1.100770 0.004526 -0.010676 -0.009124 0.013408 -0.421109
    46 0.120152 -0.050266 -0.054488 -2.315902 -0.029011 -1.484394
  time 17
    0 11.662686 5.865773 -10.722977 0.934392 -1.907294 -1.453648
    1 -0.071918 -8.498731 -0.104137 0.268001 0.189486 -0.155601
    2 0.250028 -2.820663 -0.238396 -0.758577 0.008668 -0.269408
    3 1.034835 -0.368954 0.962382 1.438903 -5.718260 1.593918
    4 0.000004 7.330805 -0.181574 0.000000 0.000000 0.000000
    5 -0.000006 -4.491440 2.746747 0.000000 0.000000 0.000000
    6 -0.000006 -5.215600 0.521221 0.000000 0.000000 0.000000
    7 -0.000004 -2.584793 0.626897 0.000000 0.000000 0.000000
    8 -0.000006 -3.113141 3.685755 0.000000 0.000000 0.000000
    9 -0.000007 -7.713655 -1.563225 0.000000 0.000000 0.000000
    10 -0.000003 0.619987 3.519732 0.000000 0.000000 0.000000
    11 -0.000001 -0.041039 4.583956 0.000000 0.000000 0.000000
    12 -1.112914 -8.867437 2.842189 0.000000 0.000000 0.000000
    13 1.112910 1.686673 0.481230 0.000000 0.000000 0.000000
    14 -1.742038 -9.390476 -12.013804 -1.869369 -5.322731 -0.966357
    15 0.096944 -8.450419 -0.009364 0.647986 -1.866408 -0.248100
    16 0.447952 -2.798982 -0.200442 -0.632518 -0.188188 0.437361
    17 -0.032910 -1.480206 0.004936 -0.767246 0.000000 0.000002
    18 -0.027022 -1.076919 -0.020212 -0.201651 0.000000 0.000000
    19 -0.249534 -2.846962 -0.174215 -0.511223 -0.169887 0.357523
    20 0.043235 -1.683939 0.096014 -0.815309 0.002823 -0.000167
    21 0.031729 -1.160831 0.058836 -0.220796 0.000642 0.008372
    22 -0.963866 -2.785142 -0.085346 0.047968 -0.066833 0.271976
    23 0.028479 -1.403068 0.006271 -0.840841 0.000000 0.000000
    24 0.021413 -0.957782 0.020047 -0.601214 0.000000 0.000000
    25 1.164474 -2.543938 -0.170328 -0.568466 -0.246526 0.363210
    26 0.024032 -1.129043 0.017806 -0.754842 0.000000 0.000001
    27 0.014896 -0.883989 -0.019845 -0.334519 0.000000 0.000000
    28 -0.586770 -1.264475 0.200164 0.343013 -0.969972 -3.051832
    29 1.522835 0.058681 0.016850 0.279089 0.035531 0.423462
    30 1.117948 0.048424 -0.005764 0.009357 -0.039807 0.224721
    31 -0.139399 -0.111697 0.014397 1.521828 0.323016 1.395694
    32 -0.488517 -2.755600 -0.228261 -0.945124 0.023395 -0.387835
    33 0.039888 -1.479789 0.029853 -1.586857 0.000000 0.000000
    34 0.028785 -1.075730 -0.023111 -0.303352 0.000000 0.000000
    35 -0.049759 -1.680545 0.100480 -1.511590 0.000000 -0.000002
    36 -0.034141 -1.148312 0.084779 -0.918049 0.000000 0.000000
    37 0.957766 -2.746776 -0.090301 0.290325 -0.167658 -0.045602
    38 -0.033419 -1.397129 -0.011255 -0.390032 0.000000 -0.000001
    39 -0.022361 -0.957434 0.018783 -0.162619 0.000000 0.000000
    40 -1.180680 -2.507215 -0.193861 -0.849276 0.096358 -0.405085
    41 -0.024966 -1.123934 0.017594 -1.517723 0.000000 0.000001
    42 -0.020057 -0.890966 0.010091 -0.909695 0.000000 0.000000
    43 0.583510 -1.197274 0.185377 1.121813 -0.962663 -1.143982
    44 1.535926 0.010245 0.005008 0.283120 -0.138086 -1.134210
    45 1.100770 0.004526 -0.010676 -0.009124 0.013408 -0.421109
    46 0.120152 -0.050266 -0.054488 -2.315902 -0.029011 -1.484394
  time 18
    0 11.662686 5.865773 -10.722977 0.934392 -1.907294 -1.453648
    1 -0.071918 -8.498731 -0.104137 0.267989 0.189524 -0.155683
    2 0.250028 -2.820663 -0.238396 -0.758577 0.008668 -0.269408
    3 1.034835 -0.368954 0.962382 1.438903 -5.718260 1.593918
    4 0.000004 7.330805 -0.181574 0.000000 0.000000 0.000000
    5 -0.000006 -4.491440 2.746747 0.000000 0.000000 0.000000
    6 -0.000006 -5.215600 0.521221 0.000000 0.000000 0.000000
    7 -0.000004 -2.584793 0.626897 0.000000 0.000000 0.000000
    8 -0.000006 -3.113141 3.685755 0.000000 0.000000 0.000000
    9 -0.000007 -7.713655 -1.563225 0.000000 0.000000 0.000000
    10 -0.000003 0.619987 3.519732 0.000000 0.000000 0.000000
    11 -0.000001 -0.041039 4.583956 0.000000 0.000000 0.000000
    12 -1.112914 -8.867437 2.842189 0.000000 0.000000 0.000000
    13 1.112910 1.686673 0.481230 0.000000 0.000000 0.000000
    14 -1.734226 -9.390476 -12.013804 -1.869095 -5.322731 -0.966357
    15 0.096944 -8.450419 -0.009364 0.647741 -1.866408 -0.247984
    16 0.447952 -2.798982 -0.200442 -0.632518 -0.188188 0.437361
    17 -0.032910 -1.480206 0.004936 -0.767246 0.000000 0.000002
    18 -0.027022 -1.076919 -0.020212 -0.201651 0.000000 0.000000
    19 -0.249534 -2.846962 -0.174215 -0.511223 -0.169887 0.357523
    20 0.043235 -1.683939 0.096014 -0.815309 0.002823 -0.000167
    21 0.031729 -1.160831 0.058836 -0.220796 0.000642 0.008372
    22 -0.963866 -2.785142 -0.085346 0.047968 -0.066833 0.271976
    23 0.028479 -1.403068 0.006271 -0.840841 0.000000 0.000000
    24 0.021413 -0.957782 0.020047 -0.601214 0.000000 0.000000
    25 1.164474 -2.543938 -0.170328 -0.568466 -0.246526 0.363210
    26 0.024032 -1.129043 0.017806 -0.754842 0.000000 0.000001
    27 0.014896 -0.883989 -0.019845 -0.334519 0.000000 0.000000
    28 -0.586770 -1.264475 0.200164 0.343013 -0.969972 -3.051832
    29 1.522835 0.058681 0.016850 0.280093 0.035351 0.421637
    30 1.117948 0.048424 -0.005764 0.008530 -0.038920 0.226364
    31 -0.139399 -0.111697 0.014397 1.521828 0.323016 1.395694
    32 -0.488517 -2.755600 -0.228261 -0.945124 0.023395 -0.387835
    33 0.039888 -1.479789 0.029853 -1.586857 0.000000 0.000000
    34 0.028785 -1.075730 -0.023111 -0.303352 0.000000 0.000000
    35 -0.049759 -1.680545 0.100480 -1.511590 0.000000 -0.000002
    36 -0.034141 -1.148312 0.084779 -0.918049 0.000000 0.000000
    37 0.957766 -2.746776 -0.090301 0.290325 -0.167658 -0.045602
    38 -0.033419 -1.397129 -0.011255 -0.390032 0.000000 -0.000001
    39 -0.022361 -0.957434 0.018783 -0.162619 0.000000 0.000000
    40 -1.180680 -2.507215 -0.193861 -0.849276 0.096358 -0.405085
    41 -0.024966 -1.123934 0.017594 -1.517723 0.000000 0.000001
    42 -0.020057 -0.890966 0.010091 -0.909695 0.000000 0.000000
    43 0.583510 -1.197274 0.185377 1.121813 -0.962663 -1.143982
    44 1.535926 0.010245 0.005008 0.283120 -0.138086 -1.134210
    45 1.100770 0.004526 -0.010676 -0.009124 0.013408 -0.421109
    46 0.120152 -0.050266 -0.054488 -2.315902 -0.029011 -1.484394
  time 19
    0 11.662686 5.865773 -10.726883 0.934392 -1.907294 -1.453648
    1 -0.071918 -8.498731 -0.104137 0.267989 0.189537 -0.155703
    2 0.250028 -2.820663 -0.238396 -0.758577 0.008668 -0.269408
    3 1.034835 -0.368954 0.962382 1.438903 -5.718260 1.593918
    4 0.000004 7.330805 -0.181574 0.000000 0.000000 0.000000
    5 -0.000006 -4.491440 2.746747 0.000000 0.000000 0.000000
    6 -0.000006 -5.215600 0.521221 0.000000 0.000000 0.000000
    7 -0.000004 -2.584793 0.626897 0.000000 0.000000 0.000000
    8 -0.000006 -3.113141 3.685755 0.000000 0.000000 0.000000
    9 -0.000007 -7.713655 -1.563225 0.000000 0.000000 0.000000
    10 -0.000003 0.619987 3.519732 0.000000 0.000000 0.000000
    11 -0.000001 -0.041039 4.583956 0.000000 0.000000 0.000000
    12 -1.112914 -8.867437 2.842189 0.000000 0.000000 0.000000
    13 1.112910 1.686673 0.481230 0.000000 0.000000 0.000000
    14 -1.726413 -9.390476 -12.013804 -1.868752 -5.322731 -0.966453
    15 0.096944 -8.450419 -0.009364 0.647497 -1.866459 -0.247821
    16 0.447952 -2.798982 -0.200442 -0.632518 -0.188188 0.437361
    17 -0.032910 -1.480206 0.004936 -0.767246 0.000000 0.000002
    18 -0.027022 -1.076919 -0.020212 -0.201651 0.000000 0.000000
    19 -0.249534 -2.846962 -0.174215 -0.511223 -0.169887 0.357523
    20 0.043235 -1.683939 0.096014 -0.815309 0.002823 -0.000167
    21 0.031729 -1.160831 0.058836 -0.220796 0.000642 0.008372
    22 -0.963866 -2.785142 -0.085346 0.047968 -0.066833 0.271976
    23 0.028479 -1.403068 0.006271 -0.840841 0.000000 0.000000
    24 0.021413 -0.957782 0.020047 -0.601214 0.000000 0.000000
    25 1.164474 -2.543938 -0.170328 -0.568466 -0.246526 0.363210
    26 0.024032 -1.129043 0.017806 -0.754842 0.000000 0.000001
    27 0.014896 -0.883989 -0.019845 -0.334519 0.000000 0.000000
    28 -0.586770 -1.264475 0.200164 0.343013 -0.969972 -3.051832
    29 1.522835 0.058681 0.016850 0.281359 0.035111 0.419356
    30 1.117948 0.048424 -0.005764 0.007451 -0.037794 0.228466
    31 -0.139399 -0.111697 0.014397 1.521828 0.323016 1.395694
    32 -0.488517 -2.755600 -0.228261 -0.945124 0.023395 -0.387835
    33 0.039888 -1.479789 0.029853 -1.586857 0.000000 0.000000
    34 0.028785 -1.075730 -0.023111 -0.303352 0.000000 0.000000
    35 -0.049759 -1.680545 0.100480 -1.511590 0.000000 -0.000002
    36 -0.034141 -1.148312 0.084779 -0.918049 0.000000 0.000000
    37 0.957766 -2.746776 -0.090301 0.290325 -0.167658 -0.045602
    38 -0.033419 -1.397129 -0.011255 -0.390032 0.000000 -0.000001
    39 -0.022361 -0.957434 0.018783 -0.162619 0.000000 0.000000
    40 -1.180680 -2.507215 -0.193861 -0.849276 0.096358 -0.405085
    41 -0.024966 -1.123934 0.017594 -1.517723 0.000000 0.000001
    42 -0.020057 -0.890966 0.010091 -0.909695 0.000000 0.000000
    43 0.583510 -1.197274 0.185377 1.121813 -0.962663 -1.143982
    44 1.535926 0.010245 0.005008 0.283120 -0.138086 -1.134210
    45 1.100770 0.004526 -0.010676 -0.009124 0.013408 -0.421109
    46 0.120152 -0.050266 -0.054488 -2.315902 -0.029011 -1.484394
  time 20
    0 11.662686 5.865773 -10.730789 0.934392 -1.907294 -1.453648
    1 -0.071918 -8.498731 -0.104137 0.268025 0.189345 -0.155356
    2 0.250028 -2.820663 -0.238396 -0.758577 0.008668 -0.269408
    3 1.034835 -0.368954 0.962382 1.438903 -5.718260 1.593918
    4 0.000004 7.330805 -0.181574 0.000000 0.000000 0.000000
    5 -0.000006 -4.491440 2.746747 0.000000 0.000000 0.000000
    6 -0.000006 -5.215600 0.521221 0.000000 0.000000 0.000000
    7 -0.000004 -2.584793 0.626897 0.000000 0.000000 0.000000
    8 -0.000006 -3.113141 3.685755 0.000000 0.000000 0.000000
    9 -0.000007 -7.713655 -1.563225 0.000000 0.000000 0.000000
    10 -0.000003 0.619987 3.519732 0.000000 0.000000 0.000000
    11 -0.000001 -0.041039 4.583956 0.000000 0.000000 0.000000
    12 -1.112914 -8.867437 2.842189 0.000000 0.000000 0.000000
    13 1.112910 1.686673 0.481230 0.000000 0.000000 0.000000
    14 -1.718600 -9.390476 -12.013804 -1.868135 -5.323200 -0.966262
    15 0.096944 -8.450419 -0.009364 0.647171 -1.866511 -0.247635
    16 0.447952 -2.798982 -0.200442 -0.632518 -0.188188 0.437361
    17 -0.032910 -1.480206 0.004936 -0.767246 0.000000 0.000002
    18 -0.027022 -1.076919 -0.020212 -0.201651 0.000000 0.000000
    19 -0.249534 -2.846962 -0.174215 -0.511223 -0.169887 0.357523
    20 0.043235 -1.683939 0.096014 -0.815309 0.002823 -0.000167
    21 0.031729 -1.160831 0.058836 -0.220796 0.000642 0.008372
    22 -0.963866 -2.785142 -0.085346 0.047968 -0.066833 0.271976
    23 0.028479 -1.403068 0.006271 -0.840841 0.000000 0.000000
    24 0.021413 -0.957782 0.020047 -0.601214 0.000000 0.000000
    25 1.164474 -2.543938 -0.170328 -0.568466 -0.246526 0.363210
    26 0.024032 -1.129043 0.017806 -0.754842 0.000000 0.000001
    27 0.014896 -0.883989 -0.019845 -0.334519 0.000000 0.000000
    28 -0.586770 -1.264475 0.200164 0.343013 -0.969972 -3.051832
    29 1.522835 0.058681 0.016850 0.282865 0.034836 0.416618
    30 1.117948 0.048424 -0.005764 0.006193 -0.036464 0.230911
    31 -0.139399 -0.111697 0.014397 1.521828 0.323016 1.395694
    32 -0.488517 -2.755600 -0.228261 -0.945124 0.023395 -0.387835
    33 0.039888 -1.479789 0.029853 -1.586857 0.000000 0.000000
    34 0.028785 -1.075730 -0.023111 -0.303352 0.000000 0.000000
    35 -0.049759 -1.680545 0.100480 -1.511590 0.000000 -0.000002
    36 -0.034141 -1.148312 0.084779 -0.918049 0.000000 0.000000
    37 0.957766 -2.746776 -0.090301 0.290325 -0.167658 -0.045602
    38 -0.033419 -1.397129 -0.011255 -0.390032 0.000000 -0.000001
    39 -0.022361 -0.957434 0.018783 -0.162619 0.000000 0.000000
    40 -1.180680 -2.507215 -0.193861 -0.849276 0.096358 -0.405085
    41 -0.024966 -1.123934 0.017594 -1.517723 0.000000 0.000001
    42 -0.020057 -0.890966 0.010091 -0.909695 0.000000 0.000000
    43 0.583510 -1.197274 0.185377 1.121813 -0.962680 -1.143982
    44 1.535926 0.010245 0.005008 0.283120 -0.138086 -1.134210
    45 1.100770 0.004526 -0.010676 -0.009124 0.013408 -0.421109
    46 0.120152 -0.050266 -0.054488 -2.315902 -0.029011 -1.484394
  time 21
    0 11.662686 5.865773 -10.730789 0.934392 -1.907294 -1.453648
    1 -0.071918 -8.498731 -0.104137 0.268145 0.188834 -0.154439
    2 0.250028 -2.820663 -0.238396 -0.758577 0.008668 -0.269408
    3 1.034835 -0.368954 0.962382 1.438903 -5.718260 1.593918
    4 0.000004 7.330805 -0.181574 0.000000 0.000000 0.000000
    5 -0.000006 -4.491440 2.746747 0.000000 0.000000 0.000000
    6 -0.000006 -5.215600 0.521221 0.000000 0.000000 0.000000
    7 -0.000004 -2.584793 0.626897 0.000000 0.000000 0.000000
    8 -0.000006 -3.113141 3.685755 0.000000 0.000000 0.000000
    9 -0.000007 -7.713655 -1.563225 0.000000 0.000000 0.000000
    10 -0.000003 0.619987 3.519732 0.000000 0.000000 0.000000
    11 -0.000001 -0.041039 4.583956 0.000000 0.000000 0.000000
    12 -1.112914 -8.867437 2.842189 0.000000 0.000000 0.000000
    13 1.112910 1.686673 0.481230 0.000000 0.000000 0.000000
    14 -1.710787 -9.390476 -12.013804 -1.867175 -5.324419 -0.965687
    15 0.096944 -8.450419 -0.009364 0.646804 -1.866562 -0.247426
    16 0.447952 -2.798982 -0.200442 -0.632518 -0.188188 0.437361
    17 -0.032910 -1.480206 0.004936 -0.767246 0.000000 0.000002
    18 -0.027022 -1.076919 -0.020212 -0.201651 0.000000 0.000000
    19 -0.249534 -2.846962 -0.174215 -0.511223 -0.169887 0.357523
    20 0.043235 -1.683939 0.096014 -0.815309 0.002823 -0.000167
    21 0.031729 -1.160831 0.058836 -0.220796 0.000642 0.008372
    22 -0.963866 -2.785142 -0.085346 0.047968 -0.066833 0.271976
    23 0.028479 -1.403068 0.006271 -0.840841 0.000000 0.000000
    24 0.021413 -0.957782 0.020047 -0.601214 0.000000 0.000000
    25 1.164474 -2.543938 -0.170328 -0.568466 -0.246526 0.363210
    26 0.024032 -1.129043 0.017806 -0.754842 0.000000 0.000001
    27 0.014896 -0.883989 -0.019845 -0.334519 0.000000 0.000000
    28 -0.586770 -1.264475 0.200164 0.343013 -0.969972 -3.051832
    29 1.522835 0.058681 0.016850 0.284532 0.034536 0.413632
    30 1.117948 0.048424 -0.005764 0.004803 -0.034989 0.233662
    31 -0.139399 -0.111697 0.014397 1.521828 0.323016 1.395694
    32 -0.488517 -2.755600 -0.228261 -0.945124 0.023395 -0.387835
    33 0.039888 -1.479789 0.029853 -1.586857 0.000000 0.000000
    34 0.028785 -1.075730 -0.023111 -0.303352 0.000000 0.000000
    35 -0.049759 -1.680545 0.100480 -1.511590 0.000000 -0.000002
    36 -0.034141 -1.148312 0.084779 -0.918049 0.000000 0.000000
    37 0.957766 -2.746776 -0.090301 0.290325 -0.167658 -0.045602
    38 -0.033419 -1.397129 -0.011255 -0.390032 0.000000 -0.000001
    39 -0.022361 -0.957434 0.018783 -0.162619 0.000000 0.000000
    40 -1.180680 -2.507215 -0.193861 -0.849276 0.096358 -0.405085
    41 -0.024966 -1.123934 0.017594 -1.517723 0.000000 0.000001
    42 -0.020057 -0.890966 0.010091 -0.909695 0.000000 0.000000
    43 0.583510 -1.197274 0.185377 1.121813 -0.962663 -1.143982
    44 1.535926 0.010245 0.005008 0.283120 -0.138086 -1.134210
    45 1.100770 0.004526 -0.010676 -0.009124 0.013408 -0.421109
    46 0.120152 -0.050266 -0.054488 -2.315902 -0.029011 -1.484394
  time 22
    0 11.662686 5.865773 -10.734696 0.934392 -1.907294 -1.453648
    1 -0.071918 -8.498731 -0.104137 0.268325 0.188068 -0.153053
    2 0.250028 -2.820663 -0.238396 -0.758577 0.008668 -0.269408
    3 1.034835 -0.368954 0.962382 1.438903 -5.718260 1.593918
    4 0.000004 7.330805 -0.181574 0.000000 0.000000 0.000000
    5 -0.000006 -4.491440 2.746747 0.000000 0.000000 0.000000
    6 -0.000006 -5.215600 0.521221 0.000000 0.000000 0.000000
    7 -0.000004 -2.584793 0.626897 0.000000 0.000000 0.000000
    8 -0.000006 -3.113141 3.685755 0.000000 0.000000 0.000000
    9 -0.000007 -7.713655 -1.563225 0.000000 0.000000 0.000000
    10 -0.000003 0.619987 3.519732 0.000000 0.000000 0.000000
    11 -0.000001 -0.041039 4.583956 0.000000 0.000000 0.000000
    12 -1.112914 -8.867437 2.842189 0.000000 0.000000 0.000000
    13 1.112910 1.686673 0.481230 0.000000 0.000000 0.000000
    14 -1.699068 -9.390476 -12.013804 -1.865941 -5.326200 -0.965016
    15 0.096944 -8.450419 -0.009364 0.646438 -1.866614 -0.247217
    16 0.447952 -2.798982 -0.200442 -0.632518 -0.188188 0.437361
    17 -0.032910 -1.480206 0.004936 -0.767246 0.000000 0.000002
    18 -0.027022 -1.076919 -0.020212 -0.201651 0.000000 0.000000
    19 -0.249534 -2.846962 -0.174215 -0.511223 -0.169887 0.357523
    20 0.043235 -1.683939 0.096014 -0.815309 0.002823 -0.000167
    21 0.031729 -1.160831 0.058836 -0.220796 0.000642 0.008372
    22 -0.963866 -2.785142 -0.085346 0.047968 -0.066833 0.271976
    23 0.028479 -1.403068 0.006271 -0.840841 0.000000 0.000000
    24 0.021413 -0.957782 0.020047 -0.601214 0.000000 0.000000
    25 1.164474 -2.543938 -0.170328 -0.568466 -0.246526 0.363210
    26 0.024032 -1.129043 0.017806 -0.754842 0.000000 0.000001
    27 0.014896 -0.883989 -0.019845 -0.334519 0.000000 0.000000
    28 -0.586770 -1.264475 0.200164 0.343013 -0.969972 -3.051832
    29 1.522835 0.058681 0.016850 0.286279 0.034213 0.410479
    30 1.117948 0.048424 -0.005764 0.003328 -0.033431 0.236566
    31 -0.139399 -0.111697 0.014397 1.521828 0.323016 1.395694
    32 -0.488517 -2.755600 -0.228261 -0.945124 0.023395 -0.387835
    33 0.039888 -1.479789 0.029853 -1.586857 0.000000 0.000000
    34 0.028785 -1.075730 -0.023111 -0.303352 0.000000 0.000000
    35 -0.049759 -1.680545 0.100480 -1.511590 0.000000 -0.000002
    36 -0.034141 -1.148312 0.084779 -0.918049 0.000000 0.000000
    37 0.957766 -2.746776 -0.090301 0.290325 -0.167658 -0.045602
    38 -0.033419 -1.397129 -0.011255 -0.390032 0.000000 -0.000001
    39 -0.022361 -0.957434 0.018783 -0.162619 0.000000 0.000000
    40 -1.180680 -2.507215 -0.193861 -0.849276 0.096358 -0.405085
    41 -0.024966 -1.123934 0.017594 -1.517723 0.000000 0.000001
    42 -0.020057 -0.890966 0.010091 -0.909695 0.000000 0.000000
    43 0.583510 -1.197274 0.185377 1.121813 -0.962680 -1.143982
    44 1.535926 0.010245 0.005008 0.283120 -0.138086 -1.134210
    45 1.100770 0.004526 -0.010676 -0.009124 0.013408 -0.421109
    46 0.120152 -0.050266 -0.054488 -2.315902 -0.029011 -1.484394
  time 23
    0 11.662686 5.865773 -10.738602 0.934392 -1.907294 -1.453648
    1 -0.071918 -8.498731 -0.104137 0.268553 0.187110 -0.151340
    2 0.250028 -2.820663 -0.238396 -0.758577 0.008668 -0.269408
    3 1.034835 -0.368954 0.962382 1.438903 -5.718260 1.593918
    4 0.000004 7.330805 -0.181574 0.000000 0.000000 0.000000
    5 -0.000006 -4.491440 2.746747 0.000000 0.000000 0.000000
    6 -0.000006 -5.215600 0.521221 0.000000 0.000000 0.000000
    7 -0.000004 -2.584793 0.626897 0.000000 0.000000 0.000000
    8 -0.000006 -3.113141 3.685755 0.000000 0.000000 0.000000
    9 -0.000007 -7.713655 -1.563225 0.000000 0.000000 0.000000
    10 -0.000003 0.619987 3.519732 0.000000 0.000000 0.000000
    11 -0.000001 -0.041039 4.583956 0.000000 0.000000 0.000000
    12 -1.112914 -8.867437 2.842189 0.000000 0.000000 0.000000
    13 1.112910 1.686673 0.481230 0.000000 0.000000 0.000000
    14 -1.687349 -9.390476 -12.013804 -1.864570 -5.328356 -0.964058
    15 0.096944 -8.450419 -0.009364 0.646071 -1.866665 -0.247007
    16 0.447952 -2.798982 -0.200442 -0.632518 -0.188188 0.437361
    17 -0.032910 -1.480206 0.004936 -0.767246 0.000000 0.000002
    18 -0.027022 -1.076919 -0.020212 -0.201651 0.000000 0.000000
    19 -0.249534 -2.846962 -0.174215 -0.511223 -0.169887 0.357523
    20 0.043235 -1.683939 0.096014 -0.815309 0.002823 -0.000167
    21 0.031729 -1.160831 0.058836 -0.220796 0.000642 0.008372
    22 -0.963866 -2.785142 -0.085346 0.047968 -0.066833 0.271976
    23 0.028479 -1.403068 0.006271 -0.840841 0.000000 0.000000
    24 0.021413 -0.957782 0.020047 -0.601214 0.000000 0.000000
    25 1.164474 -2.543938 -0.170328 -0.568466 -0.246526 0.363210
    26 0.024032 -1.129043 0.017806 -0.754842 0.000000 0.000001
    27 0.014896 -0.883989 -0.019845 -0.334519 0.000000 0.000000
    28 -0.586770 -1.264475 0.200164 0.343013 -0.969972 -3.051832
    29 1.522835 0.058681 0.016850 0.288066 0.033889 0.407244
    30 1.117948 0.048424 -0.005764 0.001830 -0.031849 0.239509
    31 -0.139399 -0.111697 0.014397 1.521828 0.323016 1.395694
    32 -0.488517 -2.755600 -0.228261 -0.945124 0.023395 -0.387835
    33 0.039888 -1.479789 0.029853 -1.586857 0.000000 0.000000
    34 0.028785 -1.075730 -0.023111 -0.303352 0.000000 0.000000
    35 -0.049759 -1.680545 0.100480 -1.511590 0.000000 -0.000002
    36 -0.034141 -1.148312 0.084779 -0.918049 0.000000 0.000000
    37 0.957766 -2.746776 -0.090301 0.290325 -0.167658 -0.045602
    38 -0.033419 -1.397129 -0.011255 -0.390032 0.000000 -0.000001
    39 -0.022361 -0.957434 0.018783 -0.162619 0.000000 0.000000
    40 -1.180680 -2.507215 -0.193861 -0.849276 0.096358 -0.405085
    41 -0.024966 -1.123934 0.017594 -1.517723 0.000000 0.000001
    42 -0.020057 -0.890966 0.010091 -0.909695 0.000000 0.000000
    43 0.583510 -1.197274 0.185377 1.121813 -0.962663 -1.143982
    44 1.535926 0.010245 0.005008 0.283120 -0.138086 -1.134210
    45 1.100770 0.004526 -0.010676 -0.009124 0.013408 -0.421109
    46 0.120152 -0.050266 -0.054488 -2.315902 -0.029011 -1.484394
  time 24
    0 11.662686 5.865773 -10.742508 0.934392 -1.907294 -1.453648
    1 -0.071918 -8.498731 -0.104137 0.268804 0.186049 -0.149424
    2 0.250028 -2.820663 -0.238396 -0.758577 0.008668 -0.269408
    3 1.034835 -0.368954 0.962382 1.438903 -5.718260 1.593918
    4 0.000004 7.330805 -0.181574 0.000000 0.000000 0.000000
    5 -0.000006 -4.491440 2.746747 0.000000 0.000000 0.000000
    6 -0.000006 -5.215600 0.521221 0.000000 0.000000 0.000000
    7 -0.000004 -2.584793 0.626897 0.000000 0.000000 0.000000
    8 -0.000006 -3.113141 3.685755 0.000000 0.000000 0.000000
    9 -0.000007 -7.713655 -1.563225 0.000000 0.000000 0.000000
    10 -0.000003 0.619987 3.519732 0.000000 0.000000 0.000000
    11 -0.000001 -0.041039 4.583956 0.000000 0.000000 0.000000
    12 -1.112914 -8.867437 2.842189 0.000000 0.000000 0.000000
    13 1.112910 1.686673 0.481230 0.000000 0.000000 0.000000
    14 -1.675630 -9.390476 -12.013804 -1.863062 -5.330793 -0.963004
    15 0.096944 -8.450419 -0.009364 0.645664 -1.866717 -0.246798
    16 0.447952 -2.798982 -0.200442 -0.632518 -0.188188 0.437361
    17 -0.032910 -1.480206 0.004936 -0.767246 0.000000 0.000002
    18 -0.027022 -1.076919 -0.020212 -0.201651 0.000000 0.000000
    19 -0.249534 -2.846962 -0.174215 -0.511223 -0.169887 0.357523
    20 0.043235 -1.683939 0.096014 -0.815309 0.002823 -0.000167
    21 0.031729 -1.160831 0.058836 -0.220796 0.000642 0.008372
    22 -0.963866 -2.785142 -0.085346 0.047968 -0.066833 0.271976
    23 0.028479 -1.403068 0.006271 -0.840841 0.000000 0.000000
    24 0.021413 -0.957782 0.020047 -0.601214 0.000000 0.000000
    25 1.164474 -2.543938 -0.170328 -0.568466 -0.246526 0.363210
    26 0.024032 -1.129043 0.017806 -0.754842 0.000000 0.000001
    27 0.014896 -0.883989 -0.019845 -0.334519 0.000000 0.000000
    28 -0.586770 -1.264475 0.200164 0.343013 -0.969972 -3.051832
    29 1.522835 0.058681 0.016850 0.289813 0.033565 0.404091
    30 1.117948 0.048424 -0.005764 0.000356 -0.030291 0.242413
    31 -0.139399 -0.111697 0.014397 1.521828 0.323016 1.395694
    32 -0.488517 -2.755600 -0.228261 -0.945124 0.023395 -0.387835
    33 0.039888 -1.479789 0.029853 -1.586857 0.000000 0.000000
    34 0.028785 -1.075730 -0.023111 -0.303352 0.000000 0.000000
    35 -0.049759 -1.680545 0.100480 -1.511590 0.000000 -0.000002
    36 -0.034141 -1.148312 0.084779 -0.918049 0.000000 0.000000
    37 0.957766 -2.746776 -0.090301 0.290325 -0.167658 -0.045602
    38 -0.033419 -1.397129 -0.011255 -0.390032 0.000000 -0.000001
    39 -0.022361 -0.957434 0.018783 -0.162619 0.000000 0.000000
    40 -1.180680 -2.507215 -0.193861 -0.849276 0.096358 -0.405085
    41 -0.024966 -1.123934 0.017594 -1.517723 0.000000 0.000001
    42 -0.020057 -0.890966 0.010091 -0.909695 0.000000 0.000000
    43 0.583510 -1.197274 0.185377 1.121813 -0.962663 -1.143982
    44 1.535926 0.010245 0.005008 0.283120 -0.138086 -1.134210
    45 1.100770 0.004526 -0.010676 -0.009124 0.013408 -0.421109
    46 0.120152 -0.050266 -0.054488 -2.315902 -0.029011 -1.484394
  time 25
    0 11.662686 5.865773 -10.746415 0.934392 -1.907294 -1.453648
    1 -0.071918 -8.498731 -0.104137 0.269056 0.184963 -0.147446
    2 0.250028 -2.820663 -0.238396 -0.758577 0.008668 -0.269408
    3 1.034835 -0.368954 0.962382 1.438903 -5.718260 1.593918
    4 0.000004 7.330805 -0.181574 0.000000 0.000000 0.000000
    5 -0.000006 -4.491440 2.746747 0.000000 0.000000 0.000000
    6 -0.000006 -5.215600 0.521221 0.000000 0.000000 0.000000
    7 -0.000004 -2.584793 0.626897 0.000000 0.000000 0.000000
    8 -0.000006 -3.113141 3.685755 0.000000 0.000000 0.000000
    9 -0.000007 -7.713655 -1.563225 0.000000 0.000000 0.000000
    10 -0.000003 0.619987 3.519732 0.000000 0.000000 0.000000
    11 -0.000001 -0.041039 4.583956 0.000000 0.000000 0.000000
    12 -1.112914 -8.867437 2.842189 0.000000 0.000000 0.000000
    13 1.112910 1.686673 0.481230 0.000000 0.000000 0.000000
    14 -1.667817 -9.390476 -12.013804 -1.861623 -5.333325 -0.961950
    15 0.096944 -8.450419 -0.009364 0.645338 -1.866768 -0.246589
    16 0.447952 -2.798982 -0.200442 -0.632518 -0.188188 0.437361
    17 -0.032910 -1.480206 0.004936 -0.767246 0.000000 0.000002
    18 -0.027022 -1.076919 -0.020212 -0.201651 0.000000 0.000000
    19 -0.249534 -2.846962 -0.174215 -0.511223 -0.169887 0.357523
    20 0.043235 -1.683939 0.096014 -0.815309 0.002823 -0.000167
    21 0.031729 -1.160831 0.058836 -0.220796 0.000642 0.008372
    22 -0.963866 -2.785142 -0.085346 0.047968 -0.066833 0.271976
    23 0.028479 -1.403068 0.006271 -0.840841 0.000000 0.000000
    24 0.021413 -0.957782 0.020047 -0.601214 0.000000 0.000000
    25 1.164474 -2.543938 -0.170328 -0.568466 -0.246526 0.363210
    26 0.024032 -1.129043 0.017806 -0.754842 0.000000 0.000001
    27 0.014896 -0.883989 -0.019845 -0.334519 0.000000 0.000000
    28 -0.586770 -1.264475 0.200164 0.343013 -0.969972 -3.051832
    29 1.522835 0.058681 0.016850 0.291480 0.033254 0.401063
    30 1.117948 0.048424 -0.005764 -0.001034 -0.028817 0.245125
    31 -0.139399 -0.111697 0.014397 1.521828 0.323016 1.395694
    32 -0.488517 -2.755600 -0.228261 -0.945124 0.023395 -0.387835
    33 0.039888 -1.479789 0.029853 -1.586857 0.000000 0.000000
    34 0.028785 -1.075730 -0.023111 -0.303352 0.000000 0.000000
    35 -0.049759 -1.680545 0.100480 -1.511590 0.000000 -0.000002
    36 -0.034141 -1.148312 0.084779 -0.918049 0.000000 0.000000
    37 0.957766 -2.746776 -0.090301 0.290325 -0.167658 -0.045602
    38 -0.033419 -1.397129 -0.011255 -0.390032 0.000000 -0.000001
    39 -0.022361 -0.957434 0.018783 -0.162619 0.000000 0.000000
    40 -1.180680 -2.507215 -0.193861 -0.849276 0.096358 -0.405085
    41 -0.024966 -1.123934 0.017594 -1.517723 0.000000 0.000001
    42 -0.020057 -0.890966 0.010091 -0.909695 0.000000 0.000000
    43 0.583510 -1.197274 0.185377 1.121813 -0.962663 -1.143982
    44 1.535926 0.010245 0.005008 0.283120 -0.138086 -1.134210
    45 1.100770 0.004526 -0.010676 -0.009124 0.013408 -0.421109
    46 0.120152 -0.050266 -0.054488 -2.315902 -0.029011 -1.484394
  time 26
    0 11.662686 5.865773 -10.746415 0.934392 -1.907294 -1.453648
    1 -0.071918 -8.498731 -0.104137 0.269308 0.183903 -0.145530
    2 0.250028 -2.820663 -0.238396 -0.758577 0.008668 -0.269408
    3 1.034835 -0.368954 0.962382 1.438903 -5.718260 1.593918
    4 0.000004 7.330805 -0.181574 0.000000 0.000000 0.000000
    5 -0.000006 -4.491440 2.746747 0.000000 0.000000 0.000000
    6 -0.000006 -5.215600 0.521221 0.000000 0.000000 0.000000
    7 -0.000004 -2.584793 0.626897 0.000000 0.000000 0.000000
    8 -0.000006 -3.113141 3.685755 0.000000 0.000000 0.000000
    9 -0.000007 -7.713655 -1.563225 0.000000 0.000000 0.000000
    10 -0.000003 0.619987 3.519732 0.000000 0.000000 0.000000
    11 -0.000001 -0.041039 4.583956 0.000000 0.000000 0.000000
    12 -1.112914 -8.867437 2.842189 0.000000 0.000000 0.000000
    13 1.112910 1.686673 0.481230 0.000000 0.000000 0.000000
    14 -1.660005 -9.390476 -12.013804 -1.860251 -5.335762 -0.960896
    15 0.096944 -8.450419 -0.009364 0.645012 -1.866820 -0.246403
    16 0.447952 -2.798982 -0.200442 -0.632518 -0.188188 0.437361
    17 -0.032910 -1.480206 0.004936 -0.767246 0.000000 0.000002
    18 -0.027022 -1.076919 -0.020212 -0.201651 0.000000 0.000000
    19 -0.249534 -2.846962 -0.174215 -0.511223 -0.169887 0.357523
    20 0.043235 -1.683939 0.096014 -0.815309 0.002823 -0.000167
    21 0.031729 -1.160831 0.058836 -0.220796 0.000642 0.008372
    22 -0.963866 -2.785142 -0.085346 0.047968 -0.066833 0.271976
    23 0.028479 -1.403068 0.006271 -0.840841 0.000000 0.000000
    24 0.021413 -0.957782 0.020047 -0.601214 0.000000 0.000000
    25 1.164474 -2.543938 -0.170328 -0.568466 -0.246526 0.363210
    26 0.024032 -1.129043 0.017806 -0.754842 0.000000 0.000001
    27 0.014896 -0.883989 -0.019845 -0.334519 0.000000 0.000000
    28 -0.586770 -1.264475 0.200164 0.343013 -0.969972 -3.051832
    29 1.522835 0.058681 0.016850 0.292986 0.032978 0.398367
    30 1.117948 0.048424 -0.005764 -0.002292 -0.027487 0.247609
    31 -0.139399 -0.111697 0.014397 1.521828 0.323016 1.395694
    32 -0.488517 -2.755600 -0.228261 -0.945124 0.023395 -0.387835
    33 0.039888 -1.479789 0.029853 -1.586857 0.000000 0.000000
    34 0.028785 -1.075730 -0.023111 -0.303352 0.000000 0.000000
    35 -0.049759 -1.680545 0.100480 -1.511590 0.000000 -0.000002
    36 -0.034141 -1.148312 0.084779 -0.918049 0.000000 0.000000
    37 0.957766 -2.746776 -0.090301 0.290325 -0.167658 -0.045602
    38 -0.033419 -1.397129 -0.011255 -0.390032 0.000000 -0.000001
    39 -0.022361 -0.957434 0.018783 -0.162619 0.000000 0.000000
    40 -1.180680 -2.507215 -0.193861 -0.849276 0.096358 -0.405085
    41 -0.024966 -1.123934 0.017594 -1.517723 0.000000 0.000001
    42 -0.020057 -0.890966 0.010091 -0.909695 0.000000 0.000000
    43 0.583510 -1.197274 0.185377 1.121813 -0.962663 -1.143982
    44 1.535926 0.010245 0.005008 0.283120 -0.138086 -1.134210
    45 1.100770 0.004526 -0.010676 -0.009124 0.013408 -0.421109
    46 0.120152 -0.050266 -0.054488 -2.315902 -0.029011 -1.484394
  time 27
    0 11.662686 5.865773 -10.750321 0.934392 -1.907294 -1.453648
    1 -0.071918 -8.498731 -0.104137 0.269523 0.182945 -0.143817
    2 0.250028 -2.820663 -0.238396 -0.758577 0.008668 -0.269408
    3 1.034835 -0.368954 0.962382 1.438903 -5.718260 1.593918
    4 0.000004 7.330805 -0.181574 0.000000 0.000000 0.000000
    5 -0.000006 -4.491440 2.746747 0.000000 0.000000 0.000000
    6 -0.000006 -5.215600 0.521221 0.000000 0.000000 0.000000
    7 -0.000004 -2.584793 0.626897 0.000000 0.000000 0.000000
    8 -0.000006 -3.113141 3.685755 0.000000 0.000000 0.000000
    9 -0.000007 -7.713655 -1.563225 0.000000 0.000000 0.000000
    10 -0.000003 0.619987 3.519732 0.000000 0.000000 0.000000
    11 -0.000001 -0.041039 4.583956 0.000000 0.000000 0.000000
    12 -1.112914 -8.867437 2.842189 0.000000 0.000000 0.000000
    13 1.112910 1.686673 0.481230 0.000000 0.000000 0.000000
    14 -1.652192 -9.390476 -12.013804 -1.859155 -5.338012 -0.960034
    15 0.096944 -8.450419 -0.009364 0.644727 -1.866871 -0.246240
    16 0.447952 -2.798982 -0.200442 -0.632518 -0.188188 0.437361
    17 -0.032910 -1.480206 0.004936 -0.767246 0.000000 0.000002
    18 -0.027022 -1.076919 -0.020212 -0.201651 0.000000 0.000000
    19 -0.249534 -2.846962 -0.174215 -0.511223 -0.169887 0.357523
    20 0.043235 -1.683939 0.096014 -0.815309 0.002823 -0.000167
    21 0.031729 -1.160831 0.058836 -0.220796 0.000642 0.008372
    22 -0.963866 -2.785142 -0.085346 0.047968 -0.066833 0.271976
    23 0.028479 -1.403068 0.006271 -0.840841 0.000000 0.000000
    24 0.021413 -0.957782 0.020047 -0.601214 0.000000 0.000000
    25 1.164474 -2.543938 -0.170328 -0.568466 -0.246526 0.363210
    26 0.024032 -1.129043 0.017806 -0.754842 0.000000 0.000001
    27 0.014896 -0.883989 -0.019845 -0.334519 0.000000 0.000000
    28 -0.586770 -1.264475 0.200164 0.343013 -0.969972 -3.051832
    29 1.522835 0.058681 0.016850 0.294252 0.032750 0.396044
    30 1.117948 0.048424 -0.005764 -0.003359 -0.026361 0.249711
    31 -0.139399 -0.111697 0.014397 1.521828 0.323016 1.395694
    32 -0.488517 -2.755600 -0.228261 -0.945124 0.023395 -0.387835
    33 0.039888 -1.479789 0.029853 -1.586857 0.000000 0.000000
    34 0.028785 -1.075730 -0.023111 -0.303352 0.000000 0.000000
    35 -0.049759 -1.680545 0.100480 -1.511590 0.000000 -0.000002
    36 -0.034141 -1.148312 0.084779 -0.918049 0.000000 0.000000
    37 0.957766 -2.746776 -0.090301 0.290325 -0.167658 -0.045602
    38 -0.033419 -1.397129 -0.011255 -0.390032 0.000000 -0.000001
    39 -0.022361 -0.957434 0.018783 -0.162619 0.000000 0.000000
    40 -1.180680 -2.507215 -0.193861 -0.849276 0.096358 -0.405085
    41 -0.024966 -1.123934 0.017594 -1.517723 0.000000 0.000001
    42 -0.020057 -0.890966 0.010091 -0.909695 0.000000 0.000000
    43 0.583510 -1.197274 0.185377 1.121813 -0.962663 -1.143982
    44 1.535926 0.010245 0.005008 0.283120 -0.138086 -1.134210
    45 1.100770 0.004526 -0.010676 -0.009124 0.013408 -0.421109
    46 0.120152 -0.050266 -0.054488 -2.315902 -0.029011 -1.484394
  time 28
    0 11.662686 5.865773 -10.750321 0.934392 -1.907294 -1.453648
    1 -0.071918 -8.498731 -0.104137 0.269703 0.182178 -0.142410
    2 0.250028 -2.820663 -0.238396 -0.758577 0.008668 -0.269408
    3 1.034835 -0.368954 0.962382 1.438903 -5.718260 1.593918
    4 0.000004 7.330805 -0.181574 0.000000 0.000000 0.000000
    5 -0.000006 -4.491440 2.746747 0.000000 0.000000 0.000000
    6 -0.000006 -5.215600 0.521221 0.000000 0.000000 0.000000
    7 -0.000004 -2.584793 0.626897 0.000000 0.000000 0.000000
    8 -0.000006 -3.113141 3.685755 0.000000 0.000000 0.000000
    9 -0.000007 -7.713655 -1.563225 0.000000 0.000000 0.000000
    10 -0.000003 0.619987 3.519732 0.000000 0.000000 0.000000
    11 -0.000001 -0.041039 4.583956 0.000000 0.000000 0.000000
    12 -1.112914 -8.867437 2.842189 0.000000 0.000000 0.000000
    13 1.112910 1.686673 0.481230 0.000000 0.000000 0.000000
    14 -1.644379 -9.390476 -12.013804 -1.858195 -5.339793 -0.959363
    15 0.096944 -8.450419 -0.009364 0.644523 -1.866922 -0.246124
    16 0.447952 -2.798982 -0.200442 -0.632518 -0.188188 0.437361
    17 -0.032910 -1.480206 0.004936 -0.767246 0.000000 0.000002
    18 -0.027022 -1.076919 -0.020212 -0.201651 0.000000 0.000000
    19 -0.249534 -2.846962 -0.174215 -0.511223 -0.169887 0.357523
    20 0.043235 -1.683939 0.096014 -0.815309 0.002823 -0.000167
    21 0.031729 -1.160831 0.058836 -0.220796 0.000642 0.008372
    22 -0.963866 -2.785142 -0.085346 0.047968 -0.066833 0.271976
    23 0.028479 -1.403068 0.006271 -0.840841 0.000000 0.000000
    24 0.021413 -0.957782 0.020047 -0.601214 0.000000 0.000000
    25 1.164474 -2.543938 -0.170328 -0.568466 -0.246526 0.363210
    26 0.024032 -1.129043 0.017806 -0.754842 0.000000 0.000001
    27 0.014896 -0.883989 -0.019845 -0.334519 0.000000 0.000000
    28 -0.586770 -1.264475 0.200164 0.343013 -0.969972 -3.051832
    29 1.522835 0.058681 0.016850 0.295256 0.032559 0.394260
    30 1.117948 0.048424 -0.005764 -0.004198 -0.025474 0.251354
    31 -0.139399 -0.111697 0.014397 1.521828 0.323016 1.395694
    32 -0.488517 -2.755600 -0.228261 -0.945124 0.023395 -0.387835
    33 0.039888 -1.479789 0.029853 -1.586857 0.000000 0.000000
    34 0.028785 -1.075730 -0.023111 -0.303352 0.000000 0.000000
    35 -0.049759 -1.680545 0.100480 -1.511590 0.000000 -0.000002
    36 -0.034141 -1.148312 0.084779 -0.918049 0.000000 0.000000
    37 0.957766 -2.746776 -0.090301 0.290325 -0.167658 -0.045602
    38 -0.033419 -1.397129 -0.011255 -0.390032 0.000000 -0.000001
    39 -0.022361 -0.957434 0.018783 -0.162619 0.000000 0.000000
    40 -1.180680 -2.507215 -0.193861 -0.849276 0.096358 -0.405085
    41 -0.024966 -1.123934 0.017594 -1.517723 0.000000 0.000001
    42 -0.020057 -0.890966 0.010091 -0.909695 0.000000 0.000000
    43 0.583510 -1.197274 0.185377 1.121813 -0.962663 -1.143982
    44 1.535926 0.010245 0.005008 0.283120 -0.138086 -1.134210
    45 1.100770 0.004526 -0.010676 -0.009124 0.013408 -0.421109
    46 0.120152 -0.050266 -0.054488 -2.315902 -0.029011 -1.484394
  time 29
    0 11.662686 5.865773 -10.754228 0.934392 -1.907294 -1.453648
    1 -0.071918 -8.498731 -0.104137 0.269823 0.181667 -0.141493
    2 0.250028 -2.820663 -0.238396 -0.758577 0.008668 -0.269408
    3 1.034835 -0.368954 0.962382 1.438903 -5.718260 1.593918
    4 0.000004 7.330805 -0.181574 0.000000 0.000000 0.000000
    5 -0.000006 -4.491440 2.746747 0.000000 0.000000 0.000000
    6 -0.000006 -5.215600 0.521221 0.000000 0.000000 0.000000
    7 -0.000004 -2.584793 0.626897 0.000000 0.000000 0.000000
    8 -0.000006 -3.113141 3.685755 0.000000 0.000000 0.000000
    9 -0.000007 -7.713655 -1.563225 0.000000 0.000000 0.000000
    10 -0.000003 0.619987 3.519732 0.000000 0.000000 0.000000
    11 -0.000001 -0.041039 4.583956 0.000000 0.000000 0.000000
    12 -1.112914 -8.867437 2.842189 0.000000 0.000000 0.000000
    13 1.112910 1.686673 0.481230 0.000000 0.000000 0.000000
    14 -1.640473 -9.390476 -12.013804 -1.857509 -5.340918 -0.958788
    15 0.096944 -8.450419 -0.009364 0.644401 -1.866922 -0.246054
    16 0.447952 -2.798982 -0.200442 -0.632518 -0.188188 0.437361
    17 -0.032910 -1.480206 0.004936 -0.767246 0.000000 0.000002
    18 -0.027022 -1.076919 -0.020212 -0.201651 0.000000 0.000000
    19 -0.249534 -2.846962 -0.174215 -0.511223 -0.169887 0.357523
    20 0.043235 -1.683939 0.096014 -0.815309 0.002823 -0.000167
    21 0.031729 -1.160831 0.058836 -0.220796 0.000642 0.008372
    22 -0.963866 -2.785142 -0.085346 0.047968 -0.066833 0.271976
    23 0.028479 -1.403068 0.006271 -0.840841 0.000000 0.000000
    24 0.021413 -0.957782 0.020047 -0.601214 0.000000 0.000000
    25 1.164474 -2.543938 -0.170328 -0.568466 -0.246526 0.363210
    26 0.024032 -1.129043 0.017806 -0.754842 0.000000 0.000001
    27 0.014896 -0.883989 -0.019845 -0.334519 0.000000 0.000000
    28 -0.586770 -1.264475 0.200164 0.343013 -0.969972 -3.051832
    29 1.522835 0.058681 0.016850 0.295898 0.032451 0.393099
    30 1.117948 0.048424 -0.005764 -0.004737 -0.024922 0.252424
    31 -0.139399 -0.111697 0.014397 1.521828 0.323016 1.395694
    32 -0.488517 -2.755600 -0.228261 -0.945124 0.023395 -0.387835
    33 0.039888 -1.479789 0.029853 -1.586857 0.000000 0.000000
    34 0.028785 -1.075730 -0.023111 -0.303352 0.000000 0.000000
    35 -0.049759 -1.680545 0.100480 -1.511590 0.000000 -0.000002
    36 -0.034141 -1.148312 0.084779 -0.918049 0.000000 0.000000
    37 0.957766 -2.746776 -0.090301 0.290325 -0.167658 -0.045602
    38 -0.033419 -1.397129 -0.011255 -0.390032 0.000000 -0.000001
    39 -0.022361 -0.957434 0.018783 -0.162619 0.000000 0.000000
    40 -1.180680 -2.507215 -0.193861 -0.849276 0.096358 -0.405085
    41 -0.024966 -1.123934 0.017594 -1.517723 0.000000 0.000001
    42 -0.020057 -0.890966 0.010091 -0.909695 0.000000 0.000000
    43 0.583510 -1.197274 0.185377 1.121813 -0.962663 -1.143982
    44 1.535926 0.010245 0.005008 0.283120 -0.138086 -1.134210
    45 1.100770 0.004526 -0.010676 -0.009124 0.013408 -0.421109
    46 0.120152 -0.050266 -0.054488 -2.315902 -0.029011 -1.484394
  time 30
    0 11.662686 5.865773 -10.754228 0.934392 -1.907294 -1.453648
    1 -0.071918 -8.498731 -0.104137 0.269871 0.181476 -0.141146
    2 0.250028 -2.820663 -0.238396 -0.758577 0.008668 -0.269408
    3 1.034835 -0.368954 0.962382 1.438903 -5.718260 1.593918
    4 0.000004 7.330805 -0.181574 0.000000 0.000000 0.000000
    5 -0.000006 -4.491440 2.746747 0.000000 0.000000 0.000000
    6 -0.000006 -5.215600 0.521221 0.000000 0.000000 0.000000
    7 -0.000004 -2.584793 0.626897 0.000000 0.000000 0.000000
    8 -0.000006 -3.113141 3.685755 0.000000 0.000000 0.000000
    9 -0.000007 -7.713655 -1.563225 0.000000 0.000000 0.000000
    10 -0.000003 0.619987 3.519732 0.000000 0.000000 0.000000
    11 -0.000001 -0.041039 4.583956 0.000000 0.000000 0.000000
    12 -1.112914 -8.867437 2.842189 0.000000 0.000000 0.000000
    13 1.112910 1.686673 0.481230 0.000000 0.000000 0.000000
    14 -1.640473 -9.390476 -12.013804 -1.857372 -5.341387 -0.958692
    15 0.096944 -8.450419 -0.009364 0.644320 -1.866922 -0.246031
    16 0.447952 -2.798982 -0.200442 -0.632518 -0.188188 0.437361
    17 -0.032910 -1.480206 0.004936 -0.767246 0.000000 0.000002
    18 -0.027022 -1.076919 -0.020212 -0.201651 0.000000 0.000000
    19 -0.249534 -2.846962 -0.174215 -0.511223 -0.169887 0.357523
    20 0.043235 -1.683939 0.096014 -0.815309 0.002823 -0.000167
    21 0.031729 -1.160831 0.058836 -0.220796 0.000642 0.008372
    22 -0.963866 -2.785142 -0.085346 0.047968 -0.066833 0.271976
    23 0.028479 -1.403068 0.006271 -0.840841 0.000000 0.000000
    24 0.021413 -0.957782 0.020047 -0.601214 0.000000 0.000000
    25 1.164474 -2.543938 -0.170328 -0.568466 -0.246526 0.363210
    26 0.024032 -1.129043 0.017806 -0.754842 0.000000 0.000001
    27 0.014896 -0.883989 -0.019845 -0.334519 0.000000 0.000000
    28 -0.586770 -1.264475 0.200164 0.343013 -0.969972 -3.051832
    29 1.522835 0.058681 0.016850 0.296119 0.032403 0.392684
    30 1.117948 0.048424 -0.005764 -0.004929 -0.024719 0.252806
    31 -0.139399 -0.111697 0.014397 1.521828 0.323016 1.395694
    32 -0.488517 -2.755600 -0.228261 -0.945124 0.023395 -0.387835
    33 0.039888 -1.479789 0.029853 -1.586857 0.000000 0.000000
    34 0.028785 -1.075730 -0.023111 -0.303352 0.000000 0.000000
    35 -0.049759 -1.680545 0.100480 -1.511590 0.000000 -0.000002
    36 -0.034141 -1.148312 0.084779 -0.918049 0.000000 0.000000
    37 0.957766 -2.746776 -0.090301 0.290325 -0.167658 -0.045602
    38 -0.033419 -1.397129 -0.011255 -0.390032 0.000000 -0.000001
    39 -0.022361 -0.957434 0.018783 -0.162619 0.000000 0.000000
    40 -1.180680 -2.507215 -0.193861 -0.849276 0.096358 -0.405085
    41 -0.024966 -1.123934 0.017594 -1.517723 0.000000 0.000001
    42 -0.020057 -0.890966 0.010091 -0.909695 0.000000 0.000000
    43 0.583510 -1.197274 0.185377 1.121813 -0.962663 -1.143982
    44 1.535926 0.010245 0.005008 0.283120 -0.138086 -1.134210
    45 1.100770 0.004526 -0.010676 -0.009124 0.013408 -0.421109
    46 0.120152 -0.050266 -0.054488 -2.315902 -0.029011 -1.484394
end
