version 1
nodes
  0 "root_dgaxe_l" -1
  1 "dgaxe2_l" 0
  2 "dgaxe_3_l" 1
  3 "root_dgaxe_r" -1
  4 "dgaxe2_r" 3
  5 "dgaxe_3_r" 4
  6 "dgaxe_fxroot" -1
  7 "dgaxe_fxroot004" 6
  8 "dgaxe_fxroot003" 6
  9 "dgaxe_fxroot002" 6
  10 "dgaxe_fxroot001" 6
  11 "dgaxe_fxroot005" -1
  12 "dgaxe_fxroot006" 11
  13 "dgaxe_fxroot007" 11
  14 "dgaxe_fxroot008" 11
  15 "dgaxe_fxroot009" 11
  16 "dgaxefx2_root" -1
  17 "dgaxefx2_02" 16
  18 "dgaxefx2_01" 16
  19 "dgaxefx2_04" 16
  20 "dgaxefx2_03" 16
  21 "dgaxefx2_root001" -1
  22 "dgaxefx2_005" 21
  23 "dgaxefx2_006" 21
  24 "dgaxefx2_007" 21
  25 "dgaxefx2_008" 21
  26 "dgaxeglowfx_root" -1
  27 "dgaxeglow_04" 26
  28 "dgaxeglow_01" 26
  29 "dgaxeglow_03" 26
  30 "dgaxeglow_02" 26
  31 "dgaxeglowfx_root2" -1
  32 "dgaxeglow_005" 31
  33 "dgaxeglow_006" 31
  34 "dgaxeglow_007" 31
  35 "dgaxeglow_008" 31
  36 "root" -1
  37 "Bone01" 36
  38 "Bone_L_Upper" 37
  39 "Bone_Lefthand" 37
  40 "Bone13" 39
  41 "Bone14" 40
  42 "Bone15" 41
  43 "Bone17" 39
  44 "Bone18" 43
  45 "Bone19" 44
  46 "Bone21" 39
  47 "Bone22" 46
  48 "Bone23" 47
  49 "Bone09" 39
  50 "Bone10" 49
  51 "Bone11" 50
  52 "Bone05" 39
  53 "Bone06" 52
  54 "Bone07" 53
  55 "Bone_Se_Hand-L" 39
  56 "Bone04" 36
  57 "Bone_Righthand" 56
  58 "Bone39" 57
  59 "Bone40" 58
  60 "Bone41" 59
  61 "Bone35" 57
  62 "Bone36" 61
  63 "Bone37" 62
  64 "Bone31" 57
  65 "Bone32" 64
  66 "Bone33" 65
  67 "Bone43" 57
  68 "Bone44" 67
  69 "Bone45" 68
  70 "Bone27" 57
  71 "Bone28" 70
  72 "Bone29" 71
  73 "Bone_Se_Hand-R" 57
  74 "Bone_R_Upper" 56
end
skeleton
  time 0
    0 -9.967776 0.000001 -24.987600 -1.570797 1.570796 0.000000
    1 -17.286312 0.000002 -0.000001 0.000000 0.000000 0.000000
    2 -10.185804 0.827312 -0.000001 0.000000 0.000000 -1.570796
    3 10.083252 0.000001 -24.987617 1.570797 -1.570796 0.000000
    4 17.286312 -0.000004 0.000001 0.000000 0.000000 0.000000
    5 10.185804 -0.827312 0.000001 0.000000 0.000000 -1.570796
    6 -11.654287 35.599991 -36.081081 0.000000 0.000000 -1.570796
    7 0.000000 -19.999992 20.000011 0.000000 0.000000 0.000000
    8 0.000000 -20.000004 -19.999992 0.000000 0.000000 0.000000
    9 0.000000 19.999994 -20.000004 0.000000 0.000000 0.000000
    10 0.000004 20.000004 19.999996 0.000000 0.000000 0.000000
    11 10.440300 35.599998 -36.081081 0.000000 0.000000 -1.570796
    12 0.000000 -19.999992 20.000011 0.000000 0.000000 0.000000
    13 0.000000 -20.000004 -19.999992 0.000000 0.000000 0.000000
    14 0.000000 19.999994 -20.000004 0.000000 0.000000 0.000000
    15 0.000004 20.000004 19.999996 0.000000 0.000000 0.000000
    16 7.153919 15.129444 -44.532154 0.000000 0.000000 1.570796
    17 0.000000 34.999996 35.000004 0.000000 0.000000 0.000000
    18 0.000000 35.000000 -35.000000 0.000000 0.000000 0.000000
    19 0.000000 -35.000004 -35.000000 0.000000 0.000000 0.000000
    20 0.000000 -35.000004 34.999996 0.000000 0.000000 0.000000
    21 -37.277924 15.129452 -40.720646 0.000000 0.000000 1.570796
    22 0.000000 34.999992 35.000008 0.000000 0.000000 0.000000
    23 0.000000 34.999992 -35.000000 0.000000 0.000000 0.000000
    24 0.000000 -35.000004 -35.000000 0.000000 0.000000 0.000000
    25 0.000000 -35.000008 35.000000 0.000000 0.000000 0.000000
    26 2.122846 -1.778559 -48.433731 0.051280 0.643147 -1.447637
    27 0.000004 9.999999 -10.000000 0.000000 0.000000 0.000000
    28 0.000002 -9.999998 -10.000000 0.000000 0.000000 0.000000
    29 -0.000002 9.999998 10.000000 0.000000 0.000000 0.000000
    30 -0.000002 -9.999998 10.000004 0.000000 0.000000 0.000000
    31 -1.815184 -2.156345 -48.126442 -0.097644 -2.640652 -1.557223
    32 0.000002 10.000000 9.999996 0.000000 0.000000 0.000000
    33 0.000002 10.000000 -10.000002 0.000000 0.000000 0.000000
    34 -0.000002 -10.000001 -9.999998 0.000000 0.000000 0.000000
    35 0.000002 -10.000000 10.000000 0.000000 0.000000 0.000000
    36 0.001265 -0.569176 -20.601572 0.000000 0.000000 0.000000
    37 9.310103 -5.299614 -12.557959 3.138909 -0.000224 -1.566807
    38 1.257180 8.762585 -0.153713 -1.570562 0.002683 -1.566807
    39 -0.071921 -8.498736 -0.104134 -0.025046 0.287591 0.014898
    40 -0.488518 -2.755602 -0.228260 0.106454 0.010332 -0.264490
    41 0.039887 -1.479790 0.029854 -0.055395 0.000000 0.000001
    42 0.028786 -1.075731 -0.023109 0.002099 0.000000 0.000000
    43 0.250027 -2.820665 -0.238396 0.041826 -0.002921 0.008443
    44 -0.049759 -1.680544 0.100479 0.019826 0.000000 -0.000002
    45 -0.034142 -1.148312 0.084782 -0.040115 0.000000 0.000000
    46 0.957766 -2.746780 -0.090302 -0.017221 -0.162277 0.191558
    47 -0.033420 -1.397129 -0.011257 0.013931 0.000000 -0.000001
    48 -0.022360 -0.957436 0.018784 0.003845 0.000000 0.000000
    49 -1.180681 -2.507217 -0.193859 0.082999 0.013294 -0.477915
    50 -0.024967 -1.123934 0.017597 -0.018065 0.000000 0.000001
    51 -0.020057 -0.890968 0.010090 -0.060797 0.000000 0.000000
    52 0.583510 -1.197277 0.185379 0.158049 -0.404973 -0.364290
    53 1.535927 0.010246 0.005009 -0.002964 -0.012979 0.000887
    54 1.100771 0.004527 -0.010679 -0.002796 0.015973 0.003458
    55 0.120153 -0.050270 -0.054489 0.287569 3.110905 1.561085
    56 -9.310107 -5.231260 -12.513384 0.004984 -3.131565 -1.566847
    57 0.096944 -8.450418 -0.009365 -0.032965 -0.297907 -0.004663
    58 0.447953 -2.798986 -0.200443 0.106456 -0.010396 0.265094
    59 -0.032909 -1.480204 0.004940 -0.055403 0.000000 0.000002
    60 -0.027022 -1.076920 -0.020210 0.002094 0.000000 0.000000
    61 -0.249534 -2.846964 -0.174213 0.041903 -0.000125 -0.008396
    62 0.043235 -1.683941 0.096012 0.019757 0.002823 -0.000167
    63 0.031729 -1.160830 0.058838 -0.040181 0.000642 0.008372
    64 -0.963866 -2.785145 -0.085350 -0.017227 0.162276 -0.191556
    65 0.028479 -1.403067 0.006271 0.013941 0.000000 0.000000
    66 0.021413 -0.957781 0.020046 0.003851 0.000000 0.000000
    67 1.164475 -2.543940 -0.170330 0.083003 -0.013294 0.477915
    68 0.024032 -1.129042 0.017807 -0.018074 0.000000 0.000001
    69 0.014898 -0.883989 -0.019848 -0.060801 0.000000 0.000000
    70 -0.586770 -1.264477 0.200161 -0.152092 -0.410513 -2.814816
    71 1.522835 0.058681 0.016848 0.001410 0.008985 -0.046880
    72 1.117947 0.048424 -0.005766 -0.000243 -0.025198 0.065422
    73 -0.139399 -0.111698 0.014397 0.285382 -0.030687 1.580508
    74 -1.393470 8.839177 -0.239433 1.580804 -0.005023 -1.566847
end
triangles
$0b_dgaxe_trailfx3.bmp
  28 -8.053205 3.306530 -56.835506 0.098304 -0.794151 -0.599717 0.000000 1.000000
  27 11.844738 5.150120 -56.015170 0.098304 -0.794152 -0.599716 0.000000 0.000000
  30 -7.599045 -8.707242 -40.852291 0.098304 -0.794152 -0.599716 1.000000 1.000000
$0b_dgaxe_trailfx3.bmp
  30 -7.599045 -8.707242 -40.852291 0.098304 -0.794152 -0.599716 1.000000 1.000000
  27 11.844738 5.150120 -56.015170 0.098304 -0.794152 -0.599716 0.000000 0.000000
  29 12.298896 -6.863648 -40.031956 0.098304 -0.794151 -0.599717 1.000000 0.000000
$0b_dgaxe_trailfx3.bmp
  32 9.052545 2.303014 -56.000863 -0.011906 0.877050 0.480251 0.000000 1.000000
  35 -10.863062 2.969147 -57.711077 -0.011906 0.877050 0.480251 0.000000 0.000000
  33 7.232694 -7.281834 -38.541803 -0.011906 0.877050 0.480251 1.000000 1.000000
$0b_dgaxe_trailfx3.bmp
  33 7.232694 -7.281834 -38.541803 -0.011906 0.877050 0.480251 1.000000 1.000000
  35 -10.863062 2.969147 -57.711077 -0.011906 0.877050 0.480251 0.000000 0.000000
  34 -12.682914 -6.615705 -40.252020 -0.011906 0.877050 0.480251 1.000000 0.000000
end
