// Created by Crowbar 0.68

$modelname "weapons/tfa_cso/c_sylphid.mdl"

$include "bones.qci"

$bodygroup "weapon"
{
	studio "v_jumpspirit"
}
$bodygroup "weapon"
{
	studio "v_jumpspirit_ef"
}

$cdmaterials "models/weapons/tfa_cso/sylphid"

$attachment 0 "jumpspirit_root" 0 2 15

$sequence "idle" {
	"v_jumpspirit_anims\idle"
	fps 30
	activity "ACT_VM_IDLE" 1
	loop
}
$sequence "shoot" {
	"v_jumpspirit_anims\shoot"
	{ event 5001 0 "#I372 S0.1 R0 F0 P30 T999 A1 L0 O0 X0 H1 D0" }
	{ event 5004 1 "Sylphid.Shoot" }
	fps 30
	activity "ACT_VM_PRIMARYATTACK" 1
	snap
}
$sequence "reload" {
	"v_jumpspirit_anims\reload"
	{ event 5004 3 "Sylphid.Reload" }
	fps 30
	activity "ACT_VM_RELOAD" 1
	snap
}
$sequence "draw" {
	"v_jumpspirit_anims\draw"
	{ event 5004 4 "Sylphid.Draw" }
	fps 30
	activity "ACT_VM_DRAW" 1
	snap
}
$sequence "jump" {
	"v_jumpspirit_anims\jump"
	{ event 5004 1 "Sylphid.Jump_Spin" }
	fps 30
	activity "ACT_VM_SECONDARYATTACK" 1
	snap
}
$sequence "hold_start" {
	"v_jumpspirit_anims\hold_start"
	fps 30
	snap
}
$sequence "hold_loop" {
	"v_jumpspirit_anims\hold_loop"
	fps 30
	loop
}
$sequence "shootB" {
	"v_jumpspirit_anims\shootB"
	{ event 5004 20 "Sylphid.Shoot" }
	fps 30
	snap
}
