"UnlitGeneric"
{
	"$baseTexture" "sprites/ef_jetgun_muzzleflash01"
	"$translucent" 1
	"$additive" 1
	"Proxies"
	{
	"AnimatedTexture"
		{
		"animatedTextureVar" "$basetexture"
		"animatedTextureFrameNumVar" "$frame"
		"animatedTextureFrameRate" "29"
		}
	}
}