"UnlitGeneric"
{
	"$baseTexture" "sprites/ef_jumpspirit_summon"
    "$translucent" 1
	"$additive" 1
	"Proxies"
	{
	"AnimatedTexture"
		{
		"animatedTextureVar" "$basetexture"
		"animatedTextureFrameNumVar" "$frame"
		"animatedTextureFrameRate" "19"
		}
	}
}