"UnlitGeneric"
{
	"$baseTexture"	"sprites/starchaser_exp"
    "$translucent" 1
	"$additive" 1
	"Proxies"
	{
	"AnimatedTexture"
		{
		"animatedTextureVar" "$basetexture"
		"animatedTextureFrameNumVar" "$frame"
		"animatedTextureFrameRate" "45"
		}
	}
}