"UnlitGeneric"
{
	"$baseTexture" "sprites/ef_lockongunma_explosion"
    "$translucent" 1
	"$additive" 1
	"Proxies"
	{
	"AnimatedTexture"
		{
		"animatedTextureVar" "$basetexture"
		"animatedTextureFrameNumVar" "$frame"
		"animatedTextureFrameRate" "35"
		}
	}
}