"UnlitGeneric"
{
	"$baseTexture" "sprites/ef_mgsm_hit"
    "$translucent" 1
	"$additive" 1
	"Proxies"
	{
	"AnimatedTexture"
		{
		"animatedTextureVar" "$basetexture"
		"animatedTextureFrameNumVar" "$frame"
		"animatedTextureFrameRate" "9"
		}
	}
}