"UnlitGeneric"
{
	"$baseTexture" "sprites/ef_y22s3bufffiveseven_exp1"
    "$translucent" 1
	"$additive" 1
	"Proxies"
	{
	"AnimatedTexture"
		{
		"animatedTextureVar" "$basetexture"
		"animatedTextureFrameNumVar" "$frame"
		"animatedTextureFrameRate" "5"
		}
	}
}