"UnlitGeneric"
{
	"$baseTexture" "sprites/heavenscorcher_exp2"
    "$translucent" 1
	"$additive" 1
	"Proxies"
	{
	"AnimatedTexture"
		{
		"animatedTextureVar" "$basetexture"
		"animatedTextureFrameNumVar" "$frame"
		"animatedTextureFrameRate" "38"
		}
	}
}