version 1
nodes
  0 "root" -1
  1 "Bone04" 0
  2 "Bone_Righthand" 1
  3 "Dummy01" 2
  4 "Bone25" 3
  5 "Bone03" 4
  6 "Bone08" 5
  7 "Bone47" 4
  8 "Dummy03" 7
  9 "Bone16" 4
  10 "Bone20" 9
  11 "Bone26" 4
  12 "Dummy04" 11
  13 "Bone02" 4
  14 "Bone12" 13
  15 "Bone42" 4
  16 "Bone34" 4
  17 "Bone50" 4
  18 "Dummy02" 3
  19 "Bone01" 0
  20 "Bone_L_Upper" 19
  21 "Bone_Lefthand" 19
  22 "Bone13" 21
  23 "Bone14" 22
  24 "Bone15" 23
  25 "Bone17" 21
  26 "Bone18" 25
  27 "Bone19" 26
  28 "Bone21" 21
  29 "Bone22" 28
  30 "Bone23" 29
  31 "Bone09" 21
  32 "Bone10" 31
  33 "Bone11" 32
  34 "Bone05" 21
  35 "Bone06" 34
  36 "Bone07" 35
  37 "Bone_Se_Hand-L" 21
  38 "Bone39" 2
  39 "Bone40" 38
  40 "Bone41" 39
  41 "Bone35" 2
  42 "Bone36" 41
  43 "Bone37" 42
  44 "Bone31" 2
  45 "Bone32" 44
  46 "Bone33" 45
  47 "Bone43" 2
  48 "Bone44" 47
  49 "Bone45" 48
  50 "Bone27" 2
  51 "Bone28" 50
  52 "Bone29" 51
  53 "Bone_Se_Hand-R" 2
  54 "Bone_R_Upper" 1
end
skeleton
  time 0
    0 0.000201 1.628956 0.541027 0.000000 0.000000 0.000000
    1 0.115431 -2.500916 -5.538912 0.044745 2.862630 0.151334
    2 0.096946 -8.450417 -0.009364 0.092655 -0.025528 0.151275
    3 -2.955449 -2.412914 0.841363 3.098278 0.057471 -1.531951
    4 0.000000 0.000000 0.000000 0.000000 0.000000 0.000000
    5 2.268322 4.124472 -0.062954 0.000001 0.000000 1.266575
    6 3.295875 -0.000002 0.000000 0.000000 0.000000 1.274961
    7 4.887199 7.610152 -0.062954 3.141592 0.000000 -0.208256
    8 -8.677812 -0.055529 -0.003085 -3.141592 0.000000 -0.557319
    9 2.244080 -6.395751 -0.062954 0.000000 0.000000 -1.265266
    10 3.333881 0.000002 0.000000 0.000000 0.000000 -1.270877
    11 4.887201 -9.910490 -0.062952 0.000000 0.000000 -2.933335
    12 8.666410 0.037216 0.003086 0.000000 0.000000 2.584272
    13 1.355810 0.000530 -1.069623 0.000000 0.000000 0.000000
    14 0.321166 0.000008 -0.000001 0.000000 0.000000 0.000000
    15 0.863905 0.359274 0.381193 1.570743 -0.747930 -4.712341
    16 0.863905 0.348448 -0.360363 -0.805952 -3.325028 -0.187833
    17 1.069544 -0.585928 0.017010 -1.570796 -0.000002 -2.356193
    18 -15.209689 0.052788 -0.063186 0.000000 -3.141592 0.000000
    19 11.814086 9.017229 -14.503330 4.346517 -0.846474 1.191981
    20 1.257180 8.762585 -0.153713 -1.570562 0.002683 -1.566807
    21 -0.071921 -8.498736 -0.104134 0.462579 0.407593 -0.216357
    22 -0.488518 -2.755602 -0.228260 -0.994044 -0.049100 -0.303116
    23 0.039887 -1.479790 0.029854 -1.787404 0.000000 0.000001
    24 0.028786 -1.075731 -0.023109 -1.477381 0.000000 0.000000
    25 0.250027 -2.820665 -0.238396 -0.630435 -0.172479 -0.156417
    26 -0.049759 -1.680544 0.100479 -1.899210 0.000000 -0.000002
    27 -0.034142 -1.148312 0.084782 -1.711774 0.000000 0.000000
    28 0.957766 -2.746780 -0.090302 -0.319622 -0.278599 -0.051549
    29 -0.033420 -1.397129 -0.011257 -1.363671 0.000000 -0.000001
    30 -0.022360 -0.957436 0.018784 -1.378387 0.000000 0.000000
    31 -1.180681 -2.507217 -0.193859 -0.904725 0.015547 -0.451705
    32 -0.024967 -1.123934 0.017597 -1.855824 0.000000 0.000001
    33 -0.020057 -0.890968 0.010090 -1.671895 0.000000 0.000000
    34 0.583510 -1.197277 0.185379 0.048210 -0.366994 -0.814622
    35 1.535927 0.010246 0.005009 -0.002964 -0.012979 -0.998522
    36 1.100771 0.004527 -0.010679 -0.002520 0.016009 0.021008
    37 0.120153 -0.050270 -0.054489 0.307128 3.311263 1.416131
    38 0.447953 -2.798986 -0.200443 -0.653159 0.087866 0.178829
    39 -0.032909 -1.480204 0.004940 -1.833494 0.000000 0.000002
    40 -0.027022 -1.076920 -0.020210 -0.930273 0.000000 0.000000
    41 -0.249534 -2.846964 -0.174213 -0.609311 0.058647 0.154463
    42 0.043235 -1.683941 0.096012 -1.902768 0.002823 -0.000167
    43 0.031729 -1.160830 0.058838 -1.001327 0.000642 0.008372
    44 -0.963866 -2.785145 -0.085350 -0.589404 0.158501 0.157028
    45 0.028479 -1.403067 0.006271 -1.731640 0.000000 0.000000
    46 0.021413 -0.957781 0.020046 -0.780749 0.000000 0.000000
    47 1.164475 -2.543940 -0.170330 -0.674602 -0.089480 0.155889
    48 0.024032 -1.129042 0.017807 -1.450287 0.000000 0.000001
    49 0.014898 -0.883989 -0.019848 -1.242513 0.000000 0.000000
    50 -0.586770 -1.264477 0.200161 0.400179 -0.823031 -2.840439
    51 1.522835 0.058681 0.016848 0.001410 0.008985 1.232395
    52 1.117947 0.048424 -0.005766 -0.021300 -0.013465 1.063049
    53 -0.139399 -0.111698 0.014397 0.283596 0.044588 1.324529
    54 -1.393470 8.839177 -0.239433 1.580804 -0.005023 -1.566847
  time 1
    0 0.000201 1.628956 0.541027 0.000000 0.000000 0.000000
    1 0.470910 -5.626012 -6.745980 0.111109 2.524925 0.185870
    2 0.096946 -8.450417 -0.009364 0.267964 -0.077409 0.131200
    3 -2.955449 -2.412914 0.841363 3.098278 0.057471 -1.531951
    4 0.000000 0.000000 0.000000 0.000000 0.000000 0.000000
    5 2.268322 4.124472 -0.062954 0.000001 0.000000 1.266575
    6 3.295875 -0.000002 0.000000 0.000000 0.000000 0.576819
    7 4.887199 7.610152 -0.062954 3.141592 0.000000 -0.644579
    8 -8.677812 -0.055529 -0.003085 -3.141592 0.000000 -0.557319
    9 2.244080 -6.395751 -0.062954 0.000000 0.000000 -1.265266
    10 3.333881 0.000002 0.000000 0.000000 0.000000 -0.572742
    11 4.887201 -9.910490 -0.062952 0.000000 0.000000 -2.497012
    12 8.666410 0.037216 0.003086 0.000000 0.000000 2.584272
    13 1.355810 0.000530 -1.069623 0.000000 0.000000 0.000000
    14 0.321166 0.000008 -0.000001 0.000000 0.000000 0.000000
    15 0.863905 0.359274 0.381193 1.570743 -0.747930 -4.712341
    16 0.863905 0.348448 -0.360363 -0.805952 -3.325028 -0.187833
    17 1.069544 -0.585928 0.017010 -1.570796 -0.000002 -2.356193
    18 -4.084349 0.052788 -0.063186 0.000000 -3.141592 0.000000
    19 16.782988 6.423400 -13.722057 0.630888 -2.397113 -1.446270
    20 1.257180 8.762585 -0.153713 -1.570562 0.002683 -1.566807
    21 -0.071921 -8.498736 -0.104134 0.463101 0.408408 -0.215494
    22 -0.488518 -2.755602 -0.228260 -0.252330 -0.049100 -0.303116
    23 0.039887 -1.479790 0.029854 -1.045666 0.000000 0.000001
    24 0.028786 -1.075731 -0.023109 -0.735722 0.000000 0.000000
    25 0.250027 -2.820665 -0.238396 0.041211 -0.172479 -0.156417
    26 -0.049759 -1.680544 0.100479 -0.740421 0.000000 -0.000002
    27 -0.034142 -1.148312 0.084782 -0.568222 0.000000 0.000000
    28 0.957766 -2.746780 -0.090302 0.232201 -0.278599 -0.051549
    29 -0.033420 -1.397129 -0.011257 -0.445802 0.000000 -0.000001
    30 -0.022360 -0.957436 0.018784 -0.460499 0.000000 0.000000
    31 -1.180681 -2.507217 -0.193859 -0.354496 0.015547 -0.451705
    32 -0.024967 -1.123934 0.017597 -1.305624 0.000000 0.000001
    33 -0.020057 -0.890968 0.010090 -1.121702 0.000000 0.000000
    34 0.583510 -1.197277 0.185379 0.056048 -0.638589 -0.830751
    35 1.535927 0.010246 0.005009 -0.002964 -0.012979 -0.452611
    36 1.100771 0.004527 -0.010679 -0.002520 0.016009 0.021008
    37 0.120153 -0.050270 -0.054489 0.307128 3.311263 1.416131
    38 0.447953 -2.798986 -0.200443 -0.653159 0.087866 0.178829
    39 -0.032909 -1.480204 0.004940 -1.833494 0.000000 0.000002
    40 -0.027022 -1.076920 -0.020210 -0.930273 0.000000 0.000000
    41 -0.249534 -2.846964 -0.174213 -0.609311 0.058647 0.154463
    42 0.043235 -1.683941 0.096012 -1.902768 0.002823 -0.000167
    43 0.031729 -1.160830 0.058838 -1.001327 0.000642 0.008372
    44 -0.963866 -2.785145 -0.085350 -0.589404 0.158501 0.157028
    45 0.028479 -1.403067 0.006271 -1.731640 0.000000 0.000000
    46 0.021413 -0.957781 0.020046 -0.780749 0.000000 0.000000
    47 1.164475 -2.543940 -0.170330 -0.674602 -0.089480 0.155889
    48 0.024032 -1.129042 0.017807 -1.450287 0.000000 0.000001
    49 0.014898 -0.883989 -0.019848 -1.242513 0.000000 0.000000
    50 -0.586770 -1.264477 0.200161 0.400179 -0.823031 -2.840439
    51 1.522835 0.058681 0.016848 0.001410 0.008985 1.232395
    52 1.117947 0.048424 -0.005766 -0.021300 -0.013465 1.063049
    53 -0.139399 -0.111698 0.014397 0.283596 0.044588 1.324529
    54 -1.393470 8.839177 -0.239433 1.580804 -0.005023 -1.566847
  time 2
    0 0.000201 1.628956 0.541027 0.000000 0.000000 0.000000
    1 0.267779 -6.145559 -6.117054 0.158542 2.909666 0.106009
    2 0.096946 -8.450417 -0.009364 0.068079 -0.164381 0.192825
    3 -2.955449 -2.412914 0.841363 3.098278 0.057471 -1.531951
    4 0.000000 0.000000 0.000000 0.000000 0.000000 0.000000
    5 2.268322 4.124472 -0.062954 0.000001 0.000000 1.266575
    6 3.295875 -0.000002 0.000000 0.000000 0.000000 0.576819
    7 4.887199 7.610152 -0.062954 3.141592 0.000000 -0.644579
    8 -8.677812 -0.055529 -0.003085 -3.141592 0.000000 -0.557319
    9 2.244080 -6.395751 -0.062954 0.000000 0.000000 -1.265266
    10 3.333881 0.000002 0.000000 0.000000 0.000000 -0.572742
    11 4.887201 -9.910490 -0.062952 0.000000 0.000000 -2.497012
    12 8.666410 0.037216 0.003086 0.000000 0.000000 2.584272
    13 1.355810 0.000530 -1.069623 0.000000 0.000000 0.000000
    14 0.321166 0.000008 -0.000001 0.000000 0.000000 0.000000
    15 0.863905 0.359274 0.381193 1.570743 -0.747930 -4.712341
    16 0.863905 0.348448 -0.360363 -0.805952 -3.325028 -0.187833
    17 1.069544 -0.585928 0.017010 -1.570796 -0.000002 -2.356193
    18 -4.084349 0.052788 -0.063186 0.000000 -3.141592 0.000000
    19 14.431353 5.700722 -14.608802 4.174885 -0.828857 1.377180
    20 1.257180 8.762585 -0.153713 -1.570562 0.002683 -1.566807
    21 -0.071921 -8.498736 -0.104134 0.464145 0.410014 -0.213780
    22 -0.488518 -2.755602 -0.228260 -0.046053 -0.049100 -0.303116
    23 0.039887 -1.479790 0.029854 -0.812885 0.000000 0.000001
    24 0.028786 -1.075731 -0.023109 -0.594082 0.000000 0.000000
    25 0.250027 -2.820665 -0.238396 0.233593 -0.172479 -0.156417
    26 -0.049759 -1.680544 0.100479 -0.579833 0.000000 -0.000002
    27 -0.034142 -1.148312 0.084782 -0.405841 0.000000 0.000000
    28 0.957766 -2.746780 -0.090302 0.388738 -0.278599 -0.051549
    29 -0.033420 -1.397129 -0.011257 -0.312906 0.000000 -0.000001
    30 -0.022360 -0.957436 0.018784 -0.327582 0.000000 0.000000
    31 -1.180681 -2.507217 -0.193859 -0.274707 0.015547 -0.451705
    32 -0.024967 -1.123934 0.017597 -1.053014 0.000000 0.000001
    33 -0.020057 -0.890968 0.010090 -0.919669 0.000000 0.000000
    34 0.583510 -1.197277 0.185379 0.022671 -0.643946 -0.784185
    35 1.535927 0.010246 0.005009 -0.002964 -0.012979 -0.483385
    36 1.100771 0.004527 -0.010679 -0.003587 0.015589 -0.051004
    37 0.120153 -0.050270 -0.054489 0.307128 3.311263 1.416131
    38 0.447953 -2.798986 -0.200443 -0.653159 0.087866 0.178829
    39 -0.032909 -1.480204 0.004940 -1.833494 0.000000 0.000002
    40 -0.027022 -1.076920 -0.020210 -0.930273 0.000000 0.000000
    41 -0.249534 -2.846964 -0.174213 -0.609311 0.058647 0.154463
    42 0.043235 -1.683941 0.096012 -1.902768 0.002823 -0.000167
    43 0.031729 -1.160830 0.058838 -1.001327 0.000642 0.008372
    44 -0.963866 -2.785145 -0.085350 -0.589404 0.158501 0.157028
    45 0.028479 -1.403067 0.006271 -1.731640 0.000000 0.000000
    46 0.021413 -0.957781 0.020046 -0.780749 0.000000 0.000000
    47 1.164475 -2.543940 -0.170330 -0.674602 -0.089480 0.155889
    48 0.024032 -1.129042 0.017807 -1.450287 0.000000 0.000001
    49 0.014898 -0.883989 -0.019848 -1.242513 0.000000 0.000000
    50 -0.586770 -1.264477 0.200161 0.400179 -0.823031 -2.840439
    51 1.522835 0.058681 0.016848 0.001410 0.008985 1.232395
    52 1.117947 0.048424 -0.005766 -0.021300 -0.013465 1.063049
    53 -0.139399 -0.111698 0.014397 0.283596 0.044588 1.324529
    54 -1.393470 8.839177 -0.239433 1.580804 -0.005023 -1.566847
  time 3
    0 0.000201 1.628956 0.541027 0.000000 0.000000 0.000000
    1 -0.013479 -6.340877 -5.464691 0.214033 3.259668 0.025267
    2 0.096946 -8.450417 -0.009364 -0.139366 -0.213866 0.272223
    3 -2.955449 -2.412914 0.841363 3.098278 0.057471 -1.531951
    4 0.000000 0.000000 0.000000 0.000000 0.000000 0.000000
    5 2.268322 4.124472 -0.062954 0.000001 0.000000 1.266575
    6 3.295875 -0.000002 0.000000 0.000000 0.000000 0.576819
    7 4.887199 7.610152 -0.062954 3.141592 0.000000 -0.644579
    8 -8.677812 -0.055529 -0.003085 -3.141592 0.000000 -0.557319
    9 2.244080 -6.395751 -0.062954 0.000000 0.000000 -1.265266
    10 3.333881 0.000002 0.000000 0.000000 0.000000 -0.572742
    11 4.887201 -9.910490 -0.062952 0.000000 0.000000 -2.497012
    12 8.666410 0.037216 0.003086 0.000000 0.000000 2.584272
    13 1.355810 0.000530 -1.069623 0.000000 0.000000 0.000000
    14 0.321166 0.000008 -0.000001 0.000000 0.000000 0.000000
    15 0.863905 0.359274 0.381193 1.570743 -0.747930 -4.712341
    16 0.863905 0.348448 -0.360363 -0.805952 -3.325028 -0.187833
    17 1.069544 -0.585928 0.017010 -1.570796 -0.000002 -2.356193
    18 -4.084349 0.052788 -0.063186 0.000000 -3.141592 0.000000
    19 13.025061 4.692878 -14.405671 4.594029 -0.834011 0.964375
    20 1.257180 8.762585 -0.153713 -1.570562 0.002683 -1.566807
    21 -0.071921 -8.498736 -0.104134 0.464927 0.411224 -0.212498
    22 -0.488518 -2.755602 -0.228260 0.096076 -0.049100 -0.303116
    23 0.039887 -1.479790 0.029854 -0.638035 0.000000 0.000001
    24 0.028786 -1.075731 -0.023109 -0.503688 0.000000 0.000000
    25 0.250027 -2.820665 -0.238396 0.369206 -0.172479 -0.156417
    26 -0.049759 -1.680544 0.100479 -0.471544 0.000000 -0.000002
    27 -0.034142 -1.148312 0.084782 -0.296771 0.000000 0.000000
    28 0.957766 -2.746780 -0.090302 0.498296 -0.278599 -0.051549
    29 -0.033420 -1.397129 -0.011257 -0.223903 0.000000 -0.000001
    30 -0.022360 -0.957436 0.018784 -0.238577 0.000000 0.000000
    31 -1.180681 -2.507217 -0.193859 -0.221324 0.015547 -0.451705
    32 -0.024967 -1.123934 0.017597 -0.824801 0.000000 0.000001
    33 -0.020057 -0.890968 0.010090 -0.753824 0.000000 0.000000
    34 0.583510 -1.197277 0.185379 -0.050747 -0.648176 -0.677661
    35 1.535927 0.010246 0.005009 -0.002964 -0.012979 -0.551124
    36 1.100771 0.004527 -0.010679 -0.005936 0.014631 -0.209452
    37 0.120153 -0.050270 -0.054489 0.307128 3.311263 1.416131
    38 0.447953 -2.798986 -0.200443 -0.653159 0.087866 0.178829
    39 -0.032909 -1.480204 0.004940 -1.833494 0.000000 0.000002
    40 -0.027022 -1.076920 -0.020210 -0.930273 0.000000 0.000000
    41 -0.249534 -2.846964 -0.174213 -0.609311 0.058647 0.154463
    42 0.043235 -1.683941 0.096012 -1.902768 0.002823 -0.000167
    43 0.031729 -1.160830 0.058838 -1.001327 0.000642 0.008372
    44 -0.963866 -2.785145 -0.085350 -0.589404 0.158501 0.157028
    45 0.028479 -1.403067 0.006271 -1.731640 0.000000 0.000000
    46 0.021413 -0.957781 0.020046 -0.780749 0.000000 0.000000
    47 1.164475 -2.543940 -0.170330 -0.674602 -0.089480 0.155889
    48 0.024032 -1.129042 0.017807 -1.450287 0.000000 0.000001
    49 0.014898 -0.883989 -0.019848 -1.242513 0.000000 0.000000
    50 -0.586770 -1.264477 0.200161 0.400179 -0.823031 -2.840439
    51 1.522835 0.058681 0.016848 0.001410 0.008985 1.232395
    52 1.117947 0.048424 -0.005766 -0.021300 -0.013465 1.063049
    53 -0.139399 -0.111698 0.014397 0.283596 0.044588 1.324529
    54 -1.393470 8.839177 -0.239433 1.580804 -0.005023 -1.566847
  time 4
    0 0.000201 1.628956 0.541027 0.000000 0.000000 0.000000
    1 -0.189266 -7.297938 -5.847515 0.199373 3.068246 0.059644
    2 0.096946 -8.450417 -0.009364 -0.115576 -0.189765 0.298409
    3 -2.955449 -2.412914 0.841363 3.098278 0.057471 -1.531951
    4 0.000000 0.000000 0.000000 0.000000 0.000000 0.000000
    5 2.268322 4.124472 -0.062954 0.000001 0.000000 1.266575
    6 3.295875 -0.000002 0.000000 0.000000 0.000000 0.576819
    7 4.887199 7.610152 -0.062954 3.141592 0.000000 -0.644579
    8 -8.677812 -0.055529 -0.003085 -3.141592 0.000000 -0.557319
    9 2.244080 -6.395751 -0.062954 0.000000 0.000000 -1.265266
    10 3.333881 0.000002 0.000000 0.000000 0.000000 -0.572742
    11 4.887201 -9.910490 -0.062952 0.000000 0.000000 -2.497012
    12 8.666410 0.037216 0.003086 0.000000 0.000000 2.584272
    13 1.355810 0.000530 -1.069623 0.000000 0.000000 0.000000
    14 0.321166 0.000008 -0.000001 0.000000 0.000000 0.000000
    15 0.863905 0.359274 0.381193 1.570743 -0.747930 -4.712341
    16 0.863905 0.348448 -0.360363 -0.805952 -3.325028 -0.187833
    17 1.069544 -0.585928 0.017010 -1.570796 -0.000002 -2.356193
    18 -4.084349 0.052788 -0.063186 0.000000 -3.141592 0.000000
    19 14.181346 2.677192 -12.456393 4.367627 -0.918636 1.122735
    20 1.257180 8.762585 -0.153713 -1.570562 0.002683 -1.566807
    21 -0.071921 -8.498736 -0.104134 0.464667 0.410817 -0.212929
    22 -0.488518 -2.755602 -0.228260 0.178224 -0.049100 -0.303116
    23 0.039887 -1.479790 0.029854 -0.528093 0.000000 0.000001
    24 0.028786 -1.075731 -0.023109 -0.455873 0.000000 0.000000
    25 0.250027 -2.820665 -0.238396 0.449507 -0.172479 -0.156417
    26 -0.049759 -1.680544 0.100479 -0.410342 0.000000 -0.000002
    27 -0.034142 -1.148312 0.084782 -0.235451 0.000000 0.000000
    28 0.957766 -2.746780 -0.090302 0.562674 -0.278599 -0.051549
    29 -0.033420 -1.397129 -0.011257 -0.174040 0.000000 -0.000001
    30 -0.022360 -0.957436 0.018784 -0.188718 0.000000 0.000000
    31 -1.180681 -2.507217 -0.193859 -0.191392 0.015547 -0.451705
    32 -0.024967 -1.123934 0.017597 -0.659573 0.000000 0.000001
    33 -0.020057 -0.890968 0.010090 -0.641622 0.000000 0.000000
    34 0.583510 -1.197277 0.185379 -0.124164 -0.650945 -0.560947
    35 1.535927 0.010246 0.005009 -0.002964 -0.012979 -0.618833
    36 1.100771 0.004527 -0.010679 -0.008297 0.013672 -0.367900
    37 0.120153 -0.050270 -0.054489 0.307128 3.311263 1.416131
    38 0.447953 -2.798986 -0.200443 -0.653159 0.087866 0.178829
    39 -0.032909 -1.480204 0.004940 -1.833494 0.000000 0.000002
    40 -0.027022 -1.076920 -0.020210 -0.930273 0.000000 0.000000
    41 -0.249534 -2.846964 -0.174213 -0.609311 0.058647 0.154463
    42 0.043235 -1.683941 0.096012 -1.902768 0.002823 -0.000167
    43 0.031729 -1.160830 0.058838 -1.001327 0.000642 0.008372
    44 -0.963866 -2.785145 -0.085350 -0.589404 0.158501 0.157028
    45 0.028479 -1.403067 0.006271 -1.731640 0.000000 0.000000
    46 0.021413 -0.957781 0.020046 -0.780749 0.000000 0.000000
    47 1.164475 -2.543940 -0.170330 -0.674602 -0.089480 0.155889
    48 0.024032 -1.129042 0.017807 -1.450287 0.000000 0.000001
    49 0.014898 -0.883989 -0.019848 -1.242513 0.000000 0.000000
    50 -0.586770 -1.264477 0.200161 0.400179 -0.823031 -2.840439
    51 1.522835 0.058681 0.016848 0.001410 0.008985 1.232395
    52 1.117947 0.048424 -0.005766 -0.021300 -0.013465 1.063049
    53 -0.139399 -0.111698 0.014397 0.283596 0.044588 1.324529
    54 -1.393470 8.839177 -0.239433 1.580804 -0.005023 -1.566847
  time 5
    0 0.000201 1.628956 0.541027 0.000000 0.000000 0.000000
    1 -0.372865 -8.153433 -6.417845 0.170003 2.809241 0.119566
    2 0.096946 -8.450417 -0.009364 -0.041672 -0.155129 0.301154
    3 -2.955449 -2.412914 0.841363 3.098278 0.057471 -1.531951
    4 0.000000 0.000000 0.000000 0.000000 0.000000 0.000000
    5 2.268322 4.124472 -0.062954 0.000001 0.000000 1.266575
    6 3.295875 -0.000002 0.000000 0.000000 0.000000 0.576819
    7 4.887199 7.610152 -0.062954 3.141592 0.000000 -0.644579
    8 -8.677812 -0.055529 -0.003085 -3.141592 0.000000 -0.557319
    9 2.244080 -6.395751 -0.062954 0.000000 0.000000 -1.265266
    10 3.333881 0.000002 0.000000 0.000000 0.000000 -0.572742
    11 4.887201 -9.910490 -0.062952 0.000000 0.000000 -2.497012
    12 8.666410 0.037216 0.003086 0.000000 0.000000 2.584272
    13 1.355810 0.000530 -1.069623 0.000000 0.000000 0.000000
    14 0.321166 0.000008 -0.000001 0.000000 0.000000 0.000000
    15 0.863905 0.359274 0.381193 1.570743 -0.747930 -4.712341
    16 0.863905 0.348448 -0.360363 -0.805952 -3.325028 -0.187833
    17 1.069544 -0.585928 0.017010 -1.570796 -0.000002 -2.356193
    18 -4.084349 0.052788 -0.063186 0.000000 -3.141592 0.000000
    19 14.802459 1.099019 -10.389924 4.022080 -0.972950 1.419015
    20 1.257180 8.762585 -0.153713 -1.570562 0.002683 -1.566807
    21 -0.071921 -8.498736 -0.104134 0.462579 0.407593 -0.216357
    22 -0.488518 -2.755602 -0.228260 0.204689 -0.049100 -0.303116
    23 0.039887 -1.479790 0.029854 -0.489877 0.000000 0.000001
    24 0.028786 -1.075731 -0.023109 -0.441876 0.000000 0.000000
    25 0.250027 -2.820665 -0.238396 0.475932 -0.172479 -0.156417
    26 -0.049759 -1.680544 0.100479 -0.391133 0.000000 -0.000002
    27 -0.034142 -1.148312 0.084782 -0.216219 0.000000 0.000000
    28 0.957766 -2.746780 -0.090302 0.583733 -0.278599 -0.051549
    29 -0.033420 -1.397129 -0.011257 -0.158485 0.000000 -0.000001
    30 -0.022360 -0.957436 0.018784 -0.173152 0.000000 0.000000
    31 -1.180681 -2.507217 -0.193859 -0.182078 0.015547 -0.451705
    32 -0.024967 -1.123934 0.017597 -0.595916 0.000000 0.000001
    33 -0.020057 -0.890968 0.010090 -0.600321 0.000000 0.000000
    34 0.583510 -1.197277 0.185379 -0.157529 -0.651939 -0.483769
    35 1.535927 0.010246 0.005009 -0.002964 -0.012979 -0.649638
    36 1.100771 0.004527 -0.010679 -0.009376 0.013241 -0.439926
    37 0.120153 -0.050270 -0.054489 0.307128 3.311263 1.416131
    38 0.447953 -2.798986 -0.200443 -0.653159 0.087866 0.178829
    39 -0.032909 -1.480204 0.004940 -1.833494 0.000000 0.000002
    40 -0.027022 -1.076920 -0.020210 -0.930273 0.000000 0.000000
    41 -0.249534 -2.846964 -0.174213 -0.609311 0.058647 0.154463
    42 0.043235 -1.683941 0.096012 -1.902768 0.002823 -0.000167
    43 0.031729 -1.160830 0.058838 -1.001327 0.000642 0.008372
    44 -0.963866 -2.785145 -0.085350 -0.589404 0.158501 0.157028
    45 0.028479 -1.403067 0.006271 -1.731640 0.000000 0.000000
    46 0.021413 -0.957781 0.020046 -0.780749 0.000000 0.000000
    47 1.164475 -2.543940 -0.170330 -0.674602 -0.089480 0.155889
    48 0.024032 -1.129042 0.017807 -1.450287 0.000000 0.000001
    49 0.014898 -0.883989 -0.019848 -1.242513 0.000000 0.000000
    50 -0.586770 -1.264477 0.200161 0.400179 -0.823031 -2.840439
    51 1.522835 0.058681 0.016848 0.001410 0.008985 1.232395
    52 1.117947 0.048424 -0.005766 -0.021300 -0.013465 1.063049
    53 -0.139399 -0.111698 0.014397 0.283596 0.044588 1.324529
    54 -1.393470 8.839177 -0.239433 1.580804 -0.005023 -1.566847
  time 6
    0 0.000201 1.628956 0.541027 0.000000 0.000000 0.000000
    1 -0.615060 -8.555789 -6.687384 0.146466 2.749498 0.155072
    2 0.096946 -8.450417 -0.009364 -0.022665 -0.144415 0.299536
    3 -2.955449 -2.412914 0.841363 3.098278 0.057471 -1.531951
    4 0.000000 0.000000 0.000000 0.000000 0.000000 0.000000
    5 2.268322 4.124472 -0.062954 0.000001 0.000000 1.267690
    6 3.295875 -0.000002 0.000000 0.000000 0.000000 0.575700
    7 4.887199 7.610152 -0.062954 3.141592 0.000000 -0.643464
    8 -8.677812 -0.055529 -0.003085 -3.141592 0.000000 -0.557319
    9 2.244080 -6.395751 -0.062954 0.000000 0.000000 -1.266381
    10 3.333881 0.000002 0.000000 0.000000 0.000000 -0.571623
    11 4.887201 -9.910490 -0.062952 0.000000 0.000000 -2.498127
    12 8.666410 0.037216 0.003086 0.000000 0.000000 2.584272
    13 1.355810 0.000530 -1.069623 0.000000 0.000000 0.000000
    14 0.321166 0.000008 -0.000001 0.000000 0.000000 0.000000
    15 0.863905 0.359274 0.381193 1.561247 -0.738434 -4.692352
    16 0.863905 0.348448 -0.360363 -0.805736 -3.322691 -0.185437
    17 1.069544 -0.585928 0.017010 -1.570796 -0.000002 -2.366212
    18 -4.080443 0.052788 -0.063186 0.000000 -3.141592 0.000000
    19 14.228222 0.251337 -9.979755 3.950194 -0.992183 1.502684
    20 1.257180 8.762585 -0.153713 -1.570562 0.002683 -1.566807
    21 -0.071921 -8.498736 -0.104134 0.459217 0.402331 -0.221918
    22 -0.488518 -2.755602 -0.228260 0.171104 -0.049100 -0.303116
    23 0.039887 -1.479790 0.029854 -0.526243 0.000000 0.000001
    24 0.028786 -1.075731 -0.023109 -0.470863 0.000000 0.000000
    25 0.250027 -2.820665 -0.238396 0.444953 -0.172479 -0.156417
    26 -0.049759 -1.680544 0.100479 -0.433359 0.000000 -0.000002
    27 -0.034142 -1.148312 0.084782 -0.258102 0.000000 0.000000
    28 0.957766 -2.746780 -0.090302 0.570969 -0.278599 -0.051549
    29 -0.033420 -1.397129 -0.011257 -0.181524 0.000000 -0.000001
    30 -0.022360 -0.957436 0.018784 -0.196226 0.000000 0.000000
    31 -1.180681 -2.507217 -0.193859 -0.202304 0.015547 -0.451705
    32 -0.024967 -1.123934 0.017597 -0.631193 0.000000 0.000001
    33 -0.020057 -0.890968 0.010090 -0.630313 0.000000 0.000000
    34 0.583510 -1.197277 0.185379 -0.157517 -0.640398 -0.449110
    35 1.535927 0.010246 0.005009 -0.002964 -0.012979 -0.634022
    36 1.100771 0.004527 -0.010679 -0.008501 0.013360 -0.385761
    37 0.120153 -0.050270 -0.054489 0.307128 3.311263 1.416131
    38 0.447953 -2.798986 -0.200443 -0.653159 0.087866 0.178829
    39 -0.032909 -1.480204 0.004940 -1.833494 0.000000 0.000002
    40 -0.027022 -1.076920 -0.020210 -0.930273 0.000000 0.000000
    41 -0.249534 -2.846964 -0.174213 -0.609311 0.058647 0.154463
    42 0.043235 -1.683941 0.096012 -1.902768 0.002823 -0.000167
    43 0.031729 -1.160830 0.058838 -1.001327 0.000642 0.008372
    44 -0.963866 -2.785145 -0.085350 -0.589404 0.158501 0.157028
    45 0.028479 -1.403067 0.006271 -1.731640 0.000000 0.000000
    46 0.021413 -0.957781 0.020046 -0.780749 0.000000 0.000000
    47 1.164475 -2.543940 -0.170330 -0.674602 -0.089480 0.155889
    48 0.024032 -1.129042 0.017807 -1.450287 0.000000 0.000001
    49 0.014898 -0.883989 -0.019848 -1.242513 0.000000 0.000000
    50 -0.586770 -1.264477 0.200161 0.400179 -0.823031 -2.840439
    51 1.522835 0.058681 0.016848 0.001410 0.008985 1.232395
    52 1.117947 0.048424 -0.005766 -0.021300 -0.013465 1.063049
    53 -0.139399 -0.111698 0.014397 0.283596 0.044588 1.324529
    54 -1.393470 8.839177 -0.239433 1.580804 -0.005023 -1.566847
  time 7
    0 0.000201 1.628956 0.541027 0.000000 0.000000 0.000000
    1 -0.865068 -8.891737 -6.917860 0.122494 2.698312 0.190859
    2 0.096946 -8.450417 -0.009364 -0.004632 -0.134240 0.297546
    3 -2.955449 -2.412914 0.841363 3.098278 0.057471 -1.531951
    4 0.000000 0.000000 0.000000 0.000000 0.000000 0.000000
    5 2.268322 4.124472 -0.062954 0.000001 0.000000 1.270818
    6 3.295875 -0.000002 0.000000 0.000000 0.000000 0.572584
    7 4.887199 7.610152 -0.062954 3.141592 0.000000 -0.640336
    8 -8.677812 -0.055529 -0.003085 -3.141592 0.000000 -0.557319
    9 2.244080 -6.395751 -0.062954 0.000000 0.000000 -1.269509
    10 3.333881 0.000002 0.000000 0.000000 0.000000 -0.568501
    11 4.887201 -9.910490 -0.062952 0.000000 0.000000 -2.501255
    12 8.666410 0.037216 0.003086 0.000000 0.000000 2.584272
    13 1.355810 0.000530 -1.069623 0.000000 0.000000 0.000000
    14 0.321166 0.000008 -0.000001 0.000000 0.000000 0.000000
    15 0.863905 0.359274 0.381193 1.534438 -0.711626 -4.636026
    16 0.863905 0.348448 -0.360363 -0.805113 -3.316124 -0.178701
    17 1.069544 -0.585928 0.017010 -1.570796 -0.000002 -2.394376
    18 -4.072630 0.052788 -0.063186 0.000000 -3.141592 0.000000
    19 13.611016 -0.584626 -9.690684 0.748606 -2.132467 -1.563273
    20 1.257180 8.762585 -0.153713 -1.570562 0.002683 -1.566807
    21 -0.071921 -8.498736 -0.104134 0.455640 0.396651 -0.227874
    22 -0.488518 -2.755602 -0.228260 0.080057 -0.049100 -0.303116
    23 0.039887 -1.479790 0.029854 -0.624820 0.000000 0.000001
    24 0.028786 -1.075731 -0.023109 -0.549562 0.000000 0.000000
    25 0.250027 -2.820665 -0.238396 0.360876 -0.172479 -0.156417
    26 -0.049759 -1.680544 0.100479 -0.547973 0.000000 -0.000002
    27 -0.034142 -1.148312 0.084782 -0.371763 0.000000 0.000000
    28 0.957766 -2.746780 -0.090302 0.535326 -0.278599 -0.051549
    29 -0.033420 -1.397129 -0.011257 -0.244167 0.000000 -0.000001
    30 -0.022360 -0.957436 0.018784 -0.258867 0.000000 0.000000
    31 -1.180681 -2.507217 -0.193859 -0.257224 0.015547 -0.451705
    32 -0.024967 -1.123934 0.017597 -0.726932 0.000000 0.000001
    33 -0.020057 -0.890968 0.010090 -0.711785 0.000000 0.000000
    34 0.583510 -1.197277 0.185379 -0.157457 -0.610353 -0.425383
    35 1.535927 0.010246 0.005009 -0.002964 -0.012979 -0.595013
    36 1.100771 0.004527 -0.010679 -0.006307 0.013672 -0.250384
    37 0.120153 -0.050270 -0.054489 0.307128 3.311263 1.416131
    38 0.447953 -2.798986 -0.200443 -0.653159 0.087866 0.178829
    39 -0.032909 -1.480204 0.004940 -1.833494 0.000000 0.000002
    40 -0.027022 -1.076920 -0.020210 -0.930273 0.000000 0.000000
    41 -0.249534 -2.846964 -0.174213 -0.609311 0.058647 0.154463
    42 0.043235 -1.683941 0.096012 -1.902768 0.002823 -0.000167
    43 0.031729 -1.160830 0.058838 -1.001327 0.000642 0.008372
    44 -0.963866 -2.785145 -0.085350 -0.589404 0.158501 0.157028
    45 0.028479 -1.403067 0.006271 -1.731640 0.000000 0.000000
    46 0.021413 -0.957781 0.020046 -0.780749 0.000000 0.000000
    47 1.164475 -2.543940 -0.170330 -0.674602 -0.089480 0.155889
    48 0.024032 -1.129042 0.017807 -1.450287 0.000000 0.000001
    49 0.014898 -0.883989 -0.019848 -1.242513 0.000000 0.000000
    50 -0.586770 -1.264477 0.200161 0.400179 -0.823031 -2.840439
    51 1.522835 0.058681 0.016848 0.001410 0.008985 1.232395
    52 1.117947 0.048424 -0.005766 -0.021300 -0.013465 1.063049
    53 -0.139399 -0.111698 0.014397 0.283596 0.044588 1.324529
    54 -1.393470 8.839177 -0.239433 1.580804 -0.005023 -1.566847
  time 8
    0 0.000201 1.628956 0.541027 0.000000 0.000000 0.000000
    1 -1.122888 -9.149557 -7.124897 0.098292 2.654504 0.226524
    2 0.096946 -8.450417 -0.009364 0.012506 -0.124520 0.295245
    3 -2.955449 -2.412914 0.841363 3.098278 0.057471 -1.531951
    4 0.000000 0.000000 0.000000 0.000000 0.000000 0.000000
    5 2.268322 4.124472 -0.062954 0.000001 0.000000 1.275648
    6 3.295875 -0.000002 0.000000 0.000000 0.000000 0.567737
    7 4.887199 7.610152 -0.062954 3.141592 0.000000 -0.635506
    8 -8.677812 -0.055529 -0.003085 -3.141592 0.000000 -0.557319
    9 2.244080 -6.395751 -0.062954 0.000000 0.000000 -1.274338
    10 3.333881 0.000002 0.000000 0.000000 0.000000 -0.563663
    11 4.887201 -9.910490 -0.062952 0.000000 0.000000 -2.506084
    12 8.666410 0.037216 0.003086 0.000000 0.000000 2.584272
    13 1.355810 0.000530 -1.069623 0.000000 0.000000 0.000000
    14 0.321166 0.000008 -0.000001 0.000000 0.000000 0.000000
    15 0.863905 0.359274 0.381193 1.492948 -0.670135 -4.549020
    16 0.863905 0.348448 -0.360363 -0.804154 -3.305949 -0.168299
    17 1.069544 -0.585928 0.017010 -1.570796 -0.000002 -2.437880
    18 -4.060911 0.052788 -0.063186 0.000000 -3.141592 0.000000
    19 12.993810 -1.377619 -9.522710 0.699065 -2.117389 -1.495364
    20 1.257180 8.762585 -0.153713 -1.570562 0.002683 -1.566807
    21 -0.071921 -8.498736 -0.104134 0.451878 0.390575 -0.234166
    22 -0.488518 -2.755602 -0.228260 -0.054214 -0.049100 -0.303116
    23 0.039887 -1.479790 0.029854 -0.770124 0.000000 0.000001
    24 0.028786 -1.075731 -0.023109 -0.665511 0.000000 0.000000
    25 0.250027 -2.820665 -0.238396 0.236957 -0.172479 -0.156417
    26 -0.049759 -1.680544 0.100479 -0.716877 0.000000 -0.000002
    27 -0.034142 -1.148312 0.084782 -0.539246 0.000000 0.000000
    28 0.957766 -2.746780 -0.090302 0.480712 -0.278599 -0.051549
    29 -0.033420 -1.397129 -0.011257 -0.336660 0.000000 -0.000001
    30 -0.022360 -0.957436 0.018784 -0.351331 0.000000 0.000000
    31 -1.180681 -2.507217 -0.193859 -0.338158 0.015547 -0.451705
    32 -0.024967 -1.123934 0.017597 -0.868043 0.000000 0.000001
    33 -0.020057 -0.890968 0.010090 -0.831805 0.000000 0.000000
    34 0.583510 -1.197277 0.185379 -0.157361 -0.568683 -0.410521
    35 1.535927 0.010246 0.005009 -0.002964 -0.012979 -0.544262
    36 1.100771 0.004527 -0.010679 -0.003467 0.014103 -0.074386
    37 0.120153 -0.050270 -0.054489 0.307128 3.311263 1.416131
    38 0.447953 -2.798986 -0.200443 -0.653159 0.087866 0.178829
    39 -0.032909 -1.480204 0.004940 -1.833494 0.000000 0.000002
    40 -0.027022 -1.076920 -0.020210 -0.930273 0.000000 0.000000
    41 -0.249534 -2.846964 -0.174213 -0.609311 0.058647 0.154463
    42 0.043235 -1.683941 0.096012 -1.902768 0.002823 -0.000167
    43 0.031729 -1.160830 0.058838 -1.001327 0.000642 0.008372
    44 -0.963866 -2.785145 -0.085350 -0.589404 0.158501 0.157028
    45 0.028479 -1.403067 0.006271 -1.731640 0.000000 0.000000
    46 0.021413 -0.957781 0.020046 -0.780749 0.000000 0.000000
    47 1.164475 -2.543940 -0.170330 -0.674602 -0.089480 0.155889
    48 0.024032 -1.129042 0.017807 -1.450287 0.000000 0.000001
    49 0.014898 -0.883989 -0.019848 -1.242513 0.000000 0.000000
    50 -0.586770 -1.264477 0.200161 0.400179 -0.823031 -2.840439
    51 1.522835 0.058681 0.016848 0.001410 0.008985 1.232395
    52 1.117947 0.048424 -0.005766 -0.021300 -0.013465 1.063049
    53 -0.139399 -0.111698 0.014397 0.283596 0.044588 1.324529
    54 -1.393470 8.839177 -0.239433 1.580804 -0.005023 -1.566847
  time 9
    0 0.000201 1.628956 0.541027 0.000000 0.000000 0.000000
    1 -1.376802 -9.301905 -7.316310 0.074243 2.616794 0.261694
    2 0.096946 -8.450417 -0.009364 0.028872 -0.115172 0.292645
    3 -2.955449 -2.412914 0.841363 3.098278 0.057471 -1.531951
    4 0.000000 0.000000 0.000000 0.000000 0.000000 0.000000
    5 2.268322 4.124472 -0.062954 0.000001 0.000000 1.281880
    6 3.295875 -0.000002 0.000000 0.000000 0.000000 0.561505
    7 4.887199 7.610152 -0.062954 3.141592 0.000000 -0.629274
    8 -8.677812 -0.055529 -0.003085 -3.141592 0.000000 -0.557319
    9 2.244080 -6.395751 -0.062954 0.000000 0.000000 -1.280570
    10 3.333881 0.000002 0.000000 0.000000 0.000000 -0.557445
    11 4.887201 -9.910490 -0.062952 0.000000 0.000000 -2.512316
    12 8.666410 0.037216 0.003086 0.000000 0.000000 2.584272
    13 1.355810 0.000530 -1.069623 0.000000 0.000000 0.000000
    14 0.321166 0.000008 -0.000001 0.000000 0.000000 0.000000
    15 0.863905 0.359274 0.381193 1.439550 -0.616737 -4.436848
    16 0.863905 0.348448 -0.360363 -0.802920 -3.292850 -0.154888
    17 1.069544 -0.585928 0.017010 -1.570796 -0.000002 -2.493968
    18 -4.045285 0.052788 -0.063186 0.000000 -3.141592 0.000000
    19 12.419573 -2.096391 -9.464114 0.658653 -2.103695 -1.434426
    20 1.257180 8.762585 -0.153713 -1.570562 0.002683 -1.566807
    21 -0.071921 -8.498736 -0.104134 0.447979 0.384175 -0.240745
    22 -0.488518 -2.755602 -0.228260 -0.217234 -0.049100 -0.303116
    23 0.039887 -1.479790 0.029854 -0.946612 0.000000 0.000001
    24 0.028786 -1.075731 -0.023109 -0.806384 0.000000 0.000000
    25 0.250027 -2.820665 -0.238396 0.086490 -0.172479 -0.156417
    26 -0.049759 -1.680544 0.100479 -0.921976 0.000000 -0.000002
    27 -0.034142 -1.148312 0.084782 -0.742642 0.000000 0.000000
    28 0.957766 -2.746780 -0.090302 0.411039 -0.278599 -0.051549
    29 -0.033420 -1.397129 -0.011257 -0.449208 0.000000 -0.000001
    30 -0.022360 -0.957436 0.018784 -0.463915 0.000000 0.000000
    31 -1.180681 -2.507217 -0.193859 -0.436454 0.015547 -0.451705
    32 -0.024967 -1.123934 0.017597 -1.039385 0.000000 0.000001
    33 -0.020057 -0.890968 0.010090 -0.977540 0.000000 0.000000
    34 0.583510 -1.197277 0.185379 -0.157206 -0.522266 -0.402457
    35 1.535927 0.010246 0.005009 -0.002964 -0.012979 -0.493541
    36 1.100771 0.004527 -0.010679 -0.000639 0.014571 0.101612
    37 0.120153 -0.050270 -0.054489 0.307128 3.311263 1.416131
    38 0.447953 -2.798986 -0.200443 -0.653159 0.087866 0.178829
    39 -0.032909 -1.480204 0.004940 -1.833494 0.000000 0.000002
    40 -0.027022 -1.076920 -0.020210 -0.930273 0.000000 0.000000
    41 -0.249534 -2.846964 -0.174213 -0.609311 0.058647 0.154463
    42 0.043235 -1.683941 0.096012 -1.902768 0.002823 -0.000167
    43 0.031729 -1.160830 0.058838 -1.001327 0.000642 0.008372
    44 -0.963866 -2.785145 -0.085350 -0.589404 0.158501 0.157028
    45 0.028479 -1.403067 0.006271 -1.731640 0.000000 0.000000
    46 0.021413 -0.957781 0.020046 -0.780749 0.000000 0.000000
    47 1.164475 -2.543940 -0.170330 -0.674602 -0.089480 0.155889
    48 0.024032 -1.129042 0.017807 -1.450287 0.000000 0.000001
    49 0.014898 -0.883989 -0.019848 -1.242513 0.000000 0.000000
    50 -0.586770 -1.264477 0.200161 0.400179 -0.823031 -2.840439
    51 1.522835 0.058681 0.016848 0.001410 0.008985 1.232395
    52 1.117947 0.048424 -0.005766 -0.021300 -0.013465 1.063049
    53 -0.139399 -0.111698 0.014397 0.283596 0.044588 1.324529
    54 -1.393470 8.839177 -0.239433 1.580804 -0.005023 -1.566847
  time 10
    0 0.000201 1.628956 0.541027 0.000000 0.000000 0.000000
    1 -1.618997 -9.337063 -7.503815 0.050681 2.584053 0.295895
    2 0.096946 -8.450417 -0.009364 0.044546 -0.106160 0.289792
    3 -2.955449 -2.412914 0.841363 3.098278 0.057471 -1.531951
    4 0.000000 0.000000 0.000000 0.000000 0.000000 0.000000
    5 2.268322 4.124472 -0.062954 0.000001 0.000000 1.289202
    6 3.295875 -0.000002 0.000000 0.000000 0.000000 0.554208
    7 4.887199 7.610152 -0.062954 3.141592 0.000000 -0.621952
    8 -8.677812 -0.055529 -0.003085 -3.141592 0.000000 -0.557319
    9 2.244080 -6.395751 -0.062954 0.000000 0.000000 -1.287893
    10 3.333881 0.000002 0.000000 0.000000 0.000000 -0.550109
    11 4.887201 -9.910490 -0.062952 0.000000 0.000000 -2.519639
    12 8.666410 0.037216 0.003086 0.000000 0.000000 2.584272
    13 1.355810 0.000530 -1.069623 0.000000 0.000000 0.000000
    14 0.321166 0.000008 -0.000001 0.000000 0.000000 0.000000
    15 0.863905 0.359274 0.381193 1.376803 -0.553990 -4.305117
    16 0.863905 0.348448 -0.360363 -0.801469 -3.277473 -0.139128
    17 1.069544 -0.585928 0.017010 -1.570796 -0.000002 -2.559835
    18 -4.025753 0.052788 -0.063186 0.000000 -3.141592 0.000000
    19 11.907839 -2.705785 -9.503178 0.625848 -2.091309 -1.379793
    20 1.257180 8.762585 -0.153713 -1.570562 0.002683 -1.566807
    21 -0.071921 -8.498736 -0.104134 0.443972 0.377463 -0.247553
    22 -0.488518 -2.755602 -0.228260 -0.394661 -0.049100 -0.303116
    23 0.039887 -1.479790 0.029854 -1.138641 0.000000 0.000001
    24 0.028786 -1.075731 -0.023109 -0.959628 0.000000 0.000000
    25 0.250027 -2.820665 -0.238396 -0.077251 -0.172479 -0.156417
    26 -0.049759 -1.680544 0.100479 -1.145172 0.000000 -0.000002
    27 -0.034142 -1.148312 0.084782 -0.963996 0.000000 0.000000
    28 0.957766 -2.746780 -0.090302 0.330236 -0.278599 -0.051549
    29 -0.033420 -1.397129 -0.011257 -0.572140 0.000000 -0.000001
    30 -0.022360 -0.957436 0.018784 -0.586793 0.000000 0.000000
    31 -1.180681 -2.507217 -0.193859 -0.543402 0.015547 -0.451705
    32 -0.024967 -1.123934 0.017597 -1.225870 0.000000 0.000001
    33 -0.020057 -0.890968 0.010090 -1.136108 0.000000 0.000000
    34 0.583510 -1.197277 0.185379 -0.157002 -0.477971 -0.399138
    35 1.535927 0.010246 0.005009 -0.002964 -0.012979 -0.454502
    36 1.100771 0.004527 -0.010679 0.001554 0.015026 0.236990
    37 0.120153 -0.050270 -0.054489 0.307128 3.311263 1.416131
    38 0.447953 -2.798986 -0.200443 -0.653159 0.087866 0.178829
    39 -0.032909 -1.480204 0.004940 -1.833494 0.000000 0.000002
    40 -0.027022 -1.076920 -0.020210 -0.930273 0.000000 0.000000
    41 -0.249534 -2.846964 -0.174213 -0.609311 0.058647 0.154463
    42 0.043235 -1.683941 0.096012 -1.902768 0.002823 -0.000167
    43 0.031729 -1.160830 0.058838 -1.001327 0.000642 0.008372
    44 -0.963866 -2.785145 -0.085350 -0.589404 0.158501 0.157028
    45 0.028479 -1.403067 0.006271 -1.731640 0.000000 0.000000
    46 0.021413 -0.957781 0.020046 -0.780749 0.000000 0.000000
    47 1.164475 -2.543940 -0.170330 -0.674602 -0.089480 0.155889
    48 0.024032 -1.129042 0.017807 -1.450287 0.000000 0.000001
    49 0.014898 -0.883989 -0.019848 -1.242513 0.000000 0.000000
    50 -0.586770 -1.264477 0.200161 0.400179 -0.823031 -2.840439
    51 1.522835 0.058681 0.016848 0.001410 0.008985 1.232395
    52 1.117947 0.048424 -0.005766 -0.021300 -0.013465 1.063049
    53 -0.139399 -0.111698 0.014397 0.283596 0.044588 1.324529
    54 -1.393470 8.839177 -0.239433 1.580804 -0.005023 -1.566847
  time 11
    0 0.000201 1.628956 0.541027 0.000000 0.000000 0.000000
    1 -1.861192 -9.184714 -7.695227 0.028090 2.555053 0.328686
    2 0.096946 -8.450417 -0.009364 0.059666 -0.097399 0.286760
    3 -2.955449 -2.412914 0.841363 3.098278 0.057471 -1.531951
    4 0.000000 0.000000 0.000000 0.000000 0.000000 0.000000
    5 2.268322 4.124472 -0.062954 0.000001 0.000000 1.297292
    6 3.295875 -0.000002 0.000000 0.000000 0.000000 0.546112
    7 4.887199 7.610152 -0.062954 3.141592 0.000000 -0.613862
    8 -8.677812 -0.055529 -0.003085 -3.141592 0.000000 -0.557319
    9 2.244080 -6.395751 -0.062954 0.000000 0.000000 -1.295983
    10 3.333881 0.000002 0.000000 0.000000 0.000000 -0.542018
    11 4.887201 -9.910490 -0.062952 0.000000 0.000000 -2.527729
    12 8.666410 0.037216 0.003086 0.000000 0.000000 2.584272
    13 1.355810 0.000530 -1.069623 0.000000 0.000000 0.000000
    14 0.321166 0.000008 -0.000001 0.000000 0.000000 0.000000
    15 0.863905 0.359274 0.381193 1.307481 -0.484668 -4.159437
    16 0.863905 0.348448 -0.360363 -0.799852 -3.260455 -0.121715
    17 1.069544 -0.585928 0.017010 -1.570796 -0.000002 -2.632678
    18 -4.006222 0.052788 -0.063186 0.000000 -3.141592 0.000000
    19 11.462513 -3.119860 -9.624275 0.598653 -2.080384 -1.330509
    20 1.257180 8.762585 -0.153713 -1.570562 0.002683 -1.566807
    21 -0.071921 -8.498736 -0.104134 0.439904 0.370500 -0.254540
    22 -0.488518 -2.755602 -0.228260 -0.572054 -0.049100 -0.303116
    23 0.039887 -1.479790 0.029854 -1.330669 0.000000 0.000001
    24 0.028786 -1.075731 -0.023109 -1.112873 0.000000 0.000000
    25 0.250027 -2.820665 -0.238396 -0.240992 -0.172479 -0.156417
    26 -0.049759 -1.680544 0.100479 -1.368367 0.000000 -0.000002
    27 -0.034142 -1.148312 0.084782 -1.185350 0.000000 0.000000
    28 0.957766 -2.746780 -0.090302 0.242192 -0.278599 -0.051549
    29 -0.033420 -1.397129 -0.011257 -0.695618 0.000000 -0.000001
    30 -0.022360 -0.957436 0.018784 -0.710260 0.000000 0.000000
    31 -1.180681 -2.507217 -0.193859 -0.650349 0.015547 -0.451705
    32 -0.024967 -1.123934 0.017597 -1.412355 0.000000 0.000001
    33 -0.020057 -0.890968 0.010090 -1.294725 0.000000 0.000000
    34 0.583510 -1.197277 0.185379 -0.156714 -0.442677 -0.398483
    35 1.535927 0.010246 0.005009 -0.002964 -0.012979 -0.438916
    36 1.100771 0.004527 -0.010679 0.002429 0.015374 0.291141
    37 0.120153 -0.050270 -0.054489 0.307128 3.311263 1.416131
    38 0.447953 -2.798986 -0.200443 -0.653159 0.087866 0.178829
    39 -0.032909 -1.480204 0.004940 -1.833494 0.000000 0.000002
    40 -0.027022 -1.076920 -0.020210 -0.930273 0.000000 0.000000
    41 -0.249534 -2.846964 -0.174213 -0.609311 0.058647 0.154463
    42 0.043235 -1.683941 0.096012 -1.902768 0.002823 -0.000167
    43 0.031729 -1.160830 0.058838 -1.001327 0.000642 0.008372
    44 -0.963866 -2.785145 -0.085350 -0.589404 0.158501 0.157028
    45 0.028479 -1.403067 0.006271 -1.731640 0.000000 0.000000
    46 0.021413 -0.957781 0.020046 -0.780749 0.000000 0.000000
    47 1.164475 -2.543940 -0.170330 -0.674602 -0.089480 0.155889
    48 0.024032 -1.129042 0.017807 -1.450287 0.000000 0.000001
    49 0.014898 -0.883989 -0.019848 -1.242513 0.000000 0.000000
    50 -0.586770 -1.264477 0.200161 0.400179 -0.823031 -2.840439
    51 1.522835 0.058681 0.016848 0.001410 0.008985 1.232395
    52 1.117947 0.048424 -0.005766 -0.021300 -0.013465 1.063049
    53 -0.139399 -0.111698 0.014397 0.283596 0.044588 1.324529
    54 -1.393470 8.839177 -0.239433 1.580804 -0.005023 -1.566847
  time 12
    0 0.000201 1.628956 0.541027 0.000000 0.000000 0.000000
    1 -2.111200 -8.860486 -7.886639 0.006958 2.528717 0.359590
    2 0.096946 -8.450417 -0.009364 0.074325 -0.088842 0.283584
    3 -2.955449 -2.412914 0.841363 3.098278 0.057471 -1.531951
    4 0.000000 0.000000 0.000000 0.000000 0.000000 0.000000
    5 2.268322 4.124472 -0.062954 0.000001 0.000000 1.305849
    6 3.295875 -0.000002 0.000000 0.000000 0.000000 0.537536
    7 4.887199 7.610152 -0.062954 3.141592 0.000000 -0.605305
    8 -8.677812 -0.055529 -0.003085 -3.141592 0.000000 -0.557319
    9 2.244080 -6.395751 -0.062954 0.000000 0.000000 -1.304540
    10 3.333881 0.000002 0.000000 0.000000 0.000000 -0.533459
    11 4.887201 -9.910490 -0.062952 0.000000 0.000000 -2.536286
    12 8.666410 0.037216 0.003086 0.000000 0.000000 2.584272
    13 1.355810 0.000530 -1.069623 0.000000 0.000000 0.000000
    14 0.321166 0.000008 -0.000001 0.000000 0.000000 0.000000
    15 0.863905 0.359274 0.381193 1.234141 -0.411329 -4.005368
    16 0.863905 0.348448 -0.360363 -0.798162 -3.242466 -0.103294
    17 1.069544 -0.585928 0.017010 -1.570796 -0.000002 -2.709691
    18 -3.986690 0.052788 -0.063186 0.000000 -3.141592 0.000000
    19 11.079689 -3.334710 -9.800062 0.575166 -2.071229 -1.285427
    20 1.257180 8.762585 -0.153713 -1.570562 0.002683 -1.566807
    21 -0.071921 -8.498736 -0.104134 0.435774 0.363334 -0.261658
    22 -0.488518 -2.755602 -0.228260 -0.735107 -0.049100 -0.303116
    23 0.039887 -1.479790 0.029854 -1.507105 0.000000 0.000001
    24 0.028786 -1.075731 -0.023109 -1.253745 0.000000 0.000000
    25 0.250027 -2.820665 -0.238396 -0.391460 -0.172479 -0.156417
    26 -0.049759 -1.680544 0.100479 -1.573466 0.000000 -0.000002
    27 -0.034142 -1.148312 0.084782 -1.388696 0.000000 0.000000
    28 0.957766 -2.746780 -0.090302 0.103590 -0.278599 -0.051549
    29 -0.033420 -1.397129 -0.011257 -0.867781 0.000000 -0.000001
    30 -0.022360 -0.957436 0.018784 -0.882449 0.000000 0.000000
    31 -1.180681 -2.507217 -0.193859 -0.748615 0.015547 -0.451705
    32 -0.024967 -1.123934 0.017597 -1.583696 0.000000 0.000001
    33 -0.020057 -0.890968 0.010090 -1.440460 0.000000 0.000000
    34 0.583510 -1.197277 0.185379 -0.124524 -0.414824 -0.463507
    35 1.535927 0.010246 0.005009 -0.002964 -0.012979 -0.526359
    36 1.100771 0.004527 -0.010679 0.001650 0.015637 0.248938
    37 0.120153 -0.050270 -0.054489 0.307128 3.311263 1.416131
    38 0.447953 -2.798986 -0.200443 -0.653159 0.087866 0.178829
    39 -0.032909 -1.480204 0.004940 -1.833494 0.000000 0.000002
    40 -0.027022 -1.076920 -0.020210 -0.930273 0.000000 0.000000
    41 -0.249534 -2.846964 -0.174213 -0.609311 0.058647 0.154463
    42 0.043235 -1.683941 0.096012 -1.902768 0.002823 -0.000167
    43 0.031729 -1.160830 0.058838 -1.001327 0.000642 0.008372
    44 -0.963866 -2.785145 -0.085350 -0.589404 0.158501 0.157028
    45 0.028479 -1.403067 0.006271 -1.731640 0.000000 0.000000
    46 0.021413 -0.957781 0.020046 -0.780749 0.000000 0.000000
    47 1.164475 -2.543940 -0.170330 -0.674602 -0.089480 0.155889
    48 0.024032 -1.129042 0.017807 -1.450287 0.000000 0.000001
    49 0.014898 -0.883989 -0.019848 -1.242513 0.000000 0.000000
    50 -0.586770 -1.264477 0.200161 0.400179 -0.823031 -2.840439
    51 1.522835 0.058681 0.016848 0.001410 0.008985 1.232395
    52 1.117947 0.048424 -0.005766 -0.021300 -0.013465 1.063049
    53 -0.139399 -0.111698 0.014397 0.283596 0.044588 1.324529
    54 -1.393470 8.839177 -0.239433 1.580804 -0.005023 -1.566847
  time 13
    0 0.000201 1.628956 0.541027 0.000000 0.000000 0.000000
    1 -2.345582 -8.462036 -8.058520 -0.012076 2.504020 0.388167
    2 0.096946 -8.450417 -0.009364 0.088631 -0.080405 0.280337
    3 -2.955449 -2.412914 0.841363 3.098278 0.057471 -1.531951
    4 0.000000 0.000000 0.000000 0.000000 0.000000 0.000000
    5 2.268322 4.124472 -0.062954 0.000001 0.000000 1.314561
    6 3.295875 -0.000002 0.000000 0.000000 0.000000 0.528827
    7 4.887199 7.610152 -0.062954 3.141592 0.000000 -0.596592
    8 -8.677812 -0.055529 -0.003085 -3.141592 0.000000 -0.557319
    9 2.244080 -6.395751 -0.062954 0.000000 0.000000 -1.313252
    10 3.333881 0.000002 0.000000 0.000000 0.000000 -0.524744
    11 4.887201 -9.910490 -0.062952 0.000000 0.000000 -2.544998
    12 8.666410 0.037216 0.003086 0.000000 0.000000 2.584272
    13 1.355810 0.000530 -1.069623 0.000000 0.000000 0.000000
    14 0.321166 0.000008 -0.000001 0.000000 0.000000 0.000000
    15 0.863905 0.359274 0.381193 1.159414 -0.336601 -3.848566
    16 0.863905 0.348448 -0.360363 -0.796424 -3.224154 -0.084538
    17 1.069544 -0.585928 0.017010 -1.570796 -0.000002 -2.788118
    18 -3.963252 0.052788 -0.063186 0.000000 -3.141592 0.000000
    19 10.774992 -3.436276 -9.987568 0.553392 -2.064075 -1.243688
    20 1.257180 8.762585 -0.153713 -1.570562 0.002683 -1.566807
    21 -0.071921 -8.498736 -0.104134 0.431644 0.355999 -0.268873
    22 -0.488518 -2.755602 -0.228260 -0.869345 -0.049100 -0.303116
    23 0.039887 -1.479790 0.029854 -1.652461 0.000000 0.000001
    24 0.028786 -1.075731 -0.023109 -1.369695 0.000000 0.000000
    25 0.250027 -2.820665 -0.238396 -0.515379 -0.172479 -0.156417
    26 -0.049759 -1.680544 0.100479 -1.742370 0.000000 -0.000002
    27 -0.034142 -1.148312 0.084782 -1.556229 0.000000 0.000000
    28 0.957766 -2.746780 -0.090302 -0.083874 -0.278599 -0.051549
    29 -0.033420 -1.397129 -0.011257 -1.089891 0.000000 -0.000001
    30 -0.022360 -0.957436 0.018784 -1.104581 0.000000 0.000000
    31 -1.180681 -2.507217 -0.193859 -0.829549 0.015547 -0.451705
    32 -0.024967 -1.123934 0.017597 -1.724808 0.000000 0.000001
    33 -0.020057 -0.890968 0.010090 -1.560479 0.000000 0.000000
    34 0.583510 -1.197277 0.185379 -0.054090 -0.390591 -0.606553
    35 1.535927 0.010246 0.005009 -0.002964 -0.012979 -0.718719
    36 1.100771 0.004527 -0.010679 -0.000052 0.015841 0.156074
    37 0.120153 -0.050270 -0.054489 0.307128 3.311263 1.416131
    38 0.447953 -2.798986 -0.200443 -0.653159 0.087866 0.178829
    39 -0.032909 -1.480204 0.004940 -1.833494 0.000000 0.000002
    40 -0.027022 -1.076920 -0.020210 -0.930273 0.000000 0.000000
    41 -0.249534 -2.846964 -0.174213 -0.609311 0.058647 0.154463
    42 0.043235 -1.683941 0.096012 -1.902768 0.002823 -0.000167
    43 0.031729 -1.160830 0.058838 -1.001327 0.000642 0.008372
    44 -0.963866 -2.785145 -0.085350 -0.589404 0.158501 0.157028
    45 0.028479 -1.403067 0.006271 -1.731640 0.000000 0.000000
    46 0.021413 -0.957781 0.020046 -0.780725 0.000000 0.000000
    47 1.164475 -2.543940 -0.170330 -0.674602 -0.089480 0.155889
    48 0.024032 -1.129042 0.017807 -1.450287 0.000000 0.000001
    49 0.014898 -0.883989 -0.019848 -1.242513 0.000000 0.000000
    50 -0.586770 -1.264477 0.200161 0.400179 -0.823031 -2.840439
    51 1.522835 0.058681 0.016848 0.001410 0.008985 1.232395
    52 1.117947 0.048424 -0.005766 -0.021300 -0.013465 1.063049
    53 -0.139399 -0.111698 0.014397 0.283596 0.044588 1.324529
    54 -1.393470 8.839177 -0.239433 1.580804 -0.005023 -1.566847
  time 14
    0 0.000201 1.628956 0.541027 0.000000 0.000000 0.000000
    1 -2.544807 -8.087024 -8.206962 -0.028450 2.479785 0.413941
    2 0.096946 -8.450417 -0.009364 0.102680 -0.072052 0.277065
    3 -2.955449 -2.412914 0.841363 3.098278 0.057471 -1.531951
    4 0.000000 0.000000 0.000000 0.000000 0.000000 0.000000
    5 2.268322 4.124472 -0.062954 0.000001 0.000000 1.323118
    6 3.295875 -0.000002 0.000000 0.000000 0.000000 0.520278
    7 4.887199 7.610152 -0.062954 3.141592 0.000000 -0.588035
    8 -8.677812 -0.055529 -0.003085 -3.141592 0.000000 -0.557319
    9 2.244080 -6.395751 -0.062954 0.000000 0.000000 -1.321809
    10 3.333881 0.000002 0.000000 0.000000 0.000000 -0.516186
    11 4.887201 -9.910490 -0.062952 0.000000 0.000000 -2.553555
    12 8.666410 0.037216 0.003086 0.000000 0.000000 2.584272
    13 1.355810 0.000530 -1.069623 0.000000 0.000000 0.000000
    14 0.321166 0.000008 -0.000001 0.000000 0.000000 0.000000
    15 0.863905 0.359274 0.381193 1.086075 -0.263262 -3.694497
    16 0.863905 0.348448 -0.360363 -0.794722 -3.206165 -0.066118
    17 1.069544 -0.585928 0.017010 -1.570796 -0.000002 -2.865131
    18 -3.943720 0.052788 -0.063186 0.000000 -3.141592 0.000000
    19 10.567954 -3.518310 -10.151635 0.531236 -2.059536 -1.204050
    20 1.257180 8.762585 -0.153713 -1.570562 0.002683 -1.566807
    21 -0.071921 -8.498736 -0.104134 0.427530 0.348545 -0.276112
    22 -0.488518 -2.755602 -0.228260 -0.960459 -0.049100 -0.303116
    23 0.039887 -1.479790 0.029854 -1.751039 0.000000 0.000001
    24 0.028786 -1.075731 -0.023109 -1.448394 0.000000 0.000000
    25 0.250027 -2.820665 -0.238396 -0.599475 -0.172479 -0.156417
    26 -0.049759 -1.680544 0.100479 -1.856984 0.000000 -0.000002
    27 -0.034142 -1.148312 0.084782 -1.669891 0.000000 0.000000
    28 0.957766 -2.746780 -0.090302 -0.248769 -0.278599 -0.051549
    29 -0.033420 -1.397129 -0.011257 -1.281899 0.000000 -0.000001
    30 -0.022360 -0.957436 0.018784 -1.296595 0.000000 0.000000
    31 -1.180681 -2.507217 -0.193859 -0.884469 0.015547 -0.451705
    32 -0.024967 -1.123934 0.017597 -1.820546 0.000000 0.000001
    33 -0.020057 -0.890968 0.010090 -1.641902 0.000000 0.000000
    34 0.583510 -1.197277 0.185379 0.016247 -0.373477 -0.749599
    35 1.535927 0.010246 0.005009 -0.002964 -0.012979 -0.911080
    36 1.100771 0.004527 -0.010679 -0.001753 0.015973 0.063211
    37 0.120153 -0.050270 -0.054489 0.307128 3.311263 1.416131
    38 0.447953 -2.798986 -0.200443 -0.653159 0.087866 0.178829
    39 -0.032909 -1.480204 0.004940 -1.833494 0.000000 0.000002
    40 -0.027022 -1.076920 -0.020210 -0.930273 0.000000 0.000000
    41 -0.249534 -2.846964 -0.174213 -0.609311 0.058647 0.154463
    42 0.043235 -1.683941 0.096012 -1.902768 0.002823 -0.000167
    43 0.031729 -1.160830 0.058838 -1.001327 0.000642 0.008372
    44 -0.963866 -2.785145 -0.085350 -0.589404 0.158501 0.157028
    45 0.028479 -1.403067 0.006271 -1.731640 0.000000 0.000000
    46 0.021413 -0.957781 0.020046 -0.780725 0.000000 0.000000
    47 1.164475 -2.543940 -0.170330 -0.674602 -0.089480 0.155889
    48 0.024032 -1.129042 0.017807 -1.450287 0.000000 0.000001
    49 0.014898 -0.883989 -0.019848 -1.242513 0.000000 0.000000
    50 -0.586770 -1.264477 0.200161 0.400179 -0.823031 -2.840439
    51 1.522835 0.058681 0.016848 0.001410 0.008985 1.232395
    52 1.117947 0.048424 -0.005766 -0.021300 -0.013465 1.063049
    53 -0.139399 -0.111698 0.014397 0.283596 0.044588 1.324529
    54 -1.393470 8.839177 -0.239433 1.580804 -0.005023 -1.566847
  time 15
    0 0.000201 1.628956 0.541027 0.000000 0.000000 0.000000
    1 -2.689342 -7.840923 -8.312434 -0.041447 2.455038 0.436454
    2 0.096946 -8.450417 -0.009364 0.116594 -0.063711 0.273853
    3 -2.955449 -2.412914 0.841363 3.098278 0.057471 -1.531951
    4 0.000000 0.000000 0.000000 0.000000 0.000000 0.000000
    5 2.268322 4.124472 -0.062954 0.000001 0.000000 1.331220
    6 3.295875 -0.000002 0.000000 0.000000 0.000000 0.512182
    7 4.887199 7.610152 -0.062954 3.141592 0.000000 -0.579934
    8 -8.677812 -0.055529 -0.003085 -3.141592 0.000000 -0.557319
    9 2.244080 -6.395751 -0.062954 0.000000 0.000000 -1.329911
    10 3.333881 0.000002 0.000000 0.000000 0.000000 -0.508095
    11 4.887201 -9.910490 -0.062952 0.000000 0.000000 -2.561657
    12 8.666410 0.037216 0.003086 0.000000 0.000000 2.584272
    13 1.355810 0.000530 -1.069623 0.000000 0.000000 0.000000
    14 0.321166 0.000008 -0.000001 0.000000 0.000000 0.000000
    15 0.863905 0.359274 0.381193 1.016680 -0.193867 -3.548816
    16 0.863905 0.348448 -0.360363 -0.793116 -3.189147 -0.048692
    17 1.069544 -0.585928 0.017010 -1.570796 -0.000002 -2.937974
    18 -3.920282 0.052788 -0.063186 0.000000 -3.141592 0.000000
    19 10.466389 -3.662845 -10.253201 0.506704 -2.057997 -1.165749
    20 1.257180 8.762585 -0.153713 -1.570562 0.002683 -1.566807
    21 -0.071921 -8.498736 -0.104134 0.423462 0.341018 -0.283351
    22 -0.488518 -2.755602 -0.228260 -0.994044 -0.049100 -0.303116
    23 0.039887 -1.479790 0.029854 -1.787404 0.000000 0.000001
    24 0.028786 -1.075731 -0.023109 -1.477381 0.000000 0.000000
    25 0.250027 -2.820665 -0.238396 -0.630435 -0.172479 -0.156417
    26 -0.049759 -1.680544 0.100479 -1.899210 0.000000 -0.000002
    27 -0.034142 -1.148312 0.084782 -1.711723 0.000000 0.000000
    28 0.957766 -2.746780 -0.090302 -0.319622 -0.278599 -0.051549
    29 -0.033420 -1.397129 -0.011257 -1.363671 0.000000 -0.000001
    30 -0.022360 -0.957436 0.018784 -1.378387 0.000000 0.000000
    31 -1.180681 -2.507217 -0.193859 -0.904725 0.015547 -0.451705
    32 -0.024967 -1.123934 0.017597 -1.855824 0.000000 0.000001
    33 -0.020057 -0.890968 0.010090 -1.671895 0.000000 0.000000
    34 0.583510 -1.197277 0.185379 0.048210 -0.366994 -0.814622
    35 1.535927 0.010246 0.005009 -0.002964 -0.012979 -0.998522
    36 1.100771 0.004527 -0.010679 -0.002520 0.016009 0.021008
    37 0.120153 -0.050270 -0.054489 0.307128 3.311263 1.416131
    38 0.447953 -2.798986 -0.200443 -0.653159 0.087866 0.178829
    39 -0.032909 -1.480204 0.004940 -1.833494 0.000000 0.000002
    40 -0.027022 -1.076920 -0.020210 -0.930273 0.000000 0.000000
    41 -0.249534 -2.846964 -0.174213 -0.609311 0.058647 0.154463
    42 0.043235 -1.683941 0.096012 -1.902768 0.002823 -0.000167
    43 0.031729 -1.160830 0.058838 -1.001327 0.000642 0.008372
    44 -0.963866 -2.785145 -0.085350 -0.589404 0.158501 0.157028
    45 0.028479 -1.403067 0.006271 -1.731640 0.000000 0.000000
    46 0.021413 -0.957781 0.020046 -0.780725 0.000000 0.000000
    47 1.164475 -2.543940 -0.170330 -0.674602 -0.089480 0.155889
    48 0.024032 -1.129042 0.017807 -1.450287 0.000000 0.000001
    49 0.014898 -0.883989 -0.019848 -1.242513 0.000000 0.000000
    50 -0.586770 -1.264477 0.200161 0.400179 -0.823031 -2.840439
    51 1.522835 0.058681 0.016848 0.001410 0.008985 1.232395
    52 1.117947 0.048424 -0.005766 -0.021300 -0.013465 1.063049
    53 -0.139399 -0.111698 0.014397 0.283596 0.044588 1.324529
    54 -1.393470 8.839177 -0.239433 1.580804 -0.005023 -1.566847
  time 16
    0 0.000201 1.628956 0.541027 0.000000 0.000000 0.000000
    1 -2.767470 -7.731545 -8.371029 -0.048456 2.438744 0.449729
    2 0.096946 -8.450417 -0.009364 0.130467 -0.055321 0.270749
    3 -2.955449 -2.412914 0.841363 3.098278 0.057471 -1.531951
    4 0.000000 0.000000 0.000000 0.000000 0.000000 0.000000
    5 2.268322 4.124472 -0.062954 0.000001 0.000000 1.338531
    6 3.295875 -0.000002 0.000000 0.000000 0.000000 0.504858
    7 4.887199 7.610152 -0.062954 3.141592 0.000000 -0.572623
    8 -8.677812 -0.055529 -0.003085 -3.141592 0.000000 -0.557319
    9 2.244080 -6.395751 -0.062954 0.000000 0.000000 -1.337222
    10 3.333881 0.000002 0.000000 0.000000 0.000000 -0.500785
    11 4.887201 -9.910490 -0.062952 0.000000 0.000000 -2.568968
    12 8.666410 0.037216 0.003086 0.000000 0.000000 2.584272
    13 1.355810 0.000530 -1.069623 0.000000 0.000000 0.000000
    14 0.321166 0.000008 -0.000001 0.000000 0.000000 0.000000
    15 0.863905 0.359274 0.381193 0.954006 -0.131193 -3.417086
    16 0.863905 0.348448 -0.360363 -0.791666 -3.173759 -0.032945
    17 1.069544 -0.585928 0.017010 -1.570796 -0.000002 -3.003841
    18 -3.904656 0.052788 -0.063186 0.000000 -3.141592 0.000000
    19 10.458576 -3.862070 -10.386017 0.498431 -2.062075 -1.150849
    20 1.257180 8.762585 -0.153713 -1.570562 0.002683 -1.566807
    21 -0.071921 -8.498736 -0.104134 0.419455 0.333456 -0.290541
    22 -0.488518 -2.755602 -0.228260 -0.994044 -0.049100 -0.303116
    23 0.039887 -1.479790 0.029854 -1.787404 0.000000 0.000001
    24 0.028786 -1.075731 -0.023109 -1.477381 0.000000 0.000000
    25 0.250027 -2.820665 -0.238396 -0.630435 -0.172479 -0.156417
    26 -0.049759 -1.680544 0.100479 -1.899210 0.000000 -0.000002
    27 -0.034142 -1.148312 0.084782 -1.711723 0.000000 0.000000
    28 0.957766 -2.746780 -0.090302 -0.319622 -0.278599 -0.051549
    29 -0.033420 -1.397129 -0.011257 -1.363671 0.000000 -0.000001
    30 -0.022360 -0.957436 0.018784 -1.378387 0.000000 0.000000
    31 -1.180681 -2.507217 -0.193859 -0.904725 0.015547 -0.451705
    32 -0.024967 -1.123934 0.017597 -1.855824 0.000000 0.000001
    33 -0.020057 -0.890968 0.010090 -1.671895 0.000000 0.000000
    34 0.583510 -1.197277 0.185379 0.048210 -0.366994 -0.814622
    35 1.535927 0.010246 0.005009 -0.002964 -0.012979 -0.998522
    36 1.100771 0.004527 -0.010679 -0.002520 0.016009 0.021008
    37 0.120153 -0.050270 -0.054489 0.307128 3.311263 1.416131
    38 0.447953 -2.798986 -0.200443 -0.653159 0.087866 0.178829
    39 -0.032909 -1.480204 0.004940 -1.833494 0.000000 0.000002
    40 -0.027022 -1.076920 -0.020210 -0.930273 0.000000 0.000000
    41 -0.249534 -2.846964 -0.174213 -0.609311 0.058647 0.154463
    42 0.043235 -1.683941 0.096012 -1.902768 0.002823 -0.000167
    43 0.031729 -1.160830 0.058838 -1.001327 0.000642 0.008372
    44 -0.963866 -2.785145 -0.085350 -0.589404 0.158501 0.157028
    45 0.028479 -1.403067 0.006271 -1.731640 0.000000 0.000000
    46 0.021413 -0.957781 0.020046 -0.780725 0.000000 0.000000
    47 1.164475 -2.543940 -0.170330 -0.674602 -0.089480 0.155889
    48 0.024032 -1.129042 0.017807 -1.450287 0.000000 0.000001
    49 0.014898 -0.883989 -0.019848 -1.242513 0.000000 0.000000
    50 -0.586770 -1.264477 0.200161 0.400179 -0.823031 -2.840439
    51 1.522835 0.058681 0.016848 0.001410 0.008985 1.232395
    52 1.117947 0.048424 -0.005766 -0.021300 -0.013465 1.063049
    53 -0.139399 -0.111698 0.014397 0.283596 0.044588 1.324529
    54 -1.393470 8.839177 -0.239433 1.580804 -0.005023 -1.566847
  time 17
    0 0.000201 1.628956 0.541027 0.000000 0.000000 0.000000
    1 -2.790908 -7.696388 -8.390561 -0.049301 2.436746 0.451386
    2 0.096946 -8.450417 -0.009364 0.144421 -0.046836 0.267837
    3 -2.955449 -2.412914 0.841363 3.098278 0.057471 -1.531951
    4 0.000000 0.000000 0.000000 0.000000 0.000000 0.000000
    5 2.268322 4.124472 -0.062954 0.000001 0.000000 1.344763
    6 3.295875 -0.000002 0.000000 0.000000 0.000000 0.498626
    7 4.887199 7.610152 -0.062954 3.141592 0.000000 -0.566391
    8 -8.677812 -0.055529 -0.003085 -3.141592 0.000000 -0.557319
    9 2.244080 -6.395751 -0.062954 0.000000 0.000000 -1.343454
    10 3.333881 0.000002 0.000000 0.000000 0.000000 -0.494541
    11 4.887201 -9.910490 -0.062952 0.000000 0.000000 -2.575200
    12 8.666410 0.037216 0.003086 0.000000 0.000000 2.584272
    13 1.355810 0.000530 -1.069623 0.000000 0.000000 0.000000
    14 0.321166 0.000008 -0.000001 0.000000 0.000000 0.000000
    15 0.863905 0.359274 0.381193 0.900535 -0.077722 -3.304913
    16 0.863905 0.348448 -0.360363 -0.790432 -3.160660 -0.019534
    17 1.069544 -0.585928 0.017010 -1.570796 -0.000002 -3.059929
    18 -3.889031 0.052788 -0.063186 0.000000 -3.141592 0.000000
    19 10.501546 -4.033950 -10.616493 0.518209 -2.072076 -1.171767
    20 1.257180 8.762585 -0.153713 -1.570562 0.002683 -1.566807
    21 -0.071921 -8.498736 -0.104134 0.415556 0.325918 -0.297636
    22 -0.488518 -2.755602 -0.228260 -0.994044 -0.049100 -0.303116
    23 0.039887 -1.479790 0.029854 -1.787404 0.000000 0.000001
    24 0.028786 -1.075731 -0.023109 -1.477381 0.000000 0.000000
    25 0.250027 -2.820665 -0.238396 -0.630435 -0.172479 -0.156417
    26 -0.049759 -1.680544 0.100479 -1.899210 0.000000 -0.000002
    27 -0.034142 -1.148312 0.084782 -1.711723 0.000000 0.000000
    28 0.957766 -2.746780 -0.090302 -0.319622 -0.278599 -0.051549
    29 -0.033420 -1.397129 -0.011257 -1.363671 0.000000 -0.000001
    30 -0.022360 -0.957436 0.018784 -1.378387 0.000000 0.000000
    31 -1.180681 -2.507217 -0.193859 -0.904725 0.015547 -0.451705
    32 -0.024967 -1.123934 0.017597 -1.855824 0.000000 0.000001
    33 -0.020057 -0.890968 0.010090 -1.671895 0.000000 0.000000
    34 0.583510 -1.197277 0.185379 0.048210 -0.366994 -0.814622
    35 1.535927 0.010246 0.005009 -0.002964 -0.012979 -0.998522
    36 1.100771 0.004527 -0.010679 -0.002520 0.016009 0.021008
    37 0.120153 -0.050270 -0.054489 0.307128 3.311263 1.416131
    38 0.447953 -2.798986 -0.200443 -0.653159 0.087866 0.178829
    39 -0.032909 -1.480204 0.004940 -1.833494 0.000000 0.000002
    40 -0.027022 -1.076920 -0.020210 -0.930273 0.000000 0.000000
    41 -0.249534 -2.846964 -0.174213 -0.609311 0.058647 0.154463
    42 0.043235 -1.683941 0.096012 -1.902768 0.002823 -0.000167
    43 0.031729 -1.160830 0.058838 -1.001327 0.000642 0.008372
    44 -0.963866 -2.785145 -0.085350 -0.589404 0.158501 0.157028
    45 0.028479 -1.403067 0.006271 -1.731640 0.000000 0.000000
    46 0.021413 -0.957781 0.020046 -0.780725 0.000000 0.000000
    47 1.164475 -2.543940 -0.170330 -0.674602 -0.089480 0.155889
    48 0.024032 -1.129042 0.017807 -1.450287 0.000000 0.000001
    49 0.014898 -0.883989 -0.019848 -1.242513 0.000000 0.000000
    50 -0.586770 -1.264477 0.200161 0.400179 -0.823031 -2.840439
    51 1.522835 0.058681 0.016848 0.001410 0.008985 1.232395
    52 1.117947 0.048424 -0.005766 -0.021300 -0.013465 1.063049
    53 -0.139399 -0.111698 0.014397 0.283596 0.044588 1.324529
    54 -1.393470 8.839177 -0.239433 1.580804 -0.005023 -1.566847
  time 18
    0 0.000201 1.628956 0.541027 0.000000 0.000000 0.000000
    1 -2.779189 -7.715919 -8.378842 -0.046717 2.442843 0.446415
    2 0.096946 -8.450417 -0.009364 0.158552 -0.038195 0.265188
    3 -2.955449 -2.412914 0.841363 3.098278 0.057471 -1.531951
    4 0.000000 0.000000 0.000000 0.000000 0.000000 0.000000
    5 2.268322 4.124472 -0.062954 0.000001 0.000000 1.349604
    6 3.295875 -0.000002 0.000000 0.000000 0.000000 0.493806
    7 4.887199 7.610152 -0.062954 3.141592 0.000000 -0.561550
    8 -8.677812 -0.055529 -0.003085 -3.141592 0.000000 -0.557319
    9 2.244080 -6.395751 -0.062954 0.000000 0.000000 -1.348295
    10 3.333881 0.000002 0.000000 0.000000 0.000000 -0.489728
    11 4.887201 -9.910490 -0.062952 0.000000 0.000000 -2.580041
    12 8.666410 0.037216 0.003086 0.000000 0.000000 2.584272
    13 1.355810 0.000530 -1.069623 0.000000 0.000000 0.000000
    14 0.321166 0.000008 -0.000001 0.000000 0.000000 0.000000
    15 0.863905 0.359274 0.381193 0.859117 -0.036304 -3.217908
    16 0.863905 0.348448 -0.360363 -0.789473 -3.150497 -0.009119
    17 1.069544 -0.585928 0.017010 -1.570796 -0.000002 -3.103433
    18 -3.877311 0.052788 -0.063186 0.000000 -3.141592 0.000000
    19 10.560142 -4.147235 -10.897752 0.552821 -2.085846 -1.212073
    20 1.257180 8.762585 -0.153713 -1.570562 0.002683 -1.566807
    21 -0.071921 -8.498736 -0.104134 0.411764 0.318451 -0.304587
    22 -0.488518 -2.755602 -0.228260 -0.994044 -0.049100 -0.303116
    23 0.039887 -1.479790 0.029854 -1.787404 0.000000 0.000001
    24 0.028786 -1.075731 -0.023109 -1.477381 0.000000 0.000000
    25 0.250027 -2.820665 -0.238396 -0.630435 -0.172479 -0.156417
    26 -0.049759 -1.680544 0.100479 -1.899210 0.000000 -0.000002
    27 -0.034142 -1.148312 0.084782 -1.711723 0.000000 0.000000
    28 0.957766 -2.746780 -0.090302 -0.319622 -0.278599 -0.051549
    29 -0.033420 -1.397129 -0.011257 -1.363671 0.000000 -0.000001
    30 -0.022360 -0.957436 0.018784 -1.378387 0.000000 0.000000
    31 -1.180681 -2.507217 -0.193859 -0.904725 0.015547 -0.451705
    32 -0.024967 -1.123934 0.017597 -1.855824 0.000000 0.000001
    33 -0.020057 -0.890968 0.010090 -1.671895 0.000000 0.000000
    34 0.583510 -1.197277 0.185379 0.048210 -0.366994 -0.814622
    35 1.535927 0.010246 0.005009 -0.002964 -0.012979 -0.998522
    36 1.100771 0.004527 -0.010679 -0.002520 0.016009 0.021008
    37 0.120153 -0.050270 -0.054489 0.307128 3.311263 1.416131
    38 0.447953 -2.798986 -0.200443 -0.653159 0.087866 0.178829
    39 -0.032909 -1.480204 0.004940 -1.833494 0.000000 0.000002
    40 -0.027022 -1.076920 -0.020210 -0.930273 0.000000 0.000000
    41 -0.249534 -2.846964 -0.174213 -0.609311 0.058647 0.154463
    42 0.043235 -1.683941 0.096012 -1.902768 0.002823 -0.000167
    43 0.031729 -1.160830 0.058838 -1.001327 0.000642 0.008372
    44 -0.963866 -2.785145 -0.085350 -0.589404 0.158501 0.157028
    45 0.028479 -1.403067 0.006271 -1.731640 0.000000 0.000000
    46 0.021413 -0.957781 0.020046 -0.780725 0.000000 0.000000
    47 1.164475 -2.543940 -0.170330 -0.674602 -0.089480 0.155889
    48 0.024032 -1.129042 0.017807 -1.450287 0.000000 0.000001
    49 0.014898 -0.883989 -0.019848 -1.242513 0.000000 0.000000
    50 -0.586770 -1.264477 0.200161 0.400179 -0.823031 -2.840439
    51 1.522835 0.058681 0.016848 0.001410 0.008985 1.232395
    52 1.117947 0.048424 -0.005766 -0.021300 -0.013465 1.063049
    53 -0.139399 -0.111698 0.014397 0.283596 0.044588 1.324529
    54 -1.393470 8.839177 -0.239433 1.580804 -0.005023 -1.566847
  time 19
    0 0.000201 1.628956 0.541027 0.000000 0.000000 0.000000
    1 -2.740125 -7.766702 -8.351497 -0.043212 2.450990 0.439768
    2 0.096946 -8.450417 -0.009364 0.172980 -0.029351 0.262899
    3 -2.955449 -2.412914 0.841363 3.098278 0.057471 -1.531951
    4 0.000000 0.000000 0.000000 0.000000 0.000000 0.000000
    5 2.268322 4.124472 -0.062954 0.000001 0.000000 1.352732
    6 3.295875 -0.000002 0.000000 0.000000 0.000000 0.490663
    7 4.887199 7.610152 -0.062954 3.141592 0.000000 -0.558422
    8 -8.677812 -0.055529 -0.003085 -3.141592 0.000000 -0.557319
    9 2.244080 -6.395751 -0.062954 0.000000 0.000000 -1.351423
    10 3.333881 0.000002 0.000000 0.000000 0.000000 -0.486581
    11 4.887201 -9.910490 -0.062952 0.000000 0.000000 -2.583169
    12 8.666410 0.037216 0.003086 0.000000 0.000000 2.584272
    13 1.355810 0.000530 -1.069623 0.000000 0.000000 0.000000
    14 0.321166 0.000008 -0.000001 0.000000 0.000000 0.000000
    15 0.863905 0.359274 0.381193 0.832309 -0.009496 -3.161582
    16 0.863905 0.348448 -0.360363 -0.788850 -3.143929 -0.002384
    17 1.069544 -0.585928 0.017010 -1.570796 -0.000002 -3.131597
    18 -3.869499 0.052788 -0.063186 0.000000 -3.141592 0.000000
    19 10.630456 -4.174580 -11.179010 0.589905 -2.101310 -1.256009
    20 1.257180 8.762585 -0.153713 -1.570562 0.002683 -1.566807
    21 -0.071921 -8.498736 -0.104134 0.408094 0.311105 -0.311371
    22 -0.488518 -2.755602 -0.228260 -0.994044 -0.049100 -0.303116
    23 0.039887 -1.479790 0.029854 -1.787404 0.000000 0.000001
    24 0.028786 -1.075731 -0.023109 -1.477381 0.000000 0.000000
    25 0.250027 -2.820665 -0.238396 -0.630435 -0.172479 -0.156417
    26 -0.049759 -1.680544 0.100479 -1.899210 0.000000 -0.000002
    27 -0.034142 -1.148312 0.084782 -1.711723 0.000000 0.000000
    28 0.957766 -2.746780 -0.090302 -0.319622 -0.278599 -0.051549
    29 -0.033420 -1.397129 -0.011257 -1.363671 0.000000 -0.000001
    30 -0.022360 -0.957436 0.018784 -1.378387 0.000000 0.000000
    31 -1.180681 -2.507217 -0.193859 -0.904725 0.015547 -0.451705
    32 -0.024967 -1.123934 0.017597 -1.855824 0.000000 0.000001
    33 -0.020057 -0.890968 0.010090 -1.671895 0.000000 0.000000
    34 0.583510 -1.197277 0.185379 0.048210 -0.366994 -0.814622
    35 1.535927 0.010246 0.005009 -0.002964 -0.012979 -0.998522
    36 1.100771 0.004527 -0.010679 -0.002520 0.016009 0.021008
    37 0.120153 -0.050270 -0.054489 0.307128 3.311263 1.416131
    38 0.447953 -2.798986 -0.200443 -0.653159 0.087866 0.178829
    39 -0.032909 -1.480204 0.004940 -1.833494 0.000000 0.000002
    40 -0.027022 -1.076920 -0.020210 -0.930273 0.000000 0.000000
    41 -0.249534 -2.846964 -0.174213 -0.609311 0.058647 0.154463
    42 0.043235 -1.683941 0.096012 -1.902768 0.002823 -0.000167
    43 0.031729 -1.160830 0.058838 -1.001327 0.000642 0.008372
    44 -0.963866 -2.785145 -0.085350 -0.589404 0.158501 0.157028
    45 0.028479 -1.403067 0.006271 -1.731640 0.000000 0.000000
    46 0.021413 -0.957781 0.020046 -0.780725 0.000000 0.000000
    47 1.164475 -2.543940 -0.170330 -0.674602 -0.089480 0.155889
    48 0.024032 -1.129042 0.017807 -1.450287 0.000000 0.000001
    49 0.014898 -0.883989 -0.019848 -1.242513 0.000000 0.000000
    50 -0.586770 -1.264477 0.200161 0.400179 -0.823031 -2.840439
    51 1.522835 0.058681 0.016848 0.001410 0.008985 1.232395
    52 1.117947 0.048424 -0.005766 -0.021300 -0.013465 1.063049
    53 -0.139399 -0.111698 0.014397 0.283596 0.044588 1.324529
    54 -1.393470 8.839177 -0.239433 1.580804 -0.005023 -1.566847
  time 20
    0 0.000201 1.628956 0.541027 0.000000 0.000000 0.000000
    1 -2.689342 -7.840923 -8.312434 -0.041447 2.455038 0.436454
    2 0.096946 -8.450417 -0.009364 0.187815 -0.020242 0.261029
    3 -2.955449 -2.412914 0.841363 3.098278 0.057471 -1.531951
    4 0.000000 0.000000 0.000000 0.000000 0.000000 0.000000
    5 2.268322 4.124472 -0.062954 0.000001 0.000000 1.353835
    6 3.295875 -0.000002 0.000000 0.000000 0.000000 0.489571
    7 4.887199 7.610152 -0.062954 3.141592 0.000000 -0.557319
    8 -8.677812 -0.055529 -0.003085 -3.141592 0.000000 -0.557319
    9 2.244080 -6.395751 -0.062954 0.000000 0.000000 -1.352526
    10 3.333881 0.000002 0.000000 0.000000 0.000000 -0.485488
    11 4.887201 -9.910490 -0.062952 0.000000 0.000000 -2.584272
    12 8.666410 0.037216 0.003086 0.000000 0.000000 2.584272
    13 1.355810 0.000530 -1.069623 0.000000 0.000000 0.000000
    14 0.321166 0.000008 -0.000001 0.000000 0.000000 0.000000
    15 0.863905 0.359274 0.381193 0.822813 0.000000 -3.141592
    16 0.863905 0.348448 -0.360363 -0.788634 -3.141592 0.000001
    17 1.069544 -0.585928 0.017010 -1.570796 -0.000002 -3.141592
    18 -3.865592 0.052788 -0.063186 0.000000 -3.141592 0.000000
    19 10.704677 -4.076920 -11.409486 0.618431 -2.115542 -1.289725
    20 1.257180 8.762585 -0.153713 -1.570562 0.002683 -1.566807
    21 -0.071921 -8.498736 -0.104134 0.404579 0.303914 -0.317926
    22 -0.488518 -2.755602 -0.228260 -0.994044 -0.049100 -0.303116
    23 0.039887 -1.479790 0.029854 -1.787404 0.000000 0.000001
    24 0.028786 -1.075731 -0.023109 -1.477381 0.000000 0.000000
    25 0.250027 -2.820665 -0.238396 -0.630435 -0.172479 -0.156417
    26 -0.049759 -1.680544 0.100479 -1.899210 0.000000 -0.000002
    27 -0.034142 -1.148312 0.084782 -1.711723 0.000000 0.000000
    28 0.957766 -2.746780 -0.090302 -0.319622 -0.278599 -0.051549
    29 -0.033420 -1.397129 -0.011257 -1.363671 0.000000 -0.000001
    30 -0.022360 -0.957436 0.018784 -1.378387 0.000000 0.000000
    31 -1.180681 -2.507217 -0.193859 -0.904725 0.015547 -0.451705
    32 -0.024967 -1.123934 0.017597 -1.855824 0.000000 0.000001
    33 -0.020057 -0.890968 0.010090 -1.671895 0.000000 0.000000
    34 0.583510 -1.197277 0.185379 0.048210 -0.366994 -0.814622
    35 1.535927 0.010246 0.005009 -0.002964 -0.012979 -0.998522
    36 1.100771 0.004527 -0.010679 -0.002520 0.016009 0.021008
    37 0.120153 -0.050270 -0.054489 0.307128 3.311263 1.416131
    38 0.447953 -2.798986 -0.200443 -0.653159 0.087866 0.178829
    39 -0.032909 -1.480204 0.004940 -1.833494 0.000000 0.000002
    40 -0.027022 -1.076920 -0.020210 -0.930273 0.000000 0.000000
    41 -0.249534 -2.846964 -0.174213 -0.609311 0.058647 0.154463
    42 0.043235 -1.683941 0.096012 -1.902768 0.002823 -0.000167
    43 0.031729 -1.160830 0.058838 -1.001327 0.000642 0.008372
    44 -0.963866 -2.785145 -0.085350 -0.589404 0.158501 0.157028
    45 0.028479 -1.403067 0.006271 -1.731640 0.000000 0.000000
    46 0.021413 -0.957781 0.020046 -0.780725 0.000000 0.000000
    47 1.164475 -2.543940 -0.170330 -0.674602 -0.089480 0.155889
    48 0.024032 -1.129042 0.017807 -1.450287 0.000000 0.000001
    49 0.014898 -0.883989 -0.019848 -1.242513 0.000000 0.000000
    50 -0.586770 -1.264477 0.200161 0.400179 -0.823031 -2.840439
    51 1.522835 0.058681 0.016848 0.001410 0.008985 1.232395
    52 1.117947 0.048424 -0.005766 -0.021300 -0.013465 1.063049
    53 -0.139399 -0.111698 0.014397 0.283596 0.044588 1.324529
    54 -1.393470 8.839177 -0.239433 1.580804 -0.005023 -1.566847
end
