version 1
nodes
  0 "Bone01" -1
  1 "Bone_Lefthand" 0
  2 "Bone02" 1
  3 "Bone03" 2
  4 "Bone52" 3
  5 "Bone25" 3
  6 "Bone50" 3
  7 "Bone48" 3
  8 "Bone 04" 1
  9 "Bone13" 8
  10 "Bone14" 9
  11 "Bone15" 10
  12 "Bone17" 8
  13 "Bone18" 12
  14 "Bone19" 13
  15 "Bone21" 8
  16 "Bone22" 15
  17 "Bone23" 16
  18 "Bone05" 8
  19 "Bone06" 18
  20 "Bone07" 19
  21 "Bone09" 8
  22 "Bone10" 21
  23 "Bone11" 22
  24 "Bone04" -1
  25 "Bone_Righthand" 24
  26 "Bone26" 25
  27 "Bone35" 26
  28 "Bone36" 27
  29 "Bone37" 28
  30 "Bone31" 26
  31 "Bone32" 30
  32 "Bone33" 31
  33 "Bone39" 26
  34 "Bone40" 33
  35 "Bone41" 34
  36 "Bone43" 26
  37 "Bone44" 36
  38 "Bone45" 37
  39 "Bone27" 26
  40 "Bone28" 39
  41 "Bone29" 40
end
skeleton
  time 0
    0 12.231693 -3.268134 -2.279816 -0.356597 -2.583028 -1.063738
    1 0.000000 -8.563282 -0.000001 -0.615913 -0.125220 -0.169570
    2 -0.222119 -3.429973 0.817995 -1.247038 1.437608 -1.233845
    3 0.000000 2.338128 0.839328 0.000000 0.000000 0.000000
    4 -0.000001 -5.493103 2.360612 0.000000 0.000000 0.000000
    5 0.000000 -3.357312 1.408874 0.000000 0.000000 0.000000
    6 -0.000001 -6.122600 1.221523 0.000000 0.000000 0.000000
    7 0.000000 -2.229289 1.941595 0.000000 0.000000 0.000000
    8 -0.003479 -0.404829 0.000000 0.000000 0.000000 0.000000
    9 -0.519310 -2.501155 -0.278957 -1.003564 0.000000 -0.122173
    10 -0.010598 -1.208185 0.000000 -1.148417 0.000000 0.000000
    11 0.000000 -0.763066 0.000000 -0.841249 0.000000 0.000000
    12 0.105980 -2.607135 -0.278957 -0.795871 0.000000 -0.148353
    13 0.000000 -1.250579 0.000000 -1.296776 0.000000 0.000000
    14 0.000000 -0.932634 0.000000 -0.886645 0.000000 0.000000
    15 0.763063 -2.490556 -0.278957 -0.346932 0.039309 0.239193
    16 -0.012323 -1.280918 0.000000 -0.322892 0.000000 0.000000
    17 -0.001696 -0.749371 0.000000 -0.593412 0.000000 0.000000
    18 0.354566 0.016267 0.318133 0.834772 -0.606745 -1.212439
    19 1.887166 0.012878 0.000000 -0.305433 0.000000 -0.401426
    20 1.001874 -0.000270 0.000000 0.000000 0.000000 -0.488692
    21 -1.123360 -2.195093 -0.278957 -0.933751 0.000000 -0.087266
    22 0.010772 -0.963792 0.000000 -0.610865 0.000000 0.000000
    23 -0.010412 -0.631916 0.000000 -1.370074 0.000000 0.000000
    24 -1.796442 -3.595574 -8.307190 -0.973546 3.098125 -0.965598
    25 0.089930 -8.543161 -0.000001 0.082474 -0.537511 0.530890
    26 0.000000 -0.359712 0.000000 0.000000 0.000000 0.000000
    27 -0.170479 -2.636147 -0.277657 -1.692969 0.000000 0.000000
    28 0.010599 -1.261176 0.000002 -0.253073 0.000000 0.000000
    29 -0.000001 -0.943233 -0.000002 -0.532326 0.000000 0.000000
    30 -0.827563 -2.508972 -0.277657 -1.396263 0.000000 0.000000
    31 0.000000 -1.292971 0.000001 -0.445059 0.000000 0.000000
    32 0.000000 -0.752465 0.000000 -0.445059 0.000000 0.000000
    33 0.444213 -2.561959 -0.277657 -1.727307 -0.046226 -0.024599
    34 0.021022 -1.208186 0.000001 -0.427606 0.000000 0.000000
    35 0.010597 -0.741867 -0.000001 -0.453786 0.000000 0.000000
    36 1.047445 -2.222820 -0.277657 -1.508123 -0.078971 -0.038609
    37 0.000000 -0.996224 -0.000002 -0.863938 0.000000 0.000000
    38 -0.000001 -0.614690 0.000000 -0.523599 0.000000 0.000000
    39 -0.308253 -0.007813 0.307166 -0.179973 -0.326092 -2.616278
    40 1.978376 0.019542 -0.000001 -0.084829 -0.033819 0.254889
    41 0.982425 0.003186 0.000001 0.000000 0.000000 0.326398
  time 1
    0 12.966090 -3.611895 -0.549294 -0.281057 -2.524554 -1.149979
    1 0.000000 -8.563282 -0.000001 -0.613266 -0.164000 -0.287992
    2 -0.222119 -3.429973 0.817995 -1.247038 1.437608 -1.233845
    3 0.000000 2.338128 0.839328 0.000000 0.000000 0.000000
    4 -0.000001 -5.493103 2.360612 0.000000 0.000000 0.000000
    5 0.000000 -3.357312 1.408874 0.000000 0.000000 0.000000
    6 -0.000001 -6.122600 1.221523 0.000000 0.000000 0.000000
    7 0.000000 -2.229289 1.941595 0.000000 0.000000 0.000000
    8 -0.003479 -0.404829 0.000000 0.000000 0.000000 0.000000
    9 -0.519310 -2.501155 -0.278957 -1.003564 0.000000 -0.122173
    10 -0.010598 -1.208185 0.000000 -1.148417 0.000000 0.000000
    11 0.000000 -0.763066 0.000000 -0.841249 0.000000 0.000000
    12 0.105980 -2.607135 -0.278957 -0.795871 0.000000 -0.148353
    13 0.000000 -1.250579 0.000000 -1.296776 0.000000 0.000000
    14 0.000000 -0.932634 0.000000 -0.886645 0.000000 0.000000
    15 0.763063 -2.490556 -0.278957 -0.346932 0.039309 0.239193
    16 -0.012323 -1.280918 0.000000 -0.322892 0.000000 0.000000
    17 -0.001696 -0.749371 0.000000 -0.593412 0.000000 0.000000
    18 0.354566 0.016267 0.318133 0.834772 -0.606745 -1.212439
    19 1.887166 0.012878 0.000000 -0.305433 0.000000 -0.401426
    20 1.001874 -0.000270 0.000000 0.000000 0.000000 -0.488692
    21 -1.123360 -2.195093 -0.278957 -0.933751 0.000000 -0.087266
    22 0.010772 -0.963792 0.000000 -0.610865 0.000000 0.000000
    23 -0.010412 -0.631916 0.000000 -1.370074 0.000000 0.000000
    24 -2.827723 -3.786987 -8.275939 -1.032227 3.013947 -0.958127
    25 0.089930 -8.543161 -0.000001 0.081758 -0.547818 0.503862
    26 0.000000 -0.359712 0.000000 0.000000 0.000000 0.000000
    27 -0.170479 -2.636147 -0.277657 -1.627464 0.000000 0.000000
    28 0.010599 -1.261176 0.000002 -0.225937 0.000000 0.000000
    29 -0.000001 -0.943233 -0.000002 -0.523846 0.000000 0.000000
    30 -0.827563 -2.508972 -0.277657 -1.330754 0.000000 0.000000
    31 0.000000 -1.292971 0.000001 -0.417939 0.000000 0.000000
    32 0.000000 -0.752465 0.000000 -0.436596 0.000000 0.000000
    33 0.444213 -2.561959 -0.277657 -1.661809 -0.046226 -0.024599
    34 0.021022 -1.208186 0.000001 -0.400458 0.000000 0.000000
    35 0.010597 -0.741867 -0.000001 -0.445288 0.000000 0.000000
    36 1.047445 -2.222820 -0.277657 -1.442614 -0.078971 -0.038609
    37 0.000000 -0.996224 -0.000002 -0.836792 0.000000 0.000000
    38 -0.000001 -0.614690 0.000000 -0.515114 0.000000 0.000000
    39 -0.308253 -0.007813 0.307166 -0.177504 -0.325972 -2.615425
    40 1.978376 0.019542 -0.000001 -0.084302 -0.035137 0.239325
    41 0.982425 0.003186 0.000001 0.000000 0.000000 0.295699
  time 2
    0 13.614547 -3.885341 0.896062 -0.196319 -2.471544 -1.253850
    1 0.000000 -8.563282 -0.000001 -0.613102 -0.212491 -0.421816
    2 -0.222119 -3.429973 0.817995 -1.247038 1.437608 -1.233845
    3 0.000000 2.338128 0.839328 0.000000 0.000000 0.000000
    4 -0.000001 -5.493103 2.360612 0.000000 0.000000 0.000000
    5 0.000000 -3.357312 1.408874 0.000000 0.000000 0.000000
    6 -0.000001 -6.122600 1.221523 0.000000 0.000000 0.000000
    7 0.000000 -2.229289 1.941595 0.000000 0.000000 0.000000
    8 -0.003479 -0.404829 0.000000 0.000000 0.000000 0.000000
    9 -0.519310 -2.501155 -0.278957 -1.003564 0.000000 -0.122173
    10 -0.010598 -1.208185 0.000000 -1.148417 0.000000 0.000000
    11 0.000000 -0.763066 0.000000 -0.841249 0.000000 0.000000
    12 0.105980 -2.607135 -0.278957 -0.795871 0.000000 -0.148353
    13 0.000000 -1.250579 0.000000 -1.296776 0.000000 0.000000
    14 0.000000 -0.932634 0.000000 -0.886645 0.000000 0.000000
    15 0.763063 -2.490556 -0.278957 -0.346932 0.039309 0.239193
    16 -0.012323 -1.280918 0.000000 -0.322892 0.000000 0.000000
    17 -0.001696 -0.749371 0.000000 -0.593412 0.000000 0.000000
    18 0.354566 0.016267 0.318133 0.834772 -0.606745 -1.212439
    19 1.887166 0.012878 0.000000 -0.305433 0.000000 -0.401426
    20 1.001874 -0.000270 0.000000 0.000000 0.000000 -0.488692
    21 -1.123360 -2.195093 -0.278957 -0.933751 0.000000 -0.087266
    22 0.010772 -0.963792 0.000000 -0.610865 0.000000 0.000000
    23 -0.010412 -0.631916 0.000000 -1.370074 0.000000 0.000000
    24 -3.773065 -3.966680 -8.252501 -1.092572 2.928160 -0.953871
    25 0.089930 -8.543161 -0.000001 0.080354 -0.559044 0.474560
    26 0.000000 -0.359712 0.000000 0.000000 0.000000 0.000000
    27 -0.170479 -2.636147 -0.277657 -1.556595 0.000000 0.000000
    28 0.010599 -1.261176 0.000002 -0.196578 0.000000 0.000000
    29 -0.000001 -0.943233 -0.000002 -0.514648 0.000000 0.000000
    30 -0.827563 -2.508972 -0.277657 -1.259884 0.000000 0.000000
    31 0.000000 -1.292971 0.000001 -0.388583 0.000000 0.000000
    32 0.000000 -0.752465 0.000000 -0.427393 0.000000 0.000000
    33 0.444213 -2.561959 -0.277657 -1.590925 -0.046226 -0.024599
    34 0.021022 -1.208186 0.000001 -0.371104 0.000000 0.000000
    35 0.010597 -0.741867 -0.000001 -0.436131 0.000000 0.000000
    36 1.047445 -2.222820 -0.277657 -1.371768 -0.078971 -0.038609
    37 0.000000 -0.996224 -0.000002 -0.807448 0.000000 0.000000
    38 -0.000001 -0.614690 0.000000 -0.505922 0.000000 0.000000
    39 -0.308253 -0.007813 0.307166 -0.174844 -0.325852 -2.614497
    40 1.978376 0.019542 -0.000001 -0.083690 -0.036551 0.222473
    41 0.982425 0.003186 0.000001 0.000000 0.000000 0.262469
  time 3
    0 14.184877 -4.088472 2.044535 -0.101162 -2.426139 -1.370945
    1 0.000000 -8.563282 -0.000001 -0.609605 -0.266660 -0.565627
    2 -0.222119 -3.429973 0.817995 -1.247038 1.437608 -1.233845
    3 0.000000 2.338128 0.839328 0.000000 0.000000 0.000000
    4 -0.000001 -5.493103 2.360612 0.000000 0.000000 0.000000
    5 0.000000 -3.357312 1.408874 0.000000 0.000000 0.000000
    6 -0.000001 -6.122600 1.221523 0.000000 0.000000 0.000000
    7 0.000000 -2.229289 1.941595 0.000000 0.000000 0.000000
    8 -0.003479 -0.404829 0.000000 0.000000 0.000000 0.000000
    9 -0.519310 -2.501155 -0.278957 -1.003564 0.000000 -0.122173
    10 -0.010598 -1.208185 0.000000 -1.148417 0.000000 0.000000
    11 0.000000 -0.763066 0.000000 -0.841249 0.000000 0.000000
    12 0.105980 -2.607135 -0.278957 -0.795871 0.000000 -0.148353
    13 0.000000 -1.250579 0.000000 -1.296776 0.000000 0.000000
    14 0.000000 -0.932634 0.000000 -0.886645 0.000000 0.000000
    15 0.763063 -2.490556 -0.278957 -0.346932 0.039309 0.239193
    16 -0.012323 -1.280918 0.000000 -0.322892 0.000000 0.000000
    17 -0.001696 -0.749371 0.000000 -0.593412 0.000000 0.000000
    18 0.354566 0.016267 0.318133 0.834772 -0.606745 -1.212439
    19 1.887166 0.012878 0.000000 -0.305433 0.000000 -0.401426
    20 1.001874 -0.000270 0.000000 0.000000 0.000000 -0.488692
    21 -1.123360 -2.195093 -0.278957 -0.933751 0.000000 -0.087266
    22 0.010772 -0.963792 0.000000 -0.610865 0.000000 0.000000
    23 -0.010412 -0.631916 0.000000 -1.370074 0.000000 0.000000
    24 -4.648091 -4.126841 -8.236875 -1.155110 2.841408 -0.953682
    25 0.089930 -8.543161 -0.000001 0.078552 -0.571040 0.443323
    26 0.000000 -0.359712 0.000000 0.000000 0.000000 0.000000
    27 -0.170479 -2.636147 -0.277657 -1.481345 0.000000 0.000000
    28 0.010599 -1.261176 0.000002 -0.165423 0.000000 0.000000
    29 -0.000001 -0.943233 -0.000002 -0.504875 0.000000 0.000000
    30 -0.827563 -2.508972 -0.277657 -1.184627 0.000000 0.000000
    31 0.000000 -1.292971 0.000001 -0.357402 0.000000 0.000000
    32 0.000000 -0.752465 0.000000 -0.417646 0.000000 0.000000
    33 0.444213 -2.561959 -0.277657 -1.515714 -0.046226 -0.024599
    34 0.021022 -1.208186 0.000001 -0.339972 0.000000 0.000000
    35 0.010597 -0.741867 -0.000001 -0.426351 0.000000 0.000000
    36 1.047445 -2.222820 -0.277657 -1.296497 -0.078971 -0.038609
    37 0.000000 -0.996224 -0.000002 -0.776284 0.000000 0.000000
    38 -0.000001 -0.614690 0.000000 -0.496154 0.000000 0.000000
    39 -0.308253 -0.007813 0.307166 -0.172003 -0.325708 -2.613517
    40 1.978376 0.019542 -0.000001 -0.083019 -0.038038 0.204590
    41 0.982425 0.003186 0.000001 0.000000 0.000000 0.227228
  time 4
    0 14.673173 -4.221288 2.911749 0.004089 -2.389917 -1.496090
    1 0.000000 -8.563282 -0.000001 -0.598459 -0.321243 -0.714188
    2 -0.222119 -3.429973 0.817995 -1.247038 1.437608 -1.233845
    3 0.000000 2.338128 0.839328 0.000000 0.000000 0.000000
    4 -0.000001 -5.493103 2.360612 0.000000 0.000000 0.000000
    5 0.000000 -3.357312 1.408874 0.000000 0.000000 0.000000
    6 -0.000001 -6.122600 1.221523 0.000000 0.000000 0.000000
    7 0.000000 -2.229289 1.941595 0.000000 0.000000 0.000000
    8 -0.003479 -0.404829 0.000000 0.000000 0.000000 0.000000
    9 -0.519310 -2.501155 -0.278957 -1.003564 0.000000 -0.122173
    10 -0.010598 -1.208185 0.000000 -1.148417 0.000000 0.000000
    11 0.000000 -0.763066 0.000000 -0.841249 0.000000 0.000000
    12 0.105980 -2.607135 -0.278957 -0.795871 0.000000 -0.148353
    13 0.000000 -1.250579 0.000000 -1.296776 0.000000 0.000000
    14 0.000000 -0.932634 0.000000 -0.886645 0.000000 0.000000
    15 0.763063 -2.490556 -0.278957 -0.346932 0.039309 0.239193
    16 -0.012323 -1.280918 0.000000 -0.322892 0.000000 0.000000
    17 -0.001696 -0.749371 0.000000 -0.593412 0.000000 0.000000
    18 0.354566 0.016267 0.318133 0.834772 -0.606745 -1.212439
    19 1.887166 0.012878 0.000000 -0.305433 0.000000 -0.401426
    20 1.001874 -0.000270 0.000000 0.000000 0.000000 -0.488692
    21 -1.123360 -2.195093 -0.278957 -0.933751 0.000000 -0.087266
    22 0.010772 -0.963792 0.000000 -0.610865 0.000000 0.000000
    23 -0.010412 -0.631916 0.000000 -1.370074 0.000000 0.000000
    24 -5.441084 -4.279189 -8.229063 -1.220521 2.754092 -0.958505
    25 0.089930 -8.543161 -0.000001 0.076551 -0.583681 0.410438
    26 0.000000 -0.359712 0.000000 0.000000 0.000000 0.000000
    27 -0.170479 -2.636147 -0.277657 -1.402700 0.000000 0.000000
    28 0.010599 -1.261176 0.000002 -0.132819 0.000000 0.000000
    29 -0.000001 -0.943233 -0.000002 -0.494671 0.000000 0.000000
    30 -0.827563 -2.508972 -0.277657 -1.105958 0.000000 0.000000
    31 0.000000 -1.292971 0.000001 -0.324807 0.000000 0.000000
    32 0.000000 -0.752465 0.000000 -0.407442 0.000000 0.000000
    33 0.444213 -2.561959 -0.277657 -1.437006 -0.046226 -0.024599
    34 0.021022 -1.208186 0.000001 -0.307354 0.000000 0.000000
    35 0.010597 -0.741867 -0.000001 -0.416158 0.000000 0.000000
    36 1.047445 -2.222820 -0.277657 -1.217849 -0.078971 -0.038609
    37 0.000000 -0.996224 -0.000002 -0.743696 0.000000 0.000000
    38 -0.000001 -0.614690 0.000000 -0.485943 0.000000 0.000000
    39 -0.308253 -0.007813 0.307166 -0.169043 -0.325565 -2.612486
    40 1.978376 0.019542 -0.000001 -0.082288 -0.039596 0.185849
    41 0.982425 0.003186 0.000001 0.000000 0.000000 0.190368
  time 5
    0 15.083342 -4.287697 3.485985 -3.023853 -0.778044 -4.764120
    1 0.000000 -8.563282 -0.000001 -0.577378 -0.370282 -0.862050
    2 -0.222119 -3.429973 0.817995 -1.247038 1.437608 -1.233845
    3 0.000000 2.338128 0.839328 0.000000 0.000000 0.000000
    4 -0.000001 -5.493103 2.360612 0.000000 0.000000 0.000000
    5 0.000000 -3.357312 1.408874 0.000000 0.000000 0.000000
    6 -0.000001 -6.122600 1.221523 0.000000 0.000000 0.000000
    7 0.000000 -2.229289 1.941595 0.000000 0.000000 0.000000
    8 -0.003479 -0.404829 0.000000 0.000000 0.000000 0.000000
    9 -0.519310 -2.501155 -0.278957 -1.003564 0.000000 -0.122173
    10 -0.010598 -1.208185 0.000000 -1.148417 0.000000 0.000000
    11 0.000000 -0.763066 0.000000 -0.841249 0.000000 0.000000
    12 0.105980 -2.607135 -0.278957 -0.795871 0.000000 -0.148353
    13 0.000000 -1.250579 0.000000 -1.296776 0.000000 0.000000
    14 0.000000 -0.932634 0.000000 -0.886645 0.000000 0.000000
    15 0.763063 -2.490556 -0.278957 -0.346932 0.039309 0.239193
    16 -0.012323 -1.280918 0.000000 -0.322892 0.000000 0.000000
    17 -0.001696 -0.749371 0.000000 -0.593412 0.000000 0.000000
    18 0.354566 0.016267 0.318133 0.834772 -0.606745 -1.212439
    19 1.887166 0.012878 0.000000 -0.305433 0.000000 -0.401426
    20 1.001874 -0.000270 0.000000 0.000000 0.000000 -0.488692
    21 -1.123360 -2.195093 -0.278957 -0.933751 0.000000 -0.087266
    22 0.010772 -0.963792 0.000000 -0.610865 0.000000 0.000000
    23 -0.010412 -0.631916 0.000000 -1.370074 0.000000 0.000000
    24 -6.155950 -4.412006 -8.225156 -1.289789 2.666534 -0.969098
    25 0.089930 -8.543161 -0.000001 0.074603 -0.596844 0.376228
    26 0.000000 -0.359712 0.000000 0.000000 0.000000 0.000000
    27 -0.170479 -2.636147 -0.277657 -1.321495 0.000000 0.000000
    28 0.010599 -1.261176 0.000002 -0.099192 0.000000 0.000000
    29 -0.000001 -0.943233 -0.000002 -0.484159 0.000000 0.000000
    30 -0.827563 -2.508972 -0.277657 -1.024803 0.000000 0.000000
    31 0.000000 -1.292971 0.000001 -0.291210 0.000000 0.000000
    32 0.000000 -0.752465 0.000000 -0.396911 0.000000 0.000000
    33 0.444213 -2.561959 -0.277657 -1.355812 -0.046226 -0.024599
    34 0.021022 -1.208186 0.000001 -0.273746 0.000000 0.000000
    35 0.010597 -0.741867 -0.000001 -0.405625 0.000000 0.000000
    36 1.047445 -2.222820 -0.277657 -1.136648 -0.078971 -0.038609
    37 0.000000 -0.996224 -0.000002 -0.710065 0.000000 0.000000
    38 -0.000001 -0.614690 0.000000 -0.475433 0.000000 0.000000
    39 -0.308253 -0.007813 0.307166 -0.165999 -0.325421 -2.611417
    40 1.978376 0.019542 -0.000001 -0.081509 -0.041178 0.166549
    41 0.982425 0.003186 0.000001 0.000000 0.000000 0.152308
  time 6
    0 15.407571 -4.279884 3.775056 -2.904845 -0.794832 -4.884281
    1 0.000000 -8.563282 -0.000001 -0.546622 -0.407806 -1.002753
    2 -0.222119 -3.429973 0.817995 -1.247038 1.437608 -1.233845
    3 0.000000 2.338128 0.839328 0.000000 0.000000 0.000000
    4 -0.000001 -5.493103 2.360612 0.000000 0.000000 0.000000
    5 0.000000 -3.357312 1.408874 0.000000 0.000000 0.000000
    6 -0.000001 -6.122600 1.221523 0.000000 0.000000 0.000000
    7 0.000000 -2.229289 1.941595 0.000000 0.000000 0.000000
    8 -0.003479 -0.404829 0.000000 0.000000 0.000000 0.000000
    9 -0.519310 -2.501155 -0.278957 -1.003564 0.000000 -0.122173
    10 -0.010598 -1.208185 0.000000 -1.148417 0.000000 0.000000
    11 0.000000 -0.763066 0.000000 -0.841249 0.000000 0.000000
    12 0.105980 -2.607135 -0.278957 -0.795871 0.000000 -0.148353
    13 0.000000 -1.250579 0.000000 -1.296776 0.000000 0.000000
    14 0.000000 -0.932634 0.000000 -0.886645 0.000000 0.000000
    15 0.763063 -2.490556 -0.278957 -0.346932 0.039309 0.239193
    16 -0.012323 -1.280918 0.000000 -0.322892 0.000000 0.000000
    17 -0.001696 -0.749371 0.000000 -0.593412 0.000000 0.000000
    18 0.354566 0.016267 0.318133 0.834772 -0.606745 -1.212439
    19 1.887166 0.012878 0.000000 -0.305433 0.000000 -0.401426
    20 1.001874 -0.000270 0.000000 0.000000 0.000000 -0.488692
    21 -1.123360 -2.195093 -0.278957 -0.933751 0.000000 -0.087266
    22 0.010772 -0.963792 0.000000 -0.610865 0.000000 0.000000
    23 -0.010412 -0.631916 0.000000 -1.370074 0.000000 0.000000
    24 -6.788782 -4.533103 -8.229063 -1.364124 2.579620 -0.987066
    25 0.089930 -8.543161 -0.000001 0.072881 -0.610355 0.341051
    26 0.000000 -0.359712 0.000000 0.000000 0.000000 0.000000
    27 -0.170479 -2.636147 -0.277657 -1.238765 0.000000 0.000000
    28 0.010599 -1.261176 0.000002 -0.064916 0.000000 0.000000
    29 -0.000001 -0.943233 -0.000002 -0.473421 0.000000 0.000000
    30 -0.827563 -2.508972 -0.277657 -0.942040 0.000000 0.000000
    31 0.000000 -1.292971 0.000001 -0.256944 0.000000 0.000000
    32 0.000000 -0.752465 0.000000 -0.386163 0.000000 0.000000
    33 0.444213 -2.561959 -0.277657 -1.273099 -0.046226 -0.024599
    34 0.021022 -1.208186 0.000001 -0.239462 0.000000 0.000000
    35 0.010597 -0.741867 -0.000001 -0.394884 0.000000 0.000000
    36 1.047445 -2.222820 -0.277657 -1.053895 -0.078971 -0.038609
    37 0.000000 -0.996224 -0.000002 -0.675785 0.000000 0.000000
    38 -0.000001 -0.614690 0.000000 -0.464695 0.000000 0.000000
    39 -0.308253 -0.007813 0.307166 -0.162883 -0.325265 -2.610323
    40 1.978376 0.019542 -0.000001 -0.080682 -0.042771 0.146864
    41 0.982425 0.003186 0.000001 0.000000 0.000000 0.113543
  time 7
    0 15.653672 -4.205663 3.775056 -2.783395 -0.803958 -4.990740
    1 0.000000 -8.563282 -0.000001 -0.508741 -0.428525 -1.128125
    2 -0.222119 -3.429973 0.817995 -1.247038 1.437608 -1.233845
    3 0.000000 2.338128 0.839328 0.000000 0.000000 0.000000
    4 -0.000001 -5.493103 2.360612 0.000000 0.000000 0.000000
    5 0.000000 -3.357312 1.408874 0.000000 0.000000 0.000000
    6 -0.000001 -6.122600 1.221523 0.000000 0.000000 0.000000
    7 0.000000 -2.229289 1.941595 0.000000 0.000000 0.000000
    8 -0.003479 -0.404829 0.000000 0.000000 0.000000 0.000000
    9 -0.519310 -2.501155 -0.278957 -1.003564 0.000000 -0.122173
    10 -0.010598 -1.208185 0.000000 -1.148417 0.000000 0.000000
    11 0.000000 -0.763066 0.000000 -0.841249 0.000000 0.000000
    12 0.105980 -2.607135 -0.278957 -0.795871 0.000000 -0.148353
    13 0.000000 -1.250579 0.000000 -1.296776 0.000000 0.000000
    14 0.000000 -0.932634 0.000000 -0.886645 0.000000 0.000000
    15 0.763063 -2.490556 -0.278957 -0.346932 0.039309 0.239193
    16 -0.012323 -1.280918 0.000000 -0.322892 0.000000 0.000000
    17 -0.001696 -0.749371 0.000000 -0.593412 0.000000 0.000000
    18 0.354566 0.016267 0.318133 0.834772 -0.606745 -1.212439
    19 1.887166 0.012878 0.000000 -0.305433 0.000000 -0.401426
    20 1.001874 -0.000270 0.000000 0.000000 0.000000 -0.488692
    21 -1.123360 -2.195093 -0.278957 -0.933751 0.000000 -0.087266
    22 0.010772 -0.963792 0.000000 -0.610865 0.000000 0.000000
    23 -0.010412 -0.631916 0.000000 -1.370074 0.000000 0.000000
    24 -7.347393 -4.638575 -8.236875 -1.445264 2.493914 -1.014114
    25 0.089930 -8.543161 -0.000001 0.071595 -0.624064 0.305175
    26 0.000000 -0.359712 0.000000 0.000000 0.000000 0.000000
    27 -0.170479 -2.636147 -0.277657 -1.155395 0.000000 0.000000
    28 0.010599 -1.261176 0.000002 -0.030390 0.000000 0.000000
    29 -0.000001 -0.943233 -0.000002 -0.462601 0.000000 0.000000
    30 -0.827563 -2.508972 -0.277657 -0.858692 0.000000 0.000000
    31 0.000000 -1.292971 0.000001 -0.222369 0.000000 0.000000
    32 0.000000 -0.752465 0.000000 -0.375350 0.000000 0.000000
    33 0.444213 -2.561959 -0.277657 -1.189695 -0.046226 -0.024599
    34 0.021022 -1.208186 0.000001 -0.204931 0.000000 0.000000
    35 0.010597 -0.741867 -0.000001 -0.384088 0.000000 0.000000
    36 1.047445 -2.222820 -0.277657 -0.970549 -0.078971 -0.038609
    37 0.000000 -0.996224 -0.000002 -0.641251 0.000000 0.000000
    38 -0.000001 -0.614690 0.000000 -0.453885 0.000000 0.000000
    39 -0.308253 -0.007813 0.307166 -0.159731 -0.325145 -2.609242
    40 1.978376 0.019542 -0.000001 -0.079819 -0.044365 0.127027
    41 0.982425 0.003186 0.000001 0.000000 0.000000 0.074439
  time 8
    0 15.821646 -4.061127 3.485985 -2.661782 -0.808352 -5.076405
    1 0.000000 -8.563282 -0.000001 -0.467820 -0.428445 -1.228527
    2 -0.222119 -3.429973 0.817995 -1.247038 1.437608 -1.233845
    3 0.000000 2.338128 0.839328 0.000000 0.000000 0.000000
    4 -0.000001 -5.493103 2.360612 0.000000 0.000000 0.000000
    5 0.000000 -3.357312 1.408874 0.000000 0.000000 0.000000
    6 -0.000001 -6.122600 1.221523 0.000000 0.000000 0.000000
    7 0.000000 -2.229289 1.941595 0.000000 0.000000 0.000000
    8 -0.003479 -0.404829 0.000000 0.000000 0.000000 0.000000
    9 -0.519310 -2.501155 -0.278957 -1.003564 0.000000 -0.122173
    10 -0.010598 -1.208185 0.000000 -1.148417 0.000000 0.000000
    11 0.000000 -0.763066 0.000000 -0.841249 0.000000 0.000000
    12 0.105980 -2.607135 -0.278957 -0.795871 0.000000 -0.148353
    13 0.000000 -1.250579 0.000000 -1.296776 0.000000 0.000000
    14 0.000000 -0.932634 0.000000 -0.886645 0.000000 0.000000
    15 0.763063 -2.490556 -0.278957 -0.346932 0.039309 0.239193
    16 -0.012323 -1.280918 0.000000 -0.322892 0.000000 0.000000
    17 -0.001696 -0.749371 0.000000 -0.593412 0.000000 0.000000
    18 0.354566 0.016267 0.318133 0.834772 -0.606745 -1.212439
    19 1.887166 0.012878 0.000000 -0.305433 0.000000 -0.401426
    20 1.001874 -0.000270 0.000000 0.000000 0.000000 -0.488692
    21 -1.123360 -2.195093 -0.278957 -0.933751 0.000000 -0.087266
    22 0.010772 -0.963792 0.000000 -0.610865 0.000000 0.000000
    23 -0.010412 -0.631916 0.000000 -1.370074 0.000000 0.000000
    24 -7.823970 -4.732328 -8.252501 -1.535327 2.410380 -1.052322
    25 0.089930 -8.543161 -0.000001 0.070933 -0.637798 0.268959
    26 0.000000 -0.359712 0.000000 0.000000 0.000000 0.000000
    27 -0.170479 -2.636147 -0.277657 -1.072321 0.000000 0.000000
    28 0.010599 -1.261176 0.000002 0.004011 0.000000 0.000000
    29 -0.000001 -0.943233 -0.000002 -0.451822 0.000000 0.000000
    30 -0.827563 -2.508972 -0.277657 -0.775588 0.000000 0.000000
    31 0.000000 -1.292971 0.000001 -0.188001 0.000000 0.000000
    32 0.000000 -0.752465 0.000000 -0.364559 0.000000 0.000000
    33 0.444213 -2.561959 -0.277657 -1.106660 -0.046226 -0.024599
    34 0.021022 -1.208186 0.000001 -0.170535 0.000000 0.000000
    35 0.010597 -0.741867 -0.000001 -0.373310 0.000000 0.000000
    36 1.047445 -2.222820 -0.277657 -0.887477 -0.078971 -0.038609
    37 0.000000 -0.996224 -0.000002 -0.606845 0.000000 0.000000
    38 -0.000001 -0.614690 0.000000 -0.443111 0.000000 0.000000
    39 -0.308253 -0.007813 0.307166 -0.156603 -0.325001 -2.608147
    40 1.978376 0.019542 -0.000001 -0.078945 -0.045935 0.107234
    41 0.982425 0.003186 0.000001 0.000000 0.000000 0.035544
  time 9
    0 15.911492 -3.822839 2.751588 -2.533576 -0.809535 -5.138115
    1 0.000000 -8.563282 -0.000001 -0.428108 -0.405174 -1.293658
    2 -0.222119 -3.429973 0.817995 -1.247038 1.437608 -1.233845
    3 0.000000 2.338128 0.839328 0.000000 0.000000 0.000000
    4 -0.000001 -5.493103 2.360612 0.000000 0.000000 0.000000
    5 0.000000 -3.357312 1.408874 0.000000 0.000000 0.000000
    6 -0.000001 -6.122600 1.221523 0.000000 0.000000 0.000000
    7 0.000000 -2.229289 1.941595 0.000000 0.000000 0.000000
    8 -0.003479 -0.404829 0.000000 0.000000 0.000000 0.000000
    9 -0.519310 -2.501155 -0.278957 -1.003564 0.000000 -0.122173
    10 -0.010598 -1.208185 0.000000 -1.148417 0.000000 0.000000
    11 0.000000 -0.763066 0.000000 -0.841249 0.000000 0.000000
    12 0.105980 -2.607135 -0.278957 -0.795871 0.000000 -0.148353
    13 0.000000 -1.250579 0.000000 -1.296776 0.000000 0.000000
    14 0.000000 -0.932634 0.000000 -0.886645 0.000000 0.000000
    15 0.763063 -2.490556 -0.278957 -0.346932 0.039309 0.239193
    16 -0.012323 -1.280918 0.000000 -0.322892 0.000000 0.000000
    17 -0.001696 -0.749371 0.000000 -0.593412 0.000000 0.000000
    18 0.354566 0.016267 0.318133 0.834772 -0.606745 -1.212439
    19 1.887166 0.012878 0.000000 -0.305433 0.000000 -0.401426
    20 1.001874 -0.000270 0.000000 0.000000 0.000000 -0.488692
    21 -1.123360 -2.195093 -0.278957 -0.933751 0.000000 -0.087266
    22 0.010772 -0.963792 0.000000 -0.610865 0.000000 0.000000
    23 -0.010412 -0.631916 0.000000 -1.370074 0.000000 0.000000
    24 -8.222419 -4.806549 -8.275939 1.504296 0.811409 -4.246239
    25 0.089930 -8.543161 -0.000001 0.071012 -0.651384 0.232761
    26 0.000000 -0.359712 0.000000 0.000000 0.000000 0.000000
    27 -0.170479 -2.636147 -0.277657 -0.990526 0.000000 0.000000
    28 0.010599 -1.261176 0.000002 0.037913 0.000000 0.000000
    29 -0.000001 -0.943233 -0.000002 -0.441207 0.000000 0.000000
    30 -0.827563 -2.508972 -0.277657 -0.693799 0.000000 0.000000
    31 0.000000 -1.292971 0.000001 -0.154095 0.000000 0.000000
    32 0.000000 -0.752465 0.000000 -0.353964 0.000000 0.000000
    33 0.444213 -2.561959 -0.277657 -1.024868 -0.046226 -0.024599
    34 0.021022 -1.208186 0.000001 -0.136634 0.000000 0.000000
    35 0.010597 -0.741867 -0.000001 -0.362701 0.000000 0.000000
    36 1.047445 -2.222820 -0.277657 -0.805682 -0.078971 -0.038609
    37 0.000000 -0.996224 -0.000002 -0.572960 0.000000 0.000000
    38 -0.000001 -0.614690 0.000000 -0.432480 0.000000 0.000000
    39 -0.308253 -0.007813 0.307166 -0.153523 -0.324870 -2.607066
    40 1.978376 0.019542 -0.000001 -0.078034 -0.047469 0.087784
    41 0.982425 0.003186 0.000001 0.000000 0.000000 -0.002803
  time 10
    0 15.931024 -3.479078 1.532800 -2.396742 -0.808859 -5.178265
    1 0.000000 -8.563282 -0.000001 -0.391763 -0.357725 -1.313878
    2 -0.222119 -3.429973 0.817995 -1.247038 1.437608 -1.233845
    3 0.000000 2.338128 0.839328 0.000000 0.000000 0.000000
    4 -0.000001 -5.493103 2.360612 0.000000 0.000000 0.000000
    5 0.000000 -3.357312 1.408874 0.000000 0.000000 0.000000
    6 -0.000001 -6.122600 1.221523 0.000000 0.000000 0.000000
    7 0.000000 -2.229289 1.941595 0.000000 0.000000 0.000000
    8 -0.003479 -0.404829 0.000000 0.000000 0.000000 0.000000
    9 -0.519310 -2.501155 -0.278957 -1.003564 0.000000 -0.122173
    10 -0.010598 -1.208185 0.000000 -1.148417 0.000000 0.000000
    11 0.000000 -0.763066 0.000000 -0.841249 0.000000 0.000000
    12 0.105980 -2.607135 -0.278957 -0.795871 0.000000 -0.148353
    13 0.000000 -1.250579 0.000000 -1.296776 0.000000 0.000000
    14 0.000000 -0.932634 0.000000 -0.886645 0.000000 0.000000
    15 0.763063 -2.490556 -0.278957 -0.346932 0.039309 0.239193
    16 -0.012323 -1.280918 0.000000 -0.322892 0.000000 0.000000
    17 -0.001696 -0.749371 0.000000 -0.593412 0.000000 0.000000
    18 0.354566 0.016267 0.318133 0.834772 -0.606745 -1.212439
    19 1.887166 0.012878 0.000000 -0.305433 0.000000 -0.401426
    20 1.001874 -0.000270 0.000000 0.000000 0.000000 -0.488692
    21 -1.123360 -2.195093 -0.278957 -0.933751 0.000000 -0.087266
    22 0.010772 -0.963792 0.000000 -0.610865 0.000000 0.000000
    23 -0.010412 -0.631916 0.000000 -1.370074 0.000000 0.000000
    24 -8.542742 -4.869051 -8.307190 1.387085 0.886574 -4.316128
    25 0.089930 -8.543161 -0.000001 0.071953 -0.664646 0.196885
    26 0.000000 -0.359712 0.000000 0.000000 0.000000 0.000000
    27 -0.170479 -2.636147 -0.277657 -0.910896 0.000000 0.000000
    28 0.010599 -1.261176 0.000002 0.070891 0.000000 0.000000
    29 -0.000001 -0.943233 -0.000002 -0.430880 0.000000 0.000000
    30 -0.827563 -2.508972 -0.277657 -0.614204 0.000000 0.000000
    31 0.000000 -1.292971 0.000001 -0.121088 0.000000 0.000000
    32 0.000000 -0.752465 0.000000 -0.343629 0.000000 0.000000
    33 0.444213 -2.561959 -0.277657 -0.945239 -0.046226 -0.024599
    34 0.021022 -1.208186 0.000001 -0.103656 0.000000 0.000000
    35 0.010597 -0.741867 -0.000001 -0.352376 0.000000 0.000000
    36 1.047445 -2.222820 -0.277657 -0.726031 -0.078971 -0.038609
    37 0.000000 -0.996224 -0.000002 -0.539977 0.000000 0.000000
    38 -0.000001 -0.614690 0.000000 -0.422161 0.000000 0.000000
    39 -0.308253 -0.007813 0.307166 -0.150539 -0.324750 -2.606023
    40 1.978376 0.019542 -0.000001 -0.077123 -0.048944 0.068829
    41 0.982425 0.003186 0.000001 0.000000 0.000000 -0.040107
  time 11
    0 15.868522 -3.068909 0.028848 -2.257791 -0.810154 -5.200208
    1 0.000000 -8.563282 -0.000001 -0.355222 -0.254317 -1.247770
    2 -0.222119 -3.429973 0.817995 -1.247038 1.437608 -1.233845
    3 0.000000 2.338128 0.839328 0.000000 0.000000 0.000000
    4 -0.000001 -5.493103 2.360612 0.000000 0.000000 0.000000
    5 0.000000 -3.357312 1.408874 0.000000 0.000000 0.000000
    6 -0.000001 -6.122600 1.221523 0.000000 0.000000 0.000000
    7 0.000000 -2.229289 1.941595 0.000000 0.000000 0.000000
    8 -0.003479 -0.404829 0.000000 0.000000 0.000000 0.000000
    9 -0.519310 -2.501155 -0.278957 -1.003564 0.000000 -0.122173
    10 -0.010598 -1.208185 0.000000 -1.148417 0.000000 0.000000
    11 0.000000 -0.763066 0.000000 -0.841249 0.000000 0.000000
    12 0.105980 -2.607135 -0.278957 -0.795871 0.000000 -0.148353
    13 0.000000 -1.250579 0.000000 -1.296776 0.000000 0.000000
    14 0.000000 -0.932634 0.000000 -0.886645 0.000000 0.000000
    15 0.763063 -2.490556 -0.278957 -0.346932 0.039309 0.239193
    16 -0.012323 -1.280918 0.000000 -0.322892 0.000000 0.000000
    17 -0.001696 -0.749371 0.000000 -0.593412 0.000000 0.000000
    18 0.354566 0.016267 0.318133 0.834772 -0.606745 -1.212439
    19 1.887166 0.012878 0.000000 -0.305433 0.000000 -0.401426
    20 1.001874 -0.000270 0.000000 0.000000 0.000000 -0.488692
    21 -1.123360 -2.195093 -0.278957 -0.933751 0.000000 -0.087266
    22 0.010772 -0.963792 0.000000 -0.610865 0.000000 0.000000
    23 -0.010412 -0.631916 0.000000 -1.370074 0.000000 0.000000
    24 -8.769311 -4.888583 -8.365785 1.250591 0.954656 -4.407770
    25 0.089930 -8.543161 -0.000001 0.073888 -0.677362 0.161744
    26 0.000000 -0.359712 0.000000 0.000000 0.000000 0.000000
    27 -0.170479 -2.636147 -0.277657 -0.834416 0.000000 0.000000
    28 0.010599 -1.261176 0.000002 0.102571 0.000000 0.000000
    29 -0.000001 -0.943233 -0.000002 -0.420963 0.000000 0.000000
    30 -0.827563 -2.508972 -0.277657 -0.537680 0.000000 0.000000
    31 0.000000 -1.292971 0.000001 -0.089444 0.000000 0.000000
    32 0.000000 -0.752465 0.000000 -0.333730 0.000000 0.000000
    33 0.444213 -2.561959 -0.277657 -0.868740 -0.046226 -0.024599
    34 0.021022 -1.208186 0.000001 -0.071961 0.000000 0.000000
    35 0.010597 -0.741867 -0.000001 -0.342446 0.000000 0.000000
    36 1.047445 -2.222820 -0.277657 -0.649574 -0.078971 -0.038609
    37 0.000000 -0.996224 -0.000002 -0.508291 0.000000 0.000000
    38 -0.000001 -0.614690 0.000000 -0.412238 0.000000 0.000000
    39 -0.308253 -0.007813 0.307166 -0.147663 -0.324630 -2.605017
    40 1.978376 0.019542 -0.000001 -0.076200 -0.050346 0.050602
    41 0.982425 0.003186 0.000001 0.000000 0.000000 -0.075974
  time 12
    0 15.720080 -2.619677 -1.572763 -2.122096 -0.816576 -5.209024
    1 0.000000 -8.563282 -0.000001 -0.297730 -0.090755 -1.080945
    2 -0.222119 -3.429973 0.817995 -1.247038 1.437608 -1.233845
    3 0.000000 2.338128 0.839328 0.000000 0.000000 0.000000
    4 -0.000001 -5.493103 2.360612 0.000000 0.000000 0.000000
    5 0.000000 -3.357312 1.408874 0.000000 0.000000 0.000000
    6 -0.000001 -6.122600 1.221523 0.000000 0.000000 0.000000
    7 0.000000 -2.229289 1.941595 0.000000 0.000000 0.000000
    8 -0.003479 -0.404829 0.000000 0.000000 0.000000 0.000000
    9 -0.519310 -2.501155 -0.278957 -1.003564 0.000000 -0.122173
    10 -0.010598 -1.208185 0.000000 -1.148417 0.000000 0.000000
    11 0.000000 -0.763066 0.000000 -0.841249 0.000000 0.000000
    12 0.105980 -2.607135 -0.278957 -0.795871 0.000000 -0.148353
    13 0.000000 -1.250579 0.000000 -1.296776 0.000000 0.000000
    14 0.000000 -0.932634 0.000000 -0.886645 0.000000 0.000000
    15 0.763063 -2.490556 -0.278957 -0.346932 0.039309 0.239193
    16 -0.012323 -1.280918 0.000000 -0.322892 0.000000 0.000000
    17 -0.001696 -0.749371 0.000000 -0.593412 0.000000 0.000000
    18 0.354566 0.016267 0.318133 0.834772 -0.606745 -1.212439
    19 1.887166 0.012878 0.000000 -0.305433 0.000000 -0.401426
    20 1.001874 -0.000270 0.000000 0.000000 0.000000 -0.488692
    21 -1.123360 -2.195093 -0.278957 -0.933751 0.000000 -0.087266
    22 0.010772 -0.963792 0.000000 -0.610865 0.000000 0.000000
    23 -0.010412 -0.631916 0.000000 -1.370074 0.000000 0.000000
    24 -8.894315 -4.845613 -8.471257 1.090881 1.013081 -4.524946
    25 0.089930 -8.543161 -0.000001 0.076829 -0.689358 0.127695
    26 0.000000 -0.359712 0.000000 0.000000 0.000000 0.000000
    27 -0.170479 -2.636147 -0.277657 -0.761972 0.000000 0.000000
    28 0.010599 -1.261176 0.000002 0.132553 0.000000 0.000000
    29 -0.000001 -0.943233 -0.000002 -0.411580 0.000000 0.000000
    30 -0.827563 -2.508972 -0.277657 -0.465250 0.000000 0.000000
    31 0.000000 -1.292971 0.000001 -0.059446 0.000000 0.000000
    32 0.000000 -0.752465 0.000000 -0.324309 0.000000 0.000000
    33 0.444213 -2.561959 -0.277657 -0.796337 -0.046226 -0.024599
    34 0.021022 -1.208186 0.000001 -0.041977 0.000000 0.000000
    35 0.010597 -0.741867 -0.000001 -0.333024 0.000000 0.000000
    36 1.047445 -2.222820 -0.277657 -0.577131 -0.078971 -0.038609
    37 0.000000 -0.996224 -0.000002 -0.478298 0.000000 0.000000
    38 -0.000001 -0.614690 0.000000 -0.402842 0.000000 0.000000
    39 -0.308253 -0.007813 0.307166 -0.144930 -0.324510 -2.604063
    40 1.978376 0.019542 -0.000001 -0.075325 -0.051640 0.033364
    41 0.982425 0.003186 0.000001 0.000000 0.000000 -0.109909
  time 13
    0 15.466166 -2.166538 -3.076715 -1.994704 -0.830434 -5.210557
    1 0.000000 -8.563282 -0.000001 -0.194120 0.088329 -0.838756
    2 -0.222119 -3.429973 0.817995 -1.247038 1.437608 -1.233845
    3 0.000000 2.338128 0.839328 0.000000 0.000000 0.000000
    4 -0.000001 -5.493103 2.360612 0.000000 0.000000 0.000000
    5 0.000000 -3.357312 1.408874 0.000000 0.000000 0.000000
    6 -0.000001 -6.122600 1.221523 0.000000 0.000000 0.000000
    7 0.000000 -2.229289 1.941595 0.000000 0.000000 0.000000
    8 -0.003479 -0.404829 0.000000 0.000000 0.000000 0.000000
    9 -0.519310 -2.501155 -0.278957 -1.003564 0.000000 -0.122173
    10 -0.010598 -1.208185 0.000000 -1.148417 0.000000 0.000000
    11 0.000000 -0.763066 0.000000 -0.841249 0.000000 0.000000
    12 0.105980 -2.607135 -0.278957 -0.795871 0.000000 -0.148353
    13 0.000000 -1.250579 0.000000 -1.296776 0.000000 0.000000
    14 0.000000 -0.932634 0.000000 -0.886645 0.000000 0.000000
    15 0.763063 -2.490556 -0.278957 -0.346932 0.039309 0.239193
    16 -0.012323 -1.280918 0.000000 -0.322892 0.000000 0.000000
    17 -0.001696 -0.749371 0.000000 -0.593412 0.000000 0.000000
    18 0.354566 0.016267 0.318133 0.834772 -0.606745 -1.212439
    19 1.887166 0.012878 0.000000 -0.305433 0.000000 -0.401426
    20 1.001874 -0.000270 0.000000 0.000000 0.000000 -0.488692
    21 -1.123360 -2.195093 -0.278957 -0.933751 0.000000 -0.087266
    22 0.010772 -0.963792 0.000000 -0.610865 0.000000 0.000000
    23 -0.010412 -0.631916 0.000000 -1.370074 0.000000 0.000000
    24 -8.929472 -4.755766 -8.611887 0.906141 1.058550 -4.669737
    25 0.089930 -8.543161 -0.000001 0.080844 -0.700435 0.095169
    26 0.000000 -0.359712 0.000000 0.000000 0.000000 0.000000
    27 -0.170479 -2.636147 -0.277657 -0.694548 0.000000 0.000000
    28 0.010599 -1.261176 0.000002 0.160489 0.000000 0.000000
    29 -0.000001 -0.943233 -0.000002 -0.402834 0.000000 0.000000
    30 -0.827563 -2.508972 -0.277657 -0.397841 0.000000 0.000000
    31 0.000000 -1.292971 0.000001 -0.031503 0.000000 0.000000
    32 0.000000 -0.752465 0.000000 -0.315585 0.000000 0.000000
    33 0.444213 -2.561959 -0.277657 -0.728905 -0.046226 -0.024599
    34 0.021022 -1.208186 0.000001 -0.014041 0.000000 0.000000
    35 0.010597 -0.741867 -0.000001 -0.324300 0.000000 0.000000
    36 1.047445 -2.222820 -0.277657 -0.509706 -0.078971 -0.038609
    37 0.000000 -0.996224 -0.000002 -0.450377 0.000000 0.000000
    38 -0.000001 -0.614690 0.000000 -0.394106 0.000000 0.000000
    39 -0.308253 -0.007813 0.307166 -0.142389 -0.324402 -2.603172
    40 1.978376 0.019542 -0.000001 -0.074486 -0.052851 0.017306
    41 0.982425 0.003186 0.000001 0.000000 0.000000 -0.141496
  time 14
    0 15.106780 -1.740744 -4.295502 -1.880092 -0.852742 -5.211036
    1 0.000000 -8.563282 -0.000001 -0.035992 0.234551 -0.542578
    2 -0.222119 -3.429973 0.817995 -1.247038 1.437608 -1.233845
    3 0.000000 2.338128 0.839328 0.000000 0.000000 0.000000
    4 -0.000001 -5.493103 2.360612 0.000000 0.000000 0.000000
    5 0.000000 -3.357312 1.408874 0.000000 0.000000 0.000000
    6 -0.000001 -6.122600 1.221523 0.000000 0.000000 0.000000
    7 0.000000 -2.229289 1.941595 0.000000 0.000000 0.000000
    8 -0.003479 -0.404829 0.000000 0.000000 0.000000 0.000000
    9 -0.519310 -2.501155 -0.278957 -1.003564 0.000000 -0.122173
    10 -0.010598 -1.208185 0.000000 -1.148417 0.000000 0.000000
    11 0.000000 -0.763066 0.000000 -0.841249 0.000000 0.000000
    12 0.105980 -2.607135 -0.278957 -0.795871 0.000000 -0.148353
    13 0.000000 -1.250579 0.000000 -1.296776 0.000000 0.000000
    14 0.000000 -0.932634 0.000000 -0.886645 0.000000 0.000000
    15 0.763063 -2.490556 -0.278957 -0.346932 0.039309 0.239193
    16 -0.012323 -1.280918 0.000000 -0.322892 0.000000 0.000000
    17 -0.001696 -0.749371 0.000000 -0.593412 0.000000 0.000000
    18 0.354566 0.016267 0.318133 0.834772 -0.606745 -1.212439
    19 1.887166 0.012878 0.000000 -0.305433 0.000000 -0.401426
    20 1.001874 -0.000270 0.000000 0.000000 0.000000 -0.488692
    21 -1.123360 -2.195093 -0.278957 -0.933751 0.000000 -0.087266
    22 0.010772 -0.963792 0.000000 -0.610865 0.000000 0.000000
    23 -0.010412 -0.631916 0.000000 -1.370074 0.000000 0.000000
    24 -8.870877 -4.626856 -8.779861 0.699547 1.087763 -4.838833
    25 0.089930 -8.543161 -0.000001 0.085906 -0.710394 0.064577
    26 0.000000 -0.359712 0.000000 0.000000 0.000000 0.000000
    27 -0.170479 -2.636147 -0.277657 -0.633079 0.000000 0.000000
    28 0.010599 -1.261176 0.000002 0.185952 0.000000 0.000000
    29 -0.000001 -0.943233 -0.000002 -0.394847 0.000000 0.000000
    30 -0.827563 -2.508972 -0.277657 -0.336378 0.000000 0.000000
    31 0.000000 -1.292971 0.000001 -0.006055 0.000000 0.000000
    32 0.000000 -0.752465 0.000000 -0.307578 0.000000 0.000000
    33 0.444213 -2.561959 -0.277657 -0.667411 -0.046226 -0.024599
    34 0.021022 -1.208186 0.000001 0.011441 0.000000 0.000000
    35 0.010597 -0.741867 -0.000001 -0.316311 0.000000 0.000000
    36 1.047445 -2.222820 -0.277657 -0.448257 -0.078971 -0.038609
    37 0.000000 -0.996224 -0.000002 -0.424908 0.000000 0.000000
    38 -0.000001 -0.614690 0.000000 -0.386136 0.000000 0.000000
    39 -0.308253 -0.007813 0.307166 -0.140076 -0.324330 -2.602371
    40 1.978376 0.019542 -0.000001 -0.073707 -0.053929 0.002687
    41 0.982425 0.003186 0.000001 0.000000 0.000000 -0.170315
  time 15
    0 14.540357 -1.326669 -5.264282 -1.783144 -0.883275 -5.216306
    1 0.000000 -8.563282 -0.000001 0.153283 0.310334 -0.232256
    2 -0.222119 -3.429973 0.817995 -1.247038 1.437608 -1.233845
    3 0.000000 2.338128 0.839328 0.000000 0.000000 0.000000
    4 -0.000001 -5.493103 2.360612 0.000000 0.000000 0.000000
    5 0.000000 -3.357312 1.408874 0.000000 0.000000 0.000000
    6 -0.000001 -6.122600 1.221523 0.000000 0.000000 0.000000
    7 0.000000 -2.229289 1.941595 0.000000 0.000000 0.000000
    8 -0.003479 -0.404829 0.000000 0.000000 0.000000 0.000000
    9 -0.519310 -2.501155 -0.278957 -1.003564 0.000000 -0.122173
    10 -0.010598 -1.208185 0.000000 -1.148417 0.000000 0.000000
    11 0.000000 -0.763066 0.000000 -0.841249 0.000000 0.000000
    12 0.105980 -2.607135 -0.278957 -0.795871 0.000000 -0.148353
    13 0.000000 -1.250579 0.000000 -1.296776 0.000000 0.000000
    14 0.000000 -0.932634 0.000000 -0.886645 0.000000 0.000000
    15 0.763063 -2.490556 -0.278957 -0.346932 0.039309 0.239193
    16 -0.012323 -1.280918 0.000000 -0.322892 0.000000 0.000000
    17 -0.001696 -0.749371 0.000000 -0.593412 0.000000 0.000000
    18 0.354566 0.016267 0.318133 0.834772 -0.606745 -1.212439
    19 1.887166 0.012878 0.000000 -0.305433 0.000000 -0.401426
    20 1.001874 -0.000270 0.000000 0.000000 0.000000 -0.488692
    21 -1.123360 -2.195093 -0.278957 -0.933751 0.000000 -0.087266
    22 0.010772 -0.963792 0.000000 -0.610865 0.000000 0.000000
    23 -0.010412 -0.631916 0.000000 -1.370074 0.000000 0.000000
    24 -8.730247 -4.474508 -8.959554 0.481384 1.098466 -5.022115
    25 0.089930 -8.543161 -0.000001 0.092067 -0.719062 0.036367
    26 0.000000 -0.359712 0.000000 0.000000 0.000000 0.000000
    27 -0.170479 -2.636147 -0.277657 -0.578499 0.000000 0.000000
    28 0.010599 -1.261176 0.000002 0.208570 0.000000 0.000000
    29 -0.000001 -0.943233 -0.000002 -0.387784 0.000000 0.000000
    30 -0.827563 -2.508972 -0.277657 -0.281787 0.000000 0.000000
    31 0.000000 -1.292971 0.000001 0.016566 0.000000 0.000000
    32 0.000000 -0.752465 0.000000 -0.300507 0.000000 0.000000
    33 0.444213 -2.561959 -0.277657 -0.612822 -0.046226 -0.024599
    34 0.021022 -1.208186 0.000001 0.034019 0.000000 0.000000
    35 0.010597 -0.741867 -0.000001 -0.309226 0.000000 0.000000
    36 1.047445 -2.222820 -0.277657 -0.393651 -0.078971 -0.038609
    37 0.000000 -0.996224 -0.000002 -0.402287 0.000000 0.000000
    38 -0.000001 -0.614690 0.000000 -0.379053 0.000000 0.000000
    39 -0.308253 -0.007813 0.307166 -0.138039 -0.324258 -2.601646
    40 1.978376 0.019542 -0.000001 -0.073000 -0.054900 -0.010323
    41 0.982425 0.003186 0.000001 0.000000 0.000000 -0.195871
  time 16
    0 13.727832 -0.896968 -6.151028 -1.709557 -0.933525 -5.221481
    1 0.000000 -8.563282 -0.000001 0.321739 0.312498 0.026031
    2 -0.222119 -3.429973 0.817995 -1.247038 1.437608 -1.233845
    3 0.000000 2.338128 0.839328 0.000000 0.000000 0.000000
    4 -0.000001 -5.493103 2.360612 0.000000 0.000000 0.000000
    5 0.000000 -3.357312 1.408874 0.000000 0.000000 0.000000
    6 -0.000001 -6.122600 1.221523 0.000000 0.000000 0.000000
    7 0.000000 -2.229289 1.941595 0.000000 0.000000 0.000000
    8 -0.003479 -0.404829 0.000000 0.000000 0.000000 0.000000
    9 -0.519310 -2.501155 -0.278957 -1.003564 0.000000 -0.122173
    10 -0.010598 -1.208185 0.000000 -1.148417 0.000000 0.000000
    11 0.000000 -0.763066 0.000000 -0.841249 0.000000 0.000000
    12 0.105980 -2.607135 -0.278957 -0.795871 0.000000 -0.148353
    13 0.000000 -1.250579 0.000000 -1.296776 0.000000 0.000000
    14 0.000000 -0.932634 0.000000 -0.886645 0.000000 0.000000
    15 0.763063 -2.490556 -0.278957 -0.346932 0.039309 0.239193
    16 -0.012323 -1.280918 0.000000 -0.322892 0.000000 0.000000
    17 -0.001696 -0.749371 0.000000 -0.593412 0.000000 0.000000
    18 0.354566 0.016267 0.318133 0.834772 -0.606745 -1.212439
    19 1.887166 0.012878 0.000000 -0.305433 0.000000 -0.401426
    20 1.001874 -0.000270 0.000000 0.000000 0.000000 -0.488692
    21 -1.123360 -2.195093 -0.278957 -0.933751 0.000000 -0.087266
    22 0.010772 -0.963792 0.000000 -0.610865 0.000000 0.000000
    23 -0.010412 -0.631916 0.000000 -1.370074 0.000000 0.000000
    24 -8.515397 -4.314346 -9.147059 0.267379 1.090097 -5.203979
    25 0.089930 -8.543161 -0.000001 0.099276 -0.726239 0.010987
    26 0.000000 -0.359712 0.000000 0.000000 0.000000 0.000000
    27 -0.170479 -2.636147 -0.277657 -0.531745 0.000000 0.000000
    28 0.010599 -1.261176 0.000002 0.227943 0.000000 0.000000
    29 -0.000001 -0.943233 -0.000002 -0.381707 0.000000 0.000000
    30 -0.827563 -2.508972 -0.277657 -0.235044 0.000000 0.000000
    31 0.000000 -1.292971 0.000001 0.035949 0.000000 0.000000
    32 0.000000 -0.752465 0.000000 -0.294437 0.000000 0.000000
    33 0.444213 -2.561959 -0.277657 -0.566057 -0.046226 -0.024599
    34 0.021022 -1.208186 0.000001 0.053423 0.000000 0.000000
    35 0.010597 -0.741867 -0.000001 -0.303159 0.000000 0.000000
    36 1.047445 -2.222820 -0.277657 -0.346892 -0.078971 -0.038609
    37 0.000000 -0.996224 -0.000002 -0.382924 0.000000 0.000000
    38 -0.000001 -0.614690 0.000000 -0.372989 0.000000 0.000000
    39 -0.308253 -0.007813 0.307166 -0.136265 -0.324186 -2.601035
    40 1.978376 0.019542 -0.000001 -0.072377 -0.055715 -0.021465
    41 0.982425 0.003186 0.000001 0.000000 0.000000 -0.217799
  time 17
    0 12.743427 -0.455548 -6.947927 -1.656484 -1.007716 -5.221864
    1 0.000000 -8.563282 -0.000001 0.424009 0.274213 0.167922
    2 -0.222119 -3.429973 0.817995 -1.247038 1.437608 -1.233845
    3 0.000000 2.338128 0.839328 0.000000 0.000000 0.000000
    4 -0.000001 -5.493103 2.360612 0.000000 0.000000 0.000000
    5 0.000000 -3.357312 1.408874 0.000000 0.000000 0.000000
    6 -0.000001 -6.122600 1.221523 0.000000 0.000000 0.000000
    7 0.000000 -2.229289 1.941595 0.000000 0.000000 0.000000
    8 -0.003479 -0.404829 0.000000 0.000000 0.000000 0.000000
    9 -0.519310 -2.501155 -0.278957 -1.003564 0.000000 -0.122173
    10 -0.010598 -1.208185 0.000000 -1.148417 0.000000 0.000000
    11 0.000000 -0.763066 0.000000 -0.841249 0.000000 0.000000
    12 0.105980 -2.607135 -0.278957 -0.795871 0.000000 -0.148353
    13 0.000000 -1.250579 0.000000 -1.296776 0.000000 0.000000
    14 0.000000 -0.932634 0.000000 -0.886645 0.000000 0.000000
    15 0.763063 -2.490556 -0.278957 -0.346932 0.039309 0.239193
    16 -0.012323 -1.280918 0.000000 -0.322892 0.000000 0.000000
    17 -0.001696 -0.749371 0.000000 -0.593412 0.000000 0.000000
    18 0.354566 0.016267 0.318133 0.834772 -0.606745 -1.212439
    19 1.887166 0.012878 0.000000 -0.305433 0.000000 -0.401426
    20 1.001874 -0.000270 0.000000 0.000000 0.000000 -0.488692
    21 -1.123360 -2.195093 -0.278957 -0.933751 0.000000 -0.087266
    22 0.010772 -0.963792 0.000000 -0.610865 0.000000 0.000000
    23 -0.010412 -0.631916 0.000000 -1.370074 0.000000 0.000000
    24 -8.226326 -4.154185 -9.322846 0.072279 1.064747 -5.369860
    25 0.089930 -8.543161 -0.000001 0.107464 -0.731778 -0.011043
    26 0.000000 -0.359712 0.000000 0.000000 0.000000 0.000000
    27 -0.170479 -2.636147 -0.277657 -0.493702 0.000000 0.000000
    28 0.010599 -1.261176 0.000002 0.243695 0.000000 0.000000
    29 -0.000001 -0.943233 -0.000002 -0.376800 0.000000 0.000000
    30 -0.827563 -2.508972 -0.277657 -0.197025 0.000000 0.000000
    31 0.000000 -1.292971 0.000001 0.051681 0.000000 0.000000
    32 0.000000 -0.752465 0.000000 -0.289520 0.000000 0.000000
    33 0.444213 -2.561959 -0.277657 -0.528037 -0.046226 -0.024599
    34 0.021022 -1.208186 0.000001 0.069158 0.000000 0.000000
    35 0.010597 -0.741867 -0.000001 -0.298241 0.000000 0.000000
    36 1.047445 -2.222820 -0.277657 -0.308891 -0.078971 -0.038609
    37 0.000000 -0.996224 -0.000002 -0.367168 0.000000 0.000000
    38 -0.000001 -0.614690 0.000000 -0.368051 0.000000 0.000000
    39 -0.308253 -0.007813 0.307166 -0.134839 -0.324139 -2.600539
    40 1.978376 0.019542 -0.000001 -0.071886 -0.056350 -0.030503
    41 0.982425 0.003186 0.000001 0.000000 0.000000 -0.235628
  time 18
    0 11.653550 -0.010222 -7.654980 -1.616109 -1.094019 -5.221385
    1 0.000000 -8.563282 -0.000001 0.453882 0.217025 0.179307
    2 -0.222119 -3.429973 0.817995 -1.247038 1.437608 -1.233845
    3 0.000000 2.338128 0.839328 0.000000 0.000000 0.000000
    4 -0.000001 -5.493103 2.360612 0.000000 0.000000 0.000000
    5 0.000000 -3.357312 1.408874 0.000000 0.000000 0.000000
    6 -0.000001 -6.122600 1.221523 0.000000 0.000000 0.000000
    7 0.000000 -2.229289 1.941595 0.000000 0.000000 0.000000
    8 -0.003479 -0.404829 0.000000 0.000000 0.000000 0.000000
    9 -0.519310 -2.501155 -0.278957 -1.003564 0.000000 -0.122173
    10 -0.010598 -1.208185 0.000000 -1.148417 0.000000 0.000000
    11 0.000000 -0.763066 0.000000 -0.841249 0.000000 0.000000
    12 0.105980 -2.607135 -0.278957 -0.795871 0.000000 -0.148353
    13 0.000000 -1.250579 0.000000 -1.296776 0.000000 0.000000
    14 0.000000 -0.932634 0.000000 -0.886645 0.000000 0.000000
    15 0.763063 -2.490556 -0.278957 -0.346932 0.039309 0.239193
    16 -0.012323 -1.280918 0.000000 -0.322892 0.000000 0.000000
    17 -0.001696 -0.749371 0.000000 -0.593412 0.000000 0.000000
    18 0.354566 0.016267 0.318133 0.834772 -0.606745 -1.212439
    19 1.887166 0.012878 0.000000 -0.305433 0.000000 -0.401426
    20 1.001874 -0.000270 0.000000 0.000000 0.000000 -0.488692
    21 -1.123360 -2.195093 -0.278957 -0.933751 0.000000 -0.087266
    22 0.010772 -0.963792 0.000000 -0.610865 0.000000 0.000000
    23 -0.010412 -0.631916 0.000000 -1.370074 0.000000 0.000000
    24 -7.874752 -4.013556 -9.479101 -0.095673 1.025636 -5.511436
    25 0.089930 -8.543161 -0.000001 0.116581 -0.735528 -0.029259
    26 0.000000 -0.359712 0.000000 0.000000 0.000000 0.000000
    27 -0.170479 -2.636147 -0.277657 -0.465404 0.000000 0.000000
    28 0.010599 -1.261176 0.000002 0.255404 0.000000 0.000000
    29 -0.000001 -0.943233 -0.000002 -0.373104 0.000000 0.000000
    30 -0.827563 -2.508972 -0.277657 -0.168707 0.000000 0.000000
    31 0.000000 -1.292971 0.000001 0.063454 0.000000 0.000000
    32 0.000000 -0.752465 0.000000 -0.285843 0.000000 0.000000
    33 0.444213 -2.561959 -0.277657 -0.499730 -0.046226 -0.024599
    34 0.021022 -1.208186 0.000001 0.080886 0.000000 0.000000
    35 0.010597 -0.741867 -0.000001 -0.294586 0.000000 0.000000
    36 1.047445 -2.222820 -0.277657 -0.280562 -0.078971 -0.038609
    37 0.000000 -0.996224 -0.000002 -0.355446 0.000000 0.000000
    38 -0.000001 -0.614690 0.000000 -0.364384 0.000000 0.000000
    39 -0.308253 -0.007813 0.307166 -0.133784 -0.324103 -2.600170
    40 1.978376 0.019542 -0.000001 -0.071490 -0.056829 -0.037243
    41 0.982425 0.003186 0.000001 0.000000 0.000000 -0.248863
  time 19
    0 10.544141 0.435104 -8.248748 -1.580212 -1.180210 -5.223781
    1 0.000000 -8.563282 -0.000001 0.438030 0.141870 0.102512
    2 -0.222119 -3.429973 0.817995 -1.247038 1.437608 -1.233845
    3 0.000000 2.338128 0.839328 0.000000 0.000000 0.000000
    4 -0.000001 -5.493103 2.360612 0.000000 0.000000 0.000000
    5 0.000000 -3.357312 1.408874 0.000000 0.000000 0.000000
    6 -0.000001 -6.122600 1.221523 0.000000 0.000000 0.000000
    7 0.000000 -2.229289 1.941595 0.000000 0.000000 0.000000
    8 -0.003479 -0.404829 0.000000 0.000000 0.000000 0.000000
    9 -0.519310 -2.501155 -0.278957 -1.003564 0.000000 -0.122173
    10 -0.010598 -1.208185 0.000000 -1.148417 0.000000 0.000000
    11 0.000000 -0.763066 0.000000 -0.841249 0.000000 0.000000
    12 0.105980 -2.607135 -0.278957 -0.795871 0.000000 -0.148353
    13 0.000000 -1.250579 0.000000 -1.296776 0.000000 0.000000
    14 0.000000 -0.932634 0.000000 -0.886645 0.000000 0.000000
    15 0.763063 -2.490556 -0.278957 -0.346932 0.039309 0.239193
    16 -0.012323 -1.280918 0.000000 -0.322892 0.000000 0.000000
    17 -0.001696 -0.749371 0.000000 -0.593412 0.000000 0.000000
    18 0.354566 0.016267 0.318133 0.834772 -0.606745 -1.212439
    19 1.887166 0.012878 0.000000 -0.305433 0.000000 -0.401426
    20 1.001874 -0.000270 0.000000 0.000000 0.000000 -0.488692
    21 -1.123360 -2.195093 -0.278957 -0.933751 0.000000 -0.087266
    22 0.010772 -0.963792 0.000000 -0.610865 0.000000 0.000000
    23 -0.010412 -0.631916 0.000000 -1.370074 0.000000 0.000000
    24 -7.464584 -3.900271 -9.608011 -0.234889 0.976706 -5.627477
    25 0.089930 -8.543161 -0.000001 0.126558 -0.737341 -0.043158
    26 0.000000 -0.359712 0.000000 0.000000 0.000000 0.000000
    27 -0.170479 -2.636147 -0.277657 -0.447736 0.000000 0.000000
    28 0.010599 -1.261176 0.000002 0.262743 0.000000 0.000000
    29 -0.000001 -0.943233 -0.000002 -0.370825 0.000000 0.000000
    30 -0.827563 -2.508972 -0.277657 -0.151013 0.000000 0.000000
    31 0.000000 -1.292971 0.000001 0.070729 0.000000 0.000000
    32 0.000000 -0.752465 0.000000 -0.283559 0.000000 0.000000
    33 0.444213 -2.561959 -0.277657 -0.482055 -0.046226 -0.024599
    34 0.021022 -1.208186 0.000001 0.088202 0.000000 0.000000
    35 0.010597 -0.741867 -0.000001 -0.292268 0.000000 0.000000
    36 1.047445 -2.222820 -0.277657 -0.262862 -0.078971 -0.038609
    37 0.000000 -0.996224 -0.000002 -0.348106 0.000000 0.000000
    38 -0.000001 -0.614690 0.000000 -0.362095 0.000000 0.000000
    39 -0.308253 -0.007813 0.307166 -0.133101 -0.324079 -2.599928
    40 1.978376 0.019542 -0.000001 -0.071250 -0.057129 -0.041473
    41 0.982425 0.003186 0.000001 0.000000 0.000000 -0.257164
  time 20
    0 9.481609 0.880430 -8.740951 -1.537314 -1.253950 -5.236429
    1 0.000000 -8.563282 -0.000001 0.400378 0.053744 -0.027714
    2 -0.222119 -3.429973 0.817995 -1.247038 1.437608 -1.233845
    3 0.000000 2.338128 0.839328 0.000000 0.000000 0.000000
    4 -0.000001 -5.493103 2.360612 0.000000 0.000000 0.000000
    5 0.000000 -3.357312 1.408874 0.000000 0.000000 0.000000
    6 -0.000001 -6.122600 1.221523 0.000000 0.000000 0.000000
    7 0.000000 -2.229289 1.941595 0.000000 0.000000 0.000000
    8 -0.003479 -0.404829 0.000000 0.000000 0.000000 0.000000
    9 -0.519310 -2.501155 -0.278957 -1.003564 0.000000 -0.122173
    10 -0.010598 -1.208185 0.000000 -1.148417 0.000000 0.000000
    11 0.000000 -0.763066 0.000000 -0.841249 0.000000 0.000000
    12 0.105980 -2.607135 -0.278957 -0.795871 0.000000 -0.148353
    13 0.000000 -1.250579 0.000000 -1.296776 0.000000 0.000000
    14 0.000000 -0.932634 0.000000 -0.886645 0.000000 0.000000
    15 0.763063 -2.490556 -0.278957 -0.346932 0.039309 0.239193
    16 -0.012323 -1.280918 0.000000 -0.322892 0.000000 0.000000
    17 -0.001696 -0.749371 0.000000 -0.593412 0.000000 0.000000
    18 0.354566 0.016267 0.318133 0.834772 -0.606745 -1.212439
    19 1.887166 0.012878 0.000000 -0.305433 0.000000 -0.401426
    20 1.001874 -0.000270 0.000000 0.000000 0.000000 -0.488692
    21 -1.123360 -2.195093 -0.278957 -0.933751 0.000000 -0.087266
    22 0.010772 -0.963792 0.000000 -0.610865 0.000000 0.000000
    23 -0.010412 -0.631916 0.000000 -1.370074 0.000000 0.000000
    24 -6.999726 -3.829957 -9.693951 -0.347866 0.921339 0.562417
    25 0.089930 -8.543161 -0.000001 0.137410 -0.737117 -0.052239
    26 0.000000 -0.359712 0.000000 0.000000 0.000000 0.000000
    27 -0.170479 -2.636147 -0.277657 -0.441633 0.000000 0.000000
    28 0.010599 -1.261176 0.000002 0.265264 0.000000 0.000000
    29 -0.000001 -0.943233 -0.000002 -0.370045 0.000000 0.000000
    30 -0.827563 -2.508972 -0.277657 -0.144921 0.000000 0.000000
    31 0.000000 -1.292971 0.000001 0.073274 0.000000 0.000000
    32 0.000000 -0.752465 0.000000 -0.282775 0.000000 0.000000
    33 0.444213 -2.561959 -0.277657 -0.475979 -0.046226 -0.024599
    34 0.021022 -1.208186 0.000001 0.090723 0.000000 0.000000
    35 0.010597 -0.741867 -0.000001 -0.291496 0.000000 0.000000
    36 1.047445 -2.222820 -0.277657 -0.256794 -0.078971 -0.038609
    37 0.000000 -0.996224 -0.000002 -0.345591 0.000000 0.000000
    38 -0.000001 -0.614690 0.000000 -0.361304 0.000000 0.000000
    39 -0.308253 -0.007813 0.307166 -0.132886 -0.324067 -2.599852
    40 1.978376 0.019542 -0.000001 -0.071179 -0.057237 -0.042911
    41 0.982425 0.003186 0.000001 0.000000 0.000000 -0.260035
  time 21
    0 8.540174 1.314037 -9.119868 -1.472600 -1.302566 -5.269871
    1 0.000000 -8.563282 -0.000001 0.360372 -0.042731 -0.180501
    2 -0.222119 -3.429973 0.817995 -1.247038 1.437608 -1.233845
    3 0.000000 2.338128 0.839328 0.000000 0.000000 0.000000
    4 -0.000001 -5.493103 2.360612 0.000000 0.000000 0.000000
    5 0.000000 -3.357312 1.408874 0.000000 0.000000 0.000000
    6 -0.000001 -6.122600 1.221523 0.000000 0.000000 0.000000
    7 0.000000 -2.229289 1.941595 0.000000 0.000000 0.000000
    8 -0.003479 -0.404829 0.000000 0.000000 0.000000 0.000000
    9 -0.519310 -2.501155 -0.278957 -1.003564 0.000000 -0.122173
    10 -0.010598 -1.208185 0.000000 -1.148417 0.000000 0.000000
    11 0.000000 -0.763066 0.000000 -0.841249 0.000000 0.000000
    12 0.105980 -2.607135 -0.278957 -0.795871 0.000000 -0.148353
    13 0.000000 -1.250579 0.000000 -1.296776 0.000000 0.000000
    14 0.000000 -0.932634 0.000000 -0.886645 0.000000 0.000000
    15 0.763063 -2.490556 -0.278957 -0.346932 0.039309 0.239193
    16 -0.012323 -1.280918 0.000000 -0.322892 0.000000 0.000000
    17 -0.001696 -0.749371 0.000000 -0.593412 0.000000 0.000000
    18 0.354566 0.016267 0.318133 0.834772 -0.606745 -1.212439
    19 1.887166 0.012878 0.000000 -0.305433 0.000000 -0.401426
    20 1.001874 -0.000270 0.000000 0.000000 0.000000 -0.488692
    21 -1.123360 -2.195093 -0.278957 -0.933751 0.000000 -0.087266
    22 0.010772 -0.963792 0.000000 -0.610865 0.000000 0.000000
    23 -0.010412 -0.631916 0.000000 -1.370074 0.000000 0.000000
    24 -6.487991 -3.814331 -9.733015 -0.438534 0.862190 0.488177
    25 0.089930 -8.543161 -0.000001 0.149071 -0.734683 -0.056018
    26 0.000000 -0.359712 0.000000 0.000000 0.000000 0.000000
    27 -0.170479 -2.636147 -0.277657 -0.465404 0.000000 0.000000
    28 0.010599 -1.261176 0.000002 0.255404 0.000000 0.000000
    29 -0.000001 -0.943233 -0.000002 -0.373104 0.000000 0.000000
    30 -0.827563 -2.508972 -0.277657 -0.168707 0.000000 0.000000
    31 0.000000 -1.292971 0.000001 0.063454 0.000000 0.000000
    32 0.000000 -0.752465 0.000000 -0.285843 0.000000 0.000000
    33 0.444213 -2.561959 -0.277657 -0.499730 -0.046226 -0.024599
    34 0.021022 -1.208186 0.000001 0.080886 0.000000 0.000000
    35 0.010597 -0.741867 -0.000001 -0.294586 0.000000 0.000000
    36 1.047445 -2.222820 -0.277657 -0.280562 -0.078971 -0.038609
    37 0.000000 -0.996224 -0.000002 -0.355446 0.000000 0.000000
    38 -0.000001 -0.614690 0.000000 -0.364384 0.000000 0.000000
    39 -0.308253 -0.007813 0.307166 -0.133784 -0.324103 -2.600170
    40 1.978376 0.019542 -0.000001 -0.071490 -0.056829 -0.037243
    41 0.982425 0.003186 0.000001 0.000000 0.000000 -0.248863
  time 22
    0 7.794057 1.735925 -9.377689 -1.388676 -1.328648 -5.321615
    1 0.000000 -8.563282 -0.000001 0.330727 -0.137991 -0.328957
    2 -0.222119 -3.429973 0.817995 -1.247038 1.437608 -1.233845
    3 0.000000 2.338128 0.839328 0.000000 0.000000 0.000000
    4 -0.000001 -5.493103 2.360612 0.000000 0.000000 0.000000
    5 0.000000 -3.357312 1.408874 0.000000 0.000000 0.000000
    6 -0.000001 -6.122600 1.221523 0.000000 0.000000 0.000000
    7 0.000000 -2.229289 1.941595 0.000000 0.000000 0.000000
    8 -0.003479 -0.404829 0.000000 0.000000 0.000000 0.000000
    9 -0.519310 -2.501155 -0.278957 -1.003564 0.000000 -0.122173
    10 -0.010598 -1.208185 0.000000 -1.148417 0.000000 0.000000
    11 0.000000 -0.763066 0.000000 -0.841249 0.000000 0.000000
    12 0.105980 -2.607135 -0.278957 -0.795871 0.000000 -0.148353
    13 0.000000 -1.250579 0.000000 -1.296776 0.000000 0.000000
    14 0.000000 -0.932634 0.000000 -0.886645 0.000000 0.000000
    15 0.763063 -2.490556 -0.278957 -0.346932 0.039309 0.239193
    16 -0.012323 -1.280918 0.000000 -0.322892 0.000000 0.000000
    17 -0.001696 -0.749371 0.000000 -0.593412 0.000000 0.000000
    18 0.354566 0.016267 0.318133 0.834772 -0.606745 -1.212439
    19 1.887166 0.012878 0.000000 -0.305433 0.000000 -0.401426
    20 1.001874 -0.000270 0.000000 0.000000 0.000000 -0.488692
    21 -1.123360 -2.195093 -0.278957 -0.933751 0.000000 -0.087266
    22 0.010772 -0.963792 0.000000 -0.610865 0.000000 0.000000
    23 -0.010412 -0.631916 0.000000 -1.370074 0.000000 0.000000
    24 -5.933287 -3.865114 -9.709576 -0.412067 0.821469 0.452996
    25 0.089930 -8.543161 -0.000001 0.173597 -0.715162 -0.021235
    26 0.000000 -0.359712 0.000000 0.000000 0.000000 0.000000
    27 -0.170479 -2.636147 -0.277657 -0.531745 0.000000 0.000000
    28 0.010599 -1.261176 0.000002 0.227943 0.000000 0.000000
    29 -0.000001 -0.943233 -0.000002 -0.381707 0.000000 0.000000
    30 -0.827563 -2.508972 -0.277657 -0.235044 0.000000 0.000000
    31 0.000000 -1.292971 0.000001 0.035949 0.000000 0.000000
    32 0.000000 -0.752465 0.000000 -0.294437 0.000000 0.000000
    33 0.444213 -2.561959 -0.277657 -0.566057 -0.046226 -0.024599
    34 0.021022 -1.208186 0.000001 0.053423 0.000000 0.000000
    35 0.010597 -0.741867 -0.000001 -0.303159 0.000000 0.000000
    36 1.047445 -2.222820 -0.277657 -0.346892 -0.078971 -0.038609
    37 0.000000 -0.996224 -0.000002 -0.382924 0.000000 0.000000
    38 -0.000001 -0.614690 0.000000 -0.372989 0.000000 0.000000
    39 -0.308253 -0.007813 0.307166 -0.136265 -0.324186 -2.601035
    40 1.978376 0.019542 -0.000001 -0.072377 -0.055715 -0.021465
    41 0.982425 0.003186 0.000001 0.000000 0.000000 -0.217799
  time 23
    0 7.317480 2.138281 -9.510505 -1.300031 -1.344535 -5.379971
    1 0.000000 -8.563282 -0.000001 0.316510 -0.218476 -0.447868
    2 -0.222119 -3.429973 0.817995 -1.247038 1.437608 -1.233845
    3 0.000000 2.338128 0.839328 0.000000 0.000000 0.000000
    4 -0.000001 -5.493103 2.360612 0.000000 0.000000 0.000000
    5 0.000000 -3.357312 1.408874 0.000000 0.000000 0.000000
    6 -0.000001 -6.122600 1.221523 0.000000 0.000000 0.000000
    7 0.000000 -2.229289 1.941595 0.000000 0.000000 0.000000
    8 -0.003479 -0.404829 0.000000 0.000000 0.000000 0.000000
    9 -0.519310 -2.501155 -0.278957 -1.003564 0.000000 -0.122173
    10 -0.010598 -1.208185 0.000000 -1.148417 0.000000 0.000000
    11 0.000000 -0.763066 0.000000 -0.841249 0.000000 0.000000
    12 0.105980 -2.607135 -0.278957 -0.795871 0.000000 -0.148353
    13 0.000000 -1.250579 0.000000 -1.296776 0.000000 0.000000
    14 0.000000 -0.932634 0.000000 -0.886645 0.000000 0.000000
    15 0.763063 -2.490556 -0.278957 -0.346932 0.039309 0.239193
    16 -0.012323 -1.280918 0.000000 -0.322892 0.000000 0.000000
    17 -0.001696 -0.749371 0.000000 -0.593412 0.000000 0.000000
    18 0.354566 0.016267 0.318133 0.834772 -0.606745 -1.212439
    19 1.887166 0.012878 0.000000 -0.305433 0.000000 -0.401426
    20 1.001874 -0.000270 0.000000 0.000000 0.000000 -0.488692
    21 -1.123360 -2.195093 -0.278957 -0.933751 0.000000 -0.087266
    22 0.010772 -0.963792 0.000000 -0.610865 0.000000 0.000000
    23 -0.010412 -0.631916 0.000000 -1.370074 0.000000 0.000000
    24 -5.343425 -3.997931 -9.611917 -0.255761 0.807708 0.451861
    25 0.089930 -8.543161 -0.000001 0.217827 -0.673190 0.069843
    26 0.000000 -0.359712 0.000000 0.000000 0.000000 0.000000
    27 -0.170479 -2.636147 -0.277657 -0.633079 0.000000 0.000000
    28 0.010599 -1.261176 0.000002 0.185952 0.000000 0.000000
    29 -0.000001 -0.943233 -0.000002 -0.394847 0.000000 0.000000
    30 -0.827563 -2.508972 -0.277657 -0.336378 0.000000 0.000000
    31 0.000000 -1.292971 0.000001 -0.006055 0.000000 0.000000
    32 0.000000 -0.752465 0.000000 -0.307578 0.000000 0.000000
    33 0.444213 -2.561959 -0.277657 -0.667411 -0.046226 -0.024599
    34 0.021022 -1.208186 0.000001 0.011441 0.000000 0.000000
    35 0.010597 -0.741867 -0.000001 -0.316311 0.000000 0.000000
    36 1.047445 -2.222820 -0.277657 -0.448257 -0.078971 -0.038609
    37 0.000000 -0.996224 -0.000002 -0.424908 0.000000 0.000000
    38 -0.000001 -0.614690 0.000000 -0.386136 0.000000 0.000000
    39 -0.308253 -0.007813 0.307166 -0.140076 -0.324330 -2.602371
    40 1.978376 0.019542 -0.000001 -0.073707 -0.053929 0.002687
    41 0.982425 0.003186 0.000001 0.000000 0.000000 -0.170315
  time 24
    0 7.063566 2.525011 -9.522224 -1.212281 -1.352196 -5.439190
    1 0.000000 -8.563282 -0.000001 0.316869 -0.269452 -0.511008
    2 -0.222119 -3.429973 0.817995 -1.247038 1.437608 -1.233845
    3 0.000000 2.338128 0.839328 0.000000 0.000000 0.000000
    4 -0.000001 -5.493103 2.360612 0.000000 0.000000 0.000000
    5 0.000000 -3.357312 1.408874 0.000000 0.000000 0.000000
    6 -0.000001 -6.122600 1.221523 0.000000 0.000000 0.000000
    7 0.000000 -2.229289 1.941595 0.000000 0.000000 0.000000
    8 -0.003479 -0.404829 0.000000 0.000000 0.000000 0.000000
    9 -0.519310 -2.501155 -0.278957 -1.003564 0.000000 -0.122173
    10 -0.010598 -1.208185 0.000000 -1.148417 0.000000 0.000000
    11 0.000000 -0.763066 0.000000 -0.841249 0.000000 0.000000
    12 0.105980 -2.607135 -0.278957 -0.795871 0.000000 -0.148353
    13 0.000000 -1.250579 0.000000 -1.296776 0.000000 0.000000
    14 0.000000 -0.932634 0.000000 -0.886645 0.000000 0.000000
    15 0.763063 -2.490556 -0.278957 -0.346932 0.039309 0.239193
    16 -0.012323 -1.280918 0.000000 -0.322892 0.000000 0.000000
    17 -0.001696 -0.749371 0.000000 -0.593412 0.000000 0.000000
    18 0.354566 0.016267 0.318133 0.834772 -0.606745 -1.212439
    19 1.887166 0.012878 0.000000 -0.305433 0.000000 -0.401426
    20 1.001874 -0.000270 0.000000 0.000000 0.000000 -0.488692
    21 -1.123360 -2.195093 -0.278957 -0.933751 0.000000 -0.087266
    22 0.010772 -0.963792 0.000000 -0.610865 0.000000 0.000000
    23 -0.010412 -0.631916 0.000000 -1.370074 0.000000 0.000000
    24 -4.726219 -4.228406 -9.428318 -0.085767 0.798211 0.454320
    25 0.089930 -8.543161 -0.000001 0.274207 -0.622872 0.194020
    26 0.000000 -0.359712 0.000000 0.000000 0.000000 0.000000
    27 -0.170479 -2.636147 -0.277657 -0.761972 0.000000 0.000000
    28 0.010599 -1.261176 0.000002 0.132553 0.000000 0.000000
    29 -0.000001 -0.943233 -0.000002 -0.411580 0.000000 0.000000
    30 -0.827563 -2.508972 -0.277657 -0.465250 0.000000 0.000000
    31 0.000000 -1.292971 0.000001 -0.059446 0.000000 0.000000
    32 0.000000 -0.752465 0.000000 -0.324309 0.000000 0.000000
    33 0.444213 -2.561959 -0.277657 -0.796337 -0.046226 -0.024599
    34 0.021022 -1.208186 0.000001 -0.041977 0.000000 0.000000
    35 0.010597 -0.741867 -0.000001 -0.333024 0.000000 0.000000
    36 1.047445 -2.222820 -0.277657 -0.577131 -0.078971 -0.038609
    37 0.000000 -0.996224 -0.000002 -0.478298 0.000000 0.000000
    38 -0.000001 -0.614690 0.000000 -0.402842 0.000000 0.000000
    39 -0.308253 -0.007813 0.307166 -0.144930 -0.324510 -2.604063
    40 1.978376 0.019542 -0.000001 -0.075325 -0.051640 0.033364
    41 0.982425 0.003186 0.000001 0.000000 0.000000 -0.109909
  time 25
    0 6.930750 2.903929 -9.416752 -1.129822 -1.353548 -5.494192
    1 0.000000 -8.563282 -0.000001 0.321870 -0.283906 -0.511462
    2 -0.222119 -3.429973 0.817995 -1.247038 1.437608 -1.233845
    3 0.000000 2.338128 0.839328 0.000000 0.000000 0.000000
    4 -0.000001 -5.493103 2.360612 0.000000 0.000000 0.000000
    5 0.000000 -3.357312 1.408874 0.000000 0.000000 0.000000
    6 -0.000001 -6.122600 1.221523 0.000000 0.000000 0.000000
    7 0.000000 -2.229289 1.941595 0.000000 0.000000 0.000000
    8 -0.003479 -0.404829 0.000000 0.000000 0.000000 0.000000
    9 -0.519310 -2.501155 -0.278957 -1.003564 0.000000 -0.122173
    10 -0.010598 -1.208185 0.000000 -1.148417 0.000000 0.000000
    11 0.000000 -0.763066 0.000000 -0.841249 0.000000 0.000000
    12 0.105980 -2.607135 -0.278957 -0.795871 0.000000 -0.148353
    13 0.000000 -1.250579 0.000000 -1.296776 0.000000 0.000000
    14 0.000000 -0.932634 0.000000 -0.886645 0.000000 0.000000
    15 0.763063 -2.490556 -0.278957 -0.346932 0.039309 0.239193
    16 -0.012323 -1.280918 0.000000 -0.322892 0.000000 0.000000
    17 -0.001696 -0.749371 0.000000 -0.593412 0.000000 0.000000
    18 0.354566 0.016267 0.318133 0.834772 -0.606745 -1.212439
    19 1.887166 0.012878 0.000000 -0.305433 0.000000 -0.401426
    20 1.001874 -0.000270 0.000000 0.000000 0.000000 -0.488692
    21 -1.123360 -2.195093 -0.278957 -0.933751 0.000000 -0.087266
    22 0.010772 -0.963792 0.000000 -0.610865 0.000000 0.000000
    23 -0.010412 -0.631916 0.000000 -1.370074 0.000000 0.000000
    24 -4.132451 -4.505759 -9.143153 -0.017709 0.774873 0.428785
    25 0.089930 -8.543161 -0.000001 0.332522 -0.576056 0.328711
    26 0.000000 -0.359712 0.000000 0.000000 0.000000 0.000000
    27 -0.170479 -2.636147 -0.277657 -0.910896 0.000000 0.000000
    28 0.010599 -1.261176 0.000002 0.070891 0.000000 0.000000
    29 -0.000001 -0.943233 -0.000002 -0.430880 0.000000 0.000000
    30 -0.827563 -2.508972 -0.277657 -0.614204 0.000000 0.000000
    31 0.000000 -1.292971 0.000001 -0.121088 0.000000 0.000000
    32 0.000000 -0.752465 0.000000 -0.343629 0.000000 0.000000
    33 0.444213 -2.561959 -0.277657 -0.945239 -0.046226 -0.024599
    34 0.021022 -1.208186 0.000001 -0.103656 0.000000 0.000000
    35 0.010597 -0.741867 -0.000001 -0.352376 0.000000 0.000000
    36 1.047445 -2.222820 -0.277657 -0.726031 -0.078971 -0.038609
    37 0.000000 -0.996224 -0.000002 -0.539977 0.000000 0.000000
    38 -0.000001 -0.614690 0.000000 -0.422161 0.000000 0.000000
    39 -0.308253 -0.007813 0.307166 -0.150539 -0.324750 -2.606023
    40 1.978376 0.019542 -0.000001 -0.077123 -0.048944 0.068829
    41 0.982425 0.003186 0.000001 0.000000 0.000000 -0.040107
  time 26
    0 6.922937 3.271128 -9.197996 -1.054526 -1.350562 -5.542774
    1 0.000000 -8.563282 -0.000001 0.323929 -0.270387 -0.470079
    2 -0.222119 -3.429973 0.817995 -1.247038 1.437608 -1.233845
    3 0.000000 2.338128 0.839328 0.000000 0.000000 0.000000
    4 -0.000001 -5.493103 2.360612 0.000000 0.000000 0.000000
    5 0.000000 -3.357312 1.408874 0.000000 0.000000 0.000000
    6 -0.000001 -6.122600 1.221523 0.000000 0.000000 0.000000
    7 0.000000 -2.229289 1.941595 0.000000 0.000000 0.000000
    8 -0.003479 -0.404829 0.000000 0.000000 0.000000 0.000000
    9 -0.519310 -2.501155 -0.278957 -1.003564 0.000000 -0.122173
    10 -0.010598 -1.208185 0.000000 -1.148417 0.000000 0.000000
    11 0.000000 -0.763066 0.000000 -0.841249 0.000000 0.000000
    12 0.105980 -2.607135 -0.278957 -0.795871 0.000000 -0.148353
    13 0.000000 -1.250579 0.000000 -1.296776 0.000000 0.000000
    14 0.000000 -0.932634 0.000000 -0.886645 0.000000 0.000000
    15 0.763063 -2.490556 -0.278957 -0.346932 0.039309 0.239193
    16 -0.012323 -1.280918 0.000000 -0.322892 0.000000 0.000000
    17 -0.001696 -0.749371 0.000000 -0.593412 0.000000 0.000000
    18 0.354566 0.016267 0.318133 0.834772 -0.606745 -1.212439
    19 1.887166 0.012878 0.000000 -0.305433 0.000000 -0.401426
    20 1.001874 -0.000270 0.000000 0.000000 0.000000 -0.488692
    21 -1.123360 -2.195093 -0.278957 -0.933751 0.000000 -0.087266
    22 0.010772 -0.963792 0.000000 -0.610865 0.000000 0.000000
    23 -0.010412 -0.631916 0.000000 -1.370074 0.000000 0.000000
    24 -3.491806 -4.833894 -8.815018 -0.070416 0.732382 0.374689
    25 0.089930 -8.543161 -0.000001 0.378872 -0.540193 0.451652
    26 0.000000 -0.359712 0.000000 0.000000 0.000000 0.000000
    27 -0.170479 -2.636147 -0.277657 -1.072321 0.000000 0.000000
    28 0.010599 -1.261176 0.000002 0.004011 0.000000 0.000000
    29 -0.000001 -0.943233 -0.000002 -0.451822 0.000000 0.000000
    30 -0.827563 -2.508972 -0.277657 -0.775588 0.000000 0.000000
    31 0.000000 -1.292971 0.000001 -0.188001 0.000000 0.000000
    32 0.000000 -0.752465 0.000000 -0.364559 0.000000 0.000000
    33 0.444213 -2.561959 -0.277657 -1.106660 -0.046226 -0.024599
    34 0.021022 -1.208186 0.000001 -0.170535 0.000000 0.000000
    35 0.010597 -0.741867 -0.000001 -0.373310 0.000000 0.000000
    36 1.047445 -2.222820 -0.277657 -0.887477 -0.078971 -0.038609
    37 0.000000 -0.996224 -0.000002 -0.606845 0.000000 0.000000
    38 -0.000001 -0.614690 0.000000 -0.443111 0.000000 0.000000
    39 -0.308253 -0.007813 0.307166 -0.156603 -0.325001 -2.608147
    40 1.978376 0.019542 -0.000001 -0.078945 -0.045935 0.107234
    41 0.982425 0.003186 0.000001 0.000000 0.000000 0.035544
  time 27
    0 7.036222 3.634420 -8.869861 -0.985092 -1.345211 -5.585703
    1 0.000000 -8.563282 -0.000001 0.325792 -0.238233 -0.401211
    2 -0.222119 -3.429973 0.817995 -1.247038 1.437608 -1.233845
    3 0.000000 2.338128 0.839328 0.000000 0.000000 0.000000
    4 -0.000001 -5.493103 2.360612 0.000000 0.000000 0.000000
    5 0.000000 -3.357312 1.408874 0.000000 0.000000 0.000000
    6 -0.000001 -6.122600 1.221523 0.000000 0.000000 0.000000
    7 0.000000 -2.229289 1.941595 0.000000 0.000000 0.000000
    8 -0.003479 -0.404829 0.000000 0.000000 0.000000 0.000000
    9 -0.519310 -2.501155 -0.278957 -1.003564 0.000000 -0.122173
    10 -0.010598 -1.208185 0.000000 -1.148417 0.000000 0.000000
    11 0.000000 -0.763066 0.000000 -0.841249 0.000000 0.000000
    12 0.105980 -2.607135 -0.278957 -0.795871 0.000000 -0.148353
    13 0.000000 -1.250579 0.000000 -1.296776 0.000000 0.000000
    14 0.000000 -0.932634 0.000000 -0.886645 0.000000 0.000000
    15 0.763063 -2.490556 -0.278957 -0.346932 0.039309 0.239193
    16 -0.012323 -1.280918 0.000000 -0.322892 0.000000 0.000000
    17 -0.001696 -0.749371 0.000000 -0.593412 0.000000 0.000000
    18 0.354566 0.016267 0.318133 0.834772 -0.606745 -1.212439
    19 1.887166 0.012878 0.000000 -0.305433 0.000000 -0.401426
    20 1.001874 -0.000270 0.000000 0.000000 0.000000 -0.488692
    21 -1.123360 -2.195093 -0.278957 -0.933751 0.000000 -0.087266
    22 0.010772 -0.963792 0.000000 -0.610865 0.000000 0.000000
    23 -0.010412 -0.631916 0.000000 -1.370074 0.000000 0.000000
    24 -2.605060 -5.279220 -8.553291 -0.168722 0.677900 0.317756
    25 0.089930 -8.543161 -0.000001 0.397118 -0.518213 0.540311
    26 0.000000 -0.359712 0.000000 0.000000 0.000000 0.000000
    27 -0.170479 -2.636147 -0.277657 -1.238765 0.000000 0.000000
    28 0.010599 -1.261176 0.000002 -0.064916 0.000000 0.000000
    29 -0.000001 -0.943233 -0.000002 -0.473421 0.000000 0.000000
    30 -0.827563 -2.508972 -0.277657 -0.942040 0.000000 0.000000
    31 0.000000 -1.292971 0.000001 -0.256944 0.000000 0.000000
    32 0.000000 -0.752465 0.000000 -0.386163 0.000000 0.000000
    33 0.444213 -2.561959 -0.277657 -1.273099 -0.046226 -0.024599
    34 0.021022 -1.208186 0.000001 -0.239462 0.000000 0.000000
    35 0.010597 -0.741867 -0.000001 -0.394884 0.000000 0.000000
    36 1.047445 -2.222820 -0.277657 -1.053895 -0.078971 -0.038609
    37 0.000000 -0.996224 -0.000002 -0.675785 0.000000 0.000000
    38 -0.000001 -0.614690 0.000000 -0.464695 0.000000 0.000000
    39 -0.308253 -0.007813 0.307166 -0.162883 -0.325265 -2.610323
    40 1.978376 0.019542 -0.000001 -0.080682 -0.042771 0.146864
    41 0.982425 0.003186 0.000001 0.000000 0.000000 0.113543
  time 28
    0 7.270604 3.985993 -8.428441 -0.918424 -1.339239 -5.625948
    1 0.000000 -8.563282 -0.000001 0.330237 -0.196942 -0.319143
    2 -0.222119 -3.429973 0.817995 -1.247038 1.437608 -1.233845
    3 0.000000 2.338128 0.839328 0.000000 0.000000 0.000000
    4 -0.000001 -5.493103 2.360612 0.000000 0.000000 0.000000
    5 0.000000 -3.357312 1.408874 0.000000 0.000000 0.000000
    6 -0.000001 -6.122600 1.221523 0.000000 0.000000 0.000000
    7 0.000000 -2.229289 1.941595 0.000000 0.000000 0.000000
    8 -0.003479 -0.404829 0.000000 0.000000 0.000000 0.000000
    9 -0.519310 -2.501155 -0.278957 -1.003564 0.000000 -0.122173
    10 -0.010598 -1.208185 0.000000 -1.148417 0.000000 0.000000
    11 0.000000 -0.763066 0.000000 -0.841249 0.000000 0.000000
    12 0.105980 -2.607135 -0.278957 -0.795871 0.000000 -0.148353
    13 0.000000 -1.250579 0.000000 -1.296776 0.000000 0.000000
    14 0.000000 -0.932634 0.000000 -0.886645 0.000000 0.000000
    15 0.763063 -2.490556 -0.278957 -0.346932 0.039309 0.239193
    16 -0.012323 -1.280918 0.000000 -0.322892 0.000000 0.000000
    17 -0.001696 -0.749371 0.000000 -0.593412 0.000000 0.000000
    18 0.354566 0.016267 0.318133 0.834772 -0.606745 -1.212439
    19 1.887166 0.012878 0.000000 -0.305433 0.000000 -0.401426
    20 1.001874 -0.000270 0.000000 0.000000 0.000000 -0.488692
    21 -1.123360 -2.195093 -0.278957 -0.933751 0.000000 -0.087266
    22 0.010772 -0.963792 0.000000 -0.610865 0.000000 0.000000
    23 -0.010412 -0.631916 0.000000 -1.370074 0.000000 0.000000
    24 -1.417524 -5.872988 -8.400943 -0.286689 0.612956 0.267538
    25 0.089930 -8.543161 -0.000001 0.338551 -0.514314 0.566372
    26 0.000000 -0.359712 0.000000 0.000000 0.000000 0.000000
    27 -0.170479 -2.636147 -0.277657 -1.402700 0.000000 0.000000
    28 0.010599 -1.261176 0.000002 -0.132819 0.000000 0.000000
    29 -0.000001 -0.943233 -0.000002 -0.494671 0.000000 0.000000
    30 -0.827563 -2.508972 -0.277657 -1.105958 0.000000 0.000000
    31 0.000000 -1.292971 0.000001 -0.324807 0.000000 0.000000
    32 0.000000 -0.752465 0.000000 -0.407442 0.000000 0.000000
    33 0.444213 -2.561959 -0.277657 -1.437006 -0.046226 -0.024599
    34 0.021022 -1.208186 0.000001 -0.307354 0.000000 0.000000
    35 0.010597 -0.741867 -0.000001 -0.416158 0.000000 0.000000
    36 1.047445 -2.222820 -0.277657 -1.217849 -0.078971 -0.038609
    37 0.000000 -0.996224 -0.000002 -0.743696 0.000000 0.000000
    38 -0.000001 -0.614690 0.000000 -0.485943 0.000000 0.000000
    39 -0.308253 -0.007813 0.307166 -0.169043 -0.325565 -2.612486
    40 1.978376 0.019542 -0.000001 -0.082288 -0.039596 0.185849
    41 0.982425 0.003186 0.000001 0.000000 0.000000 0.190368
  time 29
    0 7.626083 4.329754 -7.865924 -0.849966 -1.334169 -5.667631
    1 0.000000 -8.563282 -0.000001 0.338049 -0.156132 -0.237494
    2 -0.222119 -3.429973 0.817995 -1.247038 1.437608 -1.233845
    3 0.000000 2.338128 0.839328 0.000000 0.000000 0.000000
    4 -0.000001 -5.493103 2.360612 0.000000 0.000000 0.000000
    5 0.000000 -3.357312 1.408874 0.000000 0.000000 0.000000
    6 -0.000001 -6.122600 1.221523 0.000000 0.000000 0.000000
    7 0.000000 -2.229289 1.941595 0.000000 0.000000 0.000000
    8 -0.003479 -0.404829 0.000000 0.000000 0.000000 0.000000
    9 -0.519310 -2.501155 -0.278957 -1.003564 0.000000 -0.122173
    10 -0.010598 -1.208185 0.000000 -1.148417 0.000000 0.000000
    11 0.000000 -0.763066 0.000000 -0.841249 0.000000 0.000000
    12 0.105980 -2.607135 -0.278957 -0.795871 0.000000 -0.148353
    13 0.000000 -1.250579 0.000000 -1.296776 0.000000 0.000000
    14 0.000000 -0.932634 0.000000 -0.886645 0.000000 0.000000
    15 0.763063 -2.490556 -0.278957 -0.346932 0.039309 0.239193
    16 -0.012323 -1.280918 0.000000 -0.322892 0.000000 0.000000
    17 -0.001696 -0.749371 0.000000 -0.593412 0.000000 0.000000
    18 0.354566 0.016267 0.318133 0.834772 -0.606745 -1.212439
    19 1.887166 0.012878 0.000000 -0.305433 0.000000 -0.401426
    20 1.001874 -0.000270 0.000000 0.000000 0.000000 -0.488692
    21 -1.123360 -2.195093 -0.278957 -0.933751 0.000000 -0.087266
    22 0.010772 -0.963792 0.000000 -0.610865 0.000000 0.000000
    23 -0.010412 -0.631916 0.000000 -1.370074 0.000000 0.000000
    24 0.016113 -6.587853 -8.318909 -0.402161 0.542218 0.228480
    25 0.089930 -8.543161 -0.000001 0.210817 -0.524919 0.547852
    26 0.000000 -0.359712 0.000000 0.000000 0.000000 0.000000
    27 -0.170479 -2.636147 -0.277657 -1.556595 0.000000 0.000000
    28 0.010599 -1.261176 0.000002 -0.196578 0.000000 0.000000
    29 -0.000001 -0.943233 -0.000002 -0.514648 0.000000 0.000000
    30 -0.827563 -2.508972 -0.277657 -1.259884 0.000000 0.000000
    31 0.000000 -1.292971 0.000001 -0.388583 0.000000 0.000000
    32 0.000000 -0.752465 0.000000 -0.427393 0.000000 0.000000
    33 0.444213 -2.561959 -0.277657 -1.590925 -0.046226 -0.024599
    34 0.021022 -1.208186 0.000001 -0.371104 0.000000 0.000000
    35 0.010597 -0.741867 -0.000001 -0.436131 0.000000 0.000000
    36 1.047445 -2.222820 -0.277657 -1.371768 -0.078971 -0.038609
    37 0.000000 -0.996224 -0.000002 -0.807448 0.000000 0.000000
    38 -0.000001 -0.614690 0.000000 -0.505922 0.000000 0.000000
    39 -0.308253 -0.007813 0.307166 -0.174844 -0.325852 -2.614497
    40 1.978376 0.019542 -0.000001 -0.083690 -0.036551 0.222473
    41 0.982425 0.003186 0.000001 0.000000 0.000000 0.262469
  time 30
    0 8.106567 4.665702 -7.190122 -0.774264 -1.331409 -5.715830
    1 0.000000 -8.563282 -0.000001 0.347494 -0.125220 -0.169570
    2 -0.222119 -3.429973 0.817995 -1.247038 1.437608 -1.233845
    3 0.000000 2.338128 0.839328 0.000000 0.000000 0.000000
    4 -0.000001 -5.493103 2.360612 0.000000 0.000000 0.000000
    5 0.000000 -3.357312 1.408874 0.000000 0.000000 0.000000
    6 -0.000001 -6.122600 1.221523 0.000000 0.000000 0.000000
    7 0.000000 -2.229289 1.941595 0.000000 0.000000 0.000000
    8 -0.003479 -0.404829 0.000000 0.000000 0.000000 0.000000
    9 -0.519310 -2.501155 -0.278957 -1.003564 0.000000 -0.122173
    10 -0.010598 -1.208185 0.000000 -1.148417 0.000000 0.000000
    11 0.000000 -0.763066 0.000000 -0.841249 0.000000 0.000000
    12 0.105980 -2.607135 -0.278957 -0.795871 0.000000 -0.148353
    13 0.000000 -1.250579 0.000000 -1.296776 0.000000 0.000000
    14 0.000000 -0.932634 0.000000 -0.886645 0.000000 0.000000
    15 0.763063 -2.490556 -0.278957 -0.346932 0.039309 0.239193
    16 -0.012323 -1.280918 0.000000 -0.322892 0.000000 0.000000
    17 -0.001696 -0.749371 0.000000 -0.593412 0.000000 0.000000
    18 0.354566 0.016267 0.318133 0.834772 -0.606745 -1.212439
    19 1.887166 0.012878 0.000000 -0.305433 0.000000 -0.401426
    20 1.001874 -0.000270 0.000000 0.000000 0.000000 -0.488692
    21 -1.123360 -2.195093 -0.278957 -0.933751 0.000000 -0.087266
    22 0.010772 -0.963792 0.000000 -0.610865 0.000000 0.000000
    23 -0.010412 -0.631916 0.000000 -1.370074 0.000000 0.000000
    24 1.688039 -7.423816 -8.307190 -0.497140 0.471883 0.200013
    25 0.089930 -8.543161 -0.000001 0.082474 -0.537511 0.530890
    26 0.000000 -0.359712 0.000000 0.000000 0.000000 0.000000
    27 -0.170479 -2.636147 -0.277657 -1.692969 0.000000 0.000000
    28 0.010599 -1.261176 0.000002 -0.253073 0.000000 0.000000
    29 -0.000001 -0.943233 -0.000002 -0.532326 0.000000 0.000000
    30 -0.827563 -2.508972 -0.277657 -1.396263 0.000000 0.000000
    31 0.000000 -1.292971 0.000001 -0.445059 0.000000 0.000000
    32 0.000000 -0.752465 0.000000 -0.445059 0.000000 0.000000
    33 0.444213 -2.561959 -0.277657 -1.727307 -0.046226 -0.024599
    34 0.021022 -1.208186 0.000001 -0.427606 0.000000 0.000000
    35 0.010597 -0.741867 -0.000001 -0.453786 0.000000 0.000000
    36 1.047445 -2.222820 -0.277657 -1.508123 -0.078971 -0.038609
    37 0.000000 -0.996224 -0.000002 -0.863938 0.000000 0.000000
    38 -0.000001 -0.614690 0.000000 -0.523599 0.000000 0.000000
    39 -0.308253 -0.007813 0.307166 -0.179973 -0.326092 -2.616278
    40 1.978376 0.019542 -0.000001 -0.084829 -0.033819 0.254889
    41 0.982425 0.003186 0.000001 0.000000 0.000000 0.326398
end
