version 1
nodes
  0 "y20s1_root" -1
  1 "Bone053" 0
  2 "Bone054" 0
  3 "Bone052" 0
  4 "Bone055" 0
  5 "Bone057" 0
  6 "Bone056" 0
  7 "Bone058" 0
  8 "Bone060" 7
  9 "Bone061" 7
  10 "Bone062" 7
  11 "Bone063" 7
  12 "Bone064" 7
  13 "Bone059" 7
  14 "Bone046" 0
  15 "Bone048" 14
  16 "Bone049" 15
  17 "Bone051" 14
  18 "Bone050" 17
  19 "Bone068" 0
  20 "Bone067" 19
  21 "Bone065" 0
  22 "Bone066" 21
  23 "Bone047" 14
  24 "y20s1_root001" -1
  25 "Bone070" 24
  26 "Bone071" 24
  27 "Bone072" 24
  28 "Bone073" 24
  29 "Bone074" 24
  30 "Bone075" 24
  31 "Bone078" 24
  32 "Bone079" 31
  33 "Bone080" 31
  34 "Bone081" 31
  35 "Bone082" 31
  36 "Bone083" 31
  37 "Bone084" 31
  38 "Bone085" 24
  39 "Bone087" 38
  40 "Bone088" 39
  41 "Bone089" 38
  42 "Bone090" 41
  43 "Bone069" 24
  44 "Bone077" 43
  45 "Bone086" 38
  46 "Bone091" 24
  47 "Bone076" 46
  48 "Bone105" 4
  49 "Bone106" 5
  50 "Bone104" 6
  51 "Bone098" 7
  52 "Bone099" 51
  53 "Bone094" 7
  54 "Bone095" 53
  55 "Bone102" 14
  56 "Bone108" 28
  57 "Bone109" 29
  58 "Bone107" 30
  59 "Bone092" 31
  60 "Bone093" 59
  61 "Bone100" 31
  62 "Bone101" 61
  63 "Bone103" 38
  64 "Bone110" -1
  65 "Bone111" 64
  66 "Bone112" -1
  67 "Bone113" 66
  68 "root" -1
  69 "Bone01" 68
  70 "Bone_Lefthand" 69
  71 "Bone_L_Upper" 69
  72 "Bone13" 70
  73 "Bone14" 72
  74 "Bone15" 73
  75 "Bone17" 70
  76 "Bone18" 75
  77 "Bone19" 76
  78 "Bone21" 70
  79 "Bone22" 78
  80 "Bone23" 79
  81 "Bone09" 70
  82 "Bone10" 81
  83 "Bone11" 82
  84 "Bone05" 70
  85 "Bone06" 84
  86 "Bone07" 85
  87 "Bone_Se_Hand-L" 70
  88 "Bone04" 68
  89 "Bone_Righthand" 88
  90 "Bone39" 89
  91 "Bone40" 90
  92 "Bone41" 91
  93 "Bone35" 89
  94 "Bone36" 93
  95 "Bone37" 94
  96 "Bone31" 89
  97 "Bone32" 96
  98 "Bone33" 97
  99 "Bone43" 89
  100 "Bone44" 99
  101 "Bone45" 100
  102 "Bone27" 89
  103 "Bone28" 102
  104 "Bone29" 103
  105 "Bone_Se_Hand-R" 89
  106 "Bone_R_Upper" 88
end
skeleton
  time 0
    0 10.033024 -8.204272 -6.719499 0.147922 -3.040515 1.276210
    1 5.492746 -0.508946 -0.763181 0.000000 -3.141592 1.570796
    2 6.225239 -0.508947 -0.763181 0.000000 -3.141592 1.570796
    3 4.765635 -0.508946 -0.763181 0.000000 -3.141592 1.570796
    4 5.492747 0.440855 -0.763181 0.000000 0.000000 -1.570796
    5 4.765635 0.440854 -0.763181 0.000000 0.000000 -1.570796
    6 6.225239 0.440854 -0.763181 0.000000 0.000000 -1.570796
    7 0.734516 -0.034953 -1.157406 3.141592 0.000000 0.000000
    8 1.383715 1.775293 -0.363650 0.000000 0.000000 0.000000
    9 1.826590 1.775292 -0.363650 0.000000 0.000000 0.000000
    10 1.383717 -1.761114 -0.363650 0.000000 3.141592 0.000000
    11 1.826591 -1.761114 -0.363650 0.000000 3.141592 0.000000
    12 0.938831 -1.761113 -0.363650 0.000000 3.141592 0.000000
    13 0.938830 1.775293 -0.363650 0.000000 0.000000 0.000000
    14 3.665390 -0.034953 -2.563084 0.000000 0.000000 0.000000
    15 0.753651 -1.638261 0.188614 0.000000 0.000001 0.000000
    16 1.245361 -0.376737 -0.047506 0.000000 -0.000001 0.000000
    17 0.753652 1.639442 0.188613 0.000001 -3.141592 0.000000
    18 -1.245362 0.378591 0.047506 0.000000 -0.000001 0.000001
    19 1.613046 -3.350949 0.877643 0.000000 0.000000 -3.054334
    20 -5.013273 -0.000002 0.000000 0.000000 0.000000 0.000000
    21 1.613047 3.280648 0.877641 3.141592 0.000000 -0.087259
    22 5.013275 0.000001 0.000000 0.000000 0.000000 0.000000
    23 2.620763 0.000000 -0.918122 0.000001 1.570451 0.000000
    24 -10.573516 -8.444762 -6.649499 0.180353 0.044734 1.831554
    25 -5.492747 0.508945 0.763181 0.000000 -3.141592 1.570796
    26 -6.225240 0.508945 0.763181 0.000000 -3.141592 1.570796
    27 -4.765636 0.508945 0.763181 0.000000 -3.141592 1.570796
    28 -5.492747 -0.440856 0.763181 0.000000 0.000000 -1.570796
    29 -4.765636 -0.440856 0.763181 0.000000 0.000000 -1.570796
    30 -6.225240 -0.440856 0.763181 0.000000 0.000000 -1.570796
    31 -0.734516 0.034951 1.157406 3.141592 0.000000 0.000000
    32 -1.383715 -1.775294 0.363650 0.000000 0.000000 0.000000
    33 -1.826590 -1.775294 0.363650 0.000000 0.000000 0.000000
    34 -1.383717 1.761112 0.363650 0.000000 3.141592 0.000000
    35 -1.826591 1.761112 0.363650 0.000000 3.141592 0.000000
    36 -0.938831 1.761112 0.363650 0.000000 3.141592 0.000000
    37 -0.938830 -1.775294 0.363650 0.000000 0.000000 0.000000
    38 -3.665390 0.034952 2.563085 0.000000 0.000000 0.000000
    39 -0.753652 1.638261 -0.188614 0.000000 0.000001 0.000000
    40 -1.245361 0.376737 0.047506 0.000000 -0.000001 0.000000
    41 -0.753652 -1.639441 -0.188613 0.000001 -3.141592 0.000000
    42 1.245362 -0.378591 -0.047506 0.000000 -0.000001 0.000001
    43 -1.613047 -3.280649 -0.877641 3.141592 0.000000 -0.087259
    44 -5.013275 -0.000001 0.000000 0.000000 0.000000 0.000000
    45 -2.620764 0.000000 0.918122 0.000001 1.570451 0.000000
    46 -1.613046 3.350949 -0.877643 0.000000 0.000000 -3.054334
    47 5.013275 0.000001 0.000000 0.000000 0.000000 0.000000
    48 -1.557277 -0.000002 0.000000 0.000001 -3.141592 0.000000
    49 -1.584028 -0.000002 -0.000002 0.000001 -3.141592 0.000000
    50 -1.578958 -0.000001 0.000000 0.000001 3.141592 0.000000
    51 2.008074 -1.587027 0.492986 0.000000 -0.261799 -1.570796
    52 3.174276 0.000001 0.000000 0.000000 0.000000 0.000000
    53 1.336141 -1.587025 0.492987 0.000000 -0.261799 -1.570796
    54 3.174276 0.000002 0.000001 0.000000 0.000000 0.000000
    55 2.630224 0.000001 -1.540956 -0.114884 2.916971 -0.754774
    56 1.537684 -0.000002 0.000003 0.000002 -0.000001 0.000000
    57 1.522417 -0.000004 0.000002 0.000002 -0.000001 0.000000
    58 1.543590 -0.000002 0.000001 0.000000 0.000000 0.000000
    59 -1.334419 1.611833 -0.495547 0.000000 0.349065 1.570797
    60 3.174276 0.000000 0.000000 0.000000 0.000000 0.000000
    61 -2.005603 1.611833 -0.495546 -0.000001 0.349065 1.570797
    62 3.174276 0.000001 0.000001 0.000000 0.000000 0.000000
    63 -2.675037 -0.025829 1.506733 0.231202 -0.233651 -0.743466
    64 58.654182 0.931789 2.138133 0.000000 0.000000 -1.570796
    65 0.903015 -0.000011 0.000001 0.000000 0.000000 0.000000
    66 60.070263 0.292747 6.857915 0.000000 0.000000 -1.570796
    67 0.903015 -0.000011 0.000000 0.000000 0.000000 0.000000
    68 0.003205 -1.618502 -8.700829 -0.140531 0.000000 0.000000
    69 11.098323 -4.909286 0.340423 6.239998 3.013047 -0.341842
    70 -0.079735 -8.553421 -0.483054 3.094799 -0.184258 0.025852
    71 7.671438 3.266323 -0.333406 1.565988 -3.122241 0.484206
    72 -0.488518 -2.755602 -0.228260 3.242396 0.031245 -0.215102
    73 0.039887 -1.550105 0.068918 3.080321 0.026055 0.046897
    74 0.028786 -1.337458 0.027674 3.137775 0.023442 0.048262
    75 0.250027 -2.820665 -0.238396 3.177920 -0.042446 -0.035145
    76 -0.049759 -1.672731 -0.044057 3.155800 -0.041347 -0.041864
    77 -0.034142 -1.230346 0.084782 3.095757 -0.042162 -0.041035
    78 0.957766 -2.746780 -0.090302 -3.153963 -0.247284 0.135890
    79 -0.033420 -1.428380 -0.030789 3.151283 -0.084312 -0.055633
    80 -0.022360 -1.008219 0.010971 3.140979 -0.085079 -0.054470
    81 -1.180681 -2.507217 -0.193859 3.219374 -0.058614 -0.534075
    82 -0.024967 -1.123934 0.025410 3.118662 -0.076294 -0.050059
    83 -0.020057 -0.863623 0.060873 3.075957 -0.075359 -0.051426
    84 0.657731 -1.126962 0.185379 0.377547 0.335032 2.757022
    85 0.910908 -0.060069 0.044073 0.541234 -0.077480 3.105925
    86 0.671070 -0.015005 0.016666 0.535017 -0.078621 3.116275
    87 0.120153 -0.050270 -0.054489 0.287569 3.110905 1.561085
    88 -11.677367 -5.129694 0.561234 -0.096832 -2.970374 0.330335
    89 0.104757 -8.571516 -0.368751 -3.081529 0.175588 -0.045219
    90 0.447953 -2.798986 -0.200443 3.243103 -0.014746 0.208275
    91 -0.032909 -1.472391 0.055723 3.015857 -0.012188 -0.055607
    92 -0.027022 -1.135516 0.042292 -3.007495 -0.003392 -0.056735
    93 -0.249534 -2.846964 -0.174213 3.177907 -0.012062 0.026923
    94 0.043235 -1.683941 0.033510 3.105981 -0.012338 0.036326
    95 0.031729 -1.153017 0.027587 -3.089447 -0.016963 0.027224
    96 -0.963866 -2.785145 -0.085350 3.120474 0.073147 -0.176467
    97 0.028479 -1.453850 -0.013261 3.103750 -0.089022 0.015604
    98 0.021413 -0.957781 -0.019018 3.127162 -0.089069 0.015316
    99 1.164475 -2.543940 -0.170330 3.220679 0.091823 0.517632
    100 0.024032 -1.179825 0.017807 2.991408 0.109515 0.023814
    101 0.014898 -0.891802 0.019216 -3.090104 0.105225 0.038950
    102 -0.586770 -1.264477 0.200161 0.148374 0.421095 -5.840712
    103 1.612682 0.121183 0.016848 -0.048817 0.035459 -3.086450
    104 1.125760 0.028892 -0.005766 -0.043711 0.022009 -2.972891
    105 -0.139399 -0.111698 0.014397 0.285382 -0.030687 1.580508
    106 -8.174927 1.690521 -0.458190 1.569203 -0.034651 -0.283616
  time 1
    0 11.064305 -8.329276 -6.973413 0.051651 -3.021435 1.500192
    1 5.492746 -0.508946 -0.763181 0.000000 -3.141592 1.570796
    2 6.225239 -0.508947 -0.763181 0.000000 -3.141592 1.570796
    3 4.765635 -0.508946 -0.763181 0.000000 -3.141592 1.570796
    4 5.492747 0.440855 -0.763181 0.000000 0.000000 -1.570796
    5 4.765635 0.440854 -0.763181 0.000000 0.000000 -1.570796
    6 6.225239 0.440854 -0.763181 0.000000 0.000000 -1.570796
    7 0.734516 -0.034953 -1.157406 3.141592 0.000000 0.000000
    8 1.383715 1.775293 -0.363650 0.000000 0.000000 0.000000
    9 1.826590 1.775292 -0.363650 0.000000 0.000000 0.000000
    10 1.383717 -1.761114 -0.363650 0.000000 3.141592 0.000000
    11 1.826591 -1.761114 -0.363650 0.000000 3.141592 0.000000
    12 0.938831 -1.761113 -0.363650 0.000000 3.141592 0.000000
    13 0.938830 1.775293 -0.363650 0.000000 0.000000 0.000000
    14 3.665390 -0.034953 -2.563084 0.000000 0.000000 0.000000
    15 0.753651 -1.638261 0.188614 0.000000 0.000001 0.000000
    16 1.245361 -0.376737 -0.047506 0.000000 -0.000001 0.000000
    17 0.753652 1.639442 0.188613 0.000001 -3.141592 0.000000
    18 -1.245362 0.378591 0.047506 0.000000 -0.000001 0.000001
    19 1.613046 -3.350949 0.877643 0.000000 0.000000 -3.054334
    20 -5.013273 -0.000002 0.000000 0.000000 0.000000 0.000000
    21 1.613047 3.280648 0.877641 3.141592 0.000000 -0.087259
    22 5.013275 0.000001 0.000000 0.000000 0.000000 0.000000
    23 2.620763 0.000000 -0.918122 -0.104505 1.570451 0.000000
    24 -9.671144 -8.698676 -6.602623 0.206269 0.027901 2.066046
    25 -5.492747 0.508945 0.763181 0.000000 -3.141592 1.570796
    26 -6.225240 0.508945 0.763181 0.000000 -3.141592 1.570796
    27 -4.765636 0.508945 0.763181 0.000000 -3.141592 1.570796
    28 -5.492747 -0.440856 0.763181 0.000000 0.000000 -1.570796
    29 -4.765636 -0.440856 0.763181 0.000000 0.000000 -1.570796
    30 -6.225240 -0.440856 0.763181 0.000000 0.000000 -1.570796
    31 -0.734516 0.034951 1.157406 3.141592 0.000000 0.000000
    32 -1.383715 -1.775294 0.363650 0.000000 0.000000 0.000000
    33 -1.826590 -1.775294 0.363650 0.000000 0.000000 0.000000
    34 -1.383717 1.761112 0.363650 0.000000 3.141592 0.000000
    35 -1.826591 1.761112 0.363650 0.000000 3.141592 0.000000
    36 -0.938831 1.761112 0.363650 0.000000 3.141592 0.000000
    37 -0.938830 -1.775294 0.363650 0.000000 0.000000 0.000000
    38 -3.665390 0.034952 2.563085 0.000000 0.000000 0.000000
    39 -0.753652 1.638261 -0.188614 0.000000 0.000001 0.000000
    40 -1.245361 0.376737 0.047506 0.000000 -0.000001 0.000000
    41 -0.753652 -1.639441 -0.188613 0.000001 -3.141592 0.000000
    42 1.245362 -0.378591 -0.047506 0.000000 -0.000001 0.000001
    43 -1.613047 -3.280649 -0.877641 3.141592 0.000000 -0.087259
    44 -5.013275 -0.000001 0.000000 0.000000 0.000000 0.000000
    45 -2.620764 0.000000 0.918122 -0.104505 1.570451 0.000000
    46 -1.613046 3.350949 -0.877643 0.000000 0.000000 -3.054334
    47 5.013275 0.000001 0.000000 0.000000 0.000000 0.000000
    48 -1.557277 -0.000002 0.000000 0.805676 -6.283088 3.141592
    49 -1.584028 -0.000002 -0.000002 0.017416 -6.283088 -3.141592
    50 -1.578958 -0.000001 0.000000 0.940959 0.000288 -3.141592
    51 2.008074 -1.587027 0.492986 0.000000 -0.261799 -1.570796
    52 3.174276 0.000001 0.000000 0.000000 0.000000 0.000000
    53 1.336141 -1.587025 0.492987 0.000000 -0.261799 -1.570796
    54 3.174276 0.000002 0.000001 0.000000 0.000000 0.000000
    55 2.630224 0.000001 -1.540956 0.938063 0.224621 -3.896175
    56 1.537684 -0.000002 0.000003 -2.020029 -0.000001 0.000000
    57 1.522417 -0.000004 0.000002 -2.827209 -0.000001 0.000000
    58 1.543590 -0.000002 0.000001 -2.251277 0.000000 0.000000
    59 -1.334419 1.611833 -0.495547 0.000000 0.349065 1.570797
    60 3.174276 0.000000 0.000000 0.000000 0.000000 0.000000
    61 -2.005603 1.611833 -0.495546 -0.000001 0.349065 1.570797
    62 3.174276 0.000001 0.000001 0.000000 0.000000 0.000000
    63 -2.675037 -0.025829 1.506733 2.329869 -0.233651 -0.743466
    64 58.654182 0.931789 2.138133 0.000000 0.000000 -1.570796
    65 0.903015 -0.000011 0.000001 0.000000 0.000000 0.000000
    66 60.070263 0.292747 6.857915 0.000000 0.000000 -1.570796
    67 0.903015 -0.000011 0.000000 0.000000 0.000000 0.000000
    68 0.003205 -1.618502 -8.700829 -0.140531 0.000000 0.000000
    69 11.645215 -4.815533 0.012288 6.256677 3.077913 -0.115559
    70 -0.079735 -8.553421 -0.483054 3.094799 -0.184298 0.028429
    71 7.358929 4.078848 -0.309968 1.565317 -3.124541 0.591000
    72 -0.488518 -2.755602 -0.228260 3.242396 0.031245 -0.215102
    73 0.039887 -1.550105 0.068918 3.080321 0.026055 0.046897
    74 0.028786 -1.337458 0.027674 3.137775 0.023442 0.048262
    75 0.250027 -2.820665 -0.238396 3.177920 -0.042446 -0.035145
    76 -0.049759 -1.672731 -0.044057 3.155800 -0.041347 -0.041864
    77 -0.034142 -1.230346 0.084782 3.095757 -0.042162 -0.041035
    78 0.957766 -2.746780 -0.090302 -3.153963 -0.247284 0.135890
    79 -0.033420 -1.428380 -0.030789 3.151283 -0.084312 -0.055633
    80 -0.022360 -1.008219 0.010971 3.140979 -0.085079 -0.054470
    81 -1.180681 -2.507217 -0.193859 3.219374 -0.058614 -0.534075
    82 -0.024967 -1.123934 0.025410 3.118662 -0.076294 -0.050059
    83 -0.020057 -0.863623 0.060873 3.075957 -0.075359 -0.051426
    84 0.657731 -1.126962 0.185379 0.377547 0.335032 2.757022
    85 0.910908 -0.060069 0.044073 0.541234 -0.077480 3.105925
    86 0.671070 -0.015005 0.016666 0.535001 -0.078621 3.116275
    87 0.120153 -0.050270 -0.054489 0.287569 3.110905 1.561085
    88 -11.200790 -5.684399 0.592485 -0.101227 -2.975432 0.566500
    89 0.104757 -8.567610 -0.368751 -3.075010 0.181504 -0.044775
    90 0.447953 -2.798986 -0.200443 3.243103 -0.014746 0.208275
    91 -0.032909 -1.472391 0.055723 3.015857 -0.012188 -0.055607
    92 -0.027022 -1.135516 0.042292 -3.007495 -0.003392 -0.056735
    93 -0.249534 -2.846964 -0.174213 3.177907 -0.012062 0.026923
    94 0.043235 -1.683941 0.033510 3.105981 -0.012338 0.036326
    95 0.031729 -1.153017 0.027587 -3.089447 -0.016963 0.027224
    96 -0.963866 -2.785145 -0.085350 3.120474 0.073147 -0.176467
    97 0.028479 -1.453850 -0.013261 3.103750 -0.089022 0.015604
    98 0.021413 -0.957781 -0.019018 3.127162 -0.089069 0.015316
    99 1.164475 -2.543940 -0.170330 3.220679 0.091823 0.517632
    100 0.024032 -1.179825 0.017807 2.991408 0.109515 0.023814
    101 0.014898 -0.891802 0.019216 -3.090104 0.105225 0.038950
    102 -0.586770 -1.264477 0.200161 0.148374 0.421095 -5.840712
    103 1.612682 0.121183 0.016848 -0.048817 0.035459 -3.086450
    104 1.125760 0.028892 -0.005766 -0.043711 0.022009 -2.972891
    105 -0.139399 -0.111698 0.014397 0.285382 -0.030687 1.580508
    106 -8.233523 0.780337 -0.469909 1.566807 -0.036276 -0.172600
  time 2
    0 11.556508 -8.708194 -7.582806 3.071575 -0.091883 -1.531602
    1 5.492746 -0.508946 -0.763181 0.000000 -3.141592 1.570796
    2 6.225239 -0.508947 -0.763181 0.000000 -3.141592 1.570796
    3 4.765635 -0.508946 -0.763181 0.000000 -3.141592 1.570796
    4 5.492747 0.440855 -0.763181 0.000000 0.000000 -1.570796
    5 4.765635 0.440854 -0.763181 0.000000 0.000000 -1.570796
    6 6.225239 0.440854 -0.763181 0.000000 0.000000 -1.570796
    7 0.734516 -0.034953 -1.157406 3.141592 0.000000 0.000000
    8 1.383715 1.775293 -0.363650 0.000000 0.000000 0.000000
    9 1.826590 1.775292 -0.363650 0.000000 0.000000 0.000000
    10 1.383717 -1.761114 -0.363650 0.000000 3.141592 0.000000
    11 1.826591 -1.761114 -0.363650 0.000000 3.141592 0.000000
    12 0.938831 -1.761113 -0.363650 0.000000 3.141592 0.000000
    13 0.938830 1.775293 -0.363650 0.000000 0.000000 0.000000
    14 3.665390 -0.034953 -2.563084 0.000000 0.000000 0.000000
    15 0.753651 -1.638261 0.188614 0.000000 0.000001 0.000000
    16 1.245361 -0.376737 -0.047506 0.000000 -0.000001 0.000000
    17 0.753652 1.639442 0.188613 0.000001 -3.141592 0.000000
    18 -1.245362 0.378591 0.047506 0.000000 -0.000001 0.000001
    19 1.613046 -3.350949 0.877643 0.000000 0.000000 -3.054334
    20 -5.013273 -0.000002 0.000000 0.000000 0.000000 0.000000
    21 1.613047 3.280648 0.877641 3.141592 0.000000 -0.087259
    22 5.013275 0.000001 0.000000 0.000000 0.000000 0.000000
    23 2.620763 0.000000 -0.918122 -0.209394 1.570787 0.000000
    24 -9.229725 -8.284601 -6.586997 0.229744 0.004067 2.272519
    25 -5.492747 0.508945 0.763181 0.000000 -3.141592 1.570796
    26 -6.225240 0.508945 0.763181 0.000000 -3.141592 1.570796
    27 -4.765636 0.508945 0.763181 0.000000 -3.141592 1.570796
    28 -5.492747 -0.440856 0.763181 0.000000 0.000000 -1.570796
    29 -4.765636 -0.440856 0.763181 0.000000 0.000000 -1.570796
    30 -6.225240 -0.440856 0.763181 0.000000 0.000000 -1.570796
    31 -0.734516 0.034951 1.157406 3.141592 0.000000 0.000000
    32 -1.383715 -1.775294 0.363650 0.000000 0.000000 0.000000
    33 -1.826590 -1.775294 0.363650 0.000000 0.000000 0.000000
    34 -1.383717 1.761112 0.363650 0.000000 3.141592 0.000000
    35 -1.826591 1.761112 0.363650 0.000000 3.141592 0.000000
    36 -0.938831 1.761112 0.363650 0.000000 3.141592 0.000000
    37 -0.938830 -1.775294 0.363650 0.000000 0.000000 0.000000
    38 -3.665390 0.034952 2.563085 0.000000 0.000000 0.000000
    39 -0.753652 1.638261 -0.188614 0.000000 0.000001 0.000000
    40 -1.245361 0.376737 0.047506 0.000000 -0.000001 0.000000
    41 -0.753652 -1.639441 -0.188613 0.000001 -3.141592 0.000000
    42 1.245362 -0.378591 -0.047506 0.000000 -0.000001 0.000001
    43 -1.613047 -3.280649 -0.877641 3.141592 0.000000 -0.087259
    44 -5.013275 -0.000001 0.000000 0.000000 0.000000 0.000000
    45 -2.620764 0.000000 0.918122 -0.209394 1.570787 0.000000
    46 -1.613046 3.350949 -0.877643 0.000000 0.000000 -3.054334
    47 5.013275 0.000001 0.000000 0.000000 0.000000 0.000000
    48 -1.557277 -0.000002 0.000000 -1.529970 0.000000 3.141592
    49 -1.584028 -0.000002 -0.000002 0.034831 -3.141592 0.000000
    50 -1.578958 -0.000001 0.000000 -1.259445 0.000000 -3.141592
    51 2.008074 -1.587027 0.492986 0.000000 -0.261799 -1.570796
    52 3.174276 0.000001 0.000000 0.000000 0.000000 0.000000
    53 1.336141 -1.587025 0.492987 0.000000 -0.261799 -1.570796
    54 3.174276 0.000002 0.000001 0.000000 0.000000 0.000000
    55 2.630224 0.000001 -1.540956 -1.150350 0.224621 -3.896175
    56 1.537684 -0.000002 0.000003 2.242601 -0.000001 0.000000
    57 1.522417 -0.000004 0.000002 0.628282 -0.000001 0.000000
    58 1.543590 -0.000002 0.000001 1.780140 0.000000 0.000000
    59 -1.334419 1.611833 -0.495547 0.000000 0.349065 1.570797
    60 3.174276 0.000000 0.000000 0.000000 0.000000 0.000000
    61 -2.005603 1.611833 -0.495546 -0.000001 0.349065 1.570797
    62 3.174276 0.000001 0.000001 0.000000 0.000000 0.000000
    63 -2.675037 -0.025829 1.506733 -1.854346 -0.233651 -0.743466
    64 58.654182 0.931789 2.138133 0.000000 0.000000 -1.570796
    65 0.903015 -0.000011 0.000001 0.000000 0.000000 0.000000
    66 60.070263 0.292747 6.857915 0.000000 0.000000 -1.570796
    67 0.903015 -0.000011 0.000000 0.000000 0.000000 0.000000
    68 0.003205 -1.618502 -8.700829 -0.140531 0.000000 0.000000
    69 11.817095 -5.034290 -0.624450 6.232713 -3.097620 -0.002871
    70 -0.079735 -8.553421 -0.483054 3.094799 -0.184258 0.025852
    71 7.202674 4.406983 -0.309968 1.565317 -3.125500 0.635338
    72 -0.488518 -2.755602 -0.228260 3.242396 0.031245 -0.215102
    73 0.039887 -1.550105 0.068918 3.080321 0.026055 0.046897
    74 0.028786 -1.337458 0.027674 3.137775 0.023442 0.048262
    75 0.250027 -2.820665 -0.238396 3.177920 -0.042446 -0.035145
    76 -0.049759 -1.672731 -0.044057 3.155800 -0.041347 -0.041864
    77 -0.034142 -1.230346 0.084782 3.095757 -0.042162 -0.041035
    78 0.957766 -2.746780 -0.090302 -3.153963 -0.247284 0.135890
    79 -0.033420 -1.428380 -0.030789 3.151283 -0.084312 -0.055633
    80 -0.022360 -1.008219 0.010971 3.140979 -0.085079 -0.054470
    81 -1.180681 -2.507217 -0.193859 3.219374 -0.058614 -0.534075
    82 -0.024967 -1.123934 0.025410 3.118662 -0.076294 -0.050059
    83 -0.020057 -0.863623 0.060873 3.075957 -0.075359 -0.051426
    84 0.657731 -1.126962 0.185379 0.377547 0.335032 2.757022
    85 0.910908 -0.060069 0.044073 0.541234 -0.077480 3.105925
    86 0.671070 -0.015005 0.016666 0.535001 -0.078621 3.116275
    87 0.120153 -0.050270 -0.054489 0.287569 3.110905 1.561085
    88 -11.052348 -5.621897 0.674519 -0.108625 -2.976528 0.776434
    89 0.104757 -8.567610 -0.368751 -3.063698 0.191716 -0.043972
    90 0.447953 -2.798986 -0.200443 3.243103 -0.014746 0.208275
    91 -0.032909 -1.472391 0.055723 3.015857 -0.012188 -0.055607
    92 -0.027022 -1.135516 0.042292 -3.007495 -0.003392 -0.056735
    93 -0.249534 -2.846964 -0.174213 3.177907 -0.012062 0.026923
    94 0.043235 -1.683941 0.033510 3.105981 -0.012338 0.036326
    95 0.031729 -1.153017 0.027587 -3.089447 -0.016963 0.027224
    96 -0.963866 -2.785145 -0.085350 3.120474 0.073147 -0.176467
    97 0.028479 -1.453850 -0.013261 3.103750 -0.089022 0.015604
    98 0.021413 -0.957781 -0.019018 3.127162 -0.089069 0.015316
    99 1.164475 -2.543940 -0.170330 3.220679 0.091823 0.517632
    100 0.024032 -1.179825 0.017807 2.991408 0.109515 0.023814
    101 0.014898 -0.891802 0.019216 -3.090104 0.105225 0.038950
    102 -0.586770 -1.264477 0.200161 0.148374 0.421095 -5.840712
    103 1.612682 0.121183 0.016848 -0.048817 0.035459 -3.086450
    104 1.125760 0.028892 -0.005766 -0.043711 0.022009 -2.972891
    105 -0.139399 -0.111698 0.014397 0.285382 -0.030687 1.580508
    106 -8.077268 -0.872057 -0.481628 1.561630 -0.038092 0.029542
  time 3
    0 9.845518 -9.591033 -8.051570 -0.127018 -3.065086 1.192918
    1 5.492746 -0.508946 -0.763181 0.000000 -3.141592 1.570796
    2 6.225239 -0.508947 -0.763181 0.000000 -3.141592 1.570796
    3 4.765635 -0.508946 -0.763181 0.000000 -3.141592 1.570796
    4 5.492747 0.440855 -0.763181 0.000000 0.000000 -1.570796
    5 4.765635 0.440854 -0.763181 0.000000 0.000000 -1.570796
    6 6.225239 0.440854 -0.763181 0.000000 0.000000 -1.570796
    7 0.734516 -0.034953 -1.157406 3.141592 0.000000 0.000000
    8 1.383715 1.775293 -0.363650 0.000000 0.000000 0.000000
    9 1.826590 1.775292 -0.363650 0.000000 0.000000 0.000000
    10 1.383717 -1.761114 -0.363650 0.000000 3.141592 0.000000
    11 1.826591 -1.761114 -0.363650 0.000000 3.141592 0.000000
    12 0.938831 -1.761113 -0.363650 0.000000 3.141592 0.000000
    13 0.938830 1.775293 -0.363650 0.000000 0.000000 0.000000
    14 3.665390 -0.034953 -2.563084 0.000000 0.000000 0.000000
    15 0.753651 -1.638261 0.188614 0.000000 0.000001 0.000000
    16 1.245361 -0.376737 -0.047506 0.000000 -0.000001 0.000000
    17 0.753652 1.639442 0.188613 0.000001 -3.141592 0.000000
    18 -1.245362 0.378591 0.047506 0.000000 -0.000001 0.000001
    19 1.613046 -3.350949 0.877643 0.000000 0.000000 -3.054334
    20 -5.013273 -0.000002 0.000000 0.000000 0.000000 0.000000
    21 1.613047 3.280648 0.877641 3.141592 0.000000 -0.087259
    22 5.013275 0.000001 0.000000 0.000000 0.000000 0.000000
    23 2.620763 0.000000 -0.918122 -0.313899 1.570787 0.000000
    24 -10.327415 -6.393918 -6.774503 0.213017 0.016196 2.095870
    25 -5.492747 0.508945 0.763181 0.000000 -3.141592 1.570796
    26 -6.225240 0.508945 0.763181 0.000000 -3.141592 1.570796
    27 -4.765636 0.508945 0.763181 0.000000 -3.141592 1.570796
    28 -5.492747 -0.440856 0.763181 0.000000 0.000000 -1.570796
    29 -4.765636 -0.440856 0.763181 0.000000 0.000000 -1.570796
    30 -6.225240 -0.440856 0.763181 0.000000 0.000000 -1.570796
    31 -0.734516 0.034951 1.157406 3.141592 0.000000 0.000000
    32 -1.383715 -1.775294 0.363650 0.000000 0.000000 0.000000
    33 -1.826590 -1.775294 0.363650 0.000000 0.000000 0.000000
    34 -1.383717 1.761112 0.363650 0.000000 3.141592 0.000000
    35 -1.826591 1.761112 0.363650 0.000000 3.141592 0.000000
    36 -0.938831 1.761112 0.363650 0.000000 3.141592 0.000000
    37 -0.938830 -1.775294 0.363650 0.000000 0.000000 0.000000
    38 -3.665390 0.034952 2.563085 0.000000 0.000000 0.000000
    39 -0.753652 1.638261 -0.188614 0.000000 0.000001 0.000000
    40 -1.245361 0.376737 0.047506 0.000000 -0.000001 0.000000
    41 -0.753652 -1.639441 -0.188613 0.000001 -3.141592 0.000000
    42 1.245362 -0.378591 -0.047506 0.000000 -0.000001 0.000001
    43 -1.613047 -3.280649 -0.877641 3.141592 0.000000 -0.087259
    44 -5.013275 -0.000001 0.000000 0.000000 0.000000 0.000000
    45 -2.620764 0.000000 0.918122 -0.313899 1.570787 0.000000
    46 -1.613046 3.350949 -0.877643 0.000000 0.000000 -3.054334
    47 5.013275 0.000001 0.000000 0.000000 0.000000 0.000000
    48 -1.557277 -0.000002 0.000000 -0.724247 -3.141592 0.000000
    49 -1.584028 -0.000002 -0.000002 0.052341 0.000000 -3.141592
    50 -1.578958 -0.000001 0.000000 -0.318487 3.141592 0.000000
    51 2.008074 -1.587027 0.492986 0.000000 -0.261799 -1.570796
    52 3.174276 0.000001 0.000000 0.000000 0.000000 0.000000
    53 1.336141 -1.587025 0.492987 0.000000 -0.261799 -1.570796
    54 3.174276 0.000002 0.000001 0.000000 0.000000 0.000000
    55 2.630224 0.000001 -1.540956 -0.097452 2.916971 -0.754774
    56 1.537684 -0.000002 0.000003 0.222474 -0.000001 0.000000
    57 1.522417 -0.000004 0.000002 -2.198930 -0.000001 0.000000
    58 1.543590 -0.000002 0.000001 -0.471042 0.000000 0.000000
    59 -1.334419 1.611833 -0.495547 0.000000 0.349065 1.570797
    60 3.174276 0.000000 0.000000 0.000000 0.000000 0.000000
    61 -2.005603 1.611833 -0.495546 -0.000001 0.349065 1.570797
    62 3.174276 0.000001 0.000001 0.000000 0.000000 0.000000
    63 -2.675037 -0.025829 1.506733 0.244229 -0.233651 -0.743466
    64 58.654182 0.931789 2.138133 0.000000 0.000000 -1.570796
    65 0.903015 -0.000011 0.000001 0.000000 0.000000 0.000000
    66 60.070263 0.292747 6.857915 0.000000 0.000000 -1.570796
    67 0.903015 -0.000011 0.000000 0.000000 0.000000 0.000000
    68 0.003205 -1.618502 -8.700829 -0.140531 0.000000 0.000000
    69 10.860035 -6.085103 -1.229937 6.231755 -2.983313 -0.413197
    70 -0.079735 -8.553421 -0.483054 3.094512 -0.183998 0.007995
    71 7.827693 2.715525 -0.341219 1.566659 -3.120803 0.412978
    72 -0.488518 -2.755602 -0.228260 3.242396 0.031245 -0.215102
    73 0.039887 -1.550105 0.068918 3.080321 0.026055 0.046897
    74 0.028786 -1.337458 0.027674 3.137775 0.023442 0.048262
    75 0.250027 -2.820665 -0.238396 3.177920 -0.042446 -0.035145
    76 -0.049759 -1.672731 -0.044057 3.155800 -0.041347 -0.041864
    77 -0.034142 -1.230346 0.084782 3.095757 -0.042162 -0.041035
    78 0.957766 -2.746780 -0.090302 -3.153963 -0.247284 0.135890
    79 -0.033420 -1.428380 -0.030789 3.151283 -0.084312 -0.055633
    80 -0.022360 -1.008219 0.010971 3.140979 -0.085079 -0.054470
    81 -1.180681 -2.507217 -0.193859 3.219374 -0.058614 -0.534075
    82 -0.024967 -1.123934 0.025410 3.118662 -0.076294 -0.050059
    83 -0.020057 -0.863623 0.060873 3.075957 -0.075359 -0.051426
    84 0.657731 -1.126962 0.185379 0.377547 0.335032 2.757022
    85 0.910908 -0.060069 0.044073 0.541234 -0.077480 3.105925
    86 0.671070 -0.015005 0.016666 0.535001 -0.078621 3.116275
    87 0.120153 -0.050270 -0.054489 0.287569 3.110905 1.561085
    88 -11.903936 -3.434330 0.760459 -0.111152 -2.973142 0.599225
    89 0.104757 -8.563703 -0.368751 -3.050852 0.203164 -0.042942
    90 0.447953 -2.798986 -0.200443 3.243103 -0.014746 0.208275
    91 -0.032909 -1.472391 0.055723 3.015857 -0.012188 -0.055607
    92 -0.027022 -1.135516 0.042292 -3.007495 -0.003392 -0.056735
    93 -0.249534 -2.846964 -0.174213 3.177907 -0.012062 0.026923
    94 0.043235 -1.683941 0.033510 3.105981 -0.012338 0.036326
    95 0.031729 -1.153017 0.027587 -3.089447 -0.016963 0.027224
    96 -0.963866 -2.785145 -0.085350 3.120474 0.073147 -0.176467
    97 0.028479 -1.453850 -0.013261 3.103750 -0.089022 0.015604
    98 0.021413 -0.957781 -0.019018 3.127162 -0.089069 0.015316
    99 1.164475 -2.543940 -0.170330 3.220679 0.091823 0.517632
    100 0.024032 -1.179825 0.017807 2.991408 0.109515 0.023814
    101 0.014898 -0.891802 0.019216 -3.090104 0.105225 0.038950
    102 -0.586770 -1.264477 0.200161 0.148374 0.421095 -5.840712
    103 1.612682 0.121183 0.016848 -0.048817 0.035459 -3.086450
    104 1.125760 0.028892 -0.005766 -0.043711 0.022009 -2.972891
    105 -0.139399 -0.111698 0.014397 0.285382 -0.030687 1.580508
    106 -7.452249 -2.786178 -0.477722 1.555014 -0.038761 0.275670
  time 4
    0 7.583730 -9.712131 -8.340642 -0.173794 -3.023111 0.608284
    1 5.492746 -0.508946 -0.763181 0.000000 -3.141592 1.570796
    2 6.225239 -0.508947 -0.763181 0.000000 -3.141592 1.570796
    3 4.765635 -0.508946 -0.763181 0.000000 -3.141592 1.570796
    4 5.492747 0.440855 -0.763181 0.000000 0.000000 -1.570796
    5 4.765635 0.440854 -0.763181 0.000000 0.000000 -1.570796
    6 6.225239 0.440854 -0.763181 0.000000 0.000000 -1.570796
    7 0.734516 -0.034953 -1.157406 3.141592 0.000000 0.000000
    8 1.383715 1.775293 -0.363650 0.000000 0.000000 0.000000
    9 1.826590 1.775292 -0.363650 0.000000 0.000000 0.000000
    10 1.383717 -1.761114 -0.363650 0.000000 3.141592 0.000000
    11 1.826591 -1.761114 -0.363650 0.000000 3.141592 0.000000
    12 0.938831 -1.761113 -0.363650 0.000000 3.141592 0.000000
    13 0.938830 1.775293 -0.363650 0.000000 0.000000 0.000000
    14 3.665390 -0.034953 -2.563084 0.000000 0.000000 0.000000
    15 0.753651 -1.638261 0.188614 0.000000 0.000001 0.000000
    16 1.245361 -0.376737 -0.047506 0.000000 -0.000001 0.000000
    17 0.753652 1.639442 0.188613 0.000001 -3.141592 0.000000
    18 -1.245362 0.378591 0.047506 0.000000 -0.000001 0.000001
    19 1.613046 -3.350949 0.877643 0.000000 0.000000 -3.054334
    20 -5.013273 -0.000002 0.000000 0.000000 0.000000 0.000000
    21 1.613047 3.280648 0.877641 3.141592 0.000000 -0.087259
    22 5.013275 0.000001 0.000000 0.000000 0.000000 0.000000
    23 2.620763 0.000000 -0.918122 -0.418693 1.570787 0.000000
    24 -10.518827 -3.811808 -7.165140 0.168879 0.037414 1.805060
    25 -5.492747 0.508945 0.763181 0.000000 -3.141592 1.570796
    26 -6.225240 0.508945 0.763181 0.000000 -3.141592 1.570796
    27 -4.765636 0.508945 0.763181 0.000000 -3.141592 1.570796
    28 -5.492747 -0.440856 0.763181 0.000000 0.000000 -1.570796
    29 -4.765636 -0.440856 0.763181 0.000000 0.000000 -1.570796
    30 -6.225240 -0.440856 0.763181 0.000000 0.000000 -1.570796
    31 -0.734516 0.034951 1.157406 3.141592 0.000000 0.000000
    32 -1.383715 -1.775294 0.363650 0.000000 0.000000 0.000000
    33 -1.826590 -1.775294 0.363650 0.000000 0.000000 0.000000
    34 -1.383717 1.761112 0.363650 0.000000 3.141592 0.000000
    35 -1.826591 1.761112 0.363650 0.000000 3.141592 0.000000
    36 -0.938831 1.761112 0.363650 0.000000 3.141592 0.000000
    37 -0.938830 -1.775294 0.363650 0.000000 0.000000 0.000000
    38 -3.665390 0.034952 2.563085 0.000000 0.000000 0.000000
    39 -0.753652 1.638261 -0.188614 0.000000 0.000001 0.000000
    40 -1.245361 0.376737 0.047506 0.000000 -0.000001 0.000000
    41 -0.753652 -1.639441 -0.188613 0.000001 -3.141592 0.000000
    42 1.245362 -0.378591 -0.047506 0.000000 -0.000001 0.000001
    43 -1.613047 -3.280649 -0.877641 3.141592 0.000000 -0.087259
    44 -5.013275 -0.000001 0.000000 0.000000 0.000000 0.000000
    45 -2.620764 0.000000 0.918122 -0.418693 1.570787 0.000000
    46 -1.613046 3.350949 -0.877643 0.000000 0.000000 -3.054334
    47 5.013275 0.000001 0.000000 0.000000 0.000000 0.000000
    48 -1.557277 -0.000002 0.000000 0.081428 0.000000 -3.141592
    49 -1.584028 -0.000002 -0.000002 0.069756 -3.141592 0.000000
    50 -1.578958 -0.000001 0.000000 0.622424 0.000000 -3.141592
    51 2.008074 -1.587027 0.492986 0.000000 -0.261799 -1.570796
    52 3.174276 0.000001 0.000000 0.000000 0.000000 0.000000
    53 1.336141 -1.587025 0.492987 0.000000 -0.261799 -1.570796
    54 3.174276 0.000002 0.000001 0.000000 0.000000 0.000000
    55 2.630224 0.000001 -1.540956 0.955495 0.224621 -3.896175
    56 1.537684 -0.000002 0.000003 -1.797557 -0.000001 0.000000
    57 1.522417 -0.000004 0.000002 1.256562 -0.000001 0.000000
    58 1.543590 -0.000002 0.000001 -2.722511 0.000000 0.000000
    59 -1.334419 1.611833 -0.495547 0.000000 0.349065 1.570797
    60 3.174276 0.000000 0.000000 0.000000 0.000000 0.000000
    61 -2.005603 1.611833 -0.495546 -0.000001 0.349065 1.570797
    62 3.174276 0.000001 0.000001 0.000000 0.000000 0.000000
    63 -2.675037 -0.025829 1.506733 2.342988 -0.233651 -0.743466
    64 58.654182 0.931789 2.138133 0.000000 0.000000 -1.570796
    65 0.903015 -0.000011 0.000001 0.000000 0.000000 0.000000
    66 60.070263 0.292747 6.857915 0.000000 0.000000 -1.570796
    67 0.903015 -0.000011 0.000000 0.000000 0.000000 0.000000
    68 0.003205 -1.618502 -8.700829 -0.140531 0.000000 0.000000
    69 9.336551 -6.991381 -1.745578 0.047741 -2.877150 -1.009332
    70 -0.083641 -8.549514 -0.483054 3.094130 -0.183658 -0.014464
    71 8.054262 0.211542 -0.384189 1.570206 -3.115242 0.103658
    72 -0.488518 -2.755602 -0.228260 3.242396 0.031245 -0.215102
    73 0.039887 -1.550105 0.068918 3.080321 0.026055 0.046897
    74 0.028786 -1.337458 0.027674 3.137775 0.023442 0.048262
    75 0.250027 -2.820665 -0.238396 3.177920 -0.042446 -0.035145
    76 -0.049759 -1.672731 -0.044057 3.155800 -0.041347 -0.041864
    77 -0.034142 -1.230346 0.084782 3.095757 -0.042162 -0.041035
    78 0.957766 -2.746780 -0.090302 -3.153963 -0.247284 0.135890
    79 -0.033420 -1.428380 -0.030789 3.151283 -0.084312 -0.055633
    80 -0.022360 -1.008219 0.010971 3.140979 -0.085079 -0.054470
    81 -1.180681 -2.507217 -0.193859 3.219374 -0.058614 -0.534075
    82 -0.024967 -1.123934 0.025410 3.118662 -0.076294 -0.050059
    83 -0.020057 -0.863623 0.060873 3.075957 -0.075359 -0.051426
    84 0.657731 -1.126962 0.185379 0.377547 0.335032 2.757022
    85 0.910908 -0.060069 0.044073 0.541234 -0.077480 3.105925
    86 0.671070 -0.015005 0.016666 0.535001 -0.078621 3.116275
    87 0.120153 -0.050270 -0.054489 0.287569 3.110905 1.561085
    88 -11.575801 -0.442051 0.717489 -0.104560 -2.978748 0.304531
    89 0.104757 -8.563703 -0.376564 -3.037815 0.215058 -0.041671
    90 0.447953 -2.798986 -0.200443 3.243103 -0.014746 0.208275
    91 -0.032909 -1.472391 0.055723 3.015857 -0.012188 -0.055607
    92 -0.027022 -1.135516 0.042292 -3.007495 -0.003392 -0.056735
    93 -0.249534 -2.846964 -0.174213 3.177907 -0.012062 0.026923
    94 0.043235 -1.683941 0.033510 3.105981 -0.012338 0.036326
    95 0.031729 -1.153017 0.027587 -3.089447 -0.016963 0.027224
    96 -0.963866 -2.785145 -0.085350 3.120474 0.073147 -0.176467
    97 0.028479 -1.453850 -0.013261 3.103750 -0.089022 0.015604
    98 0.021413 -0.957781 -0.019018 3.127162 -0.089069 0.015316
    99 1.164475 -2.543940 -0.170330 3.220679 0.091823 0.517632
    100 0.024032 -1.179825 0.017807 2.991408 0.109515 0.023814
    101 0.014898 -0.891802 0.019216 -3.090104 0.105225 0.038950
    102 -0.586770 -1.264477 0.200161 0.148374 0.421095 -5.840712
    103 1.612682 0.121183 0.016848 -0.048817 0.035459 -3.086450
    104 1.125760 0.028892 -0.005766 -0.043711 0.022009 -2.972891
    105 -0.139399 -0.111698 0.014397 0.285382 -0.030687 1.580508
    106 -6.292057 -4.598733 -0.458190 1.548208 -0.037805 0.537384
  time 5
    0 6.286816 -9.298056 -8.442207 -0.188230 -2.960473 0.188739
    1 5.492746 -0.508946 -0.763181 0.000000 -3.141592 1.570796
    2 6.225239 -0.508947 -0.763181 0.000000 -3.141592 1.570796
    3 4.765635 -0.508946 -0.763181 0.000000 -3.141592 1.570796
    4 5.492747 0.440855 -0.763181 0.000000 0.000000 -1.570796
    5 4.765635 0.440854 -0.763181 0.000000 0.000000 -1.570796
    6 6.225239 0.440854 -0.763181 0.000000 0.000000 -1.570796
    7 0.734516 -0.034953 -1.157406 3.141592 0.000000 0.000000
    8 1.383715 1.775293 -0.363650 0.000000 0.000000 0.000000
    9 1.826590 1.775292 -0.363650 0.000000 0.000000 0.000000
    10 1.383717 -1.761114 -0.363650 0.000000 3.141592 0.000000
    11 1.826591 -1.761114 -0.363650 0.000000 3.141592 0.000000
    12 0.938831 -1.761113 -0.363650 0.000000 3.141592 0.000000
    13 0.938830 1.775293 -0.363650 0.000000 0.000000 0.000000
    14 3.665390 -0.034953 -2.563084 0.000000 0.000000 0.000000
    15 0.753651 -1.638261 0.188614 0.000000 0.000001 0.000000
    16 1.245361 -0.376737 -0.047506 0.000000 -0.000001 0.000000
    17 0.753652 1.639442 0.188613 0.000001 -3.141592 0.000000
    18 -1.245362 0.378591 0.047506 0.000000 -0.000001 0.000001
    19 1.613046 -3.350949 0.877643 0.000000 0.000000 -3.054334
    20 -5.013273 -0.000002 0.000000 0.000000 0.000000 0.000000
    21 1.613047 3.280648 0.877641 3.141592 0.000000 -0.087259
    22 5.013275 0.000001 0.000000 0.000000 0.000000 0.000000
    23 2.620763 0.000000 -0.918122 -0.523582 1.570787 0.000000
    24 -10.014905 -2.553957 -7.411241 0.136787 0.047174 1.636316
    25 -5.492747 0.508945 0.763181 0.000000 -3.141592 1.570796
    26 -6.225240 0.508945 0.763181 0.000000 -3.141592 1.570796
    27 -4.765636 0.508945 0.763181 0.000000 -3.141592 1.570796
    28 -5.492747 -0.440856 0.763181 0.000000 0.000000 -1.570796
    29 -4.765636 -0.440856 0.763181 0.000000 0.000000 -1.570796
    30 -6.225240 -0.440856 0.763181 0.000000 0.000000 -1.570796
    31 -0.734516 0.034951 1.157406 3.141592 0.000000 0.000000
    32 -1.383715 -1.775294 0.363650 0.000000 0.000000 0.000000
    33 -1.826590 -1.775294 0.363650 0.000000 0.000000 0.000000
    34 -1.383717 1.761112 0.363650 0.000000 3.141592 0.000000
    35 -1.826591 1.761112 0.363650 0.000000 3.141592 0.000000
    36 -0.938831 1.761112 0.363650 0.000000 3.141592 0.000000
    37 -0.938830 -1.775294 0.363650 0.000000 0.000000 0.000000
    38 -3.665390 0.034952 2.563085 0.000000 0.000000 0.000000
    39 -0.753652 1.638261 -0.188614 0.000000 0.000001 0.000000
    40 -1.245361 0.376737 0.047506 0.000000 -0.000001 0.000000
    41 -0.753652 -1.639441 -0.188613 0.000001 -3.141592 0.000000
    42 1.245362 -0.378591 -0.047506 0.000000 -0.000001 0.000001
    43 -1.613047 -3.280649 -0.877641 3.141592 0.000000 -0.087259
    44 -5.013275 -0.000001 0.000000 0.000000 0.000000 0.000000
    45 -2.620764 0.000000 0.918122 -0.523582 1.570787 0.000000
    46 -1.613046 3.350949 -0.877643 0.000000 0.000000 -3.054334
    47 5.013275 0.000001 0.000000 0.000000 0.000000 0.000000
    48 -1.557277 -0.000002 0.000000 0.887150 -3.141592 0.000000
    49 -1.584028 -0.000002 -0.000002 0.087266 0.000000 3.141592
    50 -1.578958 -0.000001 0.000000 1.563430 3.141592 0.000000
    51 2.008074 -1.587027 0.492986 0.000000 -0.261799 -1.570796
    52 3.174276 0.000001 0.000000 0.000000 0.000000 0.000000
    53 1.336141 -1.587025 0.492987 0.000000 -0.261799 -1.570796
    54 3.174276 0.000002 0.000001 0.000000 0.000000 0.000000
    55 2.630224 0.000001 -1.540956 -1.132918 0.224621 -3.896175
    56 1.537684 -0.000002 0.000003 2.465073 -0.000001 0.000000
    57 1.522417 -0.000004 0.000002 -1.570746 -0.000001 0.000000
    58 1.543590 -0.000002 0.000001 1.308907 0.000000 0.000000
    59 -1.334419 1.611833 -0.495547 0.000000 0.349065 1.570797
    60 3.174276 0.000000 0.000000 0.000000 0.000000 0.000000
    61 -2.005603 1.611833 -0.495546 -0.000001 0.349065 1.570797
    62 3.174276 0.000001 0.000001 0.000000 0.000000 0.000000
    63 -2.675037 -0.025829 1.506733 -1.841227 -0.233651 -0.743466
    64 58.654182 0.931789 2.138133 0.000000 0.000000 -1.570796
    65 0.903015 -0.000011 0.000001 0.000000 0.000000 0.000000
    66 60.070263 0.292747 6.857915 0.000000 0.000000 -1.570796
    67 0.903015 -0.000011 0.000000 0.000000 0.000000 0.000000
    68 0.003205 -1.618502 -8.700829 -0.140531 0.000000 0.000000
    69 8.184172 -7.327329 -2.022930 0.170629 -2.847161 -1.452257
    70 -0.083641 -8.545608 -0.483054 3.093940 -0.183498 -0.025562
    71 7.749566 -1.550230 -0.403721 -1.568069 -0.029145 -3.257772
    72 -0.488518 -2.755602 -0.228260 3.242396 0.031245 -0.215102
    73 0.039887 -1.550105 0.068918 3.080321 0.026055 0.046897
    74 0.028786 -1.337458 0.027674 3.137775 0.023442 0.048262
    75 0.250027 -2.820665 -0.238396 3.177920 -0.042446 -0.035145
    76 -0.049759 -1.672731 -0.044057 3.155800 -0.041347 -0.041864
    77 -0.034142 -1.230346 0.084782 3.095757 -0.042162 -0.041035
    78 0.957766 -2.746780 -0.090302 -3.153963 -0.247284 0.135890
    79 -0.033420 -1.428380 -0.030789 3.151283 -0.084312 -0.055633
    80 -0.022360 -1.008219 0.010971 3.140979 -0.085079 -0.054470
    81 -1.180681 -2.507217 -0.193859 3.219374 -0.058614 -0.534075
    82 -0.024967 -1.123934 0.025410 3.118662 -0.076294 -0.050059
    83 -0.020057 -0.863623 0.060873 3.075957 -0.075359 -0.051426
    84 0.657731 -1.126962 0.185379 0.377547 0.335032 2.757022
    85 0.910908 -0.060069 0.044073 0.541234 -0.077480 3.105925
    86 0.671070 -0.015005 0.016666 0.535001 -0.078621 3.116275
    87 0.120153 -0.050270 -0.054489 0.287569 3.110905 1.561085
    88 -10.716400 0.987680 0.635455 -0.097711 -2.986898 0.133132
    89 0.104757 -8.563703 -0.376564 -3.030913 0.221298 -0.040940
    90 0.447953 -2.798986 -0.200443 3.243103 -0.014746 0.208275
    91 -0.032909 -1.472391 0.055723 3.015857 -0.012188 -0.055607
    92 -0.027022 -1.135516 0.042292 -3.007495 -0.003392 -0.056735
    93 -0.249534 -2.846964 -0.174213 3.177907 -0.012062 0.026923
    94 0.043235 -1.683941 0.033510 3.105981 -0.012338 0.036326
    95 0.031729 -1.153017 0.027587 -3.089447 -0.016963 0.027224
    96 -0.963866 -2.785145 -0.085350 3.120474 0.073147 -0.176467
    97 0.028479 -1.453850 -0.013261 3.103750 -0.089022 0.015604
    98 0.021413 -0.957781 -0.019018 3.127162 -0.089069 0.015316
    99 1.164475 -2.543940 -0.170330 3.220679 0.091823 0.517632
    100 0.024032 -1.179825 0.017807 2.991408 0.109515 0.023814
    101 0.014898 -0.891802 0.019216 -3.090104 0.105225 0.038950
    102 -0.586770 -1.264477 0.200161 0.148374 0.421095 -5.840712
    103 1.612682 0.121183 0.016848 -0.048817 0.035459 -3.086450
    104 1.125760 0.028892 -0.005766 -0.043711 0.022009 -2.972891
    105 -0.139399 -0.111698 0.014397 0.285382 -0.030687 1.580508
    106 -5.495158 -5.411258 -0.446471 1.544660 -0.036658 0.675365
end
