version 1
nodes
  0 "root_bone_R" -1
  1 "Bone048" 0
  2 "Bone047" 0
  3 "Bone046" 0
  4 "root_bone_L" -1
  5 "Bone049" 4
  6 "Bone050" 4
  7 "Bone051" 4
  8 "Bone0521" -1
  9 "Bone0531" 8
  10 "Bone0541" 8
  11 "Bone0561" 8
  12 "Bone0551" 8
  13 "Bone562" -1
  14 "Bone563" 13
  15 "Bone564" 13
  16 "Bone565" 13
  17 "Bone566" 13
  18 "root" -1
  19 "Bone01" 18
  20 "Bone_L_Upper" 19
  21 "Bone_Lefthand" 19
  22 "Bone13" 21
  23 "Bone14" 22
  24 "Bone15" 23
  25 "Bone17" 21
  26 "Bone18" 25
  27 "Bone19" 26
  28 "Bone21" 21
  29 "Bone22" 28
  30 "Bone23" 29
  31 "Bone09" 21
  32 "Bone10" 31
  33 "Bone11" 32
  34 "Bone05" 21
  35 "Bone06" 34
  36 "Bone07" 35
  37 "Bone_Se_Hand-L" 21
  38 "Bone04" 18
  39 "Bone_Righthand" 38
  40 "Bone39" 39
  41 "Bone40" 40
  42 "Bone41" 41
  43 "Bone35" 39
  44 "Bone36" 43
  45 "Bone37" 44
  46 "Bone31" 39
  47 "Bone32" 46
  48 "Bone33" 47
  49 "Bone43" 39
  50 "Bone44" 49
  51 "Bone45" 50
  52 "Bone27" 39
  53 "Bone28" 52
  54 "Bone29" 53
  55 "Bone_Se_Hand-R" 39
  56 "Bone_R_Upper" 38
end
skeleton
  time 0
    0 -11.018171 -10.551408 -10.035462 3.247880 -0.134436 -1.374411
    1 6.476018 0.000008 0.000000 0.000000 0.000000 0.000000
    2 5.254123 0.000007 0.000000 0.000000 0.000000 0.000000
    3 2.851940 0.000004 0.000000 0.000000 0.000000 0.000000
    4 10.798901 -10.492203 -10.019837 6.184004 -3.002137 -4.959317
    5 6.476018 0.000008 0.000000 0.000000 0.000000 0.000000
    6 5.254123 0.000007 0.000000 0.000000 0.000000 0.000000
    7 2.851939 0.000004 0.000000 0.000000 0.000000 0.000000
    8 46.792534 5.536874 -3.718151 1.340275 -0.568932 -1.243615
    9 -0.000006 -25.000000 25.000008 0.000000 0.000000 0.000000
    10 0.000002 25.000002 25.000004 0.000000 0.000000 0.000000
    11 -0.000005 -25.000002 -25.000004 0.000000 0.000000 0.000000
    12 0.000006 25.000000 -24.999989 0.000000 0.000000 0.000000
    13 46.792534 -5.537000 -3.718151 -1.801318 0.568932 -1.897977
    14 0.000005 25.000002 -25.000004 0.000000 0.000000 0.000000
    15 -0.000005 -25.000004 -25.000004 0.000000 0.000000 0.000000
    16 0.000004 25.000002 25.000004 0.000000 0.000000 0.000000
    17 -0.000004 -25.000002 24.999996 0.000000 0.000000 0.000000
    18 -0.006659 -2.962293 -10.976278 0.000000 0.000000 0.000000
    19 11.673457 -4.065201 -0.467746 0.134902 -3.062831 -0.249931
    20 7.870663 2.559270 -0.341219 1.566792 -3.120550 0.393824
    21 -0.071921 -8.467485 -0.104134 -0.048140 0.285146 0.018577
    22 -0.488518 -2.755602 -0.228260 -2.980700 0.029759 -0.214490
    23 0.039887 -1.550105 0.068918 3.058407 0.026582 0.046597
    24 0.028786 -1.345271 0.008142 -3.027427 0.020530 0.049472
    25 0.250027 -2.820665 -0.238396 -3.045153 -0.041140 -0.036283
    26 -0.049759 -1.661012 -0.047963 -3.019755 -0.038986 -0.043985
    27 -0.034142 -1.230346 0.084782 -3.105611 -0.040412 -0.042701
    28 0.957766 -2.746780 -0.090302 -3.093323 -0.245570 0.133313
    29 -0.033420 -1.428380 -0.030789 -3.090110 -0.083113 -0.057371
    30 -0.022360 -1.008219 0.007065 -3.081883 -0.083377 -0.056987
    31 -1.180681 -2.507217 -0.193859 -3.003850 -0.056876 -0.536172
    32 -0.024967 -1.123934 0.025410 3.082907 -0.077169 -0.048644
    33 -0.020057 -0.863623 0.060873 -3.154342 -0.073981 -0.053367
    34 0.657731 -1.126962 0.185379 0.401804 0.327516 -3.458399
    35 0.910908 -0.083507 0.055792 0.539026 -0.094738 -3.115163
    36 0.678883 -0.026724 0.020572 0.531755 -0.095651 -3.104328
    37 0.120153 -0.050270 -0.054489 0.287569 3.110905 1.561085
    38 -11.778933 -4.086694 -0.434890 0.138062 -3.216383 0.206295
    39 0.096944 -8.450418 -0.009365 -0.032965 -0.297907 -0.004663
    40 0.447953 -2.798986 -0.200443 -2.980839 -0.013093 0.208203
    41 -0.032909 -1.472391 0.055723 3.074454 -0.010570 -0.055978
    42 -0.027022 -1.139422 0.042292 -2.948762 -0.001714 -0.056687
    43 -0.249534 -2.846964 -0.174213 -3.046304 -0.013080 0.026527
    44 0.043235 -1.683941 0.033510 -3.118227 -0.013416 0.035895
    45 0.031729 -1.149111 0.027587 -3.030745 -0.017503 0.026649
    46 -0.963866 -2.785145 -0.085350 -3.103696 0.072751 -0.179104
    47 0.028479 -1.453850 -0.013261 -3.120214 -0.089477 0.012955
    48 0.021413 -0.957781 -0.019018 -3.096772 -0.089489 0.012704
    49 1.164475 -2.543940 -0.170330 -3.003244 0.090552 0.520688
    50 0.024032 -1.187638 0.017807 3.050415 0.108964 0.027098
    51 0.014898 -0.891802 0.019216 -3.031092 0.103823 0.041946
    52 -0.586770 -1.264477 0.200161 0.078911 0.442802 0.271724
    53 1.616588 0.121183 0.016848 -0.050807 0.031468 3.040215
    54 1.117947 0.028892 -0.005766 -0.047330 0.018534 3.153538
    55 -0.139399 -0.111698 0.014397 0.285382 -0.030687 1.580508
    56 -7.940545 2.924934 -0.450377 1.572487 -0.032432 -0.436269
  time 1
    0 -11.502561 -8.367748 -12.906644 3.642612 -0.025967 -1.456453
    1 6.476018 0.000008 0.000000 0.000000 0.000000 0.000000
    2 5.254123 0.000007 0.000000 0.000000 0.000000 0.000000
    3 2.851940 0.000004 0.000000 0.000000 0.000000 0.000000
    4 11.490328 -7.749931 -12.660543 5.828212 -3.123183 -4.844632
    5 6.476018 0.000008 0.000000 0.000000 0.000000 0.000000
    6 5.254123 0.000007 0.000000 0.000000 0.000000 0.000000
    7 2.851939 0.000004 0.000000 0.000000 0.000000 0.000000
    8 46.792534 5.536874 -3.718151 1.340275 -0.568932 -1.243615
    9 -0.000006 -25.000000 25.000008 0.000000 0.000000 0.000000
    10 0.000002 25.000002 25.000004 0.000000 0.000000 0.000000
    11 -0.000005 -25.000002 -25.000004 0.000000 0.000000 0.000000
    12 0.000006 25.000000 -24.999989 0.000000 0.000000 0.000000
    13 46.792534 -5.537000 -3.718151 -1.801318 0.568932 -1.897977
    14 0.000005 25.000002 -25.000004 0.000000 0.000000 0.000000
    15 -0.000005 -25.000004 -25.000004 0.000000 0.000000 0.000000
    16 0.000004 25.000002 25.000004 0.000000 0.000000 0.000000
    17 -0.000004 -25.000002 24.999996 0.000000 0.000000 0.000000
    18 -0.006659 -2.962293 -10.976278 0.000000 0.000000 0.000000
    19 11.673457 -1.057297 -2.616249 0.012250 -2.707299 -0.131919
    20 7.940978 -0.757237 -0.395908 -1.569699 -0.027804 -3.157969
    21 -0.071921 -8.467485 -0.104134 -0.048140 0.285146 0.018577
    22 -0.488518 -2.755602 -0.228260 -2.980700 0.029759 -0.214490
    23 0.039887 -1.550105 0.068918 3.058597 0.026582 0.046597
    24 0.028786 -1.345271 0.008142 -3.027427 0.020530 0.049472
    25 0.250027 -2.820665 -0.238396 -3.045153 -0.041140 -0.036283
    26 -0.049759 -1.661012 -0.047963 -3.019755 -0.038986 -0.043985
    27 -0.034142 -1.230346 0.084782 -3.105611 -0.040412 -0.042701
    28 0.957766 -2.746780 -0.090302 -3.093323 -0.245570 0.133313
    29 -0.033420 -1.428380 -0.030789 -3.090110 -0.083113 -0.057371
    30 -0.022360 -1.008219 0.007065 -3.081883 -0.083377 -0.056987
    31 -1.180681 -2.507217 -0.193859 -3.003850 -0.056876 -0.536172
    32 -0.024967 -1.123934 0.025410 3.082907 -0.077169 -0.048644
    33 -0.020057 -0.863623 0.060873 -3.154342 -0.073981 -0.053367
    34 0.657731 -1.126962 0.185379 0.401804 0.327516 -3.458399
    35 0.910908 -0.083507 0.055792 0.539026 -0.094738 -3.115163
    36 0.678883 -0.026724 0.020572 0.531755 -0.095651 -3.104328
    37 0.120153 -0.050270 -0.054489 0.287569 3.110905 1.561085
    38 -11.653929 -1.688183 -2.860746 0.032469 -3.611497 0.127495
    39 0.096944 -8.450418 -0.009365 -0.032965 -0.297907 -0.004663
    40 0.447953 -2.798986 -0.200443 -2.980839 -0.013093 0.208203
    41 -0.032909 -1.472391 0.055723 3.074454 -0.010570 -0.055978
    42 -0.027022 -1.139422 0.042292 -2.948762 -0.001714 -0.056687
    43 -0.249534 -2.846964 -0.174213 -3.046304 -0.013080 0.026527
    44 0.043235 -1.683941 0.033510 -3.118227 -0.013416 0.035895
    45 0.031729 -1.149111 0.027587 -3.030745 -0.017503 0.026649
    46 -0.963866 -2.785145 -0.085350 -3.103696 0.072751 -0.179104
    47 0.028479 -1.453850 -0.013261 -3.120214 -0.089477 0.012955
    48 0.021413 -0.957781 -0.019018 -3.096772 -0.089489 0.012704
    49 1.164475 -2.543940 -0.170330 -3.003244 0.090552 0.520688
    50 0.024032 -1.187638 0.017807 3.050415 0.108964 0.027098
    51 0.014898 -0.891802 0.019216 -3.031092 0.103823 0.041946
    52 -0.586770 -1.264477 0.200161 0.078911 0.442802 0.271724
    53 1.616588 0.121183 0.016848 -0.050807 0.031468 3.040215
    54 1.117947 0.028892 -0.005766 -0.047330 0.018534 3.153538
    55 -0.139399 -0.111698 0.014397 0.285382 -0.030687 1.580508
    56 -8.221803 0.174850 -0.477722 1.564793 -0.037058 -0.098508
  time 2
    0 -10.518156 -5.859859 -14.434034 0.881426 3.134179 -4.713946
    1 6.476018 0.000008 0.000000 0.000000 0.000000 0.000000
    2 5.254123 0.000007 0.000000 0.000000 0.000000 0.000000
    3 2.851940 0.000004 0.000000 0.000000 0.000000 0.000000
    4 10.419983 -4.870937 -13.715262 2.349249 0.021530 -1.556914
    5 6.476018 0.000008 0.000000 0.000000 0.000000 0.000000
    6 5.254123 0.000007 0.000000 0.000000 0.000000 0.000000
    7 2.851939 0.000004 0.000000 0.000000 0.000000 0.000000
    8 46.792534 5.536874 -3.718151 1.340275 -0.568932 -1.243615
    9 -0.000006 -25.000000 25.000008 0.000000 0.000000 0.000000
    10 0.000002 25.000002 25.000004 0.000000 0.000000 0.000000
    11 -0.000005 -25.000002 -25.000004 0.000000 0.000000 0.000000
    12 0.000006 25.000000 -24.999989 0.000000 0.000000 0.000000
    13 46.792534 -5.537000 -3.718151 -1.801318 0.568932 -1.897977
    14 0.000005 25.000002 -25.000004 0.000000 0.000000 0.000000
    15 -0.000005 -25.000004 -25.000004 0.000000 0.000000 0.000000
    16 0.000004 25.000002 25.000004 0.000000 0.000000 0.000000
    17 -0.000004 -25.000002 24.999996 0.000000 0.000000 0.000000
    18 -0.006659 -2.962293 -10.976278 0.000000 0.000000 0.000000
    19 9.786680 1.829510 -3.362365 6.240654 -2.370439 0.046242
    20 6.718284 -3.769048 -0.419346 -1.562224 -0.032310 -3.559739
    21 -0.071921 -8.467485 -0.104134 -0.048140 0.285146 0.018577
    22 -0.488518 -2.755602 -0.228260 -2.980700 0.029759 -0.214490
    23 0.039887 -1.550105 0.068918 3.058597 0.026582 0.046597
    24 0.028786 -1.345271 0.008142 -3.027427 0.020530 0.049472
    25 0.250027 -2.820665 -0.238396 -3.045153 -0.041140 -0.036283
    26 -0.049759 -1.661012 -0.047963 -3.019755 -0.038986 -0.043985
    27 -0.034142 -1.230346 0.084782 -3.105611 -0.040412 -0.042701
    28 0.957766 -2.746780 -0.090302 -3.093323 -0.245570 0.133313
    29 -0.033420 -1.428380 -0.030789 -3.090110 -0.083113 -0.057371
    30 -0.022360 -1.008219 0.007065 -3.081883 -0.083377 -0.056987
    31 -1.180681 -2.507217 -0.193859 -3.003850 -0.056876 -0.536172
    32 -0.024967 -1.123934 0.025410 3.082907 -0.077169 -0.048644
    33 -0.020057 -0.863623 0.060873 -3.154342 -0.073981 -0.053367
    34 0.657731 -1.126962 0.185379 0.401804 0.327516 -3.458399
    35 0.910908 -0.083507 0.055792 0.539026 -0.094738 -3.115163
    36 0.678883 -0.026724 0.020572 0.531755 -0.095651 -3.104328
    37 0.120153 -0.050270 -0.054489 0.287569 3.110905 1.561085
    38 -9.950752 0.839238 -4.106877 -0.007810 -3.991852 -0.010218
    39 0.096944 -8.450418 -0.009365 -0.032965 -0.297907 -0.004663
    40 0.447953 -2.798986 -0.200443 -2.980839 -0.013093 0.208203
    41 -0.032909 -1.472391 0.055723 3.074454 -0.010570 -0.055978
    42 -0.027022 -1.139422 0.042292 -2.948762 -0.001714 -0.056687
    43 -0.249534 -2.846964 -0.174213 -3.046304 -0.013080 0.026527
    44 0.043235 -1.683941 0.033510 -3.118227 -0.013416 0.035895
    45 0.031729 -1.149111 0.027587 -3.030745 -0.017503 0.026649
    46 -0.963866 -2.785145 -0.085350 -3.103696 0.072751 -0.179104
    47 0.028479 -1.453850 -0.013261 -3.120214 -0.089477 0.012955
    48 0.021413 -0.957781 -0.019018 -3.096772 -0.089489 0.012704
    49 1.164475 -2.543940 -0.170330 -3.003244 0.090552 0.520688
    50 0.024032 -1.187638 0.017807 3.050415 0.108964 0.027098
    51 0.014898 -0.891802 0.019216 -3.031092 0.103823 0.041946
    52 -0.586770 -1.264477 0.200161 0.078911 0.442802 0.271724
    53 1.616588 0.121183 0.016848 -0.050807 0.031468 3.040215
    54 1.117947 0.028892 -0.005766 -0.047330 0.018534 3.153538
    55 -0.139399 -0.111698 0.014397 0.285382 -0.030687 1.580508
    56 -7.573346 -2.520545 -0.477722 1.555984 -0.038867 0.239309
end
