version 1
nodes
  0 "Bip01" -1
  1 "Bip01 Pelvis" 0
  2 "Bip01 Spine" 1
  3 "Bip01 Spine1" 2
  4 "Bip01 Spine2" 3
  5 "Bip01 Spine3" 4
  6 "Bip01 Neck" 5
  7 "Bip01 R Clavicle" 6
  8 "Bip01 R UpperArm" 7
  9 "Bip01 R Forearm" 8
  10 "Bip01 R Hand" 9
  11 "Fn_Scar_Limit_shop" 10
end
skeleton
  time 0
    0 -0.001605 -2.250069 38.192150 0.000000 0.000000 -1.570795
    1 -2.276920 0.000003 -1.238186 -1.570795 -1.570796 0.000000
    2 1.797146 0.711796 -0.000002 -0.000004 -0.000001 0.000739
    3 4.118605 -0.003280 0.000000 0.000000 0.000000 0.000035
    4 4.118601 -0.003280 0.000000 0.000000 0.000000 0.000049
    5 4.118600 -0.003279 0.000000 0.000000 0.000000 -0.000009
    6 4.118531 -0.003538 0.000000 0.000000 0.000000 -0.019437
    7 0.000007 0.003548 -1.498853 -0.000040 1.501696 -3.122992
    8 5.449906 0.000000 -0.000003 -0.293727 -0.900068 -0.358301
    9 10.242682 -0.000001 0.000000 0.000000 0.000000 -1.616559
    10 10.987489 -0.000001 0.000000 2.408088 -0.507136 -0.659418
    11 2.686396 1.340058 -0.014987 0.022658 0.011047 1.841257
  time 1
    0 -0.001605 -2.250069 38.192150 0.000000 0.000000 -1.570795
    1 -2.276920 0.000003 -1.238186 -1.570795 -1.570796 0.000000
    2 1.797146 0.711796 -0.000002 -0.000004 -0.000001 0.000739
    3 4.118605 -0.003280 0.000000 0.000000 0.000000 0.000035
    4 4.118601 -0.003280 0.000000 0.000000 0.000000 0.000049
    5 4.118600 -0.003279 0.000000 0.000000 0.000000 -0.000009
    6 4.118531 -0.003538 0.000000 0.000000 0.000000 -0.019437
    7 0.000007 0.003548 -1.498853 -0.000040 1.501696 -3.122992
    8 5.449906 0.000000 -0.000003 -0.293727 -0.900068 -0.358301
    9 10.242682 -0.000001 0.000000 0.000000 0.000000 -1.616559
    10 10.987489 -0.000001 0.000000 2.408088 -0.507136 -0.659418
    11 2.686396 1.340058 -0.014987 0.022658 0.011047 1.841257
  time 2
    0 -0.001605 -2.250069 38.192150 0.000000 0.000000 -1.570795
    1 -2.276920 0.000003 -1.238186 -1.570795 -1.570796 0.000000
    2 1.797146 0.711796 -0.000002 -0.000004 -0.000001 0.000739
    3 4.118605 -0.003280 0.000000 0.000000 0.000000 0.000035
    4 4.118601 -0.003280 0.000000 0.000000 0.000000 0.000049
    5 4.118600 -0.003279 0.000000 0.000000 0.000000 -0.000009
    6 4.118531 -0.003538 0.000000 0.000000 0.000000 -0.019437
    7 0.000007 0.003548 -1.498853 -0.000040 1.501696 -3.122992
    8 5.449906 0.000000 -0.000003 -0.293727 -0.900068 -0.358301
    9 10.242682 -0.000001 0.000000 0.000000 0.000000 -1.616559
    10 10.987489 -0.000001 0.000000 2.408088 -0.507136 -0.659418
    11 2.686396 1.340058 -0.014987 0.022658 0.011047 1.841257
  time 3
    0 -0.001605 -2.250069 38.192150 0.000000 0.000000 -1.570795
    1 -2.276920 0.000003 -1.238186 -1.570795 -1.570796 0.000000
    2 1.797146 0.711796 -0.000002 -0.000004 -0.000001 0.000739
    3 4.118605 -0.003280 0.000000 0.000000 0.000000 0.000035
    4 4.118601 -0.003280 0.000000 0.000000 0.000000 0.000049
    5 4.118600 -0.003279 0.000000 0.000000 0.000000 -0.000009
    6 4.118531 -0.003538 0.000000 0.000000 0.000000 -0.019437
    7 0.000007 0.003548 -1.498853 -0.000040 1.501696 -3.122992
    8 5.449906 0.000000 -0.000003 -0.293727 -0.900068 -0.358301
    9 10.242682 -0.000001 0.000000 0.000000 0.000000 -1.616559
    10 10.987489 -0.000001 0.000000 2.408088 -0.507136 -0.659418
    11 2.686396 1.340058 -0.014987 0.022658 0.011047 1.841257
  time 4
    0 -0.001605 -2.250069 38.192150 0.000000 0.000000 -1.570795
    1 -2.276920 0.000003 -1.238186 -1.570795 -1.570796 0.000000
    2 1.797146 0.711796 -0.000002 -0.000004 -0.000001 0.000739
    3 4.118605 -0.003280 0.000000 0.000000 0.000000 0.000035
    4 4.118601 -0.003280 0.000000 0.000000 0.000000 0.000049
    5 4.118600 -0.003279 0.000000 0.000000 0.000000 -0.000009
    6 4.118531 -0.003538 0.000000 0.000000 0.000000 -0.019437
    7 0.000007 0.003548 -1.498853 -0.000040 1.501696 -3.122992
    8 5.449906 0.000000 -0.000003 -0.293727 -0.900068 -0.358301
    9 10.242682 -0.000001 0.000000 0.000000 0.000000 -1.616559
    10 10.987489 -0.000001 0.000000 2.408088 -0.507136 -0.659418
    11 2.686396 1.340058 -0.014987 0.022658 0.011047 1.841257
  time 5
    0 -0.001605 -2.250069 38.192150 0.000000 0.000000 -1.570795
    1 -2.276920 0.000003 -1.238186 -1.570795 -1.570796 0.000000
    2 1.797146 0.711796 -0.000002 -0.000004 -0.000001 0.000739
    3 4.118605 -0.003280 0.000000 0.000000 0.000000 0.000035
    4 4.118601 -0.003280 0.000000 0.000000 0.000000 0.000049
    5 4.118600 -0.003279 0.000000 0.000000 0.000000 -0.000009
    6 4.118531 -0.003538 0.000000 0.000000 0.000000 -0.019437
    7 0.000007 0.003548 -1.498853 -0.000040 1.501696 -3.122992
    8 5.449906 0.000000 -0.000003 -0.293727 -0.900068 -0.358301
    9 10.242682 -0.000001 0.000000 0.000000 0.000000 -1.616559
    10 10.987489 -0.000001 0.000000 2.408088 -0.507136 -0.659418
    11 2.686396 1.340058 -0.014987 0.022658 0.011047 1.841257
  time 6
    0 -0.001605 -2.250069 38.192150 0.000000 0.000000 -1.570795
    1 -2.276920 0.000003 -1.238186 -1.570795 -1.570796 0.000000
    2 1.797146 0.711796 -0.000002 -0.000004 -0.000001 0.000739
    3 4.118605 -0.003280 0.000000 0.000000 0.000000 0.000035
    4 4.118601 -0.003280 0.000000 0.000000 0.000000 0.000049
    5 4.118600 -0.003279 0.000000 0.000000 0.000000 -0.000009
    6 4.118531 -0.003538 0.000000 0.000000 0.000000 -0.019437
    7 0.000007 0.003548 -1.498853 -0.000040 1.501696 -3.122992
    8 5.449906 0.000000 -0.000003 -0.293727 -0.900068 -0.358301
    9 10.242682 -0.000001 0.000000 0.000000 0.000000 -1.616559
    10 10.987489 -0.000001 0.000000 2.408088 -0.507136 -0.659418
    11 2.686396 1.340058 -0.014987 0.022658 0.011047 1.841257
  time 7
    0 -0.001605 -2.250069 38.192150 0.000000 0.000000 -1.570795
    1 -2.276920 0.000003 -1.238186 -1.570795 -1.570796 0.000000
    2 1.797146 0.711796 -0.000002 -0.000004 -0.000001 0.000739
    3 4.118605 -0.003280 0.000000 0.000000 0.000000 0.000035
    4 4.118601 -0.003280 0.000000 0.000000 0.000000 0.000049
    5 4.118600 -0.003279 0.000000 0.000000 0.000000 -0.000009
    6 4.118531 -0.003538 0.000000 0.000000 0.000000 -0.019437
    7 0.000007 0.003548 -1.498853 -0.000040 1.501696 -3.122992
    8 5.449906 0.000000 -0.000003 -0.293727 -0.900068 -0.358301
    9 10.242682 -0.000001 0.000000 0.000000 0.000000 -1.616559
    10 10.987489 -0.000001 0.000000 2.408088 -0.507136 -0.659418
    11 2.686396 1.340058 -0.014987 0.022658 0.011047 1.841257
  time 8
    0 -0.001605 -2.250069 38.192150 0.000000 0.000000 -1.570795
    1 -2.276920 0.000003 -1.238186 -1.570795 -1.570796 0.000000
    2 1.797146 0.711796 -0.000002 -0.000004 -0.000001 0.000739
    3 4.118605 -0.003280 0.000000 0.000000 0.000000 0.000035
    4 4.118601 -0.003280 0.000000 0.000000 0.000000 0.000049
    5 4.118600 -0.003279 0.000000 0.000000 0.000000 -0.000009
    6 4.118531 -0.003538 0.000000 0.000000 0.000000 -0.019437
    7 0.000007 0.003548 -1.498853 -0.000040 1.501696 -3.122992
    8 5.449906 0.000000 -0.000003 -0.293727 -0.900068 -0.358301
    9 10.242682 -0.000001 0.000000 0.000000 0.000000 -1.616559
    10 10.987489 -0.000001 0.000000 2.408088 -0.507136 -0.659418
    11 2.686396 1.340058 -0.014987 0.022658 0.011047 1.841257
  time 9
    0 -0.001605 -2.250069 38.192150 0.000000 0.000000 -1.570795
    1 -2.276920 0.000003 -1.238186 -1.570795 -1.570796 0.000000
    2 1.797146 0.711796 -0.000002 -0.000004 -0.000001 0.000739
    3 4.118605 -0.003280 0.000000 0.000000 0.000000 0.000035
    4 4.118601 -0.003280 0.000000 0.000000 0.000000 0.000049
    5 4.118600 -0.003279 0.000000 0.000000 0.000000 -0.000009
    6 4.118531 -0.003538 0.000000 0.000000 0.000000 -0.019437
    7 0.000007 0.003548 -1.498853 -0.000040 1.501696 -3.122992
    8 5.449906 0.000000 -0.000003 -0.293727 -0.900068 -0.358301
    9 10.242682 -0.000001 0.000000 0.000000 0.000000 -1.616559
    10 10.987489 -0.000001 0.000000 2.408088 -0.507136 -0.659418
    11 2.686396 1.340058 -0.014987 0.022658 0.011047 1.841257
  time 10
    0 -0.001605 -2.250069 38.192150 0.000000 0.000000 -1.570795
    1 -2.276920 0.000003 -1.238186 -1.570795 -1.570796 0.000000
    2 1.797146 0.711796 -0.000002 -0.000004 -0.000001 0.000739
    3 4.118605 -0.003280 0.000000 0.000000 0.000000 0.000035
    4 4.118601 -0.003280 0.000000 0.000000 0.000000 0.000049
    5 4.118600 -0.003279 0.000000 0.000000 0.000000 -0.000009
    6 4.118531 -0.003538 0.000000 0.000000 0.000000 -0.019437
    7 0.000007 0.003548 -1.498853 -0.000040 1.501696 -3.122992
    8 5.449906 0.000000 -0.000003 -0.293727 -0.900068 -0.358301
    9 10.242682 -0.000001 0.000000 0.000000 0.000000 -1.616559
    10 10.987489 -0.000001 0.000000 2.408088 -0.507136 -0.659418
    11 2.686396 1.340058 -0.014987 0.022658 0.011047 1.841257
  time 11
    0 -0.001605 -2.250069 38.192150 0.000000 0.000000 -1.570795
    1 -2.276920 0.000003 -1.238186 -1.570795 -1.570796 0.000000
    2 1.797146 0.711796 -0.000002 -0.000004 -0.000001 0.000739
    3 4.118605 -0.003280 0.000000 0.000000 0.000000 0.000035
    4 4.118601 -0.003280 0.000000 0.000000 0.000000 0.000049
    5 4.118600 -0.003279 0.000000 0.000000 0.000000 -0.000009
    6 4.118531 -0.003538 0.000000 0.000000 0.000000 -0.019437
    7 0.000007 0.003548 -1.498853 -0.000040 1.501696 -3.122992
    8 5.449906 0.000000 -0.000003 -0.293727 -0.900068 -0.358301
    9 10.242682 -0.000001 0.000000 0.000000 0.000000 -1.616559
    10 10.987489 -0.000001 0.000000 2.408088 -0.507136 -0.659418
    11 2.686396 1.340058 -0.014987 0.022658 0.011047 1.841257
  time 12
    0 -0.001605 -2.250069 38.192150 0.000000 0.000000 -1.570795
    1 -2.276920 0.000003 -1.238186 -1.570795 -1.570796 0.000000
    2 1.797146 0.711796 -0.000002 -0.000004 -0.000001 0.000739
    3 4.118605 -0.003280 0.000000 0.000000 0.000000 0.000035
    4 4.118601 -0.003280 0.000000 0.000000 0.000000 0.000049
    5 4.118600 -0.003279 0.000000 0.000000 0.000000 -0.000009
    6 4.118531 -0.003538 0.000000 0.000000 0.000000 -0.019437
    7 0.000007 0.003548 -1.498853 -0.000040 1.501696 -3.122992
    8 5.449906 0.000000 -0.000003 -0.293727 -0.900068 -0.358301
    9 10.242682 -0.000001 0.000000 0.000000 0.000000 -1.616559
    10 10.987489 -0.000001 0.000000 2.408088 -0.507136 -0.659418
    11 2.686396 1.340058 -0.014987 0.022658 0.011047 1.841257
  time 13
    0 -0.001605 -2.250069 38.192150 0.000000 0.000000 -1.570795
    1 -2.276920 0.000003 -1.238186 -1.570795 -1.570796 0.000000
    2 1.797146 0.711796 -0.000002 -0.000004 -0.000001 0.000739
    3 4.118605 -0.003280 0.000000 0.000000 0.000000 0.000035
    4 4.118601 -0.003280 0.000000 0.000000 0.000000 0.000049
    5 4.118600 -0.003279 0.000000 0.000000 0.000000 -0.000009
    6 4.118531 -0.003538 0.000000 0.000000 0.000000 -0.019437
    7 0.000007 0.003548 -1.498853 -0.000040 1.501696 -3.122992
    8 5.449906 0.000000 -0.000003 -0.293727 -0.900068 -0.358301
    9 10.242682 -0.000001 0.000000 0.000000 0.000000 -1.616559
    10 10.987489 -0.000001 0.000000 2.408088 -0.507136 -0.659418
    11 2.686396 1.340058 -0.014987 0.022658 0.011047 1.841257
  time 14
    0 -0.001605 -2.250069 38.192150 0.000000 0.000000 -1.570795
    1 -2.276920 0.000003 -1.238186 -1.570795 -1.570796 0.000000
    2 1.797146 0.711796 -0.000002 -0.000004 -0.000001 0.000739
    3 4.118605 -0.003280 0.000000 0.000000 0.000000 0.000035
    4 4.118601 -0.003280 0.000000 0.000000 0.000000 0.000049
    5 4.118600 -0.003279 0.000000 0.000000 0.000000 -0.000009
    6 4.118531 -0.003538 0.000000 0.000000 0.000000 -0.019437
    7 0.000007 0.003548 -1.498853 -0.000040 1.501696 -3.122992
    8 5.449906 0.000000 -0.000003 -0.293727 -0.900068 -0.358301
    9 10.242682 -0.000001 0.000000 0.000000 0.000000 -1.616559
    10 10.987489 -0.000001 0.000000 2.408088 -0.507136 -0.659418
    11 2.686396 1.340058 -0.014987 0.022658 0.011047 1.841257
  time 15
    0 -0.001605 -2.250069 38.192150 0.000000 0.000000 -1.570795
    1 -2.276920 0.000003 -1.238186 -1.570795 -1.570796 0.000000
    2 1.797146 0.711796 -0.000002 -0.000004 -0.000001 0.000739
    3 4.118605 -0.003280 0.000000 0.000000 0.000000 0.000035
    4 4.118601 -0.003280 0.000000 0.000000 0.000000 0.000049
    5 4.118600 -0.003279 0.000000 0.000000 0.000000 -0.000009
    6 4.118531 -0.003538 0.000000 0.000000 0.000000 -0.019437
    7 0.000007 0.003548 -1.498853 -0.000040 1.501696 -3.122992
    8 5.449906 0.000000 -0.000003 -0.293727 -0.900068 -0.358301
    9 10.242682 -0.000001 0.000000 0.000000 0.000000 -1.616559
    10 10.987489 -0.000001 0.000000 2.408088 -0.507136 -0.659418
    11 2.686396 1.340058 -0.014987 0.022658 0.011047 1.841257
  time 16
    0 -0.001605 -2.250069 38.192150 0.000000 0.000000 -1.570795
    1 -2.276920 0.000003 -1.238186 -1.570795 -1.570796 0.000000
    2 1.797146 0.711796 -0.000002 -0.000004 -0.000001 0.000739
    3 4.118605 -0.003280 0.000000 0.000000 0.000000 0.000035
    4 4.118601 -0.003280 0.000000 0.000000 0.000000 0.000049
    5 4.118600 -0.003279 0.000000 0.000000 0.000000 -0.000009
    6 4.118531 -0.003538 0.000000 0.000000 0.000000 -0.019437
    7 0.000007 0.003548 -1.498853 -0.000040 1.501696 -3.122992
    8 5.449906 0.000000 -0.000003 -0.293727 -0.900068 -0.358301
    9 10.242682 -0.000001 0.000000 0.000000 0.000000 -1.616559
    10 10.987489 -0.000001 0.000000 2.408088 -0.507136 -0.659418
    11 2.686396 1.340058 -0.014987 0.022658 0.011047 1.841257
  time 17
    0 -0.001605 -2.250069 38.192150 0.000000 0.000000 -1.570795
    1 -2.276920 0.000003 -1.238186 -1.570795 -1.570796 0.000000
    2 1.797146 0.711796 -0.000002 -0.000004 -0.000001 0.000739
    3 4.118605 -0.003280 0.000000 0.000000 0.000000 0.000035
    4 4.118601 -0.003280 0.000000 0.000000 0.000000 0.000049
    5 4.118600 -0.003279 0.000000 0.000000 0.000000 -0.000009
    6 4.118531 -0.003538 0.000000 0.000000 0.000000 -0.019437
    7 0.000007 0.003548 -1.498853 -0.000040 1.501696 -3.122992
    8 5.449906 0.000000 -0.000003 -0.293727 -0.900068 -0.358301
    9 10.242682 -0.000001 0.000000 0.000000 0.000000 -1.616559
    10 10.987489 -0.000001 0.000000 2.408088 -0.507136 -0.659418
    11 2.686396 1.340058 -0.014987 0.022658 0.011047 1.841257
  time 18
    0 -0.001605 -2.250069 38.192150 0.000000 0.000000 -1.570795
    1 -2.276920 0.000003 -1.238186 -1.570795 -1.570796 0.000000
    2 1.797146 0.711796 -0.000002 -0.000004 -0.000001 0.000739
    3 4.118605 -0.003280 0.000000 0.000000 0.000000 0.000035
    4 4.118601 -0.003280 0.000000 0.000000 0.000000 0.000049
    5 4.118600 -0.003279 0.000000 0.000000 0.000000 -0.000009
    6 4.118531 -0.003538 0.000000 0.000000 0.000000 -0.019437
    7 0.000007 0.003548 -1.498853 -0.000040 1.501696 -3.122992
    8 5.449906 0.000000 -0.000003 -0.293727 -0.900068 -0.358301
    9 10.242682 -0.000001 0.000000 0.000000 0.000000 -1.616559
    10 10.987489 -0.000001 0.000000 2.408088 -0.507136 -0.659418
    11 2.686396 1.340058 -0.014987 0.022658 0.011047 1.841257
  time 19
    0 -0.001605 -2.250069 38.192150 0.000000 0.000000 -1.570795
    1 -2.276920 0.000003 -1.238186 -1.570795 -1.570796 0.000000
    2 1.797146 0.711796 -0.000002 -0.000004 -0.000001 0.000739
    3 4.118605 -0.003280 0.000000 0.000000 0.000000 0.000035
    4 4.118601 -0.003280 0.000000 0.000000 0.000000 0.000049
    5 4.118600 -0.003279 0.000000 0.000000 0.000000 -0.000009
    6 4.118531 -0.003538 0.000000 0.000000 0.000000 -0.019437
    7 0.000007 0.003548 -1.498853 -0.000040 1.501696 -3.122992
    8 5.449906 0.000000 -0.000003 -0.293727 -0.900068 -0.358301
    9 10.242682 -0.000001 0.000000 0.000000 0.000000 -1.616559
    10 10.987489 -0.000001 0.000000 2.408088 -0.507136 -0.659418
    11 2.686396 1.340058 -0.014987 0.022658 0.011047 1.841257
  time 20
    0 -0.001605 -2.250069 38.192150 0.000000 0.000000 -1.570795
    1 -2.276920 0.000003 -1.238186 -1.570795 -1.570796 0.000000
    2 1.797146 0.711796 -0.000002 -0.000004 -0.000001 0.000739
    3 4.118605 -0.003280 0.000000 0.000000 0.000000 0.000035
    4 4.118601 -0.003280 0.000000 0.000000 0.000000 0.000049
    5 4.118600 -0.003279 0.000000 0.000000 0.000000 -0.000009
    6 4.118531 -0.003538 0.000000 0.000000 0.000000 -0.019437
    7 0.000007 0.003548 -1.498853 -0.000040 1.501696 -3.122992
    8 5.449906 0.000000 -0.000003 -0.293727 -0.900068 -0.358301
    9 10.242682 -0.000001 0.000000 0.000000 0.000000 -1.616559
    10 10.987489 -0.000001 0.000000 2.408088 -0.507136 -0.659418
    11 2.686396 1.340058 -0.014987 0.022658 0.011047 1.841257
  time 21
    0 -0.001605 -2.250069 38.192150 0.000000 0.000000 -1.570795
    1 -2.276920 0.000003 -1.238186 -1.570795 -1.570796 0.000000
    2 1.797146 0.711796 -0.000002 -0.000004 -0.000001 0.000739
    3 4.118605 -0.003280 0.000000 0.000000 0.000000 0.000035
    4 4.118601 -0.003280 0.000000 0.000000 0.000000 0.000049
    5 4.118600 -0.003279 0.000000 0.000000 0.000000 -0.000009
    6 4.118531 -0.003538 0.000000 0.000000 0.000000 -0.019437
    7 0.000007 0.003548 -1.498853 -0.000040 1.501696 -3.122992
    8 5.449906 0.000000 -0.000003 -0.293727 -0.900068 -0.358301
    9 10.242682 -0.000001 0.000000 0.000000 0.000000 -1.616559
    10 10.987489 -0.000001 0.000000 2.408088 -0.507136 -0.659418
    11 2.686396 1.340058 -0.014987 0.022658 0.011047 1.841257
  time 22
    0 -0.001605 -2.250069 38.192150 0.000000 0.000000 -1.570795
    1 -2.276920 0.000003 -1.238186 -1.570795 -1.570796 0.000000
    2 1.797146 0.711796 -0.000002 -0.000004 -0.000001 0.000739
    3 4.118605 -0.003280 0.000000 0.000000 0.000000 0.000035
    4 4.118601 -0.003280 0.000000 0.000000 0.000000 0.000049
    5 4.118600 -0.003279 0.000000 0.000000 0.000000 -0.000009
    6 4.118531 -0.003538 0.000000 0.000000 0.000000 -0.019437
    7 0.000007 0.003548 -1.498853 -0.000040 1.501696 -3.122992
    8 5.449906 0.000000 -0.000003 -0.293727 -0.900068 -0.358301
    9 10.242682 -0.000001 0.000000 0.000000 0.000000 -1.616559
    10 10.987489 -0.000001 0.000000 2.408088 -0.507136 -0.659418
    11 2.686396 1.340058 -0.014987 0.022658 0.011047 1.841257
  time 23
    0 -0.001605 -2.250069 38.192150 0.000000 0.000000 -1.570795
    1 -2.276920 0.000003 -1.238186 -1.570795 -1.570796 0.000000
    2 1.797146 0.711796 -0.000002 -0.000004 -0.000001 0.000739
    3 4.118605 -0.003280 0.000000 0.000000 0.000000 0.000035
    4 4.118601 -0.003280 0.000000 0.000000 0.000000 0.000049
    5 4.118600 -0.003279 0.000000 0.000000 0.000000 -0.000009
    6 4.118531 -0.003538 0.000000 0.000000 0.000000 -0.019437
    7 0.000007 0.003548 -1.498853 -0.000040 1.501696 -3.122992
    8 5.449906 0.000000 -0.000003 -0.293727 -0.900068 -0.358301
    9 10.242682 -0.000001 0.000000 0.000000 0.000000 -1.616559
    10 10.987489 -0.000001 0.000000 2.408088 -0.507136 -0.659418
    11 2.686396 1.340058 -0.014987 0.022658 0.011047 1.841257
  time 24
    0 -0.001605 -2.250069 38.192150 0.000000 0.000000 -1.570795
    1 -2.276920 0.000003 -1.238186 -1.570795 -1.570796 0.000000
    2 1.797146 0.711796 -0.000002 -0.000004 -0.000001 0.000739
    3 4.118605 -0.003280 0.000000 0.000000 0.000000 0.000035
    4 4.118601 -0.003280 0.000000 0.000000 0.000000 0.000049
    5 4.118600 -0.003279 0.000000 0.000000 0.000000 -0.000009
    6 4.118531 -0.003538 0.000000 0.000000 0.000000 -0.019437
    7 0.000007 0.003548 -1.498853 -0.000040 1.501696 -3.122992
    8 5.449906 0.000000 -0.000003 -0.293727 -0.900068 -0.358301
    9 10.242682 -0.000001 0.000000 0.000000 0.000000 -1.616559
    10 10.987489 -0.000001 0.000000 2.408088 -0.507136 -0.659418
    11 2.686396 1.340058 -0.014987 0.022658 0.011047 1.841257
  time 25
    0 -0.001605 -2.250069 38.192150 0.000000 0.000000 -1.570795
    1 -2.276920 0.000003 -1.238186 -1.570795 -1.570796 0.000000
    2 1.797146 0.711796 -0.000002 -0.000004 -0.000001 0.000739
    3 4.118605 -0.003280 0.000000 0.000000 0.000000 0.000035
    4 4.118601 -0.003280 0.000000 0.000000 0.000000 0.000049
    5 4.118600 -0.003279 0.000000 0.000000 0.000000 -0.000009
    6 4.118531 -0.003538 0.000000 0.000000 0.000000 -0.019437
    7 0.000007 0.003548 -1.498853 -0.000040 1.501696 -3.122992
    8 5.449906 0.000000 -0.000003 -0.293727 -0.900068 -0.358301
    9 10.242682 -0.000001 0.000000 0.000000 0.000000 -1.616559
    10 10.987489 -0.000001 0.000000 2.408088 -0.507136 -0.659418
    11 2.686396 1.340058 -0.014987 0.022658 0.011047 1.841257
  time 26
    0 -0.001605 -2.250069 38.192150 0.000000 0.000000 -1.570795
    1 -2.276920 0.000003 -1.238186 -1.570795 -1.570796 0.000000
    2 1.797146 0.711796 -0.000002 -0.000004 -0.000001 0.000739
    3 4.118605 -0.003280 0.000000 0.000000 0.000000 0.000035
    4 4.118601 -0.003280 0.000000 0.000000 0.000000 0.000049
    5 4.118600 -0.003279 0.000000 0.000000 0.000000 -0.000009
    6 4.118531 -0.003538 0.000000 0.000000 0.000000 -0.019437
    7 0.000007 0.003548 -1.498853 -0.000040 1.501696 -3.122992
    8 5.449906 0.000000 -0.000003 -0.293727 -0.900068 -0.358301
    9 10.242682 -0.000001 0.000000 0.000000 0.000000 -1.616559
    10 10.987489 -0.000001 0.000000 2.408088 -0.507136 -0.659418
    11 2.686396 1.340058 -0.014987 0.022658 0.011047 1.841257
  time 27
    0 -0.001605 -2.250069 38.192150 0.000000 0.000000 -1.570795
    1 -2.276920 0.000003 -1.238186 -1.570795 -1.570796 0.000000
    2 1.797146 0.711796 -0.000002 -0.000004 -0.000001 0.000739
    3 4.118605 -0.003280 0.000000 0.000000 0.000000 0.000035
    4 4.118601 -0.003280 0.000000 0.000000 0.000000 0.000049
    5 4.118600 -0.003279 0.000000 0.000000 0.000000 -0.000009
    6 4.118531 -0.003538 0.000000 0.000000 0.000000 -0.019437
    7 0.000007 0.003548 -1.498853 -0.000040 1.501696 -3.122992
    8 5.449906 0.000000 -0.000003 -0.293727 -0.900068 -0.358301
    9 10.242682 -0.000001 0.000000 0.000000 0.000000 -1.616559
    10 10.987489 -0.000001 0.000000 2.408088 -0.507136 -0.659418
    11 2.686396 1.340058 -0.014987 0.022658 0.011047 1.841257
  time 28
    0 -0.001605 -2.250069 38.192150 0.000000 0.000000 -1.570795
    1 -2.276920 0.000003 -1.238186 -1.570795 -1.570796 0.000000
    2 1.797146 0.711796 -0.000002 -0.000004 -0.000001 0.000739
    3 4.118605 -0.003280 0.000000 0.000000 0.000000 0.000035
    4 4.118601 -0.003280 0.000000 0.000000 0.000000 0.000049
    5 4.118600 -0.003279 0.000000 0.000000 0.000000 -0.000009
    6 4.118531 -0.003538 0.000000 0.000000 0.000000 -0.019437
    7 0.000007 0.003548 -1.498853 -0.000040 1.501696 -3.122992
    8 5.449906 0.000000 -0.000003 -0.293727 -0.900068 -0.358301
    9 10.242682 -0.000001 0.000000 0.000000 0.000000 -1.616559
    10 10.987489 -0.000001 0.000000 2.408088 -0.507136 -0.659418
    11 2.686396 1.340058 -0.014987 0.022658 0.011047 1.841257
  time 29
    0 -0.001605 -2.250069 38.192150 0.000000 0.000000 -1.570795
    1 -2.276920 0.000003 -1.238186 -1.570795 -1.570796 0.000000
    2 1.797146 0.711796 -0.000002 -0.000004 -0.000001 0.000739
    3 4.118605 -0.003280 0.000000 0.000000 0.000000 0.000035
    4 4.118601 -0.003280 0.000000 0.000000 0.000000 0.000049
    5 4.118600 -0.003279 0.000000 0.000000 0.000000 -0.000009
    6 4.118531 -0.003538 0.000000 0.000000 0.000000 -0.019437
    7 0.000007 0.003548 -1.498853 -0.000040 1.501696 -3.122992
    8 5.449906 0.000000 -0.000003 -0.293727 -0.900068 -0.358301
    9 10.242682 -0.000001 0.000000 0.000000 0.000000 -1.616559
    10 10.987489 -0.000001 0.000000 2.408088 -0.507136 -0.659418
    11 2.686396 1.340058 -0.014987 0.022658 0.011047 1.841257
  time 30
    0 -0.001605 -2.250069 38.192150 0.000000 0.000000 -1.570795
    1 -2.276920 0.000003 -1.238186 -1.570795 -1.570796 0.000000
    2 1.797146 0.711796 -0.000002 -0.000004 -0.000001 0.000739
    3 4.118605 -0.003280 0.000000 0.000000 0.000000 0.000035
    4 4.118601 -0.003280 0.000000 0.000000 0.000000 0.000049
    5 4.118600 -0.003279 0.000000 0.000000 0.000000 -0.000009
    6 4.118531 -0.003538 0.000000 0.000000 0.000000 -0.019437
    7 0.000007 0.003548 -1.498853 -0.000040 1.501696 -3.122992
    8 5.449906 0.000000 -0.000003 -0.293727 -0.900068 -0.358301
    9 10.242682 -0.000001 0.000000 0.000000 0.000000 -1.616559
    10 10.987489 -0.000001 0.000000 2.408088 -0.507136 -0.659418
    11 2.686396 1.340058 -0.014987 0.022658 0.011047 1.841257
  time 31
    0 -0.001605 -2.250069 38.192150 0.000000 0.000000 -1.570795
    1 -2.276920 0.000003 -1.238186 -1.570795 -1.570796 0.000000
    2 1.797146 0.711796 -0.000002 -0.000004 -0.000001 0.000739
    3 4.118605 -0.003280 0.000000 0.000000 0.000000 0.000035
    4 4.118601 -0.003280 0.000000 0.000000 0.000000 0.000049
    5 4.118600 -0.003279 0.000000 0.000000 0.000000 -0.000009
    6 4.118531 -0.003538 0.000000 0.000000 0.000000 -0.019437
    7 0.000007 0.003548 -1.498853 -0.000040 1.501696 -3.122992
    8 5.449906 0.000000 -0.000003 -0.293727 -0.900068 -0.358301
    9 10.242682 -0.000001 0.000000 0.000000 0.000000 -1.616559
    10 10.987489 -0.000001 0.000000 2.408088 -0.507136 -0.659418
    11 2.686396 1.340058 -0.014987 0.022658 0.011047 1.841257
  time 32
    0 -0.001605 -2.250069 38.192150 0.000000 0.000000 -1.570795
    1 -2.276920 0.000003 -1.238186 -1.570795 -1.570796 0.000000
    2 1.797146 0.711796 -0.000002 -0.000004 -0.000001 0.000739
    3 4.118605 -0.003280 0.000000 0.000000 0.000000 0.000035
    4 4.118601 -0.003280 0.000000 0.000000 0.000000 0.000049
    5 4.118600 -0.003279 0.000000 0.000000 0.000000 -0.000009
    6 4.118531 -0.003538 0.000000 0.000000 0.000000 -0.019437
    7 0.000007 0.003548 -1.498853 -0.000040 1.501696 -3.122992
    8 5.449906 0.000000 -0.000003 -0.293727 -0.900068 -0.358301
    9 10.242682 -0.000001 0.000000 0.000000 0.000000 -1.616559
    10 10.987489 -0.000001 0.000000 2.408088 -0.507136 -0.659418
    11 2.686396 1.340058 -0.014987 0.022658 0.011047 1.841257
  time 33
    0 -0.001605 -2.250069 38.192150 0.000000 0.000000 -1.570795
    1 -2.276920 0.000003 -1.238186 -1.570795 -1.570796 0.000000
    2 1.797146 0.711796 -0.000002 -0.000004 -0.000001 0.000739
    3 4.118605 -0.003280 0.000000 0.000000 0.000000 0.000035
    4 4.118601 -0.003280 0.000000 0.000000 0.000000 0.000049
    5 4.118600 -0.003279 0.000000 0.000000 0.000000 -0.000009
    6 4.118531 -0.003538 0.000000 0.000000 0.000000 -0.019437
    7 0.000007 0.003548 -1.498853 -0.000040 1.501696 -3.122992
    8 5.449906 0.000000 -0.000003 -0.293727 -0.900068 -0.358301
    9 10.242682 -0.000001 0.000000 0.000000 0.000000 -1.616559
    10 10.987489 -0.000001 0.000000 2.408088 -0.507136 -0.659418
    11 2.686396 1.340058 -0.014987 0.022658 0.011047 1.841257
  time 34
    0 -0.001605 -2.250069 38.192150 0.000000 0.000000 -1.570795
    1 -2.276920 0.000003 -1.238186 -1.570795 -1.570796 0.000000
    2 1.797146 0.711796 -0.000002 -0.000004 -0.000001 0.000739
    3 4.118605 -0.003280 0.000000 0.000000 0.000000 0.000035
    4 4.118601 -0.003280 0.000000 0.000000 0.000000 0.000049
    5 4.118600 -0.003279 0.000000 0.000000 0.000000 -0.000009
    6 4.118531 -0.003538 0.000000 0.000000 0.000000 -0.019437
    7 0.000007 0.003548 -1.498853 -0.000040 1.501696 -3.122992
    8 5.449906 0.000000 -0.000003 -0.293727 -0.900068 -0.358301
    9 10.242682 -0.000001 0.000000 0.000000 0.000000 -1.616559
    10 10.987489 -0.000001 0.000000 2.408088 -0.507136 -0.659418
    11 2.686396 1.340058 -0.014987 0.022658 0.011047 1.841257
  time 35
    0 -0.001605 -2.250069 38.192150 0.000000 0.000000 -1.570795
    1 -2.276920 0.000003 -1.238186 -1.570795 -1.570796 0.000000
    2 1.797146 0.711796 -0.000002 -0.000004 -0.000001 0.000739
    3 4.118605 -0.003280 0.000000 0.000000 0.000000 0.000035
    4 4.118601 -0.003280 0.000000 0.000000 0.000000 0.000049
    5 4.118600 -0.003279 0.000000 0.000000 0.000000 -0.000009
    6 4.118531 -0.003538 0.000000 0.000000 0.000000 -0.019437
    7 0.000007 0.003548 -1.498853 -0.000040 1.501696 -3.122992
    8 5.449906 0.000000 -0.000003 -0.293727 -0.900068 -0.358301
    9 10.242682 -0.000001 0.000000 0.000000 0.000000 -1.616559
    10 10.987489 -0.000001 0.000000 2.408088 -0.507136 -0.659418
    11 2.686396 1.340058 -0.014987 0.022658 0.011047 1.841257
  time 36
    0 -0.001605 -2.250069 38.192150 0.000000 0.000000 -1.570795
    1 -2.276920 0.000003 -1.238186 -1.570795 -1.570796 0.000000
    2 1.797146 0.711796 -0.000002 -0.000004 -0.000001 0.000739
    3 4.118605 -0.003280 0.000000 0.000000 0.000000 0.000035
    4 4.118601 -0.003280 0.000000 0.000000 0.000000 0.000049
    5 4.118600 -0.003279 0.000000 0.000000 0.000000 -0.000009
    6 4.118531 -0.003538 0.000000 0.000000 0.000000 -0.019437
    7 0.000007 0.003548 -1.498853 -0.000040 1.501696 -3.122992
    8 5.449906 0.000000 -0.000003 -0.293727 -0.900068 -0.358301
    9 10.242682 -0.000001 0.000000 0.000000 0.000000 -1.616559
    10 10.987489 -0.000001 0.000000 2.408088 -0.507136 -0.659418
    11 2.686396 1.340058 -0.014987 0.022658 0.011047 1.841257
  time 37
    0 -0.001605 -2.250069 38.192150 0.000000 0.000000 -1.570795
    1 -2.276920 0.000003 -1.238186 -1.570795 -1.570796 0.000000
    2 1.797146 0.711796 -0.000002 -0.000004 -0.000001 0.000739
    3 4.118605 -0.003280 0.000000 0.000000 0.000000 0.000035
    4 4.118601 -0.003280 0.000000 0.000000 0.000000 0.000049
    5 4.118600 -0.003279 0.000000 0.000000 0.000000 -0.000009
    6 4.118531 -0.003538 0.000000 0.000000 0.000000 -0.019437
    7 0.000007 0.003548 -1.498853 -0.000040 1.501696 -3.122992
    8 5.449906 0.000000 -0.000003 -0.293727 -0.900068 -0.358301
    9 10.242682 -0.000001 0.000000 0.000000 0.000000 -1.616559
    10 10.987489 -0.000001 0.000000 2.408088 -0.507136 -0.659418
    11 2.686396 1.340058 -0.014987 0.022658 0.011047 1.841257
  time 38
    0 -0.001605 -2.250069 38.192150 0.000000 0.000000 -1.570795
    1 -2.276920 0.000003 -1.238186 -1.570795 -1.570796 0.000000
    2 1.797146 0.711796 -0.000002 -0.000004 -0.000001 0.000739
    3 4.118605 -0.003280 0.000000 0.000000 0.000000 0.000035
    4 4.118601 -0.003280 0.000000 0.000000 0.000000 0.000049
    5 4.118600 -0.003279 0.000000 0.000000 0.000000 -0.000009
    6 4.118531 -0.003538 0.000000 0.000000 0.000000 -0.019437
    7 0.000007 0.003548 -1.498853 -0.000040 1.501696 -3.122992
    8 5.449906 0.000000 -0.000003 -0.293727 -0.900068 -0.358301
    9 10.242682 -0.000001 0.000000 0.000000 0.000000 -1.616559
    10 10.987489 -0.000001 0.000000 2.408088 -0.507136 -0.659418
    11 2.686396 1.340058 -0.014987 0.022658 0.011047 1.841257
  time 39
    0 -0.001605 -2.250069 38.192150 0.000000 0.000000 -1.570795
    1 -2.276920 0.000003 -1.238186 -1.570795 -1.570796 0.000000
    2 1.797146 0.711796 -0.000002 -0.000004 -0.000001 0.000739
    3 4.118605 -0.003280 0.000000 0.000000 0.000000 0.000035
    4 4.118601 -0.003280 0.000000 0.000000 0.000000 0.000049
    5 4.118600 -0.003279 0.000000 0.000000 0.000000 -0.000009
    6 4.118531 -0.003538 0.000000 0.000000 0.000000 -0.019437
    7 0.000007 0.003548 -1.498853 -0.000040 1.501696 -3.122992
    8 5.449906 0.000000 -0.000003 -0.293727 -0.900068 -0.358301
    9 10.242682 -0.000001 0.000000 0.000000 0.000000 -1.616559
    10 10.987489 -0.000001 0.000000 2.408088 -0.507136 -0.659418
    11 2.686396 1.340058 -0.014987 0.022658 0.011047 1.841257
  time 40
    0 -0.001605 -2.250069 38.192150 0.000000 0.000000 -1.570795
    1 -2.276920 0.000003 -1.238186 -1.570795 -1.570796 0.000000
    2 1.797146 0.711796 -0.000002 -0.000004 -0.000001 0.000739
    3 4.118605 -0.003280 0.000000 0.000000 0.000000 0.000035
    4 4.118601 -0.003280 0.000000 0.000000 0.000000 0.000049
    5 4.118600 -0.003279 0.000000 0.000000 0.000000 -0.000009
    6 4.118531 -0.003538 0.000000 0.000000 0.000000 -0.019437
    7 0.000007 0.003548 -1.498853 -0.000040 1.501696 -3.122992
    8 5.449906 0.000000 -0.000003 -0.293727 -0.900068 -0.358301
    9 10.242682 -0.000001 0.000000 0.000000 0.000000 -1.616559
    10 10.987489 -0.000001 0.000000 2.408088 -0.507136 -0.659418
    11 2.686396 1.340058 -0.014987 0.022658 0.011047 1.841257
  time 41
    0 -0.001605 -2.250069 38.192150 0.000000 0.000000 -1.570795
    1 -2.276920 0.000003 -1.238186 -1.570795 -1.570796 0.000000
    2 1.797146 0.711796 -0.000002 -0.000004 -0.000001 0.000739
    3 4.118605 -0.003280 0.000000 0.000000 0.000000 0.000035
    4 4.118601 -0.003280 0.000000 0.000000 0.000000 0.000049
    5 4.118600 -0.003279 0.000000 0.000000 0.000000 -0.000009
    6 4.118531 -0.003538 0.000000 0.000000 0.000000 -0.019437
    7 0.000007 0.003548 -1.498853 -0.000040 1.501696 -3.122992
    8 5.449906 0.000000 -0.000003 -0.293727 -0.900068 -0.358301
    9 10.242682 -0.000001 0.000000 0.000000 0.000000 -1.616559
    10 10.987489 -0.000001 0.000000 2.408088 -0.507136 -0.659418
    11 2.686396 1.340058 -0.014987 0.022658 0.011047 1.841257
  time 42
    0 -0.001605 -2.250069 38.192150 0.000000 0.000000 -1.570795
    1 -2.276920 0.000003 -1.238186 -1.570795 -1.570796 0.000000
    2 1.797146 0.711796 -0.000002 -0.000004 -0.000001 0.000739
    3 4.118605 -0.003280 0.000000 0.000000 0.000000 0.000035
    4 4.118601 -0.003280 0.000000 0.000000 0.000000 0.000049
    5 4.118600 -0.003279 0.000000 0.000000 0.000000 -0.000009
    6 4.118531 -0.003538 0.000000 0.000000 0.000000 -0.019437
    7 0.000007 0.003548 -1.498853 -0.000040 1.501696 -3.122992
    8 5.449906 0.000000 -0.000003 -0.293727 -0.900068 -0.358301
    9 10.242682 -0.000001 0.000000 0.000000 0.000000 -1.616559
    10 10.987489 -0.000001 0.000000 2.408088 -0.507136 -0.659418
    11 2.686396 1.340058 -0.014987 0.022658 0.011047 1.841257
  time 43
    0 -0.001605 -2.250069 38.192150 0.000000 0.000000 -1.570795
    1 -2.276920 0.000003 -1.238186 -1.570795 -1.570796 0.000000
    2 1.797146 0.711796 -0.000002 -0.000004 -0.000001 0.000739
    3 4.118605 -0.003280 0.000000 0.000000 0.000000 0.000035
    4 4.118601 -0.003280 0.000000 0.000000 0.000000 0.000049
    5 4.118600 -0.003279 0.000000 0.000000 0.000000 -0.000009
    6 4.118531 -0.003538 0.000000 0.000000 0.000000 -0.019437
    7 0.000007 0.003548 -1.498853 -0.000040 1.501696 -3.122992
    8 5.449906 0.000000 -0.000003 -0.293727 -0.900068 -0.358301
    9 10.242682 -0.000001 0.000000 0.000000 0.000000 -1.616559
    10 10.987489 -0.000001 0.000000 2.408088 -0.507136 -0.659418
    11 2.686396 1.340058 -0.014987 0.022658 0.011047 1.841257
  time 44
    0 -0.001605 -2.250069 38.192150 0.000000 0.000000 -1.570795
    1 -2.276920 0.000003 -1.238186 -1.570795 -1.570796 0.000000
    2 1.797146 0.711796 -0.000002 -0.000004 -0.000001 0.000739
    3 4.118605 -0.003280 0.000000 0.000000 0.000000 0.000035
    4 4.118601 -0.003280 0.000000 0.000000 0.000000 0.000049
    5 4.118600 -0.003279 0.000000 0.000000 0.000000 -0.000009
    6 4.118531 -0.003538 0.000000 0.000000 0.000000 -0.019437
    7 0.000007 0.003548 -1.498853 -0.000040 1.501696 -3.122992
    8 5.449906 0.000000 -0.000003 -0.293727 -0.900068 -0.358301
    9 10.242682 -0.000001 0.000000 0.000000 0.000000 -1.616559
    10 10.987489 -0.000001 0.000000 2.408088 -0.507136 -0.659418
    11 2.686396 1.340058 -0.014987 0.022658 0.011047 1.841257
  time 45
    0 -0.001605 -2.250069 38.192150 0.000000 0.000000 -1.570795
    1 -2.276920 0.000003 -1.238186 -1.570795 -1.570796 0.000000
    2 1.797146 0.711796 -0.000002 -0.000004 -0.000001 0.000739
    3 4.118605 -0.003280 0.000000 0.000000 0.000000 0.000035
    4 4.118601 -0.003280 0.000000 0.000000 0.000000 0.000049
    5 4.118600 -0.003279 0.000000 0.000000 0.000000 -0.000009
    6 4.118531 -0.003538 0.000000 0.000000 0.000000 -0.019437
    7 0.000007 0.003548 -1.498853 -0.000040 1.501696 -3.122992
    8 5.449906 0.000000 -0.000003 -0.293727 -0.900068 -0.358301
    9 10.242682 -0.000001 0.000000 0.000000 0.000000 -1.616559
    10 10.987489 -0.000001 0.000000 2.408088 -0.507136 -0.659418
    11 2.686396 1.340058 -0.014987 0.022658 0.011047 1.841257
  time 46
    0 -0.001605 -2.250069 38.192150 0.000000 0.000000 -1.570795
    1 -2.276920 0.000003 -1.238186 -1.570795 -1.570796 0.000000
    2 1.797146 0.711796 -0.000002 -0.000004 -0.000001 0.000739
    3 4.118605 -0.003280 0.000000 0.000000 0.000000 0.000035
    4 4.118601 -0.003280 0.000000 0.000000 0.000000 0.000049
    5 4.118600 -0.003279 0.000000 0.000000 0.000000 -0.000009
    6 4.118531 -0.003538 0.000000 0.000000 0.000000 -0.019437
    7 0.000007 0.003548 -1.498853 -0.000040 1.501696 -3.122992
    8 5.449906 0.000000 -0.000003 -0.293727 -0.900068 -0.358301
    9 10.242682 -0.000001 0.000000 0.000000 0.000000 -1.616559
    10 10.987489 -0.000001 0.000000 2.408088 -0.507136 -0.659418
    11 2.686396 1.340058 -0.014987 0.022658 0.011047 1.841257
  time 47
    0 -0.001605 -2.250069 38.192150 0.000000 0.000000 -1.570795
    1 -2.276920 0.000003 -1.238186 -1.570795 -1.570796 0.000000
    2 1.797146 0.711796 -0.000002 -0.000004 -0.000001 0.000739
    3 4.118605 -0.003280 0.000000 0.000000 0.000000 0.000035
    4 4.118601 -0.003280 0.000000 0.000000 0.000000 0.000049
    5 4.118600 -0.003279 0.000000 0.000000 0.000000 -0.000009
    6 4.118531 -0.003538 0.000000 0.000000 0.000000 -0.019437
    7 0.000007 0.003548 -1.498853 -0.000040 1.501696 -3.122992
    8 5.449906 0.000000 -0.000003 -0.293727 -0.900068 -0.358301
    9 10.242682 -0.000001 0.000000 0.000000 0.000000 -1.616559
    10 10.987489 -0.000001 0.000000 2.408088 -0.507136 -0.659418
    11 2.686396 1.340058 -0.014987 0.022658 0.011047 1.841257
  time 48
    0 -0.001605 -2.250069 38.192150 0.000000 0.000000 -1.570795
    1 -2.276920 0.000003 -1.238186 -1.570795 -1.570796 0.000000
    2 1.797146 0.711796 -0.000002 -0.000004 -0.000001 0.000739
    3 4.118605 -0.003280 0.000000 0.000000 0.000000 0.000035
    4 4.118601 -0.003280 0.000000 0.000000 0.000000 0.000049
    5 4.118600 -0.003279 0.000000 0.000000 0.000000 -0.000009
    6 4.118531 -0.003538 0.000000 0.000000 0.000000 -0.019437
    7 0.000007 0.003548 -1.498853 -0.000040 1.501696 -3.122992
    8 5.449906 0.000000 -0.000003 -0.293727 -0.900068 -0.358301
    9 10.242682 -0.000001 0.000000 0.000000 0.000000 -1.616559
    10 10.987489 -0.000001 0.000000 2.408088 -0.507136 -0.659418
    11 2.686396 1.340058 -0.014987 0.022658 0.011047 1.841257
  time 49
    0 -0.001605 -2.250069 38.192150 0.000000 0.000000 -1.570795
    1 -2.276920 0.000003 -1.238186 -1.570795 -1.570796 0.000000
    2 1.797146 0.711796 -0.000002 -0.000004 -0.000001 0.000739
    3 4.118605 -0.003280 0.000000 0.000000 0.000000 0.000035
    4 4.118601 -0.003280 0.000000 0.000000 0.000000 0.000049
    5 4.118600 -0.003279 0.000000 0.000000 0.000000 -0.000009
    6 4.118531 -0.003538 0.000000 0.000000 0.000000 -0.019437
    7 0.000007 0.003548 -1.498853 -0.000040 1.501696 -3.122992
    8 5.449906 0.000000 -0.000003 -0.293727 -0.900068 -0.358301
    9 10.242682 -0.000001 0.000000 0.000000 0.000000 -1.616559
    10 10.987489 -0.000001 0.000000 2.408088 -0.507136 -0.659418
    11 2.686396 1.340058 -0.014987 0.022658 0.011047 1.841257
  time 50
    0 -0.001605 -2.250069 38.192150 0.000000 0.000000 -1.570795
    1 -2.276920 0.000003 -1.238186 -1.570795 -1.570796 0.000000
    2 1.797146 0.711796 -0.000002 -0.000004 -0.000001 0.000739
    3 4.118605 -0.003280 0.000000 0.000000 0.000000 0.000035
    4 4.118601 -0.003280 0.000000 0.000000 0.000000 0.000049
    5 4.118600 -0.003279 0.000000 0.000000 0.000000 -0.000009
    6 4.118531 -0.003538 0.000000 0.000000 0.000000 -0.019437
    7 0.000007 0.003548 -1.498853 -0.000040 1.501696 -3.122992
    8 5.449906 0.000000 -0.000003 -0.293727 -0.900068 -0.358301
    9 10.242682 -0.000001 0.000000 0.000000 0.000000 -1.616559
    10 10.987489 -0.000001 0.000000 2.408088 -0.507136 -0.659418
    11 2.686396 1.340058 -0.014987 0.022658 0.011047 1.841257
  time 51
    0 -0.001605 -2.250069 38.192150 0.000000 0.000000 -1.570795
    1 -2.276920 0.000003 -1.238186 -1.570795 -1.570796 0.000000
    2 1.797146 0.711796 -0.000002 -0.000004 -0.000001 0.000739
    3 4.118605 -0.003280 0.000000 0.000000 0.000000 0.000035
    4 4.118601 -0.003280 0.000000 0.000000 0.000000 0.000049
    5 4.118600 -0.003279 0.000000 0.000000 0.000000 -0.000009
    6 4.118531 -0.003538 0.000000 0.000000 0.000000 -0.019437
    7 0.000007 0.003548 -1.498853 -0.000040 1.501696 -3.122992
    8 5.449906 0.000000 -0.000003 -0.293727 -0.900068 -0.358301
    9 10.242682 -0.000001 0.000000 0.000000 0.000000 -1.616559
    10 10.987489 -0.000001 0.000000 2.408088 -0.507136 -0.659418
    11 2.686396 1.340058 -0.014987 0.022658 0.011047 1.841257
  time 52
    0 -0.001605 -2.250069 38.192150 0.000000 0.000000 -1.570795
    1 -2.276920 0.000003 -1.238186 -1.570795 -1.570796 0.000000
    2 1.797146 0.711796 -0.000002 -0.000004 -0.000001 0.000739
    3 4.118605 -0.003280 0.000000 0.000000 0.000000 0.000035
    4 4.118601 -0.003280 0.000000 0.000000 0.000000 0.000049
    5 4.118600 -0.003279 0.000000 0.000000 0.000000 -0.000009
    6 4.118531 -0.003538 0.000000 0.000000 0.000000 -0.019437
    7 0.000007 0.003548 -1.498853 -0.000040 1.501696 -3.122992
    8 5.449906 0.000000 -0.000003 -0.293727 -0.900068 -0.358301
    9 10.242682 -0.000001 0.000000 0.000000 0.000000 -1.616559
    10 10.987489 -0.000001 0.000000 2.408088 -0.507136 -0.659418
    11 2.686396 1.340058 -0.014987 0.022658 0.011047 1.841257
  time 53
    0 -0.001605 -2.250069 38.192150 0.000000 0.000000 -1.570795
    1 -2.276920 0.000003 -1.238186 -1.570795 -1.570796 0.000000
    2 1.797146 0.711796 -0.000002 -0.000004 -0.000001 0.000739
    3 4.118605 -0.003280 0.000000 0.000000 0.000000 0.000035
    4 4.118601 -0.003280 0.000000 0.000000 0.000000 0.000049
    5 4.118600 -0.003279 0.000000 0.000000 0.000000 -0.000009
    6 4.118531 -0.003538 0.000000 0.000000 0.000000 -0.019437
    7 0.000007 0.003548 -1.498853 -0.000040 1.501696 -3.122992
    8 5.449906 0.000000 -0.000003 -0.293727 -0.900068 -0.358301
    9 10.242682 -0.000001 0.000000 0.000000 0.000000 -1.616559
    10 10.987489 -0.000001 0.000000 2.408088 -0.507136 -0.659418
    11 2.686396 1.340058 -0.014987 0.022658 0.011047 1.841257
  time 54
    0 -0.001605 -2.250069 38.192150 0.000000 0.000000 -1.570795
    1 -2.276920 0.000003 -1.238186 -1.570795 -1.570796 0.000000
    2 1.797146 0.711796 -0.000002 -0.000004 -0.000001 0.000739
    3 4.118605 -0.003280 0.000000 0.000000 0.000000 0.000035
    4 4.118601 -0.003280 0.000000 0.000000 0.000000 0.000049
    5 4.118600 -0.003279 0.000000 0.000000 0.000000 -0.000009
    6 4.118531 -0.003538 0.000000 0.000000 0.000000 -0.019437
    7 0.000007 0.003548 -1.498853 -0.000040 1.501696 -3.122992
    8 5.449906 0.000000 -0.000003 -0.293727 -0.900068 -0.358301
    9 10.242682 -0.000001 0.000000 0.000000 0.000000 -1.616559
    10 10.987489 -0.000001 0.000000 2.408088 -0.507136 -0.659418
    11 2.686396 1.340058 -0.014987 0.022658 0.011047 1.841257
  time 55
    0 -0.001605 -2.250069 38.192150 0.000000 0.000000 -1.570795
    1 -2.276920 0.000003 -1.238186 -1.570795 -1.570796 0.000000
    2 1.797146 0.711796 -0.000002 -0.000004 -0.000001 0.000739
    3 4.118605 -0.003280 0.000000 0.000000 0.000000 0.000035
    4 4.118601 -0.003280 0.000000 0.000000 0.000000 0.000049
    5 4.118600 -0.003279 0.000000 0.000000 0.000000 -0.000009
    6 4.118531 -0.003538 0.000000 0.000000 0.000000 -0.019437
    7 0.000007 0.003548 -1.498853 -0.000040 1.501696 -3.122992
    8 5.449906 0.000000 -0.000003 -0.293727 -0.900068 -0.358301
    9 10.242682 -0.000001 0.000000 0.000000 0.000000 -1.616559
    10 10.987489 -0.000001 0.000000 2.408088 -0.507136 -0.659418
    11 2.686396 1.340058 -0.014987 0.022658 0.011047 1.841257
  time 56
    0 -0.001605 -2.250069 38.192150 0.000000 0.000000 -1.570795
    1 -2.276920 0.000003 -1.238186 -1.570795 -1.570796 0.000000
    2 1.797146 0.711796 -0.000002 -0.000004 -0.000001 0.000739
    3 4.118605 -0.003280 0.000000 0.000000 0.000000 0.000035
    4 4.118601 -0.003280 0.000000 0.000000 0.000000 0.000049
    5 4.118600 -0.003279 0.000000 0.000000 0.000000 -0.000009
    6 4.118531 -0.003538 0.000000 0.000000 0.000000 -0.019437
    7 0.000007 0.003548 -1.498853 -0.000040 1.501696 -3.122992
    8 5.449906 0.000000 -0.000003 -0.293727 -0.900068 -0.358301
    9 10.242682 -0.000001 0.000000 0.000000 0.000000 -1.616559
    10 10.987489 -0.000001 0.000000 2.408088 -0.507136 -0.659418
    11 2.686396 1.340058 -0.014987 0.022658 0.011047 1.841257
  time 57
    0 -0.001605 -2.250069 38.192150 0.000000 0.000000 -1.570795
    1 -2.276920 0.000003 -1.238186 -1.570795 -1.570796 0.000000
    2 1.797146 0.711796 -0.000002 -0.000004 -0.000001 0.000739
    3 4.118605 -0.003280 0.000000 0.000000 0.000000 0.000035
    4 4.118601 -0.003280 0.000000 0.000000 0.000000 0.000049
    5 4.118600 -0.003279 0.000000 0.000000 0.000000 -0.000009
    6 4.118531 -0.003538 0.000000 0.000000 0.000000 -0.019437
    7 0.000007 0.003548 -1.498853 -0.000040 1.501696 -3.122992
    8 5.449906 0.000000 -0.000003 -0.293727 -0.900068 -0.358301
    9 10.242682 -0.000001 0.000000 0.000000 0.000000 -1.616559
    10 10.987489 -0.000001 0.000000 2.408088 -0.507136 -0.659418
    11 2.686396 1.340058 -0.014987 0.022658 0.011047 1.841257
  time 58
    0 -0.001605 -2.250069 38.192150 0.000000 0.000000 -1.570795
    1 -2.276920 0.000003 -1.238186 -1.570795 -1.570796 0.000000
    2 1.797146 0.711796 -0.000002 -0.000004 -0.000001 0.000739
    3 4.118605 -0.003280 0.000000 0.000000 0.000000 0.000035
    4 4.118601 -0.003280 0.000000 0.000000 0.000000 0.000049
    5 4.118600 -0.003279 0.000000 0.000000 0.000000 -0.000009
    6 4.118531 -0.003538 0.000000 0.000000 0.000000 -0.019437
    7 0.000007 0.003548 -1.498853 -0.000040 1.501696 -3.122992
    8 5.449906 0.000000 -0.000003 -0.293727 -0.900068 -0.358301
    9 10.242682 -0.000001 0.000000 0.000000 0.000000 -1.616559
    10 10.987489 -0.000001 0.000000 2.408088 -0.507136 -0.659418
    11 2.686396 1.340058 -0.014987 0.022658 0.011047 1.841257
  time 59
    0 -0.001605 -2.250069 38.192150 0.000000 0.000000 -1.570795
    1 -2.276920 0.000003 -1.238186 -1.570795 -1.570796 0.000000
    2 1.797146 0.711796 -0.000002 -0.000004 -0.000001 0.000739
    3 4.118605 -0.003280 0.000000 0.000000 0.000000 0.000035
    4 4.118601 -0.003280 0.000000 0.000000 0.000000 0.000049
    5 4.118600 -0.003279 0.000000 0.000000 0.000000 -0.000009
    6 4.118531 -0.003538 0.000000 0.000000 0.000000 -0.019437
    7 0.000007 0.003548 -1.498853 -0.000040 1.501696 -3.122992
    8 5.449906 0.000000 -0.000003 -0.293727 -0.900068 -0.358301
    9 10.242682 -0.000001 0.000000 0.000000 0.000000 -1.616559
    10 10.987489 -0.000001 0.000000 2.408088 -0.507136 -0.659418
    11 2.686396 1.340058 -0.014987 0.022658 0.011047 1.841257
  time 60
    0 -0.001605 -2.250069 38.192150 0.000000 0.000000 -1.570795
    1 -2.276920 0.000003 -1.238186 -1.570795 -1.570796 0.000000
    2 1.797146 0.711796 -0.000002 -0.000004 -0.000001 0.000739
    3 4.118605 -0.003280 0.000000 0.000000 0.000000 0.000035
    4 4.118601 -0.003280 0.000000 0.000000 0.000000 0.000049
    5 4.118600 -0.003279 0.000000 0.000000 0.000000 -0.000009
    6 4.118531 -0.003538 0.000000 0.000000 0.000000 -0.019437
    7 0.000007 0.003548 -1.498853 -0.000040 1.501696 -3.122992
    8 5.449906 0.000000 -0.000003 -0.293727 -0.900068 -0.358301
    9 10.242682 -0.000001 0.000000 0.000000 0.000000 -1.616559
    10 10.987489 -0.000001 0.000000 2.408088 -0.507136 -0.659418
    11 2.686396 1.340058 -0.014987 0.022658 0.011047 1.841257
  time 61
    0 -0.001605 -2.250069 38.192150 0.000000 0.000000 -1.570795
    1 -2.276920 0.000003 -1.238186 -1.570795 -1.570796 0.000000
    2 1.797146 0.711796 -0.000002 -0.000004 -0.000001 0.000739
    3 4.118605 -0.003280 0.000000 0.000000 0.000000 0.000035
    4 4.118601 -0.003280 0.000000 0.000000 0.000000 0.000049
    5 4.118600 -0.003279 0.000000 0.000000 0.000000 -0.000009
    6 4.118531 -0.003538 0.000000 0.000000 0.000000 -0.019437
    7 0.000007 0.003548 -1.498853 -0.000040 1.501696 -3.122992
    8 5.449906 0.000000 -0.000003 -0.293727 -0.900068 -0.358301
    9 10.242682 -0.000001 0.000000 0.000000 0.000000 -1.616559
    10 10.987489 -0.000001 0.000000 2.408088 -0.507136 -0.659418
    11 2.686396 1.340058 -0.014987 0.022658 0.011047 1.841257
  time 62
    0 -0.001605 -2.250069 38.192150 0.000000 0.000000 -1.570795
    1 -2.276920 0.000003 -1.238186 -1.570795 -1.570796 0.000000
    2 1.797146 0.711796 -0.000002 -0.000004 -0.000001 0.000739
    3 4.118605 -0.003280 0.000000 0.000000 0.000000 0.000035
    4 4.118601 -0.003280 0.000000 0.000000 0.000000 0.000049
    5 4.118600 -0.003279 0.000000 0.000000 0.000000 -0.000009
    6 4.118531 -0.003538 0.000000 0.000000 0.000000 -0.019437
    7 0.000007 0.003548 -1.498853 -0.000040 1.501696 -3.122992
    8 5.449906 0.000000 -0.000003 -0.293727 -0.900068 -0.358301
    9 10.242682 -0.000001 0.000000 0.000000 0.000000 -1.616559
    10 10.987489 -0.000001 0.000000 2.408088 -0.507136 -0.659418
    11 2.686396 1.340058 -0.014987 0.022658 0.011047 1.841257
  time 63
    0 -0.001605 -2.250069 38.192150 0.000000 0.000000 -1.570795
    1 -2.276920 0.000003 -1.238186 -1.570795 -1.570796 0.000000
    2 1.797146 0.711796 -0.000002 -0.000004 -0.000001 0.000739
    3 4.118605 -0.003280 0.000000 0.000000 0.000000 0.000035
    4 4.118601 -0.003280 0.000000 0.000000 0.000000 0.000049
    5 4.118600 -0.003279 0.000000 0.000000 0.000000 -0.000009
    6 4.118531 -0.003538 0.000000 0.000000 0.000000 -0.019437
    7 0.000007 0.003548 -1.498853 -0.000040 1.501696 -3.122992
    8 5.449906 0.000000 -0.000003 -0.293727 -0.900068 -0.358301
    9 10.242682 -0.000001 0.000000 0.000000 0.000000 -1.616559
    10 10.987489 -0.000001 0.000000 2.408088 -0.507136 -0.659418
    11 2.686396 1.340058 -0.014987 0.022658 0.011047 1.841257
  time 64
    0 -0.001605 -2.250069 38.192150 0.000000 0.000000 -1.570795
    1 -2.276920 0.000003 -1.238186 -1.570795 -1.570796 0.000000
    2 1.797146 0.711796 -0.000002 -0.000004 -0.000001 0.000739
    3 4.118605 -0.003280 0.000000 0.000000 0.000000 0.000035
    4 4.118601 -0.003280 0.000000 0.000000 0.000000 0.000049
    5 4.118600 -0.003279 0.000000 0.000000 0.000000 -0.000009
    6 4.118531 -0.003538 0.000000 0.000000 0.000000 -0.019437
    7 0.000007 0.003548 -1.498853 -0.000040 1.501696 -3.122992
    8 5.449906 0.000000 -0.000003 -0.293727 -0.900068 -0.358301
    9 10.242682 -0.000001 0.000000 0.000000 0.000000 -1.616559
    10 10.987489 -0.000001 0.000000 2.408088 -0.507136 -0.659418
    11 2.686396 1.340058 -0.014987 0.022658 0.011047 1.841257
  time 65
    0 -0.001605 -2.250069 38.192150 0.000000 0.000000 -1.570795
    1 -2.276920 0.000003 -1.238186 -1.570795 -1.570796 0.000000
    2 1.797146 0.711796 -0.000002 -0.000004 -0.000001 0.000739
    3 4.118605 -0.003280 0.000000 0.000000 0.000000 0.000035
    4 4.118601 -0.003280 0.000000 0.000000 0.000000 0.000049
    5 4.118600 -0.003279 0.000000 0.000000 0.000000 -0.000009
    6 4.118531 -0.003538 0.000000 0.000000 0.000000 -0.019437
    7 0.000007 0.003548 -1.498853 -0.000040 1.501696 -3.122992
    8 5.449906 0.000000 -0.000003 -0.293727 -0.900068 -0.358301
    9 10.242682 -0.000001 0.000000 0.000000 0.000000 -1.616559
    10 10.987489 -0.000001 0.000000 2.408088 -0.507136 -0.659418
    11 2.686396 1.340058 -0.014987 0.022658 0.011047 1.841257
end
