version 1
nodes
  0 "Bip01 L Forearm" -1
  1 "Bip01 L Hand" 0
  2 "Bone_QBB95" 1
  3 "Bone_Magazine" 2
  4 "Bone_Magazine_Clip" 2
  5 "Bone_Trigger" 2
  6 "Bone_Bullet_Case" 2
  7 "Bone_Bullet_Clip" 2
  8 "Bip01 L Finger0" 1
  9 "Bip01 L Finger01" 8
  10 "Bip01 L Finger02" 9
  11 "Bip01 L Finger1" 1
  12 "Bip01 L Finger11" 11
  13 "Bip01 L Finger12" 12
  14 "Bip01 L Finger2" 1
  15 "Bip01 L Finger21" 14
  16 "Bip01 L Finger22" 15
  17 "Bip01 L Finger3" 1
  18 "Bip01 L Finger31" 17
  19 "Bip01 L Finger32" 18
  20 "Bip01 L Finger4" 1
  21 "Bip01 L Finger41" 20
  22 "Bip01 L Finger42" 21
  23 "Bone_Se_Hand-L" 1
  24 "Bip01 L ForeTwist2" 0
  25 "Bip01 R Forearm" -1
  26 "Bip01 R Hand" 25
  27 "Bip01 R Finger0" 26
  28 "Bip01 R Finger01" 27
  29 "Bip01 R Finger02" 28
  30 "Bip01 R Finger1" 26
  31 "Bip01 R Finger11" 30
  32 "Bip01 R Finger12" 31
  33 "Bip01 R Finger2" 26
  34 "Bip01 R Finger21" 33
  35 "Bip01 R Finger22" 34
  36 "Bip01 R Finger3" 26
  37 "Bip01 R Finger31" 36
  38 "Bip01 R Finger32" 37
  39 "Bip01 R Finger4" 26
  40 "Bip01 R Finger41" 39
  41 "Bip01 R Finger42" 40
  42 "Bone_Se_Hand-R" 26
  43 "Bip01 R ForeTwist2" 25
end
skeleton
  time 0
    0 13.304884 0.548123 -9.023646 -0.898774 0.198670 -2.168576
    1 8.499678 0.000000 0.000002 -1.856139 -0.053171 0.217595
    2 2.590252 0.798588 -0.347195 0.168992 -3.019792 1.443836
    3 1.276066 4.913687 -1.756443 0.000000 0.000000 0.000000
    4 0.000004 6.776255 1.709930 0.000000 0.000000 0.000000
    5 0.000000 -2.155092 2.277100 0.000000 0.000000 0.000000
    6 -0.531231 4.631598 3.001892 0.000000 0.000000 0.000000
    7 0.000004 -2.782814 4.273781 0.000000 0.000000 0.000000
    8 1.066141 0.161471 -0.665475 2.484768 0.749569 0.986721
    9 1.535968 -0.000001 0.000001 0.000000 0.000000 1.180468
    10 1.100831 0.000000 0.000000 0.000000 0.000000 0.433641
    11 2.725985 -0.106123 -1.020465 -0.052019 0.107536 -0.014378
    12 1.397574 0.000001 0.000001 0.000000 0.000000 0.193561
    13 0.957879 0.000000 0.000000 0.000000 0.000000 0.641297
    14 2.818702 -0.176450 -0.444443 -0.118789 0.036080 0.644560
    15 1.684281 0.000000 0.000000 0.000000 0.000000 1.861645
    16 1.151941 0.000000 0.000001 0.000000 0.000000 1.141487
    17 2.804605 -0.069563 0.290472 -0.211325 0.071354 0.840695
    18 1.480629 0.000000 0.000000 0.000000 0.000000 1.698687
    19 1.076366 0.000000 0.000000 0.000000 0.000000 0.748916
    20 2.637186 0.041571 0.929335 -0.346527 0.088471 0.924980
    21 1.124349 -0.000002 0.000000 0.000000 0.000000 1.346295
    22 0.891247 0.000001 0.000000 0.000000 0.000000 0.984495
    23 0.050302 -0.068010 -0.113033 1.724535 0.010837 0.011384
    24 2.428478 0.000000 0.000000 -0.108949 0.000000 0.000000
    25 -3.928980 -1.545084 -5.731238 1.472938 -2.774468 -5.549855
    26 8.499673 0.000001 0.000000 2.129795 0.358122 0.129685
    27 1.066141 0.161471 0.665475 -1.907399 -0.882382 0.905422
    28 1.535968 -0.000001 0.000000 0.000000 0.000000 0.686186
    29 1.100830 -0.000001 0.000000 0.000000 0.000000 0.809912
    30 2.725985 -0.106123 1.020465 0.002215 -0.155170 0.612610
    31 1.397574 0.000001 -0.000001 0.000000 0.000000 1.314100
    32 0.957878 0.000000 0.000000 0.000000 0.000000 1.130990
    33 2.818702 -0.176451 0.444443 -0.022839 -0.049932 0.935894
    34 1.684282 -0.000002 0.000000 0.000000 0.000000 1.218046
    35 1.151941 0.000000 -0.000001 0.000000 0.000000 1.086511
    36 2.804606 -0.069564 -0.290472 0.186485 -0.005576 1.118628
    37 1.480629 0.000001 -0.000001 0.000000 0.000000 1.377106
    38 1.076367 0.000000 0.000000 0.000000 0.000000 1.254427
    39 2.637187 0.041571 -0.929335 0.375535 0.050323 1.253893
    40 1.124349 0.000001 0.000000 0.000000 0.000000 1.474549
    41 0.891247 0.000001 0.000000 0.000000 0.000000 1.270721
    42 0.058117 -0.091448 0.097393 -1.419394 3.127258 0.052468
    43 2.428478 0.000000 0.000000 0.195524 0.000000 0.000000
  time 1
    0 13.207224 0.575468 -9.211152 -0.914378 0.158708 -2.189085
    1 8.499678 0.000000 0.000002 -1.811152 -0.125876 0.133325
    2 2.590252 0.798588 -0.347195 0.168992 -3.019792 1.443836
    3 1.276066 4.913687 -1.756443 0.000000 0.000000 0.000000
    4 0.000004 6.776255 1.709930 0.000000 0.000000 0.000000
    5 0.000000 -2.155092 2.277100 0.000000 0.000000 0.000000
    6 -0.531231 4.631598 3.001892 0.000000 0.000000 0.000000
    7 0.000004 -2.782814 4.273781 0.000000 0.000000 0.000000
    8 1.066141 0.161471 -0.665475 2.484768 0.749569 0.986721
    9 1.535968 -0.000001 0.000001 0.000000 0.000000 1.180468
    10 1.100831 0.000000 0.000000 0.000000 0.000000 0.433641
    11 2.725985 -0.106123 -1.020465 -0.052019 0.107536 -0.014378
    12 1.397574 0.000001 0.000001 0.000000 0.000000 0.193561
    13 0.957879 0.000000 0.000000 0.000000 0.000000 0.641297
    14 2.818702 -0.176450 -0.444443 -0.118789 0.036080 0.644560
    15 1.684281 0.000000 0.000000 0.000000 0.000000 1.861645
    16 1.151941 0.000000 0.000001 0.000000 0.000000 1.141487
    17 2.804605 -0.069563 0.290472 -0.211325 0.071354 0.840695
    18 1.480629 0.000000 0.000000 0.000000 0.000000 1.698687
    19 1.076366 0.000000 0.000000 0.000000 0.000000 0.748916
    20 2.637186 0.041571 0.929335 -0.346527 0.088471 0.924980
    21 1.124349 -0.000002 0.000000 0.000000 0.000000 1.346295
    22 0.891247 0.000001 0.000000 0.000000 0.000000 0.984495
    23 0.050302 -0.068010 -0.113033 1.724535 0.010837 0.011384
    24 2.428478 0.000000 0.000000 -0.089857 0.000000 0.000000
    25 -4.069609 -1.435706 -6.125782 1.297427 -2.598306 -5.435372
    26 8.499673 0.000001 0.000000 2.102045 0.365657 0.157291
    27 1.066141 0.161471 0.665475 -1.966798 -0.859077 0.918743
    28 1.535968 -0.000001 0.000000 0.000000 0.000000 0.638072
    29 1.100830 -0.000001 0.000000 0.000000 0.000000 0.733599
    30 2.725985 -0.106123 1.020465 0.068324 -0.157543 0.534089
    31 1.397574 0.000001 -0.000001 0.000000 0.000000 1.247080
    32 0.957878 0.000000 0.000000 0.000000 0.000000 1.051011
    33 2.818702 -0.176451 0.444443 0.009100 -0.075734 0.863507
    34 1.684282 -0.000002 0.000000 0.000000 0.000000 1.161317
    35 1.151941 0.000000 -0.000001 0.000000 0.000000 0.982944
    36 2.804606 -0.069564 -0.290472 0.194143 -0.035142 1.047661
    37 1.480629 0.000001 -0.000001 0.000000 0.000000 1.287181
    38 1.076367 0.000000 0.000000 0.000000 0.000000 1.223450
    39 2.637187 0.041571 -0.929335 0.360339 0.048117 1.170312
    40 1.124349 0.000001 0.000000 0.000000 0.000000 1.497999
    41 0.891247 0.000001 0.000000 0.000000 0.000000 1.296140
    42 0.065929 -0.114886 0.073954 -1.421288 3.123626 0.095792
    43 2.428478 0.000000 0.000000 0.185001 0.000000 0.000000
  time 2
    0 13.105659 0.661408 -9.386938 -0.921569 0.098568 -2.208139
    1 8.499678 0.000000 0.000002 -1.781436 -0.169065 0.086609
    2 2.590252 0.798588 -0.347195 0.168992 -3.019792 1.443836
    3 1.276066 4.913687 -1.756443 0.000000 0.000000 0.000000
    4 0.000004 6.776255 1.709930 0.000000 0.000000 0.000000
    5 0.000000 -2.155092 2.277100 0.000000 0.000000 0.000000
    6 -0.531231 4.631598 3.001892 0.000000 0.000000 0.000000
    7 0.000004 -2.782814 4.273781 0.000000 0.000000 0.000000
    8 1.066141 0.161471 -0.665475 2.484768 0.749569 0.986721
    9 1.535968 -0.000001 0.000001 0.000000 0.000000 1.180468
    10 1.100831 0.000000 0.000000 0.000000 0.000000 0.433641
    11 2.725985 -0.106123 -1.020465 -0.052019 0.107536 -0.014378
    12 1.397574 0.000001 0.000001 0.000000 0.000000 0.193561
    13 0.957879 0.000000 0.000000 0.000000 0.000000 0.641297
    14 2.818702 -0.176450 -0.444443 -0.118789 0.036080 0.644560
    15 1.684281 0.000000 0.000000 0.000000 0.000000 1.861645
    16 1.151941 0.000000 0.000001 0.000000 0.000000 1.141487
    17 2.804605 -0.069563 0.290472 -0.211325 0.071354 0.840695
    18 1.480629 0.000000 0.000000 0.000000 0.000000 1.698687
    19 1.076366 0.000000 0.000000 0.000000 0.000000 0.748916
    20 2.637186 0.041571 0.929335 -0.346527 0.088471 0.924980
    21 1.124349 -0.000002 0.000000 0.000000 0.000000 1.346295
    22 0.891247 0.000001 0.000000 0.000000 0.000000 0.984495
    23 0.050302 -0.068010 -0.113033 1.724535 0.010837 0.011384
    24 2.428478 0.000000 0.000000 -0.077945 0.000000 0.000000
    25 -4.221957 -1.322421 -6.582827 1.076177 -2.452938 -5.246542
    26 8.499673 0.000001 0.000000 2.074446 0.373890 0.184751
    27 1.066141 0.161471 0.665475 -2.024127 -0.835278 0.929608
    28 1.535968 -0.000001 0.000000 0.000000 0.000000 0.589990
    29 1.100830 -0.000001 0.000000 0.000000 0.000000 0.657324
    30 2.725985 -0.106123 1.020465 0.134402 -0.154786 0.455605
    31 1.397574 0.000001 -0.000001 0.000000 0.000000 1.180060
    32 0.957878 0.000000 0.000000 0.000000 0.000000 0.971031
    33 2.818702 -0.176451 0.444443 0.042897 -0.099140 0.790160
    34 1.684282 -0.000002 0.000000 0.000000 0.000000 1.104632
    35 1.151941 0.000000 -0.000001 0.000000 0.000000 0.879329
    36 2.804606 -0.069564 -0.290472 0.203887 -0.064085 0.976389
    37 1.480629 0.000001 -0.000001 0.000000 0.000000 1.197207
    38 1.076367 0.000000 0.000000 0.000000 0.000000 1.192474
    39 2.637187 0.041571 -0.929335 0.345370 0.044690 1.086730
    40 1.124349 0.000001 0.000000 0.000000 0.000000 1.521500
    41 0.891247 0.000001 0.000000 0.000000 0.000000 1.321559
    42 0.077649 -0.146137 0.050516 -1.422762 3.119456 0.147170
    43 2.428478 0.000000 0.000000 0.174742 0.000000 0.000000
  time 3
    0 13.004093 0.778599 -9.519755 -0.918909 -0.001081 -2.227722
    1 8.499678 0.000000 0.000002 -1.776544 -0.180125 0.092505
    2 2.590252 0.798588 -0.347195 0.168992 -3.019792 1.443836
    3 1.276066 4.913687 -1.756443 0.000000 0.000000 0.000000
    4 0.000004 6.776255 1.709930 0.000000 0.000000 0.000000
    5 0.000000 -2.155092 2.277100 0.000000 0.000000 0.000000
    6 -0.531231 4.631598 3.001892 0.000000 0.000000 0.000000
    7 0.000004 -2.782814 4.273781 0.000000 0.000000 0.000000
    8 1.066141 0.161471 -0.665475 2.484768 0.749569 0.986721
    9 1.535968 -0.000001 0.000001 0.000000 0.000000 1.180468
    10 1.100831 0.000000 0.000000 0.000000 0.000000 0.433641
    11 2.725985 -0.106123 -1.020465 -0.052019 0.107536 -0.014378
    12 1.397574 0.000001 0.000001 0.000000 0.000000 0.193561
    13 0.957879 0.000000 0.000000 0.000000 0.000000 0.641297
    14 2.818702 -0.176450 -0.444443 -0.118789 0.036080 0.644560
    15 1.684281 0.000000 0.000000 0.000000 0.000000 1.861645
    16 1.151941 0.000000 0.000001 0.000000 0.000000 1.141487
    17 2.804605 -0.069563 0.290472 -0.211325 0.071354 0.840695
    18 1.480629 0.000000 0.000000 0.000000 0.000000 1.698687
    19 1.076366 0.000000 0.000000 0.000000 0.000000 0.748916
    20 2.637186 0.041571 0.929335 -0.346527 0.088471 0.924980
    21 1.124349 -0.000002 0.000000 0.000000 0.000000 1.346295
    22 0.891247 0.000001 0.000000 0.000000 0.000000 0.984495
    23 0.050302 -0.068010 -0.113033 1.724535 0.010837 0.011384
    24 2.428478 0.000000 0.000000 -0.076003 0.000000 0.000000
    25 -4.382118 -1.228668 -7.055498 0.808573 -2.361574 -4.981931
    26 8.499673 0.000001 0.000000 2.046471 0.379985 0.210516
    27 1.066141 0.161471 0.665475 -2.078900 -0.811850 0.938389
    28 1.535968 -0.000001 0.000000 0.000000 0.000000 0.543213
    29 1.100830 -0.000001 0.000000 0.000000 0.000000 0.583908
    30 2.725985 -0.106123 1.020465 0.198088 -0.146613 0.378945
    31 1.397574 0.000001 -0.000001 0.000000 0.000000 1.111750
    32 0.957878 0.000000 0.000000 0.000000 0.000000 0.890204
    33 2.818702 -0.176451 0.444443 0.077352 -0.118208 0.716645
    34 1.684282 -0.000002 0.000000 0.000000 0.000000 1.046957
    35 1.151941 0.000000 -0.000001 0.000000 0.000000 0.777952
    36 2.804606 -0.069564 -0.290472 0.215248 -0.090271 0.907514
    37 1.480629 0.000001 -0.000001 0.000000 0.000000 1.110692
    38 1.076367 0.000000 0.000000 0.000000 0.000000 1.161796
    39 2.637187 0.041571 -0.929335 0.331216 0.041586 1.004689
    40 1.124349 0.000001 0.000000 0.000000 0.000000 1.544899
    41 0.891247 0.000001 0.000000 0.000000 0.000000 1.346409
    42 0.089368 -0.177388 0.027078 -1.423445 3.115321 0.201221
    43 2.428478 0.000000 0.000000 0.164759 0.000000 0.000000
  time 4
    0 12.898621 0.923135 -9.578350 -0.910316 -0.131380 -2.249157
    1 8.499678 0.000000 0.000002 -1.788113 -0.171040 0.133543
    2 2.590252 0.798588 -0.347195 0.168992 -3.019792 1.443836
    3 1.276066 4.913687 -1.756443 0.000000 0.000000 0.000000
    4 0.000004 6.776255 1.709930 0.000000 0.000000 0.000000
    5 0.000000 -2.155092 2.277100 0.000000 0.000000 0.000000
    6 -0.531231 4.631598 3.001892 0.000000 0.000000 0.000000
    7 0.000004 -2.782814 4.273781 0.000000 0.000000 0.000000
    8 1.066141 0.161471 -0.665475 2.484768 0.749569 0.986721
    9 1.535968 -0.000001 0.000001 0.000000 0.000000 1.180468
    10 1.100831 0.000000 0.000000 0.000000 0.000000 0.433641
    11 2.725985 -0.106123 -1.020465 -0.052019 0.107536 -0.014378
    12 1.397574 0.000001 0.000001 0.000000 0.000000 0.193561
    13 0.957879 0.000000 0.000000 0.000000 0.000000 0.641297
    14 2.818702 -0.176450 -0.444443 -0.118789 0.036080 0.644560
    15 1.684281 0.000000 0.000000 0.000000 0.000000 1.861645
    16 1.151941 0.000000 0.000001 0.000000 0.000000 1.141487
    17 2.804605 -0.069563 0.290472 -0.211325 0.071354 0.840695
    18 1.480629 0.000000 0.000000 0.000000 0.000000 1.698687
    19 1.076366 0.000000 0.000000 0.000000 0.000000 0.748916
    20 2.637186 0.041571 0.929335 -0.346527 0.088471 0.924980
    21 1.124349 -0.000002 0.000000 0.000000 0.000000 1.346295
    22 0.891247 0.000001 0.000000 0.000000 0.000000 0.984495
    23 0.050302 -0.068010 -0.113033 1.724535 0.010837 0.011384
    24 2.428478 0.000000 0.000000 -0.080653 0.000000 0.000000
    25 -4.534467 -1.173979 -7.485198 -2.612004 -0.803215 -1.535018
    26 8.499673 0.000001 0.000000 2.017569 0.381065 0.233168
    27 1.066141 0.161471 0.665475 -2.130631 -0.789656 0.945533
    28 1.535968 -0.000001 0.000000 0.000000 0.000000 0.499080
    29 1.100830 -0.000001 0.000000 0.000000 0.000000 0.516247
    30 2.725985 -0.106123 1.020465 0.257050 -0.133310 0.306008
    31 1.397574 0.000001 -0.000001 0.000000 0.000000 1.040857
    32 0.957878 0.000000 0.000000 0.000000 0.000000 0.807636
    33 2.818702 -0.176451 0.444443 0.110957 -0.131211 0.643840
    34 1.684282 -0.000002 0.000000 0.000000 0.000000 0.987434
    35 1.151941 0.000000 -0.000001 0.000000 0.000000 0.681046
    36 2.804606 -0.069564 -0.290472 0.227340 -0.111747 0.843827
    37 1.480629 0.000001 -0.000001 0.000000 0.000000 1.030946
    38 1.076367 0.000000 0.000000 0.000000 0.000000 1.131814
    39 2.637187 0.041571 -0.929335 0.318189 0.040555 0.925644
    40 1.124349 0.000001 0.000000 0.000000 0.000000 1.568196
    41 0.891247 0.000001 0.000000 0.000000 0.000000 1.370031
    42 0.101087 -0.208639 0.003640 -1.423265 3.111678 0.252599
    43 2.428478 0.000000 0.000000 0.154980 0.000000 0.000000
  time 5
    0 12.808775 1.098922 -9.554912 -0.899326 -0.262669 -2.269799
    1 8.499678 0.000000 0.000002 -1.806822 -0.151113 0.188366
    2 2.590252 0.798588 -0.347195 0.168992 -3.019792 1.443836
    3 1.276066 4.913687 -1.756443 0.000000 0.000000 0.000000
    4 0.000004 6.776255 1.709930 0.000000 0.000000 0.000000
    5 0.000000 -2.155092 2.277100 0.000000 0.000000 0.000000
    6 -0.531231 4.631598 3.001892 0.000000 0.000000 0.000000
    7 0.000004 -2.782814 4.273781 0.000000 0.000000 0.000000
    8 1.066141 0.161471 -0.665475 2.484768 0.749569 0.986721
    9 1.535968 -0.000001 0.000001 0.000000 0.000000 1.180468
    10 1.100831 0.000000 0.000000 0.000000 0.000000 0.433641
    11 2.725985 -0.106123 -1.020465 -0.052019 0.107536 -0.014378
    12 1.397574 0.000001 0.000001 0.000000 0.000000 0.193561
    13 0.957879 0.000000 0.000000 0.000000 0.000000 0.641297
    14 2.818702 -0.176450 -0.444443 -0.118789 0.036080 0.644560
    15 1.684281 0.000000 0.000000 0.000000 0.000000 1.861645
    16 1.151941 0.000000 0.000001 0.000000 0.000000 1.141487
    17 2.804605 -0.069563 0.290472 -0.211325 0.071354 0.840695
    18 1.480629 0.000000 0.000000 0.000000 0.000000 1.698687
    19 1.076366 0.000000 0.000000 0.000000 0.000000 0.748916
    20 2.637186 0.041571 0.929335 -0.346527 0.088471 0.924980
    21 1.124349 -0.000002 0.000000 0.000000 0.000000 1.346295
    22 0.891247 0.000001 0.000000 0.000000 0.000000 0.984495
    23 0.050302 -0.068010 -0.113033 1.724535 0.010837 0.011384
    24 2.428478 0.000000 0.000000 -0.088467 0.000000 0.000000
    25 -4.675096 -1.173979 -7.825052 -2.847625 -0.767428 -1.245561
    26 8.499673 0.000001 0.000000 1.987087 0.374160 0.251404
    27 1.066141 0.161471 0.665475 -2.178953 -0.769481 0.951635
    28 1.535968 -0.000001 0.000000 0.000000 0.000000 0.458958
    29 1.100830 -0.000001 0.000000 0.000000 0.000000 0.457201
    30 2.725985 -0.106123 1.020465 0.309083 -0.115561 0.238475
    31 1.397574 0.000001 -0.000001 0.000000 0.000000 0.966093
    32 0.957878 0.000000 0.000000 0.000000 0.000000 0.722481
    33 2.818702 -0.176451 0.444443 0.141901 -0.136736 0.572957
    34 1.684282 -0.000002 0.000000 0.000000 0.000000 0.925117
    35 1.151941 0.000000 -0.000001 0.000000 0.000000 0.590804
    36 2.804606 -0.069564 -0.290472 0.238965 -0.126704 0.788335
    37 1.480629 0.000001 -0.000001 0.000000 0.000000 0.961329
    38 1.076367 0.000000 0.000000 0.000000 0.000000 1.102726
    39 2.637187 0.041571 -0.929335 0.306336 0.043324 0.850921
    40 1.124349 0.000001 0.000000 0.000000 0.000000 1.591342
    41 0.891247 0.000001 0.000000 0.000000 0.000000 1.391900
    42 0.112806 -0.232078 -0.019799 -1.422522 3.108897 0.295923
    43 2.428478 0.000000 0.000000 0.145260 0.000000 0.000000
  time 6
    0 12.742366 1.309865 -9.441627 -0.890122 -0.365233 -2.285677
    1 8.499678 0.000000 0.000002 -1.824242 -0.130638 0.236054
    2 2.590252 0.798588 -0.347195 0.168992 -3.019792 1.443836
    3 1.276066 4.913687 -1.756443 0.000000 0.000000 0.000000
    4 0.000004 6.776255 1.709930 0.000000 0.000000 0.000000
    5 0.000000 -2.155092 2.277100 0.000000 0.000000 0.000000
    6 -0.531231 4.631598 3.001892 0.000000 0.000000 0.000000
    7 0.000004 -2.782814 4.273781 0.000000 0.000000 0.000000
    8 1.066141 0.161471 -0.665475 2.484768 0.749569 0.986721
    9 1.535968 -0.000001 0.000001 0.000000 0.000000 1.180468
    10 1.100831 0.000000 0.000000 0.000000 0.000000 0.433641
    11 2.725985 -0.106123 -1.020465 -0.052019 0.107536 -0.014378
    12 1.397574 0.000001 0.000001 0.000000 0.000000 0.193561
    13 0.957879 0.000000 0.000000 0.000000 0.000000 0.641297
    14 2.818702 -0.176450 -0.444443 -0.118789 0.036080 0.644560
    15 1.684281 0.000000 0.000000 0.000000 0.000000 1.861645
    16 1.151941 0.000000 0.000001 0.000000 0.000000 1.141487
    17 2.804605 -0.069563 0.290472 -0.211325 0.071354 0.840695
    18 1.480629 0.000000 0.000000 0.000000 0.000000 1.698687
    19 1.076366 0.000000 0.000000 0.000000 0.000000 0.748916
    20 2.637186 0.041571 0.929335 -0.346527 0.088471 0.924980
    21 1.124349 -0.000002 0.000000 0.000000 0.000000 1.346295
    22 0.891247 0.000001 0.000000 0.000000 0.000000 0.984495
    23 0.050302 -0.068010 -0.113033 1.724535 0.010837 0.011384
    24 2.428478 0.000000 0.000000 -0.096101 0.000000 0.000000
    25 -4.784474 -1.240388 -8.028184 -3.010781 -0.699367 -1.004076
    26 8.499673 0.000001 0.000000 1.954525 0.356300 0.264196
    27 1.066141 0.161471 0.665475 -2.223502 -0.752105 0.957290
    28 1.535968 -0.000001 0.000000 0.000000 0.000000 0.424123
    29 1.100830 -0.000001 0.000000 0.000000 0.000000 0.409705
    30 2.725985 -0.106123 1.020465 0.352193 -0.094456 0.177777
    31 1.397574 0.000001 -0.000001 0.000000 0.000000 0.886215
    32 0.957878 0.000000 0.000000 0.000000 0.000000 0.633888
    33 2.818702 -0.176451 0.444443 0.168207 -0.133656 0.505331
    34 1.684282 -0.000002 0.000000 0.000000 0.000000 0.859060
    35 1.151941 0.000000 -0.000001 0.000000 0.000000 0.509506
    36 2.804606 -0.069564 -0.290472 0.248697 -0.133535 0.744133
    37 1.480629 0.000001 -0.000001 0.000000 0.000000 0.905249
    38 1.076367 0.000000 0.000000 0.000000 0.000000 1.074982
    39 2.637187 0.041571 -0.929335 0.295478 0.051677 0.781933
    40 1.124349 0.000001 0.000000 0.000000 0.000000 1.614233
    41 0.891247 0.000001 0.000000 0.000000 0.000000 1.411359
    42 0.116712 -0.251609 -0.031518 -1.421695 3.107147 0.325849
    43 2.428478 0.000000 0.000000 0.135397 0.000000 0.000000
  time 7
    0 12.703303 1.536435 -9.250215 -0.888276 -0.409411 -2.291036
    1 8.499678 0.000000 0.000002 -1.833894 -0.121224 0.256540
    2 2.590252 0.798588 -0.347195 0.168992 -3.019792 1.443836
    3 1.276066 4.913687 -1.756443 0.000000 0.000000 0.000000
    4 0.000004 6.776255 1.709930 0.000000 0.000000 0.000000
    5 0.000000 -2.155092 2.277100 0.000000 0.000000 0.000000
    6 -0.531231 4.631598 3.001892 0.000000 0.000000 0.000000
    7 0.000004 -2.782814 4.273781 0.000000 0.000000 0.000000
    8 1.066141 0.161471 -0.665475 2.484768 0.749569 0.986721
    9 1.535968 -0.000001 0.000001 0.000000 0.000000 1.180468
    10 1.100831 0.000000 0.000000 0.000000 0.000000 0.433641
    11 2.725985 -0.106123 -1.020465 -0.052019 0.107536 -0.014378
    12 1.397574 0.000001 0.000001 0.000000 0.000000 0.193561
    13 0.957879 0.000000 0.000000 0.000000 0.000000 0.641297
    14 2.818702 -0.176450 -0.444443 -0.118789 0.036080 0.644560
    15 1.684281 0.000000 0.000000 0.000000 0.000000 1.861645
    16 1.151941 0.000000 0.000001 0.000000 0.000000 1.141487
    17 2.804605 -0.069563 0.290472 -0.211325 0.071354 0.840695
    18 1.480629 0.000000 0.000000 0.000000 0.000000 1.698687
    19 1.076366 0.000000 0.000000 0.000000 0.000000 0.748916
    20 2.637186 0.041571 0.929335 -0.346527 0.088471 0.924980
    21 1.124349 -0.000002 0.000000 0.000000 0.000000 1.346295
    22 0.891247 0.000001 0.000000 0.000000 0.000000 0.984495
    23 0.050302 -0.068010 -0.113033 1.724535 0.010837 0.011384
    24 2.428478 0.000000 0.000000 -0.100308 0.000000 0.000000
    25 -4.854789 -1.396642 -8.043809 -3.105941 -0.626221 -7.094134
    26 8.499673 0.000001 0.000000 1.919556 0.324451 0.270797
    27 1.066141 0.161471 0.665475 -2.263973 -0.738229 0.963244
    28 1.535968 -0.000001 0.000000 0.000000 0.000000 0.395974
    29 1.100830 -0.000001 0.000000 0.000000 0.000000 0.376541
    30 2.725985 -0.106123 1.020465 0.384623 -0.071290 0.125168
    31 1.397574 0.000001 -0.000001 0.000000 0.000000 0.799884
    32 0.957878 0.000000 0.000000 0.000000 0.000000 0.541011
    33 2.818702 -0.176451 0.444443 0.187790 -0.121096 0.442175
    34 1.684282 -0.000002 0.000000 0.000000 0.000000 0.788362
    35 1.151941 0.000000 -0.000001 0.000000 0.000000 0.439296
    36 2.804606 -0.069564 -0.290472 0.255205 -0.130767 0.714404
    37 1.480629 0.000001 -0.000001 0.000000 0.000000 0.866117
    38 1.076367 0.000000 0.000000 0.000000 0.000000 1.048828
    39 2.637187 0.041571 -0.929335 0.285363 0.067341 0.719964
    40 1.124349 0.000001 0.000000 0.000000 0.000000 1.636871
    41 0.891247 0.000001 0.000000 0.000000 0.000000 1.427882
    42 0.120619 -0.255516 -0.039330 -1.421324 3.106524 0.337018
    43 2.428478 0.000000 0.000000 0.125102 0.000000 0.000000
  time 8
    0 12.675958 1.802068 -8.945518 -0.895479 -0.400383 -2.282965
    1 8.499678 0.000000 0.000002 -1.838587 -0.120719 0.253558
    2 2.590252 0.798588 -0.347195 0.168992 -3.019792 1.443836
    3 1.276066 4.913687 -1.756443 0.000000 0.000000 0.000000
    4 0.000004 6.776255 1.709930 0.000000 0.000000 0.000000
    5 0.000000 -2.155092 2.277100 0.000000 0.000000 0.000000
    6 -0.531231 4.631598 3.001892 0.000000 0.000000 0.000000
    7 0.000004 -2.782814 4.273781 0.000000 0.000000 0.000000
    8 1.066141 0.161471 -0.665475 2.484768 0.749569 0.986721
    9 1.535968 -0.000001 0.000001 0.000000 0.000000 1.180468
    10 1.100831 0.000000 0.000000 0.000000 0.000000 0.433641
    11 2.725985 -0.106123 -1.020465 -0.052019 0.107536 -0.014378
    12 1.397574 0.000001 0.000001 0.000000 0.000000 0.193561
    13 0.957879 0.000000 0.000000 0.000000 0.000000 0.641297
    14 2.818702 -0.176450 -0.444443 -0.118789 0.036080 0.644560
    15 1.684281 0.000000 0.000000 0.000000 0.000000 1.861645
    16 1.151941 0.000000 0.000001 0.000000 0.000000 1.141487
    17 2.804605 -0.069563 0.290472 -0.211325 0.071354 0.840695
    18 1.480629 0.000000 0.000000 0.000000 0.000000 1.698687
    19 1.076366 0.000000 0.000000 0.000000 0.000000 0.748916
    20 2.637186 0.041571 0.929335 -0.346527 0.088471 0.924980
    21 1.124349 -0.000002 0.000000 0.000000 0.000000 1.346295
    22 0.891247 0.000001 0.000000 0.000000 0.000000 0.984495
    23 0.050302 -0.068010 -0.113033 1.724535 0.010837 0.011384
    24 2.428478 0.000000 0.000000 -0.102022 0.000000 0.000000
    25 -4.784474 -1.775560 -7.868022 -3.060289 -0.630105 -6.984620
    26 8.499673 0.000001 0.000000 1.849845 0.177910 0.233689
    27 1.066141 0.161471 0.665475 -2.286126 -0.753875 0.975225
    28 1.535968 -0.000001 0.000000 0.000000 0.000000 0.394000
    29 1.100830 -0.000001 0.000000 0.000000 0.000000 0.456496
    30 2.725985 -0.106123 1.020465 0.375562 -0.040393 0.100832
    31 1.397574 0.000001 -0.000001 0.000000 0.000000 0.654773
    32 0.957878 0.000000 0.000000 0.000000 0.000000 0.397303
    33 2.818702 -0.176451 0.444443 0.173936 -0.049979 0.391467
    34 1.684282 -0.000002 0.000000 0.000000 0.000000 0.673732
    35 1.151941 0.000000 -0.000001 0.000000 0.000000 0.420288
    36 2.804606 -0.069564 -0.290472 0.243364 -0.070449 0.767455
    37 1.480629 0.000001 -0.000001 0.000000 0.000000 0.925062
    38 1.076367 0.000000 0.000000 0.000000 0.000000 1.028194
    39 2.637187 0.041571 -0.929335 0.280390 0.135233 0.691419
    40 1.124349 0.000001 0.000000 0.000000 0.000000 1.662605
    41 0.891247 0.000001 0.000000 0.000000 0.000000 1.427268
    42 0.120619 -0.255516 -0.039330 -1.421324 3.106524 0.337018
    43 2.428478 0.000000 0.000000 0.104608 0.000000 0.000000
  time 9
    0 12.640801 2.102858 -8.523631 -0.907559 -0.366875 -2.265763
    1 8.499678 0.000000 0.000002 -1.844967 -0.120192 0.243977
    2 2.590252 0.798588 -0.347195 0.168992 -3.019792 1.443836
    3 1.276066 4.913687 -1.756443 0.000000 0.000000 0.000000
    4 0.000004 6.776255 1.709930 0.000000 0.000000 0.000000
    5 0.000000 -2.155092 2.277100 0.000000 0.000000 0.000000
    6 -0.531231 4.631598 3.001892 0.000000 0.000000 0.000000
    7 0.000004 -2.782814 4.273781 0.000000 0.000000 0.000000
    8 1.066141 0.161471 -0.665475 2.484768 0.749569 0.986721
    9 1.535968 -0.000001 0.000001 0.000000 0.000000 1.180468
    10 1.100831 0.000000 0.000000 0.000000 0.000000 0.433641
    11 2.725985 -0.106123 -1.020465 -0.052019 0.107536 -0.014378
    12 1.397574 0.000001 0.000001 0.000000 0.000000 0.193561
    13 0.957879 0.000000 0.000000 0.000000 0.000000 0.641297
    14 2.818702 -0.176450 -0.444443 -0.118789 0.036080 0.644560
    15 1.684281 0.000000 0.000000 0.000000 0.000000 1.861645
    16 1.151941 0.000000 0.000001 0.000000 0.000000 1.141487
    17 2.804605 -0.069563 0.290472 -0.211325 0.071354 0.840695
    18 1.480629 0.000000 0.000000 0.000000 0.000000 1.698687
    19 1.076366 0.000000 0.000000 0.000000 0.000000 0.748916
    20 2.637186 0.041571 0.929335 -0.346527 0.088471 0.924980
    21 1.124349 -0.000002 0.000000 0.000000 0.000000 1.346295
    22 0.891247 0.000001 0.000000 0.000000 0.000000 0.984495
    23 0.050302 -0.068010 -0.113033 1.724535 0.010837 0.011384
    24 2.428478 0.000000 0.000000 -0.104239 0.000000 0.000000
    25 -4.526654 -2.224793 -7.590670 -2.861733 -0.680318 -6.966272
    26 8.499673 0.000001 0.000000 1.784044 -0.051269 0.179292
    27 1.066141 0.161471 0.665475 -2.291968 -0.789409 0.996210
    28 1.535968 -0.000001 0.000000 0.000000 0.000000 0.427880
    29 1.100830 -0.000001 0.000000 0.000000 0.000000 0.614057
    30 2.725985 -0.106123 1.020465 0.316877 -0.011906 0.112570
    31 1.397574 0.000001 -0.000001 0.000000 0.000000 0.474912
    32 0.957878 0.000000 0.000000 0.000000 0.000000 0.230343
    33 2.818702 -0.176451 0.444443 0.121563 0.061429 0.359346
    34 1.684282 -0.000002 0.000000 0.000000 0.000000 0.533868
    35 1.151941 0.000000 -0.000001 0.000000 0.000000 0.461426
    36 2.804606 -0.069564 -0.290472 0.225483 0.042231 0.895832
    37 1.480629 0.000001 -0.000001 0.000000 0.000000 1.075414
    38 1.076367 0.000000 0.000000 0.000000 0.000000 1.016211
    39 2.637187 0.041571 -0.929335 0.282823 0.247385 0.701647
    40 1.124349 0.000001 0.000000 0.000000 0.000000 1.686817
    41 0.891247 0.000001 0.000000 0.000000 0.000000 1.410570
    42 0.120619 -0.255516 -0.039330 -1.421324 3.106524 0.337018
    43 2.428478 0.000000 0.000000 0.081286 0.000000 0.000000
  time 10
    0 12.597831 2.419274 -8.035334 -0.920718 -0.314517 -2.243666
    1 8.499678 0.000000 0.000002 -1.852999 -0.121465 0.227830
    2 2.590252 0.798588 -0.347195 0.168992 -3.019792 1.443836
    3 1.276066 4.913687 -1.756443 0.000000 0.000000 0.000000
    4 0.000004 6.776255 1.709930 0.000000 0.000000 0.000000
    5 0.000000 -2.155092 2.277100 0.000000 0.000000 0.000000
    6 -0.531231 4.631598 3.001892 0.000000 0.000000 0.000000
    7 0.000004 -2.782814 4.273781 0.000000 0.000000 0.000000
    8 1.066141 0.161471 -0.665475 2.484768 0.749569 0.986721
    9 1.535968 -0.000001 0.000001 0.000000 0.000000 1.180468
    10 1.100831 0.000000 0.000000 0.000000 0.000000 0.433641
    11 2.725985 -0.106123 -1.020465 -0.052019 0.107536 -0.014378
    12 1.397574 0.000001 0.000001 0.000000 0.000000 0.193561
    13 0.957879 0.000000 0.000000 0.000000 0.000000 0.641297
    14 2.818702 -0.176450 -0.444443 -0.118789 0.036080 0.644560
    15 1.684281 0.000000 0.000000 0.000000 0.000000 1.861645
    16 1.151941 0.000000 0.000001 0.000000 0.000000 1.141487
    17 2.804605 -0.069563 0.290472 -0.211325 0.071354 0.840695
    18 1.480629 0.000000 0.000000 0.000000 0.000000 1.698687
    19 1.076366 0.000000 0.000000 0.000000 0.000000 0.748916
    20 2.637186 0.041571 0.929335 -0.346527 0.088471 0.924980
    21 1.124349 -0.000002 0.000000 0.000000 0.000000 1.346295
    22 0.891247 0.000001 0.000000 0.000000 0.000000 0.984495
    23 0.050302 -0.068010 -0.113033 1.724535 0.010837 0.011384
    24 2.428478 0.000000 0.000000 -0.106899 0.000000 0.000000
    25 -4.276646 -2.404486 -7.309412 -2.656868 -0.662286 -6.964456
    26 8.499673 0.000001 0.000000 1.790812 -0.155523 0.157780
    27 1.066141 0.161471 0.665475 -2.302740 -0.791921 1.020544
    28 1.535968 -0.000001 0.000000 0.000000 0.000000 0.484146
    29 1.100830 -0.000001 0.000000 0.000000 0.000000 0.651098
    30 2.725985 -0.106123 1.020465 0.239933 -0.008251 0.146068
    31 1.397574 0.000001 -0.000001 0.000000 0.000000 0.373339
    32 0.957878 0.000000 0.000000 0.000000 0.000000 0.150237
    33 2.818702 -0.176451 0.444443 0.067801 0.116427 0.351577
    34 1.684282 -0.000002 0.000000 0.000000 0.000000 0.454789
    35 1.151941 0.000000 -0.000001 0.000000 0.000000 0.518078
    36 2.804606 -0.069564 -0.290472 0.220785 0.124541 0.994915
    37 1.480629 0.000001 -0.000001 0.000000 0.000000 1.188857
    38 1.076367 0.000000 0.000000 0.000000 0.000000 1.012383
    39 2.637187 0.041571 -0.929335 0.287616 0.325788 0.719878
    40 1.124349 0.000001 0.000000 0.000000 0.000000 1.697577
    41 0.891247 0.000001 0.000000 0.000000 0.000000 1.400052
    42 0.120619 -0.255516 -0.039330 -1.421324 3.106524 0.337018
    43 2.428478 0.000000 0.000000 0.082976 0.000000 0.000000
  time 11
    0 12.550954 2.720065 -7.535319 -0.931636 -0.249311 -2.220378
    1 8.499678 0.000000 0.000002 -1.862420 -0.126447 0.205200
    2 2.590252 0.798588 -0.347195 0.168992 -3.019792 1.443836
    3 1.276066 4.913687 -1.756443 0.000000 0.000000 0.000000
    4 0.000004 6.776255 1.709930 0.000000 0.000000 0.000000
    5 0.000000 -2.155092 2.277100 0.000000 0.000000 0.000000
    6 -0.531231 4.631598 3.001892 0.000000 0.000000 0.000000
    7 0.000004 -2.782814 4.273781 0.000000 0.000000 0.000000
    8 1.066141 0.161471 -0.665475 2.484768 0.749569 0.986721
    9 1.535968 -0.000001 0.000001 0.000000 0.000000 1.180468
    10 1.100831 0.000000 0.000000 0.000000 0.000000 0.433641
    11 2.725985 -0.106123 -1.020465 -0.052019 0.107536 -0.014378
    12 1.397574 0.000001 0.000001 0.000000 0.000000 0.193561
    13 0.957879 0.000000 0.000000 0.000000 0.000000 0.641297
    14 2.818702 -0.176450 -0.444443 -0.118789 0.036080 0.644560
    15 1.684281 0.000000 0.000000 0.000000 0.000000 1.861645
    16 1.151941 0.000000 0.000001 0.000000 0.000000 1.141487
    17 2.804605 -0.069563 0.290472 -0.211325 0.071354 0.840695
    18 1.480629 0.000000 0.000000 0.000000 0.000000 1.698687
    19 1.076366 0.000000 0.000000 0.000000 0.000000 0.748916
    20 2.637186 0.041571 0.929335 -0.346527 0.088471 0.924980
    21 1.124349 -0.000002 0.000000 0.000000 0.000000 1.346295
    22 0.891247 0.000001 0.000000 0.000000 0.000000 0.984495
    23 0.050302 -0.068010 -0.113033 1.724535 0.010837 0.011384
    24 2.428478 0.000000 0.000000 -0.109919 0.000000 0.000000
    25 -4.499309 -2.459175 -7.442228 -2.507819 -0.581464 -6.933686
    26 8.499673 0.000001 0.000000 1.882708 0.026893 0.253424
    27 1.066141 0.161471 0.665475 -2.334205 -0.709695 1.070626
    28 1.535968 -0.000001 0.000000 0.000000 0.000000 0.574928
    29 1.100830 -0.000001 0.000000 0.000000 0.000000 0.405320
    30 2.725985 -0.106123 1.020465 0.132689 -0.049610 0.229957
    31 1.397574 0.000001 -0.000001 0.000000 0.000000 0.369070
    32 0.957878 0.000000 0.000000 0.000000 0.000000 0.213329
    33 2.818702 -0.176451 0.444443 0.020413 0.057798 0.407799
    34 1.684282 -0.000002 0.000000 0.000000 0.000000 0.438478
    35 1.151941 0.000000 -0.000001 0.000000 0.000000 0.566251
    36 2.804606 -0.069564 -0.290472 0.220641 0.150895 0.998097
    37 1.480629 0.000001 -0.000001 0.000000 0.000000 1.190241
    38 1.076367 0.000000 0.000000 0.000000 0.000000 0.984538
    39 2.637187 0.041571 -0.929335 0.282739 0.357691 0.697068
    40 1.124349 0.000001 0.000000 0.000000 0.000000 1.693009
    41 0.891247 0.000001 0.000000 0.000000 0.000000 1.367314
    42 0.120619 -0.255516 -0.039330 -1.421324 3.106524 0.337018
    43 2.428478 0.000000 0.000000 0.120272 0.000000 0.000000
  time 12
    0 12.496265 2.985698 -7.074368 -0.938168 -0.177596 -2.198678
    1 8.499678 0.000000 0.000002 -1.872931 -0.137046 0.176189
    2 2.590252 0.798588 -0.347195 0.168992 -3.019792 1.443836
    3 1.276066 4.913687 -1.756443 0.000000 0.000000 0.000000
    4 0.000004 6.776255 1.709930 0.000000 0.000000 0.000000
    5 0.000000 -2.155092 2.277100 0.000000 0.000000 0.000000
    6 -0.531231 4.631598 3.001892 0.000000 0.000000 0.000000
    7 0.000004 -2.782814 4.273781 0.000000 0.000000 0.000000
    8 1.066141 0.161471 -0.665475 2.484768 0.749569 0.986721
    9 1.535968 -0.000001 0.000001 0.000000 0.000000 1.180468
    10 1.100831 0.000000 0.000000 0.000000 0.000000 0.433641
    11 2.725985 -0.106123 -1.020465 -0.052019 0.107536 -0.014378
    12 1.397574 0.000001 0.000001 0.000000 0.000000 0.193561
    13 0.957879 0.000000 0.000000 0.000000 0.000000 0.641297
    14 2.818702 -0.176450 -0.444443 -0.118789 0.036080 0.644560
    15 1.684281 0.000000 0.000000 0.000000 0.000000 1.861645
    16 1.151941 0.000000 0.000001 0.000000 0.000000 1.141487
    17 2.804605 -0.069563 0.290472 -0.211325 0.071354 0.840695
    18 1.480629 0.000000 0.000000 0.000000 0.000000 1.698687
    19 1.076366 0.000000 0.000000 0.000000 0.000000 0.748916
    20 2.637186 0.041571 0.929335 -0.346527 0.088471 0.924980
    21 1.124349 -0.000002 0.000000 0.000000 0.000000 1.346295
    22 0.891247 0.000001 0.000000 0.000000 0.000000 0.984495
    23 0.050302 -0.068010 -0.113033 1.724535 0.010837 0.011384
    24 2.428478 0.000000 0.000000 -0.113155 0.000000 0.000000
    25 -4.585250 -2.384954 -7.379726 -2.394609 -0.475860 -6.888485
    26 8.499673 0.000001 0.000000 2.097859 0.317500 0.385964
    27 1.066141 0.161471 0.665475 -2.359035 -0.593417 1.113713
    28 1.535968 -0.000001 0.000000 0.000000 0.000000 0.688033
    29 1.100830 -0.000001 0.000000 0.000000 0.000000 0.038982
    30 2.725985 -0.106123 1.020465 -0.000162 -0.102066 0.345304
    31 1.397574 0.000001 -0.000001 0.000000 0.000000 0.443090
    32 0.957878 0.000000 0.000000 0.000000 0.000000 0.363274
    33 2.818702 -0.176451 0.444443 -0.033589 -0.051010 0.499483
    34 1.684282 -0.000002 0.000000 0.000000 0.000000 0.482906
    35 1.151941 0.000000 -0.000001 0.000000 0.000000 0.629985
    36 2.804606 -0.069564 -0.290472 0.219287 0.145514 0.972596
    37 1.480629 0.000001 -0.000001 0.000000 0.000000 1.154666
    38 1.076367 0.000000 0.000000 0.000000 0.000000 0.964799
    39 2.637187 0.041571 -0.929335 0.278952 0.355822 0.681575
    40 1.124349 0.000001 0.000000 0.000000 0.000000 1.674990
    41 0.891247 0.000001 0.000000 0.000000 0.000000 1.340755
    42 0.120619 -0.255516 -0.039330 -1.421324 3.106524 0.337018
    43 2.428478 0.000000 0.000000 0.190226 0.000000 0.000000
  time 13
    0 12.445482 3.181016 -6.707169 -0.939618 -0.105852 -2.180484
    1 8.499678 0.000000 0.000002 -1.883971 -0.155195 0.140930
    2 2.590252 0.798588 -0.347195 0.168992 -3.019792 1.443836
    3 1.276066 4.913687 -1.756443 0.000000 0.000000 0.000000
    4 0.000004 6.776255 1.709930 0.000000 0.000000 0.000000
    5 0.000000 -2.155092 2.277100 0.000000 0.000000 0.000000
    6 -0.531231 4.631598 3.001892 0.000000 0.000000 0.000000
    7 0.000004 -2.782814 4.273781 0.000000 0.000000 0.000000
    8 1.066141 0.161471 -0.665475 2.484768 0.749569 0.986721
    9 1.535968 -0.000001 0.000001 0.000000 0.000000 1.180468
    10 1.100831 0.000000 0.000000 0.000000 0.000000 0.433641
    11 2.725985 -0.106123 -1.020465 -0.052019 0.107536 -0.014378
    12 1.397574 0.000001 0.000001 0.000000 0.000000 0.193561
    13 0.957879 0.000000 0.000000 0.000000 0.000000 0.641297
    14 2.818702 -0.176450 -0.444443 -0.118789 0.036080 0.644560
    15 1.684281 0.000000 0.000000 0.000000 0.000000 1.861645
    16 1.151941 0.000000 0.000001 0.000000 0.000000 1.141487
    17 2.804605 -0.069563 0.290472 -0.211325 0.071354 0.840695
    18 1.480629 0.000000 0.000000 0.000000 0.000000 1.698687
    19 1.076366 0.000000 0.000000 0.000000 0.000000 0.748916
    20 2.637186 0.041571 0.929335 -0.346527 0.088471 0.924980
    21 1.124349 -0.000002 0.000000 0.000000 0.000000 1.346295
    22 0.891247 0.000001 0.000000 0.000000 0.000000 0.984495
    23 0.050302 -0.068010 -0.113033 1.724535 0.010837 0.011384
    24 2.428478 0.000000 0.000000 -0.116439 0.000000 0.000000
    25 -4.323523 -1.502114 -6.797677 -2.356142 -0.354072 -6.899092
    26 8.499673 0.000001 0.000000 2.331886 0.444540 0.449439
    27 1.066141 0.161471 0.665475 -2.359096 -0.546931 1.083202
    28 1.535968 -0.000001 0.000000 0.000000 0.000000 0.773657
    29 1.100830 -0.000001 0.000000 0.000000 0.000000 -0.159574
    30 2.725985 -0.106123 1.020465 -0.091940 -0.131081 0.398593
    31 1.397574 0.000001 -0.000001 0.000000 0.000000 0.651546
    32 0.957878 0.000000 0.000000 0.000000 0.000000 0.541011
    33 2.818702 -0.176451 0.444443 -0.067254 -0.131355 0.535322
    34 1.684282 -0.000002 0.000000 0.000000 0.000000 0.667649
    35 1.151941 0.000000 -0.000001 0.000000 0.000000 0.736814
    36 2.804606 -0.069564 -0.290472 0.214145 0.097683 1.016406
    37 1.480629 0.000001 -0.000001 0.000000 0.000000 1.179371
    38 1.076367 0.000000 0.000000 0.000000 0.000000 1.048828
    39 2.637187 0.041571 -0.929335 0.296629 0.280618 0.784672
    40 1.124349 0.000001 0.000000 0.000000 0.000000 1.636871
    41 0.891247 0.000001 0.000000 0.000000 0.000000 1.427882
    42 0.120619 -0.255516 -0.039330 -1.421324 3.106524 0.337018
    43 2.428478 0.000000 0.000000 0.252390 0.000000 0.000000
  time 14
    0 12.390793 3.278676 -6.445442 -0.936646 -0.040617 -2.167848
    1 8.499678 0.000000 0.000002 -1.894780 -0.182737 0.099523
    2 2.590252 0.798588 -0.347195 0.168992 -3.019792 1.443836
    3 1.276066 4.913687 -1.756443 0.000000 0.000000 0.000000
    4 0.000004 6.776255 1.709930 0.000000 0.000000 0.000000
    5 0.000000 -2.155092 2.277100 0.000000 0.000000 0.000000
    6 -0.531231 4.631598 3.001892 0.000000 0.000000 0.000000
    7 0.000004 -1.165577 4.273781 0.000000 0.000000 0.000000
    8 1.066141 0.161471 -0.665475 2.484768 0.749569 0.986721
    9 1.535968 -0.000001 0.000001 0.000000 0.000000 1.180468
    10 1.100831 0.000000 0.000000 0.000000 0.000000 0.433641
    11 2.725985 -0.106123 -1.020465 -0.052019 0.107536 -0.014378
    12 1.397574 0.000001 0.000001 0.000000 0.000000 0.193561
    13 0.957879 0.000000 0.000000 0.000000 0.000000 0.641297
    14 2.818702 -0.176450 -0.444443 -0.118789 0.036080 0.644560
    15 1.684281 0.000000 0.000000 0.000000 0.000000 1.861645
    16 1.151941 0.000000 0.000001 0.000000 0.000000 1.141487
    17 2.804605 -0.069563 0.290472 -0.211325 0.071354 0.840695
    18 1.480629 0.000000 0.000000 0.000000 0.000000 1.698687
    19 1.076366 0.000000 0.000000 0.000000 0.000000 0.748916
    20 2.637186 0.041571 0.929335 -0.346527 0.088471 0.924980
    21 1.124349 -0.000002 0.000000 0.000000 0.000000 1.346295
    22 0.891247 0.000001 0.000000 0.000000 0.000000 0.984495
    23 0.050302 -0.068010 -0.113033 1.724535 0.010837 0.011384
    24 2.428478 0.000000 0.000000 -0.119483 0.000000 0.000000
    25 -3.936792 0.021370 -6.340632 -2.535771 -0.329197 -6.856376
    26 8.499673 0.000001 0.000000 2.336147 0.254678 0.477077
    27 1.066141 0.161471 0.665475 -2.262208 -0.702160 0.807789
    28 1.535968 -0.000001 0.000000 0.000000 0.000000 0.784515
    29 1.100830 -0.000001 0.000000 0.000000 0.000000 0.179394
    30 2.725985 -0.106123 1.020465 -0.052518 -0.125292 0.250786
    31 1.397574 0.000001 -0.000001 0.000000 0.000000 1.294888
    32 0.957878 0.000000 0.000000 0.000000 0.000000 0.807721
    33 2.818702 -0.176451 0.444443 -0.015984 -0.131690 0.383029
    34 1.684282 -0.000002 0.000000 0.000000 0.000000 1.306678
    35 1.151941 0.000000 -0.000001 0.000000 0.000000 1.003023
    36 2.804606 -0.069564 -0.290472 0.164577 -0.073397 1.320325
    37 1.480629 0.000001 -0.000001 0.000000 0.000000 1.422117
    38 1.076367 0.000000 0.000000 0.000000 0.000000 1.484687
    39 2.637187 0.041571 -0.929335 0.290529 -0.035176 1.263308
    40 1.124349 0.000001 0.000000 0.000000 0.000000 1.549822
    41 0.891247 0.000001 0.000000 0.000000 0.000000 1.911548
    42 0.085461 -0.161763 0.038797 -1.423217 3.117346 0.174196
    43 2.428478 0.000000 0.000000 0.280962 0.000000 0.000000
  time 15
    0 12.281415 3.306020 -6.234498 -0.924853 0.060475 -2.175258
    1 8.499678 0.000000 0.000002 -1.904630 -0.295690 -0.037108
    2 2.590252 0.798588 -0.347195 0.168992 -3.019792 1.443836
    3 1.276066 4.913687 -1.756443 0.000000 0.000000 0.000000
    4 0.000004 6.776255 1.709930 0.000000 0.000000 0.000000
    5 0.000000 -2.155092 2.277100 0.000000 0.000000 0.000000
    6 -0.531231 4.631598 3.001892 0.000000 0.000000 0.000000
    7 0.000004 0.451660 4.273781 0.000000 0.000000 0.000000
    8 1.066141 0.161471 -0.665475 2.484768 0.749569 0.986721
    9 1.535968 -0.000001 0.000001 0.000000 0.000000 1.180468
    10 1.100831 0.000000 0.000000 0.000000 0.000000 0.433641
    11 2.725985 -0.106123 -1.020465 -0.052019 0.107536 -0.014378
    12 1.397574 0.000001 0.000001 0.000000 0.000000 0.193561
    13 0.957879 0.000000 0.000000 0.000000 0.000000 0.641297
    14 2.818702 -0.176450 -0.444443 -0.118789 0.036080 0.644560
    15 1.684281 0.000000 0.000000 0.000000 0.000000 1.861645
    16 1.151941 0.000000 0.000001 0.000000 0.000000 1.141487
    17 2.804605 -0.069563 0.290472 -0.211325 0.071354 0.840695
    18 1.480629 0.000000 0.000000 0.000000 0.000000 1.698687
    19 1.076366 0.000000 0.000000 0.000000 0.000000 0.748916
    20 2.637186 0.041571 0.929335 -0.346527 0.088471 0.924980
    21 1.124349 -0.000002 0.000000 0.000000 0.000000 1.346295
    22 0.891247 0.000001 0.000000 0.000000 0.000000 0.984495
    23 0.050302 -0.068010 -0.113033 1.724535 0.010837 0.011384
    24 2.428478 0.000000 0.000000 -0.120622 0.000000 0.000000
    25 -3.475841 1.560479 -5.942182 -2.705324 -0.328365 -6.759572
    26 8.499673 0.000001 0.000000 2.264180 0.058586 0.423495
    27 1.066141 0.161471 0.665475 -2.085838 -0.858912 0.476489
    28 1.535968 -0.000001 0.000000 0.000000 0.000000 0.760315
    29 1.100830 -0.000001 0.000000 0.000000 0.000000 0.558652
    30 2.725985 -0.106123 1.020465 0.021895 -0.097416 0.069302
    31 1.397574 0.000001 -0.000001 0.000000 0.000000 1.845592
    32 0.957878 0.000000 0.000000 0.000000 0.000000 1.010024
    33 2.818702 -0.176451 0.444443 0.045246 -0.089768 0.207053
    34 1.684282 -0.000002 0.000000 0.000000 0.000000 1.861626
    35 1.151941 0.000000 -0.000001 0.000000 0.000000 1.205826
    36 2.804606 -0.069564 -0.290472 0.082003 -0.208823 1.566617
    37 1.480629 0.000001 -0.000001 0.000000 0.000000 1.624645
    38 1.076367 0.000000 0.000000 0.000000 0.000000 1.851532
    39 2.637187 0.041571 -0.929335 0.157871 -0.284179 1.691487
    40 1.124349 0.000001 0.000000 0.000000 0.000000 1.445871
    41 0.891247 0.000001 0.000000 0.000000 0.000000 2.299059
    42 0.050304 -0.068010 0.113018 -1.417057 3.130757 0.011385
    43 2.428478 0.000000 0.000000 0.272824 0.000000 0.000000
  time 16
    0 12.226726 3.235705 -6.152465 -0.904479 0.125058 -2.194179
    1 8.499678 0.000000 0.000002 -1.902548 -0.414612 -0.150256
    2 2.590252 0.798588 -0.347195 0.168992 -3.019792 1.443836
    3 1.276066 4.913687 -1.756443 0.000000 0.000000 0.000000
    4 0.000004 6.776255 1.709930 0.000000 0.000000 0.000000
    5 0.000000 -2.155092 2.277100 0.000000 0.000000 0.000000
    6 -0.531231 4.631598 3.001892 0.000000 0.000000 0.000000
    7 0.000004 0.451660 4.273781 0.000000 0.000000 0.000000
    8 1.066141 0.161471 -0.665475 2.484768 0.749569 0.986721
    9 1.535968 -0.000001 0.000001 0.000000 0.000000 1.180468
    10 1.100831 0.000000 0.000000 0.000000 0.000000 0.433641
    11 2.725985 -0.106123 -1.020465 -0.052019 0.107536 -0.014378
    12 1.397574 0.000001 0.000001 0.000000 0.000000 0.193561
    13 0.957879 0.000000 0.000000 0.000000 0.000000 0.641297
    14 2.818702 -0.176450 -0.444443 -0.118789 0.036080 0.644560
    15 1.684281 0.000000 0.000000 0.000000 0.000000 1.861645
    16 1.151941 0.000000 0.000001 0.000000 0.000000 1.141487
    17 2.804605 -0.069563 0.290472 -0.211325 0.071354 0.840695
    18 1.480629 0.000000 0.000000 0.000000 0.000000 1.698687
    19 1.076366 0.000000 0.000000 0.000000 0.000000 0.748916
    20 2.637186 0.041571 0.929335 -0.346527 0.088471 0.924980
    21 1.124349 -0.000002 0.000000 0.000000 0.000000 1.346295
    22 0.891247 0.000001 0.000000 0.000000 0.000000 0.984495
    23 0.050302 -0.068010 -0.113033 1.724535 0.010837 0.011384
    24 2.428478 0.000000 0.000000 -0.118093 0.000000 0.000000
    25 -3.495373 1.759704 -6.328913 -2.652049 -0.295814 -6.700037
    26 8.499673 0.000001 0.000000 2.224924 -0.070973 0.233005
    27 1.066141 0.161471 0.665475 -2.052062 -0.917998 0.425960
    28 1.535968 -0.000001 0.000000 0.000000 0.000000 0.743024
    29 1.100830 -0.000001 0.000000 0.000000 0.000000 0.552701
    30 2.725985 -0.106123 1.020465 0.045711 -0.084173 0.002270
    31 1.397574 0.000001 -0.000001 0.000000 0.000000 1.847578
    32 0.957878 0.000000 0.000000 0.000000 0.000000 1.011212
    33 2.818702 -0.176451 0.444443 0.056259 -0.061425 0.146445
    34 1.684282 -0.000002 0.000000 0.000000 0.000000 1.868700
    35 1.151941 0.000000 -0.000001 0.000000 0.000000 1.165060
    36 2.804606 -0.069564 -0.290472 0.092466 -0.217380 1.468667
    37 1.480629 0.000001 -0.000001 0.000000 0.000000 1.581955
    38 1.076367 0.000000 0.000000 0.000000 0.000000 1.797236
    39 2.637187 0.041571 -0.929335 0.151867 -0.286480 1.650574
    40 1.124349 0.000001 0.000000 0.000000 0.000000 1.360091
    41 0.891247 0.000001 0.000000 0.000000 0.000000 2.182613
    42 0.050304 -0.068010 0.113018 -1.419298 3.130074 0.016958
    43 2.428478 0.000000 0.000000 0.252187 0.000000 0.000000
  time 17
    0 12.297040 3.028668 -6.234498 -0.899973 0.106606 -2.215681
    1 8.499678 0.000000 0.000002 -1.913191 -0.454290 -0.130206
    2 2.590252 0.798588 -0.347195 0.168992 -3.019792 1.443836
    3 1.276066 4.913687 -1.756443 0.000000 0.000000 0.000000
    4 0.000004 6.776255 1.709930 0.000000 0.000000 0.000000
    5 0.000000 -2.155092 2.277100 0.000000 0.000000 0.000000
    6 -0.531231 4.631598 3.001892 0.000000 0.000000 0.000000
    7 0.000004 0.451660 4.273781 0.000000 0.000000 0.000000
    8 1.066141 0.161471 -0.665475 2.484768 0.749569 0.986721
    9 1.535968 -0.000001 0.000001 0.000000 0.000000 1.180468
    10 1.100831 0.000000 0.000000 0.000000 0.000000 0.433641
    11 2.725985 -0.106123 -1.020465 -0.052019 0.107536 -0.014378
    12 1.397574 0.000001 0.000001 0.000000 0.000000 0.193561
    13 0.957879 0.000000 0.000000 0.000000 0.000000 0.641297
    14 2.818702 -0.176450 -0.444443 -0.118789 0.036080 0.644560
    15 1.684281 0.000000 0.000000 0.000000 0.000000 1.861645
    16 1.151941 0.000000 0.000001 0.000000 0.000000 1.141487
    17 2.804605 -0.069563 0.290472 -0.211325 0.071354 0.840695
    18 1.480629 0.000000 0.000000 0.000000 0.000000 1.698687
    19 1.076366 0.000000 0.000000 0.000000 0.000000 0.748916
    20 2.637186 0.041571 0.929335 -0.346527 0.088471 0.924980
    21 1.124349 -0.000002 0.000000 0.000000 0.000000 1.346295
    22 0.891247 0.000001 0.000000 0.000000 0.000000 0.984495
    23 0.050302 -0.068010 -0.113033 1.724535 0.010837 0.011384
    24 2.428478 0.000000 0.000000 -0.119447 0.000000 0.000000
    25 -3.886009 1.400318 -7.227378 -2.517633 -0.330769 -6.676815
    26 8.499673 0.000001 0.000000 2.204971 -0.199159 -0.018205
    27 1.066141 0.161471 0.665475 -2.073423 -0.963867 0.465475
    28 1.535968 -0.000001 0.000000 0.000000 0.000000 0.722868
    29 1.100830 -0.000001 0.000000 0.000000 0.000000 0.451876
    30 2.725985 -0.106123 1.020465 0.062073 -0.073543 -0.041357
    31 1.397574 0.000001 -0.000001 0.000000 0.000000 1.696759
    32 0.957878 0.000000 0.000000 0.000000 0.000000 0.952532
    33 2.818702 -0.176451 0.444443 0.056128 -0.033201 0.110690
    34 1.684282 -0.000002 0.000000 0.000000 0.000000 1.724331
    35 1.151941 0.000000 -0.000001 0.000000 0.000000 1.052594
    36 2.804606 -0.069564 -0.290472 0.130050 -0.188569 1.270108
    37 1.480629 0.000001 -0.000001 0.000000 0.000000 1.470390
    38 1.076367 0.000000 0.000000 0.000000 0.000000 1.624902
    39 2.637187 0.041571 -0.929335 0.189175 -0.226402 1.473653
    40 1.124349 0.000001 0.000000 0.000000 0.000000 1.274971
    41 0.891247 0.000001 0.000000 0.000000 0.000000 1.922110
    42 0.054210 -0.079729 0.116924 -1.425554 3.128156 0.032586
    43 2.428478 0.000000 0.000000 0.233802 0.000000 0.000000
  time 18
    0 12.402512 2.770848 -6.382940 -0.898990 0.075588 -2.240755
    1 8.499678 0.000000 0.000002 -1.926314 -0.484903 -0.091814
    2 2.590252 0.798588 -0.347195 0.168992 -3.019792 1.443836
    3 1.276066 4.913687 -1.756443 0.000000 0.000000 0.000000
    4 0.000004 6.776255 1.709930 0.000000 0.000000 0.000000
    5 0.000000 -2.155092 2.277100 0.000000 0.000000 0.000000
    6 -0.531231 4.631598 3.001892 0.000000 0.000000 0.000000
    7 0.007817 -0.239768 4.265968 0.000000 0.000000 0.000000
    8 1.066141 0.161471 -0.665475 2.484768 0.749569 0.986721
    9 1.535968 -0.000001 0.000001 0.000000 0.000000 1.180468
    10 1.100831 0.000000 0.000000 0.000000 0.000000 0.433641
    11 2.725985 -0.106123 -1.020465 -0.052019 0.107536 -0.014378
    12 1.397574 0.000001 0.000001 0.000000 0.000000 0.193561
    13 0.957879 0.000000 0.000000 0.000000 0.000000 0.641297
    14 2.818702 -0.176450 -0.444443 -0.118789 0.036080 0.644560
    15 1.684281 0.000000 0.000000 0.000000 0.000000 1.861645
    16 1.151941 0.000000 0.000001 0.000000 0.000000 1.141487
    17 2.804605 -0.069563 0.290472 -0.211325 0.071354 0.840695
    18 1.480629 0.000000 0.000000 0.000000 0.000000 1.698687
    19 1.076366 0.000000 0.000000 0.000000 0.000000 0.748916
    20 2.637186 0.041571 0.929335 -0.346527 0.088471 0.924980
    21 1.124349 -0.000002 0.000000 0.000000 0.000000 1.346295
    22 0.891247 0.000001 0.000000 0.000000 0.000000 0.984495
    23 0.050302 -0.068010 -0.113033 1.724535 0.010837 0.011384
    24 2.428478 0.000000 0.000000 -0.121293 0.000000 0.000000
    25 -4.339148 0.919835 -8.172719 -2.377610 -0.443032 -6.733961
    26 8.499673 0.000001 0.000000 2.222192 -0.288186 -0.244205
    27 1.066141 0.161471 0.665475 -2.126797 -1.000018 0.552170
    28 1.535968 -0.000001 0.000000 0.000000 0.000000 0.702203
    29 1.100830 -0.000001 0.000000 0.000000 0.000000 0.318004
    30 2.725985 -0.106123 1.020465 0.073726 -0.065082 -0.070310
    31 1.397574 0.000001 -0.000001 0.000000 0.000000 1.485820
    32 0.957878 0.000000 0.000000 0.000000 0.000000 0.869922
    33 2.818702 -0.176451 0.444443 0.050950 -0.007075 0.089596
    34 1.684282 -0.000002 0.000000 0.000000 0.000000 1.520033
    35 1.151941 0.000000 -0.000001 0.000000 0.000000 0.915716
    36 2.804606 -0.069564 -0.290472 0.167406 -0.135872 1.043171
    37 1.480629 0.000001 -0.000001 0.000000 0.000000 1.334762
    38 1.076367 0.000000 0.000000 0.000000 0.000000 1.410005
    39 2.637187 0.041571 -0.929335 0.225992 -0.132395 1.253465
    40 1.124349 0.000001 0.000000 0.000000 0.000000 1.197007
    41 0.891247 0.000001 0.000000 0.000000 0.000000 1.613661
    42 0.058117 -0.091448 0.120831 -1.434962 3.125232 0.056579
    43 2.428478 0.000000 0.000000 0.232700 0.000000 0.000000
  time 19
    0 12.535329 2.485683 -6.578259 -0.897696 0.035909 -2.267417
    1 8.499678 0.000000 0.000002 -1.942808 -0.508188 -0.039370
    2 2.590252 0.798588 -0.347195 0.168992 -3.019792 1.443836
    3 1.276066 4.913687 -1.756443 0.000000 0.000000 0.000000
    4 0.000004 6.776255 1.709930 0.000000 0.000000 0.000000
    5 0.000000 -2.155092 2.277100 0.000000 0.000000 0.000000
    6 -0.531231 4.631598 3.001892 0.000000 0.000000 0.000000
    7 0.019536 -2.407803 4.254249 0.000000 0.000000 0.000000
    8 1.066141 0.161471 -0.665475 2.484768 0.749569 0.986721
    9 1.535968 -0.000001 0.000001 0.000000 0.000000 1.180468
    10 1.100831 0.000000 0.000000 0.000000 0.000000 0.433641
    11 2.725985 -0.106123 -1.020465 -0.052019 0.107536 -0.014378
    12 1.397574 0.000001 0.000001 0.000000 0.000000 0.193561
    13 0.957879 0.000000 0.000000 0.000000 0.000000 0.641297
    14 2.818702 -0.176450 -0.444443 -0.118789 0.036080 0.644560
    15 1.684281 0.000000 0.000000 0.000000 0.000000 1.861645
    16 1.151941 0.000000 0.000001 0.000000 0.000000 1.141487
    17 2.804605 -0.069563 0.290472 -0.211325 0.071354 0.840695
    18 1.480629 0.000000 0.000000 0.000000 0.000000 1.698687
    19 1.076366 0.000000 0.000000 0.000000 0.000000 0.748916
    20 2.637186 0.041571 0.929335 -0.346527 0.088471 0.924980
    21 1.124349 -0.000002 0.000000 0.000000 0.000000 1.346295
    22 0.891247 0.000001 0.000000 0.000000 0.000000 0.984495
    23 0.050302 -0.068010 -0.113033 1.724535 0.010837 0.011384
    24 2.428478 0.000000 0.000000 -0.124157 0.000000 0.000000
    25 -4.526654 0.376849 -8.793832 -2.276755 -0.539019 -6.830097
    26 8.499673 0.000001 0.000000 2.262274 -0.301771 -0.347671
    27 1.066141 0.161471 0.665475 -2.176519 -1.031600 0.630679
    28 1.535968 -0.000001 0.000000 0.000000 0.000000 0.683511
    29 1.100830 -0.000001 0.000000 0.000000 0.000000 0.212832
    30 2.725985 -0.106123 1.020465 0.083049 -0.057675 -0.093179
    31 1.397574 0.000001 -0.000001 0.000000 0.000000 1.307398
    32 0.957878 0.000000 0.000000 0.000000 0.000000 0.799405
    33 2.818702 -0.176451 0.444443 0.046324 0.015492 0.073473
    34 1.684282 -0.000002 0.000000 0.000000 0.000000 1.347501
    35 1.151941 0.000000 -0.000001 0.000000 0.000000 0.801712
    36 2.804606 -0.069564 -0.290472 0.188894 -0.084842 0.854812
    37 1.480629 0.000001 -0.000001 0.000000 0.000000 1.220084
    38 1.076367 0.000000 0.000000 0.000000 0.000000 1.227975
    39 2.637187 0.041571 -0.929335 0.240709 -0.047136 1.071066
    40 1.124349 0.000001 0.000000 0.000000 0.000000 1.132647
    41 0.891247 0.000001 0.000000 0.000000 0.000000 1.353333
    42 0.065929 -0.110980 0.124737 -1.446659 3.121517 0.087259
    43 2.428478 0.000000 0.000000 0.246518 0.000000 0.000000
  time 20
    0 12.679865 2.192705 -6.797015 -0.892986 -0.007760 -2.294807
    1 8.499678 0.000000 0.000002 -1.963236 -0.525876 0.022690
    2 2.590252 0.798588 -0.347195 0.168992 -3.019792 1.443836
    3 1.276066 4.913687 -1.756443 0.000000 0.000000 0.000000
    4 0.000004 6.776255 1.709930 0.000000 0.000000 0.000000
    5 0.000000 -2.155092 2.277100 0.000000 0.000000 0.000000
    6 -0.531231 4.631598 3.001892 0.000000 0.000000 0.000000
    7 0.000004 -2.782814 4.273781 0.000000 0.000000 0.000000
    8 1.066141 0.161471 -0.665475 2.484768 0.749569 0.986721
    9 1.535968 -0.000001 0.000001 0.000000 0.000000 1.180468
    10 1.100831 0.000000 0.000000 0.000000 0.000000 0.433641
    11 2.725985 -0.106123 -1.020465 -0.052019 0.107536 -0.014378
    12 1.397574 0.000001 0.000001 0.000000 0.000000 0.193561
    13 0.957879 0.000000 0.000000 0.000000 0.000000 0.641297
    14 2.818702 -0.176450 -0.444443 -0.118789 0.036080 0.644560
    15 1.684281 0.000000 0.000000 0.000000 0.000000 1.861645
    16 1.151941 0.000000 0.000001 0.000000 0.000000 1.141487
    17 2.804605 -0.069563 0.290472 -0.211325 0.071354 0.840695
    18 1.480629 0.000000 0.000000 0.000000 0.000000 1.698687
    19 1.076366 0.000000 0.000000 0.000000 0.000000 0.748916
    20 2.637186 0.041571 0.929335 -0.346527 0.088471 0.924980
    21 1.124349 -0.000002 0.000000 0.000000 0.000000 1.346295
    22 0.891247 0.000001 0.000000 0.000000 0.000000 0.984495
    23 0.050302 -0.068010 -0.113033 1.724535 0.010837 0.011384
    24 2.428478 0.000000 0.000000 -0.128400 0.000000 0.000000
    25 -4.374306 -0.404425 -9.161031 -2.173534 -0.579522 -6.930054
    26 8.499673 0.000001 0.000000 2.319377 -0.234968 -0.301781
    27 1.066141 0.161471 0.665475 -2.218755 -1.065692 0.696016
    28 1.535968 -0.000001 0.000000 0.000000 0.000000 0.664979
    29 1.100830 -0.000001 0.000000 0.000000 0.000000 0.136518
    30 2.725985 -0.106123 1.020465 0.092063 -0.050245 -0.116477
    31 1.397574 0.000001 -0.000001 0.000000 0.000000 1.159756
    32 0.957878 0.000000 0.000000 0.000000 0.000000 0.741022
    33 2.818702 -0.176451 0.444443 0.042621 0.036118 0.056013
    34 1.684282 -0.000002 0.000000 0.000000 0.000000 1.205159
    35 1.151941 0.000000 -0.000001 0.000000 0.000000 0.704621
    36 2.804606 -0.069564 -0.290472 0.199380 -0.039804 0.693698
    37 1.480629 0.000001 -0.000001 0.000000 0.000000 1.122204
    38 1.076367 0.000000 0.000000 0.000000 0.000000 1.073441
    39 2.637187 0.041571 -0.929335 0.240385 0.024580 0.918369
    40 1.124349 0.000001 0.000000 0.000000 0.000000 1.073616
    41 0.891247 0.000001 0.000000 0.000000 0.000000 1.129907
    42 0.069836 -0.134418 0.128643 -1.459830 3.117274 0.122986
    43 2.428478 0.000000 0.000000 0.271985 0.000000 0.000000
  time 21
    0 12.824400 1.903634 -7.011866 -0.883314 -0.050070 -2.322792
    1 8.499678 0.000000 0.000002 -1.987895 -0.539789 0.089858
    2 2.590252 0.798588 -0.347195 0.168992 -3.019792 1.443836
    3 1.276066 4.913687 -1.756443 0.000000 0.000000 0.000000
    4 0.000004 6.776255 1.709930 0.000000 0.000000 0.000000
    5 0.000000 -2.155092 2.277100 0.000000 0.000000 0.000000
    6 -0.531231 4.631598 3.001892 0.000000 0.000000 0.000000
    7 0.000004 -2.950788 4.273781 0.000000 0.000000 0.000000
    8 1.066141 0.161471 -0.665475 2.484768 0.749569 0.986721
    9 1.535968 -0.000001 0.000001 0.000000 0.000000 1.180468
    10 1.100831 0.000000 0.000000 0.000000 0.000000 0.433641
    11 2.725985 -0.106123 -1.020465 -0.052019 0.107536 -0.014378
    12 1.397574 0.000001 0.000001 0.000000 0.000000 0.193561
    13 0.957879 0.000000 0.000000 0.000000 0.000000 0.641297
    14 2.818702 -0.176450 -0.444443 -0.118789 0.036080 0.644560
    15 1.684281 0.000000 0.000000 0.000000 0.000000 1.861645
    16 1.151941 0.000000 0.000001 0.000000 0.000000 1.141487
    17 2.804605 -0.069563 0.290472 -0.211325 0.071354 0.840695
    18 1.480629 0.000000 0.000000 0.000000 0.000000 1.698687
    19 1.076366 0.000000 0.000000 0.000000 0.000000 0.748916
    20 2.637186 0.041571 0.929335 -0.346527 0.088471 0.924980
    21 1.124349 -0.000002 0.000000 0.000000 0.000000 1.346295
    22 0.891247 0.000001 0.000000 0.000000 0.000000 0.984495
    23 0.050302 -0.068010 -0.113033 1.724535 0.010837 0.011384
    24 2.428478 0.000000 0.000000 -0.134212 0.000000 0.000000
    25 -3.979762 -1.494302 -9.477447 -2.038418 -0.584886 -7.032114
    26 8.499673 0.000001 0.000000 2.400846 -0.123763 -0.171148
    27 1.066141 0.161471 0.665475 -2.276267 -1.099538 0.780329
    28 1.535968 -0.000001 0.000000 0.000000 0.000000 0.644663
    29 1.100830 -0.000001 0.000000 0.000000 0.000000 0.054370
    30 2.725985 -0.106123 1.020465 0.100707 -0.042946 -0.138952
    31 1.397574 0.000001 -0.000001 0.000000 0.000000 0.992802
    32 0.957878 0.000000 0.000000 0.000000 0.000000 0.675681
    33 2.818702 -0.176451 0.444443 0.037408 0.056492 0.039222
    34 1.684282 -0.000002 0.000000 0.000000 0.000000 1.043532
    35 1.151941 0.000000 -0.000001 0.000000 0.000000 0.596441
    36 2.804606 -0.069564 -0.290472 0.202317 0.011981 0.519419
    37 1.480629 0.000001 -0.000001 0.000000 0.000000 1.015036
    38 1.076367 0.000000 0.000000 0.000000 0.000000 0.903542
    39 2.637187 0.041571 -0.929335 0.227837 0.104121 0.749066
    40 1.124349 0.000001 0.000000 0.000000 0.000000 1.012199
    41 0.891247 0.000001 0.000000 0.000000 0.000000 0.886190
    42 0.081555 -0.157856 0.132550 -1.473672 3.112744 0.162055
    43 2.428478 0.000000 0.000000 0.308275 0.000000 0.000000
  time 22
    0 12.949404 1.614562 -7.214997 -0.869041 -0.085560 -2.351307
    1 8.499678 0.000000 0.000002 -2.017214 -0.551793 0.157730
    2 2.590252 0.798588 -0.347195 0.168992 -3.019792 1.443836
    3 1.276066 4.913687 -1.756443 0.000000 0.000000 0.000000
    4 0.000004 6.776255 1.709930 0.000000 0.000000 0.000000
    5 0.000000 -2.155092 2.277100 0.000000 0.000000 0.000000
    6 -0.531231 4.631598 3.001892 0.000000 0.000000 0.000000
    7 0.000004 -2.782814 4.273781 0.000000 0.000000 0.000000
    8 1.066141 0.161471 -0.665475 2.484768 0.749569 0.986721
    9 1.535968 -0.000001 0.000001 0.000000 0.000000 1.180468
    10 1.100831 0.000000 0.000000 0.000000 0.000000 0.433641
    11 2.725985 -0.106123 -1.020465 -0.052019 0.107536 -0.014378
    12 1.397574 0.000001 0.000001 0.000000 0.000000 0.193561
    13 0.957879 0.000000 0.000000 0.000000 0.000000 0.641297
    14 2.818702 -0.176450 -0.444443 -0.118789 0.036080 0.644560
    15 1.684281 0.000000 0.000000 0.000000 0.000000 1.861645
    16 1.151941 0.000000 0.000001 0.000000 0.000000 1.141487
    17 2.804605 -0.069563 0.290472 -0.211325 0.071354 0.840695
    18 1.480629 0.000000 0.000000 0.000000 0.000000 1.698687
    19 1.076366 0.000000 0.000000 0.000000 0.000000 0.748916
    20 2.637186 0.041571 0.929335 -0.346527 0.088471 0.924980
    21 1.124349 -0.000002 0.000000 0.000000 0.000000 1.346295
    22 0.891247 0.000001 0.000000 0.000000 0.000000 0.984495
    23 0.050302 -0.068010 -0.113033 1.724535 0.010837 0.011384
    24 2.428478 0.000000 0.000000 -0.141703 0.000000 0.000000
    25 -3.436777 -2.736527 -9.711829 -1.906631 -0.553260 -7.087636
    26 8.499673 0.000001 0.000000 2.506478 -0.004641 0.013002
    27 1.066141 0.161471 0.665475 -2.343759 -1.128731 0.875433
    28 1.535968 -0.000001 0.000000 0.000000 0.000000 0.624857
    29 1.100830 -0.000001 0.000000 0.000000 0.000000 -0.024175
    30 2.725985 -0.106123 1.020465 0.108008 -0.036403 -0.157491
    31 1.397574 0.000001 -0.000001 0.000000 0.000000 0.826592
    32 0.957878 0.000000 0.000000 0.000000 0.000000 0.610340
    33 2.818702 -0.176451 0.444443 0.031727 0.075475 0.026023
    34 1.684282 -0.000002 0.000000 0.000000 0.000000 0.882446
    35 1.151941 0.000000 -0.000001 0.000000 0.000000 0.491429
    36 2.804606 -0.069564 -0.290472 0.196300 0.063611 0.350938
    37 1.480629 0.000001 -0.000001 0.000000 0.000000 0.910487
    38 1.076367 0.000000 0.000000 0.000000 0.000000 0.737075
    39 2.637187 0.041571 -0.929335 0.202622 0.180835 0.579677
    40 1.124349 0.000001 0.000000 0.000000 0.000000 0.955859
    41 0.891247 0.000001 0.000000 0.000000 0.000000 0.649616
    42 0.089368 -0.181295 0.132550 -1.487490 3.108190 0.202815
    43 2.428478 0.000000 0.000000 0.350904 0.000000 0.000000
  time 23
    0 13.039250 1.321585 -7.398596 -0.851999 -0.109390 -2.379358
    1 8.499678 0.000000 0.000002 -2.051954 -0.563907 0.222135
    2 2.590252 0.798588 -0.347195 0.168992 -3.019792 1.443836
    3 1.276066 4.913687 -1.756443 0.000000 0.000000 0.000000
    4 0.000004 6.776255 1.709930 0.000000 0.000000 0.000000
    5 0.000000 -2.155092 2.277100 0.000000 0.000000 0.000000
    6 -0.531231 4.631598 3.001892 0.000000 0.000000 0.000000
    7 0.000004 -2.782814 4.273781 0.000000 0.000000 0.000000
    8 1.066141 0.161471 -0.665475 2.484768 0.749569 0.986721
    9 1.535968 -0.000001 0.000001 0.000000 0.000000 1.180468
    10 1.100831 0.000000 0.000000 0.000000 0.000000 0.433641
    11 2.725985 -0.106123 -1.020465 -0.052019 0.107536 -0.014378
    12 1.397574 0.000001 0.000001 0.000000 0.000000 0.193561
    13 0.957879 0.000000 0.000000 0.000000 0.000000 0.641297
    14 2.818702 -0.176450 -0.444443 -0.118789 0.036080 0.644560
    15 1.684281 0.000000 0.000000 0.000000 0.000000 1.861645
    16 1.151941 0.000000 0.000001 0.000000 0.000000 1.141487
    17 2.804605 -0.069563 0.290472 -0.211325 0.071354 0.840695
    18 1.480629 0.000000 0.000000 0.000000 0.000000 1.698687
    19 1.076366 0.000000 0.000000 0.000000 0.000000 0.748916
    20 2.637186 0.041571 0.929335 -0.346527 0.088471 0.924980
    21 1.124349 -0.000002 0.000000 0.000000 0.000000 1.346295
    22 0.891247 0.000001 0.000000 0.000000 0.000000 0.984495
    23 0.050302 -0.068010 -0.113033 1.724535 0.010837 0.011384
    24 2.428478 0.000000 0.000000 -0.150871 0.000000 0.000000
    25 -2.843009 -4.013910 -9.875896 -1.814188 -0.503139 -7.078175
    26 8.499673 0.000001 0.000000 2.624394 0.092662 0.215274
    27 1.066141 0.161471 0.665475 -2.410887 -1.149977 0.968230
    28 1.535968 -0.000001 0.000000 0.000000 0.000000 0.607853
    29 1.100830 -0.000001 0.000000 0.000000 0.000000 -0.089682
    30 2.725985 -0.106123 1.020465 0.113102 -0.031273 -0.168979
    31 1.397574 0.000001 -0.000001 0.000000 0.000000 0.681134
    32 0.957878 0.000000 0.000000 0.000000 0.000000 0.552085
    33 2.818702 -0.176451 0.444443 0.026801 0.092014 0.019298
    34 1.684282 -0.000002 0.000000 0.000000 0.000000 0.741636
    35 1.151941 0.000000 -0.000001 0.000000 0.000000 0.403795
    36 2.804606 -0.069564 -0.290472 0.183908 0.108433 0.207261
    37 1.480629 0.000001 -0.000001 0.000000 0.000000 0.820562
    38 1.076367 0.000000 0.000000 0.000000 0.000000 0.592833
    39 2.637187 0.041571 -0.929335 0.170000 0.245432 0.428092
    40 1.124349 0.000001 0.000000 0.000000 0.000000 0.912106
    41 0.891247 0.000001 0.000000 0.000000 0.000000 0.447577
    42 0.097180 -0.204733 0.136456 -1.500697 3.103876 0.243574
    43 2.428478 0.000000 0.000000 0.392526 0.000000 0.000000
  time 24
    0 13.097846 1.020794 -7.566570 -0.831936 -0.120795 -2.405557
    1 8.499678 0.000000 0.000002 -2.094099 -0.574068 0.285384
    2 2.590252 0.798588 -0.347195 0.168992 -3.019792 1.443836
    3 1.276066 4.913687 -1.756443 0.000000 0.000000 0.000000
    4 0.000004 6.776255 1.709930 0.000000 0.000000 0.000000
    5 0.000000 -2.155092 2.277100 0.000000 0.000000 0.000000
    6 -0.531231 4.631598 3.001892 0.000000 0.000000 0.000000
    7 0.000004 -2.782814 4.273781 0.000000 0.000000 0.000000
    8 1.066141 0.161471 -0.665475 2.484768 0.749569 0.986721
    9 1.535968 -0.000001 0.000001 0.000000 0.000000 1.180468
    10 1.100831 0.000000 0.000000 0.000000 0.000000 0.433641
    11 2.725985 -0.106123 -1.020465 -0.052019 0.107536 -0.014378
    12 1.397574 0.000001 0.000001 0.000000 0.000000 0.193561
    13 0.957879 0.000000 0.000000 0.000000 0.000000 0.641297
    14 2.818702 -0.176450 -0.444443 -0.118789 0.036080 0.644560
    15 1.684281 0.000000 0.000000 0.000000 0.000000 1.861645
    16 1.151941 0.000000 0.000001 0.000000 0.000000 1.141487
    17 2.804605 -0.069563 0.290472 -0.211325 0.071354 0.840695
    18 1.480629 0.000000 0.000000 0.000000 0.000000 1.698687
    19 1.076366 0.000000 0.000000 0.000000 0.000000 0.748916
    20 2.637186 0.041571 0.929335 -0.346527 0.088471 0.924980
    21 1.124349 -0.000002 0.000000 0.000000 0.000000 1.346295
    22 0.891247 0.000001 0.000000 0.000000 0.000000 0.984495
    23 0.050302 -0.068010 -0.113033 1.724535 0.010837 0.011384
    24 2.428478 0.000000 0.000000 -0.162412 0.000000 0.000000
    25 -2.280492 -5.236603 -10.036057 -1.767747 -0.459307 -7.029056
    26 8.499673 0.000001 0.000000 2.726969 0.154180 0.390934
    27 1.066141 0.161471 0.665475 -2.462496 -1.161588 1.040860
    28 1.535968 -0.000001 0.000000 0.000000 0.000000 0.595881
    29 1.100830 -0.000001 0.000000 0.000000 0.000000 -0.132675
    30 2.725985 -0.106123 1.020465 0.115124 -0.028301 -0.170339
    31 1.397574 0.000001 -0.000001 0.000000 0.000000 0.576385
    32 0.957878 0.000000 0.000000 0.000000 0.000000 0.507831
    33 2.818702 -0.176451 0.444443 0.023913 0.105089 0.022055
    34 1.684282 -0.000002 0.000000 0.000000 0.000000 0.640974
    35 1.151941 0.000000 -0.000001 0.000000 0.000000 0.347795
    36 2.804606 -0.069564 -0.290472 0.170797 0.141211 0.108265
    37 1.480629 0.000001 -0.000001 0.000000 0.000000 0.757171
    38 1.076367 0.000000 0.000000 0.000000 0.000000 0.489611
    39 2.637187 0.041571 -0.929335 0.140026 0.291692 0.314981
    40 1.124349 0.000001 0.000000 0.000000 0.000000 0.888453
    41 0.891247 0.000001 0.000000 0.000000 0.000000 0.307509
    42 0.104993 -0.228171 0.136456 -1.512802 3.099969 0.282680
    43 2.428478 0.000000 0.000000 0.423962 0.000000 0.000000
  time 25
    0 13.129097 0.723910 -7.715012 -0.808123 -0.123569 -2.429970
    1 8.499678 0.000000 0.000002 -2.143383 -0.578830 0.351664
    2 2.590252 0.798588 -0.347195 0.168992 -3.019792 1.443836
    3 1.276066 4.913687 -1.756443 0.000000 0.000000 0.000000
    4 0.000004 6.776255 1.709930 0.000000 0.000000 0.000000
    5 0.000000 -2.155092 2.277100 0.000000 0.000000 0.000000
    6 -0.531231 4.631598 3.001892 0.000000 0.000000 0.000000
    7 0.000004 -2.782814 4.273781 0.000000 0.000000 0.000000
    8 1.066141 0.161471 -0.665475 2.484768 0.749569 0.986721
    9 1.535968 -0.000001 0.000001 0.000000 0.000000 1.180468
    10 1.100831 0.000000 0.000000 0.000000 0.000000 0.433641
    11 2.725985 -0.106123 -1.020465 -0.052019 0.107536 -0.014378
    12 1.397574 0.000001 0.000001 0.000000 0.000000 0.193561
    13 0.957879 0.000000 0.000000 0.000000 0.000000 0.641297
    14 2.818702 -0.176450 -0.444443 -0.118789 0.036080 0.644560
    15 1.684281 0.000000 0.000000 0.000000 0.000000 1.861645
    16 1.151941 0.000000 0.000001 0.000000 0.000000 1.141487
    17 2.804605 -0.069563 0.290472 -0.211325 0.071354 0.840695
    18 1.480629 0.000000 0.000000 0.000000 0.000000 1.698687
    19 1.076366 0.000000 0.000000 0.000000 0.000000 0.748916
    20 2.637186 0.041571 0.929335 -0.346527 0.088471 0.924980
    21 1.124349 -0.000002 0.000000 0.000000 0.000000 1.346295
    22 0.891247 0.000001 0.000000 0.000000 0.000000 0.984495
    23 0.050302 -0.068010 -0.113033 1.724535 0.010837 0.011384
    24 2.428478 0.000000 0.000000 -0.176542 0.000000 0.000000
    25 -1.788289 -6.381169 -10.262627 -1.745578 -0.442384 -6.983378
    26 8.499673 0.000001 0.000000 2.778181 0.183443 0.487947
    27 1.066141 0.161471 0.665475 -2.482153 -1.162988 1.074198
    28 1.535968 -0.000001 0.000000 0.000000 0.000000 0.591200
    29 1.100830 -0.000001 0.000000 0.000000 0.000000 -0.143756
    30 2.725985 -0.106123 1.020465 0.113163 -0.028109 -0.158529
    31 1.397574 0.000001 -0.000001 0.000000 0.000000 0.532350
    32 0.957878 0.000000 0.000000 0.000000 0.000000 0.484622
    33 2.818702 -0.176451 0.444443 0.024344 0.113610 0.037342
    34 1.684282 -0.000002 0.000000 0.000000 0.000000 0.600150
    35 1.151941 0.000000 -0.000001 0.000000 0.000000 0.337685
    36 2.804606 -0.069564 -0.290472 0.163858 0.158026 0.074699
    37 1.480629 0.000001 -0.000001 0.000000 0.000000 0.732318
    38 1.076367 0.000000 0.000000 0.000000 0.000000 0.446254
    39 2.637187 0.041571 -0.929335 0.125010 0.315985 0.263068
    40 1.124349 0.000001 0.000000 0.000000 0.000000 0.892310
    41 0.891247 0.000001 0.000000 0.000000 0.000000 0.256714
    42 0.112806 -0.247703 0.140363 -1.523396 3.096637 0.318430
    43 2.428478 0.000000 0.000000 0.437193 0.000000 0.000000
  time 26
    0 13.144722 0.458277 -7.840016 -0.781769 -0.120682 -2.452662
    1 8.499678 0.000000 0.000002 -2.197030 -0.578632 0.419603
    2 2.590252 0.798588 -0.347195 0.168992 -3.019792 1.443836
    3 1.276066 4.913687 -1.756443 0.000000 0.000000 0.000000
    4 0.000004 6.776255 1.709930 0.000000 0.000000 0.000000
    5 0.000000 -2.155092 2.277100 0.000000 0.000000 0.000000
    6 -0.531231 4.631598 3.001892 0.000000 0.000000 0.000000
    7 0.000004 -2.782814 4.273781 0.000000 0.000000 0.000000
    8 1.066141 0.161471 -0.665475 2.484768 0.749569 0.986721
    9 1.535968 -0.000001 0.000001 0.000000 0.000000 1.180468
    10 1.100831 0.000000 0.000000 0.000000 0.000000 0.433641
    11 2.725985 -0.106123 -1.020465 -0.052019 0.107536 -0.014378
    12 1.397574 0.000001 0.000001 0.000000 0.000000 0.193561
    13 0.957879 0.000000 0.000000 0.000000 0.000000 0.641297
    14 2.818702 -0.176450 -0.444443 -0.118789 0.036080 0.644560
    15 1.684281 0.000000 0.000000 0.000000 0.000000 1.861645
    16 1.151941 0.000000 0.000001 0.000000 0.000000 1.141487
    17 2.804605 -0.069563 0.290472 -0.211325 0.071354 0.840695
    18 1.480629 0.000000 0.000000 0.000000 0.000000 1.698687
    19 1.076366 0.000000 0.000000 0.000000 0.000000 0.748916
    20 2.637186 0.041571 0.929335 -0.346527 0.088471 0.924980
    21 1.124349 -0.000002 0.000000 0.000000 0.000000 1.346295
    22 0.891247 0.000001 0.000000 0.000000 0.000000 0.984495
    23 0.050302 -0.068010 -0.113033 1.724535 0.010837 0.011384
    24 2.428478 0.000000 0.000000 -0.192469 0.000000 0.000000
    25 -1.362495 -7.361668 -10.622013 -1.709302 -0.477247 -6.912184
    26 8.499673 0.000001 0.000000 2.747424 0.211694 0.515228
    27 1.066141 0.161471 0.665475 -2.435231 -1.139066 1.042125
    28 1.535968 -0.000001 0.000000 0.000000 0.000000 0.600434
    29 1.100830 -0.000001 0.000000 0.000000 0.000000 -0.078327
    30 2.725985 -0.106123 1.020465 0.095660 -0.035348 -0.087274
    31 1.397574 0.000001 -0.000001 0.000000 0.000000 0.594108
    32 0.957878 0.000000 0.000000 0.000000 0.000000 0.484961
    33 2.818702 -0.176451 0.444443 0.035478 0.121892 0.115786
    34 1.684282 -0.000002 0.000000 0.000000 0.000000 0.667784
    35 1.151941 0.000000 -0.000001 0.000000 0.000000 0.446238
    36 2.804606 -0.069564 -0.290472 0.171097 0.158481 0.181673
    37 1.480629 0.000001 -0.000001 0.000000 0.000000 0.780294
    38 1.076367 0.000000 0.000000 0.000000 0.000000 0.508157
    39 2.637187 0.041571 -0.929335 0.142663 0.323379 0.312969
    40 1.124349 0.000001 0.000000 0.000000 0.000000 0.985095
    41 0.891247 0.000001 0.000000 0.000000 0.000000 0.386483
    42 0.116712 -0.267235 0.140363 -1.532145 3.093988 0.349147
    43 2.428478 0.000000 0.000000 0.422416 0.000000 0.000000
  time 27
    0 13.152535 0.235614 -7.933769 -0.754108 -0.114880 -2.474164
    1 8.499678 0.000000 0.000002 -2.252396 -0.574199 0.487961
    2 2.590252 0.798588 -0.347195 0.168992 -3.019792 1.443836
    3 1.276066 4.913687 -1.756443 0.000000 0.000000 0.000000
    4 0.000004 6.776255 1.709930 0.000000 0.000000 0.000000
    5 0.000000 -2.155092 2.277100 0.000000 0.000000 0.000000
    6 -0.531231 4.631598 3.001892 0.000000 0.000000 0.000000
    7 0.000004 -2.782814 4.273781 0.000000 0.000000 0.000000
    8 1.066141 0.161471 -0.665475 2.484768 0.749569 0.986721
    9 1.535968 -0.000001 0.000001 0.000000 0.000000 1.180468
    10 1.100831 0.000000 0.000000 0.000000 0.000000 0.433641
    11 2.725985 -0.106123 -1.020465 -0.052019 0.107536 -0.014378
    12 1.397574 0.000001 0.000001 0.000000 0.000000 0.193561
    13 0.957879 0.000000 0.000000 0.000000 0.000000 0.641297
    14 2.818702 -0.176450 -0.444443 -0.118789 0.036080 0.644560
    15 1.684281 0.000000 0.000000 0.000000 0.000000 1.861645
    16 1.151941 0.000000 0.000001 0.000000 0.000000 1.141487
    17 2.804605 -0.069563 0.290472 -0.211325 0.071354 0.840695
    18 1.480629 0.000000 0.000000 0.000000 0.000000 1.698687
    19 1.076366 0.000000 0.000000 0.000000 0.000000 0.748916
    20 2.637186 0.041571 0.929335 -0.346527 0.088471 0.924980
    21 1.124349 -0.000002 0.000000 0.000000 0.000000 1.346295
    22 0.891247 0.000001 0.000000 0.000000 0.000000 0.984495
    23 0.050302 -0.068010 -0.113033 1.724535 0.010837 0.011384
    24 2.428478 0.000000 0.000000 -0.209475 0.000000 0.000000
    25 -1.046079 -8.045283 -11.059526 -1.615106 -0.566206 -6.824745
    26 8.499673 0.000001 0.000000 2.652219 0.258007 0.520654
    27 1.066141 0.161471 0.665475 -2.338404 -1.084097 0.968750
    28 1.535968 -0.000001 0.000000 0.000000 0.000000 0.623233
    29 1.100830 -0.000001 0.000000 0.000000 0.000000 0.069171
    30 2.725985 -0.106123 1.020465 0.057813 -0.047189 0.058494
    31 1.397574 0.000001 -0.000001 0.000000 0.000000 0.754062
    32 0.957878 0.000000 0.000000 0.000000 0.000000 0.500575
    33 2.818702 -0.176451 0.444443 0.060082 0.130916 0.274470
    34 1.684282 -0.000002 0.000000 0.000000 0.000000 0.838153
    35 1.151941 0.000000 -0.000001 0.000000 0.000000 0.684820
    36 2.804606 -0.069564 -0.290472 0.189122 0.145310 0.432280
    37 1.480629 0.000001 -0.000001 0.000000 0.000000 0.899123
    38 1.076367 0.000000 0.000000 0.000000 0.000000 0.668658
    39 2.637187 0.041571 -0.929335 0.190529 0.319365 0.453556
    40 1.124349 0.000001 0.000000 0.000000 0.000000 1.181628
    41 0.891247 0.000001 0.000000 0.000000 0.000000 0.697386
    42 0.124525 -0.282860 0.140363 -1.538761 3.092047 0.373176
    43 2.428478 0.000000 0.000000 0.383897 0.000000 0.000000
  time 28
    0 13.156442 0.087172 -7.988458 -0.726664 -0.108456 -2.495533
    1 8.499678 0.000000 0.000002 -2.307069 -0.566628 0.555665
    2 2.590252 0.798588 -0.347195 0.168992 -3.019792 1.443836
    3 1.276066 4.913687 -1.756443 0.000000 0.000000 0.000000
    4 0.000004 6.776255 1.709930 0.000000 0.000000 0.000000
    5 0.000000 -2.155092 2.277100 0.000000 0.000000 0.000000
    6 -0.531231 4.631598 3.001892 0.000000 0.000000 0.000000
    7 0.000004 -2.782814 4.273781 0.000000 0.000000 0.000000
    8 1.066141 0.161471 -0.665475 2.484768 0.749569 0.986721
    9 1.535968 -0.000001 0.000001 0.000000 0.000000 1.180468
    10 1.100831 0.000000 0.000000 0.000000 0.000000 0.433641
    11 2.725985 -0.106123 -1.020465 -0.052019 0.107536 -0.014378
    12 1.397574 0.000001 0.000001 0.000000 0.000000 0.193561
    13 0.957879 0.000000 0.000000 0.000000 0.000000 0.641297
    14 2.818702 -0.176450 -0.444443 -0.118789 0.036080 0.644560
    15 1.684281 0.000000 0.000000 0.000000 0.000000 1.861645
    16 1.151941 0.000000 0.000001 0.000000 0.000000 1.141487
    17 2.804605 -0.069563 0.290472 -0.211325 0.071354 0.840695
    18 1.480629 0.000000 0.000000 0.000000 0.000000 1.698687
    19 1.076366 0.000000 0.000000 0.000000 0.000000 0.748916
    20 2.637186 0.041571 0.929335 -0.346527 0.088471 0.924980
    21 1.124349 -0.000002 0.000000 0.000000 0.000000 1.346295
    22 0.891247 0.000001 0.000000 0.000000 0.000000 0.984495
    23 0.050302 -0.068010 -0.113033 1.724535 0.010837 0.011384
    24 2.428478 0.000000 0.000000 -0.226805 0.000000 0.000000
    25 -0.924982 -8.357792 -11.407193 -1.436529 -0.681335 -6.825223
    26 8.499673 0.000001 0.000000 2.529290 0.310640 0.511626
    27 1.066141 0.161471 0.665475 -2.242186 -1.013524 0.899692
    28 1.535968 -0.000001 0.000000 0.000000 0.000000 0.651446
    29 1.100830 -0.000001 0.000000 0.000000 0.000000 0.249442
    30 2.725985 -0.106123 1.020465 0.010380 -0.054152 0.234431
    31 1.397574 0.000001 -0.000001 0.000000 0.000000 0.953235
    32 0.957878 0.000000 0.000000 0.000000 0.000000 0.522299
    33 2.818702 -0.176451 0.444443 0.091087 0.135482 0.465525
    34 1.684282 -0.000002 0.000000 0.000000 0.000000 1.049660
    35 1.151941 0.000000 -0.000001 0.000000 0.000000 0.975396
    36 2.804606 -0.069564 -0.290472 0.205768 0.121712 0.739207
    37 1.480629 0.000001 -0.000001 0.000000 0.000000 1.046312
    38 1.076367 0.000000 0.000000 0.000000 0.000000 0.868588
    39 2.637187 0.041571 -0.929335 0.248127 0.302538 0.629021
    40 1.124349 0.000001 0.000000 0.000000 0.000000 1.419680
    41 0.891247 0.000001 0.000000 0.000000 0.000000 1.080778
    42 0.128431 -0.290673 0.144269 -1.542967 3.090860 0.388816
    43 2.428478 0.000000 0.000000 0.335935 0.000000 0.000000
  time 29
    0 13.172067 0.032483 -8.000177 -0.701448 -0.103078 -2.518491
    1 8.499678 0.000000 0.000002 -2.358931 -0.557301 0.621946
    2 2.590252 0.798588 -0.347195 0.168992 -3.019792 1.443836
    3 1.276066 4.913687 -1.756443 0.000000 0.000000 0.000000
    4 0.000004 6.776255 1.709930 0.000000 0.000000 0.000000
    5 0.000000 -2.155092 2.277100 0.000000 0.000000 0.000000
    6 -0.531231 4.631598 3.001892 0.000000 0.000000 0.000000
    7 0.000004 -2.782814 4.273781 0.000000 0.000000 0.000000
    8 1.066141 0.161471 -0.665475 2.484768 0.749569 0.986721
    9 1.535968 -0.000001 0.000001 0.000000 0.000000 1.180468
    10 1.100831 0.000000 0.000000 0.000000 0.000000 0.433641
    11 2.725985 -0.106123 -1.020465 -0.052019 0.107536 -0.014378
    12 1.397574 0.000001 0.000001 0.000000 0.000000 0.193561
    13 0.957879 0.000000 0.000000 0.000000 0.000000 0.641297
    14 2.818702 -0.176450 -0.444443 -0.118789 0.036080 0.644560
    15 1.684281 0.000000 0.000000 0.000000 0.000000 1.861645
    16 1.151941 0.000000 0.000001 0.000000 0.000000 1.141487
    17 2.804605 -0.069563 0.290472 -0.211325 0.071354 0.840695
    18 1.480629 0.000000 0.000000 0.000000 0.000000 1.698687
    19 1.076366 0.000000 0.000000 0.000000 0.000000 0.748916
    20 2.637186 0.041571 0.929335 -0.346527 0.088471 0.924980
    21 1.124349 -0.000002 0.000000 0.000000 0.000000 1.346295
    22 0.891247 0.000001 0.000000 0.000000 0.000000 0.984495
    23 0.050302 -0.068010 -0.113033 1.724535 0.010837 0.011384
    24 2.428478 0.000000 0.000000 -0.243739 0.000000 0.000000
    25 -0.995296 -8.307009 -11.563448 -1.205026 -0.767058 -6.945535
    26 8.499673 0.000001 0.000000 2.417315 0.359180 0.501180
    27 1.066141 0.161471 0.665475 -2.170798 -0.946985 0.854373
    28 1.535968 -0.000001 0.000000 0.000000 0.000000 0.676951
    29 1.100830 -0.000001 0.000000 0.000000 0.000000 0.413347
    30 2.725985 -0.106123 1.020465 -0.033425 -0.053085 0.395659
    31 1.397574 0.000001 -0.000001 0.000000 0.000000 1.132799
    32 0.957878 0.000000 0.000000 0.000000 0.000000 0.541011
    33 2.818702 -0.176451 0.444443 0.119850 0.134871 0.640665
    34 1.684282 -0.000002 0.000000 0.000000 0.000000 1.240576
    35 1.151941 0.000000 -0.000001 0.000000 0.000000 1.239975
    36 2.804606 -0.069564 -0.290472 0.214145 0.097683 1.016406
    37 1.480629 0.000001 -0.000001 0.000000 0.000000 1.179371
    38 1.076367 0.000000 0.000000 0.000000 0.000000 1.048828
    39 2.637187 0.041571 -0.929335 0.296629 0.280618 0.784672
    40 1.124349 0.000001 0.000000 0.000000 0.000000 1.636871
    41 0.891247 0.000001 0.000000 0.000000 0.000000 1.427882
    42 0.128431 -0.294579 0.144269 -1.544453 3.090453 0.394401
    43 2.428478 0.000000 0.000000 0.292814 0.000000 0.000000
end
