version 1
nodes
  0 "root" -1
  1 "Bone01" 0
  2 "Bone_Lefthand" 1
  3 "balrog5_root" 2
  4 "trigger" 3
  5 "magazine" 3
  6 "eye" 3
  7 "mouth01" 3
  8 "mouth02" 3
  9 "Bone_L_Upper" 1
  10 "Bone13" 2
  11 "Bone14" 10
  12 "Bone15" 11
  13 "Bone17" 2
  14 "Bone18" 13
  15 "Bone19" 14
  16 "Bone21" 2
  17 "Bone22" 16
  18 "Bone23" 17
  19 "Bone09" 2
  20 "Bone10" 19
  21 "Bone11" 20
  22 "Bone05" 2
  23 "Bone06" 22
  24 "Bone07" 23
  25 "Bone_Se_Hand-L" 2
  26 "Bone04" 0
  27 "Bone_Righthand" 26
  28 "Bone39" 27
  29 "Bone40" 28
  30 "Bone41" 29
  31 "Bone35" 27
  32 "Bone36" 31
  33 "Bone37" 32
  34 "Bone31" 27
  35 "Bone32" 34
  36 "Bone33" 35
  37 "Bone43" 27
  38 "Bone44" 37
  39 "Bone45" 38
  40 "Bone27" 27
  41 "Bone28" 40
  42 "Bone29" 41
  43 "Bone_Se_Hand-R" 27
  44 "Bone_R_Upper" 26
end
skeleton
  time 0
    0 0.000000 0.000000 0.000000 0.000000 0.000000 -0.000029
    1 7.744019 5.728283 -6.644898 1.275921 -1.619072 -1.384985
    2 -0.071918 -8.498730 -0.104136 0.233266 0.229959 0.027314
    3 2.109793 -1.987391 1.493082 0.112946 0.226772 3.118949
    4 1.280536 2.248542 0.000000 0.000000 0.000000 0.000000
    5 1.359619 5.354405 0.000000 1.570788 0.000000 0.000000
    6 -0.939453 2.859753 0.345794 -1.570796 -1.570796 0.000000
    7 -0.634839 2.859726 0.493610 -1.570796 -1.422476 0.000000
    8 -0.509714 2.859726 0.496992 -1.570796 -0.930107 -0.000001
    9 1.257180 8.762585 -0.153713 -1.570562 0.002683 -1.566807
    10 -0.488518 -2.755602 -0.228260 -1.085960 -0.191560 -0.439285
    11 0.039887 -1.479790 0.029854 -0.928033 0.000000 0.000001
    12 0.028786 -1.075731 -0.023109 -1.481385 0.000000 0.000000
    13 0.250027 -2.820665 -0.238396 -0.892857 -0.160399 -0.409460
    14 -0.049759 -1.680544 0.100479 -1.289132 0.000000 -0.000002
    15 -0.034142 -1.148312 0.084782 -1.087281 0.000000 0.000000
    16 0.957766 -2.746780 -0.090302 -0.417463 -0.375878 -0.028335
    17 -0.033420 -1.397129 -0.011257 -0.691853 0.124808 -0.122316
    18 -0.022360 -0.957436 0.018784 -0.519754 0.000000 0.000000
    19 -1.180681 -2.507217 -0.193859 -0.873937 -0.068285 -0.359963
    20 -0.024967 -1.123934 0.017597 -1.152494 0.000000 0.000001
    21 -0.020057 -0.890968 0.010090 -0.933434 0.000000 0.000000
    22 0.583510 -1.197277 0.185379 0.631271 -1.323162 -0.918176
    23 1.535927 0.010246 0.005009 0.412032 -0.211024 -1.135295
    24 1.100771 0.004527 -0.010679 -0.011449 0.011491 -0.607431
    25 0.120153 -0.050270 -0.054489 0.287569 3.110905 1.561085
    26 -1.177047 -8.321198 -10.595357 -2.110882 -5.190274 -1.381970
    27 0.096944 -8.450418 -0.009365 0.228644 -0.233703 0.292788
    28 0.447953 -2.798986 -0.200443 -1.072186 -0.126515 -0.047440
    29 -0.032909 -1.480204 0.004940 -1.413633 0.000000 0.000002
    30 -0.027022 -1.076920 -0.020210 -1.481391 0.000000 0.000000
    31 -0.249534 -2.846964 -0.174213 -0.968633 -0.135815 -0.084786
    32 0.043235 -1.683941 0.096012 -1.469776 0.002823 -0.000167
    33 0.031729 -1.160830 0.058838 -1.436444 0.000642 0.008372
    34 -0.963866 -2.785145 -0.085350 -0.957802 -0.035925 -0.239075
    35 0.028479 -1.403067 0.006271 -1.158106 0.000000 0.000000
    36 0.021413 -0.957781 0.020046 -1.216858 0.000000 0.000000
    37 1.164475 -2.543940 -0.170330 -0.843989 -0.306425 0.042666
    38 0.024032 -1.129042 0.017807 -1.199105 0.000000 0.000001
    39 0.014898 -0.883989 -0.019848 -1.052873 0.000000 0.000000
    40 -0.586770 -1.264477 0.200161 -0.330638 -0.882973 -2.453540
    41 1.522835 0.058681 0.016848 -0.037192 -0.131247 0.648988
    42 1.117947 0.048424 -0.005766 -0.016374 -0.019146 0.763684
    43 -0.139399 -0.111698 0.014397 0.285382 -0.030687 1.580508
    44 -1.393470 8.839177 -0.239433 1.580804 -0.005023 -1.566847
  time 1
    0 0.000000 0.871120 0.000000 0.000000 0.000000 -0.000029
    1 7.744019 5.728283 -6.644898 1.275921 -1.619072 -1.384985
    2 -0.071918 -8.498730 -0.104136 0.233266 0.229959 0.027314
    3 2.109793 -1.987391 1.493082 0.112946 0.226772 3.118949
    4 1.280536 2.248542 0.000000 0.000000 0.000000 0.000000
    5 1.359619 5.354405 0.000000 1.570788 0.000000 0.000000
    6 -0.939453 2.859753 0.345794 -1.570796 -1.570796 0.000000
    7 -0.634839 2.859726 0.493610 -1.570796 -1.422476 0.000000
    8 -0.509714 2.859726 0.496992 -1.570796 -0.930107 -0.000001
    9 1.257180 8.762585 -0.153713 -1.570562 0.002683 -1.566807
    10 -0.488518 -2.755602 -0.228260 -1.085960 -0.191560 -0.439285
    11 0.039887 -1.479790 0.029854 -0.928033 0.000000 0.000001
    12 0.028786 -1.075731 -0.023109 -1.481385 0.000000 0.000000
    13 0.250027 -2.820665 -0.238396 -0.892857 -0.160399 -0.409460
    14 -0.049759 -1.680544 0.100479 -1.289132 0.000000 -0.000002
    15 -0.034142 -1.148312 0.084782 -1.087281 0.000000 0.000000
    16 0.957766 -2.746780 -0.090302 -0.417463 -0.375878 -0.028335
    17 -0.033420 -1.397129 -0.011257 -0.691853 0.124808 -0.122316
    18 -0.022360 -0.957436 0.018784 -0.519754 0.000000 0.000000
    19 -1.180681 -2.507217 -0.193859 -0.873937 -0.068285 -0.359963
    20 -0.024967 -1.123934 0.017597 -1.152494 0.000000 0.000001
    21 -0.020057 -0.890968 0.010090 -0.933434 0.000000 0.000000
    22 0.583510 -1.197277 0.185379 0.631271 -1.323162 -0.918176
    23 1.535927 0.010246 0.005009 0.412032 -0.211024 -1.135295
    24 1.100771 0.004527 -0.010679 -0.011449 0.011491 -0.607431
    25 0.120153 -0.050270 -0.054489 0.287569 3.110905 1.561085
    26 -1.177047 -8.321198 -10.595357 -2.110882 -5.190274 -1.381970
    27 0.096944 -8.450418 -0.009365 0.228644 -0.233703 0.292788
    28 0.447953 -2.798986 -0.200443 -1.072186 -0.126515 -0.047440
    29 -0.032909 -1.480204 0.004940 -1.413633 0.000000 0.000002
    30 -0.027022 -1.076920 -0.020210 -1.481391 0.000000 0.000000
    31 -0.249534 -2.846964 -0.174213 -0.968633 -0.135815 -0.084786
    32 0.043235 -1.683941 0.096012 -1.469776 0.002823 -0.000167
    33 0.031729 -1.160830 0.058838 -1.436444 0.000642 0.008372
    34 -0.963866 -2.785145 -0.085350 -0.957802 -0.035925 -0.239075
    35 0.028479 -1.403067 0.006271 -1.158106 0.000000 0.000000
    36 0.021413 -0.957781 0.020046 -1.216858 0.000000 0.000000
    37 1.164475 -2.543940 -0.170330 -0.843989 -0.306425 0.042666
    38 0.024032 -1.129042 0.017807 -1.199105 0.000000 0.000001
    39 0.014898 -0.883989 -0.019848 -1.052873 0.000000 0.000000
    40 -0.586770 -1.264477 0.200161 -0.330638 -0.882973 -2.453540
    41 1.522835 0.058681 0.016848 -0.037192 -0.131247 0.648988
    42 1.117947 0.048424 -0.005766 -0.016374 -0.019146 0.763684
    43 -0.139399 -0.111698 0.014397 0.285382 -0.030687 1.580508
    44 -1.393470 8.839177 -0.239433 1.580804 -0.005023 -1.566847
  time 2
    0 0.000000 0.839869 0.000000 -0.007119 0.000000 -0.000029
    1 7.744019 5.728283 -6.644898 1.275921 -1.619072 -1.384985
    2 -0.071918 -8.498730 -0.104136 0.233266 0.229959 0.027314
    3 2.109793 -1.987391 1.493082 0.112946 0.226772 3.118949
    4 1.280536 2.248542 0.000000 0.000000 0.000000 0.000000
    5 1.359619 5.354405 0.000000 1.570788 0.000000 0.000000
    6 -0.939453 2.859753 0.345794 -1.570796 -1.570796 0.000000
    7 -0.634839 2.859726 0.493610 -1.570796 -1.422476 0.000000
    8 -0.509714 2.859726 0.496992 -1.570796 -0.930107 -0.000001
    9 1.257180 8.762585 -0.153713 -1.570562 0.002683 -1.566807
    10 -0.488518 -2.755602 -0.228260 -1.085960 -0.191560 -0.439285
    11 0.039887 -1.479790 0.029854 -0.928033 0.000000 0.000001
    12 0.028786 -1.075731 -0.023109 -1.481385 0.000000 0.000000
    13 0.250027 -2.820665 -0.238396 -0.892857 -0.160399 -0.409460
    14 -0.049759 -1.680544 0.100479 -1.289132 0.000000 -0.000002
    15 -0.034142 -1.148312 0.084782 -1.087281 0.000000 0.000000
    16 0.957766 -2.746780 -0.090302 -0.417463 -0.375878 -0.028335
    17 -0.033420 -1.397129 -0.011257 -0.691853 0.124808 -0.122316
    18 -0.022360 -0.957436 0.018784 -0.519754 0.000000 0.000000
    19 -1.180681 -2.507217 -0.193859 -0.873937 -0.068285 -0.359963
    20 -0.024967 -1.123934 0.017597 -1.152494 0.000000 0.000001
    21 -0.020057 -0.890968 0.010090 -0.933434 0.000000 0.000000
    22 0.583510 -1.197277 0.185379 0.631271 -1.323162 -0.918176
    23 1.535927 0.010246 0.005009 0.412032 -0.211024 -1.135295
    24 1.100771 0.004527 -0.010679 -0.011449 0.011491 -0.607431
    25 0.120153 -0.050270 -0.054489 0.287569 3.110905 1.561085
    26 -1.177047 -8.321198 -10.595357 -2.110882 -5.190274 -1.381970
    27 0.096944 -8.450418 -0.009365 0.228644 -0.233703 0.292788
    28 0.447953 -2.798986 -0.200443 -1.072186 -0.126515 -0.047440
    29 -0.032909 -1.480204 0.004940 -1.413633 0.000000 0.000002
    30 -0.027022 -1.076920 -0.020210 -1.481391 0.000000 0.000000
    31 -0.249534 -2.846964 -0.174213 -0.968633 -0.135815 -0.084786
    32 0.043235 -1.683941 0.096012 -1.469776 0.002823 -0.000167
    33 0.031729 -1.160830 0.058838 -1.436444 0.000642 0.008372
    34 -0.963866 -2.785145 -0.085350 -0.957802 -0.035925 -0.239075
    35 0.028479 -1.403067 0.006271 -1.158106 0.000000 0.000000
    36 0.021413 -0.957781 0.020046 -1.216858 0.000000 0.000000
    37 1.164475 -2.543940 -0.170330 -0.843989 -0.306425 0.042666
    38 0.024032 -1.129042 0.017807 -1.199105 0.000000 0.000001
    39 0.014898 -0.883989 -0.019848 -1.052873 0.000000 0.000000
    40 -0.586770 -1.264477 0.200161 -0.330638 -0.882973 -2.453540
    41 1.522835 0.058681 0.016848 -0.037192 -0.131247 0.648988
    42 1.117947 0.048424 -0.005766 -0.016374 -0.019146 0.763684
    43 -0.139399 -0.111698 0.014397 0.285382 -0.030687 1.580508
    44 -1.393470 8.839177 -0.239433 1.580804 -0.005023 -1.566847
  time 3
    0 0.000000 0.761742 0.000000 -0.022807 0.000000 -0.000029
    1 7.744019 5.728283 -6.644898 1.275921 -1.619072 -1.384985
    2 -0.071918 -8.498730 -0.104136 0.233266 0.229959 0.027314
    3 2.109793 -1.987391 1.493082 0.112946 0.226772 3.118949
    4 1.280536 2.248542 0.000000 0.000000 0.000000 0.000000
    5 1.359619 5.354405 0.000000 1.570788 0.000000 0.000000
    6 -0.939453 2.859753 0.345794 -1.570796 -1.570796 0.000000
    7 -0.634839 2.859726 0.493610 -1.570796 -1.422476 0.000000
    8 -0.509714 2.859726 0.496992 -1.570796 -0.930107 -0.000001
    9 1.257180 8.762585 -0.153713 -1.570562 0.002683 -1.566807
    10 -0.488518 -2.755602 -0.228260 -1.085960 -0.191560 -0.439285
    11 0.039887 -1.479790 0.029854 -0.928033 0.000000 0.000001
    12 0.028786 -1.075731 -0.023109 -1.481385 0.000000 0.000000
    13 0.250027 -2.820665 -0.238396 -0.892857 -0.160399 -0.409460
    14 -0.049759 -1.680544 0.100479 -1.289132 0.000000 -0.000002
    15 -0.034142 -1.148312 0.084782 -1.087281 0.000000 0.000000
    16 0.957766 -2.746780 -0.090302 -0.417463 -0.375878 -0.028335
    17 -0.033420 -1.397129 -0.011257 -0.691853 0.124808 -0.122316
    18 -0.022360 -0.957436 0.018784 -0.519754 0.000000 0.000000
    19 -1.180681 -2.507217 -0.193859 -0.873937 -0.068285 -0.359963
    20 -0.024967 -1.123934 0.017597 -1.152494 0.000000 0.000001
    21 -0.020057 -0.890968 0.010090 -0.933434 0.000000 0.000000
    22 0.583510 -1.197277 0.185379 0.631271 -1.323162 -0.918176
    23 1.535927 0.010246 0.005009 0.412032 -0.211024 -1.135295
    24 1.100771 0.004527 -0.010679 -0.011449 0.011491 -0.607431
    25 0.120153 -0.050270 -0.054489 0.287569 3.110905 1.561085
    26 -1.177047 -8.321198 -10.595357 -2.110882 -5.190274 -1.381970
    27 0.096944 -8.450418 -0.009365 0.228644 -0.233703 0.292788
    28 0.447953 -2.798986 -0.200443 -1.072186 -0.126515 -0.047440
    29 -0.032909 -1.480204 0.004940 -1.413633 0.000000 0.000002
    30 -0.027022 -1.076920 -0.020210 -1.481391 0.000000 0.000000
    31 -0.249534 -2.846964 -0.174213 -0.968633 -0.135815 -0.084786
    32 0.043235 -1.683941 0.096012 -1.469776 0.002823 -0.000167
    33 0.031729 -1.160830 0.058838 -1.436444 0.000642 0.008372
    34 -0.963866 -2.785145 -0.085350 -0.957802 -0.035925 -0.239075
    35 0.028479 -1.403067 0.006271 -1.158106 0.000000 0.000000
    36 0.021413 -0.957781 0.020046 -1.216858 0.000000 0.000000
    37 1.164475 -2.543940 -0.170330 -0.843989 -0.306425 0.042666
    38 0.024032 -1.129042 0.017807 -1.199105 0.000000 0.000001
    39 0.014898 -0.883989 -0.019848 -1.052873 0.000000 0.000000
    40 -0.586770 -1.264477 0.200161 -0.330638 -0.882973 -2.453540
    41 1.522835 0.058681 0.016848 -0.037192 -0.131247 0.648988
    42 1.117947 0.048424 -0.005766 -0.016374 -0.019146 0.763684
    43 -0.139399 -0.111698 0.014397 0.285382 -0.030687 1.580508
    44 -1.393470 8.839177 -0.239433 1.580804 -0.005023 -1.566847
  time 4
    0 0.000000 0.644551 0.000000 -0.038495 0.000000 -0.000029
    1 7.744019 5.728283 -6.644898 1.275921 -1.619072 -1.384985
    2 -0.071918 -8.498730 -0.104136 0.233266 0.229959 0.027314
    3 2.109793 -1.987391 1.493082 0.112946 0.226772 3.118949
    4 1.280536 2.248542 0.000000 0.000000 0.000000 0.000000
    5 1.359619 5.354405 0.000000 1.570788 0.000000 0.000000
    6 -0.939453 2.859753 0.345794 -1.570796 -1.570796 0.000000
    7 -0.634839 2.859726 0.493610 -1.570796 -1.422476 0.000000
    8 -0.509714 2.859726 0.496992 -1.570796 -0.930107 -0.000001
    9 1.257180 8.762585 -0.153713 -1.570562 0.002683 -1.566807
    10 -0.488518 -2.755602 -0.228260 -1.085960 -0.191560 -0.439285
    11 0.039887 -1.479790 0.029854 -0.928033 0.000000 0.000001
    12 0.028786 -1.075731 -0.023109 -1.481385 0.000000 0.000000
    13 0.250027 -2.820665 -0.238396 -0.892857 -0.160399 -0.409460
    14 -0.049759 -1.680544 0.100479 -1.289132 0.000000 -0.000002
    15 -0.034142 -1.148312 0.084782 -1.087313 0.000000 0.000000
    16 0.957766 -2.746780 -0.090302 -0.417463 -0.375878 -0.028335
    17 -0.033420 -1.397129 -0.011257 -0.691853 0.124808 -0.122316
    18 -0.022360 -0.957436 0.018784 -0.519754 0.000000 0.000000
    19 -1.180681 -2.507217 -0.193859 -0.873937 -0.068285 -0.359963
    20 -0.024967 -1.123934 0.017597 -1.152494 0.000000 0.000001
    21 -0.020057 -0.890968 0.010090 -0.933434 0.000000 0.000000
    22 0.583510 -1.197277 0.185379 0.631271 -1.323162 -0.918176
    23 1.535927 0.010246 0.005009 0.412032 -0.211024 -1.135295
    24 1.100771 0.004527 -0.010679 -0.011449 0.011491 -0.607431
    25 0.120153 -0.050270 -0.054489 0.287569 3.110905 1.561085
    26 -1.177047 -8.321198 -10.595357 -2.110882 -5.190274 -1.381970
    27 0.096944 -8.450418 -0.009365 0.228644 -0.233703 0.292788
    28 0.447953 -2.798986 -0.200443 -1.072186 -0.126515 -0.047440
    29 -0.032909 -1.480204 0.004940 -1.413633 0.000000 0.000002
    30 -0.027022 -1.076920 -0.020210 -1.481391 0.000000 0.000000
    31 -0.249534 -2.846964 -0.174213 -0.968633 -0.135815 -0.084786
    32 0.043235 -1.683941 0.096012 -1.469776 0.002823 -0.000167
    33 0.031729 -1.160830 0.058838 -1.436444 0.000642 0.008372
    34 -0.963866 -2.785145 -0.085350 -0.957802 -0.035925 -0.239075
    35 0.028479 -1.403067 0.006271 -1.158106 0.000000 0.000000
    36 0.021413 -0.957781 0.020046 -1.216858 0.000000 0.000000
    37 1.164475 -2.543940 -0.170330 -0.843989 -0.306425 0.042666
    38 0.024032 -1.129042 0.017807 -1.199105 0.000000 0.000001
    39 0.014898 -0.883989 -0.019848 -1.052873 0.000000 0.000000
    40 -0.586770 -1.264477 0.200161 -0.330638 -0.882973 -2.453540
    41 1.522835 0.058681 0.016848 -0.037192 -0.131247 0.648988
    42 1.117947 0.048424 -0.005766 -0.016374 -0.019146 0.763684
    43 -0.139399 -0.111698 0.014397 0.285382 -0.030687 1.580508
    44 -1.393470 8.839177 -0.239433 1.580804 -0.005023 -1.566847
  time 5
    0 0.000000 0.507828 0.000000 -0.045613 0.000000 -0.000029
    1 7.744019 5.728283 -6.644898 1.275921 -1.619072 -1.384985
    2 -0.071918 -8.498730 -0.104136 0.233266 0.229959 0.027314
    3 2.109793 -1.987391 1.493082 0.112946 0.226772 3.118949
    4 1.280536 2.248542 0.000000 0.000000 0.000000 0.000000
    5 1.359619 5.354405 0.000000 1.570788 0.000000 0.000000
    6 -0.939453 2.859753 0.345794 -1.570796 -1.570796 0.000000
    7 -0.634839 2.859726 0.493610 -1.570796 -1.422476 0.000000
    8 -0.509714 2.859726 0.496992 -1.570796 -0.930107 -0.000001
    9 1.257180 8.762585 -0.153713 -1.570562 0.002683 -1.566807
    10 -0.488518 -2.755602 -0.228260 -1.085960 -0.191560 -0.439285
    11 0.039887 -1.479790 0.029854 -0.928033 0.000000 0.000001
    12 0.028786 -1.075731 -0.023109 -1.481385 0.000000 0.000000
    13 0.250027 -2.820665 -0.238396 -0.892857 -0.160399 -0.409460
    14 -0.049759 -1.680544 0.100479 -1.289132 0.000000 -0.000002
    15 -0.034142 -1.148312 0.084782 -1.087281 0.000000 0.000000
    16 0.957766 -2.746780 -0.090302 -0.417463 -0.375878 -0.028335
    17 -0.033420 -1.397129 -0.011257 -0.691853 0.124808 -0.122316
    18 -0.022360 -0.957436 0.018784 -0.519754 0.000000 0.000000
    19 -1.180681 -2.507217 -0.193859 -0.873937 -0.068285 -0.359963
    20 -0.024967 -1.123934 0.017597 -1.152494 0.000000 0.000001
    21 -0.020057 -0.890968 0.010090 -0.933434 0.000000 0.000000
    22 0.583510 -1.197277 0.185379 0.631271 -1.323162 -0.918176
    23 1.535927 0.010246 0.005009 0.412032 -0.211024 -1.135295
    24 1.100771 0.004527 -0.010679 -0.011449 0.011491 -0.607431
    25 0.120153 -0.050270 -0.054489 0.287569 3.110905 1.561085
    26 -1.177047 -8.321198 -10.595357 -2.110882 -5.190274 -1.381970
    27 0.096944 -8.450418 -0.009365 0.228644 -0.233703 0.292788
    28 0.447953 -2.798986 -0.200443 -1.072186 -0.126515 -0.047440
    29 -0.032909 -1.480204 0.004940 -1.413633 0.000000 0.000002
    30 -0.027022 -1.076920 -0.020210 -1.481391 0.000000 0.000000
    31 -0.249534 -2.846964 -0.174213 -0.968633 -0.135815 -0.084786
    32 0.043235 -1.683941 0.096012 -1.469776 0.002823 -0.000167
    33 0.031729 -1.160830 0.058838 -1.436444 0.000642 0.008372
    34 -0.963866 -2.785145 -0.085350 -0.957802 -0.035925 -0.239075
    35 0.028479 -1.403067 0.006271 -1.158106 0.000000 0.000000
    36 0.021413 -0.957781 0.020046 -1.216858 0.000000 0.000000
    37 1.164475 -2.543940 -0.170330 -0.843989 -0.306425 0.042666
    38 0.024032 -1.129042 0.017807 -1.199105 0.000000 0.000001
    39 0.014898 -0.883989 -0.019848 -1.052873 0.000000 0.000000
    40 -0.586770 -1.264477 0.200161 -0.330638 -0.882973 -2.453540
    41 1.522835 0.058681 0.016848 -0.037192 -0.131247 0.648988
    42 1.117947 0.048424 -0.005766 -0.016374 -0.019146 0.763684
    43 -0.139399 -0.111698 0.014397 0.285382 -0.030687 1.580508
    44 -1.393470 8.839177 -0.239433 1.580804 -0.005023 -1.566847
  time 6
    0 0.000000 0.363292 0.000000 -0.042078 0.000000 -0.000029
    1 7.744019 5.728283 -6.644898 1.275921 -1.619072 -1.384985
    2 -0.071918 -8.498730 -0.104136 0.233266 0.229959 0.027314
    3 2.109793 -1.987391 1.493082 0.112946 0.226772 3.118949
    4 1.280536 2.248542 0.000000 0.000000 0.000000 0.000000
    5 1.359619 5.354405 0.000000 1.570788 0.000000 0.000000
    6 -0.939453 2.859753 0.345794 -1.570796 -1.570796 0.000000
    7 -0.634839 2.859726 0.493610 -1.570796 -1.422476 0.000000
    8 -0.509714 2.859726 0.496992 -1.570796 -0.930107 -0.000001
    9 1.257180 8.762585 -0.153713 -1.570562 0.002683 -1.566807
    10 -0.488518 -2.755602 -0.228260 -1.085960 -0.191560 -0.439285
    11 0.039887 -1.479790 0.029854 -0.928033 0.000000 0.000001
    12 0.028786 -1.075731 -0.023109 -1.481385 0.000000 0.000000
    13 0.250027 -2.820665 -0.238396 -0.892857 -0.160399 -0.409460
    14 -0.049759 -1.680544 0.100479 -1.289132 0.000000 -0.000002
    15 -0.034142 -1.148312 0.084782 -1.087281 0.000000 0.000000
    16 0.957766 -2.746780 -0.090302 -0.417463 -0.375878 -0.028335
    17 -0.033420 -1.397129 -0.011257 -0.691853 0.124808 -0.122316
    18 -0.022360 -0.957436 0.018784 -0.519754 0.000000 0.000000
    19 -1.180681 -2.507217 -0.193859 -0.873937 -0.068285 -0.359963
    20 -0.024967 -1.123934 0.017597 -1.152494 0.000000 0.000001
    21 -0.020057 -0.890968 0.010090 -0.933434 0.000000 0.000000
    22 0.583510 -1.197277 0.185379 0.631271 -1.323162 -0.918176
    23 1.535927 0.010246 0.005009 0.412032 -0.211024 -1.135295
    24 1.100771 0.004527 -0.010679 -0.011449 0.011491 -0.607431
    25 0.120153 -0.050270 -0.054489 0.287569 3.110905 1.561085
    26 -1.177047 -8.321198 -10.595357 -2.110882 -5.190274 -1.381970
    27 0.096944 -8.450418 -0.009365 0.228644 -0.233703 0.292788
    28 0.447953 -2.798986 -0.200443 -1.072186 -0.126515 -0.047440
    29 -0.032909 -1.480204 0.004940 -1.413633 0.000000 0.000002
    30 -0.027022 -1.076920 -0.020210 -1.481391 0.000000 0.000000
    31 -0.249534 -2.846964 -0.174213 -0.968633 -0.135815 -0.084786
    32 0.043235 -1.683941 0.096012 -1.469776 0.002823 -0.000167
    33 0.031729 -1.160830 0.058838 -1.436444 0.000642 0.008372
    34 -0.963866 -2.785145 -0.085350 -0.957802 -0.035925 -0.239075
    35 0.028479 -1.403067 0.006271 -1.158106 0.000000 0.000000
    36 0.021413 -0.957781 0.020046 -1.216858 0.000000 0.000000
    37 1.164475 -2.543940 -0.170330 -0.843989 -0.306425 0.042666
    38 0.024032 -1.129042 0.017807 -1.199105 0.000000 0.000001
    39 0.014898 -0.883989 -0.019848 -1.052873 0.000000 0.000000
    40 -0.586770 -1.264477 0.200161 -0.330638 -0.882973 -2.453540
    41 1.522835 0.058681 0.016848 -0.037192 -0.131247 0.648988
    42 1.117947 0.048424 -0.005766 -0.016374 -0.019146 0.763684
    43 -0.139399 -0.111698 0.014397 0.285382 -0.030687 1.580508
    44 -1.393470 8.839177 -0.239433 1.580804 -0.005023 -1.566847
  time 7
    0 0.000000 0.222663 0.000000 -0.032934 0.000000 -0.000029
    1 7.744019 5.728283 -6.644898 1.275921 -1.619072 -1.384985
    2 -0.071918 -8.498730 -0.104136 0.233266 0.229959 0.027314
    3 2.109793 -1.987391 1.493082 0.112946 0.226772 3.118949
    4 1.280536 2.248542 0.000000 0.000000 0.000000 0.000000
    5 1.359619 5.354405 0.000000 1.570788 0.000000 0.000000
    6 -0.939453 2.859753 0.345794 -1.570796 -1.570796 0.000000
    7 -0.634839 2.859726 0.493610 -1.570796 -1.422476 0.000000
    8 -0.509714 2.859726 0.496992 -1.570796 -0.930107 -0.000001
    9 1.257180 8.762585 -0.153713 -1.570562 0.002683 -1.566807
    10 -0.488518 -2.755602 -0.228260 -1.085960 -0.191560 -0.439285
    11 0.039887 -1.479790 0.029854 -0.928033 0.000000 0.000001
    12 0.028786 -1.075731 -0.023109 -1.481385 0.000000 0.000000
    13 0.250027 -2.820665 -0.238396 -0.892857 -0.160399 -0.409460
    14 -0.049759 -1.680544 0.100479 -1.289132 0.000000 -0.000002
    15 -0.034142 -1.148312 0.084782 -1.087281 0.000000 0.000000
    16 0.957766 -2.746780 -0.090302 -0.417463 -0.375878 -0.028335
    17 -0.033420 -1.397129 -0.011257 -0.691853 0.124808 -0.122316
    18 -0.022360 -0.957436 0.018784 -0.519754 0.000000 0.000000
    19 -1.180681 -2.507217 -0.193859 -0.873937 -0.068285 -0.359963
    20 -0.024967 -1.123934 0.017597 -1.152494 0.000000 0.000001
    21 -0.020057 -0.890968 0.010090 -0.933434 0.000000 0.000000
    22 0.583510 -1.197277 0.185379 0.631271 -1.323162 -0.918176
    23 1.535927 0.010246 0.005009 0.412032 -0.211024 -1.135295
    24 1.100771 0.004527 -0.010679 -0.011449 0.011491 -0.607431
    25 0.120153 -0.050270 -0.054489 0.287569 3.110905 1.561085
    26 -1.177047 -8.321198 -10.595357 -2.110882 -5.190274 -1.381970
    27 0.096944 -8.450418 -0.009365 0.228644 -0.233703 0.292788
    28 0.447953 -2.798986 -0.200443 -1.072186 -0.126515 -0.047440
    29 -0.032909 -1.480204 0.004940 -1.413633 0.000000 0.000002
    30 -0.027022 -1.076920 -0.020210 -1.481391 0.000000 0.000000
    31 -0.249534 -2.846964 -0.174213 -0.968633 -0.135815 -0.084786
    32 0.043235 -1.683941 0.096012 -1.469776 0.002823 -0.000167
    33 0.031729 -1.160830 0.058838 -1.436444 0.000642 0.008372
    34 -0.963866 -2.785145 -0.085350 -0.957802 -0.035925 -0.239075
    35 0.028479 -1.403067 0.006271 -1.158106 0.000000 0.000000
    36 0.021413 -0.957781 0.020046 -1.216858 0.000000 0.000000
    37 1.164475 -2.543940 -0.170330 -0.843989 -0.306425 0.042666
    38 0.024032 -1.129042 0.017807 -1.199105 0.000000 0.000001
    39 0.014898 -0.883989 -0.019848 -1.052873 0.000000 0.000000
    40 -0.586770 -1.264477 0.200161 -0.330638 -0.882973 -2.453540
    41 1.522835 0.058681 0.016848 -0.037192 -0.131247 0.648988
    42 1.117947 0.048424 -0.005766 -0.016374 -0.019146 0.763684
    43 -0.139399 -0.111698 0.014397 0.285382 -0.030687 1.580508
    44 -1.393470 8.839177 -0.239433 1.580804 -0.005023 -1.566847
  time 8
    0 0.000000 0.109378 0.000000 -0.020446 0.000000 -0.000029
    1 7.744019 5.728283 -6.644898 1.275921 -1.619072 -1.384985
    2 -0.071918 -8.498730 -0.104136 0.233266 0.229959 0.027314
    3 2.109793 -1.987391 1.493082 0.112946 0.226772 3.118949
    4 1.280536 2.248542 0.000000 0.000000 0.000000 0.000000
    5 1.359619 5.354405 0.000000 1.570788 0.000000 0.000000
    6 -0.939453 2.859753 0.345794 -1.570796 -1.570796 0.000000
    7 -0.634839 2.859726 0.493610 -1.570796 -1.422476 0.000000
    8 -0.509714 2.859726 0.496992 -1.570796 -0.930107 -0.000001
    9 1.257180 8.762585 -0.153713 -1.570562 0.002683 -1.566807
    10 -0.488518 -2.755602 -0.228260 -1.085960 -0.191560 -0.439285
    11 0.039887 -1.479790 0.029854 -0.928033 0.000000 0.000001
    12 0.028786 -1.075731 -0.023109 -1.481385 0.000000 0.000000
    13 0.250027 -2.820665 -0.238396 -0.892857 -0.160399 -0.409460
    14 -0.049759 -1.680544 0.100479 -1.289132 0.000000 -0.000002
    15 -0.034142 -1.148312 0.084782 -1.087281 0.000000 0.000000
    16 0.957766 -2.746780 -0.090302 -0.417463 -0.375878 -0.028335
    17 -0.033420 -1.397129 -0.011257 -0.691853 0.124808 -0.122316
    18 -0.022360 -0.957436 0.018784 -0.519754 0.000000 0.000000
    19 -1.180681 -2.507217 -0.193859 -0.873937 -0.068285 -0.359963
    20 -0.024967 -1.123934 0.017597 -1.152494 0.000000 0.000001
    21 -0.020057 -0.890968 0.010090 -0.933434 0.000000 0.000000
    22 0.583510 -1.197277 0.185379 0.631271 -1.323162 -0.918176
    23 1.535927 0.010246 0.005009 0.412032 -0.211024 -1.135295
    24 1.100771 0.004527 -0.010679 -0.011449 0.011491 -0.607431
    25 0.120153 -0.050270 -0.054489 0.287569 3.110905 1.561085
    26 -1.177047 -8.321198 -10.595357 -2.110882 -5.190274 -1.381970
    27 0.096944 -8.450418 -0.009365 0.228644 -0.233703 0.292788
    28 0.447953 -2.798986 -0.200443 -1.072186 -0.126515 -0.047440
    29 -0.032909 -1.480204 0.004940 -1.413633 0.000000 0.000002
    30 -0.027022 -1.076920 -0.020210 -1.481391 0.000000 0.000000
    31 -0.249534 -2.846964 -0.174213 -0.968633 -0.135815 -0.084786
    32 0.043235 -1.683941 0.096012 -1.469776 0.002823 -0.000167
    33 0.031729 -1.160830 0.058838 -1.436444 0.000642 0.008372
    34 -0.963866 -2.785145 -0.085350 -0.957802 -0.035925 -0.239075
    35 0.028479 -1.403067 0.006271 -1.158106 0.000000 0.000000
    36 0.021413 -0.957781 0.020046 -1.216858 0.000000 0.000000
    37 1.164475 -2.543940 -0.170330 -0.843989 -0.306425 0.042666
    38 0.024032 -1.129042 0.017807 -1.199105 0.000000 0.000001
    39 0.014898 -0.883989 -0.019848 -1.052873 0.000000 0.000000
    40 -0.586770 -1.264477 0.200161 -0.330638 -0.882973 -2.453540
    41 1.522835 0.058681 0.016848 -0.037192 -0.131247 0.648988
    42 1.117947 0.048424 -0.005766 -0.016374 -0.019146 0.763684
    43 -0.139399 -0.111698 0.014397 0.285382 -0.030687 1.580508
    44 -1.393470 8.839177 -0.239433 1.580804 -0.005023 -1.566847
  time 9
    0 0.000000 0.027345 0.000000 -0.006831 0.000000 -0.000029
    1 7.744019 5.728283 -6.644898 1.275921 -1.619072 -1.384985
    2 -0.071918 -8.498730 -0.104136 0.233266 0.229959 0.027314
    3 2.109793 -1.987391 1.493082 0.112946 0.226772 3.118949
    4 1.280536 2.248542 0.000000 0.000000 0.000000 0.000000
    5 1.359619 5.354405 0.000000 1.570788 0.000000 0.000000
    6 -0.939453 2.859753 0.345794 -1.570796 -1.570796 0.000000
    7 -0.634839 2.859726 0.493610 -1.570796 -1.422476 0.000000
    8 -0.509714 2.859726 0.496992 -1.570796 -0.930107 -0.000001
    9 1.257180 8.762585 -0.153713 -1.570562 0.002683 -1.566807
    10 -0.488518 -2.755602 -0.228260 -1.085960 -0.191560 -0.439285
    11 0.039887 -1.479790 0.029854 -0.928033 0.000000 0.000001
    12 0.028786 -1.075731 -0.023109 -1.481385 0.000000 0.000000
    13 0.250027 -2.820665 -0.238396 -0.892857 -0.160399 -0.409460
    14 -0.049759 -1.680544 0.100479 -1.289132 0.000000 -0.000002
    15 -0.034142 -1.148312 0.084782 -1.087281 0.000000 0.000000
    16 0.957766 -2.746780 -0.090302 -0.417463 -0.375878 -0.028335
    17 -0.033420 -1.397129 -0.011257 -0.691853 0.124808 -0.122316
    18 -0.022360 -0.957436 0.018784 -0.519754 0.000000 0.000000
    19 -1.180681 -2.507217 -0.193859 -0.873937 -0.068285 -0.359963
    20 -0.024967 -1.123934 0.017597 -1.152494 0.000000 0.000001
    21 -0.020057 -0.890968 0.010090 -0.933434 0.000000 0.000000
    22 0.583510 -1.197277 0.185379 0.631271 -1.323162 -0.918176
    23 1.535927 0.010246 0.005009 0.412032 -0.211024 -1.135295
    24 1.100771 0.004527 -0.010679 -0.011449 0.011491 -0.607431
    25 0.120153 -0.050270 -0.054489 0.287569 3.110905 1.561085
    26 -1.177047 -8.321198 -10.595357 -2.110882 -5.190274 -1.381970
    27 0.096944 -8.450418 -0.009365 0.228644 -0.233703 0.292788
    28 0.447953 -2.798986 -0.200443 -1.072186 -0.126515 -0.047440
    29 -0.032909 -1.480204 0.004940 -1.413633 0.000000 0.000002
    30 -0.027022 -1.076920 -0.020210 -1.481391 0.000000 0.000000
    31 -0.249534 -2.846964 -0.174213 -0.968633 -0.135815 -0.084786
    32 0.043235 -1.683941 0.096012 -1.469776 0.002823 -0.000167
    33 0.031729 -1.160830 0.058838 -1.436444 0.000642 0.008372
    34 -0.963866 -2.785145 -0.085350 -0.957802 -0.035925 -0.239075
    35 0.028479 -1.403067 0.006271 -1.158106 0.000000 0.000000
    36 0.021413 -0.957781 0.020046 -1.216858 0.000000 0.000000
    37 1.164475 -2.543940 -0.170330 -0.843989 -0.306425 0.042666
    38 0.024032 -1.129042 0.017807 -1.199105 0.000000 0.000001
    39 0.014898 -0.883989 -0.019848 -1.052873 0.000000 0.000000
    40 -0.586770 -1.264477 0.200161 -0.330638 -0.882973 -2.453540
    41 1.522835 0.058681 0.016848 -0.037192 -0.131247 0.648988
    42 1.117947 0.048424 -0.005766 -0.016374 -0.019146 0.763684
    43 -0.139399 -0.111698 0.014397 0.285382 -0.030687 1.580508
    44 -1.393470 8.839177 -0.239433 1.580804 -0.005023 -1.566847
  time 10
    0 0.000000 0.000000 0.000000 0.005645 0.000000 -0.000029
    1 7.744019 5.728283 -6.644898 1.275921 -1.619072 -1.384985
    2 -0.071918 -8.498730 -0.104136 0.233266 0.229959 0.027314
    3 2.109793 -1.987391 1.493082 0.112946 0.226772 3.118949
    4 1.280536 2.248542 0.000000 0.000000 0.000000 0.000000
    5 1.359619 5.354405 0.000000 1.570788 0.000000 0.000000
    6 -0.939453 2.859753 0.345794 -1.570796 -1.570796 0.000000
    7 -0.634839 2.859726 0.493610 -1.570796 -1.422476 0.000000
    8 -0.509714 2.859726 0.496992 -1.570796 -0.930107 -0.000001
    9 1.257180 8.762585 -0.153713 -1.570562 0.002683 -1.566807
    10 -0.488518 -2.755602 -0.228260 -1.085960 -0.191560 -0.439285
    11 0.039887 -1.479790 0.029854 -0.928033 0.000000 0.000001
    12 0.028786 -1.075731 -0.023109 -1.481385 0.000000 0.000000
    13 0.250027 -2.820665 -0.238396 -0.892857 -0.160399 -0.409460
    14 -0.049759 -1.680544 0.100479 -1.289132 0.000000 -0.000002
    15 -0.034142 -1.148312 0.084782 -1.087281 0.000000 0.000000
    16 0.957766 -2.746780 -0.090302 -0.417463 -0.375878 -0.028335
    17 -0.033420 -1.397129 -0.011257 -0.691853 0.124808 -0.122316
    18 -0.022360 -0.957436 0.018784 -0.519754 0.000000 0.000000
    19 -1.180681 -2.507217 -0.193859 -0.873937 -0.068285 -0.359963
    20 -0.024967 -1.123934 0.017597 -1.152494 0.000000 0.000001
    21 -0.020057 -0.890968 0.010090 -0.933434 0.000000 0.000000
    22 0.583510 -1.197277 0.185379 0.631271 -1.323162 -0.918176
    23 1.535927 0.010246 0.005009 0.412032 -0.211024 -1.135295
    24 1.100771 0.004527 -0.010679 -0.011449 0.011491 -0.607431
    25 0.120153 -0.050270 -0.054489 0.287569 3.110905 1.561085
    26 -1.177047 -8.321198 -10.595357 -2.110882 -5.190274 -1.381970
    27 0.096944 -8.450418 -0.009365 0.228644 -0.233703 0.292788
    28 0.447953 -2.798986 -0.200443 -1.072186 -0.126515 -0.047440
    29 -0.032909 -1.480204 0.004940 -1.413633 0.000000 0.000002
    30 -0.027022 -1.076920 -0.020210 -1.481391 0.000000 0.000000
    31 -0.249534 -2.846964 -0.174213 -0.968633 -0.135815 -0.084786
    32 0.043235 -1.683941 0.096012 -1.469776 0.002823 -0.000167
    33 0.031729 -1.160830 0.058838 -1.436444 0.000642 0.008372
    34 -0.963866 -2.785145 -0.085350 -0.957802 -0.035925 -0.239075
    35 0.028479 -1.403067 0.006271 -1.158106 0.000000 0.000000
    36 0.021413 -0.957781 0.020046 -1.216858 0.000000 0.000000
    37 1.164475 -2.543940 -0.170330 -0.843989 -0.306425 0.042666
    38 0.024032 -1.129042 0.017807 -1.199105 0.000000 0.000001
    39 0.014898 -0.883989 -0.019848 -1.052873 0.000000 0.000000
    40 -0.586770 -1.264477 0.200161 -0.330638 -0.882973 -2.453540
    41 1.522835 0.058681 0.016848 -0.037192 -0.131247 0.648988
    42 1.117947 0.048424 -0.005766 -0.016374 -0.019146 0.763684
    43 -0.139399 -0.111698 0.014397 0.285382 -0.030687 1.580508
    44 -1.393470 8.839177 -0.239433 1.580804 -0.005023 -1.566847
  time 11
    0 0.000000 0.000000 -0.003906 0.014789 0.000000 -0.000029
    1 7.744019 5.728283 -6.644898 1.275921 -1.619072 -1.384985
    2 -0.071918 -8.498730 -0.104136 0.233266 0.229959 0.027314
    3 2.109793 -1.987391 1.493082 0.112946 0.226772 3.118949
    4 1.280536 2.248542 0.000000 0.000000 0.000000 0.000000
    5 1.359619 5.354405 0.000000 1.570788 0.000000 0.000000
    6 -0.939453 2.859753 0.345794 -1.570796 -1.570796 0.000000
    7 -0.634839 2.859726 0.493610 -1.570796 -1.422476 0.000000
    8 -0.509714 2.859726 0.496992 -1.570796 -0.930107 -0.000001
    9 1.257180 8.762585 -0.153713 -1.570562 0.002683 -1.566807
    10 -0.488518 -2.755602 -0.228260 -1.085960 -0.191560 -0.439285
    11 0.039887 -1.479790 0.029854 -0.928033 0.000000 0.000001
    12 0.028786 -1.075731 -0.023109 -1.481385 0.000000 0.000000
    13 0.250027 -2.820665 -0.238396 -0.892857 -0.160399 -0.409460
    14 -0.049759 -1.680544 0.100479 -1.289132 0.000000 -0.000002
    15 -0.034142 -1.148312 0.084782 -1.087281 0.000000 0.000000
    16 0.957766 -2.746780 -0.090302 -0.417463 -0.375878 -0.028335
    17 -0.033420 -1.397129 -0.011257 -0.691853 0.124808 -0.122316
    18 -0.022360 -0.957436 0.018784 -0.519754 0.000000 0.000000
    19 -1.180681 -2.507217 -0.193859 -0.873937 -0.068285 -0.359963
    20 -0.024967 -1.123934 0.017597 -1.152494 0.000000 0.000001
    21 -0.020057 -0.890968 0.010090 -0.933434 0.000000 0.000000
    22 0.583510 -1.197277 0.185379 0.631271 -1.323162 -0.918176
    23 1.535927 0.010246 0.005009 0.412032 -0.211024 -1.135295
    24 1.100771 0.004527 -0.010679 -0.011449 0.011491 -0.607431
    25 0.120153 -0.050270 -0.054489 0.287569 3.110905 1.561085
    26 -1.177047 -8.321198 -10.595357 -2.110882 -5.190274 -1.381970
    27 0.096944 -8.450418 -0.009365 0.228644 -0.233703 0.292788
    28 0.447953 -2.798986 -0.200443 -1.072186 -0.126515 -0.047440
    29 -0.032909 -1.480204 0.004940 -1.413633 0.000000 0.000002
    30 -0.027022 -1.076920 -0.020210 -1.481391 0.000000 0.000000
    31 -0.249534 -2.846964 -0.174213 -0.968633 -0.135815 -0.084786
    32 0.043235 -1.683941 0.096012 -1.469776 0.002823 -0.000167
    33 0.031729 -1.160830 0.058838 -1.436444 0.000642 0.008372
    34 -0.963866 -2.785145 -0.085350 -0.957802 -0.035925 -0.239075
    35 0.028479 -1.403067 0.006271 -1.158106 0.000000 0.000000
    36 0.021413 -0.957781 0.020046 -1.216858 0.000000 0.000000
    37 1.164475 -2.543940 -0.170330 -0.843989 -0.306425 0.042666
    38 0.024032 -1.129042 0.017807 -1.199105 0.000000 0.000001
    39 0.014898 -0.883989 -0.019848 -1.052873 0.000000 0.000000
    40 -0.586770 -1.264477 0.200161 -0.330638 -0.882973 -2.453540
    41 1.522835 0.058681 0.016848 -0.037192 -0.131247 0.648988
    42 1.117947 0.048424 -0.005766 -0.016374 -0.019146 0.763684
    43 -0.139399 -0.111698 0.014397 0.285382 -0.030687 1.580508
    44 -1.393470 8.839177 -0.239433 1.580804 -0.005023 -1.566847
  time 12
    0 0.000000 0.000000 -0.019532 0.018324 0.000000 -0.000029
    1 7.744019 5.728283 -6.644898 1.275921 -1.619072 -1.384985
    2 -0.071918 -8.498730 -0.104136 0.233266 0.229959 0.027314
    3 2.109793 -1.987391 1.493082 0.112946 0.226772 3.118949
    4 1.280536 2.248542 0.000000 0.000000 0.000000 0.000000
    5 1.359619 5.354405 0.000000 1.570788 0.000000 0.000000
    6 -0.939453 2.859753 0.345794 -1.570796 -1.570796 0.000000
    7 -0.634839 2.859726 0.493610 -1.570796 -1.422476 0.000000
    8 -0.509714 2.859726 0.496992 -1.570796 -0.930107 -0.000001
    9 1.257180 8.762585 -0.153713 -1.570562 0.002683 -1.566807
    10 -0.488518 -2.755602 -0.228260 -1.085960 -0.191560 -0.439285
    11 0.039887 -1.479790 0.029854 -0.928033 0.000000 0.000001
    12 0.028786 -1.075731 -0.023109 -1.481385 0.000000 0.000000
    13 0.250027 -2.820665 -0.238396 -0.892857 -0.160399 -0.409460
    14 -0.049759 -1.680544 0.100479 -1.289132 0.000000 -0.000002
    15 -0.034142 -1.148312 0.084782 -1.087281 0.000000 0.000000
    16 0.957766 -2.746780 -0.090302 -0.417463 -0.375878 -0.028335
    17 -0.033420 -1.397129 -0.011257 -0.691853 0.124808 -0.122316
    18 -0.022360 -0.957436 0.018784 -0.519754 0.000000 0.000000
    19 -1.180681 -2.507217 -0.193859 -0.873937 -0.068285 -0.359963
    20 -0.024967 -1.123934 0.017597 -1.152494 0.000000 0.000001
    21 -0.020057 -0.890968 0.010090 -0.933434 0.000000 0.000000
    22 0.583510 -1.197277 0.185379 0.631271 -1.323162 -0.918176
    23 1.535927 0.010246 0.005009 0.412032 -0.211024 -1.135295
    24 1.100771 0.004527 -0.010679 -0.011449 0.011491 -0.607431
    25 0.120153 -0.050270 -0.054489 0.287569 3.110905 1.561085
    26 -1.177047 -8.321198 -10.595357 -2.110882 -5.190274 -1.381970
    27 0.096944 -8.450418 -0.009365 0.228644 -0.233703 0.292788
    28 0.447953 -2.798986 -0.200443 -1.072186 -0.126515 -0.047440
    29 -0.032909 -1.480204 0.004940 -1.413633 0.000000 0.000002
    30 -0.027022 -1.076920 -0.020210 -1.481391 0.000000 0.000000
    31 -0.249534 -2.846964 -0.174213 -0.968633 -0.135815 -0.084786
    32 0.043235 -1.683941 0.096012 -1.469776 0.002823 -0.000167
    33 0.031729 -1.160830 0.058838 -1.436444 0.000642 0.008372
    34 -0.963866 -2.785145 -0.085350 -0.957802 -0.035925 -0.239075
    35 0.028479 -1.403067 0.006271 -1.158106 0.000000 0.000000
    36 0.021413 -0.957781 0.020046 -1.216858 0.000000 0.000000
    37 1.164475 -2.543940 -0.170330 -0.843989 -0.306425 0.042666
    38 0.024032 -1.129042 0.017807 -1.199105 0.000000 0.000001
    39 0.014898 -0.883989 -0.019848 -1.052873 0.000000 0.000000
    40 -0.586770 -1.264477 0.200161 -0.330638 -0.882973 -2.453540
    41 1.522835 0.058681 0.016848 -0.037192 -0.131247 0.648988
    42 1.117947 0.048424 -0.005766 -0.016374 -0.019146 0.763684
    43 -0.139399 -0.111698 0.014397 0.285382 -0.030687 1.580508
    44 -1.393470 8.839177 -0.239433 1.580804 -0.005023 -1.566847
  time 13
    0 0.000000 0.000000 -0.042970 0.017354 0.000000 -0.000029
    1 7.744019 5.728283 -6.644898 1.275921 -1.619072 -1.384985
    2 -0.071918 -8.498730 -0.104136 0.233266 0.229959 0.027314
    3 2.109793 -1.987391 1.493082 0.112946 0.226772 3.118949
    4 1.280536 2.248542 0.000000 0.000000 0.000000 0.000000
    5 1.359619 5.354405 0.000000 1.570788 0.000000 0.000000
    6 -0.939453 2.859753 0.345794 -1.570796 -1.570796 0.000000
    7 -0.634839 2.859726 0.493610 -1.570796 -1.422476 0.000000
    8 -0.509714 2.859726 0.496992 -1.570796 -0.930107 -0.000001
    9 1.257180 8.762585 -0.153713 -1.570562 0.002683 -1.566807
    10 -0.488518 -2.755602 -0.228260 -1.085960 -0.191560 -0.439285
    11 0.039887 -1.479790 0.029854 -0.928033 0.000000 0.000001
    12 0.028786 -1.075731 -0.023109 -1.481385 0.000000 0.000000
    13 0.250027 -2.820665 -0.238396 -0.892857 -0.160399 -0.409460
    14 -0.049759 -1.680544 0.100479 -1.289132 0.000000 -0.000002
    15 -0.034142 -1.148312 0.084782 -1.087281 0.000000 0.000000
    16 0.957766 -2.746780 -0.090302 -0.417463 -0.375878 -0.028335
    17 -0.033420 -1.397129 -0.011257 -0.691853 0.124808 -0.122316
    18 -0.022360 -0.957436 0.018784 -0.519754 0.000000 0.000000
    19 -1.180681 -2.507217 -0.193859 -0.873937 -0.068285 -0.359963
    20 -0.024967 -1.123934 0.017597 -1.152494 0.000000 0.000001
    21 -0.020057 -0.890968 0.010090 -0.933434 0.000000 0.000000
    22 0.583510 -1.197277 0.185379 0.631271 -1.323162 -0.918176
    23 1.535927 0.010246 0.005009 0.412032 -0.211024 -1.135295
    24 1.100771 0.004527 -0.010679 -0.011449 0.011491 -0.607431
    25 0.120153 -0.050270 -0.054489 0.287569 3.110905 1.561085
    26 -1.177047 -8.321198 -10.595357 -2.110882 -5.190274 -1.381970
    27 0.096944 -8.450418 -0.009365 0.228644 -0.233703 0.292788
    28 0.447953 -2.798986 -0.200443 -1.072186 -0.126515 -0.047440
    29 -0.032909 -1.480204 0.004940 -1.413633 0.000000 0.000002
    30 -0.027022 -1.076920 -0.020210 -1.481391 0.000000 0.000000
    31 -0.249534 -2.846964 -0.174213 -0.968633 -0.135815 -0.084786
    32 0.043235 -1.683941 0.096012 -1.469776 0.002823 -0.000167
    33 0.031729 -1.160830 0.058838 -1.436444 0.000642 0.008372
    34 -0.963866 -2.785145 -0.085350 -0.957802 -0.035925 -0.239075
    35 0.028479 -1.403067 0.006271 -1.158106 0.000000 0.000000
    36 0.021413 -0.957781 0.020046 -1.216858 0.000000 0.000000
    37 1.164475 -2.543940 -0.170330 -0.843989 -0.306425 0.042666
    38 0.024032 -1.129042 0.017807 -1.199105 0.000000 0.000001
    39 0.014898 -0.883989 -0.019848 -1.052873 0.000000 0.000000
    40 -0.586770 -1.264477 0.200161 -0.330638 -0.882973 -2.453540
    41 1.522835 0.058681 0.016848 -0.037192 -0.131247 0.648988
    42 1.117947 0.048424 -0.005766 -0.016374 -0.019146 0.763684
    43 -0.139399 -0.111698 0.014397 0.285382 -0.030687 1.580508
    44 -1.393470 8.839177 -0.239433 1.580804 -0.005023 -1.566847
  time 14
    0 0.000000 0.000000 -0.066408 0.014777 0.000000 -0.000029
    1 7.744019 5.728283 -6.644898 1.275921 -1.619072 -1.384985
    2 -0.071918 -8.498730 -0.104136 0.233266 0.229959 0.027314
    3 2.109793 -1.987391 1.493082 0.112946 0.226772 3.118949
    4 1.280536 2.248542 0.000000 0.000000 0.000000 0.000000
    5 1.359619 5.354405 0.000000 1.570788 0.000000 0.000000
    6 -0.939453 2.859753 0.345794 -1.570796 -1.570796 0.000000
    7 -0.634839 2.859726 0.493610 -1.570796 -1.422476 0.000000
    8 -0.509714 2.859726 0.496992 -1.570796 -0.930107 -0.000001
    9 1.257180 8.762585 -0.153713 -1.570562 0.002683 -1.566807
    10 -0.488518 -2.755602 -0.228260 -1.085960 -0.191560 -0.439285
    11 0.039887 -1.479790 0.029854 -0.928033 0.000000 0.000001
    12 0.028786 -1.075731 -0.023109 -1.481385 0.000000 0.000000
    13 0.250027 -2.820665 -0.238396 -0.892857 -0.160399 -0.409460
    14 -0.049759 -1.680544 0.100479 -1.289132 0.000000 -0.000002
    15 -0.034142 -1.148312 0.084782 -1.087281 0.000000 0.000000
    16 0.957766 -2.746780 -0.090302 -0.417463 -0.375878 -0.028335
    17 -0.033420 -1.397129 -0.011257 -0.691853 0.124808 -0.122316
    18 -0.022360 -0.957436 0.018784 -0.519754 0.000000 0.000000
    19 -1.180681 -2.507217 -0.193859 -0.873937 -0.068285 -0.359963
    20 -0.024967 -1.123934 0.017597 -1.152494 0.000000 0.000001
    21 -0.020057 -0.890968 0.010090 -0.933434 0.000000 0.000000
    22 0.583510 -1.197277 0.185379 0.631271 -1.323162 -0.918176
    23 1.535927 0.010246 0.005009 0.412032 -0.211024 -1.135295
    24 1.100771 0.004527 -0.010679 -0.011449 0.011491 -0.607431
    25 0.120153 -0.050270 -0.054489 0.287569 3.110905 1.561085
    26 -1.177047 -8.321198 -10.595357 -2.110882 -5.190274 -1.381970
    27 0.096944 -8.450418 -0.009365 0.228644 -0.233703 0.292788
    28 0.447953 -2.798986 -0.200443 -1.072186 -0.126515 -0.047440
    29 -0.032909 -1.480204 0.004940 -1.413633 0.000000 0.000002
    30 -0.027022 -1.076920 -0.020210 -1.481391 0.000000 0.000000
    31 -0.249534 -2.846964 -0.174213 -0.968633 -0.135815 -0.084786
    32 0.043235 -1.683941 0.096012 -1.469776 0.002823 -0.000167
    33 0.031729 -1.160830 0.058838 -1.436444 0.000642 0.008372
    34 -0.963866 -2.785145 -0.085350 -0.957802 -0.035925 -0.239075
    35 0.028479 -1.403067 0.006271 -1.158106 0.000000 0.000000
    36 0.021413 -0.957781 0.020046 -1.216858 0.000000 0.000000
    37 1.164475 -2.543940 -0.170330 -0.843989 -0.306425 0.042666
    38 0.024032 -1.129042 0.017807 -1.199105 0.000000 0.000001
    39 0.014898 -0.883989 -0.019848 -1.052873 0.000000 0.000000
    40 -0.586770 -1.264477 0.200161 -0.330638 -0.882973 -2.453540
    41 1.522835 0.058681 0.016848 -0.037192 -0.131247 0.648988
    42 1.117947 0.048424 -0.005766 -0.016374 -0.019146 0.763684
    43 -0.139399 -0.111698 0.014397 0.285382 -0.030687 1.580508
    44 -1.393470 8.839177 -0.239433 1.580804 -0.005023 -1.566847
  time 15
    0 0.000000 0.000000 -0.089846 0.011134 0.000000 -0.000029
    1 7.744019 5.728283 -6.644898 1.275921 -1.619072 -1.384985
    2 -0.071918 -8.498730 -0.104136 0.233266 0.229959 0.027314
    3 2.109793 -1.987391 1.493082 0.112946 0.226772 3.118949
    4 1.280536 2.248542 0.000000 0.000000 0.000000 0.000000
    5 1.359619 5.354405 0.000000 1.570788 0.000000 0.000000
    6 -0.939453 2.859753 0.345794 -1.570796 -1.570796 0.000000
    7 -0.634839 2.859726 0.493610 -1.570796 -1.422476 0.000000
    8 -0.509714 2.859726 0.496992 -1.570796 -0.930107 -0.000001
    9 1.257180 8.762585 -0.153713 -1.570562 0.002683 -1.566807
    10 -0.488518 -2.755602 -0.228260 -1.085960 -0.191560 -0.439285
    11 0.039887 -1.479790 0.029854 -0.928033 0.000000 0.000001
    12 0.028786 -1.075731 -0.023109 -1.481385 0.000000 0.000000
    13 0.250027 -2.820665 -0.238396 -0.892857 -0.160399 -0.409460
    14 -0.049759 -1.680544 0.100479 -1.289132 0.000000 -0.000002
    15 -0.034142 -1.148312 0.084782 -1.087281 0.000000 0.000000
    16 0.957766 -2.746780 -0.090302 -0.417463 -0.375878 -0.028335
    17 -0.033420 -1.397129 -0.011257 -0.691853 0.124808 -0.122316
    18 -0.022360 -0.957436 0.018784 -0.519754 0.000000 0.000000
    19 -1.180681 -2.507217 -0.193859 -0.873937 -0.068285 -0.359963
    20 -0.024967 -1.123934 0.017597 -1.152494 0.000000 0.000001
    21 -0.020057 -0.890968 0.010090 -0.933434 0.000000 0.000000
    22 0.583510 -1.197277 0.185379 0.631271 -1.323162 -0.918176
    23 1.535927 0.010246 0.005009 0.412032 -0.211024 -1.135295
    24 1.100771 0.004527 -0.010679 -0.011449 0.011491 -0.607431
    25 0.120153 -0.050270 -0.054489 0.287569 3.110905 1.561085
    26 -1.177047 -8.321198 -10.595357 -2.110882 -5.190274 -1.381970
    27 0.096944 -8.450418 -0.009365 0.228644 -0.233703 0.292788
    28 0.447953 -2.798986 -0.200443 -1.072186 -0.126515 -0.047440
    29 -0.032909 -1.480204 0.004940 -1.413633 0.000000 0.000002
    30 -0.027022 -1.076920 -0.020210 -1.481391 0.000000 0.000000
    31 -0.249534 -2.846964 -0.174213 -0.968633 -0.135815 -0.084786
    32 0.043235 -1.683941 0.096012 -1.469776 0.002823 -0.000167
    33 0.031729 -1.160830 0.058838 -1.436444 0.000642 0.008372
    34 -0.963866 -2.785145 -0.085350 -0.957802 -0.035925 -0.239075
    35 0.028479 -1.403067 0.006271 -1.158106 0.000000 0.000000
    36 0.021413 -0.957781 0.020046 -1.216858 0.000000 0.000000
    37 1.164475 -2.543940 -0.170330 -0.843989 -0.306425 0.042666
    38 0.024032 -1.129042 0.017807 -1.199105 0.000000 0.000001
    39 0.014898 -0.883989 -0.019848 -1.052873 0.000000 0.000000
    40 -0.586770 -1.264477 0.200161 -0.330638 -0.882973 -2.453540
    41 1.522835 0.058681 0.016848 -0.037192 -0.131247 0.648988
    42 1.117947 0.048424 -0.005766 -0.016374 -0.019146 0.763684
    43 -0.139399 -0.111698 0.014397 0.285382 -0.030687 1.580508
    44 -1.393470 8.839177 -0.239433 1.580804 -0.005023 -1.566847
  time 16
    0 0.000000 0.000000 -0.105472 0.006963 0.000000 -0.000029
    1 7.744019 5.728283 -6.644898 1.275921 -1.619072 -1.384985
    2 -0.071918 -8.498730 -0.104136 0.233266 0.229959 0.027314
    3 2.109793 -1.987391 1.493082 0.112946 0.226772 3.118949
    4 1.280536 2.248542 0.000000 0.000000 0.000000 0.000000
    5 1.359619 5.354405 0.000000 1.570788 0.000000 0.000000
    6 -0.939453 2.859753 0.345794 -1.570796 -1.570796 0.000000
    7 -0.634839 2.859726 0.493610 -1.570796 -1.422476 0.000000
    8 -0.509714 2.859726 0.496992 -1.570796 -0.930107 -0.000001
    9 1.257180 8.762585 -0.153713 -1.570562 0.002683 -1.566807
    10 -0.488518 -2.755602 -0.228260 -1.085960 -0.191560 -0.439285
    11 0.039887 -1.479790 0.029854 -0.928033 0.000000 0.000001
    12 0.028786 -1.075731 -0.023109 -1.481385 0.000000 0.000000
    13 0.250027 -2.820665 -0.238396 -0.892857 -0.160399 -0.409460
    14 -0.049759 -1.680544 0.100479 -1.289132 0.000000 -0.000002
    15 -0.034142 -1.148312 0.084782 -1.087281 0.000000 0.000000
    16 0.957766 -2.746780 -0.090302 -0.417463 -0.375878 -0.028335
    17 -0.033420 -1.397129 -0.011257 -0.691853 0.124808 -0.122316
    18 -0.022360 -0.957436 0.018784 -0.519754 0.000000 0.000000
    19 -1.180681 -2.507217 -0.193859 -0.873937 -0.068285 -0.359963
    20 -0.024967 -1.123934 0.017597 -1.152494 0.000000 0.000001
    21 -0.020057 -0.890968 0.010090 -0.933434 0.000000 0.000000
    22 0.583510 -1.197277 0.185379 0.631271 -1.323162 -0.918176
    23 1.535927 0.010246 0.005009 0.412032 -0.211024 -1.135295
    24 1.100771 0.004527 -0.010679 -0.011449 0.011491 -0.607431
    25 0.120153 -0.050270 -0.054489 0.287569 3.110905 1.561085
    26 -1.177047 -8.321198 -10.595357 -2.110882 -5.190274 -1.381970
    27 0.096944 -8.450418 -0.009365 0.228644 -0.233703 0.292788
    28 0.447953 -2.798986 -0.200443 -1.072186 -0.126515 -0.047440
    29 -0.032909 -1.480204 0.004940 -1.413633 0.000000 0.000002
    30 -0.027022 -1.076920 -0.020210 -1.481391 0.000000 0.000000
    31 -0.249534 -2.846964 -0.174213 -0.968633 -0.135815 -0.084786
    32 0.043235 -1.683941 0.096012 -1.469776 0.002823 -0.000167
    33 0.031729 -1.160830 0.058838 -1.436444 0.000642 0.008372
    34 -0.963866 -2.785145 -0.085350 -0.957802 -0.035925 -0.239075
    35 0.028479 -1.403067 0.006271 -1.158106 0.000000 0.000000
    36 0.021413 -0.957781 0.020046 -1.216858 0.000000 0.000000
    37 1.164475 -2.543940 -0.170330 -0.843989 -0.306425 0.042666
    38 0.024032 -1.129042 0.017807 -1.199105 0.000000 0.000001
    39 0.014898 -0.883989 -0.019848 -1.052873 0.000000 0.000000
    40 -0.586770 -1.264477 0.200161 -0.330638 -0.882973 -2.453540
    41 1.522835 0.058681 0.016848 -0.037192 -0.131247 0.648988
    42 1.117947 0.048424 -0.005766 -0.016374 -0.019146 0.763684
    43 -0.139399 -0.111698 0.014397 0.285382 -0.030687 1.580508
    44 -1.393470 8.839177 -0.239433 1.580804 -0.005023 -1.566847
  time 17
    0 0.000000 0.000000 -0.109378 0.002792 0.000000 -0.000029
    1 7.744019 5.728283 -6.644898 1.275921 -1.619072 -1.384985
    2 -0.071918 -8.498730 -0.104136 0.233266 0.229959 0.027314
    3 2.109793 -1.987391 1.493082 0.112946 0.226772 3.118949
    4 1.280536 2.248542 0.000000 0.000000 0.000000 0.000000
    5 1.359619 5.354405 0.000000 1.570788 0.000000 0.000000
    6 -0.939453 2.859753 0.345794 -1.570796 -1.570796 0.000000
    7 -0.634839 2.859726 0.493610 -1.570796 -1.422476 0.000000
    8 -0.509714 2.859726 0.496992 -1.570796 -0.930107 -0.000001
    9 1.257180 8.762585 -0.153713 -1.570562 0.002683 -1.566807
    10 -0.488518 -2.755602 -0.228260 -1.085960 -0.191560 -0.439285
    11 0.039887 -1.479790 0.029854 -0.928033 0.000000 0.000001
    12 0.028786 -1.075731 -0.023109 -1.481385 0.000000 0.000000
    13 0.250027 -2.820665 -0.238396 -0.892857 -0.160399 -0.409460
    14 -0.049759 -1.680544 0.100479 -1.289132 0.000000 -0.000002
    15 -0.034142 -1.148312 0.084782 -1.087281 0.000000 0.000000
    16 0.957766 -2.746780 -0.090302 -0.417463 -0.375878 -0.028335
    17 -0.033420 -1.397129 -0.011257 -0.691853 0.124808 -0.122316
    18 -0.022360 -0.957436 0.018784 -0.519754 0.000000 0.000000
    19 -1.180681 -2.507217 -0.193859 -0.873937 -0.068285 -0.359963
    20 -0.024967 -1.123934 0.017597 -1.152494 0.000000 0.000001
    21 -0.020057 -0.890968 0.010090 -0.933434 0.000000 0.000000
    22 0.583510 -1.197277 0.185379 0.631271 -1.323162 -0.918176
    23 1.535927 0.010246 0.005009 0.412032 -0.211024 -1.135295
    24 1.100771 0.004527 -0.010679 -0.011449 0.011491 -0.607431
    25 0.120153 -0.050270 -0.054489 0.287569 3.110905 1.561085
    26 -1.177047 -8.321198 -10.595357 -2.110882 -5.190274 -1.381970
    27 0.096944 -8.450418 -0.009365 0.228644 -0.233703 0.292788
    28 0.447953 -2.798986 -0.200443 -1.072186 -0.126515 -0.047440
    29 -0.032909 -1.480204 0.004940 -1.413633 0.000000 0.000002
    30 -0.027022 -1.076920 -0.020210 -1.481391 0.000000 0.000000
    31 -0.249534 -2.846964 -0.174213 -0.968633 -0.135815 -0.084786
    32 0.043235 -1.683941 0.096012 -1.469776 0.002823 -0.000167
    33 0.031729 -1.160830 0.058838 -1.436444 0.000642 0.008372
    34 -0.963866 -2.785145 -0.085350 -0.957802 -0.035925 -0.239075
    35 0.028479 -1.403067 0.006271 -1.158106 0.000000 0.000000
    36 0.021413 -0.957781 0.020046 -1.216858 0.000000 0.000000
    37 1.164475 -2.543940 -0.170330 -0.843989 -0.306425 0.042666
    38 0.024032 -1.129042 0.017807 -1.199105 0.000000 0.000001
    39 0.014898 -0.883989 -0.019848 -1.052873 0.000000 0.000000
    40 -0.586770 -1.264477 0.200161 -0.330638 -0.882973 -2.453540
    41 1.522835 0.058681 0.016848 -0.037192 -0.131247 0.648988
    42 1.117947 0.048424 -0.005766 -0.016374 -0.019146 0.763684
    43 -0.139399 -0.111698 0.014397 0.285382 -0.030687 1.580508
    44 -1.393470 8.839177 -0.239433 1.580804 -0.005023 -1.566847
  time 18
    0 0.000000 0.000000 -0.105472 -0.000839 0.000000 -0.000029
    1 7.744019 5.728283 -6.644898 1.275921 -1.619072 -1.384985
    2 -0.071918 -8.498730 -0.104136 0.233266 0.229959 0.027314
    3 2.109793 -1.987391 1.493082 0.112946 0.226772 3.118949
    4 1.280536 2.248542 0.000000 0.000000 0.000000 0.000000
    5 1.359619 5.354405 0.000000 1.570788 0.000000 0.000000
    6 -0.939453 2.859753 0.345794 -1.570796 -1.570796 0.000000
    7 -0.634839 2.859726 0.493610 -1.570796 -1.422476 0.000000
    8 -0.509714 2.859726 0.496992 -1.570796 -0.930107 -0.000001
    9 1.257180 8.762585 -0.153713 -1.570562 0.002683 -1.566807
    10 -0.488518 -2.755602 -0.228260 -1.085960 -0.191560 -0.439285
    11 0.039887 -1.479790 0.029854 -0.928033 0.000000 0.000001
    12 0.028786 -1.075731 -0.023109 -1.481385 0.000000 0.000000
    13 0.250027 -2.820665 -0.238396 -0.892857 -0.160399 -0.409460
    14 -0.049759 -1.680544 0.100479 -1.289132 0.000000 -0.000002
    15 -0.034142 -1.148312 0.084782 -1.087281 0.000000 0.000000
    16 0.957766 -2.746780 -0.090302 -0.417463 -0.375878 -0.028335
    17 -0.033420 -1.397129 -0.011257 -0.691853 0.124808 -0.122316
    18 -0.022360 -0.957436 0.018784 -0.519754 0.000000 0.000000
    19 -1.180681 -2.507217 -0.193859 -0.873937 -0.068285 -0.359963
    20 -0.024967 -1.123934 0.017597 -1.152494 0.000000 0.000001
    21 -0.020057 -0.890968 0.010090 -0.933434 0.000000 0.000000
    22 0.583510 -1.197277 0.185379 0.631271 -1.323162 -0.918176
    23 1.535927 0.010246 0.005009 0.412032 -0.211024 -1.135295
    24 1.100771 0.004527 -0.010679 -0.011449 0.011491 -0.607431
    25 0.120153 -0.050270 -0.054489 0.287569 3.110905 1.561085
    26 -1.177047 -8.321198 -10.595357 -2.110882 -5.190274 -1.381970
    27 0.096944 -8.450418 -0.009365 0.228644 -0.233703 0.292788
    28 0.447953 -2.798986 -0.200443 -1.072186 -0.126515 -0.047440
    29 -0.032909 -1.480204 0.004940 -1.413633 0.000000 0.000002
    30 -0.027022 -1.076920 -0.020210 -1.481391 0.000000 0.000000
    31 -0.249534 -2.846964 -0.174213 -0.968633 -0.135815 -0.084786
    32 0.043235 -1.683941 0.096012 -1.469776 0.002823 -0.000167
    33 0.031729 -1.160830 0.058838 -1.436444 0.000642 0.008372
    34 -0.963866 -2.785145 -0.085350 -0.957802 -0.035925 -0.239075
    35 0.028479 -1.403067 0.006271 -1.158106 0.000000 0.000000
    36 0.021413 -0.957781 0.020046 -1.216858 0.000000 0.000000
    37 1.164475 -2.543940 -0.170330 -0.843989 -0.306425 0.042666
    38 0.024032 -1.129042 0.017807 -1.199105 0.000000 0.000001
    39 0.014898 -0.883989 -0.019848 -1.052873 0.000000 0.000000
    40 -0.586770 -1.264477 0.200161 -0.330638 -0.882973 -2.453540
    41 1.522835 0.058681 0.016848 -0.037192 -0.131247 0.648988
    42 1.117947 0.048424 -0.005766 -0.016374 -0.019146 0.763684
    43 -0.139399 -0.111698 0.014397 0.285382 -0.030687 1.580508
    44 -1.393470 8.839177 -0.239433 1.580804 -0.005023 -1.566847
  time 19
    0 0.000000 0.000000 -0.093753 -0.003404 0.000000 -0.000029
    1 7.744019 5.728283 -6.644898 1.275921 -1.619072 -1.384985
    2 -0.071918 -8.498730 -0.104136 0.233266 0.229959 0.027314
    3 2.109793 -1.987391 1.493082 0.112946 0.226772 3.118949
    4 1.280536 2.248542 0.000000 0.000000 0.000000 0.000000
    5 1.359619 5.354405 0.000000 1.570788 0.000000 0.000000
    6 -0.939453 2.859753 0.345794 -1.570796 -1.570796 0.000000
    7 -0.634839 2.859726 0.493610 -1.570796 -1.422476 0.000000
    8 -0.509714 2.859726 0.496992 -1.570796 -0.930107 -0.000001
    9 1.257180 8.762585 -0.153713 -1.570562 0.002683 -1.566807
    10 -0.488518 -2.755602 -0.228260 -1.085960 -0.191560 -0.439285
    11 0.039887 -1.479790 0.029854 -0.928033 0.000000 0.000001
    12 0.028786 -1.075731 -0.023109 -1.481385 0.000000 0.000000
    13 0.250027 -2.820665 -0.238396 -0.892857 -0.160399 -0.409460
    14 -0.049759 -1.680544 0.100479 -1.289132 0.000000 -0.000002
    15 -0.034142 -1.148312 0.084782 -1.087313 0.000000 0.000000
    16 0.957766 -2.746780 -0.090302 -0.417463 -0.375878 -0.028335
    17 -0.033420 -1.397129 -0.011257 -0.691853 0.124808 -0.122316
    18 -0.022360 -0.957436 0.018784 -0.519754 0.000000 0.000000
    19 -1.180681 -2.507217 -0.193859 -0.873937 -0.068285 -0.359963
    20 -0.024967 -1.123934 0.017597 -1.152494 0.000000 0.000001
    21 -0.020057 -0.890968 0.010090 -0.933434 0.000000 0.000000
    22 0.583510 -1.197277 0.185379 0.631271 -1.323162 -0.918176
    23 1.535927 0.010246 0.005009 0.412032 -0.211024 -1.135295
    24 1.100771 0.004527 -0.010679 -0.011449 0.011491 -0.607431
    25 0.120153 -0.050270 -0.054489 0.287569 3.110905 1.561085
    26 -1.177047 -8.321198 -10.595357 -2.110882 -5.190274 -1.381970
    27 0.096944 -8.450418 -0.009365 0.228644 -0.233703 0.292788
    28 0.447953 -2.798986 -0.200443 -1.072186 -0.126515 -0.047440
    29 -0.032909 -1.480204 0.004940 -1.413633 0.000000 0.000002
    30 -0.027022 -1.076920 -0.020210 -1.481391 0.000000 0.000000
    31 -0.249534 -2.846964 -0.174213 -0.968633 -0.135815 -0.084786
    32 0.043235 -1.683941 0.096012 -1.469776 0.002823 -0.000167
    33 0.031729 -1.160830 0.058838 -1.436444 0.000642 0.008372
    34 -0.963866 -2.785145 -0.085350 -0.957802 -0.035925 -0.239075
    35 0.028479 -1.403067 0.006271 -1.158106 0.000000 0.000000
    36 0.021413 -0.957781 0.020046 -1.216858 0.000000 0.000000
    37 1.164475 -2.543940 -0.170330 -0.843989 -0.306425 0.042666
    38 0.024032 -1.129042 0.017807 -1.199105 0.000000 0.000001
    39 0.014898 -0.883989 -0.019848 -1.052873 0.000000 0.000000
    40 -0.586770 -1.264477 0.200161 -0.330638 -0.882973 -2.453540
    41 1.522835 0.058681 0.016848 -0.037192 -0.131247 0.648988
    42 1.117947 0.048424 -0.005766 -0.016374 -0.019146 0.763684
    43 -0.139399 -0.111698 0.014397 0.285382 -0.030687 1.580508
    44 -1.393470 8.839177 -0.239433 1.580804 -0.005023 -1.566847
  time 20
    0 0.000000 0.000000 -0.074221 -0.004386 0.000000 -0.000029
    1 7.744019 5.728283 -6.644898 1.275921 -1.619072 -1.384985
    2 -0.071918 -8.498730 -0.104136 0.233266 0.229959 0.027314
    3 2.109793 -1.987391 1.493082 0.112946 0.226772 3.118949
    4 1.280536 2.248542 0.000000 0.000000 0.000000 0.000000
    5 1.359619 5.354405 0.000000 1.570788 0.000000 0.000000
    6 -0.939453 2.859753 0.345794 -1.570796 -1.570796 0.000000
    7 -0.634839 2.859726 0.493610 -1.570796 -1.422476 0.000000
    8 -0.509714 2.859726 0.496992 -1.570796 -0.930107 -0.000001
    9 1.257180 8.762585 -0.153713 -1.570562 0.002683 -1.566807
    10 -0.488518 -2.755602 -0.228260 -1.085960 -0.191560 -0.439285
    11 0.039887 -1.479790 0.029854 -0.928033 0.000000 0.000001
    12 0.028786 -1.075731 -0.023109 -1.481385 0.000000 0.000000
    13 0.250027 -2.820665 -0.238396 -0.892857 -0.160399 -0.409460
    14 -0.049759 -1.680544 0.100479 -1.289132 0.000000 -0.000002
    15 -0.034142 -1.148312 0.084782 -1.087281 0.000000 0.000000
    16 0.957766 -2.746780 -0.090302 -0.417463 -0.375878 -0.028335
    17 -0.033420 -1.397129 -0.011257 -0.691853 0.124808 -0.122316
    18 -0.022360 -0.957436 0.018784 -0.519754 0.000000 0.000000
    19 -1.180681 -2.507217 -0.193859 -0.873937 -0.068285 -0.359963
    20 -0.024967 -1.123934 0.017597 -1.152494 0.000000 0.000001
    21 -0.020057 -0.890968 0.010090 -0.933434 0.000000 0.000000
    22 0.583510 -1.197277 0.185379 0.631271 -1.323162 -0.918176
    23 1.535927 0.010246 0.005009 0.412032 -0.211024 -1.135295
    24 1.100771 0.004527 -0.010679 -0.011449 0.011491 -0.607431
    25 0.120153 -0.050270 -0.054489 0.287569 3.110905 1.561085
    26 -1.177047 -8.321198 -10.595357 -2.110882 -5.190274 -1.381970
    27 0.096944 -8.450418 -0.009365 0.228644 -0.233703 0.292788
    28 0.447953 -2.798986 -0.200443 -1.072186 -0.126515 -0.047440
    29 -0.032909 -1.480204 0.004940 -1.413633 0.000000 0.000002
    30 -0.027022 -1.076920 -0.020210 -1.481391 0.000000 0.000000
    31 -0.249534 -2.846964 -0.174213 -0.968633 -0.135815 -0.084786
    32 0.043235 -1.683941 0.096012 -1.469776 0.002823 -0.000167
    33 0.031729 -1.160830 0.058838 -1.436444 0.000642 0.008372
    34 -0.963866 -2.785145 -0.085350 -0.957802 -0.035925 -0.239075
    35 0.028479 -1.403067 0.006271 -1.158106 0.000000 0.000000
    36 0.021413 -0.957781 0.020046 -1.216858 0.000000 0.000000
    37 1.164475 -2.543940 -0.170330 -0.843989 -0.306425 0.042666
    38 0.024032 -1.129042 0.017807 -1.199105 0.000000 0.000001
    39 0.014898 -0.883989 -0.019848 -1.052873 0.000000 0.000000
    40 -0.586770 -1.264477 0.200161 -0.330638 -0.882973 -2.453540
    41 1.522835 0.058681 0.016848 -0.037192 -0.131247 0.648988
    42 1.117947 0.048424 -0.005766 -0.016374 -0.019146 0.763684
    43 -0.139399 -0.111698 0.014397 0.285382 -0.030687 1.580508
    44 -1.393470 8.839177 -0.239433 1.580804 -0.005023 -1.566847
  time 21
    0 0.000000 0.000000 -0.054689 -0.003931 0.000000 -0.000029
    1 7.744019 5.728283 -6.644898 1.275921 -1.619072 -1.384985
    2 -0.071918 -8.498730 -0.104136 0.233266 0.229959 0.027314
    3 2.109793 -1.987391 1.493082 0.112946 0.226772 3.118949
    4 1.280536 2.248542 0.000000 0.000000 0.000000 0.000000
    5 1.359619 5.354405 0.000000 1.570788 0.000000 0.000000
    6 -0.939453 2.859753 0.345794 -1.570796 -1.570796 0.000000
    7 -0.634839 2.859726 0.493610 -1.570796 -1.422476 0.000000
    8 -0.509714 2.859726 0.496992 -1.570796 -0.930107 -0.000001
    9 1.257180 8.762585 -0.153713 -1.570562 0.002683 -1.566807
    10 -0.488518 -2.755602 -0.228260 -1.085960 -0.191560 -0.439285
    11 0.039887 -1.479790 0.029854 -0.928033 0.000000 0.000001
    12 0.028786 -1.075731 -0.023109 -1.481385 0.000000 0.000000
    13 0.250027 -2.820665 -0.238396 -0.892857 -0.160399 -0.409460
    14 -0.049759 -1.680544 0.100479 -1.289132 0.000000 -0.000002
    15 -0.034142 -1.148312 0.084782 -1.087281 0.000000 0.000000
    16 0.957766 -2.746780 -0.090302 -0.417463 -0.375878 -0.028335
    17 -0.033420 -1.397129 -0.011257 -0.691853 0.124808 -0.122316
    18 -0.022360 -0.957436 0.018784 -0.519754 0.000000 0.000000
    19 -1.180681 -2.507217 -0.193859 -0.873937 -0.068285 -0.359963
    20 -0.024967 -1.123934 0.017597 -1.152494 0.000000 0.000001
    21 -0.020057 -0.890968 0.010090 -0.933434 0.000000 0.000000
    22 0.583510 -1.197277 0.185379 0.631271 -1.323162 -0.918176
    23 1.535927 0.010246 0.005009 0.412032 -0.211024 -1.135295
    24 1.100771 0.004527 -0.010679 -0.011449 0.011491 -0.607431
    25 0.120153 -0.050270 -0.054489 0.287569 3.110905 1.561085
    26 -1.177047 -8.321198 -10.595357 -2.110882 -5.190274 -1.381970
    27 0.096944 -8.450418 -0.009365 0.228644 -0.233703 0.292788
    28 0.447953 -2.798986 -0.200443 -1.072186 -0.126515 -0.047440
    29 -0.032909 -1.480204 0.004940 -1.413633 0.000000 0.000002
    30 -0.027022 -1.076920 -0.020210 -1.481391 0.000000 0.000000
    31 -0.249534 -2.846964 -0.174213 -0.968633 -0.135815 -0.084786
    32 0.043235 -1.683941 0.096012 -1.469776 0.002823 -0.000167
    33 0.031729 -1.160830 0.058838 -1.436444 0.000642 0.008372
    34 -0.963866 -2.785145 -0.085350 -0.957802 -0.035925 -0.239075
    35 0.028479 -1.403067 0.006271 -1.158106 0.000000 0.000000
    36 0.021413 -0.957781 0.020046 -1.216858 0.000000 0.000000
    37 1.164475 -2.543940 -0.170330 -0.843989 -0.306425 0.042666
    38 0.024032 -1.129042 0.017807 -1.199105 0.000000 0.000001
    39 0.014898 -0.883989 -0.019848 -1.052873 0.000000 0.000000
    40 -0.586770 -1.264477 0.200161 -0.330638 -0.882973 -2.453540
    41 1.522835 0.058681 0.016848 -0.037192 -0.131247 0.648988
    42 1.117947 0.048424 -0.005766 -0.016374 -0.019146 0.763684
    43 -0.139399 -0.111698 0.014397 0.285382 -0.030687 1.580508
    44 -1.393470 8.839177 -0.239433 1.580804 -0.005023 -1.566847
  time 22
    0 0.000000 0.000000 -0.035157 -0.002840 0.000000 -0.000029
    1 7.744019 5.728283 -6.644898 1.275921 -1.619072 -1.384985
    2 -0.071918 -8.498730 -0.104136 0.233266 0.229959 0.027314
    3 2.109793 -1.987391 1.493082 0.112946 0.226772 3.118949
    4 1.280536 2.248542 0.000000 0.000000 0.000000 0.000000
    5 1.359619 5.354405 0.000000 1.570788 0.000000 0.000000
    6 -0.939453 2.859753 0.345794 -1.570796 -1.570796 0.000000
    7 -0.634839 2.859726 0.493610 -1.570796 -1.422476 0.000000
    8 -0.509714 2.859726 0.496992 -1.570796 -0.930107 -0.000001
    9 1.257180 8.762585 -0.153713 -1.570562 0.002683 -1.566807
    10 -0.488518 -2.755602 -0.228260 -1.085960 -0.191560 -0.439285
    11 0.039887 -1.479790 0.029854 -0.928033 0.000000 0.000001
    12 0.028786 -1.075731 -0.023109 -1.481385 0.000000 0.000000
    13 0.250027 -2.820665 -0.238396 -0.892857 -0.160399 -0.409460
    14 -0.049759 -1.680544 0.100479 -1.289132 0.000000 -0.000002
    15 -0.034142 -1.148312 0.084782 -1.087281 0.000000 0.000000
    16 0.957766 -2.746780 -0.090302 -0.417463 -0.375878 -0.028335
    17 -0.033420 -1.397129 -0.011257 -0.691853 0.124808 -0.122316
    18 -0.022360 -0.957436 0.018784 -0.519754 0.000000 0.000000
    19 -1.180681 -2.507217 -0.193859 -0.873937 -0.068285 -0.359963
    20 -0.024967 -1.123934 0.017597 -1.152494 0.000000 0.000001
    21 -0.020057 -0.890968 0.010090 -0.933434 0.000000 0.000000
    22 0.583510 -1.197277 0.185379 0.631271 -1.323162 -0.918176
    23 1.535927 0.010246 0.005009 0.412032 -0.211024 -1.135295
    24 1.100771 0.004527 -0.010679 -0.011449 0.011491 -0.607431
    25 0.120153 -0.050270 -0.054489 0.287569 3.110905 1.561085
    26 -1.177047 -8.321198 -10.595357 -2.110882 -5.190274 -1.381970
    27 0.096944 -8.450418 -0.009365 0.228644 -0.233703 0.292788
    28 0.447953 -2.798986 -0.200443 -1.072186 -0.126515 -0.047440
    29 -0.032909 -1.480204 0.004940 -1.413633 0.000000 0.000002
    30 -0.027022 -1.076920 -0.020210 -1.481391 0.000000 0.000000
    31 -0.249534 -2.846964 -0.174213 -0.968633 -0.135815 -0.084786
    32 0.043235 -1.683941 0.096012 -1.469776 0.002823 -0.000167
    33 0.031729 -1.160830 0.058838 -1.436444 0.000642 0.008372
    34 -0.963866 -2.785145 -0.085350 -0.957802 -0.035925 -0.239075
    35 0.028479 -1.403067 0.006271 -1.158106 0.000000 0.000000
    36 0.021413 -0.957781 0.020046 -1.216858 0.000000 0.000000
    37 1.164475 -2.543940 -0.170330 -0.843989 -0.306425 0.042666
    38 0.024032 -1.129042 0.017807 -1.199105 0.000000 0.000001
    39 0.014898 -0.883989 -0.019848 -1.052873 0.000000 0.000000
    40 -0.586770 -1.264477 0.200161 -0.330638 -0.882973 -2.453540
    41 1.522835 0.058681 0.016848 -0.037192 -0.131247 0.648988
    42 1.117947 0.048424 -0.005766 -0.016374 -0.019146 0.763684
    43 -0.139399 -0.111698 0.014397 0.285382 -0.030687 1.580508
    44 -1.393470 8.839177 -0.239433 1.580804 -0.005023 -1.566847
  time 23
    0 0.000000 0.000000 -0.015625 -0.001534 0.000000 -0.000029
    1 7.744019 5.728283 -6.644898 1.275921 -1.619072 -1.384985
    2 -0.071918 -8.498730 -0.104136 0.233266 0.229959 0.027314
    3 2.109793 -1.987391 1.493082 0.112946 0.226772 3.118949
    4 1.280536 2.248542 0.000000 0.000000 0.000000 0.000000
    5 1.359619 5.354405 0.000000 1.570788 0.000000 0.000000
    6 -0.939453 2.859753 0.345794 -1.570796 -1.570796 0.000000
    7 -0.634839 2.859726 0.493610 -1.570796 -1.422476 0.000000
    8 -0.509714 2.859726 0.496992 -1.570796 -0.930107 -0.000001
    9 1.257180 8.762585 -0.153713 -1.570562 0.002683 -1.566807
    10 -0.488518 -2.755602 -0.228260 -1.085960 -0.191560 -0.439285
    11 0.039887 -1.479790 0.029854 -0.928033 0.000000 0.000001
    12 0.028786 -1.075731 -0.023109 -1.481385 0.000000 0.000000
    13 0.250027 -2.820665 -0.238396 -0.892857 -0.160399 -0.409460
    14 -0.049759 -1.680544 0.100479 -1.289132 0.000000 -0.000002
    15 -0.034142 -1.148312 0.084782 -1.087281 0.000000 0.000000
    16 0.957766 -2.746780 -0.090302 -0.417463 -0.375878 -0.028335
    17 -0.033420 -1.397129 -0.011257 -0.691853 0.124808 -0.122316
    18 -0.022360 -0.957436 0.018784 -0.519754 0.000000 0.000000
    19 -1.180681 -2.507217 -0.193859 -0.873937 -0.068285 -0.359963
    20 -0.024967 -1.123934 0.017597 -1.152494 0.000000 0.000001
    21 -0.020057 -0.890968 0.010090 -0.933434 0.000000 0.000000
    22 0.583510 -1.197277 0.185379 0.631271 -1.323162 -0.918176
    23 1.535927 0.010246 0.005009 0.412032 -0.211024 -1.135295
    24 1.100771 0.004527 -0.010679 -0.011449 0.011491 -0.607431
    25 0.120153 -0.050270 -0.054489 0.287569 3.110905 1.561085
    26 -1.177047 -8.321198 -10.595357 -2.110882 -5.190274 -1.381970
    27 0.096944 -8.450418 -0.009365 0.228644 -0.233703 0.292788
    28 0.447953 -2.798986 -0.200443 -1.072186 -0.126515 -0.047440
    29 -0.032909 -1.480204 0.004940 -1.413633 0.000000 0.000002
    30 -0.027022 -1.076920 -0.020210 -1.481391 0.000000 0.000000
    31 -0.249534 -2.846964 -0.174213 -0.968633 -0.135815 -0.084786
    32 0.043235 -1.683941 0.096012 -1.469776 0.002823 -0.000167
    33 0.031729 -1.160830 0.058838 -1.436444 0.000642 0.008372
    34 -0.963866 -2.785145 -0.085350 -0.957802 -0.035925 -0.239075
    35 0.028479 -1.403067 0.006271 -1.158106 0.000000 0.000000
    36 0.021413 -0.957781 0.020046 -1.216858 0.000000 0.000000
    37 1.164475 -2.543940 -0.170330 -0.843989 -0.306425 0.042666
    38 0.024032 -1.129042 0.017807 -1.199105 0.000000 0.000001
    39 0.014898 -0.883989 -0.019848 -1.052873 0.000000 0.000000
    40 -0.586770 -1.264477 0.200161 -0.330638 -0.882973 -2.453540
    41 1.522835 0.058681 0.016848 -0.037192 -0.131247 0.648988
    42 1.117947 0.048424 -0.005766 -0.016374 -0.019146 0.763684
    43 -0.139399 -0.111698 0.014397 0.285382 -0.030687 1.580508
    44 -1.393470 8.839177 -0.239433 1.580804 -0.005023 -1.566847
  time 24
    0 0.000000 0.000000 -0.003906 -0.000455 0.000000 -0.000029
    1 7.744019 5.728283 -6.644898 1.275921 -1.619072 -1.384985
    2 -0.071918 -8.498730 -0.104136 0.233266 0.229959 0.027314
    3 2.109793 -1.987391 1.493082 0.112946 0.226772 3.118949
    4 1.280536 2.248542 0.000000 0.000000 0.000000 0.000000
    5 1.359619 5.354405 0.000000 1.570788 0.000000 0.000000
    6 -0.939453 2.859753 0.345794 -1.570796 -1.570796 0.000000
    7 -0.634839 2.859726 0.493610 -1.570796 -1.422476 0.000000
    8 -0.509714 2.859726 0.496992 -1.570796 -0.930107 -0.000001
    9 1.257180 8.762585 -0.153713 -1.570562 0.002683 -1.566807
    10 -0.488518 -2.755602 -0.228260 -1.085960 -0.191560 -0.439285
    11 0.039887 -1.479790 0.029854 -0.928033 0.000000 0.000001
    12 0.028786 -1.075731 -0.023109 -1.481385 0.000000 0.000000
    13 0.250027 -2.820665 -0.238396 -0.892857 -0.160399 -0.409460
    14 -0.049759 -1.680544 0.100479 -1.289132 0.000000 -0.000002
    15 -0.034142 -1.148312 0.084782 -1.087281 0.000000 0.000000
    16 0.957766 -2.746780 -0.090302 -0.417463 -0.375878 -0.028335
    17 -0.033420 -1.397129 -0.011257 -0.691853 0.124808 -0.122316
    18 -0.022360 -0.957436 0.018784 -0.519754 0.000000 0.000000
    19 -1.180681 -2.507217 -0.193859 -0.873937 -0.068285 -0.359963
    20 -0.024967 -1.123934 0.017597 -1.152494 0.000000 0.000001
    21 -0.020057 -0.890968 0.010090 -0.933434 0.000000 0.000000
    22 0.583510 -1.197277 0.185379 0.631271 -1.323162 -0.918176
    23 1.535927 0.010246 0.005009 0.412032 -0.211024 -1.135295
    24 1.100771 0.004527 -0.010679 -0.011449 0.011491 -0.607431
    25 0.120153 -0.050270 -0.054489 0.287569 3.110905 1.561085
    26 -1.177047 -8.321198 -10.595357 -2.110882 -5.190274 -1.381970
    27 0.096944 -8.450418 -0.009365 0.228644 -0.233703 0.292788
    28 0.447953 -2.798986 -0.200443 -1.072186 -0.126515 -0.047440
    29 -0.032909 -1.480204 0.004940 -1.413633 0.000000 0.000002
    30 -0.027022 -1.076920 -0.020210 -1.481391 0.000000 0.000000
    31 -0.249534 -2.846964 -0.174213 -0.968633 -0.135815 -0.084786
    32 0.043235 -1.683941 0.096012 -1.469776 0.002823 -0.000167
    33 0.031729 -1.160830 0.058838 -1.436444 0.000642 0.008372
    34 -0.963866 -2.785145 -0.085350 -0.957802 -0.035925 -0.239075
    35 0.028479 -1.403067 0.006271 -1.158106 0.000000 0.000000
    36 0.021413 -0.957781 0.020046 -1.216858 0.000000 0.000000
    37 1.164475 -2.543940 -0.170330 -0.843989 -0.306425 0.042666
    38 0.024032 -1.129042 0.017807 -1.199105 0.000000 0.000001
    39 0.014898 -0.883989 -0.019848 -1.052873 0.000000 0.000000
    40 -0.586770 -1.264477 0.200161 -0.330638 -0.882973 -2.453540
    41 1.522835 0.058681 0.016848 -0.037192 -0.131247 0.648988
    42 1.117947 0.048424 -0.005766 -0.016374 -0.019146 0.763684
    43 -0.139399 -0.111698 0.014397 0.285382 -0.030687 1.580508
    44 -1.393470 8.839177 -0.239433 1.580804 -0.005023 -1.566847
  time 25
    0 0.000000 0.000000 0.000000 0.000000 0.000000 -0.000029
    1 7.744019 5.728283 -6.644898 1.275921 -1.619072 -1.384985
    2 -0.071918 -8.498730 -0.104136 0.233266 0.229959 0.027314
    3 2.109793 -1.987391 1.493082 0.112946 0.226772 3.118949
    4 1.280536 2.248542 0.000000 0.000000 0.000000 0.000000
    5 1.359619 5.354405 0.000000 1.570788 0.000000 0.000000
    6 -0.939453 2.859753 0.345794 -1.570796 -1.570796 0.000000
    7 -0.634839 2.859726 0.493610 -1.570796 -1.422476 0.000000
    8 -0.509714 2.859726 0.496992 -1.570796 -0.930107 -0.000001
    9 1.257180 8.762585 -0.153713 -1.570562 0.002683 -1.566807
    10 -0.488518 -2.755602 -0.228260 -1.085960 -0.191560 -0.439285
    11 0.039887 -1.479790 0.029854 -0.928033 0.000000 0.000001
    12 0.028786 -1.075731 -0.023109 -1.481385 0.000000 0.000000
    13 0.250027 -2.820665 -0.238396 -0.892857 -0.160399 -0.409460
    14 -0.049759 -1.680544 0.100479 -1.289132 0.000000 -0.000002
    15 -0.034142 -1.148312 0.084782 -1.087281 0.000000 0.000000
    16 0.957766 -2.746780 -0.090302 -0.417463 -0.375878 -0.028335
    17 -0.033420 -1.397129 -0.011257 -0.691853 0.124808 -0.122316
    18 -0.022360 -0.957436 0.018784 -0.519754 0.000000 0.000000
    19 -1.180681 -2.507217 -0.193859 -0.873937 -0.068285 -0.359963
    20 -0.024967 -1.123934 0.017597 -1.152494 0.000000 0.000001
    21 -0.020057 -0.890968 0.010090 -0.933434 0.000000 0.000000
    22 0.583510 -1.197277 0.185379 0.631271 -1.323162 -0.918176
    23 1.535927 0.010246 0.005009 0.412032 -0.211024 -1.135295
    24 1.100771 0.004527 -0.010679 -0.011449 0.011491 -0.607431
    25 0.120153 -0.050270 -0.054489 0.287569 3.110905 1.561085
    26 -1.177047 -8.321198 -10.595357 -2.110882 -5.190274 -1.381970
    27 0.096944 -8.450418 -0.009365 0.228644 -0.233703 0.292788
    28 0.447953 -2.798986 -0.200443 -1.072186 -0.126515 -0.047440
    29 -0.032909 -1.480204 0.004940 -1.413633 0.000000 0.000002
    30 -0.027022 -1.076920 -0.020210 -1.481391 0.000000 0.000000
    31 -0.249534 -2.846964 -0.174213 -0.968633 -0.135815 -0.084786
    32 0.043235 -1.683941 0.096012 -1.469776 0.002823 -0.000167
    33 0.031729 -1.160830 0.058838 -1.436444 0.000642 0.008372
    34 -0.963866 -2.785145 -0.085350 -0.957802 -0.035925 -0.239075
    35 0.028479 -1.403067 0.006271 -1.158106 0.000000 0.000000
    36 0.021413 -0.957781 0.020046 -1.216858 0.000000 0.000000
    37 1.164475 -2.543940 -0.170330 -0.843989 -0.306425 0.042666
    38 0.024032 -1.129042 0.017807 -1.199105 0.000000 0.000001
    39 0.014898 -0.883989 -0.019848 -1.052873 0.000000 0.000000
    40 -0.586770 -1.264477 0.200161 -0.330638 -0.882973 -2.453540
    41 1.522835 0.058681 0.016848 -0.037192 -0.131247 0.648988
    42 1.117947 0.048424 -0.005766 -0.016374 -0.019146 0.763684
    43 -0.139399 -0.111698 0.014397 0.285382 -0.030687 1.580508
    44 -1.393470 8.839177 -0.239433 1.580804 -0.005023 -1.566847
end
