// Created by Crowbar 0.68

$modelname "weapons/tfa_cso/w_m2desert.mdl"

$bodygroup "studio"
{
	studio "w_m2desert"
}

$collisionmodel "w_m2desert.smd"
{
	$mass 9
}

$cdmaterials "models/weapons/tfa_cso/m2desert"

$attachment "0" "root" -0.80 -42.00 -1.10 rotate -0 -90 0

$sequence "idle" {
	"anims\idle"
	fps 30
}
