// Created by Crowbar 0.68

$modelname "ef_soulreaper_shoot_c02.mdl"
$cd "."
$cdtexture "."
$cliptotextures
$scale 1.0

$bodygroup "studio"
{
	studio "ef_soulreaper_shootC02"
}

$flags 0


$cbox 0 0 0 0 0 0

$bbox 0 0 0 0 0 0

$hbox 0 "Cylinder013" -24.610001 -24.469999 -27.110001 24.610001 23.5 0

$sequence "idle" {
	"ef_soulreaper_shoot_c02_anims\idle"
	fps 30
}
