version 1
nodes
  0 "root" -1
  1 "Bone01" 0
  2 "Bone_Lefthand" 1
  3 "Bone02" 2
  4 "Dummy01" 3
  5 "Bone08" 4
  6 "Dummy02" 3
  7 "Bone26" 6
  8 "Bone16" 3
  9 "Bone34" 3
  10 "Bone24" 3
  11 "Bone_L_Upper" 1
  12 "Bone13" 2
  13 "Bone14" 12
  14 "Bone15" 13
  15 "Bone17" 2
  16 "Bone18" 15
  17 "Bone19" 16
  18 "Bone21" 2
  19 "Bone22" 18
  20 "Bone23" 19
  21 "Bone09" 2
  22 "Bone10" 21
  23 "Bone11" 22
  24 "Bone05" 2
  25 "Bone06" 24
  26 "Bone07" 25
  27 "Bone_Se_Hand-L" 2
  28 "Bone04" 0
  29 "Bone_Righthand" 28
  30 "Bone39" 29
  31 "Bone40" 30
  32 "Bone41" 31
  33 "Bone35" 29
  34 "Bone36" 33
  35 "Bone37" 34
  36 "Bone31" 29
  37 "Bone32" 36
  38 "Bone33" 37
  39 "Bone43" 29
  40 "Bone44" 39
  41 "Bone45" 40
  42 "Bone27" 29
  43 "Bone28" 42
  44 "Bone29" 43
  45 "Bone_Se_Hand-R" 29
  46 "Bone_R_Upper" 28
end
skeleton
  time 0
    0 -0.349399 1.166145 0.203512 0.000000 0.000000 0.000000
    1 6.335129 4.733953 -6.895562 -0.452878 -0.968872 0.207118
    2 -0.071918 -8.498730 -0.104136 0.407160 0.227855 -0.253924
    3 2.672261 -3.383448 0.696208 0.083503 0.128137 -1.585662
    4 8.674173 -0.128572 0.000000 0.000000 0.000000 0.000000
    5 0.000000 0.000000 0.000000 0.000000 0.000000 0.000000
    6 4.045845 -0.586976 0.000000 0.000000 0.000000 0.000000
    7 9.000275 -12.418348 -0.496109 -0.250598 0.033233 0.195807
    8 1.039971 -0.940679 0.000000 0.000000 0.000000 -1.570796
    9 4.782106 0.485510 0.407405 0.000000 0.000000 -1.570796
    10 5.548040 -0.183522 0.000000 1.570796 -1.570796 0.000000
    11 1.257180 8.762585 -0.153713 -1.570562 0.002683 -1.566807
    12 -0.488518 -2.755602 -0.228260 -0.518305 -0.074854 -0.310571
    13 0.039887 -1.479790 0.029854 -2.289231 0.000000 0.000001
    14 0.028786 -1.075731 -0.023109 -0.271941 0.000000 0.000000
    15 0.250027 -2.820665 -0.238396 -0.350825 -0.052441 -0.187301
    16 -0.049759 -1.680544 0.100479 -2.246572 0.000000 -0.000002
    17 -0.034142 -1.148312 0.084782 -0.535851 0.000000 0.000000
    18 0.957766 -2.746780 -0.090302 0.329289 -0.172344 0.119866
    19 -0.033420 -1.397129 -0.011257 -1.115580 0.000000 -0.000001
    20 -0.022360 -0.957436 0.018784 -1.148807 0.000000 0.000000
    21 -1.180681 -2.507217 -0.193859 -0.309305 0.033033 -0.314313
    22 -0.024967 -1.123934 0.017597 -2.040737 0.000000 0.000001
    23 -0.020057 -0.890968 0.010090 -0.646720 0.000000 0.000000
    24 0.583510 -1.197277 0.185379 0.371183 -0.693166 -0.903076
    25 1.535927 0.010246 0.005009 -0.002964 -0.012979 -0.682290
    26 1.100771 0.004527 -0.010679 -0.016147 -0.001453 -1.484153
    27 0.120153 -0.050270 -0.054489 0.287569 3.110905 1.561085
    28 -10.099194 -11.438480 -23.861386 0.414429 -2.878568 0.925469
    29 0.096944 -8.450418 -0.009365 0.075476 -1.267968 0.356845
    30 0.447953 -2.798986 -0.200443 -0.989815 0.042804 0.170619
    31 -0.032909 -1.480204 0.004940 -1.707946 0.000000 0.000002
    32 -0.027022 -1.076920 -0.020210 -0.612649 0.000000 0.000000
    33 -0.249534 -2.846964 -0.174213 -0.703763 0.002631 0.073866
    34 0.043235 -1.683941 0.096012 -1.758811 0.002823 -0.000167
    35 0.031729 -1.160830 0.058838 -0.802576 0.000642 0.008372
    36 -0.963866 -2.785145 -0.085350 -0.357782 0.070929 0.053157
    37 0.028479 -1.403067 0.006271 -1.767737 0.000000 0.000000
    38 0.021413 -0.957781 0.020046 -0.565397 0.000000 0.000000
    39 1.164475 -2.543940 -0.170330 -1.204006 -0.015463 0.162804
    40 0.024032 -1.129042 0.017807 -1.786702 0.000000 0.000001
    41 0.014898 -0.883989 -0.019848 -0.631202 0.000000 0.000000
    42 -0.586770 -1.264477 0.200161 -0.016715 -0.537524 -2.326427
    43 1.522835 0.058681 0.016848 0.001410 0.008985 0.226666
    44 1.117947 0.048424 -0.005766 -0.002568 -0.011344 -0.058244
    45 -0.139399 -0.111698 0.014397 0.774181 0.191172 1.472862
    46 -6.260806 6.983652 -0.294122 1.580804 -0.005023 -0.912799
  time 1
    0 -0.349399 1.166145 0.203512 0.000000 0.000000 0.000000
    1 6.303878 4.761297 -6.813528 -0.453544 -0.972397 0.208394
    2 -0.071918 -8.498730 -0.104136 0.407160 0.227855 -0.253924
    3 2.672261 -3.383448 0.696208 0.083503 0.128137 -1.585662
    4 8.674173 -0.128572 0.000000 0.000000 0.000000 0.000000
    5 0.000000 0.000000 0.000000 0.000000 0.000000 0.000000
    6 4.045845 -0.586976 0.000000 0.000000 0.000000 0.000000
    7 -0.753929 -4.199347 -0.527360 -0.254900 -0.096009 -0.115641
    8 1.039971 -0.940679 0.000000 0.000000 0.000000 -1.570796
    9 4.782106 0.485510 0.407405 0.000000 0.000000 -1.570796
    10 5.548040 -0.183522 0.000000 1.570796 -1.570796 0.000000
    11 1.257180 8.762585 -0.153713 -1.570562 0.002683 -1.566807
    12 -0.488518 -2.755602 -0.228260 -0.518305 -0.074854 -0.310571
    13 0.039887 -1.479790 0.029854 -2.289231 0.000000 0.000001
    14 0.028786 -1.075731 -0.023109 -0.271941 0.000000 0.000000
    15 0.250027 -2.820665 -0.238396 -0.350825 -0.052441 -0.187301
    16 -0.049759 -1.680544 0.100479 -2.246572 0.000000 -0.000002
    17 -0.034142 -1.148312 0.084782 -0.535851 0.000000 0.000000
    18 0.957766 -2.746780 -0.090302 0.329289 -0.172344 0.119866
    19 -0.033420 -1.397129 -0.011257 -1.115580 0.000000 -0.000001
    20 -0.022360 -0.957436 0.018784 -1.148807 0.000000 0.000000
    21 -1.180681 -2.507217 -0.193859 -0.309305 0.033033 -0.314313
    22 -0.024967 -1.123934 0.017597 -2.040737 0.000000 0.000001
    23 -0.020057 -0.890968 0.010090 -0.646720 0.000000 0.000000
    24 0.583510 -1.197277 0.185379 0.371183 -0.693166 -0.903076
    25 1.535927 0.010246 0.005009 -0.002964 -0.012979 -0.682290
    26 1.100771 0.004527 -0.010679 -0.016147 -0.001453 -1.484153
    27 0.120153 -0.050270 -0.054489 0.287569 3.110905 1.561085
    28 -5.938911 -4.301544 -14.294688 0.414429 -2.878568 0.925469
    29 0.096944 -8.450418 -0.009365 0.216459 -1.227635 0.204793
    30 0.447953 -2.798986 -0.200443 -0.989815 0.042804 0.170619
    31 -0.032909 -1.480204 0.004940 -1.707946 0.000000 0.000002
    32 -0.027022 -1.076920 -0.020210 -0.612649 0.000000 0.000000
    33 -0.249534 -2.846964 -0.174213 -0.703763 0.002631 0.073866
    34 0.043235 -1.683941 0.096012 -1.758811 0.002823 -0.000167
    35 0.031729 -1.160830 0.058838 -0.802576 0.000642 0.008372
    36 -0.963866 -2.785145 -0.085350 -0.357782 0.070929 0.053157
    37 0.028479 -1.403067 0.006271 -1.767737 0.000000 0.000000
    38 0.021413 -0.957781 0.020046 -0.565397 0.000000 0.000000
    39 1.164475 -2.543940 -0.170330 -1.204006 -0.015463 0.162804
    40 0.024032 -1.129042 0.017807 -1.786702 0.000000 0.000001
    41 0.014898 -0.883989 -0.019848 -0.631202 0.000000 0.000000
    42 -0.586770 -1.264477 0.200161 -0.009075 -0.536579 -2.341526
    43 1.522835 0.058681 0.016848 0.001410 0.008985 0.218094
    44 1.117947 0.048424 -0.005766 -0.002568 -0.011344 -0.058244
    45 -0.139399 -0.111698 0.014397 0.774181 0.191172 1.472862
    46 -6.260806 6.983652 -0.294122 1.580804 -0.005023 -0.912799
  time 2
    0 -0.349399 1.166145 0.203512 0.000000 0.000000 0.000000
    1 6.280439 4.769110 -6.731495 -0.456461 -0.980130 0.211882
    2 -0.071918 -8.498730 -0.104136 0.407160 0.227855 -0.253924
    3 2.672261 -3.383448 0.696208 0.083503 0.128137 -1.585662
    4 8.674173 -0.128572 0.000000 0.000000 0.000000 0.000000
    5 0.000000 0.000000 0.000000 0.000000 0.000000 0.000000
    6 4.045845 -0.586976 0.000000 0.000000 0.000000 0.000000
    7 -1.921934 -2.347728 -0.480483 -0.263050 -0.133400 0.078681
    8 1.039971 -0.940679 0.000000 0.000000 0.000000 -1.570796
    9 4.782106 0.485510 0.407405 0.000000 0.000000 -1.570796
    10 5.548040 -0.183522 0.000000 1.570796 -1.570796 0.000000
    11 1.257180 8.762585 -0.153713 -1.570562 0.002683 -1.566807
    12 -0.488518 -2.755602 -0.228260 -0.518305 -0.074854 -0.310571
    13 0.039887 -1.479790 0.029854 -2.289231 0.000000 0.000001
    14 0.028786 -1.075731 -0.023109 -0.271941 0.000000 0.000000
    15 0.250027 -2.820665 -0.238396 -0.350825 -0.052441 -0.187301
    16 -0.049759 -1.680544 0.100479 -2.246572 0.000000 -0.000002
    17 -0.034142 -1.148312 0.084782 -0.535851 0.000000 0.000000
    18 0.957766 -2.746780 -0.090302 0.329289 -0.172344 0.119866
    19 -0.033420 -1.397129 -0.011257 -1.115580 0.000000 -0.000001
    20 -0.022360 -0.957436 0.018784 -1.148807 0.000000 0.000000
    21 -1.180681 -2.507217 -0.193859 -0.309305 0.033033 -0.314313
    22 -0.024967 -1.123934 0.017597 -2.040737 0.000000 0.000001
    23 -0.020057 -0.890968 0.010090 -0.646720 0.000000 0.000000
    24 0.583510 -1.197277 0.185379 0.371183 -0.693166 -0.903076
    25 1.535927 0.010246 0.005009 -0.002964 -0.012979 -0.682290
    26 1.100771 0.004527 -0.010679 -0.016147 -0.001453 -1.484153
    27 0.120153 -0.050270 -0.054489 0.287569 3.110905 1.561085
    28 -4.915442 -4.266387 -12.579792 0.414295 -2.879302 0.925755
    29 0.096944 -8.450418 -0.009365 0.526602 -1.138874 -0.129684
    30 0.447953 -2.798986 -0.200443 -0.989815 0.042804 0.170619
    31 -0.032909 -1.480204 0.004940 -1.707946 0.000000 0.000002
    32 -0.027022 -1.076920 -0.020210 -0.612649 0.000000 0.000000
    33 -0.249534 -2.846964 -0.174213 -0.703763 0.002631 0.073866
    34 0.043235 -1.683941 0.096012 -1.758811 0.002823 -0.000167
    35 0.031729 -1.160830 0.058838 -0.802576 0.000642 0.008372
    36 -0.963866 -2.785145 -0.085350 -0.357782 0.070929 0.053157
    37 0.028479 -1.403067 0.006271 -1.767737 0.000000 0.000000
    38 0.021413 -0.957781 0.020046 -0.565397 0.000000 0.000000
    39 1.164475 -2.543940 -0.170330 -1.204006 -0.015463 0.162804
    40 0.024032 -1.129042 0.017807 -1.786702 0.000000 0.000001
    41 0.014898 -0.883989 -0.019848 -0.631202 0.000000 0.000000
    42 -0.586770 -1.264477 0.200161 0.011069 -0.534070 -2.381292
    43 1.522835 0.058681 0.016848 0.001410 0.008985 0.195533
    44 1.117947 0.048424 -0.005766 -0.002568 -0.011344 -0.058244
    45 -0.139399 -0.111698 0.014397 0.774181 0.191172 1.472862
    46 -6.260806 6.983652 -0.294122 1.580804 -0.005023 -0.912799
  time 3
    0 -0.349399 1.166145 0.203512 0.000000 0.000000 0.000000
    1 6.257001 4.757391 -6.672899 -0.459627 -0.984986 0.215456
    2 -0.071918 -8.498730 -0.104136 0.407160 0.227855 -0.253924
    3 2.672261 -3.383448 0.696208 0.083503 0.128137 -1.585662
    4 8.674173 -0.128572 0.000000 0.000000 0.000000 0.000000
    5 0.000000 0.000000 0.000000 0.000000 0.000000 0.000000
    6 4.045845 -0.586976 0.000000 0.000000 0.000000 0.000000
    7 -1.636769 -1.843806 -0.261727 -0.235258 -0.117641 0.320666
    8 1.039971 -0.940679 0.000000 0.000000 0.000000 -1.570796
    9 4.782106 0.485510 0.407405 0.000000 0.000000 -1.570796
    10 5.548040 -0.183522 0.000000 1.570796 -1.570796 0.000000
    11 1.257180 8.762585 -0.153713 -1.570562 0.002683 -1.566807
    12 -0.488518 -2.755602 -0.228260 -0.518305 -0.074854 -0.310571
    13 0.039887 -1.479790 0.029854 -2.289231 0.000000 0.000001
    14 0.028786 -1.075731 -0.023109 -0.271941 0.000000 0.000000
    15 0.250027 -2.820665 -0.238396 -0.350825 -0.052441 -0.187301
    16 -0.049759 -1.680544 0.100479 -2.246572 0.000000 -0.000002
    17 -0.034142 -1.148312 0.084782 -0.535851 0.000000 0.000000
    18 0.957766 -2.746780 -0.090302 0.329289 -0.172344 0.119866
    19 -0.033420 -1.397129 -0.011257 -1.115580 0.000000 -0.000001
    20 -0.022360 -0.957436 0.018784 -1.148807 0.000000 0.000000
    21 -1.180681 -2.507217 -0.193859 -0.309305 0.033033 -0.314313
    22 -0.024967 -1.123934 0.017597 -2.040737 0.000000 0.000001
    23 -0.020057 -0.890968 0.010090 -0.646720 0.000000 0.000000
    24 0.583510 -1.197277 0.185379 0.371183 -0.693166 -0.903076
    25 1.535927 0.010246 0.005009 -0.002964 -0.012979 -0.682290
    26 1.100771 0.004527 -0.010679 -0.016147 -0.001453 -1.484153
    27 0.120153 -0.050270 -0.054489 0.287569 3.110905 1.561085
    28 -4.489648 -5.539863 -12.353223 0.414228 -2.880128 0.926137
    29 0.096944 -8.450418 -0.009365 0.836699 -1.050112 -0.464161
    30 0.447953 -2.798986 -0.200443 -0.989815 0.042804 0.170619
    31 -0.032909 -1.480204 0.004940 -1.707946 0.000000 0.000002
    32 -0.027022 -1.076920 -0.020210 -0.612649 0.000000 0.000000
    33 -0.249534 -2.846964 -0.174213 -0.703763 0.002631 0.073866
    34 0.043235 -1.683941 0.096012 -1.758811 0.002823 -0.000167
    35 0.031729 -1.160830 0.058838 -0.802576 0.000642 0.008372
    36 -0.963866 -2.785145 -0.085350 -0.357782 0.070929 0.053157
    37 0.028479 -1.403067 0.006271 -1.767737 0.000000 0.000000
    38 0.021413 -0.957781 0.020046 -0.565397 0.000000 0.000000
    39 1.164475 -2.543940 -0.170330 -1.204006 -0.015463 0.162804
    40 0.024032 -1.129042 0.017807 -1.786702 0.000000 0.000001
    41 0.014898 -0.883989 -0.019848 -0.631202 0.000000 0.000000
    42 -0.586770 -1.264477 0.200161 0.039536 -0.530503 -2.437528
    43 1.522835 0.058681 0.016848 0.001410 0.008985 0.163595
    44 1.117947 0.048424 -0.005766 -0.002568 -0.011344 -0.058244
    45 -0.139399 -0.111698 0.014397 0.774181 0.191172 1.472862
    46 -6.260806 6.983652 -0.294122 1.580804 -0.005023 -0.912799
  time 4
    0 -0.349399 1.166145 0.203512 0.000000 0.000000 0.000000
    1 6.237469 4.733953 -6.676805 -0.460876 -0.979915 0.216732
    2 -0.071918 -8.498730 -0.104136 0.407160 0.227855 -0.253924
    3 2.672261 -3.383448 0.696208 0.083503 0.128137 -1.585662
    4 8.674173 -0.128572 0.000000 0.000000 0.000000 0.000000
    5 0.000000 0.000000 0.000000 0.000000 0.000000 0.000000
    6 4.045845 -0.586976 0.000000 0.000000 0.000000 0.000000
    7 -1.285195 -1.656301 -0.062502 -0.196116 -0.093444 0.430615
    8 1.039971 -0.940679 0.000000 0.000000 0.000000 -1.570796
    9 4.782106 0.485510 0.407405 0.000000 0.000000 -1.570796
    10 5.548040 -0.183522 0.000000 1.570796 -1.570796 0.000000
    11 1.257180 8.762585 -0.153713 -1.570562 0.002683 -1.566807
    12 -0.488518 -2.755602 -0.228260 -0.518305 -0.074854 -0.310571
    13 0.039887 -1.479790 0.029854 -2.289231 0.000000 0.000001
    14 0.028786 -1.075731 -0.023109 -0.271941 0.000000 0.000000
    15 0.250027 -2.820665 -0.238396 -0.350825 -0.052441 -0.187301
    16 -0.049759 -1.680544 0.100479 -2.246572 0.000000 -0.000002
    17 -0.034142 -1.148312 0.084782 -0.535851 0.000000 0.000000
    18 0.957766 -2.746780 -0.090302 0.329289 -0.172344 0.119866
    19 -0.033420 -1.397129 -0.011257 -1.115580 0.000000 -0.000001
    20 -0.022360 -0.957436 0.018784 -1.148807 0.000000 0.000000
    21 -1.180681 -2.507217 -0.193859 -0.309305 0.033033 -0.314313
    22 -0.024967 -1.123934 0.017597 -2.040737 0.000000 0.000001
    23 -0.020057 -0.890968 0.010090 -0.646720 0.000000 0.000000
    24 0.583510 -1.197277 0.185379 0.371183 -0.693166 -0.903076
    25 1.535927 0.010246 0.005009 -0.002964 -0.012979 -0.682290
    26 1.100771 0.004527 -0.010679 -0.016147 -0.001453 -1.484153
    27 0.120153 -0.050270 -0.054489 0.287569 3.110905 1.561085
    28 -4.247453 -6.493017 -12.279002 0.414228 -2.879945 0.926041
    29 0.096944 -8.450418 -0.009365 0.977681 -1.009780 -0.616213
    30 0.447953 -2.798986 -0.200443 -0.989815 0.042804 0.170619
    31 -0.032909 -1.480204 0.004940 -1.707946 0.000000 0.000002
    32 -0.027022 -1.076920 -0.020210 -0.612649 0.000000 0.000000
    33 -0.249534 -2.846964 -0.174213 -0.703763 0.002631 0.073866
    34 0.043235 -1.683941 0.096012 -1.758811 0.002823 -0.000167
    35 0.031729 -1.160830 0.058838 -0.802576 0.000642 0.008372
    36 -0.963866 -2.785145 -0.085350 -0.357782 0.070929 0.053157
    37 0.028479 -1.403067 0.006271 -1.767737 0.000000 0.000000
    38 0.021413 -0.957781 0.020046 -0.565397 0.000000 0.000000
    39 1.164475 -2.543940 -0.170330 -1.204006 -0.015463 0.162804
    40 0.024032 -1.129042 0.017807 -1.786702 0.000000 0.000001
    41 0.014898 -0.883989 -0.019848 -0.631202 0.000000 0.000000
    42 -0.586770 -1.264477 0.200161 0.072185 -0.526444 -2.501992
    43 1.522835 0.058681 0.016848 0.001410 0.008985 0.127015
    44 1.117947 0.048424 -0.005766 -0.002568 -0.011344 -0.058244
    45 -0.139399 -0.111698 0.014397 0.774181 0.191172 1.472862
    46 -6.260806 6.983652 -0.294122 1.580804 -0.005023 -0.912799
  time 5
    0 -0.349399 1.166145 0.203512 0.000000 0.000000 0.000000
    1 6.217937 4.683170 -6.786184 -0.459127 -0.955850 0.214350
    2 -0.071918 -8.498730 -0.104136 0.408307 0.225614 -0.248651
    3 2.672261 -3.383448 0.696208 0.083503 0.128137 -1.585662
    4 8.674173 -0.128572 0.000000 0.000000 0.000000 0.000000
    5 0.000000 0.000000 0.000000 0.000000 0.000000 0.000000
    6 4.045845 -0.586976 0.000000 0.000000 0.000000 0.000000
    7 -1.046907 -1.195349 -0.351573 -0.260797 -0.106016 0.412824
    8 1.039971 -0.940679 0.000000 0.000000 0.000000 -1.570796
    9 4.782106 0.485510 0.407405 0.000000 0.000000 -1.570796
    10 5.548040 -0.183522 0.000000 1.570796 -1.570796 0.000000
    11 1.257180 8.762585 -0.153713 -1.570562 0.002683 -1.566807
    12 -0.488518 -2.755602 -0.228260 -0.518305 -0.074854 -0.310571
    13 0.039887 -1.479790 0.029854 -2.289231 0.000000 0.000001
    14 0.028786 -1.075731 -0.023109 -0.271941 0.000000 0.000000
    15 0.250027 -2.820665 -0.238396 -0.350825 -0.052441 -0.187301
    16 -0.049759 -1.680544 0.100479 -2.246572 0.000000 -0.000002
    17 -0.034142 -1.148312 0.084782 -0.535851 0.000000 0.000000
    18 0.957766 -2.746780 -0.090302 0.329289 -0.172344 0.119866
    19 -0.033420 -1.397129 -0.011257 -1.115580 0.000000 -0.000001
    20 -0.022360 -0.957436 0.018784 -1.148807 0.000000 0.000000
    21 -1.180681 -2.507217 -0.193859 -0.309305 0.033033 -0.314313
    22 -0.024967 -1.123934 0.017597 -2.040737 0.000000 0.000001
    23 -0.020057 -0.890968 0.010090 -0.646720 0.000000 0.000000
    24 0.583510 -1.197277 0.185379 0.371183 -0.693166 -0.903076
    25 1.535927 0.010246 0.005009 -0.002964 -0.012979 -0.682290
    26 1.100771 0.004527 -0.010679 -0.016147 -0.001453 -1.484153
    27 0.120153 -0.050270 -0.054489 0.287569 3.110905 1.561085
    28 -4.056041 -6.543800 -11.907897 0.413826 -2.883340 0.927567
    29 0.096944 -8.450418 -0.009365 0.704539 -1.025304 -0.324088
    30 0.447953 -2.798986 -0.200443 -0.989815 0.042804 0.170619
    31 -0.032909 -1.480204 0.004940 -1.707946 0.000000 0.000002
    32 -0.027022 -1.076920 -0.020210 -0.612649 0.000000 0.000000
    33 -0.249534 -2.846964 -0.174213 -0.703763 0.002631 0.073866
    34 0.043235 -1.683941 0.096012 -1.758811 0.002823 -0.000167
    35 0.031729 -1.160830 0.058838 -0.802576 0.000642 0.008372
    36 -0.963866 -2.785145 -0.085350 -0.357782 0.070929 0.053157
    37 0.028479 -1.403067 0.006271 -1.767737 0.000000 0.000000
    38 0.021413 -0.957781 0.020046 -0.565397 0.000000 0.000000
    39 1.164475 -2.543940 -0.170330 -1.204006 -0.015463 0.162804
    40 0.024032 -1.129042 0.017807 -1.786702 0.000000 0.000001
    41 0.014898 -0.883989 -0.019848 -0.631202 0.000000 0.000000
    42 -0.586770 -1.264477 0.200161 0.104813 -0.522370 -2.566456
    43 1.522835 0.058681 0.016848 0.001410 0.008985 0.090404
    44 1.117947 0.048424 -0.005766 -0.002568 -0.011344 -0.058244
    45 -0.139399 -0.111698 0.014397 0.774181 0.191172 1.472862
    46 -6.260806 6.983652 -0.294122 1.580804 -0.005023 -0.912799
  time 6
    0 -0.349399 1.166145 0.203512 0.000000 0.000000 0.000000
    1 6.194499 4.608949 -6.965877 -0.456044 -0.919016 0.210181
    2 -0.071918 -8.498730 -0.104136 0.410841 0.220677 -0.237038
    3 2.672261 -3.383448 0.696208 0.083503 0.128137 -1.585662
    4 8.674173 -0.128572 0.000000 0.000000 0.000000 0.000000
    5 0.000000 0.000000 0.000000 0.000000 0.000000 0.000000
    6 4.045845 -0.586976 0.000000 0.000000 0.000000 0.000000
    7 -0.308603 -0.867214 -0.617206 -0.312330 0.069547 0.586473
    8 1.039971 -0.940679 0.000000 0.000000 0.000000 -1.570796
    9 4.782106 0.485510 0.407405 0.000000 0.000000 -1.570796
    10 5.548040 -0.183522 0.000000 1.570796 -1.570796 0.000000
    11 1.257180 8.762585 -0.153713 -1.570562 0.002683 -1.566807
    12 -0.488518 -2.755602 -0.228260 -0.518305 -0.074854 -0.310571
    13 0.039887 -1.479790 0.029854 -2.289231 0.000000 0.000001
    14 0.028786 -1.075731 -0.023109 -0.271941 0.000000 0.000000
    15 0.250027 -2.820665 -0.238396 -0.350825 -0.052441 -0.187301
    16 -0.049759 -1.680544 0.100479 -2.246572 0.000000 -0.000002
    17 -0.034142 -1.148312 0.084782 -0.535851 0.000000 0.000000
    18 0.957766 -2.746780 -0.090302 0.329289 -0.172344 0.119866
    19 -0.033420 -1.397129 -0.011257 -1.115580 0.000000 -0.000001
    20 -0.022360 -0.957436 0.018784 -1.148807 0.000000 0.000000
    21 -1.180681 -2.507217 -0.193859 -0.309305 0.033033 -0.314313
    22 -0.024967 -1.123934 0.017597 -2.040737 0.000000 0.000001
    23 -0.020057 -0.890968 0.010090 -0.646720 0.000000 0.000000
    24 0.583510 -1.197277 0.185379 0.371183 -0.693166 -0.903076
    25 1.535927 0.010246 0.005009 -0.002964 -0.012979 -0.682290
    26 1.100771 0.004527 -0.010679 -0.016147 -0.001453 -1.484153
    27 0.120153 -0.050270 -0.054489 0.287569 3.110905 1.561085
    28 -3.997445 -6.344575 -11.638357 0.413156 -2.889213 0.930236
    29 0.096944 -8.450418 -0.009365 0.103606 -1.062294 0.318602
    30 0.447953 -2.798986 -0.200443 -0.989815 0.042804 0.170619
    31 -0.032909 -1.480204 0.004940 -1.707946 0.000000 0.000002
    32 -0.027022 -1.076920 -0.020210 -0.612649 0.000000 0.000000
    33 -0.249534 -2.846964 -0.174213 -0.703763 0.002631 0.073866
    34 0.043235 -1.683941 0.096012 -1.758811 0.002823 -0.000167
    35 0.031729 -1.160830 0.058838 -0.802576 0.000642 0.008372
    36 -0.963866 -2.785145 -0.085350 -0.357782 0.070929 0.053157
    37 0.028479 -1.403067 0.006271 -1.767737 0.000000 0.000000
    38 0.021413 -0.957781 0.020046 -0.565397 0.000000 0.000000
    39 1.164475 -2.543940 -0.170330 -1.204006 -0.015463 0.162804
    40 0.024032 -1.129042 0.017807 -1.786702 0.000000 0.000001
    41 0.014898 -0.883989 -0.019848 -0.631202 0.000000 0.000000
    42 -0.586770 -1.264477 0.200161 0.133301 -0.518817 -2.622677
    43 1.522835 0.058681 0.016848 0.001410 0.008985 0.058497
    44 1.117947 0.048424 -0.005766 -0.002568 -0.011344 -0.058244
    45 -0.139399 -0.111698 0.014397 0.774181 0.191172 1.472862
    46 -6.260806 6.983652 -0.294122 1.580804 -0.005023 -0.912799
  time 7
    0 -0.349399 1.166145 0.203512 0.000000 0.000000 0.000000
    1 6.182780 4.546447 -7.141663 -0.453128 -0.884988 0.206182
    2 -0.071918 -8.498730 -0.104136 0.413399 0.215739 -0.225425
    3 2.672261 -3.383448 0.696208 0.083503 0.128137 -1.585662
    4 8.674173 -0.128572 0.000000 0.000000 0.000000 0.000000
    5 0.000000 0.000000 0.000000 0.000000 0.000000 0.000000
    6 4.045845 -0.586976 0.000000 0.000000 0.000000 0.000000
    7 0.140629 -0.761742 -0.398450 -0.179625 0.190136 0.385028
    8 1.039971 -0.940679 0.000000 0.000000 0.000000 -1.570796
    9 4.782106 0.485510 0.407405 0.000000 0.000000 -1.570796
    10 5.548040 -0.183522 0.000000 1.570796 -1.570796 0.000000
    11 1.257180 8.762585 -0.153713 -1.570562 0.002683 -1.566807
    12 -0.488518 -2.755602 -0.228260 -0.518305 -0.074854 -0.310571
    13 0.039887 -1.479790 0.029854 -2.289231 0.000000 0.000001
    14 0.028786 -1.075731 -0.023109 -0.271941 0.000000 0.000000
    15 0.250027 -2.820665 -0.238396 -0.350825 -0.052441 -0.187301
    16 -0.049759 -1.680544 0.100479 -2.246572 0.000000 -0.000002
    17 -0.034142 -1.148312 0.084782 -0.535851 0.000000 0.000000
    18 0.957766 -2.746780 -0.090302 0.329289 -0.172344 0.119866
    19 -0.033420 -1.397129 -0.011257 -1.115580 0.000000 -0.000001
    20 -0.022360 -0.957436 0.018784 -1.148807 0.000000 0.000000
    21 -1.180681 -2.507217 -0.193859 -0.309305 0.033033 -0.314313
    22 -0.024967 -1.123934 0.017597 -2.040737 0.000000 0.000001
    23 -0.020057 -0.890968 0.010090 -0.646720 0.000000 0.000000
    24 0.583510 -1.197277 0.185379 0.371183 -0.693166 -0.903076
    25 1.535927 0.010246 0.005009 -0.002964 -0.012979 -0.682290
    26 1.100771 0.004527 -0.010679 -0.016147 -0.001453 -1.484153
    27 0.120153 -0.050270 -0.054489 0.287569 3.110905 1.561085
    28 -3.977913 -6.098474 -11.435226 0.413290 -2.888387 0.929950
    29 0.096944 -8.450418 -0.009365 -0.497279 -1.106452 0.961331
    30 0.447953 -2.798986 -0.200443 -0.989815 0.042804 0.170619
    31 -0.032909 -1.480204 0.004940 -1.707946 0.000000 0.000002
    32 -0.027022 -1.076920 -0.020210 -0.612649 0.000000 0.000000
    33 -0.249534 -2.846964 -0.174213 -0.703763 0.002631 0.073866
    34 0.043235 -1.683941 0.096012 -1.758811 0.002823 -0.000167
    35 0.031729 -1.160830 0.058838 -0.802576 0.000642 0.008372
    36 -0.963866 -2.785145 -0.085350 -0.357782 0.070929 0.053157
    37 0.028479 -1.403067 0.006271 -1.767737 0.000000 0.000000
    38 0.021413 -0.957781 0.020046 -0.565397 0.000000 0.000000
    39 1.164475 -2.543940 -0.170330 -1.204006 -0.015463 0.162804
    40 0.024032 -1.129042 0.017807 -1.786702 0.000000 0.000001
    41 0.014898 -0.883989 -0.019848 -0.631202 0.000000 0.000000
    42 -0.586770 -1.264477 0.200161 0.153445 -0.516294 -2.662458
    43 1.522835 0.058681 0.016848 0.001410 0.008985 0.035905
    44 1.117947 0.048424 -0.005766 -0.002568 -0.011344 -0.058244
    45 -0.139399 -0.111698 0.014397 0.774181 0.191172 1.472862
    46 -6.260806 6.983652 -0.294122 1.580804 -0.005023 -0.912799
  time 8
    0 -0.349399 1.166145 0.203512 0.000000 0.000000 0.000000
    1 6.182780 4.515196 -7.235416 -0.451545 -0.869340 0.203969
    2 -0.071918 -8.498730 -0.104136 0.414547 0.213498 -0.220140
    3 2.672261 -3.383448 0.696208 0.083503 0.128137 -1.585662
    4 8.674173 -0.128572 0.000000 0.000000 0.000000 0.000000
    5 0.000000 0.000000 0.000000 0.000000 0.000000 0.000000
    6 4.045845 -0.586976 0.000000 0.000000 0.000000 0.000000
    7 -0.132817 0.085940 -0.167974 -0.074592 0.240711 0.360400
    8 1.039971 -0.940679 0.000000 0.000000 0.000000 -1.570796
    9 4.782106 0.485510 0.407405 0.000000 0.000000 -1.570796
    10 5.548040 -0.183522 0.000000 1.570796 -1.570796 0.000000
    11 1.257180 8.762585 -0.153713 -1.570562 0.002683 -1.566807
    12 -0.488518 -2.755602 -0.228260 -0.518305 -0.074854 -0.310571
    13 0.039887 -1.479790 0.029854 -2.289231 0.000000 0.000001
    14 0.028786 -1.075731 -0.023109 -0.271941 0.000000 0.000000
    15 0.250027 -2.820665 -0.238396 -0.350825 -0.052441 -0.187301
    16 -0.049759 -1.680544 0.100479 -2.246572 0.000000 -0.000002
    17 -0.034142 -1.148312 0.084782 -0.535851 0.000000 0.000000
    18 0.957766 -2.746780 -0.090302 0.329289 -0.172344 0.119866
    19 -0.033420 -1.397129 -0.011257 -1.115580 0.000000 -0.000001
    20 -0.022360 -0.957436 0.018784 -1.148807 0.000000 0.000000
    21 -1.180681 -2.507217 -0.193859 -0.309305 0.033033 -0.314313
    22 -0.024967 -1.123934 0.017597 -2.040737 0.000000 0.000001
    23 -0.020057 -0.890968 0.010090 -0.646720 0.000000 0.000000
    24 0.583510 -1.197277 0.185379 0.371183 -0.693166 -0.903076
    25 1.535927 0.010246 0.005009 -0.002964 -0.012979 -0.682290
    26 1.100771 0.004527 -0.010679 -0.016147 -0.001453 -1.484153
    27 0.120153 -0.050270 -0.054489 0.287569 3.110905 1.561085
    28 -3.903692 -6.008627 -11.267252 0.415165 -2.871961 0.922418
    29 0.096944 -8.450418 -0.009365 -0.770469 -1.143479 1.253494
    30 0.447953 -2.798986 -0.200443 -0.989815 0.042804 0.170619
    31 -0.032909 -1.480204 0.004940 -1.707946 0.000000 0.000002
    32 -0.027022 -1.076920 -0.020210 -0.612649 0.000000 0.000000
    33 -0.249534 -2.846964 -0.174213 -0.703763 0.002631 0.073866
    34 0.043235 -1.683941 0.096012 -1.758811 0.002823 -0.000167
    35 0.031729 -1.160830 0.058838 -0.802576 0.000642 0.008372
    36 -0.963866 -2.785145 -0.085350 -0.357782 0.070929 0.053157
    37 0.028479 -1.403067 0.006271 -1.767737 0.000000 0.000000
    38 0.021413 -0.957781 0.020046 -0.565397 0.000000 0.000000
    39 1.164475 -2.543940 -0.170330 -1.204006 -0.015463 0.162804
    40 0.024032 -1.129042 0.017807 -1.786702 0.000000 0.000001
    41 0.014898 -0.883989 -0.019848 -0.631202 0.000000 0.000000
    42 -0.586770 -1.264477 0.200161 0.161085 -0.515350 -2.677542
    43 1.522835 0.058681 0.016848 0.001410 0.008985 0.027332
    44 1.117947 0.048424 -0.005766 -0.002568 -0.011344 -0.058244
    45 -0.139399 -0.111698 0.014397 0.774181 0.191172 1.472862
    46 -6.260806 6.983652 -0.294122 1.580804 -0.005023 -0.912799
  time 9
    0 -0.349399 1.166145 0.203512 0.000000 0.000000 0.000000
    1 6.210125 4.546447 -7.223697 -0.449962 -0.874197 0.202268
    2 -0.071918 -8.498730 -0.104136 0.414379 0.214996 -0.223663
    3 2.672261 -3.383448 0.696208 0.083503 0.128137 -1.585662
    4 8.674173 -0.128572 0.000000 0.000000 0.000000 0.000000
    5 0.000000 0.000000 0.000000 0.000000 0.000000 0.000000
    6 4.045845 -0.586976 0.000000 0.000000 0.000000 0.000000
    7 -13.590258 -2.058657 -3.472762 -0.089729 0.247242 0.363156
    8 1.039971 -0.940679 0.000000 0.000000 0.000000 -1.570796
    9 4.782106 0.485510 0.407405 0.000000 0.000000 -1.570796
    10 5.548040 -0.183522 0.000000 1.570796 -1.570796 0.000000
    11 1.257180 8.762585 -0.153713 -1.570562 0.002683 -1.566807
    12 -0.488518 -2.755602 -0.228260 -0.518305 -0.074854 -0.310571
    13 0.039887 -1.479790 0.029854 -2.289231 0.000000 0.000001
    14 0.028786 -1.075731 -0.023109 -0.271941 0.000000 0.000000
    15 0.250027 -2.820665 -0.238396 -0.350825 -0.052441 -0.187301
    16 -0.049759 -1.680544 0.100479 -2.246572 0.000000 -0.000002
    17 -0.034142 -1.148312 0.084782 -0.535851 0.000000 0.000000
    18 0.957766 -2.746780 -0.090302 0.329289 -0.172344 0.119866
    19 -0.033420 -1.397129 -0.011257 -1.115580 0.000000 -0.000001
    20 -0.022360 -0.957436 0.018784 -1.148807 0.000000 0.000000
    21 -1.180681 -2.507217 -0.193859 -0.309305 0.033033 -0.314313
    22 -0.024967 -1.123934 0.017597 -2.040737 0.000000 0.000001
    23 -0.020057 -0.890968 0.010090 -0.646720 0.000000 0.000000
    24 0.583510 -1.197277 0.185379 0.371183 -0.693166 -0.903076
    25 1.535927 0.010246 0.005009 -0.002964 -0.012979 -0.682290
    26 1.100771 0.004527 -0.010679 -0.016147 -0.001453 -1.484153
    27 0.120153 -0.050270 -0.054489 0.287569 3.110905 1.561085
    28 -3.563838 -6.797714 -11.474290 0.435323 -2.743765 0.861016
    29 0.096944 -8.450418 -0.009365 -0.682473 -1.174787 1.160228
    30 0.447953 -2.798986 -0.200443 -0.989815 0.042804 0.170619
    31 -0.032909 -1.480204 0.004940 -1.707946 0.000000 0.000002
    32 -0.027022 -1.076920 -0.020210 -0.612649 0.000000 0.000000
    33 -0.249534 -2.846964 -0.174213 -0.703763 0.002631 0.073866
    34 0.043235 -1.683941 0.096012 -1.758811 0.002823 -0.000167
    35 0.031729 -1.160830 0.058838 -0.802576 0.000642 0.008372
    36 -0.963866 -2.785145 -0.085350 -0.357782 0.070929 0.053157
    37 0.028479 -1.403067 0.006271 -1.767737 0.000000 0.000000
    38 0.021413 -0.957781 0.020046 -0.565397 0.000000 0.000000
    39 1.164475 -2.543940 -0.170330 -1.204006 -0.015463 0.162804
    40 0.024032 -1.129042 0.017807 -1.786702 0.000000 0.000001
    41 0.014898 -0.883989 -0.019848 -0.631202 0.000000 0.000000
    42 -0.586770 -1.264477 0.200161 0.142584 -0.515575 -2.641025
    43 1.522835 0.058681 0.016848 0.001410 0.008985 0.048067
    44 1.117947 0.048424 -0.005766 -0.002568 -0.011344 -0.058244
    45 -0.139399 -0.111698 0.014397 0.774181 0.191172 1.472862
    46 -6.260806 6.983652 -0.294122 1.580804 -0.005023 -0.912799
  time 10
    0 -0.349399 1.166145 0.203512 0.000000 0.000000 0.000000
    1 6.260908 4.620668 -7.161195 -0.447629 -0.889412 0.199970
    2 -0.071918 -8.498730 -0.104136 0.413734 0.218555 -0.232040
    3 2.672261 -3.383448 0.696208 0.083503 0.128137 -1.585662
    4 8.674173 -0.128572 0.000000 0.000000 0.000000 0.000000
    5 0.000000 0.000000 0.000000 0.000000 0.000000 0.000000
    6 4.045845 -0.586976 0.000000 0.000000 0.000000 0.000000
    7 -28.942289 -5.050935 -7.406476 -0.116251 0.254013 0.367398
    8 1.039971 -0.940679 0.000000 0.000000 0.000000 -1.570796
    9 4.782106 0.485510 0.407405 0.000000 0.000000 -1.570796
    10 5.548040 -0.183522 0.000000 1.570796 -1.570796 0.000000
    11 1.257180 8.762585 -0.153713 -1.570562 0.002683 -1.566807
    12 -0.488518 -2.755602 -0.228260 -0.518305 -0.074854 -0.310571
    13 0.039887 -1.479790 0.029854 -2.289231 0.000000 0.000001
    14 0.028786 -1.075731 -0.023109 -0.271941 0.000000 0.000000
    15 0.250027 -2.820665 -0.238396 -0.350825 -0.052441 -0.187301
    16 -0.049759 -1.680544 0.100479 -2.246572 0.000000 -0.000002
    17 -0.034142 -1.148312 0.084782 -0.535851 0.000000 0.000000
    18 0.957766 -2.746780 -0.090302 0.329289 -0.172344 0.119866
    19 -0.033420 -1.397129 -0.011257 -1.115580 0.000000 -0.000001
    20 -0.022360 -0.957436 0.018784 -1.148807 0.000000 0.000000
    21 -1.180681 -2.507217 -0.193859 -0.309305 0.033033 -0.314313
    22 -0.024967 -1.123934 0.017597 -2.040737 0.000000 0.000001
    23 -0.020057 -0.890968 0.010090 -0.646720 0.000000 0.000000
    24 0.583510 -1.197277 0.185379 0.371183 -0.693166 -0.903076
    25 1.535927 0.010246 0.005009 -0.002964 -0.012979 -0.682290
    26 1.100771 0.004527 -0.010679 -0.016147 -0.001453 -1.484153
    27 0.120153 -0.050270 -0.054489 0.287569 3.110905 1.561085
    28 -5.329517 -8.024314 -14.693138 0.427688 -2.746151 0.864448
    29 0.096944 -8.450418 -0.009365 -0.472659 -1.207952 0.937870
    30 0.447953 -2.798986 -0.200443 -0.989815 0.042804 0.170619
    31 -0.032909 -1.480204 0.004940 -1.707946 0.000000 0.000002
    32 -0.027022 -1.076920 -0.020210 -0.612649 0.000000 0.000000
    33 -0.249534 -2.846964 -0.174213 -0.703763 0.002631 0.073866
    34 0.043235 -1.683941 0.096012 -1.758811 0.002823 -0.000167
    35 0.031729 -1.160830 0.058838 -0.802576 0.000642 0.008372
    36 -0.963866 -2.785145 -0.085350 -0.357782 0.070929 0.053157
    37 0.028479 -1.403067 0.006271 -1.767737 0.000000 0.000000
    38 0.021413 -0.957781 0.020046 -0.565397 0.000000 0.000000
    39 1.164475 -2.543940 -0.170330 -1.204006 -0.015463 0.162804
    40 0.024032 -1.129042 0.017807 -1.786702 0.000000 0.000001
    41 0.014898 -0.883989 -0.019848 -0.631202 0.000000 0.000000
    42 -0.586770 -1.264477 0.200161 0.098497 -0.516900 -2.553950
    43 1.522835 0.058681 0.016848 0.001410 0.008985 0.097522
    44 1.117947 0.048424 -0.005766 -0.002568 -0.011344 -0.058244
    45 -0.139399 -0.111698 0.014397 0.774181 0.191172 1.472862
    46 -6.260806 6.983652 -0.294122 1.580804 -0.005023 -0.912799
  time 11
    0 -0.349399 1.166145 0.203512 0.000000 0.000000 0.000000
    1 6.311690 4.694889 -7.067442 -0.446046 -0.912110 0.198694
    2 -0.071918 -8.498730 -0.104136 0.412467 0.222810 -0.242035
    3 2.672261 -3.383448 0.696208 0.083503 0.128137 -1.585662
    4 8.674173 -0.128572 0.000000 0.000000 0.000000 0.000000
    5 0.000000 0.000000 0.000000 0.000000 0.000000 0.000000
    6 4.045845 -0.586976 0.000000 0.000000 0.000000 0.000000
    7 -36.751122 -7.785394 -10.176092 -0.121955 0.241561 0.371389
    8 1.039971 -0.940679 0.000000 0.000000 0.000000 -1.570796
    9 4.782106 0.485510 0.407405 0.000000 0.000000 -1.570796
    10 5.548040 -0.183522 0.000000 1.570796 -1.570796 0.000000
    11 1.257180 8.762585 -0.153713 -1.570562 0.002683 -1.566807
    12 -0.488518 -2.755602 -0.228260 -0.518305 -0.074854 -0.310571
    13 0.039887 -1.479790 0.029854 -2.289231 0.000000 0.000001
    14 0.028786 -1.075731 -0.023109 -0.271941 0.000000 0.000000
    15 0.250027 -2.820665 -0.238396 -0.350825 -0.052441 -0.187301
    16 -0.049759 -1.680544 0.100479 -2.246572 0.000000 -0.000002
    17 -0.034142 -1.148312 0.084782 -0.535851 0.000000 0.000000
    18 0.957766 -2.746780 -0.090302 0.329289 -0.172344 0.119866
    19 -0.033420 -1.397129 -0.011257 -1.115580 0.000000 -0.000001
    20 -0.022360 -0.957436 0.018784 -1.148807 0.000000 0.000000
    21 -1.180681 -2.507217 -0.193859 -0.309305 0.033033 -0.314313
    22 -0.024967 -1.123934 0.017597 -2.040737 0.000000 0.000001
    23 -0.020057 -0.890968 0.010090 -0.646720 0.000000 0.000000
    24 0.583510 -1.197277 0.185379 0.371183 -0.693166 -0.903076
    25 1.535927 0.010246 0.005009 -0.002964 -0.012979 -0.682290
    26 1.100771 0.004527 -0.010679 -0.016147 -0.001453 -1.484153
    27 0.120153 -0.050270 -0.054489 0.287569 3.110905 1.561085
    28 -7.575679 -9.368105 -18.579975 0.413089 -2.760007 0.874936
    29 0.096944 -8.450418 -0.009365 -0.222239 -1.237922 0.672431
    30 0.447953 -2.798986 -0.200443 -0.989815 0.042804 0.170619
    31 -0.032909 -1.480204 0.004940 -1.707946 0.000000 0.000002
    32 -0.027022 -1.076920 -0.020210 -0.612649 0.000000 0.000000
    33 -0.249534 -2.846964 -0.174213 -0.703763 0.002631 0.073866
    34 0.043235 -1.683941 0.096012 -1.758811 0.002823 -0.000167
    35 0.031729 -1.160830 0.058838 -0.802576 0.000642 0.008372
    36 -0.963866 -2.785145 -0.085350 -0.357782 0.070929 0.053157
    37 0.028479 -1.403067 0.006271 -1.767737 0.000000 0.000000
    38 0.021413 -0.957781 0.020046 -0.565397 0.000000 0.000000
    39 1.164475 -2.543940 -0.170330 -1.204006 -0.015463 0.162804
    40 0.024032 -1.129042 0.017807 -1.786702 0.000000 0.000001
    41 0.014898 -0.883989 -0.019848 -0.631202 0.000000 0.000000
    42 -0.586770 -1.264477 0.200161 0.045874 -0.520340 -2.450018
    43 1.522835 0.058681 0.016848 0.001410 0.008985 0.156508
    44 1.117947 0.048424 -0.005766 -0.002568 -0.011344 -0.058244
    45 -0.139399 -0.111698 0.014397 0.774181 0.191172 1.472862
    46 -6.260806 6.983652 -0.294122 1.580804 -0.005023 -0.912799
  time 12
    0 -0.349399 1.166145 0.203512 0.000000 0.000000 0.000000
    1 6.346848 4.745672 -6.969783 -0.447129 -0.939555 0.200311
    2 -0.071918 -8.498730 -0.104136 0.410315 0.226369 -0.250413
    3 2.672261 -3.383448 0.696208 0.083503 0.128137 -1.585662
    4 8.674173 -0.128572 0.000000 0.000000 0.000000 0.000000
    5 0.000000 0.000000 0.000000 0.000000 0.000000 0.000000
    6 4.045845 -0.586976 0.000000 0.000000 0.000000 0.000000
    7 -37.469893 -9.785455 -11.629261 -0.106747 0.212858 0.372087
    8 1.039971 -0.940679 0.000000 0.000000 0.000000 -1.570796
    9 4.782106 0.485510 0.407405 0.000000 0.000000 -1.570796
    10 5.548040 -0.183522 0.000000 1.570796 -1.570796 0.000000
    11 1.257180 8.762585 -0.153713 -1.570562 0.002683 -1.566807
    12 -0.488518 -2.755602 -0.228260 -0.518305 -0.074854 -0.310571
    13 0.039887 -1.479790 0.029854 -2.289231 0.000000 0.000001
    14 0.028786 -1.075731 -0.023109 -0.271941 0.000000 0.000000
    15 0.250027 -2.820665 -0.238396 -0.350825 -0.052441 -0.187301
    16 -0.049759 -1.680544 0.100479 -2.246572 0.000000 -0.000002
    17 -0.034142 -1.148312 0.084782 -0.535851 0.000000 0.000000
    18 0.957766 -2.746780 -0.090302 0.329289 -0.172344 0.119866
    19 -0.033420 -1.397129 -0.011257 -1.115580 0.000000 -0.000001
    20 -0.022360 -0.957436 0.018784 -1.148807 0.000000 0.000000
    21 -1.180681 -2.507217 -0.193859 -0.309305 0.033033 -0.314313
    22 -0.024967 -1.123934 0.017597 -2.040737 0.000000 0.000001
    23 -0.020057 -0.890968 0.010090 -0.646720 0.000000 0.000000
    24 0.583510 -1.197277 0.185379 0.371183 -0.693166 -0.903076
    25 1.535927 0.010246 0.005009 -0.002964 -0.012979 -0.682290
    26 1.100771 0.004527 -0.010679 -0.016147 -0.001453 -1.484153
    27 0.120153 -0.050270 -0.054489 0.287569 3.110905 1.561085
    28 -9.450737 -10.586892 -22.009767 0.404183 -2.799558 0.894387
    29 0.096944 -8.450418 -0.009365 -0.012520 -1.259611 0.450074
    30 0.447953 -2.798986 -0.200443 -0.989815 0.042804 0.170619
    31 -0.032909 -1.480204 0.004940 -1.707946 0.000000 0.000002
    32 -0.027022 -1.076920 -0.020210 -0.612649 0.000000 0.000000
    33 -0.249534 -2.846964 -0.174213 -0.703763 0.002631 0.073866
    34 0.043235 -1.683941 0.096012 -1.758811 0.002823 -0.000167
    35 0.031729 -1.160830 0.058838 -0.802576 0.000642 0.008372
    36 -0.963866 -2.785145 -0.085350 -0.357782 0.070929 0.053157
    37 0.028479 -1.403067 0.006271 -1.767737 0.000000 0.000000
    38 0.021413 -0.957781 0.020046 -0.565397 0.000000 0.000000
    39 1.164475 -2.543940 -0.170330 -1.204006 -0.015463 0.162804
    40 0.024032 -1.129042 0.017807 -1.786702 0.000000 0.000001
    41 0.014898 -0.883989 -0.019848 -0.631202 0.000000 0.000000
    42 -0.586770 -1.264477 0.200161 0.001765 -0.526881 -2.362944
    43 1.522835 0.058681 0.016848 0.001410 0.008985 0.205931
    44 1.117947 0.048424 -0.005766 -0.002568 -0.011344 -0.058244
    45 -0.139399 -0.111698 0.014397 0.774181 0.191172 1.472862
    46 -6.260806 6.983652 -0.294122 1.580804 -0.005023 -0.912799
  time 13
    0 -0.349399 1.166145 0.203512 0.000000 0.000000 0.000000
    1 6.335129 4.733953 -6.895562 -0.452878 -0.968872 0.207118
    2 -0.071918 -8.498730 -0.104136 0.407160 0.227855 -0.253924
    3 2.672261 -3.383448 0.696208 0.083503 0.128137 -1.585662
    4 8.674173 -0.128572 0.000000 0.000000 0.000000 0.000000
    5 0.000000 0.000000 0.000000 0.000000 0.000000 0.000000
    6 4.045845 -0.586976 0.000000 0.000000 0.000000 0.000000
    7 9.000275 -12.418348 -0.496109 -0.250598 0.033233 0.195807
    8 1.039971 -0.940679 0.000000 0.000000 0.000000 -1.570796
    9 4.782106 0.485510 0.407405 0.000000 0.000000 -1.570796
    10 5.548040 -0.183522 0.000000 1.570796 -1.570796 0.000000
    11 1.257180 8.762585 -0.153713 -1.570562 0.002683 -1.566807
    12 -0.488518 -2.755602 -0.228260 -0.518305 -0.074854 -0.310571
    13 0.039887 -1.479790 0.029854 -2.289231 0.000000 0.000001
    14 0.028786 -1.075731 -0.023109 -0.271941 0.000000 0.000000
    15 0.250027 -2.820665 -0.238396 -0.350825 -0.052441 -0.187301
    16 -0.049759 -1.680544 0.100479 -2.246572 0.000000 -0.000002
    17 -0.034142 -1.148312 0.084782 -0.535851 0.000000 0.000000
    18 0.957766 -2.746780 -0.090302 0.329289 -0.172344 0.119866
    19 -0.033420 -1.397129 -0.011257 -1.115580 0.000000 -0.000001
    20 -0.022360 -0.957436 0.018784 -1.148807 0.000000 0.000000
    21 -1.180681 -2.507217 -0.193859 -0.309305 0.033033 -0.314313
    22 -0.024967 -1.123934 0.017597 -2.040737 0.000000 0.000001
    23 -0.020057 -0.890968 0.010090 -0.646720 0.000000 0.000000
    24 0.583510 -1.197277 0.185379 0.371183 -0.693166 -0.903076
    25 1.535927 0.010246 0.005009 -0.002964 -0.012979 -0.682290
    26 1.100771 0.004527 -0.010679 -0.016147 -0.001453 -1.484153
    27 0.120153 -0.050270 -0.054489 0.287569 3.110905 1.561085
    28 -10.099194 -11.438480 -23.861386 0.414429 -2.878568 0.925469
    29 0.096944 -8.450418 -0.009365 0.075476 -1.267968 0.356845
    30 0.447953 -2.798986 -0.200443 -0.989815 0.042804 0.170619
    31 -0.032909 -1.480204 0.004940 -1.707946 0.000000 0.000002
    32 -0.027022 -1.076920 -0.020210 -0.612649 0.000000 0.000000
    33 -0.249534 -2.846964 -0.174213 -0.703763 0.002631 0.073866
    34 0.043235 -1.683941 0.096012 -1.758811 0.002823 -0.000167
    35 0.031729 -1.160830 0.058838 -0.802576 0.000642 0.008372
    36 -0.963866 -2.785145 -0.085350 -0.357782 0.070929 0.053157
    37 0.028479 -1.403067 0.006271 -1.767737 0.000000 0.000000
    38 0.021413 -0.957781 0.020046 -0.565397 0.000000 0.000000
    39 1.164475 -2.543940 -0.170330 -1.204006 -0.015463 0.162804
    40 0.024032 -1.129042 0.017807 -1.786702 0.000000 0.000001
    41 0.014898 -0.883989 -0.019848 -0.631202 0.000000 0.000000
    42 -0.586770 -1.264477 0.200161 -0.016715 -0.537524 -2.326427
    43 1.522835 0.058681 0.016848 0.001410 0.008985 0.226666
    44 1.117947 0.048424 -0.005766 -0.002568 -0.011344 -0.058244
    45 -0.139399 -0.111698 0.014397 0.774181 0.191172 1.472862
    46 -6.260806 6.983652 -0.294122 1.580804 -0.005023 -0.912799
end
