version 1
nodes
  0 "root" -1
  1 "Bone01" 0
  2 "Bone_Lefthand" 1
  3 "Bone02" 2
  4 "Dummy01" 3
  5 "Bone08" 4
  6 "Dummy02" 3
  7 "Bone26" 6
  8 "Bone16" 3
  9 "Bone34" 3
  10 "Bone24" 3
  11 "Bone_L_Upper" 1
  12 "Bone13" 2
  13 "Bone14" 12
  14 "Bone15" 13
  15 "Bone17" 2
  16 "Bone18" 15
  17 "Bone19" 16
  18 "Bone21" 2
  19 "Bone22" 18
  20 "Bone23" 19
  21 "Bone09" 2
  22 "Bone10" 21
  23 "Bone11" 22
  24 "Bone05" 2
  25 "Bone06" 24
  26 "Bone07" 25
  27 "Bone_Se_Hand-L" 2
  28 "Bone04" 0
  29 "Bone_Righthand" 28
  30 "Bone39" 29
  31 "Bone40" 30
  32 "Bone41" 31
  33 "Bone35" 29
  34 "Bone36" 33
  35 "Bone37" 34
  36 "Bone31" 29
  37 "Bone32" 36
  38 "Bone33" 37
  39 "Bone43" 29
  40 "Bone44" 39
  41 "Bone45" 40
  42 "Bone27" 29
  43 "Bone28" 42
  44 "Bone29" 43
  45 "Bone_Se_Hand-R" 29
  46 "Bone_R_Upper" 28
end
skeleton
  time 0
    0 -0.349399 1.166145 0.203512 0.000000 0.000000 0.000000
    1 9.874299 1.714329 -8.778432 -1.567989 -1.332284 1.220320
    2 -0.071918 -8.498730 -0.104136 0.221967 0.080481 -0.200353
    3 2.672261 -3.383448 0.696208 0.083503 0.128137 -1.585662
    4 8.674173 -0.128572 0.000000 0.000000 0.000000 0.000000
    5 0.000000 0.000000 0.000000 0.000000 0.000000 0.000000
    6 4.045845 -0.586976 0.000000 0.000000 0.000000 0.000000
    7 -33.579150 -30.231391 0.000000 0.000000 0.000000 0.000000
    8 1.039971 -0.940679 0.000000 0.000000 0.000000 -1.570796
    9 4.782106 0.485510 0.407405 0.000000 0.000000 -1.570796
    10 5.548040 -0.183522 0.000000 1.570796 -1.570796 0.000000
    11 1.257180 8.762585 -0.153713 -1.570562 0.002683 -1.566807
    12 -0.488518 -2.755602 -0.228260 -0.518305 -0.074854 -0.310571
    13 0.039887 -1.479790 0.029854 -2.289231 0.000000 0.000001
    14 0.028786 -1.075731 -0.023109 -0.271941 0.000000 0.000000
    15 0.250027 -2.820665 -0.238396 -0.350825 -0.052441 -0.187301
    16 -0.049759 -1.680544 0.100479 -2.246572 0.000000 -0.000002
    17 -0.034142 -1.148312 0.084782 -0.535851 0.000000 0.000000
    18 0.957766 -2.746780 -0.090302 0.329289 -0.172344 0.119866
    19 -0.033420 -1.397129 -0.011257 -1.115580 0.000000 -0.000001
    20 -0.022360 -0.957436 0.018784 -1.148807 0.000000 0.000000
    21 -1.180681 -2.507217 -0.193859 -0.309305 0.033033 -0.314313
    22 -0.024967 -1.123934 0.017597 -2.040737 0.000000 0.000001
    23 -0.020057 -0.890968 0.010090 -0.646720 0.000000 0.000000
    24 0.583510 -1.197277 0.185379 0.371183 -0.693166 -0.903076
    25 1.535927 0.010246 0.005009 -0.002964 -0.012979 -0.682290
    26 1.100771 0.004527 -0.010679 -0.016147 -0.001453 -1.484153
    27 0.120153 -0.050270 -0.054489 0.287569 3.110905 1.561085
    28 -0.430930 -11.438480 -11.747736 -1.839794 -5.400462 -1.039113
    29 0.096944 -8.450418 -0.009365 0.075476 -1.267968 0.356845
    30 0.447953 -2.798986 -0.200443 -0.761407 0.042804 0.170619
    31 -0.032909 -1.480204 0.004940 -1.480139 0.000000 0.000002
    32 -0.027022 -1.076920 -0.020210 -0.375135 0.000000 0.000000
    33 -0.249534 -2.846964 -0.174213 -0.318562 0.002631 0.073866
    34 0.043235 -1.683941 0.096012 -1.876275 0.002823 -0.000167
    35 0.031729 -1.160830 0.058838 -0.099745 0.000642 0.008372
    36 -0.963866 -2.785145 -0.085350 0.076866 0.070929 0.053157
    37 0.028479 -1.403067 0.006271 -1.337909 0.000000 0.000000
    38 0.021413 -0.957781 0.020046 -1.052173 0.000000 0.000000
    39 1.164475 -2.543940 -0.170330 -1.221927 -0.015463 0.162804
    40 0.024032 -1.129042 0.017807 -0.900877 0.000000 0.000001
    41 0.014898 -0.883989 -0.019848 -0.928571 0.000000 0.000000
    42 -0.586770 -1.264477 0.200161 0.150010 0.013443 -2.613227
    43 1.522835 0.058681 0.016848 0.001410 0.008985 0.624684
    44 1.117947 0.048424 -0.005766 -0.002568 -0.011344 -0.141987
    45 -0.139399 -0.111698 0.014397 0.774181 0.191172 1.472862
    46 -6.260806 6.983652 -0.294122 1.580804 -0.005023 -0.912799
  time 1
    0 -0.349399 1.166145 0.203512 0.000000 0.000000 0.000000
    1 9.874299 4.308158 -8.481548 -1.491255 -1.331493 1.141360
    2 -0.071918 -8.498730 -0.104136 0.221967 0.080481 -0.200353
    3 2.672261 -3.383448 0.696208 0.083503 0.128137 -1.585662
    4 8.674173 -0.128572 0.000000 0.000000 0.000000 0.000000
    5 0.000000 0.000000 0.000000 0.000000 0.000000 0.000000
    6 4.045845 -0.586976 0.000000 0.000000 0.000000 0.000000
    7 -33.579150 -30.231391 0.000000 0.000000 0.000000 0.000000
    8 1.039971 -0.940679 0.000000 0.000000 0.000000 -1.570796
    9 4.782106 0.485510 0.407405 0.000048 -0.589634 -1.571024
    10 2.020589 -0.183522 0.000000 1.570796 -1.570796 0.000000
    11 1.257180 8.762585 -0.153713 -1.570562 0.002683 -1.566807
    12 -0.488518 -2.755602 -0.228260 -0.518305 -0.074854 -0.310571
    13 0.039887 -1.479790 0.029854 -2.289231 0.000000 0.000001
    14 0.028786 -1.075731 -0.023109 -0.271941 0.000000 0.000000
    15 0.250027 -2.820665 -0.238396 -0.350825 -0.052441 -0.187301
    16 -0.049759 -1.680544 0.100479 -2.246572 0.000000 -0.000002
    17 -0.034142 -1.148312 0.084782 -0.535851 0.000000 0.000000
    18 0.957766 -2.746780 -0.090302 0.329289 -0.172344 0.119866
    19 -0.033420 -1.397129 -0.011257 -1.115580 0.000000 -0.000001
    20 -0.022360 -0.957436 0.018784 -1.148807 0.000000 0.000000
    21 -1.180681 -2.507217 -0.193859 -0.309305 0.033033 -0.314313
    22 -0.024967 -1.123934 0.017597 -2.040737 0.000000 0.000001
    23 -0.020057 -0.890968 0.010090 -0.646720 0.000000 0.000000
    24 0.583510 -1.197277 0.185379 0.371183 -0.693166 -0.903076
    25 1.535927 0.010246 0.005009 -0.002964 -0.012979 -0.682290
    26 1.100771 0.004527 -0.010679 -0.016147 -0.001453 -1.484153
    27 0.120153 -0.050270 -0.054489 0.287569 3.110905 1.561085
    28 -0.540308 -8.782149 -11.357099 -1.858478 -5.386514 -1.057991
    29 0.096944 -8.450418 -0.009365 0.075476 -1.267968 0.356845
    30 0.447953 -2.798986 -0.200443 -0.761407 0.042804 0.170619
    31 -0.032909 -1.480204 0.004940 -1.480139 0.000000 0.000002
    32 -0.027022 -1.076920 -0.020210 -0.375135 0.000000 0.000000
    33 -0.249534 -2.846964 -0.174213 -0.318562 0.002631 0.073866
    34 0.043235 -1.683941 0.096012 -1.876275 0.002823 -0.000167
    35 0.031729 -1.160830 0.058838 -0.099745 0.000642 0.008372
    36 -0.963866 -2.785145 -0.085350 0.076866 0.070929 0.053157
    37 0.028479 -1.403067 0.006271 -1.337909 0.000000 0.000000
    38 0.021413 -0.957781 0.020046 -1.052173 0.000000 0.000000
    39 1.164475 -2.543940 -0.170330 -1.221927 -0.015463 0.162804
    40 0.024032 -1.129042 0.017807 -0.900877 0.000000 0.000001
    41 0.014898 -0.883989 -0.019848 -0.928571 0.000000 0.000000
    42 -0.586770 -1.264477 0.200161 0.150010 0.013443 -2.613227
    43 1.522835 0.058681 0.016848 0.001410 0.008985 0.624684
    44 1.117947 0.048424 -0.005766 -0.002568 -0.011344 -0.141987
    45 -0.139399 -0.111698 0.014397 0.774181 0.191172 1.472862
    46 -6.260806 6.983652 -0.294122 1.580804 -0.005023 -0.912799
  time 2
    0 -0.349399 1.166145 0.203512 0.000000 0.000000 0.000000
    1 9.917269 5.433193 -9.122193 -1.595984 -1.272789 1.243803
    2 -0.071918 -8.498730 -0.104136 0.221967 0.080481 -0.200353
    3 2.672261 -3.383448 0.696208 0.083503 0.128137 -1.585662
    4 8.674173 -0.128572 0.000000 0.000000 0.000000 0.000000
    5 0.000000 0.000000 0.000000 0.000000 0.000000 0.000000
    6 4.045845 -0.586976 0.000000 0.000000 0.000000 0.000000
    7 -33.579150 -30.231391 0.000000 0.000000 0.000000 0.000000
    8 1.039971 -0.940679 0.000000 0.000000 0.000000 -1.570796
    9 4.782106 0.485510 0.407405 0.000312 -1.211010 -1.571455
    10 2.020589 -0.183522 0.000000 1.570796 -1.570796 0.000000
    11 1.257180 8.762585 -0.153713 -1.570562 0.002683 -1.566807
    12 -0.488518 -2.755602 -0.228260 -0.518305 -0.074854 -0.310571
    13 0.039887 -1.479790 0.029854 -2.289231 0.000000 0.000001
    14 0.028786 -1.075731 -0.023109 -0.271941 0.000000 0.000000
    15 0.250027 -2.820665 -0.238396 -0.350825 -0.052441 -0.187301
    16 -0.049759 -1.680544 0.100479 -2.246572 0.000000 -0.000002
    17 -0.034142 -1.148312 0.084782 -0.535851 0.000000 0.000000
    18 0.957766 -2.746780 -0.090302 0.329289 -0.172344 0.119866
    19 -0.033420 -1.397129 -0.011257 -1.115580 0.000000 -0.000001
    20 -0.022360 -0.957436 0.018784 -1.148807 0.000000 0.000000
    21 -1.180681 -2.507217 -0.193859 -0.309305 0.033033 -0.314313
    22 -0.024967 -1.123934 0.017597 -2.040737 0.000000 0.000001
    23 -0.020057 -0.890968 0.010090 -0.646720 0.000000 0.000000
    24 0.583510 -1.197277 0.185379 0.371183 -0.693166 -0.903076
    25 1.535927 0.010246 0.005009 -0.002964 -0.012979 -0.682290
    26 1.100771 0.004527 -0.010679 -0.016147 -0.001453 -1.484153
    27 0.120153 -0.050270 -0.054489 0.287569 3.110905 1.561085
    28 -0.462181 -7.832902 -11.185218 -1.900534 -5.445519 -1.088692
    29 0.096944 -8.450418 -0.009365 0.075476 -1.267968 0.356845
    30 0.447953 -2.798986 -0.200443 -0.761407 0.042804 0.170619
    31 -0.032909 -1.480204 0.004940 -1.480139 0.000000 0.000002
    32 -0.027022 -1.076920 -0.020210 -0.375135 0.000000 0.000000
    33 -0.249534 -2.846964 -0.174213 -0.318562 0.002631 0.073866
    34 0.043235 -1.683941 0.096012 -1.876275 0.002823 -0.000167
    35 0.031729 -1.160830 0.058838 -0.099745 0.000642 0.008372
    36 -0.963866 -2.785145 -0.085350 0.076866 0.070929 0.053157
    37 0.028479 -1.403067 0.006271 -1.337909 0.000000 0.000000
    38 0.021413 -0.957781 0.020046 -1.052173 0.000000 0.000000
    39 1.164475 -2.543940 -0.170330 -1.221927 -0.015463 0.162804
    40 0.024032 -1.129042 0.017807 -0.900877 0.000000 0.000001
    41 0.014898 -0.883989 -0.019848 -0.928571 0.000000 0.000000
    42 -0.586770 -1.264477 0.200161 0.150010 0.013443 -2.613227
    43 1.522835 0.058681 0.016848 0.001410 0.008985 0.624684
    44 1.117947 0.048424 -0.005766 -0.002568 -0.011344 -0.141987
    45 -0.139399 -0.111698 0.014397 0.774181 0.191172 1.472862
    46 -6.260806 6.983652 -0.294122 1.580804 -0.005023 -0.912799
  time 3
    0 -0.349399 1.166145 0.203512 0.000000 0.000000 0.000000
    1 9.952426 5.874612 -9.614395 -1.663887 -1.224624 1.310340
    2 -0.071918 -8.498730 -0.104136 0.221967 0.080481 -0.200353
    3 2.672261 -3.383448 0.696208 0.083503 0.128137 -1.585662
    4 8.674173 -0.128572 0.000000 0.000000 0.000000 0.000000
    5 0.000000 0.000000 0.000000 0.000000 0.000000 0.000000
    6 4.045845 -0.586976 0.000000 0.000000 0.000000 0.000000
    7 -33.579150 -30.231391 0.000000 0.000000 0.000000 0.000000
    8 1.039971 -0.940679 0.000000 0.000000 0.000000 -1.570796
    9 4.782106 0.485510 0.407405 0.002121 -1.507460 -1.573325
    10 3.786267 -0.183522 0.000000 1.570796 -1.570796 0.000000
    11 1.257180 8.762585 -0.153713 -1.570562 0.002683 -1.566807
    12 -0.488518 -2.755602 -0.228260 -0.518305 -0.074854 -0.310571
    13 0.039887 -1.479790 0.029854 -2.289231 0.000000 0.000001
    14 0.028786 -1.075731 -0.023109 -0.271941 0.000000 0.000000
    15 0.250027 -2.820665 -0.238396 -0.350825 -0.052441 -0.187301
    16 -0.049759 -1.680544 0.100479 -2.246572 0.000000 -0.000002
    17 -0.034142 -1.148312 0.084782 -0.535851 0.000000 0.000000
    18 0.957766 -2.746780 -0.090302 0.329289 -0.172344 0.119866
    19 -0.033420 -1.397129 -0.011257 -1.115580 0.000000 -0.000001
    20 -0.022360 -0.957436 0.018784 -1.148807 0.000000 0.000000
    21 -1.180681 -2.507217 -0.193859 -0.309305 0.033033 -0.314313
    22 -0.024967 -1.123934 0.017597 -2.040737 0.000000 0.000001
    23 -0.020057 -0.890968 0.010090 -0.646720 0.000000 0.000000
    24 0.583510 -1.197277 0.185379 0.371183 -0.693166 -0.903076
    25 1.535927 0.010246 0.005009 -0.002964 -0.012979 -0.682269
    26 1.100771 0.004527 -0.010679 -0.016147 -0.001453 -1.484153
    27 0.120153 -0.050270 -0.054489 0.287569 3.110905 1.561085
    28 -0.387960 -7.504767 -11.052402 -1.926652 -5.495072 -1.105568
    29 0.096944 -8.450418 -0.009365 0.075476 -1.267968 0.356845
    30 0.447953 -2.798986 -0.200443 -0.761407 0.042804 0.170619
    31 -0.032909 -1.480204 0.004940 -1.480139 0.000000 0.000002
    32 -0.027022 -1.076920 -0.020210 -0.375135 0.000000 0.000000
    33 -0.249534 -2.846964 -0.174213 -0.318562 0.002631 0.073866
    34 0.043235 -1.683941 0.096012 -1.876275 0.002823 -0.000167
    35 0.031729 -1.160830 0.058838 -0.099745 0.000642 0.008372
    36 -0.963866 -2.785145 -0.085350 0.076866 0.070929 0.053157
    37 0.028479 -1.403067 0.006271 -1.337909 0.000000 0.000000
    38 0.021413 -0.957781 0.020046 -1.052173 0.000000 0.000000
    39 1.164475 -2.543940 -0.170330 -1.221927 -0.015463 0.162804
    40 0.024032 -1.129042 0.017807 -0.900877 0.000000 0.000001
    41 0.014898 -0.883989 -0.019848 -0.928571 0.000000 0.000000
    42 -0.586770 -1.264477 0.200161 0.150010 0.013443 -2.613227
    43 1.522835 0.058681 0.016848 0.001410 0.008985 0.624684
    44 1.117947 0.048424 -0.005766 -0.002568 -0.011344 -0.141987
    45 -0.139399 -0.111698 0.014397 0.774181 0.191172 1.472862
    46 -6.260806 6.983652 -0.294122 1.580804 -0.005023 -0.912799
  time 4
    0 -0.349399 1.166145 0.203512 0.000000 0.000000 0.000000
    1 9.940707 5.706638 -9.454234 -1.671802 -1.223724 1.318594
    2 -0.071918 -8.498730 -0.104136 0.221967 0.080481 -0.200353
    3 2.672261 -3.383448 0.696208 0.083503 0.128137 -1.585662
    4 8.674173 -0.128572 0.000000 0.000000 0.000000 0.000000
    5 0.000000 0.000000 0.000000 0.000000 0.000000 0.000000
    6 4.045845 -0.586976 0.000000 0.000000 0.000000 0.000000
    7 -33.579150 -30.231391 0.000000 0.000000 0.000000 0.000000
    8 1.039971 -0.940679 0.000000 0.000000 0.000000 -1.570796
    9 4.782106 0.485510 0.407405 -0.000084 -0.842472 -1.570904
    10 5.548040 -0.183522 0.000000 1.570796 -1.570796 0.000000
    11 1.257180 8.762585 -0.153713 -1.570562 0.002683 -1.566807
    12 -0.488518 -2.755602 -0.228260 -0.518305 -0.074854 -0.310571
    13 0.039887 -1.479790 0.029854 -2.289231 0.000000 0.000001
    14 0.028786 -1.075731 -0.023109 -0.271941 0.000000 0.000000
    15 0.250027 -2.820665 -0.238396 -0.350825 -0.052441 -0.187301
    16 -0.049759 -1.680544 0.100479 -2.246572 0.000000 -0.000002
    17 -0.034142 -1.148312 0.084782 -0.535851 0.000000 0.000000
    18 0.957766 -2.746780 -0.090302 0.329289 -0.172344 0.119866
    19 -0.033420 -1.397129 -0.011257 -1.115580 0.000000 -0.000001
    20 -0.022360 -0.957436 0.018784 -1.148807 0.000000 0.000000
    21 -1.180681 -2.507217 -0.193859 -0.309305 0.033033 -0.314313
    22 -0.024967 -1.123934 0.017597 -2.040737 0.000000 0.000001
    23 -0.020057 -0.890968 0.010090 -0.646720 0.000000 0.000000
    24 0.583510 -1.197277 0.185379 0.371183 -0.693166 -0.903076
    25 1.535927 0.010246 0.005009 -0.002964 -0.012979 -0.682290
    26 1.100771 0.004527 -0.010679 -0.016147 -0.001453 -1.484153
    27 0.120153 -0.050270 -0.054489 0.287569 3.110905 1.561085
    28 -0.384054 -7.684460 -10.896147 -1.924643 -5.497458 -1.103280
    29 0.096944 -8.450418 -0.009365 0.075476 -1.267968 0.356845
    30 0.447953 -2.798986 -0.200443 -0.761407 0.042804 0.170619
    31 -0.032909 -1.480204 0.004940 -1.480139 0.000000 0.000002
    32 -0.027022 -1.076920 -0.020210 -0.375135 0.000000 0.000000
    33 -0.249534 -2.846964 -0.174213 -0.318562 0.002631 0.073866
    34 0.043235 -1.683941 0.096012 -1.876275 0.002823 -0.000167
    35 0.031729 -1.160830 0.058838 -0.099745 0.000642 0.008372
    36 -0.963866 -2.785145 -0.085350 0.076866 0.070929 0.053157
    37 0.028479 -1.403067 0.006271 -1.337909 0.000000 0.000000
    38 0.021413 -0.957781 0.020046 -1.052173 0.000000 0.000000
    39 1.164475 -2.543940 -0.170330 -1.221927 -0.015463 0.162804
    40 0.024032 -1.129042 0.017807 -0.900877 0.000000 0.000001
    41 0.014898 -0.883989 -0.019848 -0.928571 0.000000 0.000000
    42 -0.586770 -1.264477 0.200161 0.150010 0.013443 -2.613227
    43 1.522835 0.058681 0.016848 0.001410 0.008985 0.624684
    44 1.117947 0.048424 -0.005766 -0.002568 -0.011344 -0.141987
    45 -0.139399 -0.111698 0.014397 0.774181 0.191172 1.472862
    46 -6.260806 6.983652 -0.294122 1.580804 -0.005023 -0.912799
  time 5
    0 -0.349399 1.166145 0.203512 0.000000 0.000000 0.000000
    1 9.917269 5.288657 -9.098754 -1.666720 -1.236854 1.314424
    2 -0.071918 -8.498730 -0.104136 0.221967 0.080481 -0.200353
    3 2.672261 -3.383448 0.696208 0.083503 0.128137 -1.585662
    4 8.674173 -0.128572 0.000000 0.000000 0.000000 0.000000
    5 0.000000 0.000000 0.000000 0.000000 0.000000 0.000000
    6 4.045845 -0.586976 0.000000 0.000000 0.000000 0.000000
    7 -33.579150 -30.231391 0.000000 0.000000 0.000000 0.000000
    8 1.039971 -0.940679 0.000000 0.000000 0.000000 -1.570796
    9 4.782106 0.485510 0.407405 -0.000024 0.000000 -1.570628
    10 5.548040 -0.183522 0.000000 1.570796 -1.570796 0.000000
    11 1.257180 8.762585 -0.153713 -1.570562 0.002683 -1.566807
    12 -0.488518 -2.755602 -0.228260 -0.518305 -0.074854 -0.310571
    13 0.039887 -1.479790 0.029854 -2.289231 0.000000 0.000001
    14 0.028786 -1.075731 -0.023109 -0.271941 0.000000 0.000000
    15 0.250027 -2.820665 -0.238396 -0.350825 -0.052441 -0.187301
    16 -0.049759 -1.680544 0.100479 -2.246572 0.000000 -0.000002
    17 -0.034142 -1.148312 0.084782 -0.535851 0.000000 0.000000
    18 0.957766 -2.746780 -0.090302 0.329289 -0.172344 0.119866
    19 -0.033420 -1.397129 -0.011257 -1.115580 0.000000 -0.000001
    20 -0.022360 -0.957436 0.018784 -1.148807 0.000000 0.000000
    21 -1.180681 -2.507217 -0.193859 -0.309305 0.033033 -0.314313
    22 -0.024967 -1.123934 0.017597 -2.040737 0.000000 0.000001
    23 -0.020057 -0.890968 0.010090 -0.646720 0.000000 0.000000
    24 0.583510 -1.197277 0.185379 0.371183 -0.693166 -0.903076
    25 1.535927 0.010246 0.005009 -0.002964 -0.012979 -0.682290
    26 1.100771 0.004527 -0.010679 -0.016147 -0.001453 -1.484153
    27 0.120153 -0.050270 -0.054489 0.287569 3.110905 1.561085
    28 -0.399679 -8.086816 -10.732080 -1.914062 -5.486538 -1.095080
    29 0.096944 -8.450418 -0.009365 0.075476 -1.267968 0.356845
    30 0.447953 -2.798986 -0.200443 -0.761407 0.042804 0.170619
    31 -0.032909 -1.480204 0.004940 -1.480139 0.000000 0.000002
    32 -0.027022 -1.076920 -0.020210 -0.375135 0.000000 0.000000
    33 -0.249534 -2.846964 -0.174213 -0.318562 0.002631 0.073866
    34 0.043235 -1.683941 0.096012 -1.876275 0.002823 -0.000167
    35 0.031729 -1.160830 0.058838 -0.099745 0.000642 0.008372
    36 -0.963866 -2.785145 -0.085350 0.076866 0.070929 0.053157
    37 0.028479 -1.403067 0.006271 -1.337909 0.000000 0.000000
    38 0.021413 -0.957781 0.020046 -1.052173 0.000000 0.000000
    39 1.164475 -2.543940 -0.170330 -1.221927 -0.015463 0.162804
    40 0.024032 -1.129042 0.017807 -0.900877 0.000000 0.000001
    41 0.014898 -0.883989 -0.019848 -0.928571 0.000000 0.000000
    42 -0.586770 -1.264477 0.200161 0.150010 0.013443 -2.613227
    43 1.522835 0.058681 0.016848 0.001410 0.008985 0.624684
    44 1.117947 0.048424 -0.005766 -0.002568 -0.011344 -0.141987
    45 -0.139399 -0.111698 0.014397 0.774181 0.191172 1.472862
    46 -6.260806 6.983652 -0.294122 1.580804 -0.005023 -0.912799
  time 6
    0 -0.349399 1.166145 0.203512 0.000000 0.000000 0.000000
    1 9.889925 4.800361 -8.708117 -1.654889 -1.255235 1.303704
    2 -0.071918 -8.498730 -0.104136 0.221967 0.080481 -0.200353
    3 2.672261 -3.383448 0.696208 0.083503 0.128137 -1.585662
    4 8.674173 -0.128572 0.000000 0.000000 0.000000 0.000000
    5 0.000000 0.000000 0.000000 0.000000 0.000000 0.000000
    6 4.045845 -0.586976 0.000000 0.000000 0.000000 0.000000
    7 -33.579150 -30.231391 0.000000 0.000000 0.000000 0.000000
    8 1.039971 -0.940679 0.000000 0.000000 0.000000 -1.570796
    9 4.782106 0.485510 0.407405 -0.000024 0.000000 -1.570628
    10 5.548040 -0.183522 0.000000 1.570796 -1.570796 0.000000
    11 1.257180 8.762585 -0.153713 -1.570562 0.002683 -1.566807
    12 -0.488518 -2.755602 -0.228260 -0.518305 -0.074854 -0.310571
    13 0.039887 -1.479790 0.029854 -2.289231 0.000000 0.000001
    14 0.028786 -1.075731 -0.023109 -0.271941 0.000000 0.000000
    15 0.250027 -2.820665 -0.238396 -0.350825 -0.052441 -0.187301
    16 -0.049759 -1.680544 0.100479 -2.246572 0.000000 -0.000002
    17 -0.034142 -1.148312 0.084782 -0.535851 0.000000 0.000000
    18 0.957766 -2.746780 -0.090302 0.329289 -0.172344 0.119866
    19 -0.033420 -1.397129 -0.011257 -1.115580 0.000000 -0.000001
    20 -0.022360 -0.957436 0.018784 -1.148807 0.000000 0.000000
    21 -1.180681 -2.507217 -0.193859 -0.309305 0.033033 -0.314313
    22 -0.024967 -1.123934 0.017597 -2.040737 0.000000 0.000001
    23 -0.020057 -0.890968 0.010090 -0.646720 0.000000 0.000000
    24 0.583510 -1.197277 0.185379 0.371183 -0.693166 -0.903076
    25 1.535927 0.010246 0.005009 -0.002964 -0.012979 -0.682290
    26 1.100771 0.004527 -0.010679 -0.016147 -0.001453 -1.484153
    27 0.120153 -0.050270 -0.054489 0.287569 3.110905 1.561085
    28 -0.419211 -8.547767 -10.603169 -1.900132 -5.470479 -1.084688
    29 0.096944 -8.450418 -0.009365 0.075476 -1.267968 0.356845
    30 0.447953 -2.798986 -0.200443 -0.761407 0.042804 0.170619
    31 -0.032909 -1.480204 0.004940 -1.480139 0.000000 0.000002
    32 -0.027022 -1.076920 -0.020210 -0.375135 0.000000 0.000000
    33 -0.249534 -2.846964 -0.174213 -0.318562 0.002631 0.073866
    34 0.043235 -1.683941 0.096012 -1.876275 0.002823 -0.000167
    35 0.031729 -1.160830 0.058838 -0.099745 0.000642 0.008372
    36 -0.963866 -2.785145 -0.085350 0.076866 0.070929 0.053157
    37 0.028479 -1.403067 0.006271 -1.337909 0.000000 0.000000
    38 0.021413 -0.957781 0.020046 -1.052173 0.000000 0.000000
    39 1.164475 -2.543940 -0.170330 -1.221927 -0.015463 0.162804
    40 0.024032 -1.129042 0.017807 -0.900877 0.000000 0.000001
    41 0.014898 -0.883989 -0.019848 -0.928571 0.000000 0.000000
    42 -0.586770 -1.264477 0.200161 0.150010 0.013443 -2.613227
    43 1.522835 0.058681 0.016848 0.001410 0.008985 0.624684
    44 1.117947 0.048424 -0.005766 -0.002568 -0.011344 -0.141987
    45 -0.139399 -0.111698 0.014397 0.774181 0.191172 1.472862
    46 -6.260806 6.983652 -0.294122 1.580804 -0.005023 -0.912799
  time 7
    0 -0.349399 1.166145 0.203512 0.000000 0.000000 0.000000
    1 9.874299 4.413630 -8.446391 -1.643724 -1.270055 1.293408
    2 -0.071918 -8.498730 -0.104136 0.221967 0.080481 -0.200353
    3 2.672261 -3.383448 0.696208 0.083503 0.128137 -1.585662
    4 8.674173 -0.128572 0.000000 0.000000 0.000000 0.000000
    5 0.000000 0.000000 0.000000 0.000000 0.000000 0.000000
    6 4.045845 -0.586976 0.000000 0.000000 0.000000 0.000000
    7 -33.579150 -30.231391 0.000000 0.000000 0.000000 0.000000
    8 1.039971 -0.940679 0.000000 0.000000 0.000000 -1.570796
    9 4.782106 0.485510 0.407405 0.000012 0.000000 -1.570796
    10 5.548040 -0.183522 0.000000 1.570796 -1.570796 0.000000
    11 1.257180 8.762585 -0.153713 -1.570562 0.002683 -1.566807
    12 -0.488518 -2.755602 -0.228260 -0.518305 -0.074854 -0.310571
    13 0.039887 -1.479790 0.029854 -2.289231 0.000000 0.000001
    14 0.028786 -1.075731 -0.023109 -0.271941 0.000000 0.000000
    15 0.250027 -2.820665 -0.238396 -0.350825 -0.052441 -0.187301
    16 -0.049759 -1.680544 0.100479 -2.246572 0.000000 -0.000002
    17 -0.034142 -1.148312 0.084782 -0.535851 0.000000 0.000000
    18 0.957766 -2.746780 -0.090302 0.329289 -0.172344 0.119866
    19 -0.033420 -1.397129 -0.011257 -1.115580 0.000000 -0.000001
    20 -0.022360 -0.957436 0.018784 -1.148807 0.000000 0.000000
    21 -1.180681 -2.507217 -0.193859 -0.309305 0.033033 -0.314313
    22 -0.024967 -1.123934 0.017597 -2.040737 0.000000 0.000001
    23 -0.020057 -0.890968 0.010090 -0.646720 0.000000 0.000000
    24 0.583510 -1.197277 0.185379 0.371183 -0.693166 -0.903076
    25 1.535927 0.010246 0.005009 -0.002964 -0.012979 -0.682290
    26 1.100771 0.004527 -0.010679 -0.016147 -0.001453 -1.484153
    27 0.120153 -0.050270 -0.054489 0.287569 3.110905 1.561085
    28 -0.430930 -8.907153 -10.552387 -1.888681 -5.457448 -1.076011
    29 0.096944 -8.450418 -0.009365 0.075476 -1.267968 0.356845
    30 0.447953 -2.798986 -0.200443 -0.761407 0.042804 0.170619
    31 -0.032909 -1.480204 0.004940 -1.480139 0.000000 0.000002
    32 -0.027022 -1.076920 -0.020210 -0.375135 0.000000 0.000000
    33 -0.249534 -2.846964 -0.174213 -0.318562 0.002631 0.073866
    34 0.043235 -1.683941 0.096012 -1.876275 0.002823 -0.000167
    35 0.031729 -1.160830 0.058838 -0.099745 0.000642 0.008372
    36 -0.963866 -2.785145 -0.085350 0.076866 0.070929 0.053157
    37 0.028479 -1.403067 0.006271 -1.337909 0.000000 0.000000
    38 0.021413 -0.957781 0.020046 -1.052173 0.000000 0.000000
    39 1.164475 -2.543940 -0.170330 -1.221927 -0.015463 0.162804
    40 0.024032 -1.129042 0.017807 -0.900877 0.000000 0.000001
    41 0.014898 -0.883989 -0.019848 -0.928571 0.000000 0.000000
    42 -0.586770 -1.264477 0.200161 0.150010 0.013443 -2.613227
    43 1.522835 0.058681 0.016848 0.001410 0.008985 0.624684
    44 1.117947 0.048424 -0.005766 -0.002568 -0.011344 -0.141987
    45 -0.139399 -0.111698 0.014397 0.774181 0.191172 1.472862
    46 -6.260806 6.983652 -0.294122 1.580804 -0.005023 -0.912799
  time 8
    0 -0.349399 1.166145 0.203512 0.000000 0.000000 0.000000
    1 9.870393 4.147997 -8.329200 -1.634726 -1.280666 1.284815
    2 -0.071918 -8.498730 -0.104136 0.221967 0.080481 -0.200353
    3 2.672261 -3.383448 0.696208 0.083503 0.128137 -1.585662
    4 8.674173 -0.128572 0.000000 0.000000 0.000000 0.000000
    5 0.000000 0.000000 0.000000 0.000000 0.000000 0.000000
    6 4.045845 -0.586976 0.000000 0.000000 0.000000 0.000000
    7 -33.579150 -30.231391 0.000000 0.000000 0.000000 0.000000
    8 1.039971 -0.940679 0.000000 0.000000 0.000000 -1.570796
    9 4.782106 0.485510 0.407405 0.000012 0.000000 -1.570796
    10 5.548040 -0.183522 0.000000 1.570796 -1.570796 0.000000
    11 1.257180 8.762585 -0.153713 -1.570562 0.002683 -1.566807
    12 -0.488518 -2.755602 -0.228260 -0.518305 -0.074854 -0.310571
    13 0.039887 -1.479790 0.029854 -2.289231 0.000000 0.000001
    14 0.028786 -1.075731 -0.023109 -0.271941 0.000000 0.000000
    15 0.250027 -2.820665 -0.238396 -0.350825 -0.052441 -0.187301
    16 -0.049759 -1.680544 0.100479 -2.246572 0.000000 -0.000002
    17 -0.034142 -1.148312 0.084782 -0.535851 0.000000 0.000000
    18 0.957766 -2.746780 -0.090302 0.329289 -0.172344 0.119866
    19 -0.033420 -1.397129 -0.011257 -1.115580 0.000000 -0.000001
    20 -0.022360 -0.957436 0.018784 -1.148807 0.000000 0.000000
    21 -1.180681 -2.507217 -0.193859 -0.309305 0.033033 -0.314313
    22 -0.024967 -1.123934 0.017597 -2.040737 0.000000 0.000001
    23 -0.020057 -0.890968 0.010090 -0.646720 0.000000 0.000000
    24 0.583510 -1.197277 0.185379 0.371183 -0.693166 -0.903076
    25 1.535927 0.010246 0.005009 -0.002964 -0.012979 -0.682290
    26 1.100771 0.004527 -0.010679 -0.016147 -0.001453 -1.484153
    27 0.120153 -0.050270 -0.054489 0.287569 3.110905 1.561085
    28 -0.434836 -9.153255 -10.583637 -1.880444 -5.447996 -1.069719
    29 0.096944 -8.450418 -0.009365 0.075476 -1.267968 0.356845
    30 0.447953 -2.798986 -0.200443 -0.761407 0.042804 0.170619
    31 -0.032909 -1.480204 0.004940 -1.480139 0.000000 0.000002
    32 -0.027022 -1.076920 -0.020210 -0.375135 0.000000 0.000000
    33 -0.249534 -2.846964 -0.174213 -0.318562 0.002631 0.073866
    34 0.043235 -1.683941 0.096012 -1.876275 0.002823 -0.000167
    35 0.031729 -1.160830 0.058838 -0.099745 0.000642 0.008372
    36 -0.963866 -2.785145 -0.085350 0.076866 0.070929 0.053157
    37 0.028479 -1.403067 0.006271 -1.337909 0.000000 0.000000
    38 0.021413 -0.957781 0.020046 -1.052173 0.000000 0.000000
    39 1.164475 -2.543940 -0.170330 -1.221927 -0.015463 0.162804
    40 0.024032 -1.129042 0.017807 -0.900877 0.000000 0.000001
    41 0.014898 -0.883989 -0.019848 -0.928571 0.000000 0.000000
    42 -0.586770 -1.264477 0.200161 0.150010 0.013443 -2.613227
    43 1.522835 0.058681 0.016848 0.001410 0.008985 0.624684
    44 1.117947 0.048424 -0.005766 -0.002568 -0.011344 -0.141987
    45 -0.139399 -0.111698 0.014397 0.774181 0.191172 1.472862
    46 -6.260806 6.983652 -0.294122 1.580804 -0.005023 -0.912799
  time 9
    0 -0.349399 1.166145 0.203512 0.000000 0.000000 0.000000
    1 9.870393 3.905802 -8.251072 -1.623312 -1.291709 1.274009
    2 -0.071918 -8.498730 -0.104136 0.221967 0.080481 -0.200353
    3 2.672261 -3.383448 0.696208 0.083503 0.128137 -1.585662
    4 8.674173 -0.128572 0.000000 0.000000 0.000000 0.000000
    5 0.000000 0.000000 0.000000 0.000000 0.000000 0.000000
    6 4.045845 -0.586976 0.000000 0.000000 0.000000 0.000000
    7 -33.579150 -30.231391 0.000000 0.000000 0.000000 0.000000
    8 1.039971 -0.940679 0.000000 0.000000 0.000000 -1.570796
    9 4.782106 0.485510 0.407405 0.000012 0.000000 -1.570796
    10 5.548040 -0.183522 0.000000 1.570796 -1.570796 0.000000
    11 1.257180 8.762585 -0.153713 -1.570562 0.002683 -1.566807
    12 -0.488518 -2.755602 -0.228260 -0.518305 -0.074854 -0.310571
    13 0.039887 -1.479790 0.029854 -2.289231 0.000000 0.000001
    14 0.028786 -1.075731 -0.023109 -0.271941 0.000000 0.000000
    15 0.250027 -2.820665 -0.238396 -0.350825 -0.052441 -0.187301
    16 -0.049759 -1.680544 0.100479 -2.246572 0.000000 -0.000002
    17 -0.034142 -1.148312 0.084782 -0.535851 0.000000 0.000000
    18 0.957766 -2.746780 -0.090302 0.329289 -0.172344 0.119866
    19 -0.033420 -1.397129 -0.011257 -1.115580 0.000000 -0.000001
    20 -0.022360 -0.957436 0.018784 -1.148807 0.000000 0.000000
    21 -1.180681 -2.507217 -0.193859 -0.309305 0.033033 -0.314313
    22 -0.024967 -1.123934 0.017597 -2.040737 0.000000 0.000001
    23 -0.020057 -0.890968 0.010090 -0.646720 0.000000 0.000000
    24 0.583510 -1.197277 0.185379 0.371183 -0.693166 -0.903076
    25 1.535927 0.010246 0.005009 -0.002964 -0.012979 -0.682290
    26 1.100771 0.004527 -0.010679 -0.016147 -0.001453 -1.484153
    27 0.120153 -0.050270 -0.054489 0.287569 3.110905 1.561085
    28 -0.434836 -9.368105 -10.657858 -1.871939 -5.437994 -1.063426
    29 0.096944 -8.450418 -0.009365 0.075476 -1.267968 0.356845
    30 0.447953 -2.798986 -0.200443 -0.761407 0.042804 0.170619
    31 -0.032909 -1.480204 0.004940 -1.480139 0.000000 0.000002
    32 -0.027022 -1.076920 -0.020210 -0.375135 0.000000 0.000000
    33 -0.249534 -2.846964 -0.174213 -0.318562 0.002631 0.073866
    34 0.043235 -1.683941 0.096012 -1.876275 0.002823 -0.000167
    35 0.031729 -1.160830 0.058838 -0.099745 0.000642 0.008372
    36 -0.963866 -2.785145 -0.085350 0.076866 0.070929 0.053157
    37 0.028479 -1.403067 0.006271 -1.337909 0.000000 0.000000
    38 0.021413 -0.957781 0.020046 -1.052173 0.000000 0.000000
    39 1.164475 -2.543940 -0.170330 -1.221927 -0.015463 0.162804
    40 0.024032 -1.129042 0.017807 -0.900877 0.000000 0.000001
    41 0.014898 -0.883989 -0.019848 -0.928571 0.000000 0.000000
    42 -0.586770 -1.264477 0.200161 0.150010 0.013443 -2.613227
    43 1.522835 0.058681 0.016848 0.001410 0.008985 0.624684
    44 1.117947 0.048424 -0.005766 -0.002568 -0.011344 -0.141987
    45 -0.139399 -0.111698 0.014397 0.774181 0.191172 1.472862
    46 -6.260806 6.983652 -0.294122 1.580804 -0.005023 -0.912799
  time 10
    0 -0.349399 1.166145 0.203512 0.000000 0.000000 0.000000
    1 9.870393 3.679233 -8.208102 -1.610564 -1.302428 1.261671
    2 -0.071918 -8.498730 -0.104136 0.221967 0.080481 -0.200353
    3 2.672261 -3.383448 0.696208 0.083503 0.128137 -1.585662
    4 8.674173 -0.128572 0.000000 0.000000 0.000000 0.000000
    5 0.000000 0.000000 0.000000 0.000000 0.000000 0.000000
    6 4.045845 -0.586976 0.000000 0.000000 0.000000 0.000000
    7 -33.579150 -30.231391 0.000000 0.000000 0.000000 0.000000
    8 1.039971 -0.940679 0.000000 0.000000 0.000000 -1.570796
    9 4.782106 0.485510 0.407405 0.000012 0.000000 -1.570808
    10 5.548040 -0.183522 0.000000 1.570796 -1.570796 0.000000
    11 1.257180 8.762585 -0.153713 -1.570562 0.002683 -1.566807
    12 -0.488518 -2.755602 -0.228260 -0.518305 -0.074854 -0.310571
    13 0.039887 -1.479790 0.029854 -2.289231 0.000000 0.000001
    14 0.028786 -1.075731 -0.023109 -0.271941 0.000000 0.000000
    15 0.250027 -2.820665 -0.238396 -0.350825 -0.052441 -0.187301
    16 -0.049759 -1.680544 0.100479 -2.246572 0.000000 -0.000002
    17 -0.034142 -1.148312 0.084782 -0.535851 0.000000 0.000000
    18 0.957766 -2.746780 -0.090302 0.329289 -0.172344 0.119866
    19 -0.033420 -1.397129 -0.011257 -1.115580 0.000000 -0.000001
    20 -0.022360 -0.957436 0.018784 -1.148807 0.000000 0.000000
    21 -1.180681 -2.507217 -0.193859 -0.309305 0.033033 -0.314313
    22 -0.024967 -1.123934 0.017597 -2.040737 0.000000 0.000001
    23 -0.020057 -0.890968 0.010090 -0.646720 0.000000 0.000000
    24 0.583510 -1.197277 0.185379 0.371183 -0.693166 -0.903076
    25 1.535927 0.010246 0.005009 -0.002964 -0.012979 -0.682290
    26 1.100771 0.004527 -0.010679 -0.016147 -0.001453 -1.484153
    27 0.120153 -0.050270 -0.054489 0.287569 3.110905 1.561085
    28 -0.434836 -9.563423 -10.763330 -1.863702 -5.428083 -1.057228
    29 0.096944 -8.450418 -0.009365 0.075476 -1.267968 0.356845
    30 0.447953 -2.798986 -0.200443 -0.761407 0.042804 0.170619
    31 -0.032909 -1.480204 0.004940 -1.480139 0.000000 0.000002
    32 -0.027022 -1.076920 -0.020210 -0.375135 0.000000 0.000000
    33 -0.249534 -2.846964 -0.174213 -0.318562 0.002631 0.073866
    34 0.043235 -1.683941 0.096012 -1.876275 0.002823 -0.000167
    35 0.031729 -1.160830 0.058838 -0.099745 0.000642 0.008372
    36 -0.963866 -2.785145 -0.085350 0.076866 0.070929 0.053157
    37 0.028479 -1.403067 0.006271 -1.337909 0.000000 0.000000
    38 0.021413 -0.957781 0.020046 -1.052173 0.000000 0.000000
    39 1.164475 -2.543940 -0.170330 -1.221927 -0.015463 0.162804
    40 0.024032 -1.129042 0.017807 -0.900877 0.000000 0.000001
    41 0.014898 -0.883989 -0.019848 -0.928571 0.000000 0.000000
    42 -0.586770 -1.264477 0.200161 0.150010 0.013443 -2.613227
    43 1.522835 0.058681 0.016848 0.001410 0.008985 0.624684
    44 1.117947 0.048424 -0.005766 -0.002568 -0.011344 -0.141987
    45 -0.139399 -0.111698 0.014397 0.774181 0.191172 1.472862
    46 -6.260806 6.983652 -0.294122 1.580804 -0.005023 -0.912799
  time 11
    0 -0.349399 1.166145 0.203512 0.000000 0.000000 0.000000
    1 9.874299 3.476102 -8.188570 -1.597733 -1.312141 1.249164
    2 -0.071918 -8.498730 -0.104136 0.221967 0.080481 -0.200353
    3 2.672261 -3.383448 0.696208 0.083503 0.128137 -1.585662
    4 8.674173 -0.128572 0.000000 0.000000 0.000000 0.000000
    5 0.000000 0.000000 0.000000 0.000000 0.000000 0.000000
    6 4.045845 -0.586976 0.000000 0.000000 0.000000 0.000000
    7 -33.579150 -30.231391 0.000000 0.000000 0.000000 0.000000
    8 1.039971 -0.940679 0.000000 0.000000 0.000000 -1.570796
    9 4.782106 0.485510 0.407405 0.000012 0.000000 -1.570808
    10 5.548040 -0.183522 0.000000 1.570796 -1.570796 0.000000
    11 1.257180 8.762585 -0.153713 -1.570562 0.002683 -1.566807
    12 -0.488518 -2.755602 -0.228260 -0.518305 -0.074854 -0.310571
    13 0.039887 -1.479790 0.029854 -2.289231 0.000000 0.000001
    14 0.028786 -1.075731 -0.023109 -0.271941 0.000000 0.000000
    15 0.250027 -2.820665 -0.238396 -0.350825 -0.052441 -0.187301
    16 -0.049759 -1.680544 0.100479 -2.246572 0.000000 -0.000002
    17 -0.034142 -1.148312 0.084782 -0.535851 0.000000 0.000000
    18 0.957766 -2.746780 -0.090302 0.329289 -0.172344 0.119866
    19 -0.033420 -1.397129 -0.011257 -1.115580 0.000000 -0.000001
    20 -0.022360 -0.957436 0.018784 -1.148807 0.000000 0.000000
    21 -1.180681 -2.507217 -0.193859 -0.309305 0.033033 -0.314313
    22 -0.024967 -1.123934 0.017597 -2.040737 0.000000 0.000001
    23 -0.020057 -0.890968 0.010090 -0.646720 0.000000 0.000000
    24 0.583510 -1.197277 0.185379 0.371183 -0.693166 -0.903076
    25 1.535927 0.010246 0.005009 -0.002964 -0.012979 -0.682290
    26 1.100771 0.004527 -0.010679 -0.016147 -0.001453 -1.484153
    27 0.120153 -0.050270 -0.054489 0.287569 3.110905 1.561085
    28 -0.430930 -9.743116 -10.880522 -1.856201 -5.419090 -1.051603
    29 0.096944 -8.450418 -0.009365 0.075476 -1.267968 0.356845
    30 0.447953 -2.798986 -0.200443 -0.761407 0.042804 0.170619
    31 -0.032909 -1.480204 0.004940 -1.480139 0.000000 0.000002
    32 -0.027022 -1.076920 -0.020210 -0.375135 0.000000 0.000000
    33 -0.249534 -2.846964 -0.174213 -0.318562 0.002631 0.073866
    34 0.043235 -1.683941 0.096012 -1.876275 0.002823 -0.000167
    35 0.031729 -1.160830 0.058838 -0.099745 0.000642 0.008372
    36 -0.963866 -2.785145 -0.085350 0.076866 0.070929 0.053157
    37 0.028479 -1.403067 0.006271 -1.337909 0.000000 0.000000
    38 0.021413 -0.957781 0.020046 -1.052173 0.000000 0.000000
    39 1.164475 -2.543940 -0.170330 -1.221927 -0.015463 0.162804
    40 0.024032 -1.129042 0.017807 -0.900877 0.000000 0.000001
    41 0.014898 -0.883989 -0.019848 -0.928571 0.000000 0.000000
    42 -0.586770 -1.264477 0.200161 0.150010 0.013443 -2.613227
    43 1.522835 0.058681 0.016848 0.001410 0.008985 0.624684
    44 1.117947 0.048424 -0.005766 -0.002568 -0.011344 -0.141987
    45 -0.139399 -0.111698 0.014397 0.774181 0.191172 1.472862
    46 -6.260806 6.983652 -0.294122 1.580804 -0.005023 -0.912799
  time 12
    0 -0.349399 1.166145 0.203512 0.000000 0.000000 0.000000
    1 9.874299 3.284690 -8.196383 -1.586236 -1.320126 1.238017
    2 -0.071918 -8.498730 -0.104136 0.221967 0.080481 -0.200353
    3 2.672261 -3.383448 0.696208 0.083503 0.128137 -1.585662
    4 8.674173 -0.128572 0.000000 0.000000 0.000000 0.000000
    5 0.000000 0.000000 0.000000 0.000000 0.000000 0.000000
    6 4.045845 -0.586976 0.000000 0.000000 0.000000 0.000000
    7 -33.579150 -30.231391 0.000000 0.000000 0.000000 0.000000
    8 1.039971 -0.940679 0.000000 0.000000 0.000000 -1.570796
    9 4.782106 0.485510 0.407405 0.000012 0.000000 -1.570808
    10 5.548040 -0.183522 0.000000 1.570796 -1.570796 0.000000
    11 1.257180 8.762585 -0.153713 -1.570562 0.002683 -1.566807
    12 -0.488518 -2.755602 -0.228260 -0.518305 -0.074854 -0.310571
    13 0.039887 -1.479790 0.029854 -2.289231 0.000000 0.000001
    14 0.028786 -1.075731 -0.023109 -0.271941 0.000000 0.000000
    15 0.250027 -2.820665 -0.238396 -0.350825 -0.052441 -0.187301
    16 -0.049759 -1.680544 0.100479 -2.246572 0.000000 -0.000002
    17 -0.034142 -1.148312 0.084782 -0.535851 0.000000 0.000000
    18 0.957766 -2.746780 -0.090302 0.329289 -0.172344 0.119866
    19 -0.033420 -1.397129 -0.011257 -1.115580 0.000000 -0.000001
    20 -0.022360 -0.957436 0.018784 -1.148807 0.000000 0.000000
    21 -1.180681 -2.507217 -0.193859 -0.309305 0.033033 -0.314313
    22 -0.024967 -1.123934 0.017597 -2.040737 0.000000 0.000001
    23 -0.020057 -0.890968 0.010090 -0.646720 0.000000 0.000000
    24 0.583510 -1.197277 0.185379 0.371183 -0.693166 -0.903076
    25 1.535927 0.010246 0.005009 -0.002964 -0.012979 -0.682290
    26 1.100771 0.004527 -0.010679 -0.016147 -0.001453 -1.484153
    27 0.120153 -0.050270 -0.054489 0.287569 3.110905 1.561085
    28 -0.430930 -9.907184 -10.997713 -1.849906 -5.411657 -1.046836
    29 0.096944 -8.450418 -0.009365 0.075476 -1.267968 0.356845
    30 0.447953 -2.798986 -0.200443 -0.761407 0.042804 0.170619
    31 -0.032909 -1.480204 0.004940 -1.480139 0.000000 0.000002
    32 -0.027022 -1.076920 -0.020210 -0.375135 0.000000 0.000000
    33 -0.249534 -2.846964 -0.174213 -0.318562 0.002631 0.073866
    34 0.043235 -1.683941 0.096012 -1.876275 0.002823 -0.000167
    35 0.031729 -1.160830 0.058838 -0.099745 0.000642 0.008372
    36 -0.963866 -2.785145 -0.085350 0.076866 0.070929 0.053157
    37 0.028479 -1.403067 0.006271 -1.337909 0.000000 0.000000
    38 0.021413 -0.957781 0.020046 -1.052173 0.000000 0.000000
    39 1.164475 -2.543940 -0.170330 -1.221927 -0.015463 0.162804
    40 0.024032 -1.129042 0.017807 -0.900877 0.000000 0.000001
    41 0.014898 -0.883989 -0.019848 -0.928571 0.000000 0.000000
    42 -0.586770 -1.264477 0.200161 0.150010 0.013443 -2.613227
    43 1.522835 0.058681 0.016848 0.001410 0.008985 0.624684
    44 1.117947 0.048424 -0.005766 -0.002568 -0.011344 -0.141987
    45 -0.139399 -0.111698 0.014397 0.774181 0.191172 1.472862
    46 -6.260806 6.983652 -0.294122 1.580804 -0.005023 -0.912799
  time 13
    0 -0.349399 1.166145 0.203512 0.000000 0.000000 0.000000
    1 9.874299 3.112809 -8.223728 -1.577904 -1.325666 1.229934
    2 -0.071918 -8.498730 -0.104136 0.221967 0.080481 -0.200353
    3 2.672261 -3.383448 0.696208 0.083503 0.128137 -1.585662
    4 8.674173 -0.128572 0.000000 0.000000 0.000000 0.000000
    5 0.000000 0.000000 0.000000 0.000000 0.000000 0.000000
    6 4.045845 -0.586976 0.000000 0.000000 0.000000 0.000000
    7 -33.579150 -30.231391 0.000000 0.000000 0.000000 0.000000
    8 1.039971 -0.940679 0.000000 0.000000 0.000000 -1.570796
    9 4.782106 0.485510 0.407405 0.000012 0.000000 -1.570808
    10 5.548040 -0.183522 0.000000 1.570796 -1.570796 0.000000
    11 1.257180 8.762585 -0.153713 -1.570562 0.002683 -1.566807
    12 -0.488518 -2.755602 -0.228260 -0.518305 -0.074854 -0.310571
    13 0.039887 -1.479790 0.029854 -2.289231 0.000000 0.000001
    14 0.028786 -1.075731 -0.023109 -0.271941 0.000000 0.000000
    15 0.250027 -2.820665 -0.238396 -0.350825 -0.052441 -0.187301
    16 -0.049759 -1.680544 0.100479 -2.246572 0.000000 -0.000002
    17 -0.034142 -1.148312 0.084782 -0.535851 0.000000 0.000000
    18 0.957766 -2.746780 -0.090302 0.329289 -0.172344 0.119866
    19 -0.033420 -1.397129 -0.011257 -1.115580 0.000000 -0.000001
    20 -0.022360 -0.957436 0.018784 -1.148807 0.000000 0.000000
    21 -1.180681 -2.507217 -0.193859 -0.309305 0.033033 -0.314313
    22 -0.024967 -1.123934 0.017597 -2.040737 0.000000 0.000001
    23 -0.020057 -0.890968 0.010090 -0.646720 0.000000 0.000000
    24 0.583510 -1.197277 0.185379 0.371183 -0.693166 -0.903076
    25 1.535927 0.010246 0.005009 -0.002964 -0.012979 -0.682290
    26 1.100771 0.004527 -0.010679 -0.016147 -0.001453 -1.484153
    27 0.120153 -0.050270 -0.054489 0.287569 3.110905 1.561085
    28 -0.430930 -10.067345 -11.099278 -1.845419 -5.406519 -1.043403
    29 0.096944 -8.450418 -0.009365 0.075476 -1.267968 0.356845
    30 0.447953 -2.798986 -0.200443 -0.761407 0.042804 0.170619
    31 -0.032909 -1.480204 0.004940 -1.480139 0.000000 0.000002
    32 -0.027022 -1.076920 -0.020210 -0.375135 0.000000 0.000000
    33 -0.249534 -2.846964 -0.174213 -0.318562 0.002631 0.073866
    34 0.043235 -1.683941 0.096012 -1.876275 0.002823 -0.000167
    35 0.031729 -1.160830 0.058838 -0.099745 0.000642 0.008372
    36 -0.963866 -2.785145 -0.085350 0.076866 0.070929 0.053157
    37 0.028479 -1.403067 0.006271 -1.337909 0.000000 0.000000
    38 0.021413 -0.957781 0.020046 -1.052173 0.000000 0.000000
    39 1.164475 -2.543940 -0.170330 -1.221927 -0.015463 0.162804
    40 0.024032 -1.129042 0.017807 -0.900877 0.000000 0.000001
    41 0.014898 -0.883989 -0.019848 -0.928571 0.000000 0.000000
    42 -0.586770 -1.264477 0.200161 0.150010 0.013443 -2.613227
    43 1.522835 0.058681 0.016848 0.001410 0.008985 0.624684
    44 1.117947 0.048424 -0.005766 -0.002568 -0.011344 -0.141987
    45 -0.139399 -0.111698 0.014397 0.774181 0.191172 1.472862
    46 -6.260806 6.983652 -0.294122 1.580804 -0.005023 -0.912799
  time 14
    0 -0.349399 1.166145 0.203512 0.000000 0.000000 0.000000
    1 9.874299 2.944835 -8.270604 -1.572822 -1.329119 1.224999
    2 -0.071918 -8.498730 -0.104136 0.221967 0.080481 -0.200353
    3 2.672261 -3.383448 0.696208 0.083503 0.128137 -1.585662
    4 8.674173 -0.128572 0.000000 0.000000 0.000000 0.000000
    5 0.000000 0.000000 0.000000 0.000000 0.000000 0.000000
    6 4.045845 -0.586976 0.000000 0.000000 0.000000 0.000000
    7 -33.579150 -30.231391 0.000000 0.000000 0.000000 0.000000
    8 1.039971 -0.940679 0.000000 0.000000 0.000000 -1.570796
    9 4.782106 0.485510 0.407405 0.000012 0.000000 -1.570808
    10 5.548040 -0.183522 0.000000 1.570796 -1.570796 0.000000
    11 1.257180 8.762585 -0.153713 -1.570562 0.002683 -1.566807
    12 -0.488518 -2.755602 -0.228260 -0.518305 -0.074854 -0.310571
    13 0.039887 -1.479790 0.029854 -2.289231 0.000000 0.000001
    14 0.028786 -1.075731 -0.023109 -0.271941 0.000000 0.000000
    15 0.250027 -2.820665 -0.238396 -0.350825 -0.052441 -0.187301
    16 -0.049759 -1.680544 0.100479 -2.246572 0.000000 -0.000002
    17 -0.034142 -1.148312 0.084782 -0.535851 0.000000 0.000000
    18 0.957766 -2.746780 -0.090302 0.329289 -0.172344 0.119866
    19 -0.033420 -1.397129 -0.011257 -1.115580 0.000000 -0.000001
    20 -0.022360 -0.957436 0.018784 -1.148807 0.000000 0.000000
    21 -1.180681 -2.507217 -0.193859 -0.309305 0.033033 -0.314313
    22 -0.024967 -1.123934 0.017597 -2.040737 0.000000 0.000001
    23 -0.020057 -0.890968 0.010090 -0.646720 0.000000 0.000000
    24 0.583510 -1.197277 0.185379 0.371183 -0.693166 -0.903076
    25 1.535927 0.010246 0.005009 -0.002964 -0.012979 -0.682290
    26 1.100771 0.004527 -0.010679 -0.016147 -0.001453 -1.484153
    27 0.120153 -0.050270 -0.054489 0.287569 3.110905 1.561085
    28 -0.430930 -10.223600 -11.193031 -1.842540 -5.403398 -1.041210
    29 0.096944 -8.450418 -0.009365 0.075476 -1.267968 0.356845
    30 0.447953 -2.798986 -0.200443 -0.761407 0.042804 0.170619
    31 -0.032909 -1.480204 0.004940 -1.480139 0.000000 0.000002
    32 -0.027022 -1.076920 -0.020210 -0.375135 0.000000 0.000000
    33 -0.249534 -2.846964 -0.174213 -0.318562 0.002631 0.073866
    34 0.043235 -1.683941 0.096012 -1.876275 0.002823 -0.000167
    35 0.031729 -1.160830 0.058838 -0.099745 0.000642 0.008372
    36 -0.963866 -2.785145 -0.085350 0.076866 0.070929 0.053157
    37 0.028479 -1.403067 0.006271 -1.337909 0.000000 0.000000
    38 0.021413 -0.957781 0.020046 -1.052173 0.000000 0.000000
    39 1.164475 -2.543940 -0.170330 -1.221927 -0.015463 0.162804
    40 0.024032 -1.129042 0.017807 -0.900877 0.000000 0.000001
    41 0.014898 -0.883989 -0.019848 -0.928571 0.000000 0.000000
    42 -0.586770 -1.264477 0.200161 0.150010 0.013443 -2.613227
    43 1.522835 0.058681 0.016848 0.001410 0.008985 0.624684
    44 1.117947 0.048424 -0.005766 -0.002568 -0.011344 -0.141987
    45 -0.139399 -0.111698 0.014397 0.774181 0.191172 1.472862
    46 -6.260806 6.983652 -0.294122 1.580804 -0.005023 -0.912799
  time 15
    0 -0.349399 1.166145 0.203512 0.000000 0.000000 0.000000
    1 9.874299 2.780768 -8.340919 -1.569489 -1.331313 1.221766
    2 -0.071918 -8.498730 -0.104136 0.221967 0.080481 -0.200353
    3 2.672261 -3.383448 0.696208 0.083503 0.128137 -1.585662
    4 8.674173 -0.128572 0.000000 0.000000 0.000000 0.000000
    5 0.000000 0.000000 0.000000 0.000000 0.000000 0.000000
    6 4.045845 -0.586976 0.000000 0.000000 0.000000 0.000000
    7 -33.579150 -30.231391 0.000000 0.000000 0.000000 0.000000
    8 1.039971 -0.940679 0.000000 0.000000 0.000000 -1.570796
    9 4.782106 0.485510 0.407405 0.000012 0.000000 -1.570808
    10 5.548040 -0.183522 0.000000 1.570796 -1.570796 0.000000
    11 1.257180 8.762585 -0.153713 -1.570562 0.002683 -1.566807
    12 -0.488518 -2.755602 -0.228260 -0.518305 -0.074854 -0.310571
    13 0.039887 -1.479790 0.029854 -2.289231 0.000000 0.000001
    14 0.028786 -1.075731 -0.023109 -0.271941 0.000000 0.000000
    15 0.250027 -2.820665 -0.238396 -0.350825 -0.052441 -0.187301
    16 -0.049759 -1.680544 0.100479 -2.246572 0.000000 -0.000002
    17 -0.034142 -1.148312 0.084782 -0.535851 0.000000 0.000000
    18 0.957766 -2.746780 -0.090302 0.329289 -0.172344 0.119866
    19 -0.033420 -1.397129 -0.011257 -1.115580 0.000000 -0.000001
    20 -0.022360 -0.957436 0.018784 -1.148807 0.000000 0.000000
    21 -1.180681 -2.507217 -0.193859 -0.309305 0.033033 -0.314313
    22 -0.024967 -1.123934 0.017597 -2.040737 0.000000 0.000001
    23 -0.020057 -0.890968 0.010090 -0.646720 0.000000 0.000000
    24 0.583510 -1.197277 0.185379 0.371183 -0.693166 -0.903076
    25 1.535927 0.010246 0.005009 -0.002964 -0.012979 -0.682290
    26 1.100771 0.004527 -0.010679 -0.016147 -0.001453 -1.484153
    27 0.120153 -0.050270 -0.054489 0.287569 3.110905 1.561085
    28 -0.430930 -10.375948 -11.298503 -1.840665 -5.401288 -1.039780
    29 0.096944 -8.450418 -0.009365 0.075476 -1.267968 0.356845
    30 0.447953 -2.798986 -0.200443 -0.761407 0.042804 0.170619
    31 -0.032909 -1.480204 0.004940 -1.480139 0.000000 0.000002
    32 -0.027022 -1.076920 -0.020210 -0.375135 0.000000 0.000000
    33 -0.249534 -2.846964 -0.174213 -0.318562 0.002631 0.073866
    34 0.043235 -1.683941 0.096012 -1.876275 0.002823 -0.000167
    35 0.031729 -1.160830 0.058838 -0.099745 0.000642 0.008372
    36 -0.963866 -2.785145 -0.085350 0.076866 0.070929 0.053157
    37 0.028479 -1.403067 0.006271 -1.337909 0.000000 0.000000
    38 0.021413 -0.957781 0.020046 -1.052173 0.000000 0.000000
    39 1.164475 -2.543940 -0.170330 -1.221927 -0.015463 0.162804
    40 0.024032 -1.129042 0.017807 -0.900877 0.000000 0.000001
    41 0.014898 -0.883989 -0.019848 -0.928571 0.000000 0.000000
    42 -0.586770 -1.264477 0.200161 0.150010 0.013443 -2.613227
    43 1.522835 0.058681 0.016848 0.001410 0.008985 0.624684
    44 1.117947 0.048424 -0.005766 -0.002568 -0.011344 -0.141987
    45 -0.139399 -0.111698 0.014397 0.774181 0.191172 1.472862
    46 -6.260806 6.983652 -0.294122 1.580804 -0.005023 -0.912799
  time 16
    0 -0.349399 1.166145 0.203512 0.000000 0.000000 0.000000
    1 9.874299 2.624513 -8.426859 -1.567573 -1.332572 1.219894
    2 -0.071918 -8.498730 -0.104136 0.221967 0.080481 -0.200353
    3 2.672261 -3.383448 0.696208 0.083503 0.128137 -1.585662
    4 8.674173 -0.128572 0.000000 0.000000 0.000000 0.000000
    5 0.000000 0.000000 0.000000 0.000000 0.000000 0.000000
    6 4.045845 -0.586976 0.000000 0.000000 0.000000 0.000000
    7 -33.579150 -30.231391 0.000000 0.000000 0.000000 0.000000
    8 1.039971 -0.940679 0.000000 0.000000 0.000000 -1.570796
    9 4.782106 0.485510 0.407405 0.000012 0.000000 -1.570808
    10 5.548040 -0.183522 0.000000 1.570796 -1.570796 0.000000
    11 1.257180 8.762585 -0.153713 -1.570562 0.002683 -1.566807
    12 -0.488518 -2.755602 -0.228260 -0.518305 -0.074854 -0.310571
    13 0.039887 -1.479790 0.029854 -2.289231 0.000000 0.000001
    14 0.028786 -1.075731 -0.023109 -0.271941 0.000000 0.000000
    15 0.250027 -2.820665 -0.238396 -0.350825 -0.052441 -0.187301
    16 -0.049759 -1.680544 0.100479 -2.246572 0.000000 -0.000002
    17 -0.034142 -1.148312 0.084782 -0.535851 0.000000 0.000000
    18 0.957766 -2.746780 -0.090302 0.329289 -0.172344 0.119866
    19 -0.033420 -1.397129 -0.011257 -1.115580 0.000000 -0.000001
    20 -0.022360 -0.957436 0.018784 -1.148807 0.000000 0.000000
    21 -1.180681 -2.507217 -0.193859 -0.309305 0.033033 -0.314313
    22 -0.024967 -1.123934 0.017597 -2.040737 0.000000 0.000001
    23 -0.020057 -0.890968 0.010090 -0.646720 0.000000 0.000000
    24 0.583510 -1.197277 0.185379 0.371183 -0.693166 -0.903076
    25 1.535927 0.010246 0.005009 -0.002964 -0.012979 -0.682290
    26 1.100771 0.004527 -0.010679 -0.016147 -0.001453 -1.484153
    27 0.120153 -0.050270 -0.054489 0.287569 3.110905 1.561085
    28 -0.430930 -10.532203 -11.403975 -1.839593 -5.400187 -1.038922
    29 0.096944 -8.450418 -0.009365 0.075476 -1.267968 0.356845
    30 0.447953 -2.798986 -0.200443 -0.761407 0.042804 0.170619
    31 -0.032909 -1.480204 0.004940 -1.480139 0.000000 0.000002
    32 -0.027022 -1.076920 -0.020210 -0.375135 0.000000 0.000000
    33 -0.249534 -2.846964 -0.174213 -0.318562 0.002631 0.073866
    34 0.043235 -1.683941 0.096012 -1.876275 0.002823 -0.000167
    35 0.031729 -1.160830 0.058838 -0.099745 0.000642 0.008372
    36 -0.963866 -2.785145 -0.085350 0.076866 0.070929 0.053157
    37 0.028479 -1.403067 0.006271 -1.337909 0.000000 0.000000
    38 0.021413 -0.957781 0.020046 -1.052173 0.000000 0.000000
    39 1.164475 -2.543940 -0.170330 -1.221927 -0.015463 0.162804
    40 0.024032 -1.129042 0.017807 -0.900877 0.000000 0.000001
    41 0.014898 -0.883989 -0.019848 -0.928571 0.000000 0.000000
    42 -0.586770 -1.264477 0.200161 0.150010 0.013443 -2.613227
    43 1.522835 0.058681 0.016848 0.001410 0.008985 0.624684
    44 1.117947 0.048424 -0.005766 -0.002568 -0.011344 -0.141987
    45 -0.139399 -0.111698 0.014397 0.774181 0.191172 1.472862
    46 -6.260806 6.983652 -0.294122 1.580804 -0.005023 -0.912799
  time 17
    0 -0.349399 1.166145 0.203512 0.000000 0.000000 0.000000
    1 9.874299 2.476071 -8.524518 -1.566740 -1.333076 1.219128
    2 -0.071918 -8.498730 -0.104136 0.221967 0.080481 -0.200353
    3 2.672261 -3.383448 0.696208 0.083503 0.128137 -1.585662
    4 8.674173 -0.128572 0.000000 0.000000 0.000000 0.000000
    5 0.000000 0.000000 0.000000 0.000000 0.000000 0.000000
    6 4.045845 -0.586976 0.000000 0.000000 0.000000 0.000000
    7 -33.579150 -30.231391 0.000000 0.000000 0.000000 0.000000
    8 1.039971 -0.940679 0.000000 0.000000 0.000000 -1.570796
    9 4.782106 0.485510 0.407405 0.000012 0.000000 -1.570808
    10 5.548040 -0.183522 0.000000 1.570796 -1.570796 0.000000
    11 1.257180 8.762585 -0.153713 -1.570562 0.002683 -1.566807
    12 -0.488518 -2.755602 -0.228260 -0.518305 -0.074854 -0.310571
    13 0.039887 -1.479790 0.029854 -2.289231 0.000000 0.000001
    14 0.028786 -1.075731 -0.023109 -0.271941 0.000000 0.000000
    15 0.250027 -2.820665 -0.238396 -0.350825 -0.052441 -0.187301
    16 -0.049759 -1.680544 0.100479 -2.246572 0.000000 -0.000002
    17 -0.034142 -1.148312 0.084782 -0.535851 0.000000 0.000000
    18 0.957766 -2.746780 -0.090302 0.329289 -0.172344 0.119866
    19 -0.033420 -1.397129 -0.011257 -1.115580 0.000000 -0.000001
    20 -0.022360 -0.957436 0.018784 -1.148807 0.000000 0.000000
    21 -1.180681 -2.507217 -0.193859 -0.309305 0.033033 -0.314313
    22 -0.024967 -1.123934 0.017597 -2.040737 0.000000 0.000001
    23 -0.020057 -0.890968 0.010090 -0.646720 0.000000 0.000000
    24 0.583510 -1.197277 0.185379 0.371183 -0.693166 -0.903076
    25 1.535927 0.010246 0.005009 -0.002964 -0.012979 -0.682290
    26 1.100771 0.004527 -0.010679 -0.016147 -0.001453 -1.484153
    27 0.120153 -0.050270 -0.054489 0.287569 3.110905 1.561085
    28 -0.430930 -10.676739 -11.509447 -1.839124 -5.399728 -1.038636
    29 0.096944 -8.450418 -0.009365 0.075476 -1.267968 0.356845
    30 0.447953 -2.798986 -0.200443 -0.761407 0.042804 0.170619
    31 -0.032909 -1.480204 0.004940 -1.480139 0.000000 0.000002
    32 -0.027022 -1.076920 -0.020210 -0.375135 0.000000 0.000000
    33 -0.249534 -2.846964 -0.174213 -0.318562 0.002631 0.073866
    34 0.043235 -1.683941 0.096012 -1.876275 0.002823 -0.000167
    35 0.031729 -1.160830 0.058838 -0.099745 0.000642 0.008372
    36 -0.963866 -2.785145 -0.085350 0.076866 0.070929 0.053157
    37 0.028479 -1.403067 0.006271 -1.337909 0.000000 0.000000
    38 0.021413 -0.957781 0.020046 -1.052173 0.000000 0.000000
    39 1.164475 -2.543940 -0.170330 -1.221927 -0.015463 0.162804
    40 0.024032 -1.129042 0.017807 -0.900877 0.000000 0.000001
    41 0.014898 -0.883989 -0.019848 -0.928571 0.000000 0.000000
    42 -0.586770 -1.264477 0.200161 0.150010 0.013443 -2.613227
    43 1.522835 0.058681 0.016848 0.001410 0.008985 0.624684
    44 1.117947 0.048424 -0.005766 -0.002568 -0.011344 -0.141987
    45 -0.139399 -0.111698 0.014397 0.774181 0.191172 1.472862
    46 -6.260806 6.983652 -0.294122 1.580804 -0.005023 -0.912799
  time 18
    0 -0.349399 1.166145 0.203512 0.000000 0.000000 0.000000
    1 9.874299 2.335442 -8.629990 -1.566823 -1.333076 1.219128
    2 -0.071918 -8.498730 -0.104136 0.221967 0.080481 -0.200353
    3 2.672261 -3.383448 0.696208 0.083503 0.128137 -1.585662
    4 8.674173 -0.128572 0.000000 0.000000 0.000000 0.000000
    5 0.000000 0.000000 0.000000 0.000000 0.000000 0.000000
    6 4.045845 -0.586976 0.000000 0.000000 0.000000 0.000000
    7 -33.579150 -30.231391 0.000000 0.000000 0.000000 0.000000
    8 1.039971 -0.940679 0.000000 0.000000 0.000000 -1.570796
    9 4.782106 0.485510 0.407405 0.000012 0.000000 -1.570808
    10 5.548040 -0.183522 0.000000 1.570796 -1.570796 0.000000
    11 1.257180 8.762585 -0.153713 -1.570562 0.002683 -1.566807
    12 -0.488518 -2.755602 -0.228260 -0.518305 -0.074854 -0.310571
    13 0.039887 -1.479790 0.029854 -2.289231 0.000000 0.000001
    14 0.028786 -1.075731 -0.023109 -0.271941 0.000000 0.000000
    15 0.250027 -2.820665 -0.238396 -0.350825 -0.052441 -0.187301
    16 -0.049759 -1.680544 0.100479 -2.246572 0.000000 -0.000002
    17 -0.034142 -1.148312 0.084782 -0.535851 0.000000 0.000000
    18 0.957766 -2.746780 -0.090302 0.329289 -0.172344 0.119866
    19 -0.033420 -1.397129 -0.011257 -1.115580 0.000000 -0.000001
    20 -0.022360 -0.957436 0.018784 -1.148807 0.000000 0.000000
    21 -1.180681 -2.507217 -0.193859 -0.309305 0.033033 -0.314313
    22 -0.024967 -1.123934 0.017597 -2.040737 0.000000 0.000001
    23 -0.020057 -0.890968 0.010090 -0.646720 0.000000 0.000000
    24 0.583510 -1.197277 0.185379 0.371183 -0.693166 -0.903076
    25 1.535927 0.010246 0.005009 -0.002964 -0.012979 -0.682290
    26 1.100771 0.004527 -0.010679 -0.016147 -0.001453 -1.484153
    27 0.120153 -0.050270 -0.054489 0.287569 3.110905 1.561085
    28 -0.430930 -10.821274 -11.611013 -1.839124 -5.399728 -1.038636
    29 0.096944 -8.450418 -0.009365 0.075476 -1.267968 0.356845
    30 0.447953 -2.798986 -0.200443 -0.761407 0.042804 0.170619
    31 -0.032909 -1.480204 0.004940 -1.480139 0.000000 0.000002
    32 -0.027022 -1.076920 -0.020210 -0.375135 0.000000 0.000000
    33 -0.249534 -2.846964 -0.174213 -0.318562 0.002631 0.073866
    34 0.043235 -1.683941 0.096012 -1.876275 0.002823 -0.000167
    35 0.031729 -1.160830 0.058838 -0.099745 0.000642 0.008372
    36 -0.963866 -2.785145 -0.085350 0.076866 0.070929 0.053157
    37 0.028479 -1.403067 0.006271 -1.337909 0.000000 0.000000
    38 0.021413 -0.957781 0.020046 -1.052173 0.000000 0.000000
    39 1.164475 -2.543940 -0.170330 -1.221927 -0.015463 0.162804
    40 0.024032 -1.129042 0.017807 -0.900877 0.000000 0.000001
    41 0.014898 -0.883989 -0.019848 -0.928571 0.000000 0.000000
    42 -0.586770 -1.264477 0.200161 0.150010 0.013443 -2.613227
    43 1.522835 0.058681 0.016848 0.001410 0.008985 0.624684
    44 1.117947 0.048424 -0.005766 -0.002568 -0.011344 -0.141987
    45 -0.139399 -0.111698 0.014397 0.774181 0.191172 1.472862
    46 -6.260806 6.983652 -0.294122 1.580804 -0.005023 -0.912799
  time 19
    0 -0.349399 1.166145 0.203512 0.000000 0.000000 0.000000
    1 9.874299 2.202625 -8.727649 -1.567239 -1.332752 1.219639
    2 -0.071918 -8.498730 -0.104136 0.221967 0.080481 -0.200353
    3 2.672261 -3.383448 0.696208 0.083503 0.128137 -1.585662
    4 8.674173 -0.128572 0.000000 0.000000 0.000000 0.000000
    5 0.000000 0.000000 0.000000 0.000000 0.000000 0.000000
    6 4.045845 -0.586976 0.000000 0.000000 0.000000 0.000000
    7 -33.579150 -30.231391 0.000000 0.000000 0.000000 0.000000
    8 1.039971 -0.940679 0.000000 0.000000 0.000000 -1.570796
    9 4.782106 0.485510 0.407405 0.000012 0.000000 -1.570808
    10 5.548040 -0.183522 0.000000 1.570796 -1.570796 0.000000
    11 1.257180 8.762585 -0.153713 -1.570562 0.002683 -1.566807
    12 -0.488518 -2.755602 -0.228260 -0.518305 -0.074854 -0.310571
    13 0.039887 -1.479790 0.029854 -2.289231 0.000000 0.000001
    14 0.028786 -1.075731 -0.023109 -0.271941 0.000000 0.000000
    15 0.250027 -2.820665 -0.238396 -0.350825 -0.052441 -0.187301
    16 -0.049759 -1.680544 0.100479 -2.246572 0.000000 -0.000002
    17 -0.034142 -1.148312 0.084782 -0.535851 0.000000 0.000000
    18 0.957766 -2.746780 -0.090302 0.329289 -0.172344 0.119866
    19 -0.033420 -1.397129 -0.011257 -1.115580 0.000000 -0.000001
    20 -0.022360 -0.957436 0.018784 -1.148807 0.000000 0.000000
    21 -1.180681 -2.507217 -0.193859 -0.309305 0.033033 -0.314313
    22 -0.024967 -1.123934 0.017597 -2.040737 0.000000 0.000001
    23 -0.020057 -0.890968 0.010090 -0.646720 0.000000 0.000000
    24 0.583510 -1.197277 0.185379 0.371183 -0.693166 -0.903076
    25 1.535927 0.010246 0.005009 -0.002964 -0.012979 -0.682290
    26 1.100771 0.004527 -0.010679 -0.016147 -0.001453 -1.484153
    27 0.120153 -0.050270 -0.054489 0.287569 3.110905 1.561085
    28 -0.430930 -10.950184 -11.704765 -1.839392 -5.400003 -1.038827
    29 0.096944 -8.450418 -0.009365 0.075476 -1.267968 0.356845
    30 0.447953 -2.798986 -0.200443 -0.761407 0.042804 0.170619
    31 -0.032909 -1.480204 0.004940 -1.480139 0.000000 0.000002
    32 -0.027022 -1.076920 -0.020210 -0.375135 0.000000 0.000000
    33 -0.249534 -2.846964 -0.174213 -0.318562 0.002631 0.073866
    34 0.043235 -1.683941 0.096012 -1.876275 0.002823 -0.000167
    35 0.031729 -1.160830 0.058838 -0.099745 0.000642 0.008372
    36 -0.963866 -2.785145 -0.085350 0.076866 0.070929 0.053157
    37 0.028479 -1.403067 0.006271 -1.337909 0.000000 0.000000
    38 0.021413 -0.957781 0.020046 -1.052173 0.000000 0.000000
    39 1.164475 -2.543940 -0.170330 -1.221927 -0.015463 0.162804
    40 0.024032 -1.129042 0.017807 -0.900877 0.000000 0.000001
    41 0.014898 -0.883989 -0.019848 -0.928571 0.000000 0.000000
    42 -0.586770 -1.264477 0.200161 0.150010 0.013443 -2.613227
    43 1.522835 0.058681 0.016848 0.001410 0.008985 0.624684
    44 1.117947 0.048424 -0.005766 -0.002568 -0.011344 -0.141987
    45 -0.139399 -0.111698 0.014397 0.774181 0.191172 1.472862
    46 -6.260806 6.983652 -0.294122 1.580804 -0.005023 -0.912799
  time 20
    0 -0.349399 1.166145 0.203512 0.000000 0.000000 0.000000
    1 9.874299 2.085434 -8.813589 -1.567823 -1.332392 1.220149
    2 -0.071918 -8.498730 -0.104136 0.221967 0.080481 -0.200353
    3 2.672261 -3.383448 0.696208 0.083503 0.128137 -1.585662
    4 8.674173 -0.128572 0.000000 0.000000 0.000000 0.000000
    5 0.000000 0.000000 0.000000 0.000000 0.000000 0.000000
    6 4.045845 -0.586976 0.000000 0.000000 0.000000 0.000000
    7 -33.579150 -30.231391 0.000000 0.000000 0.000000 0.000000
    8 1.039971 -0.940679 0.000000 0.000000 0.000000 -1.570796
    9 4.782106 0.485510 0.407405 0.000012 0.000000 -1.570808
    10 5.548040 -0.183522 0.000000 1.570796 -1.570796 0.000000
    11 1.257180 8.762585 -0.153713 -1.570562 0.002683 -1.566807
    12 -0.488518 -2.755602 -0.228260 -0.518305 -0.074854 -0.310571
    13 0.039887 -1.479790 0.029854 -2.289231 0.000000 0.000001
    14 0.028786 -1.075731 -0.023109 -0.271941 0.000000 0.000000
    15 0.250027 -2.820665 -0.238396 -0.350825 -0.052441 -0.187301
    16 -0.049759 -1.680544 0.100479 -2.246572 0.000000 -0.000002
    17 -0.034142 -1.148312 0.084782 -0.535851 0.000000 0.000000
    18 0.957766 -2.746780 -0.090302 0.329289 -0.172344 0.119866
    19 -0.033420 -1.397129 -0.011257 -1.115580 0.000000 -0.000001
    20 -0.022360 -0.957436 0.018784 -1.148807 0.000000 0.000000
    21 -1.180681 -2.507217 -0.193859 -0.309305 0.033033 -0.314313
    22 -0.024967 -1.123934 0.017597 -2.040737 0.000000 0.000001
    23 -0.020057 -0.890968 0.010090 -0.646720 0.000000 0.000000
    24 0.583510 -1.197277 0.185379 0.371183 -0.693166 -0.903076
    25 1.535927 0.010246 0.005009 -0.002964 -0.012979 -0.682290
    26 1.100771 0.004527 -0.010679 -0.016147 -0.001453 -1.484153
    27 0.120153 -0.050270 -0.054489 0.287569 3.110905 1.561085
    28 -0.430930 -11.071282 -11.786799 -1.839727 -5.400370 -1.039017
    29 0.096944 -8.450418 -0.009365 0.075476 -1.267968 0.356845
    30 0.447953 -2.798986 -0.200443 -0.761407 0.042804 0.170619
    31 -0.032909 -1.480204 0.004940 -1.480139 0.000000 0.000002
    32 -0.027022 -1.076920 -0.020210 -0.375135 0.000000 0.000000
    33 -0.249534 -2.846964 -0.174213 -0.318562 0.002631 0.073866
    34 0.043235 -1.683941 0.096012 -1.876275 0.002823 -0.000167
    35 0.031729 -1.160830 0.058838 -0.099745 0.000642 0.008372
    36 -0.963866 -2.785145 -0.085350 0.076866 0.070929 0.053157
    37 0.028479 -1.403067 0.006271 -1.337909 0.000000 0.000000
    38 0.021413 -0.957781 0.020046 -1.052173 0.000000 0.000000
    39 1.164475 -2.543940 -0.170330 -1.221927 -0.015463 0.162804
    40 0.024032 -1.129042 0.017807 -0.900877 0.000000 0.000001
    41 0.014898 -0.883989 -0.019848 -0.928571 0.000000 0.000000
    42 -0.586770 -1.264477 0.200161 0.150010 0.013443 -2.613227
    43 1.522835 0.058681 0.016848 0.001410 0.008985 0.624684
    44 1.117947 0.048424 -0.005766 -0.002568 -0.011344 -0.141987
    45 -0.139399 -0.111698 0.014397 0.774181 0.191172 1.472862
    46 -6.260806 6.983652 -0.294122 1.580804 -0.005023 -0.912799
  time 21
    0 -0.349399 1.166145 0.203512 0.000000 0.000000 0.000000
    1 9.874299 1.979962 -8.887810 -1.568239 -1.332140 1.220575
    2 -0.071918 -8.498730 -0.104136 0.221967 0.080481 -0.200353
    3 2.672261 -3.383448 0.696208 0.083503 0.128137 -1.585662
    4 8.674173 -0.128572 0.000000 0.000000 0.000000 0.000000
    5 0.000000 0.000000 0.000000 0.000000 0.000000 0.000000
    6 4.045845 -0.586976 0.000000 0.000000 0.000000 0.000000
    7 -33.579150 -30.231391 0.000000 0.000000 0.000000 0.000000
    8 1.039971 -0.940679 0.000000 0.000000 0.000000 -1.570796
    9 4.782106 0.485510 0.407405 0.000012 0.000000 -1.570808
    10 5.548040 -0.183522 0.000000 1.570796 -1.570796 0.000000
    11 1.257180 8.762585 -0.153713 -1.570562 0.002683 -1.566807
    12 -0.488518 -2.755602 -0.228260 -0.518305 -0.074854 -0.310571
    13 0.039887 -1.479790 0.029854 -2.289231 0.000000 0.000001
    14 0.028786 -1.075731 -0.023109 -0.271941 0.000000 0.000000
    15 0.250027 -2.820665 -0.238396 -0.350825 -0.052441 -0.187301
    16 -0.049759 -1.680544 0.100479 -2.246572 0.000000 -0.000002
    17 -0.034142 -1.148312 0.084782 -0.535851 0.000000 0.000000
    18 0.957766 -2.746780 -0.090302 0.329289 -0.172344 0.119866
    19 -0.033420 -1.397129 -0.011257 -1.115580 0.000000 -0.000001
    20 -0.022360 -0.957436 0.018784 -1.148807 0.000000 0.000000
    21 -1.180681 -2.507217 -0.193859 -0.309305 0.033033 -0.314313
    22 -0.024967 -1.123934 0.017597 -2.040737 0.000000 0.000001
    23 -0.020057 -0.890968 0.010090 -0.646720 0.000000 0.000000
    24 0.583510 -1.197277 0.185379 0.371183 -0.693166 -0.903076
    25 1.535927 0.010246 0.005009 -0.002964 -0.012979 -0.682290
    26 1.100771 0.004527 -0.010679 -0.016147 -0.001453 -1.484153
    27 0.120153 -0.050270 -0.054489 0.287569 3.110905 1.561085
    28 -0.430930 -11.176754 -11.853207 -1.839928 -5.400554 -1.039208
    29 0.096944 -8.450418 -0.009365 0.075476 -1.267968 0.356845
    30 0.447953 -2.798986 -0.200443 -0.761407 0.042804 0.170619
    31 -0.032909 -1.480204 0.004940 -1.480139 0.000000 0.000002
    32 -0.027022 -1.076920 -0.020210 -0.375135 0.000000 0.000000
    33 -0.249534 -2.846964 -0.174213 -0.318562 0.002631 0.073866
    34 0.043235 -1.683941 0.096012 -1.876275 0.002823 -0.000167
    35 0.031729 -1.160830 0.058838 -0.099745 0.000642 0.008372
    36 -0.963866 -2.785145 -0.085350 0.076866 0.070929 0.053157
    37 0.028479 -1.403067 0.006271 -1.337909 0.000000 0.000000
    38 0.021413 -0.957781 0.020046 -1.052173 0.000000 0.000000
    39 1.164475 -2.543940 -0.170330 -1.221927 -0.015463 0.162804
    40 0.024032 -1.129042 0.017807 -0.900877 0.000000 0.000001
    41 0.014898 -0.883989 -0.019848 -0.928571 0.000000 0.000000
    42 -0.586770 -1.264477 0.200161 0.150010 0.013443 -2.613227
    43 1.522835 0.058681 0.016848 0.001410 0.008985 0.624684
    44 1.117947 0.048424 -0.005766 -0.002568 -0.011344 -0.141987
    45 -0.139399 -0.111698 0.014397 0.774181 0.191172 1.472862
    46 -6.260806 6.983652 -0.294122 1.580804 -0.005023 -0.912799
  time 22
    0 -0.349399 1.166145 0.203512 0.000000 0.000000 0.000000
    1 9.874299 1.890116 -8.934687 -1.567989 -1.332284 1.220320
    2 -0.071918 -8.498730 -0.104136 0.221967 0.080481 -0.200353
    3 2.672261 -3.383448 0.696208 0.083503 0.128137 -1.585662
    4 8.674173 -0.128572 0.000000 0.000000 0.000000 0.000000
    5 0.000000 0.000000 0.000000 0.000000 0.000000 0.000000
    6 4.045845 -0.586976 0.000000 0.000000 0.000000 0.000000
    7 -33.579150 -30.231391 0.000000 0.000000 0.000000 0.000000
    8 1.039971 -0.940679 0.000000 0.000000 0.000000 -1.570796
    9 4.782106 0.485510 0.407405 0.000012 0.000000 -1.570796
    10 5.548040 -0.183522 0.000000 1.570796 -1.570796 0.000000
    11 1.257180 8.762585 -0.153713 -1.570562 0.002683 -1.566807
    12 -0.488518 -2.755602 -0.228260 -0.518305 -0.074854 -0.310571
    13 0.039887 -1.479790 0.029854 -2.289231 0.000000 0.000001
    14 0.028786 -1.075731 -0.023109 -0.271941 0.000000 0.000000
    15 0.250027 -2.820665 -0.238396 -0.350825 -0.052441 -0.187301
    16 -0.049759 -1.680544 0.100479 -2.246572 0.000000 -0.000002
    17 -0.034142 -1.148312 0.084782 -0.535851 0.000000 0.000000
    18 0.957766 -2.746780 -0.090302 0.329289 -0.172344 0.119866
    19 -0.033420 -1.397129 -0.011257 -1.115580 0.000000 -0.000001
    20 -0.022360 -0.957436 0.018784 -1.148807 0.000000 0.000000
    21 -1.180681 -2.507217 -0.193859 -0.309305 0.033033 -0.314313
    22 -0.024967 -1.123934 0.017597 -2.040737 0.000000 0.000001
    23 -0.020057 -0.890968 0.010090 -0.646720 0.000000 0.000000
    24 0.583510 -1.197277 0.185379 0.371183 -0.693166 -0.903076
    25 1.535927 0.010246 0.005009 -0.002964 -0.012979 -0.682290
    26 1.100771 0.004527 -0.010679 -0.016147 -0.001453 -1.484153
    27 0.120153 -0.050270 -0.054489 0.287569 3.110905 1.561085
    28 -0.430930 -11.266600 -11.903990 -1.839794 -5.400462 -1.039113
    29 0.096944 -8.450418 -0.009365 0.075476 -1.267968 0.356845
    30 0.447953 -2.798986 -0.200443 -0.761407 0.042804 0.170619
    31 -0.032909 -1.480204 0.004940 -1.480139 0.000000 0.000002
    32 -0.027022 -1.076920 -0.020210 -0.375135 0.000000 0.000000
    33 -0.249534 -2.846964 -0.174213 -0.318562 0.002631 0.073866
    34 0.043235 -1.683941 0.096012 -1.876275 0.002823 -0.000167
    35 0.031729 -1.160830 0.058838 -0.099745 0.000642 0.008372
    36 -0.963866 -2.785145 -0.085350 0.076866 0.070929 0.053157
    37 0.028479 -1.403067 0.006271 -1.337909 0.000000 0.000000
    38 0.021413 -0.957781 0.020046 -1.052173 0.000000 0.000000
    39 1.164475 -2.543940 -0.170330 -1.221927 -0.015463 0.162804
    40 0.024032 -1.129042 0.017807 -0.900877 0.000000 0.000001
    41 0.014898 -0.883989 -0.019848 -0.928571 0.000000 0.000000
    42 -0.586770 -1.264477 0.200161 0.150010 0.013443 -2.613227
    43 1.522835 0.058681 0.016848 0.001410 0.008985 0.624684
    44 1.117947 0.048424 -0.005766 -0.002568 -0.011344 -0.141987
    45 -0.139399 -0.111698 0.014397 0.774181 0.191172 1.472862
    46 -6.260806 6.983652 -0.294122 1.580804 -0.005023 -0.912799
  time 23
    0 -0.349399 1.166145 0.203512 0.000000 0.000000 0.000000
    1 9.874299 1.815895 -8.958125 -1.567573 -1.332572 1.219894
    2 -0.071918 -8.498730 -0.104136 0.221967 0.080481 -0.200353
    3 2.672261 -3.383448 0.696208 0.083503 0.128137 -1.585662
    4 8.674173 -0.128572 0.000000 0.000000 0.000000 0.000000
    5 0.000000 0.000000 0.000000 0.000000 0.000000 0.000000
    6 4.045845 -0.586976 0.000000 0.000000 0.000000 0.000000
    7 -33.579150 -30.231391 0.000000 0.000000 0.000000 0.000000
    8 1.039971 -0.940679 0.000000 0.000000 0.000000 -1.570796
    9 4.782106 0.485510 0.407405 0.000012 0.000000 -1.570796
    10 5.548040 -0.183522 0.000000 1.570796 -1.570796 0.000000
    11 1.257180 8.762585 -0.153713 -1.570562 0.002683 -1.566807
    12 -0.488518 -2.755602 -0.228260 -0.518305 -0.074854 -0.310571
    13 0.039887 -1.479790 0.029854 -2.289231 0.000000 0.000001
    14 0.028786 -1.075731 -0.023109 -0.271941 0.000000 0.000000
    15 0.250027 -2.820665 -0.238396 -0.350825 -0.052441 -0.187301
    16 -0.049759 -1.680544 0.100479 -2.246572 0.000000 -0.000002
    17 -0.034142 -1.148312 0.084782 -0.535851 0.000000 0.000000
    18 0.957766 -2.746780 -0.090302 0.329289 -0.172344 0.119866
    19 -0.033420 -1.397129 -0.011257 -1.115580 0.000000 -0.000001
    20 -0.022360 -0.957436 0.018784 -1.148807 0.000000 0.000000
    21 -1.180681 -2.507217 -0.193859 -0.309305 0.033033 -0.314313
    22 -0.024967 -1.123934 0.017597 -2.040737 0.000000 0.000001
    23 -0.020057 -0.890968 0.010090 -0.646720 0.000000 0.000000
    24 0.583510 -1.197277 0.185379 0.371183 -0.693166 -0.903076
    25 1.535927 0.010246 0.005009 -0.002964 -0.012979 -0.682290
    26 1.100771 0.004527 -0.010679 -0.016147 -0.001453 -1.484153
    27 0.120153 -0.050270 -0.054489 0.287569 3.110905 1.561085
    28 -0.430930 -11.336915 -11.931335 -1.839593 -5.400187 -1.038922
    29 0.096944 -8.450418 -0.009365 0.075476 -1.267968 0.356845
    30 0.447953 -2.798986 -0.200443 -0.761407 0.042804 0.170619
    31 -0.032909 -1.480204 0.004940 -1.480139 0.000000 0.000002
    32 -0.027022 -1.076920 -0.020210 -0.375135 0.000000 0.000000
    33 -0.249534 -2.846964 -0.174213 -0.318562 0.002631 0.073866
    34 0.043235 -1.683941 0.096012 -1.876275 0.002823 -0.000167
    35 0.031729 -1.160830 0.058838 -0.099745 0.000642 0.008372
    36 -0.963866 -2.785145 -0.085350 0.076866 0.070929 0.053157
    37 0.028479 -1.403067 0.006271 -1.337909 0.000000 0.000000
    38 0.021413 -0.957781 0.020046 -1.052173 0.000000 0.000000
    39 1.164475 -2.543940 -0.170330 -1.221927 -0.015463 0.162804
    40 0.024032 -1.129042 0.017807 -0.900877 0.000000 0.000001
    41 0.014898 -0.883989 -0.019848 -0.928571 0.000000 0.000000
    42 -0.586770 -1.264477 0.200161 0.150010 0.013443 -2.613227
    43 1.522835 0.058681 0.016848 0.001410 0.008985 0.624684
    44 1.117947 0.048424 -0.005766 -0.002568 -0.011344 -0.141987
    45 -0.139399 -0.111698 0.014397 0.774181 0.191172 1.472862
    46 -6.260806 6.983652 -0.294122 1.580804 -0.005023 -0.912799
  time 24
    0 -0.349399 1.166145 0.203512 0.000000 0.000000 0.000000
    1 9.874299 1.765112 -8.962031 -1.567323 -1.332716 1.219724
    2 -0.071918 -8.498730 -0.104136 0.221967 0.080481 -0.200353
    3 2.672261 -3.383448 0.696208 0.083503 0.128137 -1.585662
    4 8.674173 -0.128572 0.000000 0.000000 0.000000 0.000000
    5 0.000000 0.000000 0.000000 0.000000 0.000000 0.000000
    6 4.045845 -0.586976 0.000000 0.000000 0.000000 0.000000
    7 -33.579150 -30.231391 0.000000 0.000000 0.000000 0.000000
    8 1.039971 -0.940679 0.000000 0.000000 0.000000 -1.570796
    9 4.782106 0.485510 0.407405 0.000012 0.000000 -1.570796
    10 5.548040 -0.183522 0.000000 1.570796 -1.570796 0.000000
    11 1.257180 8.762585 -0.153713 -1.570562 0.002683 -1.566807
    12 -0.488518 -2.755602 -0.228260 -0.518305 -0.074854 -0.310571
    13 0.039887 -1.479790 0.029854 -2.289231 0.000000 0.000001
    14 0.028786 -1.075731 -0.023109 -0.271941 0.000000 0.000000
    15 0.250027 -2.820665 -0.238396 -0.350825 -0.052441 -0.187301
    16 -0.049759 -1.680544 0.100479 -2.246572 0.000000 -0.000002
    17 -0.034142 -1.148312 0.084782 -0.535851 0.000000 0.000000
    18 0.957766 -2.746780 -0.090302 0.329289 -0.172344 0.119866
    19 -0.033420 -1.397129 -0.011257 -1.115580 0.000000 -0.000001
    20 -0.022360 -0.957436 0.018784 -1.148807 0.000000 0.000000
    21 -1.180681 -2.507217 -0.193859 -0.309305 0.033033 -0.314313
    22 -0.024967 -1.123934 0.017597 -2.040737 0.000000 0.000001
    23 -0.020057 -0.890968 0.010090 -0.646720 0.000000 0.000000
    24 0.583510 -1.197277 0.185379 0.371183 -0.693166 -0.903076
    25 1.535927 0.010246 0.005009 -0.002964 -0.012979 -0.682290
    26 1.100771 0.004527 -0.010679 -0.016147 -0.001453 -1.484153
    27 0.120153 -0.050270 -0.054489 0.287569 3.110905 1.561085
    28 -0.430930 -11.387698 -11.939148 -1.839459 -5.400003 -1.038827
    29 0.096944 -8.450418 -0.009365 0.075476 -1.267968 0.356845
    30 0.447953 -2.798986 -0.200443 -0.761407 0.042804 0.170619
    31 -0.032909 -1.480204 0.004940 -1.480139 0.000000 0.000002
    32 -0.027022 -1.076920 -0.020210 -0.375135 0.000000 0.000000
    33 -0.249534 -2.846964 -0.174213 -0.318562 0.002631 0.073866
    34 0.043235 -1.683941 0.096012 -1.876275 0.002823 -0.000167
    35 0.031729 -1.160830 0.058838 -0.099745 0.000642 0.008372
    36 -0.963866 -2.785145 -0.085350 0.076866 0.070929 0.053157
    37 0.028479 -1.403067 0.006271 -1.337909 0.000000 0.000000
    38 0.021413 -0.957781 0.020046 -1.052173 0.000000 0.000000
    39 1.164475 -2.543940 -0.170330 -1.221927 -0.015463 0.162804
    40 0.024032 -1.129042 0.017807 -0.900877 0.000000 0.000001
    41 0.014898 -0.883989 -0.019848 -0.928571 0.000000 0.000000
    42 -0.586770 -1.264477 0.200161 0.150010 0.013443 -2.613227
    43 1.522835 0.058681 0.016848 0.001410 0.008985 0.624684
    44 1.117947 0.048424 -0.005766 -0.002568 -0.011344 -0.141987
    45 -0.139399 -0.111698 0.014397 0.774181 0.191172 1.472862
    46 -6.260806 6.983652 -0.294122 1.580804 -0.005023 -0.912799
  time 25
    0 -0.349399 1.166145 0.203512 0.000000 0.000000 0.000000
    1 9.874299 1.733861 -8.954219 -1.567323 -1.332716 1.219639
    2 -0.071918 -8.498730 -0.104136 0.221967 0.080481 -0.200353
    3 2.672261 -3.383448 0.696208 0.083503 0.128137 -1.585662
    4 8.674173 -0.128572 0.000000 0.000000 0.000000 0.000000
    5 0.000000 0.000000 0.000000 0.000000 0.000000 0.000000
    6 4.045845 -0.586976 0.000000 0.000000 0.000000 0.000000
    7 -33.579150 -30.231391 0.000000 0.000000 0.000000 0.000000
    8 1.039971 -0.940679 0.000000 0.000000 0.000000 -1.570796
    9 4.782106 0.485510 0.407405 0.000012 0.000000 -1.570796
    10 5.548040 -0.183522 0.000000 1.570796 -1.570796 0.000000
    11 1.257180 8.762585 -0.153713 -1.570562 0.002683 -1.566807
    12 -0.488518 -2.755602 -0.228260 -0.518305 -0.074854 -0.310571
    13 0.039887 -1.479790 0.029854 -2.289231 0.000000 0.000001
    14 0.028786 -1.075731 -0.023109 -0.271941 0.000000 0.000000
    15 0.250027 -2.820665 -0.238396 -0.350825 -0.052441 -0.187301
    16 -0.049759 -1.680544 0.100479 -2.246572 0.000000 -0.000002
    17 -0.034142 -1.148312 0.084782 -0.535851 0.000000 0.000000
    18 0.957766 -2.746780 -0.090302 0.329289 -0.172344 0.119866
    19 -0.033420 -1.397129 -0.011257 -1.115580 0.000000 -0.000001
    20 -0.022360 -0.957436 0.018784 -1.148807 0.000000 0.000000
    21 -1.180681 -2.507217 -0.193859 -0.309305 0.033033 -0.314313
    22 -0.024967 -1.123934 0.017597 -2.040737 0.000000 0.000001
    23 -0.020057 -0.890968 0.010090 -0.646720 0.000000 0.000000
    24 0.583510 -1.197277 0.185379 0.371183 -0.693166 -0.903076
    25 1.535927 0.010246 0.005009 -0.002964 -0.012979 -0.682290
    26 1.100771 0.004527 -0.010679 -0.016147 -0.001453 -1.484153
    27 0.120153 -0.050270 -0.054489 0.287569 3.110905 1.561085
    28 -0.430930 -11.422855 -11.931335 -1.839459 -5.400003 -1.038827
    29 0.096944 -8.450418 -0.009365 0.075476 -1.267968 0.356845
    30 0.447953 -2.798986 -0.200443 -0.761407 0.042804 0.170619
    31 -0.032909 -1.480204 0.004940 -1.480139 0.000000 0.000002
    32 -0.027022 -1.076920 -0.020210 -0.375135 0.000000 0.000000
    33 -0.249534 -2.846964 -0.174213 -0.318562 0.002631 0.073866
    34 0.043235 -1.683941 0.096012 -1.876275 0.002823 -0.000167
    35 0.031729 -1.160830 0.058838 -0.099745 0.000642 0.008372
    36 -0.963866 -2.785145 -0.085350 0.076866 0.070929 0.053157
    37 0.028479 -1.403067 0.006271 -1.337909 0.000000 0.000000
    38 0.021413 -0.957781 0.020046 -1.052173 0.000000 0.000000
    39 1.164475 -2.543940 -0.170330 -1.221927 -0.015463 0.162804
    40 0.024032 -1.129042 0.017807 -0.900877 0.000000 0.000001
    41 0.014898 -0.883989 -0.019848 -0.928571 0.000000 0.000000
    42 -0.586770 -1.264477 0.200161 0.150010 0.013443 -2.613227
    43 1.522835 0.058681 0.016848 0.001410 0.008985 0.624684
    44 1.117947 0.048424 -0.005766 -0.002568 -0.011344 -0.141987
    45 -0.139399 -0.111698 0.014397 0.774181 0.191172 1.472862
    46 -6.260806 6.983652 -0.294122 1.580804 -0.005023 -0.912799
  time 26
    0 -0.349399 1.166145 0.203512 0.000000 0.000000 0.000000
    1 9.874299 1.710423 -8.934687 -1.567406 -1.332644 1.219724
    2 -0.071918 -8.498730 -0.104136 0.221967 0.080481 -0.200353
    3 2.672261 -3.383448 0.696208 0.083503 0.128137 -1.585662
    4 8.674173 -0.128572 0.000000 0.000000 0.000000 0.000000
    5 0.000000 0.000000 0.000000 0.000000 0.000000 0.000000
    6 4.045845 -0.586976 0.000000 0.000000 0.000000 0.000000
    7 -33.579150 -30.231391 0.000000 0.000000 0.000000 0.000000
    8 1.039971 -0.940679 0.000000 0.000000 0.000000 -1.570796
    9 4.782106 0.485510 0.407405 0.000012 0.000000 -1.570796
    10 5.548040 -0.183522 0.000000 1.570796 -1.570796 0.000000
    11 1.257180 8.762585 -0.153713 -1.570562 0.002683 -1.566807
    12 -0.488518 -2.755602 -0.228260 -0.518305 -0.074854 -0.310571
    13 0.039887 -1.479790 0.029854 -2.289231 0.000000 0.000001
    14 0.028786 -1.075731 -0.023109 -0.271941 0.000000 0.000000
    15 0.250027 -2.820665 -0.238396 -0.350825 -0.052441 -0.187301
    16 -0.049759 -1.680544 0.100479 -2.246572 0.000000 -0.000002
    17 -0.034142 -1.148312 0.084782 -0.535851 0.000000 0.000000
    18 0.957766 -2.746780 -0.090302 0.329289 -0.172344 0.119866
    19 -0.033420 -1.397129 -0.011257 -1.115580 0.000000 -0.000001
    20 -0.022360 -0.957436 0.018784 -1.148807 0.000000 0.000000
    21 -1.180681 -2.507217 -0.193859 -0.309305 0.033033 -0.314313
    22 -0.024967 -1.123934 0.017597 -2.040737 0.000000 0.000001
    23 -0.020057 -0.890968 0.010090 -0.646720 0.000000 0.000000
    24 0.583510 -1.197277 0.185379 0.371183 -0.693166 -0.903076
    25 1.535927 0.010246 0.005009 -0.002964 -0.012979 -0.682290
    26 1.100771 0.004527 -0.010679 -0.016147 -0.001453 -1.484153
    27 0.120153 -0.050270 -0.054489 0.287569 3.110905 1.561085
    28 -0.430930 -11.442387 -11.911803 -1.839459 -5.400095 -1.038827
    29 0.096944 -8.450418 -0.009365 0.075476 -1.267968 0.356845
    30 0.447953 -2.798986 -0.200443 -0.761407 0.042804 0.170619
    31 -0.032909 -1.480204 0.004940 -1.480139 0.000000 0.000002
    32 -0.027022 -1.076920 -0.020210 -0.375135 0.000000 0.000000
    33 -0.249534 -2.846964 -0.174213 -0.318562 0.002631 0.073866
    34 0.043235 -1.683941 0.096012 -1.876275 0.002823 -0.000167
    35 0.031729 -1.160830 0.058838 -0.099745 0.000642 0.008372
    36 -0.963866 -2.785145 -0.085350 0.076866 0.070929 0.053157
    37 0.028479 -1.403067 0.006271 -1.337909 0.000000 0.000000
    38 0.021413 -0.957781 0.020046 -1.052173 0.000000 0.000000
    39 1.164475 -2.543940 -0.170330 -1.221927 -0.015463 0.162804
    40 0.024032 -1.129042 0.017807 -0.900877 0.000000 0.000001
    41 0.014898 -0.883989 -0.019848 -0.928571 0.000000 0.000000
    42 -0.586770 -1.264477 0.200161 0.150010 0.013443 -2.613227
    43 1.522835 0.058681 0.016848 0.001410 0.008985 0.624684
    44 1.117947 0.048424 -0.005766 -0.002568 -0.011344 -0.141987
    45 -0.139399 -0.111698 0.014397 0.774181 0.191172 1.472862
    46 -6.260806 6.983652 -0.294122 1.580804 -0.005023 -0.912799
  time 27
    0 -0.349399 1.166145 0.203512 0.000000 0.000000 0.000000
    1 9.874299 1.702610 -8.903436 -1.567573 -1.332536 1.219979
    2 -0.071918 -8.498730 -0.104136 0.221967 0.080481 -0.200353
    3 2.672261 -3.383448 0.696208 0.083503 0.128137 -1.585662
    4 8.674173 -0.128572 0.000000 0.000000 0.000000 0.000000
    5 0.000000 0.000000 0.000000 0.000000 0.000000 0.000000
    6 4.045845 -0.586976 0.000000 0.000000 0.000000 0.000000
    7 -33.579150 -30.231391 0.000000 0.000000 0.000000 0.000000
    8 1.039971 -0.940679 0.000000 0.000000 0.000000 -1.570796
    9 4.782106 0.485510 0.407405 0.000012 0.000000 -1.570796
    10 5.548040 -0.183522 0.000000 1.570796 -1.570796 0.000000
    11 1.257180 8.762585 -0.153713 -1.570562 0.002683 -1.566807
    12 -0.488518 -2.755602 -0.228260 -0.518305 -0.074854 -0.310571
    13 0.039887 -1.479790 0.029854 -2.289231 0.000000 0.000001
    14 0.028786 -1.075731 -0.023109 -0.271941 0.000000 0.000000
    15 0.250027 -2.820665 -0.238396 -0.350825 -0.052441 -0.187301
    16 -0.049759 -1.680544 0.100479 -2.246572 0.000000 -0.000002
    17 -0.034142 -1.148312 0.084782 -0.535851 0.000000 0.000000
    18 0.957766 -2.746780 -0.090302 0.329289 -0.172344 0.119866
    19 -0.033420 -1.397129 -0.011257 -1.115580 0.000000 -0.000001
    20 -0.022360 -0.957436 0.018784 -1.148807 0.000000 0.000000
    21 -1.180681 -2.507217 -0.193859 -0.309305 0.033033 -0.314313
    22 -0.024967 -1.123934 0.017597 -2.040737 0.000000 0.000001
    23 -0.020057 -0.890968 0.010090 -0.646720 0.000000 0.000000
    24 0.583510 -1.197277 0.185379 0.371183 -0.693166 -0.903076
    25 1.535927 0.010246 0.005009 -0.002964 -0.012979 -0.682290
    26 1.100771 0.004527 -0.010679 -0.016147 -0.001453 -1.484153
    27 0.120153 -0.050270 -0.054489 0.287569 3.110905 1.561085
    28 -0.430930 -11.450200 -11.876646 -1.839593 -5.400187 -1.038922
    29 0.096944 -8.450418 -0.009365 0.075476 -1.267968 0.356845
    30 0.447953 -2.798986 -0.200443 -0.761407 0.042804 0.170619
    31 -0.032909 -1.480204 0.004940 -1.480139 0.000000 0.000002
    32 -0.027022 -1.076920 -0.020210 -0.375135 0.000000 0.000000
    33 -0.249534 -2.846964 -0.174213 -0.318562 0.002631 0.073866
    34 0.043235 -1.683941 0.096012 -1.876275 0.002823 -0.000167
    35 0.031729 -1.160830 0.058838 -0.099745 0.000642 0.008372
    36 -0.963866 -2.785145 -0.085350 0.076866 0.070929 0.053157
    37 0.028479 -1.403067 0.006271 -1.337909 0.000000 0.000000
    38 0.021413 -0.957781 0.020046 -1.052173 0.000000 0.000000
    39 1.164475 -2.543940 -0.170330 -1.221927 -0.015463 0.162804
    40 0.024032 -1.129042 0.017807 -0.900877 0.000000 0.000001
    41 0.014898 -0.883989 -0.019848 -0.928571 0.000000 0.000000
    42 -0.586770 -1.264477 0.200161 0.150010 0.013443 -2.613227
    43 1.522835 0.058681 0.016848 0.001410 0.008985 0.624684
    44 1.117947 0.048424 -0.005766 -0.002568 -0.011344 -0.141987
    45 -0.139399 -0.111698 0.014397 0.774181 0.191172 1.472862
    46 -6.260806 6.983652 -0.294122 1.580804 -0.005023 -0.912799
  time 28
    0 -0.349399 1.166145 0.203512 0.000000 0.000000 0.000000
    1 9.874299 1.702610 -8.864372 -1.567823 -1.332428 1.220149
    2 -0.071918 -8.498730 -0.104136 0.221967 0.080481 -0.200353
    3 2.672261 -3.383448 0.696208 0.083503 0.128137 -1.585662
    4 8.674173 -0.128572 0.000000 0.000000 0.000000 0.000000
    5 0.000000 0.000000 0.000000 0.000000 0.000000 0.000000
    6 4.045845 -0.586976 0.000000 0.000000 0.000000 0.000000
    7 -33.579150 -30.231391 0.000000 0.000000 0.000000 0.000000
    8 1.039971 -0.940679 0.000000 0.000000 0.000000 -1.570796
    9 4.782106 0.485510 0.407405 0.000012 0.000000 -1.570796
    10 5.548040 -0.183522 0.000000 1.570796 -1.570796 0.000000
    11 1.257180 8.762585 -0.153713 -1.570562 0.002683 -1.566807
    12 -0.488518 -2.755602 -0.228260 -0.518305 -0.074854 -0.310571
    13 0.039887 -1.479790 0.029854 -2.289231 0.000000 0.000001
    14 0.028786 -1.075731 -0.023109 -0.271941 0.000000 0.000000
    15 0.250027 -2.820665 -0.238396 -0.350825 -0.052441 -0.187301
    16 -0.049759 -1.680544 0.100479 -2.246572 0.000000 -0.000002
    17 -0.034142 -1.148312 0.084782 -0.535851 0.000000 0.000000
    18 0.957766 -2.746780 -0.090302 0.329289 -0.172344 0.119866
    19 -0.033420 -1.397129 -0.011257 -1.115580 0.000000 -0.000001
    20 -0.022360 -0.957436 0.018784 -1.148807 0.000000 0.000000
    21 -1.180681 -2.507217 -0.193859 -0.309305 0.033033 -0.314313
    22 -0.024967 -1.123934 0.017597 -2.040737 0.000000 0.000001
    23 -0.020057 -0.890968 0.010090 -0.646720 0.000000 0.000000
    24 0.583510 -1.197277 0.185379 0.371183 -0.693166 -0.903076
    25 1.535927 0.010246 0.005009 -0.002964 -0.012979 -0.682290
    26 1.100771 0.004527 -0.010679 -0.016147 -0.001453 -1.484153
    27 0.120153 -0.050270 -0.054489 0.287569 3.110905 1.561085
    28 -0.430930 -11.454106 -11.837582 -1.839727 -5.400278 -1.039017
    29 0.096944 -8.450418 -0.009365 0.075476 -1.267968 0.356845
    30 0.447953 -2.798986 -0.200443 -0.761407 0.042804 0.170619
    31 -0.032909 -1.480204 0.004940 -1.480139 0.000000 0.000002
    32 -0.027022 -1.076920 -0.020210 -0.375135 0.000000 0.000000
    33 -0.249534 -2.846964 -0.174213 -0.318562 0.002631 0.073866
    34 0.043235 -1.683941 0.096012 -1.876275 0.002823 -0.000167
    35 0.031729 -1.160830 0.058838 -0.099745 0.000642 0.008372
    36 -0.963866 -2.785145 -0.085350 0.076866 0.070929 0.053157
    37 0.028479 -1.403067 0.006271 -1.337909 0.000000 0.000000
    38 0.021413 -0.957781 0.020046 -1.052173 0.000000 0.000000
    39 1.164475 -2.543940 -0.170330 -1.221927 -0.015463 0.162804
    40 0.024032 -1.129042 0.017807 -0.900877 0.000000 0.000001
    41 0.014898 -0.883989 -0.019848 -0.928571 0.000000 0.000000
    42 -0.586770 -1.264477 0.200161 0.150010 0.013443 -2.613227
    43 1.522835 0.058681 0.016848 0.001410 0.008985 0.624684
    44 1.117947 0.048424 -0.005766 -0.002568 -0.011344 -0.141987
    45 -0.139399 -0.111698 0.014397 0.774181 0.191172 1.472862
    46 -6.260806 6.983652 -0.294122 1.580804 -0.005023 -0.912799
  time 29
    0 -0.349399 1.166145 0.203512 0.000000 0.000000 0.000000
    1 9.874299 1.706516 -8.825308 -1.567989 -1.332320 1.220320
    2 -0.071918 -8.498730 -0.104136 0.221967 0.080481 -0.200353
    3 2.672261 -3.383448 0.696208 0.083503 0.128137 -1.585662
    4 8.674173 -0.128572 0.000000 0.000000 0.000000 0.000000
    5 0.000000 0.000000 0.000000 0.000000 0.000000 0.000000
    6 4.045845 -0.586976 0.000000 0.000000 0.000000 0.000000
    7 -33.579150 -30.231391 0.000000 0.000000 0.000000 0.000000
    8 1.039971 -0.940679 0.000000 0.000000 0.000000 -1.570796
    9 4.782106 0.485510 0.407405 0.000012 0.000000 -1.570796
    10 5.548040 -0.183522 0.000000 1.570796 -1.570796 0.000000
    11 1.257180 8.762585 -0.153713 -1.570562 0.002683 -1.566807
    12 -0.488518 -2.755602 -0.228260 -0.518305 -0.074854 -0.310571
    13 0.039887 -1.479790 0.029854 -2.289231 0.000000 0.000001
    14 0.028786 -1.075731 -0.023109 -0.271941 0.000000 0.000000
    15 0.250027 -2.820665 -0.238396 -0.350825 -0.052441 -0.187301
    16 -0.049759 -1.680544 0.100479 -2.246572 0.000000 -0.000002
    17 -0.034142 -1.148312 0.084782 -0.535851 0.000000 0.000000
    18 0.957766 -2.746780 -0.090302 0.329289 -0.172344 0.119866
    19 -0.033420 -1.397129 -0.011257 -1.115580 0.000000 -0.000001
    20 -0.022360 -0.957436 0.018784 -1.148807 0.000000 0.000000
    21 -1.180681 -2.507217 -0.193859 -0.309305 0.033033 -0.314313
    22 -0.024967 -1.123934 0.017597 -2.040737 0.000000 0.000001
    23 -0.020057 -0.890968 0.010090 -0.646720 0.000000 0.000000
    24 0.583510 -1.197277 0.185379 0.371183 -0.693166 -0.903076
    25 1.535927 0.010246 0.005009 -0.002964 -0.012979 -0.682290
    26 1.100771 0.004527 -0.010679 -0.016147 -0.001453 -1.484153
    27 0.120153 -0.050270 -0.054489 0.287569 3.110905 1.561085
    28 -0.430930 -11.446293 -11.794612 -1.839794 -5.400370 -1.039113
    29 0.096944 -8.450418 -0.009365 0.075476 -1.267968 0.356845
    30 0.447953 -2.798986 -0.200443 -0.761407 0.042804 0.170619
    31 -0.032909 -1.480204 0.004940 -1.480139 0.000000 0.000002
    32 -0.027022 -1.076920 -0.020210 -0.375135 0.000000 0.000000
    33 -0.249534 -2.846964 -0.174213 -0.318562 0.002631 0.073866
    34 0.043235 -1.683941 0.096012 -1.876275 0.002823 -0.000167
    35 0.031729 -1.160830 0.058838 -0.099745 0.000642 0.008372
    36 -0.963866 -2.785145 -0.085350 0.076866 0.070929 0.053157
    37 0.028479 -1.403067 0.006271 -1.337909 0.000000 0.000000
    38 0.021413 -0.957781 0.020046 -1.052173 0.000000 0.000000
    39 1.164475 -2.543940 -0.170330 -1.221927 -0.015463 0.162804
    40 0.024032 -1.129042 0.017807 -0.900877 0.000000 0.000001
    41 0.014898 -0.883989 -0.019848 -0.928571 0.000000 0.000000
    42 -0.586770 -1.264477 0.200161 0.150010 0.013443 -2.613227
    43 1.522835 0.058681 0.016848 0.001410 0.008985 0.624684
    44 1.117947 0.048424 -0.005766 -0.002568 -0.011344 -0.141987
    45 -0.139399 -0.111698 0.014397 0.774181 0.191172 1.472862
    46 -6.260806 6.983652 -0.294122 1.580804 -0.005023 -0.912799
  time 30
    0 -0.349399 1.166145 0.203512 0.000000 0.000000 0.000000
    1 9.874299 1.714329 -8.778432 -1.567989 -1.332284 1.220320
    2 -0.071918 -8.498730 -0.104136 0.221967 0.080481 -0.200353
    3 2.672261 -3.383448 0.696208 0.083503 0.128137 -1.585662
    4 8.674173 -0.128572 0.000000 0.000000 0.000000 0.000000
    5 0.000000 0.000000 0.000000 0.000000 0.000000 0.000000
    6 4.045845 -0.586976 0.000000 0.000000 0.000000 0.000000
    7 -33.579150 -30.231391 0.000000 0.000000 0.000000 0.000000
    8 1.039971 -0.940679 0.000000 0.000000 0.000000 -1.570796
    9 4.782106 0.485510 0.407405 0.000012 0.000000 -1.570796
    10 5.548040 -0.183522 0.000000 1.570796 -1.570796 0.000000
    11 1.257180 8.762585 -0.153713 -1.570562 0.002683 -1.566807
    12 -0.488518 -2.755602 -0.228260 -0.518305 -0.074854 -0.310571
    13 0.039887 -1.479790 0.029854 -2.289231 0.000000 0.000001
    14 0.028786 -1.075731 -0.023109 -0.271941 0.000000 0.000000
    15 0.250027 -2.820665 -0.238396 -0.350825 -0.052441 -0.187301
    16 -0.049759 -1.680544 0.100479 -2.246572 0.000000 -0.000002
    17 -0.034142 -1.148312 0.084782 -0.535851 0.000000 0.000000
    18 0.957766 -2.746780 -0.090302 0.329289 -0.172344 0.119866
    19 -0.033420 -1.397129 -0.011257 -1.115580 0.000000 -0.000001
    20 -0.022360 -0.957436 0.018784 -1.148807 0.000000 0.000000
    21 -1.180681 -2.507217 -0.193859 -0.309305 0.033033 -0.314313
    22 -0.024967 -1.123934 0.017597 -2.040737 0.000000 0.000001
    23 -0.020057 -0.890968 0.010090 -0.646720 0.000000 0.000000
    24 0.583510 -1.197277 0.185379 0.371183 -0.693166 -0.903076
    25 1.535927 0.010246 0.005009 -0.002964 -0.012979 -0.682290
    26 1.100771 0.004527 -0.010679 -0.016147 -0.001453 -1.484153
    27 0.120153 -0.050270 -0.054489 0.287569 3.110905 1.561085
    28 -0.430930 -11.438480 -11.747736 -1.839794 -5.400462 -1.039113
    29 0.096944 -8.450418 -0.009365 0.075476 -1.267968 0.356845
    30 0.447953 -2.798986 -0.200443 -0.761407 0.042804 0.170619
    31 -0.032909 -1.480204 0.004940 -1.480139 0.000000 0.000002
    32 -0.027022 -1.076920 -0.020210 -0.375135 0.000000 0.000000
    33 -0.249534 -2.846964 -0.174213 -0.318562 0.002631 0.073866
    34 0.043235 -1.683941 0.096012 -1.876275 0.002823 -0.000167
    35 0.031729 -1.160830 0.058838 -0.099745 0.000642 0.008372
    36 -0.963866 -2.785145 -0.085350 0.076866 0.070929 0.053157
    37 0.028479 -1.403067 0.006271 -1.337909 0.000000 0.000000
    38 0.021413 -0.957781 0.020046 -1.052173 0.000000 0.000000
    39 1.164475 -2.543940 -0.170330 -1.221927 -0.015463 0.162804
    40 0.024032 -1.129042 0.017807 -0.900877 0.000000 0.000001
    41 0.014898 -0.883989 -0.019848 -0.928571 0.000000 0.000000
    42 -0.586770 -1.264477 0.200161 0.150010 0.013443 -2.613227
    43 1.522835 0.058681 0.016848 0.001410 0.008985 0.624684
    44 1.117947 0.048424 -0.005766 -0.002568 -0.011344 -0.141987
    45 -0.139399 -0.111698 0.014397 0.774181 0.191172 1.472862
    46 -6.260806 6.983652 -0.294122 1.580804 -0.005023 -0.912799
end
