version 1
nodes
  0 "PGM_root" -1
  1 "triger" 0
  2 "reload" 0
  3 "megazine" 0
  4 "root" -1
  5 "Bone01" 4
  6 "Bone_L_Upper" 5
  7 "Bone_Lefthand" 5
  8 "Bone13" 7
  9 "Bone14" 8
  10 "Bone15" 9
  11 "Bone17" 7
  12 "Bone18" 11
  13 "Bone19" 12
  14 "Bone21" 7
  15 "Bone22" 14
  16 "Bone23" 15
  17 "Bone09" 7
  18 "Bone10" 17
  19 "Bone11" 18
  20 "Bone05" 7
  21 "Bone06" 20
  22 "Bone07" 21
  23 "Bone_Se_Hand-L" 7
  24 "Bone04" 4
  25 "Bone_Righthand" 24
  26 "Bone39" 25
  27 "Bone40" 26
  28 "Bone41" 27
  29 "Bone35" 25
  30 "Bone36" 29
  31 "Bone37" 30
  32 "Bone31" 25
  33 "Bone32" 32
  34 "Bone33" 33
  35 "Bone43" 25
  36 "Bone44" 35
  37 "Bone45" 36
  38 "Bone27" 25
  39 "Bone28" 38
  40 "Bone29" 39
  41 "Bone_Se_Hand-R" 25
  42 "Bone_R_Upper" 24
end
skeleton
  time 0
    0 19.848262 -15.727214 -3.222755 1.228447 -0.669073 1.024730
    1 3.672698 -0.009399 -9.741897 0.000000 0.000000 1.570796
    2 5.242766 -0.009398 -9.099322 0.000000 0.000000 2.041481
    3 4.337082 0.867384 -6.040190 0.000001 0.000000 -3.141592
    4 1.184784 3.326962 -3.108851 -0.207549 -0.386623 0.509310
    5 4.079475 -2.346399 -7.846877 6.246281 -1.403895 -0.091631
    6 7.530809 3.664773 -0.325593 1.565793 -3.123580 0.536258
    7 0.123397 -8.572957 -0.076789 0.838363 0.851542 0.987768
    8 -0.488518 -2.755602 -0.228260 -0.681803 0.004651 -0.313855
    9 0.039887 -1.546198 0.022041 -1.875510 -0.006592 0.041851
    10 0.028786 -1.185109 -0.128581 -1.197686 -0.015101 0.026258
    11 0.250027 -2.820665 -0.238396 -0.522750 -0.013372 -0.204188
    12 -0.049759 -1.594604 0.018445 -1.723461 -0.003452 -0.044920
    13 -0.034142 -1.171750 0.045718 -1.216565 0.006052 -0.032095
    14 0.957766 -2.746780 -0.090302 0.259072 -0.168473 0.050763
    15 -0.033420 -1.397129 -0.026882 -1.002519 0.003787 -0.049018
    16 -0.022360 -0.957436 0.003159 -0.559816 0.008018 -0.026929
    17 -1.180681 -2.507217 -0.193859 -0.873773 0.162131 -0.429533
    18 -0.024967 -1.127840 0.017597 -1.543477 -0.011289 -0.062043
    19 -0.020057 -0.906594 0.029622 -0.887117 0.006831 -0.036002
    20 0.618667 -1.185558 0.177566 0.929876 -0.865781 -1.011303
    21 1.516395 -0.153822 0.047979 0.016367 -0.158292 -0.529985
    22 0.999205 -0.186885 0.044010 0.097263 -0.250397 -1.081820
    23 0.120153 -0.050270 -0.054489 0.287569 3.110905 1.561085
    24 -10.345295 -2.567116 -6.688987 -0.782422 -3.560798 -0.581564
    25 -0.020247 -7.852744 0.045324 -0.119078 -0.891919 -0.147591
    26 0.447953 -2.798986 -0.200443 -0.498397 0.005388 0.258850
    27 -0.032909 -1.499736 0.024472 -1.223410 0.022663 -0.021750
    28 -0.027022 -1.073014 -0.016304 0.139027 -0.003883 0.000216
    29 -0.249534 -2.846964 -0.174213 -0.128576 -0.003900 0.202317
    30 0.043235 -1.656596 0.068667 -1.438586 -0.022297 0.007803
    31 0.031729 -1.160830 0.058838 0.057359 0.001553 0.009235
    32 -0.963866 -2.785145 -0.085350 0.202514 0.152580 0.045068
    33 0.028479 -1.406973 -0.024980 -1.109018 -0.031376 -0.036565
    34 0.021413 -0.957781 0.020046 -0.008034 -0.000084 -0.000527
    35 1.164475 -2.543940 -0.170330 -1.065316 -0.000506 0.537610
    36 0.024032 -1.129042 0.017807 -0.145529 -0.001534 0.006988
    37 0.014898 -0.883989 -0.019848 0.054446 0.002253 -0.006064
    38 -0.586770 -1.264477 0.200161 -0.257320 -0.852909 -2.770759
    39 1.554086 0.039149 0.016848 -0.011989 -0.004641 0.638496
    40 1.114041 0.048424 -0.005766 -0.016183 -0.034067 0.641120
    41 -0.131586 -0.111698 -0.173109 1.554649 -0.003889 1.247912
    42 -7.417091 4.905463 -0.426939 1.575830 -0.028980 -0.616424
  time 1
    0 19.563097 -15.910814 -2.703207 1.201840 -0.657562 1.036712
    1 3.672698 -0.009399 -9.741897 0.000000 0.000000 1.570796
    2 5.242766 -0.009398 -9.099322 0.000000 0.000000 2.041481
    3 4.337082 0.867384 -6.040190 0.000001 0.000000 -3.141592
    4 1.094937 3.076954 -3.007285 -0.207549 -0.386623 0.509310
    5 4.079475 -2.303429 -7.749218 6.224090 -1.394792 -0.074587
    6 7.542528 3.637428 -0.325593 1.565889 -3.123484 0.532279
    7 0.123397 -8.572957 -0.076789 0.826058 0.839186 0.999152
    8 -0.488518 -2.755602 -0.228260 -0.681803 0.004651 -0.313855
    9 0.039887 -1.546198 0.022041 -1.875510 -0.006592 0.041851
    10 0.028786 -1.185109 -0.128581 -1.197686 -0.015101 0.026258
    11 0.250027 -2.820665 -0.238396 -0.522750 -0.013372 -0.204188
    12 -0.049759 -1.594604 0.018445 -1.723461 -0.003452 -0.044920
    13 -0.034142 -1.171750 0.045718 -1.216565 0.006052 -0.032095
    14 0.957766 -2.746780 -0.090302 0.259072 -0.168473 0.050763
    15 -0.033420 -1.397129 -0.026882 -1.002519 0.003787 -0.049018
    16 -0.022360 -0.957436 0.003159 -0.559816 0.008018 -0.026929
    17 -1.180681 -2.507217 -0.193859 -0.873773 0.162131 -0.429533
    18 -0.024967 -1.127840 0.017597 -1.543477 -0.011289 -0.062043
    19 -0.020057 -0.906594 0.029622 -0.887117 0.006831 -0.036002
    20 0.618667 -1.185558 0.177566 0.929876 -0.865781 -1.011303
    21 1.516395 -0.153822 0.047979 0.016367 -0.158292 -0.529985
    22 0.999205 -0.186885 0.044010 0.097263 -0.250397 -1.081820
    23 0.120153 -0.050270 -0.054489 0.287569 3.110905 1.561085
    24 -10.333576 -2.582741 -6.716332 -0.790145 -3.557714 -0.582756
    25 -0.020247 -7.852744 0.045324 -0.119078 -0.891919 -0.147591
    26 0.447953 -2.798986 -0.200443 -0.498397 0.005388 0.258850
    27 -0.032909 -1.499736 0.024472 -1.223410 0.022663 -0.021750
    28 -0.027022 -1.073014 -0.016304 0.139027 -0.003883 0.000216
    29 -0.249534 -2.846964 -0.174213 -0.128576 -0.003900 0.202317
    30 0.043235 -1.656596 0.068667 -1.438586 -0.022297 0.007803
    31 0.031729 -1.160830 0.058838 0.057359 0.001553 0.009235
    32 -0.963866 -2.785145 -0.085350 0.202514 0.152580 0.045068
    33 0.028479 -1.406973 -0.024980 -1.109018 -0.031376 -0.036565
    34 0.021413 -0.957781 0.020046 -0.008034 -0.000084 -0.000527
    35 1.164475 -2.543940 -0.170330 -1.065316 -0.000506 0.537610
    36 0.024032 -1.129042 0.017807 -0.145529 -0.001534 0.006988
    37 0.014898 -0.883989 -0.019848 0.054446 0.002253 -0.006064
    38 -0.586770 -1.264477 0.200161 -0.257320 -0.852909 -2.770759
    39 1.554086 0.039149 0.016848 -0.011989 -0.004641 0.638496
    40 1.114041 0.048424 -0.005766 -0.016183 -0.034067 0.641120
    41 -0.131586 -0.111698 -0.173109 1.554649 -0.003889 1.247912
    42 -7.385840 4.967965 -0.423032 1.575974 -0.028800 -0.624925
  time 2
    0 18.637287 -16.258481 -1.945372 1.145181 -0.671163 1.041792
    1 3.672698 -0.009399 -9.741897 0.000000 0.000000 1.570796
    2 5.242766 -0.009398 -9.099322 0.000000 0.000000 2.041481
    3 4.337082 0.867384 -6.040190 0.000001 0.000000 -3.141592
    4 1.012904 2.838665 -2.905720 -0.207549 -0.386623 0.509310
    5 4.110726 -2.158893 -7.616402 6.114844 -1.391874 0.010729
    6 7.628468 3.399140 -0.329500 1.566080 -3.122817 0.501471
    7 0.115585 -8.572957 -0.076789 0.777679 0.822320 0.979327
    8 -0.488518 -2.755602 -0.228260 -0.681803 0.004651 -0.313855
    9 0.039887 -1.546198 0.022041 -1.875510 -0.006592 0.041851
    10 0.028786 -1.185109 -0.128581 -1.197686 -0.015101 0.026258
    11 0.250027 -2.820665 -0.238396 -0.522750 -0.013372 -0.204188
    12 -0.049759 -1.594604 0.018445 -1.723461 -0.003452 -0.044920
    13 -0.034142 -1.171750 0.045718 -1.216565 0.006052 -0.032095
    14 0.957766 -2.746780 -0.090302 0.259072 -0.168473 0.050763
    15 -0.033420 -1.397129 -0.026882 -1.002519 0.003787 -0.049018
    16 -0.022360 -0.957436 0.003159 -0.559816 0.008018 -0.026929
    17 -1.180681 -2.507217 -0.193859 -0.873773 0.162131 -0.429533
    18 -0.024967 -1.127840 0.017597 -1.543477 -0.011289 -0.062043
    19 -0.020057 -0.906594 0.029622 -0.887117 0.006831 -0.036002
    20 0.618667 -1.185558 0.177566 0.929876 -0.865781 -1.011303
    21 1.516395 -0.153822 0.047979 0.016367 -0.158292 -0.529985
    22 0.999205 -0.186885 0.044010 0.097263 -0.250397 -1.081820
    23 0.120153 -0.050270 -0.054489 0.287569 3.110905 1.561085
    24 -10.302325 -2.621805 -6.774927 -0.806945 -3.550796 -0.585140
    25 -0.020247 -7.852744 0.045324 -0.119078 -0.891919 -0.147591
    26 0.447953 -2.798986 -0.200443 -0.498397 0.005388 0.258850
    27 -0.032909 -1.499736 0.024472 -1.223410 0.022663 -0.021750
    28 -0.027022 -1.073014 -0.016304 0.139027 -0.003883 0.000216
    29 -0.249534 -2.846964 -0.174213 -0.128576 -0.003900 0.202317
    30 0.043235 -1.656596 0.068667 -1.438586 -0.022297 0.007803
    31 0.031729 -1.160830 0.058838 0.057359 0.001553 0.009235
    32 -0.963866 -2.785145 -0.085350 0.202514 0.152580 0.045068
    33 0.028479 -1.406973 -0.024980 -1.109018 -0.031376 -0.036565
    34 0.021413 -0.957781 0.020046 -0.008034 -0.000084 -0.000527
    35 1.164475 -2.543940 -0.170330 -1.065316 -0.000506 0.537610
    36 0.024032 -1.129042 0.017807 -0.145529 -0.001534 0.006988
    37 0.014898 -0.883989 -0.019848 0.054446 0.002253 -0.006064
    38 -0.586770 -1.264477 0.200161 -0.257320 -0.852909 -2.770759
    39 1.554086 0.039149 0.016848 -0.011989 -0.004641 0.638496
    40 1.114041 0.048424 -0.005766 -0.016183 -0.034067 0.641120
    41 -0.131586 -0.111698 -0.173109 1.554649 -0.003889 1.247912
    42 -7.315526 5.104688 -0.423032 1.576286 -0.028405 -0.643612
  time 3
    0 17.199744 -16.672556 -1.062532 1.065647 -0.701737 1.043326
    1 3.672698 -0.009399 -9.741897 0.000000 0.000000 1.570796
    2 5.242766 -0.009398 -9.099322 0.000000 0.000000 2.041481
    3 4.337082 0.867384 -6.040190 0.000001 0.000000 -3.141592
    4 0.930870 2.616002 -2.811967 -0.207549 -0.386623 0.509310
    5 4.169322 -1.932324 -7.456240 5.941490 -1.388957 0.145741
    6 7.757378 3.000690 -0.337312 1.566464 -3.121767 0.450189
    7 0.103866 -8.569051 -0.072883 0.705190 0.801094 0.937845
    8 -0.488518 -2.755602 -0.228260 -0.681803 0.004651 -0.313855
    9 0.039887 -1.546198 0.022041 -1.875510 -0.006592 0.041851
    10 0.028786 -1.185109 -0.128581 -1.197686 -0.015101 0.026258
    11 0.250027 -2.820665 -0.238396 -0.522750 -0.013372 -0.204188
    12 -0.049759 -1.594604 0.018445 -1.723461 -0.003452 -0.044920
    13 -0.034142 -1.171750 0.045718 -1.216565 0.006052 -0.032095
    14 0.957766 -2.746780 -0.090302 0.259072 -0.168473 0.050763
    15 -0.033420 -1.397129 -0.026882 -1.002519 0.003787 -0.049018
    16 -0.022360 -0.957436 0.003159 -0.559816 0.008018 -0.026929
    17 -1.180681 -2.507217 -0.193859 -0.873773 0.162131 -0.429533
    18 -0.024967 -1.127840 0.017597 -1.543477 -0.011289 -0.062043
    19 -0.020057 -0.906594 0.029622 -0.887117 0.006831 -0.036002
    20 0.618667 -1.185558 0.177566 0.929876 -0.865781 -1.011303
    21 1.516395 -0.153822 0.047979 0.016367 -0.158292 -0.529985
    22 0.999205 -0.186885 0.044010 0.097263 -0.250397 -1.081820
    23 0.120153 -0.050270 -0.054489 0.287569 3.110905 1.561085
    24 -10.267168 -2.656963 -6.829617 -0.823560 -3.543655 -0.587206
    25 -0.020247 -7.852744 0.045324 -0.119078 -0.891919 -0.147591
    26 0.447953 -2.798986 -0.200443 -0.498397 0.005388 0.258850
    27 -0.032909 -1.499736 0.024472 -1.223410 0.022663 -0.021750
    28 -0.027022 -1.073014 -0.016304 0.139027 -0.003883 0.000216
    29 -0.249534 -2.846964 -0.174213 -0.128576 -0.003900 0.202317
    30 0.043235 -1.656596 0.068667 -1.438586 -0.022297 0.007803
    31 0.031729 -1.160830 0.058838 0.057359 0.001553 0.009235
    32 -0.963866 -2.785145 -0.085350 0.202514 0.152580 0.045068
    33 0.028479 -1.406973 -0.024980 -1.109018 -0.031376 -0.036565
    34 0.021413 -0.957781 0.020046 -0.008034 -0.000084 -0.000527
    35 1.164475 -2.543940 -0.170330 -1.065316 -0.000506 0.537610
    36 0.024032 -1.129042 0.017807 -0.145529 -0.001534 0.006988
    37 0.014898 -0.883989 -0.019848 0.054446 0.002253 -0.006064
    38 -0.586770 -1.264477 0.200161 -0.257320 -0.852909 -2.770759
    39 1.554086 0.039149 0.016848 -0.011989 -0.004641 0.638496
    40 1.114041 0.048424 -0.005766 -0.016183 -0.034067 0.641120
    41 -0.131586 -0.111698 -0.173109 1.554649 -0.003889 1.247912
    42 -7.245211 5.241411 -0.419126 1.576573 -0.028009 -0.662299
  time 4
    0 15.383282 -17.063193 -0.171880 0.970608 -0.741397 1.044955
    1 3.672698 -0.009399 -9.741897 0.000000 0.000000 1.570796
    2 5.242766 -0.009398 -9.099322 0.000000 0.000000 2.041481
    3 4.337082 0.867384 -6.040190 0.000001 0.000000 -3.141592
    4 0.856649 2.405058 -2.726027 -0.207549 -0.386623 0.509310
    5 4.243543 -1.654971 -7.272641 5.736842 -1.380028 0.302489
    6 7.886289 2.488956 -0.349031 1.566943 -3.120527 0.384980
    7 0.088240 -8.565145 -0.068977 0.620106 0.775506 0.883776
    8 -0.488518 -2.755602 -0.228260 -0.681803 0.004651 -0.313855
    9 0.039887 -1.546198 0.022041 -1.875510 -0.006592 0.041851
    10 0.028786 -1.185109 -0.128581 -1.197686 -0.015101 0.026258
    11 0.250027 -2.820665 -0.238396 -0.522750 -0.013372 -0.204188
    12 -0.049759 -1.594604 0.018445 -1.723461 -0.003452 -0.044920
    13 -0.034142 -1.171750 0.045718 -1.216565 0.006052 -0.032095
    14 0.957766 -2.746780 -0.090302 0.259072 -0.168473 0.050763
    15 -0.033420 -1.397129 -0.026882 -1.002519 0.003787 -0.049018
    16 -0.022360 -0.957436 0.003159 -0.559816 0.008018 -0.026929
    17 -1.180681 -2.507217 -0.193859 -0.873773 0.162131 -0.429533
    18 -0.024967 -1.127840 0.017597 -1.543477 -0.011289 -0.062043
    19 -0.020057 -0.906594 0.029622 -0.887117 0.006831 -0.036002
    20 0.618667 -1.185558 0.177566 0.929876 -0.865781 -1.011303
    21 1.516395 -0.153822 0.047979 0.016367 -0.158292 -0.529985
    22 0.999205 -0.186885 0.044010 0.097263 -0.250397 -1.081820
    23 0.120153 -0.050270 -0.054489 0.287569 3.110905 1.561085
    24 -10.251542 -2.672588 -6.853055 -0.831017 -3.540321 -0.588001
    25 -0.020247 -7.852744 0.045324 -0.119078 -0.891919 -0.147591
    26 0.447953 -2.798986 -0.200443 -0.498397 0.005388 0.258850
    27 -0.032909 -1.499736 0.024472 -1.223410 0.022663 -0.021750
    28 -0.027022 -1.073014 -0.016304 0.139027 -0.003883 0.000216
    29 -0.249534 -2.846964 -0.174213 -0.128576 -0.003900 0.202317
    30 0.043235 -1.656596 0.068667 -1.438586 -0.022297 0.007803
    31 0.031729 -1.160830 0.058838 0.057359 0.001553 0.009235
    32 -0.963866 -2.785145 -0.085350 0.202514 0.152580 0.045068
    33 0.028479 -1.406973 -0.024980 -1.109018 -0.031376 -0.036565
    34 0.021413 -0.957781 0.020046 -0.008034 -0.000084 -0.000527
    35 1.164475 -2.543940 -0.170330 -1.065316 -0.000506 0.537610
    36 0.024032 -1.129042 0.017807 -0.145529 -0.001534 0.006988
    37 0.014898 -0.883989 -0.019848 0.054446 0.002253 -0.006064
    38 -0.586770 -1.264477 0.200161 -0.257320 -0.852909 -2.770759
    39 1.554086 0.039149 0.016848 -0.011989 -0.004641 0.638496
    40 1.114041 0.048424 -0.005766 -0.016183 -0.034067 0.641120
    41 -0.131586 -0.111698 -0.173109 1.554649 -0.003889 1.247912
    42 -7.210054 5.300007 -0.419126 1.576717 -0.027830 -0.670800
  time 5
    0 13.363689 -17.348358 0.628925 0.868296 -0.783342 1.048694
    1 3.672698 -0.009399 -9.741897 0.000000 0.000000 1.570796
    2 5.242766 -0.009398 -9.099322 0.000000 0.000000 2.041481
    3 4.337082 0.867384 -6.040190 0.000001 0.000000 -3.141592
    4 0.786334 2.205834 -2.643993 -0.207549 -0.386623 0.509310
    5 4.329483 -1.354181 -7.089042 5.542246 -1.362522 0.443821
    6 7.995667 1.906907 -0.356844 1.567614 -3.119096 0.312261
    7 0.072615 -8.561238 -0.068977 0.532835 0.746561 0.825082
    8 -0.488518 -2.755602 -0.228260 -0.681803 0.004651 -0.313855
    9 0.039887 -1.546198 0.022041 -1.875510 -0.006592 0.041851
    10 0.028786 -1.185109 -0.128581 -1.197686 -0.015101 0.026258
    11 0.250027 -2.820665 -0.238396 -0.522750 -0.013372 -0.204188
    12 -0.049759 -1.594604 0.018445 -1.723461 -0.003452 -0.044920
    13 -0.034142 -1.171750 0.045718 -1.216565 0.006052 -0.032095
    14 0.957766 -2.746780 -0.090302 0.259072 -0.168473 0.050763
    15 -0.033420 -1.397129 -0.026882 -1.002519 0.003787 -0.049018
    16 -0.022360 -0.957436 0.003159 -0.559816 0.008018 -0.026929
    17 -1.180681 -2.507217 -0.193859 -0.873773 0.162131 -0.429533
    18 -0.024967 -1.127840 0.017597 -1.543477 -0.011289 -0.062043
    19 -0.020057 -0.906594 0.029622 -0.887117 0.006831 -0.036002
    20 0.618667 -1.185558 0.177566 0.929876 -0.865781 -1.011303
    21 1.516395 -0.153822 0.047979 0.016367 -0.158292 -0.529985
    22 0.999205 -0.186885 0.044010 0.097263 -0.250397 -1.081820
    23 0.120153 -0.050270 -0.054489 0.287569 3.110905 1.561085
    24 -10.274980 -2.649150 -6.817898 -0.820561 -3.544961 -0.586888
    25 -0.020247 -7.852744 0.045324 -0.119078 -0.891919 -0.147591
    26 0.447953 -2.798986 -0.200443 -0.498397 0.005388 0.258850
    27 -0.032909 -1.499736 0.024472 -1.223410 0.022663 -0.021750
    28 -0.027022 -1.073014 -0.016304 0.139027 -0.003883 0.000216
    29 -0.249534 -2.846964 -0.174213 -0.128576 -0.003900 0.202317
    30 0.043235 -1.656596 0.068667 -1.438586 -0.022297 0.007803
    31 0.031729 -1.160830 0.058838 0.057359 0.001553 0.009235
    32 -0.963866 -2.785145 -0.085350 0.202514 0.152580 0.045068
    33 0.028479 -1.406973 -0.024980 -1.109018 -0.031376 -0.036565
    34 0.021413 -0.957781 0.020046 -0.008034 -0.000084 -0.000527
    35 1.164475 -2.543940 -0.170330 -1.065316 -0.000506 0.537610
    36 0.024032 -1.129042 0.017807 -0.145529 -0.001534 0.006988
    37 0.014898 -0.883989 -0.019848 0.054446 0.002253 -0.006064
    38 -0.586770 -1.264477 0.200161 -0.257320 -0.852909 -2.770759
    39 1.554086 0.039149 0.016848 -0.011989 -0.004641 0.638496
    40 1.114041 0.048424 -0.005766 -0.016183 -0.034067 0.641120
    41 -0.131586 -0.111698 -0.173109 1.554649 -0.003889 1.247912
    42 -7.256930 5.214067 -0.419126 1.576525 -0.028081 -0.658859
  time 6
    0 11.348003 -17.500706 1.277383 0.768280 -0.822416 1.054158
    1 3.672698 -0.009399 -9.741897 0.000000 0.000000 1.570796
    2 5.242766 -0.009398 -9.099322 0.000000 0.000000 2.041481
    3 4.337082 0.867384 -6.040190 0.000001 0.000000 -3.141592
    4 0.719926 2.018328 -2.565865 -0.207549 -0.386623 0.509310
    5 4.419329 -1.057297 -6.913255 5.386721 -1.338538 0.545990
    6 8.058169 1.309232 -0.368563 1.568477 -3.117760 0.238644
    7 0.056989 -8.557332 -0.065070 0.452152 0.716763 0.767950
    8 -0.488518 -2.755602 -0.228260 -0.681803 0.004651 -0.313855
    9 0.039887 -1.546198 0.022041 -1.875510 -0.006592 0.041851
    10 0.028786 -1.185109 -0.128581 -1.197686 -0.015101 0.026258
    11 0.250027 -2.820665 -0.238396 -0.522750 -0.013372 -0.204188
    12 -0.049759 -1.594604 0.018445 -1.723461 -0.003452 -0.044920
    13 -0.034142 -1.171750 0.045718 -1.216565 0.006052 -0.032095
    14 0.957766 -2.746780 -0.090302 0.259072 -0.168473 0.050763
    15 -0.033420 -1.397129 -0.026882 -1.002519 0.003787 -0.049018
    16 -0.022360 -0.957436 0.003159 -0.559816 0.008018 -0.026929
    17 -1.180681 -2.507217 -0.193859 -0.873773 0.162131 -0.429533
    18 -0.024967 -1.127840 0.017597 -1.543477 -0.011277 -0.062043
    19 -0.020057 -0.906594 0.029622 -0.887117 0.006831 -0.036002
    20 0.618667 -1.185558 0.177566 0.929876 -0.865781 -1.011303
    21 1.516395 -0.153822 0.047979 0.016367 -0.158292 -0.529985
    22 0.999205 -0.186885 0.044010 0.097263 -0.250397 -1.081820
    23 0.120153 -0.050270 -0.054489 0.287569 3.110905 1.561085
    24 -10.345295 -2.567116 -6.688987 -0.782422 -3.560798 -0.581564
    25 -0.020247 -7.852744 0.045324 -0.119078 -0.891919 -0.147591
    26 0.447953 -2.798986 -0.200443 -0.498397 0.005388 0.258850
    27 -0.032909 -1.499736 0.024472 -1.223410 0.022663 -0.021750
    28 -0.027022 -1.073014 -0.016304 0.139027 -0.003883 0.000216
    29 -0.249534 -2.846964 -0.174213 -0.128576 -0.003900 0.202317
    30 0.043235 -1.656596 0.068667 -1.438586 -0.022297 0.007803
    31 0.031729 -1.160830 0.058838 0.057359 0.001553 0.009235
    32 -0.963866 -2.785145 -0.085350 0.202514 0.152580 0.045068
    33 0.028479 -1.406973 -0.024980 -1.109018 -0.031376 -0.036565
    34 0.021413 -0.957781 0.020046 -0.008034 -0.000084 -0.000527
    35 1.164475 -2.543940 -0.170330 -1.065316 -0.000506 0.537610
    36 0.024032 -1.129042 0.017807 -0.145529 -0.001534 0.006988
    37 0.014898 -0.883989 -0.019848 0.054446 0.002253 -0.006064
    38 -0.586770 -1.264477 0.200161 -0.257320 -0.852909 -2.770759
    39 1.554086 0.039149 0.016848 -0.011989 -0.004641 0.638496
    40 1.114041 0.048424 -0.005766 -0.016183 -0.034067 0.641120
    41 -0.131586 -0.111698 -0.173109 1.554649 -0.003889 1.247912
    42 -7.417091 4.905463 -0.426939 1.575830 -0.028980 -0.616424
  time 7
    0 9.547166 -17.539770 1.730522 0.682143 -0.855638 1.058663
    1 3.672698 -0.009399 -9.741897 0.000000 0.000000 1.570796
    2 5.242766 -0.009398 -9.099322 0.000000 0.000000 2.041481
    3 4.337082 0.867384 -6.040190 0.000001 0.000000 -3.141592
    4 0.657424 1.846448 -2.491644 -0.207549 -0.386623 0.509310
    5 4.505269 -0.791664 -6.776532 5.277379 -1.312628 0.607176
    6 8.081607 0.754528 -0.376376 1.569340 -3.116520 0.170482
    7 0.045270 -8.549519 -0.065070 0.385091 0.689872 0.716825
    8 -0.488518 -2.755602 -0.228260 -0.681803 0.004651 -0.313855
    9 0.039887 -1.546198 0.022041 -1.875510 -0.006592 0.041851
    10 0.028786 -1.185109 -0.128581 -1.197686 -0.015101 0.026258
    11 0.250027 -2.820665 -0.238396 -0.522750 -0.013372 -0.204188
    12 -0.049759 -1.594604 0.018445 -1.723461 -0.003452 -0.044920
    13 -0.034142 -1.171750 0.045718 -1.216565 0.006052 -0.032095
    14 0.957766 -2.746780 -0.090302 0.259072 -0.168473 0.050763
    15 -0.033420 -1.397129 -0.026882 -1.002519 0.003787 -0.049018
    16 -0.022360 -0.957436 0.003159 -0.559816 0.008018 -0.026929
    17 -1.180681 -2.507217 -0.193859 -0.873773 0.162131 -0.429533
    18 -0.024967 -1.127840 0.017597 -1.543477 -0.011289 -0.062043
    19 -0.020057 -0.906594 0.029622 -0.887117 0.006831 -0.036002
    20 0.618667 -1.185558 0.177566 0.929876 -0.865781 -1.011303
    21 1.516395 -0.153822 0.047979 0.016367 -0.158292 -0.529985
    22 0.999205 -0.186885 0.044010 0.097263 -0.250397 -1.081820
    23 0.120153 -0.050270 -0.054489 0.287569 3.110905 1.561085
    24 -10.564052 -2.063194 -6.142096 -0.635732 -3.601640 -0.555497
    25 -0.016341 -7.856650 0.045324 -0.117730 -0.872342 -0.160502
    26 0.447953 -2.798986 -0.200443 -0.510456 0.006946 0.255542
    27 -0.032909 -1.499736 0.024472 -1.238324 0.022747 -0.022169
    28 -0.027022 -1.073014 -0.016304 0.145020 -0.004063 0.000216
    29 -0.249534 -2.846964 -0.174213 -0.134573 -0.004020 0.202293
    30 0.043235 -1.656596 0.068667 -1.459603 -0.022500 0.008162
    31 0.031729 -1.160830 0.058838 0.064284 0.001613 0.009295
    32 -0.963866 -2.785145 -0.085350 0.199576 0.152592 0.044936
    33 0.028479 -1.406973 -0.024980 -1.123660 -0.032011 -0.036757
    34 0.021413 -0.957781 0.020046 -0.003783 -0.000048 -0.000336
    35 1.164475 -2.543940 -0.170330 -1.082108 0.002250 0.536472
    36 0.024032 -1.129042 0.017807 -0.140828 -0.001486 0.006724
    37 0.014898 -0.883989 -0.019848 0.060540 0.002385 -0.006376
    38 -0.586770 -1.264477 0.200161 -0.270161 -0.850520 -2.767244
    39 1.554086 0.039149 0.016848 -0.012145 -0.004713 0.644633
    40 1.114041 0.044518 -0.005766 -0.016434 -0.034127 0.648965
    41 -0.131586 -0.111698 -0.173109 1.554649 -0.003889 1.247912
    42 -7.932732 3.542140 -0.450377 1.572547 -0.032372 -0.439333
  time 8
    0 8.168218 -17.547583 1.964904 0.622325 -0.882031 1.057896
    1 3.672698 -0.009399 -9.741897 0.000000 0.000000 1.570796
    2 5.242766 -0.009398 -9.099322 0.000000 0.000000 2.041481
    3 4.337082 0.867384 -6.040190 0.000001 0.000000 -3.141592
    4 0.602735 1.686286 -2.425236 -0.207549 -0.386623 0.509310
    5 4.579490 -0.576814 -6.694498 5.208720 -1.289928 0.637913
    6 8.069888 0.297483 -0.384189 1.570011 -3.115566 0.114259
    7 0.033551 -8.545613 -0.068977 0.337345 0.670650 0.674652
    8 -0.488518 -2.755602 -0.228260 -0.681803 0.004651 -0.313855
    9 0.039887 -1.546198 0.022041 -1.875510 -0.006592 0.041851
    10 0.028786 -1.185109 -0.128581 -1.197686 -0.015101 0.026258
    11 0.250027 -2.820665 -0.238396 -0.522750 -0.013372 -0.204188
    12 -0.049759 -1.594604 0.018445 -1.723461 -0.003452 -0.044920
    13 -0.034142 -1.171750 0.045718 -1.216565 0.006052 -0.032095
    14 0.957766 -2.746780 -0.090302 0.259072 -0.168473 0.050763
    15 -0.033420 -1.397129 -0.026882 -1.002519 0.003787 -0.049018
    16 -0.022360 -0.957436 0.003159 -0.559816 0.008018 -0.026929
    17 -1.180681 -2.507217 -0.193859 -0.873773 0.162131 -0.429533
    18 -0.024967 -1.127840 0.017597 -1.543477 -0.011289 -0.062043
    19 -0.020057 -0.906594 0.029622 -0.887117 0.006831 -0.036002
    20 0.618667 -1.185558 0.177566 0.929876 -0.865781 -1.011303
    21 1.516395 -0.153822 0.047979 0.016367 -0.158292 -0.529985
    22 0.999205 -0.186885 0.044010 0.097263 -0.250397 -1.081820
    23 0.120153 -0.050270 -0.054489 0.287569 3.110905 1.561085
    24 -10.642179 -1.305359 -5.329571 -0.392302 -3.618644 -0.473642
    25 -0.008528 -7.856650 0.045324 -0.116815 -0.852822 -0.173145
    26 0.447953 -2.798986 -0.200443 -0.522516 0.008480 0.252223
    27 -0.032909 -1.499736 0.024472 -1.253293 0.022831 -0.022589
    28 -0.027022 -1.073014 -0.016304 0.151013 -0.004231 0.000216
    29 -0.249534 -2.846964 -0.174213 -0.140529 -0.004128 0.202281
    30 0.043235 -1.656596 0.068667 -1.480620 -0.022704 0.008522
    31 0.031729 -1.160830 0.058838 0.071170 0.001673 0.009355
    32 -0.963866 -2.785145 -0.085350 0.196600 0.152604 0.044792
    33 0.028479 -1.406973 -0.024980 -1.138303 -0.032646 -0.036937
    34 0.021413 -0.957781 0.020046 0.000469 -0.000024 -0.000144
    35 1.164475 -2.543940 -0.170330 -1.098849 0.004983 0.535285
    36 0.024032 -1.129042 0.017807 -0.136126 -0.001450 0.006473
    37 0.014898 -0.883989 -0.019848 0.066672 0.002529 -0.006699
    38 -0.586770 -1.264477 0.200161 -0.282965 -0.848131 -2.763772
    39 1.554086 0.039149 0.016848 -0.012300 -0.004797 0.650770
    40 1.114041 0.044518 -0.005766 -0.016674 -0.034174 0.656768
    41 -0.131586 -0.111698 -0.173109 1.554649 -0.003889 1.247912
    42 -8.241335 1.440514 -0.469909 1.566794 -0.036183 -0.180747
  time 9
    0 7.265847 -17.606178 1.886776 0.599833 -0.907421 1.043422
    1 3.672698 -0.009399 -9.741897 0.000000 0.000000 1.570796
    2 5.242766 -0.009398 -9.099322 0.000000 0.000000 2.041481
    3 4.337082 0.867384 -6.040190 0.000001 0.000000 -3.141592
    4 0.551952 1.537844 -2.362734 -0.207549 -0.386623 0.509310
    5 4.634179 -0.408840 -6.725749 5.159787 -1.272422 0.659266
    6 8.038637 -0.093154 -0.388095 1.570778 -3.114803 0.066122
    7 0.029645 -8.541706 -0.068977 0.311785 0.663909 0.635813
    8 -0.488518 -2.755602 -0.228260 -0.681803 0.004651 -0.313855
    9 0.039887 -1.546198 0.022041 -1.875510 -0.006592 0.041851
    10 0.028786 -1.185109 -0.128581 -1.197686 -0.015101 0.026258
    11 0.250027 -2.820665 -0.238396 -0.522733 -0.013372 -0.204188
    12 -0.049759 -1.594604 0.018445 -1.723461 -0.003452 -0.044920
    13 -0.034142 -1.171750 0.045718 -1.216565 0.006052 -0.032095
    14 0.957766 -2.746780 -0.090302 0.259072 -0.168473 0.050763
    15 -0.033420 -1.397129 -0.026882 -1.002519 0.003787 -0.049018
    16 -0.022360 -0.957436 0.003159 -0.559816 0.008018 -0.026929
    17 -1.180681 -2.507217 -0.193859 -0.873773 0.162131 -0.429533
    18 -0.024967 -1.127840 0.017597 -1.543477 -0.011289 -0.062043
    19 -0.020057 -0.906594 0.029622 -0.887117 0.006831 -0.036002
    20 0.618667 -1.185558 0.177566 0.929876 -0.865781 -1.011303
    21 1.516395 -0.153822 0.047979 0.016367 -0.158292 -0.529985
    22 0.999205 -0.186885 0.044010 0.097263 -0.250397 -1.081820
    23 0.120153 -0.050270 -0.054489 0.287569 3.110905 1.561085
    24 -10.649992 -1.176449 -4.985810 -0.223610 -3.610892 -0.386700
    25 -0.020247 -7.852744 0.045324 -0.119078 -0.891919 -0.147591
    26 0.447953 -2.798986 -0.200443 -0.498397 0.005388 0.258850
    27 -0.032909 -1.499736 0.024472 -1.223410 0.022663 -0.021750
    28 -0.027022 -1.073014 -0.016304 0.139027 -0.003883 0.000216
    29 -0.249534 -2.846964 -0.174213 -0.128576 -0.003900 0.202317
    30 0.043235 -1.656596 0.068667 -1.438586 -0.022297 0.007803
    31 0.031729 -1.160830 0.058838 0.057359 0.001553 0.009235
    32 -0.963866 -2.785145 -0.085350 0.202514 0.152580 0.045068
    33 0.028479 -1.406973 -0.024980 -1.109018 -0.031376 -0.036565
    34 0.021413 -0.957781 0.020046 -0.008034 -0.000084 -0.000527
    35 1.164475 -2.543940 -0.170330 -1.065316 -0.000506 0.537610
    36 0.024032 -1.129042 0.017807 -0.145529 -0.001534 0.006988
    37 0.014898 -0.883989 -0.019848 0.054446 0.002253 -0.006064
    38 -0.586770 -1.264477 0.200161 -0.257320 -0.852909 -2.770759
    39 1.554086 0.039149 0.016848 -0.011989 -0.004641 0.638496
    40 1.114041 0.048424 -0.005766 -0.016183 -0.034067 0.641120
    41 -0.131586 -0.111698 -0.173109 1.554649 -0.003889 1.247912
    42 -8.202272 0.499079 -0.477722 1.563966 -0.037369 -0.066194
  time 10
    0 6.683798 -17.750714 1.476608 0.611414 -0.938915 1.011597
    1 3.672698 -0.009399 -9.741897 0.000000 0.000000 1.570796
    2 5.242766 -0.009398 -9.099322 0.000000 0.000000 2.041481
    3 4.337082 0.867384 -6.040190 0.000001 0.000000 -3.141592
    4 0.501169 1.405028 -2.308045 -0.207549 -0.386623 0.509310
    5 4.681056 -0.264304 -6.870285 5.115121 -1.258475 0.681960
    6 7.991760 -0.472072 -0.392002 -1.570179 -0.027370 -3.122139
    7 0.025738 -8.537800 -0.065070 0.301641 0.668946 0.591657
    8 -0.488518 -2.755602 -0.228260 -0.681803 0.004651 -0.313855
    9 0.039887 -1.546198 0.022041 -1.875510 -0.006592 0.041851
    10 0.028786 -1.185109 -0.128581 -1.197686 -0.015101 0.026258
    11 0.250027 -2.820665 -0.238396 -0.522750 -0.013372 -0.204188
    12 -0.049759 -1.594604 0.018445 -1.723461 -0.003452 -0.044920
    13 -0.034142 -1.171750 0.045718 -1.216565 0.006052 -0.032095
    14 0.957766 -2.746780 -0.090302 0.259072 -0.168473 0.050763
    15 -0.033420 -1.397129 -0.026882 -1.002519 0.003787 -0.049018
    16 -0.022360 -0.957436 0.003159 -0.559816 0.008018 -0.026929
    17 -1.180681 -2.507217 -0.193859 -0.873773 0.162131 -0.429533
    18 -0.024967 -1.127840 0.017597 -1.543477 -0.011289 -0.062043
    19 -0.020057 -0.906594 0.029622 -0.887117 0.006831 -0.036002
    20 0.618667 -1.185558 0.177566 0.929876 -0.865781 -1.011303
    21 1.516395 -0.153822 0.047979 0.016367 -0.158292 -0.529985
    22 0.999205 -0.186885 0.044010 0.097263 -0.250397 -1.081820
    23 0.120153 -0.050270 -0.054489 0.287569 3.110905 1.561085
    24 -10.802340 -1.828812 -5.126440 -0.156701 -3.632814 -0.323282
    25 -0.047592 -7.848838 0.049231 -0.130108 -0.990796 -0.073824
    26 0.447953 -2.798986 -0.200443 -0.428565 -0.004488 0.277594
    27 -0.032909 -1.499736 0.020565 -1.136656 0.022016 -0.019365
    28 -0.027022 -1.076920 -0.020210 0.104362 -0.002900 0.000216
    29 -0.249534 -2.846964 -0.174213 -0.093829 -0.003265 0.202425
    30 0.043235 -1.656596 0.072574 -1.316802 -0.020942 0.005813
    31 0.031729 -1.160830 0.058838 0.017294 0.001181 0.008863
    32 -0.963866 -2.785145 -0.085350 0.219727 0.152533 0.045847
    33 0.028479 -1.406973 -0.021074 -1.024215 -0.027756 -0.035283
    34 0.021413 -0.957781 0.020046 -0.032672 -0.000288 -0.001618
    35 1.164475 -2.543940 -0.170330 -0.968287 -0.016817 0.543279
    36 0.024032 -1.129042 0.013901 -0.172932 -0.001750 0.008510
    37 0.014898 -0.883989 -0.019848 0.018912 0.001474 -0.004219
    38 -0.586770 -1.264477 0.200161 -0.181933 -0.866076 -2.792267
    39 1.550180 0.039149 0.016848 -0.011078 -0.004186 0.602927
    40 1.114041 0.048424 -0.005766 -0.014768 -0.033719 0.595760
    41 -0.131586 -0.111698 -0.173109 1.554649 -0.003889 1.247912
    42 -8.233523 0.979562 -0.473815 1.565428 -0.036794 -0.124685
  time 11
    0 6.293161 -17.965564 0.812525 0.649315 -0.977042 0.964148
    1 3.672698 -0.009399 -9.741897 0.000000 0.000000 1.570796
    2 5.242766 -0.009398 -9.099322 0.000000 0.000000 2.041481
    3 4.337082 0.867384 -6.040190 0.000001 0.000000 -3.141592
    4 0.458199 1.283930 -2.257262 -0.207549 -0.386623 0.509310
    5 4.716213 -0.151019 -7.069510 5.075291 -1.248088 0.704079
    6 7.933165 -0.815833 -0.395908 -1.569507 -0.028038 -3.165077
    7 0.029645 -8.533894 -0.065070 0.297978 0.682329 0.540562
    8 -0.488518 -2.755602 -0.228260 -0.681803 0.004651 -0.313855
    9 0.039887 -1.546198 0.022041 -1.875510 -0.006592 0.041851
    10 0.028786 -1.185109 -0.128581 -1.197686 -0.015101 0.026258
    11 0.250027 -2.820665 -0.238396 -0.522733 -0.013372 -0.204188
    12 -0.049759 -1.594604 0.018445 -1.723461 -0.003452 -0.044920
    13 -0.034142 -1.171750 0.045718 -1.216565 0.006052 -0.032095
    14 0.957766 -2.746780 -0.090302 0.259072 -0.168473 0.050763
    15 -0.033420 -1.397129 -0.026882 -1.002519 0.003787 -0.049018
    16 -0.022360 -0.957436 0.003159 -0.559816 0.008018 -0.026929
    17 -1.180681 -2.507217 -0.193859 -0.873773 0.162131 -0.429533
    18 -0.024967 -1.127840 0.017597 -1.543477 -0.011289 -0.062043
    19 -0.020057 -0.906594 0.029622 -0.887117 0.006831 -0.036002
    20 0.618667 -1.185558 0.177566 0.929876 -0.865781 -1.011303
    21 1.516395 -0.153822 0.047979 0.016367 -0.158292 -0.529985
    22 0.999205 -0.186885 0.044010 0.097263 -0.250397 -1.081820
    23 0.120153 -0.050270 -0.054489 0.287569 3.110905 1.561085
    24 -10.899999 -2.738996 -5.310039 -0.108371 -3.665487 -0.259865
    25 -0.082749 -7.841025 0.045324 -0.162809 -1.107158 0.036480
    26 0.447953 -2.798986 -0.200443 -0.336000 -0.019588 0.301407
    27 -0.032909 -1.499736 0.016659 -1.021330 0.020841 -0.016297
    28 -0.027022 -1.076920 -0.020210 0.058198 -0.001582 0.000144
    29 -0.249534 -2.846964 -0.174213 -0.047606 -0.002426 0.202617
    30 0.043235 -1.656596 0.076480 -1.154752 -0.018797 0.003440
    31 0.031729 -1.160830 0.058838 -0.035955 0.000678 0.008396
    32 -0.963866 -2.785145 -0.085350 0.242590 0.152449 0.046877
    33 0.028479 -1.403067 -0.017167 -0.911410 -0.023142 -0.033101
    34 0.021413 -0.957781 0.020046 -0.065471 -0.000599 -0.003068
    35 1.164475 -2.543940 -0.170330 -0.839232 -0.039253 0.548324
    36 0.024032 -1.129042 0.013901 -0.209333 -0.001965 0.010547
    37 0.014898 -0.883989 -0.019848 -0.028352 0.000563 -0.001726
    38 -0.586770 -1.264477 0.200161 -0.079226 -0.881845 -2.823658
    39 1.546273 0.039149 0.016848 -0.009903 -0.003527 0.555619
    40 1.114041 0.048424 -0.005766 -0.012911 -0.033156 0.535438
    41 -0.131586 -0.111698 -0.173109 1.554649 -0.003889 1.247912
    42 -8.225710 1.815525 -0.469909 1.567873 -0.035620 -0.226217
  time 12
    0 5.984558 -18.223384 -0.019532 0.706166 -1.021746 0.902799
    1 3.672698 -0.009399 -9.741897 0.000000 0.000000 1.570796
    2 5.242766 -0.009398 -9.099322 0.000000 0.000000 2.041481
    3 4.337082 0.867384 -6.040190 0.000001 0.000000 -3.141592
    4 0.419135 1.174552 -2.210386 -0.207549 -0.386623 0.509310
    5 4.739651 -0.061173 -7.272641 5.041057 -1.241143 0.723421
    6 7.870663 -1.108810 -0.399814 -1.568932 -0.028610 -3.201597
    7 0.029645 -8.529987 -0.065070 0.292128 0.700147 0.481147
    8 -0.488518 -2.755602 -0.228260 -0.681803 0.004651 -0.313855
    9 0.039887 -1.546198 0.022041 -1.875510 -0.006592 0.041851
    10 0.028786 -1.185109 -0.128581 -1.197686 -0.015101 0.026258
    11 0.250027 -2.820665 -0.238396 -0.522750 -0.013372 -0.204188
    12 -0.049759 -1.594604 0.018445 -1.723461 -0.003452 -0.044920
    13 -0.034142 -1.171750 0.045718 -1.216565 0.006052 -0.032095
    14 0.957766 -2.746780 -0.090302 0.259072 -0.168473 0.050763
    15 -0.033420 -1.397129 -0.026882 -1.002519 0.003787 -0.049018
    16 -0.022360 -0.957436 0.003159 -0.559816 0.008018 -0.026929
    17 -1.180681 -2.507217 -0.193859 -0.873773 0.162131 -0.429533
    18 -0.024967 -1.127840 0.017597 -1.543477 -0.011289 -0.062043
    19 -0.020057 -0.906594 0.029622 -0.887117 0.006831 -0.036002
    20 0.618667 -1.185558 0.177566 0.929876 -0.865781 -1.011303
    21 1.516395 -0.153822 0.047979 0.016367 -0.158292 -0.529985
    22 0.999205 -0.186885 0.044010 0.097263 -0.250397 -1.081820
    23 0.120153 -0.050270 -0.054489 0.287569 3.110905 1.561085
    24 -10.841404 -3.840592 -5.466294 -0.076283 -3.705329 -0.195652
    25 -0.121813 -7.841025 0.041418 -0.255617 -1.232351 0.213212
    26 0.447953 -2.798986 -0.200443 -0.233086 -0.038967 0.326191
    27 -0.032909 -1.495829 0.016659 -0.892620 0.019115 -0.013061
    28 -0.027022 -1.076920 -0.020210 0.006723 -0.000120 0.000012
    29 -0.249534 -2.846964 -0.174213 0.003939 -0.001503 0.202868
    30 0.043235 -1.660503 0.084293 -0.973974 -0.015981 0.001235
    31 0.031729 -1.160830 0.058838 -0.095348 0.000091 0.007929
    32 -0.963866 -2.785145 -0.085350 0.268089 0.152329 0.048040
    33 0.028479 -1.403067 -0.017167 -0.785512 -0.018324 -0.030069
    34 0.021413 -0.957781 0.020046 -0.102026 -0.001019 -0.004674
    35 1.164475 -2.543940 -0.170330 -0.695196 -0.064792 0.550506
    36 0.024032 -1.129042 0.013901 -0.249931 -0.002121 0.012825
    37 0.014898 -0.883989 -0.019848 -0.081063 -0.000324 0.001091
    38 -0.586770 -1.264477 0.200161 0.038446 -0.896871 -2.862219
    39 1.546273 0.039149 0.016848 -0.008633 -0.002724 0.502813
    40 1.114041 0.048424 -0.005766 -0.010885 -0.032389 0.468127
    41 -0.131586 -0.111698 -0.173109 1.554649 -0.003889 1.247912
    42 -8.088987 2.893683 -0.458190 1.570845 -0.033726 -0.358377
  time 13
    0 5.660329 -18.477298 -0.953154 0.774980 -1.073140 0.829085
    1 3.672698 -0.009399 -9.741897 0.000000 0.000000 1.570796
    2 5.242766 -0.009398 -9.099322 0.000000 0.000000 2.041481
    3 4.337082 0.867384 -6.040190 0.000001 0.000000 -3.141592
    4 0.387884 1.076893 -2.171322 -0.207549 -0.386623 0.509310
    5 4.763090 0.009142 -7.421083 5.013650 -1.237584 0.737497
    6 7.815974 -1.327567 -0.403721 -1.568453 -0.028896 -3.229388
    7 0.029645 -8.522175 -0.065070 0.275660 0.717640 0.411970
    8 -0.488518 -2.755602 -0.228260 -0.681803 0.004651 -0.313855
    9 0.039887 -1.546198 0.022041 -1.875510 -0.006592 0.041851
    10 0.028786 -1.185109 -0.128581 -1.197686 -0.015101 0.026258
    11 0.250027 -2.820665 -0.238396 -0.522750 -0.013372 -0.204188
    12 -0.049759 -1.594604 0.018445 -1.723461 -0.003452 -0.044920
    13 -0.034142 -1.171750 0.045718 -1.216565 0.006052 -0.032095
    14 0.957766 -2.746780 -0.090302 0.259072 -0.168473 0.050763
    15 -0.033420 -1.397129 -0.026882 -1.002519 0.003787 -0.049018
    16 -0.022360 -0.957436 0.003159 -0.559816 0.008018 -0.026929
    17 -1.180681 -2.507217 -0.193859 -0.873773 0.162131 -0.429533
    18 -0.024967 -1.127840 0.017597 -1.543477 -0.011289 -0.062043
    19 -0.020057 -0.906594 0.029622 -0.887117 0.006831 -0.036002
    20 0.618667 -1.185558 0.177566 0.929876 -0.865781 -1.011303
    21 1.516395 -0.153822 0.047979 0.016367 -0.158292 -0.529985
    22 0.999205 -0.186885 0.044010 0.097263 -0.250397 -1.081820
    23 0.120153 -0.050270 -0.054489 0.287569 3.110905 1.561085
    24 -10.560145 -5.035941 -5.536608 -0.057174 -3.747116 -0.130327
    25 -0.160876 -7.841025 0.029699 -0.516510 -1.350398 0.556764
    26 0.447953 -2.798986 -0.200443 -0.132169 -0.060420 0.348567
    27 -0.032909 -1.495829 0.012753 -0.765877 0.017030 -0.010125
    28 -0.027022 -1.076920 -0.020210 -0.043948 0.001294 -0.000192
    29 -0.249534 -2.846964 -0.174213 0.054690 -0.000604 0.203156
    30 0.043235 -1.664409 0.088199 -0.795954 -0.012865 -0.000383
    31 0.031729 -1.160830 0.058838 -0.153880 -0.000521 0.007485
    32 -0.963866 -2.785145 -0.085350 0.293212 0.152173 0.049166
    33 0.028479 -1.403067 -0.013261 -0.661559 -0.013986 -0.026522
    34 0.021413 -0.957781 0.020046 -0.138052 -0.001474 -0.006232
    35 1.164475 -2.543940 -0.170330 -0.553120 -0.090007 0.549020
    36 0.024032 -1.129042 0.009994 -0.289922 -0.002181 0.015078
    37 0.014898 -0.883989 -0.019848 -0.133011 -0.001043 0.003919
    38 -0.586770 -1.264477 0.200161 0.157145 -0.908746 -2.903395
    39 1.542367 0.043056 0.016848 -0.007423 -0.001873 0.450809
    40 1.117947 0.048424 -0.005766 -0.008956 -0.031514 0.401846
    41 -0.131586 -0.111698 -0.173109 1.554649 -0.003889 1.247912
    42 -7.760852 4.085126 -0.438658 1.573901 -0.031113 -0.508618
  time 14
    0 5.320475 -18.719493 -2.062563 0.872316 -1.132866 0.726422
    1 3.672698 -0.009399 -9.741897 0.000000 0.000000 1.570796
    2 5.242766 -0.009398 -9.099322 0.000000 0.000000 2.041481
    3 4.337082 0.867384 -6.040190 0.000001 0.000000 -3.141592
    4 0.356633 0.994859 -2.136165 -0.207549 -0.386623 0.509310
    5 4.786528 0.059925 -7.530461 4.993546 -1.237584 0.745923
    6 7.773004 -1.479915 -0.403721 -1.568069 -0.029183 -3.248900
    7 0.033551 -8.514362 -0.065070 0.245963 0.735584 0.327022
    8 -0.488518 -2.755602 -0.228260 -0.681803 0.004651 -0.313855
    9 0.039887 -1.546198 0.022041 -1.875510 -0.006592 0.041851
    10 0.028786 -1.185109 -0.128581 -1.197686 -0.015101 0.026258
    11 0.250027 -2.820665 -0.238396 -0.522750 -0.013372 -0.204188
    12 -0.049759 -1.594604 0.018445 -1.723461 -0.003452 -0.044920
    13 -0.034142 -1.171750 0.045718 -1.216565 0.006052 -0.032095
    14 0.957766 -2.746780 -0.090302 0.259072 -0.168473 0.050763
    15 -0.033420 -1.397129 -0.026882 -1.002519 0.003787 -0.049018
    16 -0.022360 -0.957436 0.003159 -0.559816 0.008018 -0.026929
    17 -1.180681 -2.507217 -0.193859 -0.873773 0.162131 -0.429533
    18 -0.024967 -1.127840 0.017597 -1.543477 -0.011289 -0.062043
    19 -0.020057 -0.906594 0.029622 -0.887117 0.006831 -0.036002
    20 0.618667 -1.185558 0.177566 0.929876 -0.865781 -1.011303
    21 1.516395 -0.153822 0.047979 0.016367 -0.158292 -0.529985
    22 0.999205 -0.186885 0.044010 0.097263 -0.250397 -1.081820
    23 0.120153 -0.050270 -0.054489 0.287569 3.110905 1.561085
    24 -10.044505 -6.188320 -5.493638 -0.046000 -3.785652 -0.063889
    25 -0.196034 -7.844931 0.010167 -1.195882 -1.415812 1.310674
    26 0.447953 -2.798986 -0.200443 -0.045266 -0.080686 0.366076
    27 -0.032909 -1.491923 0.008846 -0.656451 0.014945 -0.007812
    28 -0.027022 -1.076920 -0.020210 -0.087750 0.002517 -0.000431
    29 -0.249534 -2.846964 -0.174213 0.098531 0.000151 0.203444
    30 0.043235 -1.668316 0.092106 -0.642228 -0.009977 -0.001330
    31 0.031729 -1.160830 0.058838 -0.204469 -0.001072 0.007138
    32 -0.963866 -2.785145 -0.085350 0.314908 0.152029 0.050137
    33 0.028479 -1.403067 -0.009354 -0.554506 -0.010618 -0.023034
    34 0.021413 -0.957781 0.020046 -0.169145 -0.001918 -0.007574
    35 1.164475 -2.543940 -0.170330 -0.430098 -0.111424 0.544873
    36 0.024032 -1.129042 0.009994 -0.324503 -0.002169 0.017019
    37 0.014898 -0.883989 -0.019848 -0.177838 -0.001558 0.006388
    38 -0.586770 -1.264477 0.200161 0.261545 -0.916498 -2.941042
    39 1.538460 0.043056 0.016848 -0.006416 -0.001094 0.405928
    40 1.117947 0.048424 -0.005766 -0.007326 -0.030651 0.344610
    41 -0.131586 -0.111698 -0.173109 1.554649 -0.003889 1.247912
    42 -7.237398 5.257037 -0.419126 1.576621 -0.027962 -0.664728
  time 15
    0 5.027497 -18.914812 -3.402448 1.029756 -1.195240 0.566724
    1 3.672698 -0.009399 -9.741897 0.000000 0.000000 1.570796
    2 5.242766 -0.009398 -9.099322 0.000000 0.000000 2.041481
    3 4.337082 0.867384 -6.040190 0.000001 0.000000 -3.141592
    4 0.333195 0.924545 -2.108820 -0.207549 -0.386623 0.509310
    5 4.806060 0.102895 -7.635933 4.977803 -1.240735 0.752147
    6 7.741753 -1.593200 -0.407627 -1.567878 -0.029373 -3.263341
    7 0.033551 -8.502643 -0.065070 0.206702 0.755758 0.225224
    8 -0.488518 -2.755602 -0.228260 -0.681803 0.004651 -0.313855
    9 0.039887 -1.546198 0.022041 -1.875510 -0.006592 0.041851
    10 0.028786 -1.185109 -0.128581 -1.197686 -0.015101 0.026258
    11 0.250027 -2.820665 -0.238396 -0.522750 -0.013372 -0.204188
    12 -0.049759 -1.594604 0.018445 -1.723461 -0.003452 -0.044920
    13 -0.034142 -1.171750 0.045718 -1.216565 0.006052 -0.032095
    14 0.957766 -2.746780 -0.090302 0.259072 -0.168473 0.050763
    15 -0.033420 -1.397129 -0.026882 -1.002519 0.003787 -0.049018
    16 -0.022360 -0.957436 0.003159 -0.559816 0.008018 -0.026929
    17 -1.180681 -2.507217 -0.193859 -0.873773 0.162131 -0.429533
    18 -0.024967 -1.127840 0.017597 -1.543477 -0.011289 -0.062043
    19 -0.020057 -0.906594 0.029622 -0.887117 0.006831 -0.036002
    20 0.618667 -1.185558 0.177566 0.929876 -0.865781 -1.011303
    21 1.516395 -0.153822 0.047979 0.016367 -0.158292 -0.529985
    22 0.999205 -0.186885 0.044010 0.097263 -0.250397 -1.081820
    23 0.120153 -0.050270 -0.054489 0.287569 3.110905 1.561085
    24 -9.360890 -7.192257 -5.317852 -0.035729 -3.817326 0.003344
    25 -0.231191 -7.852744 -0.009365 1.209275 -1.772045 -1.034732
    26 0.447953 -2.798986 -0.200443 0.015683 -0.095798 0.377318
    27 -0.032909 -1.491923 0.008846 -0.579586 0.013339 -0.006326
    28 -0.027022 -1.080826 -0.020210 -0.118518 0.003368 -0.000623
    29 -0.249534 -2.846964 -0.174213 0.129347 0.000678 0.203671
    30 0.043235 -1.668316 0.092106 -0.534229 -0.007879 -0.001725
    31 0.031729 -1.156924 0.058838 -0.239995 -0.001467 0.006910
    32 -0.963866 -2.785145 -0.085350 0.330162 0.151909 0.050820
    33 0.028479 -1.403067 -0.005448 -0.479258 -0.008473 -0.020386
    34 0.021413 -0.953875 0.020046 -0.190990 -0.002241 -0.008497
    35 1.164475 -2.543940 -0.170330 -0.343475 -0.126081 0.540367
    36 0.024032 -1.129042 0.009994 -0.348771 -0.002109 0.018385
    37 0.014898 -0.883989 -0.019848 -0.209373 -0.001846 0.008138
    38 -0.586770 -1.264477 0.200161 0.335707 -0.920462 -2.968398
    39 1.538460 0.043056 0.016848 -0.005733 -0.000519 0.374362
    40 1.117947 0.048424 -0.005766 -0.006211 -0.029992 0.304396
    41 -0.131586 -0.111698 -0.173109 1.554649 -0.003889 1.247912
    42 -6.569409 6.292224 -0.391781 1.578731 -0.024570 -0.814092
  time 16
    0 4.789209 -19.008565 -4.871242 1.261563 -1.248278 0.335133
    1 3.672698 -0.009399 -9.741897 0.000000 0.000000 1.570796
    2 5.242766 -0.009398 -9.099322 0.000000 0.000000 2.041481
    3 4.337082 0.867384 -6.040190 0.000001 0.000000 -3.141592
    4 0.309757 0.865949 -2.081476 -0.207549 -0.386623 0.509310
    5 4.817779 0.134146 -7.737499 4.963579 -1.246103 0.758275
    6 7.718315 -1.675234 -0.407627 -1.567686 -0.029469 -3.273674
    7 0.037457 -8.494830 -0.061164 0.160141 0.774579 0.113152
    8 -0.488518 -2.755602 -0.228260 -0.681803 0.004651 -0.313855
    9 0.039887 -1.546198 0.022041 -1.875510 -0.006592 0.041851
    10 0.028786 -1.185109 -0.128581 -1.197686 -0.015101 0.026258
    11 0.250027 -2.820665 -0.238396 -0.522750 -0.013372 -0.204188
    12 -0.049759 -1.594604 0.018445 -1.723461 -0.003452 -0.044920
    13 -0.034142 -1.171750 0.045718 -1.216565 0.006052 -0.032095
    14 0.957766 -2.746780 -0.090302 0.259072 -0.168473 0.050763
    15 -0.033420 -1.397129 -0.026882 -1.002519 0.003787 -0.049018
    16 -0.022360 -0.957436 0.003159 -0.559816 0.008018 -0.026929
    17 -1.180681 -2.507217 -0.193859 -0.873773 0.162131 -0.429533
    18 -0.024967 -1.127840 0.017597 -1.543477 -0.011289 -0.062043
    19 -0.020057 -0.906594 0.029622 -0.887117 0.006831 -0.036002
    20 0.618667 -1.185558 0.177566 0.929876 -0.865781 -1.011303
    21 1.516395 -0.153822 0.047979 0.016367 -0.158292 -0.529985
    22 0.999205 -0.186885 0.044010 0.097263 -0.250397 -1.081820
    23 0.120153 -0.050270 -0.054489 0.287569 3.110905 1.561085
    24 -8.626493 -7.973531 -5.028780 -0.017894 -3.840776 0.071292
    25 -0.254629 -7.856650 -0.028897 0.899016 -1.871619 -0.686197
    26 0.447953 -2.798986 -0.200443 0.038662 -0.101671 0.381321
    27 -0.032909 -1.491923 0.008846 -0.550522 0.012704 -0.005799
    28 -0.027022 -1.080826 -0.020210 -0.130138 0.003691 -0.000707
    29 -0.249534 -2.846964 -0.174213 0.140982 0.000882 0.203767
    30 0.043235 -1.672222 0.092106 -0.493444 -0.007076 -0.001809
    31 0.031729 -1.156924 0.058838 -0.253376 -0.001623 0.006826
    32 -0.963866 -2.785145 -0.085350 0.335925 0.151861 0.051084
    33 0.028479 -1.403067 -0.005448 -0.450858 -0.007718 -0.019343
    34 0.021413 -0.953875 0.020046 -0.199245 -0.002385 -0.008857
    35 1.164475 -2.543940 -0.170330 -0.310696 -0.131510 0.538341
    36 0.024032 -1.129042 0.009994 -0.357921 -0.002085 0.018901
    37 0.014898 -0.883989 -0.019848 -0.221256 -0.001942 0.008797
    38 -0.586770 -1.264477 0.200161 0.363838 -0.921648 -2.978871
    39 1.538460 0.043056 0.016848 -0.005481 -0.000291 0.362462
    40 1.117947 0.048424 -0.005766 -0.005804 -0.029728 0.289219
    41 -0.131586 -0.111698 -0.173109 1.554649 -0.003889 1.247912
    42 -5.866263 7.100843 -0.368343 1.580145 -0.021382 -0.944431
  time 17
    0 4.605609 -18.977314 -6.347850 1.560460 -1.279967 0.037880
    1 3.672698 -0.009399 -9.741897 0.000000 0.000000 1.570796
    2 5.242766 -0.009398 -9.099322 0.000000 0.000000 2.041481
    3 4.337082 0.867384 -6.040190 0.000001 0.000000 -3.141592
    4 0.294132 0.819073 -2.065850 -0.207549 -0.386623 0.509310
    5 4.829498 0.157584 -7.831252 4.948311 -1.252873 0.766414
    6 7.698783 -1.733829 -0.407627 -1.567590 -0.029564 -3.281119
    7 0.041364 -8.483111 -0.065070 0.110024 0.789240 -0.001172
    8 -0.488518 -2.755602 -0.228260 -0.681803 0.004651 -0.313855
    9 0.039887 -1.546198 0.022041 -1.875510 -0.006592 0.041851
    10 0.028786 -1.185109 -0.128581 -1.197686 -0.015101 0.026258
    11 0.250027 -2.820665 -0.238396 -0.522750 -0.013372 -0.204188
    12 -0.049759 -1.594604 0.018445 -1.723461 -0.003452 -0.044920
    13 -0.034142 -1.171750 0.045718 -1.216565 0.006052 -0.032095
    14 0.957766 -2.746780 -0.090302 0.259072 -0.168473 0.050763
    15 -0.033420 -1.397129 -0.026882 -1.002519 0.003787 -0.049018
    16 -0.022360 -0.957436 0.003159 -0.559816 0.008018 -0.026929
    17 -1.180681 -2.507217 -0.193859 -0.873773 0.162131 -0.429533
    18 -0.024967 -1.127840 0.017597 -1.543477 -0.011289 -0.062043
    19 -0.020057 -0.906594 0.029622 -0.887117 0.006831 -0.036002
    20 0.618667 -1.185558 0.177566 0.929876 -0.865781 -1.011303
    21 1.516395 -0.153822 0.047979 0.016367 -0.158292 -0.529985
    22 0.999205 -0.186885 0.044010 0.097263 -0.250397 -1.081820
    23 0.120153 -0.050270 -0.054489 0.287569 3.110905 1.561085
    24 -7.892095 -8.536048 -4.716271 -0.006243 -3.856557 0.130816
    25 -0.262442 -7.833212 -0.052335 0.759106 -1.974619 -0.657162
    26 0.447953 -2.798986 -0.200443 -0.218949 -0.041820 0.329451
    27 -0.032909 -1.495829 0.016659 -0.874920 0.018852 -0.012642
    28 -0.027022 -1.076920 -0.020210 -0.000342 0.000060 0.000000
    29 -0.249534 -2.846964 -0.174213 0.011048 -0.001371 0.202904
    30 0.043235 -1.660503 0.084293 -0.949108 -0.015561 0.000984
    31 0.031729 -1.160830 0.058838 -0.103525 0.000007 0.007869
    32 -0.963866 -2.785145 -0.085350 0.271592 0.152305 0.048196
    33 0.028479 -1.403067 -0.013261 -0.768215 -0.017689 -0.029602
    34 0.021413 -0.957781 0.020046 -0.107053 -0.001079 -0.004890
    35 1.164475 -2.543940 -0.170330 -0.675387 -0.068327 0.550506
    36 0.024032 -1.129042 0.013901 -0.255543 -0.002133 0.013148
    37 0.014898 -0.883989 -0.019848 -0.088299 -0.000431 0.001486
    38 -0.586770 -1.264477 0.200161 0.054871 -0.898711 -2.867800
    39 1.546273 0.039149 0.016848 -0.008465 -0.002616 0.495556
    40 1.114041 0.048424 -0.005766 -0.010610 -0.032281 0.458867
    41 -0.131586 -0.111698 -0.173109 1.554649 -0.003889 1.247912
    42 -5.167023 7.733675 -0.348811 1.581020 -0.018470 -1.058646
  time 18
    0 4.476699 -18.828872 -7.711173 1.872662 -1.285346 -0.272027
    1 3.672698 -0.009399 -9.741897 0.000000 0.000000 1.570796
    2 5.242766 -0.009398 -9.099322 0.000000 0.000000 2.041481
    3 4.337082 0.867384 -6.040190 0.000001 0.000000 -3.141592
    4 0.282412 0.787822 -2.050225 -0.207549 -0.386623 0.509310
    5 4.845123 0.165397 -7.913286 4.929344 -1.260050 0.778479
    6 7.687064 -1.776799 -0.407627 -1.567494 -0.029660 -3.286767
    7 0.049176 -8.475298 -0.065070 0.061514 0.798262 -0.108558
    8 -0.488518 -2.755602 -0.228260 -0.681803 0.004651 -0.313855
    9 0.039887 -1.546198 0.022041 -1.875510 -0.006592 0.041851
    10 0.028786 -1.185109 -0.128581 -1.197686 -0.015101 0.026258
    11 0.250027 -2.820665 -0.238396 -0.522750 -0.013372 -0.204188
    12 -0.049759 -1.594604 0.018445 -1.723461 -0.003452 -0.044920
    13 -0.034142 -1.171750 0.045718 -1.216565 0.006052 -0.032095
    14 0.957766 -2.746780 -0.090302 0.259072 -0.168473 0.050763
    15 -0.033420 -1.397129 -0.026882 -1.002519 0.003787 -0.049018
    16 -0.022360 -0.957436 0.003159 -0.559816 0.008018 -0.026929
    17 -1.180681 -2.507217 -0.193859 -0.873773 0.162131 -0.429533
    18 -0.024967 -1.127840 0.017597 -1.543477 -0.011289 -0.062043
    19 -0.020057 -0.906594 0.029622 -0.887117 0.006831 -0.036002
    20 0.618667 -1.185558 0.177566 0.929876 -0.865781 -1.011303
    21 1.516395 -0.153822 0.047979 0.016367 -0.158292 -0.529985
    22 0.999205 -0.186885 0.044010 0.097263 -0.250397 -1.081820
    23 0.120153 -0.050270 -0.054489 0.287569 3.110905 1.561085
    24 -7.489739 -8.766524 -4.544391 -0.004995 -3.860224 0.161094
    25 -0.258536 -7.805868 -0.067961 0.667020 -2.030506 -0.705537
    26 0.447953 -2.798986 -0.200443 -0.498397 0.005388 0.258850
    27 -0.032909 -1.499736 0.024472 -1.223410 0.022663 -0.021750
    28 -0.027022 -1.073014 -0.016304 0.139027 -0.003883 0.000216
    29 -0.249534 -2.846964 -0.174213 -0.128576 -0.003900 0.202317
    30 0.043235 -1.656596 0.068667 -1.438586 -0.022297 0.007803
    31 0.031729 -1.160830 0.058838 0.057359 0.001553 0.009235
    32 -0.963866 -2.785145 -0.085350 0.202514 0.152580 0.045068
    33 0.028479 -1.406973 -0.024980 -1.109018 -0.031376 -0.036565
    34 0.021413 -0.957781 0.020046 -0.008034 -0.000084 -0.000527
    35 1.164475 -2.543940 -0.170330 -1.065316 -0.000506 0.537610
    36 0.024032 -1.129042 0.017807 -0.145529 -0.001534 0.006988
    37 0.014898 -0.883989 -0.019848 0.054446 0.002253 -0.006064
    38 -0.586770 -1.264477 0.200161 -0.257320 -0.852909 -2.770759
    39 1.554086 0.039149 0.016848 -0.011989 -0.004641 0.638496
    40 1.114041 0.048424 -0.005766 -0.016183 -0.034067 0.641120
    41 -0.131586 -0.111698 -0.173109 1.554649 -0.003889 1.247912
    42 -4.788105 8.018840 -0.337092 1.581343 -0.016948 -1.116597
  time 19
    0 4.406384 -18.614021 -8.859645 2.131171 -1.272860 -0.528157
    1 3.672698 -0.009399 -9.741897 0.000000 0.000000 1.570796
    2 5.242766 -0.009398 -9.099322 0.000000 0.000000 2.041481
    3 4.337082 0.867384 -6.040190 0.000001 0.000000 -3.141592
    4 0.278506 0.768290 -2.042412 -0.207549 -0.386623 0.509310
    5 4.868562 0.169303 -7.987507 4.904214 -1.266761 0.796289
    6 7.671438 -1.815863 -0.407627 -1.567398 -0.029755 -3.291838
    7 0.053083 -8.467485 -0.065070 0.020566 0.801369 -0.199123
    8 -0.488518 -2.755602 -0.228260 -0.681803 0.004651 -0.313855
    9 0.039887 -1.546198 0.022041 -1.875510 -0.006592 0.041851
    10 0.028786 -1.185109 -0.128581 -1.197686 -0.015101 0.026258
    11 0.250027 -2.820665 -0.238396 -0.522750 -0.013372 -0.204188
    12 -0.049759 -1.594604 0.018445 -1.723461 -0.003452 -0.044920
    13 -0.034142 -1.171750 0.045718 -1.216565 0.006052 -0.032095
    14 0.957766 -2.746780 -0.090302 0.259072 -0.168473 0.050763
    15 -0.033420 -1.397129 -0.026882 -1.002519 0.003787 -0.049018
    16 -0.022360 -0.957436 0.003159 -0.559816 0.008018 -0.026929
    17 -1.180681 -2.507217 -0.193859 -0.873773 0.162131 -0.429533
    18 -0.024967 -1.127840 0.017597 -1.543477 -0.011289 -0.062043
    19 -0.020057 -0.906594 0.029622 -0.887117 0.006831 -0.036002
    20 0.618667 -1.185558 0.177566 0.929876 -0.865781 -1.011303
    21 1.516395 -0.153822 0.047979 0.016367 -0.158292 -0.529985
    22 0.999205 -0.186885 0.044010 0.097263 -0.250397 -1.081820
    23 0.120153 -0.050270 -0.054489 0.287569 3.110905 1.561085
    24 -7.755372 -8.481359 -4.977998 -0.087908 -3.861169 0.079716
    25 -0.262442 -7.801961 -0.075773 0.555140 -2.065769 -0.631287
    26 0.447953 -2.798986 -0.200443 -0.530990 0.009522 0.249886
    27 -0.032909 -1.499736 0.024472 -1.263782 0.022891 -0.022877
    28 -0.027022 -1.073014 -0.016304 0.155203 -0.004350 0.000204
    29 -0.249534 -2.846964 -0.174213 -0.144739 -0.004200 0.202269
    30 0.043235 -1.656596 0.064761 -1.495342 -0.022836 0.008785
    31 0.031729 -1.160830 0.058838 0.076022 0.001721 0.009403
    32 -0.963866 -2.785145 -0.085350 0.194529 0.152604 0.044708
    33 0.028479 -1.406973 -0.024980 -1.148521 -0.033089 -0.037068
    34 0.021413 -0.957781 0.020046 0.003448 0.000000 -0.000012
    35 1.164475 -2.543940 -0.170330 -1.110563 0.006888 0.534434
    36 0.024032 -1.129042 0.017807 -0.132789 -0.001414 0.006281
    37 0.014898 -0.883989 -0.019848 0.070975 0.002637 -0.006915
    38 -0.586770 -1.264477 0.200161 -0.291898 -0.846414 -2.761382
    39 1.554086 0.039149 0.016848 -0.012408 -0.004845 0.655066
    40 1.114041 0.044518 -0.005766 -0.016854 -0.034210 0.662256
    41 -0.131586 -0.111698 -0.173109 1.554649 -0.003889 1.247912
    42 -4.944360 7.905555 -0.340999 1.581211 -0.017571 -1.092783
  time 20
    0 4.379040 -18.403077 -9.687796 2.310720 -1.258813 -0.706260
    1 3.672698 -0.009399 -9.741897 0.000000 0.000000 1.570796
    2 5.242766 -0.009398 -9.099322 0.000000 0.000000 2.041481
    3 4.337082 0.867384 -6.040190 0.000001 0.000000 -3.141592
    4 0.274600 0.764383 -2.038506 -0.207549 -0.386623 0.509310
    5 4.903719 0.161490 -8.046102 4.870548 -1.271838 0.821664
    6 7.659719 -1.858833 -0.407627 -1.567302 -0.029850 -3.297357
    7 0.053083 -8.459673 -0.065070 -0.007023 0.799314 -0.263013
    8 -0.488518 -2.755602 -0.228260 -0.681803 0.004651 -0.313855
    9 0.039887 -1.546198 0.022041 -1.875510 -0.006592 0.041851
    10 0.028786 -1.185109 -0.128581 -1.197686 -0.015101 0.026258
    11 0.250027 -2.820665 -0.238396 -0.522750 -0.013372 -0.204188
    12 -0.049759 -1.594604 0.018445 -1.723461 -0.003452 -0.044920
    13 -0.034142 -1.171750 0.045718 -1.216565 0.006052 -0.032095
    14 0.957766 -2.746780 -0.090302 0.259072 -0.168473 0.050763
    15 -0.033420 -1.397129 -0.026882 -1.002519 0.003787 -0.049018
    16 -0.022360 -0.957436 0.003159 -0.559816 0.008018 -0.026929
    17 -1.180681 -2.507217 -0.193859 -0.873773 0.162131 -0.429533
    18 -0.024967 -1.127840 0.017597 -1.543477 -0.011289 -0.062043
    19 -0.020057 -0.906594 0.029622 -0.887117 0.006831 -0.036002
    20 0.618667 -1.185558 0.177566 0.929876 -0.865781 -1.011303
    21 1.516395 -0.153822 0.047979 0.016367 -0.158292 -0.529985
    22 0.999205 -0.186885 0.044010 0.097263 -0.250397 -1.081820
    23 0.120153 -0.050270 -0.054489 0.287569 3.110905 1.561085
    24 -7.931159 -8.250883 -5.282694 -0.151313 -3.859085 0.019318
    25 -0.266348 -7.801961 -0.083586 0.469075 -2.094235 -0.578787
    26 0.447953 -2.798986 -0.200443 -0.552298 0.012075 0.243965
    27 -0.032909 -1.499736 0.024472 -1.290168 0.023010 -0.023620
    28 -0.027022 -1.073014 -0.016304 0.165752 -0.004650 0.000204
    29 -0.249534 -2.846964 -0.174213 -0.155302 -0.004403 0.202245
    30 0.043235 -1.656596 0.064761 -1.532382 -0.023172 0.009445
    31 0.031729 -1.160830 0.058838 0.088190 0.001828 0.009523
    32 -0.963866 -2.785145 -0.085350 0.189293 0.152616 0.044469
    33 0.028479 -1.406973 -0.024980 -1.174312 -0.034216 -0.037356
    34 0.021413 -0.957781 0.020046 0.010895 0.000048 0.000312
    35 1.164475 -2.543940 -0.170330 -1.140125 0.011646 0.532181
    36 0.024032 -1.129042 0.017807 -0.124498 -0.001342 0.005826
    37 0.014898 -0.883989 -0.019848 0.081792 0.002888 -0.007466
    38 -0.586770 -1.264477 0.200161 -0.314284 -0.842078 -2.755478
    39 1.554086 0.039149 0.016848 -0.012684 -0.004977 0.665899
    40 1.114041 0.044518 -0.005766 -0.017285 -0.034294 0.676061
    41 -0.131586 -0.111698 -0.173109 1.554649 -0.003889 1.247912
    42 -5.038113 7.835240 -0.344905 1.581140 -0.017942 -1.078615
  time 21
    0 4.414197 -18.301512 -10.035462 2.409683 -1.263886 -0.804993
    1 3.672698 -0.009399 -9.741897 0.000000 0.000000 1.570796
    2 5.242766 -0.009398 -9.099322 0.000000 0.000000 2.041481
    3 4.337082 0.867384 -6.040190 0.000001 0.000000 -3.141592
    4 0.278506 0.768290 -2.042412 -0.207549 -0.386623 0.509310
    5 4.962314 0.134146 -8.089072 4.821140 -1.275281 0.861306
    6 7.648000 -1.893991 -0.407627 -1.567207 -0.029850 -3.301850
    7 0.053083 -8.459673 -0.065070 -0.012477 0.791996 -0.283439
    8 -0.488518 -2.755602 -0.228260 -0.681803 0.004651 -0.313855
    9 0.039887 -1.546198 0.022041 -1.875510 -0.006592 0.041851
    10 0.028786 -1.185109 -0.128581 -1.197686 -0.015101 0.026258
    11 0.250027 -2.820665 -0.238396 -0.522750 -0.013372 -0.204188
    12 -0.049759 -1.594604 0.018445 -1.723461 -0.003452 -0.044920
    13 -0.034142 -1.171750 0.045718 -1.216565 0.006052 -0.032095
    14 0.957766 -2.746780 -0.090302 0.259072 -0.168473 0.050763
    15 -0.033420 -1.397129 -0.026882 -1.002519 0.003787 -0.049018
    16 -0.022360 -0.957436 0.003159 -0.559816 0.008018 -0.026929
    17 -1.180681 -2.507217 -0.193859 -0.873773 0.162131 -0.429533
    18 -0.024967 -1.127840 0.017597 -1.543477 -0.011289 -0.062043
    19 -0.020057 -0.906594 0.029622 -0.887117 0.006831 -0.036002
    20 0.618667 -1.185558 0.177566 0.929876 -0.865781 -1.011303
    21 1.516395 -0.153822 0.047979 0.016367 -0.158292 -0.529985
    22 0.999205 -0.186885 0.044010 0.097263 -0.250397 -1.081820
    23 0.120153 -0.050270 -0.054489 0.287569 3.110905 1.561085
    24 -7.997567 -8.153224 -5.407698 -0.181145 -3.855057 -0.008100
    25 -0.266348 -7.798055 -0.087492 0.405019 -2.113929 -0.546162
    26 0.447953 -2.798986 -0.200443 -0.563869 0.013405 0.240717
    27 -0.032909 -1.499736 0.024472 -1.304482 0.023070 -0.024027
    28 -0.027022 -1.073014 -0.016304 0.171476 -0.004818 0.000192
    29 -0.249534 -2.846964 -0.174213 -0.161060 -0.004499 0.202233
    30 0.043235 -1.656596 0.064761 -1.552567 -0.023327 0.009804
    31 0.031729 -1.160830 0.058838 0.094841 0.001888 0.009582
    32 -0.963866 -2.785145 -0.085350 0.186468 0.152616 0.044337
    33 0.028479 -1.410880 -0.024980 -1.188379 -0.034839 -0.037500
    34 0.021413 -0.957781 0.020046 0.014960 0.000072 0.000491
    35 1.164475 -2.543940 -0.170330 -1.156213 0.014199 0.530887
    36 0.024032 -1.129042 0.017807 -0.119947 -0.001294 0.005574
    37 0.014898 -0.883989 -0.019848 0.087657 0.003032 -0.007766
    38 -0.586770 -1.264477 0.200161 -0.326404 -0.839671 -2.752343
    39 1.554086 0.035243 0.016848 -0.012840 -0.005037 0.671769
    40 1.114041 0.044518 -0.005766 -0.017525 -0.034342 0.683564
    41 -0.131586 -0.111698 -0.173109 1.554649 -0.003889 1.247912
    42 -5.057644 7.819615 -0.344905 1.581116 -0.018026 -1.075579
  time 22
    0 4.511856 -18.332763 -9.922178 2.451125 -1.293763 -0.847266
    1 3.672698 -0.009399 -9.741897 0.000000 0.000000 1.570796
    2 5.242766 -0.009398 -9.099322 0.000000 0.000000 2.041481
    3 4.337082 0.867384 -6.040190 0.000001 0.000000 -3.141592
    4 0.282412 0.787822 -2.050225 -0.207549 -0.386623 0.509310
    5 5.044348 0.087269 -8.112510 4.755611 -1.277323 0.916268
    6 7.644094 -1.905710 -0.407627 -1.567111 -0.029850 -3.303776
    7 0.049176 -8.459673 -0.065070 0.002674 0.780243 -0.262322
    8 -0.488518 -2.755602 -0.228260 -0.681803 0.004651 -0.313855
    9 0.039887 -1.546198 0.022041 -1.875510 -0.006592 0.041851
    10 0.028786 -1.185109 -0.128581 -1.197686 -0.015101 0.026258
    11 0.250027 -2.820665 -0.238396 -0.522750 -0.013372 -0.204188
    12 -0.049759 -1.594604 0.018445 -1.723461 -0.003452 -0.044920
    13 -0.034142 -1.171750 0.045718 -1.216565 0.006052 -0.032095
    14 0.957766 -2.746780 -0.090302 0.259072 -0.168473 0.050763
    15 -0.033420 -1.397129 -0.026882 -1.002519 0.003787 -0.049018
    16 -0.022360 -0.957436 0.003159 -0.559816 0.008018 -0.026929
    17 -1.180681 -2.507217 -0.193859 -0.873773 0.162131 -0.429533
    18 -0.024967 -1.127840 0.017597 -1.543477 -0.011289 -0.062043
    19 -0.020057 -0.906594 0.029622 -0.887117 0.006831 -0.036002
    20 0.618667 -1.185558 0.177566 0.929876 -0.865781 -1.011303
    21 1.516395 -0.153822 0.047979 0.016367 -0.158292 -0.529985
    22 0.999205 -0.186885 0.044010 0.097263 -0.250397 -1.081820
    23 0.120153 -0.050270 -0.054489 0.287569 3.110905 1.561085
    24 -7.981942 -8.188381 -5.368635 -0.177854 -3.850028 -0.003808
    25 -0.266348 -7.794148 -0.091399 0.356376 -2.125257 -0.526769
    26 0.447953 -2.798986 -0.200443 -0.567373 0.013801 0.239735
    27 -0.032909 -1.499736 0.024472 -1.308852 0.023094 -0.024147
    28 -0.027022 -1.073014 -0.016304 0.173230 -0.004866 0.000192
    29 -0.249534 -2.846964 -0.174213 -0.162807 -0.004535 0.202221
    30 0.043235 -1.656596 0.064761 -1.558654 -0.023375 0.009912
    31 0.031729 -1.160830 0.058838 0.096837 0.001900 0.009606
    32 -0.963866 -2.785145 -0.085350 0.185602 0.152616 0.044301
    33 0.028479 -1.410880 -0.024980 -1.192626 -0.035031 -0.037536
    34 0.021413 -0.957781 0.020046 0.016201 0.000084 0.000551
    35 1.164475 -2.543940 -0.170330 -1.161089 0.014966 0.530491
    36 0.024032 -1.129042 0.017807 -0.118582 -0.001282 0.005502
    37 0.014898 -0.883989 -0.019848 0.089447 0.003068 -0.007850
    38 -0.586770 -1.264477 0.200161 -0.330060 -0.838945 -2.751401
    39 1.554086 0.035243 0.016848 -0.012888 -0.005061 0.673557
    40 1.114041 0.044518 -0.005766 -0.017597 -0.034354 0.685836
    41 -0.131586 -0.111698 -0.173109 1.554649 -0.003889 1.247912
    42 -5.018581 7.850866 -0.340999 1.581152 -0.017858 -1.081988
  time 23
    0 4.613422 -18.434328 -9.543260 2.456867 -1.338579 -0.855414
    1 3.672698 -0.009399 -9.741897 0.000000 0.000000 1.570796
    2 5.242766 -0.009398 -9.099322 0.000000 0.000000 2.041481
    3 4.337082 0.867384 -6.040190 0.000001 0.000000 -3.141592
    4 0.294132 0.819073 -2.065850 -0.207549 -0.386623 0.509310
    5 5.138101 0.024767 -8.120323 4.682685 -1.277615 0.978603
    6 7.640187 -1.909616 -0.407627 -1.567111 -0.029850 -3.303968
    7 0.045270 -8.463579 -0.065070 0.028181 0.765532 -0.218437
    8 -0.488518 -2.755602 -0.228260 -0.681803 0.004651 -0.313855
    9 0.039887 -1.546198 0.022041 -1.875510 -0.006592 0.041851
    10 0.028786 -1.185109 -0.128581 -1.197686 -0.015101 0.026258
    11 0.250027 -2.820665 -0.238396 -0.522733 -0.013372 -0.204188
    12 -0.049759 -1.594604 0.018445 -1.723461 -0.003452 -0.044920
    13 -0.034142 -1.171750 0.045718 -1.216565 0.006052 -0.032095
    14 0.957766 -2.746780 -0.090302 0.259072 -0.168473 0.050763
    15 -0.033420 -1.397129 -0.026882 -1.002519 0.003787 -0.049018
    16 -0.022360 -0.957436 0.003159 -0.559816 0.008018 -0.026929
    17 -1.180681 -2.507217 -0.193859 -0.873773 0.162131 -0.429533
    18 -0.024967 -1.127840 0.017597 -1.543477 -0.011289 -0.062043
    19 -0.020057 -0.906594 0.029622 -0.887117 0.006831 -0.036002
    20 0.618667 -1.185558 0.177566 0.929876 -0.865781 -1.011303
    21 1.516395 -0.153822 0.047979 0.016367 -0.158292 -0.529985
    22 0.999205 -0.186885 0.044010 0.097263 -0.250397 -1.081820
    23 0.120153 -0.050270 -0.054489 0.287569 3.110905 1.561085
    24 -7.927253 -8.286041 -5.235818 -0.152402 -3.844304 0.021543
    25 -0.266348 -7.794148 -0.091399 0.317365 -2.130718 -0.511073
    26 0.447953 -2.798986 -0.200443 -0.564439 0.013465 0.240562
    27 -0.032909 -1.499736 0.024472 -1.305192 0.023082 -0.024039
    28 -0.027022 -1.073014 -0.016304 0.171744 -0.004818 0.000192
    29 -0.249534 -2.846964 -0.174213 -0.161338 -0.004511 0.202233
    30 0.043235 -1.656596 0.064761 -1.553503 -0.023339 0.009816
    31 0.031729 -1.160830 0.058838 0.095115 0.001888 0.009582
    32 -0.963866 -2.785145 -0.085350 0.186318 0.152616 0.044337
    33 0.028479 -1.410880 -0.024980 -1.188998 -0.034863 -0.037500
    34 0.021413 -0.957781 0.020046 0.015177 0.000072 0.000503
    35 1.164475 -2.543940 -0.170330 -1.156967 0.014318 0.530827
    36 0.024032 -1.129042 0.017807 -0.119745 -0.001294 0.005562
    37 0.014898 -0.883989 -0.019848 0.087924 0.003032 -0.007778
    38 -0.586770 -1.264477 0.200161 -0.326962 -0.839565 -2.752188
    39 1.554086 0.035243 0.016848 -0.012852 -0.005049 0.672063
    40 1.114041 0.044518 -0.005766 -0.017537 -0.034342 0.683907
    41 -0.131586 -0.111698 -0.173109 1.554649 -0.003889 1.247912
    42 -4.983423 7.878210 -0.340999 1.581187 -0.017715 -1.087386
  time 24
    0 4.699362 -18.528081 -9.074496 2.442798 -1.386572 -0.844870
    1 3.672698 -0.009399 -9.741897 0.000000 0.000000 1.570796
    2 5.242766 -0.009398 -9.099322 0.000000 0.000000 2.041481
    3 4.337082 0.867384 -6.040190 0.000001 0.000000 -3.141592
    4 0.309757 0.865949 -2.081476 -0.207549 -0.386623 0.509310
    5 5.227948 -0.041641 -8.120323 4.611182 -1.276331 1.040173
    6 7.644094 -1.905710 -0.407627 -1.567207 -0.029850 -3.303390
    7 0.037457 -8.471392 -0.065070 0.054584 0.749618 -0.169896
    8 -0.488518 -2.755602 -0.228260 -0.681803 0.004651 -0.313855
    9 0.039887 -1.546198 0.022041 -1.875510 -0.006592 0.041851
    10 0.028786 -1.185109 -0.128581 -1.197686 -0.015101 0.026258
    11 0.250027 -2.820665 -0.238396 -0.522750 -0.013372 -0.204188
    12 -0.049759 -1.594604 0.018445 -1.723461 -0.003452 -0.044920
    13 -0.034142 -1.171750 0.045718 -1.216565 0.006052 -0.032095
    14 0.957766 -2.746780 -0.090302 0.259072 -0.168473 0.050763
    15 -0.033420 -1.397129 -0.026882 -1.002519 0.003787 -0.049018
    16 -0.022360 -0.957436 0.003159 -0.559816 0.008018 -0.026929
    17 -1.180681 -2.507217 -0.193859 -0.873773 0.162131 -0.429533
    18 -0.024967 -1.127840 0.017597 -1.543477 -0.011289 -0.062043
    19 -0.020057 -0.906594 0.029622 -0.887117 0.006831 -0.036002
    20 0.618667 -1.185558 0.177566 0.929876 -0.865781 -1.011303
    21 1.516395 -0.153822 0.047979 0.016367 -0.158292 -0.529985
    22 0.999205 -0.186885 0.044010 0.097263 -0.250397 -1.081820
    23 0.120153 -0.050270 -0.054489 0.287569 3.110905 1.561085
    24 -7.880376 -8.387606 -5.075657 -0.117872 -3.837775 0.055715
    25 -0.266348 -7.794148 -0.091399 0.283796 -2.133216 -0.492966
    26 0.447953 -2.798986 -0.200443 -0.556617 0.012578 0.242755
    27 -0.032909 -1.499736 0.024472 -1.295468 0.023034 -0.023775
    28 -0.027022 -1.073014 -0.016304 0.167871 -0.004710 0.000192
    29 -0.249534 -2.846964 -0.174213 -0.157446 -0.004439 0.202233
    30 0.043235 -1.656596 0.064761 -1.539874 -0.023232 0.009576
    31 0.031729 -1.160830 0.058838 0.090655 0.001852 0.009546
    32 -0.963866 -2.785145 -0.085350 0.188238 0.152616 0.044421
    33 0.028479 -1.406973 -0.024980 -1.179531 -0.034456 -0.037404
    34 0.021413 -0.957781 0.020046 0.012415 0.000060 0.000372
    35 1.164475 -2.543940 -0.170330 -1.146107 0.012593 0.531702
    36 0.024032 -1.129042 0.017807 -0.122779 -0.001318 0.005730
    37 0.014898 -0.883989 -0.019848 0.083963 0.002936 -0.007574
    38 -0.586770 -1.264477 0.200161 -0.318804 -0.841193 -2.754297
    39 1.554086 0.039149 0.016848 -0.012744 -0.005001 0.668087
    40 1.114041 0.044518 -0.005766 -0.017369 -0.034306 0.678848
    41 -0.131586 -0.111698 -0.173109 1.554649 -0.003889 1.247912
    42 -4.991236 7.870398 -0.340999 1.581176 -0.017751 -1.085969
  time 25
    0 4.754051 -18.563239 -8.722922 2.441937 -1.425841 -0.847841
    1 3.672698 -0.009399 -9.741897 0.000000 0.000000 1.570796
    2 5.242766 -0.009398 -9.099322 0.000000 0.000000 2.041481
    3 4.337082 0.867384 -6.040190 0.000001 0.000000 -3.141592
    4 0.333195 0.924545 -2.108820 -0.207549 -0.386623 0.509310
    5 5.309981 -0.096330 -8.116417 4.549730 -1.274231 1.092933
    6 7.644094 -1.901803 -0.407627 -1.567207 -0.029850 -3.303005
    7 0.033551 -8.475298 -0.065070 0.073714 0.735383 -0.133580
    8 -0.488518 -2.755602 -0.228260 -0.681803 0.004651 -0.313855
    9 0.039887 -1.546198 0.022041 -1.875510 -0.006592 0.041851
    10 0.028786 -1.185109 -0.128581 -1.197686 -0.015101 0.026258
    11 0.250027 -2.820665 -0.238396 -0.522750 -0.013372 -0.204188
    12 -0.049759 -1.594604 0.018445 -1.723461 -0.003452 -0.044920
    13 -0.034142 -1.171750 0.045718 -1.216565 0.006052 -0.032095
    14 0.957766 -2.746780 -0.090302 0.259072 -0.168473 0.050763
    15 -0.033420 -1.397129 -0.026882 -1.002519 0.003787 -0.049018
    16 -0.022360 -0.957436 0.003159 -0.559816 0.008018 -0.026929
    17 -1.180681 -2.507217 -0.193859 -0.873773 0.162131 -0.429533
    18 -0.024967 -1.127840 0.017597 -1.543477 -0.011277 -0.062043
    19 -0.020057 -0.906594 0.029622 -0.887117 0.006831 -0.036002
    20 0.618667 -1.185558 0.177566 0.929876 -0.865781 -1.011303
    21 1.516395 -0.153822 0.047979 0.016367 -0.158292 -0.529985
    22 0.999205 -0.186885 0.044010 0.097263 -0.250397 -1.081820
    23 0.120153 -0.050270 -0.054489 0.287569 3.110905 1.561085
    24 -7.868657 -8.446202 -4.954559 -0.088970 -3.831024 0.085120
    25 -0.266348 -7.794148 -0.091399 0.251913 -2.136121 -0.469019
    26 0.447953 -2.798986 -0.200443 -0.545535 0.011284 0.245847
    27 -0.032909 -1.499736 0.024472 -1.281810 0.022974 -0.023392
    28 -0.027022 -1.073014 -0.016304 0.162414 -0.004554 0.000204
    29 -0.249534 -2.846964 -0.174213 -0.151966 -0.004332 0.202245
    30 0.043235 -1.656596 0.064761 -1.520677 -0.023064 0.009229
    31 0.031729 -1.160830 0.058838 0.084356 0.001793 0.009487
    32 -0.963866 -2.785145 -0.085350 0.190950 0.152616 0.044540
    33 0.028479 -1.406973 -0.024980 -1.166172 -0.033856 -0.037260
    34 0.021413 -0.957781 0.020046 0.008537 0.000024 0.000204
    35 1.164475 -2.543940 -0.170330 -1.130774 0.010148 0.532900
    36 0.024032 -1.129042 0.017807 -0.127127 -0.001366 0.005969
    37 0.014898 -0.883989 -0.019848 0.078364 0.002804 -0.007287
    38 -0.586770 -1.264477 0.200161 -0.307224 -0.843458 -2.757319
    39 1.554086 0.039149 0.016848 -0.012600 -0.004929 0.662457
    40 1.114041 0.044518 -0.005766 -0.017141 -0.034270 0.671688
    41 -0.131586 -0.111698 -0.173109 1.554649 -0.003889 1.247912
    42 -5.049832 7.827428 -0.344905 1.581128 -0.017978 -1.077199
  time 26
    0 4.785302 -18.555426 -8.449477 2.463854 -1.459147 -0.874010
    1 3.672698 -0.009399 -9.741897 0.000000 0.000000 1.570796
    2 5.242766 -0.009398 -9.099322 0.000000 0.000000 2.041481
    3 4.337082 0.867384 -6.040190 0.000001 0.000000 -3.141592
    4 0.356633 0.994859 -2.136165 -0.207549 -0.386623 0.509310
    5 5.380296 -0.151019 -8.112510 4.495107 -1.271430 1.139756
    6 7.644094 -1.897897 -0.407627 -1.567207 -0.029850 -3.302492
    7 0.029645 -8.475298 -0.065070 0.087258 0.722351 -0.106185
    8 -0.488518 -2.755602 -0.228260 -0.681803 0.004651 -0.313855
    9 0.039887 -1.546198 0.022041 -1.875510 -0.006592 0.041851
    10 0.028786 -1.185109 -0.128581 -1.197686 -0.015101 0.026258
    11 0.250027 -2.820665 -0.238396 -0.522733 -0.013372 -0.204188
    12 -0.049759 -1.594604 0.018445 -1.723461 -0.003452 -0.044920
    13 -0.034142 -1.171750 0.045718 -1.216565 0.006052 -0.032095
    14 0.957766 -2.746780 -0.090302 0.259072 -0.168473 0.050763
    15 -0.033420 -1.397129 -0.026882 -1.002519 0.003787 -0.049018
    16 -0.022360 -0.957436 0.003159 -0.559816 0.008018 -0.026929
    17 -1.180681 -2.507217 -0.193859 -0.873773 0.162131 -0.429533
    18 -0.024967 -1.127840 0.017597 -1.543477 -0.011277 -0.062043
    19 -0.020057 -0.906594 0.029622 -0.887117 0.006831 -0.036002
    20 0.618667 -1.185558 0.177566 0.929876 -0.865781 -1.011303
    21 1.516395 -0.153822 0.047979 0.016367 -0.158292 -0.529985
    22 0.999205 -0.186885 0.044010 0.097263 -0.250397 -1.081820
    23 0.120153 -0.050270 -0.054489 0.287569 3.110905 1.561085
    24 -7.876470 -8.473546 -4.864713 -0.064075 -3.823966 0.110789
    25 -0.266348 -7.794148 -0.091399 0.220463 -2.139955 -0.440841
    26 0.447953 -2.798986 -0.200443 -0.532864 0.009762 0.249358
    27 -0.032909 -1.499736 0.024472 -1.266131 0.022903 -0.022948
    28 -0.027022 -1.073014 -0.016304 0.156129 -0.004374 0.000204
    29 -0.249534 -2.846964 -0.174213 -0.145692 -0.004224 0.202269
    30 0.043235 -1.656596 0.064761 -1.498620 -0.022872 0.008845
    31 0.031729 -1.160830 0.058838 0.077078 0.001733 0.009415
    32 -0.963866 -2.785145 -0.085350 0.194077 0.152604 0.044684
    33 0.028479 -1.406973 -0.024980 -1.150822 -0.033185 -0.037092
    34 0.021413 -0.957781 0.020046 0.004068 0.000000 0.000000
    35 1.164475 -2.543940 -0.170330 -1.113178 0.007319 0.534231
    36 0.024032 -1.129042 0.017807 -0.132081 -0.001414 0.006245
    37 0.014898 -0.883989 -0.019848 0.071928 0.002649 -0.006963
    38 -0.586770 -1.264477 0.200161 -0.293897 -0.846042 -2.760848
    39 1.554086 0.039149 0.016848 -0.012432 -0.004857 0.656026
    40 1.114041 0.044518 -0.005766 -0.016890 -0.034222 0.663499
    41 -0.131586 -0.111698 -0.173109 1.554649 -0.003889 1.247912
    42 -5.135772 7.757113 -0.344905 1.581044 -0.018338 -1.063436
  time 27
    0 4.804834 -18.535894 -8.129154 2.477540 -1.494486 -0.893182
    1 3.672698 -0.009399 -9.741897 0.000000 0.000000 1.570796
    2 5.242766 -0.009398 -9.099322 0.000000 0.000000 2.041481
    3 4.337082 0.867384 -6.040190 0.000001 0.000000 -3.141592
    4 0.387884 1.076893 -2.171322 -0.207549 -0.386623 0.509310
    5 5.454517 -0.205709 -8.100791 4.442380 -1.267636 1.185335
    6 7.648000 -1.886178 -0.407627 -1.567207 -0.029850 -3.301208
    7 0.025738 -8.479205 -0.065070 0.100512 0.708568 -0.076508
    8 -0.488518 -2.755602 -0.228260 -0.681803 0.004651 -0.313855
    9 0.039887 -1.546198 0.022041 -1.875510 -0.006592 0.041851
    10 0.028786 -1.185109 -0.128581 -1.197686 -0.015101 0.026258
    11 0.250027 -2.820665 -0.238396 -0.522750 -0.013372 -0.204188
    12 -0.049759 -1.594604 0.018445 -1.723461 -0.003452 -0.044920
    13 -0.034142 -1.171750 0.045718 -1.216565 0.006052 -0.032095
    14 0.957766 -2.746780 -0.090302 0.259072 -0.168473 0.050763
    15 -0.033420 -1.397129 -0.026882 -1.002519 0.003787 -0.049018
    16 -0.022360 -0.957436 0.003159 -0.559816 0.008018 -0.026929
    17 -1.180681 -2.507217 -0.193859 -0.873773 0.162131 -0.429533
    18 -0.024967 -1.127840 0.017597 -1.543477 -0.011277 -0.062043
    19 -0.020057 -0.906594 0.029622 -0.887117 0.006831 -0.036002
    20 0.618667 -1.185558 0.177566 0.929876 -0.865781 -1.011303
    21 1.516395 -0.153822 0.047979 0.016367 -0.158292 -0.529985
    22 0.999205 -0.186885 0.044010 0.097263 -0.250397 -1.081820
    23 0.120153 -0.050270 -0.054489 0.287569 3.110905 1.561085
    24 -7.888189 -8.504797 -4.759241 -0.034349 -3.815798 0.140591
    25 -0.270255 -7.798055 -0.091399 0.191469 -2.143092 -0.412662
    26 0.447953 -2.798986 -0.200443 -0.520234 0.008192 0.252870
    27 -0.032909 -1.499736 0.024472 -1.250452 0.022819 -0.022505
    28 -0.027022 -1.073014 -0.016304 0.149844 -0.004195 0.000216
    29 -0.249534 -2.846964 -0.174213 -0.139378 -0.004104 0.202281
    30 0.043235 -1.656596 0.068667 -1.476562 -0.022668 0.008462
    31 0.031729 -1.160830 0.058838 0.069840 0.001661 0.009343
    32 -0.963866 -2.785145 -0.085350 0.197165 0.152592 0.044828
    33 0.028479 -1.406973 -0.024980 -1.135471 -0.032514 -0.036913
    34 0.021413 -0.957781 0.020046 -0.000369 -0.000024 -0.000180
    35 1.164475 -2.543940 -0.170330 -1.095632 0.004467 0.535513
    36 0.024032 -1.129042 0.017807 -0.137036 -0.001462 0.006521
    37 0.014898 -0.883989 -0.019848 0.065491 0.002505 -0.006639
    38 -0.586770 -1.264477 0.200161 -0.280516 -0.848591 -2.764433
    39 1.554086 0.039149 0.016848 -0.012264 -0.004773 0.649596
    40 1.114041 0.044518 -0.005766 -0.016626 -0.034162 0.655268
    41 -0.131586 -0.111698 -0.173109 1.554649 -0.003889 1.247912
    42 -5.245150 7.667266 -0.348811 1.580936 -0.018781 -1.046503
  time 28
    0 4.812647 -18.496830 -7.816645 2.483761 -1.527625 -0.905068
    1 3.672698 -0.009399 -9.741897 0.000000 0.000000 1.570796
    2 5.242766 -0.009398 -9.099322 0.000000 0.000000 2.041481
    3 4.337082 0.867384 -6.040190 0.000001 0.000000 -3.141592
    4 0.419135 1.174552 -2.210386 -0.207549 -0.386623 0.509310
    5 5.520925 -0.256491 -8.089072 4.396197 -1.263435 1.225264
    6 7.651906 -1.874459 -0.407627 -1.567207 -0.029850 -3.299668
    7 0.021832 -8.483111 -0.065070 0.112158 0.695561 -0.048482
    8 -0.488518 -2.755602 -0.228260 -0.681803 0.004651 -0.313855
    9 0.039887 -1.546198 0.022041 -1.875510 -0.006592 0.041851
    10 0.028786 -1.185109 -0.128581 -1.197686 -0.015101 0.026258
    11 0.250027 -2.820665 -0.238396 -0.522750 -0.013372 -0.204188
    12 -0.049759 -1.594604 0.018445 -1.723461 -0.003452 -0.044920
    13 -0.034142 -1.171750 0.045718 -1.216565 0.006052 -0.032095
    14 0.957766 -2.746780 -0.090302 0.259072 -0.168473 0.050763
    15 -0.033420 -1.397129 -0.026882 -1.002519 0.003787 -0.049018
    16 -0.022360 -0.957436 0.003159 -0.559816 0.008018 -0.026929
    17 -1.180681 -2.507217 -0.193859 -0.873773 0.162131 -0.429533
    18 -0.024967 -1.127840 0.017597 -1.543477 -0.011289 -0.062043
    19 -0.020057 -0.906594 0.029622 -0.887117 0.006831 -0.036002
    20 0.618667 -1.185558 0.177566 0.929876 -0.865781 -1.011303
    21 1.516395 -0.153822 0.047979 0.016367 -0.158292 -0.529985
    22 0.999205 -0.186885 0.044010 0.097263 -0.250397 -1.081820
    23 0.120153 -0.050270 -0.054489 0.287569 3.110905 1.561085
    24 -7.907721 -8.532142 -4.653769 -0.004969 -3.806879 0.169756
    25 -0.270255 -7.798055 -0.095305 0.166040 -2.145997 -0.386680
    26 0.447953 -2.798986 -0.200443 -0.509193 0.006790 0.255902
    27 -0.032909 -1.499736 0.024472 -1.236739 0.022747 -0.022122
    28 -0.027022 -1.073014 -0.016304 0.144387 -0.004039 0.000216
    29 -0.249534 -2.846964 -0.174213 -0.133898 -0.004008 0.202293
    30 0.043235 -1.656596 0.068667 -1.457366 -0.022488 0.008126
    31 0.031729 -1.160830 0.058838 0.063541 0.001613 0.009283
    32 -0.963866 -2.785145 -0.085350 0.199877 0.152592 0.044948
    33 0.028479 -1.406973 -0.024980 -1.122067 -0.031939 -0.036745
    34 0.021413 -0.957781 0.020046 -0.004248 -0.000060 -0.000360
    35 1.164475 -2.543940 -0.170330 -1.080298 0.001950 0.536592
    36 0.024032 -1.129042 0.017807 -0.141333 -0.001498 0.006760
    37 0.014898 -0.883989 -0.019848 0.059892 0.002373 -0.006352
    38 -0.586770 -1.264477 0.200161 -0.268792 -0.850785 -2.767610
    39 1.554086 0.039149 0.016848 -0.012121 -0.004713 0.643992
    40 1.114041 0.044518 -0.005766 -0.016398 -0.034115 0.648108
    41 -0.131586 -0.111698 -0.173109 1.554649 -0.003889 1.247912
    42 -5.358435 7.577420 -0.352718 1.580816 -0.019237 -1.028962
  time 29
    0 4.816553 -18.426516 -7.566637 2.479741 -1.554464 -0.906027
    1 3.672698 -0.009399 -9.741897 0.000000 0.000000 1.570796
    2 5.242766 -0.009398 -9.099322 0.000000 0.000000 2.041481
    3 4.337082 0.867384 -6.040190 0.000001 0.000000 -3.141592
    4 0.458199 1.283930 -2.257262 -0.207549 -0.386623 0.509310
    5 5.571708 -0.295555 -8.073447 4.360445 -1.259700 1.256192
    6 7.655813 -1.862740 -0.407627 -1.567207 -0.029850 -3.298192
    7 0.017925 -8.483111 -0.068977 0.121091 0.684935 -0.025803
    8 -0.488518 -2.755602 -0.228260 -0.681803 0.004651 -0.313855
    9 0.039887 -1.546198 0.022041 -1.875510 -0.006592 0.041851
    10 0.028786 -1.185109 -0.128581 -1.197686 -0.015101 0.026258
    11 0.250027 -2.820665 -0.238396 -0.522750 -0.013372 -0.204188
    12 -0.049759 -1.594604 0.018445 -1.723461 -0.003452 -0.044920
    13 -0.034142 -1.171750 0.045718 -1.216565 0.006052 -0.032095
    14 0.957766 -2.746780 -0.090302 0.259072 -0.168473 0.050763
    15 -0.033420 -1.397129 -0.026882 -1.002519 0.003787 -0.049018
    16 -0.022360 -0.957436 0.003159 -0.559816 0.008018 -0.026929
    17 -1.180681 -2.507217 -0.193859 -0.873773 0.162131 -0.429533
    18 -0.024967 -1.127840 0.017597 -1.543477 -0.011289 -0.062043
    19 -0.020057 -0.906594 0.029622 -0.887117 0.006831 -0.036002
    20 0.618667 -1.185558 0.177566 0.929876 -0.865781 -1.011303
    21 1.516395 -0.153822 0.047979 0.016367 -0.158292 -0.529985
    22 0.999205 -0.186885 0.044010 0.097263 -0.250397 -1.081820
    23 0.120153 -0.050270 -0.054489 0.287569 3.110905 1.561085
    24 -7.923346 -8.551674 -4.563923 0.018944 -3.798044 0.193439
    25 -0.270255 -7.801961 -0.095305 0.145234 -2.149192 -0.365627
    26 0.447953 -2.798986 -0.200443 -0.501371 0.005771 0.258035
    27 -0.032909 -1.499736 0.024472 -1.227070 0.022687 -0.021858
    28 -0.027022 -1.073014 -0.016304 0.140513 -0.003931 0.000216
    29 -0.249534 -2.846964 -0.174213 -0.130046 -0.003936 0.202305
    30 0.043235 -1.656596 0.068667 -1.443736 -0.022345 0.007887
    31 0.031729 -1.160830 0.058838 0.059041 0.001565 0.009247
    32 -0.963866 -2.785145 -0.085350 0.201798 0.152592 0.045032
    33 0.028479 -1.406973 -0.024980 -1.112601 -0.031531 -0.036613
    34 0.021413 -0.957781 0.020046 -0.007010 -0.000072 -0.000479
    35 1.164475 -2.543940 -0.170330 -1.069439 0.000177 0.537335
    36 0.024032 -1.129042 0.017807 -0.144367 -0.001522 0.006928
    37 0.014898 -0.883989 -0.019848 0.055932 0.002289 -0.006148
    38 -0.586770 -1.264477 0.200161 -0.260490 -0.852325 -2.769887
    39 1.554086 0.039149 0.016848 -0.012025 -0.004665 0.640017
    40 1.114041 0.048424 -0.005766 -0.016242 -0.034079 0.643049
    41 -0.131586 -0.111698 -0.173109 1.554649 -0.003889 1.247912
    42 -5.448281 7.495386 -0.356624 1.580720 -0.019620 -1.013985
  time 30
    0 4.836085 -18.324950 -7.441633 1.570797 -1.570796 -0.000080
    1 3.672698 -0.009399 -9.741897 0.000000 0.000000 1.570796
    2 5.242766 -0.009398 -9.099322 0.000000 0.000000 2.041481
    3 4.337082 0.867384 -6.040190 0.000001 0.000000 -3.141592
    4 0.501169 1.405028 -2.308045 -0.207549 -0.386623 0.509310
    5 5.602959 -0.318993 -8.065634 4.338918 -1.257308 1.274768
    6 7.659719 -1.858833 -0.407627 -1.567302 -0.029850 -3.297357
    7 0.017925 -8.487017 -0.068977 0.126440 0.678344 -0.012106
    8 -0.488518 -2.755602 -0.228260 -0.681803 0.004651 -0.313855
    9 0.039887 -1.546198 0.022041 -1.875510 -0.006592 0.041851
    10 0.028786 -1.185109 -0.128581 -1.197686 -0.015101 0.026258
    11 0.250027 -2.820665 -0.238396 -0.522750 -0.013372 -0.204188
    12 -0.049759 -1.594604 0.018445 -1.723461 -0.003452 -0.044920
    13 -0.034142 -1.171750 0.045718 -1.216565 0.006052 -0.032095
    14 0.957766 -2.746780 -0.090302 0.259072 -0.168473 0.050763
    15 -0.033420 -1.397129 -0.026882 -1.002519 0.003787 -0.049018
    16 -0.022360 -0.957436 0.003159 -0.559816 0.008018 -0.026929
    17 -1.180681 -2.507217 -0.193859 -0.873773 0.162131 -0.429533
    18 -0.024967 -1.127840 0.017597 -1.543477 -0.011289 -0.062043
    19 -0.020057 -0.906594 0.029622 -0.887117 0.006831 -0.036002
    20 0.618667 -1.185558 0.177566 0.929876 -0.865781 -1.011303
    21 1.516395 -0.153822 0.047979 0.016367 -0.158292 -0.529985
    22 0.999205 -0.186885 0.044010 0.097263 -0.250397 -1.081820
    23 0.120153 -0.050270 -0.054489 0.287569 3.110905 1.561085
    24 -7.938972 -8.563393 -4.505327 0.032374 -3.790459 0.207028
    25 -0.274161 -7.801961 -0.095305 0.130063 -2.153259 -0.352180
    26 0.447953 -2.798986 -0.200443 -0.498397 0.005388 0.258850
    27 -0.032909 -1.499736 0.024472 -1.223410 0.022663 -0.021750
    28 -0.027022 -1.073014 -0.016304 0.139027 -0.003883 0.000216
    29 -0.249534 -2.846964 -0.174213 -0.128576 -0.003900 0.202317
    30 0.043235 -1.656596 0.068667 -1.438586 -0.022297 0.007803
    31 0.031729 -1.160830 0.058838 0.057359 0.001553 0.009235
    32 -0.963866 -2.785145 -0.085350 0.202514 0.152580 0.045068
    33 0.028479 -1.406973 -0.024980 -1.109018 -0.031376 -0.036565
    34 0.021413 -0.957781 0.020046 -0.008034 -0.000084 -0.000527
    35 1.164475 -2.543940 -0.170330 -1.065316 -0.000506 0.537610
    36 0.024032 -1.129042 0.017807 -0.145529 -0.001534 0.006988
    37 0.014898 -0.883989 -0.019848 0.054446 0.002253 -0.006064
    38 -0.586770 -1.264477 0.200161 -0.257320 -0.852909 -2.770759
    39 1.554086 0.039149 0.016848 -0.011989 -0.004641 0.638496
    40 1.114041 0.048424 -0.005766 -0.016183 -0.034067 0.641120
    41 -0.131586 -0.111698 -0.173109 1.554649 -0.003889 1.247912
    42 -5.502970 7.444603 -0.356624 1.580648 -0.019848 -1.005080
end
