// Created by Crowbar 0.62

$modelname "weapons/tfa_cso/w_heaven_bomb.mdl"

$bodygroup "studio"
{
	studio "bomb_wdcannon"
}

$collisionmodel "bomb_wdcannon.smd"
{
	$mass 1
}

$CDMaterials "models\weapons\tfa_cso\heaven_scorcher\"

$Sequence "idle_off" {
	"anims\idle.smd"
	fps 30
}

$Sequence "set" {
	"bomb_wondercannon_anims\set.smd"
	fps 30
}

$Sequence "idle_on" {
	"bomb_wondercannon_anims\idle.smd"
	fps 30
}
