version 1
nodes
  0 "Bone01" -1
  1 "Bone_Lefthand" 0
  2 "Bone02" 1
  3 "Bone03" 2
  4 "Bone48" 3
  5 "Bone49" 4
  6 "Bone51" 3
  7 "Bone 04" 1
  8 "Bone13" 7
  9 "Bone14" 8
  10 "Bone15" 9
  11 "Bone17" 7
  12 "Bone18" 11
  13 "Bone19" 12
  14 "Bone21" 7
  15 "Bone22" 14
  16 "Bone23" 15
  17 "Bone05" 7
  18 "Bone06" 17
  19 "Bone07" 18
  20 "Bone09" 7
  21 "Bone10" 20
  22 "Bone11" 21
  23 "Bone04" -1
  24 "Bone_Righthand" 23
  25 "Bone26" 24
  26 "Bone35" 25
  27 "Bone36" 26
  28 "Bone37" 27
  29 "Bone31" 25
  30 "Bone32" 29
  31 "Bone33" 30
  32 "Bone39" 25
  33 "Bone40" 32
  34 "Bone41" 33
  35 "Bone43" 25
  36 "Bone44" 35
  37 "Bone45" 36
  38 "Bone27" 25
  39 "Bone28" 38
  40 "Bone29" 39
end
skeleton
  time 0
    0 9.959509 4.963402 -4.868772 0.682409 -1.782234 -1.215288
    1 -0.001603 -8.561234 -0.002571 0.509234 0.326793 -0.593927
    2 -0.106493 -3.116304 0.835717 0.656020 1.697471 1.123747
    3 0.002267 1.323084 2.153839 -0.000010 -0.000007 -0.000008
    4 -0.002932 -2.226192 0.667907 -0.000011 0.000002 0.000000
    5 -0.002713 -0.744802 -0.000836 0.000000 -0.267004 -0.000002
    6 -0.001138 -5.702785 -1.087640 0.000001 0.000007 0.000008
    7 -0.003480 -0.404829 0.000000 0.000000 0.000000 0.000000
    8 -0.519309 -2.501155 -0.278958 -1.448623 0.000000 -0.122173
    9 -0.010598 -1.208185 -0.000001 -0.609135 0.000000 0.000000
    10 0.000000 -0.763066 0.000000 -1.192070 0.000000 0.000000
    11 0.105981 -2.607134 -0.278958 -1.476549 0.000000 -0.148353
    12 0.000000 -1.250579 0.000000 -0.684195 0.000000 0.000000
    13 0.000000 -0.932634 0.000000 -1.488764 0.000000 0.000000
    14 0.763064 -2.490556 -0.278958 -0.344835 0.055297 0.283572
    15 -0.012322 -1.280916 -0.000001 -0.322907 0.000000 0.000000
    16 -0.001697 -0.749371 0.000000 -0.593412 0.000000 0.000000
    17 0.354567 0.016267 0.318133 0.376749 -0.507429 -0.712448
    18 1.887165 0.012878 -0.000001 -0.292705 -0.088530 -0.686815
    19 1.001873 -0.000270 0.000001 0.000000 0.000000 -0.708597
    20 -1.123359 -2.195093 -0.278957 -1.337000 -0.006064 -0.061811
    21 0.010772 -0.963791 0.000001 -0.485233 0.000000 0.000000
    22 -0.010412 -0.631915 0.000000 -0.977401 0.000000 0.000000
    23 -1.640186 -6.029243 -7.475132 -0.380480 0.255020 0.648676
    24 0.089928 -8.543166 -0.000001 0.386094 0.122644 0.292059
    25 0.000000 -0.359714 0.000000 0.000000 0.000000 0.000000
    26 -0.170480 -2.636148 -0.277655 -1.787196 0.000000 0.000000
    27 0.010599 -1.261178 0.000001 -0.253073 0.000000 0.000000
    28 -0.000001 -0.943233 -0.000001 -0.532326 0.000000 0.000000
    29 -0.827564 -2.508974 -0.277656 -1.432907 0.000000 0.000000
    30 0.000000 -1.292971 0.000000 -0.554988 0.000000 0.000000
    31 0.000000 -0.752466 0.000000 -0.633551 0.000000 0.000000
    32 0.444213 -2.561961 -0.277656 -1.837245 -0.049654 -0.023029
    33 0.021021 -1.208186 0.000000 -0.427606 0.000000 0.000000
    34 0.010597 -0.741867 -0.000001 -0.453786 0.000000 0.000000
    35 1.047444 -2.222822 -0.277656 -1.801437 -0.095845 -0.030507
    36 0.000000 -0.996223 -0.000001 -0.549786 0.000000 0.000000
    37 -0.000001 -0.614690 0.000000 -0.523599 0.000000 0.000000
    38 -0.308254 -0.007814 0.307166 -0.129374 -0.297499 -2.570662
    39 1.978378 0.019543 0.000000 -0.093458 -0.047313 0.082472
    40 0.982426 0.003186 0.000000 0.000000 0.000000 0.425839
  time 1
    0 9.959509 4.963402 -4.868772 0.682409 -1.782234 -1.215288
    1 -0.001603 -8.561234 -0.002571 0.509234 0.326793 -0.593927
    2 -0.106493 -3.116304 0.835717 0.656020 1.697471 1.123747
    3 0.002267 1.323084 2.153839 -0.000010 -0.000007 -0.000008
    4 -0.002932 -2.226192 0.667907 -0.000011 0.000002 0.000000
    5 -0.002713 -0.744802 -0.000836 0.000000 -0.267004 -0.000002
    6 -0.001138 -5.702785 -1.087640 0.000001 0.000007 0.000008
    7 -0.003480 -0.404829 0.000000 0.000000 0.000000 0.000000
    8 -0.519309 -2.501155 -0.278958 -1.448623 0.000000 -0.122173
    9 -0.010598 -1.208185 -0.000001 -0.609135 0.000000 0.000000
    10 0.000000 -0.763066 0.000000 -1.192070 0.000000 0.000000
    11 0.105981 -2.607134 -0.278958 -1.476549 0.000000 -0.148353
    12 0.000000 -1.250579 0.000000 -0.684195 0.000000 0.000000
    13 0.000000 -0.932634 0.000000 -1.488764 0.000000 0.000000
    14 0.763064 -2.490556 -0.278958 -0.344835 0.055297 0.283572
    15 -0.012322 -1.280916 -0.000001 -0.322907 0.000000 0.000000
    16 -0.001697 -0.749371 0.000000 -0.593412 0.000000 0.000000
    17 0.354567 0.016267 0.318133 0.376749 -0.507429 -0.712448
    18 1.887165 0.012878 -0.000001 -0.292705 -0.088530 -0.686815
    19 1.001873 -0.000270 0.000001 0.000000 0.000000 -0.708597
    20 -1.123359 -2.195093 -0.278957 -1.337000 -0.006064 -0.061811
    21 0.010772 -0.963791 0.000001 -0.485233 0.000000 0.000000
    22 -0.010412 -0.631915 0.000000 -0.977401 0.000000 0.000000
    23 -1.640186 -6.029243 -7.475132 -0.380480 0.255020 0.648676
    24 0.089928 -8.543166 -0.000001 0.386094 0.122644 0.292059
    25 0.000000 -0.359714 0.000000 0.000000 0.000000 0.000000
    26 -0.170480 -2.636148 -0.277655 -1.787196 0.000000 0.000000
    27 0.010599 -1.261178 0.000001 -0.253073 0.000000 0.000000
    28 -0.000001 -0.943233 -0.000001 -0.532326 0.000000 0.000000
    29 -0.827564 -2.508974 -0.277656 -1.432907 0.000000 0.000000
    30 0.000000 -1.292971 0.000000 -0.554988 0.000000 0.000000
    31 0.000000 -0.752466 0.000000 -0.633551 0.000000 0.000000
    32 0.444213 -2.561961 -0.277656 -1.837245 -0.049654 -0.023029
    33 0.021021 -1.208186 0.000000 -0.427606 0.000000 0.000000
    34 0.010597 -0.741867 -0.000001 -0.453786 0.000000 0.000000
    35 1.047444 -2.222822 -0.277656 -1.801437 -0.095845 -0.030507
    36 0.000000 -0.996223 -0.000001 -0.549786 0.000000 0.000000
    37 -0.000001 -0.614690 0.000000 -0.523599 0.000000 0.000000
    38 -0.308254 -0.007814 0.307166 -0.129374 -0.297499 -2.570662
    39 1.978378 0.019543 0.000000 -0.093458 -0.047313 0.082472
    40 0.982426 0.003186 0.000000 0.000000 0.000000 0.425839
  time 2
    0 9.959509 4.963402 -4.868772 0.682409 -1.782234 -1.215288
    1 -0.001603 -8.561234 -0.002571 0.509234 0.326793 -0.593927
    2 -0.106493 -3.116304 0.835717 0.656020 1.697471 1.123747
    3 0.002267 1.323084 2.153839 -0.000010 -0.000007 -0.000008
    4 -0.002932 -2.226192 0.667907 -0.000011 0.000002 0.000000
    5 -0.002713 -0.744802 -0.000836 0.000000 -0.267004 -0.000002
    6 -0.001138 -5.702785 -1.087640 0.000001 0.000007 0.000008
    7 -0.003480 -0.404829 0.000000 0.000000 0.000000 0.000000
    8 -0.519309 -2.501155 -0.278958 -1.448623 0.000000 -0.122173
    9 -0.010598 -1.208185 -0.000001 -0.609135 0.000000 0.000000
    10 0.000000 -0.763066 0.000000 -1.192070 0.000000 0.000000
    11 0.105981 -2.607134 -0.278958 -1.476549 0.000000 -0.148353
    12 0.000000 -1.250579 0.000000 -0.684195 0.000000 0.000000
    13 0.000000 -0.932634 0.000000 -1.488764 0.000000 0.000000
    14 0.763064 -2.490556 -0.278958 -0.344835 0.055297 0.283572
    15 -0.012322 -1.280916 -0.000001 -0.322907 0.000000 0.000000
    16 -0.001697 -0.749371 0.000000 -0.593412 0.000000 0.000000
    17 0.354567 0.016267 0.318133 0.376749 -0.507429 -0.712448
    18 1.887165 0.012878 -0.000001 -0.292705 -0.088530 -0.686815
    19 1.001873 -0.000270 0.000001 0.000000 0.000000 -0.708597
    20 -1.123359 -2.195093 -0.278957 -1.337000 -0.006064 -0.061811
    21 0.010772 -0.963791 0.000001 -0.485233 0.000000 0.000000
    22 -0.010412 -0.631915 0.000000 -0.977401 0.000000 0.000000
    23 -1.640186 -6.029243 -7.475132 -0.380480 0.255020 0.648676
    24 0.089928 -8.543166 -0.000001 0.386094 0.122644 0.292059
    25 0.000000 -0.359714 0.000000 0.000000 0.000000 0.000000
    26 -0.170480 -2.636148 -0.277655 -1.787196 0.000000 0.000000
    27 0.010599 -1.261178 0.000001 -0.253073 0.000000 0.000000
    28 -0.000001 -0.943233 -0.000001 -0.532326 0.000000 0.000000
    29 -0.827564 -2.508974 -0.277656 -1.432907 0.000000 0.000000
    30 0.000000 -1.292971 0.000000 -0.554988 0.000000 0.000000
    31 0.000000 -0.752466 0.000000 -0.633551 0.000000 0.000000
    32 0.444213 -2.561961 -0.277656 -1.837245 -0.049654 -0.023029
    33 0.021021 -1.208186 0.000000 -0.427606 0.000000 0.000000
    34 0.010597 -0.741867 -0.000001 -0.453786 0.000000 0.000000
    35 1.047444 -2.222822 -0.277656 -1.801437 -0.095845 -0.030507
    36 0.000000 -0.996223 -0.000001 -0.549786 0.000000 0.000000
    37 -0.000001 -0.614690 0.000000 -0.523599 0.000000 0.000000
    38 -0.308254 -0.007814 0.307166 -0.129374 -0.297499 -2.570662
    39 1.978378 0.019543 0.000000 -0.093458 -0.047313 0.082472
    40 0.982426 0.003186 0.000000 0.000000 0.000000 0.425839
  time 3
    0 9.959509 4.963402 -4.868772 0.682409 -1.782234 -1.215288
    1 -0.001603 -8.561234 -0.002571 0.509234 0.326793 -0.593927
    2 -0.106493 -3.116304 0.835717 0.656020 1.697471 1.123747
    3 0.002267 1.323084 2.153839 -0.000010 -0.000007 -0.000008
    4 -0.002932 -2.226192 0.667907 -0.000011 0.000002 0.000000
    5 -0.002713 -0.744802 -0.000836 0.000000 -0.267004 -0.000002
    6 -0.001138 -5.702785 -1.087640 0.000001 0.000007 0.000008
    7 -0.003480 -0.404829 0.000000 0.000000 0.000000 0.000000
    8 -0.519309 -2.501155 -0.278958 -1.448623 0.000000 -0.122173
    9 -0.010598 -1.208185 -0.000001 -0.609135 0.000000 0.000000
    10 0.000000 -0.763066 0.000000 -1.192070 0.000000 0.000000
    11 0.105981 -2.607134 -0.278958 -1.476549 0.000000 -0.148353
    12 0.000000 -1.250579 0.000000 -0.684195 0.000000 0.000000
    13 0.000000 -0.932634 0.000000 -1.488764 0.000000 0.000000
    14 0.763064 -2.490556 -0.278958 -0.344835 0.055297 0.283572
    15 -0.012322 -1.280916 -0.000001 -0.322907 0.000000 0.000000
    16 -0.001697 -0.749371 0.000000 -0.593412 0.000000 0.000000
    17 0.354567 0.016267 0.318133 0.376749 -0.507429 -0.712448
    18 1.887165 0.012878 -0.000001 -0.292705 -0.088530 -0.686815
    19 1.001873 -0.000270 0.000001 0.000000 0.000000 -0.708597
    20 -1.123359 -2.195093 -0.278957 -1.337000 -0.006064 -0.061811
    21 0.010772 -0.963791 0.000001 -0.485233 0.000000 0.000000
    22 -0.010412 -0.631915 0.000000 -0.977401 0.000000 0.000000
    23 -1.640186 -6.029243 -7.475132 -0.380480 0.255020 0.648676
    24 0.089928 -8.543166 -0.000001 0.386094 0.122644 0.292059
    25 0.000000 -0.359714 0.000000 0.000000 0.000000 0.000000
    26 -0.170480 -2.636148 -0.277655 -1.787196 0.000000 0.000000
    27 0.010599 -1.261178 0.000001 -0.253073 0.000000 0.000000
    28 -0.000001 -0.943233 -0.000001 -0.532326 0.000000 0.000000
    29 -0.827564 -2.508974 -0.277656 -1.432907 0.000000 0.000000
    30 0.000000 -1.292971 0.000000 -0.554988 0.000000 0.000000
    31 0.000000 -0.752466 0.000000 -0.633551 0.000000 0.000000
    32 0.444213 -2.561961 -0.277656 -1.837245 -0.049654 -0.023029
    33 0.021021 -1.208186 0.000000 -0.427606 0.000000 0.000000
    34 0.010597 -0.741867 -0.000001 -0.453786 0.000000 0.000000
    35 1.047444 -2.222822 -0.277656 -1.801437 -0.095845 -0.030507
    36 0.000000 -0.996223 -0.000001 -0.549786 0.000000 0.000000
    37 -0.000001 -0.614690 0.000000 -0.523599 0.000000 0.000000
    38 -0.308254 -0.007814 0.307166 -0.129374 -0.297499 -2.570662
    39 1.978378 0.019543 0.000000 -0.093458 -0.047313 0.082472
    40 0.982426 0.003186 0.000000 0.000000 0.000000 0.425839
  time 4
    0 9.959509 4.963402 -4.868772 0.682409 -1.782234 -1.215288
    1 -0.001603 -8.561234 -0.002571 0.509234 0.326793 -0.593927
    2 -0.106493 -3.116304 0.835717 0.656020 1.697471 1.123747
    3 0.002267 1.323084 2.153839 -0.000010 -0.000007 -0.000008
    4 -0.002932 -2.226192 0.667907 -0.000011 0.000002 0.000000
    5 -0.002713 -0.744802 -0.000836 0.000000 -0.267004 -0.000002
    6 -0.001138 -5.702785 -1.087640 0.000001 0.000007 0.000008
    7 -0.003480 -0.404829 0.000000 0.000000 0.000000 0.000000
    8 -0.519309 -2.501155 -0.278958 -1.448623 0.000000 -0.122173
    9 -0.010598 -1.208185 -0.000001 -0.609135 0.000000 0.000000
    10 0.000000 -0.763066 0.000000 -1.192070 0.000000 0.000000
    11 0.105981 -2.607134 -0.278958 -1.476549 0.000000 -0.148353
    12 0.000000 -1.250579 0.000000 -0.684195 0.000000 0.000000
    13 0.000000 -0.932634 0.000000 -1.488764 0.000000 0.000000
    14 0.763064 -2.490556 -0.278958 -0.344835 0.055297 0.283572
    15 -0.012322 -1.280916 -0.000001 -0.322907 0.000000 0.000000
    16 -0.001697 -0.749371 0.000000 -0.593412 0.000000 0.000000
    17 0.354567 0.016267 0.318133 0.376749 -0.507429 -0.712448
    18 1.887165 0.012878 -0.000001 -0.292705 -0.088530 -0.686815
    19 1.001873 -0.000270 0.000001 0.000000 0.000000 -0.708597
    20 -1.123359 -2.195093 -0.278957 -1.337000 -0.006064 -0.061811
    21 0.010772 -0.963791 0.000001 -0.485233 0.000000 0.000000
    22 -0.010412 -0.631915 0.000000 -0.977401 0.000000 0.000000
    23 -1.640186 -6.029243 -7.475132 -0.380480 0.255020 0.648676
    24 0.089928 -8.543166 -0.000001 0.386094 0.122644 0.292059
    25 0.000000 -0.359714 0.000000 0.000000 0.000000 0.000000
    26 -0.170480 -2.636148 -0.277655 -1.787196 0.000000 0.000000
    27 0.010599 -1.261178 0.000001 -0.253073 0.000000 0.000000
    28 -0.000001 -0.943233 -0.000001 -0.532326 0.000000 0.000000
    29 -0.827564 -2.508974 -0.277656 -1.432907 0.000000 0.000000
    30 0.000000 -1.292971 0.000000 -0.554988 0.000000 0.000000
    31 0.000000 -0.752466 0.000000 -0.633551 0.000000 0.000000
    32 0.444213 -2.561961 -0.277656 -1.837245 -0.049654 -0.023029
    33 0.021021 -1.208186 0.000000 -0.427606 0.000000 0.000000
    34 0.010597 -0.741867 -0.000001 -0.453786 0.000000 0.000000
    35 1.047444 -2.222822 -0.277656 -1.801437 -0.095845 -0.030507
    36 0.000000 -0.996223 -0.000001 -0.549786 0.000000 0.000000
    37 -0.000001 -0.614690 0.000000 -0.523599 0.000000 0.000000
    38 -0.308254 -0.007814 0.307166 -0.129374 -0.297499 -2.570662
    39 1.978378 0.019543 0.000000 -0.093458 -0.047313 0.082472
    40 0.982426 0.003186 0.000000 0.000000 0.000000 0.425839
  time 5
    0 9.959509 4.963402 -4.868772 0.682409 -1.782234 -1.215288
    1 -0.001603 -8.561234 -0.002571 0.509234 0.326793 -0.593927
    2 -0.106493 -3.116304 0.835717 0.656020 1.697471 1.123747
    3 0.002267 1.323084 2.153839 -0.000010 -0.000007 -0.000008
    4 -0.002932 -2.226192 0.667907 -0.000011 0.000002 0.000000
    5 -0.002713 -0.744802 -0.000836 0.000000 -0.267004 -0.000002
    6 -0.001138 -5.702785 -1.087640 0.000001 0.000007 0.000008
    7 -0.003480 -0.404829 0.000000 0.000000 0.000000 0.000000
    8 -0.519309 -2.501155 -0.278958 -1.448623 0.000000 -0.122173
    9 -0.010598 -1.208185 -0.000001 -0.609135 0.000000 0.000000
    10 0.000000 -0.763066 0.000000 -1.192070 0.000000 0.000000
    11 0.105981 -2.607134 -0.278958 -1.476549 0.000000 -0.148353
    12 0.000000 -1.250579 0.000000 -0.684195 0.000000 0.000000
    13 0.000000 -0.932634 0.000000 -1.488764 0.000000 0.000000
    14 0.763064 -2.490556 -0.278958 -0.344835 0.055297 0.283572
    15 -0.012322 -1.280916 -0.000001 -0.322907 0.000000 0.000000
    16 -0.001697 -0.749371 0.000000 -0.593412 0.000000 0.000000
    17 0.354567 0.016267 0.318133 0.376749 -0.507429 -0.712448
    18 1.887165 0.012878 -0.000001 -0.292705 -0.088530 -0.686815
    19 1.001873 -0.000270 0.000001 0.000000 0.000000 -0.708597
    20 -1.123359 -2.195093 -0.278957 -1.337000 -0.006064 -0.061811
    21 0.010772 -0.963791 0.000001 -0.485233 0.000000 0.000000
    22 -0.010412 -0.631915 0.000000 -0.977401 0.000000 0.000000
    23 -1.640186 -6.029243 -7.475132 -0.380480 0.255020 0.648676
    24 0.089928 -8.543166 -0.000001 0.386094 0.122644 0.292059
    25 0.000000 -0.359714 0.000000 0.000000 0.000000 0.000000
    26 -0.170480 -2.636148 -0.277655 -1.787196 0.000000 0.000000
    27 0.010599 -1.261178 0.000001 -0.253073 0.000000 0.000000
    28 -0.000001 -0.943233 -0.000001 -0.532326 0.000000 0.000000
    29 -0.827564 -2.508974 -0.277656 -1.432907 0.000000 0.000000
    30 0.000000 -1.292971 0.000000 -0.554988 0.000000 0.000000
    31 0.000000 -0.752466 0.000000 -0.633551 0.000000 0.000000
    32 0.444213 -2.561961 -0.277656 -1.837245 -0.049654 -0.023029
    33 0.021021 -1.208186 0.000000 -0.427606 0.000000 0.000000
    34 0.010597 -0.741867 -0.000001 -0.453786 0.000000 0.000000
    35 1.047444 -2.222822 -0.277656 -1.801437 -0.095845 -0.030507
    36 0.000000 -0.996223 -0.000001 -0.549786 0.000000 0.000000
    37 -0.000001 -0.614690 0.000000 -0.523599 0.000000 0.000000
    38 -0.308254 -0.007814 0.307166 -0.129374 -0.297499 -2.570662
    39 1.978378 0.019543 0.000000 -0.093458 -0.047313 0.082472
    40 0.982426 0.003186 0.000000 0.000000 0.000000 0.425839
  time 6
    0 9.959509 4.963402 -4.868772 0.682409 -1.782234 -1.215288
    1 -0.001603 -8.561234 -0.002571 0.509234 0.326793 -0.593927
    2 -0.106493 -3.116304 0.835717 0.656020 1.697471 1.123747
    3 0.002267 1.323084 2.153839 -0.000010 -0.000007 -0.000008
    4 -0.002932 -2.226192 0.667907 -0.000011 0.000002 0.000000
    5 -0.002713 -0.744802 -0.000836 0.000000 -0.267004 -0.000002
    6 -0.001138 -5.702785 -1.087640 0.000001 0.000007 0.000008
    7 -0.003480 -0.404829 0.000000 0.000000 0.000000 0.000000
    8 -0.519309 -2.501155 -0.278958 -1.448623 0.000000 -0.122173
    9 -0.010598 -1.208185 -0.000001 -0.609135 0.000000 0.000000
    10 0.000000 -0.763066 0.000000 -1.192070 0.000000 0.000000
    11 0.105981 -2.607134 -0.278958 -1.476549 0.000000 -0.148353
    12 0.000000 -1.250579 0.000000 -0.684195 0.000000 0.000000
    13 0.000000 -0.932634 0.000000 -1.488764 0.000000 0.000000
    14 0.763064 -2.490556 -0.278958 -0.344835 0.055297 0.283572
    15 -0.012322 -1.280916 -0.000001 -0.322907 0.000000 0.000000
    16 -0.001697 -0.749371 0.000000 -0.593412 0.000000 0.000000
    17 0.354567 0.016267 0.318133 0.376749 -0.507429 -0.712448
    18 1.887165 0.012878 -0.000001 -0.292705 -0.088530 -0.686815
    19 1.001873 -0.000270 0.000001 0.000000 0.000000 -0.708597
    20 -1.123359 -2.195093 -0.278957 -1.337000 -0.006064 -0.061811
    21 0.010772 -0.963791 0.000001 -0.485233 0.000000 0.000000
    22 -0.010412 -0.631915 0.000000 -0.977401 0.000000 0.000000
    23 -1.640186 -6.029243 -7.475132 -0.380480 0.255020 0.648676
    24 0.089928 -8.543166 -0.000001 0.386094 0.122644 0.292059
    25 0.000000 -0.359714 0.000000 0.000000 0.000000 0.000000
    26 -0.170480 -2.636148 -0.277655 -1.787196 0.000000 0.000000
    27 0.010599 -1.261178 0.000001 -0.253073 0.000000 0.000000
    28 -0.000001 -0.943233 -0.000001 -0.532326 0.000000 0.000000
    29 -0.827564 -2.508974 -0.277656 -1.432907 0.000000 0.000000
    30 0.000000 -1.292971 0.000000 -0.554988 0.000000 0.000000
    31 0.000000 -0.752466 0.000000 -0.633551 0.000000 0.000000
    32 0.444213 -2.561961 -0.277656 -1.837245 -0.049654 -0.023029
    33 0.021021 -1.208186 0.000000 -0.427606 0.000000 0.000000
    34 0.010597 -0.741867 -0.000001 -0.453786 0.000000 0.000000
    35 1.047444 -2.222822 -0.277656 -1.801437 -0.095845 -0.030507
    36 0.000000 -0.996223 -0.000001 -0.549786 0.000000 0.000000
    37 -0.000001 -0.614690 0.000000 -0.523599 0.000000 0.000000
    38 -0.308254 -0.007814 0.307166 -0.129374 -0.297499 -2.570662
    39 1.978378 0.019543 0.000000 -0.093458 -0.047313 0.082472
    40 0.982426 0.003186 0.000000 0.000000 0.000000 0.425839
  time 7
    0 9.959509 4.963402 -4.868772 0.682409 -1.782234 -1.215288
    1 -0.001603 -8.561234 -0.002571 0.509234 0.326793 -0.593927
    2 -0.106493 -3.116304 0.835717 0.656020 1.697471 1.123747
    3 0.002267 1.323084 2.153839 -0.000010 -0.000007 -0.000008
    4 -0.002932 -2.226192 0.667907 -0.000011 0.000002 0.000000
    5 -0.002713 -0.744802 -0.000836 0.000000 -0.267004 -0.000002
    6 -0.001138 -5.702785 -1.087640 0.000001 0.000007 0.000008
    7 -0.003480 -0.404829 0.000000 0.000000 0.000000 0.000000
    8 -0.519309 -2.501155 -0.278958 -1.448623 0.000000 -0.122173
    9 -0.010598 -1.208185 -0.000001 -0.609135 0.000000 0.000000
    10 0.000000 -0.763066 0.000000 -1.192070 0.000000 0.000000
    11 0.105981 -2.607134 -0.278958 -1.476549 0.000000 -0.148353
    12 0.000000 -1.250579 0.000000 -0.684195 0.000000 0.000000
    13 0.000000 -0.932634 0.000000 -1.488764 0.000000 0.000000
    14 0.763064 -2.490556 -0.278958 -0.344835 0.055297 0.283572
    15 -0.012322 -1.280916 -0.000001 -0.322907 0.000000 0.000000
    16 -0.001697 -0.749371 0.000000 -0.593412 0.000000 0.000000
    17 0.354567 0.016267 0.318133 0.376749 -0.507429 -0.712448
    18 1.887165 0.012878 -0.000001 -0.292705 -0.088530 -0.686815
    19 1.001873 -0.000270 0.000001 0.000000 0.000000 -0.708597
    20 -1.123359 -2.195093 -0.278957 -1.337000 -0.006064 -0.061811
    21 0.010772 -0.963791 0.000001 -0.485233 0.000000 0.000000
    22 -0.010412 -0.631915 0.000000 -0.977401 0.000000 0.000000
    23 -1.640186 -6.029243 -7.475132 -0.380480 0.255020 0.648676
    24 0.089928 -8.543166 -0.000001 0.386094 0.122644 0.292059
    25 0.000000 -0.359714 0.000000 0.000000 0.000000 0.000000
    26 -0.170480 -2.636148 -0.277655 -1.787196 0.000000 0.000000
    27 0.010599 -1.261178 0.000001 -0.253073 0.000000 0.000000
    28 -0.000001 -0.943233 -0.000001 -0.532326 0.000000 0.000000
    29 -0.827564 -2.508974 -0.277656 -1.432907 0.000000 0.000000
    30 0.000000 -1.292971 0.000000 -0.554988 0.000000 0.000000
    31 0.000000 -0.752466 0.000000 -0.633551 0.000000 0.000000
    32 0.444213 -2.561961 -0.277656 -1.837245 -0.049654 -0.023029
    33 0.021021 -1.208186 0.000000 -0.427606 0.000000 0.000000
    34 0.010597 -0.741867 -0.000001 -0.453786 0.000000 0.000000
    35 1.047444 -2.222822 -0.277656 -1.801437 -0.095845 -0.030507
    36 0.000000 -0.996223 -0.000001 -0.549786 0.000000 0.000000
    37 -0.000001 -0.614690 0.000000 -0.523599 0.000000 0.000000
    38 -0.308254 -0.007814 0.307166 -0.129374 -0.297499 -2.570662
    39 1.978378 0.019543 0.000000 -0.093458 -0.047313 0.082472
    40 0.982426 0.003186 0.000000 0.000000 0.000000 0.425839
  time 8
    0 9.959509 4.963402 -4.868772 0.682409 -1.782234 -1.215288
    1 -0.001603 -8.561234 -0.002571 0.509234 0.326793 -0.593927
    2 -0.106493 -3.116304 0.835717 0.656020 1.697471 1.123747
    3 0.002267 1.323084 2.153839 -0.000010 -0.000007 -0.000008
    4 -0.002932 -2.226192 0.667907 -0.000011 0.000002 0.000000
    5 -0.002713 -0.744802 -0.000836 0.000000 -0.267004 -0.000002
    6 -0.001138 -5.702785 -1.087640 0.000001 0.000007 0.000008
    7 -0.003480 -0.404829 0.000000 0.000000 0.000000 0.000000
    8 -0.519309 -2.501155 -0.278958 -1.448623 0.000000 -0.122173
    9 -0.010598 -1.208185 -0.000001 -0.609135 0.000000 0.000000
    10 0.000000 -0.763066 0.000000 -1.192070 0.000000 0.000000
    11 0.105981 -2.607134 -0.278958 -1.476549 0.000000 -0.148353
    12 0.000000 -1.250579 0.000000 -0.684195 0.000000 0.000000
    13 0.000000 -0.932634 0.000000 -1.488764 0.000000 0.000000
    14 0.763064 -2.490556 -0.278958 -0.344835 0.055297 0.283572
    15 -0.012322 -1.280916 -0.000001 -0.322907 0.000000 0.000000
    16 -0.001697 -0.749371 0.000000 -0.593412 0.000000 0.000000
    17 0.354567 0.016267 0.318133 0.376749 -0.507429 -0.712448
    18 1.887165 0.012878 -0.000001 -0.292705 -0.088530 -0.686815
    19 1.001873 -0.000270 0.000001 0.000000 0.000000 -0.708597
    20 -1.123359 -2.195093 -0.278957 -1.337000 -0.006064 -0.061811
    21 0.010772 -0.963791 0.000001 -0.485233 0.000000 0.000000
    22 -0.010412 -0.631915 0.000000 -0.977401 0.000000 0.000000
    23 -1.640186 -6.029243 -7.475132 -0.380480 0.255020 0.648676
    24 0.089928 -8.543166 -0.000001 0.386094 0.122644 0.292059
    25 0.000000 -0.359714 0.000000 0.000000 0.000000 0.000000
    26 -0.170480 -2.636148 -0.277655 -1.787196 0.000000 0.000000
    27 0.010599 -1.261178 0.000001 -0.253073 0.000000 0.000000
    28 -0.000001 -0.943233 -0.000001 -0.532326 0.000000 0.000000
    29 -0.827564 -2.508974 -0.277656 -1.432907 0.000000 0.000000
    30 0.000000 -1.292971 0.000000 -0.554988 0.000000 0.000000
    31 0.000000 -0.752466 0.000000 -0.633551 0.000000 0.000000
    32 0.444213 -2.561961 -0.277656 -1.837245 -0.049654 -0.023029
    33 0.021021 -1.208186 0.000000 -0.427606 0.000000 0.000000
    34 0.010597 -0.741867 -0.000001 -0.453786 0.000000 0.000000
    35 1.047444 -2.222822 -0.277656 -1.801437 -0.095845 -0.030507
    36 0.000000 -0.996223 -0.000001 -0.549786 0.000000 0.000000
    37 -0.000001 -0.614690 0.000000 -0.523599 0.000000 0.000000
    38 -0.308254 -0.007814 0.307166 -0.129374 -0.297499 -2.570662
    39 1.978378 0.019543 0.000000 -0.093458 -0.047313 0.082472
    40 0.982426 0.003186 0.000000 0.000000 0.000000 0.425839
  time 9
    0 9.959509 4.963402 -4.868772 0.682409 -1.782234 -1.215288
    1 -0.001603 -8.561234 -0.002571 0.509234 0.326793 -0.593927
    2 -0.106493 -3.116304 0.835717 0.656020 1.697471 1.123747
    3 0.002267 1.323084 2.153839 -0.000010 -0.000007 -0.000008
    4 -0.002932 -2.226192 0.667907 -0.000011 0.000002 0.000000
    5 -0.002713 -0.744802 -0.000836 0.000000 -0.267004 -0.000002
    6 -0.001138 -5.702785 -1.087640 0.000001 0.000007 0.000008
    7 -0.003480 -0.404829 0.000000 0.000000 0.000000 0.000000
    8 -0.519309 -2.501155 -0.278958 -1.448623 0.000000 -0.122173
    9 -0.010598 -1.208185 -0.000001 -0.609135 0.000000 0.000000
    10 0.000000 -0.763066 0.000000 -1.192070 0.000000 0.000000
    11 0.105981 -2.607134 -0.278958 -1.476549 0.000000 -0.148353
    12 0.000000 -1.250579 0.000000 -0.684195 0.000000 0.000000
    13 0.000000 -0.932634 0.000000 -1.488764 0.000000 0.000000
    14 0.763064 -2.490556 -0.278958 -0.344835 0.055297 0.283572
    15 -0.012322 -1.280916 -0.000001 -0.322907 0.000000 0.000000
    16 -0.001697 -0.749371 0.000000 -0.593412 0.000000 0.000000
    17 0.354567 0.016267 0.318133 0.376749 -0.507429 -0.712448
    18 1.887165 0.012878 -0.000001 -0.292705 -0.088530 -0.686815
    19 1.001873 -0.000270 0.000001 0.000000 0.000000 -0.708597
    20 -1.123359 -2.195093 -0.278957 -1.337000 -0.006064 -0.061811
    21 0.010772 -0.963791 0.000001 -0.485233 0.000000 0.000000
    22 -0.010412 -0.631915 0.000000 -0.977401 0.000000 0.000000
    23 -1.640186 -6.029243 -7.475132 -0.380480 0.255020 0.648676
    24 0.089928 -8.543166 -0.000001 0.386094 0.122644 0.292059
    25 0.000000 -0.359714 0.000000 0.000000 0.000000 0.000000
    26 -0.170480 -2.636148 -0.277655 -1.787196 0.000000 0.000000
    27 0.010599 -1.261178 0.000001 -0.253073 0.000000 0.000000
    28 -0.000001 -0.943233 -0.000001 -0.532326 0.000000 0.000000
    29 -0.827564 -2.508974 -0.277656 -1.432907 0.000000 0.000000
    30 0.000000 -1.292971 0.000000 -0.554988 0.000000 0.000000
    31 0.000000 -0.752466 0.000000 -0.633551 0.000000 0.000000
    32 0.444213 -2.561961 -0.277656 -1.837245 -0.049654 -0.023029
    33 0.021021 -1.208186 0.000000 -0.427606 0.000000 0.000000
    34 0.010597 -0.741867 -0.000001 -0.453786 0.000000 0.000000
    35 1.047444 -2.222822 -0.277656 -1.801437 -0.095845 -0.030507
    36 0.000000 -0.996223 -0.000001 -0.549786 0.000000 0.000000
    37 -0.000001 -0.614690 0.000000 -0.523599 0.000000 0.000000
    38 -0.308254 -0.007814 0.307166 -0.129374 -0.297499 -2.570662
    39 1.978378 0.019543 0.000000 -0.093458 -0.047313 0.082472
    40 0.982426 0.003186 0.000000 0.000000 0.000000 0.425839
  time 10
    0 9.959509 4.963402 -4.868772 0.682409 -1.782234 -1.215288
    1 -0.001603 -8.561234 -0.002571 0.509234 0.326793 -0.593927
    2 -0.106493 -3.116304 0.835717 0.656020 1.697471 1.123747
    3 0.002267 1.323084 2.153839 -0.000010 -0.000007 -0.000008
    4 -0.002932 -2.226192 0.667907 -0.000011 0.000002 0.000000
    5 -0.002713 -0.744802 -0.000836 0.000000 -0.267004 -0.000002
    6 -0.001138 -5.702785 -1.087640 0.000001 0.000007 0.000008
    7 -0.003480 -0.404829 0.000000 0.000000 0.000000 0.000000
    8 -0.519309 -2.501155 -0.278958 -1.448623 0.000000 -0.122173
    9 -0.010598 -1.208185 -0.000001 -0.609135 0.000000 0.000000
    10 0.000000 -0.763066 0.000000 -1.192070 0.000000 0.000000
    11 0.105981 -2.607134 -0.278958 -1.476549 0.000000 -0.148353
    12 0.000000 -1.250579 0.000000 -0.684195 0.000000 0.000000
    13 0.000000 -0.932634 0.000000 -1.488764 0.000000 0.000000
    14 0.763064 -2.490556 -0.278958 -0.344835 0.055297 0.283572
    15 -0.012322 -1.280916 -0.000001 -0.322907 0.000000 0.000000
    16 -0.001697 -0.749371 0.000000 -0.593412 0.000000 0.000000
    17 0.354567 0.016267 0.318133 0.376749 -0.507429 -0.712448
    18 1.887165 0.012878 -0.000001 -0.292705 -0.088530 -0.686815
    19 1.001873 -0.000270 0.000001 0.000000 0.000000 -0.708597
    20 -1.123359 -2.195093 -0.278957 -1.337000 -0.006064 -0.061811
    21 0.010772 -0.963791 0.000001 -0.485233 0.000000 0.000000
    22 -0.010412 -0.631915 0.000000 -0.977401 0.000000 0.000000
    23 -1.640186 -6.029243 -7.475132 -0.380480 0.255020 0.648676
    24 0.089928 -8.543166 -0.000001 0.386094 0.122644 0.292059
    25 0.000000 -0.359714 0.000000 0.000000 0.000000 0.000000
    26 -0.170480 -2.636148 -0.277655 -1.787196 0.000000 0.000000
    27 0.010599 -1.261178 0.000001 -0.253073 0.000000 0.000000
    28 -0.000001 -0.943233 -0.000001 -0.532326 0.000000 0.000000
    29 -0.827564 -2.508974 -0.277656 -1.432907 0.000000 0.000000
    30 0.000000 -1.292971 0.000000 -0.554988 0.000000 0.000000
    31 0.000000 -0.752466 0.000000 -0.633551 0.000000 0.000000
    32 0.444213 -2.561961 -0.277656 -1.837245 -0.049654 -0.023029
    33 0.021021 -1.208186 0.000000 -0.427606 0.000000 0.000000
    34 0.010597 -0.741867 -0.000001 -0.453786 0.000000 0.000000
    35 1.047444 -2.222822 -0.277656 -1.801437 -0.095845 -0.030507
    36 0.000000 -0.996223 -0.000001 -0.549786 0.000000 0.000000
    37 -0.000001 -0.614690 0.000000 -0.523599 0.000000 0.000000
    38 -0.308254 -0.007814 0.307166 -0.129374 -0.297499 -2.570662
    39 1.978378 0.019543 0.000000 -0.093458 -0.047313 0.082472
    40 0.982426 0.003186 0.000000 0.000000 0.000000 0.425839
end
