version 1
nodes
  0 "root_lasersg" -1
  1 "Front" 0
  2 "megazine" 1
  3 "trigger" 0
  4 "reloader" 0
  5 "loof002" 1
  6 "loof003" 1
  7 "loof004" 1
  8 "loof005" 1
  9 "loof1" 1
  10 "loof0" 1
  11 "t22fxPlane_bone4" -1
  12 "t22fxPlane_bone007" -1
  13 "t22fxPlane_bone012" -1
  14 "t22fxPlane_bone013" -1
  15 "t22fxPlane_bone020" -1
  16 "t22fxPlane_bone019" -1
  17 "t22fxPlane_bone008" -1
  18 "t22fxPlane_bone1" -1
  19 "t22fxPlane_bone011" -1
  20 "t22fxPlane_bone016" -1
  21 "Bonelight1" -1
  22 "Bonelight2" 21
  23 "Bonelight003" -1
  24 "Bonelight004" 23
  25 "root" -1
  26 "Bone01" 25
  27 "Bone_L_Upper" 26
  28 "Bone_Lefthand" 26
  29 "Bone13" 28
  30 "Bone14" 29
  31 "Bone15" 30
  32 "Bone17" 28
  33 "Bone18" 32
  34 "Bone19" 33
  35 "Bone21" 28
  36 "Bone22" 35
  37 "Bone23" 36
  38 "Bone09" 28
  39 "Bone10" 38
  40 "Bone11" 39
  41 "Bone05" 28
  42 "Bone06" 41
  43 "Bone07" 42
  44 "Bone_Se_Hand-L" 28
  45 "Bone04" 25
  46 "Bone_Righthand" 45
  47 "Bone39" 46
  48 "Bone40" 47
  49 "Bone41" 48
  50 "Bone35" 46
  51 "Bone36" 50
  52 "Bone37" 51
  53 "Bone31" 46
  54 "Bone32" 53
  55 "Bone33" 54
  56 "Bone43" 46
  57 "Bone44" 56
  58 "Bone45" 57
  59 "Bone27" 46
  60 "Bone28" 59
  61 "Bone29" 60
  62 "Bone_Se_Hand-R" 46
  63 "Bone_R_Upper" 45
end
skeleton
  time 0
    0 0.019531 -5.194351 -11.588667 -0.828880 -1.533874 0.823356
    1 1.183468 -7.388521 0.000000 0.000001 -0.000001 -1.570796
    2 -0.553688 1.425632 0.000002 -0.342400 -3.141480 -0.000092
    3 1.649446 -0.129600 0.000000 -0.000011 0.000001 -2.879774
    4 3.278631 -0.133378 0.000000 -0.000001 0.000003 -0.698113
    5 10.043983 3.644464 -0.000006 0.000001 0.000001 1.047198
    6 11.271929 3.456956 -0.000008 0.000001 0.000001 0.959931
    7 12.453281 3.230389 -0.000010 0.000001 0.000001 0.872667
    8 14.060645 3.031166 -0.000011 0.000001 0.000001 0.785404
    9 8.009426 4.058537 -0.000004 0.000001 0.000001 1.047198
    10 7.624985 3.766183 -0.000003 0.000001 0.000001 1.328396
    11 -0.657306 -32.224231 -16.912672 0.000000 0.000000 1.570796
    12 -2.354289 -43.001271 -16.912672 0.000000 0.000000 1.894900
    13 1.743655 -41.894643 -16.912672 0.000000 0.000000 1.211838
    14 4.495836 -41.784605 -15.218154 0.000000 0.000000 0.872617
    15 -5.810943 -41.265490 -16.219297 0.000000 0.000000 2.268880
    16 116.767346 -168.214805 -21.519203 0.000000 0.000000 2.268880
    17 42.217711 -153.471509 -4.099728 0.000000 0.000000 1.894900
    18 -3.484021 -160.532741 -7.467694 0.000000 0.000000 1.570796
    19 -46.892025 -155.273712 -3.804136 0.000000 0.000000 1.211838
    20 -124.610135 -148.144299 -13.768401 0.000000 0.000000 0.872617
    21 -8.793137 -42.773115 -18.090638 2.419504 0.000000 -0.805064
    22 134.540892 0.000000 0.000000 0.000000 0.000000 0.000000
    23 10.969185 -42.773370 -18.090638 0.277094 3.141592 -5.527843
    24 110.389769 -0.000015 0.000015 0.000000 0.000000 0.000000
    25 0.317570 3.201958 -5.780807 -0.042401 -0.107873 0.244911
    26 6.075630 0.306026 -5.553839 4.141214 -1.361948 1.137508
    27 7.925352 -0.854896 -0.399814 -1.569376 -0.028165 -3.170050
    28 -0.064108 -8.518268 -0.100228 0.662644 0.409184 -0.363351
    29 -0.488518 -2.755602 -0.228260 -1.133236 -0.006039 -0.237956
    30 0.039887 -1.538386 0.018135 -1.722725 -0.009156 0.038651
    31 0.028786 -1.095263 -0.069985 -0.383577 -0.008233 0.006148
    32 0.250027 -2.820665 -0.238396 -0.988370 0.012983 -0.240501
    33 -0.049759 -1.594604 0.026258 -1.647162 -0.001678 -0.043542
    34 -0.034142 -1.156125 0.057437 -0.721429 0.008269 -0.017833
    35 0.957766 -2.746780 -0.090302 -0.100082 -0.057496 -0.007230
    36 -0.033420 -1.397129 -0.030789 -1.176887 -0.000563 -0.056664
    37 -0.022360 -0.965249 -0.008561 -1.106257 0.000875 -0.053236
    38 -1.180681 -2.507217 -0.193859 -1.164592 -0.000285 -0.267561
    39 -0.024967 -1.127840 0.017597 -1.469580 -0.008629 -0.059958
    40 -0.020057 -0.894874 0.013996 -0.359129 0.005920 -0.012200
    41 0.583510 -1.197277 0.181473 0.278506 -0.602299 -0.613030
    42 1.520302 -0.138196 0.044073 0.011765 -0.146727 -0.485045
    43 1.049988 -0.147821 0.032291 0.039845 -0.189814 -0.773094
    44 0.120153 -0.050270 -0.054489 0.287569 3.110905 1.561085
    45 -5.829532 -7.223508 -6.704613 0.310303 -4.620570 0.294152
    46 -0.149157 -8.372291 -0.001552 -0.983919 -1.073367 1.023015
    47 0.447953 -2.798986 -0.200443 -1.418860 0.028039 0.095764
    48 -0.032909 -1.499736 0.020565 -1.128332 0.021944 -0.019149
    49 -0.027022 -1.073014 -0.016304 0.139044 -0.003883 0.000216
    50 -0.249534 -2.846964 -0.174213 -1.175083 -0.020607 -0.002524
    51 0.043235 -1.660503 0.080387 -1.037715 -0.017023 0.001954
    52 0.031729 -1.160830 0.058838 0.057374 0.001553 0.009235
    53 -0.963866 -2.785145 -0.085350 -0.963064 0.138463 -0.098316
    54 0.028479 -1.406973 -0.021074 -1.038115 -0.028344 -0.035510
    55 0.021413 -0.957781 0.020046 -0.008050 -0.000084 -0.000527
    56 1.164475 -2.543940 -0.170330 -1.451468 0.031337 0.326238
    57 0.024032 -1.144668 -0.005631 -1.151669 0.017078 0.057923
    58 0.014898 -0.883989 -0.019848 0.054443 0.002253 -0.006064
    59 -0.586770 -1.264477 0.200161 -0.031930 -0.475637 -2.691387
    60 1.546273 0.039149 0.016848 -0.008369 -0.002544 0.491516
    61 1.117947 0.048424 -0.005766 0.001099 -0.023736 0.003583
    62 -0.139399 -0.111698 0.014397 0.588245 0.035396 1.416810
    63 -6.956140 5.139845 -0.407407 1.577628 -0.026475 -0.731537
  time 1
    0 0.570329 -5.436546 -11.358191 -0.247039 -1.487991 0.212426
    1 1.183468 -7.388521 0.000000 0.000001 -0.000001 -1.570796
    2 -0.553688 1.425632 0.000002 -0.728831 -3.141480 -0.000092
    3 1.649446 -0.129600 0.000000 -0.000011 0.000001 -2.879774
    4 3.278631 -0.133378 0.000000 -0.000001 0.000003 -0.698113
    5 10.043983 3.644464 -0.000006 0.000001 0.000001 1.047198
    6 11.271929 3.456956 -0.000008 0.000001 0.000001 0.959931
    7 12.453281 3.230389 -0.000010 0.000001 0.000001 0.872667
    8 14.060645 3.031166 -0.000011 0.000001 0.000001 0.785404
    9 7.622695 3.980410 -0.000004 0.000001 0.000001 1.085995
    10 6.570265 3.578677 -0.000003 0.000001 0.000001 1.376873
    11 -0.657306 -29.474147 -16.912672 0.000000 0.000000 1.570796
    12 -1.819116 -44.598976 -16.912672 0.000000 0.000000 1.894900
    13 1.208482 -43.324374 -16.912672 0.000000 0.000000 1.211838
    14 3.370802 -43.120583 -15.488383 0.000000 0.000000 0.872617
    15 -4.553092 -42.761630 -16.219297 0.000000 0.000000 2.268880
    16 59.480050 -99.947094 -17.220663 0.000000 0.000000 2.268880
    17 19.644015 -86.292624 -4.099728 0.000000 0.000000 1.894900
    18 -3.484021 -105.327667 0.375743 0.000000 0.000000 1.570796
    19 -21.992827 -88.917594 -3.804136 0.000000 0.000000 1.211838
    20 -57.740907 -83.791391 -7.081917 0.000000 0.000000 0.872617
    21 -8.793137 -42.773115 -18.090638 2.419504 0.000000 -0.805064
    22 -0.000031 0.000000 0.000000 0.000000 0.000000 0.000000
    23 10.969185 -42.773370 -18.090638 0.277094 3.141592 -5.527843
    24 0.000000 -0.000015 0.000015 0.000000 0.000000 0.000000
    25 0.317570 3.127737 -5.749556 -0.042401 -0.107873 0.244911
    26 6.419390 0.388060 -5.518681 4.070593 -1.345421 1.283554
    27 7.819880 -1.315848 -0.403721 -1.568429 -0.028956 -3.227752
    28 -0.044576 -8.502643 -0.088509 0.537618 0.455585 -0.375061
    29 -0.488518 -2.755602 -0.228260 -1.133236 -0.006039 -0.237956
    30 0.039887 -1.538386 0.018135 -1.722725 -0.009156 0.038651
    31 0.028786 -1.095263 -0.069985 -0.383577 -0.008233 0.006148
    32 0.250027 -2.820665 -0.238396 -0.988370 0.012983 -0.240501
    33 -0.049759 -1.594604 0.026258 -1.647162 -0.001678 -0.043542
    34 -0.034142 -1.156125 0.057437 -0.721429 0.008269 -0.017833
    35 0.957766 -2.746780 -0.090302 -0.100082 -0.057496 -0.007230
    36 -0.033420 -1.397129 -0.030789 -1.176887 -0.000563 -0.056664
    37 -0.022360 -0.965249 -0.008561 -1.106257 0.000875 -0.053236
    38 -1.180681 -2.507217 -0.193859 -1.164592 -0.000285 -0.267561
    39 -0.024967 -1.127840 0.017597 -1.469580 -0.008629 -0.059958
    40 -0.020057 -0.894874 0.013996 -0.359129 0.005920 -0.012200
    41 0.583510 -1.197277 0.181473 0.278506 -0.602299 -0.613030
    42 1.520302 -0.138196 0.044073 0.011765 -0.146727 -0.485045
    43 1.049988 -0.147821 0.032291 0.039845 -0.189814 -0.773094
    44 0.120153 -0.050270 -0.054489 0.287569 3.110905 1.561085
    45 -5.708435 -7.418827 -6.579609 0.421195 -4.629849 0.420168
    46 -0.137438 -8.384010 0.010167 -0.820389 -1.069570 0.906036
    47 0.447953 -2.798986 -0.200443 -1.418860 0.028039 0.095764
    48 -0.032909 -1.499736 0.020565 -1.128332 0.021944 -0.019149
    49 -0.027022 -1.073014 -0.016304 0.139044 -0.003883 0.000216
    50 -0.249534 -2.846964 -0.174213 -1.175083 -0.020607 -0.002524
    51 0.043235 -1.660503 0.080387 -1.037715 -0.017023 0.001954
    52 0.031729 -1.160830 0.058838 0.057374 0.001553 0.009235
    53 -0.963866 -2.785145 -0.085350 -0.963064 0.138463 -0.098316
    54 0.028479 -1.406973 -0.021074 -1.038115 -0.028344 -0.035510
    55 0.021413 -0.957781 0.020046 -0.008050 -0.000084 -0.000527
    56 1.164475 -2.543940 -0.170330 -1.451468 0.031337 0.326238
    57 0.024032 -1.144668 -0.005631 -1.151669 0.017078 0.057923
    58 0.014898 -0.883989 -0.019848 0.054443 0.002253 -0.006064
    59 -0.586770 -1.264477 0.200161 -0.031930 -0.475637 -2.691387
    60 1.546273 0.039149 0.016848 -0.008369 -0.002544 0.491516
    61 1.117947 0.048424 -0.005766 0.001099 -0.023736 0.003583
    62 -0.139399 -0.111698 0.014397 0.588245 0.035396 1.416810
    63 -6.803791 5.374228 -0.403501 1.578095 -0.025708 -0.765527
  time 2
    0 1.304726 -5.667021 -10.936303 -0.153397 -1.421606 0.074336
    1 1.183468 -7.388521 0.000000 0.000001 -0.000001 -1.570796
    2 -0.553688 1.425632 0.000002 -1.140371 -3.141480 -0.000092
    3 1.649446 -0.129600 0.000000 -0.000011 0.000001 -2.879774
    4 3.278631 -0.133378 0.000000 -0.000001 0.000003 -0.698113
    5 9.731473 3.601494 -0.000006 0.000001 0.000001 1.085995
    6 11.271929 3.456956 -0.000008 0.000001 0.000001 0.959931
    7 12.453281 3.230389 -0.000010 0.000001 0.000001 0.872667
    8 14.060645 3.031166 -0.000011 0.000001 0.000001 0.785404
    9 6.653916 3.792904 -0.000004 0.000001 0.000001 1.182955
    10 5.199130 3.328669 -0.000003 0.000001 0.000001 1.439900
    11 -0.657306 -28.228015 -16.912672 0.000000 0.000000 1.570796
    12 -1.631610 -45.157587 -16.912672 0.000000 0.000000 1.894900
    13 1.032696 -43.793139 -16.912672 0.000000 0.000000 1.211838
    14 2.995790 -43.565909 -16.011682 0.000000 0.000000 0.872617
    15 -4.092140 -43.312428 -16.219297 0.000000 0.000000 2.268880
    16 28.641610 -63.192887 -14.905715 0.000000 0.000000 2.268880
    17 7.487903 -50.117007 -4.099728 0.000000 0.000000 1.894900
    18 -3.484021 -82.837638 4.594876 0.000000 0.000000 1.570796
    19 -8.586168 -53.188027 -3.804136 0.000000 0.000000 1.211838
    20 -21.735902 -49.142307 -3.483662 0.000000 0.000000 0.872617
    21 -8.793137 -42.773115 -18.090638 2.419504 0.000000 -0.805064
    22 -0.000031 0.000000 0.000000 0.000000 0.000000 0.000000
    23 10.969185 -42.773370 -18.090638 0.277094 3.141592 -5.527843
    24 0.000000 -0.000015 0.000015 0.000000 0.000000 0.000000
    25 0.317570 3.014452 -5.706586 -0.042401 -0.107873 0.244911
    26 6.872529 0.548221 -5.436648 3.979274 -1.314737 1.475466
    27 7.636281 -1.929148 -0.407627 -1.567063 -0.029963 -3.306555
    28 -0.021138 -8.487017 -0.080696 0.362042 0.514760 -0.402779
    29 -0.488518 -2.755602 -0.228260 -1.133236 -0.006039 -0.237956
    30 0.039887 -1.538386 0.018135 -1.722725 -0.009156 0.038651
    31 0.028786 -1.095263 -0.069985 -0.383577 -0.008233 0.006148
    32 0.250027 -2.820665 -0.238396 -0.988370 0.012983 -0.240501
    33 -0.049759 -1.594604 0.026258 -1.647162 -0.001678 -0.043542
    34 -0.034142 -1.156125 0.057437 -0.721429 0.008269 -0.017833
    35 0.957766 -2.746780 -0.090302 -0.100082 -0.057496 -0.007230
    36 -0.033420 -1.397129 -0.030789 -1.176887 -0.000563 -0.056664
    37 -0.022360 -0.965249 -0.008561 -1.106257 0.000875 -0.053236
    38 -1.180681 -2.507217 -0.193859 -1.164592 -0.000285 -0.267561
    39 -0.024967 -1.127840 0.017597 -1.469580 -0.008629 -0.059958
    40 -0.020057 -0.894874 0.013996 -0.359129 0.005920 -0.012200
    41 0.583510 -1.197277 0.181473 0.278506 -0.602299 -0.613030
    42 1.520302 -0.138196 0.044073 0.011765 -0.146727 -0.485045
    43 1.049988 -0.147821 0.032291 0.039845 -0.189814 -0.773094
    44 0.120153 -0.050270 -0.054489 0.287569 3.110905 1.561085
    45 -5.532648 -7.575081 -6.442886 0.886502 -4.622532 0.906269
    46 -0.125719 -8.399636 0.021886 -0.605209 -1.053784 0.771156
    47 0.447953 -2.798986 -0.200443 -1.418860 0.028039 0.095764
    48 -0.032909 -1.499736 0.020565 -1.128332 0.021944 -0.019149
    49 -0.027022 -1.073014 -0.016304 0.139044 -0.003883 0.000216
    50 -0.249534 -2.846964 -0.174213 -1.175083 -0.020607 -0.002524
    51 0.043235 -1.660503 0.080387 -1.037715 -0.017023 0.001954
    52 0.031729 -1.160830 0.058838 0.057374 0.001553 0.009235
    53 -0.963866 -2.785145 -0.085350 -0.963064 0.138463 -0.098316
    54 0.028479 -1.406973 -0.021074 -1.038115 -0.028344 -0.035510
    55 0.021413 -0.957781 0.020046 -0.008050 -0.000084 -0.000527
    56 1.164475 -2.543940 -0.170330 -1.451468 0.031337 0.326238
    57 0.024032 -1.144668 -0.005631 -1.151669 0.017078 0.057923
    58 0.014898 -0.883989 -0.019848 0.054443 0.002253 -0.006064
    59 -0.586770 -1.264477 0.200161 -0.031930 -0.475637 -2.691387
    60 1.546273 0.039149 0.016848 -0.008369 -0.002544 0.491516
    61 1.117947 0.048424 -0.005766 0.001099 -0.023736 0.003583
    62 -0.139399 -0.111698 0.014397 0.588245 0.035396 1.416810
    63 -6.811604 5.358602 -0.403501 1.578072 -0.025756 -0.763416
  time 3
    0 2.074281 -5.788119 -10.365973 -0.181805 -1.361320 0.048083
    1 1.183468 -7.388521 0.000000 0.000001 -0.000001 -1.570796
    2 -0.553688 1.425632 0.000002 -1.558187 -3.141480 -0.000092
    3 1.649446 -0.129600 0.000000 -0.000011 0.000001 -2.879774
    4 3.278631 -0.133378 0.000000 -0.000001 0.000003 -0.698113
    5 8.954106 3.484303 -0.000006 0.000001 0.000001 1.182955
    6 11.041453 3.425705 -0.000008 0.000001 0.000001 1.005194
    7 12.453281 3.230389 -0.000010 0.000001 0.000001 0.872667
    8 14.060645 3.031166 -0.000011 0.000001 0.000001 0.785404
    9 5.399971 3.542896 -0.000004 0.000001 0.000001 1.308997
    10 3.827994 3.082568 -0.000003 0.000001 0.000001 1.502927
    11 -0.657306 -28.228015 -185.469579 0.000000 0.000000 1.570796
    12 -1.631610 -45.157587 -185.469579 0.000000 0.000000 1.894900
    13 1.032696 -43.793139 -185.469579 0.000000 0.000000 1.211838
    14 2.995790 -43.565909 -184.561233 0.000000 0.000000 0.872617
    15 -4.092140 -43.312428 -184.776204 0.000000 0.000000 2.268880
    16 28.641610 -63.192887 -183.461155 0.000000 0.000000 2.268880
    17 7.487903 -50.117007 -172.652379 0.000000 0.000000 1.894900
    18 -3.484021 -82.837638 -163.958339 0.000000 0.000000 1.570796
    19 -8.586168 -53.188027 -172.361043 0.000000 0.000000 1.211838
    20 -21.735902 -49.142307 -172.035465 0.000000 0.000000 0.872617
    21 -8.793137 -42.773115 -18.090638 2.419504 0.000000 -0.805064
    22 -0.000031 0.000000 0.000000 0.000000 0.000000 0.000000
    23 10.969185 -42.773370 -18.090638 0.277094 3.141592 -5.527843
    24 0.000000 -0.000015 0.000015 0.000000 0.000000 0.000000
    25 0.317570 2.869916 -5.647991 -0.042401 -0.107873 0.244911
    26 7.325668 0.778697 -5.307737 0.751679 -1.870319 -1.473961
    27 7.378461 -2.577605 -0.415440 -1.565493 -0.030922 -3.392103
    28 0.006206 -8.459673 -0.072883 0.163738 0.571027 -0.447447
    29 -0.488518 -2.755602 -0.228260 -1.133236 -0.006039 -0.237956
    30 0.039887 -1.538386 0.018135 -1.722725 -0.009156 0.038651
    31 0.028786 -1.095263 -0.069985 -0.383577 -0.008233 0.006148
    32 0.250027 -2.820665 -0.238396 -0.988370 0.012983 -0.240501
    33 -0.049759 -1.594604 0.026258 -1.647162 -0.001678 -0.043542
    34 -0.034142 -1.156125 0.057437 -0.721429 0.008269 -0.017833
    35 0.957766 -2.746780 -0.090302 -0.100082 -0.057496 -0.007230
    36 -0.033420 -1.397129 -0.030789 -1.176887 -0.000563 -0.056664
    37 -0.022360 -0.965249 -0.008561 -1.106257 0.000875 -0.053236
    38 -1.180681 -2.507217 -0.193859 -1.164592 -0.000285 -0.267561
    39 -0.024967 -1.127840 0.017597 -1.469580 -0.008629 -0.059958
    40 -0.020057 -0.894874 0.013996 -0.359129 0.005920 -0.012200
    41 0.583510 -1.197277 0.181473 0.278506 -0.602299 -0.613030
    42 1.520302 -0.138196 0.044073 0.011765 -0.146727 -0.485045
    43 1.049988 -0.147821 0.032291 0.039845 -0.189814 -0.773094
    44 0.120153 -0.050270 -0.054489 0.287569 3.110905 1.561085
    45 -5.329517 -7.614145 -6.356946 1.321137 -4.568669 1.364186
    46 -0.114000 -8.415261 0.033605 -0.389139 -1.027757 0.659569
    47 0.447953 -2.798986 -0.200443 -1.418860 0.028039 0.095764
    48 -0.032909 -1.499736 0.020565 -1.128332 0.021944 -0.019149
    49 -0.027022 -1.073014 -0.016304 0.139044 -0.003883 0.000216
    50 -0.249534 -2.846964 -0.174213 -1.175083 -0.020607 -0.002524
    51 0.043235 -1.660503 0.080387 -1.037715 -0.017023 0.001954
    52 0.031729 -1.160830 0.058838 0.057374 0.001553 0.009235
    53 -0.963866 -2.785145 -0.085350 -0.963064 0.138463 -0.098316
    54 0.028479 -1.406973 -0.021074 -1.038115 -0.028344 -0.035510
    55 0.021413 -0.957781 0.020046 -0.008050 -0.000084 -0.000527
    56 1.164475 -2.543940 -0.170330 -1.451468 0.031337 0.326238
    57 0.024032 -1.144668 -0.005631 -1.151669 0.017078 0.057923
    58 0.014898 -0.883989 -0.019848 0.054443 0.002253 -0.006064
    59 -0.586770 -1.264477 0.200161 -0.031930 -0.475637 -2.691387
    60 1.546273 0.039149 0.016848 -0.008369 -0.002544 0.491516
    61 1.117947 0.048424 -0.005766 0.001099 -0.023736 0.003583
    62 -0.139399 -0.111698 0.014397 0.588245 0.035396 1.416810
    63 -7.073331 4.952340 -0.411313 1.577233 -0.027075 -0.704836
  time 4
    0 2.738364 -5.795932 -9.768299 -0.237283 -1.320973 0.049126
    1 1.183468 -7.388521 0.000000 0.000001 -0.000001 -1.570796
    2 -0.553688 1.425632 0.000002 1.178072 -0.000016 -3.141588
    3 1.649446 -0.129600 0.000000 -0.000011 0.000001 -2.879774
    4 3.278631 -0.133378 0.000000 -0.000001 0.000003 -0.698113
    5 7.938450 3.335861 -0.000006 0.000001 0.000001 1.308997
    6 10.467217 3.343672 -0.000008 0.000001 0.000001 1.118314
    7 12.289213 3.214763 -0.000010 0.000001 0.000001 0.924391
    8 14.060645 3.031166 -0.000011 0.000001 0.000001 0.785404
    9 4.146027 3.296795 -0.000004 0.000001 0.000001 1.435055
    10 2.773275 2.891156 -0.000003 0.000001 0.000001 1.551405
    11 -0.657306 -28.228015 -185.469579 0.000000 0.000000 1.570796
    12 -1.631610 -45.157587 -185.469579 0.000000 0.000000 1.894900
    13 1.032696 -43.793139 -185.469579 0.000000 0.000000 1.211838
    14 2.995790 -43.565909 -184.561233 0.000000 0.000000 0.872617
    15 -4.092140 -43.312428 -184.776204 0.000000 0.000000 2.268880
    16 28.641610 -63.192887 -183.461155 0.000000 0.000000 2.268880
    17 7.487903 -50.117007 -172.652379 0.000000 0.000000 1.894900
    18 -3.484021 -82.837638 -163.958339 0.000000 0.000000 1.570796
    19 -8.586168 -53.188027 -172.361043 0.000000 0.000000 1.211838
    20 -21.735902 -49.142307 -172.035465 0.000000 0.000000 0.872617
    21 -8.793137 -42.773115 -18.090638 2.419504 0.000000 -0.805064
    22 -0.000031 0.000000 0.000000 0.000000 0.000000 0.000000
    23 10.969185 -42.773370 -18.090638 0.277094 3.141592 -5.527843
    24 0.000000 -0.000015 0.000015 0.000000 0.000000 0.000000
    25 0.317570 2.701942 -5.581582 -0.042401 -0.107873 0.244911
    26 7.696773 1.040423 -5.159295 0.687190 -1.919134 -1.315103
    27 7.101108 -3.147935 -0.419346 -1.563994 -0.031689 -3.470187
    28 0.025738 -8.436234 -0.076789 -0.023248 0.611826 -0.499896
    29 -0.488518 -2.755602 -0.228260 -1.133236 -0.006039 -0.237956
    30 0.039887 -1.538386 0.018135 -1.722725 -0.009156 0.038651
    31 0.028786 -1.095263 -0.069985 -0.383577 -0.008233 0.006148
    32 0.250027 -2.820665 -0.238396 -0.988370 0.012983 -0.240501
    33 -0.049759 -1.594604 0.026258 -1.647162 -0.001678 -0.043542
    34 -0.034142 -1.156125 0.057437 -0.721429 0.008269 -0.017833
    35 0.957766 -2.746780 -0.090302 -0.100082 -0.057496 -0.007230
    36 -0.033420 -1.397129 -0.030789 -1.176887 -0.000563 -0.056664
    37 -0.022360 -0.965249 -0.008561 -1.106257 0.000875 -0.053236
    38 -1.180681 -2.507217 -0.193859 -1.164592 -0.000285 -0.267561
    39 -0.024967 -1.127840 0.017597 -1.469580 -0.008629 -0.059958
    40 -0.020057 -0.894874 0.013996 -0.359129 0.005920 -0.012200
    41 0.583510 -1.197277 0.181473 0.278506 -0.602299 -0.613030
    42 1.520302 -0.138196 0.044073 0.011765 -0.146727 -0.485045
    43 1.049988 -0.147821 0.032291 0.039845 -0.189814 -0.773094
    44 0.120153 -0.050270 -0.054489 0.287569 3.110905 1.561085
    45 -5.138105 -7.555550 -6.321789 1.497390 -4.489685 1.563576
    46 -0.102281 -8.434793 0.045324 -0.209830 -1.001631 0.584042
    47 0.447953 -2.798986 -0.200443 -1.418860 0.028039 0.095764
    48 -0.032909 -1.499736 0.020565 -1.128332 0.021944 -0.019149
    49 -0.027022 -1.073014 -0.016304 0.139044 -0.003883 0.000216
    50 -0.249534 -2.846964 -0.174213 -1.175083 -0.020607 -0.002524
    51 0.043235 -1.660503 0.080387 -1.037715 -0.017023 0.001954
    52 0.031729 -1.160830 0.058838 0.057374 0.001553 0.009235
    53 -0.963866 -2.785145 -0.085350 -0.963064 0.138463 -0.098316
    54 0.028479 -1.406973 -0.021074 -1.038115 -0.028344 -0.035510
    55 0.021413 -0.957781 0.020046 -0.008050 -0.000084 -0.000527
    56 1.164475 -2.543940 -0.170330 -1.451468 0.031337 0.326238
    57 0.024032 -1.144668 -0.005631 -1.151669 0.017078 0.057923
    58 0.014898 -0.883989 -0.019848 0.054443 0.002253 -0.006064
    59 -0.586770 -1.264477 0.200161 -0.031930 -0.475637 -2.691387
    60 1.546273 0.039149 0.016848 -0.008369 -0.002544 0.491516
    61 1.117947 0.048424 -0.005766 0.001099 -0.023736 0.003583
    62 -0.139399 -0.111698 0.014397 0.588245 0.035396 1.416810
    63 -7.424904 4.296070 -0.426939 1.575794 -0.029028 -0.614105
  time 5
    0 3.214941 -5.803744 -9.299534 -0.288169 -1.305069 0.061447
    1 1.183468 -7.388521 0.000000 0.000001 -0.000001 -1.570796
    2 -0.553688 1.425632 0.000002 0.804243 -0.000016 -3.141588
    3 1.649446 -0.129600 0.000000 -0.000011 0.000001 -2.879774
    4 3.278631 -0.133378 0.000000 -0.000001 0.000003 -0.698113
    5 6.926700 3.187419 -0.000006 0.000001 0.000001 1.435055
    6 9.725007 3.242106 -0.000008 0.000001 0.000001 1.265382
    7 11.882951 3.179606 -0.000010 0.000001 0.000001 1.053677
    8 13.959080 3.031166 -0.000011 0.000001 0.000001 0.843594
    9 3.177247 3.105383 -0.000004 0.000001 0.000001 1.532015
    10 2.355293 2.816935 -0.000003 0.000001 0.000001 1.570796
    11 -0.657306 -28.228015 -185.469579 0.000000 0.000000 1.570796
    12 -1.631610 -45.157587 -185.469579 0.000000 0.000000 1.894900
    13 1.032696 -43.793139 -185.469579 0.000000 0.000000 1.211838
    14 2.995790 -43.565909 -184.561233 0.000000 0.000000 0.872617
    15 -4.092140 -43.312428 -184.776204 0.000000 0.000000 2.268880
    16 28.641610 -63.192887 -183.461155 0.000000 0.000000 2.268880
    17 7.487903 -50.117007 -172.652379 0.000000 0.000000 1.894900
    18 -3.484021 -82.837638 -163.958339 0.000000 0.000000 1.570796
    19 -8.586168 -53.188027 -172.361043 0.000000 0.000000 1.211838
    20 -21.735902 -49.142307 -172.035465 0.000000 0.000000 0.872617
    21 -8.793137 -42.773115 -18.090638 2.419504 0.000000 -0.805064
    22 -0.000031 0.000000 0.000000 0.000000 0.000000 0.000000
    23 10.969185 -42.773370 -18.090638 0.277094 3.141592 -5.527843
    24 0.000000 -0.000015 0.000015 0.000000 0.000000 0.000000
    25 0.317570 2.514437 -5.507361 -0.042401 -0.107873 0.244911
    26 7.942874 1.255274 -5.030385 0.647328 -1.959650 -1.206937
    27 6.870633 -3.542478 -0.423252 -1.562892 -0.032156 -3.526454
    28 0.041364 -8.416703 -0.080696 -0.157886 0.631224 -0.541865
    29 -0.488518 -2.755602 -0.228260 -1.133236 -0.006039 -0.237956
    30 0.039887 -1.538386 0.018135 -1.722725 -0.009156 0.038651
    31 0.028786 -1.095263 -0.069985 -0.383577 -0.008233 0.006148
    32 0.250027 -2.820665 -0.238396 -0.988370 0.012983 -0.240489
    33 -0.049759 -1.594604 0.026258 -1.647162 -0.001678 -0.043542
    34 -0.034142 -1.156125 0.057437 -0.721429 0.008269 -0.017833
    35 0.957766 -2.746780 -0.090302 -0.100082 -0.057496 -0.007230
    36 -0.033420 -1.397129 -0.030789 -1.176887 -0.000563 -0.056664
    37 -0.022360 -0.965249 -0.008561 -1.106257 0.000875 -0.053236
    38 -1.180681 -2.507217 -0.193859 -1.164592 -0.000285 -0.267561
    39 -0.024967 -1.127840 0.017597 -1.469580 -0.008629 -0.059958
    40 -0.020057 -0.894874 0.013996 -0.359129 0.005920 -0.012200
    41 0.583510 -1.197277 0.181473 0.278506 -0.602299 -0.613030
    42 1.520302 -0.138196 0.044073 0.011765 -0.146727 -0.485045
    43 1.049988 -0.147821 0.032291 0.039845 -0.189814 -0.773094
    44 0.120153 -0.050270 -0.054489 0.287569 3.110905 1.561085
    45 -4.985757 -7.489141 -6.306163 -1.581397 -4.997537 -1.493855
    46 -0.094468 -8.446512 0.049231 -0.090260 -0.986844 0.535216
    47 0.447953 -2.798986 -0.200443 -1.418860 0.028039 0.095764
    48 -0.032909 -1.499736 0.020565 -1.128332 0.021944 -0.019149
    49 -0.027022 -1.073014 -0.016304 0.139044 -0.003883 0.000216
    50 -0.249534 -2.846964 -0.174213 -1.175083 -0.020607 -0.002524
    51 0.043235 -1.660503 0.080387 -1.037715 -0.017023 0.001954
    52 0.031729 -1.160830 0.058838 0.057374 0.001553 0.009235
    53 -0.963866 -2.785145 -0.085350 -0.963064 0.138463 -0.098316
    54 0.028479 -1.406973 -0.021074 -1.038115 -0.028344 -0.035510
    55 0.021413 -0.957781 0.020046 -0.008050 -0.000084 -0.000527
    56 1.164475 -2.543940 -0.170330 -1.451468 0.031337 0.326238
    57 0.024032 -1.144668 -0.005631 -1.151669 0.017078 0.057923
    58 0.014898 -0.883989 -0.019848 0.054443 0.002253 -0.006064
    59 -0.586770 -1.264477 0.200161 -0.031930 -0.475637 -2.691387
    60 1.546273 0.039149 0.016848 -0.008369 -0.002544 0.491516
    61 1.117947 0.048424 -0.005766 0.001099 -0.023736 0.003583
    62 -0.139399 -0.111698 0.014397 0.588245 0.035396 1.416810
    63 -7.663193 3.749178 -0.434751 1.574524 -0.030478 -0.542106
  time 6
    0 3.550889 -5.948280 -9.029995 -0.339820 -1.313115 0.106560
    1 1.183468 -7.388521 0.000000 0.000001 -0.000001 -1.570796
    2 -0.553688 1.425632 0.000002 0.480632 -0.000016 -3.141588
    3 1.649446 -0.129600 0.000000 -0.000011 0.000001 -2.879774
    4 3.278631 -0.133378 0.000000 -0.000001 0.000003 -0.698113
    5 6.145426 3.074134 -0.000006 0.000001 0.000001 1.532015
    6 8.978890 3.140540 -0.000008 0.000001 0.000001 1.412431
    7 11.355591 3.128823 -0.000010 0.000001 0.000001 1.221744
    8 13.701259 3.031166 -0.000011 0.000001 0.000001 0.989029
    9 2.794423 3.031162 -0.000004 0.000001 0.000001 1.570796
    10 2.355293 2.816935 -0.000003 0.000001 0.000001 1.570796
    11 -0.657306 -28.228015 -185.469579 0.000000 0.000000 1.570796
    12 -1.631610 -45.157587 -185.469579 0.000000 0.000000 1.894900
    13 1.032696 -43.793139 -185.469579 0.000000 0.000000 1.211838
    14 2.995790 -43.565909 -184.561233 0.000000 0.000000 0.872617
    15 -4.092140 -43.312428 -184.776204 0.000000 0.000000 2.268880
    16 28.641610 -63.192887 -183.461155 0.000000 0.000000 2.268880
    17 7.487903 -50.117007 -172.652379 0.000000 0.000000 1.894900
    18 -3.484021 -82.837638 -163.958339 0.000000 0.000000 1.570796
    19 -8.586168 -53.188027 -172.361043 0.000000 0.000000 1.211838
    20 -21.735902 -49.142307 -172.035465 0.000000 0.000000 0.872617
    21 -8.793137 -42.773115 -18.090638 2.419504 0.000000 -0.805064
    22 -0.000031 0.000000 0.000000 0.000000 0.000000 0.000000
    23 10.969185 -42.773370 -18.090638 0.277094 3.141592 -5.527843
    24 0.000000 -0.000015 0.000015 0.000000 0.000000 0.000000
    25 0.317570 2.315212 -5.429234 -0.042401 -0.107873 0.244911
    26 8.052253 1.360746 -4.963977 0.627301 -1.982593 -1.148259
    27 6.761254 -3.714359 -0.423252 -1.562389 -0.032348 -3.551358
    28 0.045270 -8.408890 -0.084602 -0.210027 0.629219 -0.556929
    29 -0.488518 -2.755602 -0.228260 -1.133236 -0.006039 -0.237956
    30 0.039887 -1.538386 0.018135 -1.722725 -0.009156 0.038651
    31 0.028786 -1.095263 -0.069985 -0.383577 -0.008233 0.006148
    32 0.250027 -2.820665 -0.238396 -0.988370 0.012983 -0.240489
    33 -0.049759 -1.594604 0.026258 -1.647162 -0.001678 -0.043542
    34 -0.034142 -1.156125 0.057437 -0.721429 0.008269 -0.017833
    35 0.957766 -2.746780 -0.090302 -0.100082 -0.057496 -0.007230
    36 -0.033420 -1.397129 -0.030789 -1.176887 -0.000563 -0.056664
    37 -0.022360 -0.965249 -0.008561 -1.106257 0.000875 -0.053236
    38 -1.180681 -2.507217 -0.193859 -1.164592 -0.000285 -0.267561
    39 -0.024967 -1.127840 0.017597 -1.469580 -0.008629 -0.059958
    40 -0.020057 -0.894874 0.013996 -0.359129 0.005920 -0.012200
    41 0.583510 -1.197277 0.181473 0.278506 -0.602299 -0.613030
    42 1.520302 -0.138196 0.044073 0.011765 -0.146727 -0.485045
    43 1.049988 -0.147821 0.032291 0.039845 -0.189814 -0.773094
    44 0.120153 -0.050270 -0.054489 0.287569 3.110905 1.561085
    45 -4.841221 -7.559456 -6.224129 -1.555393 -5.015491 -1.443411
    46 -0.090562 -8.450418 0.049231 -0.037454 -0.989841 0.493562
    47 0.447953 -2.798986 -0.200443 -1.418860 0.028039 0.095764
    48 -0.032909 -1.499736 0.020565 -1.128332 0.021944 -0.019149
    49 -0.027022 -1.073014 -0.016304 0.139044 -0.003883 0.000216
    50 -0.249534 -2.846964 -0.174213 -1.175083 -0.020607 -0.002524
    51 0.043235 -1.660503 0.080387 -1.037715 -0.017023 0.001954
    52 0.031729 -1.160830 0.058838 0.057374 0.001553 0.009235
    53 -0.963866 -2.785145 -0.085350 -0.963064 0.138463 -0.098316
    54 0.028479 -1.406973 -0.021074 -1.038115 -0.028344 -0.035510
    55 0.021413 -0.957781 0.020046 -0.008050 -0.000084 -0.000527
    56 1.164475 -2.543940 -0.170330 -1.451468 0.031337 0.326238
    57 0.024032 -1.144668 -0.005631 -1.151669 0.017078 0.057923
    58 0.014898 -0.883989 -0.019848 0.054443 0.002253 -0.006064
    59 -0.586770 -1.264477 0.200161 -0.031930 -0.475637 -2.691387
    60 1.546273 0.039149 0.016848 -0.008369 -0.002544 0.491516
    61 1.117947 0.048424 -0.005766 0.001099 -0.023736 0.003583
    62 -0.139399 -0.111698 0.014397 0.588245 0.035396 1.416810
    63 -7.655380 3.772616 -0.434751 1.574572 -0.030418 -0.544831
  time 7
    0 3.836054 -6.221726 -8.908897 -0.407062 -1.336878 0.193471
    1 1.183468 -7.388521 0.000000 0.000001 -0.000001 -1.570796
    2 -0.553688 1.425632 0.000002 0.226166 -0.000016 -3.141588
    3 1.649446 -0.129600 0.000000 -0.000011 0.000001 -2.879774
    4 3.278631 -0.133378 0.000000 -0.000001 0.000003 -0.698113
    5 5.836823 3.031164 -0.000006 0.000001 0.000001 1.570796
    6 8.404654 3.062413 -0.000008 0.000001 0.000001 1.525552
    7 10.824325 3.081947 -0.000010 0.000001 0.000001 1.389810
    8 13.369218 3.031166 -0.000011 0.000001 0.000001 1.178113
    9 2.794423 3.031162 -0.000004 0.000001 0.000001 1.570796
    10 2.355293 2.816935 -0.000003 0.000001 0.000001 1.570796
    11 -0.657306 -28.228015 -185.469579 0.000000 0.000000 1.570796
    12 -1.631610 -45.157587 -185.469579 0.000000 0.000000 1.894900
    13 1.032696 -43.793139 -185.469579 0.000000 0.000000 1.211838
    14 2.995790 -43.565909 -184.561233 0.000000 0.000000 0.872617
    15 -4.092140 -43.312428 -184.776204 0.000000 0.000000 2.268880
    16 28.641610 -63.192887 -183.461155 0.000000 0.000000 2.268880
    17 7.487903 -50.117007 -172.652379 0.000000 0.000000 1.894900
    18 -3.484021 -82.837638 -163.958339 0.000000 0.000000 1.570796
    19 -8.586168 -53.188027 -172.361043 0.000000 0.000000 1.211838
    20 -21.735902 -49.142307 -172.035465 0.000000 0.000000 0.872617
    21 -8.793137 -42.773115 -18.090638 2.419504 0.000000 -0.805064
    22 -0.000031 0.000000 0.000000 0.000000 0.000000 0.000000
    23 10.969185 -42.773370 -18.090638 0.277094 3.141592 -5.527843
    24 0.000000 -0.000015 0.000015 0.000000 0.000000 0.000000
    25 0.317570 2.112081 -5.351107 -0.042401 -0.107873 0.244911
    26 8.079597 1.384184 -4.944445 0.617527 -1.991659 -1.118177
    27 6.749535 -3.737797 -0.423252 -1.562329 -0.032372 -3.554516
    28 0.037457 -8.408890 -0.084602 -0.201221 0.612259 -0.550903
    29 -0.488518 -2.755602 -0.228260 -1.133236 -0.006039 -0.237956
    30 0.039887 -1.538386 0.018135 -1.722725 -0.009156 0.038651
    31 0.028786 -1.095263 -0.069985 -0.383577 -0.008233 0.006148
    32 0.250027 -2.820665 -0.238396 -0.988370 0.012983 -0.240501
    33 -0.049759 -1.594604 0.026258 -1.647162 -0.001678 -0.043542
    34 -0.034142 -1.156125 0.057437 -0.721429 0.008269 -0.017833
    35 0.957766 -2.746780 -0.090302 -0.100082 -0.057496 -0.007230
    36 -0.033420 -1.397129 -0.030789 -1.176887 -0.000563 -0.056664
    37 -0.022360 -0.965249 -0.008561 -1.106257 0.000875 -0.053236
    38 -1.180681 -2.507217 -0.193859 -1.164592 -0.000285 -0.267561
    39 -0.024967 -1.127840 0.017597 -1.469580 -0.008629 -0.059958
    40 -0.020057 -0.894874 0.013996 -0.359129 0.005920 -0.012200
    41 0.583510 -1.197277 0.181473 0.278506 -0.602299 -0.613030
    42 1.520302 -0.138196 0.044073 0.011765 -0.146727 -0.485045
    43 1.049988 -0.147821 0.032291 0.039845 -0.189814 -0.773094
    44 0.120153 -0.050270 -0.054489 0.287569 3.110905 1.561085
    45 -4.669341 -7.774306 -6.044436 -1.537271 -4.995349 -1.395642
    46 -0.090562 -8.454325 0.053137 -0.029009 -1.006976 0.447279
    47 0.447953 -2.798986 -0.200443 -1.418860 0.028039 0.095764
    48 -0.032909 -1.499736 0.020565 -1.128332 0.021944 -0.019149
    49 -0.027022 -1.073014 -0.016304 0.139044 -0.003883 0.000216
    50 -0.249534 -2.846964 -0.174213 -1.175083 -0.020607 -0.002524
    51 0.043235 -1.660503 0.080387 -1.037715 -0.017023 0.001954
    52 0.031729 -1.160830 0.058838 0.057374 0.001553 0.009235
    53 -0.963866 -2.785145 -0.085350 -0.963064 0.138463 -0.098316
    54 0.028479 -1.406973 -0.021074 -1.038115 -0.028344 -0.035510
    55 0.021413 -0.957781 0.020046 -0.008050 -0.000084 -0.000527
    56 1.164475 -2.543940 -0.170330 -1.451468 0.031337 0.326238
    57 0.024032 -1.144668 -0.005631 -1.151669 0.017078 0.057923
    58 0.014898 -0.883989 -0.019848 0.054443 0.002253 -0.006064
    59 -0.586770 -1.264477 0.200161 -0.031930 -0.475637 -2.691387
    60 1.546273 0.039149 0.016848 -0.008369 -0.002544 0.491516
    61 1.117947 0.048424 -0.005766 0.001099 -0.023736 0.003583
    62 -0.139399 -0.111698 0.014397 0.588245 0.035396 1.416810
    63 -7.413185 4.323414 -0.426939 1.575854 -0.028944 -0.618192
  time 8
    0 4.089968 -6.522516 -8.869834 -0.489034 -1.367232 0.305402
    1 1.183468 -7.388521 0.000000 0.000001 -0.000001 -1.570796
    2 -0.553688 1.425632 0.000002 0.059676 -0.000016 -3.141588
    3 1.649446 -0.129600 0.000000 -0.000011 0.000001 -2.879774
    4 3.278631 -0.133378 0.000000 -0.000001 0.000003 -0.698113
    5 5.836823 3.031164 -0.000006 0.000001 0.000001 1.570796
    6 8.178084 3.031162 -0.000008 0.000001 0.000001 1.570796
    7 10.418062 3.042883 -0.000010 0.000001 0.000001 1.519096
    8 13.037176 3.031166 -0.000011 0.000001 0.000001 1.367197
    9 2.794423 3.031162 -0.000004 0.000001 0.000001 1.570796
    10 2.355293 2.816935 -0.000003 0.000001 0.000001 1.570796
    11 -0.657306 -28.228015 -185.469579 0.000000 0.000000 1.570796
    12 -1.631610 -45.157587 -185.469579 0.000000 0.000000 1.894900
    13 1.032696 -43.793139 -185.469579 0.000000 0.000000 1.211838
    14 2.995790 -43.565909 -184.561233 0.000000 0.000000 0.872617
    15 -4.092140 -43.312428 -184.776204 0.000000 0.000000 2.268880
    16 28.641610 -63.192887 -183.461155 0.000000 0.000000 2.268880
    17 7.487903 -50.117007 -172.652379 0.000000 0.000000 1.894900
    18 -3.484021 -82.837638 -163.958339 0.000000 0.000000 1.570796
    19 -8.586168 -53.188027 -172.361043 0.000000 0.000000 1.211838
    20 -21.735902 -49.142307 -172.035465 0.000000 0.000000 0.872617
    21 -8.793137 -42.773115 -18.090638 2.419504 0.000000 -0.805064
    22 -0.000031 0.000000 0.000000 0.000000 0.000000 0.000000
    23 10.969185 -42.773370 -18.090638 0.277094 3.141592 -5.527843
    24 0.000000 -0.000015 0.000015 0.000000 0.000000 0.000000
    25 0.317570 1.916762 -5.272979 -0.042401 -0.107873 0.244911
    26 8.079597 1.388090 -4.948351 0.610724 -1.992217 -1.100536
    27 6.765161 -3.710452 -0.423252 -1.562412 -0.032336 -3.550353
    28 0.033551 -8.408890 -0.084602 -0.166738 0.586769 -0.537778
    29 -0.488518 -2.755602 -0.228260 -1.133236 -0.006039 -0.237956
    30 0.039887 -1.538386 0.018135 -1.722725 -0.009156 0.038651
    31 0.028786 -1.095263 -0.069985 -0.383577 -0.008233 0.006148
    32 0.250027 -2.820665 -0.238396 -0.988370 0.012983 -0.240501
    33 -0.049759 -1.594604 0.026258 -1.647162 -0.001678 -0.043542
    34 -0.034142 -1.156125 0.057437 -0.721429 0.008269 -0.017833
    35 0.957766 -2.746780 -0.090302 -0.100082 -0.057496 -0.007230
    36 -0.033420 -1.397129 -0.030789 -1.176887 -0.000563 -0.056664
    37 -0.022360 -0.965249 -0.008561 -1.106257 0.000875 -0.053236
    38 -1.180681 -2.507217 -0.193859 -1.164592 -0.000285 -0.267561
    39 -0.024967 -1.127840 0.017597 -1.469580 -0.008629 -0.059958
    40 -0.020057 -0.894874 0.013996 -0.359129 0.005920 -0.012200
    41 0.583510 -1.197277 0.181473 0.278506 -0.602299 -0.613030
    42 1.520302 -0.138196 0.044073 0.011765 -0.146727 -0.485045
    43 1.049988 -0.147821 0.032291 0.039845 -0.189814 -0.773094
    44 0.120153 -0.050270 -0.054489 0.287569 3.110905 1.561085
    45 -4.493554 -8.016501 -5.833493 -1.517894 -4.955442 -1.346152
    46 -0.094468 -8.454325 0.049231 -0.041055 -1.032103 0.398504
    47 0.447953 -2.798986 -0.200443 -1.418860 0.028039 0.095764
    48 -0.032909 -1.499736 0.020565 -1.128332 0.021944 -0.019149
    49 -0.027022 -1.073014 -0.016304 0.139044 -0.003883 0.000216
    50 -0.249534 -2.846964 -0.174213 -1.175083 -0.020607 -0.002524
    51 0.043235 -1.660503 0.080387 -1.037715 -0.017023 0.001954
    52 0.031729 -1.160830 0.058838 0.057374 0.001553 0.009235
    53 -0.963866 -2.785145 -0.085350 -0.963064 0.138463 -0.098316
    54 0.028479 -1.406973 -0.021074 -1.038115 -0.028344 -0.035510
    55 0.021413 -0.957781 0.020046 -0.008050 -0.000084 -0.000527
    56 1.164475 -2.543940 -0.170330 -1.451468 0.031337 0.326238
    57 0.024032 -1.144668 -0.005631 -1.151669 0.017078 0.057923
    58 0.014898 -0.883989 -0.019848 0.054443 0.002253 -0.006064
    59 -0.586770 -1.264477 0.200161 -0.031930 -0.475637 -2.691387
    60 1.546273 0.039149 0.016848 -0.008369 -0.002544 0.491516
    61 1.117947 0.048424 -0.005766 0.001099 -0.023736 0.003583
    62 -0.139399 -0.111698 0.014397 0.588245 0.035396 1.416810
    63 -6.999110 5.069531 -0.407407 1.577484 -0.026703 -0.721524
  time 9
    0 4.320443 -6.741273 -8.858114 -0.570529 -1.397726 0.411078
    1 1.183468 -7.388521 0.000000 0.000001 -0.000001 -1.570796
    2 -0.553688 1.425632 0.000002 -0.000005 -0.000016 -3.141588
    3 1.649446 -0.129600 0.000000 -0.000011 0.000001 -2.879774
    4 3.278631 -0.133378 0.000000 -0.000001 0.000003 -0.698113
    5 5.836823 3.031164 -0.000006 0.000001 0.000001 1.570796
    6 8.178084 3.031162 -0.000008 0.000001 0.000001 1.570796
    7 10.257901 3.031164 -0.000010 0.000001 0.000001 1.570796
    8 12.783262 3.031166 -0.000011 0.000001 0.000001 1.512633
    9 2.794423 3.031162 -0.000004 0.000001 0.000001 1.570796
    10 2.355293 2.816935 -0.000003 0.000001 0.000001 1.570796
    11 -0.657306 -28.228015 -185.469579 0.000000 0.000000 1.570796
    12 -1.631610 -45.157587 -185.469579 0.000000 0.000000 1.894900
    13 1.032696 -43.793139 -185.469579 0.000000 0.000000 1.211838
    14 2.995790 -43.565909 -184.561233 0.000000 0.000000 0.872617
    15 -4.092140 -43.312428 -184.776204 0.000000 0.000000 2.268880
    16 28.641610 -63.192887 -183.461155 0.000000 0.000000 2.268880
    17 7.487903 -50.117007 -172.652379 0.000000 0.000000 1.894900
    18 -3.484021 -82.837638 -163.958339 0.000000 0.000000 1.570796
    19 -8.586168 -53.188027 -172.361043 0.000000 0.000000 1.211838
    20 -21.735902 -49.142307 -172.035465 0.000000 0.000000 0.872617
    21 -8.793137 -42.773115 -18.090638 2.419504 0.000000 -0.805064
    22 -0.000031 0.000000 0.000000 0.000000 0.000000 0.000000
    23 10.969185 -42.773370 -18.090638 0.277094 3.141592 -5.527843
    24 0.000000 -0.000015 0.000015 0.000000 0.000000 0.000000
    25 0.317570 1.729257 -5.198758 -0.042401 -0.107873 0.244911
    26 8.095223 1.438873 -4.936632 0.600471 -1.990543 -1.080760
    27 6.753441 -3.729984 -0.423252 -1.562353 -0.032360 -3.553224
    28 0.025738 -8.412796 -0.084602 -0.140621 0.559294 -0.530233
    29 -0.488518 -2.755602 -0.228260 -1.133236 -0.006039 -0.237956
    30 0.039887 -1.538386 0.018135 -1.722725 -0.009156 0.038651
    31 0.028786 -1.095263 -0.069985 -0.383577 -0.008233 0.006148
    32 0.250027 -2.820665 -0.238396 -0.988370 0.012983 -0.240501
    33 -0.049759 -1.594604 0.026258 -1.647162 -0.001678 -0.043542
    34 -0.034142 -1.156125 0.057437 -0.721429 0.008269 -0.017833
    35 0.957766 -2.746780 -0.090302 -0.100082 -0.057496 -0.007230
    36 -0.033420 -1.397129 -0.030789 -1.176887 -0.000563 -0.056664
    37 -0.022360 -0.965249 -0.008561 -1.106257 0.000875 -0.053236
    38 -1.180681 -2.507217 -0.193859 -1.164592 -0.000285 -0.267561
    39 -0.024967 -1.127840 0.017597 -1.469580 -0.008629 -0.059958
    40 -0.020057 -0.894874 0.013996 -0.359129 0.005920 -0.012200
    41 0.583510 -1.197277 0.181473 0.278506 -0.602299 -0.613030
    42 1.520302 -0.138196 0.044073 0.011765 -0.146727 -0.485045
    43 1.049988 -0.147821 0.032291 0.039845 -0.189814 -0.773094
    44 0.120153 -0.050270 -0.054489 0.287569 3.110905 1.561085
    45 -4.341206 -8.164943 -5.685050 -1.495253 -4.917195 -1.297523
    46 -0.098374 -8.454325 0.049231 -0.048345 -1.060129 0.351459
    47 0.447953 -2.798986 -0.200443 -1.418860 0.028039 0.095764
    48 -0.032909 -1.499736 0.020565 -1.128332 0.021944 -0.019149
    49 -0.027022 -1.073014 -0.016304 0.139044 -0.003883 0.000216
    50 -0.249534 -2.846964 -0.174213 -1.175083 -0.020607 -0.002524
    51 0.043235 -1.660503 0.080387 -1.037715 -0.017023 0.001954
    52 0.031729 -1.160830 0.058838 0.057374 0.001553 0.009235
    53 -0.963866 -2.785145 -0.085350 -0.963064 0.138463 -0.098316
    54 0.028479 -1.406973 -0.021074 -1.038115 -0.028344 -0.035510
    55 0.021413 -0.957781 0.020046 -0.008050 -0.000084 -0.000527
    56 1.164475 -2.543940 -0.170330 -1.451468 0.031337 0.326238
    57 0.024032 -1.144668 -0.005631 -1.151669 0.017078 0.057923
    58 0.014898 -0.883989 -0.019848 0.054443 0.002253 -0.006064
    59 -0.586770 -1.264477 0.200161 -0.031930 -0.475637 -2.691387
    60 1.546273 0.039149 0.016848 -0.008369 -0.002544 0.491516
    61 1.117947 0.048424 -0.005766 0.001099 -0.023736 0.003583
    62 -0.139399 -0.111698 0.014397 0.588245 0.035396 1.416810
    63 -6.620192 5.628142 -0.395688 1.578599 -0.024822 -0.803400
  time 10
    0 4.519668 -6.850651 -8.873740 -0.642266 -1.428901 0.497893
    1 1.183468 -7.388521 0.000000 0.000001 -0.000001 -1.570796
    2 -0.553688 1.425632 0.000002 -0.000005 -0.000016 -3.141588
    3 1.649446 -0.129600 0.000000 -0.000011 0.000001 -2.879774
    4 3.278631 -0.133378 0.000000 -0.000001 0.000003 -0.698113
    5 5.836823 3.031164 -0.000006 0.000001 0.000001 1.570796
    6 8.178084 3.031162 -0.000008 0.000001 0.000001 1.570796
    7 10.257901 3.031164 -0.000010 0.000001 0.000001 1.570796
    8 12.681697 3.031166 -0.000011 0.000001 0.000001 1.570796
    9 2.794423 3.031162 -0.000004 0.000001 0.000001 1.570796
    10 2.355293 2.816935 -0.000003 0.000001 0.000001 1.570796
    11 -0.657306 -28.228015 -185.469579 0.000000 0.000000 1.570796
    12 -1.631610 -45.157587 -185.469579 0.000000 0.000000 1.894900
    13 1.032696 -43.793139 -185.469579 0.000000 0.000000 1.211838
    14 2.995790 -43.565909 -184.561233 0.000000 0.000000 0.872617
    15 -4.092140 -43.312428 -184.776204 0.000000 0.000000 2.268880
    16 28.641610 -63.192887 -183.461155 0.000000 0.000000 2.268880
    17 7.487903 -50.117007 -172.652379 0.000000 0.000000 1.894900
    18 -3.484021 -82.837638 -163.958339 0.000000 0.000000 1.570796
    19 -8.586168 -53.188027 -172.361043 0.000000 0.000000 1.211838
    20 -21.735902 -49.142307 -172.035465 0.000000 0.000000 0.872617
    21 -8.793137 -42.773115 -18.090638 2.419504 0.000000 -0.805064
    22 -0.000031 0.000000 0.000000 0.000000 0.000000 0.000000
    23 10.969185 -42.773370 -18.090638 0.277094 3.141592 -5.527843
    24 0.000000 -0.000015 0.000015 0.000000 0.000000 0.000000
    25 0.317570 1.557376 -5.132350 -0.042401 -0.107873 0.244911
    26 8.126474 1.552158 -4.897569 0.585331 -1.987545 -1.056342
    27 6.694846 -3.815924 -0.423252 -1.562089 -0.032444 -3.565855
    28 0.017925 -8.408890 -0.088509 -0.127621 0.530954 -0.529552
    29 -0.488518 -2.755602 -0.228260 -1.133236 -0.006039 -0.237956
    30 0.039887 -1.538386 0.018135 -1.722725 -0.009156 0.038651
    31 0.028786 -1.095263 -0.069985 -0.383577 -0.008233 0.006148
    32 0.250027 -2.820665 -0.238396 -0.988370 0.012983 -0.240501
    33 -0.049759 -1.594604 0.026258 -1.647162 -0.001678 -0.043542
    34 -0.034142 -1.156125 0.057437 -0.721429 0.008269 -0.017833
    35 0.957766 -2.746780 -0.090302 -0.100082 -0.057496 -0.007230
    36 -0.033420 -1.397129 -0.030789 -1.176887 -0.000563 -0.056664
    37 -0.022360 -0.965249 -0.008561 -1.106257 0.000875 -0.053236
    38 -1.180681 -2.507217 -0.193859 -1.164592 -0.000285 -0.267561
    39 -0.024967 -1.127840 0.017597 -1.469580 -0.008629 -0.059958
    40 -0.020057 -0.894874 0.013996 -0.359129 0.005920 -0.012200
    41 0.583510 -1.197277 0.181473 0.278506 -0.602299 -0.613030
    42 1.520302 -0.138196 0.044073 0.011765 -0.146727 -0.485045
    43 1.049988 -0.147821 0.032291 0.039845 -0.189814 -0.773094
    44 0.120153 -0.050270 -0.054489 0.287569 3.110905 1.561085
    45 -4.224015 -8.196194 -5.645987 -1.470003 -4.886039 -1.250996
    46 -0.102281 -8.454325 0.049231 -0.044744 -1.090801 0.307109
    47 0.447953 -2.798986 -0.200443 -1.418860 0.028039 0.095764
    48 -0.032909 -1.499736 0.020565 -1.128332 0.021944 -0.019149
    49 -0.027022 -1.073014 -0.016304 0.139044 -0.003883 0.000216
    50 -0.249534 -2.846964 -0.174213 -1.175083 -0.020607 -0.002524
    51 0.043235 -1.660503 0.080387 -1.037715 -0.017023 0.001954
    52 0.031729 -1.160830 0.058838 0.057374 0.001553 0.009235
    53 -0.963866 -2.785145 -0.085350 -0.963064 0.138463 -0.098316
    54 0.028479 -1.406973 -0.021074 -1.038115 -0.028344 -0.035510
    55 0.021413 -0.957781 0.020046 -0.008050 -0.000084 -0.000527
    56 1.164475 -2.543940 -0.170330 -1.451468 0.031337 0.326238
    57 0.024032 -1.144668 -0.005631 -1.151669 0.017078 0.057923
    58 0.014898 -0.883989 -0.019848 0.054443 0.002253 -0.006064
    59 -0.586770 -1.264477 0.200161 -0.031930 -0.475637 -2.691387
    60 1.546273 0.039149 0.016848 -0.008369 -0.002544 0.491516
    61 1.117947 0.048424 -0.005766 0.001099 -0.023736 0.003583
    62 -0.139399 -0.111698 0.014397 0.588245 0.035396 1.416810
    63 -6.389716 5.925026 -0.387875 1.579150 -0.023731 -0.849038
  time 11
    0 4.691548 -6.901434 -8.932335 -0.735238 -1.463220 0.605370
    1 1.183468 -7.388521 0.000000 0.000001 -0.000001 -1.570796
    2 -0.553688 1.425632 0.000002 -0.000005 -0.000016 -3.141588
    3 1.649446 -0.129600 0.000000 -0.000011 0.000001 -2.879774
    4 3.278631 -0.133378 0.000000 -0.000001 0.000003 -0.698113
    5 5.836823 3.031164 -0.000006 0.000001 0.000001 1.570796
    6 8.178084 3.031162 -0.000008 0.000001 0.000001 1.570796
    7 10.257901 3.031164 -0.000010 0.000001 0.000001 1.570796
    8 12.681697 3.031166 -0.000011 0.000001 0.000001 1.570796
    9 2.794423 3.031162 -0.000004 0.000001 0.000001 1.570796
    10 2.355293 2.816935 -0.000003 0.000001 0.000001 1.570796
    11 -0.657306 -28.228015 -185.469579 0.000000 0.000000 1.570796
    12 -1.631610 -45.157587 -185.469579 0.000000 0.000000 1.894900
    13 1.032696 -43.793139 -185.469579 0.000000 0.000000 1.211838
    14 2.995790 -43.565909 -184.561233 0.000000 0.000000 0.872617
    15 -4.092140 -43.312428 -184.776204 0.000000 0.000000 2.268880
    16 28.641610 -63.192887 -183.461155 0.000000 0.000000 2.268880
    17 7.487903 -50.117007 -172.652379 0.000000 0.000000 1.894900
    18 -3.484021 -82.837638 -163.958339 0.000000 0.000000 1.570796
    19 -8.586168 -53.188027 -172.361043 0.000000 0.000000 1.211838
    20 -21.735902 -49.142307 -172.035465 0.000000 0.000000 0.872617
    21 -8.793137 -42.773115 -18.090638 2.419504 0.000000 -0.805064
    22 -0.000031 0.000000 0.000000 0.000000 0.000000 0.000000
    23 10.969185 -42.773370 -18.090638 0.277094 3.141592 -5.527843
    24 0.000000 -0.000015 0.000015 0.000000 0.000000 0.000000
    25 0.317570 1.412841 -5.073754 -0.042401 -0.107873 0.244911
    26 8.153818 1.684974 -4.854599 0.567987 -1.980711 -1.033409
    27 6.628438 -3.913583 -0.423252 -1.561801 -0.032552 -3.580496
    28 0.010113 -8.408890 -0.088509 -0.111785 0.499018 -0.530076
    29 -0.488518 -2.755602 -0.228260 -1.133236 -0.006039 -0.237956
    30 0.039887 -1.538386 0.018135 -1.722725 -0.009156 0.038651
    31 0.028786 -1.095263 -0.069985 -0.383577 -0.008233 0.006148
    32 0.250027 -2.820665 -0.238396 -0.988370 0.012983 -0.240501
    33 -0.049759 -1.594604 0.026258 -1.647162 -0.001678 -0.043542
    34 -0.034142 -1.156125 0.057437 -0.721429 0.008269 -0.017833
    35 0.957766 -2.746780 -0.090302 -0.100082 -0.057496 -0.007230
    36 -0.033420 -1.397129 -0.030789 -1.176887 -0.000563 -0.056664
    37 -0.022360 -0.965249 -0.008561 -1.106257 0.000875 -0.053236
    38 -1.180681 -2.507217 -0.193859 -1.164592 -0.000285 -0.267561
    39 -0.024967 -1.127840 0.017597 -1.469580 -0.008629 -0.059958
    40 -0.020057 -0.894874 0.013996 -0.359129 0.005920 -0.012200
    41 0.583510 -1.197277 0.181473 0.278506 -0.602299 -0.613030
    42 1.520302 -0.138196 0.044073 0.011765 -0.146727 -0.485045
    43 1.049988 -0.147821 0.032291 0.039845 -0.189814 -0.773094
    44 0.120153 -0.050270 -0.054489 0.287569 3.110905 1.561085
    45 -4.126355 -8.184475 -5.653800 -1.430646 -4.852167 -1.191953
    46 -0.110094 -8.454325 0.049231 -0.041722 -1.125221 0.262454
    47 0.447953 -2.798986 -0.200443 -1.418860 0.028039 0.095764
    48 -0.032909 -1.499736 0.020565 -1.128332 0.021944 -0.019149
    49 -0.027022 -1.073014 -0.016304 0.139044 -0.003883 0.000216
    50 -0.249534 -2.846964 -0.174213 -1.175083 -0.020607 -0.002524
    51 0.043235 -1.660503 0.080387 -1.037715 -0.017023 0.001954
    52 0.031729 -1.160830 0.058838 0.057374 0.001553 0.009235
    53 -0.963866 -2.785145 -0.085350 -0.963064 0.138463 -0.098316
    54 0.028479 -1.406973 -0.021074 -1.038115 -0.028344 -0.035510
    55 0.021413 -0.957781 0.020046 -0.008050 -0.000084 -0.000527
    56 1.164475 -2.543940 -0.170330 -1.451468 0.031337 0.326238
    57 0.024032 -1.144668 -0.005631 -1.151669 0.017078 0.057923
    58 0.014898 -0.883989 -0.019848 0.054443 0.002253 -0.006064
    59 -0.586770 -1.264477 0.200161 -0.031930 -0.475637 -2.691387
    60 1.546273 0.039149 0.016848 -0.008369 -0.002544 0.491516
    61 1.117947 0.048424 -0.005766 0.001099 -0.023736 0.003583
    62 -0.139399 -0.111698 0.014397 0.588245 0.035396 1.416810
    63 -6.186585 6.163314 -0.380062 1.579570 -0.022808 -0.887319
  time 12
    0 4.851710 -6.901434 -9.026088 -0.905018 -1.498336 0.788763
    1 1.183468 -7.388521 0.000000 0.000001 -0.000001 -1.570796
    2 -0.553688 1.425632 0.000002 -0.000005 -0.000016 -3.141588
    3 1.649446 -0.129600 0.000000 -0.000011 0.000001 -2.879774
    4 3.278631 -0.133378 0.000000 -0.000001 0.000003 -0.698113
    5 5.836823 3.031164 -0.000006 0.000001 0.000001 1.570796
    6 8.178084 3.031162 -0.000008 0.000001 0.000001 1.570796
    7 10.257901 3.031164 -0.000010 0.000001 0.000001 1.570796
    8 12.681697 3.031166 -0.000011 0.000001 0.000001 1.570796
    9 2.794423 3.031162 -0.000004 0.000001 0.000001 1.570796
    10 2.355293 2.816935 -0.000003 0.000001 0.000001 1.570796
    11 -0.657306 -28.228015 -185.469579 0.000000 0.000000 1.570796
    12 -1.631610 -45.157587 -185.469579 0.000000 0.000000 1.894900
    13 1.032696 -43.793139 -185.469579 0.000000 0.000000 1.211838
    14 2.995790 -43.565909 -184.561233 0.000000 0.000000 0.872617
    15 -4.092140 -43.312428 -184.776204 0.000000 0.000000 2.268880
    16 28.641610 -63.192887 -183.461155 0.000000 0.000000 2.268880
    17 7.487903 -50.117007 -172.652379 0.000000 0.000000 1.894900
    18 -3.484021 -82.837638 -163.958339 0.000000 0.000000 1.570796
    19 -8.586168 -53.188027 -172.361043 0.000000 0.000000 1.211838
    20 -21.735902 -49.142307 -172.035465 0.000000 0.000000 0.872617
    21 -8.793137 -42.773115 -18.090638 2.419504 0.000000 -0.805064
    22 -0.000031 0.000000 0.000000 0.000000 0.000000 0.000000
    23 10.969185 -42.773370 -18.090638 0.277094 3.141592 -5.527843
    24 0.000000 -0.000015 0.000015 0.000000 0.000000 0.000000
    25 0.317570 1.299556 -5.030784 -0.042401 -0.107873 0.244911
    26 8.181163 1.833416 -4.803816 0.548822 -1.971924 -1.010662
    27 6.554217 -4.019055 -0.423252 -1.561478 -0.032660 -3.596285
    28 0.006206 -8.404984 -0.092415 -0.094428 0.465038 -0.531622
    29 -0.488518 -2.755602 -0.228260 -1.133236 -0.006039 -0.237956
    30 0.039887 -1.538386 0.018135 -1.722725 -0.009156 0.038651
    31 0.028786 -1.095263 -0.069985 -0.383577 -0.008233 0.006148
    32 0.250027 -2.820665 -0.238396 -0.988370 0.012983 -0.240501
    33 -0.049759 -1.594604 0.026258 -1.647162 -0.001678 -0.043542
    34 -0.034142 -1.156125 0.057437 -0.721429 0.008269 -0.017833
    35 0.957766 -2.746780 -0.090302 -0.100082 -0.057496 -0.007230
    36 -0.033420 -1.397129 -0.030789 -1.176887 -0.000563 -0.056664
    37 -0.022360 -0.965249 -0.008561 -1.106257 0.000875 -0.053236
    38 -1.180681 -2.507217 -0.193859 -1.164592 -0.000285 -0.267561
    39 -0.024967 -1.127840 0.017597 -1.469580 -0.008629 -0.059958
    40 -0.020057 -0.894874 0.013996 -0.359129 0.005920 -0.012200
    41 0.583510 -1.197277 0.181473 0.278506 -0.602299 -0.613030
    42 1.520302 -0.138196 0.044073 0.011765 -0.146727 -0.485045
    43 1.049988 -0.147821 0.032291 0.039845 -0.189814 -0.773094
    44 0.120153 -0.050270 -0.054489 0.287569 3.110905 1.561085
    45 -4.032602 -8.157130 -5.681144 -1.357755 -4.817163 -1.100140
    46 -0.114000 -8.454325 0.049231 -0.037321 -1.161289 0.215713
    47 0.447953 -2.798986 -0.200443 -1.418860 0.028039 0.095764
    48 -0.032909 -1.499736 0.020565 -1.128332 0.021944 -0.019149
    49 -0.027022 -1.073014 -0.016304 0.139044 -0.003883 0.000216
    50 -0.249534 -2.846964 -0.174213 -1.175083 -0.020607 -0.002524
    51 0.043235 -1.660503 0.080387 -1.037715 -0.017023 0.001954
    52 0.031729 -1.160830 0.058838 0.057374 0.001553 0.009235
    53 -0.963866 -2.785145 -0.085350 -0.963064 0.138463 -0.098316
    54 0.028479 -1.406973 -0.021074 -1.038115 -0.028344 -0.035510
    55 0.021413 -0.957781 0.020046 -0.008050 -0.000084 -0.000527
    56 1.164475 -2.543940 -0.170330 -1.451468 0.031337 0.326238
    57 0.024032 -1.144668 -0.005631 -1.151669 0.017078 0.057923
    58 0.014898 -0.883989 -0.019848 0.054443 0.002253 -0.006064
    59 -0.586770 -1.264477 0.200161 -0.031930 -0.475637 -2.691387
    60 1.546273 0.039149 0.016848 -0.008369 -0.002544 0.491516
    61 1.117947 0.048424 -0.005766 0.001099 -0.023736 0.003583
    62 -0.139399 -0.111698 0.014397 0.588245 0.035396 1.416810
    63 -5.991267 6.382071 -0.372250 1.579929 -0.021921 -0.922808
  time 13
    0 5.004058 -6.854558 -9.127654 -1.351801 -1.528385 1.248808
    1 1.183468 -7.388521 0.000000 0.000001 -0.000001 -1.570796
    2 -0.553688 1.425632 0.000002 -0.000005 -0.000016 -3.141588
    3 1.649446 -0.129600 0.000000 -0.000011 0.000001 -2.879774
    4 3.278631 -0.133378 0.000000 -0.000001 0.000003 -0.698113
    5 5.836823 3.031164 -0.000006 0.000001 0.000001 1.570796
    6 8.178084 3.031162 -0.000008 0.000001 0.000001 1.570796
    7 10.257901 3.031164 -0.000010 0.000001 0.000001 1.570796
    8 12.681697 3.031166 -0.000011 0.000001 0.000001 1.570796
    9 2.794423 3.031162 -0.000004 0.000001 0.000001 1.570796
    10 2.355293 2.816935 -0.000003 0.000001 0.000001 1.570796
    11 -0.657306 -28.228015 -185.469579 0.000000 0.000000 1.570796
    12 -1.631610 -45.157587 -185.469579 0.000000 0.000000 1.894900
    13 1.032696 -43.793139 -185.469579 0.000000 0.000000 1.211838
    14 2.995790 -43.565909 -184.561233 0.000000 0.000000 0.872617
    15 -4.092140 -43.312428 -184.776204 0.000000 0.000000 2.268880
    16 28.641610 -63.192887 -183.461155 0.000000 0.000000 2.268880
    17 7.487903 -50.117007 -172.652379 0.000000 0.000000 1.894900
    18 -3.484021 -82.837638 -163.958339 0.000000 0.000000 1.570796
    19 -8.586168 -53.188027 -172.361043 0.000000 0.000000 1.211838
    20 -21.735902 -49.142307 -172.035465 0.000000 0.000000 0.872617
    21 -8.793137 -42.773115 -18.090638 2.419504 0.000000 -0.805064
    22 -0.000031 0.000000 0.000000 0.000000 0.000000 0.000000
    23 10.969185 -42.773370 -18.090638 0.277094 3.141592 -5.527843
    24 0.000000 -0.000015 0.000015 0.000000 0.000000 0.000000
    25 0.317570 1.229241 -4.999533 -0.042401 -0.107873 0.244911
    26 8.204601 1.977952 -4.749127 0.528412 -1.962719 -0.987172
    27 6.479996 -4.124527 -0.423252 -1.561142 -0.032755 -3.612361
    28 -0.001606 -8.404984 -0.096321 -0.076864 0.430606 -0.533927
    29 -0.488518 -2.755602 -0.228260 -1.133236 -0.006039 -0.237956
    30 0.039887 -1.538386 0.018135 -1.722725 -0.009156 0.038651
    31 0.028786 -1.095263 -0.069985 -0.383577 -0.008233 0.006148
    32 0.250027 -2.820665 -0.238396 -0.988370 0.012983 -0.240501
    33 -0.049759 -1.594604 0.026258 -1.647162 -0.001678 -0.043542
    34 -0.034142 -1.156125 0.057437 -0.721429 0.008269 -0.017833
    35 0.957766 -2.746780 -0.090302 -0.100082 -0.057496 -0.007230
    36 -0.033420 -1.397129 -0.030789 -1.176887 -0.000563 -0.056664
    37 -0.022360 -0.965249 -0.008561 -1.106257 0.000875 -0.053236
    38 -1.180681 -2.507217 -0.193859 -1.164592 -0.000285 -0.267561
    39 -0.024967 -1.127840 0.017597 -1.469580 -0.008629 -0.059958
    40 -0.020057 -0.894874 0.013996 -0.359129 0.005920 -0.012200
    41 0.583510 -1.197277 0.181473 0.278506 -0.602299 -0.613030
    42 1.520302 -0.138196 0.044073 0.011765 -0.146727 -0.485045
    43 1.049988 -0.147821 0.032291 0.039845 -0.189814 -0.773094
    44 0.120153 -0.050270 -0.054489 0.287569 3.110905 1.561085
    45 -3.934943 -8.129786 -5.704582 -1.198067 -4.782914 -0.921483
    46 -0.121813 -8.458231 0.045324 -0.029898 -1.197157 0.165209
    47 0.447953 -2.798986 -0.200443 -1.418860 0.028039 0.095764
    48 -0.032909 -1.499736 0.020565 -1.128332 0.021944 -0.019149
    49 -0.027022 -1.073014 -0.016304 0.139044 -0.003883 0.000216
    50 -0.249534 -2.846964 -0.174213 -1.175083 -0.020607 -0.002524
    51 0.043235 -1.660503 0.080387 -1.037715 -0.017023 0.001954
    52 0.031729 -1.160830 0.058838 0.057374 0.001553 0.009235
    53 -0.963866 -2.785145 -0.085350 -0.963064 0.138463 -0.098316
    54 0.028479 -1.406973 -0.021074 -1.038115 -0.028344 -0.035510
    55 0.021413 -0.957781 0.020046 -0.008050 -0.000084 -0.000527
    56 1.164475 -2.543940 -0.170330 -1.451468 0.031337 0.326238
    57 0.024032 -1.144668 -0.005631 -1.151669 0.017078 0.057923
    58 0.014898 -0.883989 -0.019848 0.054443 0.002253 -0.006064
    59 -0.586770 -1.264477 0.200161 -0.031930 -0.475637 -2.691387
    60 1.546273 0.039149 0.016848 -0.008369 -0.002544 0.491516
    61 1.117947 0.048424 -0.005766 0.001099 -0.023736 0.003583
    62 -0.139399 -0.111698 0.014397 0.588245 0.035396 1.416810
    63 -5.772510 6.600828 -0.368343 1.580289 -0.020986 -0.960340
  time 14
    0 5.168125 -6.764711 -9.233126 0.807315 -1.608563 -0.897314
    1 1.183468 -7.388521 0.000000 0.000001 -0.000001 -1.570796
    2 -0.553688 1.425632 0.000002 -0.000005 -0.000016 -3.141588
    3 1.649446 -0.129600 0.000000 -0.000011 0.000001 -2.879774
    4 3.278631 -0.133378 0.000000 -0.000001 0.000003 -0.698113
    5 5.836823 3.031164 -0.000006 0.000001 0.000001 1.570796
    6 8.178084 3.031162 -0.000008 0.000001 0.000001 1.570796
    7 10.257901 3.031164 -0.000010 0.000001 0.000001 1.570796
    8 12.681697 3.031166 -0.000011 0.000001 0.000001 1.570796
    9 2.794423 3.031162 -0.000004 0.000001 0.000001 1.570796
    10 2.355293 2.816935 -0.000003 0.000001 0.000001 1.570796
    11 -0.657306 -28.228015 -185.469579 0.000000 0.000000 1.570796
    12 -1.631610 -45.157587 -185.469579 0.000000 0.000000 1.894900
    13 1.032696 -43.793139 -185.469579 0.000000 0.000000 1.211838
    14 2.995790 -43.565909 -184.561233 0.000000 0.000000 0.872617
    15 -4.092140 -43.312428 -184.776204 0.000000 0.000000 2.268880
    16 28.641610 -63.192887 -183.461155 0.000000 0.000000 2.268880
    17 7.487903 -50.117007 -172.652379 0.000000 0.000000 1.894900
    18 -3.484021 -82.837638 -163.958339 0.000000 0.000000 1.570796
    19 -8.586168 -53.188027 -172.361043 0.000000 0.000000 1.211838
    20 -21.735902 -49.142307 -172.035465 0.000000 0.000000 0.872617
    21 -8.793137 -42.773115 -18.090638 2.419504 0.000000 -0.805064
    22 -0.000031 0.000000 0.000000 0.000000 0.000000 0.000000
    23 10.969185 -42.773370 -18.090638 0.277094 3.141592 -5.527843
    24 0.000000 -0.000015 0.000015 0.000000 0.000000 0.000000
    25 0.317570 1.201897 -4.991721 -0.042401 -0.107873 0.244911
    26 8.228039 2.118581 -4.694437 0.507619 -1.954839 -0.962196
    27 6.401868 -4.226093 -0.423252 -1.560819 -0.032851 -3.627863
    28 -0.009419 -8.404984 -0.096321 -0.060336 0.397216 -0.536547
    29 -0.488518 -2.755602 -0.228260 -1.133236 -0.006039 -0.237956
    30 0.039887 -1.538386 0.018135 -1.722725 -0.009156 0.038651
    31 0.028786 -1.095263 -0.069985 -0.383577 -0.008233 0.006148
    32 0.250027 -2.820665 -0.238396 -0.988370 0.012983 -0.240501
    33 -0.049759 -1.594604 0.026258 -1.647162 -0.001678 -0.043542
    34 -0.034142 -1.156125 0.057437 -0.721429 0.008269 -0.017833
    35 0.957766 -2.746780 -0.090302 -0.100082 -0.057496 -0.007230
    36 -0.033420 -1.397129 -0.030789 -1.176887 -0.000563 -0.056664
    37 -0.022360 -0.965249 -0.008561 -1.106257 0.000875 -0.053236
    38 -1.180681 -2.507217 -0.193859 -1.164592 -0.000285 -0.267561
    39 -0.024967 -1.127840 0.017597 -1.469580 -0.008629 -0.059958
    40 -0.020057 -0.894874 0.013996 -0.359129 0.005920 -0.012200
    41 0.583510 -1.197277 0.181473 0.278506 -0.602299 -0.613030
    42 1.520302 -0.138196 0.044073 0.011765 -0.146727 -0.485045
    43 1.049988 -0.147821 0.032291 0.039845 -0.189814 -0.773094
    44 0.120153 -0.050270 -0.054489 0.287569 3.110905 1.561085
    45 -3.825565 -8.125879 -5.696770 -0.764186 -4.754323 -0.467960
    46 -0.125719 -8.454325 0.045324 -0.018074 -1.230827 0.109111
    47 0.447953 -2.798986 -0.200443 -1.418860 0.028039 0.095764
    48 -0.032909 -1.499736 0.020565 -1.128332 0.021944 -0.019149
    49 -0.027022 -1.073014 -0.016304 0.139044 -0.003883 0.000216
    50 -0.249534 -2.846964 -0.174213 -1.175083 -0.020607 -0.002524
    51 0.043235 -1.660503 0.080387 -1.037715 -0.017023 0.001954
    52 0.031729 -1.160830 0.058838 0.057374 0.001553 0.009235
    53 -0.963866 -2.785145 -0.085350 -0.963064 0.138463 -0.098316
    54 0.028479 -1.406973 -0.021074 -1.038115 -0.028344 -0.035510
    55 0.021413 -0.957781 0.020046 -0.008050 -0.000084 -0.000527
    56 1.164475 -2.543940 -0.170330 -1.451468 0.031337 0.326238
    57 0.024032 -1.144668 -0.005631 -1.151669 0.017078 0.057923
    58 0.014898 -0.883989 -0.019848 0.054443 0.002253 -0.006064
    59 -0.586770 -1.264477 0.200161 -0.031930 -0.475637 -2.691387
    60 1.546273 0.039149 0.016848 -0.008369 -0.002544 0.491516
    61 1.117947 0.048424 -0.005766 0.001099 -0.023736 0.003583
    62 -0.139399 -0.111698 0.014397 0.588245 0.035396 1.416810
    63 -5.506877 6.850835 -0.356624 1.580648 -0.019848 -1.004956
end
