version 1
nodes
  0 "root_lasersg" -1
  1 "Front" 0
  2 "megazine" 1
  3 "trigger" 0
  4 "reloader" 0
  5 "loof002" 1
  6 "loof003" 1
  7 "loof004" 1
  8 "loof005" 1
  9 "loof1" 1
  10 "loof0" 1
  11 "t22fxPlane_bone4" -1
  12 "t22fxPlane_bone007" -1
  13 "t22fxPlane_bone012" -1
  14 "t22fxPlane_bone013" -1
  15 "t22fxPlane_bone020" -1
  16 "t22fxPlane_bone019" -1
  17 "t22fxPlane_bone008" -1
  18 "t22fxPlane_bone1" -1
  19 "t22fxPlane_bone011" -1
  20 "t22fxPlane_bone016" -1
  21 "Bonelight1" -1
  22 "Bonelight2" 21
  23 "Bonelight003" -1
  24 "Bonelight004" 23
  25 "root" -1
  26 "Bone01" 25
  27 "Bone_L_Upper" 26
  28 "Bone_Lefthand" 26
  29 "Bone13" 28
  30 "Bone14" 29
  31 "Bone15" 30
  32 "Bone17" 28
  33 "Bone18" 32
  34 "Bone19" 33
  35 "Bone21" 28
  36 "Bone22" 35
  37 "Bone23" 36
  38 "Bone09" 28
  39 "Bone10" 38
  40 "Bone11" 39
  41 "Bone05" 28
  42 "Bone06" 41
  43 "Bone07" 42
  44 "Bone_Se_Hand-L" 28
  45 "Bone04" 25
  46 "Bone_Righthand" 45
  47 "Bone39" 46
  48 "Bone40" 47
  49 "Bone41" 48
  50 "Bone35" 46
  51 "Bone36" 50
  52 "Bone37" 51
  53 "Bone31" 46
  54 "Bone32" 53
  55 "Bone33" 54
  56 "Bone43" 46
  57 "Bone44" 56
  58 "Bone45" 57
  59 "Bone27" 46
  60 "Bone28" 59
  61 "Bone29" 60
  62 "Bone_Se_Hand-R" 46
  63 "Bone_R_Upper" 45
end
skeleton
  time 0
    0 5.168125 -6.764711 -9.233126 0.807315 -1.608563 -0.897314
    1 1.183468 -7.388521 0.000000 0.000001 -0.000001 -1.570796
    2 -0.553688 1.425632 0.000002 -0.000005 -0.000016 -3.141588
    3 1.649446 -0.129600 0.000000 -0.000011 0.000001 -2.879774
    4 3.278631 -0.133378 0.000000 -0.000001 0.000003 -0.698113
    5 5.836823 3.031164 -0.000006 0.000001 0.000001 1.570796
    6 8.178084 3.031162 -0.000008 0.000001 0.000001 1.570796
    7 10.257901 3.031164 -0.000010 0.000001 0.000001 1.570796
    8 12.681697 3.031166 -0.000011 0.000001 0.000001 1.570796
    9 2.794423 3.031162 -0.000004 0.000001 0.000001 1.570796
    10 2.355293 2.816935 -0.000003 0.000001 0.000001 1.570796
    11 -0.657306 -28.228015 -156.346268 0.000000 0.000000 1.570796
    12 -2.432416 -42.774702 -156.346268 0.000000 0.000000 1.894900
    13 1.907722 -41.461036 -156.346268 0.000000 0.000000 1.211838
    14 4.577870 -41.683039 -155.651093 0.000000 0.000000 0.872617
    15 -5.748441 -41.335805 -155.652893 0.000000 0.000000 2.268880
    16 62.152776 -103.128049 -163.262100 0.000000 0.000000 2.268880
    17 12.028901 -63.622160 -143.529068 0.000000 0.000000 1.894900
    18 -3.484021 -97.080071 -134.834793 0.000000 0.000000 1.570796
    19 -13.594133 -66.525260 -143.237732 0.000000 0.000000 1.211838
    20 -75.159407 -80.943632 -156.800201 0.000000 0.000000 0.872617
    21 -8.793137 -42.773115 -228.594421 0.000000 0.000000 -0.805064
    22 -0.000031 0.000000 0.000000 0.000000 0.000000 0.000000
    23 10.969185 -42.773370 -228.594421 0.999049 0.000000 -2.386316
    24 0.000000 -0.000015 0.000015 0.000000 0.000000 0.000000
    25 0.317570 1.201897 -4.991721 -0.042401 -0.107873 0.244911
    26 8.228039 2.118581 -4.694437 0.507619 -1.954839 -0.962196
    27 6.401868 -4.226093 -0.423252 -1.560819 -0.032851 -3.627863
    28 -0.009419 -8.404984 -0.096321 -0.060336 0.397216 -0.536547
    29 -0.488518 -2.755602 -0.228260 -1.133236 -0.006039 -0.237956
    30 0.039887 -1.538386 0.018135 -1.722725 -0.009156 0.038651
    31 0.028786 -1.095263 -0.069985 -0.383577 -0.008233 0.006148
    32 0.250027 -2.820665 -0.238396 -0.988370 0.012983 -0.240501
    33 -0.049759 -1.594604 0.026258 -1.647162 -0.001678 -0.043542
    34 -0.034142 -1.156125 0.057437 -0.721429 0.008269 -0.017833
    35 0.957766 -2.746780 -0.090302 -0.100082 -0.057496 -0.007230
    36 -0.033420 -1.397129 -0.030789 -1.176887 -0.000563 -0.056664
    37 -0.022360 -0.965249 -0.008561 -1.106257 0.000875 -0.053236
    38 -1.180681 -2.507217 -0.193859 -1.164592 -0.000285 -0.267561
    39 -0.024967 -1.127840 0.017597 -1.469580 -0.008629 -0.059958
    40 -0.020057 -0.894874 0.013996 -0.359129 0.005920 -0.012200
    41 0.583510 -1.197277 0.181473 0.278506 -0.602299 -0.613030
    42 1.520302 -0.138196 0.044073 0.011765 -0.146727 -0.485045
    43 1.049988 -0.147821 0.032291 0.039845 -0.189814 -0.773094
    44 0.120153 -0.050270 -0.054489 0.287569 3.110905 1.561085
    45 -3.825565 -8.125879 -5.696770 -0.764186 -4.754323 -0.467960
    46 -0.125719 -8.454325 0.045324 -0.018074 -1.230827 0.109111
    47 0.447953 -2.798986 -0.200443 -1.418860 0.028039 0.095764
    48 -0.032909 -1.499736 0.020565 -1.128332 0.021944 -0.019149
    49 -0.027022 -1.073014 -0.016304 0.139044 -0.003883 0.000216
    50 -0.249534 -2.846964 -0.174213 -1.175083 -0.020607 -0.002524
    51 0.043235 -1.660503 0.080387 -1.037715 -0.017023 0.001954
    52 0.031729 -1.160830 0.058838 0.057374 0.001553 0.009235
    53 -0.963866 -2.785145 -0.085350 -0.963064 0.138463 -0.098316
    54 0.028479 -1.406973 -0.021074 -1.038115 -0.028344 -0.035510
    55 0.021413 -0.957781 0.020046 -0.008050 -0.000084 -0.000527
    56 1.164475 -2.543940 -0.170330 -1.451468 0.031337 0.326238
    57 0.024032 -1.144668 -0.005631 -1.151669 0.017078 0.057923
    58 0.014898 -0.883989 -0.019848 0.054443 0.002253 -0.006064
    59 -0.586770 -1.264477 0.200161 -0.031930 -0.475637 -2.691387
    60 1.546273 0.039149 0.016848 -0.008369 -0.002544 0.491516
    61 1.117947 0.048424 -0.005766 0.001099 -0.023736 0.003583
    62 -0.139399 -0.111698 0.014397 0.588245 0.035396 1.416810
    63 -5.506877 6.850835 -0.356624 1.580648 -0.019848 -1.004956
  time 1
    0 5.011871 -7.014719 -9.217500 1.314740 -1.644148 -1.395839
    1 1.183468 -7.388521 0.000000 0.000001 -0.000001 -1.570796
    2 -0.553688 1.425632 0.000002 -0.059686 -0.000016 -3.141588
    3 1.649446 -0.129600 0.000000 -0.000011 0.000001 -2.879774
    4 3.278631 -0.133378 0.000000 -0.000001 0.000003 -0.698113
    5 5.836823 3.031164 -0.000006 0.000001 0.000001 1.570796
    6 8.178084 3.031162 -0.000008 0.000001 0.000001 1.570796
    7 10.257901 3.031164 -0.000010 0.000001 0.000001 1.570796
    8 12.822326 3.031166 -0.000011 0.000001 0.000001 1.489117
    9 2.794423 3.031162 -0.000004 0.000001 0.000001 1.570796
    10 2.355293 2.816935 -0.000003 0.000001 0.000001 1.570796
    11 -0.657306 -28.228015 -156.346268 0.000000 0.000000 1.570796
    12 -2.432416 -42.774702 -156.346268 0.000000 0.000000 1.894900
    13 1.907722 -41.461036 -156.346268 0.000000 0.000000 1.211838
    14 4.577870 -41.683039 -155.651093 0.000000 0.000000 0.872617
    15 -5.748441 -41.335805 -155.652893 0.000000 0.000000 2.268880
    16 62.152776 -103.128049 -163.262100 0.000000 0.000000 2.268880
    17 12.028901 -63.622160 -143.529068 0.000000 0.000000 1.894900
    18 -3.484021 -97.080071 -134.834793 0.000000 0.000000 1.570796
    19 -13.594133 -66.525260 -143.237732 0.000000 0.000000 1.211838
    20 -75.159407 -80.943632 -156.800201 0.000000 0.000000 0.872617
    21 -8.793137 -42.773115 -222.703373 0.000000 0.000000 -0.805064
    22 -0.000031 0.000000 0.000000 0.000000 0.000000 0.000000
    23 10.969185 -42.773370 -18.090638 0.999049 0.000000 -2.386316
    24 0.000000 -0.000015 0.000015 0.000000 0.000000 0.000000
    25 0.317570 1.260492 -5.015159 -0.042401 -0.107873 0.244911
    26 8.122567 1.892012 -4.823348 0.530904 -1.941519 -1.003791
    27 6.612812 -3.937022 -0.423252 -1.561717 -0.032576 -3.584156
    28 -0.017232 -8.416703 -0.096321 -0.009602 0.399142 -0.487085
    29 -0.488518 -2.755602 -0.228260 -1.133236 -0.006039 -0.237956
    30 0.039887 -1.538386 0.018135 -1.722725 -0.009156 0.038651
    31 0.028786 -1.095263 -0.069985 -0.383577 -0.008233 0.006148
    32 0.250027 -2.820665 -0.238396 -0.988370 0.012983 -0.240501
    33 -0.049759 -1.594604 0.026258 -1.647162 -0.001678 -0.043542
    34 -0.034142 -1.156125 0.057437 -0.721429 0.008269 -0.017833
    35 0.957766 -2.746780 -0.090302 -0.100082 -0.057496 -0.007230
    36 -0.033420 -1.397129 -0.030789 -1.176887 -0.000563 -0.056664
    37 -0.022360 -0.965249 -0.008561 -1.106257 0.000875 -0.053236
    38 -1.180681 -2.507217 -0.193859 -1.164592 -0.000285 -0.267561
    39 -0.024967 -1.127840 0.017597 -1.469580 -0.008629 -0.059958
    40 -0.020057 -0.894874 0.013996 -0.359129 0.005920 -0.012200
    41 0.583510 -1.197277 0.181473 0.278506 -0.602299 -0.613030
    42 1.520302 -0.138196 0.044073 0.011765 -0.146727 -0.485045
    43 1.049988 -0.147821 0.032291 0.039845 -0.189814 -0.773094
    44 0.120153 -0.050270 -0.054489 0.287569 3.110905 1.561085
    45 -3.841190 -8.422763 -5.360822 -0.963883 -4.760132 -0.681298
    46 -0.117906 -8.450418 0.045324 -0.089016 -1.200604 0.156411
    47 0.447953 -2.798986 -0.200443 -1.418860 0.028039 0.095764
    48 -0.032909 -1.499736 0.020565 -1.128332 0.021944 -0.019149
    49 -0.027022 -1.073014 -0.016304 0.139044 -0.003883 0.000216
    50 -0.249534 -2.846964 -0.174213 -1.175083 -0.020607 -0.002524
    51 0.043235 -1.660503 0.080387 -1.037715 -0.017023 0.001954
    52 0.031729 -1.160830 0.058838 0.057374 0.001553 0.009235
    53 -0.963866 -2.785145 -0.085350 -0.963064 0.138463 -0.098316
    54 0.028479 -1.406973 -0.021074 -1.038115 -0.028344 -0.035510
    55 0.021413 -0.957781 0.020046 -0.008050 -0.000084 -0.000527
    56 1.164475 -2.543940 -0.170330 -1.451468 0.031337 0.326238
    57 0.024032 -1.144668 -0.005631 -1.151669 0.017078 0.057923
    58 0.014898 -0.883989 -0.019848 0.054443 0.002253 -0.006064
    59 -0.586770 -1.264477 0.200161 -0.031930 -0.475637 -2.691387
    60 1.546273 0.039149 0.016848 -0.008369 -0.002544 0.491516
    61 1.117947 0.048424 -0.005766 0.001099 -0.023736 0.003583
    62 -0.139399 -0.111698 0.014397 0.588245 0.035396 1.416810
    63 -5.096708 7.194596 -0.344905 1.581080 -0.018182 -1.069598
  time 2
    0 4.605608 -7.420981 -9.217500 4.704876 -1.421935 1.512003
    1 1.183468 -7.388521 0.000000 0.000001 -0.000001 -1.570796
    2 -0.553688 1.425632 0.000002 -0.226176 -0.000016 -3.141588
    3 1.649446 -0.129600 0.000000 -0.000011 0.000001 -2.879774
    4 3.278631 -0.133378 0.000000 -0.000001 0.000003 -0.698113
    5 5.836823 3.031164 -0.000006 0.000001 0.000001 1.570796
    6 8.178084 3.031162 -0.000008 0.000001 0.000001 1.570796
    7 10.484471 3.050696 -0.000010 0.000001 0.000001 1.498196
    8 13.166087 3.031166 -0.000011 0.000001 0.000001 1.294360
    9 2.794423 3.031162 -0.000004 0.000001 0.000001 1.570796
    10 2.355293 2.816935 -0.000003 0.000001 0.000001 1.570796
    11 -0.657306 -28.228015 -156.346268 0.000000 0.000000 1.570796
    12 -2.432416 -42.774702 -156.346268 0.000000 0.000000 1.894900
    13 1.907722 -41.461036 -156.346268 0.000000 0.000000 1.211838
    14 4.577870 -41.683039 -155.651093 0.000000 0.000000 0.872617
    15 -5.748441 -41.335805 -155.652893 0.000000 0.000000 2.268880
    16 62.152776 -103.128049 -163.262100 0.000000 0.000000 2.268880
    17 12.028901 -63.622160 -143.529068 0.000000 0.000000 1.894900
    18 -3.484021 -97.080071 -134.834793 0.000000 0.000000 1.570796
    19 -13.594133 -66.525260 -143.237732 0.000000 0.000000 1.211838
    20 -75.159407 -80.943632 -156.800201 0.000000 0.000000 0.872617
    21 -8.793137 -42.773115 -206.706962 0.000000 0.000000 -0.805064
    22 -0.000031 0.000000 0.000000 0.000000 0.000000 0.000000
    23 10.969185 -42.773370 -18.090638 0.999049 0.000000 -2.386316
    24 0.000000 -0.000015 0.000015 0.000000 0.000000 0.000000
    25 0.317570 1.412841 -5.073754 -0.042401 -0.107873 0.244911
    26 7.876466 1.442779 -5.049917 0.577282 -1.915159 -1.093294
    27 6.995636 -3.335441 -0.419346 -1.563479 -0.031917 -3.496670
    28 -0.028951 -8.436234 -0.092415 0.090460 0.396528 -0.393688
    29 -0.488518 -2.755602 -0.228260 -1.133236 -0.006039 -0.237956
    30 0.039887 -1.538386 0.018135 -1.722725 -0.009156 0.038651
    31 0.028786 -1.095263 -0.069985 -0.383577 -0.008233 0.006148
    32 0.250027 -2.820665 -0.238396 -0.988370 0.012983 -0.240501
    33 -0.049759 -1.594604 0.026258 -1.647162 -0.001678 -0.043542
    34 -0.034142 -1.156125 0.057437 -0.721429 0.008269 -0.017833
    35 0.957766 -2.746780 -0.090302 -0.100082 -0.057496 -0.007230
    36 -0.033420 -1.397129 -0.030789 -1.176887 -0.000563 -0.056664
    37 -0.022360 -0.965249 -0.008561 -1.106257 0.000875 -0.053236
    38 -1.180681 -2.507217 -0.193859 -1.164592 -0.000285 -0.267561
    39 -0.024967 -1.127840 0.017597 -1.469580 -0.008629 -0.059958
    40 -0.020057 -0.894874 0.013996 -0.359129 0.005920 -0.012200
    41 0.583510 -1.197277 0.181473 0.278506 -0.602299 -0.613030
    42 1.520302 -0.138196 0.044073 0.011765 -0.146727 -0.485045
    43 1.049988 -0.147821 0.032291 0.039845 -0.189814 -0.773094
    44 0.120153 -0.050270 -0.054489 0.287569 3.110905 1.561085
    45 -3.927130 -8.887621 -4.747522 -1.178590 -4.772654 -0.925973
    46 -0.106187 -8.434793 0.045324 -0.206452 -1.141206 0.228835
    47 0.447953 -2.798986 -0.200443 -1.418860 0.028039 0.095764
    48 -0.032909 -1.499736 0.020565 -1.128332 0.021944 -0.019149
    49 -0.027022 -1.073014 -0.016304 0.139044 -0.003883 0.000216
    50 -0.249534 -2.846964 -0.174213 -1.175083 -0.020607 -0.002524
    51 0.043235 -1.660503 0.080387 -1.037715 -0.017023 0.001954
    52 0.031729 -1.160830 0.058838 0.057374 0.001553 0.009235
    53 -0.963866 -2.785145 -0.085350 -0.963064 0.138463 -0.098316
    54 0.028479 -1.406973 -0.021074 -1.038115 -0.028344 -0.035510
    55 0.021413 -0.957781 0.020046 -0.008050 -0.000084 -0.000527
    56 1.164475 -2.543940 -0.170330 -1.451468 0.031337 0.326238
    57 0.024032 -1.144668 -0.005631 -1.151669 0.017078 0.057923
    58 0.014898 -0.883989 -0.019848 0.054443 0.002253 -0.006064
    59 -0.586770 -1.264477 0.200161 -0.031930 -0.475637 -2.691387
    60 1.546273 0.039149 0.016848 -0.008369 -0.002544 0.491516
    61 1.117947 0.048424 -0.005766 0.001099 -0.023736 0.003583
    62 -0.139399 -0.111698 0.014397 0.588245 0.035396 1.416810
    63 -4.342779 7.725862 -0.321467 1.581595 -0.015234 -1.181581
  time 3
    0 4.046998 -7.585049 -9.346411 -1.479207 -1.375184 1.417416
    1 1.183468 -7.388521 0.000000 0.000001 -0.000001 -1.570796
    2 -0.553688 1.425632 0.000002 -0.480642 -0.000016 -3.141588
    3 1.649446 -0.129600 0.000000 -0.000011 0.000001 -2.879774
    4 3.278631 -0.133378 0.000000 -0.000001 0.000003 -0.698113
    5 5.836823 3.031164 -0.000006 0.000001 0.000001 1.570796
    6 8.498407 3.074132 -0.000008 0.000001 0.000001 1.507282
    7 11.027456 3.101479 -0.000010 0.000001 0.000001 1.325072
    8 13.576255 3.031166 -0.000011 0.000001 0.000001 1.061866
    9 2.794423 3.031162 -0.000004 0.000001 0.000001 1.570796
    10 2.355293 2.816935 -0.000003 0.000001 0.000001 1.570796
    11 -0.657306 -28.228015 -156.346268 0.000000 0.000000 1.570796
    12 -2.432416 -42.774702 -156.346268 0.000000 0.000000 1.894900
    13 1.907722 -41.461036 -156.346268 0.000000 0.000000 1.211838
    14 4.577870 -41.683039 -155.651093 0.000000 0.000000 0.872617
    15 -5.748441 -41.335805 -155.652893 0.000000 0.000000 2.268880
    16 62.152776 -103.128049 -163.262100 0.000000 0.000000 2.268880
    17 12.028901 -63.622160 -143.529068 0.000000 0.000000 1.894900
    18 -3.484021 -97.080071 -134.834793 0.000000 0.000000 1.570796
    19 -13.594133 -66.525260 -143.237732 0.000000 0.000000 1.211838
    20 -75.159407 -80.943632 -156.800201 0.000000 0.000000 0.872617
    21 -8.793137 -42.773115 -183.129921 0.000000 0.000000 -0.805064
    22 -0.000031 0.000000 0.000000 0.000000 0.000000 0.000000
    23 10.969185 -42.773370 -18.090638 0.999049 0.000000 -2.386316
    24 0.000000 -0.000015 0.000015 0.000000 0.000000 0.000000
    25 0.317570 1.639410 -5.163601 -0.042401 -0.107873 0.244911
    26 7.610833 1.059955 -5.213984 0.621839 -1.889845 -1.190875
    27 7.288614 -2.776830 -0.415440 -1.564977 -0.031197 -3.419232
    28 -0.040670 -8.455766 -0.092415 0.174410 0.389590 -0.329267
    29 -0.488518 -2.755602 -0.228260 -1.133236 -0.006039 -0.237956
    30 0.039887 -1.538386 0.018135 -1.722725 -0.009156 0.038651
    31 0.028786 -1.095263 -0.069985 -0.383577 -0.008233 0.006148
    32 0.250027 -2.820665 -0.238396 -0.988370 0.012983 -0.240501
    33 -0.049759 -1.594604 0.026258 -1.647162 -0.001678 -0.043542
    34 -0.034142 -1.156125 0.057437 -0.721429 0.008269 -0.017833
    35 0.957766 -2.746780 -0.090302 -0.100082 -0.057496 -0.007230
    36 -0.033420 -1.397129 -0.030789 -1.176887 -0.000563 -0.056664
    37 -0.022360 -0.965249 -0.008561 -1.106257 0.000875 -0.053236
    38 -1.180681 -2.507217 -0.193859 -1.164592 -0.000285 -0.267561
    39 -0.024967 -1.127840 0.017597 -1.469580 -0.008629 -0.059958
    40 -0.020057 -0.894874 0.013996 -0.359129 0.005920 -0.012200
    41 0.583510 -1.197277 0.181473 0.278506 -0.602299 -0.613030
    42 1.520302 -0.138196 0.044073 0.011765 -0.146727 -0.485045
    43 1.049988 -0.147821 0.032291 0.039845 -0.189814 -0.773094
    44 0.120153 -0.050270 -0.054489 0.287569 3.110905 1.561085
    45 -4.138074 -9.075127 -4.505327 -1.329341 -4.791891 -1.116955
    46 -0.094468 -8.423074 0.041418 -0.300374 -1.096646 0.306651
    47 0.447953 -2.798986 -0.200443 -1.418860 0.028039 0.095764
    48 -0.032909 -1.499736 0.020565 -1.128332 0.021944 -0.019149
    49 -0.027022 -1.073014 -0.016304 0.139044 -0.003883 0.000216
    50 -0.249534 -2.846964 -0.174213 -1.175083 -0.020607 -0.002524
    51 0.043235 -1.660503 0.080387 -1.037715 -0.017023 0.001954
    52 0.031729 -1.160830 0.058838 0.057374 0.001553 0.009235
    53 -0.963866 -2.785145 -0.085350 -0.963064 0.138463 -0.098316
    54 0.028479 -1.406973 -0.021074 -1.038115 -0.028344 -0.035510
    55 0.021413 -0.957781 0.020046 -0.008050 -0.000084 -0.000527
    56 1.164475 -2.543940 -0.170330 -1.451468 0.031337 0.326238
    57 0.024032 -1.144668 -0.005631 -1.151669 0.017078 0.057923
    58 0.014898 -0.883989 -0.019848 0.054443 0.002253 -0.006064
    59 -0.586770 -1.264477 0.200161 -0.031930 -0.475637 -2.691387
    60 1.546273 0.039149 0.016848 -0.008369 -0.002544 0.491516
    61 1.117947 0.048424 -0.005766 0.001099 -0.023736 0.003583
    62 -0.139399 -0.111698 0.014397 0.588245 0.035396 1.416810
    63 -4.174805 7.823521 -0.317560 1.581655 -0.014599 -1.205150
  time 4
    0 3.367289 -7.354573 -9.721422 -1.378200 -1.391276 1.291742
    1 1.183468 -7.388521 0.000000 0.000001 -0.000001 -1.570796
    2 -0.553688 1.425632 0.000002 -0.804253 -0.000016 -3.141588
    3 1.649446 -0.129600 0.000000 -0.000011 0.000001 -2.879774
    4 3.278631 -0.133378 0.000000 -0.000001 0.000003 -0.698113
    5 6.274336 3.093666 -0.000006 0.000001 0.000001 1.516356
    6 9.264055 3.179604 -0.000008 0.000001 0.000001 1.355778
    7 11.679820 3.160074 -0.000010 0.000001 0.000001 1.118416
    8 13.916110 3.031166 -0.000011 0.000001 0.000001 0.867083
    9 2.794423 3.031162 -0.000004 0.000001 0.000001 1.570796
    10 2.355293 2.816935 -0.000003 0.000001 0.000001 1.570796
    11 -0.657306 -28.228015 -156.346268 0.000000 0.000000 1.570796
    12 -2.432416 -42.774702 -156.346268 0.000000 0.000000 1.894900
    13 1.907722 -41.461036 -156.346268 0.000000 0.000000 1.211838
    14 4.577870 -41.683039 -155.651093 0.000000 0.000000 0.872617
    15 -5.748441 -41.335805 -155.652893 0.000000 0.000000 2.268880
    16 62.152776 -103.128049 -163.262100 0.000000 0.000000 2.268880
    17 12.028901 -63.622160 -143.529068 0.000000 0.000000 1.894900
    18 -3.484021 -97.080071 -134.834793 0.000000 0.000000 1.570796
    19 -13.594133 -66.525260 -143.237732 0.000000 0.000000 1.211838
    20 -75.159407 -80.943632 -156.800201 0.000000 0.000000 0.872617
    21 -8.793137 -42.773115 -154.503411 0.000000 0.000000 -0.805064
    22 -0.000031 0.000000 0.000000 0.000000 0.000000 0.000000
    23 10.969185 -42.773370 -18.090638 0.999049 0.000000 -2.386316
    24 0.000000 -0.000015 0.000015 0.000000 0.000000 0.000000
    25 0.317570 1.916762 -5.272979 -0.042401 -0.107873 0.244911
    26 7.411608 0.856824 -5.303831 0.652311 -1.866693 -1.279078
    27 7.440962 -2.436976 -0.415440 -1.565852 -0.030718 -3.373156
    28 -0.040670 -8.459673 -0.092415 0.206174 0.389747 -0.328376
    29 -0.488518 -2.755602 -0.228260 -1.133236 -0.006039 -0.237956
    30 0.039887 -1.538386 0.018135 -1.722725 -0.009156 0.038651
    31 0.028786 -1.095263 -0.069985 -0.383577 -0.008233 0.006148
    32 0.250027 -2.820665 -0.238396 -0.988370 0.012983 -0.240501
    33 -0.049759 -1.594604 0.026258 -1.647162 -0.001678 -0.043542
    34 -0.034142 -1.156125 0.057437 -0.721429 0.008269 -0.017833
    35 0.957766 -2.746780 -0.090302 -0.100082 -0.057496 -0.007230
    36 -0.033420 -1.397129 -0.030789 -1.176887 -0.000563 -0.056664
    37 -0.022360 -0.965249 -0.008561 -1.106257 0.000875 -0.053236
    38 -1.180681 -2.507217 -0.193859 -1.164592 -0.000285 -0.267561
    39 -0.024967 -1.127840 0.017597 -1.469580 -0.008629 -0.059958
    40 -0.020057 -0.894874 0.013996 -0.359129 0.005920 -0.012200
    41 0.583510 -1.197277 0.181473 0.278506 -0.602299 -0.613030
    42 1.520302 -0.138196 0.044073 0.011765 -0.146727 -0.485045
    43 1.049988 -0.147821 0.032291 0.039845 -0.189814 -0.773094
    44 0.120153 -0.050270 -0.054489 0.287569 3.110905 1.561085
    45 -4.540430 -8.805588 -5.056125 -1.501579 -4.818823 -1.349592
    46 -0.102281 -8.419168 0.037511 -0.370559 -1.092350 0.419916
    47 0.447953 -2.798986 -0.200443 -1.418860 0.028039 0.095764
    48 -0.032909 -1.499736 0.020565 -1.128332 0.021944 -0.019149
    49 -0.027022 -1.073014 -0.016304 0.139044 -0.003883 0.000216
    50 -0.249534 -2.846964 -0.174213 -1.175083 -0.020607 -0.002524
    51 0.043235 -1.660503 0.080387 -1.037715 -0.017023 0.001954
    52 0.031729 -1.160830 0.058838 0.057374 0.001553 0.009235
    53 -0.963866 -2.785145 -0.085350 -0.963064 0.138463 -0.098316
    54 0.028479 -1.406973 -0.021074 -1.038115 -0.028344 -0.035510
    55 0.021413 -0.957781 0.020046 -0.008050 -0.000084 -0.000527
    56 1.164475 -2.543940 -0.170330 -1.451468 0.031337 0.326238
    57 0.024032 -1.144668 -0.005631 -1.151669 0.017078 0.057923
    58 0.014898 -0.883989 -0.019848 0.054443 0.002253 -0.006064
    59 -0.586770 -1.264477 0.200161 -0.031930 -0.475637 -2.691387
    60 1.546273 0.039149 0.016848 -0.008369 -0.002544 0.491516
    61 1.117947 0.048424 -0.005766 0.001099 -0.023736 0.003583
    62 -0.139399 -0.111698 0.014397 0.588245 0.035396 1.416810
    63 -5.163116 7.143813 -0.344905 1.581020 -0.018434 -1.059653
  time 5
    0 2.578203 -6.913153 -10.229250 -1.206508 -1.433640 1.083044
    1 1.183468 -7.388521 0.000000 0.000001 -0.000001 -1.570796
    2 -0.553688 1.425632 0.000002 -1.178082 -0.000016 -3.141588
    3 1.649446 -0.129600 0.000000 -0.000011 0.000001 -2.879774
    4 3.278631 -0.133378 0.000000 -0.000001 0.000003 -0.698113
    5 7.317337 3.246014 -0.000006 0.000001 0.000001 1.386495
    6 10.182052 3.304608 -0.000008 0.000001 0.000001 1.174968
    7 12.222805 3.210857 -0.000010 0.000001 0.000001 0.945292
    8 14.060645 3.031166 -0.000011 0.000001 0.000001 0.785404
    9 3.333502 3.136634 -0.000004 0.000001 0.000001 1.516356
    10 2.355293 2.816935 -0.000003 0.000001 0.000001 1.570796
    11 -0.657306 -28.228015 -16.912672 0.000000 0.000000 1.570796
    12 -1.631610 -45.157587 -16.912672 0.000000 0.000000 1.894900
    13 1.032696 -43.793139 -16.912672 0.000000 0.000000 1.211838
    14 2.995790 -43.565909 -16.011682 0.000000 0.000000 0.872617
    15 -4.092140 -43.312428 -16.219297 0.000000 0.000000 2.268880
    16 28.641610 -63.192887 -14.905715 0.000000 0.000000 2.268880
    17 7.487903 -50.117007 -4.099728 0.000000 0.000000 1.894900
    18 -3.484021 -82.837638 4.594876 0.000000 0.000000 1.570796
    19 -8.586168 -53.188027 -3.804136 0.000000 0.000000 1.211838
    20 -21.735902 -49.142307 -3.483662 0.000000 0.000000 0.872617
    21 -8.793137 -42.773115 -123.345742 0.000000 0.000000 -0.805064
    22 -0.000031 0.000000 0.000000 0.000000 0.000000 0.000000
    23 10.969185 -42.773370 -18.090638 0.999049 0.000000 -2.386316
    24 0.000000 -0.000015 0.000015 0.000000 0.000000 0.000000
    25 0.317570 2.213646 -5.390170 -0.042401 -0.107873 0.244911
    26 7.224102 0.724007 -5.366333 0.684507 -1.842913 -1.377216
    27 7.550341 -2.163530 -0.411533 -1.566511 -0.030323 -3.337200
    28 -0.040670 -8.459673 -0.092415 0.222701 0.394523 -0.355413
    29 -0.488518 -2.755602 -0.228260 -1.133236 -0.006039 -0.237956
    30 0.039887 -1.538386 0.018135 -1.722725 -0.009156 0.038651
    31 0.028786 -1.095263 -0.069985 -0.383577 -0.008233 0.006148
    32 0.250027 -2.820665 -0.238396 -0.988370 0.012983 -0.240501
    33 -0.049759 -1.594604 0.026258 -1.647162 -0.001678 -0.043542
    34 -0.034142 -1.156125 0.057437 -0.721429 0.008269 -0.017833
    35 0.957766 -2.746780 -0.090302 -0.100082 -0.057496 -0.007230
    36 -0.033420 -1.397129 -0.030789 -1.176887 -0.000563 -0.056664
    37 -0.022360 -0.965249 -0.008561 -1.106257 0.000875 -0.053236
    38 -1.180681 -2.507217 -0.193859 -1.164592 -0.000285 -0.267561
    39 -0.024967 -1.127840 0.017597 -1.469580 -0.008629 -0.059958
    40 -0.020057 -0.894874 0.013996 -0.359129 0.005920 -0.012200
    41 0.583510 -1.197277 0.181473 0.278506 -0.602299 -0.613030
    42 1.520302 -0.138196 0.044073 0.011765 -0.146727 -0.485045
    43 1.049988 -0.147821 0.032291 0.039845 -0.189814 -0.773094
    44 0.120153 -0.050270 -0.054489 0.287569 3.110905 1.561085
    45 -5.044352 -8.278228 -5.778803 1.428867 -4.596279 1.508545
    46 -0.117906 -8.415261 0.033605 -0.455503 -1.109535 0.549406
    47 0.447953 -2.798986 -0.200443 -1.418860 0.028039 0.095764
    48 -0.032909 -1.499736 0.020565 -1.128332 0.021944 -0.019149
    49 -0.027022 -1.073014 -0.016304 0.139044 -0.003883 0.000216
    50 -0.249534 -2.846964 -0.174213 -1.175083 -0.020607 -0.002524
    51 0.043235 -1.660503 0.080387 -1.037715 -0.017023 0.001954
    52 0.031729 -1.160830 0.058838 0.057374 0.001553 0.009235
    53 -0.963866 -2.785145 -0.085350 -0.963064 0.138463 -0.098316
    54 0.028479 -1.406973 -0.021074 -1.038115 -0.028344 -0.035510
    55 0.021413 -0.957781 0.020046 -0.008050 -0.000084 -0.000527
    56 1.164475 -2.543940 -0.170330 -1.451468 0.031337 0.326238
    57 0.024032 -1.144668 -0.005631 -1.151669 0.017078 0.057923
    58 0.014898 -0.883989 -0.019848 0.054443 0.002253 -0.006064
    59 -0.586770 -1.264477 0.200161 -0.031930 -0.475637 -2.691387
    60 1.546273 0.039149 0.016848 -0.008369 -0.002544 0.491516
    61 1.117947 0.048424 -0.005766 0.001099 -0.023736 0.003583
    62 -0.139399 -0.111698 0.014397 0.588245 0.035396 1.416810
    63 -6.186585 6.163314 -0.380062 1.579570 -0.022808 -0.887047
  time 6
    0 1.863337 -6.456108 -10.674576 -1.004112 -1.466715 0.867143
    1 1.183468 -7.388521 0.000000 0.000001 -0.000001 -1.570796
    2 -0.553688 1.425632 0.000002 1.558177 -3.141480 -0.000092
    3 1.649446 -0.129600 0.000000 -0.000011 0.000001 -2.879774
    4 3.278631 -0.133378 0.000000 -0.000001 0.000003 -0.698113
    5 8.563469 3.429614 -0.000006 0.000001 0.000001 1.231515
    6 10.947700 3.410080 -0.000008 0.000001 0.000001 1.023463
    7 12.453281 3.230389 -0.000010 0.000001 0.000001 0.872667
    8 14.060645 3.031166 -0.000011 0.000001 0.000001 0.785404
    9 4.626510 3.390548 -0.000004 0.000001 0.000001 1.386495
    10 2.945155 2.922407 -0.000003 0.000001 0.000001 1.543579
    11 -0.657306 -25.774815 -16.912672 0.000000 0.000000 1.570796
    12 -2.283974 -43.220028 -16.912672 0.000000 0.000000 1.894900
    13 1.802250 -41.742295 -16.912672 0.000000 0.000000 1.211838
    14 4.542712 -41.726009 -15.569880 0.000000 0.000000 0.872617
    15 -5.349991 -41.812382 -16.219297 0.000000 0.000000 2.268880
    16 41.012251 -77.938662 -15.836233 0.000000 0.000000 2.268880
    17 10.811026 -64.624254 -4.099728 0.000000 0.000000 1.894900
    18 -3.484021 -92.299219 4.594876 0.000000 0.000000 1.570796
    19 -13.965238 -67.523860 -3.804136 0.000000 0.000000 1.211838
    20 -36.177749 -63.042277 -4.924836 0.000000 0.000000 0.872617
    21 -8.793137 -42.773115 -92.188072 0.000000 0.000000 -0.805064
    22 -0.000031 0.000000 0.000000 0.000000 0.000000 0.000000
    23 10.969185 -42.773370 -18.090638 0.999049 0.000000 -2.386316
    24 0.000000 -0.000015 0.000015 0.000000 0.000000 0.000000
    25 0.317570 2.514437 -5.507361 -0.042401 -0.107873 0.244911
    26 7.009252 0.606816 -5.424928 0.735293 -1.821923 -1.495780
    27 7.648000 -1.890084 -0.407627 -1.567146 -0.029903 -3.301674
    28 -0.040670 -8.467485 -0.088509 0.269747 0.397766 -0.376240
    29 -0.488518 -2.755602 -0.228260 -1.133236 -0.006039 -0.237956
    30 0.039887 -1.538386 0.018135 -1.722725 -0.009156 0.038651
    31 0.028786 -1.095263 -0.069985 -0.383577 -0.008233 0.006148
    32 0.250027 -2.820665 -0.238396 -0.988370 0.012983 -0.240501
    33 -0.049759 -1.594604 0.026258 -1.647162 -0.001678 -0.043542
    34 -0.034142 -1.156125 0.057437 -0.721429 0.008269 -0.017833
    35 0.957766 -2.746780 -0.090302 -0.100082 -0.057496 -0.007230
    36 -0.033420 -1.397129 -0.030789 -1.176887 -0.000563 -0.056664
    37 -0.022360 -0.965249 -0.008561 -1.106257 0.000875 -0.053236
    38 -1.180681 -2.507217 -0.193859 -1.164592 -0.000285 -0.267561
    39 -0.024967 -1.127840 0.017597 -1.469580 -0.008629 -0.059958
    40 -0.020057 -0.894874 0.013996 -0.359129 0.005920 -0.012200
    41 0.583510 -1.197277 0.181473 0.278506 -0.602299 -0.613030
    42 1.520302 -0.138196 0.044073 0.011765 -0.146727 -0.485045
    43 1.049988 -0.147821 0.032291 0.039845 -0.189814 -0.773094
    44 0.120153 -0.050270 -0.054489 0.287569 3.110905 1.561085
    45 -5.431083 -7.844621 -6.212410 1.166670 -4.603672 1.191834
    46 -0.125719 -8.407448 0.029699 -0.569160 -1.122773 0.673250
    47 0.447953 -2.798986 -0.200443 -1.418860 0.028039 0.095764
    48 -0.032909 -1.499736 0.020565 -1.128332 0.021944 -0.019149
    49 -0.027022 -1.073014 -0.016304 0.139044 -0.003883 0.000216
    50 -0.249534 -2.846964 -0.174213 -1.175083 -0.020607 -0.002524
    51 0.043235 -1.660503 0.080387 -1.037715 -0.017023 0.001954
    52 0.031729 -1.160830 0.058838 0.057374 0.001553 0.009235
    53 -0.963866 -2.785145 -0.085350 -0.963064 0.138463 -0.098316
    54 0.028479 -1.406973 -0.021074 -1.038115 -0.028344 -0.035510
    55 0.021413 -0.957781 0.020046 -0.008050 -0.000084 -0.000527
    56 1.164475 -2.543940 -0.170330 -1.451468 0.031337 0.326238
    57 0.024032 -1.144668 -0.005631 -1.151669 0.017078 0.057923
    58 0.014898 -0.883989 -0.019848 0.054443 0.002253 -0.006064
    59 -0.586770 -1.264477 0.200161 -0.031930 -0.475637 -2.691387
    60 1.546273 0.039149 0.016848 -0.008369 -0.002544 0.491516
    61 1.117947 0.048424 -0.005766 0.001099 -0.023736 0.003583
    62 -0.139399 -0.111698 0.014397 0.588245 0.035396 1.416810
    63 -6.670975 5.557827 -0.395688 1.578467 -0.025061 -0.793251
  time 7
    0 1.164097 -6.061565 -11.018337 -0.904157 -1.489328 0.796060
    1 1.183468 -7.388521 0.000000 0.000001 -0.000001 -1.570796
    2 -0.553688 1.425632 0.000002 1.140361 -3.141480 -0.000092
    3 1.649446 -0.129600 0.000000 -0.000011 0.000001 -2.879774
    4 3.278631 -0.133378 0.000000 -0.000001 0.000003 -0.698113
    5 9.606469 3.581962 -0.000006 0.000001 0.000001 1.101654
    6 11.271929 3.456956 -0.000008 0.000001 0.000001 0.959931
    7 12.453281 3.230389 -0.000010 0.000001 0.000001 0.872667
    8 14.060645 3.031166 -0.000011 0.000001 0.000001 0.785404
    9 6.173432 3.695245 -0.000004 0.000001 0.000001 1.231515
    10 4.359260 3.176321 -0.000003 0.000001 0.000001 1.478646
    11 -0.657306 -19.923074 -16.912672 0.000000 0.000000 1.570796
    12 -3.834803 -38.598793 -16.912672 0.000000 0.000000 1.894900
    13 3.638244 -36.843708 -16.912672 0.000000 0.000000 1.211838
    14 8.230325 -37.331344 -15.299652 0.000000 0.000000 0.872617
    15 -8.353989 -38.234148 -16.219297 0.000000 0.000000 2.268880
    16 70.514327 -113.099242 -18.046781 0.000000 0.000000 2.268880
    17 19.331623 -99.227354 -4.099728 0.000000 0.000000 1.894900
    18 -3.484021 -117.092067 4.594876 0.000000 0.000000 1.570796
    19 -26.789849 -101.704750 -3.804136 0.000000 0.000000 1.211838
    20 -70.624113 -96.190842 -8.368679 0.000000 0.000000 0.872617
    21 -8.793137 -42.773115 -63.561562 0.000000 0.000000 -0.805064
    22 -0.000031 0.000000 0.000000 0.000000 0.000000 0.000000
    23 10.969185 -42.773370 -18.090638 0.999049 0.000000 -2.386316
    24 0.000000 -0.000015 0.000015 0.000000 0.000000 0.000000
    25 0.317570 2.787883 -5.616740 -0.042401 -0.107873 0.244911
    26 6.692836 0.462281 -5.487430 3.969308 -1.337401 1.472216
    27 7.757378 -1.538511 -0.403721 -1.567937 -0.029340 -3.256173
    28 -0.048483 -8.483111 -0.092415 0.383617 0.396921 -0.379987
    29 -0.488518 -2.755602 -0.228260 -1.133236 -0.006039 -0.237956
    30 0.039887 -1.538386 0.018135 -1.722725 -0.009156 0.038651
    31 0.028786 -1.095263 -0.069985 -0.383577 -0.008233 0.006148
    32 0.250027 -2.820665 -0.238396 -0.988370 0.012983 -0.240501
    33 -0.049759 -1.594604 0.026258 -1.647162 -0.001678 -0.043542
    34 -0.034142 -1.156125 0.057437 -0.721429 0.008269 -0.017833
    35 0.957766 -2.746780 -0.090302 -0.100082 -0.057496 -0.007230
    36 -0.033420 -1.397129 -0.030789 -1.176887 -0.000563 -0.056664
    37 -0.022360 -0.965249 -0.008561 -1.106257 0.000875 -0.053236
    38 -1.180681 -2.507217 -0.193859 -1.164592 -0.000285 -0.267561
    39 -0.024967 -1.127840 0.017597 -1.469580 -0.008629 -0.059958
    40 -0.020057 -0.894874 0.013996 -0.359129 0.005920 -0.012200
    41 0.583510 -1.197277 0.181473 0.278506 -0.602299 -0.613030
    42 1.520302 -0.138196 0.044073 0.011765 -0.146727 -0.485045
    43 1.049988 -0.147821 0.032291 0.039845 -0.189814 -0.773094
    44 0.120153 -0.050270 -0.054489 0.287569 3.110905 1.561085
    45 -5.657652 -7.637583 -6.396010 0.879926 -4.614837 0.874646
    46 -0.137438 -8.395729 0.017980 -0.721489 -1.115329 0.805741
    47 0.447953 -2.798986 -0.200443 -1.418860 0.028039 0.095764
    48 -0.032909 -1.499736 0.020565 -1.128332 0.021944 -0.019149
    49 -0.027022 -1.073014 -0.016304 0.139044 -0.003883 0.000216
    50 -0.249534 -2.846964 -0.174213 -1.175083 -0.020607 -0.002524
    51 0.043235 -1.660503 0.080387 -1.037715 -0.017023 0.001954
    52 0.031729 -1.160830 0.058838 0.057374 0.001553 0.009235
    53 -0.963866 -2.785145 -0.085350 -0.963064 0.138463 -0.098316
    54 0.028479 -1.406973 -0.021074 -1.038115 -0.028344 -0.035510
    55 0.021413 -0.957781 0.020046 -0.008050 -0.000084 -0.000527
    56 1.164475 -2.543940 -0.170330 -1.451468 0.031337 0.326238
    57 0.024032 -1.144668 -0.005631 -1.151669 0.017078 0.057923
    58 0.014898 -0.883989 -0.019848 0.054443 0.002253 -0.006064
    59 -0.586770 -1.264477 0.200161 -0.031930 -0.475637 -2.691387
    60 1.546273 0.039149 0.016848 -0.008369 -0.002544 0.491516
    61 1.117947 0.048424 -0.005766 0.001099 -0.023736 0.003583
    62 -0.139399 -0.111698 0.014397 0.588245 0.035396 1.416810
    63 -6.776447 5.413291 -0.399594 1.578179 -0.025565 -0.771454
  time 8
    0 0.445325 -5.631864 -11.295689 -0.937730 -1.514897 0.878232
    1 1.183468 -7.388521 0.000000 0.000001 -0.000001 -1.570796
    2 -0.553688 1.425632 0.000002 0.728821 -3.141480 -0.000092
    3 1.649446 -0.129600 0.000000 -0.000011 0.000001 -2.879774
    4 3.278631 -0.133378 0.000000 -0.000001 0.000003 -0.698113
    5 10.043983 3.644464 -0.000006 0.000001 0.000001 1.047198
    6 11.271929 3.456956 -0.000008 0.000001 0.000001 0.959931
    7 12.453281 3.230389 -0.000010 0.000001 0.000001 0.872667
    8 14.060645 3.031166 -0.000011 0.000001 0.000001 0.785404
    9 7.466441 3.953065 -0.000004 0.000001 0.000001 1.101654
    10 6.042906 3.481018 -0.000003 0.000001 0.000001 1.401154
    11 -0.657306 -12.942392 -16.912672 0.000000 0.000000 1.570796
    12 -5.690328 -33.083000 -16.912672 0.000000 0.000000 1.894900
    13 5.833623 -30.999779 -16.912672 0.000000 0.000000 1.211838
    14 12.632803 -32.085090 -15.162393 0.000000 0.000000 0.872617
    15 -11.936130 -33.964486 -16.219297 0.000000 0.000000 2.268880
    16 105.733068 -155.068956 -20.688545 0.000000 0.000000 2.268880
    17 30.881061 -140.536780 -4.099728 0.000000 0.000000 1.894900
    18 -3.484021 -151.884655 4.594876 0.000000 0.000000 1.570796
    19 -42.098909 -142.495019 -3.804136 0.000000 0.000000 1.211838
    20 -111.730836 -135.744848 -12.481639 0.000000 0.000000 0.872617
    21 -8.793137 -42.773115 -39.984521 0.000000 0.000000 -0.805064
    22 -0.000031 0.000000 0.000000 0.000000 0.000000 0.000000
    23 10.969185 -42.773370 -18.090638 0.999049 0.000000 -2.386316
    24 0.000000 -0.000015 0.000015 0.000000 0.000000 0.000000
    25 0.317570 3.014452 -5.706586 -0.042401 -0.107873 0.244911
    26 6.310012 0.337277 -5.534307 4.088128 -1.348768 1.261271
    27 7.862850 -1.143968 -0.399814 -1.568788 -0.028669 -3.206294
    28 -0.060202 -8.498736 -0.096321 0.532985 0.394405 -0.379987
    29 -0.488518 -2.755602 -0.228260 -1.133236 -0.006039 -0.237956
    30 0.039887 -1.538386 0.018135 -1.722725 -0.009156 0.038651
    31 0.028786 -1.095263 -0.069985 -0.383577 -0.008233 0.006148
    32 0.250027 -2.820665 -0.238396 -0.988370 0.012983 -0.240501
    33 -0.049759 -1.594604 0.026258 -1.647162 -0.001678 -0.043542
    34 -0.034142 -1.156125 0.057437 -0.721429 0.008269 -0.017833
    35 0.957766 -2.746780 -0.090302 -0.100082 -0.057496 -0.007230
    36 -0.033420 -1.397129 -0.030789 -1.176887 -0.000563 -0.056664
    37 -0.022360 -0.965249 -0.008561 -1.106257 0.000875 -0.053236
    38 -1.180681 -2.507217 -0.193859 -1.164592 -0.000285 -0.267561
    39 -0.024967 -1.127840 0.017597 -1.469580 -0.008629 -0.059958
    40 -0.020057 -0.894874 0.013996 -0.359129 0.005920 -0.012200
    41 0.583510 -1.197277 0.181473 0.278506 -0.602299 -0.613030
    42 1.520302 -0.138196 0.044073 0.011765 -0.146727 -0.485045
    43 1.049988 -0.147821 0.032291 0.039845 -0.189814 -0.773094
    44 0.120153 -0.050270 -0.054489 0.287569 3.110905 1.561085
    45 -5.810000 -7.426639 -6.556171 0.613362 -4.616572 0.589940
    46 -0.145251 -8.380104 0.006260 -0.886841 -1.095847 0.947030
    47 0.447953 -2.798986 -0.200443 -1.418860 0.028039 0.095764
    48 -0.032909 -1.499736 0.020565 -1.128332 0.021944 -0.019149
    49 -0.027022 -1.073014 -0.016304 0.139044 -0.003883 0.000216
    50 -0.249534 -2.846964 -0.174213 -1.175083 -0.020607 -0.002524
    51 0.043235 -1.660503 0.080387 -1.037715 -0.017023 0.001954
    52 0.031729 -1.160830 0.058838 0.057374 0.001553 0.009235
    53 -0.963866 -2.785145 -0.085350 -0.963064 0.138463 -0.098316
    54 0.028479 -1.406973 -0.021074 -1.038115 -0.028344 -0.035510
    55 0.021413 -0.957781 0.020046 -0.008050 -0.000084 -0.000527
    56 1.164475 -2.543940 -0.170330 -1.451468 0.031337 0.326238
    57 0.024032 -1.144668 -0.005631 -1.151669 0.017078 0.057923
    58 0.014898 -0.883989 -0.019848 0.054443 0.002253 -0.006064
    59 -0.586770 -1.264477 0.200161 -0.031930 -0.475637 -2.691387
    60 1.546273 0.039149 0.016848 -0.008369 -0.002544 0.491516
    61 1.117947 0.048424 -0.005766 0.001099 -0.023736 0.003583
    62 -0.139399 -0.111698 0.014397 0.588245 0.035396 1.416810
    63 -6.885825 5.245317 -0.403501 1.577844 -0.026128 -0.746932
  time 9
    0 -0.097660 -5.241227 -11.459756 -1.229559 -1.533827 1.214878
    1 1.183468 -7.388521 0.000000 0.000001 -0.000001 -1.570796
    2 -0.553688 1.425632 0.000002 0.342390 -3.141480 -0.000092
    3 1.649446 -0.129600 0.000000 -0.000011 0.000001 -2.879774
    4 3.278631 -0.133378 0.000000 -0.000001 0.000003 -0.698113
    5 10.043983 3.644464 -0.000006 0.000001 0.000001 1.047198
    6 11.271929 3.456956 -0.000008 0.000001 0.000001 0.959931
    7 12.453281 3.230389 -0.000010 0.000001 0.000001 0.872667
    8 14.060645 3.031166 -0.000011 0.000001 0.000001 0.785404
    9 8.009426 4.058537 -0.000004 0.000001 0.000001 1.047198
    10 7.457011 3.738838 -0.000003 0.000001 0.000001 1.336234
    11 -0.657306 -7.094558 -16.912672 0.000000 0.000000 1.570796
    12 -7.241156 -28.461765 -16.912672 0.000000 0.000000 1.894900
    13 7.669617 -26.105099 -16.912672 0.000000 0.000000 1.211838
    14 16.320416 -27.690424 -15.110921 0.000000 0.000000 0.872617
    15 -14.936221 -30.390159 -16.219297 0.000000 0.000000 2.268880
    16 135.235144 -190.229536 -22.903633 0.000000 0.000000 2.268880
    17 43.281654 -175.139879 -4.099728 0.000000 0.000000 1.894900
    18 -3.484021 -191.320427 4.594876 0.000000 0.000000 1.570796
    19 -54.919613 -176.675909 -3.804136 0.000000 0.000000 1.211838
    20 -146.173293 -168.893413 -15.925483 0.000000 0.000000 0.872617
    21 -8.793137 -42.773115 -23.988110 0.000000 0.000000 -0.805064
    22 128.171084 0.000000 0.000000 0.000000 0.000000 0.000000
    23 10.969185 -42.773370 -18.090638 0.999049 0.000000 -2.386316
    24 134.548591 -0.000015 0.000015 0.000000 0.000000 0.000000
    25 0.317570 3.170707 -5.765182 -0.042401 -0.107873 0.244911
    26 5.985783 0.266962 -5.553839 4.182514 -1.351976 1.090806
    27 7.929259 -0.823645 -0.395908 -1.569435 -0.028105 -3.165959
    28 -0.068015 -8.514362 -0.104134 0.662575 0.391497 -0.378258
    29 -0.488518 -2.755602 -0.228260 -1.133236 -0.006039 -0.237956
    30 0.039887 -1.538386 0.018135 -1.722725 -0.009156 0.038651
    31 0.028786 -1.095263 -0.069985 -0.383577 -0.008233 0.006148
    32 0.250027 -2.820665 -0.238396 -0.988370 0.012983 -0.240501
    33 -0.049759 -1.594604 0.026258 -1.647162 -0.001678 -0.043542
    34 -0.034142 -1.156125 0.057437 -0.721429 0.008269 -0.017833
    35 0.957766 -2.746780 -0.090302 -0.100082 -0.057496 -0.007230
    36 -0.033420 -1.397129 -0.030789 -1.176887 -0.000563 -0.056664
    37 -0.022360 -0.965249 -0.008561 -1.106257 0.000875 -0.053236
    38 -1.180681 -2.507217 -0.193859 -1.164592 -0.000285 -0.267561
    39 -0.024967 -1.127840 0.017597 -1.469580 -0.008629 -0.059958
    40 -0.020057 -0.894874 0.013996 -0.359129 0.005920 -0.012200
    41 0.583510 -1.197277 0.181473 0.278506 -0.602299 -0.613030
    42 1.520302 -0.138196 0.044073 0.011765 -0.146727 -0.485045
    43 1.049988 -0.147821 0.032291 0.039845 -0.189814 -0.773094
    44 0.120153 -0.050270 -0.054489 0.287569 3.110905 1.561085
    45 -5.884221 -7.211789 -6.696800 0.509498 -4.611367 0.479211
    46 -0.153064 -8.372291 -0.001552 -1.010011 -1.074216 1.055463
    47 0.447953 -2.798986 -0.200443 -1.418860 0.028039 0.095764
    48 -0.032909 -1.499736 0.020565 -1.128332 0.021944 -0.019149
    49 -0.027022 -1.073014 -0.016304 0.139044 -0.003883 0.000216
    50 -0.249534 -2.846964 -0.174213 -1.175083 -0.020607 -0.002524
    51 0.043235 -1.660503 0.080387 -1.037715 -0.017023 0.001954
    52 0.031729 -1.160830 0.058838 0.057374 0.001553 0.009235
    53 -0.963866 -2.785145 -0.085350 -0.963064 0.138463 -0.098316
    54 0.028479 -1.406973 -0.021074 -1.038115 -0.028344 -0.035510
    55 0.021413 -0.957781 0.020046 -0.008050 -0.000084 -0.000527
    56 1.164475 -2.543940 -0.170330 -1.451468 0.031337 0.326238
    57 0.024032 -1.144668 -0.005631 -1.151669 0.017078 0.057923
    58 0.014898 -0.883989 -0.019848 0.054443 0.002253 -0.006064
    59 -0.586770 -1.264477 0.200161 -0.031930 -0.475637 -2.691387
    60 1.546273 0.039149 0.016848 -0.008369 -0.002544 0.491516
    61 1.117947 0.048424 -0.005766 0.001099 -0.023736 0.003583
    62 -0.139399 -0.111698 0.014397 0.588245 0.035396 1.416810
    63 -7.057705 4.975778 -0.411313 1.577281 -0.027003 -0.708310
  time 10
    0 -0.304698 -5.069347 -11.518352 -1.497859 -1.538495 1.502904
    1 1.183468 -7.388521 0.000000 0.000001 -0.000001 -1.570796
    2 -0.553688 1.425632 0.000002 -0.000005 -3.141480 -0.000092
    3 1.649446 -0.129600 0.000000 -0.000011 0.000001 -2.879774
    4 3.278631 -0.133378 0.000000 -0.000001 0.000003 -0.698113
    5 10.043983 3.644464 -0.000006 0.000001 0.000001 1.047198
    6 11.271929 3.456956 -0.000008 0.000001 0.000001 0.959931
    7 12.453281 3.230389 -0.000010 0.000001 0.000001 0.872667
    8 14.060645 3.031166 -0.000011 0.000001 0.000001 0.785404
    9 8.009426 4.058537 -0.000004 0.000001 0.000001 1.047198
    10 8.046873 3.844310 -0.000003 0.000001 0.000001 1.309005
    11 -0.657306 -4.641358 -16.912672 0.000000 0.000000 1.570796
    12 -7.893520 -26.524206 -16.912672 0.000000 0.000000 1.894900
    13 8.439172 -24.050349 -16.912672 0.000000 0.000000 1.211838
    14 17.867338 -25.846618 -15.102342 0.000000 0.000000 0.872617
    15 -16.194072 -28.890113 -16.219297 0.000000 0.000000 2.268880
    16 147.605785 -204.975311 -23.829612 0.000000 0.000000 2.268880
    17 54.373823 -189.647127 -4.099728 0.000000 0.000000 1.894900
    18 -3.484021 -230.042826 4.594876 0.000000 0.000000 1.570796
    19 -60.298684 -191.011742 -3.804136 0.000000 0.000000 1.211838
    20 -160.615140 -182.793383 -17.366656 0.000000 0.000000 0.872617
    21 -8.793137 -42.773115 -18.090638 0.000000 0.000000 -0.805064
    22 269.091265 0.000000 0.000000 0.000000 0.000000 0.000000
    23 10.969185 -42.773370 -18.090638 0.999049 0.000000 -2.386316
    24 269.097181 -0.000015 0.000015 0.000000 0.000000 0.000000
    25 0.317570 3.225396 -5.788620 -0.042401 -0.107873 0.244911
    26 5.852967 0.247430 -5.553839 4.215764 -1.352882 1.026464
    27 7.956603 -0.690829 -0.395908 -1.569699 -0.027866 -3.149309
    28 -0.071921 -8.522175 -0.104134 0.717343 0.390062 -0.376083
    29 -0.488518 -2.755602 -0.228260 -1.133236 -0.006039 -0.237956
    30 0.039887 -1.538386 0.018135 -1.722725 -0.009156 0.038651
    31 0.028786 -1.095263 -0.069985 -0.383577 -0.008233 0.006148
    32 0.250027 -2.820665 -0.238396 -0.988370 0.012983 -0.240501
    33 -0.049759 -1.594604 0.026258 -1.647162 -0.001678 -0.043542
    34 -0.034142 -1.156125 0.057437 -0.721429 0.008269 -0.017833
    35 0.957766 -2.746780 -0.090302 -0.100082 -0.057496 -0.007230
    36 -0.033420 -1.397129 -0.030789 -1.176887 -0.000563 -0.056664
    37 -0.022360 -0.965249 -0.008561 -1.106257 0.000875 -0.053236
    38 -1.180681 -2.507217 -0.193859 -1.164592 -0.000285 -0.267561
    39 -0.024967 -1.127840 0.017597 -1.469580 -0.008629 -0.059958
    40 -0.020057 -0.894874 0.013996 -0.359129 0.005920 -0.012200
    41 0.583510 -1.197277 0.181473 0.278506 -0.602299 -0.613030
    42 1.520302 -0.138196 0.044073 0.011765 -0.146727 -0.485045
    43 1.049988 -0.147821 0.032291 0.039845 -0.189814 -0.773094
    44 0.120153 -0.050270 -0.054489 0.287569 3.110905 1.561085
    45 -5.899847 -7.106317 -6.759302 0.490271 -4.609028 0.459721
    46 -0.153064 -8.368385 -0.005459 -1.056416 -1.064675 1.096406
    47 0.447953 -2.798986 -0.200443 -1.418860 0.028039 0.095764
    48 -0.032909 -1.499736 0.020565 -1.128332 0.021944 -0.019149
    49 -0.027022 -1.073014 -0.016304 0.139044 -0.003883 0.000216
    50 -0.249534 -2.846964 -0.174213 -1.175083 -0.020607 -0.002524
    51 0.043235 -1.660503 0.080387 -1.037715 -0.017023 0.001954
    52 0.031729 -1.160830 0.058838 0.057374 0.001553 0.009235
    53 -0.963866 -2.785145 -0.085350 -0.963064 0.138463 -0.098316
    54 0.028479 -1.406973 -0.021074 -1.038115 -0.028344 -0.035510
    55 0.021413 -0.957781 0.020046 -0.008050 -0.000084 -0.000527
    56 1.164475 -2.543940 -0.170330 -1.451468 0.031337 0.326238
    57 0.024032 -1.144668 -0.005631 -1.151669 0.017078 0.057923
    58 0.014898 -0.883989 -0.019848 0.054443 0.002253 -0.006064
    59 -0.586770 -1.264477 0.200161 -0.031930 -0.475637 -2.691387
    60 1.546273 0.039149 0.016848 -0.008369 -0.002544 0.491516
    61 1.117947 0.048424 -0.005766 0.001099 -0.023736 0.003583
    62 -0.139399 -0.111698 0.014397 0.588245 0.035396 1.416810
    63 -7.143646 4.831242 -0.415220 1.576981 -0.027446 -0.688079
end
