version 1
nodes
  0 "Dummy03" -1
  1 "Dummy02" 0
  2 "Dummy01" 0
  3 "phantom01" 2
  4 "dual_phantom slasher_miner_00_p" 3
end
skeleton
  time 0
    0 0.000000 0.000000 0.000000 -0.261799 0.000000 -0.000040
    1 0.000000 0.000000 0.000000 -3.141592 0.000000 -0.436332
    2 0.000000 0.000000 -0.986623 0.000000 0.000000 -1.037539
    3 -25.986792 -37.604488 1.073268 0.104109 3.124911 0.963288
    4 6.150040 -0.000001 0.000000 1.570796 0.000000 -1.570796
  time 1
    0 0.000000 0.000000 0.000000 -0.261799 0.000000 -0.000040
    1 0.000000 0.000000 0.000000 -3.141592 0.000000 0.491250
    2 0.000000 0.000000 -0.986623 0.000000 0.000000 0.393588
    3 -25.986792 -37.604488 1.073268 0.079301 3.124911 0.963288
    4 6.150040 -0.000001 0.000000 1.570796 0.000000 -1.570796
  time 2
    0 0.000000 0.000000 0.000000 -0.261799 0.000000 -0.000040
    1 0.000000 0.000000 0.000000 0.000000 -3.141592 -0.927583
    2 0.000000 0.000000 -0.986623 0.000000 0.000000 1.824802
    3 -25.986792 -37.604488 1.073268 0.017269 3.124911 0.963288
    4 6.150040 -0.000001 0.000000 1.570796 0.000000 -1.570796
  time 3
    0 0.000000 0.000000 0.000000 -0.261799 0.000000 -0.000040
    1 0.000000 0.000000 0.000000 0.000000 -3.141592 -0.000001
    2 0.000000 0.000000 -0.986623 0.000000 0.000000 -3.807808
    3 -25.986792 -37.604488 1.073268 -0.063376 3.124911 0.963288
    4 6.150040 -0.000001 0.000000 1.570796 0.000000 -1.570796
  time 4
    0 0.000000 0.000000 0.000000 -0.261799 0.000000 -0.000040
    1 0.000000 0.000000 0.000000 0.000000 -3.141592 -0.000001
    2 0.000000 0.000000 -0.986623 0.000000 0.000000 -3.807808
    3 -25.986792 -37.604488 1.073268 -0.144020 3.124911 0.963288
    4 6.150040 -0.000001 0.000000 1.570796 0.000000 -1.570796
  time 5
    0 0.000000 0.000000 0.000000 -0.261799 0.000000 -0.000040
    1 0.000000 0.000000 0.000000 0.000000 -3.141592 -0.000001
    2 0.000000 0.000000 -0.986623 0.000000 0.000000 -3.807808
    3 -25.986792 -37.604488 1.073268 -0.206052 3.124911 0.963288
    4 6.150040 -0.000001 0.000000 1.570796 0.000000 -1.570796
  time 6
    0 0.000000 0.000000 0.000000 -0.261799 0.000000 -0.000040
    1 0.000000 0.000000 0.000000 0.000000 -3.141592 -0.000001
    2 0.000000 0.000000 -0.986623 0.000000 0.000000 -3.807808
    3 -25.986792 -37.604488 1.073268 -0.230872 3.124911 0.963288
    4 6.150040 -0.000001 0.000000 1.570796 0.000000 -1.570796
  time 7
    0 0.000000 0.000000 0.000000 -0.261799 0.000000 -0.000040
    1 0.000000 0.000000 0.000000 0.000000 -3.141592 -0.000001
    2 0.000000 0.000000 -0.986623 0.000000 0.000000 -3.807808
    3 -25.986792 -37.604488 1.073268 -0.230872 3.124911 0.963288
    4 6.150040 -0.000001 0.000000 1.570796 0.000000 -1.570796
  time 8
    0 0.000000 0.000000 0.000000 -0.261799 0.000000 -0.000040
    1 0.000000 0.000000 0.000000 0.000000 -3.141592 -0.000001
    2 0.000000 0.000000 -0.986623 0.000000 0.000000 -3.807808
    3 -25.986792 -37.604488 1.073268 -0.230872 3.124911 0.963288
    4 6.150040 -0.000001 0.000000 1.570796 0.000000 -1.570796
  time 9
    0 0.000000 0.000000 0.000000 -0.261799 0.000000 -0.000040
    1 0.000000 0.000000 0.000000 0.000000 -3.141592 -0.000001
    2 0.000000 0.000000 -0.986623 0.000000 0.000000 -3.807808
    3 -25.986792 -37.604488 1.073268 -0.230872 3.124911 0.963288
    4 6.150040 -0.000001 0.000000 1.570796 0.000000 -1.570796
  time 10
    0 0.000000 0.000000 0.000000 -0.261799 0.000000 -0.000040
    1 0.000000 0.000000 0.000000 0.000000 -3.141592 -0.000001
    2 0.000000 0.000000 -0.986623 0.000000 0.000000 -3.807808
    3 -25.986792 -37.604488 1.073268 -0.230872 3.124911 0.963288
    4 6.150040 -0.000001 0.000000 1.570796 0.000000 -1.570796
  time 11
    0 0.000000 0.000000 0.000000 -0.261799 0.000000 -0.000040
    1 0.000000 0.000000 0.000000 0.000000 -3.141592 -0.000001
    2 0.000000 0.000000 -0.986623 0.000000 0.000000 -3.807808
    3 -25.986792 -37.604488 1.073268 -0.230872 3.124911 0.963288
    4 6.150040 -0.000001 0.000000 1.570796 0.000000 -1.570796
  time 12
    0 0.000000 0.000000 0.000000 -0.261799 0.000000 -0.000040
    1 0.000000 0.000000 0.000000 0.000000 -3.141592 -0.000001
    2 0.000000 0.000000 -0.986623 0.000000 0.000000 -3.807808
    3 -25.986792 -37.604488 1.073268 -0.230872 3.124911 0.963288
    4 6.150040 -0.000001 0.000000 1.570796 0.000000 -1.570796
  time 13
    0 0.000000 0.000000 0.000000 -0.261799 0.000000 -0.000040
    1 0.000000 0.000000 0.000000 0.000000 -3.141592 -0.000001
    2 0.000000 0.000000 -0.986623 0.000000 0.000000 -3.807808
    3 -25.986792 -37.604488 1.073268 -0.230872 3.124911 0.963288
    4 6.150040 -0.000001 0.000000 1.570796 0.000000 -1.570796
  time 14
    0 0.000000 0.000000 0.000000 -0.261799 0.000000 -0.000040
    1 0.000000 0.000000 0.000000 0.000000 -3.141592 -0.000001
    2 0.000000 0.000000 -0.986623 0.000000 0.000000 -3.807808
    3 -25.986792 -37.604488 1.073268 -0.230872 3.124911 0.963288
    4 6.150040 -0.000001 0.000000 1.570796 0.000000 -1.570796
  time 15
    0 0.000000 0.000000 0.000000 -0.261799 0.000000 -0.000040
    1 0.000000 0.000000 0.000000 0.000000 -3.141592 -0.000001
    2 0.000000 0.000000 -0.986623 0.000000 0.000000 -3.807808
    3 -25.986792 -37.604488 1.073268 -0.230872 3.124911 0.963288
    4 6.150040 -0.000001 0.000000 1.570796 0.000000 -1.570796
end
