// Created by Crowbar 0.49.0.0

$modelname "weapons/tfa_cso/c_skull1.mdl"

$Include "csonline_gmod.qci"

$bodygroup "weapon"
{
	studio "v_skull1_v_ref"
}

$CDMaterials "models\weapons\tfa_cso\skull1"

$attachment 0 "skull1_root" -1.5 7.000001 0 rotate -90 0 0
//$attachment 1 "skull1_root" -3 1 0.8

$definebone "root" "" -0.210473 8.571821 -5.575703 0.000000 0.000000 0.000000 0.000000 0.000000 0.000000 -0.000000 0.000000 0.000000
$definebone "Bone01" "root" 9.520576 0.109563 -0.077451 -0.012834 -89.771431 179.846260 0.000000 0.000000 0.000000 0.000000 0.000000 -0.000000
$definebone "Bone_Lefthand" "Bone01" -0.071918 -8.498732 -0.104136 16.477755 0.853593 -1.435030 0.000000 0.000000 0.000000 0.000002 0.000000 -0.000000
$definebone "skull1_root" "Bone_Lefthand" 7.874319 17.776257 -1.129575 -73.432335 -174.628828 83.817999 0.000000 0.000000 0.000000 -0.000000 -0.000003 -0.000000
$definebone "skull1_handle" "skull1_root" -1.147523 -1.960865 0.000001 -0.000000 -26.429974 -0.000000 0.000000 0.000000 0.000000 -0.000000 -0.000000 -0.000000
$definebone "skull1_trigger" "skull1_handle" -0.163763 1.637614 -0.000000 -0.000000 36.466404 -0.000000 0.000000 0.000000 0.000000 -0.000000 -0.000003 -0.000000
$definebone "skull1_device" "skull1_handle" -0.987736 3.671428 -0.000000 0.000000 -153.570057 0.000000 0.000000 0.000000 0.000000 0.000000 -0.000002 0.000000
$definebone "skull1_bullethandl1" "skull1_device" 1.351468 2.708483 0.008303 0.000000 -89.999983 -0.000000 0.000000 0.000000 0.000000 0.000000 0.000002 -0.000000
$definebone "skull1_shell2" "skull1_bullethandl1" 0.016862 0.337509 -0.431804 0.000000 0.000002 -0.000000 0.000000 0.000000 0.000000 0.000000 0.000002 -0.000000
$definebone "skull1_shell6" "skull1_bullethandl1" 0.016862 -0.123119 0.526976 0.000000 0.000002 -0.000000 0.000000 0.000000 0.000000 0.000000 0.000002 -0.000000
$definebone "skull1_shell3" "skull1_bullethandl1" 0.016862 -0.122968 -0.524991 0.000000 0.000002 -0.000000 0.000000 0.000000 0.000000 0.000000 0.000002 -0.000000
$definebone "skull1_shell5" "skull1_bullethandl1" 0.016862 -0.490660 0.244700 0.000000 0.000002 -0.000000 0.000000 0.000000 0.000000 0.000000 0.000002 -0.000000
$definebone "skull1_shell4" "skull1_bullethandl1" 0.016862 -0.491056 -0.242462 0.000000 0.000002 -0.000000 0.000000 0.000000 -0.000000 0.000000 0.000002 -0.000000
$definebone "skull1_shell1" "skull1_bullethandl1" 0.016863 0.542917 0.000816 0.000000 0.000002 -0.000000 0.000000 0.000000 0.000000 0.000000 0.000002 -0.000000
$definebone "skull1_shell7" "skull1_bullethandl1" 0.016862 0.337758 0.423082 0.000000 0.000002 -0.000000 0.000000 -0.000000 0.000000 0.000000 0.000002 -0.000000
$definebone "skull1_hammer" "skull1_handle" -0.805280 0.217896 -0.000000 -0.000000 -105.546389 0.000000 0.000000 0.000000 0.000000 -0.000000 0.000002 0.000000
$definebone "skull1_bullethandl2" "skull1_handle" 0.680887 -2.790014 0.007918 -0.000000 -63.570013 0.000000 0.000000 0.000000 0.000000 -0.000000 0.000003 0.000000
$definebone "skull1_bullet7" "skull1_bullethandl2" 0.054535 -0.308666 0.423467 0.000000 -179.999966 -0.000000 0.000000 0.000000 0.000000 0.000000 0.000003 -0.000000
$definebone "skull1_bullet2" "skull1_bullethandl2" 0.054534 -0.308417 -0.431419 0.000000 -179.999966 -0.000000 0.000000 0.000000 0.000000 0.000000 0.000003 -0.000000
$definebone "skull1_bullet6" "skull1_bullethandl2" 0.054535 0.152212 0.527361 0.000000 -179.999966 -0.000000 0.000000 0.000000 0.000000 0.000000 0.000003 -0.000000
$definebone "skull1_bullet3" "skull1_bullethandl2" 0.054534 0.152060 -0.524606 0.000000 -179.999966 -0.000000 0.000000 0.000000 0.000000 0.000000 0.000003 -0.000000
$definebone "skull1_bullet5" "skull1_bullethandl2" 0.054535 0.519753 0.245085 0.000000 -179.999966 -0.000000 0.000000 0.000000 0.000000 0.000000 0.000003 -0.000000
$definebone "skull1_bullet4" "skull1_bullethandl2" 0.054535 0.520149 -0.242077 0.000000 -179.999966 -0.000000 0.000000 0.000000 0.000000 0.000000 0.000003 -0.000000
$definebone "skull1_bullet1" "skull1_bullethandl2" 0.054534 -0.513825 0.001201 0.000000 -179.999966 -0.000000 0.000000 0.000000 0.000000 0.000000 0.000003 -0.000000

$sequence "idle" {
	"v_skull1_anims\idle"
	fps 30
	loop
	activity "ACT_VM_IDLE" 1
	snap
}
$sequence "idle_leftempty" {
	"v_skull1_anims\idle_leftempty"
	fps 30
}
$sequence "shoot1" {
	"v_skull1_anims\shoot1"
	{ event 5001 0 "21" }
	fps 30
	activity "ACT_VM_PRIMARYATTACK" 1
	snap
}
$sequence "shoot2" {
	"v_skull1_anims\shoot2"
	{ event 5001 0 "21" }
	fps 30
	activity "ACT_VM_PRIMARYATTACK" 1
	snap
}
$sequence "SP_shoot1" {
	"v_skull1_anims\SP_shoot1"
	{ event 5001 0 "21" }
	fps 30
	activity "ACT_VM_SECONDARYATTACK" 1
	snap
}
$sequence "SP_shoot2" {
	"v_skull1_anims\SP_shoot2"
	{ event 5001 0 "21" }
	fps 30
	activity "ACT_VM_SECONDARYATTACK" 1
	snap
}
$sequence "reload" {
	"v_skull1_anims\reload"
	{ event 5004 9 "Skull1.ClipOut" }
	{ event 5004 38 "Skull1.ClipIn" }
	fps 30
	activity "ACT_VM_RELOAD" 1
	snap
}
$sequence "draw" {
	"v_skull1_anims\draw"
	{ event 5004 7 "Skull1.Draw" }
	fps 30
	activity "ACT_VM_DRAW" 1
	snap
}
