// Created by Crowbar 0.56
version 1
nodes
  0 "root" -1
end
skeleton
  time 0
    0 0.000000 0.000000 0.000000 0.000000 0.000000 0.000000
end
triangles
  phy
    0 1.030193 -1.297910 -15.343628 0.843012 0.537693 -0.014693 0 0
    0 1.912797 -1.623177 0.233784 0.963961 0.141139 -0.225518 0 0
    0 1.064559 -1.883998 -14.647580 0.893454 0.423794 -0.148792 0 0
  phy
    0 1.890504 0.796680 -0.536137 0.961463 -0.103939 0.254529 0 0
    0 1.912797 -1.623177 0.233784 0.963961 0.141139 -0.225518 0 0
    0 1.030193 -1.297910 -15.343628 0.843012 0.537693 -0.014693 0 0
  phy
    0 1.030193 -1.297910 -15.343628 0.843012 0.537693 -0.014693 0 0
    0 1.064559 -1.883998 -14.647580 0.893454 0.423794 -0.148792 0 0
    0 -0.009661 -2.375933 -15.229869 0.479800 0.341674 -0.808116 0 0
  phy
    0 0.000194 -1.647912 -15.893631 -0.277638 0.960493 -0.019267 0 0
    0 1.030193 -1.297910 -15.343628 0.843012 0.537693 -0.014693 0 0
    0 -0.009661 -2.375933 -15.229869 0.479800 0.341674 -0.808116 0 0
  phy
    0 0.980193 -0.567910 -15.103630 0.396901 -0.731249 0.554747 0 0
    0 1.890504 0.796680 -0.536137 0.961463 -0.103939 0.254529 0 0
    0 1.030193 -1.297910 -15.343628 0.843012 0.537693 -0.014693 0 0
  phy
    0 0.000193 -0.747912 -15.793628 -0.588178 0.802365 0.101277 0 0
    0 1.030193 -1.297910 -15.343628 0.843012 0.537693 -0.014693 0 0
    0 0.000194 -1.647912 -15.893631 -0.277638 0.960493 -0.019267 0 0
  phy
    0 1.030193 -1.297910 -15.343628 0.843012 0.537693 -0.014693 0 0
    0 0.000193 -0.747912 -15.793628 -0.588178 0.802365 0.101277 0 0
    0 0.980193 -0.567910 -15.103630 0.396901 -0.731249 0.554747 0 0
  phy
    0 0.000192 0.032088 -15.023628 -0.614988 -0.446795 0.649742 0 0
    0 0.000193 -0.747912 -15.793628 -0.588178 0.802365 0.101277 0 0
    0 -0.869807 -0.997913 -15.523628 -0.729443 0.683717 0.021068 0 0
  phy
    0 0.000193 -0.747912 -15.793628 -0.588178 0.802365 0.101277 0 0
    0 0.000194 -1.647912 -15.893631 -0.277638 0.960493 -0.019267 0 0
    0 -0.869807 -0.997913 -15.523628 -0.729443 0.683717 0.021068 0 0
  phy
    0 0.000193 -0.747912 -15.793628 -0.588178 0.802365 0.101277 0 0
    0 0.000192 0.032088 -15.023628 -0.614988 -0.446795 0.649742 0 0
    0 0.980193 -0.567910 -15.103630 0.396901 -0.731249 0.554747 0 0
  phy
    0 1.064559 -1.883998 -14.647580 0.893454 0.423794 -0.148792 0 0
    0 1.071276 -2.843882 0.086072 0.399090 0.316121 -0.860694 0 0
    0 -0.009661 -2.375933 -15.229869 0.479800 0.341674 -0.808116 0 0
  phy
    0 1.064559 -1.883998 -14.647580 0.893454 0.423794 -0.148792 0 0
    0 1.912797 -1.623177 0.233784 0.963961 0.141139 -0.225518 0 0
    0 1.071276 -2.843882 0.086072 0.399090 0.316121 -0.860694 0 0
  phy
    0 0.000192 0.032088 -15.023628 -0.614988 -0.446795 0.649742 0 0
    0 -0.039817 3.832090 -2.383629 0.237695 -0.313094 0.919496 0 0
    0 0.980193 -0.567910 -15.103630 0.396901 -0.731249 0.554747 0 0
  phy
    0 0.000192 0.032088 -15.023628 -0.614988 -0.446795 0.649742 0 0
    0 -0.869807 -0.997913 -15.523628 -0.729443 0.683717 0.021068 0 0
    0 -0.039817 3.832090 -2.383629 0.237695 -0.313094 0.919496 0 0
  phy
    0 0.000194 -1.647912 -15.893631 -0.277638 0.960493 -0.019267 0 0
    0 -0.639662 -1.815934 -15.539867 -0.744295 0.662748 -0.082403 0 0
    0 -0.869807 -0.997913 -15.523628 -0.729443 0.683717 0.021068 0 0
  phy
    0 -0.639662 -1.815934 -15.539867 -0.744295 0.662748 -0.082403 0 0
    0 0.000194 -1.647912 -15.893631 -0.277638 0.960493 -0.019267 0 0
    0 -0.009661 -2.375933 -15.229869 0.479800 0.341674 -0.808116 0 0
  phy
    0 0.980193 -0.567910 -15.103630 0.396901 -0.731249 0.554747 0 0
    0 1.540185 1.662092 -1.253628 -0.019454 -0.140669 0.989866 0 0
    0 1.890504 0.796680 -0.536137 0.961463 -0.103939 0.254529 0 0
  phy
    0 0.980193 -0.567910 -15.103630 0.396901 -0.731249 0.554747 0 0
    0 -0.039817 3.832090 -2.383629 0.237695 -0.313094 0.919496 0 0
    0 1.200184 2.242092 -1.373631 0.005266 -0.130007 0.991499 0 0
  phy
    0 1.200184 2.242092 -1.373631 0.005266 -0.130007 0.991499 0 0
    0 1.540185 1.662092 -1.253628 -0.019454 -0.140669 0.989866 0 0
    0 0.980193 -0.567910 -15.103630 0.396901 -0.731249 0.554747 0 0
  phy
    0 0.180171 -2.267904 35.716370 0.996018 -0.051300 0.072911 0 0
    0 1.912797 -1.623177 0.233784 0.963961 0.141139 -0.225518 0 0
    0 1.890504 0.796680 -0.536137 0.961463 -0.103939 0.254529 0 0
  phy
    0 0.000169 -2.747904 38.086368 -0.838923 0.031644 -0.543329 0 0
    0 1.912797 -1.623177 0.233784 0.963961 0.141139 -0.225518 0 0
    0 0.180171 -2.267904 35.716370 0.996018 -0.051300 0.072911 0 0
  phy
    0 0.180171 -2.267904 35.716370 0.996018 -0.051300 0.072911 0 0
    0 0.110171 -0.397905 31.476370 0.935992 -0.189726 0.296520 0 0
    0 -0.059831 -1.377904 36.256370 -0.976101 -0.131981 0.172649 0 0
  phy
    0 -0.059831 -1.377904 36.256370 -0.976101 -0.131981 0.172649 0 0
    0 0.000169 -2.747904 38.086368 -0.838923 0.031644 -0.543329 0 0
    0 0.180171 -2.267904 35.716370 0.996018 -0.051300 0.072911 0 0
  phy
    0 1.890504 0.796680 -0.536137 0.961463 -0.103939 0.254529 0 0
    0 0.110171 -0.397905 31.476370 0.935992 -0.189726 0.296520 0 0
    0 0.180171 -2.267904 35.716370 0.996018 -0.051300 0.072911 0 0
  phy
    0 -1.109818 2.312090 2.826370 -0.426006 -0.439080 0.791029 0 0
    0 -1.199816 2.242089 -1.373631 -0.002990 0.110608 0.993860 0 0
    0 -1.529817 1.722090 2.596370 -0.468844 -0.302719 0.829787 0 0
  phy
    0 -1.199816 2.242089 -1.373631 -0.002990 0.110608 0.993860 0 0
    0 -1.109818 2.312090 2.826370 -0.426006 -0.439080 0.791029 0 0
    0 -0.039817 3.832090 -2.383629 0.237695 -0.313094 0.919496 0 0
  phy
    0 -1.199816 2.242089 -1.373631 -0.002990 0.110608 0.993860 0 0
    0 -1.489815 1.722089 -1.623631 -0.728971 -0.080890 0.679748 0 0
    0 -1.529817 1.722090 2.596370 -0.468844 -0.302719 0.829787 0 0
  phy
    0 -1.489815 1.722089 -1.623631 -0.728971 -0.080890 0.679748 0 0
    0 -1.199816 2.242089 -1.373631 -0.002990 0.110608 0.993860 0 0
    0 -0.039817 3.832090 -2.383629 0.237695 -0.313094 0.919496 0 0
  phy
    0 -1.059662 -1.885933 -14.579869 -0.692394 -0.222946 -0.686211 0 0
    0 -0.639662 -1.815934 -15.539867 -0.744295 0.662748 -0.082403 0 0
    0 -0.009661 -2.375933 -15.229869 0.479800 0.341674 -0.808116 0 0
  phy
    0 -0.639662 -1.815934 -15.539867 -0.744295 0.662748 -0.082403 0 0
    0 -1.059662 -1.885933 -14.579869 -0.692394 -0.222946 -0.686211 0 0
    0 -1.219807 -1.247913 -14.833630 -0.979078 0.174405 0.104828 0 0
  phy
    0 -0.869807 -0.997913 -15.523628 -0.729443 0.683717 0.021068 0 0
    0 -0.639662 -1.815934 -15.539867 -0.744295 0.662748 -0.082403 0 0
    0 -1.219807 -1.247913 -14.833630 -0.979078 0.174405 0.104828 0 0
  phy
    0 1.200184 2.242092 -1.373631 0.005266 -0.130007 0.991499 0 0
    0 1.390183 1.962092 2.626369 0.849527 -0.020972 0.527128 0 0
    0 1.540185 1.662092 -1.253628 -0.019454 -0.140669 0.989866 0 0
  phy
    0 1.200184 2.242092 -1.373631 0.005266 -0.130007 0.991499 0 0
    0 -0.039817 3.832090 -2.383629 0.237695 -0.313094 0.919496 0 0
    0 1.390183 1.962092 2.626369 0.849527 -0.020972 0.527128 0 0
  phy
    0 1.540185 1.662092 -1.253628 -0.019454 -0.140669 0.989866 0 0
    0 1.390183 1.962092 2.626369 0.849527 -0.020972 0.527128 0 0
    0 1.890504 0.796680 -0.536137 0.961463 -0.103939 0.254529 0 0
  phy
    0 1.890504 0.796680 -0.536137 0.961463 -0.103939 0.254529 0 0
    0 1.390183 1.962092 2.626369 0.849527 -0.020972 0.527128 0 0
    0 0.110171 -0.397905 31.476370 0.935992 -0.189726 0.296520 0 0
  phy
    0 0.110171 -0.397905 31.476370 0.935992 -0.189726 0.296520 0 0
    0 1.390183 1.962092 2.626369 0.849527 -0.020972 0.527128 0 0
    0 1.111524 2.315729 2.787921 0.968130 -0.108650 0.225655 0 0
  phy
    0 1.111524 2.315729 2.787921 0.968130 -0.108650 0.225655 0 0
    0 -0.039817 3.832090 -2.383629 0.237695 -0.313094 0.919496 0 0
    0 0.110171 -0.397905 31.476370 0.935992 -0.189726 0.296520 0 0
  phy
    0 1.390183 1.962092 2.626369 0.849527 -0.020972 0.527128 0 0
    0 -0.039817 3.832090 -2.383629 0.237695 -0.313094 0.919496 0 0
    0 1.111524 2.315729 2.787921 0.968130 -0.108650 0.225655 0 0
  phy
    0 -1.109818 2.312090 2.826370 -0.426006 -0.439080 0.791029 0 0
    0 -0.059831 -1.377904 36.256370 -0.976101 -0.131981 0.172649 0 0
    0 0.110171 -0.397905 31.476370 0.935992 -0.189726 0.296520 0 0
  phy
    0 -0.059831 -1.377904 36.256370 -0.976101 -0.131981 0.172649 0 0
    0 -1.109818 2.312090 2.826370 -0.426006 -0.439080 0.791029 0 0
    0 -1.529817 1.722090 2.596370 -0.468844 -0.302719 0.829787 0 0
  phy
    0 0.110171 -0.397905 31.476370 0.935992 -0.189726 0.296520 0 0
    0 -0.039817 3.832090 -2.383629 0.237695 -0.313094 0.919496 0 0
    0 -1.109818 2.312090 2.826370 -0.426006 -0.439080 0.791029 0 0
  phy
    0 -0.059831 -1.377904 36.256370 -0.976101 -0.131981 0.172649 0 0
    0 -1.893857 0.750158 -0.442094 -0.986393 -0.000820 0.164401 0 0
    0 -1.899814 0.142089 -0.263630 -0.956431 0.056067 -0.286525 0 0
  phy
    0 0.000169 -2.747904 38.086368 -0.838923 0.031644 -0.543329 0 0
    0 -0.059831 -1.377904 36.256370 -0.976101 -0.131981 0.172649 0 0
    0 -1.899814 0.142089 -0.263630 -0.956431 0.056067 -0.286525 0 0
  phy
    0 -1.893857 0.750158 -0.442094 -0.986393 -0.000820 0.164401 0 0
    0 -0.059831 -1.377904 36.256370 -0.976101 -0.131981 0.172649 0 0
    0 -1.529817 1.722090 2.596370 -0.468844 -0.302719 0.829787 0 0
  phy
    0 -1.489815 1.722089 -1.623631 -0.728971 -0.080890 0.679748 0 0
    0 -1.893857 0.750158 -0.442094 -0.986393 -0.000820 0.164401 0 0
    0 -1.529817 1.722090 2.596370 -0.468844 -0.302719 0.829787 0 0
  phy
    0 -1.893857 0.750158 -0.442094 -0.986393 -0.000820 0.164401 0 0
    0 -1.489815 1.722089 -1.623631 -0.728971 -0.080890 0.679748 0 0
    0 -1.219807 -1.247913 -14.833630 -0.979078 0.174405 0.104828 0 0
  phy
    0 -1.219807 -1.247913 -14.833630 -0.979078 0.174405 0.104828 0 0
    0 -1.489815 1.722089 -1.623631 -0.728971 -0.080890 0.679748 0 0
    0 -0.039817 3.832090 -2.383629 0.237695 -0.313094 0.919496 0 0
  phy
    0 -1.219807 -1.247913 -14.833630 -0.979078 0.174405 0.104828 0 0
    0 -1.059662 -1.885933 -14.579869 -0.692394 -0.222946 -0.686211 0 0
    0 -1.455419 -2.204029 -0.179176 -0.595466 0.034082 -0.802657 0 0
  phy
    0 -1.455419 -2.204029 -0.179176 -0.595466 0.034082 -0.802657 0 0
    0 -1.059662 -1.885933 -14.579869 -0.692394 -0.222946 -0.686211 0 0
    0 -0.009661 -2.375933 -15.229869 0.479800 0.341674 -0.808116 0 0
  phy
    0 -0.869807 -0.997913 -15.523628 -0.729443 0.683717 0.021068 0 0
    0 -1.219807 -1.247913 -14.833630 -0.979078 0.174405 0.104828 0 0
    0 -0.039817 3.832090 -2.383629 0.237695 -0.313094 0.919496 0 0
  phy
    0 1.071276 -2.843882 0.086072 0.399090 0.316121 -0.860694 0 0
    0 -0.149813 -2.667909 0.316372 -0.052175 -0.033775 -0.998067 0 0
    0 -0.009661 -2.375933 -15.229869 0.479800 0.341674 -0.808116 0 0
  phy
    0 -0.149813 -2.667909 0.316372 -0.052175 -0.033775 -0.998067 0 0
    0 -1.455419 -2.204029 -0.179176 -0.595466 0.034082 -0.802657 0 0
    0 -0.009661 -2.375933 -15.229869 0.479800 0.341674 -0.808116 0 0
  phy
    0 -0.149813 -2.667909 0.316372 -0.052175 -0.033775 -0.998067 0 0
    0 1.071276 -2.843882 0.086072 0.399090 0.316121 -0.860694 0 0
    0 0.000169 -2.747904 38.086368 -0.838923 0.031644 -0.543329 0 0
  phy
    0 -1.455419 -2.204029 -0.179176 -0.595466 0.034082 -0.802657 0 0
    0 -0.149813 -2.667909 0.316372 -0.052175 -0.033775 -0.998067 0 0
    0 0.000169 -2.747904 38.086368 -0.838923 0.031644 -0.543329 0 0
  phy
    0 -1.893857 0.750158 -0.442094 -0.986393 -0.000820 0.164401 0 0
    0 -1.219807 -1.247913 -14.833630 -0.979078 0.174405 0.104828 0 0
    0 -1.899814 0.142089 -0.263630 -0.956431 0.056067 -0.286525 0 0
  phy
    0 -1.219807 -1.247913 -14.833630 -0.979078 0.174405 0.104828 0 0
    0 -1.455419 -2.204029 -0.179176 -0.595466 0.034082 -0.802657 0 0
    0 -1.899814 0.142089 -0.263630 -0.956431 0.056067 -0.286525 0 0
  phy
    0 1.071276 -2.843882 0.086072 0.399090 0.316121 -0.860694 0 0
    0 1.912797 -1.623177 0.233784 0.963961 0.141139 -0.225518 0 0
    0 0.000169 -2.747904 38.086368 -0.838923 0.031644 -0.543329 0 0
  phy
    0 -1.455419 -2.204029 -0.179176 -0.595466 0.034082 -0.802657 0 0
    0 0.000169 -2.747904 38.086368 -0.838923 0.031644 -0.543329 0 0
    0 -1.899814 0.142089 -0.263630 -0.956431 0.056067 -0.286525 0 0
end
