version 1
nodes
  0 "root" -1
  1 "Bone01" 0
  2 "Bone_Lefthand" 1
  3 "Bone03" 2
  4 "Dummy01" 3
  5 "Bone02" 4
  6 "Bone16" 3
  7 "Bone24" 3
  8 "Bone34" 3
  9 "Bone26" 8
  10 "Bone12" 9
  11 "Bone08" 3
  12 "Bone20" 3
  13 "Bone_L_Upper" 1
  14 "Bone13" 2
  15 "Bone14" 14
  16 "Bone15" 15
  17 "Bone17" 2
  18 "Bone18" 17
  19 "Bone19" 18
  20 "Bone21" 2
  21 "Bone22" 20
  22 "Bone23" 21
  23 "Bone09" 2
  24 "Bone10" 23
  25 "Bone11" 24
  26 "Bone05" 2
  27 "Bone06" 26
  28 "Bone07" 27
  29 "Bone_Se_Hand-L" 2
  30 "Bone04" 0
  31 "Bone_Righthand" 30
  32 "Bone39" 31
  33 "Bone40" 32
  34 "Bone41" 33
  35 "Bone35" 31
  36 "Bone36" 35
  37 "Bone37" 36
  38 "Bone31" 31
  39 "Bone32" 38
  40 "Bone33" 39
  41 "Bone43" 31
  42 "Bone44" 41
  43 "Bone45" 42
  44 "Bone27" 31
  45 "Bone28" 44
  46 "Bone29" 45
  47 "Bone_Se_Hand-R" 31
  48 "Bone_R_Upper" 30
end
skeleton
  time 0
    0 -1.349460 3.166206 0.699636 0.000000 0.000000 0.000000
    1 11.755722 0.010682 -10.842323 -1.564006 -1.329652 1.216449
    2 -0.071918 -8.498730 -0.104136 0.222232 0.090212 -0.238588
    3 3.965516 -3.507752 0.726127 0.088531 0.124697 -1.545787
    4 8.966518 -4.010148 -0.007935 -3.141592 0.000000 -1.318135
    5 -0.000001 0.000000 0.000000 0.000000 0.000000 0.000000
    6 -6.739502 1.470732 -0.007930 -3.141592 0.000000 1.570796
    7 20.198570 1.480959 -0.007934 -0.000096 3.141592 -1.302300
    8 12.303585 -3.220082 0.655518 0.000001 0.000000 1.570797
    9 0.869225 3.303417 0.793734 -3.141592 -1.570796 0.000000
    10 1.809041 -1.766268 0.412229 0.000000 0.000000 -1.570796
    11 0.877971 -1.780795 -0.007933 -3.141592 0.000000 -1.570796
    12 2.847010 0.682891 -0.002611 -6.283184 3.141496 -1.570796
    13 1.257180 8.762585 -0.153713 -1.570562 0.002683 -1.566807
    14 -0.488518 -2.755602 -0.228260 -1.037736 -0.080691 -0.334876
    15 0.039887 -1.479790 0.029854 -2.092299 0.000000 0.000001
    16 0.028786 -1.075731 -0.023109 -0.089607 0.000000 0.000000
    17 0.250027 -2.820665 -0.238396 -0.542900 -0.079479 -0.321720
    18 -0.049759 -1.680544 0.100479 -2.260054 0.000000 -0.000002
    19 -0.034142 -1.148312 0.084782 -0.403560 0.000000 0.000000
    20 0.957766 -2.746780 -0.090302 0.135607 -0.152689 0.188106
    21 -0.033420 -1.397129 -0.011257 -1.115577 0.000000 -0.000001
    22 -0.022360 -0.957436 0.018784 -1.148807 0.000000 0.000000
    23 -1.180681 -2.507217 -0.193859 -1.051076 0.022426 -0.383093
    24 -0.024967 -1.123934 0.017597 -1.710665 0.000000 0.000001
    25 -0.020057 -0.890968 0.010090 -0.388432 0.000000 0.000000
    26 0.583510 -1.197277 0.185379 0.686569 -0.940470 -1.123453
    27 1.535927 0.010246 0.005009 -0.002964 -0.012979 -0.682269
    28 1.100771 0.004527 -0.010679 -0.016147 -0.001453 -1.484153
    29 0.120153 -0.050270 -0.054489 0.287569 3.110905 1.561085
    30 -0.391866 -9.196225 -7.884336 0.158780 -3.158303 0.443633
    31 0.096944 -8.450418 -0.009365 -0.253549 -0.102380 0.248393
    32 0.447953 -2.798986 -0.200443 -1.426761 0.042804 0.170619
    33 -0.032909 -1.480204 0.004940 -1.498009 0.000000 0.000002
    34 -0.027022 -1.076920 -0.020210 -1.225052 0.000000 0.000000
    35 -0.249534 -2.846964 -0.174213 -1.278060 0.002631 0.073866
    36 0.043235 -1.683941 0.096012 -1.638292 0.002823 -0.000167
    37 0.031729 -1.160830 0.058838 -1.199344 0.000642 0.008372
    38 -0.963866 -2.785145 -0.085350 -1.330297 0.070929 0.053157
    39 0.028479 -1.403067 0.006271 -1.337889 0.000000 0.000000
    40 0.021413 -0.957781 0.020046 -1.052173 0.000000 0.000000
    41 1.164475 -2.543940 -0.170330 -1.221927 -0.015463 0.162804
    42 0.024032 -1.129042 0.017807 -1.592547 0.000000 0.000001
    43 0.014898 -0.883989 -0.019848 -0.928571 0.000000 0.000000
    44 -0.586770 -1.264477 0.200161 0.038267 -0.775789 -2.797690
    45 1.522835 0.058681 0.016848 0.001410 0.008985 0.973082
    46 1.117947 0.048424 -0.005766 -0.023409 -0.009318 1.247921
    47 -0.139399 -0.111698 0.014397 0.289561 -0.104570 1.463946
    48 -3.975580 8.546199 -0.270684 1.580804 -0.005023 -1.234343
  time 1
    0 -1.349460 3.166206 0.699636 0.000000 0.000000 0.000000
    1 11.755722 1.514634 -10.713413 -1.478102 -1.320896 1.133134
    2 -0.071918 -8.498730 -0.104136 0.222232 0.090212 -0.238588
    3 3.965516 -3.507752 0.726127 0.088531 0.124697 -1.545787
    4 8.966518 -4.010148 -0.007935 -3.141592 0.000000 -1.318135
    5 -0.000001 0.000000 0.000000 0.000000 0.000000 0.000000
    6 -6.739502 1.470732 -0.007930 -3.141592 0.000000 1.570796
    7 20.198570 1.480959 -0.007934 -0.000096 3.141592 -1.302300
    8 12.303585 -3.220082 0.655518 0.000001 0.000000 1.570797
    9 0.869225 3.303417 0.793734 -3.141592 -1.570796 0.000000
    10 1.809041 -1.766268 0.412229 0.000000 0.000000 -1.570796
    11 0.877971 -1.780795 -0.007933 -3.141592 0.000000 -1.570796
    12 2.847010 0.682891 -0.002611 -6.283184 3.141496 -1.570796
    13 1.257180 8.762585 -0.153713 -1.570562 0.002683 -1.566807
    14 -0.488518 -2.755602 -0.228260 -1.037736 -0.080691 -0.334876
    15 0.039887 -1.479790 0.029854 -2.092299 0.000000 0.000001
    16 0.028786 -1.075731 -0.023109 -0.089607 0.000000 0.000000
    17 0.250027 -2.820665 -0.238396 -0.542900 -0.079479 -0.321720
    18 -0.049759 -1.680544 0.100479 -2.259984 0.000000 -0.000002
    19 -0.034142 -1.148312 0.084782 -0.403560 0.000000 0.000000
    20 0.957766 -2.746780 -0.090302 0.135607 -0.152689 0.188106
    21 -0.033420 -1.397129 -0.011257 -1.115577 0.000000 -0.000001
    22 -0.022360 -0.957436 0.018784 -1.148807 0.000000 0.000000
    23 -1.180681 -2.507217 -0.193859 -1.051076 0.022426 -0.383093
    24 -0.024967 -1.123934 0.017597 -1.710665 0.000000 0.000001
    25 -0.020057 -0.890968 0.010090 -0.388432 0.000000 0.000000
    26 0.583510 -1.197277 0.185379 0.686569 -0.940470 -1.123453
    27 1.535927 0.010246 0.005009 -0.002964 -0.012979 -0.682290
    28 1.100771 0.004527 -0.010679 -0.016147 -0.001453 -1.484153
    29 0.120153 -0.050270 -0.054489 0.287569 3.110905 1.561085
    30 -0.321552 -7.692272 -7.481980 0.149046 -3.137907 0.443538
    31 0.096944 -8.450418 -0.009365 -0.253549 -0.102380 0.248393
    32 0.447953 -2.798986 -0.200443 -1.426761 0.042804 0.170619
    33 -0.032909 -1.480204 0.004940 -1.498009 0.000000 0.000002
    34 -0.027022 -1.076920 -0.020210 -1.225052 0.000000 0.000000
    35 -0.249534 -2.846964 -0.174213 -1.278060 0.002631 0.073866
    36 0.043235 -1.683941 0.096012 -1.638292 0.002823 -0.000167
    37 0.031729 -1.160830 0.058838 -1.199344 0.000642 0.008372
    38 -0.963866 -2.785145 -0.085350 -1.330297 0.070929 0.053157
    39 0.028479 -1.403067 0.006271 -1.337889 0.000000 0.000000
    40 0.021413 -0.957781 0.020046 -1.052173 0.000000 0.000000
    41 1.164475 -2.543940 -0.170330 -1.221927 -0.015463 0.162804
    42 0.024032 -1.129042 0.017807 -1.592547 0.000000 0.000001
    43 0.014898 -0.883989 -0.019848 -0.928571 0.000000 0.000000
    44 -0.586770 -1.264477 0.200161 0.038267 -0.775789 -2.797690
    45 1.522835 0.058681 0.016848 0.001410 0.008985 0.973082
    46 1.117947 0.048424 -0.005766 -0.023409 -0.009318 1.247921
    47 -0.139399 -0.111698 0.014397 0.289561 -0.104570 1.463946
    48 -3.975580 8.546199 -0.270684 1.580804 -0.005023 -1.234343
  time 2
    0 -1.349460 3.166206 0.699636 0.000000 0.000000 0.000000
    1 11.755722 1.971679 -10.447780 -1.550336 -1.327631 1.203159
    2 -0.071918 -8.498730 -0.104136 0.222232 0.090212 -0.238588
    3 3.965516 -3.507752 0.726127 0.088531 0.124697 -1.545787
    4 8.966518 -4.010148 -0.007935 -3.141592 0.000000 -1.318135
    5 -0.000001 0.000000 0.000000 0.000000 0.000000 0.000000
    6 -6.739502 1.470732 -0.007930 -3.141592 0.000000 1.570796
    7 20.198570 1.480959 -0.007934 -0.000096 3.141592 -1.302300
    8 12.303585 -3.220082 0.655518 0.000001 0.000000 1.570797
    9 0.869225 3.303417 0.793734 -3.141592 -1.570796 0.000000
    10 1.809041 -1.766268 0.412229 0.000000 0.000000 -1.570796
    11 0.877971 -1.780795 -0.007933 -3.141592 0.000000 -1.570796
    12 2.847010 0.682891 -0.002611 -6.283184 3.141496 -1.570796
    13 1.257180 8.762585 -0.153713 -1.570562 0.002683 -1.566807
    14 -0.488518 -2.755602 -0.228260 -1.037736 -0.080691 -0.334876
    15 0.039887 -1.479790 0.029854 -2.092299 0.000000 0.000001
    16 0.028786 -1.075731 -0.023109 -0.089607 0.000000 0.000000
    17 0.250027 -2.820665 -0.238396 -0.542900 -0.079479 -0.321720
    18 -0.049759 -1.680544 0.100479 -2.259984 0.000000 -0.000002
    19 -0.034142 -1.148312 0.084782 -0.403560 0.000000 0.000000
    20 0.957766 -2.746780 -0.090302 0.135607 -0.152689 0.188106
    21 -0.033420 -1.397129 -0.011257 -1.115577 0.000000 -0.000001
    22 -0.022360 -0.957436 0.018784 -1.148807 0.000000 0.000000
    23 -1.180681 -2.507217 -0.193859 -1.051076 0.022426 -0.383093
    24 -0.024967 -1.123934 0.017597 -1.710665 0.000000 0.000001
    25 -0.020057 -0.890968 0.010090 -0.388432 0.000000 0.000000
    26 0.583510 -1.197277 0.185379 0.686569 -0.940470 -1.123453
    27 1.535927 0.010246 0.005009 -0.002964 -0.012979 -0.682290
    28 1.100771 0.004527 -0.010679 -0.016147 -0.001453 -1.484153
    29 0.120153 -0.050270 -0.054489 0.287569 3.110905 1.561085
    30 -0.380147 -7.231321 -7.439010 0.157807 -3.154618 0.443633
    31 0.096944 -8.450418 -0.009365 -0.253549 -0.102380 0.248393
    32 0.447953 -2.798986 -0.200443 -1.426761 0.042804 0.170619
    33 -0.032909 -1.480204 0.004940 -1.498009 0.000000 0.000002
    34 -0.027022 -1.076920 -0.020210 -1.225052 0.000000 0.000000
    35 -0.249534 -2.846964 -0.174213 -1.278060 0.002631 0.073866
    36 0.043235 -1.683941 0.096012 -1.638292 0.002823 -0.000167
    37 0.031729 -1.160830 0.058838 -1.199344 0.000642 0.008372
    38 -0.963866 -2.785145 -0.085350 -1.330297 0.070929 0.053157
    39 0.028479 -1.403067 0.006271 -1.337889 0.000000 0.000000
    40 0.021413 -0.957781 0.020046 -1.052173 0.000000 0.000000
    41 1.164475 -2.543940 -0.170330 -1.221927 -0.015463 0.162804
    42 0.024032 -1.129042 0.017807 -1.592547 0.000000 0.000001
    43 0.014898 -0.883989 -0.019848 -0.928571 0.000000 0.000000
    44 -0.586770 -1.264477 0.200161 0.038267 -0.775789 -2.797690
    45 1.522835 0.058681 0.016848 0.001410 0.008985 0.973082
    46 1.117947 0.048424 -0.005766 -0.023409 -0.009318 1.247921
    47 -0.139399 -0.111698 0.014397 0.289561 -0.104570 1.463946
    48 -3.975580 8.546199 -0.270684 1.580804 -0.005023 -1.234343
  time 3
    0 -1.349460 3.166206 0.699636 0.000000 0.000000 0.000000
    1 11.755722 2.038088 -10.244649 -1.630328 -1.334842 1.280852
    2 -0.071918 -8.498730 -0.104136 0.222232 0.090212 -0.238588
    3 3.965516 -3.507752 0.726127 0.088531 0.124697 -1.545787
    4 8.966518 -4.010148 -0.007935 -3.141592 0.000000 -1.318135
    5 -0.000001 0.000000 0.000000 0.000000 0.000000 0.000000
    6 -6.739502 1.470732 -0.007930 -3.141592 0.000000 1.570796
    7 20.198570 1.480959 -0.007934 -0.000096 3.141592 -1.302300
    8 12.303585 -3.220082 0.655518 0.000001 0.000000 1.570797
    9 0.869225 3.303417 0.793734 -3.141592 -1.570796 0.000000
    10 1.809041 -1.766268 0.412229 0.000000 0.000000 -1.570796
    11 0.877971 -1.780795 -0.007933 -3.141592 0.000000 -1.570796
    12 2.847010 0.682891 -0.002611 -6.283184 3.141496 -1.570796
    13 1.257180 8.762585 -0.153713 -1.570562 0.002683 -1.566807
    14 -0.488518 -2.755602 -0.228260 -1.037736 -0.080691 -0.334876
    15 0.039887 -1.479790 0.029854 -2.092299 0.000000 0.000001
    16 0.028786 -1.075731 -0.023109 -0.089607 0.000000 0.000000
    17 0.250027 -2.820665 -0.238396 -0.542900 -0.079479 -0.321720
    18 -0.049759 -1.680544 0.100479 -2.259984 0.000000 -0.000002
    19 -0.034142 -1.148312 0.084782 -0.403560 0.000000 0.000000
    20 0.957766 -2.746780 -0.090302 0.135607 -0.152689 0.188106
    21 -0.033420 -1.397129 -0.011257 -1.115577 0.000000 -0.000001
    22 -0.022360 -0.957436 0.018784 -1.148807 0.000000 0.000000
    23 -1.180681 -2.507217 -0.193859 -1.051076 0.022426 -0.383093
    24 -0.024967 -1.123934 0.017597 -1.710665 0.000000 0.000001
    25 -0.020057 -0.890968 0.010090 -0.388432 0.000000 0.000000
    26 0.583510 -1.197277 0.185379 0.686569 -0.940470 -1.123453
    27 1.535927 0.010246 0.005009 -0.002964 -0.012979 -0.682290
    28 1.100771 0.004527 -0.010679 -0.016147 -0.001453 -1.484153
    29 0.120153 -0.050270 -0.054489 0.287569 3.110905 1.561085
    30 -0.438743 -7.168819 -7.485887 0.165860 -3.173215 0.443825
    31 0.096944 -8.450418 -0.009365 -0.253549 -0.102380 0.248393
    32 0.447953 -2.798986 -0.200443 -1.426761 0.042804 0.170619
    33 -0.032909 -1.480204 0.004940 -1.498009 0.000000 0.000002
    34 -0.027022 -1.076920 -0.020210 -1.225052 0.000000 0.000000
    35 -0.249534 -2.846964 -0.174213 -1.278060 0.002631 0.073866
    36 0.043235 -1.683941 0.096012 -1.638292 0.002823 -0.000167
    37 0.031729 -1.160830 0.058838 -1.199344 0.000642 0.008372
    38 -0.963866 -2.785145 -0.085350 -1.330297 0.070929 0.053157
    39 0.028479 -1.403067 0.006271 -1.337889 0.000000 0.000000
    40 0.021413 -0.957781 0.020046 -1.052173 0.000000 0.000000
    41 1.164475 -2.543940 -0.170330 -1.221927 -0.015463 0.162804
    42 0.024032 -1.129042 0.017807 -1.592547 0.000000 0.000001
    43 0.014898 -0.883989 -0.019848 -0.928571 0.000000 0.000000
    44 -0.586770 -1.264477 0.200161 0.038267 -0.775789 -2.797690
    45 1.522835 0.058681 0.016848 0.001410 0.008985 0.973082
    46 1.117947 0.048424 -0.005766 -0.023409 -0.009318 1.247921
    47 -0.139399 -0.111698 0.014397 0.289561 -0.104570 1.463946
    48 -3.975580 8.546199 -0.270684 1.580804 -0.005023 -1.234343
  time 4
    0 -1.349460 3.166206 0.699636 0.000000 0.000000 0.000000
    1 11.755722 1.780267 -10.217304 -1.646308 -1.340507 1.296527
    2 -0.071918 -8.498730 -0.104136 0.222232 0.090212 -0.238588
    3 3.965516 -3.507752 0.726127 0.088531 0.124697 -1.545787
    4 8.966518 -4.010148 -0.007935 -3.141592 0.000000 -1.318135
    5 -0.000001 0.000000 0.000000 0.000000 0.000000 0.000000
    6 -6.739502 1.470732 -0.007930 -3.141592 0.000000 1.570796
    7 20.198570 1.480959 -0.007934 -0.000096 3.141592 -1.302300
    8 12.303585 -3.220082 0.655518 0.000001 0.000000 1.570797
    9 0.869225 3.303417 0.793734 -3.141592 -1.570796 0.000000
    10 1.809041 -1.766268 0.412229 0.000000 0.000000 -1.570796
    11 0.877971 -1.780795 -0.007933 -3.141592 0.000000 -1.570796
    12 2.847010 0.682891 -0.002611 -6.283184 3.141496 -1.570796
    13 1.257180 8.762585 -0.153713 -1.570562 0.002683 -1.566807
    14 -0.488518 -2.755602 -0.228260 -1.037736 -0.080691 -0.334876
    15 0.039887 -1.479790 0.029854 -2.092299 0.000000 0.000001
    16 0.028786 -1.075731 -0.023109 -0.089607 0.000000 0.000000
    17 0.250027 -2.820665 -0.238396 -0.542900 -0.079479 -0.321720
    18 -0.049759 -1.680544 0.100479 -2.259984 0.000000 -0.000002
    19 -0.034142 -1.148312 0.084782 -0.403560 0.000000 0.000000
    20 0.957766 -2.746780 -0.090302 0.135607 -0.152689 0.188106
    21 -0.033420 -1.397129 -0.011257 -1.115577 0.000000 -0.000001
    22 -0.022360 -0.957436 0.018784 -1.148807 0.000000 0.000000
    23 -1.180681 -2.507217 -0.193859 -1.051076 0.022426 -0.383093
    24 -0.024967 -1.123934 0.017597 -1.710665 0.000000 0.000001
    25 -0.020057 -0.890968 0.010090 -0.388432 0.000000 0.000000
    26 0.583510 -1.197277 0.185379 0.686569 -0.940470 -1.123453
    27 1.535927 0.010246 0.005009 -0.002964 -0.012979 -0.682290
    28 1.100771 0.004527 -0.010679 -0.016147 -0.001453 -1.484153
    29 0.120153 -0.050270 -0.054489 0.287569 3.110905 1.561085
    30 -0.450462 -7.438358 -7.564014 0.164090 -3.179728 0.443825
    31 0.096944 -8.450418 -0.009365 -0.253549 -0.102380 0.248393
    32 0.447953 -2.798986 -0.200443 -1.426761 0.042804 0.170619
    33 -0.032909 -1.480204 0.004940 -1.498009 0.000000 0.000002
    34 -0.027022 -1.076920 -0.020210 -1.225052 0.000000 0.000000
    35 -0.249534 -2.846964 -0.174213 -1.278060 0.002631 0.073866
    36 0.043235 -1.683941 0.096012 -1.638292 0.002823 -0.000167
    37 0.031729 -1.160830 0.058838 -1.199344 0.000642 0.008372
    38 -0.963866 -2.785145 -0.085350 -1.330297 0.070929 0.053157
    39 0.028479 -1.403067 0.006271 -1.337889 0.000000 0.000000
    40 0.021413 -0.957781 0.020046 -1.052173 0.000000 0.000000
    41 1.164475 -2.543940 -0.170330 -1.221927 -0.015463 0.162804
    42 0.024032 -1.129042 0.017807 -1.592547 0.000000 0.000001
    43 0.014898 -0.883989 -0.019848 -0.928571 0.000000 0.000000
    44 -0.586770 -1.264477 0.200161 0.038267 -0.775789 -2.797690
    45 1.522835 0.058681 0.016848 0.001410 0.008985 0.973082
    46 1.117947 0.048424 -0.005766 -0.023409 -0.009318 1.247921
    47 -0.139399 -0.111698 0.014397 0.289561 -0.104570 1.463946
    48 -3.975580 8.546199 -0.270684 1.580804 -0.005023 -1.234343
  time 5
    0 -1.349460 3.166206 0.699636 0.000000 0.000000 0.000000
    1 11.755722 1.358379 -10.260274 -1.640119 -1.346014 1.290563
    2 -0.071918 -8.498730 -0.104136 0.222232 0.090212 -0.238588
    3 3.965516 -3.507752 0.726127 0.088531 0.124697 -1.545787
    4 8.966518 -4.010148 -0.007935 -3.141592 0.000000 -1.318135
    5 -0.000001 0.000000 0.000000 0.000000 0.000000 0.000000
    6 -6.739502 1.470732 -0.007930 -3.141592 0.000000 1.570796
    7 20.198570 1.480959 -0.007934 -0.000096 3.141592 -1.302300
    8 12.303585 -3.220082 0.655518 0.000001 0.000000 1.570797
    9 0.869225 3.303417 0.793734 -3.141592 -1.570796 0.000000
    10 1.809041 -1.766268 0.412229 0.000000 0.000000 -1.570796
    11 0.877971 -1.780795 -0.007933 -3.141592 0.000000 -1.570796
    12 2.847010 0.682891 -0.002611 -6.283184 3.141496 -1.570796
    13 1.257180 8.762585 -0.153713 -1.570562 0.002683 -1.566807
    14 -0.488518 -2.755602 -0.228260 -1.037736 -0.080691 -0.334876
    15 0.039887 -1.479790 0.029854 -2.092299 0.000000 0.000001
    16 0.028786 -1.075731 -0.023109 -0.089607 0.000000 0.000000
    17 0.250027 -2.820665 -0.238396 -0.542900 -0.079479 -0.321720
    18 -0.049759 -1.680544 0.100479 -2.259984 0.000000 -0.000002
    19 -0.034142 -1.148312 0.084782 -0.403560 0.000000 0.000000
    20 0.957766 -2.746780 -0.090302 0.135607 -0.152689 0.188106
    21 -0.033420 -1.397129 -0.011257 -1.115577 0.000000 -0.000001
    22 -0.022360 -0.957436 0.018784 -1.148807 0.000000 0.000000
    23 -1.180681 -2.507217 -0.193859 -1.051076 0.022426 -0.383093
    24 -0.024967 -1.123934 0.017597 -1.710665 0.000000 0.000001
    25 -0.020057 -0.890968 0.010090 -0.388432 0.000000 0.000000
    26 0.583510 -1.197277 0.185379 0.686569 -0.940470 -1.123453
    27 1.535927 0.010246 0.005009 -0.002964 -0.012979 -0.682290
    28 1.100771 0.004527 -0.010679 -0.016147 -0.001453 -1.484153
    29 0.120153 -0.050270 -0.054489 0.287569 3.110905 1.561085
    30 -0.450462 -7.875872 -7.661673 0.159046 -3.182299 0.443729
    31 0.096944 -8.450418 -0.009365 -0.253549 -0.102380 0.248393
    32 0.447953 -2.798986 -0.200443 -1.426761 0.042804 0.170619
    33 -0.032909 -1.480204 0.004940 -1.498009 0.000000 0.000002
    34 -0.027022 -1.076920 -0.020210 -1.225052 0.000000 0.000000
    35 -0.249534 -2.846964 -0.174213 -1.278060 0.002631 0.073866
    36 0.043235 -1.683941 0.096012 -1.638292 0.002823 -0.000167
    37 0.031729 -1.160830 0.058838 -1.199344 0.000642 0.008372
    38 -0.963866 -2.785145 -0.085350 -1.330297 0.070929 0.053157
    39 0.028479 -1.403067 0.006271 -1.337889 0.000000 0.000000
    40 0.021413 -0.957781 0.020046 -1.052173 0.000000 0.000000
    41 1.164475 -2.543940 -0.170330 -1.221927 -0.015463 0.162804
    42 0.024032 -1.129042 0.017807 -1.592547 0.000000 0.000001
    43 0.014898 -0.883989 -0.019848 -0.928571 0.000000 0.000000
    44 -0.586770 -1.264477 0.200161 0.038267 -0.775789 -2.797690
    45 1.522835 0.058681 0.016848 0.001410 0.008985 0.973082
    46 1.117947 0.048424 -0.005766 -0.023409 -0.009318 1.247921
    47 -0.139399 -0.111698 0.014397 0.289561 -0.104570 1.463946
    48 -3.975580 8.546199 -0.270684 1.580804 -0.005023 -1.234343
  time 6
    0 -1.349460 3.166206 0.699636 0.000000 0.000000 0.000000
    1 11.755722 0.952117 -10.314963 -1.624509 -1.349422 1.275485
    2 -0.071918 -8.498730 -0.104136 0.222232 0.090212 -0.238588
    3 3.965516 -3.507752 0.726127 0.088531 0.124697 -1.545787
    4 8.966518 -4.010148 -0.007935 -3.141592 0.000000 -1.318135
    5 -0.000001 0.000000 0.000000 0.000000 0.000000 0.000000
    6 -6.739502 1.470732 -0.007930 -3.141592 0.000000 1.570796
    7 20.198570 1.480959 -0.007934 -0.000096 3.141592 -1.302300
    8 12.303585 -3.220082 0.655518 0.000001 0.000000 1.570797
    9 0.869225 3.303417 0.793734 -3.141592 -1.570796 0.000000
    10 1.809041 -1.766268 0.412229 0.000000 0.000000 -1.570796
    11 0.877971 -1.780795 -0.007933 -3.141592 0.000000 -1.570796
    12 2.847010 0.682891 -0.002611 -6.283184 3.141496 -1.570796
    13 1.257180 8.762585 -0.153713 -1.570562 0.002683 -1.566807
    14 -0.488518 -2.755602 -0.228260 -1.037736 -0.080691 -0.334876
    15 0.039887 -1.479790 0.029854 -2.092299 0.000000 0.000001
    16 0.028786 -1.075731 -0.023109 -0.089607 0.000000 0.000000
    17 0.250027 -2.820665 -0.238396 -0.542900 -0.079479 -0.321720
    18 -0.049759 -1.680544 0.100479 -2.259984 0.000000 -0.000002
    19 -0.034142 -1.148312 0.084782 -0.403560 0.000000 0.000000
    20 0.957766 -2.746780 -0.090302 0.135607 -0.152689 0.188106
    21 -0.033420 -1.397129 -0.011257 -1.115577 0.000000 -0.000001
    22 -0.022360 -0.957436 0.018784 -1.148807 0.000000 0.000000
    23 -1.180681 -2.507217 -0.193859 -1.051076 0.022426 -0.383093
    24 -0.024967 -1.123934 0.017597 -1.710665 0.000000 0.000001
    25 -0.020057 -0.890968 0.010090 -0.388432 0.000000 0.000000
    26 0.583510 -1.197277 0.185379 0.686569 -0.940470 -1.123453
    27 1.535927 0.010246 0.005009 -0.002964 -0.012979 -0.682290
    28 1.100771 0.004527 -0.010679 -0.016147 -0.001453 -1.484153
    29 0.120153 -0.050270 -0.054489 0.287569 3.110905 1.561085
    30 -0.442649 -8.293853 -7.724175 0.154179 -3.182042 0.443633
    31 0.096944 -8.450418 -0.009365 -0.253549 -0.102380 0.248393
    32 0.447953 -2.798986 -0.200443 -1.426761 0.042804 0.170619
    33 -0.032909 -1.480204 0.004940 -1.498009 0.000000 0.000002
    34 -0.027022 -1.076920 -0.020210 -1.225052 0.000000 0.000000
    35 -0.249534 -2.846964 -0.174213 -1.278060 0.002631 0.073866
    36 0.043235 -1.683941 0.096012 -1.638292 0.002823 -0.000167
    37 0.031729 -1.160830 0.058838 -1.199344 0.000642 0.008372
    38 -0.963866 -2.785145 -0.085350 -1.330297 0.070929 0.053157
    39 0.028479 -1.403067 0.006271 -1.337889 0.000000 0.000000
    40 0.021413 -0.957781 0.020046 -1.052173 0.000000 0.000000
    41 1.164475 -2.543940 -0.170330 -1.221927 -0.015463 0.162804
    42 0.024032 -1.129042 0.017807 -1.592547 0.000000 0.000001
    43 0.014898 -0.883989 -0.019848 -0.928571 0.000000 0.000000
    44 -0.586770 -1.264477 0.200161 0.038267 -0.775789 -2.797690
    45 1.522835 0.058681 0.016848 0.001410 0.008985 0.973082
    46 1.117947 0.048424 -0.005766 -0.023409 -0.009318 1.247921
    47 -0.139399 -0.111698 0.014397 0.289561 -0.104570 1.463946
    48 -3.975580 8.546199 -0.270684 1.580804 -0.005023 -1.234343
  time 7
    0 -1.349460 3.166206 0.699636 0.000000 0.000000 0.000000
    1 11.755722 0.612263 -10.365746 -1.597629 -1.349620 1.249332
    2 -0.071918 -8.498730 -0.104136 0.222232 0.090212 -0.238588
    3 3.965516 -3.507752 0.726127 0.088531 0.124697 -1.545787
    4 8.966518 -4.010148 -0.007935 -3.141592 0.000000 -1.318135
    5 -0.000001 0.000000 0.000000 0.000000 0.000000 0.000000
    6 -6.739502 1.470732 -0.007930 -3.141592 0.000000 1.570796
    7 20.198570 1.480959 -0.007934 -0.000096 3.141592 -1.302300
    8 12.303585 -3.220082 0.655518 0.000001 0.000000 1.570797
    9 0.869225 3.303417 0.793734 -3.141592 -1.570796 0.000000
    10 1.809041 -1.766268 0.412229 0.000000 0.000000 -1.570796
    11 0.877971 -1.780795 -0.007933 -3.141592 0.000000 -1.570796
    12 2.847010 0.682891 -0.002611 -6.283184 3.141496 -1.570796
    13 1.257180 8.762585 -0.153713 -1.570562 0.002683 -1.566807
    14 -0.488518 -2.755602 -0.228260 -1.037736 -0.080691 -0.334876
    15 0.039887 -1.479790 0.029854 -2.092299 0.000000 0.000001
    16 0.028786 -1.075731 -0.023109 -0.089607 0.000000 0.000000
    17 0.250027 -2.820665 -0.238396 -0.542900 -0.079479 -0.321720
    18 -0.049759 -1.680544 0.100479 -2.260054 0.000000 -0.000002
    19 -0.034142 -1.148312 0.084782 -0.403560 0.000000 0.000000
    20 0.957766 -2.746780 -0.090302 0.135607 -0.152689 0.188106
    21 -0.033420 -1.397129 -0.011257 -1.115577 0.000000 -0.000001
    22 -0.022360 -0.957436 0.018784 -1.148807 0.000000 0.000000
    23 -1.180681 -2.507217 -0.193859 -1.051076 0.022426 -0.383093
    24 -0.024967 -1.123934 0.017597 -1.710665 0.000000 0.000001
    25 -0.020057 -0.890968 0.010090 -0.388432 0.000000 0.000000
    26 0.583510 -1.197277 0.185379 0.686569 -0.940470 -1.123453
    27 1.535927 0.010246 0.005009 -0.002964 -0.012979 -0.682290
    28 1.100771 0.004527 -0.010679 -0.016147 -0.001453 -1.484153
    29 0.120153 -0.050270 -0.054489 0.287569 3.110905 1.561085
    30 -0.430930 -8.641520 -7.728082 0.150020 -3.177928 0.443538
    31 0.096944 -8.450418 -0.009365 -0.253549 -0.102380 0.248393
    32 0.447953 -2.798986 -0.200443 -1.426761 0.042804 0.170619
    33 -0.032909 -1.480204 0.004940 -1.498009 0.000000 0.000002
    34 -0.027022 -1.076920 -0.020210 -1.225052 0.000000 0.000000
    35 -0.249534 -2.846964 -0.174213 -1.278060 0.002631 0.073866
    36 0.043235 -1.683941 0.096012 -1.638292 0.002823 -0.000167
    37 0.031729 -1.160830 0.058838 -1.199344 0.000642 0.008372
    38 -0.963866 -2.785145 -0.085350 -1.330297 0.070929 0.053157
    39 0.028479 -1.403067 0.006271 -1.337889 0.000000 0.000000
    40 0.021413 -0.957781 0.020046 -1.052173 0.000000 0.000000
    41 1.164475 -2.543940 -0.170330 -1.221927 -0.015463 0.162804
    42 0.024032 -1.129042 0.017807 -1.592547 0.000000 0.000001
    43 0.014898 -0.883989 -0.019848 -0.928571 0.000000 0.000000
    44 -0.586770 -1.264477 0.200161 0.038267 -0.775789 -2.797690
    45 1.522835 0.058681 0.016848 0.001410 0.008985 0.973082
    46 1.117947 0.048424 -0.005766 -0.023409 -0.009318 1.247921
    47 -0.139399 -0.111698 0.014397 0.289561 -0.104570 1.463946
    48 -3.975580 8.546199 -0.270684 1.580804 -0.005023 -1.234343
  time 8
    0 -1.349460 3.166206 0.699636 0.000000 0.000000 0.000000
    1 11.755722 0.291941 -10.428248 -1.562436 -1.347480 1.215000
    2 -0.071918 -8.498730 -0.104136 0.222232 0.090212 -0.238588
    3 3.965516 -3.507752 0.726127 0.088531 0.124697 -1.545787
    4 8.966518 -4.010148 -0.007935 -3.141592 0.000000 -1.318135
    5 -0.000001 0.000000 0.000000 0.000000 0.000000 0.000000
    6 -6.739502 1.470732 -0.007930 -3.141592 0.000000 1.570796
    7 20.198570 1.480959 -0.007934 -0.000096 3.141592 -1.302300
    8 12.303585 -3.220082 0.655518 0.000001 0.000000 1.570797
    9 0.869225 3.303417 0.793734 -3.141592 -1.570796 0.000000
    10 1.809041 -1.766268 0.412229 0.000000 0.000000 -1.570796
    11 0.877971 -1.780795 -0.007933 -3.141592 0.000000 -1.570796
    12 2.847010 0.682891 -0.002611 -6.283184 3.141496 -1.570796
    13 1.257180 8.762585 -0.153713 -1.570562 0.002683 -1.566807
    14 -0.488518 -2.755602 -0.228260 -1.037736 -0.080691 -0.334876
    15 0.039887 -1.479790 0.029854 -2.092299 0.000000 0.000001
    16 0.028786 -1.075731 -0.023109 -0.089607 0.000000 0.000000
    17 0.250027 -2.820665 -0.238396 -0.542900 -0.079479 -0.321720
    18 -0.049759 -1.680544 0.100479 -2.259984 0.000000 -0.000002
    19 -0.034142 -1.148312 0.084782 -0.403560 0.000000 0.000000
    20 0.957766 -2.746780 -0.090302 0.135607 -0.152689 0.188106
    21 -0.033420 -1.397129 -0.011257 -1.115577 0.000000 -0.000001
    22 -0.022360 -0.957436 0.018784 -1.148807 0.000000 0.000000
    23 -1.180681 -2.507217 -0.193859 -1.051076 0.022426 -0.383093
    24 -0.024967 -1.123934 0.017597 -1.710665 0.000000 0.000001
    25 -0.020057 -0.890968 0.010090 -0.388432 0.000000 0.000000
    26 0.583510 -1.197277 0.185379 0.686569 -0.940470 -1.123453
    27 1.535927 0.010246 0.005009 -0.002964 -0.012979 -0.682290
    28 1.100771 0.004527 -0.010679 -0.016147 -0.001453 -1.484153
    29 0.120153 -0.050270 -0.054489 0.287569 3.110905 1.561085
    30 -0.407492 -8.965749 -7.696831 0.146038 -3.170901 0.443347
    31 0.096944 -8.450418 -0.009365 -0.253549 -0.102380 0.248393
    32 0.447953 -2.798986 -0.200443 -1.426761 0.042804 0.170619
    33 -0.032909 -1.480204 0.004940 -1.498009 0.000000 0.000002
    34 -0.027022 -1.076920 -0.020210 -1.225052 0.000000 0.000000
    35 -0.249534 -2.846964 -0.174213 -1.278060 0.002631 0.073866
    36 0.043235 -1.683941 0.096012 -1.638292 0.002823 -0.000167
    37 0.031729 -1.160830 0.058838 -1.199344 0.000642 0.008372
    38 -0.963866 -2.785145 -0.085350 -1.330297 0.070929 0.053157
    39 0.028479 -1.403067 0.006271 -1.337889 0.000000 0.000000
    40 0.021413 -0.957781 0.020046 -1.052173 0.000000 0.000000
    41 1.164475 -2.543940 -0.170330 -1.221927 -0.015463 0.162804
    42 0.024032 -1.129042 0.017807 -1.592547 0.000000 0.000001
    43 0.014898 -0.883989 -0.019848 -0.928571 0.000000 0.000000
    44 -0.586770 -1.264477 0.200161 0.038267 -0.775789 -2.797690
    45 1.522835 0.058681 0.016848 0.001410 0.008985 0.973082
    46 1.117947 0.048424 -0.005766 -0.023409 -0.009318 1.247921
    47 -0.139399 -0.111698 0.014397 0.289561 -0.104570 1.463946
    48 -3.975580 8.546199 -0.270684 1.580804 -0.005023 -1.234343
  time 9
    0 -1.349460 3.166206 0.699636 0.000000 0.000000 0.000000
    1 11.755722 0.030214 -10.490750 -1.539436 -1.344430 1.192510
    2 -0.071918 -8.498730 -0.104136 0.222232 0.090212 -0.238588
    3 3.965516 -3.507752 0.726127 0.088531 0.124697 -1.545787
    4 8.966518 -4.010148 -0.007935 -3.141592 0.000000 -1.318135
    5 -0.000001 0.000000 0.000000 0.000000 0.000000 0.000000
    6 -6.739502 1.470732 -0.007930 -3.141592 0.000000 1.570796
    7 20.198570 1.480959 -0.007934 -0.000096 -3.141592 -1.302300
    8 12.303585 -3.220082 0.655518 0.000001 0.000000 1.570797
    9 0.869225 3.303417 0.793734 -3.141592 -1.570796 0.000000
    10 1.809041 -1.766268 0.412229 0.000000 0.000000 -1.570796
    11 0.877971 -1.780795 -0.007933 -3.141592 0.000000 -1.570796
    12 2.847010 0.682891 -0.002611 -6.283184 3.141496 -1.570796
    13 1.257180 8.762585 -0.153713 -1.570562 0.002683 -1.566807
    14 -0.488518 -2.755602 -0.228260 -1.037736 -0.080691 -0.334876
    15 0.039887 -1.479790 0.029854 -2.092299 0.000000 0.000001
    16 0.028786 -1.075731 -0.023109 -0.089607 0.000000 0.000000
    17 0.250027 -2.820665 -0.238396 -0.542900 -0.079479 -0.321720
    18 -0.049759 -1.680544 0.100479 -2.260054 0.000000 -0.000002
    19 -0.034142 -1.148312 0.084782 -0.403560 0.000000 0.000000
    20 0.957766 -2.746780 -0.090302 0.135607 -0.152689 0.188106
    21 -0.033420 -1.397129 -0.011257 -1.115577 0.000000 -0.000001
    22 -0.022360 -0.957436 0.018784 -1.148807 0.000000 0.000000
    23 -1.180681 -2.507217 -0.193859 -1.051076 0.022426 -0.383093
    24 -0.024967 -1.123934 0.017597 -1.710665 0.000000 0.000001
    25 -0.020057 -0.890968 0.010090 -0.388432 0.000000 0.000000
    26 0.583510 -1.197277 0.185379 0.686569 -0.940470 -1.123453
    27 1.535927 0.010246 0.005009 -0.002964 -0.012979 -0.682290
    28 1.100771 0.004527 -0.010679 -0.016147 -0.001453 -1.484153
    29 0.120153 -0.050270 -0.054489 0.287569 3.110905 1.561085
    30 -0.391866 -9.223569 -7.681205 0.144356 -3.165159 0.443347
    31 0.096944 -8.450418 -0.009365 -0.253549 -0.102380 0.248393
    32 0.447953 -2.798986 -0.200443 -1.426761 0.042804 0.170619
    33 -0.032909 -1.480204 0.004940 -1.498009 0.000000 0.000002
    34 -0.027022 -1.076920 -0.020210 -1.225052 0.000000 0.000000
    35 -0.249534 -2.846964 -0.174213 -1.278060 0.002631 0.073866
    36 0.043235 -1.683941 0.096012 -1.638292 0.002823 -0.000167
    37 0.031729 -1.160830 0.058838 -1.199344 0.000642 0.008372
    38 -0.963866 -2.785145 -0.085350 -1.330297 0.070929 0.053157
    39 0.028479 -1.403067 0.006271 -1.337889 0.000000 0.000000
    40 0.021413 -0.957781 0.020046 -1.052173 0.000000 0.000000
    41 1.164475 -2.543940 -0.170330 -1.221927 -0.015463 0.162804
    42 0.024032 -1.129042 0.017807 -1.592547 0.000000 0.000001
    43 0.014898 -0.883989 -0.019848 -0.928571 0.000000 0.000000
    44 -0.586770 -1.264477 0.200161 0.038267 -0.775789 -2.797690
    45 1.522835 0.058681 0.016848 0.001410 0.008985 0.973082
    46 1.117947 0.048424 -0.005766 -0.023409 -0.009318 1.247921
    47 -0.139399 -0.111698 0.014397 0.289561 -0.104570 1.463946
    48 -3.975580 8.546199 -0.270684 1.580804 -0.005023 -1.234343
  time 10
    0 -1.349460 3.166206 0.699636 0.000000 0.000000 0.000000
    1 11.755722 -0.149479 -10.557158 -1.539067 -1.340745 1.192170
    2 -0.071918 -8.498730 -0.104136 0.222232 0.090212 -0.238588
    3 3.965516 -3.507752 0.726127 0.088531 0.124697 -1.545787
    4 8.966518 -4.010148 -0.007935 -3.141592 0.000000 -1.318135
    5 -0.000001 0.000000 0.000000 0.000000 0.000000 0.000000
    6 -6.739502 1.470732 -0.007930 -3.141592 0.000000 1.570796
    7 20.198570 1.480959 -0.007934 -0.000096 3.141592 -1.302300
    8 12.303585 -3.220082 0.655518 0.000001 0.000000 1.570797
    9 0.869225 3.303417 0.793734 -3.141592 -1.570796 0.000000
    10 1.809041 -1.766268 0.412229 0.000000 0.000000 -1.570796
    11 0.877971 -1.780795 -0.007933 -3.141592 0.000000 -1.570796
    12 2.847010 0.682891 -0.002611 -6.283184 3.141496 -1.570796
    13 1.257180 8.762585 -0.153713 -1.570562 0.002683 -1.566807
    14 -0.488518 -2.755602 -0.228260 -1.037736 -0.080691 -0.334876
    15 0.039887 -1.479790 0.029854 -2.092299 0.000000 0.000001
    16 0.028786 -1.075731 -0.023109 -0.089607 0.000000 0.000000
    17 0.250027 -2.820665 -0.238396 -0.542900 -0.079479 -0.321720
    18 -0.049759 -1.680544 0.100479 -2.259984 0.000000 -0.000002
    19 -0.034142 -1.148312 0.084782 -0.403560 0.000000 0.000000
    20 0.957766 -2.746780 -0.090302 0.135607 -0.152689 0.188106
    21 -0.033420 -1.397129 -0.011257 -1.115577 0.000000 -0.000001
    22 -0.022360 -0.957436 0.018784 -1.148807 0.000000 0.000000
    23 -1.180681 -2.507217 -0.193859 -1.051076 0.022426 -0.383093
    24 -0.024967 -1.123934 0.017597 -1.710665 0.000000 0.000001
    25 -0.020057 -0.890968 0.010090 -0.388432 0.000000 0.000000
    26 0.583510 -1.197277 0.185379 0.686569 -0.940470 -1.123453
    27 1.535927 0.010246 0.005009 -0.002964 -0.012979 -0.682290
    28 1.100771 0.004527 -0.010679 -0.016147 -0.001453 -1.484153
    29 0.120153 -0.050270 -0.054489 0.287569 3.110905 1.561085
    30 -0.387960 -9.395449 -7.696831 0.146834 -3.162331 0.443347
    31 0.096944 -8.450418 -0.009365 -0.253549 -0.102380 0.248393
    32 0.447953 -2.798986 -0.200443 -1.426761 0.042804 0.170619
    33 -0.032909 -1.480204 0.004940 -1.498009 0.000000 0.000002
    34 -0.027022 -1.076920 -0.020210 -1.225052 0.000000 0.000000
    35 -0.249534 -2.846964 -0.174213 -1.278060 0.002631 0.073866
    36 0.043235 -1.683941 0.096012 -1.638292 0.002823 -0.000167
    37 0.031729 -1.160830 0.058838 -1.199344 0.000642 0.008372
    38 -0.963866 -2.785145 -0.085350 -1.330297 0.070929 0.053157
    39 0.028479 -1.403067 0.006271 -1.337889 0.000000 0.000000
    40 0.021413 -0.957781 0.020046 -1.052173 0.000000 0.000000
    41 1.164475 -2.543940 -0.170330 -1.221927 -0.015463 0.162804
    42 0.024032 -1.129042 0.017807 -1.592547 0.000000 0.000001
    43 0.014898 -0.883989 -0.019848 -0.928571 0.000000 0.000000
    44 -0.586770 -1.264477 0.200161 0.038267 -0.775789 -2.797690
    45 1.522835 0.058681 0.016848 0.001410 0.008985 0.973082
    46 1.117947 0.048424 -0.005766 -0.023409 -0.009318 1.247921
    47 -0.139399 -0.111698 0.014397 0.289561 -0.104570 1.463946
    48 -3.975580 8.546199 -0.270684 1.580804 -0.005023 -1.234343
  time 11
    0 -1.349460 3.166206 0.699636 0.000000 0.000000 0.000000
    1 11.755722 -0.270577 -10.623567 -1.549874 -1.336387 1.202648
    2 -0.071918 -8.498730 -0.104136 0.222232 0.090212 -0.238588
    3 3.965516 -3.507752 0.726127 0.088531 0.124697 -1.545787
    4 8.966518 -4.010148 -0.007935 -3.141592 0.000000 -1.318135
    5 -0.000001 0.000000 0.000000 0.000000 0.000000 0.000000
    6 -6.739502 1.470732 -0.007930 -3.141592 0.000000 1.570796
    7 20.198570 1.480959 -0.007934 -0.000096 -3.141592 -1.302300
    8 12.303585 -3.220082 0.655518 0.000001 0.000000 1.570797
    9 0.869225 3.303417 0.793734 -3.141592 -1.570796 0.000000
    10 1.809041 -1.766268 0.412229 0.000000 0.000000 -1.570796
    11 0.877971 -1.780795 -0.007933 -3.141592 0.000000 -1.570796
    12 2.847010 0.682891 -0.002611 -6.283184 3.141496 -1.570796
    13 1.257180 8.762585 -0.153713 -1.570562 0.002683 -1.566807
    14 -0.488518 -2.755602 -0.228260 -1.037736 -0.080691 -0.334876
    15 0.039887 -1.479790 0.029854 -2.092299 0.000000 0.000001
    16 0.028786 -1.075731 -0.023109 -0.089607 0.000000 0.000000
    17 0.250027 -2.820665 -0.238396 -0.542900 -0.079479 -0.321720
    18 -0.049759 -1.680544 0.100479 -2.259984 0.000000 -0.000002
    19 -0.034142 -1.148312 0.084782 -0.403560 0.000000 0.000000
    20 0.957766 -2.746780 -0.090302 0.135607 -0.152689 0.188106
    21 -0.033420 -1.397129 -0.011257 -1.115577 0.000000 -0.000001
    22 -0.022360 -0.957436 0.018784 -1.148807 0.000000 0.000000
    23 -1.180681 -2.507217 -0.193859 -1.051076 0.022426 -0.383093
    24 -0.024967 -1.123934 0.017597 -1.710665 0.000000 0.000001
    25 -0.020057 -0.890968 0.010090 -0.388432 0.000000 0.000000
    26 0.583510 -1.197277 0.185379 0.686569 -0.940470 -1.123453
    27 1.535927 0.010246 0.005009 -0.002964 -0.012979 -0.682290
    28 1.100771 0.004527 -0.010679 -0.016147 -0.001453 -1.484153
    29 0.120153 -0.050270 -0.054489 0.287569 3.110905 1.561085
    30 -0.387960 -9.500921 -7.724175 0.151613 -3.160874 0.443442
    31 0.096944 -8.450418 -0.009365 -0.253549 -0.102380 0.248393
    32 0.447953 -2.798986 -0.200443 -1.426761 0.042804 0.170619
    33 -0.032909 -1.480204 0.004940 -1.498009 0.000000 0.000002
    34 -0.027022 -1.076920 -0.020210 -1.225052 0.000000 0.000000
    35 -0.249534 -2.846964 -0.174213 -1.278060 0.002631 0.073866
    36 0.043235 -1.683941 0.096012 -1.638292 0.002823 -0.000167
    37 0.031729 -1.160830 0.058838 -1.199344 0.000642 0.008372
    38 -0.963866 -2.785145 -0.085350 -1.330297 0.070929 0.053157
    39 0.028479 -1.403067 0.006271 -1.337889 0.000000 0.000000
    40 0.021413 -0.957781 0.020046 -1.052173 0.000000 0.000000
    41 1.164475 -2.543940 -0.170330 -1.221927 -0.015463 0.162804
    42 0.024032 -1.129042 0.017807 -1.592547 0.000000 0.000001
    43 0.014898 -0.883989 -0.019848 -0.928571 0.000000 0.000000
    44 -0.586770 -1.264477 0.200161 0.038267 -0.775789 -2.797690
    45 1.522835 0.058681 0.016848 0.001410 0.008985 0.973082
    46 1.117947 0.048424 -0.005766 -0.023409 -0.009318 1.247921
    47 -0.139399 -0.111698 0.014397 0.289561 -0.104570 1.463946
    48 -3.975580 8.546199 -0.270684 1.580804 -0.005023 -1.234343
  time 12
    0 -1.349460 3.166206 0.699636 0.000000 0.000000 0.000000
    1 11.755722 -0.336985 -10.678256 -1.558834 -1.332900 1.211422
    2 -0.071918 -8.498730 -0.104136 0.222232 0.090212 -0.238588
    3 3.965516 -3.507752 0.726127 0.088531 0.124697 -1.545787
    4 8.966518 -4.010148 -0.007935 -3.141592 0.000000 -1.318135
    5 -0.000001 0.000000 0.000000 0.000000 0.000000 0.000000
    6 -6.739502 1.470732 -0.007930 -3.141592 0.000000 1.570796
    7 20.198570 1.480959 -0.007934 -0.000096 -3.141592 -1.302300
    8 12.303585 -3.220082 0.655518 0.000001 0.000000 1.570797
    9 0.869225 3.303417 0.793734 -3.141592 -1.570796 0.000000
    10 1.809041 -1.766268 0.412229 0.000000 0.000000 -1.570796
    11 0.877971 -1.780795 -0.007933 -3.141592 0.000000 -1.570796
    12 2.847010 0.682891 -0.002611 -6.283184 3.141496 -1.570796
    13 1.257180 8.762585 -0.153713 -1.570562 0.002683 -1.566807
    14 -0.488518 -2.755602 -0.228260 -1.037736 -0.080691 -0.334876
    15 0.039887 -1.479790 0.029854 -2.092299 0.000000 0.000001
    16 0.028786 -1.075731 -0.023109 -0.089607 0.000000 0.000000
    17 0.250027 -2.820665 -0.238396 -0.542900 -0.079479 -0.321720
    18 -0.049759 -1.680544 0.100479 -2.259984 0.000000 -0.000002
    19 -0.034142 -1.148312 0.084782 -0.403560 0.000000 0.000000
    20 0.957766 -2.746780 -0.090302 0.135607 -0.152689 0.188106
    21 -0.033420 -1.397129 -0.011257 -1.115577 0.000000 -0.000001
    22 -0.022360 -0.957436 0.018784 -1.148807 0.000000 0.000000
    23 -1.180681 -2.507217 -0.193859 -1.051076 0.022426 -0.383093
    24 -0.024967 -1.123934 0.017597 -1.710665 0.000000 0.000001
    25 -0.020057 -0.890968 0.010090 -0.388432 0.000000 0.000000
    26 0.583510 -1.197277 0.185379 0.686569 -0.940470 -1.123453
    27 1.535927 0.010246 0.005009 -0.002964 -0.012979 -0.682290
    28 1.100771 0.004527 -0.010679 -0.016147 -0.001453 -1.484153
    29 0.120153 -0.050270 -0.054489 0.287569 3.110905 1.561085
    30 -0.391866 -9.559517 -7.751520 0.155595 -3.159846 0.443538
    31 0.096944 -8.450418 -0.009365 -0.253549 -0.102380 0.248393
    32 0.447953 -2.798986 -0.200443 -1.426761 0.042804 0.170619
    33 -0.032909 -1.480204 0.004940 -1.498009 0.000000 0.000002
    34 -0.027022 -1.076920 -0.020210 -1.225052 0.000000 0.000000
    35 -0.249534 -2.846964 -0.174213 -1.278060 0.002631 0.073866
    36 0.043235 -1.683941 0.096012 -1.638292 0.002823 -0.000167
    37 0.031729 -1.160830 0.058838 -1.199344 0.000642 0.008372
    38 -0.963866 -2.785145 -0.085350 -1.330297 0.070929 0.053157
    39 0.028479 -1.403067 0.006271 -1.337889 0.000000 0.000000
    40 0.021413 -0.957781 0.020046 -1.052173 0.000000 0.000000
    41 1.164475 -2.543940 -0.170330 -1.221927 -0.015463 0.162804
    42 0.024032 -1.129042 0.017807 -1.592547 0.000000 0.000001
    43 0.014898 -0.883989 -0.019848 -0.928571 0.000000 0.000000
    44 -0.586770 -1.264477 0.200161 0.038267 -0.775789 -2.797690
    45 1.522835 0.058681 0.016848 0.001410 0.008985 0.973082
    46 1.117947 0.048424 -0.005766 -0.023409 -0.009318 1.247921
    47 -0.139399 -0.111698 0.014397 0.289561 -0.104570 1.463946
    48 -3.975580 8.546199 -0.270684 1.580804 -0.005023 -1.234343
  time 13
    0 -1.349460 3.166206 0.699636 0.000000 0.000000 0.000000
    1 11.755722 -0.360423 -10.725132 -1.562806 -1.330365 1.215256
    2 -0.071918 -8.498730 -0.104136 0.222232 0.090212 -0.238588
    3 3.965516 -3.507752 0.726127 0.088531 0.124697 -1.545787
    4 8.966518 -4.010148 -0.007935 -3.141592 0.000000 -1.318135
    5 -0.000001 0.000000 0.000000 0.000000 0.000000 0.000000
    6 -6.739502 1.470732 -0.007930 -3.141592 0.000000 1.570796
    7 20.198570 1.480959 -0.007934 -0.000096 -3.141592 -1.302300
    8 12.303585 -3.220082 0.655518 0.000001 0.000000 1.570797
    9 0.869225 3.303417 0.793734 -3.141592 -1.570796 0.000000
    10 1.809041 -1.766268 0.412229 0.000000 0.000000 -1.570796
    11 0.877971 -1.780795 -0.007933 -3.141592 0.000000 -1.570796
    12 2.847010 0.682891 -0.002611 -6.283184 3.141496 -1.570796
    13 1.257180 8.762585 -0.153713 -1.570562 0.002683 -1.566807
    14 -0.488518 -2.755602 -0.228260 -1.037736 -0.080691 -0.334876
    15 0.039887 -1.479790 0.029854 -2.092299 0.000000 0.000001
    16 0.028786 -1.075731 -0.023109 -0.089607 0.000000 0.000000
    17 0.250027 -2.820665 -0.238396 -0.542900 -0.079479 -0.321720
    18 -0.049759 -1.680544 0.100479 -2.259984 0.000000 -0.000002
    19 -0.034142 -1.148312 0.084782 -0.403560 0.000000 0.000000
    20 0.957766 -2.746780 -0.090302 0.135607 -0.152689 0.188106
    21 -0.033420 -1.397129 -0.011257 -1.115577 0.000000 -0.000001
    22 -0.022360 -0.957436 0.018784 -1.148807 0.000000 0.000000
    23 -1.180681 -2.507217 -0.193859 -1.051076 0.022426 -0.383093
    24 -0.024967 -1.123934 0.017597 -1.710665 0.000000 0.000001
    25 -0.020057 -0.890968 0.010090 -0.388432 0.000000 0.000000
    26 0.583510 -1.197277 0.185379 0.686569 -0.940470 -1.123453
    27 1.535927 0.010246 0.005009 -0.002964 -0.012979 -0.682290
    28 1.100771 0.004527 -0.010679 -0.016147 -0.001453 -1.484153
    29 0.120153 -0.050270 -0.054489 0.287569 3.110905 1.561085
    30 -0.391866 -9.571236 -7.774958 0.157984 -3.158646 0.443633
    31 0.096944 -8.450418 -0.009365 -0.253549 -0.102380 0.248393
    32 0.447953 -2.798986 -0.200443 -1.426761 0.042804 0.170619
    33 -0.032909 -1.480204 0.004940 -1.498009 0.000000 0.000002
    34 -0.027022 -1.076920 -0.020210 -1.225052 0.000000 0.000000
    35 -0.249534 -2.846964 -0.174213 -1.278060 0.002631 0.073866
    36 0.043235 -1.683941 0.096012 -1.638292 0.002823 -0.000167
    37 0.031729 -1.160830 0.058838 -1.199344 0.000642 0.008372
    38 -0.963866 -2.785145 -0.085350 -1.330297 0.070929 0.053157
    39 0.028479 -1.403067 0.006271 -1.337889 0.000000 0.000000
    40 0.021413 -0.957781 0.020046 -1.052173 0.000000 0.000000
    41 1.164475 -2.543940 -0.170330 -1.221927 -0.015463 0.162804
    42 0.024032 -1.129042 0.017807 -1.592547 0.000000 0.000001
    43 0.014898 -0.883989 -0.019848 -0.928571 0.000000 0.000000
    44 -0.586770 -1.264477 0.200161 0.038267 -0.775789 -2.797690
    45 1.522835 0.058681 0.016848 0.001410 0.008985 0.973082
    46 1.117947 0.048424 -0.005766 -0.023409 -0.009318 1.247921
    47 -0.139399 -0.111698 0.014397 0.289561 -0.104570 1.463946
    48 -3.975580 8.546199 -0.270684 1.580804 -0.005023 -1.234343
  time 14
    0 -1.349460 3.166206 0.699636 0.000000 0.000000 0.000000
    1 11.755722 -0.344798 -10.768102 -1.566131 -1.328225 1.218578
    2 -0.071918 -8.498730 -0.104136 0.222232 0.090212 -0.238588
    3 3.965516 -3.507752 0.726127 0.088531 0.124697 -1.545787
    4 8.966518 -4.010148 -0.007935 -3.141592 0.000000 -1.318135
    5 -0.000001 0.000000 0.000000 0.000000 0.000000 0.000000
    6 -6.739502 1.470732 -0.007930 -3.141592 0.000000 1.570796
    7 20.198570 1.480959 -0.007934 -0.000096 3.141592 -1.302300
    8 12.303585 -3.220082 0.655518 0.000001 0.000000 1.570797
    9 0.869225 3.303417 0.793734 -3.141592 -1.570796 0.000000
    10 1.809041 -1.766268 0.412229 0.000000 0.000000 -1.570796
    11 0.877971 -1.780795 -0.007933 -3.141592 0.000000 -1.570796
    12 2.847010 0.682891 -0.002611 -6.283184 3.141496 -1.570796
    13 1.257180 8.762585 -0.153713 -1.570562 0.002683 -1.566807
    14 -0.488518 -2.755602 -0.228260 -1.037736 -0.080691 -0.334876
    15 0.039887 -1.479790 0.029854 -2.092299 0.000000 0.000001
    16 0.028786 -1.075731 -0.023109 -0.089607 0.000000 0.000000
    17 0.250027 -2.820665 -0.238396 -0.542900 -0.079479 -0.321720
    18 -0.049759 -1.680544 0.100479 -2.260054 0.000000 -0.000002
    19 -0.034142 -1.148312 0.084782 -0.403560 0.000000 0.000000
    20 0.957766 -2.746780 -0.090302 0.135607 -0.152689 0.188106
    21 -0.033420 -1.397129 -0.011257 -1.115577 0.000000 -0.000001
    22 -0.022360 -0.957436 0.018784 -1.148807 0.000000 0.000000
    23 -1.180681 -2.507217 -0.193859 -1.051076 0.022426 -0.383093
    24 -0.024967 -1.123934 0.017597 -1.710665 0.000000 0.000001
    25 -0.020057 -0.890968 0.010090 -0.388432 0.000000 0.000000
    26 0.583510 -1.197277 0.185379 0.686569 -0.940470 -1.123453
    27 1.535927 0.010246 0.005009 -0.002964 -0.012979 -0.682290
    28 1.100771 0.004527 -0.010679 -0.016147 -0.001453 -1.484153
    29 0.120153 -0.050270 -0.054489 0.287569 3.110905 1.561085
    30 -0.391866 -9.547798 -7.798396 0.160108 -3.157703 0.443633
    31 0.096944 -8.450418 -0.009365 -0.253549 -0.102380 0.248393
    32 0.447953 -2.798986 -0.200443 -1.426761 0.042804 0.170619
    33 -0.032909 -1.480204 0.004940 -1.498009 0.000000 0.000002
    34 -0.027022 -1.076920 -0.020210 -1.225052 0.000000 0.000000
    35 -0.249534 -2.846964 -0.174213 -1.278060 0.002631 0.073866
    36 0.043235 -1.683941 0.096012 -1.638292 0.002823 -0.000167
    37 0.031729 -1.160830 0.058838 -1.199344 0.000642 0.008372
    38 -0.963866 -2.785145 -0.085350 -1.330297 0.070929 0.053157
    39 0.028479 -1.403067 0.006271 -1.337889 0.000000 0.000000
    40 0.021413 -0.957781 0.020046 -1.052173 0.000000 0.000000
    41 1.164475 -2.543940 -0.170330 -1.221927 -0.015463 0.162804
    42 0.024032 -1.129042 0.017807 -1.592547 0.000000 0.000001
    43 0.014898 -0.883989 -0.019848 -0.928571 0.000000 0.000000
    44 -0.586770 -1.264477 0.200161 0.038267 -0.775789 -2.797690
    45 1.522835 0.058681 0.016848 0.001410 0.008985 0.973082
    46 1.117947 0.048424 -0.005766 -0.023409 -0.009318 1.247921
    47 -0.139399 -0.111698 0.014397 0.289561 -0.104570 1.463946
    48 -3.975580 8.546199 -0.270684 1.580804 -0.005023 -1.234343
  time 15
    0 -1.349460 3.166206 0.699636 0.000000 0.000000 0.000000
    1 11.755722 -0.313547 -10.803260 -1.568255 -1.326878 1.220623
    2 -0.071918 -8.498730 -0.104136 0.222232 0.090212 -0.238588
    3 3.965516 -3.507752 0.726127 0.088531 0.124697 -1.545787
    4 8.966518 -4.010148 -0.007935 -3.141592 0.000000 -1.318135
    5 -0.000001 0.000000 0.000000 0.000000 0.000000 0.000000
    6 -6.739502 1.470732 -0.007930 -3.141592 0.000000 1.570796
    7 20.198570 1.480959 -0.007934 -0.000096 3.141592 -1.302300
    8 12.303585 -3.220082 0.655518 0.000001 0.000000 1.570797
    9 0.869225 3.303417 0.793734 -3.141592 -1.570796 0.000000
    10 1.809041 -1.766268 0.412229 0.000000 0.000000 -1.570796
    11 0.877971 -1.780795 -0.007933 -3.141592 0.000000 -1.570796
    12 2.847010 0.682891 -0.002611 -6.283184 3.141496 -1.570796
    13 1.257180 8.762585 -0.153713 -1.570562 0.002683 -1.566807
    14 -0.488518 -2.755602 -0.228260 -1.037736 -0.080691 -0.334876
    15 0.039887 -1.479790 0.029854 -2.092299 0.000000 0.000001
    16 0.028786 -1.075731 -0.023109 -0.089607 0.000000 0.000000
    17 0.250027 -2.820665 -0.238396 -0.542900 -0.079479 -0.321720
    18 -0.049759 -1.680544 0.100479 -2.259984 0.000000 -0.000002
    19 -0.034142 -1.148312 0.084782 -0.403560 0.000000 0.000000
    20 0.957766 -2.746780 -0.090302 0.135607 -0.152689 0.188106
    21 -0.033420 -1.397129 -0.011257 -1.115577 0.000000 -0.000001
    22 -0.022360 -0.957436 0.018784 -1.148807 0.000000 0.000000
    23 -1.180681 -2.507217 -0.193859 -1.051076 0.022426 -0.383093
    24 -0.024967 -1.123934 0.017597 -1.710665 0.000000 0.000001
    25 -0.020057 -0.890968 0.010090 -0.388432 0.000000 0.000000
    26 0.583510 -1.197277 0.185379 0.686569 -0.940470 -1.123453
    27 1.535927 0.010246 0.005009 -0.002964 -0.012979 -0.682290
    28 1.100771 0.004527 -0.010679 -0.016147 -0.001453 -1.484153
    29 0.120153 -0.050270 -0.054489 0.287569 3.110905 1.561085
    30 -0.391866 -9.512640 -7.817928 0.161435 -3.157018 0.443633
    31 0.096944 -8.450418 -0.009365 -0.253549 -0.102380 0.248393
    32 0.447953 -2.798986 -0.200443 -1.426761 0.042804 0.170619
    33 -0.032909 -1.480204 0.004940 -1.498009 0.000000 0.000002
    34 -0.027022 -1.076920 -0.020210 -1.225052 0.000000 0.000000
    35 -0.249534 -2.846964 -0.174213 -1.278060 0.002631 0.073866
    36 0.043235 -1.683941 0.096012 -1.638292 0.002823 -0.000167
    37 0.031729 -1.160830 0.058838 -1.199344 0.000642 0.008372
    38 -0.963866 -2.785145 -0.085350 -1.330297 0.070929 0.053157
    39 0.028479 -1.403067 0.006271 -1.337889 0.000000 0.000000
    40 0.021413 -0.957781 0.020046 -1.052173 0.000000 0.000000
    41 1.164475 -2.543940 -0.170330 -1.221927 -0.015463 0.162804
    42 0.024032 -1.129042 0.017807 -1.592547 0.000000 0.000001
    43 0.014898 -0.883989 -0.019848 -0.928571 0.000000 0.000000
    44 -0.586770 -1.264477 0.200161 0.038267 -0.775789 -2.797690
    45 1.522835 0.058681 0.016848 0.001410 0.008985 0.973082
    46 1.117947 0.048424 -0.005766 -0.023409 -0.009318 1.247921
    47 -0.139399 -0.111698 0.014397 0.289561 -0.104570 1.463946
    48 -3.975580 8.546199 -0.270684 1.580804 -0.005023 -1.234343
  time 16
    0 -1.349460 3.166206 0.699636 0.000000 0.000000 0.000000
    1 11.755722 -0.278389 -10.811072 -1.568533 -1.326680 1.220793
    2 -0.071918 -8.498730 -0.104136 0.222232 0.090212 -0.238588
    3 3.965516 -3.507752 0.726127 0.088531 0.124697 -1.545787
    4 8.966518 -4.010148 -0.007935 -3.141592 0.000000 -1.318135
    5 -0.000001 0.000000 0.000000 0.000000 0.000000 0.000000
    6 -6.739502 1.470732 -0.007930 -3.141592 0.000000 1.570796
    7 20.198570 1.480959 -0.007934 -0.000096 3.141592 -1.302300
    8 12.303585 -3.220082 0.655518 0.000001 0.000000 1.570797
    9 0.869225 3.303417 0.793734 -3.141592 -1.570796 0.000000
    10 1.809041 -1.766268 0.412229 0.000000 0.000000 -1.570796
    11 0.877971 -1.780795 -0.007933 -3.141592 0.000000 -1.570796
    12 2.847010 0.682891 -0.002611 -6.283184 3.141496 -1.570796
    13 1.257180 8.762585 -0.153713 -1.570562 0.002683 -1.566807
    14 -0.488518 -2.755602 -0.228260 -1.037736 -0.080691 -0.334876
    15 0.039887 -1.479790 0.029854 -2.092299 0.000000 0.000001
    16 0.028786 -1.075731 -0.023109 -0.089607 0.000000 0.000000
    17 0.250027 -2.820665 -0.238396 -0.542900 -0.079479 -0.321720
    18 -0.049759 -1.680544 0.100479 -2.259984 0.000000 -0.000002
    19 -0.034142 -1.148312 0.084782 -0.403560 0.000000 0.000000
    20 0.957766 -2.746780 -0.090302 0.135607 -0.152689 0.188106
    21 -0.033420 -1.397129 -0.011257 -1.115577 0.000000 -0.000001
    22 -0.022360 -0.957436 0.018784 -1.148807 0.000000 0.000000
    23 -1.180681 -2.507217 -0.193859 -1.051076 0.022426 -0.383093
    24 -0.024967 -1.123934 0.017597 -1.710665 0.000000 0.000001
    25 -0.020057 -0.890968 0.010090 -0.388432 0.000000 0.000000
    26 0.583510 -1.197277 0.185379 0.686569 -0.940470 -1.123453
    27 1.535927 0.010246 0.005009 -0.002964 -0.012979 -0.682290
    28 1.100771 0.004527 -0.010679 -0.016147 -0.001453 -1.484153
    29 0.120153 -0.050270 -0.054489 0.287569 3.110905 1.561085
    30 -0.391866 -9.477483 -7.825741 0.161612 -3.156932 0.443633
    31 0.096944 -8.450418 -0.009365 -0.253549 -0.102380 0.248393
    32 0.447953 -2.798986 -0.200443 -1.426761 0.042804 0.170619
    33 -0.032909 -1.480204 0.004940 -1.498009 0.000000 0.000002
    34 -0.027022 -1.076920 -0.020210 -1.225052 0.000000 0.000000
    35 -0.249534 -2.846964 -0.174213 -1.278060 0.002631 0.073866
    36 0.043235 -1.683941 0.096012 -1.638292 0.002823 -0.000167
    37 0.031729 -1.160830 0.058838 -1.199344 0.000642 0.008372
    38 -0.963866 -2.785145 -0.085350 -1.330297 0.070929 0.053157
    39 0.028479 -1.403067 0.006271 -1.337889 0.000000 0.000000
    40 0.021413 -0.957781 0.020046 -1.052173 0.000000 0.000000
    41 1.164475 -2.543940 -0.170330 -1.221927 -0.015463 0.162804
    42 0.024032 -1.129042 0.017807 -1.592547 0.000000 0.000001
    43 0.014898 -0.883989 -0.019848 -0.928571 0.000000 0.000000
    44 -0.586770 -1.264477 0.200161 0.038267 -0.775789 -2.797690
    45 1.522835 0.058681 0.016848 0.001410 0.008985 0.973082
    46 1.117947 0.048424 -0.005766 -0.023409 -0.009318 1.247921
    47 -0.139399 -0.111698 0.014397 0.289561 -0.104570 1.463946
    48 -3.975580 8.546199 -0.270684 1.580804 -0.005023 -1.234343
  time 17
    0 -1.349460 3.166206 0.699636 0.000000 0.000000 0.000000
    1 11.755722 -0.239326 -10.795447 -1.566131 -1.328225 1.218578
    2 -0.071918 -8.498730 -0.104136 0.222232 0.090212 -0.238588
    3 3.965516 -3.507752 0.726127 0.088531 0.124697 -1.545787
    4 8.966518 -4.010148 -0.007935 -3.141592 0.000000 -1.318135
    5 -0.000001 0.000000 0.000000 0.000000 0.000000 0.000000
    6 -6.739502 1.470732 -0.007930 -3.141592 0.000000 1.570796
    7 20.198570 1.480959 -0.007934 -0.000096 3.141592 -1.302300
    8 12.303585 -3.220082 0.655518 0.000001 0.000000 1.570797
    9 0.869225 3.303417 0.793734 -3.141592 -1.570796 0.000000
    10 1.809041 -1.766268 0.412229 0.000000 0.000000 -1.570796
    11 0.877971 -1.780795 -0.007933 -3.141592 0.000000 -1.570796
    12 2.847010 0.682891 -0.002611 -6.283184 3.141496 -1.570796
    13 1.257180 8.762585 -0.153713 -1.570562 0.002683 -1.566807
    14 -0.488518 -2.755602 -0.228260 -1.037736 -0.080691 -0.334876
    15 0.039887 -1.479790 0.029854 -2.092299 0.000000 0.000001
    16 0.028786 -1.075731 -0.023109 -0.089607 0.000000 0.000000
    17 0.250027 -2.820665 -0.238396 -0.542900 -0.079479 -0.321720
    18 -0.049759 -1.680544 0.100479 -2.259984 0.000000 -0.000002
    19 -0.034142 -1.148312 0.084782 -0.403560 0.000000 0.000000
    20 0.957766 -2.746780 -0.090302 0.135607 -0.152689 0.188106
    21 -0.033420 -1.397129 -0.011257 -1.115577 0.000000 -0.000001
    22 -0.022360 -0.957436 0.018784 -1.148807 0.000000 0.000000
    23 -1.180681 -2.507217 -0.193859 -1.051076 0.022426 -0.383093
    24 -0.024967 -1.123934 0.017597 -1.710665 0.000000 0.000001
    25 -0.020057 -0.890968 0.010090 -0.388432 0.000000 0.000000
    26 0.583510 -1.197277 0.185379 0.686569 -0.940470 -1.123453
    27 1.535927 0.010246 0.005009 -0.002964 -0.012979 -0.682290
    28 1.100771 0.004527 -0.010679 -0.016147 -0.001453 -1.484153
    29 0.120153 -0.050270 -0.054489 0.287569 3.110905 1.561085
    30 -0.391866 -9.442326 -7.821834 0.160108 -3.157703 0.443633
    31 0.096944 -8.450418 -0.009365 -0.253549 -0.102380 0.248393
    32 0.447953 -2.798986 -0.200443 -1.426761 0.042804 0.170619
    33 -0.032909 -1.480204 0.004940 -1.498009 0.000000 0.000002
    34 -0.027022 -1.076920 -0.020210 -1.225052 0.000000 0.000000
    35 -0.249534 -2.846964 -0.174213 -1.278060 0.002631 0.073866
    36 0.043235 -1.683941 0.096012 -1.638292 0.002823 -0.000167
    37 0.031729 -1.160830 0.058838 -1.199344 0.000642 0.008372
    38 -0.963866 -2.785145 -0.085350 -1.330297 0.070929 0.053157
    39 0.028479 -1.403067 0.006271 -1.337889 0.000000 0.000000
    40 0.021413 -0.957781 0.020046 -1.052173 0.000000 0.000000
    41 1.164475 -2.543940 -0.170330 -1.221927 -0.015463 0.162804
    42 0.024032 -1.129042 0.017807 -1.592547 0.000000 0.000001
    43 0.014898 -0.883989 -0.019848 -0.928571 0.000000 0.000000
    44 -0.586770 -1.264477 0.200161 0.038267 -0.775789 -2.797690
    45 1.522835 0.058681 0.016848 0.001410 0.008985 0.973082
    46 1.117947 0.048424 -0.005766 -0.023409 -0.009318 1.247921
    47 -0.139399 -0.111698 0.014397 0.289561 -0.104570 1.463946
    48 -3.975580 8.546199 -0.270684 1.580804 -0.005023 -1.234343
  time 18
    0 -1.349460 3.166206 0.699636 0.000000 0.000000 0.000000
    1 11.755722 -0.192449 -10.752477 -1.561790 -1.331038 1.214234
    2 -0.071918 -8.498730 -0.104136 0.222232 0.090212 -0.238588
    3 3.965516 -3.507752 0.726127 0.088531 0.124697 -1.545787
    4 8.966518 -4.010148 -0.007935 -3.141592 0.000000 -1.318135
    5 -0.000001 0.000000 0.000000 0.000000 0.000000 0.000000
    6 -6.739502 1.470732 -0.007930 -3.141592 0.000000 1.570796
    7 20.198570 1.480959 -0.007934 -0.000096 -3.141592 -1.302300
    8 12.303585 -3.220082 0.655518 0.000001 0.000000 1.570797
    9 0.869225 3.303417 0.793734 -3.141592 -1.570796 0.000000
    10 1.809041 -1.766268 0.412229 0.000000 0.000000 -1.570796
    11 0.877971 -1.780795 -0.007933 -3.141592 0.000000 -1.570796
    12 2.847010 0.682891 -0.002611 -6.283184 3.141496 -1.570796
    13 1.257180 8.762585 -0.153713 -1.570562 0.002683 -1.566807
    14 -0.488518 -2.755602 -0.228260 -1.037736 -0.080691 -0.334876
    15 0.039887 -1.479790 0.029854 -2.092299 0.000000 0.000001
    16 0.028786 -1.075731 -0.023109 -0.089607 0.000000 0.000000
    17 0.250027 -2.820665 -0.238396 -0.542900 -0.079479 -0.321720
    18 -0.049759 -1.680544 0.100479 -2.259984 0.000000 -0.000002
    19 -0.034142 -1.148312 0.084782 -0.403560 0.000000 0.000000
    20 0.957766 -2.746780 -0.090302 0.135607 -0.152689 0.188106
    21 -0.033420 -1.397129 -0.011257 -1.115577 0.000000 -0.000001
    22 -0.022360 -0.957436 0.018784 -1.148807 0.000000 0.000000
    23 -1.180681 -2.507217 -0.193859 -1.051076 0.022426 -0.383093
    24 -0.024967 -1.123934 0.017597 -1.710665 0.000000 0.000001
    25 -0.020057 -0.890968 0.010090 -0.388432 0.000000 0.000000
    26 0.583510 -1.197277 0.185379 0.686569 -0.940470 -1.123453
    27 1.535927 0.010246 0.005009 -0.002964 -0.012979 -0.682290
    28 1.100771 0.004527 -0.010679 -0.016147 -0.001453 -1.484153
    29 0.120153 -0.050270 -0.054489 0.287569 3.110905 1.561085
    30 -0.391866 -9.403262 -7.810115 0.157364 -3.158989 0.443633
    31 0.096944 -8.450418 -0.009365 -0.253549 -0.102380 0.248393
    32 0.447953 -2.798986 -0.200443 -1.426761 0.042804 0.170619
    33 -0.032909 -1.480204 0.004940 -1.498009 0.000000 0.000002
    34 -0.027022 -1.076920 -0.020210 -1.225052 0.000000 0.000000
    35 -0.249534 -2.846964 -0.174213 -1.278060 0.002631 0.073866
    36 0.043235 -1.683941 0.096012 -1.638292 0.002823 -0.000167
    37 0.031729 -1.160830 0.058838 -1.199344 0.000642 0.008372
    38 -0.963866 -2.785145 -0.085350 -1.330297 0.070929 0.053157
    39 0.028479 -1.403067 0.006271 -1.337889 0.000000 0.000000
    40 0.021413 -0.957781 0.020046 -1.052173 0.000000 0.000000
    41 1.164475 -2.543940 -0.170330 -1.221927 -0.015463 0.162804
    42 0.024032 -1.129042 0.017807 -1.592547 0.000000 0.000001
    43 0.014898 -0.883989 -0.019848 -0.928571 0.000000 0.000000
    44 -0.586770 -1.264477 0.200161 0.038267 -0.775789 -2.797690
    45 1.522835 0.058681 0.016848 0.001410 0.008985 0.973082
    46 1.117947 0.048424 -0.005766 -0.023409 -0.009318 1.247921
    47 -0.139399 -0.111698 0.014397 0.289561 -0.104570 1.463946
    48 -3.975580 8.546199 -0.270684 1.580804 -0.005023 -1.234343
  time 19
    0 -1.349460 3.166206 0.699636 0.000000 0.000000 0.000000
    1 11.755722 -0.141666 -10.705600 -1.556617 -1.334287 1.209293
    2 -0.071918 -8.498730 -0.104136 0.222232 0.090212 -0.238588
    3 3.965516 -3.507752 0.726127 0.088531 0.124697 -1.545787
    4 8.966518 -4.010148 -0.007935 -3.141592 0.000000 -1.318135
    5 -0.000001 0.000000 0.000000 0.000000 0.000000 0.000000
    6 -6.739502 1.470732 -0.007930 -3.141592 0.000000 1.570796
    7 20.198570 1.480959 -0.007934 -0.000096 -3.141592 -1.302300
    8 12.303585 -3.220082 0.655518 0.000001 0.000000 1.570797
    9 0.869225 3.303417 0.793734 -3.141592 -1.570796 0.000000
    10 1.809041 -1.766268 0.412229 0.000000 0.000000 -1.570796
    11 0.877971 -1.780795 -0.007933 -3.141592 0.000000 -1.570796
    12 2.847010 0.682891 -0.002611 -6.283184 3.141496 -1.570796
    13 1.257180 8.762585 -0.153713 -1.570562 0.002683 -1.566807
    14 -0.488518 -2.755602 -0.228260 -1.037736 -0.080691 -0.334876
    15 0.039887 -1.479790 0.029854 -2.092299 0.000000 0.000001
    16 0.028786 -1.075731 -0.023109 -0.089607 0.000000 0.000000
    17 0.250027 -2.820665 -0.238396 -0.542900 -0.079479 -0.321720
    18 -0.049759 -1.680544 0.100479 -2.259984 0.000000 -0.000002
    19 -0.034142 -1.148312 0.084782 -0.403560 0.000000 0.000000
    20 0.957766 -2.746780 -0.090302 0.135607 -0.152689 0.188106
    21 -0.033420 -1.397129 -0.011257 -1.115577 0.000000 -0.000001
    22 -0.022360 -0.957436 0.018784 -1.148807 0.000000 0.000000
    23 -1.180681 -2.507217 -0.193859 -1.051076 0.022426 -0.383093
    24 -0.024967 -1.123934 0.017597 -1.710665 0.000000 0.000001
    25 -0.020057 -0.890968 0.010090 -0.388432 0.000000 0.000000
    26 0.583510 -1.197277 0.185379 0.686569 -0.940470 -1.123453
    27 1.535927 0.010246 0.005009 -0.002964 -0.012979 -0.682290
    28 1.100771 0.004527 -0.010679 -0.016147 -0.001453 -1.484153
    29 0.120153 -0.050270 -0.054489 0.287569 3.110905 1.561085
    30 -0.391866 -9.364198 -7.790583 0.154267 -3.160446 0.443538
    31 0.096944 -8.450418 -0.009365 -0.253549 -0.102380 0.248393
    32 0.447953 -2.798986 -0.200443 -1.426761 0.042804 0.170619
    33 -0.032909 -1.480204 0.004940 -1.498009 0.000000 0.000002
    34 -0.027022 -1.076920 -0.020210 -1.225052 0.000000 0.000000
    35 -0.249534 -2.846964 -0.174213 -1.278060 0.002631 0.073866
    36 0.043235 -1.683941 0.096012 -1.638292 0.002823 -0.000167
    37 0.031729 -1.160830 0.058838 -1.199344 0.000642 0.008372
    38 -0.963866 -2.785145 -0.085350 -1.330297 0.070929 0.053157
    39 0.028479 -1.403067 0.006271 -1.337889 0.000000 0.000000
    40 0.021413 -0.957781 0.020046 -1.052173 0.000000 0.000000
    41 1.164475 -2.543940 -0.170330 -1.221927 -0.015463 0.162804
    42 0.024032 -1.129042 0.017807 -1.592547 0.000000 0.000001
    43 0.014898 -0.883989 -0.019848 -0.928571 0.000000 0.000000
    44 -0.586770 -1.264477 0.200161 0.038267 -0.775789 -2.797690
    45 1.522835 0.058681 0.016848 0.001410 0.008985 0.973082
    46 1.117947 0.048424 -0.005766 -0.023409 -0.009318 1.247921
    47 -0.139399 -0.111698 0.014397 0.289561 -0.104570 1.463946
    48 -3.975580 8.546199 -0.270684 1.580804 -0.005023 -1.234343
  time 20
    0 -1.349460 3.166206 0.699636 0.000000 0.000000 0.000000
    1 11.755722 -0.098696 -10.666537 -1.552275 -1.336942 1.205033
    2 -0.071918 -8.498730 -0.104136 0.222232 0.090212 -0.238588
    3 3.965516 -3.507752 0.726127 0.088531 0.124697 -1.545787
    4 8.966518 -4.010148 -0.007935 -3.141592 0.000000 -1.318135
    5 -0.000001 0.000000 0.000000 0.000000 0.000000 0.000000
    6 -6.739502 1.470732 -0.007930 -3.141592 0.000000 1.570796
    7 20.198570 1.480959 -0.007934 -0.000096 -3.141592 -1.302300
    8 12.303585 -3.220082 0.655518 0.000001 0.000000 1.570797
    9 0.869225 3.303417 0.793734 -3.141592 -1.570796 0.000000
    10 1.809041 -1.766268 0.412229 0.000000 0.000000 -1.570796
    11 0.877971 -1.780795 -0.007933 -3.141592 0.000000 -1.570796
    12 2.847010 0.682891 -0.002611 -6.283184 3.141496 -1.570796
    13 1.257180 8.762585 -0.153713 -1.570562 0.002683 -1.566807
    14 -0.488518 -2.755602 -0.228260 -1.037736 -0.080691 -0.334876
    15 0.039887 -1.479790 0.029854 -2.092299 0.000000 0.000001
    16 0.028786 -1.075731 -0.023109 -0.089607 0.000000 0.000000
    17 0.250027 -2.820665 -0.238396 -0.542900 -0.079479 -0.321720
    18 -0.049759 -1.680544 0.100479 -2.259984 0.000000 -0.000002
    19 -0.034142 -1.148312 0.084782 -0.403560 0.000000 0.000000
    20 0.957766 -2.746780 -0.090302 0.135607 -0.152689 0.188106
    21 -0.033420 -1.397129 -0.011257 -1.115577 0.000000 -0.000001
    22 -0.022360 -0.957436 0.018784 -1.148807 0.000000 0.000000
    23 -1.180681 -2.507217 -0.193859 -1.051076 0.022426 -0.383093
    24 -0.024967 -1.123934 0.017597 -1.710665 0.000000 0.000001
    25 -0.020057 -0.890968 0.010090 -0.388432 0.000000 0.000000
    26 0.583510 -1.197277 0.185379 0.686569 -0.940470 -1.123453
    27 1.535927 0.010246 0.005009 -0.002964 -0.012979 -0.682290
    28 1.100771 0.004527 -0.010679 -0.016147 -0.001453 -1.484153
    29 0.120153 -0.050270 -0.054489 0.287569 3.110905 1.561085
    30 -0.391866 -9.329041 -7.778864 0.151701 -3.161645 0.443442
    31 0.096944 -8.450418 -0.009365 -0.253549 -0.102380 0.248393
    32 0.447953 -2.798986 -0.200443 -1.426761 0.042804 0.170619
    33 -0.032909 -1.480204 0.004940 -1.498009 0.000000 0.000002
    34 -0.027022 -1.076920 -0.020210 -1.225052 0.000000 0.000000
    35 -0.249534 -2.846964 -0.174213 -1.278060 0.002631 0.073866
    36 0.043235 -1.683941 0.096012 -1.638292 0.002823 -0.000167
    37 0.031729 -1.160830 0.058838 -1.199344 0.000642 0.008372
    38 -0.963866 -2.785145 -0.085350 -1.330297 0.070929 0.053157
    39 0.028479 -1.403067 0.006271 -1.337889 0.000000 0.000000
    40 0.021413 -0.957781 0.020046 -1.052173 0.000000 0.000000
    41 1.164475 -2.543940 -0.170330 -1.221927 -0.015463 0.162804
    42 0.024032 -1.129042 0.017807 -1.592547 0.000000 0.000001
    43 0.014898 -0.883989 -0.019848 -0.928571 0.000000 0.000000
    44 -0.586770 -1.264477 0.200161 0.038267 -0.775789 -2.797690
    45 1.522835 0.058681 0.016848 0.001410 0.008985 0.973082
    46 1.117947 0.048424 -0.005766 -0.023409 -0.009318 1.247921
    47 -0.139399 -0.111698 0.014397 0.289561 -0.104570 1.463946
    48 -3.975580 8.546199 -0.270684 1.580804 -0.005023 -1.234343
  time 21
    0 -1.349460 3.166206 0.699636 0.000000 0.000000 0.000000
    1 11.755722 -0.067445 -10.650911 -1.550243 -1.338170 1.202989
    2 -0.071918 -8.498730 -0.104136 0.222232 0.090212 -0.238588
    3 3.965516 -3.507752 0.726127 0.088531 0.124697 -1.545787
    4 8.966518 -4.010148 -0.007935 -3.141592 0.000000 -1.318135
    5 -0.000001 0.000000 0.000000 0.000000 0.000000 0.000000
    6 -6.739502 1.470732 -0.007930 -3.141592 0.000000 1.570796
    7 20.198570 1.480959 -0.007934 -0.000096 -3.141592 -1.302300
    8 12.303585 -3.220082 0.655518 0.000001 0.000000 1.570797
    9 0.869225 3.303417 0.793734 -3.141592 -1.570796 0.000000
    10 1.809041 -1.766268 0.412229 0.000000 0.000000 -1.570796
    11 0.877971 -1.780795 -0.007933 -3.141592 0.000000 -1.570796
    12 2.847010 0.682891 -0.002611 -6.283184 3.141496 -1.570796
    13 1.257180 8.762585 -0.153713 -1.570562 0.002683 -1.566807
    14 -0.488518 -2.755602 -0.228260 -1.037736 -0.080691 -0.334876
    15 0.039887 -1.479790 0.029854 -2.092299 0.000000 0.000001
    16 0.028786 -1.075731 -0.023109 -0.089607 0.000000 0.000000
    17 0.250027 -2.820665 -0.238396 -0.542900 -0.079479 -0.321720
    18 -0.049759 -1.680544 0.100479 -2.259984 0.000000 -0.000002
    19 -0.034142 -1.148312 0.084782 -0.403560 0.000000 0.000000
    20 0.957766 -2.746780 -0.090302 0.135607 -0.152689 0.188106
    21 -0.033420 -1.397129 -0.011257 -1.115577 0.000000 -0.000001
    22 -0.022360 -0.957436 0.018784 -1.148807 0.000000 0.000000
    23 -1.180681 -2.507217 -0.193859 -1.051076 0.022426 -0.383093
    24 -0.024967 -1.123934 0.017597 -1.710665 0.000000 0.000001
    25 -0.020057 -0.890968 0.010090 -0.388432 0.000000 0.000000
    26 0.583510 -1.197277 0.185379 0.686569 -0.940470 -1.123453
    27 1.535927 0.010246 0.005009 -0.002964 -0.012979 -0.682290
    28 1.100771 0.004527 -0.010679 -0.016147 -0.001453 -1.484153
    29 0.120153 -0.050270 -0.054489 0.287569 3.110905 1.561085
    30 -0.391866 -9.301697 -7.778864 0.150462 -3.162245 0.443442
    31 0.096944 -8.450418 -0.009365 -0.253549 -0.102380 0.248393
    32 0.447953 -2.798986 -0.200443 -1.426761 0.042804 0.170619
    33 -0.032909 -1.480204 0.004940 -1.498009 0.000000 0.000002
    34 -0.027022 -1.076920 -0.020210 -1.225052 0.000000 0.000000
    35 -0.249534 -2.846964 -0.174213 -1.278060 0.002631 0.073866
    36 0.043235 -1.683941 0.096012 -1.638292 0.002823 -0.000167
    37 0.031729 -1.160830 0.058838 -1.199344 0.000642 0.008372
    38 -0.963866 -2.785145 -0.085350 -1.330297 0.070929 0.053157
    39 0.028479 -1.403067 0.006271 -1.337889 0.000000 0.000000
    40 0.021413 -0.957781 0.020046 -1.052173 0.000000 0.000000
    41 1.164475 -2.543940 -0.170330 -1.221927 -0.015463 0.162804
    42 0.024032 -1.129042 0.017807 -1.592547 0.000000 0.000001
    43 0.014898 -0.883989 -0.019848 -0.928571 0.000000 0.000000
    44 -0.586770 -1.264477 0.200161 0.038267 -0.775789 -2.797690
    45 1.522835 0.058681 0.016848 0.001410 0.008985 0.973082
    46 1.117947 0.048424 -0.005766 -0.023409 -0.009318 1.247921
    47 -0.139399 -0.111698 0.014397 0.289561 -0.104570 1.463946
    48 -3.975580 8.546199 -0.270684 1.580804 -0.005023 -1.234343
  time 22
    0 -1.349460 3.166206 0.699636 0.000000 0.000000 0.000000
    1 11.755722 -0.047914 -10.654818 -1.550243 -1.338170 1.203074
    2 -0.071918 -8.498730 -0.104136 0.222232 0.090212 -0.238588
    3 3.965516 -3.507752 0.726127 0.088531 0.124697 -1.545787
    4 8.966518 -4.010148 -0.007935 -3.141592 0.000000 -1.318135
    5 -0.000001 0.000000 0.000000 0.000000 0.000000 0.000000
    6 -6.739502 1.470732 -0.007930 -3.141592 0.000000 1.570796
    7 20.198570 1.480959 -0.007934 -0.000096 -3.141592 -1.302300
    8 12.303585 -3.220082 0.655518 0.000001 0.000000 1.570797
    9 0.869225 3.303417 0.793734 -3.141592 -1.570796 0.000000
    10 1.809041 -1.766268 0.412229 0.000000 0.000000 -1.570796
    11 0.877971 -1.780795 -0.007933 -3.141592 0.000000 -1.570796
    12 2.847010 0.682891 -0.002611 -6.283184 3.141496 -1.570796
    13 1.257180 8.762585 -0.153713 -1.570562 0.002683 -1.566807
    14 -0.488518 -2.755602 -0.228260 -1.037736 -0.080691 -0.334876
    15 0.039887 -1.479790 0.029854 -2.092299 0.000000 0.000001
    16 0.028786 -1.075731 -0.023109 -0.089607 0.000000 0.000000
    17 0.250027 -2.820665 -0.238396 -0.542900 -0.079479 -0.321720
    18 -0.049759 -1.680544 0.100479 -2.259984 0.000000 -0.000002
    19 -0.034142 -1.148312 0.084782 -0.403560 0.000000 0.000000
    20 0.957766 -2.746780 -0.090302 0.135607 -0.152689 0.188106
    21 -0.033420 -1.397129 -0.011257 -1.115577 0.000000 -0.000001
    22 -0.022360 -0.957436 0.018784 -1.148807 0.000000 0.000000
    23 -1.180681 -2.507217 -0.193859 -1.051076 0.022426 -0.383093
    24 -0.024967 -1.123934 0.017597 -1.710665 0.000000 0.000001
    25 -0.020057 -0.890968 0.010090 -0.388432 0.000000 0.000000
    26 0.583510 -1.197277 0.185379 0.686569 -0.940470 -1.123453
    27 1.535927 0.010246 0.005009 -0.002964 -0.012979 -0.682290
    28 1.100771 0.004527 -0.010679 -0.016147 -0.001453 -1.484153
    29 0.120153 -0.050270 -0.054489 0.287569 3.110905 1.561085
    30 -0.391866 -9.282165 -7.782771 0.150462 -3.162245 0.443442
    31 0.096944 -8.450418 -0.009365 -0.253549 -0.102380 0.248393
    32 0.447953 -2.798986 -0.200443 -1.426761 0.042804 0.170619
    33 -0.032909 -1.480204 0.004940 -1.498009 0.000000 0.000002
    34 -0.027022 -1.076920 -0.020210 -1.225052 0.000000 0.000000
    35 -0.249534 -2.846964 -0.174213 -1.278060 0.002631 0.073866
    36 0.043235 -1.683941 0.096012 -1.638292 0.002823 -0.000167
    37 0.031729 -1.160830 0.058838 -1.199309 0.000642 0.008372
    38 -0.963866 -2.785145 -0.085350 -1.330297 0.070929 0.053157
    39 0.028479 -1.403067 0.006271 -1.337889 0.000000 0.000000
    40 0.021413 -0.957781 0.020046 -1.052173 0.000000 0.000000
    41 1.164475 -2.543940 -0.170330 -1.221927 -0.015463 0.162804
    42 0.024032 -1.129042 0.017807 -1.592547 0.000000 0.000001
    43 0.014898 -0.883989 -0.019848 -0.928571 0.000000 0.000000
    44 -0.586770 -1.264477 0.200161 0.038267 -0.775789 -2.797690
    45 1.522835 0.058681 0.016848 0.001410 0.008985 0.973082
    46 1.117947 0.048424 -0.005766 -0.023409 -0.009318 1.247921
    47 -0.139399 -0.111698 0.014397 0.289561 -0.104570 1.463946
    48 -3.975580 8.546199 -0.270684 1.580804 -0.005023 -1.234343
  time 23
    0 -1.349460 3.166206 0.699636 0.000000 0.000000 0.000000
    1 11.755722 -0.032288 -10.666537 -1.551075 -1.337694 1.203841
    2 -0.071918 -8.498730 -0.104136 0.222232 0.090212 -0.238588
    3 3.965516 -3.507752 0.726127 0.088531 0.124697 -1.545787
    4 8.966518 -4.010148 -0.007935 -3.141592 0.000000 -1.318135
    5 -0.000001 0.000000 0.000000 0.000000 0.000000 0.000000
    6 -6.739502 1.470732 -0.007930 -3.141592 0.000000 1.570796
    7 20.198570 1.480959 -0.007934 -0.000096 -3.141592 -1.302300
    8 12.303585 -3.220082 0.655518 0.000001 0.000000 1.570797
    9 0.869225 3.303417 0.793734 -3.141592 -1.570796 0.000000
    10 1.809041 -1.766268 0.412229 0.000000 0.000000 -1.570796
    11 0.877971 -1.780795 -0.007933 -3.141592 0.000000 -1.570796
    12 2.847010 0.682891 -0.002611 -6.283184 3.141496 -1.570796
    13 1.257180 8.762585 -0.153713 -1.570562 0.002683 -1.566807
    14 -0.488518 -2.755602 -0.228260 -1.037736 -0.080691 -0.334876
    15 0.039887 -1.479790 0.029854 -2.092299 0.000000 0.000001
    16 0.028786 -1.075731 -0.023109 -0.089607 0.000000 0.000000
    17 0.250027 -2.820665 -0.238396 -0.542900 -0.079479 -0.321720
    18 -0.049759 -1.680544 0.100479 -2.259984 0.000000 -0.000002
    19 -0.034142 -1.148312 0.084782 -0.403560 0.000000 0.000000
    20 0.957766 -2.746780 -0.090302 0.135607 -0.152689 0.188106
    21 -0.033420 -1.397129 -0.011257 -1.115577 0.000000 -0.000001
    22 -0.022360 -0.957436 0.018784 -1.148807 0.000000 0.000000
    23 -1.180681 -2.507217 -0.193859 -1.051076 0.022426 -0.383093
    24 -0.024967 -1.123934 0.017597 -1.710665 0.000000 0.000001
    25 -0.020057 -0.890968 0.010090 -0.388432 0.000000 0.000000
    26 0.583510 -1.197277 0.185379 0.686569 -0.940470 -1.123453
    27 1.535927 0.010246 0.005009 -0.002964 -0.012979 -0.682290
    28 1.100771 0.004527 -0.010679 -0.016147 -0.001453 -1.484153
    29 0.120153 -0.050270 -0.054489 0.287569 3.110905 1.561085
    30 -0.391866 -9.266539 -7.786677 0.150905 -3.161988 0.443442
    31 0.096944 -8.450418 -0.009365 -0.253549 -0.102380 0.248393
    32 0.447953 -2.798986 -0.200443 -1.426761 0.042804 0.170619
    33 -0.032909 -1.480204 0.004940 -1.498009 0.000000 0.000002
    34 -0.027022 -1.076920 -0.020210 -1.225052 0.000000 0.000000
    35 -0.249534 -2.846964 -0.174213 -1.278060 0.002631 0.073866
    36 0.043235 -1.683941 0.096012 -1.638292 0.002823 -0.000167
    37 0.031729 -1.160830 0.058838 -1.199344 0.000642 0.008372
    38 -0.963866 -2.785145 -0.085350 -1.330297 0.070929 0.053157
    39 0.028479 -1.403067 0.006271 -1.337889 0.000000 0.000000
    40 0.021413 -0.957781 0.020046 -1.052173 0.000000 0.000000
    41 1.164475 -2.543940 -0.170330 -1.221927 -0.015463 0.162804
    42 0.024032 -1.129042 0.017807 -1.592547 0.000000 0.000001
    43 0.014898 -0.883989 -0.019848 -0.928571 0.000000 0.000000
    44 -0.586770 -1.264477 0.200161 0.038267 -0.775789 -2.797690
    45 1.522835 0.058681 0.016848 0.001410 0.008985 0.973082
    46 1.117947 0.048424 -0.005766 -0.023409 -0.009318 1.247921
    47 -0.139399 -0.111698 0.014397 0.289561 -0.104570 1.463946
    48 -3.975580 8.546199 -0.270684 1.580804 -0.005023 -1.234343
  time 24
    0 -1.349460 3.166206 0.699636 0.000000 0.000000 0.000000
    1 11.755722 -0.020569 -10.682162 -1.552368 -1.336862 1.205118
    2 -0.071918 -8.498730 -0.104136 0.222232 0.090212 -0.238588
    3 3.965516 -3.507752 0.726127 0.088531 0.124697 -1.545787
    4 8.966518 -4.010148 -0.007935 -3.141592 0.000000 -1.318135
    5 -0.000001 0.000000 0.000000 0.000000 0.000000 0.000000
    6 -6.739502 1.470732 -0.007930 -3.141592 0.000000 1.570796
    7 20.198570 1.480959 -0.007934 -0.000096 -3.141592 -1.302300
    8 12.303585 -3.220082 0.655518 0.000001 0.000000 1.570797
    9 0.869225 3.303417 0.793734 -3.141592 -1.570796 0.000000
    10 1.809041 -1.766268 0.412229 0.000000 0.000000 -1.570796
    11 0.877971 -1.780795 -0.007933 -3.141592 0.000000 -1.570796
    12 2.847010 0.682891 -0.002611 -6.283184 3.141496 -1.570796
    13 1.257180 8.762585 -0.153713 -1.570562 0.002683 -1.566807
    14 -0.488518 -2.755602 -0.228260 -1.037736 -0.080691 -0.334876
    15 0.039887 -1.479790 0.029854 -2.092299 0.000000 0.000001
    16 0.028786 -1.075731 -0.023109 -0.089607 0.000000 0.000000
    17 0.250027 -2.820665 -0.238396 -0.542900 -0.079479 -0.321720
    18 -0.049759 -1.680544 0.100479 -2.259984 0.000000 -0.000002
    19 -0.034142 -1.148312 0.084782 -0.403560 0.000000 0.000000
    20 0.957766 -2.746780 -0.090302 0.135607 -0.152689 0.188106
    21 -0.033420 -1.397129 -0.011257 -1.115577 0.000000 -0.000001
    22 -0.022360 -0.957436 0.018784 -1.148807 0.000000 0.000000
    23 -1.180681 -2.507217 -0.193859 -1.051076 0.022426 -0.383093
    24 -0.024967 -1.123934 0.017597 -1.710665 0.000000 0.000001
    25 -0.020057 -0.890968 0.010090 -0.388432 0.000000 0.000000
    26 0.583510 -1.197277 0.185379 0.686569 -0.940470 -1.123453
    27 1.535927 0.010246 0.005009 -0.002964 -0.012979 -0.682290
    28 1.100771 0.004527 -0.010679 -0.016147 -0.001453 -1.484153
    29 0.120153 -0.050270 -0.054489 0.287569 3.110905 1.561085
    30 -0.391866 -9.250914 -7.798396 0.151701 -3.161645 0.443442
    31 0.096944 -8.450418 -0.009365 -0.253549 -0.102380 0.248393
    32 0.447953 -2.798986 -0.200443 -1.426761 0.042804 0.170619
    33 -0.032909 -1.480204 0.004940 -1.498009 0.000000 0.000002
    34 -0.027022 -1.076920 -0.020210 -1.225052 0.000000 0.000000
    35 -0.249534 -2.846964 -0.174213 -1.278060 0.002631 0.073866
    36 0.043235 -1.683941 0.096012 -1.638292 0.002823 -0.000167
    37 0.031729 -1.160830 0.058838 -1.199344 0.000642 0.008372
    38 -0.963866 -2.785145 -0.085350 -1.330297 0.070929 0.053157
    39 0.028479 -1.403067 0.006271 -1.337889 0.000000 0.000000
    40 0.021413 -0.957781 0.020046 -1.052173 0.000000 0.000000
    41 1.164475 -2.543940 -0.170330 -1.221927 -0.015463 0.162804
    42 0.024032 -1.129042 0.017807 -1.592547 0.000000 0.000001
    43 0.014898 -0.883989 -0.019848 -0.928571 0.000000 0.000000
    44 -0.586770 -1.264477 0.200161 0.038267 -0.775789 -2.797690
    45 1.522835 0.058681 0.016848 0.001410 0.008985 0.973082
    46 1.117947 0.048424 -0.005766 -0.023409 -0.009318 1.247921
    47 -0.139399 -0.111698 0.014397 0.289561 -0.104570 1.463946
    48 -3.975580 8.546199 -0.270684 1.580804 -0.005023 -1.234343
  time 25
    0 -1.349460 3.166206 0.699636 0.000000 0.000000 0.000000
    1 11.755722 -0.012756 -10.705600 -1.554123 -1.335832 1.206822
    2 -0.071918 -8.498730 -0.104136 0.222232 0.090212 -0.238588
    3 3.965516 -3.507752 0.726127 0.088531 0.124697 -1.545787
    4 8.966518 -4.010148 -0.007935 -3.141592 0.000000 -1.318135
    5 -0.000001 0.000000 0.000000 0.000000 0.000000 0.000000
    6 -6.739502 1.470732 -0.007930 -3.141592 0.000000 1.570796
    7 20.198570 1.480959 -0.007934 -0.000096 3.141592 -1.302300
    8 12.303585 -3.220082 0.655518 0.000001 0.000000 1.570797
    9 0.869225 3.303417 0.793734 -3.141592 -1.570796 0.000000
    10 1.809041 -1.766268 0.412229 0.000000 0.000000 -1.570796
    11 0.877971 -1.780795 -0.007933 -3.141592 0.000000 -1.570796
    12 2.847010 0.682891 -0.002611 -6.283184 3.141496 -1.570796
    13 1.257180 8.762585 -0.153713 -1.570562 0.002683 -1.566807
    14 -0.488518 -2.755602 -0.228260 -1.037736 -0.080691 -0.334876
    15 0.039887 -1.479790 0.029854 -2.092299 0.000000 0.000001
    16 0.028786 -1.075731 -0.023109 -0.089607 0.000000 0.000000
    17 0.250027 -2.820665 -0.238396 -0.542900 -0.079479 -0.321720
    18 -0.049759 -1.680544 0.100479 -2.259984 0.000000 -0.000002
    19 -0.034142 -1.148312 0.084782 -0.403560 0.000000 0.000000
    20 0.957766 -2.746780 -0.090302 0.135607 -0.152689 0.188106
    21 -0.033420 -1.397129 -0.011257 -1.115577 0.000000 -0.000001
    22 -0.022360 -0.957436 0.018784 -1.148807 0.000000 0.000000
    23 -1.180681 -2.507217 -0.193859 -1.051076 0.022426 -0.383093
    24 -0.024967 -1.123934 0.017597 -1.710665 0.000000 0.000001
    25 -0.020057 -0.890968 0.010090 -0.388432 0.000000 0.000000
    26 0.583510 -1.197277 0.185379 0.686569 -0.940470 -1.123453
    27 1.535927 0.010246 0.005009 -0.002964 -0.012979 -0.682290
    28 1.100771 0.004527 -0.010679 -0.016147 -0.001453 -1.484153
    29 0.120153 -0.050270 -0.054489 0.287569 3.110905 1.561085
    30 -0.391866 -9.239195 -7.806209 0.152763 -3.161131 0.443538
    31 0.096944 -8.450418 -0.009365 -0.253549 -0.102380 0.248393
    32 0.447953 -2.798986 -0.200443 -1.426761 0.042804 0.170619
    33 -0.032909 -1.480204 0.004940 -1.498009 0.000000 0.000002
    34 -0.027022 -1.076920 -0.020210 -1.225052 0.000000 0.000000
    35 -0.249534 -2.846964 -0.174213 -1.278060 0.002631 0.073866
    36 0.043235 -1.683941 0.096012 -1.638292 0.002823 -0.000167
    37 0.031729 -1.160830 0.058838 -1.199309 0.000642 0.008372
    38 -0.963866 -2.785145 -0.085350 -1.330297 0.070929 0.053157
    39 0.028479 -1.403067 0.006271 -1.337889 0.000000 0.000000
    40 0.021413 -0.957781 0.020046 -1.052173 0.000000 0.000000
    41 1.164475 -2.543940 -0.170330 -1.221927 -0.015463 0.162804
    42 0.024032 -1.129042 0.017807 -1.592547 0.000000 0.000001
    43 0.014898 -0.883989 -0.019848 -0.928571 0.000000 0.000000
    44 -0.586770 -1.264477 0.200161 0.038267 -0.775789 -2.797690
    45 1.522835 0.058681 0.016848 0.001410 0.008985 0.973082
    46 1.117947 0.048424 -0.005766 -0.023409 -0.009318 1.247921
    47 -0.139399 -0.111698 0.014397 0.289561 -0.104570 1.463946
    48 -3.975580 8.546199 -0.270684 1.580804 -0.005023 -1.234343
  time 26
    0 -1.349460 3.166206 0.699636 0.000000 0.000000 0.000000
    1 11.755722 -0.004943 -10.729039 -1.556155 -1.334564 1.208782
    2 -0.071918 -8.498730 -0.104136 0.222232 0.090212 -0.238588
    3 3.965516 -3.507752 0.726127 0.088531 0.124697 -1.545787
    4 8.966518 -4.010148 -0.007935 -3.141592 0.000000 -1.318135
    5 -0.000001 0.000000 0.000000 0.000000 0.000000 0.000000
    6 -6.739502 1.470732 -0.007930 -3.141592 0.000000 1.570796
    7 20.198570 1.480959 -0.007934 -0.000096 3.141592 -1.302300
    8 12.303585 -3.220082 0.655518 0.000001 0.000000 1.570797
    9 0.869225 3.303417 0.793734 -3.141592 -1.570796 0.000000
    10 1.809041 -1.766268 0.412229 0.000000 0.000000 -1.570796
    11 0.877971 -1.780795 -0.007933 -3.141592 0.000000 -1.570796
    12 2.847010 0.682891 -0.002611 -6.283184 3.141496 -1.570796
    13 1.257180 8.762585 -0.153713 -1.570562 0.002683 -1.566807
    14 -0.488518 -2.755602 -0.228260 -1.037736 -0.080691 -0.334876
    15 0.039887 -1.479790 0.029854 -2.092299 0.000000 0.000001
    16 0.028786 -1.075731 -0.023109 -0.089607 0.000000 0.000000
    17 0.250027 -2.820665 -0.238396 -0.542900 -0.079479 -0.321720
    18 -0.049759 -1.680544 0.100479 -2.260054 0.000000 -0.000002
    19 -0.034142 -1.148312 0.084782 -0.403560 0.000000 0.000000
    20 0.957766 -2.746780 -0.090302 0.135607 -0.152689 0.188106
    21 -0.033420 -1.397129 -0.011257 -1.115577 0.000000 -0.000001
    22 -0.022360 -0.957436 0.018784 -1.148807 0.000000 0.000000
    23 -1.180681 -2.507217 -0.193859 -1.051076 0.022426 -0.383093
    24 -0.024967 -1.123934 0.017597 -1.710665 0.000000 0.000001
    25 -0.020057 -0.890968 0.010090 -0.388432 0.000000 0.000000
    26 0.583510 -1.197277 0.185379 0.686569 -0.940470 -1.123453
    27 1.535927 0.010246 0.005009 -0.002964 -0.012979 -0.682290
    28 1.100771 0.004527 -0.010679 -0.016147 -0.001453 -1.484153
    29 0.120153 -0.050270 -0.054489 0.287569 3.110905 1.561085
    30 -0.391866 -9.227476 -7.817928 0.154002 -3.160617 0.443538
    31 0.096944 -8.450418 -0.009365 -0.253549 -0.102380 0.248393
    32 0.447953 -2.798986 -0.200443 -1.426761 0.042804 0.170619
    33 -0.032909 -1.480204 0.004940 -1.498009 0.000000 0.000002
    34 -0.027022 -1.076920 -0.020210 -1.225052 0.000000 0.000000
    35 -0.249534 -2.846964 -0.174213 -1.278060 0.002631 0.073866
    36 0.043235 -1.683941 0.096012 -1.638292 0.002823 -0.000167
    37 0.031729 -1.160830 0.058838 -1.199344 0.000642 0.008372
    38 -0.963866 -2.785145 -0.085350 -1.330297 0.070929 0.053157
    39 0.028479 -1.403067 0.006271 -1.337889 0.000000 0.000000
    40 0.021413 -0.957781 0.020046 -1.052173 0.000000 0.000000
    41 1.164475 -2.543940 -0.170330 -1.221927 -0.015463 0.162804
    42 0.024032 -1.129042 0.017807 -1.592547 0.000000 0.000001
    43 0.014898 -0.883989 -0.019848 -0.928571 0.000000 0.000000
    44 -0.586770 -1.264477 0.200161 0.038267 -0.775789 -2.797690
    45 1.522835 0.058681 0.016848 0.001410 0.008985 0.973082
    46 1.117947 0.048424 -0.005766 -0.023409 -0.009318 1.247921
    47 -0.139399 -0.111698 0.014397 0.289561 -0.104570 1.463946
    48 -3.975580 8.546199 -0.270684 1.580804 -0.005023 -1.234343
  time 27
    0 -1.349460 3.166206 0.699636 0.000000 0.000000 0.000000
    1 11.755722 0.002869 -10.752477 -1.558280 -1.333257 1.210911
    2 -0.071918 -8.498730 -0.104136 0.222232 0.090212 -0.238588
    3 3.965516 -3.507752 0.726127 0.088531 0.124697 -1.545787
    4 8.966518 -4.010148 -0.007935 -3.141592 0.000000 -1.318135
    5 -0.000001 0.000000 0.000000 0.000000 0.000000 0.000000
    6 -6.739502 1.470732 -0.007930 -3.141592 0.000000 1.570796
    7 20.198570 1.480959 -0.007934 -0.000096 -3.141592 -1.302300
    8 12.303585 -3.220082 0.655518 0.000001 0.000000 1.570797
    9 0.869225 3.303417 0.793734 -3.141592 -1.570796 0.000000
    10 1.809041 -1.766268 0.412229 0.000000 0.000000 -1.570796
    11 0.877971 -1.780795 -0.007933 -3.141592 0.000000 -1.570796
    12 2.847010 0.682891 -0.002611 -6.283184 3.141496 -1.570796
    13 1.257180 8.762585 -0.153713 -1.570562 0.002683 -1.566807
    14 -0.488518 -2.755602 -0.228260 -1.037736 -0.080691 -0.334876
    15 0.039887 -1.479790 0.029854 -2.092299 0.000000 0.000001
    16 0.028786 -1.075731 -0.023109 -0.089607 0.000000 0.000000
    17 0.250027 -2.820665 -0.238396 -0.542900 -0.079479 -0.321720
    18 -0.049759 -1.680544 0.100479 -2.259984 0.000000 -0.000002
    19 -0.034142 -1.148312 0.084782 -0.403560 0.000000 0.000000
    20 0.957766 -2.746780 -0.090302 0.135607 -0.152689 0.188106
    21 -0.033420 -1.397129 -0.011257 -1.115577 0.000000 -0.000001
    22 -0.022360 -0.957436 0.018784 -1.148807 0.000000 0.000000
    23 -1.180681 -2.507217 -0.193859 -1.051076 0.022426 -0.383093
    24 -0.024967 -1.123934 0.017597 -1.710665 0.000000 0.000001
    25 -0.020057 -0.890968 0.010090 -0.388432 0.000000 0.000000
    26 0.583510 -1.197277 0.185379 0.686569 -0.940470 -1.123453
    27 1.535927 0.010246 0.005009 -0.002964 -0.012979 -0.682290
    28 1.100771 0.004527 -0.010679 -0.016147 -0.001453 -1.484153
    29 0.120153 -0.050270 -0.054489 0.287569 3.110905 1.561085
    30 -0.391866 -9.219663 -7.829647 0.155241 -3.160017 0.443538
    31 0.096944 -8.450418 -0.009365 -0.253549 -0.102380 0.248393
    32 0.447953 -2.798986 -0.200443 -1.426761 0.042804 0.170619
    33 -0.032909 -1.480204 0.004940 -1.498009 0.000000 0.000002
    34 -0.027022 -1.076920 -0.020210 -1.225052 0.000000 0.000000
    35 -0.249534 -2.846964 -0.174213 -1.278060 0.002631 0.073866
    36 0.043235 -1.683941 0.096012 -1.638292 0.002823 -0.000167
    37 0.031729 -1.160830 0.058838 -1.199344 0.000642 0.008372
    38 -0.963866 -2.785145 -0.085350 -1.330297 0.070929 0.053157
    39 0.028479 -1.403067 0.006271 -1.337889 0.000000 0.000000
    40 0.021413 -0.957781 0.020046 -1.052173 0.000000 0.000000
    41 1.164475 -2.543940 -0.170330 -1.221927 -0.015463 0.162804
    42 0.024032 -1.129042 0.017807 -1.592547 0.000000 0.000001
    43 0.014898 -0.883989 -0.019848 -0.928571 0.000000 0.000000
    44 -0.586770 -1.264477 0.200161 0.038267 -0.775789 -2.797690
    45 1.522835 0.058681 0.016848 0.001410 0.008985 0.973082
    46 1.117947 0.048424 -0.005766 -0.023409 -0.009318 1.247921
    47 -0.139399 -0.111698 0.014397 0.289561 -0.104570 1.463946
    48 -3.975580 8.546199 -0.270684 1.580804 -0.005023 -1.234343
  time 28
    0 -1.349460 3.166206 0.699636 0.000000 0.000000 0.000000
    1 11.755722 0.006776 -10.783728 -1.560404 -1.331910 1.212956
    2 -0.071918 -8.498730 -0.104136 0.222232 0.090212 -0.238588
    3 3.965516 -3.507752 0.726127 0.088531 0.124697 -1.545787
    4 8.966518 -4.010148 -0.007935 -3.141592 0.000000 -1.318135
    5 -0.000001 0.000000 0.000000 0.000000 0.000000 0.000000
    6 -6.739502 1.470732 -0.007930 -3.141592 0.000000 1.570796
    7 20.198570 1.480959 -0.007934 -0.000096 3.141592 -1.302300
    8 12.303585 -3.220082 0.655518 0.000001 0.000000 1.570797
    9 0.869225 3.303417 0.793734 -3.141592 -1.570796 0.000000
    10 1.809041 -1.766268 0.412229 0.000000 0.000000 -1.570796
    11 0.877971 -1.780795 -0.007933 -3.141592 0.000000 -1.570796
    12 2.847010 0.682891 -0.002611 -6.283184 3.141496 -1.570796
    13 1.257180 8.762585 -0.153713 -1.570562 0.002683 -1.566807
    14 -0.488518 -2.755602 -0.228260 -1.037736 -0.080691 -0.334876
    15 0.039887 -1.479790 0.029854 -2.092299 0.000000 0.000001
    16 0.028786 -1.075731 -0.023109 -0.089607 0.000000 0.000000
    17 0.250027 -2.820665 -0.238396 -0.542900 -0.079479 -0.321720
    18 -0.049759 -1.680544 0.100479 -2.260054 0.000000 -0.000002
    19 -0.034142 -1.148312 0.084782 -0.403560 0.000000 0.000000
    20 0.957766 -2.746780 -0.090302 0.135607 -0.152689 0.188106
    21 -0.033420 -1.397129 -0.011257 -1.115577 0.000000 -0.000001
    22 -0.022360 -0.957436 0.018784 -1.148807 0.000000 0.000000
    23 -1.180681 -2.507217 -0.193859 -1.051076 0.022426 -0.383093
    24 -0.024967 -1.123934 0.017597 -1.710665 0.000000 0.000001
    25 -0.020057 -0.890968 0.010090 -0.388432 0.000000 0.000000
    26 0.583510 -1.197277 0.185379 0.686569 -0.940470 -1.123453
    27 1.535927 0.010246 0.005009 -0.002964 -0.012979 -0.682290
    28 1.100771 0.004527 -0.010679 -0.016147 -0.001453 -1.484153
    29 0.120153 -0.050270 -0.054489 0.287569 3.110905 1.561085
    30 -0.391866 -9.211850 -7.849179 0.156568 -3.159331 0.443538
    31 0.096944 -8.450418 -0.009365 -0.253549 -0.102380 0.248393
    32 0.447953 -2.798986 -0.200443 -1.426761 0.042804 0.170619
    33 -0.032909 -1.480204 0.004940 -1.498009 0.000000 0.000002
    34 -0.027022 -1.076920 -0.020210 -1.225052 0.000000 0.000000
    35 -0.249534 -2.846964 -0.174213 -1.278060 0.002631 0.073866
    36 0.043235 -1.683941 0.096012 -1.638292 0.002823 -0.000167
    37 0.031729 -1.160830 0.058838 -1.199344 0.000642 0.008372
    38 -0.963866 -2.785145 -0.085350 -1.330297 0.070929 0.053157
    39 0.028479 -1.403067 0.006271 -1.337889 0.000000 0.000000
    40 0.021413 -0.957781 0.020046 -1.052173 0.000000 0.000000
    41 1.164475 -2.543940 -0.170330 -1.221927 -0.015463 0.162804
    42 0.024032 -1.129042 0.017807 -1.592547 0.000000 0.000001
    43 0.014898 -0.883989 -0.019848 -0.928571 0.000000 0.000000
    44 -0.586770 -1.264477 0.200161 0.038267 -0.775789 -2.797690
    45 1.522835 0.058681 0.016848 0.001410 0.008985 0.973082
    46 1.117947 0.048424 -0.005766 -0.023409 -0.009318 1.247921
    47 -0.139399 -0.111698 0.014397 0.289561 -0.104570 1.463946
    48 -3.975580 8.546199 -0.270684 1.580804 -0.005023 -1.234343
  time 29
    0 -1.349460 3.166206 0.699636 0.000000 0.000000 0.000000
    1 11.755722 0.010682 -10.814979 -1.562344 -1.330682 1.214830
    2 -0.071918 -8.498730 -0.104136 0.222232 0.090212 -0.238588
    3 3.965516 -3.507752 0.726127 0.088531 0.124697 -1.545787
    4 8.966518 -4.010148 -0.007935 -3.141592 0.000000 -1.318135
    5 -0.000001 0.000000 0.000000 0.000000 0.000000 0.000000
    6 -6.739502 1.470732 -0.007930 -3.141592 0.000000 1.570796
    7 20.198570 1.480959 -0.007934 -0.000096 3.141592 -1.302300
    8 12.303585 -3.220082 0.655518 0.000001 0.000000 1.570797
    9 0.869225 3.303417 0.793734 -3.141592 -1.570796 0.000000
    10 1.809041 -1.766268 0.412229 0.000000 0.000000 -1.570796
    11 0.877971 -1.780795 -0.007933 -3.141592 0.000000 -1.570796
    12 2.847010 0.682891 -0.002611 -6.283184 3.141496 -1.570796
    13 1.257180 8.762585 -0.153713 -1.570562 0.002683 -1.566807
    14 -0.488518 -2.755602 -0.228260 -1.037736 -0.080691 -0.334876
    15 0.039887 -1.479790 0.029854 -2.092299 0.000000 0.000001
    16 0.028786 -1.075731 -0.023109 -0.089607 0.000000 0.000000
    17 0.250027 -2.820665 -0.238396 -0.542900 -0.079479 -0.321720
    18 -0.049759 -1.680544 0.100479 -2.259984 0.000000 -0.000002
    19 -0.034142 -1.148312 0.084782 -0.403560 0.000000 0.000000
    20 0.957766 -2.746780 -0.090302 0.135607 -0.152689 0.188106
    21 -0.033420 -1.397129 -0.011257 -1.115577 0.000000 -0.000001
    22 -0.022360 -0.957436 0.018784 -1.148807 0.000000 0.000000
    23 -1.180681 -2.507217 -0.193859 -1.051076 0.022426 -0.383093
    24 -0.024967 -1.123934 0.017597 -1.710665 0.000000 0.000001
    25 -0.020057 -0.890968 0.010090 -0.388432 0.000000 0.000000
    26 0.583510 -1.197277 0.185379 0.686569 -0.940470 -1.123453
    27 1.535927 0.010246 0.005009 -0.002964 -0.012979 -0.682290
    28 1.100771 0.004527 -0.010679 -0.016147 -0.001453 -1.484153
    29 0.120153 -0.050270 -0.054489 0.287569 3.110905 1.561085
    30 -0.391866 -9.204037 -7.864805 0.157718 -3.158817 0.443633
    31 0.096944 -8.450418 -0.009365 -0.253549 -0.102380 0.248393
    32 0.447953 -2.798986 -0.200443 -1.426761 0.042804 0.170619
    33 -0.032909 -1.480204 0.004940 -1.498009 0.000000 0.000002
    34 -0.027022 -1.076920 -0.020210 -1.225052 0.000000 0.000000
    35 -0.249534 -2.846964 -0.174213 -1.278060 0.002631 0.073866
    36 0.043235 -1.683941 0.096012 -1.638292 0.002823 -0.000167
    37 0.031729 -1.160830 0.058838 -1.199309 0.000642 0.008372
    38 -0.963866 -2.785145 -0.085350 -1.330297 0.070929 0.053157
    39 0.028479 -1.403067 0.006271 -1.337889 0.000000 0.000000
    40 0.021413 -0.957781 0.020046 -1.052173 0.000000 0.000000
    41 1.164475 -2.543940 -0.170330 -1.221927 -0.015463 0.162804
    42 0.024032 -1.129042 0.017807 -1.592547 0.000000 0.000001
    43 0.014898 -0.883989 -0.019848 -0.928571 0.000000 0.000000
    44 -0.586770 -1.264477 0.200161 0.038267 -0.775789 -2.797690
    45 1.522835 0.058681 0.016848 0.001410 0.008985 0.973082
    46 1.117947 0.048424 -0.005766 -0.023409 -0.009318 1.247921
    47 -0.139399 -0.111698 0.014397 0.289561 -0.104570 1.463946
    48 -3.975580 8.546199 -0.270684 1.580804 -0.005023 -1.234343
  time 30
    0 -1.349460 3.166206 0.699636 0.000000 0.000000 0.000000
    1 11.755722 0.010682 -10.842323 -1.564006 -1.329652 1.216449
    2 -0.071918 -8.498730 -0.104136 0.222232 0.090212 -0.238588
    3 3.965516 -3.507752 0.726127 0.088531 0.124697 -1.545787
    4 8.966518 -4.010148 -0.007935 -3.141592 0.000000 -1.318135
    5 -0.000001 0.000000 0.000000 0.000000 0.000000 0.000000
    6 -6.739502 1.470732 -0.007930 -3.141592 0.000000 1.570796
    7 20.198570 1.480959 -0.007934 -0.000096 3.141592 -1.302300
    8 12.303585 -3.220082 0.655518 0.000001 0.000000 1.570797
    9 0.869225 3.303417 0.793734 -3.141592 -1.570796 0.000000
    10 1.809041 -1.766268 0.412229 0.000000 0.000000 -1.570796
    11 0.877971 -1.780795 -0.007933 -3.141592 0.000000 -1.570796
    12 2.847010 0.682891 -0.002611 -6.283184 3.141496 -1.570796
    13 1.257180 8.762585 -0.153713 -1.570562 0.002683 -1.566807
    14 -0.488518 -2.755602 -0.228260 -1.037736 -0.080691 -0.334876
    15 0.039887 -1.479790 0.029854 -2.092299 0.000000 0.000001
    16 0.028786 -1.075731 -0.023109 -0.089607 0.000000 0.000000
    17 0.250027 -2.820665 -0.238396 -0.542900 -0.079479 -0.321720
    18 -0.049759 -1.680544 0.100479 -2.260054 0.000000 -0.000002
    19 -0.034142 -1.148312 0.084782 -0.403560 0.000000 0.000000
    20 0.957766 -2.746780 -0.090302 0.135607 -0.152689 0.188106
    21 -0.033420 -1.397129 -0.011257 -1.115577 0.000000 -0.000001
    22 -0.022360 -0.957436 0.018784 -1.148807 0.000000 0.000000
    23 -1.180681 -2.507217 -0.193859 -1.051076 0.022426 -0.383093
    24 -0.024967 -1.123934 0.017597 -1.710665 0.000000 0.000001
    25 -0.020057 -0.890968 0.010090 -0.388432 0.000000 0.000000
    26 0.583510 -1.197277 0.185379 0.686569 -0.940470 -1.123453
    27 1.535927 0.010246 0.005009 -0.002964 -0.012979 -0.682269
    28 1.100771 0.004527 -0.010679 -0.016147 -0.001453 -1.484153
    29 0.120153 -0.050270 -0.054489 0.287569 3.110905 1.561085
    30 -0.391866 -9.196225 -7.884336 0.158780 -3.158303 0.443633
    31 0.096944 -8.450418 -0.009365 -0.253549 -0.102380 0.248393
    32 0.447953 -2.798986 -0.200443 -1.426761 0.042804 0.170619
    33 -0.032909 -1.480204 0.004940 -1.498009 0.000000 0.000002
    34 -0.027022 -1.076920 -0.020210 -1.225052 0.000000 0.000000
    35 -0.249534 -2.846964 -0.174213 -1.278060 0.002631 0.073866
    36 0.043235 -1.683941 0.096012 -1.638292 0.002823 -0.000167
    37 0.031729 -1.160830 0.058838 -1.199344 0.000642 0.008372
    38 -0.963866 -2.785145 -0.085350 -1.330297 0.070929 0.053157
    39 0.028479 -1.403067 0.006271 -1.337889 0.000000 0.000000
    40 0.021413 -0.957781 0.020046 -1.052173 0.000000 0.000000
    41 1.164475 -2.543940 -0.170330 -1.221927 -0.015463 0.162804
    42 0.024032 -1.129042 0.017807 -1.592547 0.000000 0.000001
    43 0.014898 -0.883989 -0.019848 -0.928571 0.000000 0.000000
    44 -0.586770 -1.264477 0.200161 0.038267 -0.775789 -2.797690
    45 1.522835 0.058681 0.016848 0.001410 0.008985 0.973082
    46 1.117947 0.048424 -0.005766 -0.023409 -0.009318 1.247921
    47 -0.139399 -0.111698 0.014397 0.289561 -0.104570 1.463946
    48 -3.975580 8.546199 -0.270684 1.580804 -0.005023 -1.234343
end
