version 1
nodes
  0 "Bip01" -1
  1 "Bip01 Pelvis" 0
  2 "Bip01 Spine" 1
  3 "Bip01 Spine1" 2
  4 "Bip01 Spine2" 3
  5 "Bip01 Spine3" 4
  6 "Bip01 Neck" 5
  7 "Bip01 Head" 6
  8 "Bip01 L Clavicle" 6
  9 "Bip01 L UpperArm" 8
  10 "Bip01 L Forearm" 9
  11 "Bip01 L Hand" 10
  12 "Bip01 L Finger0" 11
  13 "Bip01 L Finger01" 12
  14 "Bip01 L Finger1" 11
  15 "Bip01 L Finger11" 14
  16 "lflash" 11
  17 "gunslinger_minor_p001" 16
  18 "Bip01 R Clavicle" 6
  19 "Bip01 R UpperArm" 18
  20 "Bip01 R Forearm" 19
  21 "Bip01 R Hand" 20
  22 "Bip01 R Finger0" 21
  23 "Bip01 R Finger01" 22
  24 "Bip01 R Finger1" 21
  25 "Bip01 R Finger11" 24
  26 "rflash" 21
  27 "gunslinger_minor_p" 26
  28 "Bip01 L Thigh" 1
  29 "Bip01 L Calf" 28
  30 "Bip01 L Foot" 29
  31 "Bip01 L Toe0" 30
  32 "Bip01 R Thigh" 29
  33 "Bip01 R Calf" 32
  34 "Bip01 R Foot" 33
  35 "Bip01 R Toe0" 34
  36 "Plane002" 16
  37 "Plane003" 26
end
skeleton
  time 0
    0 0.000000 3.076274 32.728497 -0.024495 -0.296862 -1.846104
    1 -2.276896 0.000003 -1.238186 -1.570795 -1.570796 0.000000
    2 1.797775 0.711858 0.000057 -0.017789 0.000738 0.195348
    3 4.119244 -0.003218 0.000058 -0.017784 0.000738 0.194626
    4 4.119228 -0.003215 0.000059 -0.017784 0.000738 0.194628
    5 4.119236 -0.003220 0.000058 -0.017784 0.000738 0.194603
    6 4.119690 -0.003366 -0.000020 0.005760 -0.065509 0.312238
    7 4.443604 0.000000 0.000000 0.219105 -0.171775 -0.144717
    8 0.113430 0.013489 1.728975 -0.716466 -1.430391 -2.749617
    9 5.849109 -0.000002 0.000000 -0.307729 -0.487664 -1.360596
    10 9.697663 0.000002 -0.000004 0.000000 0.000000 -0.039620
    11 10.762130 0.000001 0.000004 -1.572372 0.008375 0.001413
    12 0.867325 -0.222958 -0.645012 1.880709 0.522696 0.904654
    13 2.270588 -0.000003 0.000004 0.000000 0.000000 0.307301
    14 3.240425 -0.290825 -0.028107 -0.000597 0.000527 0.723045
    15 2.011148 0.000000 0.000000 0.000000 0.000000 1.745329
    16 14.442873 0.913799 -4.104937 0.000001 0.000000 0.000000
    17 -3.557234 -0.642563 0.447492 3.141592 0.000000 0.000000
    18 -0.113422 -0.006420 -1.728976 0.567883 1.302030 -2.895411
    19 5.849108 0.000000 -0.000004 0.800242 0.203459 -1.804707
    20 9.697662 0.000004 0.000000 0.000000 0.000000 -0.366957
    21 10.762132 -0.000004 0.000000 1.545025 -0.096928 0.040259
    22 0.867321 -0.222958 0.645012 -1.880709 -0.522696 0.904654
    23 2.270590 -0.000006 -0.000004 0.000000 0.000000 0.307301
    24 3.240423 -0.290825 0.028111 0.000597 -0.000527 0.723045
    25 2.011153 0.000000 -0.000004 0.000000 0.000000 1.745329
    26 14.688066 1.140224 3.090290 0.000001 0.000000 0.000000
    27 -3.731440 -0.625355 -0.160519 0.000000 0.000000 0.000000
    28 -0.000006 0.000007 3.619081 0.100068 -2.836448 -0.473262
    29 16.573921 0.000002 0.000000 0.000000 0.000000 -0.391412
    30 15.128182 0.000001 0.000000 -0.140631 -0.264901 -0.380688
    31 5.758665 4.244732 -0.000001 0.000000 0.000000 1.570796
    32 -17.593689 -6.514921 6.869245 0.024860 -0.453699 0.004369
    33 16.573921 -0.000001 -0.000001 0.000000 0.000000 -1.221952
    34 15.128182 0.000000 0.000002 0.135445 0.148184 0.842564
    35 5.758665 4.244732 -0.000001 0.000000 0.000000 1.570796
    36 15.510132 -0.000004 0.000008 0.000000 0.000000 -1.570796
    37 16.527199 0.000008 -0.000008 0.000000 0.000000 -1.570796
end
triangles
$0b_skillmuzzilem.bmp
  36 -1.291547 -68.934587 39.017668 0.943525 -0.019078 -0.330752 0.000000 1.000000
  36 -0.438864 -31.165064 39.271283 0.943525 -0.019078 -0.330752 0.000000 0.000000
  36 4.919164 -69.193867 56.749671 0.943525 -0.019078 -0.330752 1.000000 1.000000
$0b_skillmuzzilem.bmp
  36 4.919164 -69.193867 56.749671 0.943525 -0.019078 -0.330752 1.000000 1.000000
  36 -0.438864 -31.165064 39.271283 0.943525 -0.019078 -0.330752 0.000000 0.000000
  36 5.772073 -31.414346 57.003353 0.943525 -0.019078 -0.330752 1.000000 0.000000
$0b_skillmuzzilem.bmp
  36 10.681287 -69.243510 44.769877 0.330532 -0.013798 0.943694 0.000000 1.000000
  36 11.524761 -31.463798 45.026867 0.330532 -0.013798 0.943694 0.000000 0.000000
  36 -7.047767 -68.894994 50.984651 0.330532 -0.013798 0.943694 1.000000 1.000000
$0b_skillmuzzilem.bmp
  36 -7.047767 -68.894994 50.984651 0.330532 -0.013798 0.943694 1.000000 1.000000
  36 11.524761 -31.463798 45.026867 0.330532 -0.013798 0.943694 0.000000 0.000000
  36 -6.194858 -31.115473 51.238333 0.330532 -0.013798 0.943694 1.000000 0.000000
$0b_skillmuzzilem.bmp
  37 -0.685564 -64.688708 42.062151 0.569966 -0.028319 0.821180 0.000000 1.000000
  37 -0.047774 -26.913882 42.922225 0.569966 -0.028319 0.821180 0.000000 0.000000
  37 -16.121442 -64.672038 52.776510 0.569966 -0.028319 0.821180 1.000000 1.000000
$0b_skillmuzzilem.bmp
  37 -16.121442 -64.672038 52.776510 0.569966 -0.028319 0.821180 1.000000 1.000000
  37 -0.047774 -26.913882 42.922225 0.569966 -0.028319 0.821180 0.000000 0.000000
  37 -15.483651 -26.897212 53.636585 0.569966 -0.028319 0.821180 1.000000 0.000000
$0b_skillmuzzilem.bmp
  37 -3.049752 -64.936584 55.141495 -0.821495 0.000887 0.570215 0.000000 1.000000
  37 -2.411962 -27.161757 56.001570 -0.821495 0.000887 0.570215 0.000000 0.000000
  37 -13.759600 -64.414441 39.711306 -0.821495 0.000887 0.570215 1.000000 1.000000
$0b_skillmuzzilem.bmp
  37 -13.759600 -64.414441 39.711306 -0.821495 0.000887 0.570215 1.000000 1.000000
  37 -2.411962 -27.161757 56.001570 -0.821495 0.000887 0.570215 0.000000 0.000000
  37 -13.121809 -26.639615 40.571381 -0.821495 0.000887 0.570215 1.000000 0.000000
end
