version 1
nodes
  0 "NEXON_CSO_Origin_ROOT" -1
  1 "Bone01" 0
  2 "Bone_Lefthand" 1
  3 "NEXON_CSO_Guitar_ROOT" 2
  4 "NEXON_CSO_Guitar_Magazine" 3
  5 "NEXON_CSO_Guitar_Stick_Sub" 3
  6 "NEXON_CSO_Guitar_Line" 5
  7 "NEXON_CSO_Guitar_Stick" 3
  8 "NEXON_CSO_Guitar_Trigger" 3
  9 "NEXON_CSO_Guitar_Line_Sub" 3
  10 "NEXON_CSO_Guitar_Slide" 3
  11 "NEXON_CSO_Guitar_Stripe" 3
  12 "Bone04" 0
  13 "Bone_Righthand" 12
  14 "Bone27" 13
  15 "Bone28" 14
  16 "Bone29" 15
  17 "Bone31" 13
  18 "Bone32" 17
  19 "Bone33" 18
  20 "Bone35" 13
  21 "Bone36" 20
  22 "Bone37" 21
  23 "Bone39" 13
  24 "Bone40" 23
  25 "Bone41" 24
  26 "Bone43" 13
  27 "Bone44" 26
  28 "Bone45" 27
  29 "Bone_Se_Hand-R" 13
  30 "Bone05" 2
  31 "Bone06" 30
  32 "Bone07" 31
  33 "Bone21" 2
  34 "Bone22" 33
  35 "Bone23" 34
  36 "Bone17" 2
  37 "Bone18" 36
  38 "Bone19" 37
  39 "Bone13" 2
  40 "Bone14" 39
  41 "Bone15" 40
  42 "Bone09" 2
  43 "Bone10" 42
  44 "Bone11" 43
  45 "Bone_Se_Hand-L" 2
end
skeleton
  time 0
    0 6.652210 6.795672 -6.827461 0.000000 0.000000 0.000000
    1 3.636157 -21.913795 -21.818469 -1.867766 -0.319119 0.087514
    2 -0.071916 -8.498732 -0.104137 0.158825 0.044303 -0.257357
    3 -10.752638 7.904810 4.819670 -0.336262 2.113389 0.346488
    4 -0.000001 -4.696888 1.430524 -1.173814 0.000000 0.000000
    5 -0.685739 -0.124270 2.802592 0.000000 0.000000 0.000000
    6 -0.319964 -11.602977 -0.000001 0.000000 0.000000 0.000000
    7 -0.616010 0.026119 1.874276 0.000000 0.000000 0.000000
    8 0.004610 -2.079478 1.389886 0.000000 0.000000 0.000000
    9 -1.409570 -11.731153 2.919781 0.000000 0.000000 0.000000
    10 0.179881 -7.744529 3.824859 0.000000 0.000000 0.000000
    11 0.095565 -9.629451 5.037418 1.403527 0.031881 4.393045
    12 -8.012820 -7.095558 -0.606197 -1.027392 3.453471 -0.539492
    13 0.096947 -8.450419 -0.009364 -0.388614 -0.356851 0.011795
    14 -0.586769 -1.264476 0.200164 -0.365451 -0.373758 -2.296227
    15 1.522835 0.058679 0.016850 0.218682 -0.128954 0.639421
    16 1.117947 0.048425 -0.005765 0.086357 0.020922 -0.013354
    17 -0.963867 -2.785142 -0.085346 0.182330 0.050940 0.036903
    18 0.028478 -1.403067 0.006271 -0.974513 0.000000 0.000000
    19 0.021413 -0.957782 0.020047 -0.887838 0.000000 0.000000
    20 -0.249534 -2.846963 -0.174215 0.087823 -0.062988 0.103828
    21 0.043234 -1.683940 0.096014 -1.297721 0.000000 0.000000
    22 0.031730 -1.160831 0.058836 -1.100750 0.000000 0.000000
    23 0.447952 -2.798983 -0.200442 -0.036416 -0.054316 0.152261
    24 -0.032910 -1.480206 0.004935 -1.352261 0.000000 0.000000
    25 -0.027023 -1.076921 -0.020212 -1.100378 0.000000 0.000000
    26 1.164475 -2.543939 -0.170327 -0.102994 -0.111116 0.086934
    27 0.024033 -1.129041 0.017806 -0.937025 0.000000 0.000000
    28 0.014896 -0.883992 -0.019845 -0.976252 0.000000 0.000000
    29 -0.098512 -0.129884 0.136243 0.323906 -0.140216 1.546731
    30 0.583509 -1.197274 0.185379 0.059297 -0.359842 -0.732965
    31 1.535926 0.010246 0.005009 -0.266980 0.177520 -0.262587
    32 1.100770 0.004528 -0.010675 0.035371 -0.039716 0.304261
    33 0.957767 -2.746778 -0.090301 0.469029 0.042042 0.186346
    34 -0.033419 -1.397127 -0.011256 -1.098237 0.000000 0.000000
    35 -0.022362 -0.957433 0.018783 -0.920126 0.000000 0.000000
    36 0.250029 -2.820665 -0.238396 0.204328 0.086764 0.058185
    37 -0.049759 -1.680544 0.100479 -1.884928 0.000000 0.000000
    38 -0.034142 -1.148312 0.084779 -0.572858 0.000000 0.000000
    39 -0.488516 -2.755600 -0.228261 -0.363915 0.050023 -0.231400
    40 0.039890 -1.479791 0.029853 -1.611404 0.000000 0.000000
    41 0.028785 -1.075733 -0.023110 -0.994173 0.000000 0.000000
    42 -1.180678 -2.507216 -0.193862 -0.420504 0.122899 -0.240634
    43 -0.024968 -1.123934 0.017594 -1.373527 0.000000 0.000000
    44 -0.020058 -0.890965 0.010091 -1.129823 0.000000 0.000000
    45 0.067673 -0.055398 -0.080485 3.078851 -0.275352 -1.546385
  time 1
    0 6.652210 6.795672 -6.827461 0.000000 0.000000 0.000000
    1 3.636157 -21.937233 -21.185637 -1.843041 -0.315248 0.064498
    2 -0.071916 -8.498732 -0.104137 0.140584 0.068231 -0.265174
    3 -11.123743 8.045439 4.163400 -0.530143 1.900572 0.121212
    4 -0.000001 -4.696888 1.430524 -1.173814 0.000000 0.000000
    5 -0.685739 -0.124270 2.802592 0.000000 0.000000 0.000000
    6 -0.319964 -11.602977 -0.000001 0.000000 0.000000 0.000000
    7 -0.616010 0.026119 1.874276 0.000000 0.000000 0.000000
    8 0.004610 -2.079478 1.389886 0.000000 0.000000 0.000000
    9 -1.386131 -11.731153 2.927594 0.000000 0.000000 0.000000
    10 0.179881 -7.744529 3.824859 0.000000 0.000000 0.000000
    11 0.095565 -9.629451 5.037418 1.403527 0.031881 4.393045
    12 -7.813595 -7.204937 -0.672605 -0.990813 3.428963 -0.551434
    13 0.096947 -8.450419 -0.009364 -0.378773 -0.345850 0.006373
    14 -0.586769 -1.264476 0.200164 -0.361884 -0.390056 -2.301577
    15 1.522835 0.058679 0.016850 0.223455 -0.131183 0.642286
    16 1.117947 0.048425 -0.005765 0.086309 0.019316 0.004899
    17 -0.963867 -2.785142 -0.085346 0.160591 0.050940 0.036903
    18 0.028478 -1.403067 0.006271 -0.974513 0.000000 0.000000
    19 0.021413 -0.957782 0.020047 -0.887838 0.000000 0.000000
    20 -0.249534 -2.846963 -0.174215 0.066084 -0.062988 0.103828
    21 0.043234 -1.683940 0.096014 -1.297721 0.000000 0.000000
    22 0.031730 -1.160831 0.058836 -1.100750 0.000000 0.000000
    23 0.447952 -2.798983 -0.200442 -0.058155 -0.054316 0.152261
    24 -0.032910 -1.480206 0.004935 -1.352261 0.000000 0.000000
    25 -0.027023 -1.076921 -0.020212 -1.100378 0.000000 0.000000
    26 1.164475 -2.543939 -0.170327 -0.124740 -0.111116 0.086934
    27 0.024033 -1.129041 0.017806 -0.937025 0.000000 0.000000
    28 0.014896 -0.883992 -0.019845 -0.976252 0.000000 0.000000
    29 -0.098512 -0.129884 0.136243 0.323906 -0.139629 1.547774
    30 0.583509 -1.197274 0.185379 0.060559 -0.374701 -0.748030
    31 1.535926 0.010246 0.005009 -0.263648 0.171288 -0.262886
    32 1.100770 0.004528 -0.010675 0.046289 -0.033496 0.270189
    33 0.957767 -2.746778 -0.090301 0.448657 0.044858 0.167482
    34 -0.033419 -1.397127 -0.011256 -1.020444 0.000000 0.000000
    35 -0.022362 -0.957433 0.018783 -0.875448 0.000000 0.000000
    36 0.250029 -2.820665 -0.238396 0.168726 0.082245 0.048454
    37 -0.049759 -1.680544 0.100479 -1.824144 0.000000 0.000000
    38 -0.034142 -1.148312 0.084779 -0.575595 0.000000 0.000000
    39 -0.488516 -2.755600 -0.228261 -0.383744 0.045169 -0.231592
    40 0.039890 -1.479791 0.029853 -1.557423 0.000000 0.000000
    41 0.028785 -1.075733 -0.023110 -1.005473 0.000000 0.000000
    42 -1.180678 -2.507216 -0.193862 -0.433098 0.119651 -0.254308
    43 -0.024968 -1.123934 0.017594 -1.356198 0.000000 0.000000
    44 -0.020058 -0.890965 0.010091 -1.121925 0.000000 0.000000
    45 0.063767 -0.055398 -0.076579 3.080193 -0.262121 -1.536498
  time 2
    0 6.652210 6.795672 -6.827461 0.000000 0.000000 0.000000
    1 3.640064 -21.995828 -19.513711 -1.778031 -0.305076 0.003935
    2 -0.071916 -8.498732 -0.104137 0.092537 0.131286 -0.286386
    3 -11.842515 8.283728 2.886017 1.505414 1.443824 2.142396
    4 -0.000001 -4.696888 1.430524 -1.173814 0.000000 0.000000
    5 -0.685739 -0.124270 2.802592 0.000000 0.000000 0.000000
    6 -0.319964 -11.602977 -0.000001 0.000000 0.000000 0.000000
    7 -0.616010 0.026119 1.874276 0.000000 0.000000 0.000000
    8 0.004610 -2.079478 1.389886 0.000000 0.000000 0.000000
    9 -1.362693 -11.727246 2.935406 0.000000 0.000000 0.000000
    10 0.179881 -7.744529 3.824859 0.000000 0.000000 0.000000
    11 0.095565 -9.629451 5.037418 1.403527 0.031881 4.393045
    12 -7.278423 -7.513540 -0.860111 -0.891074 3.362271 -0.582613
    13 0.096947 -8.450419 -0.009364 -0.352109 -0.316989 -0.008257
    14 -0.586769 -1.264476 0.200164 -0.352285 -0.433769 -2.315944
    15 1.522835 0.058679 0.016850 0.236530 -0.137163 0.649977
    16 1.117947 0.048425 -0.005765 0.086189 0.015014 0.053890
    17 -0.963867 -2.785142 -0.085346 0.102285 0.050940 0.036903
    18 0.028478 -1.403067 0.006271 -0.974513 0.000000 0.000000
    19 0.021413 -0.957782 0.020047 -0.887838 0.000000 0.000000
    20 -0.249534 -2.846963 -0.174215 0.007778 -0.062988 0.103828
    21 0.043234 -1.683940 0.096014 -1.297721 0.000000 0.000000
    22 0.031730 -1.160831 0.058836 -1.100750 0.000000 0.000000
    23 0.447952 -2.798983 -0.200442 -0.116461 -0.054316 0.152261
    24 -0.032910 -1.480206 0.004935 -1.352261 0.000000 0.000000
    25 -0.027023 -1.076921 -0.020212 -1.100378 0.000000 0.000000
    26 1.164475 -2.543939 -0.170327 -0.183028 -0.111116 0.086934
    27 0.024033 -1.129041 0.017806 -0.937025 0.000000 0.000000
    28 0.014896 -0.883992 -0.019845 -0.976252 0.000000 0.000000
    29 -0.098512 -0.129884 0.136243 0.323948 -0.137903 1.550758
    30 0.583509 -1.197274 0.185379 0.063989 -0.415554 -0.788938
    31 1.535926 0.010246 0.005009 -0.254600 0.154342 -0.263800
    32 1.100770 0.004528 -0.010675 0.075939 -0.016598 0.177672
    33 0.957767 -2.746778 -0.090301 0.393710 0.051593 0.120119
    34 -0.033419 -1.397127 -0.011256 -0.834954 0.000000 0.000000
    35 -0.022362 -0.957433 0.018783 -0.768818 0.000000 0.000000
    36 0.250029 -2.820665 -0.238396 0.074869 0.070333 0.022807
    37 -0.049759 -1.680544 0.100479 -1.663944 0.000000 0.000000
    38 -0.034142 -1.148312 0.084779 -0.582830 0.000000 0.000000
    39 -0.488516 -2.755600 -0.228261 -0.436014 0.032370 -0.232203
    40 0.039890 -1.479791 0.029853 -1.415010 0.000000 0.000000
    41 0.028785 -1.075733 -0.023110 -1.035301 0.000000 0.000000
    42 -1.180678 -2.507216 -0.193862 -0.467825 0.111070 -0.290370
    43 -0.024968 -1.123934 0.017594 -1.308871 0.000000 0.000000
    44 -0.020058 -0.890965 0.010091 -1.099489 0.000000 0.000000
    45 0.048141 -0.059304 -0.057047 3.084016 -0.227210 -1.510551
  time 3
    0 6.652210 6.795672 -6.827461 0.000000 0.000000 0.000000
    1 3.643970 -22.077862 -17.150358 -1.686019 -0.290672 -0.081708
    2 -0.071916 -8.498732 -0.104137 0.024580 0.220427 -0.317655
    3 -12.416751 8.596237 1.053930 0.186187 1.213200 0.827633
    4 -0.000001 -4.696888 1.430524 -1.173814 0.000000 0.000000
    5 -0.685739 -0.124270 2.802592 0.000000 0.000000 0.000000
    6 -0.319964 -11.602977 -0.000001 0.000000 0.000000 0.000000
    7 -0.616010 0.026119 1.874276 0.000000 0.000000 0.000000
    8 0.004610 -2.079478 1.389886 0.000000 0.000000 0.000000
    9 -1.335348 -11.727246 2.935406 0.000000 0.000000 0.000000
    10 0.179881 -7.744529 3.824859 0.000000 0.000000 0.000000
    11 0.095565 -9.629451 5.037418 1.403527 0.031881 4.393045
    12 -6.501055 -7.966679 -1.137463 -0.743092 3.263494 -0.626307
    13 0.096947 -8.450419 -0.009364 -0.313180 -0.276583 -0.029474
    14 -0.586769 -1.264476 0.200164 -0.338376 -0.497046 -2.336743
    15 1.522835 0.058679 0.016850 0.255981 -0.145840 0.661112
    16 1.117947 0.048425 -0.005765 0.086009 0.008770 0.124784
    17 -0.963867 -2.785142 -0.085346 0.017885 0.050940 0.036903
    18 0.028478 -1.403067 0.006271 -0.974513 0.000000 0.000000
    19 0.021413 -0.957782 0.020047 -0.887838 0.000000 0.000000
    20 -0.249534 -2.846963 -0.174215 -0.076622 -0.062988 0.103828
    21 0.043234 -1.683940 0.096014 -1.297721 0.000000 0.000000
    22 0.031730 -1.160831 0.058836 -1.100750 0.000000 0.000000
    23 0.447952 -2.798983 -0.200442 -0.200861 -0.054316 0.152261
    24 -0.032910 -1.480206 0.004935 -1.352261 0.000000 0.000000
    25 -0.027023 -1.076921 -0.020212 -1.100378 0.000000 0.000000
    26 1.164475 -2.543939 -0.170327 -0.267428 -0.111116 0.086934
    27 0.024033 -1.129041 0.017806 -0.937025 0.000000 0.000000
    28 0.014896 -0.883992 -0.019845 -0.976252 0.000000 0.000000
    29 -0.098512 -0.129884 0.132337 0.324033 -0.135158 1.555432
    30 0.583509 -1.197274 0.185379 0.069061 -0.476823 -0.849232
    31 1.535926 0.010246 0.005009 -0.241249 0.129366 -0.265274
    32 1.100770 0.004528 -0.010675 0.119647 0.008306 0.041312
    33 0.957767 -2.746778 -0.090301 0.313394 0.059635 0.058051
    34 -0.033419 -1.397127 -0.011256 -0.613556 0.000000 0.000000
    35 -0.022362 -0.957433 0.018783 -0.641223 0.000000 0.000000
    36 0.250029 -2.820665 -0.238396 -0.057832 0.053506 -0.013459
    37 -0.049759 -1.680544 0.100479 -1.437364 0.000000 0.000000
    38 -0.034142 -1.148312 0.084779 -0.593073 0.000000 0.000000
    39 -0.488516 -2.755600 -0.228261 -0.509917 0.014297 -0.233270
    40 0.039890 -1.479791 0.029853 -1.213667 0.000000 0.000000
    41 0.028785 -1.075733 -0.023110 -1.077453 0.000000 0.000000
    42 -1.180678 -2.507216 -0.193862 -0.520048 0.098942 -0.341352
    43 -0.024968 -1.123934 0.017594 -1.238521 0.000000 0.000000
    44 -0.020058 -0.890965 0.010091 -1.064411 0.000000 0.000000
    45 0.024703 -0.063211 -0.029702 3.090009 -0.177797 -1.474166
  time 4
    0 6.652210 6.795672 -6.827461 0.000000 0.000000 0.000000
    1 3.651783 -22.171615 -14.439338 -1.580599 -0.274108 -0.179892
    2 -0.071916 -8.498732 -0.104137 -0.053313 0.322610 -0.355629
    3 -12.405032 8.986874 -1.071135 -0.021021 0.846346 0.644540
    4 -0.000001 -4.696888 1.430524 -1.173814 0.000000 0.000000
    5 -0.685739 -0.124270 2.802592 0.000000 0.000000 0.000000
    6 -0.319964 -11.602977 -0.000001 0.000000 0.000000 0.000000
    7 -0.616010 0.026119 1.874276 0.000000 0.000000 0.000000
    8 0.004610 -2.079478 1.389886 0.000000 0.000000 0.000000
    9 -1.311910 -11.727246 2.931500 0.000000 0.000000 0.000000
    10 0.179881 -7.744529 3.824859 0.000000 0.000000 0.000000
    11 0.095565 -9.629451 5.037418 1.403527 0.031881 4.393045
    12 -5.571339 -8.513570 -1.477317 -0.561864 3.143032 -0.675649
    13 0.096947 -8.450419 -0.009364 -0.266397 -0.230980 -0.054657
    14 -0.586769 -1.264476 0.200164 -0.321906 -0.572063 -2.361420
    15 1.522835 0.058679 0.016850 0.279898 -0.156111 0.674321
    16 1.117947 0.048425 -0.005765 0.085794 0.001375 0.208852
    17 -0.963867 -2.785142 -0.085346 -0.082175 0.050940 0.036903
    18 0.028478 -1.403067 0.006271 -0.974513 0.000000 0.000000
    19 0.021413 -0.957782 0.020047 -0.887838 0.000000 0.000000
    20 -0.249534 -2.846963 -0.174215 -0.176682 -0.062988 0.103828
    21 0.043234 -1.683940 0.096014 -1.297721 0.000000 0.000000
    22 0.031730 -1.160831 0.058836 -1.100750 0.000000 0.000000
    23 0.447952 -2.798983 -0.200442 -0.300922 -0.054316 0.152261
    24 -0.032910 -1.480206 0.004935 -1.352261 0.000000 0.000000
    25 -0.027023 -1.076921 -0.020212 -1.100378 0.000000 0.000000
    26 1.164475 -2.543939 -0.170327 -0.367484 -0.111116 0.086934
    27 0.024033 -1.129041 0.017806 -0.937025 0.000000 0.000000
    28 0.014896 -0.883992 -0.019845 -0.976252 0.000000 0.000000
    29 -0.098512 -0.129884 0.128430 0.324201 -0.131479 1.561568
    30 0.583509 -1.197274 0.185379 0.075198 -0.552869 -0.922455
    31 1.535926 0.010246 0.005009 -0.225046 0.099045 -0.267252
    32 1.100770 0.004528 -0.010675 0.172714 0.038543 -0.124290
    33 0.957767 -2.746778 -0.090301 0.216915 0.066358 -0.004964
    34 -0.033419 -1.397127 -0.011256 -0.428036 0.000000 0.000000
    35 -0.022362 -0.957433 0.018783 -0.533739 0.000000 0.000000
    36 0.250029 -2.820665 -0.238396 -0.209928 0.034199 -0.055021
    37 -0.049759 -1.680544 0.100479 -1.177633 0.000000 0.000000
    38 -0.034142 -1.148312 0.084779 -0.604780 0.000000 0.000000
    39 -0.488516 -2.755600 -0.228261 -0.594630 -0.006437 -0.234828
    40 0.039890 -1.479791 0.029853 -0.982860 0.000000 0.000000
    41 0.028785 -1.075733 -0.023110 -1.125789 0.000000 0.000000
    42 -1.180678 -2.507216 -0.193862 -0.585084 0.085028 -0.399801
    43 -0.024968 -1.123934 0.017594 -1.152124 0.000000 0.000000
    44 -0.020058 -0.890965 0.010091 -1.018589 0.000000 0.000000
    45 -0.002642 -0.071023 0.001549 3.097715 -0.121098 -1.432807
  time 5
    0 6.652210 6.795672 -6.827461 0.000000 0.000000 0.000000
    1 3.655689 -22.261461 -11.732224 -1.475118 -0.257635 -0.278077
    2 -0.071916 -8.498732 -0.104137 -0.131206 0.424826 -0.396940
    3 -11.608133 9.365792 -3.055570 -0.111856 0.463027 0.602792
    4 -0.000001 -4.696888 1.430524 -1.173814 0.000000 0.000000
    5 -0.685739 -0.124270 2.802592 0.000000 0.000000 0.000000
    6 -0.319964 -11.602977 -0.000001 0.000000 0.000000 0.000000
    7 -0.616010 0.026119 1.874276 0.000000 0.000000 0.000000
    8 0.004610 -2.079478 1.389886 0.000000 0.000000 0.000000
    9 -1.288472 -11.727246 2.923687 0.000000 0.000000 0.000000
    10 0.179881 -7.744529 3.824859 0.000000 0.000000 0.000000
    11 0.095565 -9.629451 5.037418 1.403527 0.031881 4.393045
    12 -4.590841 -9.111245 -1.852329 -0.362149 3.010910 -0.723705
    13 0.096947 -8.450419 -0.009364 -0.216366 -0.186494 -0.081332
    14 -0.586769 -1.264476 0.200164 -0.304550 -0.650999 -2.387388
    15 1.522835 0.058679 0.016850 0.306368 -0.166921 0.688208
    16 1.117947 0.048425 -0.005765 0.085554 -0.006403 0.297311
    17 -0.963867 -2.785142 -0.085346 -0.187462 0.050940 0.036903
    18 0.028478 -1.403067 0.006271 -0.974513 0.000000 0.000000
    19 0.021413 -0.957782 0.020047 -0.887838 0.000000 0.000000
    20 -0.249534 -2.846963 -0.174215 -0.281969 -0.062988 0.103828
    21 0.043234 -1.683940 0.096014 -1.297721 0.000000 0.000000
    22 0.031730 -1.160831 0.058836 -1.100750 0.000000 0.000000
    23 0.447952 -2.798983 -0.200442 -0.406209 -0.054316 0.152261
    24 -0.032910 -1.480206 0.004935 -1.352261 0.000000 0.000000
    25 -0.027023 -1.076921 -0.020212 -1.100378 0.000000 0.000000
    26 1.164475 -2.543939 -0.170327 -0.472769 -0.111116 0.086934
    27 0.024033 -1.129041 0.017806 -0.937025 0.000000 0.000000
    28 0.014896 -0.883992 -0.019845 -0.976252 0.000000 0.000000
    29 -0.098512 -0.129884 0.120618 0.324469 -0.126961 1.568891
    30 0.583509 -1.197274 0.185379 0.081899 -0.638094 -1.002135
    31 1.535926 0.010246 0.005009 -0.207417 0.066051 -0.269715
    32 1.100770 0.004528 -0.010675 0.230456 0.071453 -0.304456
    33 0.957767 -2.746778 -0.090301 0.113512 0.069187 -0.055095
    34 -0.033419 -1.397127 -0.011256 -0.350274 0.000000 0.000000
    35 -0.022362 -0.957433 0.018783 -0.487413 0.000000 0.000000
    36 0.250029 -2.820665 -0.238396 -0.362041 0.014892 -0.096584
    37 -0.049759 -1.680544 0.100479 -0.917940 0.000000 0.000000
    38 -0.034142 -1.148312 0.084779 -0.616513 0.000000 0.000000
    39 -0.488516 -2.755600 -0.228261 -0.679356 -0.027170 -0.236925
    40 0.039890 -1.479791 0.029853 -0.752052 0.000000 0.000000
    41 0.028785 -1.075733 -0.023110 -1.174124 0.000000 0.000000
    42 -1.180678 -2.507216 -0.193862 -0.658297 0.071126 -0.458250
    43 -0.024968 -1.123934 0.017594 -1.056680 0.000000 0.000000
    44 -0.020058 -0.890965 0.010091 -0.963945 0.000000 0.000000
    45 -0.029986 -0.074930 0.032800 3.106248 -0.064339 -1.391712
  time 6
    0 6.652210 6.795672 -6.827461 0.000000 0.000000 0.000000
    1 3.659595 -22.343495 -9.368871 -1.383168 -0.243231 -0.363720
    2 -0.071916 -8.498732 -0.104137 -0.199144 0.513967 -0.438267
    3 -10.186214 9.525953 -4.454051 -0.182588 0.095790 0.617633
    4 -0.000001 -4.696888 1.430524 -1.173814 0.000000 0.000000
    5 -0.685739 -0.124270 2.802592 0.000000 0.000000 0.000000
    6 -0.319964 -11.602977 -0.000001 0.000000 0.000000 0.000000
    7 -0.616010 0.026119 1.874276 0.000000 0.000000 0.000000
    8 0.004610 -2.079478 1.389886 0.000000 0.000000 0.000000
    9 -1.265034 -11.727246 2.908062 0.000000 0.000000 0.000000
    10 0.179881 -7.744529 3.824859 0.000000 0.000000 0.000000
    11 0.095565 -9.629451 5.037418 1.403527 0.031881 4.393045
    12 -3.649406 -9.705013 -2.227340 -0.159021 2.877525 -0.763679
    13 0.096947 -8.450419 -0.009364 -0.167498 -0.149382 -0.106843
    14 -0.586769 -1.264476 0.200164 -0.288080 -0.726017 -2.412035
    15 1.522835 0.058679 0.016850 0.333491 -0.177204 0.701417
    16 1.117947 0.048425 -0.005765 0.085338 -0.013797 0.381378
    17 -0.963867 -2.785142 -0.085346 -0.287523 0.050940 0.036903
    18 0.028478 -1.403067 0.006271 -0.974513 0.000000 0.000000
    19 0.021413 -0.957782 0.020047 -0.887838 0.000000 0.000000
    20 -0.249534 -2.846963 -0.174215 -0.382030 -0.062988 0.103828
    21 0.043234 -1.683940 0.096014 -1.297721 0.000000 0.000000
    22 0.031730 -1.160831 0.058836 -1.100750 0.000000 0.000000
    23 0.447952 -2.798983 -0.200442 -0.506270 -0.054316 0.152261
    24 -0.032910 -1.480206 0.004935 -1.352261 0.000000 0.000000
    25 -0.027023 -1.076921 -0.020212 -1.100378 0.000000 0.000000
    26 1.164475 -2.543939 -0.170327 -0.572854 -0.111116 0.086934
    27 0.024033 -1.129041 0.017806 -0.937025 0.000000 0.000000
    28 0.014896 -0.883992 -0.019845 -0.976252 0.000000 0.000000
    29 -0.098512 -0.129884 0.116711 0.324849 -0.121712 1.577184
    30 0.583509 -1.197274 0.185379 0.088588 -0.726900 -1.081798
    31 1.535926 0.010246 0.005009 -0.189787 0.033058 -0.272607
    32 1.100770 0.004528 -0.010675 0.288198 0.104363 -0.484660
    33 0.957767 -2.746778 -0.090301 -0.055747 0.043252 -0.090989
    34 -0.033419 -1.397127 -0.011256 -0.357504 0.000000 0.000000
    35 -0.022362 -0.957433 0.018783 -0.485918 0.000000 0.000000
    36 0.250029 -2.820665 -0.238396 -0.494742 -0.001946 -0.132849
    37 -0.049759 -1.680544 0.100479 -0.691360 0.000000 0.000000
    38 -0.034142 -1.148312 0.084779 -0.626729 0.000000 0.000000
    39 -0.488516 -2.755600 -0.228261 -0.753259 -0.045267 -0.239598
    40 0.039890 -1.479791 0.029853 -0.550709 0.000000 0.000000
    41 0.028785 -1.075733 -0.023110 -1.216298 0.000000 0.000000
    42 -1.180678 -2.507216 -0.193862 -0.735071 0.058997 -0.509245
    43 -0.024968 -1.123934 0.017594 -0.959191 0.000000 0.000000
    44 -0.020058 -0.890965 0.010091 -0.902375 0.000000 0.000000
    45 -0.053424 -0.082743 0.056238 3.114361 -0.014783 -1.356034
  time 7
    0 6.652210 6.795672 -6.827461 0.000000 0.000000 0.000000
    1 3.663502 -22.402091 -7.696945 -1.318096 -0.232969 -0.424283
    2 -0.071916 -8.498732 -0.104137 -0.247210 0.577023 -0.476226
    3 -8.557258 9.209537 -5.024381 -0.253841 -0.228079 0.682339
    4 -0.000001 -4.696888 1.430524 -1.173814 0.000000 0.000000
    5 -0.685739 -0.124270 2.802592 0.000000 0.000000 0.000000
    6 -0.319964 -11.602977 -0.000001 0.000000 0.000000 0.000000
    7 -0.616010 0.026119 1.874276 0.000000 0.000000 0.000000
    8 0.004610 -2.079478 1.389886 0.000000 0.000000 0.000000
    9 -1.245502 -11.727246 2.888530 0.000000 0.000000 0.000000
    10 0.179881 -7.744529 3.824859 0.000000 0.000000 0.000000
    11 0.095565 -9.629451 5.037418 1.403527 0.031881 4.393045
    12 -2.844694 -10.251904 -2.582820 0.032602 2.752978 -0.788708
    13 0.096947 -8.450419 -0.009364 -0.124254 -0.126021 -0.128605
    14 -0.586769 -1.264476 0.200164 -0.274172 -0.789293 -2.432864
    15 1.522835 0.058679 0.016850 0.359332 -0.185869 0.712552
    16 1.117947 0.048425 -0.005765 0.085159 -0.020041 0.452273
    17 -0.963867 -2.785142 -0.085346 -0.371923 0.050940 0.036903
    18 0.028478 -1.403067 0.006271 -0.974513 0.000000 0.000000
    19 0.021413 -0.957782 0.020047 -0.887838 0.000000 0.000000
    20 -0.249534 -2.846963 -0.174215 -0.466430 -0.062988 0.103828
    21 0.043234 -1.683940 0.096014 -1.297721 0.000000 0.000000
    22 0.031730 -1.160831 0.058836 -1.100750 0.000000 0.000000
    23 0.447952 -2.798983 -0.200442 -0.590670 -0.054316 0.152261
    24 -0.032910 -1.480206 0.004935 -1.352261 0.000000 0.000000
    25 -0.027023 -1.076921 -0.020212 -1.100378 0.000000 0.000000
    26 1.164475 -2.543939 -0.170327 -0.657254 -0.111116 0.086934
    27 0.024033 -1.129041 0.017806 -0.937025 0.000000 0.000000
    28 0.014896 -0.883992 -0.019845 -0.976252 0.000000 0.000000
    29 -0.098512 -0.129884 0.108898 0.325383 -0.115827 1.586196
    30 0.583509 -1.197274 0.185379 0.094738 -0.813689 -1.155022
    31 1.535926 0.010246 0.005009 -0.173584 0.002737 -0.275891
    32 1.100770 0.004528 -0.010675 0.341266 0.134600 -0.650262
    33 0.957767 -2.746778 -0.090301 -0.261365 -0.004902 -0.116684
    34 -0.033419 -1.397127 -0.011256 -0.385080 0.000000 0.000000
    35 -0.022362 -0.957433 0.018783 -0.485246 0.000000 0.000000
    36 0.250029 -2.820665 -0.238396 -0.588599 -0.013859 -0.158496
    37 -0.049759 -1.680544 0.100479 -0.531121 0.000000 0.000000
    38 -0.034142 -1.148312 0.084779 -0.633964 0.000000 0.000000
    39 -0.488516 -2.755600 -0.228261 -0.805529 -0.058054 -0.242870
    40 0.039890 -1.479791 0.029853 -0.408296 0.000000 0.000000
    41 0.028785 -1.075733 -0.023110 -1.246127 0.000000 0.000000
    42 -1.180678 -2.507216 -0.193862 -0.810723 0.050416 -0.545306
    43 -0.024968 -1.123934 0.017594 -0.866632 0.000000 0.000000
    44 -0.020058 -0.890965 0.010091 -0.835777 0.000000 0.000000
    45 -0.072956 -0.082743 0.075770 3.120473 0.020308 -1.330866
  time 8
    0 6.652210 6.795672 -6.827461 0.000000 0.000000 0.000000
    1 3.663502 -22.425529 -7.060206 -1.293433 -0.229098 -0.447225
    2 -0.071916 -8.498732 -0.104137 -0.265451 0.600917 -0.507495
    3 -7.111902 8.229038 -4.786092 -0.322153 -0.486753 0.797168
    4 -0.000001 -4.696888 1.430524 -1.173814 0.000000 0.000000
    5 -0.685739 -0.124270 2.802592 0.000000 0.000000 0.000000
    6 -0.319964 -11.602977 -0.000001 0.000000 0.000000 0.000000
    7 -0.616010 0.026119 1.874276 0.000000 0.000000 0.000000
    8 0.004610 -2.079478 1.389886 0.000000 0.000000 0.000000
    9 -1.225970 -11.727246 2.861185 0.000000 0.000000 0.000000
    10 0.179881 -7.744529 3.824859 0.000000 0.000000 0.000000
    11 0.095565 -9.629451 5.037418 1.403527 0.031881 4.393045
    12 -2.270458 -10.697231 -2.883610 0.197802 2.647592 -0.791926
    13 0.096947 -8.450419 -0.009364 -0.091191 -0.122727 -0.144072
    14 -0.586769 -1.264476 0.200164 -0.264572 -0.833006 -2.447231
    15 1.522835 0.058679 0.016850 0.382002 -0.191861 0.720243
    16 1.117947 0.048425 -0.005765 0.085039 -0.024344 0.501263
    17 -0.963867 -2.785142 -0.085346 -0.430229 0.050940 0.036903
    18 0.028478 -1.403067 0.006271 -0.974513 0.000000 0.000000
    19 0.021413 -0.957782 0.020047 -0.887838 0.000000 0.000000
    20 -0.249534 -2.846963 -0.174215 -0.524736 -0.062988 0.103828
    21 0.043234 -1.683940 0.096014 -1.297721 0.000000 0.000000
    22 0.031730 -1.160831 0.058836 -1.100750 0.000000 0.000000
    23 0.447952 -2.798983 -0.200442 -0.648976 -0.054316 0.152261
    24 -0.032910 -1.480206 0.004935 -1.352261 0.000000 0.000000
    25 -0.027023 -1.076921 -0.020212 -1.100378 0.000000 0.000000
    26 1.164475 -2.543939 -0.170327 -0.715541 -0.111116 0.086934
    27 0.024033 -1.129041 0.017806 -0.937025 0.000000 0.000000
    28 0.014896 -0.883992 -0.019845 -0.976252 0.000000 0.000000
    29 -0.098512 -0.129884 0.101086 0.326087 -0.109392 1.595676
    30 0.583509 -1.197274 0.185379 0.099798 -0.892843 -1.215316
    31 1.535926 0.010246 0.005009 -0.160245 -0.022239 -0.279511
    32 1.100770 0.004528 -0.010675 0.384962 0.159504 -0.786622
    33 0.957767 -2.746778 -0.090301 -0.361426 -0.030849 -0.126500
    34 -0.033419 -1.397127 -0.011256 -0.441609 0.000000 0.000000
    35 -0.022362 -0.957433 0.018783 -0.485094 0.000000 0.000000
    36 0.250029 -2.820665 -0.238396 -0.624201 -0.018377 -0.168228
    37 -0.049759 -1.680544 0.100479 -0.470299 0.000000 0.000000
    38 -0.034142 -1.148312 0.084779 -0.636701 0.000000 0.000000
    39 -0.488516 -2.755600 -0.228261 -0.825358 -0.062908 -0.246801
    40 0.039890 -1.479791 0.029853 -0.354315 0.000000 0.000000
    41 0.028785 -1.075733 -0.023110 -1.257426 0.000000 0.000000
    42 -1.180678 -2.507216 -0.193862 -0.880617 0.047156 -0.558981
    43 -0.024968 -1.123934 0.017594 -0.785978 0.000000 0.000000
    44 -0.020058 -0.890965 0.010091 -0.766048 0.000000 0.000000
    45 -0.076863 -0.086649 0.083583 3.122870 0.033611 -1.321326
  time 9
    0 6.652210 6.795672 -6.827461 0.000000 0.000000 0.000000
    1 3.722097 -22.421623 -6.825824 -1.344420 -0.229368 -0.291207
    2 -0.071916 -8.498732 -0.104137 -0.222712 0.538061 -0.526760
    3 -6.686108 6.717273 -3.746998 -0.260095 -0.523419 0.848420
    4 -0.000001 -4.696888 1.430524 -1.173814 0.000000 0.000000
    5 -0.685739 -0.124270 2.802592 0.000000 0.000000 0.000000
    6 -0.319964 -11.602977 -0.000001 0.000000 0.000000 0.000000
    7 -0.616010 0.026119 1.874276 0.000000 0.000000 0.000000
    8 0.004610 -2.079478 1.389886 0.000000 0.000000 0.000000
    9 -1.214251 -11.727246 2.829934 0.000000 0.000000 0.000000
    10 0.179881 -7.744529 3.824859 0.000000 0.000000 0.000000
    11 0.095565 -9.629451 5.037418 1.403527 0.031881 4.393045
    12 -2.016544 -11.001927 -3.106273 0.321662 2.571542 -0.766468
    13 0.096947 -8.450419 -0.009364 -0.072769 -0.145756 -0.150623
    14 -0.586769 -1.264476 0.200164 -0.261005 -0.849319 -2.452581
    15 1.522835 0.058679 0.016850 0.399579 -0.194090 0.723122
    16 1.117947 0.048425 -0.005765 0.084991 -0.025962 0.519542
    17 -0.963867 -2.785142 -0.085346 -0.451987 0.050940 0.036903
    18 0.028478 -1.403067 0.006271 -0.974513 0.000000 0.000000
    19 0.021413 -0.957782 0.020047 -0.887838 0.000000 0.000000
    20 -0.249534 -2.846963 -0.174215 -0.546475 -0.062988 0.103828
    21 0.043234 -1.683940 0.096014 -1.297721 0.000000 0.000000
    22 0.031730 -1.160831 0.058836 -1.100750 0.000000 0.000000
    23 0.447952 -2.798983 -0.200442 -0.670715 -0.054316 0.152261
    24 -0.032910 -1.480206 0.004935 -1.352261 0.000000 0.000000
    25 -0.027023 -1.076921 -0.020212 -1.100378 0.000000 0.000000
    26 1.164475 -2.543939 -0.170327 -0.737287 -0.111116 0.086934
    27 0.024033 -1.129041 0.017806 -0.937025 0.000000 0.000000
    28 0.014896 -0.883992 -0.019845 -0.976252 0.000000 0.000000
    29 -0.098512 -0.129884 0.093273 0.327001 -0.102512 1.605384
    30 0.583509 -1.197274 0.185379 0.103228 -0.958743 -1.256223
    31 1.535926 0.010246 0.005009 -0.151185 -0.039173 -0.283448
    32 1.100770 0.004528 -0.010675 0.414623 0.176402 -0.879139
    33 0.957767 -2.746778 -0.090301 -0.329856 -0.027876 -0.114479
    34 -0.033419 -1.397127 -0.011256 -0.540910 0.000000 0.000000
    35 -0.022362 -0.957433 0.018783 -0.598437 0.000000 0.000000
    36 0.250029 -2.820665 -0.238396 -0.518645 -0.002773 -0.136876
    37 -0.049759 -1.680544 0.100479 -0.634907 0.000000 0.000000
    38 -0.034142 -1.148312 0.084779 -0.561911 0.000000 0.000000
    39 -0.488516 -2.755600 -0.228261 -0.804853 -0.028069 -0.273454
    40 0.039890 -1.479791 0.029853 -0.484068 0.000000 0.000000
    41 0.028785 -1.075733 -0.023110 -1.018040 0.000000 0.000000
    42 -1.180678 -2.507216 -0.193862 -0.977150 0.059884 -0.505505
    43 -0.024968 -1.123934 0.017594 -0.701011 0.000000 0.000000
    44 -0.020058 -0.890965 0.010091 -0.627492 0.000000 0.000000
    45 -0.065144 -0.082743 0.071863 3.116123 0.013716 -1.330111
  time 10
    0 6.652210 6.795672 -6.827461 0.000000 0.000000 0.000000
    1 3.870539 -22.421623 -6.216431 -1.449840 -0.230719 0.066638
    2 -0.071916 -8.498732 -0.104137 -0.104831 0.404682 -0.538069
    3 -6.752516 5.197696 -2.403207 -0.099645 -0.309932 0.801160
    4 -0.000001 -4.696888 1.430524 -1.173814 0.000000 0.000000
    5 -0.685739 -0.124270 2.802592 0.000000 0.000000 0.000000
    6 -0.319964 -11.602977 -0.000001 0.000000 0.000000 0.000000
    7 -0.616010 0.026119 1.874276 0.000000 0.000000 0.000000
    8 0.004610 -2.079478 1.389886 0.000000 0.000000 0.000000
    9 -1.214251 -11.731153 2.798684 0.000000 0.000000 0.000000
    10 0.179881 -7.744529 3.824859 0.000000 0.000000 0.000000
    11 0.095565 -9.629451 5.037418 1.403527 0.031881 4.393045
    12 -2.125922 -11.177714 -3.270341 0.411482 2.521337 -0.704826
    13 0.096947 -8.450419 -0.009364 -0.067436 -0.203267 -0.148876
    14 -0.586769 -1.264476 0.200164 -0.272161 -0.838623 -2.451318
    15 1.522835 0.058679 0.016850 0.412308 -0.188865 0.700866
    16 1.117947 0.048425 -0.005765 0.085099 -0.025902 0.518828
    17 -0.963867 -2.785142 -0.085346 -0.413717 0.050940 0.036903
    18 0.028478 -1.403067 0.006271 -0.970240 0.000000 0.000000
    19 0.021413 -0.957782 0.020047 -0.869683 0.000000 0.000000
    20 -0.249534 -2.846963 -0.174215 -0.525104 -0.062988 0.103828
    21 0.043234 -1.683940 0.096014 -1.283853 0.000000 0.000000
    22 0.031730 -1.160831 0.058836 -1.090622 0.000000 0.000000
    23 0.447952 -2.798983 -0.200442 -0.658035 -0.054316 0.152261
    24 -0.032910 -1.480206 0.004935 -1.333019 0.000000 0.000000
    25 -0.027023 -1.076921 -0.020212 -1.087340 0.000000 0.000000
    26 1.164475 -2.543939 -0.170327 -0.721171 -0.111116 0.086934
    27 0.024033 -1.129041 0.017806 -0.937679 0.000000 0.000000
    28 0.014896 -0.883992 -0.019845 -0.969491 0.000000 0.000000
    29 -0.098512 -0.129884 0.085460 0.328126 -0.095298 1.615079
    30 0.583509 -1.197274 0.185379 0.104502 -1.005831 -1.271305
    31 1.535926 0.010246 0.005009 -0.147853 -0.045417 -0.287646
    32 1.100770 0.004528 -0.010675 0.425541 0.182634 -0.913211
    33 0.957767 -2.746778 -0.090301 -0.246616 -0.020063 -0.082780
    34 -0.033419 -1.397127 -0.011256 -0.670790 0.000000 0.000000
    35 -0.022362 -0.957433 0.018783 -0.838826 0.000000 0.000000
    36 0.250029 -2.820665 -0.238396 -0.322591 0.026193 -0.078655
    37 -0.049759 -1.680544 0.100479 -0.982250 0.000000 0.000000
    38 -0.034142 -1.148312 0.084779 -0.423007 0.000000 0.000000
    39 -0.488516 -2.755600 -0.228261 -0.766802 0.036624 -0.318480
    40 0.039890 -1.479791 0.029853 -0.763792 0.000000 0.000000
    41 0.028785 -1.075733 -0.023110 -0.573524 0.000000 0.000000
    42 -1.180678 -2.507216 -0.193862 -1.087837 0.083518 -0.406177
    43 -0.024968 -1.123934 0.017594 -0.617966 0.000000 0.000000
    44 -0.020058 -0.890965 0.010091 -0.444157 0.000000 0.000000
    45 -0.033893 -0.074930 0.040612 3.100531 -0.037698 -1.352259
  time 11
    0 6.652210 6.795672 -6.827461 0.000000 0.000000 0.000000
    1 4.069764 -22.429435 -5.396093 -1.538223 -0.234049 0.460923
    2 -0.071916 -8.498732 -0.104137 0.072684 0.283615 -0.552127
    3 -6.373598 4.150789 -1.438334 -0.054339 -0.044556 0.753771
    4 -0.000001 -4.696888 1.430524 -1.173814 0.000000 0.000000
    5 -0.685739 -0.124270 2.802592 0.000000 0.000000 0.000000
    6 -0.319964 -11.602977 -0.000001 0.000000 0.000000 0.000000
    7 -0.616010 0.026119 1.874276 0.000000 0.000000 0.000000
    8 0.004610 -2.079478 1.389886 0.000000 0.000000 0.000000
    9 -1.222064 -11.731153 2.759620 0.000000 0.000000 0.000000
    10 0.179881 -7.744529 3.824859 0.000000 0.000000 0.000000
    11 0.103378 -9.606013 5.060856 1.364137 0.070804 4.343845
    12 -2.520465 -11.287092 -3.418783 0.485592 2.485243 -0.608572
    13 0.096947 -8.450419 -0.009364 -0.068696 -0.282718 -0.142616
    14 -0.586769 -1.264476 0.200164 -0.301606 -0.810453 -2.447321
    15 1.522835 0.058679 0.016850 0.422176 -0.175107 0.642215
    16 1.117947 0.048425 -0.005765 0.085374 -0.025674 0.516019
    17 -0.963867 -2.785142 -0.085346 -0.312843 0.050940 0.036903
    18 0.028478 -1.403067 0.006271 -0.958990 0.000000 0.000000
    19 0.021413 -0.957782 0.020047 -0.820471 0.000000 0.000000
    20 -0.249534 -2.846963 -0.174215 -0.468714 -0.062988 0.103828
    21 0.043234 -1.683940 0.096014 -1.247170 0.000000 0.000000
    22 0.031730 -1.160831 0.058836 -1.063848 0.000000 0.000000
    23 0.447952 -2.798983 -0.200442 -0.624488 -0.054316 0.152261
    24 -0.032910 -1.480206 0.004935 -1.282170 0.000000 0.000000
    25 -0.027023 -1.076921 -0.020212 -1.052900 0.000000 0.000000
    26 1.164475 -2.543939 -0.170327 -0.678684 -0.111116 0.086934
    27 0.024033 -1.129041 0.017806 -0.939955 0.000000 0.000000
    28 0.014896 -0.883992 -0.019845 -0.951559 0.000000 0.000000
    29 -0.098512 -0.129884 0.077647 0.329519 -0.087831 1.624523
    30 0.583509 -1.197274 0.185379 0.098046 -1.034233 -1.054231
    31 1.535926 0.010246 0.005009 -0.166609 -0.040588 -0.362001
    32 1.100770 0.004528 -0.010675 0.333248 -0.119725 -0.054921
    33 0.957767 -2.746778 -0.090301 -0.128929 -0.009001 -0.037958
    34 -0.033419 -1.397127 -0.011256 -0.801037 0.000000 0.000000
    35 -0.022362 -0.957433 0.018783 -1.056754 0.000000 0.000000
    36 0.250029 -2.820665 -0.238396 -0.217018 0.041785 -0.047303
    37 -0.049759 -1.680544 0.100479 -1.292648 0.000000 0.000000
    38 -0.034142 -1.148312 0.084779 -0.348189 0.000000 0.000000
    39 -0.488516 -2.755600 -0.228261 -0.746311 0.071463 -0.342294
    40 0.039890 -1.479791 0.029853 -1.029090 0.000000 0.000000
    41 0.028785 -1.075733 -0.023110 -0.334138 0.000000 0.000000
    42 -1.180678 -2.507216 -0.193862 -1.140697 0.096245 -0.352690
    43 -0.024968 -1.123934 0.017594 -0.577565 0.000000 0.000000
    44 -0.020058 -0.890965 0.010091 -0.352704 0.000000 0.000000
    45 0.001265 -0.067117 -0.002358 3.083225 -0.108263 -1.381561
  time 12
    0 6.652210 6.795672 -6.827461 0.000000 0.000000 0.000000
    1 4.276802 -22.452873 -4.524973 -1.583490 -0.243321 0.898658
    2 -0.071916 -8.498732 -0.104137 0.425647 0.219896 -0.582068
    3 -5.725141 3.724995 -1.399270 -0.291441 0.291950 0.656865
    4 -0.000001 -4.696888 1.430524 -1.173814 0.000000 0.000000
    5 -0.685739 -0.124270 2.802592 0.000000 0.000000 0.000000
    6 -0.319964 -11.602977 -0.000001 0.000000 0.000000 0.000000
    7 -0.616010 0.026119 1.874276 0.000000 0.000000 0.000000
    8 0.004610 -2.079478 1.389886 0.000000 0.000000 0.000000
    9 -1.245502 -11.731153 2.716650 0.000000 0.000000 0.000000
    10 0.179881 -7.744529 3.824859 0.000000 0.000000 0.000000
    11 0.130722 -9.547417 5.135077 1.277592 0.143121 4.252515
    12 -3.153297 -11.337875 -3.547693 0.545737 2.461328 -0.485215
    13 0.096947 -8.450419 -0.009364 -0.073690 -0.359420 -0.134173
    14 -0.586769 -1.264476 0.200164 -0.343212 -0.770615 -2.440258
    15 1.522835 0.058679 0.016850 0.429947 -0.155644 0.559305
    16 1.117947 0.048425 -0.005765 0.085782 -0.025183 0.510122
    17 -0.963867 -2.785142 -0.085346 -0.170234 0.050940 0.036903
    18 0.028478 -1.403067 0.006271 -0.943036 0.000000 0.000000
    19 0.021413 -0.957782 0.020047 -0.748118 0.000000 0.000000
    20 -0.249534 -2.846963 -0.174215 -0.388999 -0.062988 0.103828
    21 0.043234 -1.683940 0.096014 -1.195378 0.000000 0.000000
    22 0.031730 -1.160831 0.058836 -1.025965 0.000000 0.000000
    23 0.447952 -2.798983 -0.200442 -0.576984 -0.054316 0.152261
    24 -0.032910 -1.480206 0.004935 -1.210265 0.000000 0.000000
    25 -0.027023 -1.076921 -0.020212 -1.004263 0.000000 0.000000
    26 1.164475 -2.543939 -0.170327 -0.618587 -0.111116 0.086934
    27 0.024033 -1.129041 0.017806 -0.944306 0.000000 0.000000
    28 0.014896 -0.883992 -0.019845 -0.926241 0.000000 0.000000
    29 -0.098512 -0.125978 0.069835 0.331207 -0.080209 1.633463
    30 0.583509 -1.197274 0.185379 -0.126238 -0.860737 -0.863853
    31 1.535926 0.010246 0.005009 -0.180236 -0.046772 -0.457795
    32 1.100770 0.004528 -0.010675 0.278095 -0.049855 -0.324149
    33 0.957767 -2.746778 -0.090301 0.005980 0.003679 0.013420
    34 -0.033419 -1.397127 -0.011256 -0.901349 0.000000 0.000000
    35 -0.022362 -0.957433 0.018783 -1.202202 0.000000 0.000000
    36 0.250029 -2.820665 -0.238396 -0.217018 0.041785 -0.047303
    37 -0.049759 -1.680544 0.100479 -1.483010 0.000000 0.000000
    38 -0.034142 -1.148312 0.084779 -0.477067 0.000000 0.000000
    39 -0.488516 -2.755600 -0.228261 -0.746311 0.071463 -0.342294
    40 0.039890 -1.479791 0.029853 -1.250844 0.000000 0.000000
    41 0.028785 -1.075733 -0.023110 -0.386700 0.000000 0.000000
    42 -1.180678 -2.507216 -0.193862 -1.140697 0.096245 -0.352690
    43 -0.024968 -1.123934 0.017594 -0.572808 0.000000 0.000000
    44 -0.020058 -0.890965 0.010091 -0.360696 0.000000 0.000000
    45 0.032516 -0.059304 -0.045328 3.070857 -0.185551 -1.411942
  time 13
    0 6.652210 6.795672 -6.827461 0.000000 0.000000 0.000000
    1 4.448682 -22.503656 -3.755418 -1.611660 -0.257905 1.372907
    2 -0.071916 -8.498732 -0.104137 0.745466 0.164473 -0.602507
    3 -4.693859 4.381265 -2.051634 -0.640187 0.519127 0.463009
    4 -0.000001 -4.696888 1.430524 -1.173814 0.000000 0.000000
    5 -0.685739 -0.124270 2.802592 0.000000 0.000000 0.000000
    6 -0.319964 -11.602977 -0.000001 0.000000 0.000000 0.000000
    7 -0.616010 0.026119 1.874276 0.000000 0.000000 0.000000
    8 0.004610 -2.079478 1.389886 0.000000 0.000000 0.000000
    9 -1.292378 -11.731153 2.681492 0.000000 0.000000 0.000000
    10 0.179881 -7.744529 3.824859 0.000000 0.000000 0.000000
    11 0.161973 -9.473196 5.236643 1.191815 0.182044 4.203411
    12 -3.954103 -11.333969 -3.653165 0.593266 2.447589 -0.341978
    13 0.096947 -8.450419 -0.009364 -0.079653 -0.408801 -0.125912
    14 -0.586769 -1.264476 0.200164 -0.390898 -0.724943 -2.429768
    15 1.522835 0.058679 0.016850 0.436360 -0.133328 0.464243
    16 1.117947 0.048425 -0.005765 0.086237 -0.024332 0.500115
    17 -0.963867 -2.785142 -0.085346 -0.006738 0.050940 0.036903
    18 0.028478 -1.403067 0.006271 -0.924770 0.000000 0.000000
    19 0.021413 -0.957782 0.020047 -0.660575 0.000000 0.000000
    20 -0.249534 -2.846963 -0.174215 -0.297630 -0.062988 0.103828
    21 0.043234 -1.683940 0.096014 -1.135967 0.000000 0.000000
    22 0.031730 -1.160831 0.058836 -0.982585 0.000000 0.000000
    23 0.447952 -2.798983 -0.200442 -0.522317 -0.054316 0.152261
    24 -0.032910 -1.480206 0.004935 -1.127895 0.000000 0.000000
    25 -0.027023 -1.076921 -0.020212 -0.948456 0.000000 0.000000
    26 1.164475 -2.543939 -0.170327 -0.549728 -0.111116 0.086934
    27 0.024033 -1.129041 0.017806 -0.951104 0.000000 0.000000
    28 0.014896 -0.883992 -0.019845 -0.897211 0.000000 0.000000
    29 -0.098512 -0.125978 0.062022 0.333191 -0.072551 1.641661
    30 0.583509 -1.197274 0.185379 -0.342131 -0.625458 -0.693996
    31 1.535926 0.010246 0.005009 -0.193490 -0.052956 -0.515582
    32 1.100770 0.004528 -0.010675 0.231739 0.020015 -0.593340
    33 0.957767 -2.746778 -0.090301 0.140889 0.016347 0.064798
    34 -0.033419 -1.397127 -0.011256 -0.941517 0.000000 0.000000
    35 -0.022362 -0.957433 0.018783 -1.269250 0.000000 0.000000
    36 0.250029 -2.820665 -0.238396 -0.217018 0.041785 -0.047303
    37 -0.049759 -1.680544 0.100479 -1.564030 0.000000 0.000000
    38 -0.034142 -1.148312 0.084779 -0.605945 0.000000 0.000000
    39 -0.488516 -2.755600 -0.228261 -0.746311 0.071463 -0.342294
    40 0.039890 -1.479791 0.029853 -1.370890 0.000000 0.000000
    41 0.028785 -1.075733 -0.023110 -0.439261 0.000000 0.000000
    42 -1.180678 -2.507216 -0.193862 -1.140697 0.096245 -0.352690
    43 -0.024968 -1.123934 0.017594 -0.569455 0.000000 0.000000
    44 -0.020058 -0.890965 0.010091 -0.380737 0.000000 0.000000
    45 0.048141 -0.055398 -0.080485 3.069131 -0.257195 -1.437193
  time 14
    0 6.652210 6.795672 -6.827461 0.000000 0.000000 0.000000
    1 4.554154 -22.593503 -3.243684 1.511996 -2.869315 -1.444410
    2 -0.071916 -8.498732 -0.104137 0.843533 0.072246 -0.581249
    3 -3.158656 5.830528 -2.946192 -0.700756 0.411809 0.482494
    4 -0.000001 -4.696888 1.430524 -1.173814 0.000000 0.000000
    5 -0.685739 -0.124270 2.802592 0.000000 0.000000 0.000000
    6 -0.319964 -11.602977 -0.000001 0.000000 0.000000 0.000000
    7 -0.616010 0.026119 1.874276 0.000000 0.000000 0.000000
    8 0.004610 -2.079478 1.389886 0.000000 0.000000 0.000000
    9 -1.362693 -11.731153 2.669773 0.000000 0.000000 0.000000
    10 0.179881 -7.744529 3.824859 0.000000 0.000000 0.000000
    11 0.185411 -9.402881 5.357740 1.125589 0.092919 4.572552
    12 -4.876006 -11.283186 -3.735199 0.629845 2.442093 -0.186299
    13 0.096947 -8.450419 -0.009364 -0.086489 -0.406716 -0.117469
    14 -0.586769 -1.264476 0.200164 -0.438608 -0.679285 -2.415521
    15 1.522835 0.058679 0.016850 0.442170 -0.111037 0.369196
    16 1.117947 0.048425 -0.005765 0.086693 -0.023037 0.484976
    17 -0.963867 -2.785142 -0.085346 0.156739 0.050940 0.036903
    18 0.028478 -1.403067 0.006271 -0.906503 0.000000 0.000000
    19 0.021413 -0.957782 0.020047 -0.565722 0.000000 0.000000
    20 -0.249534 -2.846963 -0.174215 -0.206242 -0.062988 0.103828
    21 0.043234 -1.683940 0.096014 -1.076556 0.000000 0.000000
    22 0.031730 -1.160831 0.058836 -0.939166 0.000000 0.000000
    23 0.447952 -2.798983 -0.200442 -0.467341 -0.054316 0.152261
    24 -0.032910 -1.480206 0.004935 -1.045483 0.000000 0.000000
    25 -0.027023 -1.076921 -0.020212 -0.892685 0.000000 0.000000
    26 1.164475 -2.543939 -0.170327 -0.480841 -0.111116 0.086934
    27 0.024033 -1.129041 0.017806 -0.960831 0.000000 0.000000
    28 0.014896 -0.883992 -0.019845 -0.868182 0.000000 0.000000
    29 -0.094606 -0.125978 0.054209 0.335526 -0.064929 1.648888
    30 0.583509 -1.197274 0.185379 -0.303725 -0.518067 -0.523744
    31 1.535926 0.010246 0.005009 -0.210736 -0.021580 -0.383477
    32 1.100770 0.004528 -0.010675 0.177472 0.015185 -0.549831
    33 0.957767 -2.746778 -0.090301 0.258559 0.027408 0.109609
    34 -0.033419 -1.397127 -0.011256 -0.799321 0.000000 0.000000
    35 -0.022362 -0.957433 0.018783 -1.133873 0.000000 0.000000
    36 0.250029 -2.820665 -0.238396 -0.134184 0.050258 -0.030285
    37 -0.049759 -1.680544 0.100479 -1.421306 0.000000 0.000000
    38 -0.034142 -1.148312 0.084779 -0.519123 0.000000 0.000000
    39 -0.488516 -2.755600 -0.228261 -0.640361 0.063805 -0.312680
    40 0.039890 -1.479791 0.029853 -1.226481 0.000000 0.000000
    41 0.028785 -1.075733 -0.023110 -0.421444 0.000000 0.000000
    42 -1.180678 -2.507216 -0.193862 -0.947214 0.103160 -0.323639
    43 -0.024968 -1.123934 0.017594 -0.567311 0.000000 0.000000
    44 -0.020058 -0.890965 0.010091 -0.406779 0.000000 0.000000
    45 0.044235 -0.071023 -0.111736 3.093580 -0.350579 -1.438979
  time 15
    0 6.652210 6.795672 -6.827461 0.000000 0.000000 0.000000
    1 4.565873 -22.726319 -2.950706 1.507998 -2.860583 -1.391150
    2 -0.071916 -8.498732 -0.104137 0.883352 -0.024959 -0.541776
    3 -1.142970 7.506360 -3.567305 -0.648489 -0.029909 0.735153
    4 -0.000001 -4.696888 1.430524 -1.173814 0.000000 0.000000
    5 -0.685739 -0.124270 2.802592 0.000000 0.000000 0.000000
    6 -0.319964 -11.602977 -0.000001 0.000000 0.000000 0.000000
    7 -0.616010 0.026119 1.874276 0.000000 0.000000 0.000000
    8 0.004610 -2.079478 1.389886 0.000000 0.000000 0.000000
    9 -1.436914 -11.731153 2.708837 0.000000 0.000000 0.000000
    10 0.179881 -7.744529 3.824859 0.000000 0.000000 0.000000
    11 0.197131 -9.363818 5.486650 -4.466913 0.421331 -1.427521
    12 -5.852598 -11.189433 -3.789888 0.657061 2.442910 -0.025470
    13 0.096947 -8.450419 -0.009364 -0.095991 -0.353466 -0.107280
    14 -0.586769 -1.264476 0.200164 -0.480214 -0.639447 -2.397187
    15 1.522835 0.058679 0.016850 0.448115 -0.091574 0.286272
    16 1.117947 0.048425 -0.005765 0.087088 -0.021192 0.463736
    17 -0.963867 -2.785142 -0.085346 0.299329 0.050940 0.036903
    18 0.028478 -1.403067 0.006271 -0.890549 0.000000 0.000000
    19 0.021413 -0.957782 0.020047 -0.471475 0.000000 0.000000
    20 -0.249534 -2.846963 -0.174215 -0.126526 -0.062988 0.103828
    21 0.043234 -1.683940 0.096014 -1.024721 0.000000 0.000000
    22 0.031730 -1.160831 0.058836 -0.901322 0.000000 0.000000
    23 0.447952 -2.798983 -0.200442 -0.418908 -0.054316 0.152261
    24 -0.032910 -1.480206 0.004935 -0.973620 0.000000 0.000000
    25 -0.027023 -1.076921 -0.020212 -0.844012 0.000000 0.000000
    26 1.164475 -2.543939 -0.170327 -0.420744 -0.111116 0.086934
    27 0.024033 -1.129041 0.017806 -0.973858 0.000000 0.000000
    28 0.014896 -0.883992 -0.019845 -0.842827 0.000000 0.000000
    29 -0.094606 -0.125978 0.046397 0.338241 -0.057474 1.654892
    30 0.583509 -1.197274 0.185379 -0.227919 -0.446569 -0.366224
    31 1.535926 0.010246 0.005009 -0.228438 0.039290 -0.138133
    32 1.100770 0.004528 -0.010675 0.118999 0.004220 -0.448842
    33 0.957767 -2.746778 -0.090301 0.341799 0.035210 0.141320
    34 -0.033419 -1.397127 -0.011256 -0.535273 0.000000 0.000000
    35 -0.022362 -0.957433 0.018783 -0.836080 0.000000 0.000000
    36 0.250029 -2.820665 -0.238396 0.019652 0.065982 0.001342
    37 -0.049759 -1.680544 0.100479 -1.156324 0.000000 0.000000
    38 -0.034142 -1.148312 0.084779 -0.328110 0.000000 0.000000
    39 -0.488516 -2.755600 -0.228261 -0.443582 0.049076 -0.257539
    40 0.039890 -1.479791 0.029853 -0.956042 0.000000 0.000000
    41 0.028785 -1.075733 -0.023110 -0.382251 0.000000 0.000000
    42 -1.180678 -2.507216 -0.193862 -0.587854 0.115996 -0.269685
    43 -0.024968 -1.123934 0.017594 -0.566177 0.000000 0.000000
    44 -0.020058 -0.890965 0.010091 -0.432844 0.000000 0.000000
    45 0.032516 -0.098368 -0.142987 3.142909 -0.456140 -1.421925
  time 16
    0 6.652210 6.795672 -6.827461 0.000000 0.000000 0.000000
    1 4.511184 -22.909919 -2.728043 1.518147 -2.854192 -1.527103
    2 -0.071916 -8.498732 -0.104137 0.890861 -0.070027 -0.520518
    3 -0.045280 9.369698 -2.727435 -0.850410 -0.671041 1.249107
    4 -0.000001 -4.696888 1.430524 -1.173814 0.000000 0.000000
    5 -0.685739 -0.124270 2.802592 0.000000 0.000000 0.000000
    6 -0.319964 -11.602977 -0.000001 0.000000 0.000000 0.000000
    7 -0.616010 0.026119 1.874276 0.000000 0.000000 0.000000
    8 0.004610 -2.079478 1.389886 0.000000 0.000000 0.000000
    9 -1.479884 -11.735059 2.790871 0.000000 0.000000 0.000000
    10 0.179881 -7.744529 3.824859 0.000000 0.000000 0.000000
    11 0.169786 -9.352099 5.658531 1.487388 0.376953 4.547905
    12 -6.825284 -11.064429 -3.813326 0.676421 2.447886 0.133285
    13 0.096947 -8.450419 -0.009364 -0.107820 -0.261020 -0.095780
    14 -0.586769 -1.264476 0.200164 -0.509659 -0.611277 -2.374404
    15 1.522835 0.058679 0.016850 0.454961 -0.077804 0.227620
    16 1.117947 0.048425 -0.005765 0.087376 -0.018711 0.435347
    17 -0.963867 -2.785142 -0.085346 0.400222 0.050940 0.036903
    18 0.028478 -1.403067 0.006271 -0.879260 0.000000 0.000000
    19 0.021413 -0.957782 0.020047 -0.385817 0.000000 0.000000
    20 -0.249534 -2.846963 -0.174215 -0.070156 -0.062988 0.103828
    21 0.043234 -1.683940 0.096014 -0.988081 0.000000 0.000000
    22 0.031730 -1.160831 0.058836 -0.874549 0.000000 0.000000
    23 0.447952 -2.798983 -0.200442 -0.383870 -0.054316 0.152261
    24 -0.032910 -1.480206 0.004935 -0.922772 0.000000 0.000000
    25 -0.027023 -1.076921 -0.020212 -0.809572 0.000000 0.000000
    26 1.164475 -2.543939 -0.170327 -0.378257 -0.111116 0.086934
    27 0.024033 -1.129041 0.017806 -0.990667 0.000000 0.000000
    28 0.014896 -0.883992 -0.019845 -0.824932 0.000000 0.000000
    29 -0.094606 -0.125978 0.038584 0.341364 -0.050272 1.659434
    30 0.583509 -1.197274 0.185379 -0.173783 -0.416213 -0.296944
    31 1.535926 0.010246 0.005009 -0.238936 0.079702 -0.006010
    32 1.100770 0.004528 -0.010675 0.071720 -0.007621 -0.334627
    33 0.957767 -2.746778 -0.090301 0.373386 0.038183 0.153341
    34 -0.033419 -1.397127 -0.011256 -0.393077 0.000000 0.000000
    35 -0.022362 -0.957433 0.018783 -0.538256 0.000000 0.000000
    36 0.250029 -2.820665 -0.238396 0.102486 0.074455 0.018384
    37 -0.049759 -1.680544 0.100479 -1.013638 0.000000 0.000000
    38 -0.034142 -1.148312 0.084779 -0.137096 0.000000 0.000000
    39 -0.488516 -2.755600 -0.228261 -0.337646 0.039692 -0.227457
    40 0.039890 -1.479791 0.029853 -0.803730 0.000000 0.000000
    41 0.028785 -1.075733 -0.023110 -0.343058 0.000000 0.000000
    42 -1.180678 -2.507216 -0.193862 -0.394371 0.122899 -0.240634
    43 -0.024968 -1.123934 0.017594 -0.565857 0.000000 0.000000
    44 -0.020058 -0.890965 0.010091 -0.452885 0.000000 0.000000
    45 0.020797 -0.110087 -0.154706 3.190787 -0.506511 -1.410384
  time 17
    0 6.652210 6.795672 -6.827461 0.000000 0.000000 0.000000
    1 4.405712 -23.128675 -2.603039 -1.610491 -0.297244 1.406914
    2 -0.071916 -8.498732 -0.104137 0.748424 0.005806 -0.551834
    3 -1.978933 10.494732 0.655480 1.022128 -2.178281 -0.329685
    4 -0.000001 -4.696888 1.430524 -1.173814 0.000000 0.000000
    5 -0.685739 -0.124270 2.802592 0.000000 0.000000 0.000000
    6 -0.319964 -11.602977 -0.000001 0.000000 0.000000 0.000000
    7 -0.616010 0.026119 1.874276 0.000000 0.000000 0.000000
    8 0.004610 -2.079478 1.389886 0.000000 0.000000 0.000000
    9 -1.456446 -11.731153 2.872905 0.000000 0.000000 0.000000
    10 0.179881 -7.744529 3.824859 0.000000 0.000000 0.000000
    11 0.111190 -9.348192 5.881194 1.141115 0.348498 4.557936
    12 -7.739374 -10.912081 -3.809420 0.689593 2.455164 0.282457
    13 0.096947 -8.450419 -0.009364 -0.121733 -0.141404 -0.083406
    14 -0.586769 -1.264476 0.200164 -0.520815 -0.600581 -2.346872
    15 1.522835 0.058679 0.016850 0.463435 -0.072578 0.205365
    16 1.117947 0.048425 -0.005765 0.087484 -0.015511 0.398840
    17 -0.963867 -2.785142 -0.085346 0.438473 0.050940 0.036903
    18 0.028478 -1.403067 0.006271 -0.874987 0.000000 0.000000
    19 0.021413 -0.957782 0.020047 -0.316598 0.000000 0.000000
    20 -0.249534 -2.846963 -0.174215 -0.048766 -0.062988 0.103828
    21 0.043234 -1.683940 0.096014 -0.974170 0.000000 0.000000
    22 0.031730 -1.160831 0.058836 -0.864381 0.000000 0.000000
    23 0.447952 -2.798983 -0.200442 -0.369061 -0.054316 0.152261
    24 -0.032910 -1.480206 0.004935 -0.903487 0.000000 0.000000
    25 -0.027023 -1.076921 -0.020212 -0.796534 0.000000 0.000000
    26 1.164475 -2.543939 -0.170327 -0.362141 -0.111116 0.086934
    27 0.024033 -1.129041 0.017806 -1.011629 0.000000 0.000000
    28 0.014896 -0.883992 -0.019845 -0.818134 0.000000 0.000000
    29 -0.094606 -0.125978 0.034677 0.344909 -0.043416 1.662274
    30 0.583509 -1.197274 0.185379 -0.150017 -0.408433 -0.303302
    31 1.535926 0.010246 0.005009 -0.243071 0.092825 -0.009760
    32 1.100770 0.004528 -0.010675 0.050999 -0.015076 -0.251510
    33 0.957767 -2.746778 -0.090301 0.370349 0.038099 0.152621
    34 -0.033419 -1.397127 -0.011256 -0.407079 0.000000 0.000000
    35 -0.022362 -0.957433 0.018783 -0.402878 0.000000 0.000000
    36 0.250029 -2.820665 -0.238396 0.099312 0.074192 0.017510
    37 -0.049759 -1.680544 0.100479 -1.024025 0.000000 0.000000
    38 -0.034142 -1.148312 0.084779 -0.050274 0.000000 0.000000
    39 -0.488516 -2.755600 -0.228261 -0.338027 0.037235 -0.226774
    40 0.039890 -1.479791 0.029853 -0.792528 0.000000 0.000000
    41 0.028785 -1.075733 -0.023110 -0.325241 0.000000 0.000000
    42 -1.180678 -2.507216 -0.193862 -0.411668 0.121461 -0.243810
    43 -0.024968 -1.123934 0.017594 -0.596866 0.000000 0.000000
    44 -0.020058 -0.890965 0.010091 -0.460878 0.000000 0.000000
    45 -0.002642 -0.106181 -0.142987 3.231391 -0.485106 -1.400628
  time 18
    0 6.652210 6.795672 -6.827461 0.000000 0.000000 0.000000
    1 4.280708 -23.370870 -2.583507 -1.606432 -0.316868 1.245290
    2 -0.071916 -8.498732 -0.104137 0.435090 0.181332 -0.620753
    3 -5.666545 8.647020 4.460284 0.257812 -3.169417 0.562389
    4 -0.000001 -4.696888 1.430524 -1.173814 0.000000 0.000000
    5 -0.685739 -0.124270 2.802592 0.000000 0.000000 0.000000
    6 -0.319964 -11.602977 -0.000001 0.000000 0.000000 0.000000
    7 -0.616010 0.026119 1.874276 0.000000 0.000000 0.000000
    8 0.004610 -2.079478 1.389886 0.000000 0.000000 0.000000
    9 -1.370506 -11.731153 2.931500 0.000000 0.000000 0.000000
    10 0.179881 -7.744529 3.824859 0.000000 0.000000 0.000000
    11 0.044782 -9.348192 6.072606 1.186735 0.492985 -1.405931
    12 -8.532367 -10.736294 -3.766450 0.697924 2.462739 0.414824
    13 0.096947 -8.450419 -0.009364 -0.137392 -0.006678 -0.070524
    14 -0.586769 -1.264476 0.200164 -0.519259 -0.608418 -2.298000
    15 1.522835 0.058679 0.016850 0.475806 -0.089237 0.216853
    16 1.117947 0.048425 -0.005765 0.087364 -0.009435 0.329911
    17 -0.963867 -2.785142 -0.085346 0.354866 0.050940 0.036903
    18 0.028478 -1.403067 0.006271 -0.902662 0.000000 0.000000
    19 0.021413 -0.957782 0.020047 -0.259807 0.000000 0.000000
    20 -0.249534 -2.846963 -0.174215 -0.082216 -0.060256 0.096469
    21 0.043234 -1.683940 0.096014 -1.012008 0.000000 0.000000
    22 0.031730 -1.160831 0.058836 -0.879691 0.000000 0.000000
    23 0.447952 -2.798983 -0.200442 -0.367435 -0.054316 0.152261
    24 -0.032910 -1.480206 0.004935 -0.974633 0.000000 0.000000
    25 -0.027023 -1.076921 -0.020212 -0.925684 0.000000 0.000000
    26 1.164475 -2.543939 -0.170327 -0.370931 -0.131550 0.087126
    27 0.024033 -1.129041 0.017806 -1.103867 0.000000 0.000000
    28 0.014896 -0.883992 -0.019845 -0.868844 0.000000 0.000000
    29 -0.090699 -0.125978 0.026865 0.357162 -0.032522 1.650589
    30 0.583509 -1.197274 0.185379 -0.126177 -0.401230 -0.321094
    31 1.535926 0.010246 0.005009 -0.246834 0.105049 -0.020228
    32 1.100770 0.004528 -0.010675 0.048746 -0.018479 -0.197151
    33 0.957767 -2.746778 -0.090301 0.361834 0.037859 0.150608
    34 -0.033419 -1.397127 -0.011256 -0.446327 0.000000 0.000000
    35 -0.022362 -0.957433 0.018783 -0.417985 0.000000 0.000000
    36 0.250029 -2.820665 -0.238396 0.090433 0.073437 0.015077
    37 -0.049759 -1.680544 0.100479 -1.053114 0.000000 0.000000
    38 -0.034142 -1.148312 0.084779 -0.065205 0.000000 0.000000
    39 -0.488516 -2.755600 -0.228261 -0.339084 0.035042 -0.226115
    40 0.039890 -1.479791 0.029853 -0.782668 0.000000 0.000000
    41 0.028785 -1.075733 -0.023110 -0.327532 0.000000 0.000000
    42 -1.180678 -2.507216 -0.193862 -0.458023 0.117494 -0.252571
    43 -0.024968 -1.123934 0.017594 -0.680034 0.000000 0.000000
    44 -0.020058 -0.890965 0.010091 -0.460167 0.000000 0.000000
    45 -0.026080 -0.102274 -0.111736 3.275722 -0.433237 -1.380566
  time 19
    0 6.652210 6.795672 -6.827461 0.000000 0.000000 0.000000
    1 4.151798 -23.620878 -2.688979 -1.632387 -0.355847 1.167834
    2 -0.071916 -8.498732 -0.104137 0.121756 0.378630 -0.689656
    3 -8.256468 5.807089 5.284528 -0.230760 1.939727 0.357771
    4 -0.000001 -4.696888 1.430524 -1.173814 0.000000 0.000000
    5 -0.685739 -0.124270 2.802592 0.000000 0.000000 0.000000
    6 -0.319964 -11.602977 -0.000001 0.000000 0.000000 0.000000
    7 -0.616010 0.026119 1.874276 0.000000 0.000000 0.000000
    8 0.004610 -2.079478 1.389886 0.000000 0.000000 0.000000
    9 -1.268940 -11.738965 2.908062 0.000000 0.000000 0.000000
    10 0.179881 -7.744529 3.824859 0.000000 0.000000 0.000000
    11 -0.002094 -9.336473 6.154639 0.729479 0.458485 -1.411089
    12 -9.149574 -10.548789 -3.692229 0.703241 2.468607 0.523020
    13 0.096947 -8.450419 -0.009364 -0.154506 0.131161 -0.057605
    14 -0.586769 -1.264476 0.200164 -0.514830 -0.627082 -2.224993
    15 1.522835 0.058679 0.016850 0.491520 -0.128942 0.246305
    16 1.117947 0.048425 -0.005765 0.087088 -0.000135 0.224731
    17 -0.963867 -2.785142 -0.085346 0.155500 0.050940 0.036903
    18 0.028478 -1.403067 0.006271 -0.968672 0.000000 0.000000
    19 0.021413 -0.957782 0.020047 -0.208709 0.000000 0.000000
    20 -0.249534 -2.846963 -0.174215 -0.161970 -0.053736 0.078900
    21 0.043234 -1.683940 0.096014 -1.102195 0.000000 0.000000
    22 0.031730 -1.160831 0.058836 -0.917339 0.000000 0.000000
    23 0.447952 -2.798983 -0.200442 -0.366874 -0.054316 0.152261
    24 -0.032910 -1.480206 0.004935 -1.144310 0.000000 0.000000
    25 -0.027023 -1.076921 -0.020212 -1.233604 0.000000 0.000000
    26 1.164475 -2.543939 -0.170327 -0.391873 -0.180303 0.087581
    27 0.024033 -1.129041 0.017806 -1.290276 0.000000 0.000000
    28 0.014896 -0.883992 -0.019845 -0.989775 0.000000 0.000000
    29 -0.082887 -0.129884 0.022958 0.380698 -0.016116 1.619969
    30 0.583509 -1.197274 0.185379 -0.102521 -0.394624 -0.348432
    31 1.535926 0.010246 0.005009 -0.250250 0.116363 -0.036312
    32 1.100770 0.004528 -0.010675 0.046672 -0.021679 -0.140489
    33 0.957767 -2.746778 -0.090301 0.348772 0.037499 0.147504
    34 -0.033419 -1.397127 -0.011256 -0.506564 0.000000 0.000000
    35 -0.022362 -0.957433 0.018783 -0.459977 0.000000 0.000000
    36 0.250029 -2.820665 -0.238396 0.076776 0.072286 0.011349
    37 -0.049759 -1.680544 0.100479 -1.097763 0.000000 0.000000
    38 -0.034142 -1.148312 0.084779 -0.106855 0.000000 0.000000
    39 -0.488516 -2.755600 -0.228261 -0.340704 0.033077 -0.225480
    40 0.039890 -1.479791 0.029853 -0.774112 0.000000 0.000000
    41 0.028785 -1.075733 -0.023110 -0.334961 0.000000 0.000000
    42 -1.180678 -2.507216 -0.193862 -0.525169 0.111538 -0.265730
    43 -0.024968 -1.123934 0.017594 -0.800423 0.000000 0.000000
    44 -0.020058 -0.890965 0.010091 -0.458198 0.000000 0.000000
    45 -0.053424 -0.090555 -0.080485 3.317872 -0.370977 -1.358347
  time 20
    0 6.652210 6.795672 -6.827461 0.000000 0.000000 0.000000
    1 4.046326 -23.866979 -2.938987 -1.676178 -0.408329 1.109411
    2 -0.071916 -8.498732 -0.104137 -0.020662 0.519808 -0.720972
    3 -8.897113 4.943782 4.753262 0.682763 1.070460 1.292330
    4 -0.000001 -4.696888 1.430524 -1.173814 0.000000 0.000000
    5 -0.685739 -0.124270 2.802592 0.000000 0.000000 0.000000
    6 -0.319964 -11.602977 -0.000001 0.000000 0.000000 0.000000
    7 -0.616010 0.026119 1.874276 0.000000 0.000000 0.000000
    8 0.004610 -2.079478 1.389886 0.000000 0.000000 0.000000
    9 -1.225970 -11.746778 2.857279 0.000000 0.000000 0.000000
    10 0.179881 -7.744529 3.824859 0.000000 0.000000 0.000000
    11 -0.033345 -9.160686 6.111669 0.899117 0.574295 -1.481307
    12 -9.532398 -10.349564 -3.575038 0.706970 2.470760 0.599680
    13 0.096947 -8.450419 -0.009364 -0.172879 0.260145 -0.045013
    14 -0.586769 -1.264476 0.200164 -0.507816 -0.649345 -2.147898
    15 1.522835 0.058679 0.016850 0.507062 -0.176317 0.286187
    16 1.117947 0.048425 -0.005765 0.086764 0.009764 0.112862
    17 -0.963867 -2.785142 -0.085346 -0.082466 0.050940 0.036903
    18 0.028478 -1.403067 0.006271 -1.047423 0.000000 0.000000
    19 0.021413 -0.957782 0.020047 -0.167345 0.000000 0.000000
    20 -0.249534 -2.846963 -0.174215 -0.257172 -0.045946 0.057939
    21 0.043234 -1.683940 0.096014 -1.209846 0.000000 0.000000
    22 0.031730 -1.160831 0.058836 -0.964841 0.000000 0.000000
    23 0.447952 -2.798983 -0.200442 -0.366700 -0.054316 0.152261
    24 -0.032910 -1.480206 0.004935 -1.346817 0.000000 0.000000
    25 -0.027023 -1.076921 -0.020212 -1.601197 0.000000 0.000000
    26 1.164475 -2.543939 -0.170327 -0.416866 -0.238500 0.088132
    27 0.024033 -1.129041 0.017806 -1.504958 0.000000 0.000000
    28 0.014896 -0.883992 -0.019845 -1.134113 0.000000 0.000000
    29 -0.071167 -0.129884 0.022958 0.407160 0.001310 1.582841
    30 0.583509 -1.197274 0.185379 -0.079380 -0.388573 -0.383392
    31 1.535926 0.010246 0.005009 -0.253318 0.126765 -0.056874
    32 1.100770 0.004528 -0.010675 0.044755 -0.024639 -0.082638
    33 0.957767 -2.746778 -0.090301 0.332063 0.037032 0.143549
    34 -0.033419 -1.397127 -0.011256 -0.583621 0.000000 0.000000
    35 -0.022362 -0.957433 0.018783 -0.524004 0.000000 0.000000
    36 0.250029 -2.820665 -0.238396 0.059338 0.070812 0.006568
    37 -0.049759 -1.680544 0.100479 -1.154906 0.000000 0.000000
    38 -0.034142 -1.148312 0.084779 -0.170291 0.000000 0.000000
    39 -0.488516 -2.755600 -0.228261 -0.342790 0.031351 -0.224869
    40 0.039890 -1.479791 0.029853 -0.766861 0.000000 0.000000
    41 0.028785 -1.075733 -0.023110 -0.348441 0.000000 0.000000
    42 -1.180678 -2.507216 -0.193862 -0.604778 0.104131 -0.282077
    43 -0.024968 -1.123934 0.017594 -0.943144 0.000000 0.000000
    44 -0.020058 -0.890965 0.010091 -0.455257 0.000000 0.000000
    45 -0.072956 -0.082743 -0.053140 3.350014 -0.318652 -1.340741
  time 21
    0 6.652210 6.795672 -6.827461 0.000000 0.000000 0.000000
    1 3.983824 -24.101361 -3.349156 -1.699243 -0.456941 1.033209
    2 -0.071916 -8.498732 -0.104137 0.062502 0.595740 -0.680047
    3 -8.483037 5.943812 4.194651 0.541597 0.800873 1.061284
    4 -0.000001 -4.696888 1.430524 -1.173814 0.000000 0.000000
    5 -0.685739 -0.124270 2.802592 0.000000 0.000000 0.000000
    6 -0.319964 -11.602977 -0.000001 0.000000 0.000000 0.000000
    7 -0.616010 0.026119 1.874276 0.000000 0.000000 0.000000
    8 0.004610 -2.079478 1.389886 0.000000 0.000000 0.000000
    9 -1.218157 -11.750684 2.829934 0.000000 0.000000 0.000000
    10 0.179881 -7.744529 3.824859 0.000000 0.000000 0.000000
    11 -0.056783 -8.746611 6.006197 1.068755 0.690180 -1.550664
    12 -9.688653 -10.099556 -3.383626 0.702606 2.472691 0.646735
    13 0.096947 -8.450419 -0.009364 -0.192126 0.368186 -0.033186
    14 -0.586769 -1.264476 0.200164 -0.498599 -0.668008 -2.086883
    15 1.522835 0.058679 0.016850 0.518952 -0.216022 0.328990
    16 1.117947 0.048425 -0.005765 0.086489 0.017626 0.023944
    17 -0.963867 -2.785142 -0.085346 -0.281851 0.050940 0.036903
    18 0.028478 -1.403067 0.006271 -1.113433 0.000000 0.000000
    19 0.021413 -0.957782 0.020047 -0.139590 0.000000 0.000000
    20 -0.249534 -2.846963 -0.174215 -0.336926 -0.039414 0.040382
    21 0.043234 -1.683940 0.096014 -1.299990 0.000000 0.000000
    22 0.031730 -1.160831 0.058836 -1.009751 0.000000 0.000000
    23 0.447952 -2.798983 -0.200442 -0.366138 -0.054316 0.152261
    24 -0.032910 -1.480206 0.004935 -1.516453 0.000000 0.000000
    25 -0.027023 -1.076921 -0.020212 -1.909187 0.000000 0.000000
    26 1.164475 -2.543939 -0.170327 -0.437808 -0.287254 0.088588
    27 0.024033 -1.129041 0.017806 -1.682038 0.000000 0.000000
    28 0.014896 -0.883992 -0.019845 -1.255080 0.000000 0.000000
    29 -0.063355 -0.133790 0.019052 0.428571 0.015176 1.551525
    30 0.583509 -1.197274 0.185379 -0.057035 -0.383098 -0.424070
    31 1.535926 0.010246 0.005009 -0.256038 0.136245 -0.080813
    32 1.100770 0.004528 -0.010675 0.043005 -0.027372 -0.024787
    33 0.957767 -2.746778 -0.090301 0.312639 0.036505 0.138947
    34 -0.033419 -1.397127 -0.011256 -0.673302 0.000000 0.000000
    35 -0.022362 -0.957433 0.018783 -0.605151 0.000000 0.000000
    36 0.250029 -2.820665 -0.238396 0.039031 0.069098 0.001019
    37 -0.049759 -1.680544 0.100479 -1.221362 0.000000 0.000000
    38 -0.034142 -1.148312 0.084779 -0.250718 0.000000 0.000000
    39 -0.488516 -2.755600 -0.228261 -0.345200 0.029853 -0.224306
    40 0.039890 -1.479791 0.029853 -0.760953 0.000000 0.000000
    41 0.028785 -1.075733 -0.023110 -0.368838 0.000000 0.000000
    42 -1.180678 -2.507216 -0.193862 -0.688519 0.095814 -0.300449
    43 -0.024968 -1.123934 0.017594 -1.093310 0.000000 0.000000
    44 -0.020058 -0.890965 0.010091 -0.451605 0.000000 0.000000
    45 -0.080769 -0.074930 -0.041421 3.362850 -0.296661 -1.333575
  time 22
    0 6.652210 6.795672 -6.827461 0.000000 0.000000 0.000000
    1 3.987730 -24.308399 -3.942924 -1.663201 -0.484307 0.902199
    2 -0.071916 -8.498732 -0.104137 0.260798 0.650897 -0.580338
    3 -7.791610 7.424326 3.475879 0.480358 0.663877 0.855190
    4 -0.000001 -4.732045 1.289895 -0.990370 0.000000 0.000000
    5 -0.685739 -0.124270 2.802592 0.000000 0.000000 0.000000
    6 -0.319964 -11.602977 -0.000001 0.000000 0.000000 0.000000
    7 -0.616010 0.026119 1.874276 0.000000 0.000000 0.000000
    8 0.004610 -2.079478 1.389886 0.000000 0.000000 0.000000
    9 -1.214251 -11.746778 2.814309 0.000000 0.000000 0.000000
    10 0.179881 -7.744529 3.824859 0.000000 0.000000 0.000000
    11 -0.076315 -8.211439 5.853849 1.041920 0.646391 -1.558115
    12 -9.688653 -9.755796 -3.094554 0.685070 2.478410 0.673265
    13 0.096947 -8.450419 -0.009364 -0.212051 0.443346 -0.022595
    14 -0.586769 -1.264476 0.200164 -0.487492 -0.675845 -2.062057
    15 1.522835 0.058679 0.016850 0.523688 -0.232681 0.367192
    16 1.117947 0.048425 -0.005765 0.086369 0.020850 -0.012460
    17 -0.963867 -2.785142 -0.085346 -0.365458 0.050940 0.036903
    18 0.028478 -1.403067 0.006271 -1.141147 0.000000 0.000000
    19 0.021413 -0.957782 0.020047 -0.129451 0.000000 0.000000
    20 -0.249534 -2.846963 -0.174215 -0.370377 -0.036682 0.033011
    21 0.043234 -1.683940 0.096014 -1.337828 0.000000 0.000000
    22 0.031730 -1.160831 0.058836 -1.039626 0.000000 0.000000
    23 0.447952 -2.798983 -0.200442 -0.364512 -0.054316 0.152261
    24 -0.032910 -1.480206 0.004935 -1.587598 0.000000 0.000000
    25 -0.027023 -1.076921 -0.020212 -2.038337 0.000000 0.000000
    26 1.164475 -2.543939 -0.170327 -0.446598 -0.307687 0.088780
    27 0.024033 -1.129041 0.017806 -1.755732 0.000000 0.000000
    28 0.014896 -0.883992 -0.019845 -1.305790 0.000000 0.000000
    29 -0.059448 -0.133790 0.019052 0.437363 0.020821 1.538354
    30 0.583509 -1.197274 0.185379 -0.035780 -0.378221 -0.468559
    31 1.535926 0.010246 0.005009 -0.258447 0.144766 -0.106991
    32 1.100770 0.004528 -0.010675 0.041435 -0.029865 0.031875
    33 0.957767 -2.746778 -0.090301 0.291367 0.035906 0.133902
    34 -0.033419 -1.397127 -0.011256 -0.771378 0.000000 0.000000
    35 -0.022362 -0.957433 0.018783 -0.698566 0.000000 0.000000
    36 0.250029 -2.820665 -0.238396 0.016816 0.067217 -0.005069
    37 -0.049759 -1.680544 0.100479 -1.294066 0.000000 0.000000
    38 -0.034142 -1.148312 0.084779 -0.343257 0.000000 0.000000
    39 -0.488516 -2.755600 -0.228261 -0.347849 0.028546 -0.223778
    40 0.039890 -1.479791 0.029853 -0.756349 0.000000 0.000000
    41 0.028785 -1.075733 -0.023110 -0.396976 0.000000 0.000000
    42 -1.180678 -2.507216 -0.193862 -0.768127 0.087113 -0.319660
    43 -0.024968 -1.123934 0.017594 -1.236056 0.000000 0.000000
    44 -0.020058 -0.890965 0.010091 -0.447549 0.000000 0.000000
    45 -0.076863 -0.071023 -0.041421 3.353334 -0.295942 -1.340933
  time 23
    0 6.652210 6.795672 -6.827461 0.000000 0.000000 0.000000
    1 4.007262 -24.562313 -4.892172 -1.551692 -0.492949 0.707011
    2 -0.071916 -8.498732 -0.104137 0.497472 0.687436 -0.456466
    3 -7.135340 8.545454 2.702418 0.395665 0.554357 0.672618
    4 -0.000001 -4.810173 0.977385 -0.586907 0.000000 0.000000
    5 -0.685739 -0.124270 2.802592 0.000000 0.000000 0.000000
    6 -0.319964 -11.602977 -0.000001 0.000000 0.000000 0.000000
    7 -0.616010 0.026119 1.874276 0.000000 0.000000 0.000000
    8 0.004610 -2.079478 1.389886 0.000000 0.000000 0.000000
    9 -1.214251 -11.738965 2.814309 0.000000 0.000000 0.000000
    10 0.179881 -7.744529 3.824859 0.000000 0.000000 0.000000
    11 -0.091941 -7.680173 5.685875 1.015180 0.545767 -1.559644
    12 -9.567555 -9.353440 -2.735168 0.657378 2.487025 0.683062
    13 0.096947 -8.450419 -0.009364 -0.232267 0.473537 -0.013570
    14 -0.586769 -1.264476 0.200164 -0.473104 -0.662856 -2.072126
    15 1.522835 0.058679 0.016850 0.510577 -0.228222 0.404449
    16 1.117947 0.048425 -0.005765 0.086369 0.020874 -0.012690
    17 -0.963867 -2.785142 -0.085346 -0.341918 0.050940 0.036903
    18 0.028478 -1.403067 0.006271 -1.133973 0.000000 0.000000
    19 0.021413 -0.957782 0.020047 -0.162057 0.000000 0.000000
    20 -0.249534 -2.846963 -0.174215 -0.350690 -0.037808 0.036055
    21 0.043234 -1.683940 0.096014 -1.336073 0.000000 0.000000
    22 0.031730 -1.160831 0.058836 -1.056193 0.000000 0.000000
    23 0.447952 -2.798983 -0.200442 -0.348561 -0.054316 0.152261
    24 -0.032910 -1.480206 0.004935 -1.577471 0.000000 0.000000
    25 -0.027023 -1.076921 -0.020212 -1.998028 0.000000 0.000000
    26 1.164475 -2.543939 -0.170327 -0.431833 -0.299250 0.088696
    27 0.024033 -1.129041 0.017806 -1.720549 0.000000 0.000000
    28 0.014896 -0.883992 -0.019845 -1.291643 0.000000 0.000000
    29 -0.063355 -0.133790 0.026865 0.432355 0.013906 1.538713
    30 0.583509 -1.197274 0.185379 -0.015922 -0.373899 -0.514954
    31 1.535926 0.010246 0.005009 -0.260520 0.152340 -0.134308
    32 1.100770 0.004528 -0.010675 0.040033 -0.032094 0.086233
    33 0.957767 -2.746778 -0.090301 0.269195 0.035294 0.128652
    34 -0.033419 -1.397127 -0.011256 -0.873652 0.000000 0.000000
    35 -0.022362 -0.957433 0.018783 -0.799275 0.000000 0.000000
    36 0.250029 -2.820665 -0.238396 -0.006345 0.065251 -0.011397
    37 -0.049759 -1.680544 0.100479 -1.369873 0.000000 0.000000
    38 -0.034142 -1.148312 0.084779 -0.443086 0.000000 0.000000
    39 -0.488516 -2.755600 -0.228261 -0.350612 0.027444 -0.223299
    40 0.039890 -1.479791 0.029853 -0.753088 0.000000 0.000000
    41 0.028785 -1.075733 -0.023110 -0.433789 0.000000 0.000000
    42 -1.180678 -2.507216 -0.193862 -0.835252 0.078580 -0.338500
    43 -0.024968 -1.123934 0.017594 -1.356445 0.000000 0.000000
    44 -0.020058 -0.890965 0.010091 -0.443351 0.000000 0.000000
    45 -0.061237 -0.067117 -0.045328 3.327747 -0.294024 -1.360636
  time 24
    0 6.652210 6.795672 -6.827461 0.000000 0.000000 0.000000
    1 4.054139 -24.816227 -5.993768 -1.393870 -0.486107 0.469407
    2 -0.071916 -8.498732 -0.104137 0.695788 0.707747 -0.343007
    3 -7.092370 9.057189 2.303968 0.316185 0.435647 0.596976
    4 -0.000001 -4.884394 0.668782 -0.183373 0.000000 0.000000
    5 -0.685739 -0.124270 2.802592 0.000000 0.000000 0.000000
    6 -0.319964 -11.602977 -0.000001 0.000000 0.000000 0.000000
    7 -0.616010 0.026119 1.874276 0.000000 0.000000 0.000000
    8 0.004610 -2.079478 1.389886 0.000000 0.000000 0.000000
    9 -1.214251 -11.735059 2.814309 0.000000 0.000000 0.000000
    10 0.179881 -7.744529 3.824859 0.000000 0.000000 0.000000
    11 -0.103660 -7.273910 5.529620 1.122522 0.386979 -1.546078
    12 -9.352705 -8.915926 -2.336719 0.622862 2.497571 0.679630
    13 0.096947 -8.450419 -0.009364 -0.252580 0.446792 -0.006619
    14 -0.586769 -1.264476 0.200164 -0.454983 -0.628635 -2.098636
    15 1.522835 0.058679 0.016850 0.476028 -0.216465 0.447294
    16 1.117947 0.048425 -0.005765 0.086357 0.020886 -0.012894
    17 -0.963867 -2.785142 -0.085346 -0.279857 0.050940 0.036903
    18 0.028478 -1.403067 0.006271 -1.115080 0.000000 0.000000
    19 0.021413 -0.957782 0.020047 -0.247950 0.000000 0.000000
    20 -0.249534 -2.846963 -0.174215 -0.298791 -0.040793 0.044073
    21 0.043234 -1.683940 0.096014 -1.331536 0.000000 0.000000
    22 0.031730 -1.160831 0.058836 -1.069658 0.000000 0.000000
    23 0.447952 -2.798983 -0.200442 -0.310523 -0.054316 0.152261
    24 -0.032910 -1.480206 0.004935 -1.550802 0.000000 0.000000
    25 -0.027023 -1.076921 -0.020212 -1.891792 0.000000 0.000000
    26 1.164475 -2.543939 -0.170327 -0.392907 -0.276983 0.088492
    27 0.024033 -1.129041 0.017806 -1.627799 0.000000 0.000000
    28 0.014896 -0.883992 -0.019845 -1.254309 0.000000 0.000000
    29 -0.067261 -0.133790 0.038584 0.419188 -0.004347 1.539672
    30 0.583509 -1.197274 0.185379 0.002258 -0.370174 -0.561366
    31 1.535926 0.010246 0.005009 -0.262294 0.158944 -0.161606
    32 1.100770 0.004528 -0.010675 0.038811 -0.034059 0.137136
    33 0.957767 -2.746778 -0.090301 0.247024 0.034683 0.123391
    34 -0.033419 -1.397127 -0.011256 -0.975925 0.000000 0.000000
    35 -0.022362 -0.957433 0.018783 -0.902456 0.000000 0.000000
    36 0.250029 -2.820665 -0.238396 -0.029506 0.063298 -0.017737
    37 -0.049759 -1.680544 0.100479 -1.445719 0.000000 0.000000
    38 -0.034142 -1.148312 0.084779 -0.545354 0.000000 0.000000
    39 -0.488516 -2.755600 -0.228261 -0.353374 0.026533 -0.222867
    40 0.039890 -1.479791 0.029853 -0.751093 0.000000 0.000000
    41 0.028785 -1.075733 -0.023110 -0.480123 0.000000 0.000000
    42 -1.180678 -2.507216 -0.193862 -0.881628 0.070754 -0.355806
    43 -0.024968 -1.123934 0.017594 -1.439563 0.000000 0.000000
    44 -0.020058 -0.890965 0.010091 -0.439272 0.000000 0.000000
    45 -0.041705 -0.063211 -0.053140 3.290511 -0.291208 -1.389099
  time 25
    0 6.652210 6.795672 -6.827461 0.000000 0.000000 0.000000
    1 4.245551 -24.839665 -6.677382 -1.219503 -0.448299 0.198755
    2 -0.071916 -8.498732 -0.104137 0.778952 0.713986 -0.274598
    3 -8.326783 8.502484 2.354751 0.273708 0.283238 0.675569
    4 -0.000001 -4.919551 0.528153 0.000000 0.000000 0.000000
    5 -0.685739 -0.124270 2.802592 0.000000 0.000000 0.000000
    6 -0.319964 -11.602977 -0.000001 0.000000 0.000000 0.000000
    7 -0.616010 0.026119 1.874276 0.000000 0.000000 0.000000
    8 0.004610 -2.079478 1.389886 0.000000 0.000000 0.000000
    9 -1.214251 -11.731153 2.810403 0.000000 0.000000 0.000000
    10 0.179881 -7.744529 3.824859 0.000000 0.000000 0.000000
    11 -0.107566 -7.113749 5.400710 1.295898 0.235784 -1.532512
    12 -9.079259 -8.474506 -1.922643 0.584855 2.509082 0.666758
    13 0.096947 -8.450419 -0.009364 -0.276674 0.346155 -0.001197
    14 -0.586769 -1.264476 0.200164 -0.434874 -0.580263 -2.136146
    15 1.522835 0.058679 0.016850 0.427184 -0.199855 0.492454
    16 1.117947 0.048425 -0.005765 0.086357 0.020898 -0.013048
    17 -0.963867 -2.785142 -0.085346 -0.192128 0.050940 0.036903
    18 0.028478 -1.403067 0.006271 -1.088425 0.000000 0.000000
    19 0.021413 -0.957782 0.020047 -0.369413 0.000000 0.000000
    20 -0.249534 -2.846963 -0.174215 -0.225406 -0.044999 0.055422
    21 0.043234 -1.683940 0.096014 -1.325115 0.000000 0.000000
    22 0.031730 -1.160831 0.058836 -1.080297 0.000000 0.000000
    23 0.447952 -2.798983 -0.200442 -0.257870 -0.054316 0.152261
    24 -0.032910 -1.480206 0.004935 -1.513119 0.000000 0.000000
    25 -0.027023 -1.076921 -0.020212 -1.741557 0.000000 0.000000
    26 1.164475 -2.543939 -0.170327 -0.337866 -0.245487 0.088192
    27 0.024033 -1.129041 0.017806 -1.496681 0.000000 0.000000
    28 0.014896 -0.883992 -0.019845 -1.201542 0.000000 0.000000
    29 -0.075074 -0.129884 0.058116 0.400731 -0.030138 1.541026
    30 0.583509 -1.197274 0.185379 0.018453 -0.367004 -0.605855
    31 1.535926 0.010246 0.005009 -0.263768 0.164577 -0.187784
    32 1.100770 0.004528 -0.010675 0.037768 -0.035749 0.183357
    33 0.957767 -2.746778 -0.090301 0.225768 0.034096 0.118357
    34 -0.033419 -1.397127 -0.011256 -1.074001 0.000000 0.000000
    35 -0.022362 -0.957433 0.018783 -1.003195 0.000000 0.000000
    36 0.250029 -2.820665 -0.238396 -0.051721 0.061416 -0.023813
    37 -0.049759 -1.680544 0.100479 -1.518423 0.000000 0.000000
    38 -0.034142 -1.148312 0.084779 -0.645183 0.000000 0.000000
    39 -0.488516 -2.755600 -0.228261 -0.356009 0.025778 -0.222496
    40 0.039890 -1.479791 0.029853 -0.750441 0.000000 0.000000
    41 0.028785 -1.075733 -0.023110 -0.536844 0.000000 0.000000
    42 -1.180678 -2.507216 -0.193862 -0.898948 0.064151 -0.370379
    43 -0.024968 -1.123934 0.017594 -1.470597 0.000000 0.000000
    44 -0.020058 -0.890965 0.010091 -0.435643 0.000000 0.000000
    45 -0.018267 -0.063211 -0.057047 3.246048 -0.287852 -1.422764
  time 26
    0 6.652210 6.795672 -6.827461 0.000000 0.000000 0.000000
    1 4.788536 -24.359182 -6.470345 -1.023179 -0.370521 -0.128919
    2 -0.071916 -8.498732 -0.104137 0.734962 0.614126 -0.246372
    3 -10.092462 6.994626 2.389908 0.257626 0.147295 0.829152
    4 -0.000001 -4.919551 0.528153 0.000000 0.000000 0.000000
    5 -0.685739 -0.124270 2.802592 0.000000 0.000000 0.000000
    6 -0.319964 -11.602977 -0.000001 0.000000 0.000000 0.000000
    7 -0.616010 0.026119 1.874276 0.000000 0.000000 0.000000
    8 0.004610 -2.079478 1.389886 0.000000 0.000000 0.000000
    9 -1.214251 -11.727246 2.810403 0.000000 0.000000 0.000000
    10 0.179881 -7.744529 3.824859 0.000000 0.000000 0.000000
    11 -0.084128 -7.375476 5.299145 1.433238 0.169512 -1.534137
    12 -8.782375 -8.048712 -1.520287 0.546451 2.520594 0.648022
    13 0.096947 -8.450419 -0.009364 -0.305811 0.185801 0.003316
    14 -0.586769 -1.264476 0.200164 -0.414502 -0.524794 -2.179157
    15 1.522835 0.058679 0.016850 0.371185 -0.180811 0.536697
    16 1.117947 0.048425 -0.005765 0.086357 0.020910 -0.013175
    17 -0.963867 -2.785142 -0.085346 -0.091564 0.050940 0.036903
    18 0.028478 -1.403067 0.006271 -1.057810 0.000000 0.000000
    19 0.021413 -0.957782 0.020047 -0.508662 0.000000 0.000000
    20 -0.249534 -2.846963 -0.174215 -0.141277 -0.049841 0.068426
    21 0.043234 -1.683940 0.096014 -1.317753 0.000000 0.000000
    22 0.031730 -1.160831 0.058836 -1.088384 0.000000 0.000000
    23 0.447952 -2.798983 -0.200442 -0.198054 -0.054316 0.152261
    24 -0.032910 -1.480206 0.004935 -1.469908 0.000000 0.000000
    25 -0.027023 -1.076921 -0.020212 -1.569357 0.000000 0.000000
    26 1.164475 -2.543939 -0.170327 -0.274782 -0.209402 0.087857
    27 0.024033 -1.129041 0.017806 -1.346364 0.000000 0.000000
    28 0.014896 -0.883992 -0.019845 -1.141021 0.000000 0.000000
    29 -0.078980 -0.129884 0.077647 0.379784 -0.059704 1.542584
    30 0.583509 -1.197274 0.185379 0.032370 -0.364432 -0.646533
    31 1.535926 0.010246 0.005009 -0.264955 0.169203 -0.211723
    32 1.100770 0.004528 -0.010675 0.036905 -0.037151 0.223782
    33 0.957767 -2.746778 -0.090301 0.206328 0.033557 0.113743
    34 -0.033419 -1.397127 -0.011256 -1.163651 0.000000 0.000000
    35 -0.022362 -0.957433 0.018783 -1.096580 0.000000 0.000000
    36 0.250029 -2.820665 -0.238396 -0.072012 0.059702 -0.029374
    37 -0.049759 -1.680544 0.100479 -1.584879 0.000000 0.000000
    38 -0.034142 -1.148312 0.084779 -0.737722 0.000000 0.000000
    39 -0.488516 -2.755600 -0.228261 -0.358433 0.025203 -0.222172
    40 0.039890 -1.479791 0.029853 -1.178678 0.000000 0.000000
    41 0.028785 -1.075733 -0.023110 -0.805614 0.000000 0.000000
    42 -1.180678 -2.507216 -0.193862 -0.725707 0.058745 -0.382316
    43 -0.024968 -1.123934 0.017594 -1.460491 0.000000 0.000000
    44 -0.020058 -0.890965 0.010091 -0.432678 0.000000 0.000000
    45 0.005171 -0.059304 -0.064860 3.198913 -0.284293 -1.458083
  time 27
    0 6.652210 6.795672 -6.827461 0.000000 0.000000 0.000000
    1 5.636218 -23.441185 -5.560161 -0.841002 -0.269067 -0.435422
    2 -0.071916 -8.498732 -0.104137 0.630030 0.375942 -0.228776
    3 -10.908893 5.826621 2.526631 0.278436 0.103928 0.917335
    4 -0.000001 -4.919551 0.528153 0.000000 0.000000 0.000000
    5 -0.685739 -0.124270 2.802592 0.000000 0.000000 0.000000
    6 -0.319964 -11.602977 -0.000001 0.000000 0.000000 0.000000
    7 -0.616010 0.026119 1.874276 0.000000 0.000000 0.000000
    8 0.004610 -2.079478 1.389886 0.000000 0.000000 0.000000
    9 -1.214251 -11.727246 2.810403 0.000000 0.000000 0.000000
    10 0.179881 -7.744529 3.824859 0.000000 0.000000 0.000000
    11 -0.033345 -8.000495 5.197579 1.542880 0.152409 -1.535856
    12 -8.493304 -7.673701 -1.160901 0.510904 2.531214 0.627069
    13 0.096947 -8.450419 -0.009364 -0.335771 0.000545 0.006955
    14 -0.586769 -1.264476 0.200164 -0.395662 -0.469340 -2.222138
    15 1.522835 0.058679 0.016850 0.315187 -0.161768 0.576762
    16 1.117947 0.048425 -0.005765 0.086357 0.020922 -0.013252
    17 -0.963867 -2.785142 -0.085346 0.009019 0.050940 0.036903
    18 0.028478 -1.403067 0.006271 -1.027235 0.000000 0.000000
    19 0.021413 -0.957782 0.020047 -0.647910 0.000000 0.000000
    20 -0.249534 -2.846963 -0.174215 -0.057148 -0.054671 0.081429
    21 0.043234 -1.683940 0.096014 -1.310391 0.000000 0.000000
    22 0.031730 -1.160831 0.058836 -1.094194 0.000000 0.000000
    23 0.447952 -2.798983 -0.200442 -0.138529 -0.054316 0.152261
    24 -0.032910 -1.480206 0.004935 -1.426698 0.000000 0.000000
    25 -0.027023 -1.076921 -0.020212 -1.397158 0.000000 0.000000
    26 1.164475 -2.543939 -0.170327 -0.211697 -0.173304 0.087509
    27 0.024033 -1.129041 0.017806 -1.196048 0.000000 0.000000
    28 0.014896 -0.883992 -0.019845 -1.080500 0.000000 0.000000
    29 -0.086793 -0.129884 0.101086 0.359062 -0.089269 1.544130
    30 0.583509 -1.197274 0.185379 0.043714 -0.362415 -0.681493
    31 1.535926 0.010246 0.005009 -0.265853 0.172822 -0.232304
    32 1.100770 0.004528 -0.010675 0.036234 -0.038266 0.257259
    33 0.957767 -2.746778 -0.090301 0.189619 0.033089 0.109789
    34 -0.033419 -1.397127 -0.011256 -1.240739 0.000000 0.000000
    35 -0.022362 -0.957433 0.018783 -1.177727 0.000000 0.000000
    36 0.250029 -2.820665 -0.238396 -0.089466 0.058228 -0.034156
    37 -0.049759 -1.680544 0.100479 -1.641984 0.000000 0.000000
    38 -0.034142 -1.148312 0.084779 -0.818149 0.000000 0.000000
    39 -0.488516 -2.755600 -0.228261 -0.360505 0.024771 -0.221921
    40 0.039890 -1.479791 0.029853 -1.608143 0.000000 0.000000
    41 0.028785 -1.075733 -0.023110 -1.043242 0.000000 0.000000
    42 -1.180678 -2.507216 -0.193862 -0.403998 0.054803 -0.391029
    43 -0.024968 -1.123934 0.017594 -1.436433 0.000000 0.000000
    44 -0.020058 -0.890965 0.010091 -0.430710 0.000000 0.000000
    45 0.032516 -0.055398 -0.072672 3.153767 -0.280901 -1.491568
  time 28
    0 6.652210 6.795672 -6.827461 0.000000 0.000000 0.000000
    1 6.546402 -22.405997 -4.380437 -0.687608 -0.131426 -0.691911
    2 -0.071916 -8.498732 -0.104137 0.504791 0.091694 -0.219321
    3 -11.260466 4.752370 2.620384 0.310117 0.091386 0.978872
    4 -0.000001 -4.919551 0.528153 0.000000 0.000000 0.000000
    5 -0.685739 -0.124270 2.802592 0.000000 0.000000 0.000000
    6 -0.319964 -11.602977 -0.000001 0.000000 0.000000 0.000000
    7 -0.616010 0.026119 1.874276 0.000000 0.000000 0.000000
    8 0.004610 -2.079478 1.389886 0.000000 0.000000 0.000000
    9 -1.214251 -11.727246 2.814309 0.000000 0.000000 0.000000
    10 0.179881 -7.744529 3.824859 0.000000 0.000000 0.000000
    11 0.025250 -8.746611 5.115545 -4.670958 0.177621 -1.522673
    12 -8.247202 -7.369004 -0.871830 0.481546 2.539978 0.607547
    13 0.096947 -8.450419 -0.009364 -0.362338 -0.174829 0.009611
    14 -0.586769 -1.264476 0.200164 -0.380030 -0.420954 -2.259648
    15 1.522835 0.058679 0.016850 0.266330 -0.145157 0.609418
    16 1.117947 0.048425 -0.005765 0.086357 0.020922 -0.013328
    17 -0.963867 -2.785142 -0.085346 0.096749 0.050940 0.036903
    18 0.028478 -1.403067 0.006271 -1.000541 0.000000 0.000000
    19 0.021413 -0.957782 0.020047 -0.769339 0.000000 0.000000
    20 -0.249534 -2.846963 -0.174215 0.016238 -0.058877 0.092766
    21 0.043234 -1.683940 0.096014 -1.303970 0.000000 0.000000
    22 0.031730 -1.160831 0.058836 -1.098041 0.000000 0.000000
    23 0.447952 -2.798983 -0.200442 -0.086766 -0.054316 0.152261
    24 -0.032910 -1.480206 0.004935 -1.389015 0.000000 0.000000
    25 -0.027023 -1.076921 -0.020212 -1.246923 0.000000 0.000000
    26 1.164475 -2.543939 -0.170327 -0.156656 -0.141821 0.087222
    27 0.024033 -1.129041 0.017806 -1.064929 0.000000 0.000000
    28 0.014896 -0.883992 -0.019845 -1.027733 0.000000 0.000000
    29 -0.094606 -0.129884 0.120618 0.341181 -0.115060 1.545461
    30 0.583509 -1.197274 0.185379 0.052179 -0.360974 -0.708815
    31 1.535926 0.010246 0.005009 -0.266489 0.175423 -0.248388
    32 1.100770 0.004528 -0.010675 0.035755 -0.039069 0.282599
    33 0.957767 -2.746778 -0.090301 0.176557 0.032730 0.106696
    34 -0.033419 -1.397127 -0.011256 -1.300976 0.000000 0.000000
    35 -0.022362 -0.957433 0.018783 -1.241754 0.000000 0.000000
    36 0.250029 -2.820665 -0.238396 -0.103106 0.057078 -0.037883
    37 -0.049759 -1.680544 0.100479 -1.686671 0.000000 0.000000
    38 -0.034142 -1.148312 0.084779 -0.881585 0.000000 0.000000
    39 -0.488516 -2.755600 -0.228261 -0.362140 0.024472 -0.221729
    40 0.039890 -1.479791 0.029853 -1.610138 0.000000 0.000000
    41 0.028785 -1.075733 -0.023110 -1.030519 0.000000 0.000000
    42 -1.180678 -2.507216 -0.193862 -0.230757 0.053269 -0.394408
    43 -0.024968 -1.123934 0.017594 -1.407691 0.000000 0.000000
    44 -0.020058 -0.890965 0.010091 -0.429998 0.000000 0.000000
    45 0.052048 -0.055398 -0.076579 3.115428 -0.278049 -1.519731
  time 29
    0 6.652210 6.795672 -6.827461 0.000000 0.000000 0.000000
    1 7.272987 -21.554409 -3.356968 -0.554142 0.013328 -0.914983
    2 -0.071916 -8.498732 -0.104137 0.399860 -0.146457 -0.215474
    3 -11.291717 3.404672 2.401627 0.303267 0.091578 1.077297
    4 -0.000001 -4.919551 0.528153 0.000000 0.000000 0.000000
    5 -0.685739 -0.124270 2.802592 0.000000 0.000000 0.000000
    6 -0.319964 -11.602977 -0.000001 0.000000 0.000000 0.000000
    7 -0.616010 0.026119 1.874276 0.000000 0.000000 0.000000
    8 0.004610 -2.079478 1.389886 0.000000 0.000000 0.000000
    9 -1.214251 -11.727246 2.818215 0.000000 0.000000 0.000000
    10 0.179881 -7.744529 3.824859 0.000000 0.000000 0.000000
    11 0.076033 -9.367724 5.056950 -4.622654 0.224579 -1.498216
    12 -8.075322 -7.165873 -0.676512 0.461550 2.545919 0.593173
    13 0.096947 -8.450419 -0.009364 -0.381391 -0.305566 0.011249
    14 -0.586769 -1.264476 0.200164 -0.369377 -0.386733 -2.286188
    15 1.522835 0.058679 0.016850 0.231781 -0.133400 0.631377
    16 1.117947 0.048425 -0.005765 0.086357 0.020922 -0.013354
    17 -0.963867 -2.785142 -0.085346 0.158810 0.050940 0.036903
    18 0.028478 -1.403067 0.006271 -0.981647 0.000000 0.000000
    19 0.021413 -0.957782 0.020047 -0.855266 0.000000 0.000000
    20 -0.249534 -2.846963 -0.174215 0.068136 -0.061861 0.100796
    21 0.043234 -1.683940 0.096014 -1.299433 0.000000 0.000000
    22 0.031730 -1.160831 0.058836 -1.100122 0.000000 0.000000
    23 0.447952 -2.798983 -0.200442 -0.050238 -0.054316 0.152261
    24 -0.032910 -1.480206 0.004935 -1.362346 0.000000 0.000000
    25 -0.027023 -1.076921 -0.020212 -1.140652 0.000000 0.000000
    26 1.164475 -2.543939 -0.170327 -0.117731 -0.119553 0.087006
    27 0.024033 -1.129041 0.017806 -0.972179 0.000000 0.000000
    28 0.014896 -0.883992 -0.019845 -0.990399 0.000000 0.000000
    29 -0.098512 -0.129884 0.132337 0.328633 -0.133301 1.546395
    30 0.583509 -1.197274 0.185379 0.057472 -0.360110 -0.726623
    31 1.535926 0.010246 0.005009 -0.266860 0.177005 -0.258855
    32 1.100770 0.004528 -0.010675 0.035467 -0.039560 0.298651
    33 0.957767 -2.746778 -0.090301 0.168058 0.032502 0.104683
    34 -0.033419 -1.397127 -0.011256 -1.340194 0.000000 0.000000
    35 -0.022362 -0.957433 0.018783 -1.283746 0.000000 0.000000
    36 0.250029 -2.820665 -0.238396 -0.112002 0.056323 -0.040316
    37 -0.049759 -1.680544 0.100479 -1.715760 0.000000 0.000000
    38 -0.034142 -1.148312 0.084779 -0.923235 0.000000 0.000000
    39 -0.488516 -2.755600 -0.228261 -0.363197 0.024304 -0.221621
    40 0.039890 -1.479791 0.029853 -1.611135 0.000000 0.000000
    41 0.028785 -1.075733 -0.023110 -1.006896 0.000000 0.000000
    42 -1.180678 -2.507216 -0.193862 -0.325642 0.088084 -0.317515
    43 -0.024968 -1.123934 0.017594 -1.383609 0.000000 0.000000
    44 -0.020058 -0.890965 0.010091 -0.779922 0.000000 0.000000
    45 0.063767 -0.055398 -0.080485 3.088810 -0.276083 -1.539158
  time 30
    0 6.652210 6.795672 -6.827461 0.000000 0.000000 0.000000
    1 7.569871 -21.202835 -2.919455 -0.497127 0.080393 -1.010216
    2 -0.071916 -8.498732 -0.104137 0.355870 -0.246317 -0.214748
    3 -11.147181 2.693713 2.159432 0.286924 0.100960 1.131587
    4 -0.000001 -4.919551 0.528153 0.000000 0.000000 0.000000
    5 -0.685739 -0.124270 2.802592 0.000000 0.000000 0.000000
    6 -0.319964 -11.602977 -0.000001 0.000000 0.000000 0.000000
    7 -0.616010 0.026119 1.874276 0.000000 0.000000 0.000000
    8 0.004610 -2.079478 1.389886 0.000000 0.000000 0.000000
    9 -1.214251 -11.727246 2.818215 0.000000 0.000000 0.000000
    10 0.179881 -7.744529 3.824859 0.000000 0.000000 0.000000
    11 0.095565 -9.629451 5.037418 -4.604445 0.249790 -1.485128
    12 -8.012820 -7.095558 -0.606197 0.454171 2.548073 0.587595
    13 0.096947 -8.450419 -0.009364 -0.388614 -0.356851 0.011795
    14 -0.586769 -1.264476 0.200164 -0.365451 -0.373758 -2.296227
    15 1.522835 0.058679 0.016850 0.218682 -0.128954 0.639421
    16 1.117947 0.048425 -0.005765 0.086357 0.020922 -0.013354
    17 -0.963867 -2.785142 -0.085346 0.182330 0.050940 0.036903
    18 0.028478 -1.403067 0.006271 -0.974513 0.000000 0.000000
    19 0.021413 -0.957782 0.020047 -0.887838 0.000000 0.000000
    20 -0.249534 -2.846963 -0.174215 0.087823 -0.062988 0.103828
    21 0.043234 -1.683940 0.096014 -1.297721 0.000000 0.000000
    22 0.031730 -1.160831 0.058836 -1.100750 0.000000 0.000000
    23 0.447952 -2.798983 -0.200442 -0.036416 -0.054316 0.152261
    24 -0.032910 -1.480206 0.004935 -1.352261 0.000000 0.000000
    25 -0.027023 -1.076921 -0.020212 -1.100378 0.000000 0.000000
    26 1.164475 -2.543939 -0.170327 -0.102994 -0.111116 0.086934
    27 0.024033 -1.129041 0.017806 -0.937025 0.000000 0.000000
    28 0.014896 -0.883992 -0.019845 -0.976252 0.000000 0.000000
    29 -0.098512 -0.129884 0.136243 0.323906 -0.140216 1.546731
    30 0.583509 -1.197274 0.185379 0.059297 -0.359842 -0.732965
    31 1.535926 0.010246 0.005009 -0.266980 0.177520 -0.262587
    32 1.100770 0.004528 -0.010675 0.035371 -0.039716 0.304261
    33 0.957767 -2.746778 -0.090301 0.165021 0.032418 0.103964
    34 -0.033419 -1.397127 -0.011256 -1.354196 0.000000 0.000000
    35 -0.022362 -0.957433 0.018783 -1.298822 0.000000 0.000000
    36 0.250029 -2.820665 -0.238396 -0.115159 0.056059 -0.041179
    37 -0.049759 -1.680544 0.100479 -1.726108 0.000000 0.000000
    38 -0.034142 -1.148312 0.084779 -0.938166 0.000000 0.000000
    39 -0.488516 -2.755600 -0.228261 -0.363563 0.024256 -0.221585
    40 0.039890 -1.479791 0.029853 -1.611404 0.000000 0.000000
    41 0.028785 -1.075733 -0.023110 -0.994173 0.000000 0.000000
    42 -1.180678 -2.507216 -0.193862 -0.420504 0.122899 -0.240634
    43 -0.024968 -1.123934 0.017594 -1.373527 0.000000 0.000000
    44 -0.020058 -0.890965 0.010091 -1.129823 0.000000 0.000000
    45 0.067673 -0.055398 -0.080485 3.078851 -0.275352 -1.546385
end
