version 1
nodes
  0 "y20s1_root" -1
  1 "Bone053" 0
  2 "Bone054" 0
  3 "Bone052" 0
  4 "Bone055" 0
  5 "Bone057" 0
  6 "Bone056" 0
  7 "Bone068" 0
  8 "Bone067" 7
  9 "Bone065" 0
  10 "Bone066" 9
  11 "Bone046" 0
  12 "Bone047" 11
  13 "y20s1_root001" -1
  14 "Bone069" 13
  15 "Bone077" 14
  16 "Bone070" 13
  17 "Bone071" 13
  18 "Bone072" 13
  19 "Bone073" 13
  20 "Bone074" 13
  21 "Bone075" 13
  22 "Bone091" 13
  23 "Bone076" 22
  24 "Bone085" 13
  25 "Bone086" 24
  26 "root" -1
  27 "Bone01" 26
  28 "Bone_L_Upper" 27
  29 "Bone_Lefthand" 27
  30 "Bone13" 29
  31 "Bone14" 30
  32 "Bone15" 31
  33 "Bone17" 29
  34 "Bone18" 33
  35 "Bone19" 34
  36 "Bone21" 29
  37 "Bone22" 36
  38 "Bone23" 37
  39 "Bone09" 29
  40 "Bone10" 39
  41 "Bone11" 40
  42 "Bone05" 29
  43 "Bone06" 42
  44 "Bone07" 43
  45 "Bone_Se_Hand-L" 29
  46 "Bone04" 26
  47 "Bone_Righthand" 46
  48 "Bone39" 47
  49 "Bone40" 48
  50 "Bone41" 49
  51 "Bone35" 47
  52 "Bone36" 51
  53 "Bone37" 52
  54 "Bone31" 47
  55 "Bone32" 54
  56 "Bone33" 55
  57 "Bone43" 47
  58 "Bone44" 57
  59 "Bone45" 58
  60 "Bone27" 47
  61 "Bone28" 60
  62 "Bone29" 61
  63 "Bone_Se_Hand-R" 47
  64 "Bone_R_Upper" 46
end
skeleton
  time 0
    0 6.657921 -9.446498 -8.328923 -0.148578 -3.046472 0.347564
    1 5.492746 -0.508946 -0.763181 0.000000 -3.141592 1.570796
    2 6.225239 -0.508947 -0.763181 0.000000 -3.141592 1.570796
    3 4.765635 -0.508946 -0.763181 0.000000 -3.141592 1.570796
    4 5.492747 0.440855 -0.763181 0.000000 0.000000 -1.570796
    5 4.765635 0.440854 -0.763181 0.000000 0.000000 -1.570796
    6 6.225239 0.440854 -0.763181 0.000000 0.000000 -1.570796
    7 1.613046 -3.350949 0.877643 0.000000 0.000000 -3.054334
    8 -5.013273 -0.000002 0.000000 0.000000 0.000000 0.000000
    9 1.613047 3.280648 0.877641 3.141592 0.000000 -0.087259
    10 5.013275 0.000001 0.000000 0.000000 0.000000 0.000000
    11 3.665390 -0.034953 -2.563084 0.000000 0.000000 0.000000
    12 2.620763 0.000000 -0.918122 -2.617913 1.570787 0.000000
    13 -10.378197 -3.042253 -7.309675 0.142063 0.045161 1.655667
    14 -1.613047 -3.280649 -0.877641 3.141592 0.000000 -0.087259
    15 -5.013275 -0.000001 0.000000 0.000000 0.000000 0.000000
    16 -5.492747 0.508945 0.763181 0.000000 -3.141592 1.570796
    17 -6.225240 0.508945 0.763181 0.000000 -3.141592 1.570796
    18 -4.765636 0.508945 0.763181 0.000000 -3.141592 1.570796
    19 -5.492747 -0.440856 0.763181 0.000000 0.000000 -1.570796
    20 -4.765636 -0.440856 0.763181 0.000000 0.000000 -1.570796
    21 -6.225240 -0.440856 0.763181 0.000000 0.000000 -1.570796
    22 -1.613046 3.350949 -0.877643 0.000000 0.000000 -3.054334
    23 5.013275 0.000001 0.000000 0.000000 0.000000 0.000000
    24 -3.665390 0.034952 2.563085 0.000000 0.000000 0.000000
    25 -2.620764 0.000000 0.918122 -2.617913 1.570787 0.000000
    26 -0.002752 -1.622408 -8.698865 -0.140555 0.000000 0.000000
    27 8.618676 -7.229360 -1.721690 0.056226 -2.885965 -1.271555
    28 7.960510 -0.671297 -0.395908 -1.569795 -0.027803 -3.146879
    29 -0.087546 -8.553426 -0.486958 3.094893 -0.184258 0.025684
    30 -0.488518 -2.755602 -0.228260 3.242492 0.031269 -0.215078
    31 0.039887 -1.550105 0.072824 3.080321 0.026078 0.046897
    32 0.032692 -1.341364 0.027674 3.137775 0.023442 0.048262
    33 0.250027 -2.820665 -0.238396 3.177920 -0.042470 -0.035145
    34 -0.049759 -1.668825 -0.051869 3.155800 -0.041347 -0.041888
    35 -0.034142 -1.234252 0.084782 3.095757 -0.042162 -0.041059
    36 0.957766 -2.746780 -0.090302 -3.153963 -0.247284 0.135866
    37 -0.033420 -1.428380 -0.034695 3.151379 -0.084312 -0.055657
    38 -0.022360 -1.012125 0.007065 3.141170 -0.085079 -0.054470
    39 -1.180681 -2.507217 -0.193859 3.219374 -0.058614 -0.534075
    40 -0.024967 -1.127840 0.025410 3.118854 -0.076294 -0.050059
    41 -0.020057 -0.863623 0.064779 3.076148 -0.075383 -0.051426
    42 0.657731 -1.123056 0.189285 0.377547 0.335078 2.757212
    43 0.907002 -0.067881 0.047979 0.541268 -0.077504 3.105925
    44 0.671070 -0.018911 0.016666 0.535001 -0.078645 3.116370
    45 0.120153 -0.050270 -0.054489 0.287569 3.110905 1.561085
    46 -11.122663 0.479852 0.674519 -0.099725 -2.984509 0.153126
    47 0.104757 -8.563703 -0.376564 -3.035514 0.217155 -0.041168
    48 0.447953 -2.798986 -0.200443 3.243295 -0.014770 0.208275
    49 -0.032909 -1.472391 0.055723 3.015857 -0.012212 -0.055618
    50 -0.027022 -1.135516 0.042292 -3.007679 -0.003392 -0.056759
    51 -0.249534 -2.846964 -0.174213 3.177907 -0.012062 0.026923
    52 0.043235 -1.687847 0.033510 3.105981 -0.012361 0.036350
    53 0.031729 -1.149111 0.023681 -3.089634 -0.016987 0.027224
    54 -0.963866 -2.785145 -0.085350 3.120666 0.073123 -0.176467
    55 0.028479 -1.457756 -0.013261 3.103750 -0.089022 0.015604
    56 0.021413 -0.957781 -0.019018 3.127352 -0.089093 0.015340
    57 1.164475 -2.543940 -0.170330 3.220775 0.091823 0.517632
    58 0.024032 -1.183731 0.017807 2.991503 0.109539 0.023838
    59 0.014898 -0.891802 0.023122 -3.090104 0.105225 0.038950
    60 -0.586770 -1.264477 0.200161 0.148374 0.421095 -5.840808
    61 1.612682 0.125089 0.016848 -0.048841 0.035459 -3.086547
    62 1.125760 0.028892 -0.005766 -0.043735 0.022033 -2.973078
    63 -0.139399 -0.111698 0.014397 0.285382 -0.030687 1.580508
    64 -6.061581 -4.864366 -0.458190 1.547056 -0.037614 0.579648
  time 1
    0 7.372786 -9.387902 -7.981256 -0.033184 -3.154995 0.560982
    1 5.492746 -0.508946 -0.763181 0.000000 -3.141592 1.570796
    2 6.225239 -0.508947 -0.763181 0.000000 -3.141592 1.570796
    3 4.765635 -0.508946 -0.763181 0.000000 -3.141592 1.570796
    4 5.492747 0.440855 -0.763181 0.000000 0.000000 -1.570796
    5 4.765635 0.440854 -0.763181 0.000000 0.000000 -1.570796
    6 6.225239 0.440854 -0.763181 0.000000 0.000000 -1.570796
    7 1.613046 -3.350949 0.877643 0.000000 0.000000 -3.054334
    8 -5.013273 -0.000002 0.000000 0.000000 0.000000 0.000000
    9 1.613047 3.280648 0.877641 3.141592 0.000000 -0.087259
    10 5.013275 0.000001 0.000000 0.000000 0.000000 0.000000
    11 3.665390 -0.034953 -2.563084 0.000000 0.000000 0.000000
    12 2.620763 0.000000 -0.918122 -2.722706 1.570787 0.000000
    13 -10.897744 -4.069628 -7.129982 0.152086 0.043287 1.692079
    14 -1.613047 -3.280649 -0.877641 3.141592 0.000000 -0.087259
    15 -5.013275 -0.000001 0.000000 0.000000 0.000000 0.000000
    16 -5.492747 0.508945 0.763181 0.000000 -3.141592 1.570796
    17 -6.225240 0.508945 0.763181 0.000000 -3.141592 1.570796
    18 -4.765636 0.508945 0.763181 0.000000 -3.141592 1.570796
    19 -5.492747 -0.440856 0.763181 0.000000 0.000000 -1.570796
    20 -4.765636 -0.440856 0.763181 0.000000 0.000000 -1.570796
    21 -6.225240 -0.440856 0.763181 0.000000 0.000000 -1.570796
    22 -1.613046 3.350949 -0.877643 0.000000 0.000000 -3.054334
    23 5.013275 0.000001 0.000000 0.000000 0.000000 0.000000
    24 -3.665390 0.034952 2.563085 0.000000 0.000000 0.000000
    25 -2.620764 0.000000 0.918122 -2.722706 1.570787 0.000000
    26 -0.002752 -1.622408 -8.698865 -0.140555 0.000000 0.000000
    27 9.341354 -6.877787 -1.057608 6.196764 -3.008321 -1.048613
    28 8.065982 0.238887 -0.384189 1.570110 -3.115434 0.107192
    29 -0.087546 -8.553426 -0.486958 3.094893 -0.184278 0.025780
    30 -0.488518 -2.755602 -0.228260 3.242492 0.031269 -0.215078
    31 0.039887 -1.550105 0.072824 3.080321 0.026078 0.046897
    32 0.032692 -1.341364 0.027674 3.137775 0.023442 0.048262
    33 0.250027 -2.820665 -0.238396 3.177920 -0.042470 -0.035145
    34 -0.049759 -1.668825 -0.051869 3.155800 -0.041347 -0.041888
    35 -0.034142 -1.234252 0.084782 3.095757 -0.042162 -0.041059
    36 0.957766 -2.746780 -0.090302 -3.153963 -0.247284 0.135866
    37 -0.033420 -1.428380 -0.034695 3.151379 -0.084312 -0.055657
    38 -0.022360 -1.012125 0.007065 3.141170 -0.085079 -0.054470
    39 -1.180681 -2.507217 -0.193859 3.219374 -0.058614 -0.534075
    40 -0.024967 -1.127840 0.025410 3.118854 -0.076294 -0.050059
    41 -0.020057 -0.863623 0.064779 3.076148 -0.075383 -0.051426
    42 0.657731 -1.123056 0.189285 0.377547 0.335078 2.757212
    43 0.907002 -0.067881 0.047979 0.541268 -0.077504 3.105925
    44 0.671070 -0.018911 0.016666 0.535001 -0.078645 3.116370
    45 0.120153 -0.050270 -0.054489 0.287569 3.110905 1.561085
    46 -11.716431 -0.586587 0.713582 -0.101410 -2.979689 0.190379
    47 0.108663 -8.563703 -0.376564 -3.045197 0.208483 -0.042175
    48 0.447953 -2.798986 -0.200443 3.243295 -0.014770 0.208275
    49 -0.032909 -1.472391 0.055723 3.015857 -0.012212 -0.055618
    50 -0.027022 -1.135516 0.042292 -3.007679 -0.003392 -0.056759
    51 -0.249534 -2.846964 -0.174213 3.177907 -0.012062 0.026923
    52 0.043235 -1.687847 0.033510 3.105981 -0.012361 0.036350
    53 0.031729 -1.149111 0.023681 -3.089634 -0.016987 0.027224
    54 -0.963866 -2.785145 -0.085350 3.120666 0.073123 -0.176467
    55 0.028479 -1.457756 -0.013261 3.103750 -0.089022 0.015604
    56 0.021413 -0.957781 -0.019018 3.127352 -0.089093 0.015340
    57 1.164475 -2.543940 -0.170330 3.220775 0.091823 0.517632
    58 0.024032 -1.183731 0.017807 2.991503 0.109539 0.023838
    59 0.014898 -0.891802 0.023122 -3.090104 0.105225 0.038950
    60 -0.586770 -1.264477 0.200161 0.148374 0.421095 -5.840808
    61 1.612682 0.125089 0.016848 -0.048841 0.035459 -3.086547
    62 1.125760 0.028892 -0.005766 -0.043735 0.022033 -2.973078
    63 -0.139399 -0.111698 0.014397 0.285382 -0.030687 1.580508
    64 -6.963953 -3.684643 -0.469909 1.551754 -0.038665 0.399021
  time 2
    0 8.099371 -9.204303 -7.547649 0.083335 -3.195761 0.778935
    1 5.492746 -0.508946 -0.763181 0.000000 -3.141592 1.570796
    2 6.225239 -0.508947 -0.763181 0.000000 -3.141592 1.570796
    3 4.765635 -0.508946 -0.763181 0.000000 -3.141592 1.570796
    4 5.492747 0.440855 -0.763181 0.000000 0.000000 -1.570796
    5 4.765635 0.440854 -0.763181 0.000000 0.000000 -1.570796
    6 6.225239 0.440854 -0.763181 0.000000 0.000000 -1.570796
    7 1.613046 -3.350949 0.877643 0.000000 0.000000 -3.054334
    8 -5.013273 -0.000002 0.000000 0.000000 0.000000 0.000000
    9 1.613047 3.280648 0.877641 3.141592 0.000000 -0.087259
    10 5.013275 0.000001 0.000000 0.000000 0.000000 0.000000
    11 3.665390 -0.034953 -2.563084 0.000000 0.000000 0.000000
    12 2.620763 0.000000 -0.918122 -2.827403 1.570787 0.000000
    13 -11.202441 -5.464202 -6.930758 0.163208 0.042438 1.736952
    14 -1.613047 -3.280649 -0.877641 3.141592 0.000000 -0.087259
    15 -5.013275 -0.000001 0.000000 0.000000 0.000000 0.000000
    16 -5.492747 0.508945 0.763181 0.000000 -3.141592 1.570796
    17 -6.225240 0.508945 0.763181 0.000000 -3.141592 1.570796
    18 -4.765636 0.508945 0.763181 0.000000 -3.141592 1.570796
    19 -5.492747 -0.440856 0.763181 0.000000 0.000000 -1.570796
    20 -4.765636 -0.440856 0.763181 0.000000 0.000000 -1.570796
    21 -6.225240 -0.440856 0.763181 0.000000 0.000000 -1.570796
    22 -1.613046 3.350949 -0.877643 0.000000 0.000000 -3.054334
    23 5.013275 0.000001 0.000000 0.000000 0.000000 0.000000
    24 -3.665390 0.034952 2.563085 0.000000 0.000000 0.000000
    25 -2.620764 0.000000 0.918122 -2.827403 1.570787 0.000000
    26 -0.002752 -1.622408 -8.698865 -0.140555 0.000000 0.000000
    27 9.931216 -6.420742 -0.420869 6.126978 -3.139874 -0.846577
    28 8.069888 1.141258 -0.372470 1.568672 -3.117351 0.217998
    29 -0.087546 -8.553426 -0.486958 3.094988 -0.184298 0.025852
    30 -0.488518 -2.755602 -0.228260 3.242492 0.031269 -0.215078
    31 0.039887 -1.550105 0.072824 3.080321 0.026078 0.046897
    32 0.032692 -1.341364 0.027674 3.137775 0.023442 0.048262
    33 0.250027 -2.820665 -0.238396 3.177920 -0.042470 -0.035145
    34 -0.049759 -1.668825 -0.051869 3.155800 -0.041347 -0.041888
    35 -0.034142 -1.234252 0.084782 3.095757 -0.042162 -0.041059
    36 0.957766 -2.746780 -0.090302 -3.153963 -0.247284 0.135866
    37 -0.033420 -1.428380 -0.034695 3.151379 -0.084312 -0.055657
    38 -0.022360 -1.012125 0.007065 3.141170 -0.085079 -0.054470
    39 -1.180681 -2.507217 -0.193859 3.219374 -0.058614 -0.534075
    40 -0.024967 -1.127840 0.025410 3.118854 -0.076294 -0.050059
    41 -0.020057 -0.863623 0.064779 3.076148 -0.075383 -0.051426
    42 0.657731 -1.123056 0.189285 0.377547 0.335078 2.757212
    43 0.907002 -0.067881 0.047979 0.541268 -0.077504 3.105925
    44 0.671070 -0.018911 0.016666 0.535001 -0.078645 3.116370
    45 0.120153 -0.050270 -0.054489 0.287569 3.110905 1.561085
    46 -12.114880 -2.039756 0.717489 -0.101739 -2.974870 0.235920
    47 0.108663 -8.567610 -0.372657 -3.056988 0.197845 -0.043289
    48 0.447953 -2.798986 -0.200443 3.243295 -0.014770 0.208275
    49 -0.032909 -1.472391 0.055723 3.015857 -0.012212 -0.055618
    50 -0.027022 -1.135516 0.042292 -3.007679 -0.003392 -0.056759
    51 -0.249534 -2.846964 -0.174213 3.177907 -0.012062 0.026923
    52 0.043235 -1.687847 0.033510 3.105981 -0.012361 0.036350
    53 0.031729 -1.149111 0.023681 -3.089634 -0.016987 0.027224
    54 -0.963866 -2.785145 -0.085350 3.120666 0.073123 -0.176467
    55 0.028479 -1.457756 -0.013261 3.103750 -0.089022 0.015604
    56 0.021413 -0.957781 -0.019018 3.127352 -0.089093 0.015340
    57 1.164475 -2.543940 -0.170330 3.220775 0.091823 0.517632
    58 0.024032 -1.183731 0.017807 2.991503 0.109539 0.023838
    59 0.014898 -0.891802 0.023122 -3.090104 0.105225 0.038950
    60 -0.586770 -1.264477 0.200161 0.148374 0.421095 -5.840808
    61 1.612682 0.125089 0.016848 -0.048841 0.035459 -3.086547
    62 1.125760 0.028892 -0.005766 -0.043735 0.022033 -2.973078
    63 -0.139399 -0.111698 0.014397 0.285382 -0.030687 1.580508
    64 -7.760852 -2.051780 -0.481628 1.557698 -0.038761 0.177945
  time 3
    0 8.861113 -8.899606 -7.164825 0.142016 -3.152854 0.985669
    1 5.492746 -0.508946 -0.763181 0.000000 -3.141592 1.570796
    2 6.225239 -0.508947 -0.763181 0.000000 -3.141592 1.570796
    3 4.765635 -0.508946 -0.763181 0.000000 -3.141592 1.570796
    4 5.492747 0.440855 -0.763181 0.000000 0.000000 -1.570796
    5 4.765635 0.440854 -0.763181 0.000000 0.000000 -1.570796
    6 6.225239 0.440854 -0.763181 0.000000 0.000000 -1.570796
    7 1.613046 -3.350949 0.877643 0.000000 0.000000 -3.054334
    8 -5.013273 -0.000002 0.000000 0.000000 0.000000 0.000000
    9 1.613047 3.280648 0.877641 3.141592 0.000000 -0.087259
    10 5.013275 0.000001 0.000000 0.000000 0.000000 0.000000
    11 3.665390 -0.034953 -2.563084 0.000000 0.000000 0.000000
    12 2.620763 0.000000 -0.918122 -2.932101 1.570787 0.000000
    13 -11.116501 -6.893933 -6.774503 0.172484 0.042862 1.781271
    14 -1.613047 -3.280649 -0.877641 3.141592 0.000000 -0.087259
    15 -5.013275 -0.000001 0.000000 0.000000 0.000000 0.000000
    16 -5.492747 0.508945 0.763181 0.000000 -3.141592 1.570796
    17 -6.225240 0.508945 0.763181 0.000000 -3.141592 1.570796
    18 -4.765636 0.508945 0.763181 0.000000 -3.141592 1.570796
    19 -5.492747 -0.440856 0.763181 0.000000 0.000000 -1.570796
    20 -4.765636 -0.440856 0.763181 0.000000 0.000000 -1.570796
    21 -6.225240 -0.440856 0.763181 0.000000 0.000000 -1.570796
    22 -1.613046 3.350949 -0.877643 0.000000 0.000000 -3.054334
    23 5.013275 0.000001 0.000000 0.000000 0.000000 0.000000
    24 -3.665390 0.034952 2.563085 0.000000 0.000000 0.000000
    25 -2.620764 0.000000 0.918122 -2.932101 1.570787 0.000000
    26 -0.002752 -1.622408 -8.698865 -0.140555 0.000000 0.000000
    27 10.439044 -5.866037 -0.018513 6.147204 3.061337 -0.645447
    28 7.976135 2.024098 -0.356844 1.567522 -3.119365 0.326800
    29 -0.087546 -8.553426 -0.486958 3.094988 -0.184298 0.025864
    30 -0.488518 -2.755602 -0.228260 3.242587 0.031269 -0.215078
    31 0.039887 -1.550105 0.072824 3.080321 0.026078 0.046897
    32 0.032692 -1.341364 0.027674 3.137775 0.023442 0.048262
    33 0.250027 -2.820665 -0.238396 3.177920 -0.042470 -0.035145
    34 -0.049759 -1.668825 -0.051869 3.155800 -0.041347 -0.041888
    35 -0.034142 -1.234252 0.084782 3.095757 -0.042162 -0.041059
    36 0.957766 -2.746780 -0.090302 -3.153963 -0.247284 0.135866
    37 -0.033420 -1.428380 -0.034695 3.151379 -0.084312 -0.055657
    38 -0.022360 -1.012125 0.007065 3.141170 -0.085079 -0.054470
    39 -1.180681 -2.507217 -0.193859 3.219374 -0.058614 -0.534075
    40 -0.024967 -1.127840 0.025410 3.118854 -0.076294 -0.050059
    41 -0.020057 -0.863623 0.064779 3.076148 -0.075383 -0.051426
    42 0.657731 -1.123056 0.189285 0.377547 0.335078 2.757212
    43 0.907002 -0.067881 0.047979 0.541268 -0.077504 3.105925
    44 0.671070 -0.018911 0.016666 0.535001 -0.078645 3.116370
    45 0.120153 -0.050270 -0.054489 0.287569 3.110905 1.561085
    46 -12.122693 -3.520270 0.670612 -0.100348 -2.971624 0.280521
    47 0.112569 -8.567610 -0.368751 -3.068491 0.187409 -0.044272
    48 0.447953 -2.798986 -0.200443 3.243295 -0.014770 0.208275
    49 -0.032909 -1.472391 0.055723 3.015857 -0.012212 -0.055618
    50 -0.027022 -1.135516 0.042292 -3.007679 -0.003392 -0.056759
    51 -0.249534 -2.846964 -0.174213 3.177907 -0.012062 0.026923
    52 0.043235 -1.687847 0.033510 3.105981 -0.012361 0.036350
    53 0.031729 -1.149111 0.023681 -3.089634 -0.016987 0.027224
    54 -0.963866 -2.785145 -0.085350 3.120666 0.073123 -0.176467
    55 0.028479 -1.457756 -0.013261 3.103750 -0.089022 0.015604
    56 0.021413 -0.957781 -0.019018 3.127352 -0.089093 0.015340
    57 1.164475 -2.543940 -0.170330 3.220775 0.091823 0.517632
    58 0.024032 -1.183731 0.017807 2.991503 0.109539 0.023838
    59 0.014898 -0.891802 0.023122 -3.090104 0.105225 0.038950
    60 -0.586770 -1.264477 0.200161 0.148374 0.421095 -5.840808
    61 1.612682 0.125089 0.016848 -0.048841 0.035459 -3.086547
    62 1.125760 0.028892 -0.005766 -0.043735 0.022033 -2.973078
    63 -0.139399 -0.111698 0.014397 0.285382 -0.030687 1.580508
    64 -8.174927 -0.313446 -0.477722 1.563355 -0.037518 -0.039209
  time 4
    0 9.654106 -8.462093 -6.848409 0.154858 -3.078861 1.183055
    1 5.492746 -0.508946 -0.763181 0.000000 -3.141592 1.570796
    2 6.225239 -0.508947 -0.763181 0.000000 -3.141592 1.570796
    3 4.765635 -0.508946 -0.763181 0.000000 -3.141592 1.570796
    4 5.492747 0.440855 -0.763181 0.000000 0.000000 -1.570796
    5 4.765635 0.440854 -0.763181 0.000000 0.000000 -1.570796
    6 6.225239 0.440854 -0.763181 0.000000 0.000000 -1.570796
    7 1.613046 -3.350949 0.877643 0.000000 0.000000 -3.054334
    8 -5.013273 -0.000002 0.000000 0.000000 0.000000 0.000000
    9 1.613047 3.280648 0.877641 3.141592 0.000000 -0.087259
    10 5.013275 0.000001 0.000000 0.000000 0.000000 0.000000
    11 3.665390 -0.034953 -2.563084 0.000000 0.000000 0.000000
    12 2.620763 0.000000 -0.918122 -3.036798 1.570787 0.000000
    13 -10.792272 -7.979904 -6.684656 0.178331 0.043923 1.815949
    14 -1.613047 -3.280649 -0.877641 3.141592 0.000000 -0.087259
    15 -5.013275 -0.000001 0.000000 0.000000 0.000000 0.000000
    16 -5.492747 0.508945 0.763181 0.000000 -3.141592 1.570796
    17 -6.225240 0.508945 0.763181 0.000000 -3.141592 1.570796
    18 -4.765636 0.508945 0.763181 0.000000 -3.141592 1.570796
    19 -5.492747 -0.440856 0.763181 0.000000 0.000000 -1.570796
    20 -4.765636 -0.440856 0.763181 0.000000 0.000000 -1.570796
    21 -6.225240 -0.440856 0.763181 0.000000 0.000000 -1.570796
    22 -1.613046 3.350949 -0.877643 0.000000 0.000000 -3.054334
    23 5.013275 0.000001 0.000000 0.000000 0.000000 0.000000
    24 -3.665390 0.034952 2.563085 0.000000 0.000000 0.000000
    25 -2.620764 0.000000 0.918122 -3.036798 1.570787 0.000000
    26 -0.002752 -1.622408 -8.698865 -0.140555 0.000000 0.000000
    27 10.899996 -5.241018 0.247120 6.206255 3.020424 -0.440498
    28 7.792536 2.875686 -0.341219 1.566563 -3.121474 0.433791
    29 -0.087546 -8.553426 -0.486958 3.094988 -0.184298 0.025864
    30 -0.488518 -2.755602 -0.228260 3.242492 0.031269 -0.215078
    31 0.039887 -1.550105 0.072824 3.080321 0.026078 0.046897
    32 0.032692 -1.341364 0.027674 3.137775 0.023442 0.048262
    33 0.250027 -2.820665 -0.238396 3.177920 -0.042470 -0.035145
    34 -0.049759 -1.668825 -0.051869 3.155800 -0.041347 -0.041888
    35 -0.034142 -1.234252 0.084782 3.095757 -0.042162 -0.041059
    36 0.957766 -2.746780 -0.090302 -3.153963 -0.247284 0.135866
    37 -0.033420 -1.428380 -0.034695 3.151379 -0.084312 -0.055657
    38 -0.022360 -1.012125 0.007065 3.141170 -0.085079 -0.054470
    39 -1.180681 -2.507217 -0.193859 3.219374 -0.058614 -0.534075
    40 -0.024967 -1.127840 0.025410 3.118854 -0.076294 -0.050059
    41 -0.020057 -0.863623 0.064779 3.076148 -0.075383 -0.051426
    42 0.657731 -1.123056 0.189285 0.377547 0.335078 2.757212
    43 0.907002 -0.067881 0.047979 0.541268 -0.077504 3.105925
    44 0.671070 -0.018911 0.016666 0.535001 -0.078645 3.116465
    45 0.120153 -0.050270 -0.054489 0.287569 3.110905 1.561085
    46 -11.864873 -4.645304 0.604204 -0.098187 -2.970374 0.314955
    47 0.112569 -8.567610 -0.368751 -3.077503 0.179264 -0.044931
    48 0.447953 -2.798986 -0.200443 3.243295 -0.014770 0.208275
    49 -0.032909 -1.472391 0.055723 3.015857 -0.012212 -0.055618
    50 -0.027022 -1.135516 0.042292 -3.007679 -0.003392 -0.056759
    51 -0.249534 -2.846964 -0.174213 3.177907 -0.012062 0.026923
    52 0.043235 -1.687847 0.033510 3.105981 -0.012361 0.036350
    53 0.031729 -1.149111 0.023681 -3.089634 -0.016987 0.027224
    54 -0.963866 -2.785145 -0.085350 3.120666 0.073123 -0.176467
    55 0.028479 -1.457756 -0.013261 3.103750 -0.089022 0.015604
    56 0.021413 -0.957781 -0.019018 3.127352 -0.089093 0.015340
    57 1.164475 -2.543940 -0.170330 3.220775 0.091823 0.517632
    58 0.024032 -1.183731 0.017807 2.991503 0.109539 0.023838
    59 0.014898 -0.891802 0.023122 -3.090104 0.105225 0.038950
    60 -0.586770 -1.264477 0.200161 0.148374 0.421095 -5.840808
    61 1.612682 0.125089 0.016848 -0.048841 0.035459 -3.086547
    62 1.125760 0.028892 -0.005766 -0.043735 0.022033 -2.973078
    63 -0.139399 -0.111698 0.014397 0.285382 -0.030687 1.580508
    64 -8.233523 1.069409 -0.469909 1.567477 -0.035798 -0.207885
  time 5
    0 10.036930 -8.204272 -6.719499 0.148109 -3.040515 1.276257
    1 5.492746 -0.508946 -0.763181 0.000000 -3.141592 1.570796
    2 6.225239 -0.508947 -0.763181 0.000000 -3.141592 1.570796
    3 4.765635 -0.508946 -0.763181 0.000000 -3.141592 1.570796
    4 5.492747 0.440855 -0.763181 0.000000 0.000000 -1.570796
    5 4.765635 0.440854 -0.763181 0.000000 0.000000 -1.570796
    6 6.225239 0.440854 -0.763181 0.000000 0.000000 -1.570796
    7 1.613046 -3.350949 0.877643 0.000000 0.000000 -3.054334
    8 -5.013273 -0.000002 0.000000 0.000000 0.000000 0.000000
    9 1.613047 3.280648 0.877641 3.141592 0.000000 -0.087259
    10 5.013275 0.000001 0.000000 0.000000 0.000000 0.000000
    11 3.665390 -0.034953 -2.563084 0.000000 0.000000 0.000000
    12 2.620763 0.000000 -0.918122 3.141593 1.570451 0.000000
    13 -10.573516 -8.448668 -6.657312 0.180397 0.044737 1.831623
    14 -1.613047 -3.280649 -0.877641 3.141592 0.000000 -0.087259
    15 -5.013275 -0.000001 0.000000 0.000000 0.000000 0.000000
    16 -5.492747 0.508945 0.763181 0.000000 -3.141592 1.570796
    17 -6.225240 0.508945 0.763181 0.000000 -3.141592 1.570796
    18 -4.765636 0.508945 0.763181 0.000000 -3.141592 1.570796
    19 -5.492747 -0.440856 0.763181 0.000000 0.000000 -1.570796
    20 -4.765636 -0.440856 0.763181 0.000000 0.000000 -1.570796
    21 -6.225240 -0.440856 0.763181 0.000000 0.000000 -1.570796
    22 -1.613046 3.350949 -0.877643 0.000000 0.000000 -3.054334
    23 5.013275 0.000001 0.000000 0.000000 0.000000 0.000000
    24 -3.665390 0.034952 2.563085 0.000000 0.000000 0.000000
    25 -2.620764 0.000000 0.918122 3.141593 1.570451 0.000000
    26 -0.002752 -1.622408 -8.698865 -0.140555 0.000000 0.000000
    27 11.103127 -4.916790 0.336966 6.240189 3.013142 -0.341842
    28 7.675345 3.266323 -0.333406 1.566179 -3.122432 0.484331
    29 -0.087546 -8.553426 -0.486958 3.094988 -0.184298 0.025852
    30 -0.488518 -2.755602 -0.228260 3.242492 0.031269 -0.215078
    31 0.039887 -1.550105 0.072824 3.080321 0.026078 0.046897
    32 0.032692 -1.341364 0.027674 3.137775 0.023442 0.048262
    33 0.250027 -2.820665 -0.238396 3.177920 -0.042470 -0.035145
    34 -0.049759 -1.668825 -0.051869 3.155800 -0.041347 -0.041888
    35 -0.034142 -1.234252 0.084782 3.095757 -0.042162 -0.041059
    36 0.957766 -2.746780 -0.090302 -3.153963 -0.247284 0.135866
    37 -0.033420 -1.428380 -0.034695 3.151379 -0.084312 -0.055657
    38 -0.022360 -1.012125 0.007065 3.141170 -0.085079 -0.054470
    39 -1.180681 -2.507217 -0.193859 3.219374 -0.058614 -0.534075
    40 -0.024967 -1.127840 0.025410 3.118854 -0.076294 -0.050059
    41 -0.020057 -0.863623 0.064779 3.076148 -0.075383 -0.051426
    42 0.657731 -1.123056 0.189285 0.377547 0.335078 2.757212
    43 0.907002 -0.067881 0.047979 0.541268 -0.077504 3.105925
    44 0.671070 -0.018911 0.016666 0.535017 -0.078645 3.116370
    45 0.120153 -0.050270 -0.054489 0.287569 3.110905 1.561085
    46 -11.677367 -5.129694 0.565140 -0.096832 -2.970346 0.330420
    47 0.112569 -8.571516 -0.368751 -3.081529 0.175616 -0.045219
    48 0.447953 -2.798986 -0.200443 3.243295 -0.014770 0.208275
    49 -0.032909 -1.472391 0.055723 3.015857 -0.012212 -0.055618
    50 -0.027022 -1.135516 0.042292 -3.007679 -0.003392 -0.056759
    51 -0.249534 -2.846964 -0.174213 3.177907 -0.012062 0.026923
    52 0.043235 -1.687847 0.033510 3.105981 -0.012361 0.036350
    53 0.031729 -1.149111 0.023681 -3.089634 -0.016987 0.027224
    54 -0.963866 -2.785145 -0.085350 3.120666 0.073123 -0.176467
    55 0.028479 -1.457756 -0.013261 3.103750 -0.089022 0.015604
    56 0.021413 -0.957781 -0.019018 3.127352 -0.089093 0.015340
    57 1.164475 -2.543940 -0.170330 3.220775 0.091823 0.517632
    58 0.024032 -1.183731 0.017807 2.991503 0.109539 0.023838
    59 0.014898 -0.891802 0.023122 -3.090104 0.105225 0.038950
    60 -0.586770 -1.264477 0.200161 0.148374 0.421095 -5.840808
    61 1.612682 0.125089 0.016848 -0.048841 0.035459 -3.086547
    62 1.125760 0.028892 -0.005766 -0.043735 0.022033 -2.973078
    63 -0.139399 -0.111698 0.014397 0.285382 -0.030687 1.580508
    64 -8.182740 1.690521 -0.466002 1.569203 -0.034842 -0.283616
end
