version 1
nodes
  0 "y20s1_root" -1
  1 "Bone053" 0
  2 "Bone054" 0
  3 "Bone052" 0
  4 "Bone055" 0
  5 "Bone057" 0
  6 "Bone056" 0
  7 "Bone068" 0
  8 "Bone067" 7
  9 "Bone065" 0
  10 "Bone066" 9
  11 "Bone046" 0
  12 "Bone047" 11
  13 "y20s1_root001" -1
  14 "Bone069" 13
  15 "Bone077" 14
  16 "Bone070" 13
  17 "Bone071" 13
  18 "Bone072" 13
  19 "Bone073" 13
  20 "Bone074" 13
  21 "Bone075" 13
  22 "Bone091" 13
  23 "Bone076" 22
  24 "Bone085" 13
  25 "Bone086" 24
  26 "root" -1
  27 "Bone01" 26
  28 "Bone_L_Upper" 27
  29 "Bone_Lefthand" 27
  30 "Bone13" 29
  31 "Bone14" 30
  32 "Bone15" 31
  33 "Bone17" 29
  34 "Bone18" 33
  35 "Bone19" 34
  36 "Bone21" 29
  37 "Bone22" 36
  38 "Bone23" 37
  39 "Bone09" 29
  40 "Bone10" 39
  41 "Bone11" 40
  42 "Bone05" 29
  43 "Bone06" 42
  44 "Bone07" 43
  45 "Bone_Se_Hand-L" 29
  46 "Bone04" 26
  47 "Bone_Righthand" 46
  48 "Bone39" 47
  49 "Bone40" 48
  50 "Bone41" 49
  51 "Bone35" 47
  52 "Bone36" 51
  53 "Bone37" 52
  54 "Bone31" 47
  55 "Bone32" 54
  56 "Bone33" 55
  57 "Bone43" 47
  58 "Bone44" 57
  59 "Bone45" 58
  60 "Bone27" 47
  61 "Bone28" 60
  62 "Bone29" 61
  63 "Bone_Se_Hand-R" 47
  64 "Bone_R_Upper" 46
end
skeleton
  time 0
    0 7.825925 -10.774663 -6.703873 -0.013405 -2.992304 1.435689
    1 5.492746 -0.508946 -0.763181 0.000000 -3.141592 1.570796
    2 6.225239 -0.508947 -0.763181 0.000000 -3.141592 1.570796
    3 4.765635 -0.508946 -0.763181 0.000000 -3.141592 1.570796
    4 5.492747 0.440855 -0.763181 0.000000 0.000000 -1.570796
    5 4.765635 0.440854 -0.763181 0.000000 0.000000 -1.570796
    6 6.225239 0.440854 -0.763181 0.000000 0.000000 -1.570796
    7 1.613046 -3.350949 0.877643 0.000000 0.000000 -3.054334
    8 -5.013273 -0.000002 0.000000 0.000000 0.000000 0.000000
    9 1.613047 3.280648 0.877641 3.141592 0.000000 -0.087259
    10 5.013275 0.000001 0.000000 0.000000 0.000000 0.000000
    11 3.665390 -0.034953 -2.563084 0.000000 0.000000 0.000000
    12 2.620763 0.000000 -0.918122 1.256561 1.570319 0.000000
    13 -8.010938 -10.886243 -6.715907 -0.026685 0.150266 1.702136
    14 -1.613047 -3.280649 -0.877641 3.141592 0.000000 -0.087259
    15 -5.013275 -0.000001 0.000000 0.000000 0.000000 0.000000
    16 -5.492747 0.508945 0.763181 0.000000 -3.141592 1.570796
    17 -6.225240 0.508945 0.763181 0.000000 -3.141592 1.570796
    18 -4.765636 0.508945 0.763181 0.000000 -3.141592 1.570796
    19 -5.492747 -0.440856 0.763181 0.000000 0.000000 -1.570796
    20 -4.765636 -0.440856 0.763181 0.000000 0.000000 -1.570796
    21 -6.225240 -0.440856 0.763181 0.000000 0.000000 -1.570796
    22 -1.613046 3.350949 -0.877643 0.000000 0.000000 -3.054334
    23 5.013275 0.000001 0.000000 0.000000 0.000000 0.000000
    24 -3.665390 0.034952 2.563085 0.000000 0.000000 0.000000
    25 -2.620764 0.000000 0.918122 1.256561 1.570319 0.000000
    26 -0.002752 -1.622408 -8.698865 -0.140555 0.000000 0.000000
    27 8.474140 -7.334832 -0.155236 0.006954 -3.132305 -0.177702
    28 3.683035 7.957873 -0.200589 1.567138 -3.138730 1.259491
    29 -0.068015 -8.545613 -0.506490 3.079237 -0.325451 -0.048369
    30 -0.488518 -2.755602 -0.228260 3.242492 0.031269 -0.215078
    31 0.039887 -1.550105 0.072824 3.080321 0.026078 0.046897
    32 0.032692 -1.341364 0.027674 3.137775 0.023442 0.048262
    33 0.250027 -2.820665 -0.238396 3.177920 -0.042470 -0.035145
    34 -0.049759 -1.668825 -0.051869 3.155800 -0.041347 -0.041888
    35 -0.034142 -1.234252 0.084782 3.095757 -0.042162 -0.041059
    36 0.957766 -2.746780 -0.090302 -3.153963 -0.247284 0.135866
    37 -0.033420 -1.428380 -0.034695 3.151379 -0.084312 -0.055657
    38 -0.022360 -1.012125 0.007065 3.141170 -0.085079 -0.054470
    39 -1.180681 -2.507217 -0.193859 3.219374 -0.058614 -0.534075
    40 -0.024967 -1.127840 0.025410 3.118854 -0.076294 -0.050059
    41 -0.020057 -0.863623 0.064779 3.076148 -0.075383 -0.051426
    42 0.657731 -1.123056 0.189285 0.377547 0.335078 2.757212
    43 0.907002 -0.067881 0.047979 0.541268 -0.077504 3.105925
    44 0.671070 -0.018911 0.016666 0.535001 -0.078645 3.116370
    45 0.120153 -0.050270 -0.054489 0.287569 3.110905 1.561085
    46 -8.708526 -7.450078 -0.145819 0.016228 -3.153147 0.181920
    47 0.089131 -8.559797 -0.396096 -3.104536 0.338530 0.025790
    48 0.447953 -2.798986 -0.200443 3.243295 -0.014770 0.208275
    49 -0.032909 -1.472391 0.055723 3.015857 -0.012212 -0.055618
    50 -0.027022 -1.135516 0.042292 -3.007679 -0.003392 -0.056759
    51 -0.249534 -2.846964 -0.174213 3.177907 -0.012062 0.026923
    52 0.043235 -1.687847 0.033510 3.105981 -0.012361 0.036350
    53 0.031729 -1.149111 0.023681 -3.089634 -0.016987 0.027224
    54 -0.963866 -2.785145 -0.085350 3.120666 0.073123 -0.176467
    55 0.028479 -1.457756 -0.013261 3.103750 -0.089022 0.015604
    56 0.021413 -0.957781 -0.019018 3.127352 -0.089093 0.015340
    57 1.164475 -2.543940 -0.170330 3.220775 0.091823 0.517632
    58 0.024032 -1.183731 0.017807 2.991503 0.109539 0.023838
    59 0.014898 -0.891802 0.023122 -3.090104 0.105225 0.038950
    60 -0.586770 -1.264477 0.200161 0.148374 0.421095 -5.840808
    61 1.612682 0.125089 0.016848 -0.048841 0.035459 -3.086547
    62 1.125760 0.028892 -0.005766 -0.043735 0.022033 -2.973078
    63 -0.139399 -0.111698 0.014397 0.285382 -0.030687 1.580508
    64 -4.038082 7.901649 -0.313654 1.581667 -0.014007 -1.224238
  time 1
    0 8.591574 -10.212146 -6.676528 0.036465 -2.992025 1.388247
    1 5.492746 -0.508946 -0.763181 0.000000 -3.141592 1.570796
    2 6.225239 -0.508947 -0.763181 0.000000 -3.141592 1.570796
    3 4.765635 -0.508946 -0.763181 0.000000 -3.141592 1.570796
    4 5.492747 0.440855 -0.763181 0.000000 0.000000 -1.570796
    5 4.765635 0.440854 -0.763181 0.000000 0.000000 -1.570796
    6 6.225239 0.440854 -0.763181 0.000000 0.000000 -1.570796
    7 1.613046 -3.350949 0.877643 0.000000 0.000000 -3.054334
    8 -5.013273 -0.000002 0.000000 0.000000 0.000000 0.000000
    9 1.613047 3.280648 0.877641 3.141592 0.000000 -0.087259
    10 5.013275 0.000001 0.000000 0.000000 0.000000 0.000000
    11 3.665390 -0.034953 -2.563084 0.000000 0.000000 0.000000
    12 2.620763 0.000000 -0.918122 0.942469 1.570787 0.000000
    13 -9.010968 -10.456542 -6.672937 0.042973 0.141849 1.742917
    14 -1.613047 -3.280649 -0.877641 3.141592 0.000000 -0.087259
    15 -5.013275 -0.000001 0.000000 0.000000 0.000000 0.000000
    16 -5.492747 0.508945 0.763181 0.000000 -3.141592 1.570796
    17 -6.225240 0.508945 0.763181 0.000000 -3.141592 1.570796
    18 -4.765636 0.508945 0.763181 0.000000 -3.141592 1.570796
    19 -5.492747 -0.440856 0.763181 0.000000 0.000000 -1.570796
    20 -4.765636 -0.440856 0.763181 0.000000 0.000000 -1.570796
    21 -6.225240 -0.440856 0.763181 0.000000 0.000000 -1.570796
    22 -1.613046 3.350949 -0.877643 0.000000 0.000000 -3.054334
    23 5.013275 0.000001 0.000000 0.000000 0.000000 0.000000
    24 -3.665390 0.034952 2.563085 0.000000 0.000000 0.000000
    25 -2.620764 0.000000 0.918122 0.942469 1.570787 0.000000
    26 -0.002752 -1.622408 -8.698865 -0.140555 0.000000 0.000000
    27 9.364793 -6.819192 -0.038045 0.006378 3.107328 -0.224143
    28 5.194800 6.946123 -0.239653 1.565604 -3.134128 1.035687
    29 -0.071921 -8.549519 -0.502584 3.082673 -0.284439 -0.026617
    30 -0.488518 -2.755602 -0.228260 3.242492 0.031269 -0.215078
    31 0.039887 -1.550105 0.072824 3.080321 0.026078 0.046897
    32 0.032692 -1.341364 0.027674 3.137775 0.023442 0.048262
    33 0.250027 -2.820665 -0.238396 3.177920 -0.042470 -0.035145
    34 -0.049759 -1.668825 -0.051869 3.155800 -0.041347 -0.041888
    35 -0.034142 -1.234252 0.084782 3.095757 -0.042162 -0.041059
    36 0.957766 -2.746780 -0.090302 -3.153963 -0.247284 0.135866
    37 -0.033420 -1.428380 -0.034695 3.151379 -0.084312 -0.055657
    38 -0.022360 -1.012125 0.007065 3.141170 -0.085079 -0.054470
    39 -1.180681 -2.507217 -0.193859 3.219374 -0.058614 -0.534075
    40 -0.024967 -1.127840 0.025410 3.118854 -0.076294 -0.050059
    41 -0.020057 -0.863623 0.064779 3.076148 -0.075383 -0.051426
    42 0.657731 -1.123056 0.189285 0.377547 0.335078 2.757212
    43 0.907002 -0.067881 0.047979 0.541268 -0.077504 3.105925
    44 0.671070 -0.018911 0.016666 0.535001 -0.078645 3.116370
    45 0.120153 -0.050270 -0.054489 0.287569 3.110905 1.561085
    46 -9.837467 -7.059441 0.002623 0.005350 -3.089609 0.222164
    47 0.096944 -8.563703 -0.388283 -3.098880 0.291155 0.005033
    48 0.447953 -2.798986 -0.200443 3.243295 -0.014770 0.208275
    49 -0.032909 -1.472391 0.055723 3.015857 -0.012212 -0.055618
    50 -0.027022 -1.135516 0.042292 -3.007679 -0.003392 -0.056759
    51 -0.249534 -2.846964 -0.174213 3.177907 -0.012062 0.026923
    52 0.043235 -1.687847 0.033510 3.105981 -0.012361 0.036350
    53 0.031729 -1.149111 0.023681 -3.089634 -0.016987 0.027224
    54 -0.963866 -2.785145 -0.085350 3.120666 0.073123 -0.176467
    55 0.028479 -1.457756 -0.013261 3.103750 -0.089022 0.015604
    56 0.021413 -0.957781 -0.019018 3.127352 -0.089093 0.015340
    57 1.164475 -2.543940 -0.170330 3.220775 0.091823 0.517632
    58 0.024032 -1.183731 0.017807 2.991503 0.109539 0.023838
    59 0.014898 -0.891802 0.023122 -3.090104 0.105225 0.038950
    60 -0.586770 -1.264477 0.200161 0.148374 0.421095 -5.840808
    61 1.612682 0.125089 0.016848 -0.048841 0.035459 -3.086547
    62 1.125760 0.028892 -0.005766 -0.043735 0.022033 -2.973078
    63 -0.139399 -0.111698 0.014397 0.285382 -0.030687 1.580508
    64 -5.819386 6.553951 -0.368343 1.580229 -0.021175 -0.952388
  time 2
    0 9.337690 -9.399621 -6.676528 0.090740 -3.005799 1.335944
    1 5.492746 -0.508946 -0.763181 0.000000 -3.141592 1.570796
    2 6.225239 -0.508947 -0.763181 0.000000 -3.141592 1.570796
    3 4.765635 -0.508946 -0.763181 0.000000 -3.141592 1.570796
    4 5.492747 0.440855 -0.763181 0.000000 0.000000 -1.570796
    5 4.765635 0.440854 -0.763181 0.000000 0.000000 -1.570796
    6 6.225239 0.440854 -0.763181 0.000000 0.000000 -1.570796
    7 1.613046 -3.350949 0.877643 0.000000 0.000000 -3.054334
    8 -5.013273 -0.000002 0.000000 0.000000 0.000000 0.000000
    9 1.613047 3.280648 0.877641 3.141592 0.000000 -0.087259
    10 5.013275 0.000001 0.000000 0.000000 0.000000 0.000000
    11 3.665390 -0.034953 -2.563084 0.000000 0.000000 0.000000
    12 2.620763 0.000000 -0.918122 0.628281 1.570787 0.000000
    13 -9.905527 -9.683081 -6.649499 0.114169 0.109667 1.786264
    14 -1.613047 -3.280649 -0.877641 3.141592 0.000000 -0.087259
    15 -5.013275 -0.000001 0.000000 0.000000 0.000000 0.000000
    16 -5.492747 0.508945 0.763181 0.000000 -3.141592 1.570796
    17 -6.225240 0.508945 0.763181 0.000000 -3.141592 1.570796
    18 -4.765636 0.508945 0.763181 0.000000 -3.141592 1.570796
    19 -5.492747 -0.440856 0.763181 0.000000 0.000000 -1.570796
    20 -4.765636 -0.440856 0.763181 0.000000 0.000000 -1.570796
    21 -6.225240 -0.440856 0.763181 0.000000 0.000000 -1.570796
    22 -1.613046 3.350949 -0.877643 0.000000 0.000000 -3.054334
    23 5.013275 0.000001 0.000000 0.000000 0.000000 0.000000
    24 -3.665390 0.034952 2.563085 0.000000 0.000000 0.000000
    25 -2.620764 0.000000 0.918122 0.628281 1.570787 0.000000
    26 -0.002752 -1.622408 -8.698865 -0.140555 0.000000 0.000000
    27 10.251538 -6.053543 0.122116 6.275178 3.060858 -0.276883
    28 6.573748 5.446077 -0.282623 1.565029 -3.128760 0.784802
    29 -0.079734 -8.549519 -0.494771 3.087637 -0.238748 -0.002647
    30 -0.488518 -2.755602 -0.228260 3.242492 0.031269 -0.215078
    31 0.039887 -1.550105 0.072824 3.080321 0.026078 0.046897
    32 0.032692 -1.341364 0.027674 3.137775 0.023442 0.048262
    33 0.250027 -2.820665 -0.238396 3.177920 -0.042470 -0.035145
    34 -0.049759 -1.668825 -0.051869 3.155800 -0.041347 -0.041888
    35 -0.034142 -1.234252 0.084782 3.095757 -0.042162 -0.041059
    36 0.957766 -2.746780 -0.090302 -3.153963 -0.247284 0.135866
    37 -0.033420 -1.428380 -0.034695 3.151379 -0.084312 -0.055657
    38 -0.022360 -1.012125 0.007065 3.141170 -0.085079 -0.054470
    39 -1.180681 -2.507217 -0.193859 3.219374 -0.058614 -0.534075
    40 -0.024967 -1.127840 0.025410 3.118854 -0.076294 -0.050059
    41 -0.020057 -0.863623 0.064779 3.076148 -0.075383 -0.051426
    42 0.657731 -1.123056 0.189285 0.377547 0.335078 2.757212
    43 0.907002 -0.067881 0.047979 0.541268 -0.077504 3.105925
    44 0.671070 -0.018911 0.016666 0.535001 -0.078645 3.116370
    45 0.120153 -0.050270 -0.054489 0.287569 3.110905 1.561085
    46 -10.868749 -6.325043 0.229192 -0.029187 -3.026142 0.269756
    47 0.104757 -8.567610 -0.380470 -3.091595 0.238391 -0.017858
    48 0.447953 -2.798986 -0.200443 3.243295 -0.014770 0.208275
    49 -0.032909 -1.472391 0.055723 3.015857 -0.012212 -0.055618
    50 -0.027022 -1.135516 0.042292 -3.007679 -0.003392 -0.056759
    51 -0.249534 -2.846964 -0.174213 3.177907 -0.012062 0.026923
    52 0.043235 -1.687847 0.033510 3.105981 -0.012361 0.036350
    53 0.031729 -1.149111 0.023681 -3.089634 -0.016987 0.027224
    54 -0.963866 -2.785145 -0.085350 3.120666 0.073123 -0.176467
    55 0.028479 -1.457756 -0.013261 3.103750 -0.089022 0.015604
    56 0.021413 -0.957781 -0.019018 3.127352 -0.089093 0.015340
    57 1.164475 -2.543940 -0.170330 3.220775 0.091823 0.517632
    58 0.024032 -1.183731 0.017807 2.991503 0.109539 0.023838
    59 0.014898 -0.891802 0.023122 -3.090104 0.105225 0.038950
    60 -0.586770 -1.264477 0.200161 0.148374 0.421095 -5.840808
    61 1.612682 0.125089 0.016848 -0.048841 0.035459 -3.086547
    62 1.125760 0.028892 -0.005766 -0.043735 0.022033 -2.973078
    63 -0.139399 -0.111698 0.014397 0.285382 -0.030687 1.580508
    64 -7.299900 4.542171 -0.419126 1.576394 -0.028247 -0.647836
  time 3
    0 9.845518 -8.598816 -6.703873 0.131611 -3.027671 1.294345
    1 5.492746 -0.508946 -0.763181 0.000000 -3.141592 1.570796
    2 6.225239 -0.508947 -0.763181 0.000000 -3.141592 1.570796
    3 4.765635 -0.508946 -0.763181 0.000000 -3.141592 1.570796
    4 5.492747 0.440855 -0.763181 0.000000 0.000000 -1.570796
    5 4.765635 0.440854 -0.763181 0.000000 0.000000 -1.570796
    6 6.225239 0.440854 -0.763181 0.000000 0.000000 -1.570796
    7 1.613046 -3.350949 0.877643 0.000000 0.000000 -3.054334
    8 -5.013273 -0.000002 0.000000 0.000000 0.000000 0.000000
    9 1.613047 3.280648 0.877641 3.141592 0.000000 -0.087259
    10 5.013275 0.000001 0.000000 0.000000 0.000000 0.000000
    11 3.665390 -0.034953 -2.563084 0.000000 0.000000 0.000000
    12 2.620763 0.000000 -0.918122 0.314093 1.570787 0.000000
    13 -10.417261 -8.858837 -6.649499 0.162681 0.067335 1.818376
    14 -1.613047 -3.280649 -0.877641 3.141592 0.000000 -0.087259
    15 -5.013275 -0.000001 0.000000 0.000000 0.000000 0.000000
    16 -5.492747 0.508945 0.763181 0.000000 -3.141592 1.570796
    17 -6.225240 0.508945 0.763181 0.000000 -3.141592 1.570796
    18 -4.765636 0.508945 0.763181 0.000000 -3.141592 1.570796
    19 -5.492747 -0.440856 0.763181 0.000000 0.000000 -1.570796
    20 -4.765636 -0.440856 0.763181 0.000000 0.000000 -1.570796
    21 -6.225240 -0.440856 0.763181 0.000000 0.000000 -1.570796
    22 -1.613046 3.350949 -0.877643 0.000000 0.000000 -3.054334
    23 5.013275 0.000001 0.000000 0.000000 0.000000 0.000000
    24 -3.665390 0.034952 2.563085 0.000000 0.000000 0.000000
    25 -2.620764 0.000000 0.918122 0.314093 1.570787 0.000000
    26 -0.002752 -1.622408 -8.698865 -0.140555 0.000000 0.000000
    27 10.868745 -5.295708 0.270558 6.253130 3.026652 -0.321462
    28 7.401899 3.977282 -0.317781 1.565604 -3.124350 0.577495
    29 -0.083640 -8.553426 -0.490865 3.092506 -0.201135 0.017019
    30 -0.488518 -2.755602 -0.228260 3.242492 0.031269 -0.215078
    31 0.039887 -1.550105 0.072824 3.080321 0.026078 0.046897
    32 0.032692 -1.341364 0.027674 3.137775 0.023442 0.048262
    33 0.250027 -2.820665 -0.238396 3.177920 -0.042470 -0.035145
    34 -0.049759 -1.668825 -0.051869 3.155800 -0.041347 -0.041888
    35 -0.034142 -1.234252 0.084782 3.095757 -0.042162 -0.041059
    36 0.957766 -2.746780 -0.090302 -3.153963 -0.247284 0.135866
    37 -0.033420 -1.428380 -0.034695 3.151379 -0.084312 -0.055657
    38 -0.022360 -1.012125 0.007065 3.141170 -0.085079 -0.054470
    39 -1.180681 -2.507217 -0.193859 3.219374 -0.058614 -0.534075
    40 -0.024967 -1.127840 0.025410 3.118854 -0.076294 -0.050059
    41 -0.020057 -0.863623 0.064779 3.076148 -0.075383 -0.051426
    42 0.657731 -1.123056 0.189285 0.377547 0.335078 2.757212
    43 0.907002 -0.067881 0.047979 0.541268 -0.077504 3.105925
    44 0.671070 -0.018911 0.016666 0.535001 -0.078645 3.116370
    45 0.120153 -0.050270 -0.054489 0.287569 3.110905 1.561085
    46 -11.482049 -5.528144 0.455762 -0.073392 -2.984649 0.311281
    47 0.108663 -8.567610 -0.372657 -3.084788 0.195008 -0.036734
    48 0.447953 -2.798986 -0.200443 3.243295 -0.014770 0.208275
    49 -0.032909 -1.472391 0.055723 3.015857 -0.012212 -0.055618
    50 -0.027022 -1.135516 0.042292 -3.007679 -0.003392 -0.056759
    51 -0.249534 -2.846964 -0.174213 3.177907 -0.012062 0.026923
    52 0.043235 -1.687847 0.033510 3.105981 -0.012361 0.036350
    53 0.031729 -1.149111 0.023681 -3.089634 -0.016987 0.027224
    54 -0.963866 -2.785145 -0.085350 3.120666 0.073123 -0.176467
    55 0.028479 -1.457756 -0.013261 3.103750 -0.089022 0.015604
    56 0.021413 -0.957781 -0.019018 3.127352 -0.089093 0.015340
    57 1.164475 -2.543940 -0.170330 3.220775 0.091823 0.517632
    58 0.024032 -1.183731 0.017807 2.991503 0.109539 0.023838
    59 0.014898 -0.891802 0.023122 -3.090104 0.105225 0.038950
    60 -0.586770 -1.264477 0.200161 0.148374 0.421095 -5.840808
    61 1.612682 0.125089 0.016848 -0.048841 0.035459 -3.086547
    62 1.125760 0.028892 -0.005766 -0.043735 0.022033 -2.973078
    63 -0.139399 -0.111698 0.014397 0.285382 -0.030687 1.580508
    64 -8.022579 2.604612 -0.454283 1.571696 -0.033026 -0.396257
  time 4
    0 10.036930 -8.204272 -6.719499 0.148109 -3.040515 1.276257
    1 5.492746 -0.508946 -0.763181 0.000000 -3.141592 1.570796
    2 6.225239 -0.508947 -0.763181 0.000000 -3.141592 1.570796
    3 4.765635 -0.508946 -0.763181 0.000000 -3.141592 1.570796
    4 5.492747 0.440855 -0.763181 0.000000 0.000000 -1.570796
    5 4.765635 0.440854 -0.763181 0.000000 0.000000 -1.570796
    6 6.225239 0.440854 -0.763181 0.000000 0.000000 -1.570796
    7 1.613046 -3.350949 0.877643 0.000000 0.000000 -3.054334
    8 -5.013273 -0.000002 0.000000 0.000000 0.000000 0.000000
    9 1.613047 3.280648 0.877641 3.141592 0.000000 -0.087259
    10 5.013275 0.000001 0.000000 0.000000 0.000000 0.000000
    11 3.665390 -0.034953 -2.563084 0.000000 0.000000 0.000000
    12 2.620763 0.000000 -0.918122 0.000001 1.570451 0.000000
    13 -10.573516 -8.448668 -6.657312 0.180397 0.044737 1.831623
    14 -1.613047 -3.280649 -0.877641 3.141592 0.000000 -0.087259
    15 -5.013275 -0.000001 0.000000 0.000000 0.000000 0.000000
    16 -5.492747 0.508945 0.763181 0.000000 -3.141592 1.570796
    17 -6.225240 0.508945 0.763181 0.000000 -3.141592 1.570796
    18 -4.765636 0.508945 0.763181 0.000000 -3.141592 1.570796
    19 -5.492747 -0.440856 0.763181 0.000000 0.000000 -1.570796
    20 -4.765636 -0.440856 0.763181 0.000000 0.000000 -1.570796
    21 -6.225240 -0.440856 0.763181 0.000000 0.000000 -1.570796
    22 -1.613046 3.350949 -0.877643 0.000000 0.000000 -3.054334
    23 5.013275 0.000001 0.000000 0.000000 0.000000 0.000000
    24 -3.665390 0.034952 2.563085 0.000000 0.000000 0.000000
    25 -2.620764 0.000000 0.918122 0.000001 1.570451 0.000000
    26 -0.002752 -1.622408 -8.698865 -0.140555 0.000000 0.000000
    27 11.103127 -4.916790 0.336966 6.240189 3.013142 -0.341842
    28 7.675345 3.266323 -0.333406 1.566179 -3.122432 0.484331
    29 -0.087546 -8.553426 -0.486958 3.094988 -0.184298 0.025852
    30 -0.488518 -2.755602 -0.228260 3.242492 0.031269 -0.215078
    31 0.039887 -1.550105 0.072824 3.080321 0.026078 0.046897
    32 0.032692 -1.341364 0.027674 3.137775 0.023442 0.048262
    33 0.250027 -2.820665 -0.238396 3.177920 -0.042470 -0.035145
    34 -0.049759 -1.668825 -0.051869 3.155800 -0.041347 -0.041888
    35 -0.034142 -1.234252 0.084782 3.095757 -0.042162 -0.041059
    36 0.957766 -2.746780 -0.090302 -3.153963 -0.247284 0.135866
    37 -0.033420 -1.428380 -0.034695 3.151379 -0.084312 -0.055657
    38 -0.022360 -1.012125 0.007065 3.141170 -0.085079 -0.054470
    39 -1.180681 -2.507217 -0.193859 3.219374 -0.058614 -0.534075
    40 -0.024967 -1.127840 0.025410 3.118854 -0.076294 -0.050059
    41 -0.020057 -0.863623 0.064779 3.076148 -0.075383 -0.051426
    42 0.657731 -1.123056 0.189285 0.377547 0.335078 2.757212
    43 0.907002 -0.067881 0.047979 0.541268 -0.077504 3.105925
    44 0.671070 -0.018911 0.016666 0.535001 -0.078645 3.116370
    45 0.120153 -0.050270 -0.054489 0.287569 3.110905 1.561085
    46 -11.677367 -5.129694 0.565140 -0.096832 -2.970346 0.330420
    47 0.112569 -8.571516 -0.368751 -3.081529 0.175616 -0.045219
    48 0.447953 -2.798986 -0.200443 3.243295 -0.014770 0.208275
    49 -0.032909 -1.472391 0.055723 3.015857 -0.012212 -0.055618
    50 -0.027022 -1.135516 0.042292 -3.007679 -0.003392 -0.056759
    51 -0.249534 -2.846964 -0.174213 3.177907 -0.012062 0.026923
    52 0.043235 -1.687847 0.033510 3.105981 -0.012361 0.036350
    53 0.031729 -1.149111 0.023681 -3.089634 -0.016987 0.027224
    54 -0.963866 -2.785145 -0.085350 3.120666 0.073123 -0.176467
    55 0.028479 -1.457756 -0.013261 3.103750 -0.089022 0.015604
    56 0.021413 -0.957781 -0.019018 3.127352 -0.089093 0.015340
    57 1.164475 -2.543940 -0.170330 3.220775 0.091823 0.517632
    58 0.024032 -1.183731 0.017807 2.991503 0.109539 0.023838
    59 0.014898 -0.891802 0.023122 -3.090104 0.105225 0.038950
    60 -0.586770 -1.264477 0.200161 0.148374 0.421095 -5.840808
    61 1.612682 0.125089 0.016848 -0.048841 0.035459 -3.086547
    62 1.125760 0.028892 -0.005766 -0.043735 0.022033 -2.973078
    63 -0.139399 -0.111698 0.014397 0.285382 -0.030687 1.580508
    64 -8.182740 1.690521 -0.466002 1.569203 -0.034842 -0.283616
end
