version 1
nodes
  0 "root" -1
  1 "Bone01" 0
  2 "Bone_Lefthand" 1
  3 "coilmg_root" 2
  4 "trigger" 3
  5 "reload01" 3
  6 "battery" 3
  7 "reload02" 3
  8 "reload" 3
  9 "coil" 3
  10 "handle" 3
  11 "Bone_L_Upper" 1
  12 "Bone13" 2
  13 "Bone14" 12
  14 "Bone15" 13
  15 "Bone17" 2
  16 "Bone18" 15
  17 "Bone19" 16
  18 "Bone21" 2
  19 "Bone22" 18
  20 "Bone23" 19
  21 "Bone09" 2
  22 "Bone10" 21
  23 "Bone11" 22
  24 "Bone05" 2
  25 "Bone06" 24
  26 "Bone07" 25
  27 "Bone_Se_Hand-L" 2
  28 "Bone04" 0
  29 "Bone_Righthand" 28
  30 "Bone39" 29
  31 "Bone40" 30
  32 "Bone41" 31
  33 "Bone35" 29
  34 "Bone36" 33
  35 "Bone37" 34
  36 "Bone31" 29
  37 "Bone32" 36
  38 "Bone33" 37
  39 "Bone43" 29
  40 "Bone44" 39
  41 "Bone45" 40
  42 "Bone27" 29
  43 "Bone28" 42
  44 "Bone29" 43
  45 "Bone_Se_Hand-R" 29
  46 "Bone_R_Upper" 28
end
skeleton
  time 0
    0 -1.496139 4.996246 1.996155 0.000000 0.000000 0.000000
    1 9.213061 0.524484 -7.904157 -0.149965 -1.612725 -0.045697
    2 -0.071918 -8.498731 -0.104136 0.151252 0.282508 0.057556
    3 1.973201 -3.178651 0.974316 -0.053772 0.246034 3.130544
    4 0.748278 0.812449 -0.000037 0.000000 0.000000 0.000000
    5 -1.447341 2.742330 1.587808 3.141550 0.785401 -0.004042
    6 2.021398 3.485291 -0.000179 0.000002 -0.000009 -0.004012
    7 -1.443540 3.689672 1.587837 3.141550 0.785400 -0.004042
    8 -0.090965 5.612166 1.353291 -3.139586 1.570796 0.000000
    9 -0.179153 7.772105 0.000706 0.000002 -0.000030 1.566784
    10 1.428550 7.411645 0.590113 1.564803 -1.570796 0.000000
    11 1.257180 8.762585 -0.153713 -1.570562 0.002683 -1.566807
    12 -0.488518 -2.755602 -0.228260 -1.126782 -0.317842 -0.189634
    13 0.039887 -1.479790 0.029854 -1.884480 0.000000 0.000001
    14 0.028786 -1.075731 -0.023109 -0.606341 0.000000 0.000000
    15 0.250027 -2.820665 -0.238396 -0.768180 -0.290767 -0.241939
    16 -0.049759 -1.680544 0.100479 -1.934764 0.000000 -0.000002
    17 -0.034142 -1.148312 0.084782 -0.925883 0.000000 0.000000
    18 0.957766 -2.746780 -0.090302 -0.326543 -0.214230 0.016080
    19 -0.033420 -1.397129 -0.011257 -0.520996 0.000000 -0.000001
    20 -0.022360 -0.957436 0.018784 -0.975516 0.000000 0.000000
    21 -1.180681 -2.507217 -0.193859 -0.609335 -0.185626 -0.146241
    22 -0.024967 -1.123934 0.017597 -1.794512 0.000000 0.000001
    23 -0.020057 -0.890968 0.010090 -0.677836 0.000000 0.000000
    24 0.583510 -1.197277 0.185379 0.180201 -0.812074 -1.291278
    25 1.535927 0.010246 0.005009 -0.002964 -0.012979 -0.419370
    26 1.100771 0.004527 -0.010679 -0.016063 0.002203 -1.257798
    27 0.120153 -0.050270 -0.054489 0.287569 3.110905 1.561085
    28 -4.380269 -10.426731 -10.579731 -1.074842 -1.120606 -4.351637
    29 0.096944 -8.450418 -0.009365 -1.395019 -1.204989 1.090242
    30 0.447953 -2.798986 -0.200443 -0.528111 0.022130 0.179272
    31 -0.032909 -1.480204 0.004940 -1.165523 0.000000 0.000002
    32 -0.027022 -1.076920 -0.020210 -0.581949 0.000000 0.000000
    33 -0.249534 -2.846964 -0.174213 -0.412731 0.014268 0.088092
    34 0.043235 -1.683941 0.096012 -1.134542 0.002823 -0.000167
    35 0.031729 -1.160830 0.058838 -0.744938 0.000642 0.008372
    36 -0.963866 -2.785145 -0.085350 -0.083775 0.106943 0.187996
    37 0.028479 -1.403067 0.006271 -0.410450 0.000000 0.000000
    38 0.021413 -0.957781 0.020046 -0.738161 0.000000 0.000000
    39 1.164475 -2.543940 -0.170330 -0.777000 0.027082 0.111069
    40 0.024032 -1.129042 0.017807 -1.320727 0.000000 0.000001
    41 0.014898 -0.883989 -0.019848 -0.845482 0.000000 0.000000
    42 -0.586770 -1.264477 0.200161 -0.405601 -0.617882 -2.355749
    43 1.522835 0.058681 0.016848 -0.064086 0.114641 0.796569
    44 1.117947 0.048424 -0.005766 -0.006175 -0.024431 0.303541
    45 -0.139399 -0.111698 0.014397 0.653645 -0.030687 1.580508
    46 -1.393470 8.839177 -0.239433 1.580804 -0.005023 -1.566847
  time 1
    0 -1.496139 7.281472 1.996155 0.000000 0.000000 0.000000
    1 9.213061 0.524484 -7.904157 -0.149965 -1.612725 -0.045697
    2 -0.071918 -8.498731 -0.104136 0.151252 0.282508 0.057556
    3 1.973201 -3.178651 0.974316 -0.053772 0.246034 3.130544
    4 0.748278 0.812449 -0.000037 0.000000 0.000000 0.000000
    5 -1.447341 2.742330 1.587808 3.141550 0.785401 -0.004042
    6 2.021398 3.485291 -0.000179 0.000002 -0.000009 -0.004012
    7 -1.443540 3.689672 1.587837 3.141550 0.785400 -0.004042
    8 -0.090965 5.612166 1.353291 -3.139586 1.570796 0.000000
    9 -0.179153 7.772105 0.000706 0.000002 -0.000030 1.566784
    10 1.428550 7.411645 0.590113 1.564803 -1.570796 0.000000
    11 1.257180 8.762585 -0.153713 -1.570562 0.002683 -1.566807
    12 -0.488518 -2.755602 -0.228260 -1.126782 -0.317842 -0.189634
    13 0.039887 -1.479790 0.029854 -1.884480 0.000000 0.000001
    14 0.028786 -1.075731 -0.023109 -0.606341 0.000000 0.000000
    15 0.250027 -2.820665 -0.238396 -0.768180 -0.290767 -0.241939
    16 -0.049759 -1.680544 0.100479 -1.934764 0.000000 -0.000002
    17 -0.034142 -1.148312 0.084782 -0.925883 0.000000 0.000000
    18 0.957766 -2.746780 -0.090302 -0.326543 -0.214230 0.016080
    19 -0.033420 -1.397129 -0.011257 -0.602823 0.000000 -0.000001
    20 -0.022360 -0.957436 0.018784 -0.975516 0.000000 0.000000
    21 -1.180681 -2.507217 -0.193859 -0.609335 -0.185626 -0.146241
    22 -0.024967 -1.123934 0.017597 -1.794512 0.000000 0.000001
    23 -0.020057 -0.890968 0.010090 -0.677836 0.000000 0.000000
    24 0.583510 -1.197277 0.185379 0.180201 -0.812074 -1.291278
    25 1.535927 0.010246 0.005009 -0.002964 -0.012979 -0.419370
    26 1.100771 0.004527 -0.010679 -0.016063 0.002203 -1.257798
    27 0.120153 -0.050270 -0.054489 0.287569 3.110905 1.561085
    28 -4.380269 -10.426731 -11.130529 -1.074842 -1.120606 -4.351637
    29 0.096944 -8.450418 -0.009365 -1.307731 -1.204989 1.090242
    30 0.447953 -2.798986 -0.200443 -0.537200 0.022130 0.179272
    31 -0.032909 -1.480204 0.004940 -1.165523 0.000000 0.000002
    32 -0.027022 -1.076920 -0.020210 -0.581949 0.000000 0.000000
    33 -0.249534 -2.846964 -0.174213 -0.421808 0.014268 0.088092
    34 0.043235 -1.683941 0.096012 -1.134542 0.002823 -0.000167
    35 0.031729 -1.160830 0.058838 -0.744938 0.000642 0.008372
    36 -0.963866 -2.785145 -0.085350 -0.101920 0.106943 0.187996
    37 0.028479 -1.403067 0.006271 -0.410450 0.000000 0.000000
    38 0.021413 -0.957781 0.020046 -0.738161 0.000000 0.000000
    39 1.164475 -2.543940 -0.170330 -0.786078 0.027082 0.111069
    40 0.024032 -1.129042 0.017807 -1.320727 0.000000 0.000001
    41 0.014898 -0.883989 -0.019848 -0.845482 0.000000 0.000000
    42 -0.586770 -1.264477 0.200161 -0.399386 -0.621214 -2.366210
    43 1.522835 0.058681 0.016848 -0.061905 0.115624 0.814824
    44 1.117947 0.048424 -0.005766 -0.006571 -0.024215 0.321699
    45 -0.139399 -0.111698 0.014397 0.653645 -0.030687 1.580508
    46 -1.393470 8.839177 -0.239433 1.580804 -0.005023 -1.566847
  time 2
    0 -1.496139 7.203345 1.996155 -0.007124 0.000000 0.000000
    1 9.213061 0.524484 -7.904157 -0.149965 -1.612725 -0.045697
    2 -0.071918 -8.498731 -0.104136 0.151252 0.282508 0.057556
    3 1.973201 -3.178651 0.974316 -0.053772 0.246034 3.130544
    4 0.748278 0.812449 -0.000037 0.000000 0.000000 0.000000
    5 -1.447341 2.742330 1.587808 3.141550 0.785401 -0.004042
    6 2.021398 3.485291 -0.000179 0.000002 -0.000009 -0.004012
    7 -1.443540 3.689672 1.587837 3.141550 0.785400 -0.004042
    8 -0.090965 5.612166 1.353291 -3.139586 1.570796 0.000000
    9 -0.179153 7.772105 0.000706 0.000002 -0.000030 1.566784
    10 1.428550 7.411645 0.590113 1.564803 -1.570796 0.000000
    11 1.257180 8.762585 -0.153713 -1.570562 0.002683 -1.566807
    12 -0.488518 -2.755602 -0.228260 -1.126782 -0.317842 -0.189634
    13 0.039887 -1.479790 0.029854 -1.884480 0.000000 0.000001
    14 0.028786 -1.075731 -0.023109 -0.606341 0.000000 0.000000
    15 0.250027 -2.820665 -0.238396 -0.768180 -0.290767 -0.241939
    16 -0.049759 -1.680544 0.100479 -1.934764 0.000000 -0.000002
    17 -0.034142 -1.148312 0.084782 -0.925883 0.000000 0.000000
    18 0.957766 -2.746780 -0.090302 -0.326543 -0.214230 0.016080
    19 -0.033420 -1.397129 -0.011257 -0.782791 0.000000 -0.000001
    20 -0.022360 -0.957436 0.018784 -0.975516 0.000000 0.000000
    21 -1.180681 -2.507217 -0.193859 -0.609335 -0.185626 -0.146241
    22 -0.024967 -1.123934 0.017597 -1.794512 0.000000 0.000001
    23 -0.020057 -0.890968 0.010090 -0.677836 0.000000 0.000000
    24 0.583510 -1.197277 0.185379 0.180201 -0.812074 -1.291278
    25 1.535927 0.010246 0.005009 -0.002964 -0.012979 -0.419370
    26 1.100771 0.004527 -0.010679 -0.016063 0.002203 -1.257798
    27 0.120153 -0.050270 -0.054489 0.287569 3.110905 1.561085
    28 -4.380269 -10.426731 -11.071934 -1.074842 -1.120606 -4.351637
    29 0.096944 -8.450418 -0.009365 -1.316797 -1.204989 1.090242
    30 0.447953 -2.798986 -0.200443 -0.558856 0.022130 0.179272
    31 -0.032909 -1.480204 0.004940 -1.165523 0.000000 0.000002
    32 -0.027022 -1.076920 -0.020210 -0.581949 0.000000 0.000000
    33 -0.249534 -2.846964 -0.174213 -0.443459 0.014268 0.088092
    34 0.043235 -1.683941 0.096012 -1.134542 0.002823 -0.000167
    35 0.031729 -1.160830 0.058838 -0.744938 0.000642 0.008372
    36 -0.963866 -2.785145 -0.085350 -0.145200 0.106943 0.187996
    37 0.028479 -1.403067 0.006271 -0.410450 0.000000 0.000000
    38 0.021413 -0.957781 0.020046 -0.738161 0.000000 0.000000
    39 1.164475 -2.543940 -0.170330 -0.807725 0.027082 0.111069
    40 0.024032 -1.129042 0.017807 -1.320727 0.000000 0.000001
    41 0.014898 -0.883989 -0.019848 -0.845482 0.000000 0.000000
    42 -0.586770 -1.264477 0.200161 -0.384567 -0.629163 -2.391201
    43 1.522835 0.058681 0.016848 -0.056703 0.117949 0.858361
    44 1.117947 0.048424 -0.005766 -0.007530 -0.023688 0.364977
    45 -0.139399 -0.111698 0.014397 0.653645 -0.030687 1.580508
    46 -1.393470 8.839177 -0.239433 1.580804 -0.005023 -1.566847
  time 3
    0 -1.496139 6.992401 1.996155 -0.022811 0.000000 0.000000
    1 9.213061 0.524484 -7.904157 -0.149965 -1.612725 -0.045697
    2 -0.071918 -8.498731 -0.104136 0.151252 0.282508 0.057556
    3 1.973201 -3.178651 0.974316 -0.053772 0.246034 3.130544
    4 0.748278 0.812449 -0.000037 0.000000 0.000000 0.000000
    5 -1.447341 2.742330 1.587808 3.141550 0.785401 -0.004042
    6 2.021398 3.485291 -0.000179 0.000002 -0.000009 -0.004012
    7 -1.443540 3.689672 1.587837 3.141550 0.785400 -0.004042
    8 -0.090965 5.612166 1.353291 -3.139586 1.570796 0.000000
    9 -0.179153 7.772105 0.000706 0.000002 -0.000030 1.566784
    10 1.428550 7.411645 0.590113 1.564803 -1.570317 0.000000
    11 1.257180 8.762585 -0.153713 -1.570562 0.002683 -1.566807
    12 -0.488518 -2.755602 -0.228260 -1.126782 -0.317842 -0.189634
    13 0.039887 -1.479790 0.029854 -1.884480 0.000000 0.000001
    14 0.028786 -1.075731 -0.023109 -0.606341 0.000000 0.000000
    15 0.250027 -2.820665 -0.238396 -0.768180 -0.290767 -0.241939
    16 -0.049759 -1.680544 0.100479 -1.934764 0.000000 -0.000002
    17 -0.034142 -1.148312 0.084782 -0.925883 0.000000 0.000000
    18 0.957766 -2.746780 -0.090302 -0.326543 -0.214230 0.016080
    19 -0.033420 -1.397129 -0.011257 -0.962790 0.000000 -0.000001
    20 -0.022360 -0.957436 0.018784 -0.975516 0.000000 0.000000
    21 -1.180681 -2.507217 -0.193859 -0.609335 -0.185626 -0.146241
    22 -0.024967 -1.123934 0.017597 -1.794512 0.000000 0.000001
    23 -0.020057 -0.890968 0.010090 -0.677836 0.000000 0.000000
    24 0.583510 -1.197277 0.185379 0.180201 -0.812074 -1.291278
    25 1.535927 0.010246 0.005009 -0.002964 -0.012979 -0.419370
    26 1.100771 0.004527 -0.010679 -0.016063 0.002203 -1.257798
    27 0.120153 -0.050270 -0.054489 0.287569 3.110905 1.561085
    28 -4.380269 -10.426731 -10.935211 -1.074842 -1.120606 -4.351637
    29 0.096944 -8.450418 -0.009365 -1.338450 -1.204989 1.090242
    30 0.447953 -2.798986 -0.200443 -0.584680 0.022130 0.179272
    31 -0.032909 -1.480204 0.004940 -1.165523 0.000000 0.000002
    32 -0.027022 -1.076920 -0.020210 -0.581949 0.000000 0.000000
    33 -0.249534 -2.846964 -0.174213 -0.469284 0.014268 0.088092
    34 0.043235 -1.683941 0.096012 -1.134542 0.002823 -0.000167
    35 0.031729 -1.160830 0.058838 -0.744938 0.000642 0.008372
    36 -0.963866 -2.785145 -0.085350 -0.196858 0.106943 0.187996
    37 0.028479 -1.403067 0.006271 -0.410450 0.000000 0.000000
    38 0.021413 -0.957781 0.020046 -0.738161 0.000000 0.000000
    39 1.164475 -2.543940 -0.170330 -0.833562 0.027082 0.111069
    40 0.024032 -1.129042 0.017807 -1.320727 0.000000 0.000001
    41 0.014898 -0.883989 -0.019848 -0.845482 0.000000 0.000000
    42 -0.586770 -1.264477 0.200161 -0.366891 -0.638666 -2.421024
    43 1.522835 0.058681 0.016848 -0.050507 0.120717 0.910327
    44 1.117947 0.048424 -0.005766 -0.008656 -0.023053 0.416658
    45 -0.139399 -0.111698 0.014397 0.653645 -0.030687 1.580508
    46 -1.393470 8.839177 -0.239433 1.580804 -0.005023 -1.566847
  time 4
    0 -1.496139 6.687704 1.996155 -0.038484 0.000000 0.000000
    1 9.213061 0.524484 -7.904157 -0.149965 -1.612725 -0.045697
    2 -0.071918 -8.498731 -0.104136 0.151252 0.282508 0.057556
    3 1.973201 -3.178651 0.974316 -0.053772 0.246034 3.130544
    4 0.748278 0.812449 -0.000037 0.000000 0.000000 0.000000
    5 -1.447341 2.742330 1.587808 3.141550 0.785401 -0.004042
    6 2.021398 3.485291 -0.000179 0.000002 -0.000009 -0.004012
    7 -1.443540 3.689672 1.587837 3.141550 0.785400 -0.004042
    8 -0.090965 5.612166 1.353291 -3.139586 1.570796 0.000000
    9 -0.179153 7.772105 0.000706 0.000002 -0.000030 1.566784
    10 1.428550 7.411645 0.590113 1.564803 -1.570317 0.000000
    11 1.257180 8.762585 -0.153713 -1.570562 0.002683 -1.566807
    12 -0.488518 -2.755602 -0.228260 -1.126782 -0.317842 -0.189634
    13 0.039887 -1.479790 0.029854 -1.884480 0.000000 0.000001
    14 0.028786 -1.075731 -0.023109 -0.606341 0.000000 0.000000
    15 0.250027 -2.820665 -0.238396 -0.768180 -0.290767 -0.241939
    16 -0.049759 -1.680544 0.100479 -1.934764 0.000000 -0.000002
    17 -0.034142 -1.148312 0.084782 -0.925883 0.000000 0.000000
    18 0.957766 -2.746780 -0.090302 -0.326543 -0.214230 0.016080
    19 -0.033420 -1.397129 -0.011257 -1.044585 0.000000 -0.000001
    20 -0.022360 -0.957436 0.018784 -0.975516 0.000000 0.000000
    21 -1.180681 -2.507217 -0.193859 -0.609335 -0.185626 -0.146241
    22 -0.024967 -1.123934 0.017597 -1.794512 0.000000 0.000001
    23 -0.020057 -0.890968 0.010090 -0.677836 0.000000 0.000000
    24 0.583510 -1.197277 0.185379 0.180201 -0.812074 -1.291278
    25 1.535927 0.010246 0.005009 -0.002964 -0.012979 -0.419370
    26 1.100771 0.004527 -0.010679 -0.016063 0.002203 -1.257798
    27 0.120153 -0.050270 -0.054489 0.287569 3.110905 1.561085
    28 -4.380269 -10.426731 -10.771143 -1.074842 -1.120606 -4.351637
    29 0.096944 -8.450418 -0.009365 -1.364300 -1.204989 1.090242
    30 0.447953 -2.798986 -0.200443 -0.606304 0.022130 0.179272
    31 -0.032909 -1.480204 0.004940 -1.165523 0.000000 0.000002
    32 -0.027022 -1.076920 -0.020210 -0.581949 0.000000 0.000000
    33 -0.249534 -2.846964 -0.174213 -0.490934 0.014268 0.088092
    34 0.043235 -1.683941 0.096012 -1.134542 0.002823 -0.000167
    35 0.031729 -1.160830 0.058838 -0.744938 0.000642 0.008372
    36 -0.963866 -2.785145 -0.085350 -0.240138 0.106943 0.187996
    37 0.028479 -1.403067 0.006271 -0.410450 0.000000 0.000000
    38 0.021413 -0.957781 0.020046 -0.738161 0.000000 0.000000
    39 1.164475 -2.543940 -0.170330 -0.855210 0.027082 0.111069
    40 0.024032 -1.129042 0.017807 -1.320727 0.000000 0.000001
    41 0.014898 -0.883989 -0.019848 -0.845482 0.000000 0.000000
    42 -0.586770 -1.264477 0.200161 -0.352072 -0.646615 -2.446015
    43 1.522835 0.058681 0.016848 -0.045306 0.123042 0.953833
    44 1.117947 0.048424 -0.005766 -0.009615 -0.022513 0.459936
    45 -0.139399 -0.111698 0.014397 0.653645 -0.030687 1.580508
    46 -1.393470 8.839177 -0.239433 1.580804 -0.005023 -1.566847
  time 5
    0 -1.496139 6.328318 1.996155 -0.045621 0.000000 0.000000
    1 9.213061 0.524484 -7.904157 -0.149965 -1.612725 -0.045697
    2 -0.071918 -8.498731 -0.104136 0.151252 0.282508 0.057556
    3 1.973201 -3.178651 0.974316 -0.053772 0.246034 3.130544
    4 0.748278 0.812449 -0.000037 0.000000 0.000000 0.000000
    5 -1.447341 2.742330 1.587808 3.141550 0.785401 -0.004042
    6 2.021398 3.485291 -0.000179 0.000002 -0.000009 -0.004012
    7 -1.443540 3.689672 1.587837 3.141550 0.785400 -0.004042
    8 -0.090965 5.612166 1.353291 -3.139586 1.570796 0.000000
    9 -0.179153 7.772105 0.000706 0.000002 -0.000030 1.566784
    10 1.428550 7.411645 0.590113 1.564803 -1.570796 0.000000
    11 1.257180 8.762585 -0.153713 -1.570562 0.002683 -1.566807
    12 -0.488518 -2.755602 -0.228260 -1.126782 -0.317842 -0.189634
    13 0.039887 -1.479790 0.029854 -1.884480 0.000000 0.000001
    14 0.028786 -1.075731 -0.023109 -0.606341 0.000000 0.000000
    15 0.250027 -2.820665 -0.238396 -0.768180 -0.290767 -0.241939
    16 -0.049759 -1.680544 0.100479 -1.934764 0.000000 -0.000002
    17 -0.034142 -1.148312 0.084782 -0.925883 0.000000 0.000000
    18 0.957766 -2.746780 -0.090302 -0.326543 -0.214230 0.016080
    19 -0.033420 -1.397129 -0.011257 -1.015608 0.000000 -0.000001
    20 -0.022360 -0.957436 0.018784 -0.975516 0.000000 0.000000
    21 -1.180681 -2.507217 -0.193859 -0.609335 -0.185626 -0.146241
    22 -0.024967 -1.123934 0.017597 -1.794512 0.000000 0.000001
    23 -0.020057 -0.890968 0.010090 -0.677836 0.000000 0.000000
    24 0.583510 -1.197277 0.185379 0.180201 -0.812074 -1.291278
    25 1.535927 0.010246 0.005009 -0.002964 -0.012979 -0.419370
    26 1.100771 0.004527 -0.010679 -0.016063 0.002203 -1.257798
    27 0.120153 -0.050270 -0.054489 0.287569 3.110905 1.561085
    28 -4.380269 -10.426731 -10.634420 -1.074842 -1.120606 -4.351637
    29 0.096944 -8.450418 -0.009365 -1.385902 -1.204989 1.090242
    30 0.447953 -2.798986 -0.200443 -0.615393 0.022130 0.179272
    31 -0.032909 -1.480204 0.004940 -1.165523 0.000000 0.000002
    32 -0.027022 -1.076920 -0.020210 -0.581949 0.000000 0.000000
    33 -0.249534 -2.846964 -0.174213 -0.500012 0.014268 0.088092
    34 0.043235 -1.683941 0.096012 -1.134542 0.002823 -0.000167
    35 0.031729 -1.160830 0.058838 -0.744938 0.000642 0.008372
    36 -0.963866 -2.785145 -0.085350 -0.258305 0.106943 0.187996
    37 0.028479 -1.403067 0.006271 -0.410450 0.000000 0.000000
    38 0.021413 -0.957781 0.020046 -0.738161 0.000000 0.000000
    39 1.164475 -2.543940 -0.170330 -0.864287 0.027082 0.111069
    40 0.024032 -1.129042 0.017807 -1.320727 0.000000 0.000001
    41 0.014898 -0.883989 -0.019848 -0.845482 0.000000 0.000000
    42 -0.586770 -1.264477 0.200161 -0.345875 -0.649947 -2.456513
    43 1.522835 0.058681 0.016848 -0.043125 0.124025 0.972088
    44 1.117947 0.048424 -0.005766 -0.010010 -0.022298 0.478094
    45 -0.139399 -0.111698 0.014397 0.653645 -0.030687 1.580508
    46 -1.393470 8.839177 -0.239433 1.580804 -0.005023 -1.566847
  time 6
    0 -1.496139 5.949400 1.996155 -0.042079 0.000000 0.000000
    1 9.213061 0.524484 -7.904157 -0.149965 -1.612725 -0.045697
    2 -0.071918 -8.498731 -0.104136 0.151252 0.282508 0.057556
    3 1.973201 -3.178651 0.974316 -0.053772 0.246034 3.130544
    4 0.748278 0.812449 -0.000037 0.000000 0.000000 0.000000
    5 -1.447341 2.742330 1.587808 3.141550 0.785401 -0.004042
    6 2.021398 3.485291 -0.000179 0.000002 -0.000009 -0.004012
    7 -1.443540 3.689672 1.587837 3.141550 0.785400 -0.004042
    8 -0.090965 5.612166 1.353291 -3.139586 1.570796 0.000000
    9 -0.179153 7.772105 0.000706 0.000002 -0.000030 1.566784
    10 1.428550 7.411645 0.590113 1.564803 -1.570317 0.000000
    11 1.257180 8.762585 -0.153713 -1.570562 0.002683 -1.566807
    12 -0.488518 -2.755602 -0.228260 -1.126782 -0.317842 -0.189634
    13 0.039887 -1.479790 0.029854 -1.884480 0.000000 0.000001
    14 0.028786 -1.075731 -0.023109 -0.606341 0.000000 0.000000
    15 0.250027 -2.820665 -0.238396 -0.768180 -0.290767 -0.241939
    16 -0.049759 -1.680544 0.100479 -1.934764 0.000000 -0.000002
    17 -0.034142 -1.148312 0.084782 -0.925883 0.000000 0.000000
    18 0.957766 -2.746780 -0.090302 -0.326543 -0.214230 0.016080
    19 -0.033420 -1.397129 -0.011257 -0.940791 0.000000 -0.000001
    20 -0.022360 -0.957436 0.018784 -0.975516 0.000000 0.000000
    21 -1.180681 -2.507217 -0.193859 -0.609335 -0.185626 -0.146241
    22 -0.024967 -1.123934 0.017597 -1.794512 0.000000 0.000001
    23 -0.020057 -0.890968 0.010090 -0.677836 0.000000 0.000000
    24 0.583510 -1.197277 0.185379 0.180201 -0.812074 -1.291278
    25 1.535927 0.010246 0.005009 -0.002964 -0.012979 -0.419370
    26 1.100771 0.004527 -0.010679 -0.016063 0.002203 -1.257798
    27 0.120153 -0.050270 -0.054489 0.287569 3.110905 1.561085
    28 -4.380269 -10.426731 -10.579731 -1.074842 -1.120606 -4.351637
    29 0.096944 -8.450418 -0.009365 -1.395019 -1.204989 1.090242
    30 0.447953 -2.798986 -0.200443 -0.611632 0.022130 0.179272
    31 -0.032909 -1.480204 0.004940 -1.165523 0.000000 0.000002
    32 -0.027022 -1.076920 -0.020210 -0.581949 0.000000 0.000000
    33 -0.249534 -2.846964 -0.174213 -0.496259 0.014268 0.088092
    34 0.043235 -1.683941 0.096012 -1.134542 0.002823 -0.000167
    35 0.031729 -1.160830 0.058838 -0.744938 0.000642 0.008372
    36 -0.963866 -2.785145 -0.085350 -0.250795 0.106943 0.187996
    37 0.028479 -1.403067 0.006271 -0.410450 0.000000 0.000000
    38 0.021413 -0.957781 0.020046 -0.738161 0.000000 0.000000
    39 1.164475 -2.543940 -0.170330 -0.860523 0.027082 0.111069
    40 0.024032 -1.129042 0.017807 -1.320727 0.000000 0.000001
    41 0.014898 -0.883989 -0.019848 -0.845482 0.000000 0.000000
    42 -0.586770 -1.264477 0.200161 -0.348444 -0.648574 -2.452190
    43 1.522835 0.058681 0.016848 -0.044683 0.123330 0.959089
    44 1.117947 0.048424 -0.005766 -0.009723 -0.022454 0.465158
    45 -0.139399 -0.111698 0.014397 0.653645 -0.030687 1.580508
    46 -1.393470 8.839177 -0.239433 1.580804 -0.005023 -1.566847
  time 7
    0 -1.496139 5.590014 1.996155 -0.032944 0.000000 0.000000
    1 9.213061 0.524484 -7.904157 -0.149965 -1.612725 -0.045697
    2 -0.071918 -8.498731 -0.104136 0.151252 0.282508 0.057556
    3 1.973201 -3.178651 0.974316 -0.053772 0.246034 3.130544
    4 0.748278 0.812449 -0.000037 0.000000 0.000000 0.000000
    5 -1.447341 2.742330 1.587808 3.141550 0.785401 -0.004042
    6 2.021398 3.485291 -0.000179 0.000002 -0.000009 -0.004012
    7 -1.443540 3.689672 1.587837 3.141550 0.785400 -0.004042
    8 -0.090965 5.612166 1.353291 -3.139586 1.570796 0.000000
    9 -0.179153 7.772105 0.000706 0.000002 -0.000030 1.566784
    10 1.428550 7.411645 0.590113 1.564803 -1.570317 0.000000
    11 1.257180 8.762585 -0.153713 -1.570562 0.002683 -1.566807
    12 -0.488518 -2.755602 -0.228260 -1.126782 -0.317842 -0.189634
    13 0.039887 -1.479790 0.029854 -1.884480 0.000000 0.000001
    14 0.028786 -1.075731 -0.023109 -0.606341 0.000000 0.000000
    15 0.250027 -2.820665 -0.238396 -0.768180 -0.290767 -0.241939
    16 -0.049759 -1.680544 0.100479 -1.934764 0.000000 -0.000002
    17 -0.034142 -1.148312 0.084782 -0.925883 0.000000 0.000000
    18 0.957766 -2.746780 -0.090302 -0.326543 -0.214230 0.016080
    19 -0.033420 -1.397129 -0.011257 -0.838516 0.000000 -0.000001
    20 -0.022360 -0.957436 0.018784 -0.975516 0.000000 0.000000
    21 -1.180681 -2.507217 -0.193859 -0.609335 -0.185626 -0.146241
    22 -0.024967 -1.123934 0.017597 -1.794512 0.000000 0.000001
    23 -0.020057 -0.890968 0.010090 -0.677836 0.000000 0.000000
    24 0.583510 -1.197277 0.185379 0.180201 -0.812074 -1.291278
    25 1.535927 0.010246 0.005009 -0.002964 -0.012979 -0.419370
    26 1.100771 0.004527 -0.010679 -0.016063 0.002203 -1.257798
    27 0.120153 -0.050270 -0.054489 0.287569 3.110905 1.561085
    28 -4.380269 -10.426731 -10.579731 -1.074842 -1.120606 -4.351637
    29 0.096944 -8.450418 -0.009365 -1.395019 -1.204989 1.090242
    30 0.447953 -2.798986 -0.200443 -0.601760 0.022130 0.179272
    31 -0.032909 -1.480204 0.004940 -1.165523 0.000000 0.000002
    32 -0.027022 -1.076920 -0.020210 -0.581949 0.000000 0.000000
    33 -0.249534 -2.846964 -0.174213 -0.486360 0.014268 0.088092
    34 0.043235 -1.683941 0.096012 -1.134542 0.002823 -0.000167
    35 0.031729 -1.160830 0.058838 -0.744938 0.000642 0.008372
    36 -0.963866 -2.785145 -0.085350 -0.231022 0.106943 0.187996
    37 0.028479 -1.403067 0.006271 -0.410450 0.000000 0.000000
    38 0.021413 -0.957781 0.020046 -0.738161 0.000000 0.000000
    39 1.164475 -2.543940 -0.170330 -0.850625 0.027082 0.111069
    40 0.024032 -1.129042 0.017807 -1.320727 0.000000 0.000001
    41 0.014898 -0.883989 -0.019848 -0.845482 0.000000 0.000000
    42 -0.586770 -1.264477 0.200161 -0.355198 -0.644926 -2.440748
    43 1.522835 0.058681 0.016848 -0.048566 0.121592 0.926591
    44 1.117947 0.048424 -0.005766 -0.009016 -0.022849 0.432835
    45 -0.139399 -0.111698 0.014397 0.653645 -0.030687 1.580508
    46 -1.393470 8.839177 -0.239433 1.580804 -0.005023 -1.566847
  time 8
    0 -1.496139 5.285318 1.996155 -0.020440 0.000000 0.000000
    1 9.213061 0.524484 -7.904157 -0.149965 -1.612725 -0.045697
    2 -0.071918 -8.498731 -0.104136 0.151252 0.282508 0.057556
    3 1.973201 -3.178651 0.974316 -0.053772 0.246034 3.130544
    4 0.748278 0.812449 -0.000037 0.000000 0.000000 0.000000
    5 -1.447341 2.742330 1.587808 3.141550 0.785401 -0.004042
    6 2.021398 3.485291 -0.000179 0.000002 -0.000009 -0.004012
    7 -1.443540 3.689672 1.587837 3.141550 0.785400 -0.004042
    8 -0.090965 5.612166 1.353291 -3.139586 1.570796 0.000000
    9 -0.179153 7.772105 0.000706 0.000002 -0.000030 1.566784
    10 1.428550 7.411645 0.590113 1.564803 -1.570317 0.000000
    11 1.257180 8.762585 -0.153713 -1.570562 0.002683 -1.566807
    12 -0.488518 -2.755602 -0.228260 -1.126782 -0.317842 -0.189634
    13 0.039887 -1.479790 0.029854 -1.884480 0.000000 0.000001
    14 0.028786 -1.075731 -0.023109 -0.606341 0.000000 0.000000
    15 0.250027 -2.820665 -0.238396 -0.768180 -0.290767 -0.241939
    16 -0.049759 -1.680544 0.100479 -1.934764 0.000000 -0.000002
    17 -0.034142 -1.148312 0.084782 -0.925883 0.000000 0.000000
    18 0.957766 -2.746780 -0.090302 -0.326543 -0.214230 0.016080
    19 -0.033420 -1.397129 -0.011257 -0.727098 0.000000 -0.000001
    20 -0.022360 -0.957436 0.018784 -0.975516 0.000000 0.000000
    21 -1.180681 -2.507217 -0.193859 -0.609335 -0.185626 -0.146241
    22 -0.024967 -1.123934 0.017597 -1.794512 0.000000 0.000001
    23 -0.020057 -0.890968 0.010090 -0.677836 0.000000 0.000000
    24 0.583510 -1.197277 0.185379 0.180201 -0.812074 -1.291278
    25 1.535927 0.010246 0.005009 -0.002964 -0.012979 -0.419370
    26 1.100771 0.004527 -0.010679 -0.016063 0.002203 -1.257798
    27 0.120153 -0.050270 -0.054489 0.287569 3.110905 1.561085
    28 -4.380269 -10.426731 -10.579731 -1.074842 -1.120606 -4.351637
    29 0.096944 -8.450418 -0.009365 -1.395019 -1.204989 1.090242
    30 0.447953 -2.798986 -0.200443 -0.587782 0.022130 0.179272
    31 -0.032909 -1.480204 0.004940 -1.165523 0.000000 0.000002
    32 -0.027022 -1.076920 -0.020210 -0.581949 0.000000 0.000000
    33 -0.249534 -2.846964 -0.174213 -0.472404 0.014268 0.088092
    34 0.043235 -1.683941 0.096012 -1.134542 0.002823 -0.000167
    35 0.031729 -1.160830 0.058838 -0.744938 0.000642 0.008372
    36 -0.963866 -2.785145 -0.085350 -0.203066 0.106943 0.187996
    37 0.028479 -1.403067 0.006271 -0.410450 0.000000 0.000000
    38 0.021413 -0.957781 0.020046 -0.738161 0.000000 0.000000
    39 1.164475 -2.543940 -0.170330 -0.836659 0.027082 0.111069
    40 0.024032 -1.129042 0.017807 -1.320727 0.000000 0.000001
    41 0.014898 -0.883989 -0.019848 -0.845482 0.000000 0.000000
    42 -0.586770 -1.264477 0.200161 -0.364772 -0.639792 -2.424620
    43 1.522835 0.058681 0.016848 -0.053599 0.119339 0.884328
    44 1.117947 0.048424 -0.005766 -0.008093 -0.023364 0.390817
    45 -0.139399 -0.111698 0.014397 0.653645 -0.030687 1.580508
    46 -1.393470 8.839177 -0.239433 1.580804 -0.005023 -1.566847
  time 9
    0 -1.496139 5.078280 1.996155 -0.006831 0.000000 0.000000
    1 9.213061 0.524484 -7.904157 -0.149965 -1.612725 -0.045697
    2 -0.071918 -8.498731 -0.104136 0.151252 0.282508 0.057556
    3 1.973201 -3.178651 0.974316 -0.053772 0.246034 3.130544
    4 0.748278 0.812449 -0.000037 0.000000 0.000000 0.000000
    5 -1.447341 2.742330 1.587808 3.141550 0.785401 -0.004042
    6 2.021398 3.485291 -0.000179 0.000002 -0.000009 -0.004012
    7 -1.443540 3.689672 1.587837 3.141550 0.785400 -0.004042
    8 -0.090965 5.612166 1.353291 -3.139586 1.570796 0.000000
    9 -0.179153 7.772105 0.000706 0.000002 -0.000030 1.566784
    10 1.428550 7.411645 0.590113 1.564803 -1.570317 0.000000
    11 1.257180 8.762585 -0.153713 -1.570562 0.002683 -1.566807
    12 -0.488518 -2.755602 -0.228260 -1.126782 -0.317842 -0.189634
    13 0.039887 -1.479790 0.029854 -1.884480 0.000000 0.000001
    14 0.028786 -1.075731 -0.023109 -0.606341 0.000000 0.000000
    15 0.250027 -2.820665 -0.238396 -0.768180 -0.290767 -0.241939
    16 -0.049759 -1.680544 0.100479 -1.934764 0.000000 -0.000002
    17 -0.034142 -1.148312 0.084782 -0.925883 0.000000 0.000000
    18 0.957766 -2.746780 -0.090302 -0.326543 -0.214230 0.016080
    19 -0.033420 -1.397129 -0.011257 -0.624790 0.000000 -0.000001
    20 -0.022360 -0.957436 0.018784 -0.975516 0.000000 0.000000
    21 -1.180681 -2.507217 -0.193859 -0.609335 -0.185626 -0.146241
    22 -0.024967 -1.123934 0.017597 -1.794512 0.000000 0.000001
    23 -0.020057 -0.890968 0.010090 -0.677836 0.000000 0.000000
    24 0.583510 -1.197277 0.185379 0.180201 -0.812074 -1.291278
    25 1.535927 0.010246 0.005009 -0.002964 -0.012979 -0.419370
    26 1.100771 0.004527 -0.010679 -0.016063 0.002203 -1.257798
    27 0.120153 -0.050270 -0.054489 0.287569 3.110905 1.561085
    28 -4.380269 -10.426731 -10.579731 -1.074842 -1.120606 -4.351637
    29 0.096944 -8.450418 -0.009365 -1.395019 -1.204989 1.090242
    30 0.447953 -2.798986 -0.200443 -0.571768 0.022130 0.179260
    31 -0.032909 -1.480204 0.004940 -1.165523 0.000000 0.000002
    32 -0.027022 -1.076920 -0.020210 -0.581949 0.000000 0.000000
    33 -0.249534 -2.846964 -0.174213 -0.456360 0.014268 0.088092
    34 0.043235 -1.683941 0.096012 -1.134542 0.002823 -0.000167
    35 0.031729 -1.160830 0.058838 -0.744938 0.000642 0.008372
    36 -0.963866 -2.785145 -0.085350 -0.171029 0.106943 0.187996
    37 0.028479 -1.403067 0.006271 -0.410450 0.000000 0.000000
    38 0.021413 -0.957781 0.020046 -0.738161 0.000000 0.000000
    39 1.164475 -2.543940 -0.170330 -0.820629 0.027082 0.111069
    40 0.024032 -1.129042 0.017807 -1.320727 0.000000 0.000001
    41 0.014898 -0.883989 -0.019848 -0.845482 0.000000 0.000000
    42 -0.586770 -1.264477 0.200161 -0.375729 -0.633914 -2.406131
    43 1.522835 0.058681 0.016848 -0.058645 0.117074 0.842066
    44 1.117947 0.048424 -0.005766 -0.007170 -0.023880 0.348800
    45 -0.139399 -0.111698 0.014397 0.653645 -0.030687 1.580508
    46 -1.393470 8.839177 -0.239433 1.580804 -0.005023 -1.566847
  time 10
    0 -1.496139 4.996246 1.996155 0.005646 0.000000 0.000000
    1 9.213061 0.524484 -7.904157 -0.149965 -1.612725 -0.045697
    2 -0.071918 -8.498731 -0.104136 0.151252 0.282508 0.057556
    3 1.973201 -3.178651 0.974316 -0.053772 0.246034 3.130544
    4 0.748278 0.812449 -0.000037 0.000000 0.000000 0.000000
    5 -1.447341 2.742330 1.587808 3.141550 0.785401 -0.004042
    6 2.021398 3.485291 -0.000179 0.000002 -0.000009 -0.004012
    7 -1.443540 3.689672 1.587837 3.141550 0.785400 -0.004042
    8 -0.090965 5.612166 1.353291 -3.139586 1.570796 0.000000
    9 -0.179153 7.772105 0.000706 0.000002 -0.000030 1.566784
    10 1.428550 7.411645 0.590113 1.564803 -1.570317 0.000000
    11 1.257180 8.762585 -0.153713 -1.570562 0.002683 -1.566807
    12 -0.488518 -2.755602 -0.228260 -1.126782 -0.317842 -0.189634
    13 0.039887 -1.479790 0.029854 -1.884480 0.000000 0.000001
    14 0.028786 -1.075731 -0.023109 -0.606341 0.000000 0.000000
    15 0.250027 -2.820665 -0.238396 -0.768180 -0.290767 -0.241939
    16 -0.049759 -1.680544 0.100479 -1.934764 0.000000 -0.000002
    17 -0.034142 -1.148312 0.084782 -0.925883 0.000000 0.000000
    18 0.957766 -2.746780 -0.090302 -0.326543 -0.214230 0.016080
    19 -0.033420 -1.397129 -0.011257 -0.550006 0.000000 -0.000001
    20 -0.022360 -0.957436 0.018784 -0.975516 0.000000 0.000000
    21 -1.180681 -2.507217 -0.193859 -0.609335 -0.185626 -0.146241
    22 -0.024967 -1.123934 0.017597 -1.794512 0.000000 0.000001
    23 -0.020057 -0.890968 0.010090 -0.677836 0.000000 0.000000
    24 0.583510 -1.197277 0.185379 0.180201 -0.812074 -1.291278
    25 1.535927 0.010246 0.005009 -0.002964 -0.012979 -0.419370
    26 1.100771 0.004527 -0.010679 -0.016063 0.002203 -1.257798
    27 0.120153 -0.050270 -0.054489 0.287569 3.110905 1.561085
    28 -4.380269 -10.426731 -10.579731 -1.074842 -1.120606 -4.351637
    29 0.096944 -8.450418 -0.009365 -1.395019 -1.204989 1.090242
    30 0.447953 -2.798986 -0.200443 -0.555722 0.022130 0.179272
    31 -0.032909 -1.480204 0.004940 -1.165523 0.000000 0.000002
    32 -0.027022 -1.076920 -0.020210 -0.581949 0.000000 0.000000
    33 -0.249534 -2.846964 -0.174213 -0.440339 0.014268 0.088092
    34 0.043235 -1.683941 0.096012 -1.134542 0.002823 -0.000167
    35 0.031729 -1.160830 0.058838 -0.744938 0.000642 0.008372
    36 -0.963866 -2.785145 -0.085350 -0.138992 0.106943 0.187996
    37 0.028479 -1.403067 0.006271 -0.410450 0.000000 0.000000
    38 0.021413 -0.957781 0.020046 -0.738161 0.000000 0.000000
    39 1.164475 -2.543940 -0.170330 -0.804628 0.027082 0.111069
    40 0.024032 -1.129042 0.017807 -1.320727 0.000000 0.000001
    41 0.014898 -0.883989 -0.019848 -0.845482 0.000000 0.000000
    42 -0.586770 -1.264477 0.200161 -0.386704 -0.628037 -2.387642
    43 1.522835 0.058681 0.016848 -0.062528 0.115336 0.809568
    44 1.117947 0.048424 -0.005766 -0.006463 -0.024275 0.316476
    45 -0.139399 -0.111698 0.014397 0.653645 -0.030687 1.580508
    46 -1.393470 8.839177 -0.239433 1.580804 -0.005023 -1.566847
  time 11
    0 -1.496139 4.996246 1.992248 0.014781 0.000000 0.000000
    1 9.213061 0.524484 -7.904157 -0.149965 -1.612725 -0.045697
    2 -0.071918 -8.498731 -0.104136 0.151252 0.282508 0.057556
    3 1.973201 -3.178651 0.974316 -0.053772 0.246034 3.130544
    4 0.748278 0.812449 -0.000037 0.000000 0.000000 0.000000
    5 -1.447341 2.742330 1.587808 3.141550 0.785401 -0.004042
    6 2.021398 3.485291 -0.000179 0.000002 -0.000009 -0.004012
    7 -1.443540 3.689672 1.587837 3.141550 0.785400 -0.004042
    8 -0.090965 5.612166 1.353291 -3.139586 1.570796 0.000000
    9 -0.179153 7.772105 0.000706 0.000002 -0.000030 1.566784
    10 1.428550 7.411645 0.590113 1.564803 -1.570317 0.000000
    11 1.257180 8.762585 -0.153713 -1.570562 0.002683 -1.566807
    12 -0.488518 -2.755602 -0.228260 -1.126782 -0.317842 -0.189634
    13 0.039887 -1.479790 0.029854 -1.884480 0.000000 0.000001
    14 0.028786 -1.075731 -0.023109 -0.606341 0.000000 0.000000
    15 0.250027 -2.820665 -0.238396 -0.768180 -0.290767 -0.241939
    16 -0.049759 -1.680544 0.100479 -1.934764 0.000000 -0.000002
    17 -0.034142 -1.148312 0.084782 -0.925883 0.000000 0.000000
    18 0.957766 -2.746780 -0.090302 -0.326543 -0.214230 0.016080
    19 -0.033420 -1.397129 -0.011257 -0.520996 0.000000 -0.000001
    20 -0.022360 -0.957436 0.018784 -0.975516 0.000000 0.000000
    21 -1.180681 -2.507217 -0.193859 -0.609335 -0.185626 -0.146241
    22 -0.024967 -1.123934 0.017597 -1.794512 0.000000 0.000001
    23 -0.020057 -0.890968 0.010090 -0.677836 0.000000 0.000000
    24 0.583510 -1.197277 0.185379 0.180201 -0.812074 -1.291278
    25 1.535927 0.010246 0.005009 -0.002964 -0.012979 -0.419370
    26 1.100771 0.004527 -0.010679 -0.016063 0.002203 -1.257798
    27 0.120153 -0.050270 -0.054489 0.287569 3.110905 1.561085
    28 -4.380269 -10.426731 -10.579731 -1.074842 -1.120606 -4.351637
    29 0.096944 -8.450418 -0.009365 -1.395019 -1.204989 1.090242
    30 0.447953 -2.798986 -0.200443 -0.541775 0.022130 0.179272
    31 -0.032909 -1.480204 0.004940 -1.165523 0.000000 0.000002
    32 -0.027022 -1.076920 -0.020210 -0.581949 0.000000 0.000000
    33 -0.249534 -2.846964 -0.174213 -0.426382 0.014268 0.088092
    34 0.043235 -1.683941 0.096012 -1.134542 0.002823 -0.000167
    35 0.031729 -1.160830 0.058838 -0.744938 0.000642 0.008372
    36 -0.963866 -2.785145 -0.085350 -0.111036 0.106943 0.187996
    37 0.028479 -1.403067 0.006271 -0.410450 0.000000 0.000000
    38 0.021413 -0.957781 0.020046 -0.738161 0.000000 0.000000
    39 1.164475 -2.543940 -0.170330 -0.790632 0.027082 0.111069
    40 0.024032 -1.129042 0.017807 -1.320727 0.000000 0.000001
    41 0.014898 -0.883989 -0.019848 -0.845482 0.000000 0.000000
    42 -0.586770 -1.264477 0.200161 -0.396261 -0.622903 -2.371477
    43 1.522835 0.058681 0.016848 -0.064086 0.114641 0.796569
    44 1.117947 0.048424 -0.005766 -0.006175 -0.024431 0.303541
    45 -0.139399 -0.111698 0.014397 0.653645 -0.030687 1.580508
    46 -1.393470 8.839177 -0.239433 1.580804 -0.005023 -1.566847
  time 12
    0 -1.496139 4.996246 1.976623 0.018323 0.000000 0.000000
    1 9.213061 0.524484 -7.904157 -0.149965 -1.612725 -0.045697
    2 -0.071918 -8.498731 -0.104136 0.151252 0.282508 0.057556
    3 1.973201 -3.178651 0.974316 -0.053772 0.246034 3.130544
    4 0.748278 0.812449 -0.000037 0.000000 0.000000 0.000000
    5 -1.447341 2.742330 1.587808 3.141550 0.785401 -0.004042
    6 2.021398 3.485291 -0.000179 0.000002 -0.000009 -0.004012
    7 -1.443540 3.689672 1.587837 3.141550 0.785400 -0.004042
    8 -0.090965 5.612166 1.353291 -3.139586 1.570796 0.000000
    9 -0.179153 7.772105 0.000706 0.000002 -0.000030 1.566784
    10 1.428550 7.411645 0.590113 1.564803 -1.570317 0.000000
    11 1.257180 8.762585 -0.153713 -1.570562 0.002683 -1.566807
    12 -0.488518 -2.755602 -0.228260 -1.126782 -0.317842 -0.189634
    13 0.039887 -1.479790 0.029854 -1.884480 0.000000 0.000001
    14 0.028786 -1.075731 -0.023109 -0.606341 0.000000 0.000000
    15 0.250027 -2.820665 -0.238396 -0.768180 -0.290767 -0.241939
    16 -0.049759 -1.680544 0.100479 -1.934764 0.000000 -0.000002
    17 -0.034142 -1.148312 0.084782 -0.925883 0.000000 0.000000
    18 0.957766 -2.746780 -0.090302 -0.326543 -0.214230 0.016080
    19 -0.033420 -1.397129 -0.011257 -0.520996 0.000000 -0.000001
    20 -0.022360 -0.957436 0.018784 -0.975516 0.000000 0.000000
    21 -1.180681 -2.507217 -0.193859 -0.609335 -0.185626 -0.146241
    22 -0.024967 -1.123934 0.017597 -1.794512 0.000000 0.000001
    23 -0.020057 -0.890968 0.010090 -0.677836 0.000000 0.000000
    24 0.583510 -1.197277 0.185379 0.180201 -0.812074 -1.291278
    25 1.535927 0.010246 0.005009 -0.002964 -0.012979 -0.419370
    26 1.100771 0.004527 -0.010679 -0.016063 0.002203 -1.257798
    27 0.120153 -0.050270 -0.054489 0.287569 3.110905 1.561085
    28 -4.380269 -10.426731 -10.579731 -1.074842 -1.120606 -4.351637
    29 0.096944 -8.450418 -0.009365 -1.395019 -1.204989 1.090242
    30 0.447953 -2.798986 -0.200443 -0.531872 0.022130 0.179260
    31 -0.032909 -1.480204 0.004940 -1.165523 0.000000 0.000002
    32 -0.027022 -1.076920 -0.020210 -0.581949 0.000000 0.000000
    33 -0.249534 -2.846964 -0.174213 -0.416484 0.014268 0.088092
    34 0.043235 -1.683941 0.096012 -1.134542 0.002823 -0.000167
    35 0.031729 -1.160830 0.058838 -0.744938 0.000642 0.008372
    36 -0.963866 -2.785145 -0.085350 -0.091263 0.106943 0.187996
    37 0.028479 -1.403067 0.006271 -0.410450 0.000000 0.000000
    38 0.021413 -0.957781 0.020046 -0.738161 0.000000 0.000000
    39 1.164475 -2.543940 -0.170330 -0.780765 0.027082 0.111069
    40 0.024032 -1.129042 0.017807 -1.320727 0.000000 0.000001
    41 0.014898 -0.883989 -0.019848 -0.845482 0.000000 0.000000
    42 -0.586770 -1.264477 0.200161 -0.403033 -0.619278 -2.360071
    43 1.522835 0.058681 0.016848 -0.064086 0.114641 0.796569
    44 1.117947 0.048424 -0.005766 -0.006175 -0.024431 0.303541
    45 -0.139399 -0.111698 0.014397 0.653645 -0.030687 1.580508
    46 -1.393470 8.839177 -0.239433 1.580804 -0.005023 -1.566847
  time 13
    0 -1.496139 4.996246 1.953185 0.017351 0.000000 0.000000
    1 9.213061 0.524484 -7.904157 -0.149965 -1.612725 -0.045697
    2 -0.071918 -8.498731 -0.104136 0.151252 0.282508 0.057556
    3 1.973201 -3.178651 0.974316 -0.053772 0.246034 3.130544
    4 0.748278 0.812449 -0.000037 0.000000 0.000000 0.000000
    5 -1.447341 2.742330 1.587808 3.141550 0.785401 -0.004042
    6 2.021398 3.485291 -0.000179 0.000002 -0.000009 -0.004012
    7 -1.443540 3.689672 1.587837 3.141550 0.785400 -0.004042
    8 -0.090965 5.612166 1.353291 -3.139586 1.570796 0.000000
    9 -0.179153 7.772105 0.000706 0.000002 -0.000030 1.566784
    10 1.428550 7.411645 0.590113 1.564803 -1.570796 0.000000
    11 1.257180 8.762585 -0.153713 -1.570562 0.002683 -1.566807
    12 -0.488518 -2.755602 -0.228260 -1.126782 -0.317842 -0.189634
    13 0.039887 -1.479790 0.029854 -1.884480 0.000000 0.000001
    14 0.028786 -1.075731 -0.023109 -0.606341 0.000000 0.000000
    15 0.250027 -2.820665 -0.238396 -0.768180 -0.290767 -0.241939
    16 -0.049759 -1.680544 0.100479 -1.934764 0.000000 -0.000002
    17 -0.034142 -1.148312 0.084782 -0.925883 0.000000 0.000000
    18 0.957766 -2.746780 -0.090302 -0.326543 -0.214230 0.016080
    19 -0.033420 -1.397129 -0.011257 -0.520996 0.000000 -0.000001
    20 -0.022360 -0.957436 0.018784 -0.975516 0.000000 0.000000
    21 -1.180681 -2.507217 -0.193859 -0.609335 -0.185626 -0.146241
    22 -0.024967 -1.123934 0.017597 -1.794512 0.000000 0.000001
    23 -0.020057 -0.890968 0.010090 -0.677836 0.000000 0.000000
    24 0.583510 -1.197277 0.185379 0.180201 -0.812074 -1.291278
    25 1.535927 0.010246 0.005009 -0.002964 -0.012979 -0.419370
    26 1.100771 0.004527 -0.010679 -0.016063 0.002203 -1.257798
    27 0.120153 -0.050270 -0.054489 0.287569 3.110905 1.561085
    28 -4.380269 -10.426731 -10.579731 -1.074842 -1.120606 -4.351637
    29 0.096944 -8.450418 -0.009365 -1.395019 -1.204989 1.090242
    30 0.447953 -2.798986 -0.200443 -0.528111 0.022130 0.179272
    31 -0.032909 -1.480204 0.004940 -1.165523 0.000000 0.000002
    32 -0.027022 -1.076920 -0.020210 -0.581949 0.000000 0.000000
    33 -0.249534 -2.846964 -0.174213 -0.412731 0.014268 0.088092
    34 0.043235 -1.683941 0.096012 -1.134542 0.002823 -0.000167
    35 0.031729 -1.160830 0.058838 -0.744938 0.000642 0.008372
    36 -0.963866 -2.785145 -0.085350 -0.083775 0.106943 0.187996
    37 0.028479 -1.403067 0.006271 -0.410450 0.000000 0.000000
    38 0.021413 -0.957781 0.020046 -0.738161 0.000000 0.000000
    39 1.164475 -2.543940 -0.170330 -0.777000 0.027082 0.111069
    40 0.024032 -1.129042 0.017807 -1.320727 0.000000 0.000001
    41 0.014898 -0.883989 -0.019848 -0.845482 0.000000 0.000000
    42 -0.586770 -1.264477 0.200161 -0.405601 -0.617882 -2.355749
    43 1.522835 0.058681 0.016848 -0.064086 0.114641 0.796569
    44 1.117947 0.048424 -0.005766 -0.006175 -0.024431 0.303541
    45 -0.139399 -0.111698 0.014397 0.653645 -0.030687 1.580508
    46 -1.393470 8.839177 -0.239433 1.580804 -0.005023 -1.566847
  time 14
    0 -1.496139 4.996246 1.929746 0.014781 0.000000 0.000000
    1 9.213061 0.524484 -7.904157 -0.149965 -1.612725 -0.045697
    2 -0.071918 -8.498731 -0.104136 0.151252 0.282508 0.057556
    3 1.973201 -3.178651 0.974316 -0.053772 0.246034 3.130544
    4 0.748278 0.812449 -0.000037 0.000000 0.000000 0.000000
    5 -1.447341 2.742330 1.587808 3.141550 0.785401 -0.004042
    6 2.021398 3.485291 -0.000179 0.000002 -0.000009 -0.004012
    7 -1.443540 3.689672 1.587837 3.141550 0.785400 -0.004042
    8 -0.090965 5.612166 1.353291 -3.139586 1.570796 0.000000
    9 -0.179153 7.772105 0.000706 0.000002 -0.000030 1.566784
    10 1.428550 7.411645 0.590113 1.564803 -1.570796 0.000000
    11 1.257180 8.762585 -0.153713 -1.570562 0.002683 -1.566807
    12 -0.488518 -2.755602 -0.228260 -1.126782 -0.317842 -0.189634
    13 0.039887 -1.479790 0.029854 -1.884480 0.000000 0.000001
    14 0.028786 -1.075731 -0.023109 -0.606341 0.000000 0.000000
    15 0.250027 -2.820665 -0.238396 -0.768180 -0.290767 -0.241939
    16 -0.049759 -1.680544 0.100479 -1.934764 0.000000 -0.000002
    17 -0.034142 -1.148312 0.084782 -0.925883 0.000000 0.000000
    18 0.957766 -2.746780 -0.090302 -0.326543 -0.214230 0.016080
    19 -0.033420 -1.397129 -0.011257 -0.520996 0.000000 -0.000001
    20 -0.022360 -0.957436 0.018784 -0.975516 0.000000 0.000000
    21 -1.180681 -2.507217 -0.193859 -0.609335 -0.185626 -0.146241
    22 -0.024967 -1.123934 0.017597 -1.794512 0.000000 0.000001
    23 -0.020057 -0.890968 0.010090 -0.677836 0.000000 0.000000
    24 0.583510 -1.197277 0.185379 0.180201 -0.812074 -1.291278
    25 1.535927 0.010246 0.005009 -0.002964 -0.012979 -0.419370
    26 1.100771 0.004527 -0.010679 -0.016063 0.002203 -1.257798
    27 0.120153 -0.050270 -0.054489 0.287569 3.110905 1.561085
    28 -4.380269 -10.426731 -10.579731 -1.074842 -1.120606 -4.351637
    29 0.096944 -8.450418 -0.009365 -1.395019 -1.204989 1.090242
    30 0.447953 -2.798986 -0.200443 -0.528111 0.022130 0.179272
    31 -0.032909 -1.480204 0.004940 -1.165523 0.000000 0.000002
    32 -0.027022 -1.076920 -0.020210 -0.581949 0.000000 0.000000
    33 -0.249534 -2.846964 -0.174213 -0.412731 0.014268 0.088092
    34 0.043235 -1.683941 0.096012 -1.134542 0.002823 -0.000167
    35 0.031729 -1.160830 0.058838 -0.744938 0.000642 0.008372
    36 -0.963866 -2.785145 -0.085350 -0.083775 0.106943 0.187996
    37 0.028479 -1.403067 0.006271 -0.410450 0.000000 0.000000
    38 0.021413 -0.957781 0.020046 -0.738161 0.000000 0.000000
    39 1.164475 -2.543940 -0.170330 -0.777000 0.027082 0.111069
    40 0.024032 -1.129042 0.017807 -1.320727 0.000000 0.000001
    41 0.014898 -0.883989 -0.019848 -0.845482 0.000000 0.000000
    42 -0.586770 -1.264477 0.200161 -0.405601 -0.617882 -2.355749
    43 1.522835 0.058681 0.016848 -0.064086 0.114641 0.796569
    44 1.117947 0.048424 -0.005766 -0.006175 -0.024431 0.303541
    45 -0.139399 -0.111698 0.014397 0.653645 -0.030687 1.580508
    46 -1.393470 8.839177 -0.239433 1.580804 -0.005023 -1.566847
  time 15
    0 -1.496139 4.996246 1.906308 0.011132 0.000000 0.000000
    1 9.213061 0.524484 -7.904157 -0.149965 -1.612725 -0.045697
    2 -0.071918 -8.498731 -0.104136 0.151252 0.282508 0.057556
    3 1.973201 -3.178651 0.974316 -0.053772 0.246034 3.130544
    4 0.748278 0.812449 -0.000037 0.000000 0.000000 0.000000
    5 -1.447341 2.742330 1.587808 3.141550 0.785401 -0.004042
    6 2.021398 3.485291 -0.000179 0.000002 -0.000009 -0.004012
    7 -1.443540 3.689672 1.587837 3.141550 0.785400 -0.004042
    8 -0.090965 5.612166 1.353291 -3.139586 1.570796 0.000000
    9 -0.179153 7.772105 0.000706 0.000002 -0.000030 1.566784
    10 1.428550 7.411645 0.590113 1.564803 -1.570796 0.000000
    11 1.257180 8.762585 -0.153713 -1.570562 0.002683 -1.566807
    12 -0.488518 -2.755602 -0.228260 -1.126782 -0.317842 -0.189634
    13 0.039887 -1.479790 0.029854 -1.884480 0.000000 0.000001
    14 0.028786 -1.075731 -0.023109 -0.606341 0.000000 0.000000
    15 0.250027 -2.820665 -0.238396 -0.768180 -0.290767 -0.241939
    16 -0.049759 -1.680544 0.100479 -1.934764 0.000000 -0.000002
    17 -0.034142 -1.148312 0.084782 -0.925883 0.000000 0.000000
    18 0.957766 -2.746780 -0.090302 -0.326543 -0.214230 0.016080
    19 -0.033420 -1.397129 -0.011257 -0.520996 0.000000 -0.000001
    20 -0.022360 -0.957436 0.018784 -0.975516 0.000000 0.000000
    21 -1.180681 -2.507217 -0.193859 -0.609335 -0.185626 -0.146241
    22 -0.024967 -1.123934 0.017597 -1.794512 0.000000 0.000001
    23 -0.020057 -0.890968 0.010090 -0.677836 0.000000 0.000000
    24 0.583510 -1.197277 0.185379 0.180201 -0.812074 -1.291278
    25 1.535927 0.010246 0.005009 -0.002964 -0.012979 -0.419370
    26 1.100771 0.004527 -0.010679 -0.016063 0.002203 -1.257798
    27 0.120153 -0.050270 -0.054489 0.287569 3.110905 1.561085
    28 -4.380269 -10.426731 -10.579731 -1.074842 -1.120606 -4.351637
    29 0.096944 -8.450418 -0.009365 -1.395019 -1.204989 1.090242
    30 0.447953 -2.798986 -0.200443 -0.528111 0.022130 0.179260
    31 -0.032909 -1.480204 0.004940 -1.165523 0.000000 0.000002
    32 -0.027022 -1.076920 -0.020210 -0.581949 0.000000 0.000000
    33 -0.249534 -2.846964 -0.174213 -0.412731 0.014268 0.088092
    34 0.043235 -1.683941 0.096012 -1.134542 0.002823 -0.000167
    35 0.031729 -1.160830 0.058838 -0.744938 0.000642 0.008372
    36 -0.963866 -2.785145 -0.085350 -0.083775 0.106943 0.187996
    37 0.028479 -1.403067 0.006271 -0.410450 0.000000 0.000000
    38 0.021413 -0.957781 0.020046 -0.738161 0.000000 0.000000
    39 1.164475 -2.543940 -0.170330 -0.777000 0.027082 0.111069
    40 0.024032 -1.129042 0.017807 -1.320727 0.000000 0.000001
    41 0.014898 -0.883989 -0.019848 -0.845482 0.000000 0.000000
    42 -0.586770 -1.264477 0.200161 -0.405601 -0.617882 -2.355749
    43 1.522835 0.058681 0.016848 -0.064086 0.114641 0.796569
    44 1.117947 0.048424 -0.005766 -0.006175 -0.024431 0.303541
    45 -0.139399 -0.111698 0.014397 0.653645 -0.030687 1.580508
    46 -1.393470 8.839177 -0.239433 1.580804 -0.005023 -1.566847
  time 16
    0 -1.496139 4.996246 1.890683 0.006964 0.000000 0.000000
    1 9.213061 0.524484 -7.904157 -0.149965 -1.612725 -0.045697
    2 -0.071918 -8.498731 -0.104136 0.151252 0.282508 0.057556
    3 1.973201 -3.178651 0.974316 -0.053772 0.246034 3.130544
    4 0.748278 0.812449 -0.000037 0.000000 0.000000 0.000000
    5 -1.447341 2.742330 1.587808 3.141550 0.785401 -0.004042
    6 2.021398 3.485291 -0.000179 0.000002 -0.000009 -0.004012
    7 -1.443540 3.689672 1.587837 3.141550 0.785400 -0.004042
    8 -0.090965 5.612166 1.353291 -3.139586 1.570796 0.000000
    9 -0.179153 7.772105 0.000706 0.000002 -0.000030 1.566784
    10 1.428550 7.411645 0.590113 1.564803 -1.570317 0.000000
    11 1.257180 8.762585 -0.153713 -1.570562 0.002683 -1.566807
    12 -0.488518 -2.755602 -0.228260 -1.126782 -0.317842 -0.189634
    13 0.039887 -1.479790 0.029854 -1.884480 0.000000 0.000001
    14 0.028786 -1.075731 -0.023109 -0.606341 0.000000 0.000000
    15 0.250027 -2.820665 -0.238396 -0.768180 -0.290767 -0.241939
    16 -0.049759 -1.680544 0.100479 -1.934764 0.000000 -0.000002
    17 -0.034142 -1.148312 0.084782 -0.925883 0.000000 0.000000
    18 0.957766 -2.746780 -0.090302 -0.326543 -0.214230 0.016080
    19 -0.033420 -1.397129 -0.011257 -0.520996 0.000000 -0.000001
    20 -0.022360 -0.957436 0.018784 -0.975516 0.000000 0.000000
    21 -1.180681 -2.507217 -0.193859 -0.609335 -0.185626 -0.146241
    22 -0.024967 -1.123934 0.017597 -1.794512 0.000000 0.000001
    23 -0.020057 -0.890968 0.010090 -0.677836 0.000000 0.000000
    24 0.583510 -1.197277 0.185379 0.180201 -0.812074 -1.291278
    25 1.535927 0.010246 0.005009 -0.002964 -0.012979 -0.419370
    26 1.100771 0.004527 -0.010679 -0.016063 0.002203 -1.257798
    27 0.120153 -0.050270 -0.054489 0.287569 3.110905 1.561085
    28 -4.380269 -10.426731 -10.579731 -1.074842 -1.120606 -4.351637
    29 0.096944 -8.450418 -0.009365 -1.395019 -1.204989 1.090242
    30 0.447953 -2.798986 -0.200443 -0.528111 0.022130 0.179272
    31 -0.032909 -1.480204 0.004940 -1.165523 0.000000 0.000002
    32 -0.027022 -1.076920 -0.020210 -0.581949 0.000000 0.000000
    33 -0.249534 -2.846964 -0.174213 -0.412731 0.014268 0.088092
    34 0.043235 -1.683941 0.096012 -1.134542 0.002823 -0.000167
    35 0.031729 -1.160830 0.058838 -0.744938 0.000642 0.008372
    36 -0.963866 -2.785145 -0.085350 -0.083775 0.106943 0.187996
    37 0.028479 -1.403067 0.006271 -0.410450 0.000000 0.000000
    38 0.021413 -0.957781 0.020046 -0.738161 0.000000 0.000000
    39 1.164475 -2.543940 -0.170330 -0.777000 0.027082 0.111069
    40 0.024032 -1.129042 0.017807 -1.320727 0.000000 0.000001
    41 0.014898 -0.883989 -0.019848 -0.845482 0.000000 0.000000
    42 -0.586770 -1.264477 0.200161 -0.405601 -0.617882 -2.355749
    43 1.522835 0.058681 0.016848 -0.064086 0.114641 0.796569
    44 1.117947 0.048424 -0.005766 -0.006175 -0.024431 0.303541
    45 -0.139399 -0.111698 0.014397 0.653645 -0.030687 1.580508
    46 -1.393470 8.839177 -0.239433 1.580804 -0.005023 -1.566847
  time 17
    0 -1.496139 4.996246 1.886776 0.002796 0.000000 0.000000
    1 9.213061 0.524484 -7.904157 -0.149965 -1.612725 -0.045697
    2 -0.071918 -8.498731 -0.104136 0.151252 0.282508 0.057556
    3 1.973201 -3.178651 0.974316 -0.053772 0.246034 3.130544
    4 0.748278 0.812449 -0.000037 0.000000 0.000000 0.000000
    5 -1.447341 2.742330 1.587808 3.141550 0.785401 -0.004042
    6 2.021398 3.485291 -0.000179 0.000002 -0.000009 -0.004012
    7 -1.443540 3.689672 1.587837 3.141550 0.785400 -0.004042
    8 -0.090965 5.612166 1.353291 -3.139586 1.570796 0.000000
    9 -0.179153 7.772105 0.000706 0.000002 -0.000030 1.566784
    10 1.428550 7.411645 0.590113 1.564803 -1.570317 0.000000
    11 1.257180 8.762585 -0.153713 -1.570562 0.002683 -1.566807
    12 -0.488518 -2.755602 -0.228260 -1.126782 -0.317842 -0.189634
    13 0.039887 -1.479790 0.029854 -1.884480 0.000000 0.000001
    14 0.028786 -1.075731 -0.023109 -0.606341 0.000000 0.000000
    15 0.250027 -2.820665 -0.238396 -0.768180 -0.290767 -0.241939
    16 -0.049759 -1.680544 0.100479 -1.934764 0.000000 -0.000002
    17 -0.034142 -1.148312 0.084782 -0.925883 0.000000 0.000000
    18 0.957766 -2.746780 -0.090302 -0.326543 -0.214230 0.016080
    19 -0.033420 -1.397129 -0.011257 -0.520996 0.000000 -0.000001
    20 -0.022360 -0.957436 0.018784 -0.975516 0.000000 0.000000
    21 -1.180681 -2.507217 -0.193859 -0.609335 -0.185626 -0.146241
    22 -0.024967 -1.123934 0.017597 -1.794512 0.000000 0.000001
    23 -0.020057 -0.890968 0.010090 -0.677836 0.000000 0.000000
    24 0.583510 -1.197277 0.185379 0.180201 -0.812074 -1.291278
    25 1.535927 0.010246 0.005009 -0.002964 -0.012979 -0.419370
    26 1.100771 0.004527 -0.010679 -0.016063 0.002203 -1.257798
    27 0.120153 -0.050270 -0.054489 0.287569 3.110905 1.561085
    28 -4.380269 -10.426731 -10.579731 -1.074842 -1.120606 -4.351637
    29 0.096944 -8.450418 -0.009365 -1.395019 -1.204989 1.090242
    30 0.447953 -2.798986 -0.200443 -0.528111 0.022130 0.179272
    31 -0.032909 -1.480204 0.004940 -1.165523 0.000000 0.000002
    32 -0.027022 -1.076920 -0.020210 -0.581949 0.000000 0.000000
    33 -0.249534 -2.846964 -0.174213 -0.412731 0.014268 0.088092
    34 0.043235 -1.683941 0.096012 -1.134542 0.002823 -0.000167
    35 0.031729 -1.160830 0.058838 -0.744938 0.000642 0.008372
    36 -0.963866 -2.785145 -0.085350 -0.083775 0.106943 0.187996
    37 0.028479 -1.403067 0.006271 -0.410450 0.000000 0.000000
    38 0.021413 -0.957781 0.020046 -0.738161 0.000000 0.000000
    39 1.164475 -2.543940 -0.170330 -0.777000 0.027082 0.111069
    40 0.024032 -1.129042 0.017807 -1.320727 0.000000 0.000001
    41 0.014898 -0.883989 -0.019848 -0.845482 0.000000 0.000000
    42 -0.586770 -1.264477 0.200161 -0.405601 -0.617882 -2.355749
    43 1.522835 0.058681 0.016848 -0.064086 0.114641 0.796569
    44 1.117947 0.048424 -0.005766 -0.006175 -0.024431 0.303541
    45 -0.139399 -0.111698 0.014397 0.653645 -0.030687 1.580508
    46 -1.393470 8.839177 -0.239433 1.580804 -0.005023 -1.566847
  time 18
    0 -1.496139 4.996246 1.890683 -0.000839 0.000000 0.000000
    1 9.213061 0.524484 -7.904157 -0.149965 -1.612725 -0.045697
    2 -0.071918 -8.498731 -0.104136 0.151252 0.282508 0.057556
    3 1.973201 -3.178651 0.974316 -0.053772 0.246034 3.130544
    4 0.748278 0.812449 -0.000037 0.000000 0.000000 0.000000
    5 -1.447341 2.742330 1.587808 3.141550 0.785401 -0.004042
    6 2.021398 3.485291 -0.000179 0.000002 -0.000009 -0.004012
    7 -1.443540 3.689672 1.587837 3.141550 0.785400 -0.004042
    8 -0.090965 5.612166 1.353291 -3.139586 1.570796 0.000000
    9 -0.179153 7.772105 0.000706 0.000002 -0.000030 1.566784
    10 1.428550 7.411645 0.590113 1.564803 -1.570317 0.000000
    11 1.257180 8.762585 -0.153713 -1.570562 0.002683 -1.566807
    12 -0.488518 -2.755602 -0.228260 -1.126782 -0.317842 -0.189634
    13 0.039887 -1.479790 0.029854 -1.884480 0.000000 0.000001
    14 0.028786 -1.075731 -0.023109 -0.606341 0.000000 0.000000
    15 0.250027 -2.820665 -0.238396 -0.768180 -0.290767 -0.241939
    16 -0.049759 -1.680544 0.100479 -1.934764 0.000000 -0.000002
    17 -0.034142 -1.148312 0.084782 -0.925883 0.000000 0.000000
    18 0.957766 -2.746780 -0.090302 -0.326543 -0.214230 0.016080
    19 -0.033420 -1.397129 -0.011257 -0.520996 0.000000 -0.000001
    20 -0.022360 -0.957436 0.018784 -0.975516 0.000000 0.000000
    21 -1.180681 -2.507217 -0.193859 -0.609335 -0.185626 -0.146241
    22 -0.024967 -1.123934 0.017597 -1.794512 0.000000 0.000001
    23 -0.020057 -0.890968 0.010090 -0.677836 0.000000 0.000000
    24 0.583510 -1.197277 0.185379 0.180201 -0.812074 -1.291278
    25 1.535927 0.010246 0.005009 -0.002964 -0.012979 -0.419370
    26 1.100771 0.004527 -0.010679 -0.016063 0.002203 -1.257798
    27 0.120153 -0.050270 -0.054489 0.287569 3.110905 1.561085
    28 -4.380269 -10.426731 -10.579731 -1.074842 -1.120606 -4.351637
    29 0.096944 -8.450418 -0.009365 -1.395019 -1.204989 1.090242
    30 0.447953 -2.798986 -0.200443 -0.528111 0.022130 0.179260
    31 -0.032909 -1.480204 0.004940 -1.165523 0.000000 0.000002
    32 -0.027022 -1.076920 -0.020210 -0.581949 0.000000 0.000000
    33 -0.249534 -2.846964 -0.174213 -0.412731 0.014268 0.088092
    34 0.043235 -1.683941 0.096012 -1.134542 0.002823 -0.000167
    35 0.031729 -1.160830 0.058838 -0.744938 0.000642 0.008372
    36 -0.963866 -2.785145 -0.085350 -0.083775 0.106943 0.187996
    37 0.028479 -1.403067 0.006271 -0.410450 0.000000 0.000000
    38 0.021413 -0.957781 0.020046 -0.738161 0.000000 0.000000
    39 1.164475 -2.543940 -0.170330 -0.777000 0.027082 0.111069
    40 0.024032 -1.129042 0.017807 -1.320727 0.000000 0.000001
    41 0.014898 -0.883989 -0.019848 -0.845482 0.000000 0.000000
    42 -0.586770 -1.264477 0.200161 -0.405601 -0.617882 -2.355749
    43 1.522835 0.058681 0.016848 -0.064086 0.114641 0.796569
    44 1.117947 0.048424 -0.005766 -0.006175 -0.024431 0.303541
    45 -0.139399 -0.111698 0.014397 0.653645 -0.030687 1.580508
    46 -1.393470 8.839177 -0.239433 1.580804 -0.005023 -1.566847
  time 19
    0 -1.496139 4.996246 1.902402 -0.003409 0.000000 0.000000
    1 9.213061 0.524484 -7.904157 -0.149965 -1.612725 -0.045697
    2 -0.071918 -8.498731 -0.104136 0.151252 0.282508 0.057556
    3 1.973201 -3.178651 0.974316 -0.053772 0.246034 3.130544
    4 0.748278 0.812449 -0.000037 0.000000 0.000000 0.000000
    5 -1.447341 2.742330 1.587808 3.141550 0.785401 -0.004042
    6 2.021398 3.485291 -0.000179 0.000002 -0.000009 -0.004012
    7 -1.443540 3.689672 1.587837 3.141550 0.785400 -0.004042
    8 -0.090965 5.612166 1.353291 -3.139586 1.570796 0.000000
    9 -0.179153 7.772105 0.000706 0.000002 -0.000030 1.566784
    10 1.428550 7.411645 0.590113 1.564803 -1.570317 0.000000
    11 1.257180 8.762585 -0.153713 -1.570562 0.002683 -1.566807
    12 -0.488518 -2.755602 -0.228260 -1.126782 -0.317842 -0.189634
    13 0.039887 -1.479790 0.029854 -1.884480 0.000000 0.000001
    14 0.028786 -1.075731 -0.023109 -0.606341 0.000000 0.000000
    15 0.250027 -2.820665 -0.238396 -0.768180 -0.290767 -0.241939
    16 -0.049759 -1.680544 0.100479 -1.934764 0.000000 -0.000002
    17 -0.034142 -1.148312 0.084782 -0.925883 0.000000 0.000000
    18 0.957766 -2.746780 -0.090302 -0.326543 -0.214230 0.016080
    19 -0.033420 -1.397129 -0.011257 -0.520996 0.000000 -0.000001
    20 -0.022360 -0.957436 0.018784 -0.975516 0.000000 0.000000
    21 -1.180681 -2.507217 -0.193859 -0.609335 -0.185626 -0.146241
    22 -0.024967 -1.123934 0.017597 -1.794512 0.000000 0.000001
    23 -0.020057 -0.890968 0.010090 -0.677836 0.000000 0.000000
    24 0.583510 -1.197277 0.185379 0.180201 -0.812074 -1.291278
    25 1.535927 0.010246 0.005009 -0.002964 -0.012979 -0.419370
    26 1.100771 0.004527 -0.010679 -0.016063 0.002203 -1.257798
    27 0.120153 -0.050270 -0.054489 0.287569 3.110905 1.561085
    28 -4.380269 -10.426731 -10.579731 -1.074842 -1.120606 -4.351637
    29 0.096944 -8.450418 -0.009365 -1.395019 -1.204989 1.090242
    30 0.447953 -2.798986 -0.200443 -0.528111 0.022130 0.179260
    31 -0.032909 -1.480204 0.004940 -1.165523 0.000000 0.000002
    32 -0.027022 -1.076920 -0.020210 -0.581949 0.000000 0.000000
    33 -0.249534 -2.846964 -0.174213 -0.412731 0.014268 0.088092
    34 0.043235 -1.683941 0.096012 -1.134542 0.002823 -0.000167
    35 0.031729 -1.160830 0.058838 -0.744938 0.000642 0.008372
    36 -0.963866 -2.785145 -0.085350 -0.083775 0.106943 0.187996
    37 0.028479 -1.403067 0.006271 -0.410450 0.000000 0.000000
    38 0.021413 -0.957781 0.020046 -0.738161 0.000000 0.000000
    39 1.164475 -2.543940 -0.170330 -0.777000 0.027082 0.111069
    40 0.024032 -1.129042 0.017807 -1.320727 0.000000 0.000001
    41 0.014898 -0.883989 -0.019848 -0.845482 0.000000 0.000000
    42 -0.586770 -1.264477 0.200161 -0.405601 -0.617882 -2.355749
    43 1.522835 0.058681 0.016848 -0.064086 0.114641 0.796569
    44 1.117947 0.048424 -0.005766 -0.006175 -0.024431 0.303541
    45 -0.139399 -0.111698 0.014397 0.653645 -0.030687 1.580508
    46 -1.393470 8.839177 -0.239433 1.580804 -0.005023 -1.566847
  time 20
    0 -1.496139 4.996246 1.921934 -0.004381 0.000000 0.000000
    1 9.213061 0.524484 -7.904157 -0.149965 -1.612725 -0.045697
    2 -0.071918 -8.498731 -0.104136 0.151252 0.282508 0.057556
    3 1.973201 -3.178651 0.974316 -0.053772 0.246034 3.130544
    4 0.748278 0.812449 -0.000037 0.000000 0.000000 0.000000
    5 -1.447341 2.742330 1.587808 3.141550 0.785401 -0.004042
    6 2.021398 3.485291 -0.000179 0.000002 -0.000009 -0.004012
    7 -1.443540 3.689672 1.587837 3.141550 0.785400 -0.004042
    8 -0.090965 5.612166 1.353291 -3.139586 1.570796 0.000000
    9 -0.179153 7.772105 0.000706 0.000002 -0.000030 1.566784
    10 1.428550 7.411645 0.590113 1.564803 -1.570796 0.000000
    11 1.257180 8.762585 -0.153713 -1.570562 0.002683 -1.566807
    12 -0.488518 -2.755602 -0.228260 -1.126782 -0.317842 -0.189634
    13 0.039887 -1.479790 0.029854 -1.884480 0.000000 0.000001
    14 0.028786 -1.075731 -0.023109 -0.606341 0.000000 0.000000
    15 0.250027 -2.820665 -0.238396 -0.768180 -0.290767 -0.241939
    16 -0.049759 -1.680544 0.100479 -1.934764 0.000000 -0.000002
    17 -0.034142 -1.148312 0.084782 -0.925883 0.000000 0.000000
    18 0.957766 -2.746780 -0.090302 -0.326543 -0.214230 0.016080
    19 -0.033420 -1.397129 -0.011257 -0.520996 0.000000 -0.000001
    20 -0.022360 -0.957436 0.018784 -0.975516 0.000000 0.000000
    21 -1.180681 -2.507217 -0.193859 -0.609335 -0.185626 -0.146241
    22 -0.024967 -1.123934 0.017597 -1.794512 0.000000 0.000001
    23 -0.020057 -0.890968 0.010090 -0.677836 0.000000 0.000000
    24 0.583510 -1.197277 0.185379 0.180201 -0.812074 -1.291278
    25 1.535927 0.010246 0.005009 -0.002964 -0.012979 -0.419370
    26 1.100771 0.004527 -0.010679 -0.016063 0.002203 -1.257798
    27 0.120153 -0.050270 -0.054489 0.287569 3.110905 1.561085
    28 -4.380269 -10.426731 -10.579731 -1.074842 -1.120606 -4.351637
    29 0.096944 -8.450418 -0.009365 -1.395019 -1.204989 1.090242
    30 0.447953 -2.798986 -0.200443 -0.528111 0.022130 0.179272
    31 -0.032909 -1.480204 0.004940 -1.165523 0.000000 0.000002
    32 -0.027022 -1.076920 -0.020210 -0.581949 0.000000 0.000000
    33 -0.249534 -2.846964 -0.174213 -0.412731 0.014268 0.088092
    34 0.043235 -1.683941 0.096012 -1.134542 0.002823 -0.000167
    35 0.031729 -1.160830 0.058838 -0.744938 0.000642 0.008372
    36 -0.963866 -2.785145 -0.085350 -0.083775 0.106943 0.187996
    37 0.028479 -1.403067 0.006271 -0.410450 0.000000 0.000000
    38 0.021413 -0.957781 0.020046 -0.738161 0.000000 0.000000
    39 1.164475 -2.543940 -0.170330 -0.777000 0.027082 0.111069
    40 0.024032 -1.129042 0.017807 -1.320727 0.000000 0.000001
    41 0.014898 -0.883989 -0.019848 -0.845482 0.000000 0.000000
    42 -0.586770 -1.264477 0.200161 -0.405601 -0.617882 -2.355749
    43 1.522835 0.058681 0.016848 -0.064086 0.114641 0.796569
    44 1.117947 0.048424 -0.005766 -0.006175 -0.024431 0.303541
    45 -0.139399 -0.111698 0.014397 0.653645 -0.030687 1.580508
    46 -1.393470 8.839177 -0.239433 1.580804 -0.005023 -1.566847
  time 21
    0 -1.496139 4.996246 1.941465 -0.003928 0.000000 0.000000
    1 9.213061 0.524484 -7.904157 -0.149965 -1.612725 -0.045697
    2 -0.071918 -8.498731 -0.104136 0.151252 0.282508 0.057556
    3 1.973201 -3.178651 0.974316 -0.053772 0.246034 3.130544
    4 0.748278 0.812449 -0.000037 0.000000 0.000000 0.000000
    5 -1.447341 2.742330 1.587808 3.141550 0.785401 -0.004042
    6 2.021398 3.485291 -0.000179 0.000002 -0.000009 -0.004012
    7 -1.443540 3.689672 1.587837 3.141550 0.785400 -0.004042
    8 -0.090965 5.612166 1.353291 -3.139586 1.570796 0.000000
    9 -0.179153 7.772105 0.000706 0.000002 -0.000030 1.566784
    10 1.428550 7.411645 0.590113 1.564803 -1.570317 0.000000
    11 1.257180 8.762585 -0.153713 -1.570562 0.002683 -1.566807
    12 -0.488518 -2.755602 -0.228260 -1.126782 -0.317842 -0.189634
    13 0.039887 -1.479790 0.029854 -1.884480 0.000000 0.000001
    14 0.028786 -1.075731 -0.023109 -0.606341 0.000000 0.000000
    15 0.250027 -2.820665 -0.238396 -0.768180 -0.290767 -0.241939
    16 -0.049759 -1.680544 0.100479 -1.934764 0.000000 -0.000002
    17 -0.034142 -1.148312 0.084782 -0.925883 0.000000 0.000000
    18 0.957766 -2.746780 -0.090302 -0.326543 -0.214230 0.016080
    19 -0.033420 -1.397129 -0.011257 -0.520996 0.000000 -0.000001
    20 -0.022360 -0.957436 0.018784 -0.975516 0.000000 0.000000
    21 -1.180681 -2.507217 -0.193859 -0.609335 -0.185626 -0.146241
    22 -0.024967 -1.123934 0.017597 -1.794512 0.000000 0.000001
    23 -0.020057 -0.890968 0.010090 -0.677836 0.000000 0.000000
    24 0.583510 -1.197277 0.185379 0.180201 -0.812074 -1.291278
    25 1.535927 0.010246 0.005009 -0.002964 -0.012979 -0.419370
    26 1.100771 0.004527 -0.010679 -0.016063 0.002203 -1.257798
    27 0.120153 -0.050270 -0.054489 0.287569 3.110905 1.561085
    28 -4.380269 -10.426731 -10.579731 -1.074842 -1.120606 -4.351637
    29 0.096944 -8.450418 -0.009365 -1.395019 -1.204989 1.090242
    30 0.447953 -2.798986 -0.200443 -0.528111 0.022130 0.179272
    31 -0.032909 -1.480204 0.004940 -1.165523 0.000000 0.000002
    32 -0.027022 -1.076920 -0.020210 -0.581949 0.000000 0.000000
    33 -0.249534 -2.846964 -0.174213 -0.412731 0.014268 0.088092
    34 0.043235 -1.683941 0.096012 -1.134542 0.002823 -0.000167
    35 0.031729 -1.160830 0.058838 -0.744938 0.000642 0.008372
    36 -0.963866 -2.785145 -0.085350 -0.083775 0.106943 0.187996
    37 0.028479 -1.403067 0.006271 -0.410450 0.000000 0.000000
    38 0.021413 -0.957781 0.020046 -0.738161 0.000000 0.000000
    39 1.164475 -2.543940 -0.170330 -0.777000 0.027082 0.111069
    40 0.024032 -1.129042 0.017807 -1.320727 0.000000 0.000001
    41 0.014898 -0.883989 -0.019848 -0.845482 0.000000 0.000000
    42 -0.586770 -1.264477 0.200161 -0.405601 -0.617882 -2.355749
    43 1.522835 0.058681 0.016848 -0.064086 0.114641 0.796569
    44 1.117947 0.048424 -0.005766 -0.006175 -0.024431 0.303541
    45 -0.139399 -0.111698 0.014397 0.653645 -0.030687 1.580508
    46 -1.393470 8.839177 -0.239433 1.580804 -0.005023 -1.566847
  time 22
    0 -1.496139 4.996246 1.960997 -0.002836 0.000000 0.000000
    1 9.213061 0.524484 -7.904157 -0.149965 -1.612725 -0.045697
    2 -0.071918 -8.498731 -0.104136 0.151252 0.282508 0.057556
    3 1.973201 -3.178651 0.974316 -0.053772 0.246034 3.130544
    4 0.748278 0.812449 -0.000037 0.000000 0.000000 0.000000
    5 -1.447341 2.742330 1.587808 3.141550 0.785401 -0.004042
    6 2.021398 3.485291 -0.000179 0.000002 -0.000009 -0.004012
    7 -1.443540 3.689672 1.587837 3.141550 0.785400 -0.004042
    8 -0.090965 5.612166 1.353291 -3.139586 1.570796 0.000000
    9 -0.179153 7.772105 0.000706 0.000002 -0.000030 1.566784
    10 1.428550 7.411645 0.590113 1.564803 -1.570796 0.000000
    11 1.257180 8.762585 -0.153713 -1.570562 0.002683 -1.566807
    12 -0.488518 -2.755602 -0.228260 -1.126782 -0.317842 -0.189634
    13 0.039887 -1.479790 0.029854 -1.884480 0.000000 0.000001
    14 0.028786 -1.075731 -0.023109 -0.606341 0.000000 0.000000
    15 0.250027 -2.820665 -0.238396 -0.768180 -0.290767 -0.241939
    16 -0.049759 -1.680544 0.100479 -1.934764 0.000000 -0.000002
    17 -0.034142 -1.148312 0.084782 -0.925883 0.000000 0.000000
    18 0.957766 -2.746780 -0.090302 -0.326543 -0.214230 0.016080
    19 -0.033420 -1.397129 -0.011257 -0.520996 0.000000 -0.000001
    20 -0.022360 -0.957436 0.018784 -0.975516 0.000000 0.000000
    21 -1.180681 -2.507217 -0.193859 -0.609335 -0.185626 -0.146241
    22 -0.024967 -1.123934 0.017597 -1.794512 0.000000 0.000001
    23 -0.020057 -0.890968 0.010090 -0.677836 0.000000 0.000000
    24 0.583510 -1.197277 0.185379 0.180201 -0.812074 -1.291278
    25 1.535927 0.010246 0.005009 -0.002964 -0.012979 -0.419370
    26 1.100771 0.004527 -0.010679 -0.016063 0.002203 -1.257798
    27 0.120153 -0.050270 -0.054489 0.287569 3.110905 1.561085
    28 -4.380269 -10.426731 -10.579731 -1.074842 -1.120606 -4.351637
    29 0.096944 -8.450418 -0.009365 -1.395019 -1.204989 1.090242
    30 0.447953 -2.798986 -0.200443 -0.528111 0.022130 0.179260
    31 -0.032909 -1.480204 0.004940 -1.165523 0.000000 0.000002
    32 -0.027022 -1.076920 -0.020210 -0.581949 0.000000 0.000000
    33 -0.249534 -2.846964 -0.174213 -0.412731 0.014268 0.088092
    34 0.043235 -1.683941 0.096012 -1.134542 0.002823 -0.000167
    35 0.031729 -1.160830 0.058838 -0.744938 0.000642 0.008372
    36 -0.963866 -2.785145 -0.085350 -0.083775 0.106943 0.187996
    37 0.028479 -1.403067 0.006271 -0.410450 0.000000 0.000000
    38 0.021413 -0.957781 0.020046 -0.738161 0.000000 0.000000
    39 1.164475 -2.543940 -0.170330 -0.777000 0.027082 0.111069
    40 0.024032 -1.129042 0.017807 -1.320727 0.000000 0.000001
    41 0.014898 -0.883989 -0.019848 -0.845482 0.000000 0.000000
    42 -0.586770 -1.264477 0.200161 -0.405601 -0.617882 -2.355749
    43 1.522835 0.058681 0.016848 -0.064086 0.114641 0.796569
    44 1.117947 0.048424 -0.005766 -0.006175 -0.024431 0.303541
    45 -0.139399 -0.111698 0.014397 0.653645 -0.030687 1.580508
    46 -1.393470 8.839177 -0.239433 1.580804 -0.005023 -1.566847
  time 23
    0 -1.496139 4.996246 1.980529 -0.001545 0.000000 0.000000
    1 9.213061 0.524484 -7.904157 -0.149965 -1.612725 -0.045697
    2 -0.071918 -8.498731 -0.104136 0.151252 0.282508 0.057556
    3 1.973201 -3.178651 0.974316 -0.053772 0.246034 3.130544
    4 0.748278 0.812449 -0.000037 0.000000 0.000000 0.000000
    5 -1.447341 2.742330 1.587808 3.141550 0.785401 -0.004042
    6 2.021398 3.485291 -0.000179 0.000002 -0.000009 -0.004012
    7 -1.443540 3.689672 1.587837 3.141550 0.785400 -0.004042
    8 -0.090965 5.612166 1.353291 -3.139586 1.570796 0.000000
    9 -0.179153 7.772105 0.000706 0.000002 -0.000030 1.566784
    10 1.428550 7.411645 0.590113 1.564803 -1.570317 0.000000
    11 1.257180 8.762585 -0.153713 -1.570562 0.002683 -1.566807
    12 -0.488518 -2.755602 -0.228260 -1.126782 -0.317842 -0.189634
    13 0.039887 -1.479790 0.029854 -1.884480 0.000000 0.000001
    14 0.028786 -1.075731 -0.023109 -0.606341 0.000000 0.000000
    15 0.250027 -2.820665 -0.238396 -0.768180 -0.290767 -0.241939
    16 -0.049759 -1.680544 0.100479 -1.934764 0.000000 -0.000002
    17 -0.034142 -1.148312 0.084782 -0.925883 0.000000 0.000000
    18 0.957766 -2.746780 -0.090302 -0.326543 -0.214230 0.016080
    19 -0.033420 -1.397129 -0.011257 -0.520996 0.000000 -0.000001
    20 -0.022360 -0.957436 0.018784 -0.975516 0.000000 0.000000
    21 -1.180681 -2.507217 -0.193859 -0.609335 -0.185626 -0.146241
    22 -0.024967 -1.123934 0.017597 -1.794512 0.000000 0.000001
    23 -0.020057 -0.890968 0.010090 -0.677836 0.000000 0.000000
    24 0.583510 -1.197277 0.185379 0.180201 -0.812074 -1.291278
    25 1.535927 0.010246 0.005009 -0.002964 -0.012979 -0.419370
    26 1.100771 0.004527 -0.010679 -0.016063 0.002203 -1.257798
    27 0.120153 -0.050270 -0.054489 0.287569 3.110905 1.561085
    28 -4.380269 -10.426731 -10.579731 -1.074842 -1.120606 -4.351637
    29 0.096944 -8.450418 -0.009365 -1.395019 -1.204989 1.090242
    30 0.447953 -2.798986 -0.200443 -0.528111 0.022130 0.179260
    31 -0.032909 -1.480204 0.004940 -1.165523 0.000000 0.000002
    32 -0.027022 -1.076920 -0.020210 -0.581949 0.000000 0.000000
    33 -0.249534 -2.846964 -0.174213 -0.412731 0.014268 0.088092
    34 0.043235 -1.683941 0.096012 -1.134542 0.002823 -0.000167
    35 0.031729 -1.160830 0.058838 -0.744938 0.000642 0.008372
    36 -0.963866 -2.785145 -0.085350 -0.083775 0.106943 0.187996
    37 0.028479 -1.403067 0.006271 -0.410450 0.000000 0.000000
    38 0.021413 -0.957781 0.020046 -0.738161 0.000000 0.000000
    39 1.164475 -2.543940 -0.170330 -0.777000 0.027082 0.111069
    40 0.024032 -1.129042 0.017807 -1.320727 0.000000 0.000001
    41 0.014898 -0.883989 -0.019848 -0.845482 0.000000 0.000000
    42 -0.586770 -1.264477 0.200161 -0.405601 -0.617882 -2.355749
    43 1.522835 0.058681 0.016848 -0.064086 0.114641 0.796569
    44 1.117947 0.048424 -0.005766 -0.006175 -0.024431 0.303541
    45 -0.139399 -0.111698 0.014397 0.653645 -0.030687 1.580508
    46 -1.393470 8.839177 -0.239433 1.580804 -0.005023 -1.566847
  time 24
    0 -1.496139 4.996246 1.992248 -0.000453 0.000000 0.000000
    1 9.213061 0.524484 -7.904157 -0.149965 -1.612725 -0.045697
    2 -0.071918 -8.498731 -0.104136 0.151252 0.282508 0.057556
    3 1.973201 -3.178651 0.974316 -0.053772 0.246034 3.130544
    4 0.748278 0.812449 -0.000037 0.000000 0.000000 0.000000
    5 -1.447341 2.742330 1.587808 3.141550 0.785401 -0.004042
    6 2.021398 3.485291 -0.000179 0.000002 -0.000009 -0.004012
    7 -1.443540 3.689672 1.587837 3.141550 0.785400 -0.004042
    8 -0.090965 5.612166 1.353291 -3.139586 1.570796 0.000000
    9 -0.179153 7.772105 0.000706 0.000002 -0.000030 1.566784
    10 1.428550 7.411645 0.590113 1.564803 -1.570317 0.000000
    11 1.257180 8.762585 -0.153713 -1.570562 0.002683 -1.566807
    12 -0.488518 -2.755602 -0.228260 -1.126782 -0.317842 -0.189634
    13 0.039887 -1.479790 0.029854 -1.884480 0.000000 0.000001
    14 0.028786 -1.075731 -0.023109 -0.606341 0.000000 0.000000
    15 0.250027 -2.820665 -0.238396 -0.768180 -0.290767 -0.241939
    16 -0.049759 -1.680544 0.100479 -1.934764 0.000000 -0.000002
    17 -0.034142 -1.148312 0.084782 -0.925883 0.000000 0.000000
    18 0.957766 -2.746780 -0.090302 -0.326543 -0.214230 0.016080
    19 -0.033420 -1.397129 -0.011257 -0.520996 0.000000 -0.000001
    20 -0.022360 -0.957436 0.018784 -0.975516 0.000000 0.000000
    21 -1.180681 -2.507217 -0.193859 -0.609335 -0.185626 -0.146241
    22 -0.024967 -1.123934 0.017597 -1.794512 0.000000 0.000001
    23 -0.020057 -0.890968 0.010090 -0.677836 0.000000 0.000000
    24 0.583510 -1.197277 0.185379 0.180201 -0.812074 -1.291278
    25 1.535927 0.010246 0.005009 -0.002964 -0.012979 -0.419370
    26 1.100771 0.004527 -0.010679 -0.016063 0.002203 -1.257798
    27 0.120153 -0.050270 -0.054489 0.287569 3.110905 1.561085
    28 -4.380269 -10.426731 -10.579731 -1.074842 -1.120606 -4.351637
    29 0.096944 -8.450418 -0.009365 -1.395019 -1.204989 1.090242
    30 0.447953 -2.798986 -0.200443 -0.528111 0.022130 0.179260
    31 -0.032909 -1.480204 0.004940 -1.165523 0.000000 0.000002
    32 -0.027022 -1.076920 -0.020210 -0.581949 0.000000 0.000000
    33 -0.249534 -2.846964 -0.174213 -0.412731 0.014268 0.088092
    34 0.043235 -1.683941 0.096012 -1.134542 0.002823 -0.000167
    35 0.031729 -1.160830 0.058838 -0.744938 0.000642 0.008372
    36 -0.963866 -2.785145 -0.085350 -0.083775 0.106943 0.187996
    37 0.028479 -1.403067 0.006271 -0.410450 0.000000 0.000000
    38 0.021413 -0.957781 0.020046 -0.738161 0.000000 0.000000
    39 1.164475 -2.543940 -0.170330 -0.777000 0.027082 0.111069
    40 0.024032 -1.129042 0.017807 -1.320727 0.000000 0.000001
    41 0.014898 -0.883989 -0.019848 -0.845482 0.000000 0.000000
    42 -0.586770 -1.264477 0.200161 -0.405601 -0.617882 -2.355749
    43 1.522835 0.058681 0.016848 -0.064086 0.114641 0.796569
    44 1.117947 0.048424 -0.005766 -0.006175 -0.024431 0.303541
    45 -0.139399 -0.111698 0.014397 0.653645 -0.030687 1.580508
    46 -1.393470 8.839177 -0.239433 1.580804 -0.005023 -1.566847
  time 25
    0 -1.496139 4.996246 1.996155 0.000000 0.000000 0.000000
    1 9.213061 0.524484 -7.904157 -0.149965 -1.612725 -0.045697
    2 -0.071918 -8.498731 -0.104136 0.151252 0.282508 0.057556
    3 1.973201 -3.178651 0.974316 -0.053772 0.246034 3.130544
    4 0.748278 0.812449 -0.000037 0.000000 0.000000 0.000000
    5 -1.447341 2.742330 1.587808 3.141550 0.785401 -0.004042
    6 2.021398 3.485291 -0.000179 0.000002 -0.000009 -0.004012
    7 -1.443540 3.689672 1.587837 3.141550 0.785400 -0.004042
    8 -0.090965 5.612166 1.353291 -3.139586 1.570796 0.000000
    9 -0.179153 7.772105 0.000706 0.000002 -0.000030 1.566784
    10 1.428550 7.411645 0.590113 1.564803 -1.570796 0.000000
    11 1.257180 8.762585 -0.153713 -1.570562 0.002683 -1.566807
    12 -0.488518 -2.755602 -0.228260 -1.126782 -0.317842 -0.189634
    13 0.039887 -1.479790 0.029854 -1.884480 0.000000 0.000001
    14 0.028786 -1.075731 -0.023109 -0.606341 0.000000 0.000000
    15 0.250027 -2.820665 -0.238396 -0.768180 -0.290767 -0.241939
    16 -0.049759 -1.680544 0.100479 -1.934764 0.000000 -0.000002
    17 -0.034142 -1.148312 0.084782 -0.925883 0.000000 0.000000
    18 0.957766 -2.746780 -0.090302 -0.326543 -0.214230 0.016080
    19 -0.033420 -1.397129 -0.011257 -0.520996 0.000000 -0.000001
    20 -0.022360 -0.957436 0.018784 -0.975516 0.000000 0.000000
    21 -1.180681 -2.507217 -0.193859 -0.609335 -0.185626 -0.146241
    22 -0.024967 -1.123934 0.017597 -1.794512 0.000000 0.000001
    23 -0.020057 -0.890968 0.010090 -0.677836 0.000000 0.000000
    24 0.583510 -1.197277 0.185379 0.180201 -0.812074 -1.291278
    25 1.535927 0.010246 0.005009 -0.002964 -0.012979 -0.419370
    26 1.100771 0.004527 -0.010679 -0.016063 0.002203 -1.257798
    27 0.120153 -0.050270 -0.054489 0.287569 3.110905 1.561085
    28 -4.380269 -10.426731 -10.579731 -1.074842 -1.120606 -4.351637
    29 0.096944 -8.450418 -0.009365 -1.395019 -1.204989 1.090242
    30 0.447953 -2.798986 -0.200443 -0.528111 0.022130 0.179272
    31 -0.032909 -1.480204 0.004940 -1.165523 0.000000 0.000002
    32 -0.027022 -1.076920 -0.020210 -0.581949 0.000000 0.000000
    33 -0.249534 -2.846964 -0.174213 -0.412731 0.014268 0.088092
    34 0.043235 -1.683941 0.096012 -1.134542 0.002823 -0.000167
    35 0.031729 -1.160830 0.058838 -0.744938 0.000642 0.008372
    36 -0.963866 -2.785145 -0.085350 -0.083775 0.106943 0.187996
    37 0.028479 -1.403067 0.006271 -0.410450 0.000000 0.000000
    38 0.021413 -0.957781 0.020046 -0.738161 0.000000 0.000000
    39 1.164475 -2.543940 -0.170330 -0.777000 0.027082 0.111069
    40 0.024032 -1.129042 0.017807 -1.320727 0.000000 0.000001
    41 0.014898 -0.883989 -0.019848 -0.845482 0.000000 0.000000
    42 -0.586770 -1.264477 0.200161 -0.405601 -0.617882 -2.355749
    43 1.522835 0.058681 0.016848 -0.064086 0.114641 0.796569
    44 1.117947 0.048424 -0.005766 -0.006175 -0.024431 0.303541
    45 -0.139399 -0.111698 0.014397 0.653645 -0.030687 1.580508
    46 -1.393470 8.839177 -0.239433 1.580804 -0.005023 -1.566847
end
