version 1
nodes
  0 "root_restrictionpistol" -1
  1 "wing_R_1" 0
  2 "wing_R_3" 1
  3 "wing_R_4" 1
  4 "wing_R_2" 1
  5 "wing_L_1" 0
  6 "wing_L_4" 5
  7 "wing_L_3" 5
  8 "wing_L_2" 5
  9 "cover" 0
  10 "x_bone" 0
  11 "megazine" -1
  12 "restrictionpistol_core" 0
  13 "restrictionpistol_core001" -1
  14 "restrictionpistol_core002" -1
  15 "restrictionpistol_charge1_bone1" -1
  16 "restrictionpistol_charge1_bone2" 15
  17 "restrictionpistol_charge2_bone1" -1
  18 "restrictionpistol_charge2_bone2" 17
  19 "restrictionpistol_charge3_bone1" -1
  20 "restrictionpistol_charge3_bone2" 19
  21 "restrictionpistol_charge4_bone1" -1
  22 "restrictionpistol_charge4_bone2" 21
  23 "restrictionpistol_charge5_bone1" -1
  24 "restrictionpistol_charge5_bone2" 23
  25 "root" -1
  26 "Bone01" 25
  27 "Bone_L_Upper" 26
  28 "Bone_Lefthand" 26
  29 "Bone13" 28
  30 "Bone14" 29
  31 "Bone15" 30
  32 "Bone17" 28
  33 "Bone18" 32
  34 "Bone19" 33
  35 "Bone21" 28
  36 "Bone22" 35
  37 "Bone23" 36
  38 "Bone09" 28
  39 "Bone10" 38
  40 "Bone11" 39
  41 "Bone05" 28
  42 "Bone06" 41
  43 "Bone07" 42
  44 "Bone_Se_Hand-L" 28
  45 "Bone04" 25
  46 "Bone_Righthand" 45
  47 "Bone39" 46
  48 "Bone40" 47
  49 "Bone41" 48
  50 "Bone35" 46
  51 "Bone36" 50
  52 "Bone37" 51
  53 "Bone31" 46
  54 "Bone32" 53
  55 "Bone33" 54
  56 "Bone43" 46
  57 "Bone44" 56
  58 "Bone45" 57
  59 "Bone27" 46
  60 "Bone28" 59
  61 "Bone29" 60
  62 "Bone_Se_Hand-R" 46
  63 "Bone_R_Upper" 45
end
skeleton
  time 0
    0 3.618112 -14.969207 -7.595582 -0.208811 -1.458322 -4.596692
    1 3.420055 -3.415972 3.851618 0.000000 0.000000 0.000000
    2 0.000000 0.000000 0.000000 0.000001 0.872666 0.000000
    3 0.000000 0.000000 0.000000 0.000001 2.268926 0.000000
    4 0.000000 -1.238493 0.000000 0.000000 0.000000 0.000000
    5 3.419790 3.416002 3.852050 0.000000 0.000000 0.000000
    6 0.000000 0.000000 0.000000 0.000002 2.268927 0.000001
    7 0.000000 0.000000 0.000000 0.000000 0.872667 -0.000002
    8 0.000000 1.238667 0.000000 0.000000 0.000000 0.000000
    9 0.081354 0.000002 7.236489 -0.000001 1.570796 0.000000
    10 3.215855 0.000000 -0.330850 0.000000 1.570796 0.000000
    11 3.293178 -18.422437 -7.291024 -6.259727 -3.031467 -4.806892
    12 -28.634003 4.043094 -35.116589 -1.570796 0.000000 -1.502219
    13 3.557847 0.783851 -83.217604 -0.179397 -0.907975 0.047452
    14 3.217993 -18.438063 -4.066751 0.469201 1.816082 0.362496
    15 2.227207 5.396903 -99.864965 1.068609 -0.123379 -1.649981
    16 40.329284 0.000000 0.000004 0.000000 0.000000 0.000000
    17 2.225612 5.542536 -99.734148 1.068609 -0.123379 -1.649985
    18 40.329283 0.000000 0.000000 0.000000 0.000000 0.000000
    19 2.421946 -27.939852 -2.628925 1.068609 -0.123379 -1.649983
    20 40.329284 -0.000008 0.000004 0.000000 0.000000 0.000000
    21 2.219513 5.759048 -99.487313 1.068597 -0.123379 -1.649984
    22 40.329284 0.000000 0.000000 0.000000 0.000000 0.000000
    23 2.420573 5.487547 -99.224543 0.018804 -0.123320 -1.649967
    24 40.329284 0.000000 0.000004 0.000000 0.000000 0.000000
    25 1.598859 1.596440 -5.503455 -0.051702 0.008245 0.158160
    26 5.399828 -6.393397 -2.924852 6.135901 -2.221363 -0.419539
    27 3.886166 7.848494 -0.204496 1.566929 -3.138133 1.231139
    28 0.029645 -8.498736 -0.065070 0.216701 0.734424 -0.037798
    29 -0.488518 -2.755602 -0.228260 -0.609646 0.088064 -0.295494
    30 0.039887 -1.542292 0.022041 -1.774002 -0.008353 0.039766
    31 0.028786 -1.165578 -0.124675 -1.048806 -0.015113 0.022267
    32 0.250027 -2.820665 -0.238396 -0.478323 -0.005330 -0.173219
    33 -0.049759 -1.594604 0.022352 -1.701637 -0.002936 -0.044537
    34 -0.034142 -1.163937 0.049625 -0.984126 0.007982 -0.025539
    35 0.957766 -2.746780 -0.090302 -0.026941 -0.162013 0.191139
    36 -0.033420 -1.397129 -0.034695 -1.243748 -0.002577 -0.059385
    37 -0.022360 -0.957436 0.003159 -0.627467 0.007934 -0.030345
    38 -1.180681 -2.507217 -0.193859 -0.660927 0.343326 -0.295198
    39 -0.024967 -1.127840 0.017597 -1.442225 -0.007682 -0.059143
    40 -0.020057 -0.906594 0.029622 -0.954316 0.006052 -0.038962
    41 0.579604 -1.205090 0.197098 -0.088019 -0.754887 -0.536329
    42 1.461706 -0.239762 0.075324 0.064581 -0.233567 -0.857539
    43 0.995299 -0.186885 0.047917 0.099876 -0.252374 -1.093972
    44 0.120153 -0.050270 -0.054489 0.287569 3.110905 1.561085
    45 -4.184951 -5.231260 -6.692894 -0.635147 -4.833770 -0.237953
    46 -0.012434 -8.548078 0.049231 0.590327 -0.741415 -0.239989
    47 0.447953 -2.798986 -0.200443 -1.013050 0.000330 0.141916
    48 -0.032909 -1.491923 0.008846 -0.672710 0.015268 -0.008136
    49 -0.027022 -1.088639 -0.024116 -0.350292 0.009540 -0.002960
    50 -0.249534 -2.846964 -0.174213 -0.804145 0.010158 -0.000750
    51 0.043235 -1.660503 0.084293 -0.879243 -0.014363 0.000300
    52 0.031729 -1.156924 0.058838 -0.320392 -0.002402 0.006442
    53 -0.963866 -2.785145 -0.085350 -0.528072 0.117933 -0.081310
    54 0.028479 -1.403067 -0.013261 -0.724981 -0.016143 -0.028403
    55 0.021413 -0.949968 0.020046 -0.527497 -0.009839 -0.021620
    56 1.164475 -2.543940 -0.170330 -1.177727 -0.173025 0.226694
    57 0.024032 -1.129042 0.006088 -0.439332 -0.001630 0.023455
    58 0.014898 -0.887895 -0.019848 -0.327651 -0.002445 0.014753
    59 -0.586770 -1.264477 0.200161 0.001023 -0.429425 -2.583825
    60 1.546273 0.039149 0.016848 -0.008525 -0.002652 0.498167
    61 1.114041 0.044518 -0.005766 -0.027328 -0.034582 0.990172
    62 -0.139399 -0.111698 0.014397 0.285382 -0.030687 1.580508
    63 -7.319432 4.503107 -0.423032 1.576262 -0.028429 -0.642648
  time 1
    0 3.645456 -15.008271 -7.626833 -0.151598 -1.457039 -4.673386
    1 3.420055 -3.415972 3.851618 0.000000 0.000000 0.000000
    2 0.000000 0.000000 0.000000 0.000001 0.872666 0.000000
    3 0.000000 0.000000 0.000000 0.000001 2.268926 0.000000
    4 0.000000 -1.238493 0.000000 0.000000 0.000000 0.000000
    5 3.419790 3.416002 3.852050 0.000000 0.000000 0.000000
    6 0.000000 0.000000 0.000000 0.000002 2.268927 0.000001
    7 0.000000 0.000000 0.000000 0.000000 0.872667 -0.000002
    8 0.000000 1.238667 0.000000 0.000000 0.000000 0.000000
    9 0.081354 0.000002 7.236489 -0.000001 1.570796 0.000000
    10 3.215855 0.000000 -0.330850 0.000000 1.570796 0.000000
    11 3.254114 -18.453688 -7.314462 -6.265859 -3.029072 -4.825960
    12 -28.634003 4.043094 -35.116589 -1.570796 0.000000 -0.594846
    13 3.417217 0.611971 -83.276199 0.307194 -1.950921 -0.400196
    14 3.198461 -18.465407 -4.090189 -0.150757 0.726887 -0.214280
    15 2.070952 5.221117 -99.923561 1.062401 -0.125716 -1.669012
    16 40.716015 0.000000 0.000004 0.000000 0.000000 0.000000
    17 2.073263 5.366749 -99.792743 1.062401 -0.125716 -1.669016
    18 40.716014 0.000000 0.000000 0.000000 0.000000 0.000000
    19 2.222721 -27.943758 -2.632832 1.062401 -0.125716 -1.669014
    20 40.716015 -0.000008 0.000004 0.000000 0.000000 0.000000
    21 2.074977 5.583261 -99.545908 1.062401 -0.125716 -1.669015
    22 40.716015 0.000000 0.000000 0.000000 0.000000 0.000000
    23 2.272131 5.307854 -99.287045 0.445322 -0.125682 -1.669044
    24 40.716015 0.000000 0.000004 0.000000 0.000000 0.000000
    25 1.598859 1.596440 -5.503455 -0.051702 0.008245 0.158160
    26 5.372483 -6.424648 -2.877976 6.117397 -2.224467 -0.392096
    27 3.679129 7.961779 -0.200589 1.567120 -3.138708 1.259835
    28 0.029645 -8.494830 -0.065070 0.194123 0.738735 -0.020561
    29 -0.488518 -2.755602 -0.228260 -0.609646 0.088064 -0.295494
    30 0.039887 -1.542292 0.022041 -1.774002 -0.008353 0.039766
    31 0.028786 -1.165578 -0.124675 -1.048806 -0.015113 0.022267
    32 0.250027 -2.820665 -0.238396 -0.478323 -0.005330 -0.173219
    33 -0.049759 -1.594604 0.022352 -1.701637 -0.002936 -0.044537
    34 -0.034142 -1.163937 0.049625 -0.984126 0.007982 -0.025539
    35 0.957766 -2.746780 -0.090302 -0.026941 -0.162013 0.191139
    36 -0.033420 -1.397129 -0.034695 -1.243748 -0.002577 -0.059385
    37 -0.022360 -0.957436 0.003159 -0.627467 0.007934 -0.030345
    38 -1.180681 -2.507217 -0.193859 -0.660927 0.343326 -0.295198
    39 -0.024967 -1.127840 0.017597 -1.442225 -0.007682 -0.059143
    40 -0.020057 -0.906594 0.029622 -0.954316 0.006052 -0.038962
    41 0.579604 -1.205090 0.197098 -0.088019 -0.754887 -0.536329
    42 1.461706 -0.239762 0.075324 0.064581 -0.233567 -0.857539
    43 0.995299 -0.186885 0.047917 0.099876 -0.252374 -1.093972
    44 0.120153 -0.050270 -0.054489 0.287569 3.110905 1.561085
    45 -4.153700 -5.274230 -6.669456 -0.582987 -4.830750 -0.182260
    46 -0.012434 -8.555890 0.049231 0.616005 -0.726313 -0.263900
    47 0.447953 -2.798986 -0.200443 -1.013050 0.000330 0.141916
    48 -0.032909 -1.491923 0.008846 -0.672710 0.015268 -0.008136
    49 -0.027022 -1.088639 -0.024116 -0.350292 0.009540 -0.002960
    50 -0.249534 -2.846964 -0.174213 -0.804145 0.010158 -0.000750
    51 0.043235 -1.660503 0.084293 -0.879243 -0.014363 0.000300
    52 0.031729 -1.156924 0.058838 -0.320392 -0.002402 0.006442
    53 -0.963866 -2.785145 -0.085350 -0.528072 0.117933 -0.081310
    54 0.028479 -1.403067 -0.013261 -0.724981 -0.016143 -0.028403
    55 0.021413 -0.949968 0.020046 -0.527497 -0.009839 -0.021620
    56 1.164475 -2.543940 -0.170330 -1.177727 -0.173025 0.226694
    57 0.024032 -1.129042 0.006088 -0.439332 -0.001630 0.023455
    58 0.014898 -0.887895 -0.019848 -0.327651 -0.002445 0.014753
    59 -0.586770 -1.264477 0.200161 0.001023 -0.429425 -2.583825
    60 1.546273 0.039149 0.016848 -0.008525 -0.002652 0.498167
    61 1.114041 0.044518 -0.005766 -0.027328 -0.034582 0.990172
    62 -0.139399 -0.111698 0.014397 0.285382 -0.030687 1.580508
    63 -7.253024 4.632017 -0.419126 1.576549 -0.028057 -0.660046
  time 2
    0 3.614205 -15.027802 -7.634646 -0.116504 -1.462275 -4.695244
    1 3.420055 -3.415972 3.851618 0.000000 0.000000 0.000000
    2 0.000000 0.000000 0.000000 0.000001 0.872666 0.000000
    3 0.000000 0.000000 0.000000 0.000001 2.268926 0.000000
    4 0.000000 -1.238493 0.000000 0.000000 0.000000 0.000000
    5 3.419790 3.416002 3.852050 0.000000 0.000000 0.000000
    6 0.000000 0.000000 0.000000 0.000002 2.268927 0.000001
    7 0.000000 0.000000 0.000000 0.000000 0.872667 -0.000002
    8 0.000000 1.238667 0.000000 0.000000 0.000000 0.000000
    9 0.081354 0.000002 7.236489 -0.000001 1.570796 0.000000
    10 3.215855 0.000000 -0.330850 0.000000 1.570796 0.000000
    11 3.269740 -18.477126 -7.337900 -6.270458 -3.033767 -4.812495
    12 -28.634003 4.043094 -35.116589 -1.570796 0.000000 0.312624
    13 2.878139 0.971357 -83.201978 0.109645 -2.956292 -0.120484
    14 3.225805 -18.508377 -4.113627 -0.113736 -0.324856 -0.063813
    15 1.402963 5.650817 -99.818089 1.057883 -0.120970 -1.655518
    16 38.016714 0.000000 0.000004 0.000000 0.000000 0.000000
    17 1.401368 5.796450 -99.687271 1.057883 -0.120970 -1.655522
    18 38.016713 0.000000 0.000000 0.000000 0.000000 0.000000
    19 2.378976 -28.006260 -2.699240 1.057883 -0.120970 -1.655520
    20 38.016714 -0.000008 0.000004 0.000000 0.000000 0.000000
    21 1.403081 6.012962 -99.440436 1.057871 -0.120970 -1.655521
    22 38.016714 0.000000 0.000000 0.000000 0.000000 0.000000
    23 1.604142 5.737555 -99.177666 -1.489057 -3.020534 -4.797039
    24 38.016714 0.000000 0.000004 0.000000 0.000000 0.000000
    25 1.598859 1.596440 -5.503455 -0.051702 0.008245 0.158160
    26 5.321700 -6.424648 -2.858444 6.114233 -2.223777 -0.392565
    27 3.620533 7.989124 -0.200589 1.567216 -3.138804 1.267888
    28 0.033551 -8.498736 -0.065070 0.209387 0.744597 -0.021054
    29 -0.488518 -2.755602 -0.228260 -0.609646 0.088064 -0.295494
    30 0.039887 -1.542292 0.022041 -1.774002 -0.008353 0.039766
    31 0.028786 -1.165578 -0.124675 -1.048806 -0.015113 0.022267
    32 0.250027 -2.820665 -0.238396 -0.478323 -0.005330 -0.173219
    33 -0.049759 -1.594604 0.022352 -1.701637 -0.002936 -0.044537
    34 -0.034142 -1.163937 0.049625 -0.984126 0.007982 -0.025539
    35 0.957766 -2.746780 -0.090302 -0.026941 -0.162013 0.191139
    36 -0.033420 -1.397129 -0.034695 -1.243748 -0.002577 -0.059385
    37 -0.022360 -0.957436 0.003159 -0.627467 0.007934 -0.030345
    38 -1.180681 -2.507217 -0.193859 -0.660927 0.343326 -0.295198
    39 -0.024967 -1.127840 0.017597 -1.442225 -0.007682 -0.059143
    40 -0.020057 -0.906594 0.029622 -0.954316 0.006052 -0.038962
    41 0.579604 -1.205090 0.197098 -0.088019 -0.754887 -0.536329
    42 1.461706 -0.239762 0.075324 0.064581 -0.233567 -0.857539
    43 0.995299 -0.186885 0.047917 0.099876 -0.252374 -1.093972
    44 0.120153 -0.050270 -0.054489 0.287569 3.110905 1.561085
    45 -4.188857 -5.262511 -6.685081 -0.616813 -4.830905 -0.222027
    46 -0.012434 -8.551984 0.049231 0.593382 -0.733982 -0.237455
    47 0.447953 -2.798986 -0.200443 -1.013050 0.000330 0.141916
    48 -0.032909 -1.491923 0.008846 -0.672710 0.015268 -0.008136
    49 -0.027022 -1.088639 -0.024116 -0.350292 0.009540 -0.002960
    50 -0.249534 -2.846964 -0.174213 -0.804145 0.010158 -0.000750
    51 0.043235 -1.660503 0.084293 -0.879243 -0.014363 0.000300
    52 0.031729 -1.156924 0.058838 -0.320392 -0.002402 0.006442
    53 -0.963866 -2.785145 -0.085350 -0.528072 0.117933 -0.081310
    54 0.028479 -1.403067 -0.013261 -0.724981 -0.016143 -0.028403
    55 0.021413 -0.949968 0.020046 -0.527497 -0.009839 -0.021620
    56 1.164475 -2.543940 -0.170330 -1.177727 -0.173025 0.226694
    57 0.024032 -1.129042 0.006088 -0.439332 -0.001630 0.023455
    58 0.014898 -0.887895 -0.019848 -0.327651 -0.002445 0.014753
    59 -0.586770 -1.264477 0.200161 0.001023 -0.429425 -2.583825
    60 1.546273 0.039149 0.016848 -0.008525 -0.002652 0.498167
    61 1.114041 0.044518 -0.005766 -0.027328 -0.034582 0.990172
    62 -0.139399 -0.111698 0.014397 0.285382 -0.030687 1.580508
    63 -7.292088 4.561703 -0.419126 1.576394 -0.028261 -0.650429
  time 3
    0 3.692333 -15.035615 -7.661990 -0.235284 -1.449107 -4.566877
    1 3.420055 -3.415972 3.851618 0.000000 0.000000 0.000000
    2 0.000000 0.000000 0.000000 0.000001 0.872666 0.000000
    3 0.000000 0.000000 0.000000 0.000001 2.268926 0.000000
    4 0.000000 -1.238493 0.000000 0.000000 0.000000 0.000000
    5 3.419790 3.416002 3.852050 0.000000 0.000000 0.000000
    6 0.000000 0.000000 0.000000 0.000002 2.268927 0.000001
    7 0.000000 0.000000 0.000000 0.000000 0.872667 -0.000002
    8 0.000000 1.238667 0.000000 0.000000 0.000000 0.000000
    9 0.081354 0.000002 7.236489 -0.000001 1.570796 0.000000
    10 3.215855 0.000000 -0.330850 0.000000 1.570796 0.000000
    11 3.379118 -18.488845 -7.330088 -6.254649 -3.023227 -4.803882
    12 -28.634003 4.043094 -35.116589 -1.570796 0.000000 1.219998
    13 3.901607 0.053360 -83.420735 0.179111 2.294987 0.043208
    14 3.288307 -18.477126 -4.105815 -0.629081 -1.368773 0.527734
    15 2.621750 4.517970 -100.114973 1.073571 -0.131744 -1.647096
    16 25.453830 0.000000 0.000004 0.000000 0.000000 0.000000
    17 2.620155 4.663603 -99.984155 1.073571 -0.131744 -1.647100
    18 25.453829 0.000000 0.000000 0.000000 0.000000 0.000000
    19 2.519605 -27.967197 -2.589862 1.073571 -0.131756 -1.647098
    20 25.453830 -0.000008 0.000004 0.000000 0.000000 0.000000
    21 2.614056 4.884021 -99.737321 1.073571 -0.131744 -1.647099
    22 25.453830 0.000000 0.000000 0.000000 0.000000 0.000000
    23 2.815116 4.612520 -99.470644 0.387604 -3.009764 -4.788649
    24 25.457737 0.000000 0.000004 0.000000 0.000000 0.000000
    25 1.598859 1.596440 -5.503455 -0.051702 0.008245 0.158160
    26 5.349045 -6.420742 -2.877976 6.109248 -2.224674 -0.385177
    27 3.628346 7.989124 -0.200589 1.567216 -3.138804 1.267148
    28 0.029645 -8.498736 -0.065070 0.225542 0.727552 -0.007980
    29 -0.488518 -2.755602 -0.228260 -0.609646 0.088064 -0.295494
    30 0.039887 -1.542292 0.022041 -1.774002 -0.008353 0.039766
    31 0.028786 -1.165578 -0.124675 -1.048806 -0.015113 0.022267
    32 0.250027 -2.820665 -0.238396 -0.478323 -0.005330 -0.173219
    33 -0.049759 -1.594604 0.022352 -1.701637 -0.002936 -0.044537
    34 -0.034142 -1.163937 0.049625 -0.984126 0.007982 -0.025539
    35 0.957766 -2.746780 -0.090302 -0.026941 -0.162013 0.191139
    36 -0.033420 -1.397129 -0.034695 -1.243748 -0.002577 -0.059385
    37 -0.022360 -0.957436 0.003159 -0.627467 0.007934 -0.030345
    38 -1.180681 -2.507217 -0.193859 -0.660927 0.343326 -0.295198
    39 -0.024967 -1.127840 0.017597 -1.442225 -0.007682 -0.059143
    40 -0.020057 -0.906594 0.029622 -0.954316 0.006052 -0.038962
    41 0.579604 -1.205090 0.197098 -0.088019 -0.754887 -0.536329
    42 1.461706 -0.239762 0.075324 0.064581 -0.233567 -0.857539
    43 0.995299 -0.186885 0.047917 0.099876 -0.252374 -1.093972
    44 0.120153 -0.050270 -0.054489 0.287569 3.110905 1.561085
    45 -4.149794 -5.336732 -6.646017 -0.503634 -4.823934 -0.104920
    46 -0.016341 -8.551984 0.049231 0.585191 -0.741650 -0.264234
    47 0.447953 -2.798986 -0.200443 -1.013050 0.000330 0.141916
    48 -0.032909 -1.491923 0.008846 -0.672710 0.015268 -0.008136
    49 -0.027022 -1.088639 -0.024116 -0.350292 0.009540 -0.002960
    50 -0.249534 -2.846964 -0.174213 -0.804145 0.010158 -0.000750
    51 0.043235 -1.660503 0.084293 -0.879243 -0.014363 0.000300
    52 0.031729 -1.156924 0.058838 -0.320392 -0.002402 0.006442
    53 -0.963866 -2.785145 -0.085350 -0.528072 0.117933 -0.081310
    54 0.028479 -1.403067 -0.013261 -0.724981 -0.016143 -0.028403
    55 0.021413 -0.949968 0.020046 -0.527497 -0.009839 -0.021620
    56 1.164475 -2.543940 -0.170330 -1.177727 -0.173025 0.226694
    57 0.024032 -1.129042 0.006088 -0.439332 -0.001630 0.023455
    58 0.014898 -0.887895 -0.019848 -0.327651 -0.002445 0.014753
    59 -0.586770 -1.264477 0.200161 0.001023 -0.429425 -2.583825
    60 1.546273 0.039149 0.016848 -0.008525 -0.002652 0.498167
    61 1.114041 0.044518 -0.005766 -0.027328 -0.034582 0.990172
    62 -0.139399 -0.111698 0.014397 0.285382 -0.030687 1.580508
    63 -7.163177 4.796085 -0.415220 1.576897 -0.027566 -0.682901
  time 4
    0 3.598580 -15.023896 -7.619020 -0.143325 -1.460452 -4.662170
    1 3.420055 -3.415972 3.851618 0.000000 0.000000 0.000000
    2 0.000000 0.000000 0.000000 0.000001 0.872666 0.000000
    3 0.000000 0.000000 0.000000 0.000001 2.268926 0.000000
    4 0.000000 -1.238493 0.000000 0.000000 0.000000 0.000000
    5 3.419790 3.416002 3.852050 0.000000 0.000000 0.000000
    6 0.000000 0.000000 0.000000 0.000002 2.268927 0.000001
    7 0.000000 0.000000 0.000000 0.000000 0.872667 -0.000002
    8 0.000000 1.238667 0.000000 0.000000 0.000000 0.000000
    9 0.081354 0.000002 7.236489 -0.000001 1.570796 0.000000
    10 3.215855 0.000000 -0.330850 0.000000 1.570796 0.000000
    11 3.273646 -18.477126 -7.318368 -6.267296 -3.032330 -4.806390
    12 -28.634003 4.043094 -35.116589 1.570796 -3.141592 -1.014244
    13 2.983611 0.838540 -83.217604 -0.359365 1.255592 -0.437146
    14 3.221899 -18.500565 -4.094095 0.140493 -2.462849 -0.182691
    15 1.527966 5.478937 -99.845433 1.061023 -0.122456 -1.649423
    16 58.154047 0.000000 0.000004 0.000000 0.000000 0.000000
    17 1.526371 5.624570 -99.714616 1.061023 -0.122456 -1.649427
    18 58.154046 0.000000 0.000000 0.000000 0.000000 0.000000
    19 2.433665 -28.002354 -2.664083 1.061023 -0.122456 -1.649425
    20 58.154047 -0.000008 0.000004 0.000000 0.000000 0.000000
    21 1.528085 5.841081 -99.467781 1.061023 -0.122456 -1.649426
    22 58.154047 0.000000 0.000000 0.000000 0.000000 0.000000
    23 1.729146 5.569581 -99.205011 -0.386302 -0.122375 -1.649432
    24 58.154047 0.000000 0.000004 0.000000 0.000000 0.000000
    25 1.598859 1.596440 -5.503455 -0.051702 0.008245 0.158160
    26 5.313888 -6.420742 -2.858444 6.116918 -2.223087 -0.397608
    27 3.640065 7.981311 -0.200589 1.567216 -3.138804 1.265389
    28 0.033551 -8.498736 -0.065070 0.218768 0.741497 -0.021502
    29 -0.488518 -2.755602 -0.228260 -0.609646 0.088064 -0.295494
    30 0.039887 -1.542292 0.022041 -1.774002 -0.008353 0.039766
    31 0.028786 -1.165578 -0.124675 -1.048806 -0.015113 0.022267
    32 0.250027 -2.820665 -0.238396 -0.478323 -0.005330 -0.173219
    33 -0.049759 -1.594604 0.022352 -1.701637 -0.002936 -0.044537
    34 -0.034142 -1.163937 0.049625 -0.984126 0.007982 -0.025539
    35 0.957766 -2.746780 -0.090302 -0.026941 -0.162013 0.191139
    36 -0.033420 -1.397129 -0.034695 -1.243748 -0.002577 -0.059385
    37 -0.022360 -0.957436 0.003159 -0.627467 0.007934 -0.030345
    38 -1.180681 -2.507217 -0.193859 -0.660927 0.343326 -0.295198
    39 -0.024967 -1.127840 0.017597 -1.442225 -0.007682 -0.059143
    40 -0.020057 -0.906594 0.029622 -0.954316 0.006052 -0.038962
    41 0.579604 -1.205090 0.197098 -0.088019 -0.754887 -0.536329
    42 1.461706 -0.239762 0.075324 0.064581 -0.233567 -0.857539
    43 0.995299 -0.186885 0.047917 0.099876 -0.252374 -1.093972
    44 0.120153 -0.050270 -0.054489 0.287569 3.110905 1.561085
    45 -4.200576 -5.262511 -6.688987 -0.627141 -4.830827 -0.234424
    46 -0.012434 -8.548078 0.049231 0.583436 -0.739068 -0.232242
    47 0.447953 -2.798986 -0.200443 -1.013050 0.000330 0.141916
    48 -0.032909 -1.491923 0.008846 -0.672710 0.015268 -0.008136
    49 -0.027022 -1.088639 -0.024116 -0.350292 0.009540 -0.002960
    50 -0.249534 -2.846964 -0.174213 -0.804145 0.010158 -0.000750
    51 0.043235 -1.660503 0.084293 -0.879243 -0.014363 0.000300
    52 0.031729 -1.156924 0.058838 -0.320392 -0.002402 0.006442
    53 -0.963866 -2.785145 -0.085350 -0.528072 0.117933 -0.081310
    54 0.028479 -1.403067 -0.013261 -0.724981 -0.016143 -0.028403
    55 0.021413 -0.949968 0.020046 -0.527497 -0.009839 -0.021620
    56 1.164475 -2.543940 -0.170330 -1.177727 -0.173025 0.226694
    57 0.024032 -1.129042 0.006088 -0.439332 -0.001630 0.023455
    58 0.014898 -0.887895 -0.019848 -0.327651 -0.002445 0.014753
    59 -0.586770 -1.264477 0.200161 0.001023 -0.429425 -2.583825
    60 1.546273 0.039149 0.016848 -0.008525 -0.002652 0.498167
    61 1.114041 0.044518 -0.005766 -0.027328 -0.034582 0.990172
    62 -0.139399 -0.111698 0.014397 0.285382 -0.030687 1.580508
    63 -7.299900 4.546077 -0.419126 1.576358 -0.028309 -0.648375
  time 5
    0 3.750928 -14.957488 -7.642459 -0.193136 -1.457988 -4.608771
    1 3.420055 -3.415972 3.851618 0.000000 0.000000 0.000000
    2 0.000000 0.000000 0.000000 0.000001 0.872666 0.000000
    3 0.000000 0.000000 0.000000 0.000001 2.268926 0.000000
    4 0.000000 -1.238493 0.000000 0.000000 0.000000 0.000000
    5 3.419790 3.416002 3.852050 0.000000 0.000000 0.000000
    6 0.000000 0.000000 0.000000 0.000002 2.268927 0.000001
    7 0.000000 0.000000 0.000000 0.000000 0.872667 -0.000002
    8 0.000000 1.238667 0.000000 0.000000 0.000000 0.000000
    9 0.081354 0.000002 7.236489 -0.000001 1.570796 0.000000
    10 3.215855 0.000000 -0.330850 0.000000 1.570796 0.000000
    11 3.437714 -18.414624 -7.337900 -6.261356 -3.030797 -4.803129
    12 -28.634003 4.043094 -35.116589 1.570796 -3.141592 -0.106775
    13 3.507064 0.752600 -83.276199 -0.114050 0.241996 -0.118307
    14 3.366435 -18.430250 -4.113627 0.119439 2.757576 -0.045927
    15 2.125641 5.350027 -99.923561 1.066931 -0.124038 -1.646259
    16 41.606667 0.000000 0.000004 0.000000 0.000000 0.000000
    17 2.124046 5.495659 -99.792743 1.066931 -0.124038 -1.646263
    18 41.606666 0.000000 0.000000 0.000000 0.000000 0.000000
    19 2.605545 -27.932039 -2.671896 1.066931 -0.124038 -1.646261
    20 41.606667 -0.000008 0.000004 0.000000 0.000000 0.000000
    21 2.121853 5.716077 -99.542002 1.066919 -0.124038 -1.646262
    22 41.606667 0.000000 0.000000 0.000000 0.000000 0.000000
    23 2.322914 5.440670 -99.283138 -0.752310 -3.017511 -4.787794
    24 41.606667 0.000000 0.000004 0.000000 0.000000 0.000000
    25 1.598859 1.596440 -5.503455 -0.051702 0.008245 0.158160
    26 5.489674 -6.377772 -2.979541 6.136476 -2.222397 -0.415962
    27 3.995545 7.785992 -0.208402 1.566737 -3.137845 1.215495
    28 0.029645 -8.498736 -0.065070 0.216511 0.736681 -0.036858
    29 -0.488518 -2.755602 -0.228260 -0.609646 0.088064 -0.295494
    30 0.039887 -1.542292 0.022041 -1.774002 -0.008353 0.039766
    31 0.028786 -1.165578 -0.124675 -1.048806 -0.015113 0.022267
    32 0.250027 -2.820665 -0.238396 -0.478323 -0.005330 -0.173219
    33 -0.049759 -1.594604 0.022352 -1.701637 -0.002936 -0.044537
    34 -0.034142 -1.163937 0.049625 -0.984126 0.007982 -0.025539
    35 0.957766 -2.746780 -0.090302 -0.026941 -0.162013 0.191139
    36 -0.033420 -1.397129 -0.034695 -1.243748 -0.002577 -0.059385
    37 -0.022360 -0.957436 0.003159 -0.627467 0.007934 -0.030345
    38 -1.180681 -2.507217 -0.193859 -0.660927 0.343326 -0.295198
    39 -0.024967 -1.127840 0.017597 -1.442225 -0.007682 -0.059143
    40 -0.020057 -0.906594 0.029622 -0.954316 0.006052 -0.038962
    41 0.579604 -1.205090 0.197098 -0.088019 -0.754887 -0.536329
    42 1.461706 -0.239762 0.075324 0.064581 -0.233567 -0.857539
    43 0.995299 -0.186885 0.047917 0.099876 -0.252374 -1.093972
    44 0.120153 -0.050270 -0.054489 0.287569 3.110905 1.561085
    45 -4.134168 -5.262511 -6.669456 -0.564748 -4.830827 -0.159945
    46 -0.012434 -8.551984 0.049231 0.593382 -0.736564 -0.250701
    47 0.447953 -2.798986 -0.200443 -1.013050 0.000330 0.141916
    48 -0.032909 -1.491923 0.008846 -0.672710 0.015268 -0.008136
    49 -0.027022 -1.088639 -0.024116 -0.350292 0.009540 -0.002960
    50 -0.249534 -2.846964 -0.174213 -0.804145 0.010158 -0.000750
    51 0.043235 -1.660503 0.084293 -0.879243 -0.014363 0.000300
    52 0.031729 -1.156924 0.058838 -0.320392 -0.002402 0.006442
    53 -0.963866 -2.785145 -0.085350 -0.528072 0.117933 -0.081310
    54 0.028479 -1.403067 -0.013261 -0.724981 -0.016143 -0.028403
    55 0.021413 -0.949968 0.020046 -0.527497 -0.009839 -0.021620
    56 1.164475 -2.543940 -0.170330 -1.177727 -0.173025 0.226694
    57 0.024032 -1.129042 0.006088 -0.439332 -0.001630 0.023455
    58 0.014898 -0.887895 -0.019848 -0.327651 -0.002445 0.014753
    59 -0.586770 -1.264477 0.200161 0.001023 -0.429425 -2.583825
    60 1.546273 0.039149 0.016848 -0.008525 -0.002652 0.498167
    61 1.114041 0.044518 -0.005766 -0.027328 -0.034582 0.990172
    62 -0.139399 -0.111698 0.014397 0.285382 -0.030687 1.580508
    63 -7.245211 4.643737 -0.419126 1.576573 -0.028021 -0.661937
  time 6
    0 3.653269 -15.004364 -7.626833 -0.063036 -1.453445 1.541860
    1 3.420055 -3.415972 3.851618 0.000000 0.000000 0.000000
    2 0.000000 0.000000 0.000000 0.000001 0.872666 0.000000
    3 0.000000 0.000000 0.000000 0.000001 2.268926 0.000000
    4 0.000000 -1.238493 0.000000 0.000000 0.000000 0.000000
    5 3.419790 3.416002 3.852050 0.000000 0.000000 0.000000
    6 0.000000 0.000000 0.000000 0.000002 2.268927 0.000001
    7 0.000000 0.000000 0.000000 0.000000 0.872667 -0.000002
    8 0.000000 1.238667 0.000000 0.000000 0.000000 0.000000
    9 0.081354 0.000002 7.236489 -0.000001 1.570796 0.000000
    10 3.215855 0.000000 -0.330850 0.000000 1.570796 0.000000
    11 3.332242 -18.457595 -7.298837 -6.275727 -3.024377 -4.804718
    12 -28.634003 4.043094 -35.116589 1.570796 -3.141592 0.800599
    13 2.339060 0.322900 -83.323076 -0.162020 -0.760478 0.019753
    14 3.307839 -18.457595 -4.074564 0.719658 1.749006 0.619295
    15 0.731067 4.842199 -99.974344 1.052502 -0.130234 -1.647655
    16 50.603035 0.000000 0.000004 0.000000 0.000000 0.000000
    17 0.729472 4.987831 -99.843526 1.052502 -0.130234 -1.647658
    18 50.603034 0.000000 0.000000 0.000000 0.000000 0.000000
    19 2.539137 -27.947665 -2.570330 1.052502 -0.130234 -1.647657
    20 50.603035 -0.000008 0.000004 0.000000 0.000000 0.000000
    21 0.731186 5.208249 -99.596691 1.052490 -0.130234 -1.647657
    22 50.603035 0.000000 0.000000 0.000000 0.000000 0.000000
    23 0.936153 4.936749 -99.337827 -0.878915 -0.130216 -1.647669
    24 50.603035 0.000000 0.000004 0.000000 0.000000 0.000000
    25 1.598859 1.596440 -5.503455 -0.051702 0.008245 0.158160
    26 5.356858 -6.409023 -2.897508 6.116534 -2.223156 -0.396787
    27 3.710380 7.946154 -0.200589 1.567120 -3.138612 1.255762
    28 0.033551 -8.498736 -0.065070 0.227037 0.747527 -0.007846
    29 -0.488518 -2.755602 -0.228260 -0.609646 0.088064 -0.295494
    30 0.039887 -1.542292 0.022041 -1.774002 -0.008353 0.039766
    31 0.028786 -1.165578 -0.124675 -1.048806 -0.015113 0.022267
    32 0.250027 -2.820665 -0.238396 -0.478323 -0.005330 -0.173219
    33 -0.049759 -1.594604 0.022352 -1.701637 -0.002936 -0.044537
    34 -0.034142 -1.163937 0.049625 -0.984126 0.007982 -0.025539
    35 0.957766 -2.746780 -0.090302 -0.026941 -0.162013 0.191139
    36 -0.033420 -1.397129 -0.034695 -1.243748 -0.002577 -0.059385
    37 -0.022360 -0.957436 0.003159 -0.627467 0.007934 -0.030345
    38 -1.180681 -2.507217 -0.193859 -0.660927 0.343326 -0.295198
    39 -0.024967 -1.127840 0.017597 -1.442225 -0.007682 -0.059143
    40 -0.020057 -0.906594 0.029622 -0.954316 0.006052 -0.038962
    41 0.579604 -1.205090 0.197098 -0.088019 -0.754887 -0.536329
    42 1.461706 -0.239762 0.075324 0.064581 -0.233567 -0.857539
    43 0.995299 -0.186885 0.047917 0.099876 -0.252374 -1.093972
    44 0.120153 -0.050270 -0.054489 0.287569 3.110905 1.561085
    45 -4.192764 -5.270324 -6.681175 -0.605822 -4.829356 -0.211823
    46 -0.012434 -8.548078 0.049231 0.578560 -0.728035 -0.233151
    47 0.447953 -2.798986 -0.200443 -1.013050 0.000330 0.141916
    48 -0.032909 -1.491923 0.008846 -0.672710 0.015268 -0.008136
    49 -0.027022 -1.088639 -0.024116 -0.350292 0.009540 -0.002960
    50 -0.249534 -2.846964 -0.174213 -0.804145 0.010158 -0.000750
    51 0.043235 -1.660503 0.084293 -0.879243 -0.014363 0.000300
    52 0.031729 -1.156924 0.058838 -0.320392 -0.002402 0.006442
    53 -0.963866 -2.785145 -0.085350 -0.528072 0.117933 -0.081310
    54 0.028479 -1.403067 -0.013261 -0.724981 -0.016143 -0.028403
    55 0.021413 -0.949968 0.020046 -0.527497 -0.009839 -0.021620
    56 1.164475 -2.543940 -0.170330 -1.177727 -0.173025 0.226694
    57 0.024032 -1.129042 0.006088 -0.439332 -0.001630 0.023455
    58 0.014898 -0.887895 -0.019848 -0.327651 -0.002445 0.014753
    59 -0.586770 -1.264477 0.200161 0.001023 -0.429425 -2.583825
    60 1.546273 0.039149 0.016848 -0.008525 -0.002652 0.498167
    61 1.114041 0.044518 -0.005766 -0.027328 -0.034582 0.990172
    62 -0.139399 -0.111698 0.014397 0.285382 -0.030687 1.580508
    63 -7.276462 4.585141 -0.419126 1.576442 -0.028189 -0.653833
  time 7
    0 3.649363 -15.019990 -7.646365 -0.148637 -1.460709 -4.667443
    1 3.420055 -3.415972 3.851618 0.000000 0.000000 0.000000
    2 0.000000 0.000000 0.000000 0.000001 0.872666 0.000000
    3 0.000000 0.000000 0.000000 0.000001 2.268926 0.000000
    4 0.000000 -1.238493 0.000000 0.000000 0.000000 0.000000
    5 3.419790 3.416002 3.852050 0.000000 0.000000 0.000000
    6 0.000000 0.000000 0.000000 0.000002 2.268927 0.000001
    7 0.000000 0.000000 0.000000 0.000000 0.872667 -0.000002
    8 0.000000 1.238667 0.000000 0.000000 0.000000 0.000000
    9 0.081354 0.000002 7.236489 -0.000001 1.570796 0.000000
    10 3.215855 0.000000 -0.330850 0.000000 1.570796 0.000000
    11 3.289272 -18.469314 -7.345713 -6.266721 -3.032617 -4.817011
    12 -28.634003 4.043094 -35.116589 -1.570796 0.000000 -1.433547
    13 3.241431 0.869791 -83.237136 0.446493 -1.825203 -0.538583
    14 3.233618 -18.496658 -4.121440 -0.134703 0.628084 -0.184204
    15 1.844382 5.529720 -99.868872 1.061574 -0.122132 -1.660032
    16 36.958088 0.000000 0.000004 0.000000 0.000000 0.000000
    17 1.846694 5.675352 -99.738054 1.061574 -0.122132 -1.660036
    18 36.958087 0.000000 0.000000 0.000000 0.000000 0.000000
    19 2.343819 -27.986728 -2.695334 1.061574 -0.122132 -1.660034
    20 36.958088 -0.000008 0.000004 0.000000 0.000000 0.000000
    21 1.848408 5.891864 -99.487313 1.061562 -0.122132 -1.660035
    22 36.958088 0.000000 0.000000 0.000000 0.000000 0.000000
    23 2.045561 5.616457 -99.228449 -0.852229 -3.019400 -4.801581
    24 36.958088 0.000000 0.000004 0.000000 0.000000 0.000000
    25 1.598859 1.596440 -5.503455 -0.051702 0.008245 0.158160
    26 5.352951 -6.424648 -2.870163 6.114905 -2.224329 -0.391041
    27 3.655691 7.973498 -0.200589 1.567216 -3.138804 1.263353
    28 0.033551 -8.498736 -0.065070 0.202836 0.740857 -0.021994
    29 -0.488518 -2.755602 -0.228260 -0.609646 0.088064 -0.295494
    30 0.039887 -1.542292 0.022041 -1.774002 -0.008353 0.039766
    31 0.028786 -1.165578 -0.124675 -1.048806 -0.015113 0.022267
    32 0.250027 -2.820665 -0.238396 -0.478323 -0.005330 -0.173219
    33 -0.049759 -1.594604 0.022352 -1.701637 -0.002936 -0.044537
    34 -0.034142 -1.163937 0.049625 -0.984126 0.007982 -0.025539
    35 0.957766 -2.746780 -0.090302 -0.026941 -0.162013 0.191139
    36 -0.033420 -1.397129 -0.034695 -1.243748 -0.002577 -0.059385
    37 -0.022360 -0.957436 0.003159 -0.627467 0.007934 -0.030345
    38 -1.180681 -2.507217 -0.193859 -0.660927 0.343326 -0.295198
    39 -0.024967 -1.127840 0.017597 -1.442225 -0.007682 -0.059143
    40 -0.020057 -0.906594 0.029622 -0.954316 0.006052 -0.038962
    41 0.579604 -1.205090 0.197098 -0.088019 -0.754887 -0.536329
    42 1.461706 -0.239762 0.075324 0.064581 -0.233567 -0.857539
    43 0.995299 -0.186885 0.047917 0.099876 -0.252374 -1.093972
    44 0.120153 -0.050270 -0.054489 0.287569 3.110905 1.561085
    45 -4.165419 -5.274230 -6.673362 -0.586019 -4.829743 -0.187315
    46 -0.012434 -8.551984 0.049231 0.603718 -0.732495 -0.251801
    47 0.447953 -2.798986 -0.200443 -1.013050 0.000330 0.141916
    48 -0.032909 -1.491923 0.008846 -0.672710 0.015268 -0.008136
    49 -0.027022 -1.088639 -0.024116 -0.350292 0.009540 -0.002960
    50 -0.249534 -2.846964 -0.174213 -0.804145 0.010158 -0.000750
    51 0.043235 -1.660503 0.084293 -0.879243 -0.014363 0.000300
    52 0.031729 -1.156924 0.058838 -0.320392 -0.002402 0.006442
    53 -0.963866 -2.785145 -0.085350 -0.528072 0.117933 -0.081310
    54 0.028479 -1.403067 -0.013261 -0.724981 -0.016143 -0.028403
    55 0.021413 -0.949968 0.020046 -0.527497 -0.009839 -0.021620
    56 1.164475 -2.543940 -0.170330 -1.177727 -0.173025 0.226694
    57 0.024032 -1.129042 0.006088 -0.439332 -0.001630 0.023455
    58 0.014898 -0.887895 -0.019848 -0.327651 -0.002445 0.014753
    59 -0.586770 -1.264477 0.200161 0.001023 -0.429425 -2.583825
    60 1.546273 0.039149 0.016848 -0.008525 -0.002652 0.498167
    61 1.114041 0.044518 -0.005766 -0.027328 -0.034582 0.990172
    62 -0.139399 -0.111698 0.014397 0.285382 -0.030687 1.580508
    63 -7.256930 4.624205 -0.419126 1.576525 -0.028081 -0.659020
  time 8
    0 3.668894 -15.043428 -7.650271 -0.210378 -1.456910 -4.591515
    1 3.420055 -3.415972 3.851618 0.000000 0.000000 0.000000
    2 0.000000 0.000000 0.000000 0.000001 0.872666 0.000000
    3 0.000000 0.000000 0.000000 0.000001 2.268926 0.000000
    4 0.000000 -1.238493 0.000000 0.000000 0.000000 0.000000
    5 3.419790 3.416002 3.852050 0.000000 0.000000 0.000000
    6 0.000000 0.000000 0.000000 0.000002 2.268927 0.000001
    7 0.000000 0.000000 0.000000 0.000000 0.872667 -0.000002
    8 0.000000 1.238667 0.000000 0.000000 0.000000 0.000000
    9 0.081354 0.000002 7.236489 -0.000001 1.570796 0.000000
    10 3.215855 0.000000 -0.330850 0.000000 1.570796 0.000000
    11 3.355680 -18.496658 -7.341807 -6.259248 -3.030126 -4.803296
    12 -28.634003 4.043094 -35.116589 -1.570796 0.000000 -0.526173
    13 3.577379 0.600252 -83.291825 0.116824 -2.835715 -0.126307
    14 3.276588 -18.512284 -4.113627 -0.122948 -0.436115 -0.038898
    15 2.235019 5.185959 -99.946999 1.069064 -0.124745 -1.646445
    16 46.993550 0.000000 0.000004 0.000000 0.000000 0.000000
    17 2.233424 5.331592 -99.816181 1.069064 -0.124745 -1.646449
    18 46.993549 0.000000 0.000000 0.000000 0.000000 0.000000
    19 2.515699 -28.014073 -2.667989 1.069064 -0.124745 -1.646447
    20 46.993550 -0.000008 0.000004 0.000000 0.000000 0.000000
    21 2.227325 5.548104 -99.569347 1.069052 -0.124745 -1.646448
    22 46.993550 0.000000 0.000000 0.000000 0.000000 0.000000
    23 2.428386 5.276603 -99.306576 -0.827094 -0.124737 -1.646440
    24 46.993550 0.000000 0.000004 0.000000 0.000000 0.000000
    25 1.598859 1.596440 -5.503455 -0.051702 0.008245 0.158160
    26 5.333420 -6.424648 -2.862350 6.112412 -2.224329 -0.389047
    27 3.620533 7.993030 -0.200589 1.567216 -3.138900 1.268351
    28 0.029645 -8.498736 -0.065070 0.220549 0.733817 -0.017785
    29 -0.488518 -2.755602 -0.228260 -0.609646 0.088064 -0.295494
    30 0.039887 -1.542292 0.022041 -1.774002 -0.008353 0.039766
    31 0.028786 -1.165578 -0.124675 -1.048806 -0.015113 0.022267
    32 0.250027 -2.820665 -0.238396 -0.478323 -0.005330 -0.173219
    33 -0.049759 -1.594604 0.022352 -1.701637 -0.002936 -0.044537
    34 -0.034142 -1.163937 0.049625 -0.984126 0.007982 -0.025539
    35 0.957766 -2.746780 -0.090302 -0.026941 -0.162013 0.191139
    36 -0.033420 -1.397129 -0.034695 -1.243748 -0.002577 -0.059385
    37 -0.022360 -0.957436 0.003159 -0.627467 0.007934 -0.030345
    38 -1.180681 -2.507217 -0.193859 -0.660927 0.343326 -0.295198
    39 -0.024967 -1.127840 0.017597 -1.442225 -0.007682 -0.059143
    40 -0.020057 -0.906594 0.029622 -0.954316 0.006052 -0.038962
    41 0.579604 -1.205090 0.197098 -0.088019 -0.754887 -0.536329
    42 1.461706 -0.239762 0.075324 0.064581 -0.233567 -0.857539
    43 0.995299 -0.186885 0.047917 0.099876 -0.252374 -1.093972
    44 0.120153 -0.050270 -0.054489 0.287569 3.110905 1.561085
    45 -4.165419 -5.313294 -6.657736 -0.555936 -4.826567 -0.158896
    46 -0.016341 -8.548078 0.049231 0.584671 -0.743136 -0.249027
    47 0.447953 -2.798986 -0.200443 -1.013050 0.000330 0.141916
    48 -0.032909 -1.491923 0.008846 -0.672710 0.015268 -0.008136
    49 -0.027022 -1.088639 -0.024116 -0.350292 0.009540 -0.002960
    50 -0.249534 -2.846964 -0.174213 -0.804145 0.010158 -0.000750
    51 0.043235 -1.660503 0.084293 -0.879243 -0.014363 0.000300
    52 0.031729 -1.156924 0.058838 -0.320392 -0.002402 0.006442
    53 -0.963866 -2.785145 -0.085350 -0.528072 0.117933 -0.081310
    54 0.028479 -1.403067 -0.013261 -0.724981 -0.016143 -0.028403
    55 0.021413 -0.949968 0.020046 -0.527497 -0.009839 -0.021620
    56 1.164475 -2.543940 -0.170330 -1.177727 -0.173025 0.226694
    57 0.024032 -1.129042 0.006088 -0.439332 -0.001630 0.023455
    58 0.014898 -0.887895 -0.019848 -0.327651 -0.002445 0.014753
    59 -0.586770 -1.264477 0.200161 0.001023 -0.429425 -2.583825
    60 1.546273 0.039149 0.016848 -0.008525 -0.002652 0.498167
    61 1.114041 0.044518 -0.005766 -0.027328 -0.034582 0.990172
    62 -0.139399 -0.111698 0.014397 0.285382 -0.030687 1.580508
    63 -7.210054 4.710145 -0.419126 1.576717 -0.027830 -0.670690
  time 9
    0 3.629831 -15.019990 -7.576050 -0.178593 -1.457475 -4.629766
    1 3.420055 -3.415972 3.851618 0.000000 0.000000 0.000000
    2 0.000000 0.000000 0.000000 0.000001 0.872666 0.000000
    3 0.000000 0.000000 0.000000 0.000001 2.268926 0.000000
    4 0.000000 -1.238493 0.000000 0.000000 0.000000 0.000000
    5 3.419790 3.416002 3.852050 0.000000 0.000000 0.000000
    6 0.000000 0.000000 0.000000 0.000002 2.268927 0.000001
    7 0.000000 0.000000 0.000000 0.000000 0.872667 -0.000002
    8 0.000000 1.238667 0.000000 0.000000 0.000000 0.000000
    9 0.081354 0.000002 7.236489 -0.000001 1.570796 0.000000
    10 3.215855 0.000000 -0.330850 0.000000 1.570796 0.000000
    11 3.293178 -18.473220 -7.263679 -6.262889 -3.030030 -4.809485
    12 -28.634003 4.043094 -35.116589 -1.570796 0.000000 0.381201
    13 3.366435 0.639316 -83.213697 0.147050 2.433324 -0.001144
    14 3.225805 -18.488845 -4.039406 -1.003758 -1.438457 0.902611
    15 1.988918 5.236742 -99.864965 1.065385 -0.124829 -1.652587
    16 44.946613 0.000000 0.000004 0.000000 0.000000 0.000000
    17 1.987323 5.386281 -99.730241 1.065385 -0.124829 -1.652591
    18 44.946612 0.000000 0.000000 0.000000 0.000000 0.000000
    19 2.406321 -27.982822 -2.589862 1.065385 -0.124829 -1.652589
    20 44.946613 -0.000008 0.000004 0.000000 0.000000 0.000000
    21 1.989037 5.602793 -99.483407 1.065373 -0.124829 -1.652590
    22 44.946613 0.000000 0.000000 0.000000 0.000000 0.000000
    23 2.186191 5.327386 -99.224543 -0.942994 -3.016755 -4.794153
    24 44.946613 0.000000 0.000004 0.000000 0.000000 0.000000
    25 1.598859 1.596440 -5.503455 -0.051702 0.008245 0.158160
    26 5.345139 -6.424648 -2.858444 6.125642 -2.223225 -0.403765
    27 3.698661 7.950060 -0.200589 1.567120 -3.138612 1.257058
    28 0.029645 -8.498736 -0.065070 0.212059 0.737253 -0.027456
    29 -0.488518 -2.755602 -0.228260 -0.609646 0.088064 -0.295494
    30 0.039887 -1.542292 0.022041 -1.774002 -0.008353 0.039766
    31 0.028786 -1.165578 -0.124675 -1.048806 -0.015113 0.022267
    32 0.250027 -2.820665 -0.238396 -0.478323 -0.005330 -0.173219
    33 -0.049759 -1.594604 0.022352 -1.701637 -0.002936 -0.044537
    34 -0.034142 -1.163937 0.049625 -0.984126 0.007982 -0.025539
    35 0.957766 -2.746780 -0.090302 -0.026941 -0.162013 0.191139
    36 -0.033420 -1.397129 -0.034695 -1.243748 -0.002577 -0.059385
    37 -0.022360 -0.957436 0.003159 -0.627467 0.007934 -0.030345
    38 -1.180681 -2.507217 -0.193859 -0.660927 0.343326 -0.295198
    39 -0.024967 -1.127840 0.017597 -1.442225 -0.007682 -0.059143
    40 -0.020057 -0.906594 0.029622 -0.954316 0.006052 -0.038962
    41 0.579604 -1.205090 0.197098 -0.088019 -0.754887 -0.536329
    42 1.461706 -0.239762 0.075324 0.064581 -0.233567 -0.857539
    43 0.995299 -0.186885 0.047917 0.099876 -0.252374 -1.093972
    44 0.120153 -0.050270 -0.054489 0.287569 3.110905 1.561085
    45 -4.177138 -5.282043 -6.665549 -0.632826 -4.832531 -0.236904
    46 -0.012434 -8.551984 0.049231 0.591107 -0.738285 -0.240802
    47 0.447953 -2.798986 -0.200443 -1.013050 0.000330 0.141916
    48 -0.032909 -1.491923 0.008846 -0.672710 0.015268 -0.008136
    49 -0.027022 -1.088639 -0.024116 -0.350292 0.009540 -0.002960
    50 -0.249534 -2.846964 -0.174213 -0.804145 0.010158 -0.000750
    51 0.043235 -1.660503 0.084293 -0.879243 -0.014363 0.000300
    52 0.031729 -1.156924 0.058838 -0.320392 -0.002402 0.006442
    53 -0.963866 -2.785145 -0.085350 -0.528072 0.117933 -0.081310
    54 0.028479 -1.403067 -0.013261 -0.724981 -0.016143 -0.028403
    55 0.021413 -0.949968 0.020046 -0.527497 -0.009839 -0.021620
    56 1.164475 -2.543940 -0.170330 -1.177727 -0.173025 0.226694
    57 0.024032 -1.129042 0.006088 -0.439332 -0.001630 0.023455
    58 0.014898 -0.887895 -0.019848 -0.327651 -0.002445 0.014753
    59 -0.586770 -1.264477 0.200161 0.001023 -0.429425 -2.583825
    60 1.546273 0.039149 0.016848 -0.008525 -0.002652 0.498167
    61 1.114041 0.044518 -0.005766 -0.027328 -0.034582 0.990172
    62 -0.139399 -0.111698 0.014397 0.285382 -0.030687 1.580508
    63 -7.280368 4.581235 -0.419126 1.576442 -0.028201 -0.653400
  time 10
    0 3.641550 -15.086398 -7.716680 -0.191220 -1.466125 -4.623343
    1 3.420055 -3.415972 3.851618 0.000000 0.000000 0.000000
    2 0.000000 0.000000 0.000000 0.000001 0.872666 0.000000
    3 0.000000 0.000000 0.000000 0.000001 2.268926 0.000000
    4 0.000000 -1.238493 0.000000 0.000000 0.000000 0.000000
    5 3.419790 3.416002 3.852050 0.000000 0.000000 0.000000
    6 0.000000 0.000000 0.000000 0.000002 2.268927 0.000001
    7 0.000000 0.000000 0.000000 0.000000 0.872667 -0.000002
    8 0.000000 1.238667 0.000000 0.000000 0.000000 0.000000
    9 0.081354 0.000002 7.236489 -0.000001 1.570796 0.000000
    10 3.215855 0.000000 -0.330850 0.000000 1.570796 0.000000
    11 3.285365 -18.539628 -7.439466 -6.263176 -3.038750 -4.815673
    12 -28.634003 4.043094 -35.116589 -1.570796 0.000000 1.288574
    13 3.526596 1.236990 -83.217604 -0.553569 1.374394 -0.648291
    14 3.217993 -18.582598 -4.215193 0.122509 -2.566617 -0.170234
    15 2.192049 5.986765 -99.825902 1.065265 -0.116080 -1.658775
    16 38.255002 0.000000 0.000004 0.000000 0.000000 0.000000
    17 2.190454 6.132398 -99.695084 1.065265 -0.116080 -1.658779
    18 38.255001 0.000000 0.000000 0.000000 0.000000 0.000000
    19 2.339912 -28.084388 -2.847682 1.065277 -0.116080 -1.658777
    20 38.255002 -0.000008 0.000004 0.000000 0.000000 0.000000
    21 2.192168 6.348909 -99.444343 1.065265 -0.116080 -1.658778
    22 38.255002 0.000000 0.000000 0.000000 0.000000 0.000000
    23 2.389322 6.069596 -99.185479 -1.314897 -0.116140 -1.658784
    24 38.255002 0.000000 0.000004 0.000000 0.000000 0.000000
    25 1.598859 1.596440 -5.503455 -0.051702 0.008245 0.158160
    26 5.267011 -6.451993 -2.803755 6.092183 -2.226812 -0.364184
    27 3.374432 8.110221 -0.192777 1.567599 3.143595 1.301583
    28 0.029645 -8.498736 -0.065070 0.201087 0.738567 -0.013174
    29 -0.488518 -2.755602 -0.228260 -0.609646 0.088064 -0.295494
    30 0.039887 -1.542292 0.022041 -1.774002 -0.008353 0.039766
    31 0.028786 -1.165578 -0.124675 -1.048806 -0.015113 0.022267
    32 0.250027 -2.820665 -0.238396 -0.478323 -0.005330 -0.173219
    33 -0.049759 -1.594604 0.022352 -1.701637 -0.002936 -0.044537
    34 -0.034142 -1.163937 0.049625 -0.984126 0.007982 -0.025539
    35 0.957766 -2.746780 -0.090302 -0.026941 -0.162013 0.191139
    36 -0.033420 -1.397129 -0.034695 -1.243748 -0.002577 -0.059385
    37 -0.022360 -0.957436 0.003159 -0.627467 0.007934 -0.030345
    38 -1.180681 -2.507217 -0.193859 -0.660927 0.343326 -0.295198
    39 -0.024967 -1.127840 0.017597 -1.442225 -0.007682 -0.059143
    40 -0.020057 -0.906594 0.029622 -0.954316 0.006052 -0.038962
    41 0.579604 -1.205090 0.197098 -0.088019 -0.754887 -0.536329
    42 1.461706 -0.239762 0.075324 0.064581 -0.233567 -0.857539
    43 0.995299 -0.186885 0.047917 0.099876 -0.252374 -1.093972
    44 0.120153 -0.050270 -0.054489 0.287569 3.110905 1.561085
    45 -4.165419 -5.313294 -6.661643 -0.527227 -4.824399 -0.129906
    46 -0.016341 -8.551984 0.049231 0.603003 -0.740711 -0.257013
    47 0.447953 -2.798986 -0.200443 -1.013050 0.000330 0.141916
    48 -0.032909 -1.491923 0.008846 -0.672710 0.015268 -0.008136
    49 -0.027022 -1.088639 -0.024116 -0.350292 0.009540 -0.002960
    50 -0.249534 -2.846964 -0.174213 -0.804145 0.010158 -0.000750
    51 0.043235 -1.660503 0.084293 -0.879243 -0.014363 0.000300
    52 0.031729 -1.156924 0.058838 -0.320392 -0.002402 0.006442
    53 -0.963866 -2.785145 -0.085350 -0.528072 0.117933 -0.081310
    54 0.028479 -1.403067 -0.013261 -0.724981 -0.016143 -0.028403
    55 0.021413 -0.949968 0.020046 -0.527497 -0.009839 -0.021620
    56 1.164475 -2.543940 -0.170330 -1.177727 -0.173025 0.226694
    57 0.024032 -1.129042 0.006088 -0.439332 -0.001630 0.023455
    58 0.014898 -0.887895 -0.019848 -0.327651 -0.002445 0.014753
    59 -0.586770 -1.264477 0.200161 0.001023 -0.429425 -2.583825
    60 1.546273 0.039149 0.016848 -0.008525 -0.002652 0.498167
    61 1.114041 0.044518 -0.005766 -0.027328 -0.034582 0.990172
    62 -0.139399 -0.111698 0.014397 0.285382 -0.030687 1.580508
    63 -7.198335 4.733583 -0.415220 1.576765 -0.027746 -0.674364
  time 11
    0 3.555610 -14.941862 -7.630739 -0.202454 -1.464764 -4.612798
    1 3.420055 -3.415972 3.851618 0.000000 0.000000 0.000000
    2 0.000000 0.000000 0.000000 0.000001 0.872666 0.000000
    3 0.000000 0.000000 0.000000 0.000001 2.268926 0.000000
    4 0.000000 -1.238493 0.000000 0.000000 0.000000 0.000000
    5 3.419790 3.416002 3.852050 0.000000 0.000000 0.000000
    6 0.000000 0.000000 0.000000 0.000002 2.268927 0.000001
    7 0.000000 0.000000 0.000000 0.000000 0.872667 -0.000002
    8 0.000000 1.238667 0.000000 0.000000 0.000000 0.000000
    9 0.081354 0.000002 7.236489 -0.000001 1.570796 0.000000
    10 3.215855 0.000000 -0.330850 0.000000 1.570796 0.000000
    11 3.195519 -18.395093 -7.345713 -6.261739 -3.037696 -4.816426
    12 -28.634003 4.043094 -35.116589 1.570796 -3.141592 -0.945572
    13 3.546128 1.287773 -83.151196 -0.111603 0.374444 -0.145081
    14 3.124240 -18.434156 -4.121440 0.117377 2.657342 -0.049309
    15 2.235019 6.018016 -99.767306 1.066691 -0.117195 -1.659566
    16 36.239316 0.000000 0.000004 0.000000 0.000000 0.000000
    17 2.237331 6.163648 -99.636488 1.066691 -0.117195 -1.659570
    18 36.239315 0.000000 0.000000 0.000000 0.000000 0.000000
    19 2.234440 -27.932039 -2.746117 1.066691 -0.117195 -1.659568
    20 36.239316 -0.000008 0.000004 0.000000 0.000000 0.000000
    21 2.235138 6.380160 -99.385747 1.066679 -0.117195 -1.659569
    22 36.239316 0.000000 0.000000 0.000000 0.000000 0.000000
    23 2.432292 6.100847 -99.126884 1.066635 -0.117274 -1.659532
    24 36.239316 0.000000 0.000004 0.000000 0.000000 0.000000
    25 1.598859 1.596440 -5.503455 -0.051702 0.008245 0.158160
    26 5.388109 -6.385585 -2.932665 6.134463 -2.220673 -0.421416
    27 3.897886 7.844588 -0.208402 1.566833 -3.138133 1.229658
    28 0.029645 -8.498736 -0.065070 0.205508 0.736815 -0.044649
    29 -0.488518 -2.755602 -0.228260 -0.609646 0.088064 -0.295494
    30 0.039887 -1.542292 0.022041 -1.774002 -0.008353 0.039766
    31 0.028786 -1.165578 -0.124675 -1.048806 -0.015113 0.022267
    32 0.250027 -2.820665 -0.238396 -0.478323 -0.005330 -0.173219
    33 -0.049759 -1.594604 0.022352 -1.701637 -0.002936 -0.044537
    34 -0.034142 -1.163937 0.049625 -0.984126 0.007982 -0.025539
    35 0.957766 -2.746780 -0.090302 -0.026941 -0.162013 0.191139
    36 -0.033420 -1.397129 -0.034695 -1.243748 -0.002577 -0.059385
    37 -0.022360 -0.957436 0.003159 -0.627467 0.007934 -0.030345
    38 -1.180681 -2.507217 -0.193859 -0.660927 0.343326 -0.295198
    39 -0.024967 -1.127840 0.017597 -1.442225 -0.007682 -0.059143
    40 -0.020057 -0.906594 0.029622 -0.954316 0.006052 -0.038962
    41 0.579604 -1.205090 0.197098 -0.088019 -0.754887 -0.536329
    42 1.461706 -0.239762 0.075324 0.064581 -0.233567 -0.857539
    43 0.995299 -0.186885 0.047917 0.099876 -0.252374 -1.093972
    44 0.120153 -0.050270 -0.054489 0.287569 3.110905 1.561085
    45 -4.208389 -5.176571 -6.728051 -0.656561 -4.834932 -0.259696
    46 -0.012434 -8.551984 0.049231 0.604303 -0.740554 -0.241232
    47 0.447953 -2.798986 -0.200443 -1.013050 0.000330 0.141916
    48 -0.032909 -1.491923 0.008846 -0.672710 0.015268 -0.008136
    49 -0.027022 -1.088639 -0.024116 -0.350292 0.009540 -0.002960
    50 -0.249534 -2.846964 -0.174213 -0.804145 0.010158 -0.000750
    51 0.043235 -1.660503 0.084293 -0.879243 -0.014363 0.000300
    52 0.031729 -1.156924 0.058838 -0.320392 -0.002402 0.006442
    53 -0.963866 -2.785145 -0.085350 -0.528072 0.117933 -0.081310
    54 0.028479 -1.403067 -0.013261 -0.724981 -0.016143 -0.028403
    55 0.021413 -0.949968 0.020046 -0.527497 -0.009839 -0.021620
    56 1.164475 -2.543940 -0.170330 -1.177727 -0.173025 0.226694
    57 0.024032 -1.129042 0.006088 -0.439332 -0.001630 0.023455
    58 0.014898 -0.887895 -0.019848 -0.327651 -0.002445 0.014753
    59 -0.586770 -1.264477 0.200161 0.001023 -0.429425 -2.583825
    60 1.546273 0.039149 0.016848 -0.008525 -0.002652 0.498167
    61 1.114041 0.044518 -0.005766 -0.027328 -0.034582 0.990172
    62 -0.139399 -0.111698 0.014397 0.285382 -0.030687 1.580508
    63 -7.381934 4.385916 -0.423032 1.575998 -0.028764 -0.626547
  time 12
    0 3.684520 -14.977020 -7.607301 -0.186605 -1.442075 -4.615482
    1 3.420055 -3.415972 3.851618 0.000000 0.000000 0.000000
    2 0.000000 0.000000 0.000000 0.000001 0.872666 0.000000
    3 0.000000 0.000000 0.000000 0.000001 2.268926 0.000000
    4 0.000000 -1.238493 0.000000 0.000000 0.000000 0.000000
    5 3.419790 3.416002 3.852050 0.000000 0.000000 0.000000
    6 0.000000 0.000000 0.000000 0.000002 2.268927 0.000001
    7 0.000000 0.000000 0.000000 0.000000 0.872667 -0.000002
    8 0.000000 1.238667 0.000000 0.000000 0.000000 0.000000
    9 0.081354 0.000002 7.236489 -0.000001 1.570796 0.000000
    10 3.215855 0.000000 -0.330850 0.000000 1.570796 0.000000
    11 3.367399 -18.426344 -7.244147 -6.259152 -3.015083 -4.803714
    12 -28.634003 4.043094 -35.116589 1.570796 -3.141592 -0.038198
    13 3.503158 -0.474000 -83.475424 -0.158512 -0.644948 0.004462
    14 3.296120 -18.391186 -4.019874 1.437211 1.698342 1.344847
    15 2.137360 3.861700 -100.197007 1.068944 -0.139834 -1.646770
    16 39.649576 0.000000 0.000004 0.000000 0.000000 0.000000
    17 2.135765 4.011239 -100.066189 1.068944 -0.139834 -1.646774
    18 39.649575 0.000000 0.000000 0.000000 0.000000 0.000000
    19 2.531324 -27.869537 -2.425794 1.068944 -0.139834 -1.646772
    20 39.649576 -0.000008 0.000004 0.000000 0.000000 0.000000
    21 2.133572 4.231657 -99.823261 1.068944 -0.139834 -1.646773
    22 39.649576 0.000000 0.000000 0.000000 0.000000 0.000000
    23 2.334633 3.964063 -99.556584 -0.211677 -3.001734 -4.788329
    24 39.649576 0.000000 0.000004 0.000000 0.000000 0.000000
    25 1.598859 1.596440 -5.503455 -0.051702 0.008245 0.158160
    26 5.407641 -6.397304 -2.928759 6.125451 -2.222673 -0.405994
    27 3.835384 7.879745 -0.204496 1.566929 -3.138229 1.238544
    28 0.029645 -8.498736 -0.065070 0.233047 0.729775 -0.008383
    29 -0.488518 -2.755602 -0.228260 -0.609646 0.088064 -0.295494
    30 0.039887 -1.542292 0.022041 -1.774002 -0.008353 0.039766
    31 0.028786 -1.165578 -0.124675 -1.048806 -0.015113 0.022267
    32 0.250027 -2.820665 -0.238396 -0.478323 -0.005330 -0.173219
    33 -0.049759 -1.594604 0.022352 -1.701637 -0.002936 -0.044537
    34 -0.034142 -1.163937 0.049625 -0.984126 0.007982 -0.025539
    35 0.957766 -2.746780 -0.090302 -0.026941 -0.162013 0.191139
    36 -0.033420 -1.397129 -0.034695 -1.243748 -0.002577 -0.059385
    37 -0.022360 -0.957436 0.003159 -0.627467 0.007934 -0.030345
    38 -1.180681 -2.507217 -0.193859 -0.660927 0.343326 -0.295198
    39 -0.024967 -1.127840 0.017597 -1.442225 -0.007682 -0.059143
    40 -0.020057 -0.906594 0.029622 -0.954316 0.006052 -0.038962
    41 0.579604 -1.205090 0.197098 -0.088019 -0.754887 -0.536329
    42 1.461706 -0.239762 0.075324 0.064581 -0.233567 -0.857539
    43 0.995299 -0.186885 0.047917 0.099876 -0.252374 -1.093972
    44 0.120153 -0.050270 -0.054489 0.287569 3.110905 1.561085
    45 -4.161513 -5.301574 -6.661643 -0.558257 -4.826955 -0.159850
    46 -0.012434 -8.551984 0.049231 0.581421 -0.734216 -0.258544
    47 0.447953 -2.798986 -0.200443 -1.013050 0.000330 0.141916
    48 -0.032909 -1.491923 0.008846 -0.672710 0.015268 -0.008136
    49 -0.027022 -1.088639 -0.024116 -0.350292 0.009540 -0.002960
    50 -0.249534 -2.846964 -0.174213 -0.804145 0.010158 -0.000750
    51 0.043235 -1.660503 0.084293 -0.879243 -0.014363 0.000300
    52 0.031729 -1.156924 0.058838 -0.320392 -0.002402 0.006442
    53 -0.963866 -2.785145 -0.085350 -0.528072 0.117933 -0.081310
    54 0.028479 -1.403067 -0.013261 -0.724981 -0.016143 -0.028403
    55 0.021413 -0.949968 0.020046 -0.527497 -0.009839 -0.021620
    56 1.164475 -2.543940 -0.170330 -1.177727 -0.173025 0.226694
    57 0.024032 -1.129042 0.006088 -0.439332 -0.001630 0.023455
    58 0.014898 -0.887895 -0.019848 -0.327651 -0.002445 0.014753
    59 -0.586770 -1.264477 0.200161 0.001023 -0.429425 -2.583825
    60 1.546273 0.039149 0.016848 -0.008525 -0.002652 0.498167
    61 1.114041 0.044518 -0.005766 -0.027328 -0.034582 0.990172
    62 -0.139399 -0.111698 0.014397 0.285382 -0.030687 1.580508
    63 -7.221773 4.694519 -0.419126 1.576681 -0.027866 -0.668637
  time 13
    0 3.696239 -14.973113 -7.583863 -0.163964 -1.447619 -4.647406
    1 3.420055 -3.415972 3.851618 0.000000 0.000000 0.000000
    2 0.000000 0.000000 0.000000 0.000001 0.872666 0.000000
    3 0.000000 0.000000 0.000000 0.000001 2.268926 0.000000
    4 0.000000 -1.238493 0.000000 0.000000 0.000000 0.000000
    5 3.419790 3.416002 3.852050 0.000000 0.000000 0.000000
    6 0.000000 0.000000 0.000000 0.000002 2.268927 0.000001
    7 0.000000 0.000000 0.000000 0.000000 0.872667 -0.000002
    8 0.000000 1.238667 0.000000 0.000000 0.000000 0.000000
    9 0.081354 0.000002 7.236489 -0.000001 1.570796 0.000000
    10 3.215855 0.000000 -0.330850 0.000000 1.570796 0.000000
    11 3.351774 -18.422437 -7.236335 -6.262889 -3.019969 -4.812663
    12 -28.634003 4.043094 -35.116589 1.570796 -3.141592 0.869271
    13 3.405498 -0.067737 -83.373859 0.877976 -1.728928 -0.972191
    14 3.288307 -18.402905 -4.012062 -0.140405 0.523305 -0.170857
    15 2.027982 4.369528 -100.068096 1.065217 -0.134836 -1.655704
    16 34.836929 0.000000 0.000004 0.000000 0.000000 0.000000
    17 2.026387 4.519067 -99.937279 1.065217 -0.134836 -1.655708
    18 34.836928 0.000000 0.000000 0.000000 0.000000 0.000000
    19 2.437572 -27.881256 -2.468764 1.065229 -0.134836 -1.655706
    20 34.836929 -0.000008 0.000004 0.000000 0.000000 0.000000
    21 2.028100 4.735579 -99.690444 1.065217 -0.134836 -1.655707
    22 34.836929 0.000000 0.000000 0.000000 0.000000 0.000000
    23 2.229161 4.464078 -99.427674 0.996350 -3.006741 -4.797253
    24 34.836929 0.000000 0.000004 0.000000 0.000000 0.000000
    25 1.598859 1.596440 -5.503455 -0.051702 0.008245 0.158160
    26 5.434985 -6.401210 -2.928759 6.131586 -2.223087 -0.409277
    27 3.870541 7.860213 -0.204496 1.566929 -3.138133 1.233546
    28 0.029645 -8.498736 -0.065070 0.214889 0.734828 -0.019442
    29 -0.488518 -2.755602 -0.228260 -0.609646 0.088064 -0.295494
    30 0.039887 -1.542292 0.022041 -1.774002 -0.008353 0.039766
    31 0.028786 -1.165578 -0.124675 -1.048806 -0.015113 0.022267
    32 0.250027 -2.820665 -0.238396 -0.478323 -0.005330 -0.173219
    33 -0.049759 -1.594604 0.022352 -1.701637 -0.002936 -0.044537
    34 -0.034142 -1.163937 0.049625 -0.984126 0.007982 -0.025539
    35 0.957766 -2.746780 -0.090302 -0.026941 -0.162013 0.191139
    36 -0.033420 -1.397129 -0.034695 -1.243748 -0.002577 -0.059385
    37 -0.022360 -0.957436 0.003159 -0.627467 0.007934 -0.030345
    38 -1.180681 -2.507217 -0.193859 -0.660927 0.343326 -0.295198
    39 -0.024967 -1.127840 0.017597 -1.442225 -0.007682 -0.059143
    40 -0.020057 -0.906594 0.029622 -0.954316 0.006052 -0.038962
    41 0.579604 -1.205090 0.197098 -0.088019 -0.754887 -0.536329
    42 1.461706 -0.239762 0.075324 0.064581 -0.233567 -0.857539
    43 0.995299 -0.186885 0.047917 0.099876 -0.252374 -1.093972
    44 0.120153 -0.050270 -0.054489 0.287569 3.110905 1.561085
    45 -4.145887 -5.289855 -6.657736 -0.587488 -4.830672 -0.186075
    46 -0.012434 -8.551984 0.049231 0.597478 -0.728426 -0.259165
    47 0.447953 -2.798986 -0.200443 -1.013050 0.000330 0.141916
    48 -0.032909 -1.491923 0.008846 -0.672710 0.015268 -0.008136
    49 -0.027022 -1.088639 -0.024116 -0.350292 0.009540 -0.002960
    50 -0.249534 -2.846964 -0.174213 -0.804145 0.010158 -0.000750
    51 0.043235 -1.660503 0.084293 -0.879243 -0.014363 0.000300
    52 0.031729 -1.156924 0.058838 -0.320392 -0.002402 0.006442
    53 -0.963866 -2.785145 -0.085350 -0.528072 0.117933 -0.081310
    54 0.028479 -1.403067 -0.013261 -0.724981 -0.016143 -0.028403
    55 0.021413 -0.949968 0.020046 -0.527497 -0.009839 -0.021620
    56 1.164475 -2.543940 -0.170330 -1.177727 -0.173025 0.226694
    57 0.024032 -1.129042 0.006088 -0.439332 -0.001630 0.023455
    58 0.014898 -0.887895 -0.019848 -0.327651 -0.002445 0.014753
    59 -0.586770 -1.264477 0.200161 0.001023 -0.429425 -2.583825
    60 1.546273 0.039149 0.016848 -0.008525 -0.002652 0.498167
    61 1.114041 0.044518 -0.005766 -0.027328 -0.034582 0.990172
    62 -0.139399 -0.111698 0.014397 0.285382 -0.030687 1.580508
    63 -7.241305 4.655456 -0.419126 1.576597 -0.027985 -0.663288
  time 14
    0 3.618112 -14.969207 -7.595582 -0.208811 -1.458322 -4.596692
    1 3.420055 -3.415972 3.851618 0.000000 0.000000 0.000000
    2 0.000000 0.000000 0.000000 0.000001 0.872666 0.000000
    3 0.000000 0.000000 0.000000 0.000001 2.268926 0.000000
    4 0.000000 -1.238493 0.000000 0.000000 0.000000 0.000000
    5 3.419790 3.416002 3.852050 0.000000 0.000000 0.000000
    6 0.000000 0.000000 0.000000 0.000002 2.268927 0.000001
    7 0.000000 0.000000 0.000000 0.000000 0.872667 -0.000002
    8 0.000000 1.238667 0.000000 0.000000 0.000000 0.000000
    9 0.081354 0.000002 7.236489 -0.000001 1.570796 0.000000
    10 3.215855 0.000000 -0.330850 0.000000 1.570796 0.000000
    11 3.293178 -18.422437 -7.291024 -6.259727 -3.031467 -4.806892
    12 -28.634003 4.043094 -35.116589 -1.570796 0.000000 -1.502219
    13 3.557847 0.783851 -83.217604 -0.179397 -0.907975 0.047452
    14 3.217993 -18.438063 -4.066751 0.469201 1.816082 0.362496
    15 2.227207 5.396903 -99.864965 1.068609 -0.123379 -1.649981
    16 40.329284 0.000000 0.000004 0.000000 0.000000 0.000000
    17 2.225612 5.542536 -99.734148 1.068609 -0.123379 -1.649985
    18 40.329283 0.000000 0.000000 0.000000 0.000000 0.000000
    19 2.421946 -27.939852 -2.628925 1.068609 -0.123379 -1.649983
    20 40.329284 -0.000008 0.000004 0.000000 0.000000 0.000000
    21 2.219513 5.759048 -99.487313 1.068597 -0.123379 -1.649984
    22 40.329284 0.000000 0.000000 0.000000 0.000000 0.000000
    23 2.420573 5.487547 -99.224543 0.018804 -0.123320 -1.649967
    24 40.329284 0.000000 0.000004 0.000000 0.000000 0.000000
    25 1.598859 1.596440 -5.503455 -0.051702 0.008245 0.158160
    26 5.399828 -6.393397 -2.924852 6.135901 -2.221363 -0.419539
    27 3.886166 7.848494 -0.204496 1.566929 -3.138133 1.231139
    28 0.029645 -8.498736 -0.065070 0.216701 0.734424 -0.037798
    29 -0.488518 -2.755602 -0.228260 -0.609646 0.088064 -0.295494
    30 0.039887 -1.542292 0.022041 -1.774002 -0.008353 0.039766
    31 0.028786 -1.165578 -0.124675 -1.048806 -0.015113 0.022267
    32 0.250027 -2.820665 -0.238396 -0.478323 -0.005330 -0.173219
    33 -0.049759 -1.594604 0.022352 -1.701637 -0.002936 -0.044537
    34 -0.034142 -1.163937 0.049625 -0.984126 0.007982 -0.025539
    35 0.957766 -2.746780 -0.090302 -0.026941 -0.162013 0.191139
    36 -0.033420 -1.397129 -0.034695 -1.243748 -0.002577 -0.059385
    37 -0.022360 -0.957436 0.003159 -0.627467 0.007934 -0.030345
    38 -1.180681 -2.507217 -0.193859 -0.660927 0.343326 -0.295198
    39 -0.024967 -1.127840 0.017597 -1.442225 -0.007682 -0.059143
    40 -0.020057 -0.906594 0.029622 -0.954316 0.006052 -0.038962
    41 0.579604 -1.205090 0.197098 -0.088019 -0.754887 -0.536329
    42 1.461706 -0.239762 0.075324 0.064581 -0.233567 -0.857539
    43 0.995299 -0.186885 0.047917 0.099876 -0.252374 -1.093972
    44 0.120153 -0.050270 -0.054489 0.287569 3.110905 1.561085
    45 -4.184951 -5.231260 -6.692894 -0.635147 -4.833770 -0.237953
    46 -0.012434 -8.548078 0.049231 0.590327 -0.741415 -0.239989
    47 0.447953 -2.798986 -0.200443 -1.013050 0.000330 0.141916
    48 -0.032909 -1.491923 0.008846 -0.672710 0.015268 -0.008136
    49 -0.027022 -1.088639 -0.024116 -0.350292 0.009540 -0.002960
    50 -0.249534 -2.846964 -0.174213 -0.804145 0.010158 -0.000750
    51 0.043235 -1.660503 0.084293 -0.879243 -0.014363 0.000300
    52 0.031729 -1.156924 0.058838 -0.320392 -0.002402 0.006442
    53 -0.963866 -2.785145 -0.085350 -0.528072 0.117933 -0.081310
    54 0.028479 -1.403067 -0.013261 -0.724981 -0.016143 -0.028403
    55 0.021413 -0.949968 0.020046 -0.527497 -0.009839 -0.021620
    56 1.164475 -2.543940 -0.170330 -1.177727 -0.173025 0.226694
    57 0.024032 -1.129042 0.006088 -0.439332 -0.001630 0.023455
    58 0.014898 -0.887895 -0.019848 -0.327651 -0.002445 0.014753
    59 -0.586770 -1.264477 0.200161 0.001023 -0.429425 -2.583825
    60 1.546273 0.039149 0.016848 -0.008525 -0.002652 0.498167
    61 1.114041 0.044518 -0.005766 -0.027328 -0.034582 0.990172
    62 -0.139399 -0.111698 0.014397 0.285382 -0.030687 1.580508
    63 -7.319432 4.503107 -0.423032 1.576262 -0.028429 -0.642648
end
