// Created by Crowbar 0.49.0.0

$modelname "weapons/tfa_cso/c_broad.mdl"

$Include "csonline_gmod.qci"

$bodygroup "weapon"
{
	studio "v_broad1"
}
$bodygroup "weapon"
{
	studio "v_broad2"
}

$CDMaterials "models\weapons\tfa_cso\broad"

$attachment 0 "bd_root" 32 -1 0
//$attachment 1 "bd_root" 5.199 -1.5 -0.826

$definebone "root" "" 0.000000 0.000000 0.000000 0.000000 0.000000 0.000000 0.000000 0.000000 0.000000 -0.000000 0.000000 0.000000
$definebone "Bone01" "root" 7.323211 4.356745 -9.285821 -80.763368 100.118970 -103.387407 0.000000 0.000000 -0.000000 0.000000 -0.000001 -0.000000
$definebone "Bone_Lefthand" "Bone01" -0.071918 -8.498688 -0.104136 16.439536 -0.545286 -1.831288 -0.000001 0.000000 0.000000 0.000001 -0.000001 0.000000
$definebone "bd_root" "Bone_Lefthand" 2.011645 -1.841105 1.374558 7.204806 -97.369231 -166.043444 0.000000 -0.000000 0.000000 -0.000000 0.000000 -0.000002
$definebone "cover1" "bd_root" 7.634037 -2.094017 0.000000 0.000000 -179.999966 0.000002 0.000000 0.000000 0.000000 0.000000 0.000000 0.000002
$definebone "Bone_handle1" "bd_root" 19.489594 -0.136556 -0.010146 0.000002 89.999983 -179.999966 -0.000000 0.000000 0.000000 -0.000002 0.000000 -0.000000
$definebone "Bone_handle21" "Bone_handle1" 0.595872 0.000000 -0.382147 24.999982 0.000000 -89.999983 0.000000 0.000000 0.000000 -0.000000 0.000000 0.000000
$definebone "Bone_handle22" "Bone_handle1" 0.595871 -0.000002 0.397035 -59.999968 -0.000001 -90.000038 0.000000 0.000000 0.000000 0.000000 0.000002 0.000000
$definebone "trigger" "bd_root" 2.263011 0.735838 0.000000 0.000001 69.331100 -0.000001 0.000001 0.000000 0.000000 0.000001 0.000000 -0.000001
$definebone "magazine" "bd_root" 5.853785 3.439611 -2.783180 -0.000038 -90.000017 90.000024 0.000000 0.000000 0.000000 -0.000000 0.000002 -0.000000
$definebone "bullet09" "magazine" -22.634996 6.490000 8.803302 89.999983 89.999819 0.000000 0.000000 0.000000 0.000001 -0.000000 0.000000 -0.000002
$definebone "bullet08" "bullet09" -0.003362 -0.513107 0.023468 -0.000000 0.000000 179.999966 0.000000 0.000000 0.000000 0.000000 -0.000000 -0.000002
$definebone "bullet07" "bullet08" -0.000001 0.531639 -0.020364 0.000000 -0.000000 -179.999966 0.000000 0.000000 0.000001 -0.000000 0.000000 -0.000002
$definebone "bullet06" "bullet07" 0.000000 -0.530834 0.014115 -0.000000 0.000000 179.999966 0.000000 0.000000 0.000000 0.000000 -0.000000 -0.000002
$definebone "bullet05" "bullet06" 0.000000 0.520393 -0.105503 0.000000 -0.000000 -179.999966 0.000000 0.000000 0.000000 -0.000000 0.000000 -0.000002
$definebone "bullet04" "bullet05" -0.000000 -0.457521 0.163234 -0.000000 0.000000 179.999966 0.000000 0.000000 0.000000 0.000000 -0.000000 -0.000002
$definebone "bullet03" "bullet04" 0.000000 0.280865 -0.424438 0.000000 -0.000000 -179.999966 0.000000 0.000002 0.000000 -0.000000 0.000000 -0.000002
$definebone "bullet02" "bullet03" 0.057429 0.655682 0.229329 -0.000000 0.000000 179.999966 0.000000 0.000000 0.000000 0.000000 -0.000000 -0.000002
$definebone "bullet01" "bullet02" -0.000000 -0.276943 -0.474607 0.000000 -0.000000 -179.999966 0.000000 0.000000 0.000000 -0.000000 0.000000 -0.000002
$definebone "Bone_ring" "magazine" 0.979149 -0.047047 2.223009 -16.429277 179.999966 -89.999983 0.000000 0.000000 0.000000 -0.000002 0.000000 0.000000

$sequence "idle1" {
	"v_broad_anims\idle1"
	fps 30
	loop
	activity "ACT_VM_IDLE" 1
	snap
}
$sequence "shoot1" {
	"v_broad_anims\shoot1"
	{ event 5001 0 "31" }
	{ event 5001 1 "125" }
	fps 30
	activity "ACT_VM_PRIMARYATTACK" 1
	snap
}
$sequence "shoot2" {
	"v_broad_anims\shoot2"
	{ event 5001 0 "21" }
	{ event 5001 1 "125" }
	fps 30
	activity "ACT_VM_PRIMARYATTACK" 2
	snap
}
$sequence "reload" {
	"v_broad_anims\reload"
	{ event 5004 15 "Broad.ClipOut1" }
	{ event 5004 33 "Broad.ClipOut2" }
	{ event 5004 57 "Broad.ClipIn1" }
	{ event 5004 79 "Broad.ClipIn2" }
	{ event 5004 105 "Broad.ClipIn3" }
	{ event 5004 130 "Broad.ClipIn4" }
	fps 30
	activity "ACT_VM_RELOAD" 1
	snap
}
$sequence "draw" {
	"v_broad_anims\draw"
	fps 30
	activity "ACT_VM_DRAW" 1
	snap
}
