// Created by Crowbar 0.68

$modelname "s_vsk94.mdl"
$cd "."
$cdtexture "."
$cliptotextures
$scale 1.0

$bodygroup "studio"
{
	studio "p_vsk94"
}

$flags 0


$cbox 0 0 0 0 0 0

$bbox 0 0 0 0 0 0

$hbox 0 "CSO_VSK94" -12.96 -0.95 -3.72 23.6 1.95 6.31

$sequence "idle" {
	"s_vsk94_anims\idle"
	fps 30
}
