// Created by Crowbar 0.49.0.0

$modelname "weapons/tfa_cso/c_svdex.mdl"

$Include "csonline_gmod.qci"

$bodygroup "weapon"
{
	studio "v_svdex_JUNE_CSO_VIP_GUN_REF"
}

$CDMaterials "models\weapons\tfa_cso\svdex\"

$attachment 0 "windleo_VIPGun_Root" -0.044 -37.516003 1.825
//$attachment 1 "windleo_VIPGun_Root" 0 -8.113 2.481
//$attachment 2 "windleo_VIPGun_Root" -0.044 -24.521999 -1.754

$definebone "Bone01" "" 9.310104 19.094357 2.111432 -89.846782 5.043749 -4.815137 0.000000 0.000000 0.000000 -0.000000 -0.000000 -0.000000
$definebone "Bone_Lefthand" "Bone01" -0.071919 -8.498733 -0.104136 16.477744 0.853592 -1.435030 0.000000 0.000000 0.000000 -0.000003 -0.000000 0.000000
$definebone "windleo_VIPGun_Root" "Bone_Lefthand" -7.447418 -15.119661 0.046433 73.331897 3.992255 5.102131 0.000000 0.000000 -0.000000 -0.000002 0.000000 -0.000000
$definebone "windleo_VIPGun_Grenade" "windleo_VIPGun_Root" 0.012424 -15.995460 -4.827854 -0.000002 0.000000 -0.000000 0.000000 0.000000 0.000000 -0.000002 0.000000 -0.000000
$definebone "windleo_VIPGun_Safety" "windleo_VIPGun_Root" -0.000001 -5.493354 -0.179961 -0.000002 0.000000 -0.000000 0.000000 0.000000 -0.000000 -0.000002 0.000000 -0.000000
$definebone "windleo_VIPGun_Slide" "windleo_VIPGun_Root" -0.670049 -8.175867 2.510257 -0.000002 0.000000 -0.000000 0.000000 0.000000 0.000000 -0.000002 0.000000 -0.000000
$definebone "windleo_VIPGun_GN_Slide" "windleo_VIPGun_Root" -0.000001 -16.111862 -1.715292 -0.000002 0.000000 -0.000000 0.000000 0.000000 0.000000 -0.000002 0.000000 -0.000000
$definebone "windleo_VIPGun_Magazine" "windleo_VIPGun_Root" -0.000001 -7.461284 -0.759588 -0.000002 0.000000 -0.000000 0.000000 0.000000 -0.000000 -0.000002 0.000000 -0.000000
$definebone "windleo_VIPGun_GN_Trigger" "windleo_VIPGun_Root" -0.000001 -10.320614 -1.410366 -0.000002 0.000000 -0.000000 0.000000 0.000000 0.000000 -0.000002 0.000000 -0.000000
$definebone "windleo_VIPGun_Trigger" "windleo_VIPGun_Root" -0.000001 -2.553366 0.694623 -0.000002 0.000000 -0.000000 0.000000 0.000000 -0.000000 -0.000002 0.000000 -0.000000

$sequence "carbine_idle" {
	"v_svdex_anims\carbine_idle"
	fps 16
	activity "ACT_VM_IDLE" 1
	snap
}
$sequence "carbine_shoot" {
	"v_svdex_anims\carbine_shoot"
	{ event 5001 0 "31" }
	fps 30
	activity "ACT_VM_PRIMARYATTACK" 1
	snap
}
$sequence "carbine_reload" {
	"v_svdex_anims\carbine_reload"
	{ event 5004 13 "SVDEX.ClipOut" }
	{ event 5004 42 "SVDEX.ClipIn" }
	{ event 5004 55 "SVDEX.ClipOn" }
	{ event 5004 82 "SVDEX.Draw" }
	fps 30
	activity "ACT_VM_RELOAD" 1
	snap
}
$sequence "carbine_draw" {
	"v_svdex_anims\carbine_draw"
	fps 30
	activity "ACT_VM_DRAW" 1
	snap
}
$sequence "grenade_idle" {
	"v_svdex_anims\grenade_idle"
	fps 16
	activity "ACT_VM_IDLE_SILENCED" 1
	snap
	loop
}
$sequence "grenade_shoot1" {
	"v_svdex_anims\grenade_shoot1"
	{ event 5021 0 "103112" }
	{ event 5004 25 "SVDEX.Foley1" }
	{ event 5004 53 "SVDEX.Foley2" }
	{ event 5004 68 "SVDEX.Foley3" }
	fps 30
	activity "ACT_VM_SECONDARYATTACK" 1
	snap
}
$sequence "grenade_shoot2" {
	"v_svdex_anims\grenade_shoot2"
	{ event 5021 0 "103112" }
	fps 30
	snap
}
$sequence "grenade_draw" {
	"v_svdex_anims\grenade_draw"
	fps 30
	activity "ACT_VM_DRAW_SILENCED" 1
	snap
}
$sequence "move_grenade" {
	"v_svdex_anims\move_grenade"
	{ event 5004 7 "SVDEX.Foley4" }
	fps 30
	activity "ACT_VM_ATTACH_SILENCER" 1
	snap
}
$sequence "move_carbine" {
	"v_svdex_anims\move_carbine"
	{ event 5004 14 "SVDEX.Draw" }
	fps 30
	activity "ACT_VM_DETACH_SILENCER" 1
	snap
}
