// Created by Crowbar 0.34.0.0

$ModelName "weapons/tfa_cso/w_m200.mdl"

$BodyGroup "studio"
{
	studio "v_m400_Cheytac-M400_template_gachapon"
}

$collisionmodel "v_m400_Cheytac-M400_template_gachapon.smd"
{
	$mass 9
}

$CDMaterials "models\weapons\tfa_cso\m200"

$attachment "0" "root" -0.10 -22.60 -0.30 rotate -0 0 0

$Sequence "idle" {
	"anims\idle.smd"
	fps 30
}