// Created by Crowbar 0.49.0.0

$modelname "weapons/tfa_cso/c_turbulent11.mdl"

$Include "csonline_gmod.qci"

$bodygroup "weapon"
{
	studio "v_turbulent11_1"
}
$bodygroup "weapon"
{
	studio "v_turbulent11_2"
}
$bodygroup "weapon"
{
	studio "v_turbulent11_3"
}

$CDMaterials "models\weapons\tfa_cso\turbulent11"

$attachment 0 "turbulent_11" 23.799999 -0.76 0
//$attachment 1 "turbulent_11" 6.703 -0.45 0

$definebone "turbulent_11" "" 0.000000 6.186890 8.792722 0.000036 -90.000017 90.000017 0.000000 0.000000 0.000000 -0.000000 -0.000000 0.000000
$definebone "magazine" "turbulent_11" 6.156167 -3.869725 0.000000 -0.000000 2.622370 0.000000 0.000000 0.000000 0.000000 -0.000000 0.000000 0.000000
$definebone "trigger" "turbulent_11" 4.080297 -2.108513 0.000000 -0.000000 -94.253852 -0.000057 0.000000 0.000000 0.000000 -0.000000 0.000000 -0.000000
$definebone "cover" "turbulent_11" 6.461226 0.149351 0.666336 0.000000 -89.999983 0.000057 0.000000 0.000000 0.000000 -0.000000 0.000000 0.000000
$definebone "tur_03" "turbulent_11" 5.227729 0.804228 1.153312 0.000057 90.733771 0.000057 -0.000001 0.000000 0.000000 -0.000000 -0.000000 0.000000
$definebone "tur_04" "turbulent_11" 6.109476 0.804230 1.153312 0.000057 90.733771 0.000057 -0.000001 -0.000000 0.000000 -0.000000 -0.000000 0.000000
$definebone "tur_05" "turbulent_11" 6.974383 0.804230 1.153311 0.000057 90.733771 0.000057 0.000000 0.000000 0.000000 -0.000000 -0.000000 0.000000
$definebone "tur_06" "turbulent_11" 7.843447 0.804230 1.153310 0.000057 90.733771 0.000057 0.000000 0.000000 0.000000 -0.000000 -0.000000 0.000000
$definebone "tur_08" "turbulent_11" 6.109477 0.804231 -1.187795 0.000057 90.733771 0.000057 0.000000 0.000000 0.000000 -0.000000 -0.000000 0.000000
$definebone "tur_07" "turbulent_11" 5.227728 0.804229 -1.187795 0.000057 90.733771 0.000057 0.000000 0.000000 0.000000 -0.000000 -0.000000 0.000000
$definebone "tur_09" "turbulent_11" 6.974383 0.804231 -1.187797 0.000057 90.733771 0.000057 0.000000 0.000000 0.000000 -0.000000 -0.000000 0.000000
$definebone "tur_10" "turbulent_11" 7.843449 0.804230 -1.187796 0.000057 90.733771 0.000057 0.000000 0.000000 0.000000 -0.000000 -0.000000 0.000000
$definebone "tur_01" "turbulent_11" 1.274860 1.495397 1.023240 -21.329474 180.000007 90.000017 0.000000 0.000000 0.000000 0.000000 0.000000 -0.000000
$definebone "tur_02" "turbulent_11" 1.274859 1.495399 -1.011580 -21.329443 -0.000000 89.999983 0.000000 0.000000 0.000000 -0.000000 0.000000 0.000000
$definebone "reload" "turbulent_11" 15.490498 0.031571 0.111753 -89.999983 -89.999983 0.000000 0.000000 0.000000 0.000000 -0.000000 -0.000000 -0.000000

$sequence "turbulent11_idle" {
	"v_turbulent11_anims\turbulent11_idle"
	{ event 5004 0 "Turbulent11.Idle" }
	fps 30
	loop
	activity "ACT_VM_IDLE" 1
	snap
}
$sequence "usas_shoot1" {
	"v_turbulent11_anims\usas_shoot1"
	{ event 5001 0 "#I57 S0.1 R2 F0 P30 T999 A1 L0 O0 X0" }
	{ event 5004 20 "Turbulent11.Motor" }
	fps 30
	activity "ACT_VM_PRIMARYATTACK" 1
	snap
}
$sequence "usas_shoot2" {
	"v_turbulent11_anims\usas_shoot2"
	{ event 5001 0 "#I57 S0.1 R2 F0 P30 T999 A1 L0 O0 X0" }
	{ event 5004 20 "Turbulent11.Motor" }
	fps 30
	activity "ACT_VM_PRIMARYATTACK" 2
	snap
}
$sequence "usas_reload" {
	"v_turbulent11_anims\usas_reload"
	{ event 5004 1 "Turbulent11.ClipOut" }
	{ event 5004 64 "Turbulent11.ClipIn" }
	{ event 5004 95 "Turbulent11.Draw" }
	fps 30
	activity "ACT_VM_RELOAD" 1
	snap
}
$sequence "turbulent11_draw" {
	"v_turbulent11_anims\turbulent11_draw"
	{ event 5004 16 "Turbulent11.Draw" }
	fps 30
	activity "ACT_VM_DRAW" 1
	snap
}
