// Created by Crowbar 0.58

$modelname "weapons/tfa_cso/w_tknife.mdl"

$bodygroup "studio"
{
	studio "tknifeA"
}

$collisionmodel "tknifeA.smd"
{
	$mass 1
}

$CDMaterials "models\weapons\tfa_cso\tknife"

$sequence "idle" {
	"tknifea_anims\idle"
	fps 30
}
