// Created by Crowbar 0.68

$modelname "weapons/tfa_cso/w_m2_bipod_v8.mdl"

$bodygroup "studio"
{
	studio "w_m2_bipod"
}

$collisionmodel "w_m2_bipod.smd"
{
	$mass 9
}

$CDMaterials "models\weapons\tfa_cso\m2_v8\"

$sequence "idle" {
	"anims\idle"
	fps 30
}
