version 1
nodes
  0 "root_restrictionpistol" -1
  1 "wing_R_1" 0
  2 "wing_R_3" 1
  3 "wing_R_4" 1
  4 "wing_R_2" 1
  5 "wing_L_1" 0
  6 "wing_L_4" 5
  7 "wing_L_3" 5
  8 "wing_L_2" 5
  9 "cover" 0
  10 "x_bone" 0
  11 "megazine" -1
  12 "restrictionpistol_core" 0
  13 "restrictionpistol_core001" -1
  14 "restrictionpistol_core002" -1
  15 "restrictionpistol_charge1_bone1" -1
  16 "restrictionpistol_charge1_bone2" 15
  17 "restrictionpistol_charge2_bone1" -1
  18 "restrictionpistol_charge2_bone2" 17
  19 "restrictionpistol_charge3_bone1" -1
  20 "restrictionpistol_charge3_bone2" 19
  21 "restrictionpistol_charge4_bone1" -1
  22 "restrictionpistol_charge4_bone2" 21
  23 "restrictionpistol_charge5_bone1" -1
  24 "restrictionpistol_charge5_bone2" 23
  25 "root" -1
  26 "Bone01" 25
  27 "Bone_L_Upper" 26
  28 "Bone_Lefthand" 26
  29 "Bone13" 28
  30 "Bone14" 29
  31 "Bone15" 30
  32 "Bone17" 28
  33 "Bone18" 32
  34 "Bone19" 33
  35 "Bone21" 28
  36 "Bone22" 35
  37 "Bone23" 36
  38 "Bone09" 28
  39 "Bone10" 38
  40 "Bone11" 39
  41 "Bone05" 28
  42 "Bone06" 41
  43 "Bone07" 42
  44 "Bone_Se_Hand-L" 28
  45 "Bone04" 25
  46 "Bone_Righthand" 45
  47 "Bone39" 46
  48 "Bone40" 47
  49 "Bone41" 48
  50 "Bone35" 46
  51 "Bone36" 50
  52 "Bone37" 51
  53 "Bone31" 46
  54 "Bone32" 53
  55 "Bone33" 54
  56 "Bone43" 46
  57 "Bone44" 56
  58 "Bone45" 57
  59 "Bone27" 46
  60 "Bone28" 59
  61 "Bone29" 60
  62 "Bone_Se_Hand-R" 46
  63 "Bone_R_Upper" 45
end
skeleton
  time 0
    0 0.000000 0.575050 -1.161792 1.570797 -1.570796 0.000000
    1 3.420055 -3.415972 3.851618 0.000000 0.000000 0.000000
    2 0.000000 0.000000 0.000000 0.000001 1.483531 0.000000
    3 0.000000 0.000000 0.000000 0.000001 1.658063 0.000000
    4 0.000000 -0.890826 0.000000 0.000000 0.000000 0.000000
    5 3.419790 3.416002 3.852050 0.000000 0.000000 0.000000
    6 0.000000 0.000000 0.000000 0.000002 1.658065 0.000001
    7 0.000000 0.000000 0.000000 0.000000 1.483532 -0.000002
    8 0.000000 0.891000 0.000000 0.000000 0.000000 0.000000
    9 0.081354 0.000002 7.236489 -0.000001 1.570796 0.000000
    10 3.215855 0.000000 -0.330850 0.000000 1.570796 0.000000
    11 0.000000 -2.906230 -1.240058 -3.141592 0.000000 -1.570796
    12 3.128685 0.000002 3.861163 -1.570796 0.000000 -1.570796
    13 -9.577088 -3.286112 -37.149792 0.000000 0.000000 0.000000
    14 0.000000 -3.286112 -37.149792 0.000000 0.000000 0.000000
    15 2.021292 -2.487781 -93.935097 1.052981 -0.119352 -1.593149
    16 -5.222887 0.000000 0.000004 0.000000 0.000000 0.000000
    17 2.348330 -2.997204 -94.687119 1.052981 -0.119352 -1.593149
    18 -5.222888 0.000000 0.000000 0.000000 0.000000 0.000000
    19 2.821898 -3.164162 -94.752831 1.052981 -0.119352 -1.593149
    20 -5.222887 -0.000008 0.000004 0.000000 0.000000 0.000000
    21 2.827152 -3.393940 -94.217621 1.052981 -0.119352 -1.593149
    22 -5.222887 0.000000 0.000000 0.000000 0.000000 0.000000
    23 2.817394 -2.942872 -94.657997 1.052981 -0.119352 -1.593149
    24 -5.222887 0.000000 0.000004 0.000000 0.000000 0.000000
    25 0.001265 -0.569176 -20.601572 0.000000 0.000000 0.000000
    26 9.310103 -5.299614 -12.557959 3.138909 -0.000224 -1.566807
    27 1.257180 8.762585 -0.153713 -1.570562 0.002683 -1.566807
    28 -0.071921 -8.498736 -0.104134 -0.025046 0.287591 0.014898
    29 -0.488518 -2.755602 -0.228260 0.106454 0.010332 -0.264490
    30 0.039887 -1.479790 0.029854 -0.055395 0.000000 0.000001
    31 0.028786 -1.075731 -0.023109 0.002099 0.000000 0.000000
    32 0.250027 -2.820665 -0.238396 0.041826 -0.002921 0.008443
    33 -0.049759 -1.680544 0.100479 0.019826 0.000000 -0.000002
    34 -0.034142 -1.148312 0.084782 -0.040115 0.000000 0.000000
    35 0.957766 -2.746780 -0.090302 -0.017221 -0.162277 0.191558
    36 -0.033420 -1.397129 -0.011257 0.013931 0.000000 -0.000001
    37 -0.022360 -0.957436 0.018784 0.003845 0.000000 0.000000
    38 -1.180681 -2.507217 -0.193859 0.082999 0.013294 -0.477915
    39 -0.024967 -1.123934 0.017597 -0.018065 0.000000 0.000001
    40 -0.020057 -0.890968 0.010090 -0.060797 0.000000 0.000000
    41 0.583510 -1.197277 0.185379 0.158049 -0.404973 -0.364290
    42 1.535927 0.010246 0.005009 -0.002964 -0.012979 0.000887
    43 1.100771 0.004527 -0.010679 -0.002796 0.015973 0.003458
    44 0.120153 -0.050270 -0.054489 0.287569 3.110905 1.561085
    45 -9.310107 -5.231260 -12.513384 0.004984 -3.131565 -1.566847
    46 0.096944 -8.450418 -0.009365 -0.032965 -0.297907 -0.004663
    47 0.447953 -2.798986 -0.200443 0.106456 -0.010396 0.265094
    48 -0.032909 -1.480204 0.004940 -0.055403 0.000000 0.000002
    49 -0.027022 -1.076920 -0.020210 0.002094 0.000000 0.000000
    50 -0.249534 -2.846964 -0.174213 0.041903 -0.000125 -0.008396
    51 0.043235 -1.683941 0.096012 0.019757 0.002823 -0.000167
    52 0.031729 -1.160830 0.058838 -0.040181 0.000642 0.008372
    53 -0.963866 -2.785145 -0.085350 -0.017227 0.162276 -0.191556
    54 0.028479 -1.403067 0.006271 0.013941 0.000000 0.000000
    55 0.021413 -0.957781 0.020046 0.003851 0.000000 0.000000
    56 1.164475 -2.543940 -0.170330 0.083003 -0.013294 0.477915
    57 0.024032 -1.129042 0.017807 -0.018074 0.000000 0.000001
    58 0.014898 -0.883989 -0.019848 -0.060801 0.000000 0.000000
    59 -0.586770 -1.264477 0.200161 -0.152092 -0.410513 -2.814816
    60 1.522835 0.058681 0.016848 0.001410 0.008985 -0.046880
    61 1.117947 0.048424 -0.005766 -0.000243 -0.025198 0.065422
    62 -0.139399 -0.111698 0.014397 0.285382 -0.030687 1.580508
    63 -1.393470 8.839177 -0.239433 1.580804 -0.005023 -1.566847
end
triangles
$0b_restrictionpistol_charge1
  15 -0.348858 2.004555 -98.834229 -0.003300 0.046983 0.998890 1.000000 0.000000
  16 -0.379068 0.874891 -98.707460 -0.003300 0.046983 0.998890 1.000000 1.000000
  15 4.613138 2.936336 -90.225462 -0.003300 0.046983 0.998890 0.000000 0.000000
$0b_restrictionpistol_charge1
  15 4.613138 2.936336 -90.225462 -0.003300 0.046983 0.998890 0.000000 0.000000
  16 -0.379068 0.874891 -98.707460 -0.003300 0.046983 0.998890 1.000000 1.000000
  16 4.587678 1.797668 -90.088875 -0.003300 0.046983 0.998890 0.000000 1.000000
$0b_restrictionpistol_charge2
  17 -0.026570 1.504135 -99.596069 -0.003301 0.046992 0.998890 1.000000 0.000000
  18 -0.052027 0.365468 -99.459484 -0.003301 0.046993 0.998890 1.000000 1.000000
  17 4.939954 2.416986 -90.976293 -0.003301 0.046992 0.998890 0.000000 0.000000
$0b_restrictionpistol_charge2
  17 4.939954 2.416986 -90.976293 -0.003301 0.046992 0.998890 0.000000 0.000000
  18 -0.052027 0.365468 -99.459484 -0.003301 0.046993 0.998890 1.000000 1.000000
  18 4.914719 1.288246 -90.840899 -0.003301 0.046993 0.998890 0.000000 1.000000
$0b_restrictionpistol_charge4
  19 0.446776 1.327251 -99.660590 -0.003301 0.046999 0.998889 1.000000 0.000000
  20 0.426506 0.199433 -99.516573 -0.003301 0.046999 0.998889 1.000000 1.000000
  19 5.418716 2.260879 -91.034568 -0.003301 0.046999 0.998889 0.000000 0.000000
$0b_restrictionpistol_charge4
  19 5.418716 2.260879 -91.034568 -0.003301 0.046999 0.998889 0.000000 0.000000
  20 0.426506 0.199433 -99.516573 -0.003301 0.046999 0.998889 1.000000 1.000000
  20 5.388280 1.121287 -90.906615 -0.003301 0.046999 0.998889 0.000000 1.000000
$0b_restrictionpistol_charge5
  21 0.452030 1.097473 -99.125381 -0.003301 0.046992 0.998890 1.000000 0.000000
  22 0.426795 -0.031269 -98.989986 -0.003301 0.046992 0.998890 1.000000 1.000000
  21 5.418776 2.020250 -90.506795 -0.003301 0.046992 0.998890 0.000000 0.000000
$0b_restrictionpistol_charge5
  21 5.418776 2.020250 -90.506795 -0.003301 0.046992 0.998890 0.000000 0.000000
  22 0.426795 -0.031269 -98.989986 -0.003301 0.046992 0.998890 1.000000 1.000000
  22 5.393541 0.891509 -90.371401 -0.003301 0.046992 0.998890 0.000000 1.000000
$0b_restrictionpistol_charge6_1
  23 0.447244 1.549464 -99.557130 -0.003301 0.046999 0.998889 1.000000 0.000000
  24 0.417034 0.419800 -99.430360 -0.003301 0.046999 0.998889 1.000000 1.000000
  23 5.409240 2.481245 -90.948362 -0.003301 0.046999 0.998889 0.000000 0.000000
$0b_restrictionpistol_charge6_1
  23 5.409240 2.481245 -90.948362 -0.003301 0.046999 0.998889 0.000000 0.000000
  24 0.417034 0.419800 -99.430360 -0.003301 0.046999 0.998889 1.000000 1.000000
  24 5.383780 1.342577 -90.811775 -0.003301 0.046999 0.998889 0.000000 1.000000
$0b_restrictionpistol_charge6_2
  23 -1.408711 2.402106 -92.794842 -0.995921 -0.090222 0.000953 1.000000 0.000000
  24 -1.425275 1.272582 -92.664360 -0.995921 -0.090222 0.000953 1.000000 1.000000
  23 7.264972 1.618676 -97.709459 -0.995921 -0.090222 0.000953 0.000000 0.000000
$0b_restrictionpistol_charge6_2
  23 7.264972 1.618676 -97.709459 -0.995921 -0.090222 0.000953 0.000000 0.000000
  24 -1.425275 1.272582 -92.664360 -0.995921 -0.090222 0.000953 1.000000 1.000000
  24 7.239734 0.489935 -97.574063 -0.995921 -0.090222 0.000953 0.000000 1.000000
end
