version 1
nodes
  0 "root" -1
  1 "Bone01" 0
  2 "Bone_Lefthand" 1
  3 "Bone02" 2
  4 "Bone16" 3
  5 "Bone26" 3
  6 "Bone24" 3
  7 "Dummy01" 3
  8 "Bone08" 7
  9 "Bone03" 7
  10 "Bone_L_Upper" 1
  11 "Bone13" 2
  12 "Bone14" 11
  13 "Bone15" 12
  14 "Bone17" 2
  15 "Bone18" 14
  16 "Bone19" 15
  17 "Bone21" 2
  18 "Bone22" 17
  19 "Bone23" 18
  20 "Bone09" 2
  21 "Bone10" 20
  22 "Bone11" 21
  23 "Bone05" 2
  24 "Bone06" 23
  25 "Bone07" 24
  26 "Bone_Se_Hand-L" 2
  27 "Bone04" 0
  28 "Bone_Righthand" 27
  29 "Bone39" 28
  30 "Bone40" 29
  31 "Bone41" 30
  32 "Bone35" 28
  33 "Bone36" 32
  34 "Bone37" 33
  35 "Bone31" 28
  36 "Bone32" 35
  37 "Bone33" 36
  38 "Bone43" 28
  39 "Bone44" 38
  40 "Bone45" 39
  41 "Bone27" 28
  42 "Bone28" 41
  43 "Bone29" 42
  44 "Bone_Se_Hand-R" 28
  45 "Bone_R_Upper" 27
end
skeleton
  time 0
    0 -0.349399 1.166145 0.203512 0.000000 0.000000 0.000000
    1 8.723248 2.113294 -7.648993 -1.652498 -1.260739 1.301720
    2 -0.071918 -8.498728 -0.104137 0.227367 0.012175 -0.318846
    3 1.174832 -4.813860 0.424332 0.032251 0.115277 -1.246542
    4 0.179597 0.367359 0.000000 0.000000 0.000000 -1.894513
    5 -0.732507 1.856928 0.000000 0.000000 0.000000 1.247079
    6 -1.932693 1.493402 0.000000 0.000000 0.000000 4.039569
    7 -1.869303 -0.329702 0.000000 0.000000 0.000000 -2.241561
    8 0.002374 0.002359 0.000000 0.000000 0.000000 0.000000
    9 33.020318 -2.805441 0.000000 0.000000 0.000000 0.000000
    10 1.257180 8.762585 -0.153713 -1.570562 0.002683 -1.566807
    11 -0.488518 -2.755602 -0.228260 -0.488456 0.067606 -0.177350
    12 0.039887 -1.479790 0.029854 -2.055215 0.000000 0.000001
    13 0.028786 -1.075731 -0.023109 -0.540998 0.000000 0.000000
    14 0.250027 -2.820665 -0.238396 -0.372673 0.065451 -0.123124
    15 -0.049759 -1.680544 0.100479 -2.030651 0.000000 -0.000002
    16 -0.034142 -1.148312 0.084782 -0.832761 0.000000 0.000000
    17 0.957766 -2.746780 -0.090302 0.280848 -0.004811 0.093967
    18 -0.033420 -1.397129 -0.011257 -0.818958 0.000000 -0.000001
    19 -0.022360 -0.957436 0.018784 -0.823736 -0.032982 -0.008353
    20 -1.180681 -2.507217 -0.193859 -0.266100 0.227303 -0.147320
    21 -0.024967 -1.123934 0.017597 -1.309973 0.000000 0.000001
    22 -0.020057 -0.890968 0.010090 -1.428613 0.000000 0.000000
    23 0.583510 -1.197277 0.185379 0.453370 -0.774262 -0.898358
    24 1.535927 0.010246 0.005009 -0.002964 -0.012979 -0.850464
    25 1.100771 0.004527 -0.010679 -0.013330 0.009226 -0.789520
    26 0.120153 -0.050270 -0.054489 0.287569 3.110905 1.561085
    27 0.444097 -0.262358 -11.896178 0.997596 -3.971761 1.440883
    28 0.096944 -8.450418 -0.009365 0.645403 -1.447265 -0.049274
    29 0.447953 -2.798986 -0.200443 -0.949954 0.084282 0.421229
    30 -0.032909 -1.480204 0.004940 -1.124069 0.000000 0.000002
    31 -0.027022 -1.076920 -0.020210 -0.461569 0.000000 0.000000
    32 -0.249534 -2.846964 -0.174213 -0.632779 0.047286 0.373793
    33 0.043235 -1.683941 0.096012 -1.287532 0.002823 -0.000167
    34 0.031729 -1.160830 0.058838 -0.537658 0.000642 0.008372
    35 -0.963866 -2.785145 -0.085350 -0.592829 0.115248 0.261238
    36 0.028479 -1.403067 0.006271 -0.697209 0.000000 0.000000
    37 0.021413 -0.957781 0.020046 -1.149587 0.000000 0.000000
    38 1.164475 -2.543940 -0.170330 -1.155785 -0.073121 0.430228
    39 0.024032 -1.129042 0.017807 -1.006602 0.000000 0.000001
    40 0.014898 -0.883989 -0.019848 -0.425270 0.000000 0.000000
    41 -0.586770 -1.264477 0.200161 0.028461 -0.460687 -2.530234
    42 1.522835 0.058681 0.016848 0.001410 0.008985 0.623500
    43 1.117947 0.048424 -0.005766 -0.020437 -0.014747 1.002033
    44 -0.139399 -0.111698 0.014397 0.698803 0.130110 1.388802
    45 -6.260806 6.983652 -0.294122 1.580804 -0.005023 -0.912799
  time 1
    0 -0.349399 1.166145 0.203512 0.000000 0.000000 0.000000
    1 8.723248 2.105481 -7.648993 -1.673355 -1.235715 1.321519
    2 -0.071918 -8.498728 -0.104137 0.224198 0.039344 -0.394367
    3 1.174832 -4.813860 0.424332 0.032251 0.115277 -1.246542
    4 0.179597 0.367359 0.000000 0.000000 0.000000 -2.162045
    5 -2.154425 2.333505 0.000000 0.000000 0.000000 1.247079
    6 -1.932693 1.493402 0.000000 0.000000 0.000000 4.039569
    7 -1.869303 -0.329702 0.000000 0.000000 0.000000 -2.241561
    8 0.002374 0.002359 0.000000 0.000000 0.000000 0.000000
    9 33.020318 -2.805441 0.000000 0.000000 0.000000 0.000000
    10 1.257180 8.762585 -0.153713 -1.570562 0.002683 -1.566807
    11 -0.488518 -2.755602 -0.228260 -0.488456 0.067606 -0.177350
    12 0.039887 -1.479790 0.029854 -2.055215 0.000000 0.000001
    13 0.028786 -1.075731 -0.023109 -0.540998 0.000000 0.000000
    14 0.250027 -2.820665 -0.238396 -0.372673 0.065451 -0.123124
    15 -0.049759 -1.680544 0.100479 -2.030651 0.000000 -0.000002
    16 -0.034142 -1.148312 0.084782 -0.832785 0.000000 0.000000
    17 0.957766 -2.746780 -0.090302 0.280848 -0.004811 0.093967
    18 -0.033420 -1.397129 -0.011257 -1.030711 0.000000 -0.000001
    19 -0.022360 -0.957436 0.018784 -1.035524 -0.032982 -0.008353
    20 -1.180681 -2.507217 -0.193859 -0.266100 0.227303 -0.147320
    21 -0.024967 -1.123934 0.017597 -1.309973 0.000000 0.000001
    22 -0.020057 -0.890968 0.010090 -1.428613 0.000000 0.000000
    23 0.583510 -1.197277 0.185379 0.453370 -0.774262 -0.898358
    24 1.535927 0.010246 0.005009 -0.002964 -0.012979 -0.850464
    25 1.100771 0.004527 -0.010679 -0.013330 0.009226 -0.789520
    26 0.120153 -0.050270 -0.054489 0.287569 3.110905 1.561085
    27 0.444097 0.159530 -11.400069 0.986520 -4.025584 1.432491
    28 0.096944 -8.450418 -0.009365 0.645403 -1.447265 -0.049274
    29 0.447953 -2.798986 -0.200443 -0.949954 0.084282 0.421229
    30 -0.032909 -1.480204 0.004940 -1.124069 0.000000 0.000002
    31 -0.027022 -1.076920 -0.020210 -0.461569 0.000000 0.000000
    32 -0.249534 -2.846964 -0.174213 -0.632779 0.047286 0.373793
    33 0.043235 -1.683941 0.096012 -1.287532 0.002823 -0.000167
    34 0.031729 -1.160830 0.058838 -0.537658 0.000642 0.008372
    35 -0.963866 -2.785145 -0.085350 -0.592829 0.115248 0.261238
    36 0.028479 -1.403067 0.006271 -0.697209 0.000000 0.000000
    37 0.021413 -0.957781 0.020046 -1.149587 0.000000 0.000000
    38 1.164475 -2.543940 -0.170330 -1.155785 -0.073121 0.430228
    39 0.024032 -1.129042 0.017807 -1.006602 0.000000 0.000001
    40 0.014898 -0.883989 -0.019848 -0.425270 0.000000 0.000000
    41 -0.586770 -1.264477 0.200161 0.028461 -0.460687 -2.530234
    42 1.522835 0.058681 0.016848 0.001410 0.008985 0.623500
    43 1.117947 0.048424 -0.005766 -0.020437 -0.014747 1.002033
    44 -0.139399 -0.111698 0.014397 0.698803 0.130110 1.388802
    45 -6.260806 6.983652 -0.294122 1.580804 -0.005023 -0.912799
  time 2
    0 -0.349399 1.166145 0.203512 0.000000 0.000000 0.000000
    1 8.723248 3.281298 -7.648993 -1.673355 -1.235715 1.321519
    2 -0.071918 -8.498728 -0.104137 0.227115 -0.047677 -0.153477
    3 1.174832 -4.813860 0.424332 0.032251 0.115277 -1.246542
    4 0.179597 0.367359 0.000000 0.000000 0.000000 -2.158198
    5 -2.154425 2.333505 0.000000 0.000000 0.000000 1.247079
    6 -1.932693 1.493402 0.000000 0.000000 0.000000 4.039569
    7 -1.869303 -0.329702 0.000000 0.000000 0.000000 -2.241561
    8 0.002374 0.002359 0.000000 0.000000 0.000000 0.000000
    9 33.020318 -2.805441 0.000000 0.000000 0.000000 0.000000
    10 1.257180 8.762585 -0.153713 -1.570562 0.002683 -1.566807
    11 -0.488518 -2.755602 -0.228260 -0.488456 0.067606 -0.177350
    12 0.039887 -1.479790 0.029854 -2.055215 0.000000 0.000001
    13 0.028786 -1.075731 -0.023109 -0.540981 0.000000 0.000000
    14 0.250027 -2.820665 -0.238396 -0.372673 0.065451 -0.123124
    15 -0.049759 -1.680544 0.100479 -2.030651 0.000000 -0.000002
    16 -0.034142 -1.148312 0.084782 -0.832761 0.000000 0.000000
    17 0.957766 -2.746780 -0.090302 0.280848 -0.004811 0.093967
    18 -0.033420 -1.397129 -0.011257 -1.030711 0.000000 -0.000001
    19 -0.022360 -0.957436 0.018784 -1.035524 -0.032982 -0.008353
    20 -1.180681 -2.507217 -0.193859 -0.266100 0.227303 -0.147320
    21 -0.024967 -1.123934 0.017597 -1.309973 0.000000 0.000001
    22 -0.020057 -0.890968 0.010090 -1.428613 0.000000 0.000000
    23 0.583510 -1.197277 0.185379 0.453370 -0.774262 -0.898358
    24 1.535927 0.010246 0.005009 -0.002964 -0.012979 -0.850464
    25 1.100771 0.004527 -0.010679 -0.013330 0.009226 -0.789520
    26 0.120153 -0.050270 -0.054489 0.287569 3.110905 1.561085
    27 0.444097 -0.488928 -12.611043 1.029679 -3.771445 1.462436
    28 0.096944 -8.450418 -0.009365 0.645403 -1.447265 -0.049274
    29 0.447953 -2.798986 -0.200443 -0.949954 0.084282 0.421229
    30 -0.032909 -1.480204 0.004940 -1.124069 0.000000 0.000002
    31 -0.027022 -1.076920 -0.020210 -0.461569 0.000000 0.000000
    32 -0.249534 -2.846964 -0.174213 -0.632779 0.047286 0.373793
    33 0.043235 -1.683941 0.096012 -1.287532 0.002823 -0.000167
    34 0.031729 -1.160830 0.058838 -0.537658 0.000642 0.008372
    35 -0.963866 -2.785145 -0.085350 -0.592829 0.115248 0.261238
    36 0.028479 -1.403067 0.006271 -0.697209 0.000000 0.000000
    37 0.021413 -0.957781 0.020046 -1.149587 0.000000 0.000000
    38 1.164475 -2.543940 -0.170330 -1.155785 -0.073121 0.430228
    39 0.024032 -1.129042 0.017807 -1.006602 0.000000 0.000001
    40 0.014898 -0.883989 -0.019848 -0.425270 0.000000 0.000000
    41 -0.586770 -1.264477 0.200161 0.028461 -0.460687 -2.530234
    42 1.522835 0.058681 0.016848 0.001410 0.008985 0.623500
    43 1.117947 0.048424 -0.005766 -0.020437 -0.014747 1.002033
    44 -0.139399 -0.111698 0.014397 0.698803 0.130110 1.388802
    45 -6.260806 6.983652 -0.294122 1.580804 -0.005023 -0.912799
  time 3
    0 -0.349399 1.166145 0.203512 0.000000 0.000000 0.000000
    1 8.723248 3.070354 -7.281794 -1.650774 -1.262680 1.300070
    2 -0.071918 -8.498728 -0.104137 0.227297 -0.045435 -0.159687
    3 1.174832 -4.813860 0.424332 0.032251 0.115277 -1.246542
    4 0.179597 0.367359 0.000000 0.000000 0.000000 -2.147400
    5 -2.154425 2.333505 0.000000 0.000000 0.000000 1.247079
    6 -1.932693 1.493402 0.000000 0.000000 0.000000 4.039569
    7 -1.869303 -0.329702 0.000000 0.000000 0.000000 -2.241561
    8 0.002374 0.002359 0.000000 0.000000 0.000000 0.000000
    9 33.020318 -2.805441 0.000000 0.000000 0.000000 0.000000
    10 1.257180 8.762585 -0.153713 -1.570562 0.002683 -1.566807
    11 -0.488518 -2.755602 -0.228260 -0.488456 0.067606 -0.177350
    12 0.039887 -1.479790 0.029854 -2.055215 0.000000 0.000001
    13 0.028786 -1.075731 -0.023109 -0.540998 0.000000 0.000000
    14 0.250027 -2.820665 -0.238396 -0.372673 0.065451 -0.123124
    15 -0.049759 -1.680544 0.100479 -2.030651 0.000000 -0.000002
    16 -0.034142 -1.148312 0.084782 -0.832761 0.000000 0.000000
    17 0.957766 -2.746780 -0.090302 0.280848 -0.004811 0.093967
    18 -0.033420 -1.397129 -0.011257 -1.030711 0.000000 -0.000001
    19 -0.022360 -0.957436 0.018784 -1.035524 -0.032982 -0.008353
    20 -1.180681 -2.507217 -0.193859 -0.266100 0.227303 -0.147320
    21 -0.024967 -1.123934 0.017597 -1.309973 0.000000 0.000001
    22 -0.020057 -0.890968 0.010090 -1.428613 0.000000 0.000000
    23 0.583510 -1.197277 0.185379 0.453370 -0.774262 -0.898358
    24 1.535927 0.010246 0.005009 -0.002964 -0.012979 -0.850464
    25 1.100771 0.004527 -0.010679 -0.013330 0.009226 -0.789520
    26 0.120153 -0.050270 -0.054489 0.287569 3.110905 1.561085
    27 0.444097 -0.508459 -12.329785 1.024984 -3.805718 1.459575
    28 0.096944 -8.450418 -0.009365 0.645403 -1.447265 -0.049274
    29 0.447953 -2.798986 -0.200443 -0.949954 0.084282 0.421229
    30 -0.032909 -1.480204 0.004940 -1.124069 0.000000 0.000002
    31 -0.027022 -1.076920 -0.020210 -0.461569 0.000000 0.000000
    32 -0.249534 -2.846964 -0.174213 -0.632779 0.047286 0.373793
    33 0.043235 -1.683941 0.096012 -1.287532 0.002823 -0.000167
    34 0.031729 -1.160830 0.058838 -0.537658 0.000642 0.008372
    35 -0.963866 -2.785145 -0.085350 -0.592829 0.115248 0.261238
    36 0.028479 -1.403067 0.006271 -0.697209 0.000000 0.000000
    37 0.021413 -0.957781 0.020046 -1.149587 0.000000 0.000000
    38 1.164475 -2.543940 -0.170330 -1.155785 -0.073121 0.430228
    39 0.024032 -1.129042 0.017807 -1.006602 0.000000 0.000001
    40 0.014898 -0.883989 -0.019848 -0.425270 0.000000 0.000000
    41 -0.586770 -1.264477 0.200161 0.028461 -0.460687 -2.530234
    42 1.522835 0.058681 0.016848 0.001410 0.008985 0.623500
    43 1.117947 0.048424 -0.005766 -0.020437 -0.014747 1.002033
    44 -0.139399 -0.111698 0.014397 0.698803 0.130110 1.388802
    45 -6.260806 6.983652 -0.294122 1.580804 -0.005023 -0.912799
  time 4
    0 -0.349399 1.166145 0.203512 0.000000 0.000000 0.000000
    1 8.723248 2.605496 -6.863812 -1.618971 -1.293817 1.269676
    2 -0.071918 -8.498728 -0.104137 0.228335 -0.026524 -0.211965
    3 1.174832 -4.813860 0.424332 0.032251 0.115277 -1.246542
    4 0.179597 0.367359 0.000000 0.000000 0.000000 -2.130789
    5 -2.154425 2.333505 0.000000 0.000000 0.000000 1.247079
    6 -1.932693 1.493402 0.000000 0.000000 0.000000 4.039569
    7 -1.869303 -0.329702 0.000000 0.000000 0.000000 -2.241561
    8 0.002374 0.002359 0.000000 0.000000 0.000000 0.000000
    9 33.020318 -2.805441 0.000000 0.000000 0.000000 0.000000
    10 1.257180 8.762585 -0.153713 -1.570562 0.002683 -1.566807
    11 -0.488518 -2.755602 -0.228260 -0.488456 0.067606 -0.177350
    12 0.039887 -1.479790 0.029854 -2.055215 0.000000 0.000001
    13 0.028786 -1.075731 -0.023109 -0.540998 0.000000 0.000000
    14 0.250027 -2.820665 -0.238396 -0.372673 0.065451 -0.123124
    15 -0.049759 -1.680544 0.100479 -2.030651 0.000000 -0.000002
    16 -0.034142 -1.148312 0.084782 -0.832785 0.000000 0.000000
    17 0.957766 -2.746780 -0.090302 0.280848 -0.004811 0.093967
    18 -0.033420 -1.397129 -0.011257 -1.008713 0.000000 -0.000001
    19 -0.022360 -0.957436 0.018784 -1.013479 -0.032982 -0.008353
    20 -1.180681 -2.507217 -0.193859 -0.266100 0.227303 -0.147320
    21 -0.024967 -1.123934 0.017597 -1.309973 0.000000 0.000001
    22 -0.020057 -0.890968 0.010090 -1.428613 0.000000 0.000000
    23 0.583510 -1.197277 0.185379 0.453370 -0.774262 -0.898358
    24 1.535927 0.010246 0.005009 -0.002964 -0.012979 -0.850464
    25 1.100771 0.004527 -0.010679 -0.013330 0.009226 -0.789520
    26 0.120153 -0.050270 -0.054489 0.287569 3.110905 1.561085
    27 0.444097 -0.402987 -11.771174 1.011621 -3.893149 1.450897
    28 0.096944 -8.450418 -0.009365 0.645403 -1.447265 -0.049274
    29 0.447953 -2.798986 -0.200443 -0.949954 0.084282 0.421229
    30 -0.032909 -1.480204 0.004940 -1.124069 0.000000 0.000002
    31 -0.027022 -1.076920 -0.020210 -0.461569 0.000000 0.000000
    32 -0.249534 -2.846964 -0.174213 -0.632779 0.047286 0.373793
    33 0.043235 -1.683941 0.096012 -1.287532 0.002823 -0.000167
    34 0.031729 -1.160830 0.058838 -0.537658 0.000642 0.008372
    35 -0.963866 -2.785145 -0.085350 -0.592829 0.115248 0.261238
    36 0.028479 -1.403067 0.006271 -0.697209 0.000000 0.000000
    37 0.021413 -0.957781 0.020046 -1.149587 0.000000 0.000000
    38 1.164475 -2.543940 -0.170330 -1.155785 -0.073121 0.430228
    39 0.024032 -1.129042 0.017807 -1.006602 0.000000 0.000001
    40 0.014898 -0.883989 -0.019848 -0.425270 0.000000 0.000000
    41 -0.586770 -1.264477 0.200161 0.028461 -0.460687 -2.530234
    42 1.522835 0.058681 0.016848 0.001410 0.008985 0.623500
    43 1.117947 0.048424 -0.005766 -0.020437 -0.014747 1.002033
    44 -0.139399 -0.111698 0.014397 0.698803 0.130110 1.388802
    45 -6.260806 6.983652 -0.294122 1.580804 -0.005023 -0.912799
  time 5
    0 -0.349399 1.166145 0.203512 0.000000 0.000000 0.000000
    1 8.723248 2.222672 -6.625524 -1.595010 -1.313376 1.246489
    2 -0.071918 -8.498728 -0.104137 0.228405 -0.009098 -0.260067
    3 1.174832 -4.813860 0.424332 0.032251 0.115277 -1.246542
    4 0.179597 0.367359 0.000000 0.000000 0.000000 -2.109505
    5 -2.154425 2.333505 0.000000 0.000000 0.000000 1.247079
    6 -1.932693 1.493402 0.000000 0.000000 0.000000 4.039569
    7 -1.869303 -0.329702 0.000000 0.000000 0.000000 -2.241561
    8 0.002374 0.002359 0.000000 0.000000 0.000000 0.000000
    9 33.020318 -2.805441 0.000000 0.000000 0.000000 0.000000
    10 1.257180 8.762585 -0.153713 -1.570562 0.002683 -1.566807
    11 -0.488518 -2.755602 -0.228260 -0.488456 0.067606 -0.177350
    12 0.039887 -1.479790 0.029854 -2.055215 0.000000 0.000001
    13 0.028786 -1.075731 -0.023109 -0.540998 0.000000 0.000000
    14 0.250027 -2.820665 -0.238396 -0.372673 0.065451 -0.123124
    15 -0.049759 -1.680544 0.100479 -2.030651 0.000000 -0.000002
    16 -0.034142 -1.148312 0.084782 -0.832761 0.000000 0.000000
    17 0.957766 -2.746780 -0.090302 0.280848 -0.004811 0.093967
    18 -0.033420 -1.397129 -0.011257 -0.956174 0.000000 -0.000001
    19 -0.022360 -0.957436 0.018784 -0.960953 -0.032982 -0.008353
    20 -1.180681 -2.507217 -0.193859 -0.266100 0.227303 -0.147320
    21 -0.024967 -1.123934 0.017597 -1.309973 0.000000 0.000001
    22 -0.020057 -0.890968 0.010090 -1.428613 0.000000 0.000000
    23 0.583510 -1.197277 0.185379 0.453370 -0.774262 -0.898358
    24 1.535927 0.010246 0.005009 -0.002964 -0.012979 -0.850464
    25 1.100771 0.004527 -0.010679 -0.013330 0.009226 -0.789520
    26 0.120153 -0.050270 -0.054489 0.287569 3.110905 1.561085
    27 0.444097 -0.332673 -11.337567 0.999040 -3.964357 1.441932
    28 0.096944 -8.450418 -0.009365 0.645403 -1.447265 -0.049274
    29 0.447953 -2.798986 -0.200443 -0.949954 0.084282 0.421229
    30 -0.032909 -1.480204 0.004940 -1.124069 0.000000 0.000002
    31 -0.027022 -1.076920 -0.020210 -0.461569 0.000000 0.000000
    32 -0.249534 -2.846964 -0.174213 -0.632779 0.047286 0.373793
    33 0.043235 -1.683941 0.096012 -1.287532 0.002823 -0.000167
    34 0.031729 -1.160830 0.058838 -0.537658 0.000642 0.008372
    35 -0.963866 -2.785145 -0.085350 -0.592829 0.115248 0.261238
    36 0.028479 -1.403067 0.006271 -0.697209 0.000000 0.000000
    37 0.021413 -0.957781 0.020046 -1.149587 0.000000 0.000000
    38 1.164475 -2.543940 -0.170330 -1.155785 -0.073121 0.430228
    39 0.024032 -1.129042 0.017807 -1.006602 0.000000 0.000001
    40 0.014898 -0.883989 -0.019848 -0.425270 0.000000 0.000000
    41 -0.586770 -1.264477 0.200161 0.028461 -0.460687 -2.530234
    42 1.522835 0.058681 0.016848 0.001410 0.008985 0.623500
    43 1.117947 0.048424 -0.005766 -0.020437 -0.014747 1.002033
    44 -0.139399 -0.111698 0.014397 0.698803 0.130110 1.388802
    45 -6.260806 6.983652 -0.294122 1.580804 -0.005023 -0.912799
  time 6
    0 -0.349399 1.166145 0.203512 0.000000 0.000000 0.000000
    1 8.723248 2.007822 -6.613805 -1.587340 -1.319057 1.239021
    2 -0.071918 -8.498728 -0.104137 0.228040 0.001784 -0.290392
    3 1.174832 -4.813860 0.424332 0.032251 0.115277 -1.246542
    4 0.179597 0.367359 0.000000 0.000000 0.000000 -2.084673
    5 -2.154425 2.333505 0.000000 0.000000 0.000000 1.247079
    6 -1.932693 1.493402 0.000000 0.000000 0.000000 4.039569
    7 -1.869303 -0.329702 0.000000 0.000000 0.000000 -2.241561
    8 0.002374 0.002359 0.000000 0.000000 0.000000 0.000000
    9 33.020318 -2.805441 0.000000 0.000000 0.000000 0.000000
    10 1.257180 8.762585 -0.153713 -1.570562 0.002683 -1.566807
    11 -0.488518 -2.755602 -0.228260 -0.488456 0.067606 -0.177350
    12 0.039887 -1.479790 0.029854 -2.055215 0.000000 0.000001
    13 0.028786 -1.075731 -0.023109 -0.540998 0.000000 0.000000
    14 0.250027 -2.820665 -0.238396 -0.372673 0.065451 -0.123124
    15 -0.049759 -1.680544 0.100479 -2.030651 0.000000 -0.000002
    16 -0.034142 -1.148312 0.084782 -0.832761 0.000000 0.000000
    17 0.957766 -2.746780 -0.090302 0.280848 -0.004811 0.093967
    18 -0.033420 -1.397129 -0.011257 -0.893496 0.000000 -0.000001
    19 -0.022360 -0.957436 0.018784 -0.898276 -0.032982 -0.008353
    20 -1.180681 -2.507217 -0.193859 -0.266100 0.227303 -0.147320
    21 -0.024967 -1.123934 0.017597 -1.309973 0.000000 0.000001
    22 -0.020057 -0.890968 0.010090 -1.428613 0.000000 0.000000
    23 0.583510 -1.197277 0.185379 0.453370 -0.774262 -0.898358
    24 1.535927 0.010246 0.005009 -0.002964 -0.012979 -0.850464
    25 1.100771 0.004527 -0.010679 -0.013330 0.009226 -0.789520
    26 0.120153 -0.050270 -0.054489 0.287569 3.110905 1.561085
    27 0.444097 -0.301422 -11.169593 0.991636 -4.002291 1.436496
    28 0.096944 -8.450418 -0.009365 0.645403 -1.447265 -0.049274
    29 0.447953 -2.798986 -0.200443 -0.949954 0.084282 0.421229
    30 -0.032909 -1.480204 0.004940 -1.124069 0.000000 0.000002
    31 -0.027022 -1.076920 -0.020210 -0.461569 0.000000 0.000000
    32 -0.249534 -2.846964 -0.174213 -0.632779 0.047286 0.373793
    33 0.043235 -1.683941 0.096012 -1.287532 0.002823 -0.000167
    34 0.031729 -1.160830 0.058838 -0.537658 0.000642 0.008372
    35 -0.963866 -2.785145 -0.085350 -0.592829 0.115248 0.261238
    36 0.028479 -1.403067 0.006271 -0.697209 0.000000 0.000000
    37 0.021413 -0.957781 0.020046 -1.149587 0.000000 0.000000
    38 1.164475 -2.543940 -0.170330 -1.155785 -0.073121 0.430228
    39 0.024032 -1.129042 0.017807 -1.006602 0.000000 0.000001
    40 0.014898 -0.883989 -0.019848 -0.425270 0.000000 0.000000
    41 -0.586770 -1.264477 0.200161 0.028461 -0.460687 -2.530234
    42 1.522835 0.058681 0.016848 0.001410 0.008985 0.623500
    43 1.117947 0.048424 -0.005766 -0.020437 -0.014747 1.002033
    44 -0.139399 -0.111698 0.014397 0.698803 0.130110 1.388802
    45 -6.260806 6.983652 -0.294122 1.580804 -0.005023 -0.912799
  time 7
    0 -0.349399 1.166145 0.203512 0.000000 0.000000 0.000000
    1 8.723248 1.828129 -6.691932 -1.586478 -1.319632 1.238326
    2 -0.071918 -8.498728 -0.104137 0.227367 0.012282 -0.319844
    3 1.174832 -4.813860 0.424332 0.032251 0.115277 -1.246542
    4 0.179597 0.367359 0.000000 0.000000 0.000000 -2.057444
    5 -2.154425 2.333505 0.000000 0.000000 0.000000 1.247079
    6 -1.932693 1.493402 0.000000 0.000000 0.000000 4.039569
    7 -1.869303 -0.329702 0.000000 0.000000 0.000000 -2.241561
    8 0.002374 0.002359 0.000000 0.000000 0.000000 0.000000
    9 33.020318 -2.805441 0.000000 0.000000 0.000000 0.000000
    10 1.257180 8.762585 -0.153713 -1.570562 0.002683 -1.566807
    11 -0.488518 -2.755602 -0.228260 -0.488456 0.067606 -0.177350
    12 0.039887 -1.479790 0.029854 -2.055215 0.000000 0.000001
    13 0.028786 -1.075731 -0.023109 -0.540998 0.000000 0.000000
    14 0.250027 -2.820665 -0.238396 -0.372673 0.065451 -0.123124
    15 -0.049759 -1.680544 0.100479 -2.030651 0.000000 -0.000002
    16 -0.034142 -1.148312 0.084782 -0.832761 0.000000 0.000000
    17 0.957766 -2.746780 -0.090302 0.280848 -0.004811 0.093967
    18 -0.033420 -1.397129 -0.011257 -0.840988 0.000000 -0.000001
    19 -0.022360 -0.957436 0.018784 -0.845781 -0.032982 -0.008353
    20 -1.180681 -2.507217 -0.193859 -0.266100 0.227303 -0.147320
    21 -0.024967 -1.123934 0.017597 -1.309973 0.000000 0.000001
    22 -0.020057 -0.890968 0.010090 -1.428613 0.000000 0.000000
    23 0.583510 -1.197277 0.185379 0.453370 -0.774262 -0.898358
    24 1.535927 0.010246 0.005009 -0.002964 -0.012979 -0.850464
    25 1.100771 0.004527 -0.010679 -0.013330 0.009226 -0.789520
    26 0.120153 -0.050270 -0.054489 0.287569 3.110905 1.561085
    27 0.444097 -0.274077 -11.071934 0.985075 -4.033902 1.431442
    28 0.096944 -8.450418 -0.009365 0.645403 -1.447265 -0.049274
    29 0.447953 -2.798986 -0.200443 -0.949954 0.084282 0.421229
    30 -0.032909 -1.480204 0.004940 -1.124069 0.000000 0.000002
    31 -0.027022 -1.076920 -0.020210 -0.461569 0.000000 0.000000
    32 -0.249534 -2.846964 -0.174213 -0.632779 0.047286 0.373793
    33 0.043235 -1.683941 0.096012 -1.287532 0.002823 -0.000167
    34 0.031729 -1.160830 0.058838 -0.537658 0.000642 0.008372
    35 -0.963866 -2.785145 -0.085350 -0.592829 0.115248 0.261238
    36 0.028479 -1.403067 0.006271 -0.697209 0.000000 0.000000
    37 0.021413 -0.957781 0.020046 -1.149587 0.000000 0.000000
    38 1.164475 -2.543940 -0.170330 -1.155785 -0.073121 0.430228
    39 0.024032 -1.129042 0.017807 -1.006602 0.000000 0.000001
    40 0.014898 -0.883989 -0.019848 -0.425270 0.000000 0.000000
    41 -0.586770 -1.264477 0.200161 0.028461 -0.460687 -2.530234
    42 1.522835 0.058681 0.016848 0.001410 0.008985 0.623500
    43 1.117947 0.048424 -0.005766 -0.020437 -0.014747 1.002033
    44 -0.139399 -0.111698 0.014397 0.698803 0.130110 1.388802
    45 -6.260806 6.983652 -0.294122 1.580804 -0.005023 -0.912799
  time 8
    0 -0.349399 1.166145 0.203512 0.000000 0.000000 0.000000
    1 8.723248 1.675781 -6.820842 -1.590529 -1.316756 1.242147
    2 -0.071918 -8.498728 -0.104137 0.226568 0.020971 -0.344031
    3 1.174832 -4.813860 0.424332 0.032251 0.115277 -1.246542
    4 0.179597 0.367359 0.000000 0.000000 0.000000 -2.028920
    5 -2.154425 2.333505 0.000000 0.000000 0.000000 1.247079
    6 -1.932693 1.493402 0.000000 0.000000 0.000000 4.039569
    7 -1.869303 -0.329702 0.000000 0.000000 0.000000 -2.241561
    8 0.002374 0.002359 0.000000 0.000000 0.000000 0.000000
    9 33.020318 -2.805441 0.000000 0.000000 0.000000 0.000000
    10 1.257180 8.762585 -0.153713 -1.570562 0.002683 -1.566807
    11 -0.488518 -2.755602 -0.228260 -0.488456 0.067606 -0.177350
    12 0.039887 -1.479790 0.029854 -2.055215 0.000000 0.000001
    13 0.028786 -1.075731 -0.023109 -0.540998 0.000000 0.000000
    14 0.250027 -2.820665 -0.238396 -0.372673 0.065451 -0.123124
    15 -0.049759 -1.680544 0.100479 -2.030651 0.000000 -0.000002
    16 -0.034142 -1.148312 0.084782 -0.832761 0.000000 0.000000
    17 0.957766 -2.746780 -0.090302 0.280848 -0.004811 0.093967
    18 -0.033420 -1.397129 -0.011257 -0.818958 0.000000 -0.000001
    19 -0.022360 -0.957436 0.018784 -0.823736 -0.032982 -0.008353
    20 -1.180681 -2.507217 -0.193859 -0.266100 0.227303 -0.147320
    21 -0.024967 -1.123934 0.017597 -1.309973 0.000000 0.000001
    22 -0.020057 -0.890968 0.010090 -1.428613 0.000000 0.000000
    23 0.583510 -1.197277 0.185379 0.453370 -0.774262 -0.898358
    24 1.535927 0.010246 0.005009 -0.002964 -0.012979 -0.850464
    25 1.100771 0.004527 -0.010679 -0.013330 0.009226 -0.789520
    26 0.120153 -0.050270 -0.054489 0.287569 3.110905 1.561085
    27 0.444097 -0.277984 -11.048495 0.979959 -4.056280 1.427436
    28 0.096944 -8.450418 -0.009365 0.645403 -1.447265 -0.049274
    29 0.447953 -2.798986 -0.200443 -0.949954 0.084282 0.421229
    30 -0.032909 -1.480204 0.004940 -1.124069 0.000000 0.000002
    31 -0.027022 -1.076920 -0.020210 -0.461569 0.000000 0.000000
    32 -0.249534 -2.846964 -0.174213 -0.632779 0.047286 0.373793
    33 0.043235 -1.683941 0.096012 -1.287532 0.002823 -0.000167
    34 0.031729 -1.160830 0.058838 -0.537658 0.000642 0.008372
    35 -0.963866 -2.785145 -0.085350 -0.592829 0.115248 0.261238
    36 0.028479 -1.403067 0.006271 -0.697209 0.000000 0.000000
    37 0.021413 -0.957781 0.020046 -1.149587 0.000000 0.000000
    38 1.164475 -2.543940 -0.170330 -1.155785 -0.073121 0.430228
    39 0.024032 -1.129042 0.017807 -1.006602 0.000000 0.000001
    40 0.014898 -0.883989 -0.019848 -0.425270 0.000000 0.000000
    41 -0.586770 -1.264477 0.200161 0.028461 -0.460687 -2.530234
    42 1.522835 0.058681 0.016848 0.001410 0.008985 0.623500
    43 1.117947 0.048424 -0.005766 -0.020437 -0.014747 1.002033
    44 -0.139399 -0.111698 0.014397 0.698803 0.130110 1.388802
    45 -6.260806 6.983652 -0.294122 1.580804 -0.005023 -0.912799
  time 9
    0 -0.349399 1.166145 0.203512 0.000000 0.000000 0.000000
    1 8.723248 1.542964 -6.981003 -1.596993 -1.311866 1.248400
    2 -0.071918 -8.498728 -0.104137 0.225951 0.026460 -0.358467
    3 1.174832 -4.813860 0.424332 0.032251 0.115277 -1.246542
    4 0.179597 0.367359 0.000000 0.000000 0.000000 -2.000265
    5 -2.154425 2.333505 0.000000 0.000000 0.000000 1.247079
    6 -1.932693 1.493402 0.000000 0.000000 0.000000 4.039569
    7 -1.869303 -0.329702 0.000000 0.000000 0.000000 -2.241561
    8 0.002374 0.002359 0.000000 0.000000 0.000000 0.000000
    9 33.020318 -2.805441 0.000000 0.000000 0.000000 0.000000
    10 1.257180 8.762585 -0.153713 -1.570562 0.002683 -1.566807
    11 -0.488518 -2.755602 -0.228260 -0.488456 0.067606 -0.177350
    12 0.039887 -1.479790 0.029854 -2.055215 0.000000 0.000001
    13 0.028786 -1.075731 -0.023109 -0.540981 0.000000 0.000000
    14 0.250027 -2.820665 -0.238396 -0.372673 0.065451 -0.123124
    15 -0.049759 -1.680544 0.100479 -2.030651 0.000000 -0.000002
    16 -0.034142 -1.148312 0.084782 -0.832785 0.000000 0.000000
    17 0.957766 -2.746780 -0.090302 0.280848 -0.004811 0.093967
    18 -0.033420 -1.397129 -0.011257 -0.818958 0.000000 -0.000001
    19 -0.022360 -0.957436 0.018784 -0.823736 -0.032982 -0.008353
    20 -1.180681 -2.507217 -0.193859 -0.266100 0.227303 -0.147320
    21 -0.024967 -1.123934 0.017597 -1.309973 0.000000 0.000001
    22 -0.020057 -0.890968 0.010090 -1.428613 0.000000 0.000000
    23 0.583510 -1.197277 0.185379 0.453370 -0.774262 -0.898358
    24 1.535927 0.010246 0.005009 -0.002964 -0.012979 -0.850464
    25 1.100771 0.004527 -0.010679 -0.013330 0.009226 -0.789520
    26 0.120153 -0.050270 -0.054489 0.287569 3.110905 1.561085
    27 0.444097 -0.332673 -11.107091 0.977069 -4.066429 1.425147
    28 0.096944 -8.450418 -0.009365 0.645403 -1.447265 -0.049274
    29 0.447953 -2.798986 -0.200443 -0.949954 0.084282 0.421229
    30 -0.032909 -1.480204 0.004940 -1.124069 0.000000 0.000002
    31 -0.027022 -1.076920 -0.020210 -0.461569 0.000000 0.000000
    32 -0.249534 -2.846964 -0.174213 -0.632779 0.047286 0.373793
    33 0.043235 -1.683941 0.096012 -1.287532 0.002823 -0.000167
    34 0.031729 -1.160830 0.058838 -0.537658 0.000642 0.008372
    35 -0.963866 -2.785145 -0.085350 -0.592829 0.115248 0.261238
    36 0.028479 -1.403067 0.006271 -0.697209 0.000000 0.000000
    37 0.021413 -0.957781 0.020046 -1.149587 0.000000 0.000000
    38 1.164475 -2.543940 -0.170330 -1.155785 -0.073121 0.430228
    39 0.024032 -1.129042 0.017807 -1.006602 0.000000 0.000001
    40 0.014898 -0.883989 -0.019848 -0.425270 0.000000 0.000000
    41 -0.586770 -1.264477 0.200161 0.028461 -0.460687 -2.530234
    42 1.522835 0.058681 0.016848 0.001410 0.008985 0.623500
    43 1.117947 0.048424 -0.005766 -0.020437 -0.014747 1.002033
    44 -0.139399 -0.111698 0.014397 0.698803 0.130110 1.388802
    45 -6.260806 6.983652 -0.294122 1.580804 -0.005023 -0.912799
  time 10
    0 -0.349399 1.166145 0.203512 0.000000 0.000000 0.000000
    1 8.723248 1.425773 -7.133352 -1.603543 -1.306760 1.254739
    2 -0.071918 -8.498728 -0.104137 0.225993 0.025909 -0.353365
    3 1.174832 -4.813860 0.424332 0.032251 0.115277 -1.246542
    4 0.179597 0.367359 0.000000 0.000000 0.000000 -1.972593
    5 -2.154425 2.333505 0.000000 0.000000 0.000000 1.247079
    6 -1.932693 1.493402 0.000000 0.000000 0.000000 4.039569
    7 -1.869303 -0.329702 0.000000 0.000000 0.000000 -2.241561
    8 0.002374 0.002359 0.000000 0.000000 0.000000 0.000000
    9 33.020318 -2.805441 0.000000 0.000000 0.000000 0.000000
    10 1.257180 8.762585 -0.153713 -1.570562 0.002683 -1.566807
    11 -0.488518 -2.755602 -0.228260 -0.488456 0.067606 -0.177350
    12 0.039887 -1.479790 0.029854 -2.055215 0.000000 0.000001
    13 0.028786 -1.075731 -0.023109 -0.540981 0.000000 0.000000
    14 0.250027 -2.820665 -0.238396 -0.372673 0.065451 -0.123124
    15 -0.049759 -1.680544 0.100479 -2.030651 0.000000 -0.000002
    16 -0.034142 -1.148312 0.084782 -0.832761 0.000000 0.000000
    17 0.957766 -2.746780 -0.090302 0.280848 -0.004811 0.093967
    18 -0.033420 -1.397129 -0.011257 -0.818958 0.000000 -0.000001
    19 -0.022360 -0.957436 0.018784 -0.823736 -0.032982 -0.008353
    20 -1.180681 -2.507217 -0.193859 -0.266100 0.227303 -0.147320
    21 -0.024967 -1.123934 0.017597 -1.309973 0.000000 0.000001
    22 -0.020057 -0.890968 0.010090 -1.428613 0.000000 0.000000
    23 0.583510 -1.197277 0.185379 0.453370 -0.774262 -0.898358
    24 1.535927 0.010246 0.005009 -0.002964 -0.012979 -0.850464
    25 1.100771 0.004527 -0.010679 -0.013330 0.009226 -0.789520
    26 0.120153 -0.050270 -0.054489 0.287569 3.110905 1.561085
    27 0.436284 -0.504553 -11.271158 0.977551 -4.056030 1.425434
    28 0.096944 -8.450418 -0.009365 0.645403 -1.447265 -0.049274
    29 0.447953 -2.798986 -0.200443 -0.949954 0.084282 0.421229
    30 -0.032909 -1.480204 0.004940 -1.124069 0.000000 0.000002
    31 -0.027022 -1.076920 -0.020210 -0.461569 0.000000 0.000000
    32 -0.249534 -2.846964 -0.174213 -0.632779 0.047286 0.373793
    33 0.043235 -1.683941 0.096012 -1.287532 0.002823 -0.000167
    34 0.031729 -1.160830 0.058838 -0.537658 0.000642 0.008372
    35 -0.963866 -2.785145 -0.085350 -0.592829 0.115248 0.261238
    36 0.028479 -1.403067 0.006271 -0.697209 0.000000 0.000000
    37 0.021413 -0.957781 0.020046 -1.149587 0.000000 0.000000
    38 1.164475 -2.543940 -0.170330 -1.155785 -0.073121 0.430228
    39 0.024032 -1.129042 0.017807 -1.006602 0.000000 0.000001
    40 0.014898 -0.883989 -0.019848 -0.425270 0.000000 0.000000
    41 -0.586770 -1.264477 0.200161 0.028461 -0.460687 -2.530234
    42 1.522835 0.058681 0.016848 0.001410 0.008985 0.623500
    43 1.117947 0.048424 -0.005766 -0.020437 -0.014747 1.002033
    44 -0.139399 -0.111698 0.014397 0.698803 0.130110 1.388802
    45 -6.260806 6.983652 -0.294122 1.580804 -0.005023 -0.912799
  time 11
    0 -0.349399 1.166145 0.203512 0.000000 0.000000 0.000000
    1 8.723248 1.394522 -7.383359 -1.611041 -1.300576 1.262034
    2 -0.071918 -8.498728 -0.104137 0.226526 0.020516 -0.333554
    3 1.174832 -4.813860 0.424332 0.032251 0.115277 -1.246542
    4 0.179597 0.367359 0.000000 0.000000 0.000000 -1.947053
    5 -2.154425 2.333505 0.000000 0.000000 0.000000 1.247079
    6 -1.932693 1.493402 0.000000 0.000000 0.000000 4.039569
    7 -1.869303 -0.329702 0.000000 0.000000 0.000000 -2.241561
    8 0.002374 0.002359 0.000000 0.000000 0.000000 0.000000
    9 33.020318 -2.805441 0.000000 0.000000 0.000000 0.000000
    10 1.257180 8.762585 -0.153713 -1.570562 0.002683 -1.566807
    11 -0.488518 -2.755602 -0.228260 -0.488456 0.067606 -0.177350
    12 0.039887 -1.479790 0.029854 -2.055215 0.000000 0.000001
    13 0.028786 -1.075731 -0.023109 -0.540981 0.000000 0.000000
    14 0.250027 -2.820665 -0.238396 -0.372673 0.065451 -0.123124
    15 -0.049759 -1.680544 0.100479 -2.030651 0.000000 -0.000002
    16 -0.034142 -1.148312 0.084782 -0.832761 0.000000 0.000000
    17 0.957766 -2.746780 -0.090302 0.280848 -0.004811 0.093967
    18 -0.033420 -1.397129 -0.011257 -0.818958 0.000000 -0.000001
    19 -0.022360 -0.957436 0.018784 -0.823736 -0.032982 -0.008353
    20 -1.180681 -2.507217 -0.193859 -0.266100 0.227303 -0.147320
    21 -0.024967 -1.123934 0.017597 -1.309973 0.000000 0.000001
    22 -0.020057 -0.890968 0.010090 -1.428613 0.000000 0.000000
    23 0.583510 -1.197277 0.185379 0.453370 -0.774262 -0.898358
    24 1.535927 0.010246 0.005009 -0.002964 -0.012979 -0.850464
    25 1.100771 0.004527 -0.010679 -0.013330 0.009226 -0.789520
    26 0.120153 -0.050270 -0.054489 0.287569 3.110905 1.561085
    27 0.424565 -0.692059 -11.618825 0.981163 -4.029077 1.428199
    28 0.096944 -8.450418 -0.009365 0.645403 -1.447265 -0.049274
    29 0.447953 -2.798986 -0.200443 -0.949954 0.084282 0.421229
    30 -0.032909 -1.480204 0.004940 -1.124069 0.000000 0.000002
    31 -0.027022 -1.076920 -0.020210 -0.461569 0.000000 0.000000
    32 -0.249534 -2.846964 -0.174213 -0.632779 0.047286 0.373793
    33 0.043235 -1.683941 0.096012 -1.287532 0.002823 -0.000167
    34 0.031729 -1.160830 0.058838 -0.537658 0.000642 0.008372
    35 -0.963866 -2.785145 -0.085350 -0.592829 0.115248 0.261238
    36 0.028479 -1.403067 0.006271 -0.697209 0.000000 0.000000
    37 0.021413 -0.957781 0.020046 -1.149587 0.000000 0.000000
    38 1.164475 -2.543940 -0.170330 -1.155785 -0.073121 0.430228
    39 0.024032 -1.129042 0.017807 -1.006602 0.000000 0.000001
    40 0.014898 -0.883989 -0.019848 -0.425270 0.000000 0.000000
    41 -0.586770 -1.264477 0.200161 0.028461 -0.460687 -2.530234
    42 1.522835 0.058681 0.016848 0.001410 0.008985 0.623500
    43 1.117947 0.048424 -0.005766 -0.020437 -0.014747 1.002033
    44 -0.139399 -0.111698 0.014397 0.698803 0.130110 1.388802
    45 -6.260806 6.983652 -0.294122 1.580804 -0.005023 -0.912799
  time 12
    0 -0.349399 1.166145 0.203512 0.000000 0.000000 0.000000
    1 8.723248 1.445305 -7.609929 -1.620608 -1.292307 1.271239
    2 -0.071918 -8.498728 -0.104137 0.227017 0.014919 -0.316540
    3 1.174832 -4.813860 0.424332 0.032251 0.115277 -1.246542
    4 0.179597 0.367359 0.000000 0.000000 0.000000 -1.924762
    5 -2.154425 2.333505 0.000000 0.000000 0.000000 1.247079
    6 -1.932693 1.493402 0.000000 0.000000 0.000000 4.039569
    7 -1.869303 -0.329702 0.000000 0.000000 0.000000 -2.241561
    8 0.002374 0.002359 0.000000 0.000000 0.000000 0.000000
    9 33.020318 -2.805441 0.000000 0.000000 0.000000 0.000000
    10 1.257180 8.762585 -0.153713 -1.570562 0.002683 -1.566807
    11 -0.488518 -2.755602 -0.228260 -0.488456 0.067606 -0.177350
    12 0.039887 -1.479790 0.029854 -2.055215 0.000000 0.000001
    13 0.028786 -1.075731 -0.023109 -0.540981 0.000000 0.000000
    14 0.250027 -2.820665 -0.238396 -0.372673 0.065451 -0.123124
    15 -0.049759 -1.680544 0.100479 -2.030651 0.000000 -0.000002
    16 -0.034142 -1.148312 0.084782 -0.832785 0.000000 0.000000
    17 0.957766 -2.746780 -0.090302 0.280848 -0.004811 0.093967
    18 -0.033420 -1.397129 -0.011257 -0.818958 0.000000 -0.000001
    19 -0.022360 -0.957436 0.018784 -0.823736 -0.032982 -0.008353
    20 -1.180681 -2.507217 -0.193859 -0.266100 0.227303 -0.147320
    21 -0.024967 -1.123934 0.017597 -1.309973 0.000000 0.000001
    22 -0.020057 -0.890968 0.010090 -1.428613 0.000000 0.000000
    23 0.583510 -1.197277 0.185379 0.453370 -0.774262 -0.898358
    24 1.535927 0.010246 0.005009 -0.002964 -0.012979 -0.850464
    25 1.100771 0.004527 -0.010679 -0.013330 0.009226 -0.789520
    26 0.120153 -0.050270 -0.054489 0.287569 3.110905 1.561085
    27 0.420658 -0.793624 -11.923522 0.986159 -4.002707 1.432014
    28 0.096944 -8.450418 -0.009365 0.645403 -1.447265 -0.049274
    29 0.447953 -2.798986 -0.200443 -0.949954 0.084282 0.421229
    30 -0.032909 -1.480204 0.004940 -1.124069 0.000000 0.000002
    31 -0.027022 -1.076920 -0.020210 -0.461569 0.000000 0.000000
    32 -0.249534 -2.846964 -0.174213 -0.632779 0.047286 0.373793
    33 0.043235 -1.683941 0.096012 -1.287532 0.002823 -0.000167
    34 0.031729 -1.160830 0.058838 -0.537658 0.000642 0.008372
    35 -0.963866 -2.785145 -0.085350 -0.592829 0.115248 0.261238
    36 0.028479 -1.403067 0.006271 -0.697209 0.000000 0.000000
    37 0.021413 -0.957781 0.020046 -1.149587 0.000000 0.000000
    38 1.164475 -2.543940 -0.170330 -1.155785 -0.073121 0.430228
    39 0.024032 -1.129042 0.017807 -1.006602 0.000000 0.000001
    40 0.014898 -0.883989 -0.019848 -0.425270 0.000000 0.000000
    41 -0.586770 -1.264477 0.200161 0.028461 -0.460687 -2.530234
    42 1.522835 0.058681 0.016848 0.001410 0.008985 0.623500
    43 1.117947 0.048424 -0.005766 -0.020437 -0.014747 1.002033
    44 -0.139399 -0.111698 0.014397 0.698803 0.130110 1.388802
    45 -6.260806 6.983652 -0.294122 1.580804 -0.005023 -0.912799
  time 13
    0 -0.349399 1.166145 0.203512 0.000000 0.000000 0.000000
    1 8.723248 1.511713 -7.668524 -1.630692 -1.283102 1.280878
    2 -0.071918 -8.498728 -0.104137 0.227577 0.009706 -0.311219
    3 1.174832 -4.813860 0.424332 0.032251 0.115277 -1.246542
    4 0.179597 0.367359 0.000000 0.000000 0.000000 -1.906869
    5 -2.154425 2.333505 0.000000 0.000000 0.000000 1.247079
    6 -1.932693 1.493402 0.000000 0.000000 0.000000 4.039569
    7 -1.869303 -0.329702 0.000000 0.000000 0.000000 -2.241561
    8 0.002374 0.002359 0.000000 0.000000 0.000000 0.000000
    9 33.020318 -2.805441 0.000000 0.000000 0.000000 0.000000
    10 1.257180 8.762585 -0.153713 -1.570562 0.002683 -1.566807
    11 -0.488518 -2.755602 -0.228260 -0.488456 0.067606 -0.177350
    12 0.039887 -1.479790 0.029854 -2.055215 0.000000 0.000001
    13 0.028786 -1.075731 -0.023109 -0.540981 0.000000 0.000000
    14 0.250027 -2.820665 -0.238396 -0.372673 0.065451 -0.123124
    15 -0.049759 -1.680544 0.100479 -2.030651 0.000000 -0.000002
    16 -0.034142 -1.148312 0.084782 -0.832761 0.000000 0.000000
    17 0.957766 -2.746780 -0.090302 0.280848 -0.004811 0.093967
    18 -0.033420 -1.397129 -0.011257 -0.818958 0.000000 -0.000001
    19 -0.022360 -0.957436 0.018784 -0.823736 -0.032982 -0.008353
    20 -1.180681 -2.507217 -0.193859 -0.266100 0.227303 -0.147320
    21 -0.024967 -1.123934 0.017597 -1.309973 0.000000 0.000001
    22 -0.020057 -0.890968 0.010090 -1.428613 0.000000 0.000000
    23 0.583510 -1.197277 0.185379 0.453370 -0.774262 -0.898358
    24 1.535927 0.010246 0.005009 -0.002964 -0.012979 -0.850464
    25 1.100771 0.004527 -0.010679 -0.013330 0.009226 -0.789520
    26 0.120153 -0.050270 -0.054489 0.287569 3.110905 1.561085
    27 0.440190 -0.817063 -12.013369 0.994225 -3.986901 1.438404
    28 0.096944 -8.450418 -0.009365 0.645403 -1.447265 -0.049274
    29 0.447953 -2.798986 -0.200443 -0.949954 0.084282 0.421229
    30 -0.032909 -1.480204 0.004940 -1.124069 0.000000 0.000002
    31 -0.027022 -1.076920 -0.020210 -0.461569 0.000000 0.000000
    32 -0.249534 -2.846964 -0.174213 -0.632779 0.047286 0.373793
    33 0.043235 -1.683941 0.096012 -1.287532 0.002823 -0.000167
    34 0.031729 -1.160830 0.058838 -0.537658 0.000642 0.008372
    35 -0.963866 -2.785145 -0.085350 -0.592829 0.115248 0.261238
    36 0.028479 -1.403067 0.006271 -0.697209 0.000000 0.000000
    37 0.021413 -0.957781 0.020046 -1.149587 0.000000 0.000000
    38 1.164475 -2.543940 -0.170330 -1.155785 -0.073121 0.430228
    39 0.024032 -1.129042 0.017807 -1.006602 0.000000 0.000001
    40 0.014898 -0.883989 -0.019848 -0.425270 0.000000 0.000000
    41 -0.586770 -1.264477 0.200161 0.028461 -0.460687 -2.530234
    42 1.522835 0.058681 0.016848 0.001410 0.008985 0.623500
    43 1.117947 0.048424 -0.005766 -0.020437 -0.014747 1.002033
    44 -0.139399 -0.111698 0.014397 0.698803 0.130110 1.388802
    45 -6.260806 6.983652 -0.294122 1.580804 -0.005023 -0.912799
  time 14
    0 -0.349399 1.166145 0.203512 0.000000 0.000000 0.000000
    1 8.723248 1.597653 -7.680243 -1.639914 -1.274042 1.289736
    2 -0.071918 -8.498728 -0.104137 0.228026 0.005823 -0.309440
    3 1.174832 -4.813860 0.424332 0.032251 0.115277 -1.246542
    4 0.179597 0.367359 0.000000 0.000000 0.000000 -1.894513
    5 -2.154425 2.333505 0.000000 0.000000 0.000000 1.247079
    6 -1.932693 1.493402 0.000000 0.000000 0.000000 4.039569
    7 -1.869303 -0.329702 0.000000 0.000000 0.000000 -2.241561
    8 0.002374 0.002359 0.000000 0.000000 0.000000 0.000000
    9 33.020318 -2.805441 0.000000 0.000000 0.000000 0.000000
    10 1.257180 8.762585 -0.153713 -1.570562 0.002683 -1.566807
    11 -0.488518 -2.755602 -0.228260 -0.488456 0.067606 -0.177350
    12 0.039887 -1.479790 0.029854 -2.055215 0.000000 0.000001
    13 0.028786 -1.075731 -0.023109 -0.540998 0.000000 0.000000
    14 0.250027 -2.820665 -0.238396 -0.372673 0.065451 -0.123124
    15 -0.049759 -1.680544 0.100479 -2.030651 0.000000 -0.000002
    16 -0.034142 -1.148312 0.084782 -0.832761 0.000000 0.000000
    17 0.957766 -2.746780 -0.090302 0.280848 -0.004811 0.093967
    18 -0.033420 -1.397129 -0.011257 -0.818958 0.000000 -0.000001
    19 -0.022360 -0.957436 0.018784 -0.823736 -0.032982 -0.008353
    20 -1.180681 -2.507217 -0.193859 -0.266100 0.227303 -0.147320
    21 -0.024967 -1.123934 0.017597 -1.309973 0.000000 0.000001
    22 -0.020057 -0.890968 0.010090 -1.428613 0.000000 0.000000
    23 0.583510 -1.197277 0.185379 0.453370 -0.774262 -0.898358
    24 1.535927 0.010246 0.005009 -0.002964 -0.012979 -0.850464
    25 1.100771 0.004527 -0.010679 -0.013330 0.009226 -0.789520
    26 0.120153 -0.050270 -0.054489 0.287569 3.110905 1.561085
    27 0.459722 -0.797531 -12.036807 1.001147 -3.974922 1.443935
    28 0.096944 -8.450418 -0.009365 0.645403 -1.447265 -0.049274
    29 0.447953 -2.798986 -0.200443 -0.949954 0.084282 0.421229
    30 -0.032909 -1.480204 0.004940 -1.124069 0.000000 0.000002
    31 -0.027022 -1.076920 -0.020210 -0.461569 0.000000 0.000000
    32 -0.249534 -2.846964 -0.174213 -0.632779 0.047286 0.373793
    33 0.043235 -1.683941 0.096012 -1.287532 0.002823 -0.000167
    34 0.031729 -1.160830 0.058838 -0.537658 0.000642 0.008372
    35 -0.963866 -2.785145 -0.085350 -0.592829 0.115248 0.261238
    36 0.028479 -1.403067 0.006271 -0.697209 0.000000 0.000000
    37 0.021413 -0.957781 0.020046 -1.149587 0.000000 0.000000
    38 1.164475 -2.543940 -0.170330 -1.155785 -0.073121 0.430228
    39 0.024032 -1.129042 0.017807 -1.006602 0.000000 0.000001
    40 0.014898 -0.883989 -0.019848 -0.425270 0.000000 0.000000
    41 -0.586770 -1.264477 0.200161 0.028461 -0.460687 -2.530234
    42 1.522835 0.058681 0.016848 0.001410 0.008985 0.623500
    43 1.117947 0.048424 -0.005766 -0.020437 -0.014747 1.002033
    44 -0.139399 -0.111698 0.014397 0.698803 0.130110 1.388802
    45 -6.260806 6.983652 -0.294122 1.580804 -0.005023 -0.912799
  time 15
    0 -0.349399 1.166145 0.203512 0.000000 0.000000 0.000000
    1 8.723248 1.683593 -7.672431 -1.647499 -1.266204 1.296943
    2 -0.071918 -8.498728 -0.104137 0.228082 0.004708 -0.306371
    3 1.174832 -4.813860 0.424332 0.032251 0.115277 -1.246542
    4 0.179597 0.367359 0.000000 0.000000 0.000000 -1.886411
    5 -2.154425 2.333505 0.000000 0.000000 0.000000 1.247079
    6 -1.932693 1.493402 0.000000 0.000000 0.000000 4.039569
    7 -1.869303 -0.329702 0.000000 0.000000 0.000000 -2.241561
    8 0.002374 0.002359 0.000000 0.000000 0.000000 0.000000
    9 33.020318 -2.805441 0.000000 0.000000 0.000000 0.000000
    10 1.257180 8.762585 -0.153713 -1.570562 0.002683 -1.566807
    11 -0.488518 -2.755602 -0.228260 -0.488456 0.067606 -0.177350
    12 0.039887 -1.479790 0.029854 -2.055215 0.000000 0.000001
    13 0.028786 -1.075731 -0.023109 -0.540998 0.000000 0.000000
    14 0.250027 -2.820665 -0.238396 -0.372673 0.065451 -0.123124
    15 -0.049759 -1.680544 0.100479 -2.030651 0.000000 -0.000002
    16 -0.034142 -1.148312 0.084782 -0.832785 0.000000 0.000000
    17 0.957766 -2.746780 -0.090302 0.280848 -0.004811 0.093967
    18 -0.033420 -1.397129 -0.011257 -0.818958 0.000000 -0.000001
    19 -0.022360 -0.957436 0.018784 -0.823736 -0.032982 -0.008353
    20 -1.180681 -2.507217 -0.193859 -0.266100 0.227303 -0.147320
    21 -0.024967 -1.123934 0.017597 -1.309973 0.000000 0.000001
    22 -0.020057 -0.890968 0.010090 -1.428613 0.000000 0.000000
    23 0.583510 -1.197277 0.185379 0.453370 -0.774262 -0.898358
    24 1.535927 0.010246 0.005009 -0.002964 -0.012979 -0.850464
    25 1.100771 0.004527 -0.010679 -0.013330 0.009226 -0.789520
    26 0.120153 -0.050270 -0.054489 0.287569 3.110905 1.561085
    27 0.459722 -0.766280 -12.025088 1.003314 -3.963609 1.445461
    28 0.096944 -8.450418 -0.009365 0.645403 -1.447265 -0.049274
    29 0.447953 -2.798986 -0.200443 -0.949954 0.084282 0.421229
    30 -0.032909 -1.480204 0.004940 -1.124069 0.000000 0.000002
    31 -0.027022 -1.076920 -0.020210 -0.461569 0.000000 0.000000
    32 -0.249534 -2.846964 -0.174213 -0.632779 0.047286 0.373793
    33 0.043235 -1.683941 0.096012 -1.287532 0.002823 -0.000167
    34 0.031729 -1.160830 0.058838 -0.537658 0.000642 0.008372
    35 -0.963866 -2.785145 -0.085350 -0.592829 0.115248 0.261238
    36 0.028479 -1.403067 0.006271 -0.697209 0.000000 0.000000
    37 0.021413 -0.957781 0.020046 -1.149587 0.000000 0.000000
    38 1.164475 -2.543940 -0.170330 -1.155785 -0.073121 0.430228
    39 0.024032 -1.129042 0.017807 -1.006602 0.000000 0.000001
    40 0.014898 -0.883989 -0.019848 -0.425270 0.000000 0.000000
    41 -0.586770 -1.264477 0.200161 0.028461 -0.460687 -2.530234
    42 1.522835 0.058681 0.016848 0.001410 0.008985 0.623500
    43 1.117947 0.048424 -0.005766 -0.020437 -0.014747 1.002033
    44 -0.139399 -0.111698 0.014397 0.698803 0.130110 1.388802
    45 -6.260806 6.983652 -0.294122 1.580804 -0.005023 -0.912799
  time 16
    0 -0.349399 1.166145 0.203512 0.000000 0.000000 0.000000
    1 8.723248 1.757814 -7.668524 -1.652498 -1.260739 1.301720
    2 -0.071918 -8.498728 -0.104137 0.228068 0.004193 -0.303030
    3 1.174832 -4.813860 0.424332 0.032251 0.115277 -1.246542
    4 0.179597 0.367359 0.000000 0.000000 0.000000 -1.880395
    5 -2.154425 2.333505 0.000000 0.000000 0.000000 1.247079
    6 -1.932693 1.493402 0.000000 0.000000 0.000000 4.039569
    7 -1.869303 -0.329702 0.000000 0.000000 0.000000 -2.241561
    8 0.002374 0.002359 0.000000 0.000000 0.000000 0.000000
    9 33.020318 -2.805441 0.000000 0.000000 0.000000 0.000000
    10 1.257180 8.762585 -0.153713 -1.570562 0.002683 -1.566807
    11 -0.488518 -2.755602 -0.228260 -0.488456 0.067606 -0.177350
    12 0.039887 -1.479790 0.029854 -2.055215 0.000000 0.000001
    13 0.028786 -1.075731 -0.023109 -0.540998 0.000000 0.000000
    14 0.250027 -2.820665 -0.238396 -0.372673 0.065451 -0.123124
    15 -0.049759 -1.680544 0.100479 -2.030714 0.000000 -0.000002
    16 -0.034142 -1.148312 0.084782 -0.832761 0.000000 0.000000
    17 0.957766 -2.746780 -0.090302 0.280848 -0.004811 0.093967
    18 -0.033420 -1.397129 -0.011257 -0.818958 0.000000 -0.000001
    19 -0.022360 -0.957436 0.018784 -0.823736 -0.032982 -0.008353
    20 -1.180681 -2.507217 -0.193859 -0.266100 0.227303 -0.147320
    21 -0.024967 -1.123934 0.017597 -1.309973 0.000000 0.000001
    22 -0.020057 -0.890968 0.010090 -1.428613 0.000000 0.000000
    23 0.583510 -1.197277 0.185379 0.453370 -0.774262 -0.898358
    24 1.535927 0.010246 0.005009 -0.002964 -0.012979 -0.850464
    25 1.100771 0.004527 -0.010679 -0.013330 0.009226 -0.789520
    26 0.120153 -0.050270 -0.054489 0.287569 3.110905 1.561085
    27 0.455816 -0.738935 -12.017275 1.003976 -3.954624 1.445842
    28 0.096944 -8.450418 -0.009365 0.645403 -1.447265 -0.049274
    29 0.447953 -2.798986 -0.200443 -0.949954 0.084282 0.421229
    30 -0.032909 -1.480204 0.004940 -1.124069 0.000000 0.000002
    31 -0.027022 -1.076920 -0.020210 -0.461569 0.000000 0.000000
    32 -0.249534 -2.846964 -0.174213 -0.632779 0.047286 0.373793
    33 0.043235 -1.683941 0.096012 -1.287532 0.002823 -0.000167
    34 0.031729 -1.160830 0.058838 -0.537658 0.000642 0.008372
    35 -0.963866 -2.785145 -0.085350 -0.592829 0.115248 0.261238
    36 0.028479 -1.403067 0.006271 -0.697209 0.000000 0.000000
    37 0.021413 -0.957781 0.020046 -1.149587 0.000000 0.000000
    38 1.164475 -2.543940 -0.170330 -1.155785 -0.073121 0.430228
    39 0.024032 -1.129042 0.017807 -1.006602 0.000000 0.000001
    40 0.014898 -0.883989 -0.019848 -0.425270 0.000000 0.000000
    41 -0.586770 -1.264477 0.200161 0.028461 -0.460687 -2.530234
    42 1.522835 0.058681 0.016848 0.001410 0.008985 0.623500
    43 1.117947 0.048424 -0.005766 -0.020437 -0.014747 1.002033
    44 -0.139399 -0.111698 0.014397 0.698803 0.130110 1.388802
    45 -6.260806 6.983652 -0.294122 1.580804 -0.005023 -0.912799
  time 17
    0 -0.349399 1.166145 0.203512 0.000000 0.000000 0.000000
    1 8.723248 1.828129 -7.668524 -1.654825 -1.258150 1.303891
    2 -0.071918 -8.498728 -0.104137 0.227998 0.004121 -0.300016
    3 1.174832 -4.813860 0.424332 0.032251 0.115277 -1.246542
    4 0.179597 0.367359 0.000000 0.000000 0.000000 -1.876248
    5 -2.154425 2.333505 0.000000 0.000000 0.000000 1.247079
    6 -1.932693 1.493402 0.000000 0.000000 0.000000 4.039569
    7 -1.869303 -0.329702 0.000000 0.000000 0.000000 -2.241561
    8 0.002374 0.002359 0.000000 0.000000 0.000000 0.000000
    9 33.020318 -2.805441 0.000000 0.000000 0.000000 0.000000
    10 1.257180 8.762585 -0.153713 -1.570562 0.002683 -1.566807
    11 -0.488518 -2.755602 -0.228260 -0.488456 0.067606 -0.177350
    12 0.039887 -1.479790 0.029854 -2.055215 0.000000 0.000001
    13 0.028786 -1.075731 -0.023109 -0.540981 0.000000 0.000000
    14 0.250027 -2.820665 -0.238396 -0.372673 0.065451 -0.123124
    15 -0.049759 -1.680544 0.100479 -2.030651 0.000000 -0.000002
    16 -0.034142 -1.148312 0.084782 -0.832761 0.000000 0.000000
    17 0.957766 -2.746780 -0.090302 0.280848 -0.004811 0.093967
    18 -0.033420 -1.397129 -0.011257 -0.818958 0.000000 -0.000001
    19 -0.022360 -0.957436 0.018784 -0.823736 -0.032982 -0.008353
    20 -1.180681 -2.507217 -0.193859 -0.266100 0.227303 -0.147320
    21 -0.024967 -1.123934 0.017597 -1.309973 0.000000 0.000001
    22 -0.020057 -0.890968 0.010090 -1.428613 0.000000 0.000000
    23 0.583510 -1.197277 0.185379 0.453370 -0.774262 -0.898358
    24 1.535927 0.010246 0.005009 -0.002964 -0.012979 -0.850464
    25 1.100771 0.004527 -0.010679 -0.013330 0.009226 -0.789520
    26 0.120153 -0.050270 -0.054489 0.287569 3.110905 1.561085
    27 0.448003 -0.699872 -12.021181 1.003615 -3.948884 1.445461
    28 0.096944 -8.450418 -0.009365 0.645403 -1.447265 -0.049274
    29 0.447953 -2.798986 -0.200443 -0.949954 0.084282 0.421229
    30 -0.032909 -1.480204 0.004940 -1.124069 0.000000 0.000002
    31 -0.027022 -1.076920 -0.020210 -0.461569 0.000000 0.000000
    32 -0.249534 -2.846964 -0.174213 -0.632779 0.047286 0.373793
    33 0.043235 -1.683941 0.096012 -1.287532 0.002823 -0.000167
    34 0.031729 -1.160830 0.058838 -0.537658 0.000642 0.008372
    35 -0.963866 -2.785145 -0.085350 -0.592829 0.115248 0.261238
    36 0.028479 -1.403067 0.006271 -0.697209 0.000000 0.000000
    37 0.021413 -0.957781 0.020046 -1.149587 0.000000 0.000000
    38 1.164475 -2.543940 -0.170330 -1.155785 -0.073121 0.430228
    39 0.024032 -1.129042 0.017807 -1.006602 0.000000 0.000001
    40 0.014898 -0.883989 -0.019848 -0.425270 0.000000 0.000000
    41 -0.586770 -1.264477 0.200161 0.028461 -0.460687 -2.530234
    42 1.522835 0.058681 0.016848 0.001410 0.008985 0.623500
    43 1.117947 0.048424 -0.005766 -0.020437 -0.014747 1.002033
    44 -0.139399 -0.111698 0.014397 0.698803 0.130110 1.388802
    45 -6.260806 6.983652 -0.294122 1.580804 -0.005023 -0.912799
  time 18
    0 -0.349399 1.166145 0.203512 0.000000 0.000000 0.000000
    1 8.723248 1.898444 -7.664618 -1.655514 -1.257359 1.304585
    2 -0.071918 -8.498728 -0.104137 0.227928 0.004349 -0.297982
    3 1.174832 -4.813860 0.424332 0.032251 0.115277 -1.246542
    4 0.179597 0.367359 0.000000 0.000000 0.000000 -1.873768
    5 -2.154425 2.333505 0.000000 0.000000 0.000000 1.247079
    6 -1.932693 1.493402 0.000000 0.000000 0.000000 4.039569
    7 -1.869303 -0.329702 0.000000 0.000000 0.000000 -2.241561
    8 0.002374 0.002359 0.000000 0.000000 0.000000 0.000000
    9 33.020318 -2.805441 0.000000 0.000000 0.000000 0.000000
    10 1.257180 8.762585 -0.153713 -1.570562 0.002683 -1.566807
    11 -0.488518 -2.755602 -0.228260 -0.488456 0.067606 -0.177350
    12 0.039887 -1.479790 0.029854 -2.055215 0.000000 0.000001
    13 0.028786 -1.075731 -0.023109 -0.540998 0.000000 0.000000
    14 0.250027 -2.820665 -0.238396 -0.372673 0.065451 -0.123124
    15 -0.049759 -1.680544 0.100479 -2.030651 0.000000 -0.000002
    16 -0.034142 -1.148312 0.084782 -0.832785 0.000000 0.000000
    17 0.957766 -2.746780 -0.090302 0.280848 -0.004811 0.093967
    18 -0.033420 -1.397129 -0.011257 -0.818958 0.000000 -0.000001
    19 -0.022360 -0.957436 0.018784 -0.823736 -0.032982 -0.008353
    20 -1.180681 -2.507217 -0.193859 -0.266100 0.227303 -0.147320
    21 -0.024967 -1.123934 0.017597 -1.309973 0.000000 0.000001
    22 -0.020057 -0.890968 0.010090 -1.428613 0.000000 0.000000
    23 0.583510 -1.197277 0.185379 0.453370 -0.774262 -0.898358
    24 1.535927 0.010246 0.005009 -0.002964 -0.012979 -0.850464
    25 1.100771 0.004527 -0.010679 -0.013330 0.009226 -0.789520
    26 0.120153 -0.050270 -0.054489 0.287569 3.110905 1.561085
    27 0.444097 -0.645182 -12.021181 1.002833 -3.946222 1.444793
    28 0.096944 -8.450418 -0.009365 0.645403 -1.447265 -0.049274
    29 0.447953 -2.798986 -0.200443 -0.949954 0.084282 0.421229
    30 -0.032909 -1.480204 0.004940 -1.124069 0.000000 0.000002
    31 -0.027022 -1.076920 -0.020210 -0.461569 0.000000 0.000000
    32 -0.249534 -2.846964 -0.174213 -0.632779 0.047286 0.373793
    33 0.043235 -1.683941 0.096012 -1.287532 0.002823 -0.000167
    34 0.031729 -1.160830 0.058838 -0.537658 0.000642 0.008372
    35 -0.963866 -2.785145 -0.085350 -0.592829 0.115248 0.261238
    36 0.028479 -1.403067 0.006271 -0.697209 0.000000 0.000000
    37 0.021413 -0.957781 0.020046 -1.149587 0.000000 0.000000
    38 1.164475 -2.543940 -0.170330 -1.155785 -0.073121 0.430228
    39 0.024032 -1.129042 0.017807 -1.006602 0.000000 0.000001
    40 0.014898 -0.883989 -0.019848 -0.425270 0.000000 0.000000
    41 -0.586770 -1.264477 0.200161 0.028461 -0.460687 -2.530234
    42 1.522835 0.058681 0.016848 0.001410 0.008985 0.623500
    43 1.117947 0.048424 -0.005766 -0.020437 -0.014747 1.002033
    44 -0.139399 -0.111698 0.014397 0.698803 0.130110 1.388802
    45 -6.260806 6.983652 -0.294122 1.580804 -0.005023 -0.912799
  time 19
    0 -0.349399 1.166145 0.203512 0.000000 0.000000 0.000000
    1 8.723248 1.964852 -7.660712 -1.654997 -1.257935 1.304064
    2 -0.071918 -8.498728 -0.104137 0.227858 0.004720 -0.297546
    3 1.174832 -4.813860 0.424332 0.032251 0.115277 -1.246542
    4 0.179597 0.367359 0.000000 0.000000 0.000000 -1.872713
    5 -2.154425 2.333505 0.000000 0.000000 0.000000 1.247079
    6 -1.932693 1.493402 0.000000 0.000000 0.000000 4.039569
    7 -1.869303 -0.329702 0.000000 0.000000 0.000000 -2.241561
    8 0.002374 0.002359 0.000000 0.000000 0.000000 0.000000
    9 33.020318 -2.805441 0.000000 0.000000 0.000000 0.000000
    10 1.257180 8.762585 -0.153713 -1.570562 0.002683 -1.566807
    11 -0.488518 -2.755602 -0.228260 -0.488456 0.067606 -0.177350
    12 0.039887 -1.479790 0.029854 -2.055215 0.000000 0.000001
    13 0.028786 -1.075731 -0.023109 -0.540981 0.000000 0.000000
    14 0.250027 -2.820665 -0.238396 -0.372673 0.065451 -0.123124
    15 -0.049759 -1.680544 0.100479 -2.030651 0.000000 -0.000002
    16 -0.034142 -1.148312 0.084782 -0.832785 0.000000 0.000000
    17 0.957766 -2.746780 -0.090302 0.280848 -0.004811 0.093967
    18 -0.033420 -1.397129 -0.011257 -0.818958 0.000000 -0.000001
    19 -0.022360 -0.957436 0.018784 -0.823736 -0.032982 -0.008353
    20 -1.180681 -2.507217 -0.193859 -0.266100 0.227303 -0.147320
    21 -0.024967 -1.123934 0.017597 -1.309973 0.000000 0.000001
    22 -0.020057 -0.890968 0.010090 -1.428613 0.000000 0.000000
    23 0.583510 -1.197277 0.185379 0.453370 -0.774262 -0.898358
    24 1.535927 0.010246 0.005009 -0.002964 -0.012979 -0.850464
    25 1.100771 0.004527 -0.010679 -0.013330 0.009226 -0.789520
    26 0.120153 -0.050270 -0.054489 0.287569 3.110905 1.561085
    27 0.440190 -0.574868 -12.017275 1.002050 -3.946389 1.444126
    28 0.096944 -8.450418 -0.009365 0.645403 -1.447265 -0.049274
    29 0.447953 -2.798986 -0.200443 -0.949954 0.084282 0.421229
    30 -0.032909 -1.480204 0.004940 -1.124069 0.000000 0.000002
    31 -0.027022 -1.076920 -0.020210 -0.461569 0.000000 0.000000
    32 -0.249534 -2.846964 -0.174213 -0.632779 0.047286 0.373793
    33 0.043235 -1.683941 0.096012 -1.287532 0.002823 -0.000167
    34 0.031729 -1.160830 0.058838 -0.537658 0.000642 0.008372
    35 -0.963866 -2.785145 -0.085350 -0.592829 0.115248 0.261238
    36 0.028479 -1.403067 0.006271 -0.697209 0.000000 0.000000
    37 0.021413 -0.957781 0.020046 -1.149587 0.000000 0.000000
    38 1.164475 -2.543940 -0.170330 -1.155785 -0.073121 0.430228
    39 0.024032 -1.129042 0.017807 -1.006602 0.000000 0.000001
    40 0.014898 -0.883989 -0.019848 -0.425270 0.000000 0.000000
    41 -0.586770 -1.264477 0.200161 0.028461 -0.460687 -2.530234
    42 1.522835 0.058681 0.016848 0.001410 0.008985 0.623500
    43 1.117947 0.048424 -0.005766 -0.020437 -0.014747 1.002033
    44 -0.139399 -0.111698 0.014397 0.698803 0.130110 1.388802
    45 -6.260806 6.983652 -0.294122 1.580804 -0.005023 -0.912799
  time 20
    0 -0.349399 1.166145 0.203512 0.000000 0.000000 0.000000
    1 8.723248 2.027354 -7.656805 -1.653963 -1.259085 1.303109
    2 -0.071918 -8.498728 -0.104137 0.227830 0.005164 -0.298363
    3 1.174832 -4.813860 0.424332 0.032251 0.115277 -1.246542
    4 0.179597 0.367359 0.000000 0.000000 0.000000 -1.872893
    5 -2.154425 2.333505 0.000000 0.000000 0.000000 1.247079
    6 -1.932693 1.493402 0.000000 0.000000 0.000000 4.039569
    7 -1.869303 -0.329702 0.000000 0.000000 0.000000 -2.241561
    8 0.002374 0.002359 0.000000 0.000000 0.000000 0.000000
    9 33.020318 -2.805441 0.000000 0.000000 0.000000 0.000000
    10 1.257180 8.762585 -0.153713 -1.570562 0.002683 -1.566807
    11 -0.488518 -2.755602 -0.228260 -0.488456 0.067606 -0.177350
    12 0.039887 -1.479790 0.029854 -2.055215 0.000000 0.000001
    13 0.028786 -1.075731 -0.023109 -0.540998 0.000000 0.000000
    14 0.250027 -2.820665 -0.238396 -0.372673 0.065451 -0.123124
    15 -0.049759 -1.680544 0.100479 -2.030651 0.000000 -0.000002
    16 -0.034142 -1.148312 0.084782 -0.832761 0.000000 0.000000
    17 0.957766 -2.746780 -0.090302 0.280848 -0.004811 0.093967
    18 -0.033420 -1.397129 -0.011257 -0.818958 0.000000 -0.000001
    19 -0.022360 -0.957436 0.018784 -0.823736 -0.032982 -0.008353
    20 -1.180681 -2.507217 -0.193859 -0.266100 0.227303 -0.147320
    21 -0.024967 -1.123934 0.017597 -1.309973 0.000000 0.000001
    22 -0.020057 -0.890968 0.010090 -1.428613 0.000000 0.000000
    23 0.583510 -1.197277 0.185379 0.453370 -0.774262 -0.898358
    24 1.535927 0.010246 0.005009 -0.002964 -0.012979 -0.850464
    25 1.100771 0.004527 -0.010679 -0.013330 0.009226 -0.789520
    26 0.120153 -0.050270 -0.054489 0.287569 3.110905 1.561085
    27 0.440190 -0.504553 -12.009462 1.001448 -3.948552 1.443649
    28 0.096944 -8.450418 -0.009365 0.645403 -1.447265 -0.049274
    29 0.447953 -2.798986 -0.200443 -0.949954 0.084282 0.421229
    30 -0.032909 -1.480204 0.004940 -1.124069 0.000000 0.000002
    31 -0.027022 -1.076920 -0.020210 -0.461569 0.000000 0.000000
    32 -0.249534 -2.846964 -0.174213 -0.632779 0.047286 0.373793
    33 0.043235 -1.683941 0.096012 -1.287532 0.002823 -0.000167
    34 0.031729 -1.160830 0.058838 -0.537658 0.000642 0.008372
    35 -0.963866 -2.785145 -0.085350 -0.592829 0.115248 0.261238
    36 0.028479 -1.403067 0.006271 -0.697209 0.000000 0.000000
    37 0.021413 -0.957781 0.020046 -1.149587 0.000000 0.000000
    38 1.164475 -2.543940 -0.170330 -1.155785 -0.073121 0.430228
    39 0.024032 -1.129042 0.017807 -1.006602 0.000000 0.000001
    40 0.014898 -0.883989 -0.019848 -0.425270 0.000000 0.000000
    41 -0.586770 -1.264477 0.200161 0.028461 -0.460687 -2.530234
    42 1.522835 0.058681 0.016848 0.001410 0.008985 0.623500
    43 1.117947 0.048424 -0.005766 -0.020437 -0.014747 1.002033
    44 -0.139399 -0.111698 0.014397 0.698803 0.130110 1.388802
    45 -6.260806 6.983652 -0.294122 1.580804 -0.005023 -0.912799
  time 21
    0 -0.349399 1.166145 0.203512 0.000000 0.000000 0.000000
    1 8.723248 2.078137 -7.648993 -1.653015 -1.260164 1.302154
    2 -0.071918 -8.498728 -0.104137 0.227788 0.005703 -0.299616
    3 1.174832 -4.813860 0.424332 0.032251 0.115277 -1.246542
    4 0.179597 0.367359 0.000000 0.000000 0.000000 -1.874091
    5 -2.154425 2.333505 0.000000 0.000000 0.000000 1.247079
    6 -1.932693 1.493402 0.000000 0.000000 0.000000 4.039569
    7 -1.869303 -0.329702 0.000000 0.000000 0.000000 -2.241561
    8 0.002374 0.002359 0.000000 0.000000 0.000000 0.000000
    9 33.020318 -2.805441 0.000000 0.000000 0.000000 0.000000
    10 1.257180 8.762585 -0.153713 -1.570562 0.002683 -1.566807
    11 -0.488518 -2.755602 -0.228260 -0.488456 0.067606 -0.177350
    12 0.039887 -1.479790 0.029854 -2.055215 0.000000 0.000001
    13 0.028786 -1.075731 -0.023109 -0.540981 0.000000 0.000000
    14 0.250027 -2.820665 -0.238396 -0.372673 0.065451 -0.123124
    15 -0.049759 -1.680544 0.100479 -2.030651 0.000000 -0.000002
    16 -0.034142 -1.148312 0.084782 -0.832761 0.000000 0.000000
    17 0.957766 -2.746780 -0.090302 0.280848 -0.004811 0.093967
    18 -0.033420 -1.397129 -0.011257 -0.818958 0.000000 -0.000001
    19 -0.022360 -0.957436 0.018784 -0.823736 -0.032982 -0.008353
    20 -1.180681 -2.507217 -0.193859 -0.266100 0.227303 -0.147320
    21 -0.024967 -1.123934 0.017597 -1.309973 0.000000 0.000001
    22 -0.020057 -0.890968 0.010090 -1.428613 0.000000 0.000000
    23 0.583510 -1.197277 0.185379 0.453370 -0.774262 -0.898358
    24 1.535927 0.010246 0.005009 -0.002964 -0.012979 -0.850464
    25 1.100771 0.004527 -0.010679 -0.013330 0.009226 -0.789520
    26 0.120153 -0.050270 -0.054489 0.287569 3.110905 1.561085
    27 0.440190 -0.438145 -11.997743 1.000846 -3.951047 1.443267
    28 0.096944 -8.450418 -0.009365 0.645403 -1.447265 -0.049274
    29 0.447953 -2.798986 -0.200443 -0.949954 0.084282 0.421229
    30 -0.032909 -1.480204 0.004940 -1.124069 0.000000 0.000002
    31 -0.027022 -1.076920 -0.020210 -0.461569 0.000000 0.000000
    32 -0.249534 -2.846964 -0.174213 -0.632779 0.047286 0.373793
    33 0.043235 -1.683941 0.096012 -1.287532 0.002823 -0.000167
    34 0.031729 -1.160830 0.058838 -0.537658 0.000642 0.008372
    35 -0.963866 -2.785145 -0.085350 -0.592829 0.115248 0.261238
    36 0.028479 -1.403067 0.006271 -0.697209 0.000000 0.000000
    37 0.021413 -0.957781 0.020046 -1.149587 0.000000 0.000000
    38 1.164475 -2.543940 -0.170330 -1.155785 -0.073121 0.430228
    39 0.024032 -1.129042 0.017807 -1.006602 0.000000 0.000001
    40 0.014898 -0.883989 -0.019848 -0.425270 0.000000 0.000000
    41 -0.586770 -1.264477 0.200161 0.028461 -0.460687 -2.530234
    42 1.522835 0.058681 0.016848 0.001410 0.008985 0.623500
    43 1.117947 0.048424 -0.005766 -0.020437 -0.014747 1.002033
    44 -0.139399 -0.111698 0.014397 0.698803 0.130110 1.388802
    45 -6.260806 6.983652 -0.294122 1.580804 -0.005023 -0.912799
  time 22
    0 -0.349399 1.166145 0.203512 0.000000 0.000000 0.000000
    1 8.723248 2.113294 -7.648993 -1.652498 -1.260739 1.301720
    2 -0.071918 -8.498728 -0.104137 0.227746 0.006302 -0.301214
    3 1.174832 -4.813860 0.424332 0.032251 0.115277 -1.246542
    4 0.179597 0.367359 0.000000 0.000000 0.000000 -1.876069
    5 -2.154425 2.333505 0.000000 0.000000 0.000000 1.247079
    6 -1.932693 1.493402 0.000000 0.000000 0.000000 4.039569
    7 -1.869303 -0.329702 0.000000 0.000000 0.000000 -2.241561
    8 0.002374 0.002359 0.000000 0.000000 0.000000 0.000000
    9 33.020318 -2.805441 0.000000 0.000000 0.000000 0.000000
    10 1.257180 8.762585 -0.153713 -1.570562 0.002683 -1.566807
    11 -0.488518 -2.755602 -0.228260 -0.488456 0.067606 -0.177350
    12 0.039887 -1.479790 0.029854 -2.055215 0.000000 0.000001
    13 0.028786 -1.075731 -0.023109 -0.540998 0.000000 0.000000
    14 0.250027 -2.820665 -0.238396 -0.372673 0.065451 -0.123124
    15 -0.049759 -1.680544 0.100479 -2.030714 0.000000 -0.000002
    16 -0.034142 -1.148312 0.084782 -0.832761 0.000000 0.000000
    17 0.957766 -2.746780 -0.090302 0.280848 -0.004811 0.093967
    18 -0.033420 -1.397129 -0.011257 -0.818958 0.000000 -0.000001
    19 -0.022360 -0.957436 0.018784 -0.823736 -0.032982 -0.008353
    20 -1.180681 -2.507217 -0.193859 -0.266100 0.227303 -0.147320
    21 -0.024967 -1.123934 0.017597 -1.309973 0.000000 0.000001
    22 -0.020057 -0.890968 0.010090 -1.428613 0.000000 0.000000
    23 0.583510 -1.197277 0.185379 0.453370 -0.774262 -0.898358
    24 1.535927 0.010246 0.005009 -0.002964 -0.012979 -0.850464
    25 1.100771 0.004527 -0.010679 -0.013330 0.009226 -0.789520
    26 0.120153 -0.050270 -0.054489 0.287569 3.110905 1.561085
    27 0.440190 -0.391268 -11.989930 1.000425 -3.953293 1.442886
    28 0.096944 -8.450418 -0.009365 0.645403 -1.447265 -0.049274
    29 0.447953 -2.798986 -0.200443 -0.949954 0.084282 0.421229
    30 -0.032909 -1.480204 0.004940 -1.124069 0.000000 0.000002
    31 -0.027022 -1.076920 -0.020210 -0.461569 0.000000 0.000000
    32 -0.249534 -2.846964 -0.174213 -0.632779 0.047286 0.373793
    33 0.043235 -1.683941 0.096012 -1.287532 0.002823 -0.000167
    34 0.031729 -1.160830 0.058838 -0.537658 0.000642 0.008372
    35 -0.963866 -2.785145 -0.085350 -0.592829 0.115248 0.261238
    36 0.028479 -1.403067 0.006271 -0.697209 0.000000 0.000000
    37 0.021413 -0.957781 0.020046 -1.149587 0.000000 0.000000
    38 1.164475 -2.543940 -0.170330 -1.155785 -0.073121 0.430228
    39 0.024032 -1.129042 0.017807 -1.006602 0.000000 0.000001
    40 0.014898 -0.883989 -0.019848 -0.425270 0.000000 0.000000
    41 -0.586770 -1.264477 0.200161 0.028461 -0.460687 -2.530234
    42 1.522835 0.058681 0.016848 0.001410 0.008985 0.623500
    43 1.117947 0.048424 -0.005766 -0.020437 -0.014747 1.002033
    44 -0.139399 -0.111698 0.014397 0.698803 0.130110 1.388802
    45 -6.260806 6.983652 -0.294122 1.580804 -0.005023 -0.912799
  time 23
    0 -0.349399 1.166145 0.203512 0.000000 0.000000 0.000000
    1 8.723248 2.132826 -7.645086 -1.652498 -1.260739 1.301720
    2 -0.071918 -8.498728 -0.104137 0.227704 0.006973 -0.303102
    3 1.174832 -4.813860 0.424332 0.032251 0.115277 -1.246542
    4 0.179597 0.367359 0.000000 0.000000 0.000000 -1.878621
    5 -2.154425 2.333505 0.000000 0.000000 0.000000 1.247079
    6 -1.932693 1.493402 0.000000 0.000000 0.000000 4.039569
    7 -1.869303 -0.329702 0.000000 0.000000 0.000000 -2.241561
    8 0.002374 0.002359 0.000000 0.000000 0.000000 0.000000
    9 33.020318 -2.805441 0.000000 0.000000 0.000000 0.000000
    10 1.257180 8.762585 -0.153713 -1.570562 0.002683 -1.566807
    11 -0.488518 -2.755602 -0.228260 -0.488456 0.067606 -0.177350
    12 0.039887 -1.479790 0.029854 -2.055215 0.000000 0.000001
    13 0.028786 -1.075731 -0.023109 -0.540981 0.000000 0.000000
    14 0.250027 -2.820665 -0.238396 -0.372673 0.065451 -0.123124
    15 -0.049759 -1.680544 0.100479 -2.030651 0.000000 -0.000002
    16 -0.034142 -1.148312 0.084782 -0.832761 0.000000 0.000000
    17 0.957766 -2.746780 -0.090302 0.280848 -0.004811 0.093967
    18 -0.033420 -1.397129 -0.011257 -0.818958 0.000000 -0.000001
    19 -0.022360 -0.957436 0.018784 -0.823736 -0.032982 -0.008353
    20 -1.180681 -2.507217 -0.193859 -0.266100 0.227303 -0.147320
    21 -0.024967 -1.123934 0.017597 -1.309973 0.000000 0.000001
    22 -0.020057 -0.890968 0.010090 -1.428613 0.000000 0.000000
    23 0.583510 -1.197277 0.185379 0.453370 -0.774262 -0.898358
    24 1.535927 0.010246 0.005009 -0.002964 -0.012979 -0.850464
    25 1.100771 0.004527 -0.010679 -0.013330 0.009226 -0.789520
    26 0.120153 -0.050270 -0.054489 0.287569 3.110905 1.561085
    27 0.440190 -0.356111 -11.978211 1.000064 -3.955290 1.442695
    28 0.096944 -8.450418 -0.009365 0.645403 -1.447265 -0.049274
    29 0.447953 -2.798986 -0.200443 -0.949954 0.084282 0.421229
    30 -0.032909 -1.480204 0.004940 -1.124069 0.000000 0.000002
    31 -0.027022 -1.076920 -0.020210 -0.461569 0.000000 0.000000
    32 -0.249534 -2.846964 -0.174213 -0.632779 0.047286 0.373793
    33 0.043235 -1.683941 0.096012 -1.287532 0.002823 -0.000167
    34 0.031729 -1.160830 0.058838 -0.537658 0.000642 0.008372
    35 -0.963866 -2.785145 -0.085350 -0.592829 0.115248 0.261238
    36 0.028479 -1.403067 0.006271 -0.697209 0.000000 0.000000
    37 0.021413 -0.957781 0.020046 -1.149587 0.000000 0.000000
    38 1.164475 -2.543940 -0.170330 -1.155785 -0.073121 0.430228
    39 0.024032 -1.129042 0.017807 -1.006602 0.000000 0.000001
    40 0.014898 -0.883989 -0.019848 -0.425270 0.000000 0.000000
    41 -0.586770 -1.264477 0.200161 0.028461 -0.460687 -2.530234
    42 1.522835 0.058681 0.016848 0.001410 0.008985 0.623500
    43 1.117947 0.048424 -0.005766 -0.020437 -0.014747 1.002033
    44 -0.139399 -0.111698 0.014397 0.698803 0.130110 1.388802
    45 -6.260806 6.983652 -0.294122 1.580804 -0.005023 -0.912799
  time 24
    0 -0.349399 1.166145 0.203512 0.000000 0.000000 0.000000
    1 8.723248 2.144545 -7.645086 -1.652498 -1.260739 1.301720
    2 -0.071918 -8.498728 -0.104137 0.227662 0.007692 -0.305227
    3 1.174832 -4.813860 0.424332 0.032251 0.115277 -1.246542
    4 0.179597 0.367359 0.000000 0.000000 0.000000 -1.881546
    5 -2.154425 2.333505 0.000000 0.000000 0.000000 1.247079
    6 -1.932693 1.493402 0.000000 0.000000 0.000000 4.039569
    7 -1.869303 -0.329702 0.000000 0.000000 0.000000 -2.241561
    8 0.002374 0.002359 0.000000 0.000000 0.000000 0.000000
    9 33.020318 -2.805441 0.000000 0.000000 0.000000 0.000000
    10 1.257180 8.762585 -0.153713 -1.570562 0.002683 -1.566807
    11 -0.488518 -2.755602 -0.228260 -0.488456 0.067606 -0.177350
    12 0.039887 -1.479790 0.029854 -2.055215 0.000000 0.000001
    13 0.028786 -1.075731 -0.023109 -0.540998 0.000000 0.000000
    14 0.250027 -2.820665 -0.238396 -0.372673 0.065451 -0.123124
    15 -0.049759 -1.680544 0.100479 -2.030651 0.000000 -0.000002
    16 -0.034142 -1.148312 0.084782 -0.832785 0.000000 0.000000
    17 0.957766 -2.746780 -0.090302 0.280848 -0.004811 0.093967
    18 -0.033420 -1.397129 -0.011257 -0.818958 0.000000 -0.000001
    19 -0.022360 -0.957436 0.018784 -0.823736 -0.032982 -0.008353
    20 -1.180681 -2.507217 -0.193859 -0.266100 0.227303 -0.147320
    21 -0.024967 -1.123934 0.017597 -1.309973 0.000000 0.000001
    22 -0.020057 -0.890968 0.010090 -1.428613 0.000000 0.000000
    23 0.583510 -1.197277 0.185379 0.453370 -0.774262 -0.898358
    24 1.535927 0.010246 0.005009 -0.002964 -0.012979 -0.850464
    25 1.100771 0.004527 -0.010679 -0.013330 0.009226 -0.789520
    26 0.120153 -0.050270 -0.054489 0.287569 3.110905 1.561085
    27 0.440190 -0.328766 -11.966492 0.999702 -3.957536 1.442409
    28 0.096944 -8.450418 -0.009365 0.645403 -1.447265 -0.049274
    29 0.447953 -2.798986 -0.200443 -0.949954 0.084282 0.421229
    30 -0.032909 -1.480204 0.004940 -1.124069 0.000000 0.000002
    31 -0.027022 -1.076920 -0.020210 -0.461569 0.000000 0.000000
    32 -0.249534 -2.846964 -0.174213 -0.632779 0.047286 0.373793
    33 0.043235 -1.683941 0.096012 -1.287532 0.002823 -0.000167
    34 0.031729 -1.160830 0.058838 -0.537658 0.000642 0.008372
    35 -0.963866 -2.785145 -0.085350 -0.592829 0.115248 0.261238
    36 0.028479 -1.403067 0.006271 -0.697209 0.000000 0.000000
    37 0.021413 -0.957781 0.020046 -1.149587 0.000000 0.000000
    38 1.164475 -2.543940 -0.170330 -1.155785 -0.073121 0.430228
    39 0.024032 -1.129042 0.017807 -1.006602 0.000000 0.000001
    40 0.014898 -0.883989 -0.019848 -0.425270 0.000000 0.000000
    41 -0.586770 -1.264477 0.200161 0.028461 -0.460687 -2.530234
    42 1.522835 0.058681 0.016848 0.001410 0.008985 0.623500
    43 1.117947 0.048424 -0.005766 -0.020437 -0.014747 1.002033
    44 -0.139399 -0.111698 0.014397 0.698803 0.130110 1.388802
    45 -6.260806 6.983652 -0.294122 1.580804 -0.005023 -0.912799
  time 25
    0 -0.349399 1.166145 0.203512 0.000000 0.000000 0.000000
    1 8.723248 2.148451 -7.645086 -1.652498 -1.260739 1.301720
    2 -0.071918 -8.498728 -0.104137 0.227620 0.008435 -0.307497
    3 1.174832 -4.813860 0.424332 0.032251 0.115277 -1.246542
    4 0.179597 0.367359 0.000000 0.000000 0.000000 -1.884614
    5 -2.154425 2.333505 0.000000 0.000000 0.000000 1.247079
    6 -1.932693 1.493402 0.000000 0.000000 0.000000 4.039569
    7 -1.869303 -0.329702 0.000000 0.000000 0.000000 -2.241561
    8 0.002374 0.002359 0.000000 0.000000 0.000000 0.000000
    9 33.020318 -2.805441 0.000000 0.000000 0.000000 0.000000
    10 1.257180 8.762585 -0.153713 -1.570562 0.002683 -1.566807
    11 -0.488518 -2.755602 -0.228260 -0.488456 0.067606 -0.177350
    12 0.039887 -1.479790 0.029854 -2.055215 0.000000 0.000001
    13 0.028786 -1.075731 -0.023109 -0.540981 0.000000 0.000000
    14 0.250027 -2.820665 -0.238396 -0.372673 0.065451 -0.123124
    15 -0.049759 -1.680544 0.100479 -2.030651 0.000000 -0.000002
    16 -0.034142 -1.148312 0.084782 -0.832761 0.000000 0.000000
    17 0.957766 -2.746780 -0.090302 0.280848 -0.004811 0.093967
    18 -0.033420 -1.397129 -0.011257 -0.818958 0.000000 -0.000001
    19 -0.022360 -0.957436 0.018784 -0.823736 -0.032982 -0.008353
    20 -1.180681 -2.507217 -0.193859 -0.266100 0.227303 -0.147320
    21 -0.024967 -1.123934 0.017597 -1.309973 0.000000 0.000001
    22 -0.020057 -0.890968 0.010090 -1.428613 0.000000 0.000000
    23 0.583510 -1.197277 0.185379 0.453370 -0.774262 -0.898358
    24 1.535927 0.010246 0.005009 -0.002964 -0.012979 -0.850464
    25 1.100771 0.004527 -0.010679 -0.013330 0.009226 -0.789520
    26 0.120153 -0.050270 -0.054489 0.287569 3.110905 1.561085
    27 0.440190 -0.305328 -11.954773 0.999341 -3.959865 1.442123
    28 0.096944 -8.450418 -0.009365 0.645403 -1.447265 -0.049274
    29 0.447953 -2.798986 -0.200443 -0.949954 0.084282 0.421229
    30 -0.032909 -1.480204 0.004940 -1.124069 0.000000 0.000002
    31 -0.027022 -1.076920 -0.020210 -0.461569 0.000000 0.000000
    32 -0.249534 -2.846964 -0.174213 -0.632779 0.047286 0.373793
    33 0.043235 -1.683941 0.096012 -1.287532 0.002823 -0.000167
    34 0.031729 -1.160830 0.058838 -0.537658 0.000642 0.008372
    35 -0.963866 -2.785145 -0.085350 -0.592829 0.115248 0.261238
    36 0.028479 -1.403067 0.006271 -0.697209 0.000000 0.000000
    37 0.021413 -0.957781 0.020046 -1.149587 0.000000 0.000000
    38 1.164475 -2.543940 -0.170330 -1.155785 -0.073121 0.430228
    39 0.024032 -1.129042 0.017807 -1.006602 0.000000 0.000001
    40 0.014898 -0.883989 -0.019848 -0.425270 0.000000 0.000000
    41 -0.586770 -1.264477 0.200161 0.028461 -0.460687 -2.530234
    42 1.522835 0.058681 0.016848 0.001410 0.008985 0.623500
    43 1.117947 0.048424 -0.005766 -0.020437 -0.014747 1.002033
    44 -0.139399 -0.111698 0.014397 0.698803 0.130110 1.388802
    45 -6.260806 6.983652 -0.294122 1.580804 -0.005023 -0.912799
  time 26
    0 -0.349399 1.166145 0.203512 0.000000 0.000000 0.000000
    1 8.723248 2.148451 -7.645086 -1.652498 -1.260739 1.301720
    2 -0.071918 -8.498728 -0.104137 0.227577 0.009202 -0.309857
    3 1.174832 -4.813860 0.424332 0.032251 0.115277 -1.246542
    4 0.179597 0.367359 0.000000 0.000000 0.000000 -1.887598
    5 -2.154425 2.333505 0.000000 0.000000 0.000000 1.247079
    6 -1.932693 1.493402 0.000000 0.000000 0.000000 4.039569
    7 -1.869303 -0.329702 0.000000 0.000000 0.000000 -2.241561
    8 0.002374 0.002359 0.000000 0.000000 0.000000 0.000000
    9 33.020318 -2.805441 0.000000 0.000000 0.000000 0.000000
    10 1.257180 8.762585 -0.153713 -1.570562 0.002683 -1.566807
    11 -0.488518 -2.755602 -0.228260 -0.488456 0.067606 -0.177350
    12 0.039887 -1.479790 0.029854 -2.055215 0.000000 0.000001
    13 0.028786 -1.075731 -0.023109 -0.540981 0.000000 0.000000
    14 0.250027 -2.820665 -0.238396 -0.372673 0.065451 -0.123124
    15 -0.049759 -1.680544 0.100479 -2.030651 0.000000 -0.000002
    16 -0.034142 -1.148312 0.084782 -0.832785 0.000000 0.000000
    17 0.957766 -2.746780 -0.090302 0.280848 -0.004811 0.093967
    18 -0.033420 -1.397129 -0.011257 -0.818958 0.000000 -0.000001
    19 -0.022360 -0.957436 0.018784 -0.823736 -0.032982 -0.008353
    20 -1.180681 -2.507217 -0.193859 -0.266100 0.227303 -0.147320
    21 -0.024967 -1.123934 0.017597 -1.309973 0.000000 0.000001
    22 -0.020057 -0.890968 0.010090 -1.428613 0.000000 0.000000
    23 0.583510 -1.197277 0.185379 0.453370 -0.774262 -0.898358
    24 1.535927 0.010246 0.005009 -0.002964 -0.012979 -0.850464
    25 1.100771 0.004527 -0.010679 -0.013330 0.009226 -0.789520
    26 0.120153 -0.050270 -0.054489 0.287569 3.110905 1.561085
    27 0.440190 -0.289703 -11.939148 0.998980 -3.962361 1.441932
    28 0.096944 -8.450418 -0.009365 0.645403 -1.447265 -0.049274
    29 0.447953 -2.798986 -0.200443 -0.949954 0.084282 0.421229
    30 -0.032909 -1.480204 0.004940 -1.124069 0.000000 0.000002
    31 -0.027022 -1.076920 -0.020210 -0.461569 0.000000 0.000000
    32 -0.249534 -2.846964 -0.174213 -0.632779 0.047286 0.373793
    33 0.043235 -1.683941 0.096012 -1.287532 0.002823 -0.000167
    34 0.031729 -1.160830 0.058838 -0.537658 0.000642 0.008372
    35 -0.963866 -2.785145 -0.085350 -0.592829 0.115248 0.261238
    36 0.028479 -1.403067 0.006271 -0.697209 0.000000 0.000000
    37 0.021413 -0.957781 0.020046 -1.149587 0.000000 0.000000
    38 1.164475 -2.543940 -0.170330 -1.155785 -0.073121 0.430228
    39 0.024032 -1.129042 0.017807 -1.006602 0.000000 0.000001
    40 0.014898 -0.883989 -0.019848 -0.425270 0.000000 0.000000
    41 -0.586770 -1.264477 0.200161 0.028461 -0.460687 -2.530234
    42 1.522835 0.058681 0.016848 0.001410 0.008985 0.623500
    43 1.117947 0.048424 -0.005766 -0.020437 -0.014747 1.002033
    44 -0.139399 -0.111698 0.014397 0.698803 0.130110 1.388802
    45 -6.260806 6.983652 -0.294122 1.580804 -0.005023 -0.912799
  time 27
    0 -0.349399 1.166145 0.203512 0.000000 0.000000 0.000000
    1 8.723248 2.144545 -7.645086 -1.652498 -1.260739 1.301720
    2 -0.071918 -8.498728 -0.104137 0.227521 0.009981 -0.312236
    3 1.174832 -4.813860 0.424332 0.032251 0.115277 -1.246542
    4 0.179597 0.367359 0.000000 0.000000 0.000000 -1.890306
    5 -2.154425 2.333505 0.000000 0.000000 0.000000 1.247079
    6 -1.932693 1.493402 0.000000 0.000000 0.000000 4.039569
    7 -1.869303 -0.329702 0.000000 0.000000 0.000000 -2.241561
    8 0.002374 0.002359 0.000000 0.000000 0.000000 0.000000
    9 33.020318 -2.805441 0.000000 0.000000 0.000000 0.000000
    10 1.257180 8.762585 -0.153713 -1.570562 0.002683 -1.566807
    11 -0.488518 -2.755602 -0.228260 -0.488456 0.067606 -0.177350
    12 0.039887 -1.479790 0.029854 -2.055215 0.000000 0.000001
    13 0.028786 -1.075731 -0.023109 -0.540998 0.000000 0.000000
    14 0.250027 -2.820665 -0.238396 -0.372673 0.065451 -0.123124
    15 -0.049759 -1.680544 0.100479 -2.030651 0.000000 -0.000002
    16 -0.034142 -1.148312 0.084782 -0.832761 0.000000 0.000000
    17 0.957766 -2.746780 -0.090302 0.280848 -0.004811 0.093967
    18 -0.033420 -1.397129 -0.011257 -0.818958 0.000000 -0.000001
    19 -0.022360 -0.957436 0.018784 -0.823736 -0.032982 -0.008353
    20 -1.180681 -2.507217 -0.193859 -0.266100 0.227303 -0.147320
    21 -0.024967 -1.123934 0.017597 -1.309973 0.000000 0.000001
    22 -0.020057 -0.890968 0.010090 -1.428613 0.000000 0.000000
    23 0.583510 -1.197277 0.185379 0.453370 -0.774262 -0.898358
    24 1.535927 0.010246 0.005009 -0.002964 -0.012979 -0.850464
    25 1.100771 0.004527 -0.010679 -0.013330 0.009226 -0.789520
    26 0.120153 -0.050270 -0.054489 0.287569 3.110905 1.561085
    27 0.440190 -0.277984 -11.927428 0.998679 -3.964856 1.441646
    28 0.096944 -8.450418 -0.009365 0.645403 -1.447265 -0.049274
    29 0.447953 -2.798986 -0.200443 -0.949954 0.084282 0.421229
    30 -0.032909 -1.480204 0.004940 -1.124069 0.000000 0.000002
    31 -0.027022 -1.076920 -0.020210 -0.461569 0.000000 0.000000
    32 -0.249534 -2.846964 -0.174213 -0.632779 0.047286 0.373793
    33 0.043235 -1.683941 0.096012 -1.287532 0.002823 -0.000167
    34 0.031729 -1.160830 0.058838 -0.537658 0.000642 0.008372
    35 -0.963866 -2.785145 -0.085350 -0.592829 0.115248 0.261238
    36 0.028479 -1.403067 0.006271 -0.697209 0.000000 0.000000
    37 0.021413 -0.957781 0.020046 -1.149587 0.000000 0.000000
    38 1.164475 -2.543940 -0.170330 -1.155785 -0.073121 0.430228
    39 0.024032 -1.129042 0.017807 -1.006602 0.000000 0.000001
    40 0.014898 -0.883989 -0.019848 -0.425270 0.000000 0.000000
    41 -0.586770 -1.264477 0.200161 0.028461 -0.460687 -2.530234
    42 1.522835 0.058681 0.016848 0.001410 0.008985 0.623500
    43 1.117947 0.048424 -0.005766 -0.020437 -0.014747 1.002033
    44 -0.139399 -0.111698 0.014397 0.698803 0.130110 1.388802
    45 -6.260806 6.983652 -0.294122 1.580804 -0.005023 -0.912799
  time 28
    0 -0.349399 1.166145 0.203512 0.000000 0.000000 0.000000
    1 8.723248 2.136732 -7.645086 -1.652498 -1.260739 1.301720
    2 -0.071918 -8.498728 -0.104137 0.227465 0.010736 -0.314579
    3 1.174832 -4.813860 0.424332 0.032251 0.115277 -1.246542
    4 0.179597 0.367359 0.000000 0.000000 0.000000 -1.892500
    5 -2.154425 2.333505 0.000000 0.000000 0.000000 1.247079
    6 -1.932693 1.493402 0.000000 0.000000 0.000000 4.039569
    7 -1.869303 -0.329702 0.000000 0.000000 0.000000 -2.241561
    8 0.002374 0.002359 0.000000 0.000000 0.000000 0.000000
    9 33.020318 -2.805441 0.000000 0.000000 0.000000 0.000000
    10 1.257180 8.762585 -0.153713 -1.570562 0.002683 -1.566807
    11 -0.488518 -2.755602 -0.228260 -0.488456 0.067606 -0.177350
    12 0.039887 -1.479790 0.029854 -2.055215 0.000000 0.000001
    13 0.028786 -1.075731 -0.023109 -0.540981 0.000000 0.000000
    14 0.250027 -2.820665 -0.238396 -0.372673 0.065451 -0.123124
    15 -0.049759 -1.680544 0.100479 -2.030714 0.000000 -0.000002
    16 -0.034142 -1.148312 0.084782 -0.832761 0.000000 0.000000
    17 0.957766 -2.746780 -0.090302 0.280848 -0.004811 0.093967
    18 -0.033420 -1.397129 -0.011257 -0.818958 0.000000 -0.000001
    19 -0.022360 -0.957436 0.018784 -0.823736 -0.032982 -0.008353
    20 -1.180681 -2.507217 -0.193859 -0.266100 0.227303 -0.147320
    21 -0.024967 -1.123934 0.017597 -1.309973 0.000000 0.000001
    22 -0.020057 -0.890968 0.010090 -1.428613 0.000000 0.000000
    23 0.583510 -1.197277 0.185379 0.453370 -0.774262 -0.898358
    24 1.535927 0.010246 0.005009 -0.002964 -0.012979 -0.850464
    25 1.100771 0.004527 -0.010679 -0.013330 0.009226 -0.789520
    26 0.120153 -0.050270 -0.054489 0.287569 3.110905 1.561085
    27 0.440190 -0.270171 -11.915709 0.998318 -3.967269 1.441455
    28 0.096944 -8.450418 -0.009365 0.645403 -1.447265 -0.049274
    29 0.447953 -2.798986 -0.200443 -0.949954 0.084282 0.421229
    30 -0.032909 -1.480204 0.004940 -1.124069 0.000000 0.000002
    31 -0.027022 -1.076920 -0.020210 -0.461569 0.000000 0.000000
    32 -0.249534 -2.846964 -0.174213 -0.632779 0.047286 0.373793
    33 0.043235 -1.683941 0.096012 -1.287532 0.002823 -0.000167
    34 0.031729 -1.160830 0.058838 -0.537658 0.000642 0.008372
    35 -0.963866 -2.785145 -0.085350 -0.592829 0.115248 0.261238
    36 0.028479 -1.403067 0.006271 -0.697209 0.000000 0.000000
    37 0.021413 -0.957781 0.020046 -1.149587 0.000000 0.000000
    38 1.164475 -2.543940 -0.170330 -1.155785 -0.073121 0.430228
    39 0.024032 -1.129042 0.017807 -1.006602 0.000000 0.000001
    40 0.014898 -0.883989 -0.019848 -0.425270 0.000000 0.000000
    41 -0.586770 -1.264477 0.200161 0.028461 -0.460687 -2.530234
    42 1.522835 0.058681 0.016848 0.001410 0.008985 0.623500
    43 1.117947 0.048424 -0.005766 -0.020437 -0.014747 1.002033
    44 -0.139399 -0.111698 0.014397 0.698803 0.130110 1.388802
    45 -6.260806 6.983652 -0.294122 1.580804 -0.005023 -0.912799
  time 29
    0 -0.349399 1.166145 0.203512 0.000000 0.000000 0.000000
    1 8.723248 2.125013 -7.645086 -1.652498 -1.260739 1.301720
    2 -0.071918 -8.498728 -0.104137 0.227423 0.011479 -0.316794
    3 1.174832 -4.813860 0.424332 0.032251 0.115277 -1.246542
    4 0.179597 0.367359 0.000000 0.000000 0.000000 -1.893974
    5 -2.154425 2.333505 0.000000 0.000000 0.000000 1.247079
    6 -1.932693 1.493402 0.000000 0.000000 0.000000 4.039569
    7 -1.869303 -0.329702 0.000000 0.000000 0.000000 -2.241561
    8 0.002374 0.002359 0.000000 0.000000 0.000000 0.000000
    9 33.020318 -2.805441 0.000000 0.000000 0.000000 0.000000
    10 1.257180 8.762585 -0.153713 -1.570562 0.002683 -1.566807
    11 -0.488518 -2.755602 -0.228260 -0.488456 0.067606 -0.177350
    12 0.039887 -1.479790 0.029854 -2.055215 0.000000 0.000001
    13 0.028786 -1.075731 -0.023109 -0.540998 0.000000 0.000000
    14 0.250027 -2.820665 -0.238396 -0.372673 0.065451 -0.123124
    15 -0.049759 -1.680544 0.100479 -2.030651 0.000000 -0.000002
    16 -0.034142 -1.148312 0.084782 -0.832785 0.000000 0.000000
    17 0.957766 -2.746780 -0.090302 0.280848 -0.004811 0.093967
    18 -0.033420 -1.397129 -0.011257 -0.818958 0.000000 -0.000001
    19 -0.022360 -0.957436 0.018784 -0.823736 -0.032982 -0.008353
    20 -1.180681 -2.507217 -0.193859 -0.266100 0.227303 -0.147320
    21 -0.024967 -1.123934 0.017597 -1.309973 0.000000 0.000001
    22 -0.020057 -0.890968 0.010090 -1.428613 0.000000 0.000000
    23 0.583510 -1.197277 0.185379 0.453370 -0.774262 -0.898358
    24 1.535927 0.010246 0.005009 -0.002964 -0.012979 -0.850464
    25 1.100771 0.004527 -0.010679 -0.013330 0.009226 -0.789520
    26 0.120153 -0.050270 -0.054489 0.287569 3.110905 1.561085
    27 0.444097 -0.266265 -11.903990 0.997957 -3.969681 1.441169
    28 0.096944 -8.450418 -0.009365 0.645403 -1.447265 -0.049274
    29 0.447953 -2.798986 -0.200443 -0.949954 0.084282 0.421229
    30 -0.032909 -1.480204 0.004940 -1.124069 0.000000 0.000002
    31 -0.027022 -1.076920 -0.020210 -0.461569 0.000000 0.000000
    32 -0.249534 -2.846964 -0.174213 -0.632779 0.047286 0.373793
    33 0.043235 -1.683941 0.096012 -1.287532 0.002823 -0.000167
    34 0.031729 -1.160830 0.058838 -0.537658 0.000642 0.008372
    35 -0.963866 -2.785145 -0.085350 -0.592829 0.115248 0.261238
    36 0.028479 -1.403067 0.006271 -0.697209 0.000000 0.000000
    37 0.021413 -0.957781 0.020046 -1.149587 0.000000 0.000000
    38 1.164475 -2.543940 -0.170330 -1.155785 -0.073121 0.430228
    39 0.024032 -1.129042 0.017807 -1.006602 0.000000 0.000001
    40 0.014898 -0.883989 -0.019848 -0.425270 0.000000 0.000000
    41 -0.586770 -1.264477 0.200161 0.028461 -0.460687 -2.530234
    42 1.522835 0.058681 0.016848 0.001410 0.008985 0.623500
    43 1.117947 0.048424 -0.005766 -0.020437 -0.014747 1.002033
    44 -0.139399 -0.111698 0.014397 0.698803 0.130110 1.388802
    45 -6.260806 6.983652 -0.294122 1.580804 -0.005023 -0.912799
  time 30
    0 -0.349399 1.166145 0.203512 0.000000 0.000000 0.000000
    1 8.723248 2.113294 -7.648993 -1.652498 -1.260739 1.301720
    2 -0.071918 -8.498728 -0.104137 0.227367 0.012175 -0.318846
    3 1.174832 -4.813860 0.424332 0.032251 0.115277 -1.246542
    4 0.179597 0.367359 0.000000 0.000000 0.000000 -1.894513
    5 -2.154425 2.333505 0.000000 0.000000 0.000000 1.247079
    6 -1.932693 1.493402 0.000000 0.000000 0.000000 4.039569
    7 -1.869303 -0.329702 0.000000 0.000000 0.000000 -2.241561
    8 0.002374 0.002359 0.000000 0.000000 0.000000 0.000000
    9 33.020318 -2.805441 0.000000 0.000000 0.000000 0.000000
    10 1.257180 8.762585 -0.153713 -1.570562 0.002683 -1.566807
    11 -0.488518 -2.755602 -0.228260 -0.488456 0.067606 -0.177350
    12 0.039887 -1.479790 0.029854 -2.055215 0.000000 0.000001
    13 0.028786 -1.075731 -0.023109 -0.540981 0.000000 0.000000
    14 0.250027 -2.820665 -0.238396 -0.372673 0.065451 -0.123124
    15 -0.049759 -1.680544 0.100479 -2.030651 0.000000 -0.000002
    16 -0.034142 -1.148312 0.084782 -0.832785 0.000000 0.000000
    17 0.957766 -2.746780 -0.090302 0.280848 -0.004811 0.093967
    18 -0.033420 -1.397129 -0.011257 -0.818958 0.000000 -0.000001
    19 -0.022360 -0.957436 0.018784 -0.823736 -0.032982 -0.008353
    20 -1.180681 -2.507217 -0.193859 -0.266100 0.227303 -0.147320
    21 -0.024967 -1.123934 0.017597 -1.309973 0.000000 0.000001
    22 -0.020057 -0.890968 0.010090 -1.428613 0.000000 0.000000
    23 0.583510 -1.197277 0.185379 0.453370 -0.774262 -0.898358
    24 1.535927 0.010246 0.005009 -0.002964 -0.012979 -0.850464
    25 1.100771 0.004527 -0.010679 -0.013330 0.009226 -0.789520
    26 0.120153 -0.050270 -0.054489 0.287569 3.110905 1.561085
    27 0.444097 -0.262358 -11.896178 0.997596 -3.971761 1.440883
    28 0.096944 -8.450418 -0.009365 0.645403 -1.447265 -0.049274
    29 0.447953 -2.798986 -0.200443 -0.949954 0.084282 0.421229
    30 -0.032909 -1.480204 0.004940 -1.124069 0.000000 0.000002
    31 -0.027022 -1.076920 -0.020210 -0.461569 0.000000 0.000000
    32 -0.249534 -2.846964 -0.174213 -0.632779 0.047286 0.373793
    33 0.043235 -1.683941 0.096012 -1.287532 0.002823 -0.000167
    34 0.031729 -1.160830 0.058838 -0.537658 0.000642 0.008372
    35 -0.963866 -2.785145 -0.085350 -0.592829 0.115248 0.261238
    36 0.028479 -1.403067 0.006271 -0.697209 0.000000 0.000000
    37 0.021413 -0.957781 0.020046 -1.149587 0.000000 0.000000
    38 1.164475 -2.543940 -0.170330 -1.155785 -0.073121 0.430228
    39 0.024032 -1.129042 0.017807 -1.006602 0.000000 0.000001
    40 0.014898 -0.883989 -0.019848 -0.425270 0.000000 0.000000
    41 -0.586770 -1.264477 0.200161 0.028461 -0.460687 -2.530234
    42 1.522835 0.058681 0.016848 0.001410 0.008985 0.623500
    43 1.117947 0.048424 -0.005766 -0.020437 -0.014747 1.002033
    44 -0.139399 -0.111698 0.014397 0.698803 0.130110 1.388802
    45 -6.260806 6.983652 -0.294122 1.580804 -0.005023 -0.912799
end
