version 1
nodes
  0 "Bip01 L Forearm" -1
  1 "Bip01 L Hand" 0
  2 "Bone_K1A" 1
  3 "Bone_Reload" 2
  4 "Bone_Magazine" 2
  5 "Bone_SlidingStick" 2
  6 "Bone_Trigger" 2
  7 "Bone_Magazine_Botten" 2
  8 "Bip01 R Forearm" -1
  9 "Bip01 R Hand" 8
  10 "Bip01 R Finger0" 9
  11 "Bip01 R Finger01" 10
  12 "Bip01 R Finger02" 11
  13 "Bip01 R Finger1" 9
  14 "Bip01 R Finger11" 13
  15 "Bip01 R Finger12" 14
  16 "Bip01 R Finger2" 9
  17 "Bip01 R Finger21" 16
  18 "Bip01 R Finger22" 17
  19 "Bip01 R Finger3" 9
  20 "Bip01 R Finger31" 19
  21 "Bip01 R Finger32" 20
  22 "Bip01 R Finger4" 9
  23 "Bip01 R Finger41" 22
  24 "Bip01 R Finger42" 23
  25 "Bone_Se_Hand-R" 9
  26 "Bip01 R ForeTwist2" 8
  27 "Bip01 L Finger0" 1
  28 "Bip01 L Finger01" 27
  29 "Bip01 L Finger02" 28
  30 "Bip01 L Finger1" 1
  31 "Bip01 L Finger11" 30
  32 "Bip01 L Finger12" 31
  33 "Bip01 L Finger2" 1
  34 "Bip01 L Finger21" 33
  35 "Bip01 L Finger22" 34
  36 "Bip01 L Finger3" 1
  37 "Bip01 L Finger31" 36
  38 "Bip01 L Finger32" 37
  39 "Bip01 L Finger4" 1
  40 "Bip01 L Finger41" 39
  41 "Bip01 L Finger42" 40
  42 "Bone_Se_Hand-L" 1
  43 "Bip01 L ForeTwist2" 0
end
skeleton
  time 0
    0 8.783020 3.356207 -8.014816 -0.901613 -0.118747 -1.732735
    1 8.499672 0.000001 -0.000001 -2.217737 0.071236 0.055179
    2 2.483044 0.746121 -0.242963 0.059385 -3.125787 1.387240
    3 0.000000 -6.072898 3.966896 0.000000 0.000000 0.000000
    4 0.000000 -5.306968 -0.748578 0.000000 0.000000 0.000000
    5 0.000001 4.106386 3.073854 1.570796 0.000000 0.000000
    6 0.000000 -2.562485 1.686582 -0.375655 0.000000 0.000000
    7 -0.469865 -4.004093 2.092578 0.000000 -1.570796 0.000000
    8 -0.459607 -9.477891 -9.323021 -0.676255 -0.565328 -0.829136
    9 8.499673 0.000000 0.000001 2.328847 0.273699 0.543518
    10 1.066141 0.161472 0.665474 -2.281339 -0.828833 1.010747
    11 1.535968 -0.000001 -0.000001 0.000000 0.000000 0.311243
    12 1.100830 -0.000001 0.000000 0.000000 0.000000 0.461505
    13 2.725986 -0.106123 1.020464 0.052322 0.067012 0.389522
    14 1.397575 0.000000 0.000000 0.000000 0.000000 1.018368
    15 0.957878 0.000000 -0.000001 0.000000 0.000000 0.721902
    16 2.818702 -0.176450 0.444442 0.250606 0.115521 0.790488
    17 1.684282 -0.000001 0.000001 0.000000 0.000000 1.169036
    18 1.151940 0.000000 -0.000001 0.000000 0.000000 0.585453
    19 2.804605 -0.069564 -0.290473 0.203686 0.118165 0.919294
    20 1.480629 0.000000 -0.000001 0.000000 0.000000 1.061942
    21 1.076366 0.000001 -0.000002 0.000000 0.000000 0.610484
    22 2.637186 0.041572 -0.929335 0.343052 0.184039 0.966582
    23 1.124349 -0.000001 -0.000001 0.000000 0.000000 0.998230
    24 0.891245 0.000001 -0.000001 0.000000 0.000000 0.386426
    25 0.077142 -0.333578 0.116334 -1.439190 2.977021 0.322406
    26 2.428478 -0.000001 0.000000 0.279381 0.000000 0.000000
    27 1.066141 0.161472 -0.665474 2.374423 0.704901 1.046698
    28 1.535968 -0.000001 0.000001 0.000000 0.000000 1.180468
    29 1.100830 0.000000 0.000000 0.000000 0.000000 0.433641
    30 2.725985 -0.106123 -1.020464 -0.067738 -0.027556 -0.128760
    31 1.397574 0.000000 0.000001 0.000000 0.000000 0.352115
    32 0.957879 -0.000001 0.000000 0.000000 0.000000 1.071249
    33 2.818702 -0.176450 -0.444442 -0.196584 -0.091181 0.608085
    34 1.684282 -0.000001 -0.000001 0.000000 0.000000 1.801003
    35 1.151941 0.000000 0.000001 0.000000 0.000000 0.674933
    36 2.804606 -0.069563 0.290473 -0.290281 -0.058740 0.816215
    37 1.480629 0.000000 0.000001 0.000000 0.000000 1.638044
    38 1.076367 0.000000 0.000000 0.000000 0.000000 0.282362
    39 2.637187 0.041572 0.929336 -0.425480 -0.043732 0.918245
    40 1.124349 0.000000 0.000000 0.000000 0.000000 1.285653
    41 0.891246 0.000001 0.000000 0.000000 0.000000 0.517941
    42 0.050302 -0.068011 -0.113034 1.724535 0.010837 0.011384
    43 2.428478 0.000001 0.000000 -0.242955 0.000000 0.000000
  time 1
    0 8.935369 5.668778 -8.526550 -0.898968 -0.157084 -1.741005
    1 8.499672 0.000001 -0.000001 -2.230567 0.034533 0.010155
    2 2.483044 0.746121 -0.242963 0.059385 -3.125787 1.387240
    3 0.000000 -3.232967 3.966896 0.000000 0.000000 0.000000
    4 0.000000 -5.306968 -0.748578 0.000000 0.000000 0.000000
    5 0.000001 4.106386 3.073854 1.570796 0.000000 0.000000
    6 0.000000 -2.562485 1.686582 -0.375655 0.000000 0.000000
    7 -0.469865 -4.004093 2.092578 0.000000 -1.570796 0.000000
    8 -0.639300 -8.915374 -9.963665 -0.865199 -0.781653 -0.560327
    9 8.499673 0.000000 0.000001 2.416367 0.502769 0.582268
    10 1.066141 0.161472 0.665474 -2.261648 -0.806079 0.983832
    11 1.535968 -0.000001 -0.000001 0.000000 0.000000 0.322820
    12 1.100830 -0.000001 0.000000 0.000000 0.000000 0.390202
    13 2.725986 -0.106123 1.020464 0.052322 0.067012 0.389522
    14 1.397575 0.000000 0.000000 0.000000 0.000000 1.018368
    15 0.957878 0.000000 -0.000001 0.000000 0.000000 0.721902
    16 2.818702 -0.176450 0.444442 0.250606 0.115521 0.790488
    17 1.684282 -0.000001 0.000001 0.000000 0.000000 1.169036
    18 1.151940 0.000000 -0.000001 0.000000 0.000000 0.585453
    19 2.804605 -0.069564 -0.290473 0.203686 0.118165 0.919294
    20 1.480629 0.000000 -0.000001 0.000000 0.000000 1.061942
    21 1.076366 0.000001 -0.000002 0.000000 0.000000 0.610484
    22 2.637186 0.041572 -0.929335 0.343052 0.184039 0.966582
    23 1.124349 -0.000001 -0.000001 0.000000 0.000000 0.998230
    24 0.891245 0.000001 -0.000001 0.000000 0.000000 0.386426
    25 0.077142 -0.333578 0.116334 -1.439190 2.977021 0.322406
    26 2.428478 -0.000001 0.000000 0.268844 0.000000 0.000000
    27 1.066141 0.161472 -0.665474 2.374423 0.704901 1.046698
    28 1.535968 -0.000001 0.000001 0.000000 0.000000 1.180468
    29 1.100830 0.000000 0.000000 0.000000 0.000000 0.433641
    30 2.725985 -0.106123 -1.020464 -0.067738 -0.027556 -0.128760
    31 1.397574 0.000000 0.000001 0.000000 0.000000 0.825704
    32 0.957879 -0.000001 0.000000 0.000000 0.000000 0.847789
    33 2.818702 -0.176450 -0.444442 -0.196584 -0.091181 0.608085
    34 1.684282 -0.000001 -0.000001 0.000000 0.000000 1.801003
    35 1.151941 0.000000 0.000001 0.000000 0.000000 0.674933
    36 2.804606 -0.069563 0.290473 -0.290281 -0.058740 0.816215
    37 1.480629 0.000000 0.000001 0.000000 0.000000 1.638044
    38 1.076367 0.000000 0.000000 0.000000 0.000000 0.282362
    39 2.637187 0.041572 0.929336 -0.425480 -0.043732 0.918245
    40 1.124349 0.000000 0.000000 0.000000 0.000000 1.285653
    41 0.891246 0.000001 0.000000 0.000000 0.000000 0.517941
    42 0.050302 -0.068011 -0.113034 1.724535 0.010837 0.011384
    43 2.428478 0.000001 0.000000 -0.247368 0.000000 0.000000
  time 2
    0 8.911930 6.328954 -8.339045 -0.907904 -0.106695 -1.722162
    1 8.499672 0.000001 -0.000001 -2.239343 0.027638 -0.034868
    2 2.483044 0.746121 -0.242963 0.059385 -3.125787 1.387240
    3 0.000000 -1.768079 3.966896 0.000000 0.000000 0.000000
    4 0.000000 -5.306968 -0.748578 0.000000 0.000000 0.000000
    5 0.000001 4.106386 3.073854 1.570796 0.000000 0.000000
    6 0.000000 -2.562485 1.686582 -0.375655 0.000000 0.000000
    7 -0.469865 -4.004093 2.092578 0.000000 -1.570796 0.000000
    8 -0.943997 -8.774744 -10.131639 -0.855728 -0.755238 -0.468158
    9 8.499673 0.000000 0.000001 2.373168 0.584014 0.504951
    10 1.066141 0.161472 0.665474 -2.249215 -0.792179 0.966460
    11 1.535968 -0.000001 -0.000001 0.000000 0.000000 0.334238
    12 1.100830 -0.000001 0.000000 0.000000 0.000000 0.348648
    13 2.725986 -0.106123 1.020464 0.052322 0.067012 0.389522
    14 1.397575 0.000000 0.000000 0.000000 0.000000 1.018368
    15 0.957878 0.000000 -0.000001 0.000000 0.000000 0.721902
    16 2.818702 -0.176450 0.444442 0.250606 0.115521 0.790488
    17 1.684282 -0.000001 0.000001 0.000000 0.000000 1.169036
    18 1.151940 0.000000 -0.000001 0.000000 0.000000 0.585453
    19 2.804605 -0.069564 -0.290473 0.203686 0.118165 0.919294
    20 1.480629 0.000000 -0.000001 0.000000 0.000000 1.061942
    21 1.076366 0.000001 -0.000002 0.000000 0.000000 0.610484
    22 2.637186 0.041572 -0.929335 0.343052 0.184039 0.966582
    23 1.124349 -0.000001 -0.000001 0.000000 0.000000 0.998230
    24 0.891245 0.000001 -0.000001 0.000000 0.000000 0.386426
    25 0.077142 -0.333578 0.116334 -1.439190 2.977021 0.322406
    26 2.428478 -0.000001 0.000000 0.241247 0.000000 0.000000
    27 1.066141 0.161472 -0.665474 2.374423 0.704901 1.046698
    28 1.535968 -0.000001 0.000001 0.000000 0.000000 1.180468
    29 1.100830 0.000000 0.000000 0.000000 0.000000 0.433641
    30 2.725985 -0.106123 -1.020464 -0.067738 -0.027556 -0.128760
    31 1.397574 0.000000 0.000001 0.000000 0.000000 0.825704
    32 0.957879 -0.000001 0.000000 0.000000 0.000000 0.847789
    33 2.818702 -0.176450 -0.444442 -0.196584 -0.091181 0.608085
    34 1.684282 -0.000001 -0.000001 0.000000 0.000000 1.801003
    35 1.151941 0.000000 0.000001 0.000000 0.000000 0.674933
    36 2.804606 -0.069563 0.290473 -0.290281 -0.058740 0.816215
    37 1.480629 0.000000 0.000001 0.000000 0.000000 1.638044
    38 1.076367 0.000000 0.000000 0.000000 0.000000 0.282362
    39 2.637187 0.041572 0.929336 -0.425480 -0.043732 0.918245
    40 1.124349 0.000000 0.000000 0.000000 0.000000 1.285653
    41 0.891246 0.000001 0.000000 0.000000 0.000000 0.517941
    42 0.050302 -0.068011 -0.113034 1.724535 0.010837 0.011384
    43 2.428478 0.000001 0.000000 -0.250604 0.000000 0.000000
  time 3
    0 8.759582 6.430520 -7.987471 -0.904896 -0.079176 -1.700131
    1 8.499672 0.000001 -0.000001 -2.249025 0.065815 -0.028763
    2 2.483044 0.746121 -0.242963 0.059385 -3.125787 1.387240
    3 0.000000 -3.361878 3.966896 0.000000 0.000000 0.000000
    4 0.000000 -5.306968 -0.748578 0.000000 0.000000 0.000000
    5 0.000001 4.106386 3.073854 1.570796 0.000000 0.000000
    6 0.000000 -2.562485 1.686582 -0.375655 0.000000 0.000000
    7 -0.469865 -4.004093 2.092578 0.000000 -1.570796 0.000000
    8 -1.279945 -8.727868 -10.182422 -0.837551 -0.694860 -0.465484
    9 8.499673 0.000000 0.000001 2.392685 0.580026 0.459506
    10 1.066141 0.161472 0.665474 -2.250837 -0.800622 0.968772
    11 1.535968 -0.000001 -0.000001 0.000000 0.000000 0.348194
    12 1.100830 -0.000001 0.000000 0.000000 0.000000 0.381080
    13 2.725986 -0.106123 1.020464 0.052322 0.067012 0.389522
    14 1.397575 0.000000 0.000000 0.000000 0.000000 1.018368
    15 0.957878 0.000000 -0.000001 0.000000 0.000000 0.721902
    16 2.818702 -0.176450 0.444442 0.250606 0.115521 0.790488
    17 1.684282 -0.000001 0.000001 0.000000 0.000000 1.169036
    18 1.151940 0.000000 -0.000001 0.000000 0.000000 0.585453
    19 2.804605 -0.069564 -0.290473 0.203686 0.118165 0.919294
    20 1.480629 0.000000 -0.000001 0.000000 0.000000 1.061942
    21 1.076366 0.000001 -0.000002 0.000000 0.000000 0.610484
    22 2.637186 0.041572 -0.929335 0.343052 0.184039 0.966582
    23 1.124349 -0.000001 -0.000001 0.000000 0.000000 0.998230
    24 0.891245 0.000001 -0.000001 0.000000 0.000000 0.386426
    25 0.077142 -0.333578 0.116334 -1.439190 2.977021 0.322406
    26 2.428478 -0.000001 0.000000 0.247770 0.000000 0.000000
    27 1.066141 0.161472 -0.665474 2.374423 0.704901 1.046698
    28 1.535968 -0.000001 0.000001 0.000000 0.000000 1.180468
    29 1.100830 0.000000 0.000000 0.000000 0.000000 0.433641
    30 2.725985 -0.106123 -1.020464 -0.067738 -0.027556 -0.128760
    31 1.397574 0.000000 0.000001 0.000000 0.000000 0.825704
    32 0.957879 -0.000001 0.000000 0.000000 0.000000 0.969662
    33 2.818702 -0.176450 -0.444442 -0.196584 -0.091181 0.608085
    34 1.684282 -0.000001 -0.000001 0.000000 0.000000 1.801003
    35 1.151941 0.000000 0.000001 0.000000 0.000000 0.674933
    36 2.804606 -0.069563 0.290473 -0.290281 -0.058740 0.816215
    37 1.480629 0.000000 0.000001 0.000000 0.000000 1.638044
    38 1.076367 0.000000 0.000000 0.000000 0.000000 0.282362
    39 2.637187 0.041572 0.929336 -0.425480 -0.043732 0.918245
    40 1.124349 0.000000 0.000000 0.000000 0.000000 1.285653
    41 0.891246 0.000001 0.000000 0.000000 0.000000 0.517941
    42 0.050302 -0.068011 -0.113034 1.724535 0.010837 0.011384
    43 2.428478 0.000001 0.000000 -0.253743 0.000000 0.000000
  time 4
    0 8.736144 6.317235 -7.940595 -0.903192 -0.117925 -1.704561
    1 8.499672 0.000001 -0.000001 -2.208292 0.099879 0.033335
    2 2.483044 0.746121 -0.242963 0.059385 -3.125787 1.387240
    3 0.000000 -6.178370 3.966896 0.000000 0.000000 0.000000
    4 0.000000 -5.306968 -0.748578 0.000000 0.000000 0.000000
    5 0.000001 4.106386 3.073854 1.570796 0.000000 0.000000
    6 0.000000 -2.562485 1.686582 -0.375655 0.000000 0.000000
    7 -0.469865 -4.004093 2.092578 0.000000 -1.570796 0.000000
    8 -1.260413 -8.727868 -10.182422 -0.834681 -0.696440 -0.493793
    9 8.499673 0.000000 0.000001 2.437334 0.538492 0.464586
    10 1.066141 0.161472 0.665474 -2.258018 -0.817096 0.978911
    11 1.535968 -0.000001 -0.000001 0.000000 0.000000 0.361968
    12 1.100830 -0.000001 0.000000 0.000000 0.000000 0.439973
    13 2.725986 -0.106123 1.020464 0.052322 0.067012 0.389522
    14 1.397575 0.000000 0.000000 0.000000 0.000000 1.018368
    15 0.957878 0.000000 -0.000001 0.000000 0.000000 0.721902
    16 2.818702 -0.176450 0.444442 0.250606 0.115521 0.790488
    17 1.684282 -0.000001 0.000001 0.000000 0.000000 1.169036
    18 1.151940 0.000000 -0.000001 0.000000 0.000000 0.585453
    19 2.804605 -0.069564 -0.290473 0.203686 0.118165 0.919294
    20 1.480629 0.000000 -0.000001 0.000000 0.000000 1.061942
    21 1.076366 0.000001 -0.000002 0.000000 0.000000 0.610484
    22 2.637186 0.041572 -0.929335 0.343052 0.184039 0.966582
    23 1.124349 -0.000001 -0.000001 0.000000 0.000000 0.998230
    24 0.891245 0.000001 -0.000001 0.000000 0.000000 0.386426
    25 0.077142 -0.333578 0.116334 -1.439190 2.977021 0.322406
    26 2.428478 -0.000001 0.000000 0.268025 0.000000 0.000000
    27 1.066141 0.161472 -0.665474 2.374423 0.704901 1.046698
    28 1.535968 -0.000001 0.000001 0.000000 0.000000 1.180468
    29 1.100830 0.000000 0.000000 0.000000 0.000000 0.433641
    30 2.725985 -0.106123 -1.020464 -0.067738 -0.027556 -0.128760
    31 1.397574 0.000000 0.000001 0.000000 0.000000 0.574024
    32 0.957879 -0.000001 0.000000 0.000000 0.000000 0.940248
    33 2.818702 -0.176450 -0.444442 -0.196584 -0.091181 0.608085
    34 1.684282 -0.000001 -0.000001 0.000000 0.000000 1.801003
    35 1.151941 0.000000 0.000001 0.000000 0.000000 0.674933
    36 2.804606 -0.069563 0.290473 -0.290281 -0.058740 0.816215
    37 1.480629 0.000000 0.000001 0.000000 0.000000 1.638044
    38 1.076367 0.000000 0.000000 0.000000 0.000000 0.282362
    39 2.637187 0.041572 0.929336 -0.425480 -0.043732 0.918245
    40 1.124349 0.000000 0.000000 0.000000 0.000000 1.285653
    41 0.891246 0.000001 0.000000 0.000000 0.000000 0.517941
    42 0.050302 -0.068011 -0.113034 1.724535 0.010837 0.011384
    43 2.428478 0.000001 0.000000 -0.238702 0.000000 0.000000
  time 5
    0 8.751769 6.153167 -7.948408 -0.900823 -0.152150 -1.713539
    1 8.499672 0.000001 -0.000001 -2.174288 0.115540 0.081363
    2 2.483044 0.746121 -0.242963 0.059385 -3.125787 1.387240
    3 0.000000 -6.072898 3.966896 0.000000 0.000000 0.000000
    4 0.000000 -5.306968 -0.748578 0.000000 0.000000 0.000000
    5 0.000001 4.106386 3.073854 1.570796 0.000000 0.000000
    6 0.000000 -2.562485 1.686582 -0.375655 0.000000 0.000000
    7 -0.469865 -4.004093 2.092578 0.000000 -1.570796 0.000000
    8 -1.119784 -8.739587 -10.170703 -0.836499 -0.711446 -0.526929
    9 8.499673 0.000000 0.000001 2.474121 0.498587 0.486077
    10 1.066141 0.161472 0.665474 -2.263964 -0.827752 0.987038
    11 1.535968 -0.000001 -0.000001 0.000000 0.000000 0.367179
    12 1.100830 -0.000001 0.000000 0.000000 0.000000 0.476631
    13 2.725986 -0.106123 1.020464 0.052322 0.067012 0.389522
    14 1.397575 0.000000 0.000000 0.000000 0.000000 1.018368
    15 0.957878 0.000000 -0.000001 0.000000 0.000000 0.721902
    16 2.818702 -0.176450 0.444442 0.250606 0.115521 0.790488
    17 1.684282 -0.000001 0.000001 0.000000 0.000000 1.169036
    18 1.151940 0.000000 -0.000001 0.000000 0.000000 0.585453
    19 2.804605 -0.069564 -0.290473 0.203686 0.118165 0.919294
    20 1.480629 0.000000 -0.000001 0.000000 0.000000 1.061942
    21 1.076366 0.000001 -0.000002 0.000000 0.000000 0.610484
    22 2.637186 0.041572 -0.929335 0.343052 0.184039 0.966582
    23 1.124349 -0.000001 -0.000001 0.000000 0.000000 0.998230
    24 0.891245 0.000001 -0.000001 0.000000 0.000000 0.386426
    25 0.077142 -0.333578 0.116334 -1.439190 2.977021 0.322406
    26 2.428478 -0.000001 0.000000 0.285768 0.000000 0.000000
    27 1.066141 0.161472 -0.665474 2.374423 0.704901 1.046698
    28 1.535968 -0.000001 0.000001 0.000000 0.000000 1.180468
    29 1.100830 0.000000 0.000000 0.000000 0.000000 0.433641
    30 2.725985 -0.106123 -1.020464 -0.067738 -0.027556 -0.128760
    31 1.397574 0.000000 0.000001 0.000000 0.000000 0.354323
    32 0.957879 -0.000001 0.000000 0.000000 0.000000 0.856193
    33 2.818702 -0.176450 -0.444442 -0.196584 -0.091181 0.608085
    34 1.684282 -0.000001 -0.000001 0.000000 0.000000 1.801003
    35 1.151941 0.000000 0.000001 0.000000 0.000000 0.674933
    36 2.804606 -0.069563 0.290473 -0.290281 -0.058740 0.816215
    37 1.480629 0.000000 0.000001 0.000000 0.000000 1.638044
    38 1.076367 0.000000 0.000000 0.000000 0.000000 0.282362
    39 2.637187 0.041572 0.929336 -0.425480 -0.043732 0.918245
    40 1.124349 0.000000 0.000000 0.000000 0.000000 1.285653
    41 0.891246 0.000001 0.000000 0.000000 0.000000 0.517941
    42 0.050302 -0.068011 -0.113034 1.724535 0.010837 0.011384
    43 2.428478 0.000001 0.000000 -0.226860 0.000000 0.000000
  time 6
    0 8.759582 5.895347 -7.960127 -0.900121 -0.151485 -1.719150
    1 8.499672 0.000001 -0.000001 -2.176610 0.104454 0.078191
    2 2.483044 0.746121 -0.242963 0.059385 -3.125787 1.387240
    3 0.000000 -6.072898 3.966896 0.000000 0.000000 0.000000
    4 0.000000 -5.306968 -0.748578 0.000000 0.000000 0.000000
    5 0.000001 4.106386 3.073854 1.570796 0.000000 0.000000
    6 0.000000 -2.562485 1.686582 -0.375655 0.000000 0.000000
    7 -0.469865 -4.004093 2.092578 0.000000 -1.570796 0.000000
    8 -0.971342 -8.766932 -10.139452 -0.826262 -0.717502 -0.569067
    9 8.499673 0.000000 0.000001 2.471874 0.470648 0.514159
    10 1.066141 0.161472 0.665474 -2.266513 -0.830171 0.990617
    11 1.535968 -0.000001 -0.000001 0.000000 0.000000 0.364347
    12 1.100830 -0.000001 0.000000 0.000000 0.000000 0.483707
    13 2.725986 -0.106123 1.020464 0.052322 0.067012 0.389522
    14 1.397575 0.000000 0.000000 0.000000 0.000000 1.018368
    15 0.957878 0.000000 -0.000001 0.000000 0.000000 0.721902
    16 2.818702 -0.176450 0.444442 0.250606 0.115521 0.790488
    17 1.684282 -0.000001 0.000001 0.000000 0.000000 1.169036
    18 1.151940 0.000000 -0.000001 0.000000 0.000000 0.585453
    19 2.804605 -0.069564 -0.290473 0.203686 0.118165 0.919294
    20 1.480629 0.000000 -0.000001 0.000000 0.000000 1.061942
    21 1.076366 0.000001 -0.000002 0.000000 0.000000 0.610484
    22 2.637186 0.041572 -0.929335 0.343052 0.184039 0.966582
    23 1.124349 -0.000001 -0.000001 0.000000 0.000000 0.998230
    24 0.891245 0.000001 -0.000001 0.000000 0.000000 0.386426
    25 0.077142 -0.333578 0.116334 -1.439190 2.977021 0.322406
    26 2.428478 -0.000001 0.000000 0.290123 0.000000 0.000000
    27 1.066141 0.161472 -0.665474 2.374423 0.704901 1.046698
    28 1.535968 -0.000001 0.000001 0.000000 0.000000 1.180468
    29 1.100830 0.000000 0.000000 0.000000 0.000000 0.433641
    30 2.725985 -0.106123 -1.020464 -0.067738 -0.027556 -0.128760
    31 1.397574 0.000000 0.000001 0.000000 0.000000 0.291903
    32 0.957879 -0.000001 0.000000 0.000000 0.000000 0.713806
    33 2.818702 -0.176450 -0.444442 -0.196584 -0.091181 0.608085
    34 1.684282 -0.000001 -0.000001 0.000000 0.000000 1.801003
    35 1.151941 0.000000 0.000001 0.000000 0.000000 0.674933
    36 2.804606 -0.069563 0.290473 -0.290281 -0.058740 0.816215
    37 1.480629 0.000000 0.000001 0.000000 0.000000 1.638044
    38 1.076367 0.000000 0.000000 0.000000 0.000000 0.282362
    39 2.637187 0.041572 0.929336 -0.425480 -0.043732 0.918245
    40 1.124349 0.000000 0.000000 0.000000 0.000000 1.285653
    41 0.891246 0.000001 0.000000 0.000000 0.000000 0.517941
    42 0.050302 -0.068011 -0.113034 1.724535 0.010837 0.011384
    43 2.428478 0.000001 0.000000 -0.227767 0.000000 0.000000
  time 7
    0 8.767395 5.582837 -7.979659 -0.900184 -0.141079 -1.724525
    1 8.499672 0.000001 -0.000001 -2.189558 0.083860 0.059423
    2 2.483044 0.746121 -0.242963 0.059385 -3.125787 1.387240
    3 0.000000 -6.072898 3.966896 0.000000 0.000000 0.000000
    4 0.000000 -5.306968 -0.748578 0.000000 0.000000 0.000000
    5 0.000001 4.106386 3.073854 1.570796 0.000000 0.000000
    6 0.000000 -2.562485 1.686582 -0.375655 0.000000 0.000000
    7 -0.469865 -4.004093 2.092578 0.000000 -1.570796 0.000000
    8 -0.815087 -8.813808 -10.076950 -0.812390 -0.720310 -0.614663
    9 8.499673 0.000000 0.000001 2.455353 0.445067 0.543700
    10 1.066141 0.161472 0.665474 -2.268829 -0.831510 0.993674
    11 1.535968 -0.000001 -0.000001 0.000000 0.000000 0.359952
    12 1.100830 -0.000001 0.000000 0.000000 0.000000 0.486692
    13 2.725986 -0.106123 1.020464 0.052322 0.067012 0.389522
    14 1.397575 0.000000 0.000000 0.000000 0.000000 1.018368
    15 0.957878 0.000000 -0.000001 0.000000 0.000000 0.721902
    16 2.818702 -0.176450 0.444442 0.250606 0.115521 0.790488
    17 1.684282 -0.000001 0.000001 0.000000 0.000000 1.169036
    18 1.151940 0.000000 -0.000001 0.000000 0.000000 0.585453
    19 2.804605 -0.069564 -0.290473 0.203686 0.118165 0.919294
    20 1.480629 0.000000 -0.000001 0.000000 0.000000 1.061942
    21 1.076366 0.000001 -0.000002 0.000000 0.000000 0.610484
    22 2.637186 0.041572 -0.929335 0.343052 0.184039 0.966582
    23 1.124349 -0.000001 -0.000001 0.000000 0.000000 0.998230
    24 0.891245 0.000001 -0.000001 0.000000 0.000000 0.386426
    25 0.077142 -0.333578 0.116334 -1.439190 2.977021 0.322406
    26 2.428478 -0.000001 0.000000 0.290209 0.000000 0.000000
    27 1.066141 0.161472 -0.665474 2.374423 0.704901 1.046698
    28 1.535968 -0.000001 0.000001 0.000000 0.000000 1.180468
    29 1.100830 0.000000 0.000000 0.000000 0.000000 0.433641
    30 2.725985 -0.106123 -1.020464 -0.067738 -0.027556 -0.128760
    31 1.397574 0.000000 0.000001 0.000000 0.000000 0.273725
    32 0.957879 -0.000001 0.000000 0.000000 0.000000 0.539187
    33 2.818702 -0.176450 -0.444442 -0.196584 -0.091181 0.608085
    34 1.684282 -0.000001 -0.000001 0.000000 0.000000 1.801003
    35 1.151941 0.000000 0.000001 0.000000 0.000000 0.674933
    36 2.804606 -0.069563 0.290473 -0.290281 -0.058740 0.816215
    37 1.480629 0.000000 0.000001 0.000000 0.000000 1.638044
    38 1.076367 0.000000 0.000000 0.000000 0.000000 0.282362
    39 2.637187 0.041572 0.929336 -0.425480 -0.043732 0.918245
    40 1.124349 0.000000 0.000000 0.000000 0.000000 1.285653
    41 0.891246 0.000001 0.000000 0.000000 0.000000 0.517941
    42 0.050302 -0.068011 -0.113034 1.724535 0.010837 0.011384
    43 2.428478 0.000001 0.000000 -0.232352 0.000000 0.000000
  time 8
    0 8.779114 5.231264 -8.003097 -0.900886 -0.127857 -1.729250
    1 8.499672 0.000001 -0.000001 -2.204868 0.061753 0.037222
    2 2.483044 0.746121 -0.242963 0.059385 -3.125787 1.387240
    3 0.000000 -6.072898 3.966896 0.000000 0.000000 0.000000
    4 0.000000 -5.306968 -0.748578 0.000000 0.000000 0.000000
    5 0.000001 4.106386 3.073854 1.570796 0.000000 0.000000
    6 0.000000 -2.562485 1.686582 -0.375655 0.000000 0.000000
    7 -0.469865 -4.004093 2.092578 0.000000 -1.570796 0.000000
    8 -0.666645 -8.888029 -9.987104 -0.796509 -0.716712 -0.659606
    9 8.499673 0.000000 0.000001 2.432046 0.419743 0.568070
    10 1.066141 0.161472 0.665474 -2.270837 -0.832025 0.996507
    11 1.535968 -0.000001 -0.000001 0.000000 0.000000 0.354265
    12 1.100830 -0.000001 0.000000 0.000000 0.000000 0.486357
    13 2.725986 -0.106123 1.020464 0.052322 0.067012 0.389522
    14 1.397575 0.000000 0.000000 0.000000 0.000000 1.018368
    15 0.957878 0.000000 -0.000001 0.000000 0.000000 0.721902
    16 2.818702 -0.176450 0.444442 0.250606 0.115521 0.790488
    17 1.684282 -0.000001 0.000001 0.000000 0.000000 1.169036
    18 1.151940 0.000000 -0.000001 0.000000 0.000000 0.585453
    19 2.804605 -0.069564 -0.290473 0.203686 0.118165 0.919294
    20 1.480629 0.000000 -0.000001 0.000000 0.000000 1.061942
    21 1.076366 0.000001 -0.000002 0.000000 0.000000 0.610484
    22 2.637186 0.041572 -0.929335 0.343052 0.184039 0.966582
    23 1.124349 -0.000001 -0.000001 0.000000 0.000000 0.998230
    24 0.891245 0.000001 -0.000001 0.000000 0.000000 0.386426
    25 0.077142 -0.333578 0.116334 -1.439190 2.977021 0.322406
    26 2.428478 -0.000001 0.000000 0.288484 0.000000 0.000000
    27 1.066141 0.161472 -0.665474 2.374423 0.704901 1.046698
    28 1.535968 -0.000001 0.000001 0.000000 0.000000 1.180468
    29 1.100830 0.000000 0.000000 0.000000 0.000000 0.433641
    30 2.725985 -0.106123 -1.020464 -0.067738 -0.027556 -0.128760
    31 1.397574 0.000000 0.000001 0.000000 0.000000 0.273966
    32 0.957879 -0.000001 0.000000 0.000000 0.000000 0.391708
    33 2.818702 -0.176450 -0.444442 -0.196584 -0.091181 0.608085
    34 1.684282 -0.000001 -0.000001 0.000000 0.000000 1.801003
    35 1.151941 0.000000 0.000001 0.000000 0.000000 0.674933
    36 2.804606 -0.069563 0.290473 -0.290281 -0.058740 0.816215
    37 1.480629 0.000000 0.000001 0.000000 0.000000 1.638044
    38 1.076367 0.000000 0.000000 0.000000 0.000000 0.282362
    39 2.637187 0.041572 0.929336 -0.425480 -0.043732 0.918245
    40 1.124349 0.000000 0.000000 0.000000 0.000000 1.285653
    41 0.891246 0.000001 0.000000 0.000000 0.000000 0.517941
    42 0.050302 -0.068011 -0.113034 1.724535 0.010837 0.011384
    43 2.428478 0.000001 0.000000 -0.237856 0.000000 0.000000
  time 9
    0 8.783020 4.864066 -8.014816 -0.901613 -0.118747 -1.732735
    1 8.499672 0.000001 -0.000001 -2.215139 0.046669 0.023152
    2 2.483044 0.746121 -0.242963 0.059385 -3.125787 1.387240
    3 0.000000 -6.072898 3.966896 0.000000 0.000000 0.000000
    4 0.000000 -5.306968 -0.748578 0.000000 0.000000 0.000000
    5 0.000001 4.106386 3.073854 1.570796 0.000000 0.000000
    6 0.000000 -2.562485 1.686582 -0.375655 0.000000 0.000000
    7 -0.469865 -4.004093 2.092578 0.000000 -1.570796 0.000000
    8 -0.549454 -8.981782 -9.873819 -0.778907 -0.704777 -0.702005
    9 8.499673 0.000000 0.000001 2.409627 0.391740 0.582593
    10 1.066141 0.161472 0.665474 -2.272691 -0.831870 0.999042
    11 1.535968 -0.000001 -0.000001 0.000000 0.000000 0.347627
    12 1.100830 -0.000001 0.000000 0.000000 0.000000 0.483573
    13 2.725986 -0.106123 1.020464 0.052322 0.067012 0.389522
    14 1.397575 0.000000 0.000000 0.000000 0.000000 1.018368
    15 0.957878 0.000000 -0.000001 0.000000 0.000000 0.721902
    16 2.818702 -0.176450 0.444442 0.250606 0.115521 0.790488
    17 1.684282 -0.000001 0.000001 0.000000 0.000000 1.169036
    18 1.151940 0.000000 -0.000001 0.000000 0.000000 0.585453
    19 2.804605 -0.069564 -0.290473 0.203686 0.118165 0.919294
    20 1.480629 0.000000 -0.000001 0.000000 0.000000 1.061942
    21 1.076366 0.000001 -0.000002 0.000000 0.000000 0.610484
    22 2.637186 0.041572 -0.929335 0.343052 0.184039 0.966582
    23 1.124349 -0.000001 -0.000001 0.000000 0.000000 0.998230
    24 0.891245 0.000001 -0.000001 0.000000 0.000000 0.386426
    25 0.077142 -0.333578 0.116334 -1.439190 2.977021 0.322406
    26 2.428478 -0.000001 0.000000 0.287357 0.000000 0.000000
    27 1.066141 0.161472 -0.665474 2.374423 0.704901 1.046698
    28 1.535968 -0.000001 0.000001 0.000000 0.000000 1.180468
    29 1.100830 0.000000 0.000000 0.000000 0.000000 0.433641
    30 2.725985 -0.106123 -1.020464 -0.067738 -0.027556 -0.128760
    31 1.397574 0.000000 0.000001 0.000000 0.000000 0.266806
    32 0.957879 -0.000001 0.000000 0.000000 0.000000 0.330755
    33 2.818702 -0.176450 -0.444442 -0.196584 -0.091181 0.608085
    34 1.684282 -0.000001 -0.000001 0.000000 0.000000 1.801003
    35 1.151941 0.000000 0.000001 0.000000 0.000000 0.674933
    36 2.804606 -0.069563 0.290473 -0.290281 -0.058740 0.816215
    37 1.480629 0.000000 0.000001 0.000000 0.000000 1.638044
    38 1.076367 0.000000 0.000000 0.000000 0.000000 0.282362
    39 2.637187 0.041572 0.929336 -0.425480 -0.043732 0.918245
    40 1.124349 0.000000 0.000000 0.000000 0.000000 1.285653
    41 0.891246 0.000001 0.000000 0.000000 0.000000 0.517941
    42 0.050302 -0.068011 -0.113034 1.724535 0.010837 0.011384
    43 2.428478 0.000001 0.000000 -0.241631 0.000000 0.000000
  time 10
    0 8.786927 4.496867 -8.018722 -0.901813 -0.116628 -1.733976
    1 8.499672 0.000001 -0.000001 -2.217422 0.045067 0.023343
    2 2.483044 0.746121 -0.242963 0.059385 -3.125787 1.387240
    3 0.000000 -6.072898 3.966896 0.000000 0.000000 0.000000
    4 0.000000 -5.306968 -0.748578 0.000000 0.000000 0.000000
    5 0.000001 4.106386 3.073854 1.570796 0.000000 0.000000
    6 0.000000 -2.562485 1.686582 -0.375655 0.000000 0.000000
    7 -0.469865 -4.004093 2.092578 0.000000 -1.570796 0.000000
    8 -0.471326 -9.079441 -9.756628 -0.759295 -0.682486 -0.741599
    9 8.499673 0.000000 0.000001 2.393668 0.359340 0.585211
    10 1.066141 0.161472 0.665474 -2.274467 -0.831252 1.001353
    11 1.535968 -0.000001 -0.000001 0.000000 0.000000 0.340355
    12 1.100830 -0.000001 0.000000 0.000000 0.000000 0.479180
    13 2.725986 -0.106123 1.020464 0.052322 0.067012 0.389522
    14 1.397575 0.000000 0.000000 0.000000 0.000000 1.018368
    15 0.957878 0.000000 -0.000001 0.000000 0.000000 0.721902
    16 2.818702 -0.176450 0.444442 0.250606 0.115521 0.790488
    17 1.684282 -0.000001 0.000001 0.000000 0.000000 1.169036
    18 1.151940 0.000000 -0.000001 0.000000 0.000000 0.585453
    19 2.804605 -0.069564 -0.290473 0.203686 0.118165 0.919294
    20 1.480629 0.000000 -0.000001 0.000000 0.000000 1.061942
    21 1.076366 0.000001 -0.000002 0.000000 0.000000 0.610484
    22 2.637186 0.041572 -0.929335 0.343052 0.184039 0.966582
    23 1.124349 -0.000001 -0.000001 0.000000 0.000000 0.998230
    24 0.891245 0.000001 -0.000001 0.000000 0.000000 0.386426
    25 0.077142 -0.333578 0.116334 -1.439190 2.977021 0.322406
    26 2.428478 -0.000001 0.000000 0.288330 0.000000 0.000000
    27 1.066141 0.161472 -0.665474 2.374423 0.704901 1.046698
    28 1.535968 -0.000001 0.000001 0.000000 0.000000 1.180468
    29 1.100830 0.000000 0.000000 0.000000 0.000000 0.433641
    30 2.725985 -0.106123 -1.020464 -0.067738 -0.027556 -0.128760
    31 1.397574 0.000000 0.000001 0.000000 0.000000 0.246921
    32 0.957879 -0.000001 0.000000 0.000000 0.000000 0.455660
    33 2.818702 -0.176450 -0.444442 -0.196584 -0.091181 0.608085
    34 1.684282 -0.000001 -0.000001 0.000000 0.000000 1.801003
    35 1.151941 0.000000 0.000001 0.000000 0.000000 0.674933
    36 2.804606 -0.069563 0.290473 -0.290281 -0.058740 0.816215
    37 1.480629 0.000000 0.000001 0.000000 0.000000 1.638044
    38 1.076367 0.000000 0.000000 0.000000 0.000000 0.282362
    39 2.637187 0.041572 0.929336 -0.425480 -0.043732 0.918245
    40 1.124349 0.000000 0.000000 0.000000 0.000000 1.285653
    41 0.891246 0.000001 0.000000 0.000000 0.000000 0.517941
    42 0.050302 -0.068011 -0.113034 1.724535 0.010837 0.011384
    43 2.428478 0.000001 0.000000 -0.242489 0.000000 0.000000
  time 11
    0 8.786927 4.157013 -8.018722 -0.901713 -0.117703 -1.733385
    1 8.499672 0.000001 -0.000001 -2.215926 0.051372 0.030568
    2 2.483044 0.746121 -0.242963 0.059385 -3.125787 1.387240
    3 0.000000 -6.072898 3.966896 0.000000 0.000000 0.000000
    4 0.000000 -5.306968 -0.748578 0.000000 0.000000 0.000000
    5 0.000001 4.106386 3.073854 1.570796 0.000000 0.000000
    6 0.000000 -2.562485 1.686582 -0.375655 0.000000 0.000000
    7 -0.469865 -4.004093 2.092578 0.000000 -1.570796 0.000000
    8 -0.428356 -9.177100 -9.647249 -0.739204 -0.654579 -0.774474
    9 8.499673 0.000000 0.000001 2.380657 0.328806 0.579637
    10 1.066141 0.161472 0.665474 -2.276088 -0.830429 1.003664
    11 1.535968 -0.000001 -0.000001 0.000000 0.000000 0.332765
    12 1.100830 -0.000001 0.000000 0.000000 0.000000 0.473914
    13 2.725986 -0.106123 1.020464 0.052322 0.067012 0.389522
    14 1.397575 0.000000 0.000000 0.000000 0.000000 1.018368
    15 0.957878 0.000000 -0.000001 0.000000 0.000000 0.721902
    16 2.818702 -0.176450 0.444442 0.250606 0.115521 0.790488
    17 1.684282 -0.000001 0.000001 0.000000 0.000000 1.169036
    18 1.151940 0.000000 -0.000001 0.000000 0.000000 0.585453
    19 2.804605 -0.069564 -0.290473 0.203686 0.118165 0.919294
    20 1.480629 0.000000 -0.000001 0.000000 0.000000 1.061942
    21 1.076366 0.000001 -0.000002 0.000000 0.000000 0.610484
    22 2.637186 0.041572 -0.929335 0.343052 0.184039 0.966582
    23 1.124349 -0.000001 -0.000001 0.000000 0.000000 0.998230
    24 0.891245 0.000001 -0.000001 0.000000 0.000000 0.386426
    25 0.077142 -0.333578 0.116334 -1.439190 2.977021 0.322406
    26 2.428478 -0.000001 0.000000 0.289235 0.000000 0.000000
    27 1.066141 0.161472 -0.665474 2.374423 0.704901 1.046698
    28 1.535968 -0.000001 0.000001 0.000000 0.000000 1.180468
    29 1.100830 0.000000 0.000000 0.000000 0.000000 0.433641
    30 2.725985 -0.106123 -1.020464 -0.067738 -0.027556 -0.128760
    31 1.397574 0.000000 0.000001 0.000000 0.000000 0.229150
    32 0.957879 -0.000001 0.000000 0.000000 0.000000 0.699173
    33 2.818702 -0.176450 -0.444442 -0.196584 -0.091181 0.608085
    34 1.684282 -0.000001 -0.000001 0.000000 0.000000 1.801003
    35 1.151941 0.000000 0.000001 0.000000 0.000000 0.674933
    36 2.804606 -0.069563 0.290473 -0.290281 -0.058740 0.816215
    37 1.480629 0.000000 0.000001 0.000000 0.000000 1.638044
    38 1.076367 0.000000 0.000000 0.000000 0.000000 0.282362
    39 2.637187 0.041572 0.929336 -0.425480 -0.043732 0.918245
    40 1.124349 0.000000 0.000000 0.000000 0.000000 1.285653
    41 0.891246 0.000001 0.000000 0.000000 0.000000 0.517941
    42 0.050302 -0.068011 -0.113034 1.724535 0.010837 0.011384
    43 2.428478 0.000001 0.000000 -0.241975 0.000000 0.000000
  time 12
    0 8.783020 3.883567 -8.014816 -0.901613 -0.118747 -1.732735
    1 8.499672 0.000001 -0.000001 -2.214470 0.056383 0.036077
    2 2.483044 0.746121 -0.242963 0.059385 -3.125787 1.387240
    3 0.000000 -6.072898 3.966896 0.000000 0.000000 0.000000
    4 0.000000 -5.306968 -0.748578 0.000000 0.000000 0.000000
    5 0.000001 4.106386 3.073854 1.570796 0.000000 0.000000
    6 0.000000 -2.562485 1.686582 -0.375655 0.000000 0.000000
    7 -0.469865 -4.004093 2.092578 0.000000 -1.570796 0.000000
    8 -0.412731 -9.274760 -9.537871 -0.720262 -0.630182 -0.796130
    9 8.499673 0.000000 0.000001 2.365072 0.307943 0.570584
    10 1.066141 0.161472 0.665474 -2.277787 -0.829605 1.005901
    11 1.535968 -0.000001 -0.000001 0.000000 0.000000 0.325153
    12 1.100830 -0.000001 0.000000 0.000000 0.000000 0.468682
    13 2.725986 -0.106123 1.020464 0.052322 0.067012 0.389522
    14 1.397575 0.000000 0.000000 0.000000 0.000000 1.018368
    15 0.957878 0.000000 -0.000001 0.000000 0.000000 0.721902
    16 2.818702 -0.176450 0.444442 0.250606 0.115521 0.790488
    17 1.684282 -0.000001 0.000001 0.000000 0.000000 1.169036
    18 1.151940 0.000000 -0.000001 0.000000 0.000000 0.585453
    19 2.804605 -0.069564 -0.290473 0.203686 0.118165 0.919294
    20 1.480629 0.000000 -0.000001 0.000000 0.000000 1.061942
    21 1.076366 0.000001 -0.000002 0.000000 0.000000 0.610484
    22 2.637186 0.041572 -0.929335 0.343052 0.184039 0.966582
    23 1.124349 -0.000001 -0.000001 0.000000 0.000000 0.998230
    24 0.891245 0.000001 -0.000001 0.000000 0.000000 0.386426
    25 0.077142 -0.333578 0.116334 -1.439190 2.977021 0.322406
    26 2.428478 -0.000001 0.000000 0.287288 0.000000 0.000000
    27 1.066141 0.161472 -0.665474 2.374423 0.704901 1.046698
    28 1.535968 -0.000001 0.000001 0.000000 0.000000 1.180468
    29 1.100830 0.000000 0.000000 0.000000 0.000000 0.433641
    30 2.725985 -0.106123 -1.020464 -0.067738 -0.027556 -0.128760
    31 1.397574 0.000000 0.000001 0.000000 0.000000 0.217909
    32 0.957879 -0.000001 0.000000 0.000000 0.000000 0.870694
    33 2.818702 -0.176450 -0.444442 -0.196584 -0.091181 0.608085
    34 1.684282 -0.000001 -0.000001 0.000000 0.000000 1.801003
    35 1.151941 0.000000 0.000001 0.000000 0.000000 0.674933
    36 2.804606 -0.069563 0.290473 -0.290281 -0.058740 0.816215
    37 1.480629 0.000000 0.000001 0.000000 0.000000 1.638044
    38 1.076367 0.000000 0.000000 0.000000 0.000000 0.282362
    39 2.637187 0.041572 0.929336 -0.425480 -0.043732 0.918245
    40 1.124349 0.000000 0.000000 0.000000 0.000000 1.285653
    41 0.891246 0.000001 0.000000 0.000000 0.000000 0.517941
    42 0.050302 -0.068011 -0.113034 1.724535 0.010837 0.011384
    43 2.428478 0.000001 0.000000 -0.241484 0.000000 0.000000
end
