// Created by Crowbar 0.62

$modelname "weapons/tfa_cso/c_hwando.mdl"

$Include "csonline_gmod.qci"

$bodygroup "weapon"
{
	studio "v_y20s1sword_ref_20s1sword"
}

$CDMaterials "models\weapons\tfa_cso\hwando\"

$sequence "idle" {
	"v_y20s1sword_anims\idle"
	fps 15
	activity "ACT_VM_IDLE" 1
	snap
	loop
}
$sequence "slash1" {
	"v_y20s1sword_anims\slash1"
	fps 30
}
$sequence "slash2" {
	"v_y20s1sword_anims\slash2"
	fps 30
}
$sequence "draw" {
	"v_y20s1sword_anims\draw"
	{ event 5004 0 "Hwando.Draw" }
	fps 30
	activity "ACT_VM_DRAW" 1
	snap
}
$sequence "stab" {
	"v_y20s1sword_anims\stab"
	{ event 5004 7 "Hwando.Slash1" }
	fps 30
	activity "ACT_VM_MISSLEFT" 1
	snap
}
$sequence "stab_miss" {
	"v_y20s1sword_anims\stab_miss"
	fps 30
}
$sequence "midslash1" {
	"v_y20s1sword_anims\midslash1"
	{ event 5004 3 "Hwando.Slash1" }
	fps 30
	activity "ACT_VM_HITLEFT" 1
	snap
}
$sequence "midslash2" {
	"v_y20s1sword_anims\midslash2"
	{ event 5004 7 "Hwando.Slash2" }
	fps 30
	activity "ACT_VM_HITRIGHT" 1
	snap
}
