version 1
nodes
  0 "root" -1
  1 "Bone01" 0
  2 "Bone_L_Upper" 1
  3 "Bone_Lefthand" 1
  4 "Bone13" 3
  5 "Bone14" 4
  6 "Bone15" 5
  7 "Bone17" 3
  8 "Bone18" 7
  9 "Bone19" 8
  10 "Bone21" 3
  11 "Bone22" 10
  12 "Bone23" 11
  13 "Bone09" 3
  14 "Bone10" 13
  15 "Bone11" 14
  16 "Bone05" 3
  17 "Bone06" 16
  18 "Bone07" 17
  19 "Bone_Se_Hand-L" 3
  20 "Bone04" 0
  21 "Bone_Righthand" 20
  22 "Bone39" 21
  23 "Bone40" 22
  24 "Bone41" 23
  25 "Bone35" 21
  26 "Bone36" 25
  27 "Bone37" 26
  28 "Bone31" 21
  29 "Bone32" 28
  30 "Bone33" 29
  31 "Bone43" 21
  32 "Bone44" 31
  33 "Bone45" 32
  34 "Bone27" 21
  35 "Bone28" 34
  36 "Bone29" 35
  37 "Bone_Se_Hand-R" 21
  38 "Bone_R_Upper" 20
  39 "d_root" -1
  40 "trigger" 39
  41 "Bone08" 39
  42 "Bone03" 39
  43 "Bone02" 42
  44 "Bone16" 43
  45 "Bone12" 44
  46 "d_root01" -1
  47 "Bone48" 46
  48 "trigger01" 46
  49 "Bone46" 46
  50 "Bone47" 49
  51 "Baa01" 50
  52 "Baa02" 51
  53 "d22" 46
  54 "d11" 53
  55 "lighfxx" 46
  56 "lighfxxxxx" 39
  57 "glass" 39
  58 "glass2" 57
  59 "Dum11my02" -1
  60 "Du11mmy01" 59
end
skeleton
  time 0
    0 -3.120035 1.205803 -4.069818 -0.009720 -0.055489 -0.374591
    1 11.259382 -0.584626 -0.893540 0.086163 2.524751 -0.948424
    2 8.976166 1.215479 -1.505317 1.553175 -3.112441 0.377479
    3 0.213244 -9.998782 -1.248700 0.269793 -0.216427 0.245210
    4 -0.488518 -2.755602 -0.228260 0.048296 0.061710 -0.163400
    5 0.039887 -1.491509 0.018135 -0.502876 -0.008881 0.007923
    6 0.028786 -1.083544 -0.046547 -0.200593 -0.004626 0.002840
    7 0.250027 -2.820665 -0.238396 0.169126 0.049679 -0.018702
    8 -0.049759 -1.649293 0.100479 -0.388391 0.006639 -0.009913
    9 -0.034142 -1.148312 0.084782 -0.020433 -0.000407 0.000407
    10 0.957766 -2.746780 -0.090302 0.296097 -0.059725 0.087028
    11 -0.033420 -1.397129 -0.019070 -0.433681 0.007934 -0.020974
    12 -0.022360 -0.957436 0.018784 0.116700 -0.003344 0.004602
    13 -1.180681 -2.507217 -0.193859 0.147031 0.049583 -0.137507
    14 -0.024967 -1.123934 0.017597 -0.531118 0.007418 -0.021931
    15 -0.020057 -0.894874 0.010090 -0.252258 0.004219 -0.007634
    16 0.583510 -1.189464 0.181473 0.323528 -0.493888 -0.691403
    17 1.512489 -0.161634 0.051885 0.019639 -0.165675 -0.559197
    18 1.092958 -0.069694 0.008853 -0.003383 -0.083199 -0.353194
    19 0.120153 -0.050270 -0.054489 0.287569 3.110905 1.561085
    20 -5.618588 -2.844468 -6.856961 1.098155 -4.103331 1.396520
    21 0.104757 -8.587141 -0.024990 0.267756 -0.136143 -0.523111
    22 0.447953 -2.798986 -0.200443 -1.102093 -0.014842 0.154548
    23 -0.032909 -1.499736 0.040097 -1.867668 0.020853 -0.039703
    24 -0.027022 -1.084733 -0.024116 -0.240942 0.006699 -0.001690
    25 -0.249534 -2.846964 -0.174213 -0.506443 -0.009677 0.074202
    26 0.043235 -1.660503 0.049136 -2.061415 -0.024969 0.019632
    27 0.031729 -1.153017 0.058838 -0.486236 -0.004415 0.005723
    28 -0.963866 -2.785145 -0.085350 0.115767 0.161701 0.061678
    29 0.028479 -1.403067 0.002365 -0.249724 -0.003272 -0.011421
    30 0.021413 -0.957781 0.020046 0.168675 0.000587 0.007418
    31 1.164475 -2.543940 -0.170330 -1.287253 -0.158056 0.208416
    32 0.024032 -1.144668 -0.005631 -1.194798 0.018936 0.059481
    33 0.014898 -0.899614 -0.019848 -0.774879 0.002301 0.039238
    34 -0.586770 -1.264477 0.200161 -0.225941 -0.693912 -2.492790
    35 1.554086 0.035243 0.016848 -0.013031 -0.005121 0.678841
    36 1.114041 0.044518 -0.005766 -0.017597 -0.034354 0.685966
    37 -0.139399 -0.111698 0.014397 0.285382 -0.030687 1.580508
    38 -8.241335 0.639708 -0.473815 1.566183 -0.036471 -0.155658
    39 -9.174950 -8.621357 -0.088664 -1.619759 -0.593725 1.402544
    40 -0.445597 0.884378 -0.000001 0.000000 0.000000 -2.855763
    41 0.752335 0.955584 -0.000001 0.000000 0.000002 -0.000001
    42 0.227005 -1.459700 -0.336619 0.000000 0.000000 -1.570796
    43 -1.773792 0.941444 0.336619 0.000000 0.000000 0.000000
    44 -12.940949 -13.876676 0.063470 0.000000 0.000000 3.141592
    45 -2.191151 0.000000 0.000000 0.000000 0.000000 0.000000
    46 28.767628 0.000000 -20.407471 0.000000 -1.570796 -1.570796
    47 0.752335 0.955585 -0.000001 0.000000 0.000002 -0.000001
    48 -0.445597 0.884380 -0.000001 0.000000 0.000000 -2.855763
    49 0.227003 -1.459700 0.523556 0.000000 0.000000 -1.570796
    50 -1.773792 0.941444 -0.523556 0.000000 0.000000 0.000000
    51 -19.860804 -4.372061 -0.000001 0.000000 0.000000 3.141592
    52 -0.004971 0.000000 0.000000 0.000000 0.000000 3.141592
    53 1.105276 0.472918 0.044064 1.396626 1.315062 2.998056
    54 0.000000 0.000002 -0.051336 0.000000 0.000000 0.000000
    55 -21.550318 25.867062 0.077498 0.000001 1.570451 0.000000
    56 -13.515524 35.221081 -0.542491 0.000001 1.570451 0.000000
    57 0.176298 1.520552 -0.810270 -0.118239 2.969701 0.696800
    58 0.000000 0.000000 0.004268 0.000000 0.000000 0.628280
    59 50.887146 9.091324 -31.729149 0.000000 0.000000 -1.570796
    60 -0.000001 0.000000 0.008734 0.000000 0.000000 0.000000
  time 1
    0 -3.120035 1.205803 -4.069818 -0.009720 -0.055489 -0.374591
    1 11.107033 -0.791664 -0.741192 0.082628 2.489548 -0.972860
    2 8.972259 1.465487 -1.501410 1.552696 -3.112920 0.407017
    3 0.217150 -9.994876 -1.240887 0.235083 -0.187478 0.257741
    4 -0.488518 -2.755602 -0.228260 0.058479 0.061171 -0.160032
    5 0.039887 -1.491509 0.018135 -0.468559 -0.008329 0.007180
    6 0.028786 -1.079637 -0.046547 -0.191744 -0.004434 0.002697
    7 0.250027 -2.820665 -0.238396 0.173618 0.048625 -0.014376
    8 -0.049759 -1.653199 0.100479 -0.355993 0.006268 -0.009026
    9 -0.034142 -1.148312 0.084782 -0.003338 -0.000767 0.000755
    10 0.957766 -2.746780 -0.090302 0.302295 -0.056465 0.091367
    11 -0.033420 -1.397129 -0.019070 -0.432524 0.007922 -0.020914
    12 -0.022360 -0.957436 0.018784 0.133420 -0.003883 0.005261
    13 -1.180681 -2.507217 -0.193859 0.165710 0.045676 -0.135387
    14 -0.024967 -1.123934 0.017597 -0.498261 0.007287 -0.020433
    15 -0.020057 -0.894874 0.010090 -0.241686 0.004027 -0.007191
    16 0.583510 -1.189464 0.177566 0.338098 -0.486645 -0.693604
    17 1.512489 -0.161634 0.051885 0.019795 -0.166010 -0.560570
    18 1.092958 -0.069694 0.008853 -0.003168 -0.084458 -0.357769
    19 0.120153 -0.050270 -0.054489 0.287569 3.110905 1.561085
    20 -5.692809 -2.688213 -6.970246 1.081989 -4.134161 1.366181
    21 0.104757 -8.591048 -0.024990 0.275222 -0.128708 -0.534975
    22 0.447953 -2.798986 -0.200443 -1.102093 -0.014842 0.154548
    23 -0.032909 -1.499736 0.040097 -1.867668 0.020853 -0.039703
    24 -0.027022 -1.084733 -0.024116 -0.240942 0.006699 -0.001690
    25 -0.249534 -2.846964 -0.174213 -0.506443 -0.009677 0.074202
    26 0.043235 -1.660503 0.049136 -2.061415 -0.024969 0.019632
    27 0.031729 -1.153017 0.058838 -0.486236 -0.004415 0.005723
    28 -0.963866 -2.785145 -0.085350 0.115767 0.161701 0.061678
    29 0.028479 -1.403067 0.002365 -0.249724 -0.003272 -0.011421
    30 0.021413 -0.957781 0.020046 0.168675 0.000587 0.007418
    31 1.164475 -2.543940 -0.170330 -1.287253 -0.158056 0.208416
    32 0.024032 -1.144668 -0.005631 -1.194798 0.018936 0.059481
    33 0.014898 -0.899614 -0.019848 -0.774879 0.002301 0.039238
    34 -0.586770 -1.264477 0.200161 -0.225941 -0.693912 -2.492790
    35 1.554086 0.035243 0.016848 -0.013031 -0.005121 0.678841
    36 1.114041 0.044518 -0.005766 -0.017597 -0.034354 0.685966
    37 -0.139399 -0.111698 0.014397 0.285382 -0.030687 1.580508
    38 -8.241335 0.631895 -0.473815 1.566159 -0.036483 -0.154431
    39 -9.444489 -8.711203 -0.475394 -1.628207 -0.613877 1.384607
    40 -0.445597 0.884378 -0.000001 0.000000 0.000000 -2.855763
    41 0.752335 0.955584 -0.000001 0.000000 0.000002 -0.000001
    42 0.227005 -1.459700 -0.336619 0.000000 0.000000 -1.570796
    43 -1.773792 0.941444 0.336619 0.000000 0.000000 0.000000
    44 -12.940949 -13.876676 0.063470 0.000000 0.000000 3.141592
    45 -2.191151 0.000000 0.000000 0.000000 0.000000 0.000000
    46 28.767628 0.000000 -20.407471 0.000000 -1.570796 -1.570796
    47 0.752335 0.955585 -0.000001 0.000000 0.000002 -0.000001
    48 -0.445597 0.884380 -0.000001 0.000000 0.000000 -2.855763
    49 0.227003 -1.459700 0.523556 0.000000 0.000000 -1.570796
    50 -1.773792 0.941444 -0.523556 0.000000 0.000000 0.000000
    51 -19.860804 -4.372061 -0.000001 0.000000 0.000000 3.141592
    52 -0.004971 0.000000 0.000000 0.000000 0.000000 3.141592
    53 1.105276 0.472918 0.044064 1.396626 1.315062 2.998056
    54 0.000000 0.000002 -0.051336 0.000000 0.000000 0.000000
    55 -21.550318 25.867062 0.077498 0.000001 1.570451 0.000000
    56 -13.515524 35.221081 -0.542491 0.000001 1.570451 0.000000
    57 0.176298 1.520552 -0.810270 -0.051832 2.939691 1.050791
    58 0.000000 0.000000 0.004268 0.000000 0.000000 1.256560
    59 50.887146 9.091324 -31.729149 0.000000 0.000000 -1.570796
    60 -0.000001 0.000000 0.008734 0.000000 0.000000 0.000000
  time 2
    0 -3.120035 1.205803 -4.069818 -0.009720 -0.055489 -0.374591
    1 10.966404 -0.959638 -0.604469 0.079953 2.456539 -0.992409
    2 8.941008 1.610023 -1.501410 1.552600 -3.113208 0.423949
    3 0.221057 -9.990969 -1.236981 0.206279 -0.161233 0.267623
    4 -0.488518 -2.755602 -0.228260 0.067454 0.060631 -0.156880
    5 0.039887 -1.487603 0.018135 -0.435566 -0.007790 0.006485
    6 0.028786 -1.079637 -0.046547 -0.182603 -0.004231 0.002541
    7 0.250027 -2.820665 -0.238396 0.177251 0.047642 -0.010337
    8 -0.049759 -1.657106 0.100479 -0.325024 0.005884 -0.008199
    9 -0.034142 -1.148312 0.084782 0.013159 -0.001127 0.001091
    10 0.957766 -2.746780 -0.090302 0.308028 -0.053445 0.095454
    11 -0.033420 -1.397129 -0.019070 -0.432568 0.007922 -0.020914
    12 -0.022360 -0.957436 0.022690 0.149595 -0.004410 0.005884
    13 -1.180681 -2.507217 -0.193859 0.182674 0.042021 -0.133449
    14 -0.024967 -1.123934 0.017597 -0.466494 0.007119 -0.018995
    15 -0.020057 -0.894874 0.010090 -0.230828 0.003823 -0.006735
    16 0.583510 -1.185558 0.177566 0.351661 -0.479849 -0.695578
    17 1.512489 -0.161634 0.051885 0.019939 -0.166322 -0.561818
    18 1.092958 -0.069694 0.008853 -0.002952 -0.085632 -0.362060
    19 0.120153 -0.050270 -0.054489 0.287569 3.110905 1.561085
    20 -5.755311 -2.547584 -7.060092 1.066255 -4.160079 1.338411
    21 0.104757 -8.594954 -0.024990 0.282492 -0.119679 -0.541191
    22 0.447953 -2.798986 -0.200443 -1.102093 -0.014842 0.154548
    23 -0.032909 -1.499736 0.040097 -1.867668 0.020853 -0.039703
    24 -0.027022 -1.084733 -0.024116 -0.240942 0.006699 -0.001690
    25 -0.249534 -2.846964 -0.174213 -0.506443 -0.009677 0.074202
    26 0.043235 -1.660503 0.049136 -2.061415 -0.024969 0.019632
    27 0.031729 -1.153017 0.058838 -0.486236 -0.004415 0.005723
    28 -0.963866 -2.785145 -0.085350 0.115767 0.161701 0.061678
    29 0.028479 -1.403067 0.002365 -0.249724 -0.003272 -0.011421
    30 0.021413 -0.957781 0.020046 0.168675 0.000587 0.007418
    31 1.164475 -2.543940 -0.170330 -1.287253 -0.158056 0.208416
    32 0.024032 -1.144668 -0.005631 -1.194798 0.018936 0.059481
    33 0.014898 -0.899614 -0.019848 -0.774879 0.002301 0.039238
    34 -0.586770 -1.264477 0.200161 -0.225941 -0.693912 -2.492790
    35 1.554086 0.035243 0.016848 -0.013031 -0.005121 0.678841
    36 1.114041 0.044518 -0.005766 -0.017597 -0.034354 0.685966
    37 -0.139399 -0.111698 0.014397 0.285382 -0.030687 1.580508
    38 -8.241335 0.620176 -0.473815 1.566123 -0.036495 -0.153358
    39 -9.678871 -8.797143 -0.811342 -1.633990 -0.634298 1.365048
    40 -0.445597 0.884378 -0.000001 0.000000 0.000000 -2.855763
    41 0.752335 0.955584 -0.000001 0.000000 0.000002 -0.000001
    42 0.227005 -1.459700 -0.336619 0.000000 0.000000 -1.570796
    43 -1.773792 0.941444 0.336619 0.000000 0.000000 0.000000
    44 -12.940949 -13.876676 0.063470 0.000000 0.000000 3.141592
    45 -2.191151 0.000000 0.000000 0.000000 0.000000 0.000000
    46 28.767628 0.000000 -20.407471 0.000000 -1.570796 -1.570796
    47 0.752335 0.955585 -0.000001 0.000000 0.000002 -0.000001
    48 -0.445597 0.884380 -0.000001 0.000000 0.000000 -2.855763
    49 0.227003 -1.459700 0.523556 0.000000 0.000000 -1.570796
    50 -1.773792 0.941444 -0.523556 0.000000 0.000000 0.000000
    51 -19.860804 -4.372061 -0.000001 0.000000 0.000000 3.141592
    52 -0.004971 0.000000 0.000000 0.000000 0.000000 3.141592
    53 1.105276 0.472918 0.044064 1.396626 1.315062 2.998056
    54 0.000000 0.000002 -0.051336 0.000000 0.000000 0.000000
    55 -21.550318 25.867062 0.077498 0.000001 1.570451 0.000000
    56 -13.515524 35.221081 -0.542491 0.000001 1.570451 0.000000
    57 0.176298 1.520552 -0.810270 0.021400 2.934322 1.407347
    58 0.000000 0.000000 0.004268 0.000000 0.000000 1.884936
    59 50.887146 9.091324 -31.729149 0.000000 0.000000 -1.570796
    60 -0.000001 0.000000 0.008734 0.000000 0.000000 0.000000
  time 3
    0 -3.120035 1.205803 -4.069818 -0.009720 -0.055489 -0.374591
    1 10.884370 -1.006514 -0.518529 0.081672 2.432593 -0.995284
    2 8.905851 1.641274 -1.497504 1.552600 -3.113399 0.426986
    3 0.221057 -9.990969 -1.233075 0.194881 -0.146124 0.271667
    4 -0.488518 -2.755602 -0.228260 0.072178 0.060200 -0.154687
    5 0.039887 -1.487603 0.022041 -0.410469 -0.007347 0.005969
    6 0.028786 -1.079637 -0.042641 -0.174046 -0.004051 0.002409
    7 0.250027 -2.820665 -0.238396 0.178190 0.046983 -0.007568
    8 -0.049759 -1.657106 0.100479 -0.301948 0.005585 -0.007600
    9 -0.034142 -1.148312 0.084782 0.025875 -0.001402 0.001330
    10 0.957766 -2.746780 -0.090302 0.311703 -0.051348 0.098270
    11 -0.033420 -1.397129 -0.019070 -0.435596 0.007946 -0.021070
    12 -0.022360 -0.957436 0.022690 0.162078 -0.004830 0.006352
    13 -1.180681 -2.507217 -0.193859 0.193216 0.039540 -0.132086
    14 -0.024967 -1.123934 0.017597 -0.441958 0.006951 -0.017892
    15 -0.020057 -0.894874 0.010090 -0.220727 0.003619 -0.006316
    16 0.583510 -1.185558 0.177566 0.361027 -0.475117 -0.696868
    17 1.512489 -0.161634 0.051885 0.020046 -0.166538 -0.562650
    18 1.092958 -0.073600 0.008853 -0.002796 -0.086447 -0.365006
    19 0.120153 -0.050270 -0.054489 0.287569 3.110905 1.561085
    20 -5.778749 -2.488989 -7.099156 1.058998 -4.171002 1.326142
    21 0.108663 -8.594954 -0.028897 0.288559 -0.108200 -0.532695
    22 0.447953 -2.798986 -0.200443 -1.102093 -0.014842 0.154548
    23 -0.032909 -1.499736 0.040097 -1.867668 0.020853 -0.039703
    24 -0.027022 -1.084733 -0.024116 -0.240942 0.006699 -0.001690
    25 -0.249534 -2.846964 -0.174213 -0.506443 -0.009677 0.074202
    26 0.043235 -1.660503 0.049136 -2.061415 -0.024969 0.019632
    27 0.031729 -1.153017 0.058838 -0.486236 -0.004415 0.005723
    28 -0.963866 -2.785145 -0.085350 0.115767 0.161701 0.061678
    29 0.028479 -1.403067 0.002365 -0.249724 -0.003272 -0.011421
    30 0.021413 -0.957781 0.020046 0.168675 0.000587 0.007418
    31 1.164475 -2.543940 -0.170330 -1.287253 -0.158056 0.208416
    32 0.024032 -1.144668 -0.005631 -1.194798 0.018936 0.059481
    33 0.014898 -0.899614 -0.019848 -0.774879 0.002301 0.039238
    34 -0.586770 -1.264477 0.200161 -0.225941 -0.693912 -2.492790
    35 1.554086 0.035243 0.016848 -0.013031 -0.005121 0.678841
    36 1.114041 0.044518 -0.005766 -0.017597 -0.034354 0.685966
    37 -0.139399 -0.111698 0.014397 0.285382 -0.030687 1.580508
    38 -8.241335 0.620176 -0.473815 1.566123 -0.036495 -0.152950
    39 -9.803875 -8.890896 -0.975410 -1.634066 -0.652470 1.345012
    40 -0.445597 0.884378 -0.000001 0.000000 0.000000 -2.855763
    41 0.752335 0.955584 -0.000001 0.000000 0.000002 -0.000001
    42 0.227005 -1.459700 -0.336619 0.000000 0.000000 -1.570796
    43 -1.773792 0.941444 0.336619 0.000000 0.000000 0.000000
    44 -12.940949 -13.876676 0.063470 0.000000 0.000000 3.141592
    45 -2.191151 0.000000 0.000000 0.000000 0.000000 0.000000
    46 28.767628 0.000000 -20.407471 0.000000 -1.570796 -1.570796
    47 0.752335 0.955585 -0.000001 0.000000 0.000002 -0.000001
    48 -0.445597 0.884380 -0.000001 0.000000 0.000000 -2.855763
    49 0.227003 -1.459700 0.523556 0.000000 0.000000 -1.570796
    50 -1.773792 0.941444 -0.523556 0.000000 0.000000 0.000000
    51 -19.860804 -4.372061 -0.000001 0.000000 0.000000 3.141592
    52 -0.004971 0.000000 0.000000 0.000000 0.000000 3.141592
    53 1.105276 0.472918 0.044064 1.396626 1.315062 2.998056
    54 0.000000 0.000002 -0.051336 0.000000 0.000000 0.000000
    55 -21.550318 25.867062 0.077498 0.000001 1.570451 0.000000
    56 -13.515524 35.221081 -0.542491 0.000001 1.570451 0.000000
    57 0.176298 1.520552 -0.810270 -3.049743 0.187358 -1.378742
    58 0.000000 0.000000 0.004268 0.000000 0.000000 2.513216
    59 50.887146 9.091324 -31.729149 0.000000 0.000000 -1.570796
    60 -0.000001 0.000000 0.008734 0.000000 0.000000 0.000000
  time 4
    0 -3.120035 1.205803 -4.069818 -0.009720 -0.055489 -0.374591
    1 10.880464 -0.924480 -0.495090 0.091514 2.418379 -0.974106
    2 8.874600 1.594397 -1.497504 1.552888 -3.113399 0.421188
    3 0.221057 -9.990969 -1.233075 0.206506 -0.145477 0.268563
    4 -0.488518 -2.755602 -0.228260 0.071129 0.059912 -0.153585
    5 0.039887 -1.487603 0.022041 -0.393872 -0.007059 0.005634
    6 0.028786 -1.079637 -0.042641 -0.165558 -0.003859 0.002277
    7 0.250027 -2.820665 -0.238396 0.175087 0.046767 -0.006286
    8 -0.049759 -1.657106 0.100479 -0.287641 0.005381 -0.007217
    9 -0.034142 -1.148312 0.084782 0.034411 -0.001582 0.001498
    10 0.957766 -2.746780 -0.090302 0.312544 -0.050281 0.099612
    11 -0.033420 -1.397129 -0.019070 -0.443654 0.007994 -0.021477
    12 -0.022360 -0.957436 0.022690 0.170484 -0.005117 0.006663
    13 -1.180681 -2.507217 -0.193859 0.195422 0.038522 -0.131314
    14 -0.024967 -1.123934 0.017597 -0.424985 0.006819 -0.017125
    15 -0.020057 -0.894874 0.010090 -0.210811 0.003428 -0.005908
    16 0.583510 -1.185558 0.177566 0.365570 -0.472816 -0.697476
    17 1.512489 -0.161634 0.051885 0.020094 -0.166645 -0.563107
    18 1.092958 -0.073600 0.008853 -0.002736 -0.086843 -0.366454
    19 0.120153 -0.050270 -0.054489 0.287569 3.110905 1.561085
    20 -5.763124 -2.543678 -7.063999 1.064458 -4.162083 1.334606
    21 0.112569 -8.591048 -0.032803 0.293893 -0.092979 -0.502570
    22 0.447953 -2.798986 -0.200443 -1.102093 -0.014842 0.154548
    23 -0.032909 -1.499736 0.040097 -1.867668 0.020853 -0.039703
    24 -0.027022 -1.084733 -0.024116 -0.240942 0.006699 -0.001690
    25 -0.249534 -2.846964 -0.174213 -0.506443 -0.009677 0.074202
    26 0.043235 -1.660503 0.049136 -2.061415 -0.024969 0.019632
    27 0.031729 -1.153017 0.058838 -0.486236 -0.004415 0.005723
    28 -0.963866 -2.785145 -0.085350 0.115767 0.161701 0.061678
    29 0.028479 -1.403067 0.002365 -0.249724 -0.003272 -0.011421
    30 0.021413 -0.957781 0.020046 0.168675 0.000587 0.007418
    31 1.164475 -2.543940 -0.170330 -1.287253 -0.158056 0.208416
    32 0.024032 -1.144668 -0.005631 -1.194798 0.018936 0.059481
    33 0.014898 -0.899614 -0.019848 -0.774879 0.002301 0.039238
    34 -0.586770 -1.264477 0.200161 -0.225941 -0.693912 -2.492790
    35 1.554086 0.035243 0.016848 -0.013031 -0.005121 0.678841
    36 1.114041 0.044518 -0.005766 -0.017597 -0.034354 0.685966
    37 -0.139399 -0.111698 0.014397 0.285382 -0.030687 1.580508
    38 -8.241335 0.631895 -0.473815 1.566159 -0.036483 -0.154636
    39 -9.803875 -9.023713 -0.912908 -1.626837 -0.669563 1.322304
    40 -0.445597 0.884378 -0.000001 0.000000 0.000000 -2.855763
    41 0.752335 0.955584 -0.000001 0.000000 0.000002 -0.000001
    42 0.227005 -1.459700 -0.336619 0.000000 0.000000 -1.570796
    43 -1.773792 0.941444 0.336619 0.000000 0.000000 0.000000
    44 -12.940949 -13.876676 0.063470 0.000000 0.000000 3.141592
    45 -2.191151 0.000000 0.000000 0.000000 0.000000 0.000000
    46 28.767628 0.000000 -20.407471 0.000000 -1.570796 -1.570796
    47 0.752335 0.955585 -0.000001 0.000000 0.000002 -0.000001
    48 -0.445597 0.884380 -0.000001 0.000000 0.000000 -2.855763
    49 0.227003 -1.459700 0.523556 0.000000 0.000000 -1.570796
    50 -1.773792 0.941444 -0.523556 0.000000 0.000000 0.000000
    51 -19.860804 -4.372061 -0.000001 0.000000 0.000000 3.141592
    52 -0.004971 0.000000 0.000000 0.000000 0.000000 3.141592
    53 1.105276 0.472918 0.044064 1.396626 1.315062 2.998056
    54 0.000000 0.000002 -0.051336 0.000000 0.000000 0.000000
    55 -21.550318 25.867062 0.077498 0.000001 1.570451 0.000000
    56 -13.515524 35.221081 -0.542491 0.000001 1.570451 0.000000
    57 0.176298 1.520552 -0.810270 -2.991084 0.144693 -1.027373
    58 0.000000 0.000000 0.004268 0.000000 0.000000 -3.141592
    59 50.887146 9.091324 -31.729149 0.000000 0.000000 -1.570796
    60 -0.000001 0.000000 0.008734 0.000000 0.000000 0.000000
  time 5
    0 -3.120035 1.205803 -4.069818 -0.009720 -0.055489 -0.374591
    1 10.919528 -0.760413 -0.506810 0.107853 2.409316 -0.936445
    2 8.843349 1.527989 -1.497504 1.553175 -3.113303 0.412814
    3 0.221057 -9.994876 -1.233075 0.232936 -0.153424 0.260646
    4 -0.488518 -2.755602 -0.228260 0.066300 0.059697 -0.153069
    5 0.039887 -1.487603 0.022041 -0.381525 -0.006831 0.005382
    6 0.028786 -1.079637 -0.042641 -0.156686 -0.003667 0.002145
    7 0.250027 -2.820665 -0.238396 0.169167 0.046791 -0.005819
    8 -0.049759 -1.661012 0.100479 -0.277857 0.005249 -0.006965
    9 -0.034142 -1.148312 0.084782 0.040846 -0.001726 0.001630
    10 0.957766 -2.746780 -0.090302 0.311614 -0.049778 0.100128
    11 -0.033420 -1.397129 -0.019070 -0.455430 0.008066 -0.022065
    12 -0.022360 -0.957436 0.022690 0.176886 -0.005333 0.006903
    13 -1.180681 -2.507217 -0.193859 0.192578 0.038330 -0.130836
    14 -0.024967 -1.123934 0.017597 -0.411674 0.006711 -0.016526
    15 -0.020057 -0.890968 0.010090 -0.200464 0.003224 -0.005489
    16 0.583510 -1.185558 0.177566 0.367487 -0.471844 -0.697729
    17 1.512489 -0.161634 0.051885 0.020106 -0.166693 -0.563274
    18 1.092958 -0.073600 0.008853 -0.002700 -0.087011 -0.367074
    19 0.120153 -0.050270 -0.054489 0.287569 3.110905 1.561085
    20 -5.716248 -2.672588 -6.981965 1.076960 -4.140431 1.354864
    21 0.116476 -8.583235 -0.036710 0.299699 -0.074972 -0.457395
    22 0.447953 -2.798986 -0.200443 -1.102093 -0.014842 0.154548
    23 -0.032909 -1.499736 0.040097 -1.867668 0.020853 -0.039703
    24 -0.027022 -1.084733 -0.024116 -0.240942 0.006699 -0.001690
    25 -0.249534 -2.846964 -0.174213 -0.506443 -0.009677 0.074202
    26 0.043235 -1.660503 0.049136 -2.061415 -0.024969 0.019632
    27 0.031729 -1.153017 0.058838 -0.486236 -0.004415 0.005723
    28 -0.963866 -2.785145 -0.085350 0.115767 0.161701 0.061678
    29 0.028479 -1.403067 0.002365 -0.249724 -0.003272 -0.011421
    30 0.021413 -0.957781 0.020046 0.168675 0.000587 0.007418
    31 1.164475 -2.543940 -0.170330 -1.287253 -0.158056 0.208416
    32 0.024032 -1.144668 -0.005631 -1.194798 0.018936 0.059481
    33 0.014898 -0.899614 -0.019848 -0.774879 0.002301 0.039238
    34 -0.586770 -1.264477 0.200161 -0.225941 -0.693912 -2.492790
    35 1.554086 0.035243 0.016848 -0.013031 -0.005121 0.678841
    36 1.114041 0.044518 -0.005766 -0.017597 -0.034354 0.685966
    37 -0.139399 -0.111698 0.014397 0.285382 -0.030687 1.580508
    38 -8.241335 0.663146 -0.473815 1.566243 -0.036435 -0.158263
    39 -9.737467 -9.183874 -0.709776 -1.614660 -0.686745 1.295876
    40 -0.445597 0.884378 -0.000001 0.000000 0.000000 -2.855763
    41 0.752335 0.955584 -0.000001 0.000000 0.000002 -0.000001
    42 0.227005 -1.459700 -0.336619 0.000000 0.000000 -1.570796
    43 -1.773792 0.941444 0.336619 0.000000 0.000000 0.000000
    44 -12.940949 -13.876676 0.063470 0.000000 0.000000 3.141592
    45 -2.191151 0.000000 0.000000 0.000000 0.000000 0.000000
    46 28.767628 0.000000 -20.407471 0.000000 -1.570796 -1.570796
    47 0.752335 0.955585 -0.000001 0.000000 0.000002 -0.000001
    48 -0.445597 0.884380 -0.000001 0.000000 0.000000 -2.855763
    49 0.227003 -1.459700 0.523556 0.000000 0.000000 -1.570796
    50 -1.773792 0.941444 -0.523556 0.000000 0.000000 0.000000
    51 -19.860804 -4.372061 -0.000001 0.000000 0.000000 3.141592
    52 -0.004971 0.000000 0.000000 0.000000 0.000000 3.141592
    53 1.105276 0.472918 0.044064 1.396626 1.315062 2.998056
    54 0.000000 0.000002 -0.051336 0.000000 0.000000 0.000000
    55 -21.550318 25.867062 0.077498 0.000001 1.570451 0.000000
    56 -13.515524 35.221081 -0.542491 0.000001 1.570451 0.000000
    57 0.176298 1.520552 -0.810270 -2.950963 0.084866 -0.681136
    58 0.000000 0.000000 0.004268 0.000000 0.000000 -2.356170
    59 50.887146 9.091324 -31.729149 0.000000 0.000000 -1.570796
    60 -0.000001 0.000000 0.008734 0.000000 0.000000 0.000000
  time 6
    0 -3.120035 1.205803 -4.069818 -0.009720 -0.055489 -0.374591
    1 10.982029 -0.553375 -0.541967 0.125052 2.404832 -0.893610
    2 8.823817 1.445955 -1.497504 1.553367 -3.113208 0.402876
    3 0.221057 -9.998782 -1.236981 0.264817 -0.164953 0.250906
    4 -0.488518 -2.755602 -0.228260 0.060316 0.059553 -0.152925
    5 0.039887 -1.487603 0.022041 -0.372545 -0.006675 0.005214
    6 0.028786 -1.079637 -0.042641 -0.148265 -0.003488 0.002013
    7 0.250027 -2.820665 -0.238396 0.162676 0.046947 -0.005843
    8 -0.049759 -1.661012 0.100479 -0.271303 0.005153 -0.006797
    9 -0.034142 -1.148312 0.084782 0.045734 -0.001834 0.001726
    10 0.957766 -2.746780 -0.090302 0.310087 -0.049634 0.100152
    11 -0.033420 -1.397129 -0.019070 -0.467628 0.008138 -0.022676
    12 -0.022360 -0.957436 0.022690 0.181738 -0.005501 0.007083
    13 -1.180681 -2.507217 -0.193859 0.187626 0.038593 -0.130555
    14 -0.024967 -1.123934 0.017597 -0.401478 0.006627 -0.016070
    15 -0.020057 -0.890968 0.010090 -0.190733 0.003020 -0.005093
    16 0.583510 -1.185558 0.177566 0.367768 -0.471699 -0.697779
    17 1.512489 -0.161634 0.051885 0.020118 -0.166693 -0.563274
    18 1.092958 -0.073600 0.008853 -0.002700 -0.087035 -0.367151
    19 0.120153 -0.050270 -0.054489 0.287569 3.110905 1.561085
    20 -5.657652 -2.817124 -6.880399 1.091042 -4.113931 1.379496
    21 0.124289 -8.579329 -0.040616 0.305844 -0.056746 -0.408542
    22 0.447953 -2.798986 -0.200443 -1.102093 -0.014842 0.154548
    23 -0.032909 -1.499736 0.040097 -1.867668 0.020853 -0.039703
    24 -0.027022 -1.084733 -0.024116 -0.240942 0.006699 -0.001690
    25 -0.249534 -2.846964 -0.174213 -0.506443 -0.009677 0.074202
    26 0.043235 -1.660503 0.049136 -2.061415 -0.024969 0.019632
    27 0.031729 -1.153017 0.058838 -0.486236 -0.004415 0.005723
    28 -0.963866 -2.785145 -0.085350 0.115767 0.161701 0.061678
    29 0.028479 -1.403067 0.002365 -0.249724 -0.003272 -0.011421
    30 0.021413 -0.957781 0.020046 0.168675 0.000587 0.007418
    31 1.164475 -2.543940 -0.170330 -1.287253 -0.158056 0.208416
    32 0.024032 -1.144668 -0.005631 -1.194798 0.018936 0.059481
    33 0.014898 -0.899614 -0.019848 -0.774879 0.002301 0.039238
    34 -0.586770 -1.264477 0.200161 -0.225941 -0.693912 -2.492790
    35 1.554086 0.035243 0.016848 -0.013031 -0.005121 0.678841
    36 1.114041 0.044518 -0.005766 -0.017597 -0.034354 0.685966
    37 -0.139399 -0.111698 0.014397 0.285382 -0.030687 1.580508
    38 -8.241335 0.686585 -0.473815 1.566327 -0.036399 -0.161380
    39 -9.628089 -9.328410 -0.444143 -1.600886 -0.701949 1.270020
    40 -0.445597 0.884378 -0.000001 0.000000 0.000000 -2.855763
    41 0.752335 0.955584 -0.000001 0.000000 0.000002 -0.000001
    42 0.227005 -1.459700 -0.336619 0.000000 0.000000 -1.570796
    43 -1.773792 0.941444 0.336619 0.000000 0.000000 0.000000
    44 -12.940949 -13.876676 0.063470 0.000000 0.000000 3.141592
    45 -2.191151 0.000000 0.000000 0.000000 0.000000 0.000000
    46 28.767628 0.000000 -20.407471 0.000000 -1.570796 -1.570796
    47 0.752335 0.955585 -0.000001 0.000000 0.000002 -0.000001
    48 -0.445597 0.884380 -0.000001 0.000000 0.000000 -2.855763
    49 0.227003 -1.459700 0.523556 0.000000 0.000000 -1.570796
    50 -1.773792 0.941444 -0.523556 0.000000 0.000000 0.000000
    51 -19.860804 -4.372061 -0.000001 0.000000 0.000000 3.141592
    52 -0.004971 0.000000 0.000000 0.000000 0.000000 3.141592
    53 1.105276 0.472918 0.044064 1.396626 1.315062 2.998056
    54 0.000000 0.000002 -0.051336 0.000000 0.000000 0.000000
    55 -21.550318 25.867062 0.077498 0.000001 1.570451 0.000000
    56 -13.515524 35.221081 -0.542491 0.000001 1.570451 0.000000
    57 0.176298 1.520552 -0.810270 -2.933715 0.015164 -0.338605
    58 0.000000 0.000000 0.004268 0.000000 0.000000 -1.570748
    59 50.887146 9.091324 -31.729149 0.000000 0.000000 -1.570796
    60 -0.000001 0.000000 0.008734 0.000000 0.000000 0.000000
  time 7
    0 -3.120035 1.205803 -4.069818 -0.009720 -0.055489 -0.374591
    1 11.048438 -0.338525 -0.588843 0.137378 2.403782 -0.857099
    2 8.831630 1.356109 -1.497504 1.553559 -3.113016 0.392386
    3 0.221057 -10.002689 -1.236981 0.292631 -0.175257 0.242618
    4 -0.488518 -2.755602 -0.228260 0.055592 0.059469 -0.152961
    5 0.039887 -1.487603 0.022041 -0.366090 -0.006556 0.005082
    6 0.028786 -1.079637 -0.038734 -0.141218 -0.003332 0.001906
    7 0.250027 -2.820665 -0.238396 0.157817 0.047103 -0.006034
    8 -0.049759 -1.661012 0.100479 -0.266734 0.005093 -0.006677
    9 -0.034142 -1.148312 0.088688 0.049560 -0.001930 0.001798
    10 0.957766 -2.746780 -0.090302 0.309201 -0.049682 0.100008
    11 -0.033420 -1.393223 -0.019070 -0.477000 0.008185 -0.023143
    12 -0.022360 -0.957436 0.022690 0.185588 -0.005633 0.007227
    13 -1.180681 -2.507217 -0.193859 0.183410 0.038917 -0.130401
    14 -0.024967 -1.123934 0.017597 -0.394005 0.006556 -0.015735
    15 -0.020057 -0.890968 0.010090 -0.182681 0.002852 -0.004758
    16 0.583510 -1.185558 0.177566 0.367404 -0.471883 -0.697729
    17 1.512489 -0.161634 0.051885 0.020106 -0.166693 -0.563274
    18 1.092958 -0.073600 0.008853 -0.002712 -0.086999 -0.367048
    19 0.120153 -0.050270 -0.054489 0.287569 3.110905 1.561085
    20 -5.599056 -2.930408 -6.794459 1.102682 -4.090404 1.402511
    21 0.128195 -8.571516 -0.040616 0.311650 -0.040669 -0.367331
    22 0.447953 -2.798986 -0.200443 -1.102093 -0.014842 0.154548
    23 -0.032909 -1.499736 0.040097 -1.867668 0.020853 -0.039703
    24 -0.027022 -1.084733 -0.024116 -0.240942 0.006699 -0.001690
    25 -0.249534 -2.846964 -0.174213 -0.506443 -0.009677 0.074202
    26 0.043235 -1.660503 0.049136 -2.061415 -0.024969 0.019632
    27 0.031729 -1.153017 0.058838 -0.486236 -0.004415 0.005723
    28 -0.963866 -2.785145 -0.085350 0.115767 0.161701 0.061678
    29 0.028479 -1.403067 0.002365 -0.249724 -0.003272 -0.011421
    30 0.021413 -0.957781 0.020046 0.168675 0.000587 0.007418
    31 1.164475 -2.543940 -0.170330 -1.287253 -0.158056 0.208416
    32 0.024032 -1.144668 -0.005631 -1.194798 0.018936 0.059481
    33 0.014898 -0.899614 -0.019848 -0.774879 0.002301 0.039238
    34 -0.586770 -1.264477 0.200161 -0.225941 -0.693912 -2.492790
    35 1.554086 0.035243 0.016848 -0.013031 -0.005121 0.678841
    36 1.114041 0.044518 -0.005766 -0.017597 -0.034354 0.685966
    37 -0.139399 -0.111698 0.014397 0.285382 -0.030687 1.580508
    38 -8.241335 0.690491 -0.473815 1.566327 -0.036399 -0.161635
    39 -9.499178 -9.426069 -0.213668 -1.588786 -0.712834 1.249411
    40 -0.445597 0.884378 -0.000001 0.000000 0.000000 -2.855763
    41 0.752335 0.955584 -0.000001 0.000000 0.000002 -0.000001
    42 0.227005 -1.459700 -0.336619 0.000000 0.000000 -1.570796
    43 -1.773792 0.941444 0.336619 0.000000 0.000000 0.000000
    44 -12.940949 -13.876676 0.063470 0.000000 0.000000 3.141592
    45 -2.191151 0.000000 0.000000 0.000000 0.000000 0.000000
    46 28.767628 0.000000 -20.407471 0.000000 -1.570796 -1.570796
    47 0.752335 0.955585 -0.000001 0.000000 0.000002 -0.000001
    48 -0.445597 0.884380 -0.000001 0.000000 0.000000 -2.855763
    49 0.227003 -1.459700 0.523556 0.000000 0.000000 -1.570796
    50 -1.773792 0.941444 -0.523556 0.000000 0.000000 0.000000
    51 -19.860804 -4.372061 -0.000001 0.000000 0.000000 3.141592
    52 -0.004971 0.000000 0.000000 0.000000 0.000000 3.141592
    53 1.105276 0.472918 0.044064 1.396626 1.315062 2.998056
    54 0.000000 0.000002 -0.051336 0.000000 0.000000 0.000000
    55 -21.550318 25.867062 0.077498 0.000001 1.570451 0.000000
    56 -13.515524 35.221081 -0.542491 0.000001 1.570451 0.000000
    57 0.176298 1.520552 -0.810270 -2.940817 -0.056360 0.003242
    58 0.000000 0.000000 0.004268 0.000000 0.000000 -0.785326
    59 50.887146 9.091324 -31.729149 0.000000 0.000000 -1.570796
    60 -0.000001 0.000000 0.008734 0.000000 0.000000 0.000000
  time 8
    0 -3.120035 1.205803 -4.069818 -0.009720 -0.055489 -0.374591
    1 11.107033 -0.158832 -0.639626 0.139289 2.404546 -0.838220
    2 8.862881 1.227198 -1.501410 1.553655 -3.112729 0.377203
    3 0.221057 -10.002689 -1.240887 0.306630 -0.179924 0.239600
    4 -0.488518 -2.755602 -0.228260 0.054699 0.059457 -0.152961
    5 0.039887 -1.487603 0.022041 -0.361319 -0.006472 0.004987
    6 0.028786 -1.079637 -0.038734 -0.136422 -0.003224 0.001834
    7 0.250027 -2.820665 -0.238396 0.156797 0.047139 -0.006058
    8 -0.049759 -1.661012 0.100479 -0.262949 0.005034 -0.006582
    9 -0.034142 -1.148312 0.088688 0.052899 -0.002001 0.001858
    10 0.957766 -2.746780 -0.090302 0.310131 -0.049718 0.100020
    11 -0.033420 -1.393223 -0.019070 -0.480228 0.008197 -0.023311
    12 -0.022360 -0.957436 0.022690 0.188914 -0.005753 0.007347
    13 -1.180681 -2.507217 -0.193859 0.182871 0.038953 -0.130289
    14 -0.024967 -1.123934 0.017597 -0.388771 0.006508 -0.015507
    15 -0.020057 -0.890968 0.010090 -0.177354 0.002744 -0.004542
    16 0.583510 -1.185558 0.177566 0.367355 -0.471909 -0.697729
    17 1.512489 -0.161634 0.051885 0.020106 -0.166693 -0.563274
    18 1.092958 -0.073600 0.008853 -0.002712 -0.086999 -0.367022
    19 0.120153 -0.050270 -0.054489 0.287569 3.110905 1.561085
    20 -5.556086 -2.965566 -6.763208 1.109651 -4.078059 1.419630
    21 0.132101 -8.567610 -0.044522 0.315847 -0.028938 -0.345080
    22 0.447953 -2.798986 -0.200443 -1.102093 -0.014842 0.154548
    23 -0.032909 -1.499736 0.040097 -1.867668 0.020853 -0.039703
    24 -0.027022 -1.084733 -0.024116 -0.240942 0.006699 -0.001690
    25 -0.249534 -2.846964 -0.174213 -0.506443 -0.009677 0.074202
    26 0.043235 -1.660503 0.049136 -2.061415 -0.024969 0.019632
    27 0.031729 -1.153017 0.058838 -0.486236 -0.004415 0.005723
    28 -0.963866 -2.785145 -0.085350 0.115767 0.161701 0.061678
    29 0.028479 -1.403067 0.002365 -0.249724 -0.003272 -0.011421
    30 0.021413 -0.957781 0.020046 0.168675 0.000587 0.007418
    31 1.164475 -2.543940 -0.170330 -1.287253 -0.158056 0.208416
    32 0.024032 -1.144668 -0.005631 -1.194798 0.018936 0.059481
    33 0.014898 -0.899614 -0.019848 -0.774879 0.002301 0.039238
    34 -0.586770 -1.264477 0.200161 -0.225941 -0.693912 -2.492790
    35 1.554086 0.035243 0.016848 -0.013031 -0.005121 0.678841
    36 1.114041 0.044518 -0.005766 -0.017597 -0.034354 0.685966
    37 -0.139399 -0.111698 0.014397 0.285382 -0.030687 1.580508
    38 -8.241335 0.647521 -0.473815 1.566207 -0.036459 -0.156628
    39 -9.378081 -9.449507 -0.104289 -1.581784 -0.717782 1.239107
    40 -0.445597 0.884378 -0.000001 0.000000 0.000000 -2.855763
    41 0.752335 0.955584 -0.000001 0.000000 0.000002 -0.000001
    42 0.227005 -1.459700 -0.336619 0.000000 0.000000 -1.570796
    43 -1.773792 0.941444 0.336619 0.000000 0.000000 0.000000
    44 -12.940949 -13.876676 0.063470 0.000000 0.000000 3.141592
    45 -2.191151 0.000000 0.000000 0.000000 0.000000 0.000000
    46 28.767628 0.000000 -20.407471 0.000000 -1.570796 -1.570796
    47 0.752335 0.955585 -0.000001 0.000000 0.000002 -0.000001
    48 -0.445597 0.884380 -0.000001 0.000000 0.000000 -2.855763
    49 0.227003 -1.459700 0.523556 0.000000 0.000000 -1.570796
    50 -1.773792 0.941444 -0.523556 0.000000 0.000000 0.000000
    51 -19.860804 -4.372061 -0.000001 0.000000 0.000000 3.141592
    52 -0.004971 0.000000 0.000000 0.000000 0.000000 3.141592
    53 1.105276 0.472918 0.044064 1.396626 1.315062 2.998056
    54 0.000000 0.000002 -0.051336 0.000000 0.000000 0.000000
    55 -21.550318 25.867062 0.077498 0.000001 1.570451 0.000000
    56 -13.515524 35.221081 -0.542491 0.000001 1.570451 0.000000
    57 0.176298 1.520552 -0.810270 -2.971715 6.161725 0.347598
    58 0.000000 0.000000 0.004268 0.000000 0.000000 0.000000
    59 50.887146 9.091324 -31.729149 0.000000 0.000000 -1.570796
    60 -0.000001 0.000000 0.008734 0.000000 0.000000 0.000000
  time 9
    0 -3.120035 1.205803 -4.069818 -0.009720 -0.055489 -0.374591
    1 11.173442 0.005235 -0.690409 0.121135 2.407885 -0.848857
    2 8.933195 0.942034 -1.505317 1.553942 -3.112058 0.343892
    3 0.221057 -10.002689 -1.236981 0.296781 -0.174356 0.246805
    4 -0.488518 -2.755602 -0.228260 0.061366 0.059565 -0.152782
    5 0.039887 -1.487603 0.022041 -0.357190 -0.006388 0.004915
    6 0.028786 -1.079637 -0.038734 -0.134102 -0.003164 0.001798
    7 0.250027 -2.820665 -0.238396 0.163206 0.046911 -0.005639
    8 -0.049759 -1.661012 0.100479 -0.258196 0.004974 -0.006462
    9 -0.034142 -1.148312 0.088688 0.056924 -0.002085 0.001930
    10 0.957766 -2.746780 -0.090302 0.315178 -0.049670 0.100487
    11 -0.033420 -1.397129 -0.019070 -0.472392 0.008162 -0.022916
    12 -0.022360 -0.957436 0.022690 0.192900 -0.005884 0.007502
    13 -1.180681 -2.507217 -0.193859 0.189882 0.038246 -0.130106
    14 -0.024967 -1.123934 0.017597 -0.385080 0.006472 -0.015339
    15 -0.020057 -0.890968 0.010090 -0.175305 0.002697 -0.004470
    16 0.583510 -1.185558 0.177566 0.368412 -0.471383 -0.697855
    17 1.512489 -0.161634 0.051885 0.020118 -0.166717 -0.563357
    18 1.092958 -0.073600 0.008853 -0.002688 -0.087082 -0.367358
    19 0.120153 -0.050270 -0.054489 0.287569 3.110905 1.561085
    20 -5.540461 -2.860094 -6.833523 1.111591 -4.084910 1.432089
    21 0.132101 -8.571516 -0.044522 0.317468 -0.021184 -0.353265
    22 0.447953 -2.798986 -0.200443 -1.102093 -0.014842 0.154548
    23 -0.032909 -1.499736 0.040097 -1.867668 0.020853 -0.039703
    24 -0.027022 -1.084733 -0.024116 -0.240942 0.006699 -0.001690
    25 -0.249534 -2.846964 -0.174213 -0.506443 -0.009677 0.074202
    26 0.043235 -1.660503 0.049136 -2.061415 -0.024969 0.019632
    27 0.031729 -1.153017 0.058838 -0.486236 -0.004415 0.005723
    28 -0.963866 -2.785145 -0.085350 0.115767 0.161701 0.061678
    29 0.028479 -1.403067 0.002365 -0.249724 -0.003272 -0.011421
    30 0.021413 -0.957781 0.020046 0.168675 0.000587 0.007418
    31 1.164475 -2.543940 -0.170330 -1.287253 -0.158056 0.208416
    32 0.024032 -1.144668 -0.005631 -1.194798 0.018936 0.059481
    33 0.014898 -0.899614 -0.019848 -0.774879 0.002301 0.039238
    34 -0.586770 -1.264477 0.200161 -0.225941 -0.693912 -2.492790
    35 1.554086 0.035243 0.016848 -0.013031 -0.005121 0.678841
    36 1.114041 0.044518 -0.005766 -0.017597 -0.034354 0.685966
    37 -0.139399 -0.111698 0.014397 0.285382 -0.030687 1.580508
    38 -8.237429 0.506892 -0.473815 1.565787 -0.036638 -0.139564
    39 -9.241358 -9.359661 -0.198042 -1.583002 -0.713734 1.245690
    40 -0.445597 0.884378 -0.000001 0.000000 0.000000 -2.855763
    41 0.752335 0.955584 -0.000001 0.000000 0.000002 -0.000001
    42 0.227005 -1.459700 -0.336619 0.000000 0.000000 -1.570796
    43 -1.773792 0.941444 0.336619 0.000000 0.000000 0.000000
    44 -12.940949 -13.876676 0.063470 0.000000 0.000000 3.141592
    45 -2.191151 0.000000 0.000000 0.000000 0.000000 0.000000
    46 28.767628 0.000000 -20.407471 0.000000 -1.570796 -1.570796
    47 0.752335 0.955585 -0.000001 0.000000 0.000002 -0.000001
    48 -0.445597 0.884380 -0.000001 0.000000 0.000000 -2.855763
    49 0.227003 -1.459700 0.523556 0.000000 0.000000 -1.570796
    50 -1.773792 0.941444 -0.523556 0.000000 0.000000 0.000000
    51 -19.860804 -4.372061 -0.000001 0.000000 0.000000 3.141592
    52 -0.004971 0.000000 0.000000 0.000000 0.000000 3.141592
    53 1.105276 0.472918 0.044064 1.396626 1.315062 2.998056
    54 0.000000 0.000002 -0.051336 0.000000 0.000000 0.000000
    55 -21.550318 25.867062 0.077498 0.000001 1.570451 0.000000
    56 -13.515524 35.221081 -0.542491 0.000001 1.570451 0.000000
    57 0.176298 1.520552 -0.810270 -3.023273 6.111197 0.696800
    58 0.000000 0.000000 0.004268 0.000000 0.000000 0.628280
    59 50.887146 9.091324 -31.729149 0.000000 0.000000 -1.570796
    60 -0.000001 0.000000 0.008734 0.000000 0.000000 0.000000
  time 10
    0 -3.120035 1.205803 -4.069818 -0.009720 -0.055489 -0.374591
    1 11.251569 0.169303 -0.756817 0.088074 2.416375 -0.880960
    2 9.034761 0.527958 -1.513129 1.554230 -3.111100 0.297238
    3 0.221057 -10.002689 -1.236981 0.270206 -0.162042 0.261158
    4 -0.488518 -2.755602 -0.228260 0.073543 0.059780 -0.152662
    5 0.039887 -1.487603 0.022041 -0.355426 -0.006364 0.004879
    6 0.028786 -1.079637 -0.038734 -0.134238 -0.003176 0.001798
    7 0.250027 -2.820665 -0.238396 0.175251 0.046539 -0.005112
    8 -0.049759 -1.661012 0.100479 -0.254550 0.004914 -0.006366
    9 -0.034142 -1.148312 0.088688 0.060528 -0.002169 0.002001
    10 0.957766 -2.746780 -0.090302 0.323169 -0.049742 0.101062
    11 -0.033420 -1.397129 -0.019070 -0.455830 0.008066 -0.022089
    12 -0.022360 -0.957436 0.022690 0.196500 -0.006016 0.007634
    13 -1.180681 -2.507217 -0.193859 0.201943 0.037179 -0.129994
    14 -0.024967 -1.123934 0.017597 -0.384475 0.006460 -0.015315
    15 -0.020057 -0.890968 0.010090 -0.176391 0.002721 -0.004506
    16 0.583510 -1.185558 0.177566 0.369519 -0.470818 -0.698007
    17 1.512489 -0.161634 0.051885 0.020130 -0.166741 -0.563440
    18 1.092958 -0.073600 0.008853 -0.002676 -0.087178 -0.367720
    19 0.120153 -0.050270 -0.054489 0.287569 3.110905 1.561085
    20 -5.540461 -2.641337 -6.970246 1.111447 -4.105205 1.443216
    21 0.132101 -8.575422 -0.048429 0.316422 -0.016838 -0.384867
    22 0.447953 -2.798986 -0.200443 -1.102093 -0.014842 0.154548
    23 -0.032909 -1.499736 0.040097 -1.867668 0.020853 -0.039703
    24 -0.027022 -1.084733 -0.024116 -0.240942 0.006699 -0.001690
    25 -0.249534 -2.846964 -0.174213 -0.506443 -0.009677 0.074202
    26 0.043235 -1.660503 0.049136 -2.061415 -0.024969 0.019632
    27 0.031729 -1.153017 0.058838 -0.486236 -0.004415 0.005723
    28 -0.963866 -2.785145 -0.085350 0.115767 0.161701 0.061678
    29 0.028479 -1.403067 0.002365 -0.249724 -0.003272 -0.011421
    30 0.021413 -0.957781 0.020046 0.168675 0.000587 0.007418
    31 1.164475 -2.543940 -0.170330 -1.287253 -0.158056 0.208416
    32 0.024032 -1.144668 -0.005631 -1.194798 0.018936 0.059481
    33 0.014898 -0.899614 -0.019848 -0.774879 0.002301 0.039238
    34 -0.586770 -1.264477 0.200161 -0.225941 -0.693912 -2.492790
    35 1.554086 0.035243 0.016848 -0.013031 -0.005121 0.678841
    36 1.114041 0.044518 -0.005766 -0.017597 -0.034354 0.685966
    37 -0.139399 -0.111698 0.014397 0.285382 -0.030687 1.580508
    38 -8.229616 0.288135 -0.473815 1.565128 -0.036926 -0.112845
    39 -9.081197 -9.160436 -0.424611 -1.591069 -0.701409 1.267062
    40 -0.445597 0.884378 -0.000001 0.000000 0.000000 -2.855763
    41 0.752335 0.955584 -0.000001 0.000000 0.000002 -0.000001
    42 0.227005 -1.459700 -0.336619 0.000000 0.000000 -1.570796
    43 -1.773792 0.941444 0.336619 0.000000 0.000000 0.000000
    44 -12.940949 -13.876676 0.063470 0.000000 0.000000 3.141592
    45 -2.191151 0.000000 0.000000 0.000000 0.000000 0.000000
    46 28.767628 0.000000 -20.407471 0.000000 -1.570796 -1.570796
    47 0.752335 0.955585 -0.000001 0.000000 0.000002 -0.000001
    48 -0.445597 0.884380 -0.000001 0.000000 0.000000 -2.855763
    49 0.227003 -1.459700 0.523556 0.000000 0.000000 -1.570796
    50 -1.773792 0.941444 -0.523556 0.000000 0.000000 0.000000
    51 -19.860804 -4.372061 -0.000001 0.000000 0.000000 3.141592
    52 -0.004971 0.000000 0.000000 0.000000 0.000000 3.141592
    53 1.105276 0.472918 0.044064 1.396626 1.315062 2.998056
    54 0.000000 0.000002 -0.051336 0.000000 0.000000 0.000000
    55 -21.550318 25.867062 0.077498 0.000001 1.570451 0.000000
    56 -13.515524 35.221081 -0.542491 0.000001 1.570451 0.000000
    57 0.176298 1.520552 -0.810270 -3.089772 6.081188 1.050791
    58 0.000000 0.000000 0.004268 0.000000 0.000000 1.256560
    59 50.887146 9.091324 -31.729149 0.000000 0.000000 -1.570796
    60 -0.000001 0.000000 0.008734 0.000000 0.000000 0.000000
  time 11
    0 -3.120035 1.205803 -4.069818 -0.009720 -0.055489 -0.374591
    1 11.325790 0.290400 -0.819319 0.056256 2.429922 -0.916513
    2 9.120701 0.160760 -1.520942 1.554518 -3.110238 0.256381
    3 0.221057 -9.998782 -1.233075 0.242620 -0.150906 0.274800
    4 -0.488518 -2.755602 -0.228260 0.084881 0.060080 -0.152913
    5 0.039887 -1.487603 0.022041 -0.359435 -0.006436 0.004951
    6 0.028786 -1.079637 -0.038734 -0.137210 -0.003236 0.001846
    7 0.250027 -2.820665 -0.238396 0.187131 0.046264 -0.005076
    8 -0.049759 -1.661012 0.100479 -0.256119 0.004938 -0.006414
    9 -0.034142 -1.148312 0.088688 0.060904 -0.002181 0.002013
    10 0.957766 -2.746780 -0.090302 0.330054 -0.050161 0.101134
    11 -0.033420 -1.397129 -0.019070 -0.438245 0.007958 -0.021202
    12 -0.022360 -0.957436 0.022690 0.196887 -0.006028 0.007646
    13 -1.180681 -2.507217 -0.193859 0.212043 0.036580 -0.130176
    14 -0.024967 -1.123934 0.017597 -0.389648 0.006520 -0.015543
    15 -0.020057 -0.890968 0.010090 -0.180714 0.002816 -0.004686
    16 0.583510 -1.185558 0.177566 0.368957 -0.471094 -0.697931
    17 1.512489 -0.161634 0.051885 0.020130 -0.166729 -0.563399
    18 1.092958 -0.073600 0.008853 -0.002676 -0.087130 -0.367539
    19 0.120153 -0.050270 -0.054489 0.287569 3.110905 1.561085
    20 -5.548274 -2.422580 -7.099156 1.111016 -4.126664 1.451680
    21 0.128195 -8.583235 -0.048429 0.312892 -0.017878 -0.423514
    22 0.447953 -2.798986 -0.200443 -1.102093 -0.014842 0.154548
    23 -0.032909 -1.499736 0.040097 -1.867668 0.020853 -0.039703
    24 -0.027022 -1.084733 -0.024116 -0.240942 0.006699 -0.001690
    25 -0.249534 -2.846964 -0.174213 -0.506443 -0.009677 0.074202
    26 0.043235 -1.660503 0.049136 -2.061415 -0.024969 0.019632
    27 0.031729 -1.153017 0.058838 -0.486236 -0.004415 0.005723
    28 -0.963866 -2.785145 -0.085350 0.115767 0.161701 0.061678
    29 0.028479 -1.403067 0.002365 -0.249724 -0.003272 -0.011421
    30 0.021413 -0.957781 0.020046 0.168675 0.000587 0.007418
    31 1.164475 -2.543940 -0.170330 -1.287253 -0.158056 0.208416
    32 0.024032 -1.144668 -0.005631 -1.194798 0.018936 0.059481
    33 0.014898 -0.899614 -0.019848 -0.774879 0.002301 0.039238
    34 -0.586770 -1.264477 0.200161 -0.225941 -0.693912 -2.492790
    35 1.554086 0.035243 0.016848 -0.013031 -0.005121 0.678841
    36 1.114041 0.044518 -0.005766 -0.017597 -0.034354 0.685966
    37 -0.139399 -0.111698 0.014397 0.285382 -0.030687 1.580508
    38 -8.217897 0.085004 -0.477722 1.564517 -0.037166 -0.088220
    39 -8.944474 -8.929960 -0.639462 -1.601875 -0.684676 1.294349
    40 -0.445597 0.884378 -0.000001 0.000000 0.000000 -2.855763
    41 0.752335 0.955584 -0.000001 0.000000 0.000002 -0.000001
    42 0.227005 -1.459700 -0.336619 0.000000 0.000000 -1.570796
    43 -1.773792 0.941444 0.336619 0.000000 0.000000 0.000000
    44 -12.940949 -13.876676 0.063470 0.000000 0.000000 3.141592
    45 -2.191151 0.000000 0.000000 0.000000 0.000000 0.000000
    46 28.767628 0.000000 -20.407471 0.000000 -1.570796 -1.570796
    47 0.752335 0.955585 -0.000001 0.000000 0.000002 -0.000001
    48 -0.445597 0.884380 -0.000001 0.000000 0.000000 -2.855763
    49 0.227003 -1.459700 0.523556 0.000000 0.000000 -1.570796
    50 -1.773792 0.941444 -0.523556 0.000000 0.000000 0.000000
    51 -19.860804 -4.372061 -0.000001 0.000000 0.000000 3.141592
    52 -0.004971 0.000000 0.000000 0.000000 0.000000 3.141592
    53 1.105276 0.472918 0.044064 1.396626 1.315062 2.998056
    54 0.000000 0.000002 -0.051336 0.000000 0.000000 0.000000
    55 -21.550318 25.867062 0.077498 0.000001 1.570451 0.000000
    56 -13.515524 35.221081 -0.542491 0.000001 1.570451 0.000000
    57 0.176298 1.520552 -0.810270 -3.163004 6.075819 1.407347
    58 0.000000 0.000000 0.004268 0.000000 0.000000 1.884936
    59 50.887146 9.091324 -31.729149 0.000000 0.000000 -1.570796
    60 -0.000001 0.000000 0.008734 0.000000 0.000000 0.000000
  time 12
    0 -3.120035 1.205803 -4.069818 -0.009720 -0.055489 -0.374591
    1 11.372666 0.321651 -0.870102 0.040490 2.446522 -0.938170
    2 9.171484 0.008411 -1.524849 1.554613 -3.109855 0.240553
    3 0.221057 -9.998782 -1.233075 0.229322 -0.149659 0.280610
    4 -0.488518 -2.755602 -0.228260 0.088923 0.060404 -0.153908
    5 0.039887 -1.487603 0.022041 -0.372665 -0.006675 0.005214
    6 0.028786 -1.079637 -0.038734 -0.143424 -0.003380 0.001942
    7 0.250027 -2.820665 -0.238396 0.193051 0.046384 -0.006142
    8 -0.049759 -1.661012 0.100479 -0.267057 0.005093 -0.006689
    9 -0.034142 -1.148312 0.088688 0.055155 -0.002049 0.001906
    10 0.957766 -2.746780 -0.090302 0.331825 -0.051156 0.100044
    11 -0.033420 -1.397129 -0.019070 -0.427270 0.007886 -0.020650
    12 -0.022360 -0.957436 0.022690 0.191237 -0.005836 0.007430
    13 -1.180681 -2.507217 -0.193859 0.213170 0.037251 -0.130808
    14 -0.024967 -1.123934 0.017597 -0.403384 0.006639 -0.016154
    15 -0.020057 -0.890968 0.010090 -0.188376 0.002972 -0.004998
    16 0.583510 -1.185558 0.177566 0.365042 -0.473079 -0.697400
    17 1.512489 -0.161634 0.051885 0.020082 -0.166633 -0.563024
    18 1.092958 -0.073600 0.008853 -0.002748 -0.086795 -0.366298
    19 0.120153 -0.050270 -0.054489 0.287569 3.110905 1.561085
    20 -5.552180 -2.321015 -7.153845 1.110872 -4.136553 1.455009
    21 0.124289 -8.587141 -0.044522 0.307322 -0.026219 -0.452810
    22 0.447953 -2.798986 -0.200443 -1.102093 -0.014842 0.154548
    23 -0.032909 -1.499736 0.040097 -1.867668 0.020853 -0.039703
    24 -0.027022 -1.084733 -0.024116 -0.240942 0.006699 -0.001690
    25 -0.249534 -2.846964 -0.174213 -0.506443 -0.009677 0.074202
    26 0.043235 -1.660503 0.049136 -2.061415 -0.024969 0.019632
    27 0.031729 -1.153017 0.058838 -0.486236 -0.004415 0.005723
    28 -0.963866 -2.785145 -0.085350 0.115767 0.161701 0.061678
    29 0.028479 -1.403067 0.002365 -0.249724 -0.003272 -0.011421
    30 0.021413 -0.957781 0.020046 0.168675 0.000587 0.007418
    31 1.164475 -2.543940 -0.170330 -1.287253 -0.158056 0.208416
    32 0.024032 -1.144668 -0.005631 -1.194798 0.018936 0.059481
    33 0.014898 -0.899614 -0.019848 -0.774879 0.002301 0.039238
    34 -0.586770 -1.264477 0.200161 -0.225941 -0.693912 -2.492790
    35 1.554086 0.035243 0.016848 -0.013031 -0.005121 0.678841
    36 1.114041 0.044518 -0.005766 -0.017597 -0.034354 0.685966
    37 -0.139399 -0.111698 0.014397 0.285382 -0.030687 1.580508
    38 -8.210084 -0.000936 -0.477722 1.564253 -0.037262 -0.077389
    39 -8.862440 -8.761986 -0.713683 -1.609866 -0.667584 1.318869
    40 -0.445597 0.884378 -0.000001 0.000000 0.000000 -2.855763
    41 0.752335 0.955584 -0.000001 0.000000 0.000002 -0.000001
    42 0.227005 -1.459700 -0.336619 0.000000 0.000000 -1.570796
    43 -1.773792 0.941444 0.336619 0.000000 0.000000 0.000000
    44 -12.940949 -13.876676 0.063470 0.000000 0.000000 3.141592
    45 -2.191151 0.000000 0.000000 0.000000 0.000000 0.000000
    46 28.767628 0.000000 -20.407471 0.000000 -1.570796 -1.570796
    47 0.752335 0.955585 -0.000001 0.000000 0.000002 -0.000001
    48 -0.445597 0.884380 -0.000001 0.000000 0.000000 -2.855763
    49 0.227003 -1.459700 0.523556 0.000000 0.000000 -1.570796
    50 -1.773792 0.941444 -0.523556 0.000000 0.000000 0.000000
    51 -19.860804 -4.372061 -0.000001 0.000000 0.000000 3.141592
    52 -0.004971 0.000000 0.000000 0.000000 0.000000 3.141592
    53 1.105276 0.472918 0.044064 1.396626 1.315062 2.998056
    54 0.000000 0.000002 -0.051336 0.000000 0.000000 0.000000
    55 -21.550318 25.867062 0.077498 0.000001 1.570451 0.000000
    56 -13.515524 35.221081 -0.542491 0.000001 1.570451 0.000000
    57 0.176298 1.520552 -0.810270 -0.091861 3.328855 -1.378742
    58 0.000000 0.000000 0.004268 0.000000 0.000000 2.513216
    59 50.887146 9.091324 -31.729149 0.000000 0.000000 -1.570796
    60 -0.000001 0.000000 0.008734 0.000000 0.000000 0.000000
  time 13
    0 -3.120035 1.205803 -4.069818 -0.009720 -0.055489 -0.374591
    1 11.396105 0.251337 -0.905259 0.042115 2.464648 -0.943153
    2 9.187109 0.098258 -1.524849 1.554326 -3.110047 0.251504
    3 0.221057 -9.998782 -1.233075 0.233163 -0.160217 0.277420
    4 -0.488518 -2.755602 -0.228260 0.084566 0.060751 -0.155682
    5 0.039887 -1.487603 0.022041 -0.395676 -0.007095 0.005670
    6 0.028786 -1.079637 -0.042641 -0.152971 -0.003583 0.002085
    7 0.250027 -2.820665 -0.238396 0.191786 0.046947 -0.008395
    8 -0.049759 -1.657106 0.100479 -0.288102 0.005393 -0.007229
    9 -0.034142 -1.148312 0.084782 0.042748 -0.001774 0.001666
    10 0.957766 -2.746780 -0.090302 0.327663 -0.052798 0.097695
    11 -0.033420 -1.397129 -0.019070 -0.424488 0.007862 -0.020519
    12 -0.022360 -0.957436 0.022690 0.179004 -0.005405 0.006987
    13 -1.180681 -2.507217 -0.193859 0.203953 0.039349 -0.131960
    14 -0.024967 -1.123934 0.017597 -0.426135 0.006831 -0.017185
    15 -0.020057 -0.890968 0.010090 -0.199358 0.003200 -0.005441
    16 0.583510 -1.185558 0.177566 0.357426 -0.476944 -0.696388
    17 1.512489 -0.161634 0.051885 0.019998 -0.166454 -0.562317
    18 1.092958 -0.073600 0.008853 -0.002856 -0.086136 -0.363869
    19 0.120153 -0.050270 -0.054489 0.287569 3.110905 1.561085
    20 -5.552180 -2.375704 -7.122594 1.110370 -4.131705 1.451871
    21 0.120382 -8.591048 -0.040616 0.299241 -0.043857 -0.470295
    22 0.447953 -2.798986 -0.200443 -1.102093 -0.014842 0.154548
    23 -0.032909 -1.499736 0.040097 -1.867668 0.020853 -0.039703
    24 -0.027022 -1.084733 -0.024116 -0.240942 0.006699 -0.001690
    25 -0.249534 -2.846964 -0.174213 -0.506443 -0.009677 0.074202
    26 0.043235 -1.660503 0.049136 -2.061415 -0.024969 0.019632
    27 0.031729 -1.153017 0.058838 -0.486236 -0.004415 0.005723
    28 -0.963866 -2.785145 -0.085350 0.115767 0.161701 0.061678
    29 0.028479 -1.403067 0.002365 -0.249724 -0.003272 -0.011421
    30 0.021413 -0.957781 0.020046 0.168675 0.000587 0.007418
    31 1.164475 -2.543940 -0.170330 -1.287253 -0.158056 0.208416
    32 0.024032 -1.144668 -0.005631 -1.194798 0.018936 0.059481
    33 0.014898 -0.899614 -0.019848 -0.774879 0.002301 0.039238
    34 -0.586770 -1.264477 0.200161 -0.225941 -0.693912 -2.492790
    35 1.554086 0.035243 0.016848 -0.013031 -0.005121 0.678841
    36 1.114041 0.044518 -0.005766 -0.017597 -0.034354 0.685966
    37 -0.139399 -0.111698 0.014397 0.285382 -0.030687 1.580508
    38 -8.213991 0.049846 -0.477722 1.564409 -0.037202 -0.083928
    39 -8.842908 -8.679952 -0.612117 -1.613443 -0.649861 1.340432
    40 -0.445597 0.884378 -0.000001 0.000000 0.000000 -2.855763
    41 0.752335 0.955584 -0.000001 0.000000 0.000002 -0.000001
    42 0.227005 -1.459700 -0.336619 0.000000 0.000000 -1.570796
    43 -1.773792 0.941444 0.336619 0.000000 0.000000 0.000000
    44 -12.940949 -13.876676 0.063470 0.000000 0.000000 3.141592
    45 -2.191151 0.000000 0.000000 0.000000 0.000000 0.000000
    46 28.767628 0.000000 -20.407471 0.000000 -1.570796 -1.570796
    47 0.752335 0.955585 -0.000001 0.000000 0.000002 -0.000001
    48 -0.445597 0.884380 -0.000001 0.000000 0.000000 -2.855763
    49 0.227003 -1.459700 0.523556 0.000000 0.000000 -1.570796
    50 -1.773792 0.941444 -0.523556 0.000000 0.000000 0.000000
    51 -19.860804 -4.372061 -0.000001 0.000000 0.000000 3.141592
    52 -0.004971 0.000000 0.000000 0.000000 0.000000 3.141592
    53 1.105276 0.472918 0.044064 1.396626 1.315062 2.998056
    54 0.000000 0.000002 -0.051336 0.000000 0.000000 0.000000
    55 -21.550318 25.867062 0.077498 0.000001 1.570451 0.000000
    56 -13.515524 35.221081 -0.542491 0.000001 1.570451 0.000000
    57 0.176298 1.520552 -0.810270 -0.150521 3.286190 -1.027373
    58 0.000000 0.000000 0.004268 0.000000 0.000000 3.141592
    59 50.887146 9.091324 -31.729149 0.000000 0.000000 -1.570796
    60 -0.000001 0.000000 0.008734 0.000000 0.000000 0.000000
  time 14
    0 -3.120035 1.205803 -4.069818 -0.009720 -0.055489 -0.374591
    1 11.403917 0.118520 -0.932604 0.051383 2.484682 -0.941907
    2 9.159765 0.281857 -1.520942 1.554134 -3.110430 0.272116
    3 0.221057 -9.998782 -1.236981 0.244974 -0.176920 0.269588
    4 -0.488518 -2.755602 -0.228260 0.075748 0.061123 -0.157983
    5 0.039887 -1.487603 0.018135 -0.425383 -0.007610 0.006281
    6 0.028786 -1.079637 -0.042641 -0.165107 -0.003859 0.002265
    7 0.250027 -2.820665 -0.238396 0.187009 0.047738 -0.011403
    8 -0.049759 -1.657106 0.100479 -0.315794 0.005765 -0.007960
    9 -0.034142 -1.148312 0.084782 0.026030 -0.001402 0.001342
    10 0.957766 -2.746780 -0.090302 0.320247 -0.054871 0.094579
    11 -0.033420 -1.397129 -0.019070 -0.425311 0.007874 -0.020555
    12 -0.022360 -0.957436 0.022690 0.162534 -0.004854 0.006364
    13 -1.180681 -2.507217 -0.193859 0.189048 0.042261 -0.133491
    14 -0.024967 -1.123934 0.017597 -0.455179 0.007047 -0.018491
    15 -0.020057 -0.894874 0.010090 -0.213024 0.003476 -0.006004
    16 0.583510 -1.185558 0.177566 0.347465 -0.481966 -0.694971
    17 1.512489 -0.161634 0.051885 0.019891 -0.166226 -0.561402
    18 1.092958 -0.069694 0.008853 -0.003012 -0.085273 -0.360716
    19 0.120153 -0.050270 -0.054489 0.287569 3.110905 1.561085
    20 -5.552180 -2.512427 -7.048373 1.109507 -4.119619 1.444167
    21 0.116476 -8.591048 -0.036710 0.289082 -0.068745 -0.484749
    22 0.447953 -2.798986 -0.200443 -1.102093 -0.014842 0.154548
    23 -0.032909 -1.499736 0.040097 -1.867668 0.020853 -0.039703
    24 -0.027022 -1.084733 -0.024116 -0.240942 0.006699 -0.001690
    25 -0.249534 -2.846964 -0.174213 -0.506443 -0.009677 0.074202
    26 0.043235 -1.660503 0.049136 -2.061415 -0.024969 0.019632
    27 0.031729 -1.153017 0.058838 -0.486236 -0.004415 0.005723
    28 -0.963866 -2.785145 -0.085350 0.115767 0.161701 0.061678
    29 0.028479 -1.403067 0.002365 -0.249724 -0.003272 -0.011421
    30 0.021413 -0.957781 0.020046 0.168675 0.000587 0.007418
    31 1.164475 -2.543940 -0.170330 -1.287253 -0.158056 0.208416
    32 0.024032 -1.144668 -0.005631 -1.194798 0.018936 0.059481
    33 0.014898 -0.899614 -0.019848 -0.774879 0.002301 0.039238
    34 -0.586770 -1.264477 0.200161 -0.225941 -0.693912 -2.492790
    35 1.554086 0.035243 0.016848 -0.013031 -0.005121 0.678841
    36 1.114041 0.044518 -0.005766 -0.017597 -0.034354 0.685966
    37 -0.139399 -0.111698 0.014397 0.285382 -0.030687 1.580508
    38 -8.221803 0.186569 -0.477722 1.564817 -0.037046 -0.100226
    39 -8.854627 -8.629170 -0.420705 -1.614965 -0.629710 1.362758
    40 -0.445597 0.884378 -0.000001 0.000000 0.000000 -2.855763
    41 0.752335 0.955584 -0.000001 0.000000 0.000002 -0.000001
    42 0.227005 -1.459700 -0.336619 0.000000 0.000000 -1.570796
    43 -1.773792 0.941444 0.336619 0.000000 0.000000 0.000000
    44 -12.940949 -13.876676 0.063470 0.000000 0.000000 3.141592
    45 -2.191151 0.000000 0.000000 0.000000 0.000000 0.000000
    46 28.767628 0.000000 -20.407471 0.000000 -1.570796 -1.570796
    47 0.752335 0.955585 -0.000001 0.000000 0.000002 -0.000001
    48 -0.445597 0.884380 -0.000001 0.000000 0.000000 -2.855763
    49 0.227003 -1.459700 0.523556 0.000000 0.000000 -1.570796
    50 -1.773792 0.941444 -0.523556 0.000000 0.000000 0.000000
    51 -19.860804 -4.372061 -0.000001 0.000000 0.000000 3.141592
    52 -0.004971 0.000000 0.000000 0.000000 0.000000 3.141592
    53 1.105276 0.472918 0.044064 1.396626 1.315062 2.998056
    54 0.000000 0.000002 -0.051336 0.000000 0.000000 0.000000
    55 -21.550318 25.867062 0.077498 0.000001 1.570451 0.000000
    56 -13.515524 35.221081 -0.542491 0.000001 1.570451 0.000000
    57 0.176298 1.520552 -0.810270 -0.190457 3.226363 -0.681136
    58 0.000000 0.000000 0.004268 0.000000 0.000000 -2.356170
    59 50.887146 9.091324 -31.729149 0.000000 0.000000 -1.570796
    60 -0.000001 0.000000 0.008734 0.000000 0.000000 0.000000
  time 15
    0 -3.120035 1.205803 -4.069818 -0.009720 -0.055489 -0.374591
    1 11.400011 -0.053360 -0.956042 0.064378 2.506625 -0.937499
    2 9.093357 0.477176 -1.517036 1.554134 -3.110909 0.292913
    3 0.217150 -9.998782 -1.240887 0.261823 -0.197367 0.258624
    4 -0.488518 -2.755602 -0.228260 0.064253 0.061482 -0.160620
    5 0.039887 -1.487603 0.018135 -0.459499 -0.008185 0.006988
    6 0.028786 -1.079637 -0.046547 -0.178933 -0.004159 0.002493
    7 0.250027 -2.820665 -0.238396 0.180068 0.048661 -0.014903
    8 -0.049759 -1.653199 0.100479 -0.347824 0.006172 -0.008811
    9 -0.034142 -1.148312 0.084782 0.006503 -0.000983 0.000947
    10 0.957766 -2.746780 -0.090302 0.310817 -0.057268 0.090971
    11 -0.033420 -1.397129 -0.019070 -0.428250 0.007886 -0.020698
    12 -0.022360 -0.957436 0.018784 0.143307 -0.004207 0.005645
    13 -1.180681 -2.507217 -0.193859 0.170613 0.045676 -0.135288
    14 -0.024967 -1.123934 0.017597 -0.488429 0.007239 -0.019989
    15 -0.020057 -0.894874 0.010090 -0.228513 0.003775 -0.006639
    16 0.583510 -1.189464 0.177566 0.335917 -0.487736 -0.693275
    17 1.512489 -0.161634 0.051885 0.019771 -0.165962 -0.560362
    18 1.092958 -0.069694 0.008853 -0.003191 -0.084266 -0.357071
    19 0.120153 -0.050270 -0.054489 0.287569 3.110905 1.561085
    20 -5.552180 -2.684307 -6.946808 1.109004 -4.104171 1.434657
    21 0.112569 -8.587141 -0.032803 0.278399 -0.096520 -0.496561
    22 0.447953 -2.798986 -0.200443 -1.102093 -0.014842 0.154548
    23 -0.032909 -1.499736 0.040097 -1.867668 0.020853 -0.039703
    24 -0.027022 -1.084733 -0.024116 -0.240942 0.006699 -0.001690
    25 -0.249534 -2.846964 -0.174213 -0.506443 -0.009677 0.074202
    26 0.043235 -1.660503 0.049136 -2.061415 -0.024969 0.019632
    27 0.031729 -1.153017 0.058838 -0.486236 -0.004415 0.005723
    28 -0.963866 -2.785145 -0.085350 0.115767 0.161701 0.061678
    29 0.028479 -1.403067 0.002365 -0.249724 -0.003272 -0.011421
    30 0.021413 -0.957781 0.020046 0.168675 0.000587 0.007418
    31 1.164475 -2.543940 -0.170330 -1.287253 -0.158056 0.208416
    32 0.024032 -1.144668 -0.005631 -1.194798 0.018936 0.059481
    33 0.014898 -0.899614 -0.019848 -0.774879 0.002301 0.039238
    34 -0.586770 -1.264477 0.200161 -0.225941 -0.693912 -2.492790
    35 1.554086 0.035243 0.016848 -0.013031 -0.005121 0.678841
    36 1.114041 0.044518 -0.005766 -0.017597 -0.034354 0.685966
    37 -0.139399 -0.111698 0.014397 0.285382 -0.030687 1.580508
    38 -8.233523 0.358450 -0.473815 1.565344 -0.036830 -0.121121
    39 -8.885878 -8.594012 -0.186323 -1.614737 -0.609379 1.384130
    40 -0.445597 0.884378 -0.000001 0.000000 0.000000 -2.855763
    41 0.752335 0.955584 -0.000001 0.000000 0.000002 -0.000001
    42 0.227005 -1.459700 -0.336619 0.000000 0.000000 -1.570796
    43 -1.773792 0.941444 0.336619 0.000000 0.000000 0.000000
    44 -12.940949 -13.876676 0.063470 0.000000 0.000000 3.141592
    45 -2.191151 0.000000 0.000000 0.000000 0.000000 0.000000
    46 28.767628 0.000000 -20.407471 0.000000 -1.570796 -1.570796
    47 0.752335 0.955585 -0.000001 0.000000 0.000002 -0.000001
    48 -0.445597 0.884380 -0.000001 0.000000 0.000000 -2.855763
    49 0.227003 -1.459700 0.523556 0.000000 0.000000 -1.570796
    50 -1.773792 0.941444 -0.523556 0.000000 0.000000 0.000000
    51 -19.860804 -4.372061 -0.000001 0.000000 0.000000 3.141592
    52 -0.004971 0.000000 0.000000 0.000000 0.000000 3.141592
    53 1.105276 0.472918 0.044064 1.396626 1.315062 2.998056
    54 0.000000 0.000002 -0.051336 0.000000 0.000000 0.000000
    55 -21.550318 25.867062 0.077498 0.000001 1.570451 0.000000
    56 -13.515524 35.221081 -0.542491 0.000001 1.570451 0.000000
    57 0.176298 1.520552 -0.810270 -0.207797 3.156660 -0.338605
    58 0.000000 0.000000 0.004268 0.000000 0.000000 -1.570748
    59 50.887146 9.091324 -31.729149 0.000000 0.000000 -1.570796
    60 -0.000001 0.000000 0.008734 0.000000 0.000000 0.000000
  time 16
    0 -3.120035 1.205803 -4.069818 -0.009720 -0.055489 -0.374591
    1 11.388292 -0.236959 -0.983387 0.077659 2.530093 -0.932612
    2 8.980072 0.602179 -1.513129 1.554326 -3.111388 0.304691
    3 0.213244 -10.002689 -1.248700 0.280654 -0.219130 0.246178
    4 -0.488518 -2.755602 -0.228260 0.051760 0.061818 -0.163424
    5 0.039887 -1.491509 0.018135 -0.495780 -0.008773 0.007767
    6 0.028786 -1.079637 -0.046547 -0.193613 -0.004470 0.002721
    7 0.250027 -2.820665 -0.238396 0.172474 0.049619 -0.018630
    8 -0.049759 -1.653199 0.100479 -0.381930 0.006568 -0.009733
    9 -0.034142 -1.148312 0.084782 -0.014329 -0.000527 0.000527
    10 0.957766 -2.746780 -0.090302 0.300634 -0.059857 0.087160
    11 -0.033420 -1.397129 -0.019070 -0.431745 0.007922 -0.020878
    12 -0.022360 -0.957436 0.018784 0.122805 -0.003535 0.004842
    13 -1.180681 -2.507217 -0.193859 0.150708 0.049296 -0.137283
    14 -0.024967 -1.123934 0.017597 -0.523735 0.007394 -0.021595
    15 -0.020057 -0.894874 0.010090 -0.244965 0.004087 -0.007323
    16 0.583510 -1.189464 0.181473 0.323561 -0.493862 -0.691403
    17 1.512489 -0.161634 0.051885 0.019639 -0.165675 -0.559239
    18 1.092958 -0.069694 0.008853 -0.003383 -0.083211 -0.353194
    19 0.120153 -0.050270 -0.054489 0.287569 3.110905 1.561085
    20 -5.556086 -2.848375 -6.841336 1.109148 -4.089047 1.425812
    21 0.108663 -8.587141 -0.024990 0.268658 -0.122751 -0.506274
    22 0.447953 -2.798986 -0.200443 -1.102093 -0.014842 0.154548
    23 -0.032909 -1.499736 0.040097 -1.867668 0.020853 -0.039703
    24 -0.027022 -1.084733 -0.024116 -0.240942 0.006699 -0.001690
    25 -0.249534 -2.846964 -0.174213 -0.506443 -0.009677 0.074202
    26 0.043235 -1.660503 0.049136 -2.061415 -0.024969 0.019632
    27 0.031729 -1.153017 0.058838 -0.486236 -0.004415 0.005723
    28 -0.963866 -2.785145 -0.085350 0.115767 0.161701 0.061678
    29 0.028479 -1.403067 0.002365 -0.249724 -0.003272 -0.011421
    30 0.021413 -0.957781 0.020046 0.168675 0.000587 0.007418
    31 1.164475 -2.543940 -0.170330 -1.287253 -0.158056 0.208416
    32 0.024032 -1.144668 -0.005631 -1.194798 0.018936 0.059481
    33 0.014898 -0.899614 -0.019848 -0.774879 0.002301 0.039238
    34 -0.586770 -1.264477 0.200161 -0.225941 -0.693912 -2.492790
    35 1.554086 0.035243 0.016848 -0.013031 -0.005121 0.678841
    36 1.114041 0.044518 -0.005766 -0.017597 -0.034354 0.685966
    37 -0.139399 -0.111698 0.014397 0.285382 -0.030687 1.580508
    38 -8.237429 0.526423 -0.473815 1.565835 -0.036614 -0.141659
    39 -8.924942 -8.562761 0.048059 -1.613595 -0.591027 1.403021
    40 -0.445597 0.884378 -0.000001 0.000000 0.000000 -2.855763
    41 0.752335 0.955584 -0.000001 0.000000 0.000002 -0.000001
    42 0.227005 -1.459700 -0.336619 0.000000 0.000000 -1.570796
    43 -1.773792 0.941444 0.336619 0.000000 0.000000 0.000000
    44 -12.940949 -13.876676 0.063470 0.000000 0.000000 3.141592
    45 -2.191151 0.000000 0.000000 0.000000 0.000000 0.000000
    46 28.767628 0.000000 -20.407471 0.000000 -1.570796 -1.570796
    47 0.752335 0.955585 -0.000001 0.000000 0.000002 -0.000001
    48 -0.445597 0.884380 -0.000001 0.000000 0.000000 -2.855763
    49 0.227003 -1.459700 0.523556 0.000000 0.000000 -1.570796
    50 -1.773792 0.941444 -0.523556 0.000000 0.000000 0.000000
    51 -19.860804 -4.372061 -0.000001 0.000000 0.000000 3.141592
    52 -0.004971 0.000000 0.000000 0.000000 0.000000 3.141592
    53 1.105276 0.472918 0.044064 1.396626 1.315062 2.998056
    54 0.000000 0.000002 -0.051336 0.000000 0.000000 0.000000
    55 -21.550318 25.867062 0.077498 0.000001 1.570451 0.000000
    56 -13.515524 35.221081 -0.542491 0.000001 1.570451 0.000000
    57 0.176298 1.520552 -0.810270 -0.200603 3.085136 0.003242
    58 0.000000 0.000000 0.004268 0.000000 0.000000 -0.785326
    59 50.887146 9.091324 -31.729149 0.000000 0.000000 -1.570796
    60 -0.000001 0.000000 0.008734 0.000000 0.000000 0.000000
  time 17
    0 -3.120035 1.205803 -4.069818 -0.009720 -0.055489 -0.374591
    1 11.259382 -0.584626 -0.893540 0.086163 2.524751 -0.948424
    2 8.976166 1.215479 -1.505317 1.553175 -3.112441 0.377479
    3 0.213244 -9.998782 -1.248700 0.269793 -0.216427 0.245210
    4 -0.488518 -2.755602 -0.228260 0.048296 0.061710 -0.163400
    5 0.039887 -1.491509 0.018135 -0.502876 -0.008881 0.007923
    6 0.028786 -1.083544 -0.046547 -0.200593 -0.004626 0.002840
    7 0.250027 -2.820665 -0.238396 0.169126 0.049679 -0.018702
    8 -0.049759 -1.649293 0.100479 -0.388391 0.006639 -0.009913
    9 -0.034142 -1.148312 0.084782 -0.020433 -0.000407 0.000407
    10 0.957766 -2.746780 -0.090302 0.296097 -0.059725 0.087028
    11 -0.033420 -1.397129 -0.019070 -0.433681 0.007934 -0.020974
    12 -0.022360 -0.957436 0.018784 0.116700 -0.003344 0.004602
    13 -1.180681 -2.507217 -0.193859 0.147031 0.049583 -0.137507
    14 -0.024967 -1.123934 0.017597 -0.531118 0.007418 -0.021931
    15 -0.020057 -0.894874 0.010090 -0.252258 0.004219 -0.007634
    16 0.583510 -1.189464 0.181473 0.323528 -0.493888 -0.691403
    17 1.512489 -0.161634 0.051885 0.019639 -0.165675 -0.559197
    18 1.092958 -0.069694 0.008853 -0.003383 -0.083199 -0.353194
    19 0.120153 -0.050270 -0.054489 0.287569 3.110905 1.561085
    20 -5.618588 -2.844468 -6.856961 1.098155 -4.103331 1.396520
    21 0.104757 -8.587141 -0.024990 0.267756 -0.136143 -0.523111
    22 0.447953 -2.798986 -0.200443 -1.102093 -0.014842 0.154548
    23 -0.032909 -1.499736 0.040097 -1.867668 0.020853 -0.039703
    24 -0.027022 -1.084733 -0.024116 -0.240942 0.006699 -0.001690
    25 -0.249534 -2.846964 -0.174213 -0.506443 -0.009677 0.074202
    26 0.043235 -1.660503 0.049136 -2.061415 -0.024969 0.019632
    27 0.031729 -1.153017 0.058838 -0.486236 -0.004415 0.005723
    28 -0.963866 -2.785145 -0.085350 0.115767 0.161701 0.061678
    29 0.028479 -1.403067 0.002365 -0.249724 -0.003272 -0.011421
    30 0.021413 -0.957781 0.020046 0.168675 0.000587 0.007418
    31 1.164475 -2.543940 -0.170330 -1.287253 -0.158056 0.208416
    32 0.024032 -1.144668 -0.005631 -1.194798 0.018936 0.059481
    33 0.014898 -0.899614 -0.019848 -0.774879 0.002301 0.039238
    34 -0.586770 -1.264477 0.200161 -0.225941 -0.693912 -2.492790
    35 1.554086 0.035243 0.016848 -0.013031 -0.005121 0.678841
    36 1.114041 0.044518 -0.005766 -0.017597 -0.034354 0.685966
    37 -0.139399 -0.111698 0.014397 0.285382 -0.030687 1.580508
    38 -8.241335 0.639708 -0.473815 1.566183 -0.036471 -0.155658
    39 -9.174950 -8.621357 -0.088664 -1.619759 -0.593725 1.402544
    40 -0.445597 0.884378 -0.000001 0.000000 0.000000 -2.855763
    41 0.752335 0.955584 -0.000001 0.000000 0.000002 -0.000001
    42 0.227005 -1.459700 -0.336619 0.000000 0.000000 -1.570796
    43 -1.773792 0.941444 0.336619 0.000000 0.000000 0.000000
    44 -12.940949 -13.876676 0.063470 0.000000 0.000000 3.141592
    45 -2.191151 0.000000 0.000000 0.000000 0.000000 0.000000
    46 28.767628 0.000000 -20.407471 0.000000 -1.570796 -1.570796
    47 0.752335 0.955585 -0.000001 0.000000 0.000002 -0.000001
    48 -0.445597 0.884380 -0.000001 0.000000 0.000000 -2.855763
    49 0.227003 -1.459700 0.523556 0.000000 0.000000 -1.570796
    50 -1.773792 0.941444 -0.523556 0.000000 0.000000 0.000000
    51 -19.860804 -4.372061 -0.000001 0.000000 0.000000 3.141592
    52 -0.004971 0.000000 0.000000 0.000000 0.000000 3.141592
    53 1.105276 0.472918 0.044064 1.396626 1.315062 2.998056
    54 0.000000 0.000002 -0.051336 0.000000 0.000000 0.000000
    55 -21.550318 25.867062 0.077498 0.000001 1.570451 0.000000
    56 -13.515524 35.221081 -0.542491 0.000001 1.570451 0.000000
    57 0.176298 1.520552 -0.810270 -0.118239 2.969701 0.696800
    58 0.000000 0.000000 0.004268 0.000000 0.000000 0.628280
    59 50.887146 9.091324 -31.729149 0.000000 0.000000 -1.570796
    60 -0.000001 0.000000 0.008734 0.000000 0.000000 0.000000
end
