version 1
nodes
  0 "root" -1
  1 "Bone01" 0
  2 "Bone_L_Upper" 1
  3 "Bone_Lefthand" 1
  4 "Bone13" 3
  5 "Bone14" 4
  6 "Bone15" 5
  7 "Bone17" 3
  8 "Bone18" 7
  9 "Bone19" 8
  10 "Bone21" 3
  11 "Bone22" 10
  12 "Bone23" 11
  13 "Bone09" 3
  14 "Bone10" 13
  15 "Bone11" 14
  16 "Bone05" 3
  17 "Bone06" 16
  18 "Bone07" 17
  19 "Bone_Se_Hand-L" 3
  20 "Bone04" 0
  21 "Bone_Righthand" 20
  22 "Bone39" 21
  23 "Bone40" 22
  24 "Bone41" 23
  25 "Bone35" 21
  26 "Bone36" 25
  27 "Bone37" 26
  28 "Bone31" 21
  29 "Bone32" 28
  30 "Bone33" 29
  31 "Bone43" 21
  32 "Bone44" 31
  33 "Bone45" 32
  34 "Bone27" 21
  35 "Bone28" 34
  36 "Bone29" 35
  37 "Bone_Se_Hand-R" 21
  38 "Bone_R_Upper" 20
  39 "d_root" -1
  40 "trigger" 39
  41 "Bone08" 39
  42 "Bone03" 39
  43 "Bone02" 42
  44 "Bone16" 43
  45 "Bone12" 44
  46 "d_root01" -1
  47 "Bone48" 46
  48 "trigger01" 46
  49 "Bone46" 46
  50 "Bone47" 49
  51 "Baa01" 50
  52 "Baa02" 51
  53 "d22" 46
  54 "d11" 53
  55 "lighfxx" 46
  56 "lighfxxxxx" 39
  57 "glass" 39
  58 "glass2" 57
  59 "Dum11my02" -1
  60 "Du11mmy01" 59
end
skeleton
  time 0
    0 5.509134 2.076923 -4.151851 -0.051845 0.007215 0.138117
    1 4.567771 -1.666691 -4.737407 0.928633 -1.986375 -1.551762
    2 7.956603 2.133476 -0.352938 1.567364 -3.119625 0.340487
    3 -0.079734 -8.459673 -0.111947 0.483587 0.223618 -0.526892
    4 -0.488518 -2.755602 -0.228260 -1.503290 0.058822 -0.216012
    5 0.039887 -1.522760 0.010322 -1.289877 -0.013483 0.027973
    6 0.028786 -1.118701 -0.101236 -0.679921 -0.012632 0.012752
    7 0.250027 -2.820665 -0.238396 -1.194597 0.077520 -0.161271
    8 -0.049759 -1.598510 0.041883 -1.410481 0.003068 -0.038473
    9 -0.034142 -1.156125 0.061344 -0.693755 0.008185 -0.017030
    10 0.957766 -2.746780 -0.090302 -0.234135 -0.222068 -0.024896
    11 -0.033420 -1.397129 -0.011257 -0.188906 0.004758 -0.009049
    12 -0.022360 -0.957436 0.018784 -0.105091 0.002709 -0.004782
    13 -1.180681 -2.507217 -0.193859 -1.413652 0.212658 -0.268977
    14 -0.024967 -1.127840 0.017597 -0.913381 0.005321 -0.039141
    15 -0.020057 -0.902687 0.021809 -0.669314 0.007994 -0.026150
    16 0.618667 -1.212902 0.204911 -0.219494 -0.675229 0.240292
    17 1.348421 -0.313983 0.102668 0.161357 -0.301137 -1.296879
    18 1.046082 -0.151728 0.032291 0.045035 -0.197125 -0.805943
    19 0.120153 -0.050270 -0.054489 0.287569 3.110905 1.561085
    20 -11.681273 -3.043693 0.330758 0.101404 -2.723469 1.023995
    21 0.136008 -8.505108 -0.040616 0.206824 -0.067369 -0.111642
    22 0.447953 -2.798986 -0.200443 0.055082 -0.009845 0.114951
    23 -0.032909 -1.484110 0.004940 -0.258395 0.005537 -0.001604
    24 -0.027022 -1.076920 -0.020210 0.103316 -0.002864 0.000216
    25 -0.249534 -2.846964 -0.174213 0.113472 0.001649 0.075232
    26 0.043235 -1.680035 0.096012 -0.199208 -0.001288 -0.001485
    27 0.031729 -1.160830 0.058838 -0.025353 0.000786 0.008492
    28 -0.963866 -2.785145 -0.085350 0.121680 0.155349 0.113787
    29 0.028479 -1.403067 0.002365 -0.132049 -0.001438 -0.006436
    30 0.021413 -0.957781 0.020046 0.168675 0.000587 0.007418
    31 1.164475 -2.543940 -0.170330 0.064139 -0.049212 0.083735
    32 0.024032 -1.129042 0.009994 -0.321817 -0.002169 0.016875
    33 0.014898 -0.883989 -0.019848 0.084448 0.002948 -0.007598
    34 -0.586770 -1.264477 0.200161 -0.387433 -0.354090 -2.596696
    35 1.554086 0.035243 0.016848 -0.013031 -0.005121 0.678841
    36 1.117947 0.048424 -0.005766 0.001603 -0.023149 -0.020545
    37 -0.139399 -0.111698 0.014397 0.285382 -0.030687 1.580508
    38 -7.217867 4.667175 -0.497253 1.600818 -0.033978 -0.653625
    39 -4.620123 0.371105 -29.288774 -1.313828 -1.777617 1.263150
    40 -0.445597 0.884378 -0.000001 0.000000 0.000000 -2.855763
    41 0.752335 0.955584 -0.000001 0.000000 0.000002 -0.000001
    42 0.227005 -1.459700 -0.336619 0.000000 0.000000 -1.570796
    43 -1.773792 0.941444 0.336619 0.000000 0.000000 0.000000
    44 -12.940949 -13.876676 0.063470 0.000000 0.000000 3.141592
    45 -2.191151 0.000000 0.000000 0.000000 0.000000 0.000000
    46 5.622390 -12.055055 -4.231196 -0.969264 -1.716387 1.016586
    47 0.752335 0.955585 -0.000001 0.000000 0.000002 -0.000001
    48 -0.445597 0.884380 -0.000001 0.000000 0.000000 -2.855763
    49 0.227003 -1.459700 0.523556 0.000000 0.000000 -1.570796
    50 -1.773792 0.941444 -0.523556 0.000000 0.000000 0.000000
    51 -19.860804 -4.372061 -0.000001 0.000000 0.000000 3.141592
    52 -0.004971 0.000000 0.000000 0.000000 0.000000 3.141592
    53 1.105276 0.472918 0.044064 1.396626 1.315062 2.998056
    54 0.000000 0.000002 -0.051336 0.000000 0.000000 0.000000
    55 2.630108 -5.876095 0.077498 0.000001 1.570451 0.000000
    56 -13.515524 35.221081 -0.542491 0.000001 1.570451 0.000000
    57 0.176298 1.520552 -0.810270 -0.169797 3.020228 0.347598
    58 0.000000 0.000000 0.004268 0.000000 0.000000 0.000000
    59 50.887146 9.091324 -31.729149 0.000000 0.000000 -1.570796
    60 -0.000001 0.000000 0.008734 0.000000 0.000000 0.000000
  time 1
    0 5.509134 2.076923 -4.151851 -0.051845 0.007215 0.138117
    1 4.485737 -1.654971 -4.760846 0.883915 -1.954797 -1.521288
    2 7.898008 2.438173 -0.349031 1.566980 -3.120391 0.378767
    3 -0.099266 -8.498736 -0.127572 0.519289 0.155834 -0.292279
    4 -0.488518 -2.755602 -0.228260 -1.503290 0.058822 -0.216012
    5 0.039887 -1.522760 0.010322 -1.289877 -0.013483 0.027973
    6 0.028786 -1.118701 -0.101236 -0.679921 -0.012632 0.012752
    7 0.250027 -2.820665 -0.238396 -1.194597 0.077520 -0.161271
    8 -0.049759 -1.598510 0.041883 -1.410481 0.003068 -0.038473
    9 -0.034142 -1.156125 0.061344 -0.693755 0.008185 -0.017030
    10 0.957766 -2.746780 -0.090302 -0.234135 -0.222068 -0.024896
    11 -0.033420 -1.397129 -0.011257 -0.188906 0.004758 -0.009049
    12 -0.022360 -0.957436 0.018784 -0.105091 0.002709 -0.004782
    13 -1.180681 -2.507217 -0.193859 -1.413652 0.212658 -0.268977
    14 -0.024967 -1.127840 0.017597 -0.913381 0.005321 -0.039141
    15 -0.020057 -0.902687 0.021809 -0.669314 0.007982 -0.026150
    16 0.618667 -1.212902 0.204911 -0.219494 -0.675229 0.240292
    17 1.348421 -0.313983 0.102668 0.161357 -0.301137 -1.296879
    18 1.046082 -0.151728 0.032291 0.045035 -0.197125 -0.805943
    19 0.120153 -0.050270 -0.054489 0.287569 3.110905 1.561085
    20 -11.622678 -3.500738 -0.079411 0.068067 -2.874065 1.110159
    21 0.147727 -8.450418 -0.071867 -0.023878 0.038158 0.006734
    22 0.447953 -2.798986 -0.200443 0.055082 -0.009845 0.114951
    23 -0.032909 -1.484110 0.004940 -0.258395 0.005537 -0.001604
    24 -0.027022 -1.076920 -0.020210 0.103316 -0.002864 0.000216
    25 -0.249534 -2.846964 -0.174213 0.113472 0.001649 0.075232
    26 0.043235 -1.680035 0.096012 -0.199208 -0.001288 -0.001485
    27 0.031729 -1.160830 0.058838 -0.025353 0.000786 0.008492
    28 -0.963866 -2.785145 -0.085350 0.121680 0.155349 0.113787
    29 0.028479 -1.403067 0.002365 -0.132049 -0.001438 -0.006436
    30 0.021413 -0.957781 0.020046 0.168675 0.000587 0.007418
    31 1.164475 -2.543940 -0.170330 0.064139 -0.049212 0.083735
    32 0.024032 -1.129042 0.009994 -0.321817 -0.002169 0.016875
    33 0.014898 -0.883989 -0.019848 0.084448 0.002948 -0.007598
    34 -0.586770 -1.264477 0.200161 -0.387433 -0.354090 -2.596696
    35 1.554086 0.035243 0.016848 -0.013031 -0.005121 0.678841
    36 1.117947 0.048424 -0.005766 0.001603 -0.023149 -0.020545
    37 -0.139399 -0.111698 0.014397 0.285382 -0.030687 1.580508
    38 -6.831136 5.311726 -0.477722 1.603227 -0.031089 -0.733171
    39 -4.620123 0.371105 -29.288774 -1.313828 -1.777617 1.263150
    40 -0.445597 0.884378 -0.000001 0.000000 0.000000 -2.855763
    41 0.752335 0.955584 -0.000001 0.000000 0.000002 -0.000001
    42 0.227005 -1.459700 -0.336619 0.000000 0.000000 -1.570796
    43 -1.773792 0.941444 0.336619 0.000000 0.000000 0.000000
    44 -12.940949 -13.876676 0.063470 0.000000 0.000000 3.141592
    45 -2.191151 0.000000 0.000000 0.000000 0.000000 0.000000
    46 5.251285 -11.691763 -3.348356 0.986438 -1.668160 -0.971104
    47 0.752335 0.955585 -0.000001 0.000000 0.000002 1.553280
    48 -0.445597 0.884380 -0.000001 0.000000 0.000000 -2.855763
    49 0.227003 -1.459700 0.523556 0.000000 0.000000 -1.570796
    50 -1.773792 0.941444 -0.523556 0.000000 0.000000 0.000000
    51 -19.860804 -4.372061 -0.000001 0.000000 0.000000 3.141592
    52 -0.004971 0.000000 0.000000 0.000000 0.000000 3.141592
    53 1.105276 0.472918 0.044064 1.333280 1.383393 2.933147
    54 0.000000 0.000002 -0.051336 0.000000 0.000000 0.136528
    55 2.630108 -5.876095 0.077498 0.000001 -0.567788 0.000000
    56 -13.515524 35.221081 -0.542491 0.000001 1.570451 0.000000
    57 0.176298 1.520552 -0.810270 -0.169797 3.020228 0.347598
    58 0.000000 0.000000 0.004268 0.000000 0.000000 0.000000
    59 50.887146 9.091324 -31.729149 0.000000 0.000000 -1.570796
    60 -0.000001 0.000000 0.008734 0.000000 0.000000 0.000000
  time 2
    0 5.509134 2.076923 -4.151851 -0.051845 0.007215 0.138117
    1 4.872468 -0.783851 -5.163202 4.072916 -1.188728 1.502015
    2 8.077701 0.852187 -0.376376 1.569185 -3.116751 0.182581
    3 -0.130517 -8.514362 -0.162730 0.651542 -0.017809 -0.243153
    4 -0.488518 -2.755602 -0.228260 -1.503290 0.058822 -0.216012
    5 0.039887 -1.522760 0.010322 -1.289877 -0.013483 0.027973
    6 0.028786 -1.118701 -0.101236 -0.679921 -0.012632 0.012752
    7 0.250027 -2.820665 -0.238396 -1.194597 0.077520 -0.161271
    8 -0.049759 -1.598510 0.041883 -1.410481 0.003068 -0.038473
    9 -0.034142 -1.156125 0.061344 -0.693755 0.008185 -0.017030
    10 0.957766 -2.746780 -0.090302 -0.234135 -0.222068 -0.024896
    11 -0.033420 -1.397129 -0.011257 -0.188906 0.004758 -0.009049
    12 -0.022360 -0.957436 0.018784 -0.105091 0.002709 -0.004782
    13 -1.180681 -2.507217 -0.193859 -1.413652 0.212658 -0.268977
    14 -0.024967 -1.127840 0.017597 -0.913381 0.005321 -0.039141
    15 -0.020057 -0.902687 0.021809 -0.669314 0.007982 -0.026150
    16 0.618667 -1.212902 0.204911 -0.219494 -0.675229 0.240292
    17 1.348421 -0.313983 0.102668 0.161357 -0.301137 -1.296879
    18 1.046082 -0.151728 0.032291 0.045035 -0.197125 -0.805943
    19 0.120153 -0.050270 -0.054489 0.287569 3.110905 1.561085
    20 -10.935157 -4.723432 -0.180976 0.054559 -2.803937 1.331658
    21 0.108663 -8.485576 -0.013271 0.106850 -0.223427 -0.108741
    22 0.447953 -2.798986 -0.200443 0.055082 -0.009845 0.114951
    23 -0.032909 -1.484110 0.004940 -0.258395 0.005537 -0.001604
    24 -0.027022 -1.076920 -0.020210 0.103316 -0.002864 0.000216
    25 -0.249534 -2.846964 -0.174213 0.113472 0.001649 0.075232
    26 0.043235 -1.680035 0.096012 -0.199208 -0.001288 -0.001485
    27 0.031729 -1.160830 0.058838 -0.025353 0.000786 0.008492
    28 -0.963866 -2.785145 -0.085350 0.121680 0.155349 0.113787
    29 0.028479 -1.403067 0.002365 -0.132049 -0.001438 -0.006436
    30 0.021413 -0.957781 0.020046 0.168675 0.000587 0.007418
    31 1.164475 -2.543940 -0.170330 0.064139 -0.049212 0.083735
    32 0.024032 -1.129042 0.009994 -0.321817 -0.002169 0.016875
    33 0.014898 -0.883989 -0.019848 0.084448 0.002948 -0.007598
    34 -0.586770 -1.264477 0.200161 -0.387433 -0.354090 -2.596696
    35 1.554086 0.035243 0.016848 -0.013031 -0.005121 0.678841
    36 1.117947 0.048424 -0.005766 0.001603 -0.023149 -0.020545
    37 -0.139399 -0.111698 0.014397 0.285382 -0.030687 1.580508
    38 -5.565472 7.132094 -0.419126 1.608632 -0.022676 -0.977480
    39 -4.620123 0.371105 -29.288774 -1.313828 -1.777617 1.263150
    40 -0.445597 0.884378 -0.000001 0.000000 0.000000 -2.855763
    41 0.752335 0.955584 -0.000001 0.000000 0.000002 -0.000001
    42 0.227005 -1.459700 -0.336619 0.000000 0.000000 -1.570796
    43 -1.773792 0.941444 0.336619 0.000000 0.000000 0.000000
    44 -12.940949 -13.876676 0.063470 0.000000 0.000000 3.141592
    45 -2.191151 0.000000 0.000000 0.000000 0.000000 0.000000
    46 5.087218 -10.137028 -3.063191 1.018354 -1.838275 -0.945452
    47 0.752335 0.955585 -0.000001 0.000000 0.000002 -0.000001
    48 -0.445597 0.884380 -0.000001 0.000000 0.000000 -2.855763
    49 0.227003 -1.459700 0.523556 0.000000 0.000000 -1.570796
    50 -1.773792 0.941444 -0.523556 0.000000 0.000000 0.000000
    51 -19.860804 -4.372061 -0.000001 0.000000 0.000000 3.141592
    52 -0.004971 0.000000 0.000000 0.000000 0.000000 3.141592
    53 1.105276 0.472918 0.044064 1.197932 1.450166 2.796331
    54 0.000000 0.000002 -0.051336 0.000000 0.000000 0.273153
    55 2.630108 -5.876095 0.077498 0.000001 3.576653 0.000000
    56 -13.515524 35.221081 -0.542491 0.000001 1.570451 0.000000
    57 0.176298 1.520552 -0.810270 -0.169797 3.020228 0.347598
    58 0.000000 0.000000 0.004268 0.000000 0.000000 0.000000
    59 50.887146 9.091324 -31.729149 0.000000 0.000000 -1.570796
    60 -0.000001 0.000000 0.008734 0.000000 0.000000 0.000000
  time 3
    0 5.509134 2.076923 -4.151851 -0.051845 0.007215 0.138117
    1 5.349045 -0.361963 -5.296018 4.066801 -1.180714 1.538526
    2 8.042543 -0.061903 -0.388095 1.570623 -3.114836 0.070225
    3 -0.122704 -8.494830 -0.151010 0.602812 0.027265 -0.330442
    4 -0.488518 -2.755602 -0.228260 -1.503290 0.058822 -0.216012
    5 0.039887 -1.522760 0.010322 -1.289877 -0.013483 0.027973
    6 0.028786 -1.118701 -0.101236 -0.679921 -0.012632 0.012752
    7 0.250027 -2.820665 -0.238396 -1.194597 0.077520 -0.161271
    8 -0.049759 -1.598510 0.041883 -1.410481 0.003068 -0.038473
    9 -0.034142 -1.156125 0.061344 -0.693755 0.008185 -0.017030
    10 0.957766 -2.746780 -0.090302 -0.234135 -0.222068 -0.024896
    11 -0.033420 -1.397129 -0.011257 -0.188906 0.004758 -0.009049
    12 -0.022360 -0.957436 0.018784 -0.105091 0.002709 -0.004782
    13 -1.180681 -2.507217 -0.193859 -1.413652 0.212658 -0.268977
    14 -0.024967 -1.127840 0.017597 -0.913381 0.005321 -0.039141
    15 -0.020057 -0.902687 0.021809 -0.669314 0.007994 -0.026150
    16 0.618667 -1.212902 0.204911 -0.219494 -0.675229 0.240292
    17 1.348421 -0.313983 0.102668 0.161357 -0.301137 -1.296879
    18 1.046082 -0.151728 0.032291 0.045035 -0.197125 -0.805943
    19 0.120153 -0.050270 -0.054489 0.287569 3.110905 1.561085
    20 -11.060161 -4.543739 -0.071598 0.054990 -2.790106 1.333370
    21 0.116476 -8.493389 -0.021084 0.150862 -0.173584 -0.114880
    22 0.447953 -2.798986 -0.200443 0.055082 -0.009845 0.114951
    23 -0.032909 -1.484110 0.004940 -0.258395 0.005537 -0.001604
    24 -0.027022 -1.076920 -0.020210 0.103316 -0.002864 0.000216
    25 -0.249534 -2.846964 -0.174213 0.113472 0.001649 0.075232
    26 0.043235 -1.680035 0.096012 -0.199208 -0.001288 -0.001485
    27 0.031729 -1.160830 0.058838 -0.025353 0.000786 0.008492
    28 -0.963866 -2.785145 -0.085350 0.121680 0.155349 0.113787
    29 0.028479 -1.403067 0.002365 -0.132049 -0.001438 -0.006436
    30 0.021413 -0.957781 0.020046 0.168675 0.000587 0.007418
    31 1.164475 -2.543940 -0.170330 0.064139 -0.049212 0.083735
    32 0.024032 -1.129042 0.009994 -0.321817 -0.002169 0.016875
    33 0.014898 -0.883989 -0.019848 0.084448 0.002948 -0.007598
    34 -0.586770 -1.264477 0.200161 -0.387433 -0.354090 -2.596696
    35 1.554086 0.035243 0.016848 -0.013031 -0.005121 0.678841
    36 1.117947 0.048424 -0.005766 0.001603 -0.023149 -0.020545
    37 -0.139399 -0.111698 0.014397 0.285382 -0.030687 1.580508
    38 -4.924828 8.331349 -0.383969 1.612180 -0.016564 -1.116648
    39 -4.620123 0.371105 -29.288774 -1.313828 -1.777617 1.263150
    40 -0.445597 0.884378 -0.000001 0.000000 0.000000 -2.855763
    41 0.752335 0.955584 -0.000001 0.000000 0.000002 -0.000001
    42 0.227005 -1.459700 -0.336619 0.000000 0.000000 -1.570796
    43 -1.773792 0.941444 0.336619 0.000000 0.000000 0.000000
    44 -12.940949 -13.876676 0.063470 0.000000 0.000000 3.141592
    45 -2.191151 0.000000 0.000000 0.000000 0.000000 0.000000
    46 5.680986 -10.058901 -3.707742 0.685778 -1.777741 -0.619531
    47 0.752335 0.955585 -0.000001 0.000000 0.000002 -0.000001
    48 -0.445597 0.884380 -0.000001 0.000000 0.000000 -2.855763
    49 0.227003 -1.459700 0.523556 0.000000 0.000000 -1.570796
    50 -1.773792 0.941444 -0.523556 0.000000 0.000000 0.000000
    51 -19.860804 -4.372061 -0.000001 0.000000 0.000000 3.141592
    52 -0.004971 0.000000 0.000000 0.000000 0.000000 3.141592
    53 1.105276 0.472918 0.044064 0.770388 1.509675 2.367187
    54 0.000000 0.000002 -0.051336 0.000000 0.000000 0.409681
    55 2.630108 -5.876095 0.077498 0.000001 1.438072 0.000000
    56 -13.515524 35.221081 -0.542491 0.000001 1.570451 0.000000
    57 0.176298 1.520552 -0.810270 -0.169797 3.020228 0.347598
    58 0.000000 0.000000 0.004268 0.000000 0.000000 0.000000
    59 50.887146 9.091324 -31.729149 0.000000 0.000000 -1.570796
    60 -0.000001 0.000000 0.008734 0.000000 0.000000 0.000000
  time 4
    0 5.509134 2.076923 -4.151851 -0.051845 0.007215 0.138117
    1 5.677180 -0.119768 -5.335082 0.905510 -1.970061 -1.548408
    2 7.972229 -0.585357 -0.395908 -1.569987 -0.027582 -3.136204
    3 -0.107078 -8.475298 -0.139291 0.536303 0.087033 -0.414199
    4 -0.488518 -2.755602 -0.228260 -1.503290 0.058822 -0.216012
    5 0.039887 -1.522760 0.010322 -1.289877 -0.013483 0.027973
    6 0.028786 -1.118701 -0.101236 -0.679921 -0.012632 0.012752
    7 0.250027 -2.820665 -0.238396 -1.194597 0.077520 -0.161271
    8 -0.049759 -1.598510 0.041883 -1.410481 0.003068 -0.038473
    9 -0.034142 -1.156125 0.061344 -0.693755 0.008185 -0.017030
    10 0.957766 -2.746780 -0.090302 -0.234135 -0.222068 -0.024896
    11 -0.033420 -1.397129 -0.011257 -0.188906 0.004758 -0.009049
    12 -0.022360 -0.957436 0.018784 -0.105091 0.002709 -0.004782
    13 -1.180681 -2.507217 -0.193859 -1.413652 0.212658 -0.268977
    14 -0.024967 -1.127840 0.017597 -0.913381 0.005321 -0.039141
    15 -0.020057 -0.902687 0.021809 -0.669314 0.007982 -0.026150
    16 0.618667 -1.212902 0.204911 -0.219494 -0.675229 0.240292
    17 1.348421 -0.313983 0.102668 0.161357 -0.301137 -1.296879
    18 1.046082 -0.151728 0.032291 0.045035 -0.197125 -0.805943
    19 0.120153 -0.050270 -0.054489 0.287569 3.110905 1.561085
    20 -11.286730 -4.125757 -0.020815 0.057361 -2.778795 1.288576
    21 0.132101 -8.493389 -0.036710 0.161361 -0.090831 -0.097007
    22 0.447953 -2.798986 -0.200443 0.055082 -0.009845 0.114951
    23 -0.032909 -1.484110 0.004940 -0.258395 0.005537 -0.001604
    24 -0.027022 -1.076920 -0.020210 0.103316 -0.002864 0.000216
    25 -0.249534 -2.846964 -0.174213 0.113472 0.001649 0.075232
    26 0.043235 -1.680035 0.096012 -0.199208 -0.001288 -0.001485
    27 0.031729 -1.160830 0.058838 -0.025353 0.000786 0.008492
    28 -0.963866 -2.785145 -0.085350 0.121680 0.155349 0.113787
    29 0.028479 -1.403067 0.002365 -0.132049 -0.001438 -0.006436
    30 0.021413 -0.957781 0.020046 0.168675 0.000587 0.007418
    31 1.164475 -2.543940 -0.170330 0.064139 -0.049212 0.083735
    32 0.024032 -1.129042 0.009994 -0.321817 -0.002169 0.016875
    33 0.014898 -0.883989 -0.019848 0.084448 0.002948 -0.007598
    34 -0.586770 -1.264477 0.200161 -0.387433 -0.354090 -2.596696
    35 1.554086 0.035243 0.016848 -0.013031 -0.005121 0.678841
    36 1.117947 0.048424 -0.005766 0.001603 -0.023149 -0.020545
    37 -0.139399 -0.111698 0.014397 0.285382 -0.030687 1.580508
    38 -5.710008 7.659454 -0.407407 1.609291 -0.020459 -0.962716
    39 -4.620123 0.371105 -29.288774 -1.313828 -1.777617 1.263150
    40 -0.445597 0.884378 -0.000001 0.000000 0.000000 -2.855763
    41 0.752335 0.955584 -0.000001 0.000000 0.000002 -0.000001
    42 0.227005 -1.459700 -0.336619 0.000000 0.000000 -1.570796
    43 -1.773792 0.941444 0.336619 0.000000 0.000000 0.000000
    44 -12.940949 -13.876676 0.063470 0.000000 0.000000 3.141592
    45 -2.191151 0.000000 0.000000 0.000000 0.000000 0.000000
    46 6.177095 -10.140934 -4.309323 0.167582 -1.735714 -0.116219
    47 0.752335 0.955585 -0.000001 0.000000 0.000002 -0.000001
    48 -0.445597 0.884380 -0.000001 0.000000 0.000000 -2.855763
    49 0.227003 -1.459700 0.523556 0.000000 0.000000 -1.570796
    50 -1.773792 0.941444 -0.523556 0.000000 0.000000 0.000000
    51 -19.860804 -4.372061 -0.000001 0.000000 0.000000 3.141592
    52 -0.004971 0.000000 0.000000 0.000000 0.000000 3.141592
    53 1.105276 0.472918 0.044064 -0.555247 1.519103 1.040062
    54 0.000000 0.000002 -0.051336 0.000000 0.000000 0.546306
    55 2.630108 -5.876095 0.077498 0.000001 -0.700594 0.000000
    56 -13.515524 35.221081 -0.542491 0.000001 1.570451 0.000000
    57 0.176298 1.520552 -0.810270 -0.169797 3.020228 0.347598
    58 0.000000 0.000000 0.004268 0.000000 0.000000 0.000000
    59 50.887146 9.091324 -31.729149 0.000000 0.000000 -1.570796
    60 -0.000001 0.000000 0.008734 0.000000 0.000000 0.000000
  time 5
    0 5.509134 2.076923 -4.151851 -0.051845 0.007215 0.138117
    1 5.751401 -0.045547 -5.342895 0.903503 -1.971874 -1.542371
    2 7.948790 -0.733799 -0.395908 -1.569699 -0.027870 -3.154700
    3 -0.107078 -8.471392 -0.135385 0.527321 0.094149 -0.430689
    4 -0.488518 -2.755602 -0.228260 -1.503290 0.058822 -0.216012
    5 0.039887 -1.522760 0.010322 -1.289877 -0.013483 0.027973
    6 0.028786 -1.118701 -0.101236 -0.679921 -0.012632 0.012752
    7 0.250027 -2.820665 -0.238396 -1.194597 0.077520 -0.161271
    8 -0.049759 -1.598510 0.041883 -1.410481 0.003068 -0.038473
    9 -0.034142 -1.156125 0.061344 -0.693755 0.008185 -0.017030
    10 0.957766 -2.746780 -0.090302 -0.234135 -0.222068 -0.024896
    11 -0.033420 -1.397129 -0.011257 -0.188906 0.004758 -0.009049
    12 -0.022360 -0.957436 0.018784 -0.105091 0.002709 -0.004782
    13 -1.180681 -2.507217 -0.193859 -1.413652 0.212658 -0.268977
    14 -0.024967 -1.127840 0.017597 -0.913381 0.005321 -0.039141
    15 -0.020057 -0.902687 0.021809 -0.669314 0.007982 -0.026150
    16 0.618667 -1.212902 0.204911 -0.219494 -0.675229 0.240292
    17 1.348421 -0.313983 0.102668 0.161357 -0.301137 -1.296879
    18 1.046082 -0.151728 0.032291 0.045035 -0.197125 -0.805943
    19 0.120153 -0.050270 -0.054489 0.287569 3.110905 1.561085
    20 -11.282824 -3.840592 -0.005190 0.028550 -2.715066 1.264705
    21 0.132101 -8.493389 -0.036710 0.161191 -0.077204 -0.090894
    22 0.447953 -2.798986 -0.200443 0.055082 -0.009845 0.114951
    23 -0.032909 -1.484110 0.004940 -0.258395 0.005537 -0.001604
    24 -0.027022 -1.076920 -0.020210 0.103316 -0.002864 0.000216
    25 -0.249534 -2.846964 -0.174213 0.113472 0.001649 0.075232
    26 0.043235 -1.680035 0.096012 -0.192190 -0.001156 -0.001461
    27 0.031729 -1.160830 0.058838 -0.025353 0.000786 0.008492
    28 -0.963866 -2.785145 -0.085350 0.112070 0.155337 0.113344
    29 0.028479 -1.403067 0.006271 -0.116545 -0.001234 -0.005765
    30 0.021413 -0.957781 0.020046 0.168675 0.000587 0.007418
    31 1.164475 -2.543940 -0.170330 0.064139 -0.049212 0.083735
    32 0.024032 -1.129042 0.009994 -0.321817 -0.002169 0.016875
    33 0.014898 -0.883989 -0.019848 0.084448 0.002948 -0.007598
    34 -0.586770 -1.264477 0.200161 -0.386978 -0.348137 -2.599093
    35 1.554086 0.035243 0.016848 -0.013031 -0.005121 0.678841
    36 1.117947 0.048424 -0.005766 0.001603 -0.023149 -0.020545
    37 -0.139399 -0.111698 0.014397 0.285382 -0.030687 1.580508
    38 -6.237368 7.132094 -0.426939 1.606847 -0.022628 -0.864522
    39 -4.620123 0.371105 -29.288774 -1.313828 -1.777617 1.263150
    40 -0.445597 0.884378 -0.000001 0.000000 0.000000 -2.855763
    41 0.752335 0.955584 -0.000001 0.000000 0.000002 -0.000001
    42 0.227005 -1.459700 -0.336619 0.000000 0.000000 -1.570796
    43 -1.773792 0.941444 0.336619 0.000000 0.000000 0.000000
    44 -12.940949 -13.876676 0.063470 0.000000 0.000000 3.141592
    45 -2.191151 0.000000 0.000000 0.000000 0.000000 0.000000
    46 6.259128 -10.101871 -4.414795 0.062422 -1.736170 -0.012482
    47 0.752335 0.955585 -0.000001 0.000000 0.000002 -0.000001
    48 -0.445597 0.884380 -0.000001 0.000000 0.000000 -2.855763
    49 0.227003 -1.459700 0.523556 0.000000 0.000000 -1.570796
    50 -1.773792 0.941444 -0.523556 0.000000 0.000000 0.000000
    51 -19.860804 -4.372061 -0.000001 0.000000 0.000000 3.141592
    52 -0.004971 0.000000 0.000000 0.000000 0.000000 3.141592
    53 1.105276 0.472918 0.044064 -1.145529 1.464265 0.448215
    54 0.000000 0.000002 -0.051336 0.000000 0.000000 0.682930
    55 2.630108 -5.876095 0.077498 0.000001 3.443847 0.000000
    56 -13.515524 35.221081 -0.542491 0.000001 1.570451 0.000000
    57 0.176298 1.520552 -0.810270 -0.169797 3.020228 0.347598
    58 0.000000 0.000000 0.004268 0.000000 0.000000 0.000000
    59 50.887146 9.091324 -31.729149 0.000000 0.000000 -1.570796
    60 -0.000001 0.000000 0.008734 0.000000 0.000000 0.000000
  time 6
    0 5.509134 2.076923 -4.151851 -0.051845 0.007215 0.138117
    1 5.739682 -0.037735 -5.346801 0.906465 -1.971492 -1.549079
    2 7.944884 -0.745518 -0.395908 -1.569603 -0.027870 -3.155989
    3 -0.107078 -8.471392 -0.139291 0.533206 0.090406 -0.428439
    4 -0.488518 -2.755602 -0.228260 -1.503290 0.058822 -0.216012
    5 0.039887 -1.522760 0.010322 -1.289877 -0.013483 0.027973
    6 0.028786 -1.118701 -0.101236 -0.679921 -0.012632 0.012752
    7 0.250027 -2.820665 -0.238396 -1.194597 0.077520 -0.161271
    8 -0.049759 -1.598510 0.041883 -1.410481 0.003068 -0.038473
    9 -0.034142 -1.156125 0.061344 -0.693755 0.008185 -0.017030
    10 0.957766 -2.746780 -0.090302 -0.234135 -0.222068 -0.024896
    11 -0.033420 -1.397129 -0.011257 -0.188906 0.004758 -0.009049
    12 -0.022360 -0.957436 0.018784 -0.105091 0.002709 -0.004782
    13 -1.180681 -2.507217 -0.193859 -1.413652 0.212658 -0.268977
    14 -0.024967 -1.127840 0.017597 -0.913381 0.005321 -0.039141
    15 -0.020057 -0.902687 0.021809 -0.669314 0.007982 -0.026150
    16 0.618667 -1.212902 0.204911 -0.219494 -0.675229 0.240292
    17 1.348421 -0.313983 0.102668 0.161357 -0.301137 -1.296879
    18 1.046082 -0.151728 0.032291 0.045035 -0.197125 -0.805943
    19 0.120153 -0.050270 -0.054489 0.287569 3.110905 1.561085
    20 -11.189071 -3.539802 -0.067692 -0.000764 -2.644551 1.237314
    21 0.132101 -8.489482 -0.036710 0.148652 -0.081030 -0.086594
    22 0.447953 -2.798986 -0.200443 0.055082 -0.009845 0.114951
    23 -0.032909 -1.484110 0.004940 -0.258395 0.005537 -0.001604
    24 -0.027022 -1.076920 -0.020210 0.103316 -0.002864 0.000216
    25 -0.249534 -2.846964 -0.174213 0.113472 0.001649 0.075232
    26 0.043235 -1.680035 0.096012 -0.185172 -0.001012 -0.001437
    27 0.031729 -1.160830 0.058838 -0.025353 0.000786 0.008492
    28 -0.963866 -2.785145 -0.085350 0.102481 0.155325 0.112913
    29 0.028479 -1.403067 0.006271 -0.101041 -0.001055 -0.005081
    30 0.021413 -0.957781 0.020046 0.168675 0.000587 0.007418
    31 1.164475 -2.543940 -0.170330 0.064139 -0.049212 0.083735
    32 0.024032 -1.129042 0.009994 -0.321817 -0.002169 0.016875
    33 0.014898 -0.883989 -0.019848 0.084448 0.002948 -0.007598
    34 -0.586770 -1.264477 0.200161 -0.386535 -0.342184 -2.601490
    35 1.554086 0.035243 0.016848 -0.013031 -0.005121 0.678841
    36 1.117947 0.048424 -0.005766 0.001603 -0.023149 -0.020545
    37 -0.139399 -0.111698 0.014397 0.285382 -0.030687 1.580508
    38 -6.690507 6.659423 -0.442564 1.604821 -0.023899 -0.794223
    39 -4.620123 0.371105 -29.288774 -1.313828 -1.777617 1.263150
    40 -0.445597 0.884378 -0.000001 0.000000 0.000000 -2.855763
    41 0.752335 0.955584 -0.000001 0.000000 0.000002 -0.000001
    42 0.227005 -1.459700 -0.336619 0.000000 0.000000 -1.570796
    43 -1.773792 0.941444 0.336619 0.000000 0.000000 0.000000
    44 -12.940949 -13.876676 0.063470 0.000000 0.000000 3.141592
    45 -2.191151 0.000000 0.000000 0.000000 0.000000 0.000000
    46 6.227877 -10.070620 -4.391357 0.088379 -1.737628 -0.037096
    47 0.752335 0.955585 -0.000001 0.000000 0.000002 -0.000001
    48 -0.445597 0.884380 -0.000001 0.000000 0.000000 -2.855763
    49 0.227003 -1.459700 0.523556 0.000000 0.000000 -1.570796
    50 -1.773792 0.941444 -0.523556 0.000000 0.000000 0.000000
    51 -19.860804 -4.372061 -0.000001 0.000000 0.000000 3.141592
    52 -0.004971 0.000000 0.000000 0.000000 0.000000 3.141592
    53 1.105276 0.472918 0.044064 -1.312460 1.398270 0.279759
    54 0.000000 0.000002 -0.051336 0.000000 0.000000 0.819458
    55 2.630108 -5.876095 0.077498 0.000001 1.305266 0.000000
    56 -13.515524 35.221081 -0.542491 0.000001 1.570451 0.000000
    57 0.176298 1.520552 -0.810270 -0.169797 3.020228 0.347598
    58 0.000000 0.000000 0.004268 0.000000 0.000000 0.000000
    59 50.887146 9.091324 -31.729149 0.000000 0.000000 -1.570796
    60 -0.000001 0.000000 0.008734 0.000000 0.000000 0.000000
  time 7
    0 5.509134 2.076923 -4.151851 -0.051845 0.007215 0.138117
    1 5.700618 -0.068986 -5.342895 0.908854 -1.970347 -1.555403
    2 7.956603 -0.675203 -0.395908 -1.569795 -0.027774 -3.147431
    3 -0.107078 -8.475298 -0.139291 0.540618 0.084930 -0.419098
    4 -0.488518 -2.755602 -0.228260 -1.503290 0.058822 -0.216012
    5 0.039887 -1.522760 0.010322 -1.289877 -0.013483 0.027973
    6 0.028786 -1.118701 -0.101236 -0.679921 -0.012632 0.012752
    7 0.250027 -2.820665 -0.238396 -1.194597 0.077520 -0.161271
    8 -0.049759 -1.598510 0.041883 -1.410481 0.003068 -0.038473
    9 -0.034142 -1.156125 0.061344 -0.693755 0.008185 -0.017030
    10 0.957766 -2.746780 -0.090302 -0.234135 -0.222068 -0.024896
    11 -0.033420 -1.397129 -0.011257 -0.188906 0.004758 -0.009049
    12 -0.022360 -0.957436 0.018784 -0.105091 0.002709 -0.004782
    13 -1.180681 -2.507217 -0.193859 -1.413652 0.212658 -0.268977
    14 -0.024967 -1.127840 0.017597 -0.913381 0.005321 -0.039141
    15 -0.020057 -0.902687 0.021809 -0.669314 0.007994 -0.026150
    16 0.618667 -1.212902 0.204911 -0.219494 -0.675229 0.240292
    17 1.348421 -0.313983 0.102668 0.161357 -0.301137 -1.296879
    18 1.046082 -0.151728 0.032291 0.045035 -0.197125 -0.805943
    19 0.120153 -0.050270 -0.054489 0.287569 3.110905 1.561085
    20 -11.224228 -3.258543 -0.598958 0.051901 -2.671439 1.167508
    21 0.132101 -8.485576 -0.036710 0.104863 -0.089455 -0.093925
    22 0.447953 -2.798986 -0.200443 0.055082 -0.009845 0.114951
    23 -0.032909 -1.484110 0.004940 -0.258395 0.005537 -0.001604
    24 -0.027022 -1.076920 -0.020210 0.103316 -0.002864 0.000216
    25 -0.249534 -2.846964 -0.174213 0.113472 0.001649 0.075232
    26 0.043235 -1.680035 0.096012 -0.199208 -0.001288 -0.001485
    27 0.031729 -1.160830 0.058838 -0.025353 0.000786 0.008492
    28 -0.963866 -2.785145 -0.085350 0.121680 0.155349 0.113787
    29 0.028479 -1.403067 0.002365 -0.132049 -0.001438 -0.006436
    30 0.021413 -0.957781 0.020046 0.168675 0.000587 0.007418
    31 1.164475 -2.543940 -0.170330 0.064139 -0.049212 0.083735
    32 0.024032 -1.129042 0.009994 -0.321817 -0.002169 0.016875
    33 0.014898 -0.883989 -0.019848 0.084448 0.002948 -0.007598
    34 -0.586770 -1.264477 0.200161 -0.387433 -0.354090 -2.596696
    35 1.554086 0.035243 0.016848 -0.013031 -0.005121 0.678841
    36 1.117947 0.048424 -0.005766 0.001603 -0.023149 -0.020545
    37 -0.139399 -0.111698 0.014397 0.285382 -0.030687 1.580508
    38 -7.096769 6.233629 -0.458190 1.603143 -0.024582 -0.743287
    39 -4.620123 0.371105 -29.288774 -1.313828 -1.777617 1.263150
    40 -0.445597 0.884378 -0.000001 0.000000 0.000000 -2.855763
    41 0.752335 0.955584 -0.000001 0.000000 0.000002 -0.000001
    42 0.227005 -1.459700 -0.336619 0.000000 0.000000 -1.570796
    43 -1.773792 0.941444 0.336619 0.000000 0.000000 0.000000
    44 -12.940949 -13.876676 0.063470 0.000000 0.000000 3.141592
    45 -2.191151 0.000000 0.000000 0.000000 0.000000 0.000000
    46 6.169282 -10.074526 -4.324949 0.153075 -1.738175 -0.100470
    47 0.752335 0.955585 -0.000001 0.000000 0.000002 -0.000001
    48 -0.445597 0.884380 -0.000001 0.000000 0.000000 -2.855763
    49 0.227003 -1.459700 0.523556 0.000000 0.000000 -1.570796
    50 -1.773792 0.941444 -0.523556 0.000000 0.000000 0.000000
    51 -19.860804 -4.372061 -0.000001 0.000000 0.000000 3.141592
    52 -0.004971 0.000000 0.000000 0.000000 0.000000 3.141592
    53 1.105276 0.472918 0.044064 -1.385710 1.330112 0.204880
    54 0.000000 0.000002 -0.051336 0.000000 0.000000 0.956083
    55 2.630108 -5.876095 0.077498 0.000001 -0.833400 0.000000
    56 -13.515524 35.221081 -0.542491 0.000001 1.570451 0.000000
    57 0.176298 1.520552 -0.810270 -0.169797 3.020228 0.347598
    58 0.000000 0.000000 0.004268 0.000000 0.000000 0.000000
    59 50.887146 9.091324 -31.729149 0.000000 0.000000 -1.570796
    60 -0.000001 0.000000 0.008734 0.000000 0.000000 0.000000
  time 8
    0 5.509134 2.076923 -4.151851 -0.051845 0.007215 0.138117
    1 5.677180 -0.119768 -5.335082 0.905510 -1.970061 -1.548408
    2 7.972229 -0.585357 -0.395908 -1.569987 -0.027582 -3.136204
    3 -0.107078 -8.475298 -0.139291 0.536303 0.087033 -0.414199
    4 -0.488518 -2.755602 -0.228260 -1.503290 0.058822 -0.216012
    5 0.039887 -1.522760 0.010322 -1.289877 -0.013483 0.027973
    6 0.028786 -1.118701 -0.101236 -0.679921 -0.012632 0.012752
    7 0.250027 -2.820665 -0.238396 -1.194597 0.077520 -0.161271
    8 -0.049759 -1.598510 0.041883 -1.410481 0.003068 -0.038473
    9 -0.034142 -1.156125 0.061344 -0.693755 0.008185 -0.017030
    10 0.957766 -2.746780 -0.090302 -0.234135 -0.222068 -0.024896
    11 -0.033420 -1.397129 -0.011257 -0.188906 0.004758 -0.009049
    12 -0.022360 -0.957436 0.018784 -0.105091 0.002709 -0.004782
    13 -1.180681 -2.507217 -0.193859 -1.413652 0.212658 -0.268977
    14 -0.024967 -1.127840 0.017597 -0.913381 0.005321 -0.039141
    15 -0.020057 -0.902687 0.021809 -0.669314 0.007982 -0.026150
    16 0.618667 -1.212902 0.204911 -0.219494 -0.675229 0.240292
    17 1.348421 -0.313983 0.102668 0.161357 -0.301137 -1.296879
    18 1.046082 -0.151728 0.032291 0.045035 -0.197125 -0.805943
    19 0.120153 -0.050270 -0.054489 0.287569 3.110905 1.561085
    20 -11.364857 -2.887438 -1.864621 0.194232 -2.855386 1.081628
    21 0.132101 -8.477763 -0.040616 0.010014 -0.100816 -0.122470
    22 0.447953 -2.798986 -0.200443 0.055082 -0.009845 0.114951
    23 -0.032909 -1.484110 0.004940 -0.258395 0.005537 -0.001604
    24 -0.027022 -1.076920 -0.020210 0.103316 -0.002864 0.000216
    25 -0.249534 -2.846964 -0.174213 0.113472 0.001649 0.075232
    26 0.043235 -1.676128 0.096012 -0.251476 -0.002306 -0.001677
    27 0.031729 -1.160830 0.058838 -0.025353 0.000786 0.008492
    28 -0.963866 -2.785145 -0.085350 0.193143 0.155313 0.117035
    29 0.028479 -1.403067 0.002365 -0.247680 -0.003236 -0.011337
    30 0.021413 -0.957781 0.020046 0.168675 0.000587 0.007418
    31 1.164475 -2.543940 -0.170330 0.064139 -0.049212 0.083735
    32 0.024032 -1.129042 0.009994 -0.321817 -0.002169 0.016875
    33 0.014898 -0.883989 -0.019848 0.084448 0.002948 -0.007598
    34 -0.586770 -1.264477 0.200161 -0.391352 -0.398410 -2.578492
    35 1.554086 0.035243 0.016848 -0.013031 -0.005121 0.678841
    36 1.117947 0.048424 -0.005766 0.001603 -0.023149 -0.020545
    37 -0.139399 -0.111698 0.014397 0.285382 -0.030687 1.580508
    38 -7.612410 5.647673 -0.473815 1.601250 -0.025517 -0.676769
    39 -4.620123 0.371105 -29.288774 -1.313828 -1.777617 1.263150
    40 -0.445597 0.884378 -0.000001 0.000000 0.000000 -2.855763
    41 0.752335 0.955584 -0.000001 0.000000 0.000002 -0.000001
    42 0.227005 -1.459700 -0.336619 0.000000 0.000000 -1.570796
    43 -1.773792 0.941444 0.336619 0.000000 0.000000 0.000000
    44 -12.940949 -13.876676 0.063470 0.000000 0.000000 3.141592
    45 -2.191151 0.000000 0.000000 0.000000 0.000000 0.000000
    46 6.177095 -10.140934 -4.309323 0.167582 -1.735714 -0.116219
    47 0.752335 0.955585 -0.000001 0.000000 0.000002 -0.000001
    48 -0.445597 0.884380 -0.000001 0.000000 0.000000 -2.855763
    49 0.227003 -1.459700 0.523556 0.000000 0.000000 -1.570796
    50 -1.773792 0.941444 -0.523556 0.000000 0.000000 0.000000
    51 -19.860804 -4.372061 -0.000001 0.000000 0.000000 3.141592
    52 -0.004971 0.000000 0.000000 0.000000 0.000000 3.141592
    53 1.105276 0.472918 0.044064 -1.426306 1.261349 0.162790
    54 0.000000 0.000002 -0.051336 0.000000 0.000000 1.092707
    55 2.630108 -5.876095 0.077498 0.000001 3.311041 0.000000
    56 -13.515524 35.221081 -0.542491 0.000001 1.570451 0.000000
    57 0.176298 1.520552 -0.810270 -0.169797 3.020228 0.347598
    58 0.000000 0.000000 0.004268 0.000000 0.000000 0.000000
    59 50.887146 9.091324 -31.729149 0.000000 0.000000 -1.570796
    60 -0.000001 0.000000 0.008734 0.000000 0.000000 0.000000
  time 9
    0 5.509134 2.076923 -4.151851 -0.051845 0.007215 0.138117
    1 5.681086 -0.190083 -5.323363 0.894426 -1.971015 -1.522822
    2 7.991760 -0.468166 -0.392002 -1.570179 -0.027391 -3.121757
    3 -0.103172 -8.471392 -0.135385 0.515365 0.099947 -0.416022
    4 -0.488518 -2.755602 -0.228260 -1.503290 0.058822 -0.216012
    5 0.039887 -1.522760 0.010322 -1.289877 -0.013483 0.027973
    6 0.028786 -1.118701 -0.101236 -0.679921 -0.012632 0.012752
    7 0.250027 -2.820665 -0.238396 -1.194597 0.077520 -0.161271
    8 -0.049759 -1.598510 0.041883 -1.410481 0.003068 -0.038473
    9 -0.034142 -1.156125 0.061344 -0.693755 0.008185 -0.017030
    10 0.957766 -2.746780 -0.090302 -0.234135 -0.222068 -0.024896
    11 -0.033420 -1.397129 -0.011257 -0.188906 0.004758 -0.009049
    12 -0.022360 -0.957436 0.018784 -0.105091 0.002709 -0.004782
    13 -1.180681 -2.507217 -0.193859 -1.413652 0.212658 -0.268977
    14 -0.024967 -1.127840 0.017597 -0.913381 0.005321 -0.039141
    15 -0.020057 -0.902687 0.021809 -0.669314 0.007982 -0.026150
    16 0.618667 -1.212902 0.204911 -0.219494 -0.675229 0.240292
    17 1.348421 -0.313983 0.102668 0.161357 -0.301137 -1.296879
    18 1.046082 -0.151728 0.032291 0.045035 -0.197125 -0.805943
    19 0.120153 -0.050270 -0.054489 0.287569 3.110905 1.561085
    20 -11.150007 -2.258513 -3.493577 0.365806 -3.128333 1.032554
    21 0.136008 -8.469950 -0.044522 -0.115628 -0.121022 -0.161661
    22 0.447953 -2.798986 -0.200443 0.055082 -0.009845 0.114951
    23 -0.032909 -1.484110 0.004940 -0.258395 0.005537 -0.001604
    24 -0.027022 -1.076920 -0.020210 0.103316 -0.002864 0.000216
    25 -0.249534 -2.846964 -0.174213 0.113472 0.001649 0.075232
    26 0.043235 -1.676128 0.096012 -0.325467 -0.003757 -0.001833
    27 0.031729 -1.160830 0.058838 -0.025353 0.000786 0.008492
    28 -0.963866 -2.785145 -0.085350 0.294297 0.154882 0.121601
    29 0.028479 -1.403067 -0.005448 -0.411267 -0.006723 -0.017857
    30 0.021413 -0.957781 0.020046 0.168675 0.000587 0.007418
    31 1.164475 -2.543940 -0.170330 0.064139 -0.049212 0.083735
    32 0.024032 -1.129042 0.009994 -0.321817 -0.002169 0.016875
    33 0.014898 -0.883989 -0.019848 0.084448 0.002948 -0.007598
    34 -0.586770 -1.264477 0.200161 -0.398567 -0.460970 -2.551754
    35 1.554086 0.035243 0.016848 -0.013031 -0.005121 0.678841
    36 1.117947 0.048424 -0.005766 0.001603 -0.023149 -0.020545
    37 -0.139399 -0.111698 0.014397 0.285382 -0.030687 1.580508
    38 -8.046017 4.846868 -0.489441 1.599033 -0.026655 -0.596712
    39 -4.620123 0.371105 -29.288774 -1.313828 -1.777617 1.263150
    40 -0.445597 0.884378 -0.000001 0.000000 0.000000 -2.855763
    41 0.752335 0.955584 -0.000001 0.000000 0.000002 -0.000001
    42 0.227005 -1.459700 -0.336619 0.000000 0.000000 -1.570796
    43 -1.773792 0.941444 0.336619 0.000000 0.000000 0.000000
    44 -12.940949 -13.876676 0.063470 0.000000 0.000000 3.141592
    45 -2.191151 0.000000 0.000000 0.000000 0.000000 0.000000
    46 6.274754 -10.285470 -4.356200 0.106337 -1.728147 -0.059824
    47 0.752335 0.955585 -0.000001 0.000000 0.000002 -0.000001
    48 -0.445597 0.884380 -0.000001 0.000000 0.000000 -2.855763
    49 0.227003 -1.459700 0.523556 0.000000 0.000000 -1.570796
    50 -1.773792 0.941444 -0.523556 0.000000 0.000000 0.000000
    51 -19.860804 -4.372061 -0.000001 0.000000 0.000000 3.141592
    52 -0.004971 0.000000 0.000000 0.000000 0.000000 3.141592
    53 1.105276 0.472918 0.044064 -1.451912 1.192153 0.135657
    54 0.000000 0.000002 -0.051336 0.000000 0.000000 1.229235
    55 2.055871 -5.876095 -0.074850 0.000001 1.172546 0.000000
    56 -13.515524 35.221081 -0.542491 0.000001 1.570451 0.000000
    57 0.176298 1.520552 -0.810270 -0.169797 3.020228 0.347598
    58 0.000000 0.000000 0.004268 0.000000 0.000000 0.000000
    59 50.887146 9.091324 -31.729149 0.000000 0.000000 -1.570796
    60 -0.000001 0.000000 0.008734 0.000000 0.000000 0.000000
  time 10
    0 5.509134 2.076923 -4.151851 -0.051845 0.007215 0.138117
    1 5.684993 -0.291649 -5.303831 0.879424 -1.972446 -1.486982
    2 8.015199 -0.300192 -0.392002 -1.570466 -0.027103 -3.100961
    3 -0.099266 -8.467485 -0.131479 0.485198 0.118407 -0.419098
    4 -0.488518 -2.755602 -0.228260 -1.503290 0.058822 -0.216012
    5 0.039887 -1.522760 0.010322 -1.289877 -0.013483 0.027973
    6 0.028786 -1.118701 -0.101236 -0.679921 -0.012632 0.012752
    7 0.250027 -2.820665 -0.238396 -1.194597 0.077520 -0.161271
    8 -0.049759 -1.598510 0.041883 -1.410481 0.003068 -0.038473
    9 -0.034142 -1.156125 0.061344 -0.693755 0.008185 -0.017030
    10 0.957766 -2.746780 -0.090302 -0.234135 -0.222068 -0.024896
    11 -0.033420 -1.397129 -0.011257 -0.188906 0.004758 -0.009049
    12 -0.022360 -0.957436 0.018784 -0.105091 0.002709 -0.004782
    13 -1.180681 -2.507217 -0.193859 -1.413652 0.212658 -0.268977
    14 -0.024967 -1.127840 0.017597 -0.913381 0.005321 -0.039141
    15 -0.020057 -0.902687 0.021809 -0.669314 0.007982 -0.026150
    16 0.618667 -1.212902 0.204911 -0.219494 -0.675229 0.240292
    17 1.348421 -0.313983 0.102668 0.161357 -0.301137 -1.296879
    18 1.046082 -0.151728 0.032291 0.045035 -0.197125 -0.805943
    19 0.120153 -0.050270 -0.054489 0.287569 3.110905 1.561085
    20 -10.478112 -1.473333 -4.899870 0.531919 -3.420994 1.009539
    21 0.136008 -8.462138 -0.048429 -0.231057 -0.144668 -0.192460
    22 0.447953 -2.798986 -0.200443 0.055082 -0.009845 0.114951
    23 -0.032909 -1.484110 0.004940 -0.258395 0.005537 -0.001604
    24 -0.027022 -1.076920 -0.020210 0.103316 -0.002864 0.000216
    25 -0.249534 -2.846964 -0.174213 0.113472 0.001649 0.075232
    26 0.043235 -1.672222 0.096012 -0.391505 -0.005063 -0.001893
    27 0.031729 -1.160830 0.058838 -0.025353 0.000786 0.008492
    28 -0.963866 -2.785145 -0.085350 0.384637 0.154103 0.125640
    29 0.028479 -1.403067 -0.009354 -0.557382 -0.010702 -0.023142
    30 0.021413 -0.957781 0.020046 0.168675 0.000587 0.007418
    31 1.164475 -2.543940 -0.170330 0.064139 -0.049212 0.083735
    32 0.024032 -1.129042 0.009994 -0.321817 -0.002169 0.016875
    33 0.014898 -0.883989 -0.019848 0.084448 0.002948 -0.007598
    34 -0.586770 -1.264477 0.200161 -0.406848 -0.516711 -2.526670
    35 1.554086 0.035243 0.016848 -0.013031 -0.005121 0.678841
    36 1.117947 0.048424 -0.005766 0.001603 -0.023149 -0.020545
    37 -0.139399 -0.111698 0.014397 0.285382 -0.030687 1.580508
    38 -8.299931 4.350759 -0.501160 1.597211 -0.027087 -0.550271
    39 -4.620123 0.371105 -29.288774 -1.313828 -1.777617 1.263150
    40 -0.445597 0.884378 -0.000001 0.000000 0.000000 -2.855763
    41 0.752335 0.955584 -0.000001 0.000000 0.000002 -0.000001
    42 0.227005 -1.459700 -0.336619 0.000000 0.000000 -1.570796
    43 -1.773792 0.941444 0.336619 0.000000 0.000000 0.000000
    44 -12.940949 -13.876676 0.063470 0.000000 0.000000 3.141592
    45 -2.191151 0.000000 0.000000 0.000000 0.000000 0.000000
    46 6.423196 -10.492508 -4.426514 0.008548 -1.717754 0.031276
    47 0.752335 0.955585 -0.000001 0.000000 0.000002 -0.000001
    48 -0.445597 0.884380 -0.000001 0.000000 0.000000 -2.855763
    49 0.227003 -1.459700 0.523556 0.000000 0.000000 -1.570796
    50 -1.773792 0.941444 -0.523556 0.000000 0.000000 0.000000
    51 -19.860804 -4.372061 -0.000001 0.000000 0.000000 3.141592
    52 -0.004971 0.000000 0.000000 0.000000 0.000000 3.141592
    53 1.105276 0.472918 0.044064 -1.469399 1.122698 0.116481
    54 0.000000 0.000002 -0.051336 0.000000 0.000000 1.365860
    55 1.481635 -5.876095 -0.227199 0.000001 -0.966121 0.000000
    56 -13.515524 35.221081 -0.542491 0.000001 1.570451 0.000000
    57 0.176298 1.520552 -0.810270 -0.169797 3.020228 0.347598
    58 0.000000 0.000000 0.004268 0.000000 0.000000 0.000000
    59 50.887146 9.091324 -31.729149 0.000000 0.000000 -1.570796
    60 -0.000001 0.000000 0.008734 0.000000 0.000000 0.000000
  time 11
    0 5.509134 2.076923 -4.151851 -0.051845 0.007215 0.138117
    1 5.692806 -0.404933 -5.280393 0.863945 -1.973972 -1.447788
    2 8.034731 -0.112686 -0.388095 -1.570754 -0.026720 -3.077680
    3 -0.095359 -8.463579 -0.127572 0.451231 0.138969 -0.423227
    4 -0.488518 -2.755602 -0.228260 -1.503290 0.058822 -0.216012
    5 0.039887 -1.522760 0.010322 -1.289877 -0.013483 0.027973
    6 0.028786 -1.118701 -0.101236 -0.679921 -0.012632 0.012752
    7 0.250027 -2.820665 -0.238396 -1.194597 0.077520 -0.161271
    8 -0.049759 -1.598510 0.041883 -1.410481 0.003068 -0.038473
    9 -0.034142 -1.156125 0.061344 -0.693755 0.008185 -0.017030
    10 0.957766 -2.746780 -0.090302 -0.234135 -0.222068 -0.024896
    11 -0.033420 -1.397129 -0.011257 -0.188906 0.004758 -0.009049
    12 -0.022360 -0.957436 0.018784 -0.105091 0.002709 -0.004782
    13 -1.180681 -2.507217 -0.193859 -1.413652 0.212658 -0.268977
    14 -0.024967 -1.127840 0.017597 -0.913381 0.005321 -0.039141
    15 -0.020057 -0.902687 0.021809 -0.669314 0.007982 -0.026150
    16 0.618667 -1.212902 0.204911 -0.219494 -0.675229 0.240292
    17 1.348421 -0.313983 0.102668 0.161357 -0.301137 -1.296879
    18 1.046082 -0.151728 0.032291 0.045035 -0.197125 -0.805943
    19 0.120153 -0.050270 -0.054489 0.287569 3.110905 1.561085
    20 -9.743714 -0.860033 -5.774897 0.623310 -3.683342 0.961226
    21 0.136008 -8.454325 -0.052335 -0.296081 -0.160225 -0.199194
    22 0.447953 -2.798986 -0.200443 0.055082 -0.009845 0.114951
    23 -0.032909 -1.484110 0.004940 -0.258395 0.005537 -0.001604
    24 -0.027022 -1.076920 -0.020210 0.103316 -0.002864 0.000216
    25 -0.249534 -2.846964 -0.174213 0.113472 0.001649 0.075232
    26 0.043235 -1.672222 0.096012 -0.420112 -0.005626 -0.001893
    27 0.031729 -1.160830 0.058838 -0.025353 0.000786 0.008492
    28 -0.963866 -2.785145 -0.085350 0.423744 0.153659 0.127354
    29 0.028479 -1.403067 -0.009354 -0.620619 -0.012656 -0.025228
    30 0.021413 -0.957781 0.020046 0.168675 0.000587 0.007418
    31 1.164475 -2.543940 -0.170330 0.064139 -0.049212 0.083735
    32 0.024032 -1.129042 0.009994 -0.321817 -0.002169 0.016875
    33 0.014898 -0.883989 -0.019848 0.084448 0.002948 -0.007598
    34 -0.586770 -1.264477 0.200161 -0.411019 -0.540772 -2.515393
    35 1.554086 0.035243 0.016848 -0.013031 -0.005121 0.678841
    36 1.117947 0.048424 -0.005766 0.001603 -0.023149 -0.020545
    37 -0.139399 -0.111698 0.014397 0.285382 -0.030687 1.580508
    38 -8.233523 4.635924 -0.497253 1.596636 -0.026008 -0.584348
    39 -4.620123 0.371105 -29.288774 -1.313828 -1.777617 1.263150
    40 -0.445597 0.884378 -0.000001 0.000000 0.000000 -2.855763
    41 0.752335 0.955584 -0.000001 0.000000 0.000002 -0.000001
    42 0.227005 -1.459700 -0.336619 0.000000 0.000000 -1.570796
    43 -1.773792 0.941444 0.336619 0.000000 0.000000 0.000000
    44 -12.940949 -13.876676 0.063470 0.000000 0.000000 3.141592
    45 -2.191151 0.000000 0.000000 0.000000 0.000000 0.000000
    46 6.595076 -10.715171 -4.496829 -0.117237 -1.706997 0.149724
    47 0.752335 0.955585 -0.000001 0.000000 0.000002 -0.000001
    48 -0.445597 0.884380 -0.000001 0.000000 0.000000 -2.855763
    49 0.227003 -1.459700 0.523556 0.000000 0.000000 -1.570796
    50 -1.773792 0.941444 -0.523556 0.000000 0.000000 0.000000
    51 -19.860804 -4.372061 -0.000001 0.000000 0.000000 3.141592
    52 -0.004971 0.000000 0.000000 0.000000 0.000000 3.141592
    53 1.105276 0.472918 0.044064 -1.482068 1.053243 0.102292
    54 0.000000 0.000002 -0.051336 0.000000 0.000000 1.502484
    55 0.903492 -5.876095 -0.379547 0.000001 3.178320 0.000000
    56 -13.515524 35.221081 -0.542491 0.000001 1.570451 0.000000
    57 0.176298 1.520552 -0.810270 -0.169797 3.020228 0.347598
    58 0.000000 0.000000 0.004268 0.000000 0.000000 0.000000
    59 50.887146 9.091324 -31.729149 0.000000 0.000000 -1.570796
    60 -0.000001 0.000000 0.008734 0.000000 0.000000 0.000000
  time 12
    0 5.509134 2.076923 -4.151851 -0.051845 0.007215 0.138117
    1 5.704525 -0.510405 -5.256955 0.850472 -1.975308 -1.411852
    2 8.054262 0.067007 -0.388095 1.570431 -3.115123 0.085868
    3 -0.087546 -8.459673 -0.123666 0.418916 0.158283 -0.427812
    4 -0.488518 -2.755602 -0.228260 -1.503290 0.058822 -0.216012
    5 0.039887 -1.522760 0.010322 -1.289877 -0.013483 0.027973
    6 0.028786 -1.118701 -0.101236 -0.679921 -0.012632 0.012752
    7 0.250027 -2.820665 -0.238396 -1.194597 0.077520 -0.161271
    8 -0.049759 -1.598510 0.041883 -1.410481 0.003068 -0.038473
    9 -0.034142 -1.156125 0.061344 -0.693755 0.008185 -0.017030
    10 0.957766 -2.746780 -0.090302 -0.234135 -0.222068 -0.024896
    11 -0.033420 -1.397129 -0.011257 -0.188906 0.004758 -0.009049
    12 -0.022360 -0.957436 0.018784 -0.105091 0.002709 -0.004782
    13 -1.180681 -2.507217 -0.193859 -1.413652 0.212658 -0.268977
    14 -0.024967 -1.127840 0.017597 -0.913381 0.005321 -0.039141
    15 -0.020057 -0.902687 0.021809 -0.669314 0.007982 -0.026150
    16 0.618667 -1.212902 0.204911 -0.219494 -0.675229 0.240292
    17 1.348421 -0.313983 0.102668 0.161357 -0.301137 -1.296879
    18 1.046082 -0.151728 0.032291 0.045035 -0.197125 -0.805943
    19 0.120153 -0.050270 -0.054489 0.287569 3.110905 1.561085
    20 -9.212448 -0.512366 -6.325695 0.592631 -3.912856 0.839967
    21 0.136008 -8.450418 -0.052335 -0.311444 -0.164958 -0.184456
    22 0.447953 -2.798986 -0.200443 0.055082 -0.009845 0.114951
    23 -0.032909 -1.484110 0.004940 -0.258395 0.005537 -0.001604
    24 -0.027022 -1.076920 -0.020210 0.103316 -0.002864 0.000216
    25 -0.249534 -2.846964 -0.174213 0.113472 0.001649 0.075232
    26 0.043235 -1.672222 0.096012 -0.411757 -0.005458 -0.001893
    27 0.031729 -1.160830 0.058838 -0.025353 0.000786 0.008492
    28 -0.963866 -2.785145 -0.085350 0.412285 0.153803 0.126851
    29 0.028479 -1.403067 -0.009354 -0.602124 -0.012068 -0.024628
    30 0.021413 -0.957781 0.020046 0.168675 0.000587 0.007418
    31 1.164475 -2.543940 -0.170330 0.064139 -0.049212 0.083735
    32 0.024032 -1.129042 0.009994 -0.321817 -0.002169 0.016875
    33 0.014898 -0.883989 -0.019848 0.084448 0.002948 -0.007598
    34 -0.586770 -1.264477 0.200161 -0.409761 -0.533730 -2.518725
    35 1.554086 0.035243 0.016848 -0.013031 -0.005121 0.678841
    36 1.117947 0.048424 -0.005766 0.001603 -0.023149 -0.020545
    37 -0.139399 -0.111698 0.014397 0.285382 -0.030687 1.580508
    38 -7.792103 5.639861 -0.477722 1.596863 -0.023563 -0.687191
    39 -4.620123 0.371105 -29.288774 -1.313828 -1.777617 1.263150
    40 -0.445597 0.884378 -0.000001 0.000000 0.000000 -2.855763
    41 0.752335 0.955584 -0.000001 0.000000 0.000002 -0.000001
    42 0.227005 -1.459700 -0.336619 0.000000 0.000000 -1.570796
    43 -1.773792 0.941444 0.336619 0.000000 0.000000 0.000000
    44 -12.940949 -13.876676 0.063470 0.000000 0.000000 3.141592
    45 -2.191151 0.000000 0.000000 0.000000 0.000000 0.000000
    46 6.770863 -10.922208 -4.559331 -0.254471 -1.698063 0.280056
    47 0.752335 0.955585 -0.000001 0.000000 0.000002 -0.000001
    48 -0.445597 0.884380 -0.000001 0.000000 0.000000 -2.855763
    49 0.227003 -1.459700 0.523556 0.000000 0.000000 -1.570796
    50 -1.773792 0.941444 -0.523556 0.000000 0.000000 0.000000
    51 -19.860804 -4.372061 -0.000001 0.000000 0.000000 3.141592
    52 -0.004971 0.000000 0.000000 0.000000 0.000000 3.141592
    53 1.105276 0.472918 0.044064 -1.491526 0.983702 0.091074
    54 0.000000 0.000002 -0.051336 0.000000 0.000000 1.639012
    55 0.903492 -5.876095 -0.379547 0.000001 1.039740 0.000000
    56 -13.515524 35.221081 -0.542491 0.000001 1.570451 0.000000
    57 0.176298 1.520552 -0.810270 -0.169797 3.020228 0.347598
    58 0.000000 0.000000 0.004268 0.000000 0.000000 0.000000
    59 50.887146 9.091324 -31.729149 0.000000 0.000000 -1.570796
    60 -0.000001 0.000000 0.008734 0.000000 0.000000 0.000000
  time 13
    0 5.286471 2.631628 -3.976065 -0.043204 0.006004 0.115109
    1 5.849060 -0.611971 -5.213984 0.847128 -1.992671 -1.344388
    2 8.058169 0.109977 -0.384189 1.570336 -3.115219 0.091389
    3 -0.079734 -8.440141 -0.119759 0.343405 0.156204 -0.495251
    4 -0.488518 -2.755602 -0.228260 -1.503290 0.058822 -0.216012
    5 0.039887 -1.522760 0.010322 -1.289877 -0.013483 0.027973
    6 0.028786 -1.118701 -0.101236 -0.679921 -0.012632 0.012752
    7 0.250027 -2.820665 -0.238396 -1.194597 0.077520 -0.161271
    8 -0.049759 -1.598510 0.041883 -1.410481 0.003068 -0.038473
    9 -0.034142 -1.156125 0.061344 -0.693755 0.008185 -0.017030
    10 0.957766 -2.746780 -0.090302 -0.234135 -0.222068 -0.024896
    11 -0.033420 -1.397129 -0.011257 -0.188906 0.004758 -0.009049
    12 -0.022360 -0.957436 0.018784 -0.105091 0.002709 -0.004782
    13 -1.180681 -2.507217 -0.193859 -1.413652 0.212658 -0.268977
    14 -0.024967 -1.127840 0.017597 -0.913381 0.005321 -0.039141
    15 -0.020057 -0.902687 0.021809 -0.669314 0.007982 -0.026150
    16 0.618667 -1.212902 0.204911 -0.219494 -0.675229 0.240292
    17 1.348421 -0.313983 0.102668 0.161357 -0.301137 -1.296879
    18 1.046082 -0.151728 0.032291 0.045035 -0.197125 -0.805943
    19 0.120153 -0.050270 -0.054489 0.287569 3.110905 1.561085
    20 -8.720245 -0.238920 -6.798366 0.427883 -4.124983 0.619324
    21 0.136008 -8.450418 -0.052335 -0.308045 -0.165696 -0.161428
    22 0.447953 -2.798986 -0.200443 0.055082 -0.009845 0.114951
    23 -0.032909 -1.484110 0.004940 -0.258395 0.005537 -0.001604
    24 -0.027022 -1.076920 -0.020210 0.103316 -0.002864 0.000216
    25 -0.249534 -2.846964 -0.174213 0.113472 0.001649 0.075232
    26 0.043235 -1.672222 0.096012 -0.389165 -0.005015 -0.001893
    27 0.031729 -1.160830 0.058838 -0.025353 0.000786 0.008492
    28 -0.963866 -2.785145 -0.085350 0.381477 0.154138 0.125496
    29 0.028479 -1.403067 -0.009354 -0.552272 -0.010546 -0.022962
    30 0.021413 -0.957781 0.020046 0.168675 0.000587 0.007418
    31 1.164475 -2.543940 -0.170330 0.064139 -0.049212 0.083735
    32 0.024032 -1.129042 0.009994 -0.321817 -0.002169 0.016875
    33 0.014898 -0.883989 -0.019848 0.084448 0.002948 -0.007598
    34 -0.586770 -1.264477 0.200161 -0.406525 -0.514757 -2.527569
    35 1.554086 0.035243 0.016848 -0.013031 -0.005121 0.678841
    36 1.117947 0.048424 -0.005766 0.001603 -0.023149 -0.020545
    37 -0.139399 -0.111698 0.014397 0.285382 -0.030687 1.580508
    38 -7.018642 6.905524 -0.446471 1.596672 -0.020807 -0.804594
    39 -4.620123 0.371105 -29.288774 -1.313828 -1.777617 1.263150
    40 -0.445597 0.884378 -0.000001 0.000000 0.000000 -2.855763
    41 0.752335 0.955584 -0.000001 0.000000 0.000002 -0.000001
    42 0.227005 -1.459700 -0.336619 0.000000 0.000000 -1.570796
    43 -1.773792 0.941444 0.336619 0.000000 0.000000 0.000000
    44 -12.940949 -13.876676 0.063470 0.000000 0.000000 3.141592
    45 -2.191151 0.000000 0.000000 0.000000 0.000000 0.000000
    46 6.872428 -10.734703 -4.703866 -0.574657 -1.747565 0.582401
    47 0.752335 0.955585 -0.000001 0.000000 0.000002 -0.000001
    48 -0.445597 0.884380 -0.000001 0.000000 0.000000 -2.855763
    49 0.227003 -1.459700 0.523556 0.000000 0.000000 -1.570796
    50 -1.773792 0.941444 -0.523556 0.000000 0.000000 0.000000
    51 -19.860804 -4.372061 -0.000001 0.000000 0.000000 3.141592
    52 -0.004971 0.000000 0.000000 0.000000 0.000000 3.141592
    53 1.105276 0.472918 0.044064 -1.498931 0.914074 0.082062
    54 0.000000 0.000002 -0.051336 0.000000 0.000000 1.775637
    55 0.903492 -5.876095 -0.379547 0.000001 -1.098927 0.000000
    56 -13.515524 35.221081 -0.542491 0.000001 1.570451 0.000000
    57 0.176298 1.520552 -0.810270 -0.169797 3.020228 0.347598
    58 0.000000 0.000000 0.004268 0.000000 0.000000 0.000000
    59 50.887146 9.091324 -31.729149 0.000000 0.000000 -1.570796
    60 -0.000001 0.000000 0.008734 0.000000 0.000000 0.000000
  time 14
    0 5.067715 3.190239 -3.800278 -0.034564 0.004806 0.092100
    1 6.001409 -0.705724 -5.167108 0.847319 -2.009939 -1.280183
    2 8.058169 0.156853 -0.384189 1.570240 -3.115315 0.097003
    3 -0.071921 -8.420609 -0.123666 0.268245 0.149111 -0.562292
    4 -0.488518 -2.755602 -0.228260 -1.503290 0.058822 -0.216012
    5 0.039887 -1.522760 0.010322 -1.289877 -0.013483 0.027973
    6 0.028786 -1.118701 -0.101236 -0.679921 -0.012632 0.012752
    7 0.250027 -2.820665 -0.238396 -1.194597 0.077520 -0.161271
    8 -0.049759 -1.598510 0.041883 -1.410481 0.003068 -0.038473
    9 -0.034142 -1.156125 0.061344 -0.693755 0.008185 -0.017030
    10 0.957766 -2.746780 -0.090302 -0.234135 -0.222068 -0.024896
    11 -0.033420 -1.397129 -0.011257 -0.188906 0.004758 -0.009049
    12 -0.022360 -0.957436 0.018784 -0.105091 0.002709 -0.004782
    13 -1.180681 -2.507217 -0.193859 -1.413652 0.212658 -0.268977
    14 -0.024967 -1.127840 0.017597 -0.913381 0.005321 -0.039141
    15 -0.020057 -0.902687 0.021809 -0.669314 0.007982 -0.026150
    16 0.618667 -1.212902 0.204911 -0.219494 -0.675229 0.240292
    17 1.348421 -0.313983 0.102668 0.161357 -0.301137 -1.296879
    18 1.046082 -0.151728 0.032291 0.045035 -0.197125 -0.805943
    19 0.120153 -0.050270 -0.054489 0.287569 3.110905 1.561085
    20 -8.259294 -0.008444 -7.224160 0.024527 -4.274481 0.187169
    21 0.132101 -8.446512 -0.052335 -0.290877 -0.164052 -0.132417
    22 0.447953 -2.798986 -0.200443 0.055082 -0.009845 0.114951
    23 -0.032909 -1.484110 0.004940 -0.258395 0.005537 -0.001604
    24 -0.027022 -1.076920 -0.020210 0.103316 -0.002864 0.000216
    25 -0.249534 -2.846964 -0.174213 0.113472 0.001649 0.075232
    26 0.043235 -1.676128 0.096012 -0.356347 -0.004368 -0.001881
    27 0.031729 -1.160830 0.058838 -0.025353 0.000786 0.008492
    28 -0.963866 -2.785145 -0.085350 0.336565 0.154570 0.123507
    29 0.028479 -1.403067 -0.005448 -0.479639 -0.008485 -0.020398
    30 0.021413 -0.957781 0.020046 0.168675 0.000587 0.007418
    31 1.164475 -2.543940 -0.170330 0.064139 -0.049212 0.083735
    32 0.024032 -1.129042 0.009994 -0.321817 -0.002169 0.016875
    33 0.014898 -0.883989 -0.019848 0.084448 0.002948 -0.007598
    34 -0.586770 -1.264477 0.200161 -0.402210 -0.487063 -2.540177
    35 1.554086 0.035243 0.016848 -0.013031 -0.005121 0.678841
    36 1.117947 0.048424 -0.005766 0.001603 -0.023149 -0.020545
    37 -0.139399 -0.111698 0.014397 0.285382 -0.030687 1.580508
    38 -6.237368 7.022715 -0.419126 1.595665 -0.018158 -0.920209
    39 -4.620123 0.371105 -29.288774 -1.313828 -1.777617 1.263150
    40 -0.445597 0.884378 -0.000001 0.000000 0.000000 -2.855763
    41 0.752335 0.955584 -0.000001 0.000000 0.000002 -0.000001
    42 0.227005 -1.459700 -0.336619 0.000000 0.000000 -1.570796
    43 -1.773792 0.941444 0.336619 0.000000 0.000000 0.000000
    44 -12.940949 -13.876676 0.063470 0.000000 0.000000 3.141592
    45 -2.191151 0.000000 0.000000 0.000000 0.000000 0.000000
    46 6.993526 -10.508133 -4.852309 -0.760903 -1.805091 0.750832
    47 0.752335 0.955585 -0.000001 0.000000 0.000002 -0.000001
    48 -0.445597 0.884380 -0.000001 0.000000 0.000000 -2.855763
    49 0.227003 -1.459700 0.523556 0.000000 0.000000 -1.570796
    50 -1.773792 0.941444 -0.523556 0.000000 0.000000 0.000000
    51 -19.860804 -4.372061 -0.000001 0.000000 0.000000 3.141592
    52 -0.004971 0.000000 0.000000 0.000000 0.000000 3.141592
    53 1.105276 0.472918 0.044064 -1.504730 0.844359 0.074487
    54 0.000000 0.000002 -0.051336 0.000000 0.000000 1.912261
    55 0.903492 -5.876095 -0.379547 0.000001 3.045514 0.000000
    56 -13.515524 35.221081 -0.542491 0.000001 1.570451 0.000000
    57 0.176298 1.520552 -0.810270 -0.169797 3.020228 0.347598
    58 0.000000 0.000000 0.004268 0.000000 0.000000 0.000000
    59 50.887146 9.091324 -31.729149 0.000000 0.000000 -1.570796
    60 -0.000001 0.000000 0.008734 0.000000 0.000000 0.000000
  time 15
    0 4.845052 3.744943 -3.624491 -0.025923 0.003607 0.069036
    1 6.161570 -0.787758 -5.120232 0.850664 -2.026825 -1.218757
    2 8.062075 0.203730 -0.384189 1.570240 -3.115410 0.102616
    3 -0.064108 -8.401077 -0.123666 0.193848 0.137074 -0.628534
    4 -0.488518 -2.755602 -0.228260 -1.503290 0.058822 -0.216012
    5 0.039887 -1.522760 0.010322 -1.289877 -0.013483 0.027973
    6 0.028786 -1.118701 -0.101236 -0.679921 -0.012632 0.012752
    7 0.250027 -2.820665 -0.238396 -1.194597 0.077520 -0.161271
    8 -0.049759 -1.598510 0.041883 -1.410481 0.003068 -0.038473
    9 -0.034142 -1.156125 0.061344 -0.693755 0.008185 -0.017030
    10 0.957766 -2.746780 -0.090302 -0.234135 -0.222068 -0.024896
    11 -0.033420 -1.397129 -0.011257 -0.188906 0.004758 -0.009049
    12 -0.022360 -0.957436 0.018784 -0.105091 0.002709 -0.004782
    13 -1.180681 -2.507217 -0.193859 -1.413652 0.212658 -0.268977
    14 -0.024967 -1.127840 0.017597 -0.913381 0.005321 -0.039141
    15 -0.020057 -0.902687 0.021809 -0.669314 0.007994 -0.026150
    16 0.618667 -1.212902 0.204911 -0.219494 -0.675229 0.240292
    17 1.348421 -0.313983 0.102668 0.161357 -0.301137 -1.296879
    18 1.046082 -0.151728 0.032291 0.045035 -0.197125 -0.805943
    19 0.120153 -0.050270 -0.054489 0.287569 3.110905 1.561085
    20 -7.802249 0.214219 -7.618703 -0.585106 -4.278488 -0.429680
    21 0.128195 -8.442606 -0.048429 -0.265040 -0.161551 -0.099675
    22 0.447953 -2.798986 -0.200443 0.055082 -0.009845 0.114951
    23 -0.032909 -1.484110 0.004940 -0.258395 0.005537 -0.001604
    24 -0.027022 -1.076920 -0.020210 0.103316 -0.002864 0.000216
    25 -0.249534 -2.846964 -0.174213 0.113472 0.001649 0.075232
    26 0.043235 -1.676128 0.096012 -0.317046 -0.003589 -0.001821
    27 0.031729 -1.160830 0.058838 -0.025353 0.000786 0.008492
    28 -0.963866 -2.785145 -0.085350 0.282838 0.154953 0.121086
    29 0.028479 -1.403067 -0.005448 -0.392748 -0.006280 -0.017150
    30 0.021413 -0.957781 0.020046 0.168675 0.000587 0.007418
    31 1.164475 -2.543940 -0.170330 0.064139 -0.049212 0.083735
    32 0.024032 -1.129042 0.009994 -0.321817 -0.002169 0.016875
    33 0.014898 -0.883989 -0.019848 0.084448 0.002948 -0.007598
    34 -0.586770 -1.264477 0.200161 -0.397644 -0.453902 -2.554846
    35 1.554086 0.035243 0.016848 -0.013031 -0.005121 0.678841
    36 1.117947 0.048424 -0.005766 0.001603 -0.023149 -0.020545
    37 -0.139399 -0.111698 0.014397 0.285382 -0.030687 1.580508
    38 -5.667038 7.331319 -0.399594 1.593628 -0.016121 -1.017586
    39 -4.620123 0.371105 -29.288774 -1.313828 -1.777617 1.263150
    40 -0.445597 0.884378 -0.000001 0.000000 0.000000 -2.855763
    41 0.752335 0.955584 -0.000001 0.000000 0.000002 -0.000001
    42 0.227005 -1.459700 -0.336619 0.000000 0.000000 -1.570796
    43 -1.773792 0.941444 0.336619 0.000000 0.000000 0.000000
    44 -12.940949 -13.876676 0.063470 0.000000 0.000000 3.141592
    45 -2.191151 0.000000 0.000000 0.000000 0.000000 0.000000
    46 7.130249 -10.234687 -5.004657 -0.884100 -1.866080 0.856360
    47 0.752335 0.955585 -0.000001 0.000000 0.000002 -0.000001
    48 -0.445597 0.884380 -0.000001 0.000000 0.000000 -2.855763
    49 0.227003 -1.459700 0.523556 0.000000 0.000000 -1.570796
    50 -1.773792 0.941444 -0.523556 0.000000 0.000000 0.000000
    51 -19.860804 -4.372061 -0.000001 0.000000 0.000000 3.141592
    52 -0.004971 0.000000 0.000000 0.000000 0.000000 3.141592
    53 1.105276 0.472918 0.044064 -1.509370 0.774731 0.068064
    54 0.000000 0.000002 -0.051336 0.000000 0.000000 2.048789
    55 0.903492 -5.876095 -0.379547 0.000001 0.906933 0.000000
    56 -13.515524 35.221081 -0.542491 0.000001 1.570451 0.000000
    57 0.176298 1.520552 -0.810270 -0.169797 3.020228 0.347598
    58 0.000000 0.000000 0.004268 0.000000 0.000000 0.000000
    59 50.887146 9.091324 -31.729149 0.000000 0.000000 -1.570796
    60 -0.000001 0.000000 0.008734 0.000000 0.000000 0.000000
  time 16
    0 4.622389 4.299647 -3.448705 -0.017282 0.002397 0.046028
    1 6.325637 -0.858072 -5.069449 0.856779 -2.043424 -1.159726
    2 8.065982 0.246700 -0.384189 1.570144 -3.115506 0.108137
    3 -0.048483 -8.381545 -0.127572 0.120546 0.120232 -0.693553
    4 -0.488518 -2.755602 -0.228260 -1.503290 0.058822 -0.216012
    5 0.039887 -1.522760 0.010322 -1.289877 -0.013483 0.027973
    6 0.028786 -1.118701 -0.101236 -0.679921 -0.012632 0.012752
    7 0.250027 -2.820665 -0.238396 -1.194597 0.077520 -0.161271
    8 -0.049759 -1.598510 0.041883 -1.410481 0.003068 -0.038473
    9 -0.034142 -1.156125 0.061344 -0.693755 0.008185 -0.017030
    10 0.957766 -2.746780 -0.090302 -0.234135 -0.222068 -0.024896
    11 -0.033420 -1.397129 -0.011257 -0.188906 0.004758 -0.009049
    12 -0.022360 -0.957436 0.018784 -0.105091 0.002709 -0.004782
    13 -1.180681 -2.507217 -0.193859 -1.413652 0.212658 -0.268977
    14 -0.024967 -1.127840 0.017597 -0.913381 0.005321 -0.039141
    15 -0.020057 -0.902687 0.021809 -0.669314 0.007982 -0.026150
    16 0.618667 -1.212902 0.204911 -0.219494 -0.675229 0.240292
    17 1.348421 -0.313983 0.102668 0.161357 -0.301137 -1.296879
    18 1.046082 -0.151728 0.032291 0.045035 -0.197125 -0.805943
    19 0.120153 -0.050270 -0.054489 0.287569 3.110905 1.561085
    20 -7.317859 0.464226 -7.978089 -1.036457 -4.133580 -0.869730
    21 0.128195 -8.438699 -0.048429 -0.235673 -0.159420 -0.065354
    22 0.447953 -2.798986 -0.200443 0.055082 -0.009845 0.114951
    23 -0.032909 -1.484110 0.004940 -0.258395 0.005537 -0.001604
    24 -0.027022 -1.076920 -0.020210 0.103316 -0.002864 0.000216
    25 -0.249534 -2.846964 -0.174213 0.113472 0.001649 0.075232
    26 0.043235 -1.676128 0.096012 -0.275204 -0.002774 -0.001737
    27 0.031729 -1.160830 0.058838 -0.025353 0.000786 0.008492
    28 -0.963866 -2.785145 -0.085350 0.225607 0.155229 0.118497
    29 0.028479 -1.403067 -0.001542 -0.300148 -0.004243 -0.013495
    30 0.021413 -0.957781 0.020046 0.168675 0.000587 0.007418
    31 1.164475 -2.543940 -0.170330 0.064139 -0.049212 0.083735
    32 0.024032 -1.129042 0.009994 -0.321817 -0.002169 0.016875
    33 0.014898 -0.883989 -0.019848 0.084448 0.002948 -0.007598
    34 -0.586770 -1.264477 0.200161 -0.393450 -0.418485 -2.570043
    35 1.554086 0.035243 0.016848 -0.013031 -0.005121 0.678841
    36 1.117947 0.048424 -0.005766 0.001603 -0.023149 -0.020545
    37 -0.139399 -0.111698 0.014397 0.285382 -0.030687 1.580508
    38 -5.233431 7.909461 -0.380062 1.590523 -0.015246 -1.080272
    39 -4.620123 0.371105 -29.288774 -1.313828 -1.777617 1.263150
    40 -0.445597 0.884378 -0.000001 0.000000 0.000000 -2.855763
    41 0.752335 0.955584 -0.000001 0.000000 0.000002 -0.000001
    42 0.227005 -1.459700 -0.336619 0.000000 0.000000 -1.570796
    43 -1.773792 0.941444 0.336619 0.000000 0.000000 0.000000
    44 -12.940949 -13.876676 0.063470 0.000000 0.000000 3.141592
    45 -2.191151 0.000000 0.000000 0.000000 0.000000 0.000000
    46 7.282597 -9.918271 -5.157005 -0.975145 -1.928528 0.929542
    47 0.752335 0.955585 -0.000001 0.000000 0.000002 -0.000001
    48 -0.445597 0.884380 -0.000001 0.000000 0.000000 -2.855763
    49 0.227003 -1.459700 0.523556 0.000000 0.000000 -1.570796
    50 -1.773792 0.941444 -0.523556 0.000000 0.000000 0.000000
    51 -19.860804 -4.372061 -0.000001 0.000000 0.000000 3.141592
    52 -0.004971 0.000000 0.000000 0.000000 0.000000 3.141592
    53 1.105276 0.472918 0.044064 -1.513206 0.705016 0.062503
    54 0.000000 0.000002 -0.051336 0.000000 0.000000 2.185414
    55 0.903492 -5.876095 -0.379547 0.000001 -1.231648 0.000000
    56 -13.515524 35.221081 -0.542491 0.000001 1.570451 0.000000
    57 0.176298 1.520552 -0.810270 -0.169797 3.020228 0.347598
    58 0.000000 0.000000 0.004268 0.000000 0.000000 0.000000
    59 50.887146 9.091324 -31.729149 0.000000 0.000000 -1.570796
    60 -0.000001 0.000000 0.008734 0.000000 0.000000 0.000000
  time 17
    0 4.399726 4.858258 -3.272918 -0.008641 0.001198 0.023019
    1 6.489705 -0.916668 -5.018666 0.865378 -2.059642 -1.102900
    2 8.069888 0.293576 -0.384189 1.570048 -3.115602 0.113750
    3 -0.036764 -8.362013 -0.135385 0.048648 0.098769 -0.757033
    4 -0.488518 -2.755602 -0.228260 -1.503290 0.058822 -0.216012
    5 0.039887 -1.522760 0.010322 -1.289877 -0.013483 0.027973
    6 0.028786 -1.118701 -0.101236 -0.679921 -0.012632 0.012752
    7 0.250027 -2.820665 -0.238396 -1.194597 0.077520 -0.161271
    8 -0.049759 -1.598510 0.041883 -1.410481 0.003068 -0.038473
    9 -0.034142 -1.156125 0.061344 -0.693755 0.008185 -0.017030
    10 0.957766 -2.746780 -0.090302 -0.234135 -0.222068 -0.024896
    11 -0.033420 -1.397129 -0.011257 -0.188906 0.004758 -0.009049
    12 -0.022360 -0.957436 0.018784 -0.105091 0.002709 -0.004782
    13 -1.180681 -2.507217 -0.193859 -1.413652 0.212658 -0.268977
    14 -0.024967 -1.127840 0.017597 -0.913381 0.005321 -0.039141
    15 -0.020057 -0.902687 0.021809 -0.669314 0.007982 -0.026150
    16 0.618667 -1.212902 0.204911 -0.219494 -0.675229 0.240292
    17 1.348421 -0.313983 0.102668 0.161357 -0.301137 -1.296879
    18 1.046082 -0.151728 0.032291 0.045035 -0.197125 -0.805943
    19 0.120153 -0.050270 -0.054489 0.287569 3.110905 1.561085
    20 -6.774874 0.768923 -8.290599 -1.282537 -3.922486 -1.085142
    21 0.124289 -8.434793 -0.044522 -0.207992 -0.158480 -0.031758
    22 0.447953 -2.798986 -0.200443 0.055082 -0.009845 0.114951
    23 -0.032909 -1.484110 0.004940 -0.258395 0.005537 -0.001604
    24 -0.027022 -1.076920 -0.020210 0.103316 -0.002864 0.000216
    25 -0.249534 -2.846964 -0.174213 0.113472 0.001649 0.075232
    26 0.043235 -1.676128 0.096012 -0.234633 -0.001971 -0.001617
    27 0.031729 -1.160830 0.058838 -0.025353 0.000786 0.008492
    28 -0.963866 -2.785145 -0.085350 0.170117 0.155349 0.115981
    29 0.028479 -1.403067 0.002365 -0.210416 -0.002601 -0.009779
    30 0.021413 -0.957781 0.020046 0.168675 0.000587 0.007418
    31 1.164475 -2.543940 -0.170330 0.064139 -0.049212 0.083735
    32 0.024032 -1.129042 0.009994 -0.321817 -0.002169 0.016875
    33 0.014898 -0.883989 -0.019848 0.084448 0.002948 -0.007598
    34 -0.586770 -1.264477 0.200161 -0.389986 -0.384131 -2.584412
    35 1.554086 0.035243 0.016848 -0.013031 -0.005121 0.678841
    36 1.117947 0.048424 -0.005766 0.001603 -0.023149 -0.020545
    37 -0.139399 -0.111698 0.014397 0.285382 -0.030687 1.580508
    38 -4.917015 7.405540 -0.356624 1.586317 -0.016061 -1.091972
    39 -4.620123 0.371105 -29.288774 -1.313828 -1.777617 1.263150
    40 -0.445597 0.884378 -0.000001 0.000000 0.000000 -2.855763
    41 0.752335 0.955584 -0.000001 0.000000 0.000002 -0.000001
    42 0.227005 -1.459700 -0.336619 0.000000 0.000000 -1.570796
    43 -1.773792 0.941444 0.336619 0.000000 0.000000 0.000000
    44 -12.940949 -13.876676 0.063470 0.000000 0.000000 3.141592
    45 -2.191151 0.000000 0.000000 0.000000 0.000000 0.000000
    46 7.446665 -9.554979 -5.305447 -1.048075 -1.991615 0.984334
    47 0.752335 0.955585 -0.000001 0.000000 0.000002 -0.000001
    48 -0.445597 0.884380 -0.000001 0.000000 0.000000 -2.855763
    49 0.227003 -1.459700 0.523556 0.000000 0.000000 -1.570796
    50 -1.773792 0.941444 -0.523556 0.000000 0.000000 0.000000
    51 -19.860804 -4.372061 -0.000001 0.000000 0.000000 3.141592
    52 -0.004971 0.000000 0.000000 0.000000 0.000000 3.141592
    53 1.105276 0.472918 0.044064 -1.516240 0.635302 0.057517
    54 0.000000 0.000002 -0.051336 0.000000 0.000000 2.322038
    55 0.903492 -5.876095 -0.379547 0.000001 2.912794 0.000000
    56 -13.515524 35.221081 -0.542491 0.000001 1.570451 0.000000
    57 0.176298 1.520552 -0.810270 -0.169797 3.020228 0.347598
    58 0.000000 0.000000 0.004268 0.000000 0.000000 0.000000
    59 50.887146 9.091324 -31.729149 0.000000 0.000000 -1.570796
    60 -0.000001 0.000000 0.008734 0.000000 0.000000 0.000000
  time 18
    0 4.180969 5.412963 -3.097132 0.000000 0.000000 -0.000045
    1 6.661585 -0.967450 -4.963977 0.876367 -2.075288 -1.047894
    2 8.069888 0.336546 -0.384189 1.569952 -3.115698 0.119363
    3 -0.025045 -8.346388 -0.139291 -0.021577 0.072871 -0.818690
    4 -0.488518 -2.755602 -0.228260 -1.503290 0.058822 -0.216012
    5 0.039887 -1.522760 0.010322 -1.289877 -0.013483 0.027973
    6 0.028786 -1.118701 -0.101236 -0.679921 -0.012632 0.012752
    7 0.250027 -2.820665 -0.238396 -1.194597 0.077520 -0.161271
    8 -0.049759 -1.598510 0.041883 -1.410481 0.003068 -0.038473
    9 -0.034142 -1.156125 0.061344 -0.693755 0.008185 -0.017030
    10 0.957766 -2.746780 -0.090302 -0.234135 -0.222068 -0.024896
    11 -0.033420 -1.397129 -0.011257 -0.188906 0.004758 -0.009049
    12 -0.022360 -0.957436 0.018784 -0.105091 0.002709 -0.004782
    13 -1.180681 -2.507217 -0.193859 -1.413652 0.212658 -0.268977
    14 -0.024967 -1.127840 0.017597 -0.913381 0.005321 -0.039141
    15 -0.020057 -0.902687 0.021809 -0.669314 0.007994 -0.026150
    16 0.618667 -1.212902 0.204911 -0.219494 -0.675229 0.240292
    17 1.348421 -0.313983 0.102668 0.161357 -0.301137 -1.296879
    18 1.046082 -0.151728 0.032291 0.045035 -0.197125 -0.805943
    19 0.120153 -0.050270 -0.054489 0.287569 3.110905 1.561085
    20 -6.149855 1.151747 -8.536700 -1.437154 -3.693813 -1.184051
    21 0.120382 -8.430887 -0.044522 -0.187254 -0.159051 -0.001244
    22 0.447953 -2.798986 -0.200443 0.055082 -0.009845 0.114951
    23 -0.032909 -1.484110 0.004940 -0.258395 0.005537 -0.001604
    24 -0.027022 -1.076920 -0.020210 0.103316 -0.002864 0.000216
    25 -0.249534 -2.846964 -0.174213 0.113472 0.001649 0.075232
    26 0.043235 -1.680035 0.096012 -0.199208 -0.001288 -0.001485
    27 0.031729 -1.160830 0.058838 -0.025353 0.000786 0.008492
    28 -0.963866 -2.785145 -0.085350 0.121680 0.155349 0.113787
    29 0.028479 -1.403067 0.002365 -0.132049 -0.001438 -0.006436
    30 0.021413 -0.957781 0.020046 0.168675 0.000587 0.007418
    31 1.164475 -2.543940 -0.170330 0.064139 -0.049212 0.083735
    32 0.024032 -1.129042 0.009994 -0.321817 -0.002169 0.016875
    33 0.014898 -0.883989 -0.019848 0.084448 0.002948 -0.007598
    34 -0.586770 -1.264477 0.200161 -0.387433 -0.354090 -2.596696
    35 1.554086 0.035243 0.016848 -0.013031 -0.005121 0.678841
    36 1.117947 0.048424 -0.005766 0.001603 -0.023149 -0.020545
    37 -0.139399 -0.111698 0.014397 0.285382 -0.030687 1.580508
    38 -5.311558 7.022715 -0.352718 1.580864 -0.019045 -1.036182
    39 -4.620123 0.371105 -29.288774 -1.313828 -1.777617 1.263150
    40 -0.445597 0.884378 -0.000001 0.000000 0.000000 -2.855763
    41 0.752335 0.955584 -0.000001 0.000000 0.000002 -0.000001
    42 0.227005 -1.459700 -0.336619 0.000000 0.000000 -1.570796
    43 -1.773792 0.941444 0.336619 0.000000 0.000000 0.000000
    44 -12.940949 -13.876676 0.063470 0.000000 0.000000 3.141592
    45 -2.191151 0.000000 0.000000 0.000000 0.000000 0.000000
    46 7.618545 -9.144810 -5.449983 -1.110027 -2.054883 1.027714
    47 0.752335 0.955585 -0.000001 0.000000 0.000002 -0.000001
    48 -0.445597 0.884380 -0.000001 0.000000 0.000000 -2.855763
    49 0.227003 -1.459700 0.523556 0.000000 0.000000 -1.570796
    50 -1.773792 0.941444 -0.523556 0.000000 0.000000 0.000000
    51 -19.860804 -4.372061 -0.000001 0.000000 0.000000 3.141592
    52 -0.004971 0.000000 0.000000 0.000000 0.000000 3.141592
    53 1.105276 0.472918 0.044064 -1.518827 0.565587 0.053011
    54 0.000000 0.000002 -0.051336 0.000000 0.000000 2.458567
    55 0.903492 -5.876095 -0.379547 0.000001 0.774213 0.000000
    56 -13.515524 35.221081 -0.542491 0.000001 1.570451 0.000000
    57 0.176298 1.520552 -0.810270 -0.169797 3.020228 0.347598
    58 0.000000 0.000000 0.004268 0.000000 0.000000 0.000000
    59 50.887146 9.091324 -31.729149 0.000000 0.000000 -1.570796
    60 -0.000001 0.000000 0.008734 0.000000 0.000000 0.000000
end
