// Created by Crowbar 0.68

// Stored modelname (without quotes): "v_infinityex2desert.mdl"
$modelname "weapons/tfa_cso/c_infinityex2desert.mdl"

$include "csonline_gmod.qci"

$bodygroup "weapon"
{
	studio "v_infinityex2desert"
}

$cdmaterials "models/weapons/tfa_cso/infinityex2desert"

$attachment 1 "NEXON_CSO_infi_Root_R" -0.80 -19.20 -11.90 rotate 0 -90 0
$attachment 0 "NEXON_CSO_infi_Root_L" 6.70 -19.20 -11.90 rotate 0 -90 0
//$attachment 3 "NEXON_CSO_infi_Root_R" 0 -2.349 2.713
//$attachment 2 "NEXON_CSO_infi_Root_L" 0.163 -2.429 2.659



$sequence "idle" {
	"v_Infinityex2desert_anims\idle"
	fps 16
	activity "ACT_VM_IDLE" 1
	snap
	loop
}
$sequence "idle_leftempty" {
	"v_Infinityex2desert_anims\idle_leftempty"
	fps 16
}
$sequence "shoot_left" {
	"v_Infinityex2desert_anims\shoot_left"
	{ event 5001 0 "21" }
	fps 30
	activity "ACT_VM_PRIMARYATTACK" 1
	snap
}
$sequence "shoot_leftlast" {
	"v_Infinityex2desert_anims\shoot_leftlast"
	{ event 5001 0 "21" }
	fps 30
}
$sequence "shoot_right" {
	"v_Infinityex2desert_anims\shoot_right"
	{ event 5011 0 "21" }
	fps 30
	activity "ACT_VM_SECONDARYATTACK" 1
	snap
}
$sequence "shoot_rightlast" {
	"v_Infinityex2desert_anims\shoot_rightlast"
	{ event 5011 0 "21" }
	fps 30
}
$sequence "SP_shoot_left1" {
	"v_Infinityex2desert_anims\SP_shoot_left1"
	{ event 5001 0 "21" }
	fps 30
	activity "ACT_VM_HITLEFT" 1
	snap
}
$sequence "SP_shoot_left2" {
	"v_Infinityex2desert_anims\SP_shoot_left2"
	{ event 5001 0 "21" }
	fps 20
	snap
}
$sequence "SP_shoot_right1" {
	"v_Infinityex2desert_anims\SP_shoot_right1"
	{ event 5011 0 "21" }
	fps 30
	activity "ACT_VM_HITRIGHT" 1
	snap
}
$sequence "SP_shoot_right2" {
	"v_Infinityex2desert_anims\SP_shoot_right2"
	{ event 5011 0 "21" }
	fps 20
	snap
}
$sequence "sp_shoot_leftlast" {
	"v_Infinityex2desert_anims\sp_shoot_leftlast"
	{ event 5001 0 "21" }
	fps 20
}
$sequence "sp_shoot_rightlast" {
	"v_Infinityex2desert_anims\sp_shoot_rightlast"
	{ event 5011 0 "21" }
	fps 20
}
$sequence "reload" {
	"v_Infinityex2desert_anims\reload"
	{ event 5004 1 "DUALINFINITE.ClipOut" }
	{ event 5004 45 "DUALINFINITE.ClipIn" }
	{ event 5004 79 "DUALINFINITE.ClipIn" }
	{ event 5004 108 "DUALINFINITE.ClipOn" }
	fps 30
	activity "ACT_VM_RELOAD" 1
	snap
}
$sequence "draw" {
	"v_Infinityex2desert_anims\draw"
	{ event 5004 1 "DUALINFINITE.Draw" }
	fps 30
	activity "ACT_VM_DRAW" 1
	snap
}
