version 1
nodes
  0 "root" -1
  1 "Bone01" 0
  2 "Bone_Lefthand" 1
  3 "Bone02" 2
  4 "Dummy02" 3
  5 "Bone24" 4
  6 "Bone03" 3
  7 "Bone04" 0
  8 "Bone_Righthand" 7
  9 "Bone08" 8
  10 "Bone20" 9
  11 "Dummy01" 9
  12 "Bone16" 11
  13 "Bone_L_Upper" 1
  14 "Bone13" 2
  15 "Bone14" 14
  16 "Bone15" 15
  17 "Bone17" 2
  18 "Bone18" 17
  19 "Bone19" 18
  20 "Bone21" 2
  21 "Bone22" 20
  22 "Bone23" 21
  23 "Bone09" 2
  24 "Bone10" 23
  25 "Bone11" 24
  26 "Bone05" 2
  27 "Bone06" 26
  28 "Bone07" 27
  29 "Bone_Se_Hand-L" 2
  30 "Bone39" 8
  31 "Bone40" 30
  32 "Bone41" 31
  33 "Bone35" 8
  34 "Bone36" 33
  35 "Bone37" 34
  36 "Bone31" 8
  37 "Bone32" 36
  38 "Bone33" 37
  39 "Bone43" 8
  40 "Bone44" 39
  41 "Bone45" 40
  42 "Bone27" 8
  43 "Bone28" 42
  44 "Bone29" 43
  45 "Bone_Se_Hand-R" 8
  46 "Bone_R_Upper" 7
end
skeleton
  time 0
    0 -0.349399 1.166145 0.203512 0.000000 0.000000 0.000000
    1 6.331003 -4.858334 -10.579631 -1.026865 -1.176674 0.688895
    2 -0.071918 -8.498730 -0.104136 0.229932 -0.002489 -0.270062
    3 2.834877 -3.284037 0.535784 -3.053061 0.124698 -1.545787
    4 -0.937847 3.087766 -0.006773 0.000000 0.000000 1.745329
    5 0.000000 0.000000 -0.000001 0.000000 0.000000 0.000000
    6 9.280671 -0.119233 0.129653 0.013190 0.190174 -1.575995
    7 -6.106094 -3.984142 -9.667364 0.906129 1.876486 1.191287
    8 0.096945 -8.450418 -0.009363 0.125857 -0.387284 0.079781
    9 -2.961830 -3.210661 0.985425 -0.073896 0.213120 -1.439451
    10 9.226532 0.012792 0.018556 0.017134 -0.145892 -1.609947
    11 -0.937847 3.087766 -0.010345 0.000000 0.000000 1.745330
    12 0.000000 0.000000 -0.000005 0.000000 0.000000 0.000000
    13 1.257180 8.762585 -0.153713 -1.570562 0.002683 -1.566807
    14 -0.488518 -2.755602 -0.228260 -0.647307 -0.134082 -0.416251
    15 0.039887 -1.479790 0.029854 -2.301996 0.000000 0.000001
    16 0.028786 -1.075731 -0.023109 -0.271941 0.000000 0.000000
    17 0.250027 -2.820665 -0.238396 -0.437374 -0.105209 -0.434549
    18 -0.049759 -1.680544 0.100479 -2.367108 0.000000 -0.000002
    19 -0.034142 -1.148312 0.084782 -0.535839 0.000000 0.000000
    20 0.957766 -2.746780 -0.090302 0.362703 -0.147176 -0.203865
    21 -0.033420 -1.397129 -0.011257 -1.645983 0.000000 -0.000001
    22 -0.022360 -0.957436 0.018784 -1.148778 0.000000 0.000000
    23 -1.180681 -2.507217 -0.193859 -0.393134 0.029677 -0.287744
    24 -0.024967 -1.123934 0.017597 -2.113280 0.000000 0.000001
    25 -0.020057 -0.890968 0.010090 -0.761958 0.000000 0.000000
    26 0.583510 -1.197277 0.185379 0.535783 -0.585068 -1.177524
    27 1.535927 0.010246 0.005009 -0.002964 -0.012979 -0.682290
    28 1.100771 0.004527 -0.010679 -0.016147 -0.001453 -1.484153
    29 0.120153 -0.050270 -0.054489 0.287569 3.110905 1.561085
    30 0.447953 -2.798986 -0.200443 -1.437466 0.114004 0.072885
    31 -0.032909 -1.480204 0.004940 -1.509334 0.000000 0.000002
    32 -0.027022 -1.076920 -0.020210 -0.468857 0.000000 0.000000
    33 -0.249534 -2.846964 -0.174213 -1.276464 0.102703 0.104139
    34 0.043235 -1.683941 0.096012 -1.748945 0.002823 -0.000167
    35 0.031729 -1.160830 0.058838 -0.441250 0.000642 0.008372
    36 -0.963866 -2.785145 -0.085350 -0.264114 0.117202 0.219423
    37 0.028479 -1.403067 0.006271 -1.337894 0.000000 0.000000
    38 0.021413 -0.957781 0.020046 -1.052201 0.000000 0.000000
    39 1.164475 -2.543940 -0.170330 -1.221927 -0.015463 0.162804
    40 0.024032 -1.129042 0.017807 -1.512647 0.000000 0.000001
    41 0.014898 -0.883989 -0.019848 -0.378788 0.000000 0.000000
    42 -0.586770 -1.264477 0.200161 0.326456 -0.694116 -2.834291
    43 1.522835 0.058681 0.016848 0.001410 0.008985 1.061041
    44 1.117947 0.048424 -0.005766 -0.024907 -0.003817 1.474654
    45 -0.139399 -0.111698 0.014397 0.326501 0.088632 1.606227
    46 -2.666946 9.350911 -0.262871 1.580804 -0.005023 -1.416213
  time 1
    0 -0.349399 1.166145 0.203512 0.000000 0.000000 0.000000
    1 6.366161 -4.096592 -10.528848 -1.089272 -1.200966 0.754803
    2 -0.071918 -8.498730 -0.104136 0.194295 0.073709 -0.243097
    3 2.834877 -3.284037 0.535784 -3.053061 0.124698 -1.545787
    4 -0.937847 3.087766 -0.006773 0.000000 0.000000 1.745329
    5 0.000000 0.000000 -0.000001 0.000000 0.000000 0.000000
    6 55.274262 0.400314 0.782017 0.013190 0.190174 -1.575995
    7 -6.106094 -4.031019 -9.667364 0.906129 1.876486 1.191287
    8 0.096945 -8.450418 -0.009363 0.126079 -0.388202 0.079452
    9 -2.961830 -3.210661 0.985425 -0.073896 0.213120 -1.439451
    10 9.226532 0.012792 0.018556 0.017134 -0.145892 -1.609947
    11 -0.937847 3.087766 -0.010345 0.000000 0.000000 1.745330
    12 0.000000 0.000000 -0.000005 0.000000 0.000000 0.000000
    13 1.257180 8.762585 -0.153713 -1.570562 0.002683 -1.566807
    14 -0.488518 -2.755602 -0.228260 -0.647307 -0.134082 -0.416251
    15 0.039887 -1.479790 0.029854 -2.301996 0.000000 0.000001
    16 0.028786 -1.075731 -0.023109 -0.271941 0.000000 0.000000
    17 0.250027 -2.820665 -0.238396 -0.437374 -0.105209 -0.434549
    18 -0.049759 -1.680544 0.100479 -2.367108 0.000000 -0.000002
    19 -0.034142 -1.148312 0.084782 -0.535839 0.000000 0.000000
    20 0.957766 -2.746780 -0.090302 0.362703 -0.147176 -0.203865
    21 -0.033420 -1.397129 -0.011257 -1.645983 0.000000 -0.000001
    22 -0.022360 -0.957436 0.018784 -1.148778 0.000000 0.000000
    23 -1.180681 -2.507217 -0.193859 -0.393134 0.029677 -0.287744
    24 -0.024967 -1.123934 0.017597 -2.113280 0.000000 0.000001
    25 -0.020057 -0.890968 0.010090 -0.761958 0.000000 0.000000
    26 0.583510 -1.197277 0.185379 0.535783 -0.585068 -1.177524
    27 1.535927 0.010246 0.005009 -0.002964 -0.012979 -0.682290
    28 1.100771 0.004527 -0.010679 -0.016147 -0.001453 -1.484153
    29 0.120153 -0.050270 -0.054489 0.287569 3.110905 1.561085
    30 0.447953 -2.798986 -0.200443 -1.437466 0.114004 0.072885
    31 -0.032909 -1.480204 0.004940 -1.509334 0.000000 0.000002
    32 -0.027022 -1.076920 -0.020210 -0.468857 0.000000 0.000000
    33 -0.249534 -2.846964 -0.174213 -1.276464 0.102703 0.104139
    34 0.043235 -1.683941 0.096012 -1.748945 0.002823 -0.000167
    35 0.031729 -1.160830 0.058838 -0.441250 0.000642 0.008372
    36 -0.963866 -2.785145 -0.085350 -0.264114 0.117202 0.219423
    37 0.028479 -1.403067 0.006271 -1.337894 0.000000 0.000000
    38 0.021413 -0.957781 0.020046 -1.052201 0.000000 0.000000
    39 1.164475 -2.543940 -0.170330 -1.221927 -0.015463 0.162804
    40 0.024032 -1.129042 0.017807 -1.512647 0.000000 0.000001
    41 0.014898 -0.883989 -0.019848 -0.378788 0.000000 0.000000
    42 -0.586770 -1.264477 0.200161 0.326456 -0.694116 -2.834291
    43 1.522835 0.058681 0.016848 0.001410 0.008985 1.061041
    44 1.117947 0.048424 -0.005766 -0.024907 -0.003817 1.474654
    45 -0.139399 -0.111698 0.014397 0.326501 0.088632 1.606227
    46 -2.666946 9.350911 -0.262871 1.580804 -0.005023 -1.416213
  time 2
    0 -0.349399 1.166145 0.203512 0.000000 0.000000 0.000000
    1 6.362254 -3.678610 -10.501504 -1.130822 -1.217672 0.798036
    2 -0.071918 -8.498730 -0.104136 0.169424 0.123182 -0.223330
    3 2.834877 -3.284037 0.535784 -3.053061 0.124698 -1.545787
    4 -0.937847 3.087766 -0.006773 0.000000 0.000000 1.745329
    5 0.000000 0.000000 -0.000001 0.000000 0.000000 0.000000
    6 9.280671 -0.119233 0.129653 0.013190 0.190174 -1.575995
    7 -6.106094 -4.077895 -9.667364 0.906129 1.876486 1.191287
    8 0.096945 -8.450418 -0.009363 0.125337 -0.385015 0.080595
    9 -2.961830 -3.210661 0.985425 -0.073896 0.213120 -1.439451
    10 9.226532 0.012792 0.018556 0.017134 -0.145892 -1.609947
    11 -0.937847 3.087766 -0.010345 0.000000 0.000000 1.745330
    12 0.000000 0.000000 -0.000005 0.000000 0.000000 0.000000
    13 1.257180 8.762585 -0.153713 -1.570562 0.002683 -1.566807
    14 -0.488518 -2.755602 -0.228260 -0.647307 -0.134082 -0.416251
    15 0.039887 -1.479790 0.029854 -2.301996 0.000000 0.000001
    16 0.028786 -1.075731 -0.023109 -0.271941 0.000000 0.000000
    17 0.250027 -2.820665 -0.238396 -0.437374 -0.105209 -0.434549
    18 -0.049759 -1.680544 0.100479 -2.367108 0.000000 -0.000002
    19 -0.034142 -1.148312 0.084782 -0.535839 0.000000 0.000000
    20 0.957766 -2.746780 -0.090302 0.362703 -0.147176 -0.203865
    21 -0.033420 -1.397129 -0.011257 -1.645983 0.000000 -0.000001
    22 -0.022360 -0.957436 0.018784 -1.148778 0.000000 0.000000
    23 -1.180681 -2.507217 -0.193859 -0.393134 0.029677 -0.287744
    24 -0.024967 -1.123934 0.017597 -2.113280 0.000000 0.000001
    25 -0.020057 -0.890968 0.010090 -0.761958 0.000000 0.000000
    26 0.583510 -1.197277 0.185379 0.535783 -0.585068 -1.177524
    27 1.535927 0.010246 0.005009 -0.002964 -0.012979 -0.682290
    28 1.100771 0.004527 -0.010679 -0.016147 -0.001453 -1.484153
    29 0.120153 -0.050270 -0.054489 0.287569 3.110905 1.561085
    30 0.447953 -2.798986 -0.200443 -1.437466 0.114004 0.072885
    31 -0.032909 -1.480204 0.004940 -1.509334 0.000000 0.000002
    32 -0.027022 -1.076920 -0.020210 -0.468857 0.000000 0.000000
    33 -0.249534 -2.846964 -0.174213 -1.276464 0.102703 0.104139
    34 0.043235 -1.683941 0.096012 -1.748945 0.002823 -0.000167
    35 0.031729 -1.160830 0.058838 -0.441250 0.000642 0.008372
    36 -0.963866 -2.785145 -0.085350 -0.264114 0.117202 0.219423
    37 0.028479 -1.403067 0.006271 -1.337894 0.000000 0.000000
    38 0.021413 -0.957781 0.020046 -1.052201 0.000000 0.000000
    39 1.164475 -2.543940 -0.170330 -1.221927 -0.015463 0.162804
    40 0.024032 -1.129042 0.017807 -1.512647 0.000000 0.000001
    41 0.014898 -0.883989 -0.019848 -0.378788 0.000000 0.000000
    42 -0.586770 -1.264477 0.200161 0.326456 -0.694116 -2.834291
    43 1.522835 0.058681 0.016848 0.001410 0.008985 1.061041
    44 1.117947 0.048424 -0.005766 -0.024907 -0.003817 1.474654
    45 -0.139399 -0.111698 0.014397 0.326501 0.088632 1.606227
    46 -2.666946 9.350911 -0.262871 1.580804 -0.005023 -1.416213
  time 3
    0 -0.349399 1.166145 0.203512 0.000000 0.000000 0.000000
    1 6.311471 -3.643453 -10.493691 -1.118669 -1.223658 0.784161
    2 -0.071918 -8.498730 -0.104136 0.162133 0.117202 -0.212247
    3 2.834877 -3.284037 0.535784 -3.053061 0.124698 -1.545787
    4 -0.937847 3.087766 -0.006773 0.000000 0.000000 1.745329
    5 0.000000 0.000000 -0.000001 0.000000 0.000000 0.000000
    6 9.280671 -0.119233 0.129653 0.013190 0.190174 -1.575995
    7 -6.106094 -4.124772 -9.667364 0.906129 1.876486 1.191287
    8 0.096945 -8.450418 -0.009363 0.122518 -0.372751 0.084933
    9 -2.961830 -3.210661 0.985425 -0.073896 0.213120 -1.439451
    10 9.226532 0.012792 0.018556 0.017134 -0.145892 -1.609947
    11 -0.937847 3.087766 -0.010345 0.000000 0.000000 1.745330
    12 0.000000 0.000000 -0.000005 0.000000 0.000000 0.000000
    13 1.257180 8.762585 -0.153713 -1.570562 0.002683 -1.566807
    14 -0.488518 -2.755602 -0.228260 -0.647307 -0.134082 -0.416251
    15 0.039887 -1.479790 0.029854 -2.301996 0.000000 0.000001
    16 0.028786 -1.075731 -0.023109 -0.271941 0.000000 0.000000
    17 0.250027 -2.820665 -0.238396 -0.437374 -0.105209 -0.434549
    18 -0.049759 -1.680544 0.100479 -2.367108 0.000000 -0.000002
    19 -0.034142 -1.148312 0.084782 -0.535839 0.000000 0.000000
    20 0.957766 -2.746780 -0.090302 0.362703 -0.147176 -0.203865
    21 -0.033420 -1.397129 -0.011257 -1.645983 0.000000 -0.000001
    22 -0.022360 -0.957436 0.018784 -1.148778 0.000000 0.000000
    23 -1.180681 -2.507217 -0.193859 -0.393134 0.029677 -0.287744
    24 -0.024967 -1.123934 0.017597 -2.113280 0.000000 0.000001
    25 -0.020057 -0.890968 0.010090 -0.761958 0.000000 0.000000
    26 0.583510 -1.197277 0.185379 0.535783 -0.585068 -1.177524
    27 1.535927 0.010246 0.005009 -0.002964 -0.012979 -0.682290
    28 1.100771 0.004527 -0.010679 -0.016147 -0.001453 -1.484153
    29 0.120153 -0.050270 -0.054489 0.287569 3.110905 1.561085
    30 0.447953 -2.798986 -0.200443 -1.437466 0.114004 0.072885
    31 -0.032909 -1.480204 0.004940 -1.509334 0.000000 0.000002
    32 -0.027022 -1.076920 -0.020210 -0.468857 0.000000 0.000000
    33 -0.249534 -2.846964 -0.174213 -1.276464 0.102703 0.104139
    34 0.043235 -1.683941 0.096012 -1.748945 0.002823 -0.000167
    35 0.031729 -1.160830 0.058838 -0.441250 0.000642 0.008372
    36 -0.963866 -2.785145 -0.085350 -0.264114 0.117202 0.219423
    37 0.028479 -1.403067 0.006271 -1.337894 0.000000 0.000000
    38 0.021413 -0.957781 0.020046 -1.052201 0.000000 0.000000
    39 1.164475 -2.543940 -0.170330 -1.221927 -0.015463 0.162804
    40 0.024032 -1.129042 0.017807 -1.512647 0.000000 0.000001
    41 0.014898 -0.883989 -0.019848 -0.378788 0.000000 0.000000
    42 -0.586770 -1.264477 0.200161 0.326456 -0.694116 -2.834291
    43 1.522835 0.058681 0.016848 0.001410 0.008985 1.061041
    44 1.117947 0.048424 -0.005766 -0.024907 -0.003817 1.474654
    45 -0.139399 -0.111698 0.014397 0.326501 0.088632 1.606227
    46 -2.666946 9.350911 -0.262871 1.580804 -0.005023 -1.416213
  time 4
    0 -0.349399 1.166145 0.203512 0.000000 0.000000 0.000000
    1 6.241157 -3.741112 -10.497597 -1.088286 -1.226465 0.750657
    2 -0.071918 -8.498730 -0.104136 0.160028 0.092429 -0.203384
    3 2.834877 -3.284037 0.535784 -3.053061 0.124698 -1.545787
    4 -0.937847 3.087766 -0.006773 0.000000 0.000000 1.745329
    5 0.000000 0.000000 -0.000001 0.000000 0.000000 0.000000
    6 9.280671 -0.119233 0.129653 0.013190 0.190174 -1.575995
    7 -6.106094 -4.171648 -9.667364 0.906129 1.876486 1.191287
    8 0.096945 -8.450418 -0.009363 0.119031 -0.357174 0.090366
    9 -2.961830 -3.210661 0.985425 -0.073896 0.213120 -1.439451
    10 9.226532 0.012792 0.018556 0.017134 -0.145892 -1.609947
    11 -0.937847 3.087766 -0.010345 0.000000 0.000000 1.745330
    12 0.000000 0.000000 -0.000005 0.000000 0.000000 0.000000
    13 1.257180 8.762585 -0.153713 -1.570562 0.002683 -1.566807
    14 -0.488518 -2.755602 -0.228260 -0.647307 -0.134082 -0.416251
    15 0.039887 -1.479790 0.029854 -2.301996 0.000000 0.000001
    16 0.028786 -1.075731 -0.023109 -0.271941 0.000000 0.000000
    17 0.250027 -2.820665 -0.238396 -0.437374 -0.105209 -0.434549
    18 -0.049759 -1.680544 0.100479 -2.367108 0.000000 -0.000002
    19 -0.034142 -1.148312 0.084782 -0.535839 0.000000 0.000000
    20 0.957766 -2.746780 -0.090302 0.362703 -0.147176 -0.203865
    21 -0.033420 -1.397129 -0.011257 -1.645983 0.000000 -0.000001
    22 -0.022360 -0.957436 0.018784 -1.148778 0.000000 0.000000
    23 -1.180681 -2.507217 -0.193859 -0.393134 0.029677 -0.287744
    24 -0.024967 -1.123934 0.017597 -2.113280 0.000000 0.000001
    25 -0.020057 -0.890968 0.010090 -0.761958 0.000000 0.000000
    26 0.583510 -1.197277 0.185379 0.535783 -0.585068 -1.177524
    27 1.535927 0.010246 0.005009 -0.002964 -0.012979 -0.682290
    28 1.100771 0.004527 -0.010679 -0.016147 -0.001453 -1.484153
    29 0.120153 -0.050270 -0.054489 0.287569 3.110905 1.561085
    30 0.447953 -2.798986 -0.200443 -1.437466 0.114004 0.072885
    31 -0.032909 -1.480204 0.004940 -1.509334 0.000000 0.000002
    32 -0.027022 -1.076920 -0.020210 -0.468857 0.000000 0.000000
    33 -0.249534 -2.846964 -0.174213 -1.276464 0.102703 0.104139
    34 0.043235 -1.683941 0.096012 -1.748945 0.002823 -0.000167
    35 0.031729 -1.160830 0.058838 -0.441250 0.000642 0.008372
    36 -0.963866 -2.785145 -0.085350 -0.264114 0.117202 0.219423
    37 0.028479 -1.403067 0.006271 -1.337894 0.000000 0.000000
    38 0.021413 -0.957781 0.020046 -1.052201 0.000000 0.000000
    39 1.164475 -2.543940 -0.170330 -1.221927 -0.015463 0.162804
    40 0.024032 -1.129042 0.017807 -1.512647 0.000000 0.000001
    41 0.014898 -0.883989 -0.019848 -0.378788 0.000000 0.000000
    42 -0.586770 -1.264477 0.200161 0.326456 -0.694116 -2.834291
    43 1.522835 0.058681 0.016848 0.001410 0.008985 1.061041
    44 1.117947 0.048424 -0.005766 -0.024907 -0.003817 1.474654
    45 -0.139399 -0.111698 0.014397 0.326501 0.088632 1.606227
    46 -2.666946 9.350911 -0.262871 1.580804 -0.005023 -1.416213
  time 5
    0 -0.349399 1.166145 0.203512 0.000000 0.000000 0.000000
    1 6.166936 -3.912992 -10.505410 -1.049692 -1.225374 0.709116
    2 -0.071918 -8.498730 -0.104136 0.160449 0.063858 -0.197117
    3 2.834877 -3.284037 0.535784 -3.053061 0.124698 -1.545787
    4 -0.937847 3.087766 -0.006773 0.000000 0.000000 1.745329
    5 0.000000 0.000000 -0.000001 0.000000 0.000000 0.000000
    6 9.280671 -0.119233 0.129653 0.013190 0.190174 -1.575995
    7 -6.106094 -4.222431 -9.667364 0.906129 1.876486 1.191287
    8 0.096945 -8.450418 -0.009363 0.115766 -0.342011 0.095581
    9 -2.961830 -3.210661 0.985425 -0.073896 0.213120 -1.439451
    10 9.226532 0.012792 0.018556 0.017134 -0.145892 -1.609947
    11 -0.937847 3.087766 -0.010345 0.000000 0.000000 1.745330
    12 0.000000 0.000000 -0.000005 0.000000 0.000000 0.000000
    13 1.257180 8.762585 -0.153713 -1.570562 0.002683 -1.566807
    14 -0.488518 -2.755602 -0.228260 -0.647307 -0.134082 -0.416251
    15 0.039887 -1.479790 0.029854 -2.301996 0.000000 0.000001
    16 0.028786 -1.075731 -0.023109 -0.271941 0.000000 0.000000
    17 0.250027 -2.820665 -0.238396 -0.437374 -0.105209 -0.434549
    18 -0.049759 -1.680544 0.100479 -2.367108 0.000000 -0.000002
    19 -0.034142 -1.148312 0.084782 -0.535839 0.000000 0.000000
    20 0.957766 -2.746780 -0.090302 0.362703 -0.147176 -0.203865
    21 -0.033420 -1.397129 -0.011257 -1.590867 0.000000 -0.000001
    22 -0.022360 -0.957436 0.018784 -1.148778 0.000000 0.000000
    23 -1.180681 -2.507217 -0.193859 -0.393134 0.029677 -0.287744
    24 -0.024967 -1.123934 0.017597 -2.113280 0.000000 0.000001
    25 -0.020057 -0.890968 0.010090 -0.761958 0.000000 0.000000
    26 0.583510 -1.197277 0.185379 0.535783 -0.585068 -1.177524
    27 1.535927 0.010246 0.005009 -0.002964 -0.012979 -0.682290
    28 1.100771 0.004527 -0.010679 -0.016147 -0.001453 -1.484153
    29 0.120153 -0.050270 -0.054489 0.287569 3.110905 1.561085
    30 0.447953 -2.798986 -0.200443 -1.437466 0.114004 0.072885
    31 -0.032909 -1.480204 0.004940 -1.509334 0.000000 0.000002
    32 -0.027022 -1.076920 -0.020210 -0.468857 0.000000 0.000000
    33 -0.249534 -2.846964 -0.174213 -1.276464 0.102703 0.104139
    34 0.043235 -1.683941 0.096012 -1.748945 0.002823 -0.000167
    35 0.031729 -1.160830 0.058838 -0.441250 0.000642 0.008372
    36 -0.963866 -2.785145 -0.085350 -0.264114 0.117202 0.219423
    37 0.028479 -1.403067 0.006271 -1.337894 0.000000 0.000000
    38 0.021413 -0.957781 0.020046 -1.052201 0.000000 0.000000
    39 1.164475 -2.543940 -0.170330 -1.221927 -0.015463 0.162804
    40 0.024032 -1.129042 0.017807 -1.512647 0.000000 0.000001
    41 0.014898 -0.883989 -0.019848 -0.378788 0.000000 0.000000
    42 -0.586770 -1.264477 0.200161 0.326456 -0.694116 -2.834291
    43 1.522835 0.058681 0.016848 0.001410 0.008985 1.061041
    44 1.117947 0.048424 -0.005766 -0.024907 -0.003817 1.474654
    45 -0.139399 -0.111698 0.014397 0.326501 0.088632 1.606227
    46 -2.666946 9.350911 -0.262871 1.580804 -0.005023 -1.416213
  time 6
    0 -0.349399 1.166145 0.203512 0.000000 0.000000 0.000000
    1 6.100527 -4.100498 -10.517129 -1.013891 -1.220038 0.671635
    2 -0.071918 -8.498730 -0.104136 0.160975 0.046433 -0.193769
    3 2.834877 -3.284037 0.535784 -3.053061 0.124698 -1.545787
    4 -0.937847 3.087766 -0.006773 0.000000 0.000000 1.745329
    5 0.000000 0.000000 -0.000001 0.000000 0.000000 0.000000
    6 9.280671 -0.119233 0.129653 0.013190 0.190174 -1.575995
    7 -6.106094 -4.273214 -9.667364 0.906129 1.876486 1.191287
    8 0.096945 -8.450418 -0.009363 0.113441 -0.330954 0.099308
    9 -2.961830 -3.210661 0.985425 -0.073896 0.213120 -1.439451
    10 9.226532 0.012792 0.018556 0.017134 -0.145892 -1.609947
    11 -0.937847 3.087766 -0.010345 0.000000 0.000000 1.745330
    12 0.000000 0.000000 -0.000005 0.000000 0.000000 0.000000
    13 1.257180 8.762585 -0.153713 -1.570562 0.002683 -1.566807
    14 -0.488518 -2.755602 -0.228260 -0.647307 -0.134082 -0.416251
    15 0.039887 -1.479790 0.029854 -2.301996 0.000000 0.000001
    16 0.028786 -1.075731 -0.023109 -0.271941 0.000000 0.000000
    17 0.250027 -2.820665 -0.238396 -0.437374 -0.105209 -0.434549
    18 -0.049759 -1.680544 0.100479 -2.367108 0.000000 -0.000002
    19 -0.034142 -1.148312 0.084782 -0.535839 0.000000 0.000000
    20 0.957766 -2.746780 -0.090302 0.362703 -0.147176 -0.203865
    21 -0.033420 -1.397129 -0.011257 -1.459308 0.000000 -0.000001
    22 -0.022360 -0.957436 0.018784 -1.148778 0.000000 0.000000
    23 -1.180681 -2.507217 -0.193859 -0.393134 0.029677 -0.287744
    24 -0.024967 -1.123934 0.017597 -2.113280 0.000000 0.000001
    25 -0.020057 -0.890968 0.010090 -0.761958 0.000000 0.000000
    26 0.583510 -1.197277 0.185379 0.535783 -0.585068 -1.177524
    27 1.535927 0.010246 0.005009 -0.002964 -0.012979 -0.682290
    28 1.100771 0.004527 -0.010679 -0.016147 -0.001453 -1.484153
    29 0.120153 -0.050270 -0.054489 0.287569 3.110905 1.561085
    30 0.447953 -2.798986 -0.200443 -1.437466 0.114004 0.072885
    31 -0.032909 -1.480204 0.004940 -1.509334 0.000000 0.000002
    32 -0.027022 -1.076920 -0.020210 -0.468857 0.000000 0.000000
    33 -0.249534 -2.846964 -0.174213 -1.276464 0.102703 0.104139
    34 0.043235 -1.683941 0.096012 -1.748945 0.002823 -0.000167
    35 0.031729 -1.160830 0.058838 -0.441250 0.000642 0.008372
    36 -0.963866 -2.785145 -0.085350 -0.264114 0.117202 0.219423
    37 0.028479 -1.403067 0.006271 -1.337894 0.000000 0.000000
    38 0.021413 -0.957781 0.020046 -1.052201 0.000000 0.000000
    39 1.164475 -2.543940 -0.170330 -1.221927 -0.015463 0.162804
    40 0.024032 -1.129042 0.017807 -1.512647 0.000000 0.000001
    41 0.014898 -0.883989 -0.019848 -0.378788 0.000000 0.000000
    42 -0.586770 -1.264477 0.200161 0.326456 -0.694116 -2.834291
    43 1.522835 0.058681 0.016848 0.001410 0.008985 1.061041
    44 1.117947 0.048424 -0.005766 -0.024907 -0.003817 1.474654
    45 -0.139399 -0.111698 0.014397 0.326501 0.088632 1.606227
    46 -2.666946 9.350911 -0.262871 1.580804 -0.005023 -1.416213
  time 7
    0 -0.349399 1.166145 0.203512 0.000000 0.000000 0.000000
    1 6.006775 -4.307536 -10.532755 -0.980963 -1.209435 0.638555
    2 -0.071918 -8.498730 -0.104136 0.161054 0.041771 -0.191853
    3 2.834877 -3.284037 0.535784 -3.053061 0.124698 -1.545787
    4 -0.937847 3.087766 -0.006773 0.000000 0.000000 1.745329
    5 0.000000 0.000000 -0.000001 0.000000 0.000000 0.000000
    6 9.280671 -0.119233 0.129653 0.013190 0.190174 -1.575995
    7 -6.188127 -4.281026 -9.663457 0.892858 1.878274 1.176689
    8 0.096945 -8.450418 -0.009363 0.107827 -0.323265 0.100279
    9 -2.961830 -3.210661 0.985425 -0.073896 0.213120 -1.439451
    10 9.226532 0.012792 0.018556 0.017134 -0.145892 -1.609947
    11 -0.937847 3.087766 -0.010345 0.000000 0.000000 1.745330
    12 0.000000 0.000000 -0.000005 0.000000 0.000000 0.000000
    13 1.257180 8.762585 -0.153713 -1.570562 0.002683 -1.566807
    14 -0.488518 -2.755602 -0.228260 -0.647307 -0.134082 -0.416251
    15 0.039887 -1.479790 0.029854 -2.301996 0.000000 0.000001
    16 0.028786 -1.075731 -0.023109 -0.271941 0.000000 0.000000
    17 0.250027 -2.820665 -0.238396 -0.437374 -0.105209 -0.434549
    18 -0.049759 -1.680544 0.100479 -2.367108 0.000000 -0.000002
    19 -0.034142 -1.148312 0.084782 -0.535839 0.000000 0.000000
    20 0.957766 -2.746780 -0.090302 0.362703 -0.147176 -0.203865
    21 -0.033420 -1.397129 -0.011257 -1.302319 0.000000 -0.000001
    22 -0.022360 -0.957436 0.018784 -1.148778 0.000000 0.000000
    23 -1.180681 -2.507217 -0.193859 -0.393134 0.029677 -0.287744
    24 -0.024967 -1.123934 0.017597 -2.113280 0.000000 0.000001
    25 -0.020057 -0.890968 0.010090 -0.761958 0.000000 0.000000
    26 0.583510 -1.197277 0.185379 0.535783 -0.585068 -1.177524
    27 1.535927 0.010246 0.005009 -0.002964 -0.012979 -0.682290
    28 1.100771 0.004527 -0.010679 -0.016147 -0.001453 -1.484153
    29 0.120153 -0.050270 -0.054489 0.287569 3.110905 1.561085
    30 0.447953 -2.798986 -0.200443 -1.437466 0.114004 0.072885
    31 -0.032909 -1.480204 0.004940 -1.509334 0.000000 0.000002
    32 -0.027022 -1.076920 -0.020210 -0.468857 0.000000 0.000000
    33 -0.249534 -2.846964 -0.174213 -1.276464 0.102703 0.104139
    34 0.043235 -1.683941 0.096012 -1.748945 0.002823 -0.000167
    35 0.031729 -1.160830 0.058838 -0.441250 0.000642 0.008372
    36 -0.963866 -2.785145 -0.085350 -0.264114 0.117202 0.219423
    37 0.028479 -1.403067 0.006271 -1.337894 0.000000 0.000000
    38 0.021413 -0.957781 0.020046 -1.052201 0.000000 0.000000
    39 1.164475 -2.543940 -0.170330 -1.221927 -0.015463 0.162804
    40 0.024032 -1.129042 0.017807 -1.512647 0.000000 0.000001
    41 0.014898 -0.883989 -0.019848 -0.378788 0.000000 0.000000
    42 -0.586770 -1.264477 0.200161 0.326456 -0.694116 -2.834291
    43 1.522835 0.058681 0.016848 0.001410 0.008985 1.061041
    44 1.117947 0.048424 -0.005766 -0.024907 -0.003817 1.474654
    45 -0.139399 -0.111698 0.014397 0.326501 0.088632 1.606227
    46 -2.666946 9.350911 -0.262871 1.580804 -0.005023 -1.416213
  time 8
    0 -0.349399 1.166145 0.203512 0.000000 0.000000 0.000000
    1 5.877864 -4.565356 -10.556193 -0.946803 -1.194052 0.604797
    2 -0.071918 -8.498730 -0.104136 0.161607 0.040656 -0.189865
    3 2.834877 -3.284037 0.535784 -3.053061 0.124698 -1.545787
    4 -0.937847 3.087766 -0.006773 0.000000 0.000000 1.745329
    5 0.000000 0.000000 -0.000001 0.000000 0.000000 0.000000
    6 9.280671 -0.119233 0.129653 0.013190 0.190174 -1.575995
    7 -6.402978 -4.226337 -9.655644 0.857699 1.883381 1.137813
    8 0.096945 -8.450418 -0.009363 0.095387 -0.315809 0.098352
    9 -2.961830 -3.210661 0.985425 -0.073896 0.213120 -1.439451
    10 9.226532 0.012792 0.018556 0.017134 -0.145892 -1.609947
    11 -0.937847 3.087766 -0.010345 0.000000 0.000000 1.745330
    12 0.000000 0.000000 -0.000005 0.000000 0.000000 0.000000
    13 1.257180 8.762585 -0.153713 -1.570562 0.002683 -1.566807
    14 -0.488518 -2.755602 -0.228260 -0.647307 -0.134082 -0.416251
    15 0.039887 -1.479790 0.029854 -2.301996 0.000000 0.000001
    16 0.028786 -1.075731 -0.023109 -0.271941 0.000000 0.000000
    17 0.250027 -2.820665 -0.238396 -0.437374 -0.105209 -0.434549
    18 -0.049759 -1.680544 0.100479 -2.367108 0.000000 -0.000002
    19 -0.034142 -1.148312 0.084782 -0.535839 0.000000 0.000000
    20 0.957766 -2.746780 -0.090302 0.362703 -0.147176 -0.203865
    21 -0.033420 -1.397129 -0.011257 -1.170760 0.000000 -0.000001
    22 -0.022360 -0.957436 0.018784 -1.148778 0.000000 0.000000
    23 -1.180681 -2.507217 -0.193859 -0.393134 0.029677 -0.287744
    24 -0.024967 -1.123934 0.017597 -2.113280 0.000000 0.000001
    25 -0.020057 -0.890968 0.010090 -0.761958 0.000000 0.000000
    26 0.583510 -1.197277 0.185379 0.535783 -0.585068 -1.177524
    27 1.535927 0.010246 0.005009 -0.002964 -0.012979 -0.682269
    28 1.100771 0.004527 -0.010679 -0.016147 -0.001453 -1.484153
    29 0.120153 -0.050270 -0.054489 0.287569 3.110905 1.561085
    30 0.447953 -2.798986 -0.200443 -1.437466 0.114004 0.072885
    31 -0.032909 -1.480204 0.004940 -1.509334 0.000000 0.000002
    32 -0.027022 -1.076920 -0.020210 -0.468857 0.000000 0.000000
    33 -0.249534 -2.846964 -0.174213 -1.276464 0.102703 0.104139
    34 0.043235 -1.683941 0.096012 -1.748945 0.002823 -0.000167
    35 0.031729 -1.160830 0.058838 -0.441250 0.000642 0.008372
    36 -0.963866 -2.785145 -0.085350 -0.264114 0.117202 0.219423
    37 0.028479 -1.403067 0.006271 -1.337894 0.000000 0.000000
    38 0.021413 -0.957781 0.020046 -1.052201 0.000000 0.000000
    39 1.164475 -2.543940 -0.170330 -1.221927 -0.015463 0.162804
    40 0.024032 -1.129042 0.017807 -1.512647 0.000000 0.000001
    41 0.014898 -0.883989 -0.019848 -0.378788 0.000000 0.000000
    42 -0.586770 -1.264477 0.200161 0.326456 -0.694116 -2.834291
    43 1.522835 0.058681 0.016848 0.001410 0.008985 1.061041
    44 1.117947 0.048424 -0.005766 -0.024907 -0.003817 1.474654
    45 -0.139399 -0.111698 0.014397 0.326501 0.088632 1.606227
    46 -2.666946 9.350911 -0.262871 1.580804 -0.005023 -1.416213
  time 9
    0 -0.349399 1.166145 0.203512 0.000000 0.000000 0.000000
    1 5.733329 -4.846615 -10.583538 -0.914696 -1.176257 0.573493
    2 -0.071918 -8.498730 -0.104136 0.162502 0.041938 -0.188147
    3 2.834877 -3.284037 0.535784 -3.053061 0.124698 -1.545787
    4 -0.937847 3.087766 -0.006773 0.000000 0.000000 1.745329
    5 0.000000 0.000000 -0.000001 0.000000 0.000000 0.000000
    6 9.280671 -0.119233 0.129653 0.013190 0.190174 -1.575995
    7 -6.695955 -4.128678 -9.643925 0.808416 1.891666 1.082855
    8 0.096945 -8.450418 -0.009363 0.077827 -0.308804 0.094125
    9 -2.961830 -3.210661 0.985425 -0.073896 0.213120 -1.439451
    10 9.226532 0.012792 0.018556 0.017134 -0.145892 -1.609947
    11 -0.937847 3.087766 -0.010345 0.000000 0.000000 1.745330
    12 0.000000 0.000000 -0.000005 0.000000 0.000000 0.000000
    13 1.257180 8.762585 -0.153713 -1.570562 0.002683 -1.566807
    14 -0.488518 -2.755602 -0.228260 -0.647307 -0.134082 -0.416251
    15 0.039887 -1.479790 0.029854 -2.301996 0.000000 0.000001
    16 0.028786 -1.075731 -0.023109 -0.271941 0.000000 0.000000
    17 0.250027 -2.820665 -0.238396 -0.437374 -0.105209 -0.434549
    18 -0.049759 -1.680544 0.100479 -2.367108 0.000000 -0.000002
    19 -0.034142 -1.148312 0.084782 -0.535839 0.000000 0.000000
    20 0.957766 -2.746780 -0.090302 0.362703 -0.147176 -0.203865
    21 -0.033420 -1.397129 -0.011257 -1.115593 0.000000 -0.000001
    22 -0.022360 -0.957436 0.018784 -1.148778 0.000000 0.000000
    23 -1.180681 -2.507217 -0.193859 -0.393134 0.029677 -0.287744
    24 -0.024967 -1.123934 0.017597 -2.113280 0.000000 0.000001
    25 -0.020057 -0.890968 0.010090 -0.761958 0.000000 0.000000
    26 0.583510 -1.197277 0.185379 0.535783 -0.585068 -1.177524
    27 1.535927 0.010246 0.005009 -0.002964 -0.012979 -0.682290
    28 1.100771 0.004527 -0.010679 -0.016147 -0.001453 -1.484153
    29 0.120153 -0.050270 -0.054489 0.287569 3.110905 1.561085
    30 0.447953 -2.798986 -0.200443 -1.437466 0.114004 0.072885
    31 -0.032909 -1.480204 0.004940 -1.509334 0.000000 0.000002
    32 -0.027022 -1.076920 -0.020210 -0.468857 0.000000 0.000000
    33 -0.249534 -2.846964 -0.174213 -1.276464 0.102703 0.104139
    34 0.043235 -1.683941 0.096012 -1.748945 0.002823 -0.000167
    35 0.031729 -1.160830 0.058838 -0.441250 0.000642 0.008372
    36 -0.963866 -2.785145 -0.085350 -0.264114 0.117202 0.219423
    37 0.028479 -1.403067 0.006271 -1.337894 0.000000 0.000000
    38 0.021413 -0.957781 0.020046 -1.052201 0.000000 0.000000
    39 1.164475 -2.543940 -0.170330 -1.221927 -0.015463 0.162804
    40 0.024032 -1.129042 0.017807 -1.512647 0.000000 0.000001
    41 0.014898 -0.883989 -0.019848 -0.378788 0.000000 0.000000
    42 -0.586770 -1.264477 0.200161 0.326456 -0.694116 -2.834291
    43 1.522835 0.058681 0.016848 0.001410 0.008985 1.061041
    44 1.117947 0.048424 -0.005766 -0.024907 -0.003817 1.474654
    45 -0.139399 -0.111698 0.014397 0.326501 0.088632 1.606227
    46 -2.666946 9.350911 -0.262871 1.580804 -0.005023 -1.416213
  time 10
    0 -0.349399 1.166145 0.203512 0.000000 0.000000 0.000000
    1 5.616138 -5.116154 -10.610882 -0.886613 -1.158554 0.546419
    2 -0.071918 -8.498730 -0.104136 0.163607 0.044431 -0.186983
    3 2.834877 -3.284037 0.535784 -3.053061 0.124698 -1.545787
    4 -0.937847 3.087766 -0.006773 0.000000 0.000000 1.745329
    5 0.000000 0.000000 -0.000001 0.000000 0.000000 0.000000
    6 9.280671 -0.119233 0.129653 0.013190 0.190174 -1.575995
    7 -7.024090 -4.023206 -9.632206 0.752380 1.902760 1.020168
    8 0.096945 -8.450418 -0.009363 0.056929 -0.302393 0.088221
    9 -2.961830 -3.210661 0.985425 -0.073896 0.213120 -1.439451
    10 9.226532 0.012792 0.018556 0.017134 -0.145892 -1.609947
    11 -0.937847 3.087766 -0.010345 0.000000 0.000000 1.745330
    12 0.000000 0.000000 -0.000005 0.000000 0.000000 0.000000
    13 1.257180 8.762585 -0.153713 -1.570562 0.002683 -1.566807
    14 -0.488518 -2.755602 -0.228260 -0.647307 -0.134082 -0.416251
    15 0.039887 -1.479790 0.029854 -2.301996 0.000000 0.000001
    16 0.028786 -1.075731 -0.023109 -0.271941 0.000000 0.000000
    17 0.250027 -2.820665 -0.238396 -0.437374 -0.105209 -0.434549
    18 -0.049759 -1.680544 0.100479 -2.367108 0.000000 -0.000002
    19 -0.034142 -1.148312 0.084782 -0.535839 0.000000 0.000000
    20 0.957766 -2.746780 -0.090302 0.362703 -0.147176 -0.203865
    21 -0.033420 -1.397129 -0.011257 -1.115593 0.000000 -0.000001
    22 -0.022360 -0.957436 0.018784 -1.148778 0.000000 0.000000
    23 -1.180681 -2.507217 -0.193859 -0.393134 0.029677 -0.287744
    24 -0.024967 -1.123934 0.017597 -2.113280 0.000000 0.000001
    25 -0.020057 -0.890968 0.010090 -0.761958 0.000000 0.000000
    26 0.583510 -1.197277 0.185379 0.535783 -0.585068 -1.177524
    27 1.535927 0.010246 0.005009 -0.002964 -0.012979 -0.682290
    28 1.100771 0.004527 -0.010679 -0.016147 -0.001453 -1.484153
    29 0.120153 -0.050270 -0.054489 0.287569 3.110905 1.561085
    30 0.447953 -2.798986 -0.200443 -1.437466 0.114004 0.072885
    31 -0.032909 -1.480204 0.004940 -1.509334 0.000000 0.000002
    32 -0.027022 -1.076920 -0.020210 -0.468857 0.000000 0.000000
    33 -0.249534 -2.846964 -0.174213 -1.276464 0.102703 0.104139
    34 0.043235 -1.683941 0.096012 -1.748945 0.002823 -0.000167
    35 0.031729 -1.160830 0.058838 -0.441250 0.000642 0.008372
    36 -0.963866 -2.785145 -0.085350 -0.264114 0.117202 0.219423
    37 0.028479 -1.403067 0.006271 -1.337894 0.000000 0.000000
    38 0.021413 -0.957781 0.020046 -1.052201 0.000000 0.000000
    39 1.164475 -2.543940 -0.170330 -1.221927 -0.015463 0.162804
    40 0.024032 -1.129042 0.017807 -1.512647 0.000000 0.000001
    41 0.014898 -0.883989 -0.019848 -0.378788 0.000000 0.000000
    42 -0.586770 -1.264477 0.200161 0.326456 -0.694116 -2.834291
    43 1.522835 0.058681 0.016848 0.001410 0.008985 1.061041
    44 1.117947 0.048424 -0.005766 -0.024907 -0.003817 1.474654
    45 -0.139399 -0.111698 0.014397 0.326501 0.088632 1.606227
    46 -2.666946 9.350911 -0.262871 1.580804 -0.005023 -1.416213
  time 11
    0 -0.349399 1.166145 0.203512 0.000000 0.000000 0.000000
    1 5.549729 -5.350536 -10.630414 -0.863539 -1.143496 0.524337
    2 -0.071918 -8.498730 -0.104136 0.164818 0.046972 -0.186678
    3 2.834877 -3.284037 0.535784 -3.053061 0.124698 -1.545787
    4 -0.937847 3.087766 -0.006773 0.000000 0.000000 1.745329
    5 0.000000 0.000000 -0.000001 0.000000 0.000000 0.000000
    6 9.280671 -0.119233 0.129653 0.013190 0.190174 -1.575995
    7 -7.328787 -3.933360 -9.620487 0.696422 1.915982 0.956623
    8 0.096945 -8.450418 -0.009363 0.034422 -0.296775 0.081284
    9 -2.961830 -3.210661 0.985425 -0.073896 0.213120 -1.439451
    10 9.226532 0.012792 0.018556 0.017134 -0.145892 -1.609947
    11 -0.937847 3.087766 -0.010345 0.000000 0.000000 1.745330
    12 0.000000 0.000000 -0.000005 0.000000 0.000000 0.000000
    13 1.257180 8.762585 -0.153713 -1.570562 0.002683 -1.566807
    14 -0.488518 -2.755602 -0.228260 -0.647307 -0.134082 -0.416251
    15 0.039887 -1.479790 0.029854 -2.301996 0.000000 0.000001
    16 0.028786 -1.075731 -0.023109 -0.271941 0.000000 0.000000
    17 0.250027 -2.820665 -0.238396 -0.437374 -0.105209 -0.434549
    18 -0.049759 -1.680544 0.100479 -2.367108 0.000000 -0.000002
    19 -0.034142 -1.148312 0.084782 -0.535839 0.000000 0.000000
    20 0.957766 -2.746780 -0.090302 0.362703 -0.147176 -0.203865
    21 -0.033420 -1.397129 -0.011257 -1.115593 0.000000 -0.000001
    22 -0.022360 -0.957436 0.018784 -1.148778 0.000000 0.000000
    23 -1.180681 -2.507217 -0.193859 -0.393134 0.029677 -0.287744
    24 -0.024967 -1.123934 0.017597 -2.113280 0.000000 0.000001
    25 -0.020057 -0.890968 0.010090 -0.761958 0.000000 0.000000
    26 0.583510 -1.197277 0.185379 0.535783 -0.585068 -1.177524
    27 1.535927 0.010246 0.005009 -0.002964 -0.012979 -0.682290
    28 1.100771 0.004527 -0.010679 -0.016147 -0.001453 -1.484153
    29 0.120153 -0.050270 -0.054489 0.287569 3.110905 1.561085
    30 0.447953 -2.798986 -0.200443 -1.437466 0.114004 0.072885
    31 -0.032909 -1.480204 0.004940 -1.509334 0.000000 0.000002
    32 -0.027022 -1.076920 -0.020210 -0.468857 0.000000 0.000000
    33 -0.249534 -2.846964 -0.174213 -1.276464 0.102703 0.104139
    34 0.043235 -1.683941 0.096012 -1.748945 0.002823 -0.000167
    35 0.031729 -1.160830 0.058838 -0.441250 0.000642 0.008372
    36 -0.963866 -2.785145 -0.085350 -0.264114 0.117202 0.219423
    37 0.028479 -1.403067 0.006271 -1.337894 0.000000 0.000000
    38 0.021413 -0.957781 0.020046 -1.052201 0.000000 0.000000
    39 1.164475 -2.543940 -0.170330 -1.221927 -0.015463 0.162804
    40 0.024032 -1.129042 0.017807 -1.512647 0.000000 0.000001
    41 0.014898 -0.883989 -0.019848 -0.378788 0.000000 0.000000
    42 -0.586770 -1.264477 0.200161 0.326456 -0.694116 -2.834291
    43 1.522835 0.058681 0.016848 0.001410 0.008985 1.061041
    44 1.117947 0.048424 -0.005766 -0.024907 -0.003817 1.474654
    45 -0.139399 -0.111698 0.014397 0.326501 0.088632 1.606227
    46 -2.666946 9.350911 -0.262871 1.580804 -0.005023 -1.416213
  time 12
    0 -0.349399 1.166145 0.203512 0.000000 0.000000 0.000000
    1 5.569261 -5.522416 -10.634320 -0.846049 -1.133635 0.507670
    2 -0.071918 -8.498730 -0.104136 0.166002 0.048398 -0.187538
    3 2.834877 -3.284037 0.535784 -3.053061 0.124698 -1.545787
    4 -0.937847 3.087766 -0.006773 0.000000 0.000000 1.745329
    5 0.000000 0.000000 -0.000001 0.000000 0.000000 0.000000
    6 9.280671 -0.119233 0.129653 0.013190 0.190174 -1.575995
    7 -7.660829 -3.882577 -9.604862 0.645354 1.930254 0.897996
    8 0.096945 -8.450418 -0.009363 0.012040 -0.292111 0.074034
    9 -2.961830 -3.210661 0.985425 -0.073896 0.213120 -1.439451
    10 9.226532 0.012792 0.018556 0.017134 -0.145892 -1.609947
    11 -0.937847 3.087766 -0.010345 0.000000 0.000000 1.745330
    12 0.000000 0.000000 -0.000005 0.000000 0.000000 0.000000
    13 1.257180 8.762585 -0.153713 -1.570562 0.002683 -1.566807
    14 -0.488518 -2.755602 -0.228260 -0.647307 -0.134082 -0.416251
    15 0.039887 -1.479790 0.029854 -2.301996 0.000000 0.000001
    16 0.028786 -1.075731 -0.023109 -0.271941 0.000000 0.000000
    17 0.250027 -2.820665 -0.238396 -0.437374 -0.105209 -0.434549
    18 -0.049759 -1.680544 0.100479 -2.367108 0.000000 -0.000002
    19 -0.034142 -1.148312 0.084782 -0.535839 0.000000 0.000000
    20 0.957766 -2.746780 -0.090302 0.362703 -0.147176 -0.203865
    21 -0.033420 -1.397129 -0.011257 -1.115593 0.000000 -0.000001
    22 -0.022360 -0.957436 0.018784 -1.148778 0.000000 0.000000
    23 -1.180681 -2.507217 -0.193859 -0.393134 0.029677 -0.287744
    24 -0.024967 -1.123934 0.017597 -2.113280 0.000000 0.000001
    25 -0.020057 -0.890968 0.010090 -0.761958 0.000000 0.000000
    26 0.583510 -1.197277 0.185379 0.535783 -0.585068 -1.177524
    27 1.535927 0.010246 0.005009 -0.002964 -0.012979 -0.682290
    28 1.100771 0.004527 -0.010679 -0.016147 -0.001453 -1.484153
    29 0.120153 -0.050270 -0.054489 0.287569 3.110905 1.561085
    30 0.447953 -2.798986 -0.200443 -1.437466 0.114004 0.072885
    31 -0.032909 -1.480204 0.004940 -1.509334 0.000000 0.000002
    32 -0.027022 -1.076920 -0.020210 -0.468857 0.000000 0.000000
    33 -0.249534 -2.846964 -0.174213 -1.276464 0.102703 0.104139
    34 0.043235 -1.683941 0.096012 -1.748945 0.002823 -0.000167
    35 0.031729 -1.160830 0.058838 -0.441250 0.000642 0.008372
    36 -0.963866 -2.785145 -0.085350 -0.264114 0.117202 0.219423
    37 0.028479 -1.403067 0.006271 -1.337894 0.000000 0.000000
    38 0.021413 -0.957781 0.020046 -1.052201 0.000000 0.000000
    39 1.164475 -2.543940 -0.170330 -1.221927 -0.015463 0.162804
    40 0.024032 -1.129042 0.017807 -1.512647 0.000000 0.000001
    41 0.014898 -0.883989 -0.019848 -0.378788 0.000000 0.000000
    42 -0.586770 -1.264477 0.200161 0.326456 -0.694116 -2.834291
    43 1.522835 0.058681 0.016848 0.001410 0.008985 1.061041
    44 1.117947 0.048424 -0.005766 -0.024907 -0.003817 1.474654
    45 -0.139399 -0.111698 0.014397 0.326501 0.088632 1.606227
    46 -2.666946 9.350911 -0.262871 1.580804 -0.005023 -1.416213
  time 13
    0 -0.349399 1.166145 0.203512 0.000000 0.000000 0.000000
    1 5.702078 -5.600544 -10.626508 -0.834306 -1.131570 0.496417
    2 -0.071918 -8.498730 -0.104136 0.167029 0.047535 -0.189883
    3 2.834877 -3.284037 0.535784 -3.053061 0.124698 -1.545787
    4 -0.937847 3.087766 -0.006773 0.000000 0.000000 1.745329
    5 0.000000 0.000000 -0.000001 0.000000 0.000000 0.000000
    6 9.280671 -0.119233 0.129653 0.013190 0.190174 -1.575995
    7 -8.043653 -3.847420 -9.589236 0.602900 1.944129 0.848424
    8 0.096945 -8.450418 -0.009363 -0.008414 -0.288455 0.067144
    9 -2.961830 -3.210661 0.985425 -0.073896 0.213120 -1.439451
    10 9.226532 0.012792 0.018556 0.017134 -0.145892 -1.609947
    11 -0.937847 3.087766 -0.010345 0.000000 0.000000 1.745330
    12 0.000000 0.000000 -0.000005 0.000000 0.000000 0.000000
    13 1.257180 8.762585 -0.153713 -1.570562 0.002683 -1.566807
    14 -0.488518 -2.755602 -0.228260 -0.647307 -0.134082 -0.416251
    15 0.039887 -1.479790 0.029854 -2.301996 0.000000 0.000001
    16 0.028786 -1.075731 -0.023109 -0.271941 0.000000 0.000000
    17 0.250027 -2.820665 -0.238396 -0.437374 -0.105209 -0.434549
    18 -0.049759 -1.680544 0.100479 -2.367108 0.000000 -0.000002
    19 -0.034142 -1.148312 0.084782 -0.535839 0.000000 0.000000
    20 0.957766 -2.746780 -0.090302 0.362703 -0.147176 -0.203865
    21 -0.033420 -1.397129 -0.011257 -1.115593 0.000000 -0.000001
    22 -0.022360 -0.957436 0.018784 -1.148778 0.000000 0.000000
    23 -1.180681 -2.507217 -0.193859 -0.393134 0.029677 -0.287744
    24 -0.024967 -1.123934 0.017597 -2.113280 0.000000 0.000001
    25 -0.020057 -0.890968 0.010090 -0.761958 0.000000 0.000000
    26 0.583510 -1.197277 0.185379 0.535783 -0.585068 -1.177524
    27 1.535927 0.010246 0.005009 -0.002964 -0.012979 -0.682290
    28 1.100771 0.004527 -0.010679 -0.016147 -0.001453 -1.484153
    29 0.120153 -0.050270 -0.054489 0.287569 3.110905 1.561085
    30 0.447953 -2.798986 -0.200443 -1.437466 0.114004 0.072885
    31 -0.032909 -1.480204 0.004940 -1.509334 0.000000 0.000002
    32 -0.027022 -1.076920 -0.020210 -0.468857 0.000000 0.000000
    33 -0.249534 -2.846964 -0.174213 -1.276464 0.102703 0.104139
    34 0.043235 -1.683941 0.096012 -1.748945 0.002823 -0.000167
    35 0.031729 -1.160830 0.058838 -0.441250 0.000642 0.008372
    36 -0.963866 -2.785145 -0.085350 -0.264114 0.117202 0.219423
    37 0.028479 -1.403067 0.006271 -1.337894 0.000000 0.000000
    38 0.021413 -0.957781 0.020046 -1.052201 0.000000 0.000000
    39 1.164475 -2.543940 -0.170330 -1.221927 -0.015463 0.162804
    40 0.024032 -1.129042 0.017807 -1.512647 0.000000 0.000001
    41 0.014898 -0.883989 -0.019848 -0.378788 0.000000 0.000000
    42 -0.586770 -1.264477 0.200161 0.326456 -0.694116 -2.834291
    43 1.522835 0.058681 0.016848 0.001410 0.008985 1.061041
    44 1.117947 0.048424 -0.005766 -0.024907 -0.003817 1.474654
    45 -0.139399 -0.111698 0.014397 0.326501 0.088632 1.606227
    46 -2.666946 9.350911 -0.262871 1.580804 -0.005023 -1.416213
  time 14
    0 -0.349399 1.166145 0.203512 0.000000 0.000000 0.000000
    1 5.987243 -5.588825 -10.599163 -0.828148 -1.139389 0.490241
    2 -0.071918 -8.498730 -0.104136 0.167766 0.043221 -0.194019
    3 2.834877 -3.284037 0.535784 -3.053061 0.124698 -1.545787
    4 -0.937847 3.087766 -0.006773 0.000000 0.000000 1.745329
    5 0.000000 0.000000 -0.000001 0.000000 0.000000 0.000000
    6 9.280671 -0.119233 0.129653 0.013190 0.190174 -1.575995
    7 -8.422571 -3.800543 -9.577517 0.571390 1.955875 0.810797
    8 0.096945 -8.450418 -0.009363 -0.025182 -0.285862 0.061334
    9 -2.961830 -3.210661 0.985425 -0.073896 0.213120 -1.439451
    10 9.226532 0.012792 0.018556 0.017134 -0.145892 -1.609947
    11 -0.937847 3.087766 -0.010345 0.000000 0.000000 1.745330
    12 0.000000 0.000000 -0.000005 0.000000 0.000000 0.000000
    13 1.257180 8.762585 -0.153713 -1.570562 0.002683 -1.566807
    14 -0.488518 -2.755602 -0.228260 -0.647307 -0.134082 -0.416251
    15 0.039887 -1.479790 0.029854 -2.301996 0.000000 0.000001
    16 0.028786 -1.075731 -0.023109 -0.271941 0.000000 0.000000
    17 0.250027 -2.820665 -0.238396 -0.437374 -0.105209 -0.434549
    18 -0.049759 -1.680544 0.100479 -2.367108 0.000000 -0.000002
    19 -0.034142 -1.148312 0.084782 -0.535839 0.000000 0.000000
    20 0.957766 -2.746780 -0.090302 0.362703 -0.147176 -0.203865
    21 -0.033420 -1.397129 -0.011257 -1.115593 0.000000 -0.000001
    22 -0.022360 -0.957436 0.018784 -1.148778 0.000000 0.000000
    23 -1.180681 -2.507217 -0.193859 -0.393134 0.029677 -0.287744
    24 -0.024967 -1.123934 0.017597 -2.113280 0.000000 0.000001
    25 -0.020057 -0.890968 0.010090 -0.761958 0.000000 0.000000
    26 0.583510 -1.197277 0.185379 0.535783 -0.585068 -1.177524
    27 1.535927 0.010246 0.005009 -0.002964 -0.012979 -0.682290
    28 1.100771 0.004527 -0.010679 -0.016147 -0.001453 -1.484153
    29 0.120153 -0.050270 -0.054489 0.287569 3.110905 1.561085
    30 0.447953 -2.798986 -0.200443 -1.437466 0.114004 0.072885
    31 -0.032909 -1.480204 0.004940 -1.509334 0.000000 0.000002
    32 -0.027022 -1.076920 -0.020210 -0.468857 0.000000 0.000000
    33 -0.249534 -2.846964 -0.174213 -1.276464 0.102703 0.104139
    34 0.043235 -1.683941 0.096012 -1.748945 0.002823 -0.000167
    35 0.031729 -1.160830 0.058838 -0.441250 0.000642 0.008372
    36 -0.963866 -2.785145 -0.085350 -0.264114 0.117202 0.219423
    37 0.028479 -1.403067 0.006271 -1.337894 0.000000 0.000000
    38 0.021413 -0.957781 0.020046 -1.052201 0.000000 0.000000
    39 1.164475 -2.543940 -0.170330 -1.221927 -0.015463 0.162804
    40 0.024032 -1.129042 0.017807 -1.512647 0.000000 0.000001
    41 0.014898 -0.883989 -0.019848 -0.378788 0.000000 0.000000
    42 -0.586770 -1.264477 0.200161 0.326456 -0.694116 -2.834291
    43 1.522835 0.058681 0.016848 0.001410 0.008985 1.061041
    44 1.117947 0.048424 -0.005766 -0.024907 -0.003817 1.474654
    45 -0.139399 -0.111698 0.014397 0.326501 0.088632 1.606227
    46 -2.666946 9.350911 -0.262871 1.580804 -0.005023 -1.416213
  time 15
    0 -0.349399 1.166145 0.203512 0.000000 0.000000 0.000000
    1 6.397411 -5.514604 -10.548380 -0.825849 -1.155491 0.487703
    2 -0.071918 -8.498730 -0.104136 0.168160 0.034292 -0.200232
    3 2.834877 -3.284037 0.535784 -3.053061 0.124698 -1.545787
    4 -0.937847 3.087766 -0.006773 0.000000 0.000000 1.745329
    5 0.000000 0.000000 -0.000001 0.000000 0.000000 0.000000
    6 9.280671 -0.119233 0.129653 0.013190 0.190174 -1.575995
    7 -8.738986 -3.714603 -9.565798 0.552530 1.963735 0.787611
    8 0.096945 -8.450418 -0.009363 -0.036559 -0.284295 0.057326
    9 -2.961830 -3.210661 0.985425 -0.073896 0.213120 -1.439451
    10 9.226532 0.012792 0.018556 0.017134 -0.145892 -1.609947
    11 -0.937847 3.087766 -0.010345 0.000000 0.000000 1.745330
    12 0.000000 0.000000 -0.000005 0.000000 0.000000 0.000000
    13 1.257180 8.762585 -0.153713 -1.570562 0.002683 -1.566807
    14 -0.488518 -2.755602 -0.228260 -0.647307 -0.134082 -0.416251
    15 0.039887 -1.479790 0.029854 -2.301996 0.000000 0.000001
    16 0.028786 -1.075731 -0.023109 -0.271941 0.000000 0.000000
    17 0.250027 -2.820665 -0.238396 -0.437374 -0.105209 -0.434549
    18 -0.049759 -1.680544 0.100479 -2.367108 0.000000 -0.000002
    19 -0.034142 -1.148312 0.084782 -0.535839 0.000000 0.000000
    20 0.957766 -2.746780 -0.090302 0.362703 -0.147176 -0.203865
    21 -0.033420 -1.397129 -0.011257 -1.115593 0.000000 -0.000001
    22 -0.022360 -0.957436 0.018784 -1.148778 0.000000 0.000000
    23 -1.180681 -2.507217 -0.193859 -0.393134 0.029677 -0.287744
    24 -0.024967 -1.123934 0.017597 -2.113280 0.000000 0.000001
    25 -0.020057 -0.890968 0.010090 -0.761958 0.000000 0.000000
    26 0.583510 -1.197277 0.185379 0.535783 -0.585068 -1.177524
    27 1.535927 0.010246 0.005009 -0.002964 -0.012979 -0.682290
    28 1.100771 0.004527 -0.010679 -0.016147 -0.001453 -1.484153
    29 0.120153 -0.050270 -0.054489 0.287569 3.110905 1.561085
    30 0.447953 -2.798986 -0.200443 -1.437466 0.114004 0.072885
    31 -0.032909 -1.480204 0.004940 -1.509334 0.000000 0.000002
    32 -0.027022 -1.076920 -0.020210 -0.468857 0.000000 0.000000
    33 -0.249534 -2.846964 -0.174213 -1.276464 0.102703 0.104139
    34 0.043235 -1.683941 0.096012 -1.748945 0.002823 -0.000167
    35 0.031729 -1.160830 0.058838 -0.441250 0.000642 0.008372
    36 -0.963866 -2.785145 -0.085350 -0.264114 0.117202 0.219423
    37 0.028479 -1.403067 0.006271 -1.337894 0.000000 0.000000
    38 0.021413 -0.957781 0.020046 -1.052201 0.000000 0.000000
    39 1.164475 -2.543940 -0.170330 -1.221927 -0.015463 0.162804
    40 0.024032 -1.129042 0.017807 -1.512647 0.000000 0.000001
    41 0.014898 -0.883989 -0.019848 -0.378788 0.000000 0.000000
    42 -0.586770 -1.264477 0.200161 0.326456 -0.694116 -2.834291
    43 1.522835 0.058681 0.016848 0.001410 0.008985 1.061041
    44 1.117947 0.048424 -0.005766 -0.024907 -0.003817 1.474654
    45 -0.139399 -0.111698 0.014397 0.326501 0.088632 1.606227
    46 -2.666946 9.350911 -0.262871 1.580804 -0.005023 -1.416213
  time 16
    0 -0.349399 1.166145 0.203512 0.000000 0.000000 0.000000
    1 6.889614 -5.389600 -10.489785 -0.826916 -1.177069 0.488126
    2 -0.071918 -8.498730 -0.104136 0.167581 0.013954 -0.212515
    3 2.834877 -3.284037 0.535784 -3.053061 0.124698 -1.545787
    4 -0.937847 3.087766 -0.006773 0.000000 0.000000 1.745329
    5 0.000000 0.000000 -0.000001 0.000000 0.000000 0.000000
    6 9.280671 -0.119233 0.129653 0.013190 0.190174 -1.575995
    7 -8.934305 -3.566161 -9.565798 0.548416 1.966090 0.781288
    8 0.096945 -8.450418 -0.009363 -0.040738 -0.283791 0.055838
    9 -2.961830 -3.210661 0.985425 -0.073896 0.213120 -1.439451
    10 9.226532 0.012792 0.018556 0.017134 -0.145892 -1.609947
    11 -0.937847 3.087766 -0.010345 0.000000 0.000000 1.745330
    12 0.000000 0.000000 -0.000005 0.000000 0.000000 0.000000
    13 1.257180 8.762585 -0.153713 -1.570562 0.002683 -1.566807
    14 -0.488518 -2.755602 -0.228260 -0.647307 -0.134082 -0.416251
    15 0.039887 -1.479790 0.029854 -2.301996 0.000000 0.000001
    16 0.028786 -1.075731 -0.023109 -0.271941 0.000000 0.000000
    17 0.250027 -2.820665 -0.238396 -0.437374 -0.105209 -0.434549
    18 -0.049759 -1.680544 0.100479 -2.367108 0.000000 -0.000002
    19 -0.034142 -1.148312 0.084782 -0.535839 0.000000 0.000000
    20 0.957766 -2.746780 -0.090302 0.362703 -0.147176 -0.203865
    21 -0.033420 -1.397129 -0.011257 -1.115593 0.000000 -0.000001
    22 -0.022360 -0.957436 0.018784 -1.148778 0.000000 0.000000
    23 -1.180681 -2.507217 -0.193859 -0.393134 0.029677 -0.287744
    24 -0.024967 -1.123934 0.017597 -2.113280 0.000000 0.000001
    25 -0.020057 -0.890968 0.010090 -0.761958 0.000000 0.000000
    26 0.583510 -1.197277 0.185379 0.535783 -0.585068 -1.177524
    27 1.535927 0.010246 0.005009 -0.002964 -0.012979 -0.682290
    28 1.100771 0.004527 -0.010679 -0.016147 -0.001453 -1.484153
    29 0.120153 -0.050270 -0.054489 0.287569 3.110905 1.561085
    30 0.447953 -2.798986 -0.200443 -1.437466 0.114004 0.072885
    31 -0.032909 -1.480204 0.004940 -1.509334 0.000000 0.000002
    32 -0.027022 -1.076920 -0.020210 -0.468857 0.000000 0.000000
    33 -0.249534 -2.846964 -0.174213 -1.276464 0.102703 0.104139
    34 0.043235 -1.683941 0.096012 -1.748945 0.002823 -0.000167
    35 0.031729 -1.160830 0.058838 -0.441250 0.000642 0.008372
    36 -0.963866 -2.785145 -0.085350 -0.264114 0.117202 0.219423
    37 0.028479 -1.403067 0.006271 -1.337894 0.000000 0.000000
    38 0.021413 -0.957781 0.020046 -1.052201 0.000000 0.000000
    39 1.164475 -2.543940 -0.170330 -1.221927 -0.015463 0.162804
    40 0.024032 -1.129042 0.017807 -1.512647 0.000000 0.000001
    41 0.014898 -0.883989 -0.019848 -0.378788 0.000000 0.000000
    42 -0.586770 -1.264477 0.200161 0.326456 -0.694116 -2.834291
    43 1.522835 0.058681 0.016848 0.001410 0.008985 1.061041
    44 1.117947 0.048424 -0.005766 -0.024907 -0.003817 1.474654
    45 -0.139399 -0.111698 0.014397 0.326501 0.088632 1.606227
    46 -2.666946 9.350911 -0.262871 1.580804 -0.005023 -1.416213
  time 17
    0 -0.349399 1.166145 0.203512 0.000000 0.000000 0.000000
    1 7.428693 -5.225532 -10.423376 -0.830693 -1.201198 0.491425
    2 -0.071918 -8.498730 -0.104136 0.166397 -0.018907 -0.231960
    3 2.834877 -3.284037 0.535784 -3.053061 0.124698 -1.545787
    4 -0.937847 3.087766 -0.006773 0.000000 0.000000 1.745329
    5 0.000000 0.000000 -0.000001 0.000000 0.000000 0.000000
    6 9.280671 -0.119233 0.129653 0.013190 0.190174 -1.575995
    7 -9.016339 -3.347404 -9.573611 0.562930 1.961210 0.796511
    8 0.096945 -8.450418 -0.009363 -0.035396 -0.285303 0.057451
    9 -2.961830 -3.210661 0.985425 -0.073896 0.213120 -1.439451
    10 9.226532 0.012792 0.018556 0.017134 -0.145892 -1.609947
    11 -0.937847 3.087766 -0.010345 0.000000 0.000000 1.745330
    12 0.000000 0.000000 -0.000005 0.000000 0.000000 0.000000
    13 1.257180 8.762585 -0.153713 -1.570562 0.002683 -1.566807
    14 -0.488518 -2.755602 -0.228260 -0.647307 -0.134082 -0.416251
    15 0.039887 -1.479790 0.029854 -2.301996 0.000000 0.000001
    16 0.028786 -1.075731 -0.023109 -0.271941 0.000000 0.000000
    17 0.250027 -2.820665 -0.238396 -0.437374 -0.105209 -0.434549
    18 -0.049759 -1.680544 0.100479 -2.367108 0.000000 -0.000002
    19 -0.034142 -1.148312 0.084782 -0.535839 0.000000 0.000000
    20 0.957766 -2.746780 -0.090302 0.362703 -0.147176 -0.203865
    21 -0.033420 -1.397129 -0.011257 -1.115593 0.000000 -0.000001
    22 -0.022360 -0.957436 0.018784 -1.148778 0.000000 0.000000
    23 -1.180681 -2.507217 -0.193859 -0.393134 0.029677 -0.287744
    24 -0.024967 -1.123934 0.017597 -2.113280 0.000000 0.000001
    25 -0.020057 -0.890968 0.010090 -0.761958 0.000000 0.000000
    26 0.583510 -1.197277 0.185379 0.535783 -0.585068 -1.177524
    27 1.535927 0.010246 0.005009 -0.002964 -0.012979 -0.682290
    28 1.100771 0.004527 -0.010679 -0.016147 -0.001453 -1.484153
    29 0.120153 -0.050270 -0.054489 0.287569 3.110905 1.561085
    30 0.447953 -2.798986 -0.200443 -1.437466 0.114004 0.072885
    31 -0.032909 -1.480204 0.004940 -1.509334 0.000000 0.000002
    32 -0.027022 -1.076920 -0.020210 -0.468857 0.000000 0.000000
    33 -0.249534 -2.846964 -0.174213 -1.276464 0.102703 0.104139
    34 0.043235 -1.683941 0.096012 -1.748945 0.002823 -0.000167
    35 0.031729 -1.160830 0.058838 -0.441250 0.000642 0.008372
    36 -0.963866 -2.785145 -0.085350 -0.264114 0.117202 0.219423
    37 0.028479 -1.403067 0.006271 -1.337894 0.000000 0.000000
    38 0.021413 -0.957781 0.020046 -1.052201 0.000000 0.000000
    39 1.164475 -2.543940 -0.170330 -1.221927 -0.015463 0.162804
    40 0.024032 -1.129042 0.017807 -1.512647 0.000000 0.000001
    41 0.014898 -0.883989 -0.019848 -0.378788 0.000000 0.000000
    42 -0.586770 -1.264477 0.200161 0.326456 -0.694116 -2.834291
    43 1.522835 0.058681 0.016848 0.001410 0.008985 1.061041
    44 1.117947 0.048424 -0.005766 -0.024907 -0.003817 1.474654
    45 -0.139399 -0.111698 0.014397 0.326501 0.088632 1.606227
    46 -2.666946 9.350911 -0.262871 1.580804 -0.005023 -1.416213
  time 18
    0 -0.349399 1.166145 0.203512 0.000000 0.000000 0.000000
    1 7.967772 -5.038027 -10.356968 -0.836688 -1.225026 0.497009
    2 -0.071918 -8.498730 -0.104136 0.165818 -0.056935 -0.254699
    3 2.834877 -3.284037 0.535784 -3.053061 0.124698 -1.545787
    4 -0.937847 3.087766 -0.006773 0.000000 0.000000 1.745329
    5 0.000000 0.000000 -0.000001 0.000000 0.000000 0.000000
    6 9.280671 -0.119233 0.129653 0.013190 0.190174 -1.575995
    7 -9.043683 -3.081771 -9.585330 0.596691 1.949974 0.833279
    8 0.096945 -8.450418 -0.009363 -0.021101 -0.289427 0.061757
    9 -2.961830 -3.210661 0.985425 -0.073896 0.213120 -1.439451
    10 9.226532 0.012792 0.018556 0.017134 -0.145892 -1.609947
    11 -0.937847 3.087766 -0.010345 0.000000 0.000000 1.745330
    12 0.000000 0.000000 -0.000005 0.000000 0.000000 0.000000
    13 1.257180 8.762585 -0.153713 -1.570562 0.002683 -1.566807
    14 -0.488518 -2.755602 -0.228260 -0.647307 -0.134082 -0.416251
    15 0.039887 -1.479790 0.029854 -2.301996 0.000000 0.000001
    16 0.028786 -1.075731 -0.023109 -0.271941 0.000000 0.000000
    17 0.250027 -2.820665 -0.238396 -0.437374 -0.105209 -0.434549
    18 -0.049759 -1.680544 0.100479 -2.367108 0.000000 -0.000002
    19 -0.034142 -1.148312 0.084782 -0.535839 0.000000 0.000000
    20 0.957766 -2.746780 -0.090302 0.362703 -0.147176 -0.203865
    21 -0.033420 -1.397129 -0.011257 -1.115593 0.000000 -0.000001
    22 -0.022360 -0.957436 0.018784 -1.148778 0.000000 0.000000
    23 -1.180681 -2.507217 -0.193859 -0.393134 0.029677 -0.287744
    24 -0.024967 -1.123934 0.017597 -2.113280 0.000000 0.000001
    25 -0.020057 -0.890968 0.010090 -0.761958 0.000000 0.000000
    26 0.583510 -1.197277 0.185379 0.535783 -0.585068 -1.177524
    27 1.535927 0.010246 0.005009 -0.002964 -0.012979 -0.682290
    28 1.100771 0.004527 -0.010679 -0.016147 -0.001453 -1.484153
    29 0.120153 -0.050270 -0.054489 0.287569 3.110905 1.561085
    30 0.447953 -2.798986 -0.200443 -1.437466 0.114004 0.072885
    31 -0.032909 -1.480204 0.004940 -1.509334 0.000000 0.000002
    32 -0.027022 -1.076920 -0.020210 -0.468857 0.000000 0.000000
    33 -0.249534 -2.846964 -0.174213 -1.276464 0.102703 0.104139
    34 0.043235 -1.683941 0.096012 -1.748945 0.002823 -0.000167
    35 0.031729 -1.160830 0.058838 -0.441250 0.000642 0.008372
    36 -0.963866 -2.785145 -0.085350 -0.264114 0.117202 0.219423
    37 0.028479 -1.403067 0.006271 -1.337894 0.000000 0.000000
    38 0.021413 -0.957781 0.020046 -1.052201 0.000000 0.000000
    39 1.164475 -2.543940 -0.170330 -1.221927 -0.015463 0.162804
    40 0.024032 -1.129042 0.017807 -1.512647 0.000000 0.000001
    41 0.014898 -0.883989 -0.019848 -0.378788 0.000000 0.000000
    42 -0.586770 -1.264477 0.200161 0.326456 -0.694116 -2.834291
    43 1.522835 0.058681 0.016848 0.001410 0.008985 1.061041
    44 1.117947 0.048424 -0.005766 -0.024907 -0.003817 1.474654
    45 -0.139399 -0.111698 0.014397 0.326501 0.088632 1.606227
    46 -2.666946 9.350911 -0.262871 1.580804 -0.005023 -1.416213
  time 19
    0 -0.349399 1.166145 0.203512 0.000000 0.000000 0.000000
    1 8.463881 -4.834895 -10.302279 -0.843914 -1.245653 0.504201
    2 -0.071918 -8.498730 -0.104136 0.166608 -0.092721 -0.276973
    3 2.834877 -3.284037 0.535784 -3.053061 0.124698 -1.545787
    4 -0.937847 3.087766 -0.006773 0.000000 0.000000 1.745329
    5 0.000000 0.000000 -0.000001 0.000000 0.000000 0.000000
    6 9.280671 -0.119233 0.129653 0.013190 0.190174 -1.575995
    7 -9.035871 -2.792700 -9.597049 0.647527 1.934794 0.889018
    8 0.096945 -8.450418 -0.009363 -0.000301 -0.295532 0.067911
    9 -2.961830 -3.210661 0.985425 -0.073896 0.213120 -1.439451
    10 9.226532 0.012792 0.018556 0.017134 -0.145892 -1.609947
    11 -0.937847 3.087766 -0.010345 0.000000 0.000000 1.745330
    12 0.000000 0.000000 -0.000005 0.000000 0.000000 0.000000
    13 1.257180 8.762585 -0.153713 -1.570562 0.002683 -1.566807
    14 -0.488518 -2.755602 -0.228260 -0.647307 -0.134082 -0.416251
    15 0.039887 -1.479790 0.029854 -2.301996 0.000000 0.000001
    16 0.028786 -1.075731 -0.023109 -0.271941 0.000000 0.000000
    17 0.250027 -2.820665 -0.238396 -0.437374 -0.105209 -0.434549
    18 -0.049759 -1.680544 0.100479 -2.367108 0.000000 -0.000002
    19 -0.034142 -1.148312 0.084782 -0.535839 0.000000 0.000000
    20 0.957766 -2.746780 -0.090302 0.362703 -0.147176 -0.203865
    21 -0.033420 -1.397129 -0.011257 -1.115593 0.000000 -0.000001
    22 -0.022360 -0.957436 0.018784 -1.148778 0.000000 0.000000
    23 -1.180681 -2.507217 -0.193859 -0.393134 0.029677 -0.287744
    24 -0.024967 -1.123934 0.017597 -2.113280 0.000000 0.000001
    25 -0.020057 -0.890968 0.010090 -0.761958 0.000000 0.000000
    26 0.583510 -1.197277 0.185379 0.535783 -0.585068 -1.177524
    27 1.535927 0.010246 0.005009 -0.002964 -0.012979 -0.682290
    28 1.100771 0.004527 -0.010679 -0.016147 -0.001453 -1.484153
    29 0.120153 -0.050270 -0.054489 0.287569 3.110905 1.561085
    30 0.447953 -2.798986 -0.200443 -1.437466 0.114004 0.072885
    31 -0.032909 -1.480204 0.004940 -1.509334 0.000000 0.000002
    32 -0.027022 -1.076920 -0.020210 -0.468857 0.000000 0.000000
    33 -0.249534 -2.846964 -0.174213 -1.276464 0.102703 0.104139
    34 0.043235 -1.683941 0.096012 -1.748945 0.002823 -0.000167
    35 0.031729 -1.160830 0.058838 -0.441250 0.000642 0.008372
    36 -0.963866 -2.785145 -0.085350 -0.264114 0.117202 0.219423
    37 0.028479 -1.403067 0.006271 -1.337894 0.000000 0.000000
    38 0.021413 -0.957781 0.020046 -1.052201 0.000000 0.000000
    39 1.164475 -2.543940 -0.170330 -1.221927 -0.015463 0.162804
    40 0.024032 -1.129042 0.017807 -1.512647 0.000000 0.000001
    41 0.014898 -0.883989 -0.019848 -0.378788 0.000000 0.000000
    42 -0.586770 -1.264477 0.200161 0.326456 -0.694116 -2.834291
    43 1.522835 0.058681 0.016848 0.001410 0.008985 1.061041
    44 1.117947 0.048424 -0.005766 -0.024907 -0.003817 1.474654
    45 -0.139399 -0.111698 0.014397 0.326501 0.088632 1.606227
    46 -2.666946 9.350911 -0.262871 1.580804 -0.005023 -1.416213
  time 20
    0 -0.349399 1.166145 0.203512 0.000000 0.000000 0.000000
    1 8.874050 -4.631764 -10.263215 -0.851140 -1.260247 0.511815
    2 -0.071918 -8.498730 -0.104136 0.168924 -0.118871 -0.294950
    3 2.834877 -3.284037 0.535784 -3.053061 0.124698 -1.545787
    4 -0.937847 3.087766 -0.006773 0.000000 0.000000 1.745329
    5 0.000000 0.000000 -0.000001 0.000000 0.000000 0.000000
    6 9.280671 -0.119233 0.129653 0.013190 0.190174 -1.575995
    7 -9.000713 -2.484097 -9.612674 0.713186 1.918110 0.960682
    8 0.096945 -8.450418 -0.009363 0.024480 -0.302969 0.075067
    9 -2.961830 -3.210661 0.985425 -0.073896 0.213120 -1.439451
    10 9.226532 0.012792 0.018556 0.017134 -0.145892 -1.609947
    11 -0.937847 3.087766 -0.010345 0.000000 0.000000 1.745330
    12 0.000000 0.000000 -0.000005 0.000000 0.000000 0.000000
    13 1.257180 8.762585 -0.153713 -1.570562 0.002683 -1.566807
    14 -0.488518 -2.755602 -0.228260 -0.647307 -0.134082 -0.416251
    15 0.039887 -1.479790 0.029854 -2.301996 0.000000 0.000001
    16 0.028786 -1.075731 -0.023109 -0.271941 0.000000 0.000000
    17 0.250027 -2.820665 -0.238396 -0.437374 -0.105209 -0.434549
    18 -0.049759 -1.680544 0.100479 -2.367108 0.000000 -0.000002
    19 -0.034142 -1.148312 0.084782 -0.535839 0.000000 0.000000
    20 0.957766 -2.746780 -0.090302 0.362703 -0.147176 -0.203865
    21 -0.033420 -1.397129 -0.011257 -1.115593 0.000000 -0.000001
    22 -0.022360 -0.957436 0.018784 -1.148778 0.000000 0.000000
    23 -1.180681 -2.507217 -0.193859 -0.393134 0.029677 -0.287744
    24 -0.024967 -1.123934 0.017597 -2.113280 0.000000 0.000001
    25 -0.020057 -0.890968 0.010090 -0.761958 0.000000 0.000000
    26 0.583510 -1.197277 0.185379 0.535783 -0.585068 -1.177524
    27 1.535927 0.010246 0.005009 -0.002964 -0.012979 -0.682290
    28 1.100771 0.004527 -0.010679 -0.016147 -0.001453 -1.484153
    29 0.120153 -0.050270 -0.054489 0.287569 3.110905 1.561085
    30 0.447953 -2.798986 -0.200443 -1.437466 0.114004 0.072885
    31 -0.032909 -1.480204 0.004940 -1.509334 0.000000 0.000002
    32 -0.027022 -1.076920 -0.020210 -0.468857 0.000000 0.000000
    33 -0.249534 -2.846964 -0.174213 -1.276464 0.102703 0.104139
    34 0.043235 -1.683941 0.096012 -1.748945 0.002823 -0.000167
    35 0.031729 -1.160830 0.058838 -0.441250 0.000642 0.008372
    36 -0.963866 -2.785145 -0.085350 -0.264114 0.117202 0.219423
    37 0.028479 -1.403067 0.006271 -1.337894 0.000000 0.000000
    38 0.021413 -0.957781 0.020046 -1.052201 0.000000 0.000000
    39 1.164475 -2.543940 -0.170330 -1.221927 -0.015463 0.162804
    40 0.024032 -1.129042 0.017807 -1.512647 0.000000 0.000001
    41 0.014898 -0.883989 -0.019848 -0.378788 0.000000 0.000000
    42 -0.586770 -1.264477 0.200161 0.326456 -0.694116 -2.834291
    43 1.522835 0.058681 0.016848 0.001410 0.008985 1.061041
    44 1.117947 0.048424 -0.005766 -0.024907 -0.003817 1.474654
    45 -0.139399 -0.111698 0.014397 0.326501 0.088632 1.606227
    46 -2.666946 9.350911 -0.262871 1.580804 -0.005023 -1.416213
  time 21
    0 -0.349399 1.166145 0.203512 0.000000 0.000000 0.000000
    1 9.159214 -4.436446 -10.247590 -0.856231 -1.265931 0.517991
    2 -0.071918 -8.498730 -0.104136 0.172477 -0.127967 -0.304708
    3 2.834877 -3.284037 0.535784 -3.053061 0.124698 -1.545787
    4 -0.937847 3.087766 -0.006773 0.000000 0.000000 1.745329
    5 0.000000 0.000000 -0.000001 0.000000 0.000000 0.000000
    6 9.280671 -0.119233 0.129653 0.013190 0.190174 -1.575995
    7 -8.949930 -2.183306 -9.632206 0.789944 1.902136 1.044056
    8 0.096945 -8.450418 -0.009363 0.050746 -0.311019 0.082474
    9 -2.961830 -3.210661 0.985425 -0.073896 0.213120 -1.439451
    10 9.226532 0.012792 0.018556 0.017134 -0.145892 -1.609947
    11 -0.937847 3.087766 -0.010345 0.000000 0.000000 1.745330
    12 0.000000 0.000000 -0.000005 0.000000 0.000000 0.000000
    13 1.257180 8.762585 -0.153713 -1.570562 0.002683 -1.566807
    14 -0.488518 -2.755602 -0.228260 -0.647307 -0.134082 -0.416251
    15 0.039887 -1.479790 0.029854 -2.301996 0.000000 0.000001
    16 0.028786 -1.075731 -0.023109 -0.271941 0.000000 0.000000
    17 0.250027 -2.820665 -0.238396 -0.437374 -0.105209 -0.434549
    18 -0.049759 -1.680544 0.100479 -2.367108 0.000000 -0.000002
    19 -0.034142 -1.148312 0.084782 -0.535839 0.000000 0.000000
    20 0.957766 -2.746780 -0.090302 0.362703 -0.147176 -0.203865
    21 -0.033420 -1.397129 -0.011257 -1.115593 0.000000 -0.000001
    22 -0.022360 -0.957436 0.018784 -1.148778 0.000000 0.000000
    23 -1.180681 -2.507217 -0.193859 -0.393134 0.029677 -0.287744
    24 -0.024967 -1.123934 0.017597 -2.113280 0.000000 0.000001
    25 -0.020057 -0.890968 0.010090 -0.761958 0.000000 0.000000
    26 0.583510 -1.197277 0.185379 0.535783 -0.585068 -1.177524
    27 1.535927 0.010246 0.005009 -0.002964 -0.012979 -0.682290
    28 1.100771 0.004527 -0.010679 -0.016147 -0.001453 -1.484153
    29 0.120153 -0.050270 -0.054489 0.287569 3.110905 1.561085
    30 0.447953 -2.798986 -0.200443 -1.437466 0.114004 0.072885
    31 -0.032909 -1.480204 0.004940 -1.509334 0.000000 0.000002
    32 -0.027022 -1.076920 -0.020210 -0.468857 0.000000 0.000000
    33 -0.249534 -2.846964 -0.174213 -1.276464 0.102703 0.104139
    34 0.043235 -1.683941 0.096012 -1.748945 0.002823 -0.000167
    35 0.031729 -1.160830 0.058838 -0.441250 0.000642 0.008372
    36 -0.963866 -2.785145 -0.085350 -0.264114 0.117202 0.219423
    37 0.028479 -1.403067 0.006271 -1.337894 0.000000 0.000000
    38 0.021413 -0.957781 0.020046 -1.052201 0.000000 0.000000
    39 1.164475 -2.543940 -0.170330 -1.221927 -0.015463 0.162804
    40 0.024032 -1.129042 0.017807 -1.512647 0.000000 0.000001
    41 0.014898 -0.883989 -0.019848 -0.378788 0.000000 0.000000
    42 -0.586770 -1.264477 0.200161 0.326456 -0.694116 -2.834291
    43 1.522835 0.058681 0.016848 0.001410 0.008985 1.061041
    44 1.117947 0.048424 -0.005766 -0.024907 -0.003817 1.474654
    45 -0.139399 -0.111698 0.014397 0.326501 0.088632 1.606227
    46 -2.666946 9.350911 -0.262871 1.580804 -0.005023 -1.416213
  time 22
    0 -0.349399 1.166145 0.203512 0.000000 0.000000 0.000000
    1 9.327188 -4.245034 -10.251496 -0.859351 -1.262335 0.522899
    2 -0.071918 -8.498730 -0.104136 0.176925 -0.121016 -0.306677
    3 2.834877 -3.284037 0.535784 -3.053061 0.124698 -1.545787
    4 -0.937847 3.087766 -0.006773 0.000000 0.000000 1.745329
    5 0.000000 0.000000 -0.000001 0.000000 0.000000 0.000000
    6 9.280671 -0.119233 0.129653 0.013190 0.190174 -1.575995
    7 -8.895241 -1.894235 -9.647832 0.872058 1.888574 1.132582
    8 0.096945 -8.450418 -0.009363 0.075997 -0.318925 0.089395
    9 -2.961830 -3.210661 0.985425 -0.073896 0.213120 -1.439451
    10 9.226532 0.012792 0.018556 0.017134 -0.145892 -1.609947
    11 -0.937847 3.087766 -0.010345 0.000000 0.000000 1.745330
    12 0.000000 0.000000 -0.000005 0.000000 0.000000 0.000000
    13 1.257180 8.762585 -0.153713 -1.570562 0.002683 -1.566807
    14 -0.488518 -2.755602 -0.228260 -0.647307 -0.134082 -0.416251
    15 0.039887 -1.479790 0.029854 -2.301996 0.000000 0.000001
    16 0.028786 -1.075731 -0.023109 -0.271941 0.000000 0.000000
    17 0.250027 -2.820665 -0.238396 -0.437374 -0.105209 -0.434549
    18 -0.049759 -1.680544 0.100479 -2.367108 0.000000 -0.000002
    19 -0.034142 -1.148312 0.084782 -0.535839 0.000000 0.000000
    20 0.957766 -2.746780 -0.090302 0.362703 -0.147176 -0.203865
    21 -0.033420 -1.397129 -0.011257 -1.115593 0.000000 -0.000001
    22 -0.022360 -0.957436 0.018784 -1.148778 0.000000 0.000000
    23 -1.180681 -2.507217 -0.193859 -0.393134 0.029677 -0.287744
    24 -0.024967 -1.123934 0.017597 -2.113280 0.000000 0.000001
    25 -0.020057 -0.890968 0.010090 -0.761958 0.000000 0.000000
    26 0.583510 -1.197277 0.185379 0.535783 -0.585068 -1.177524
    27 1.535927 0.010246 0.005009 -0.002964 -0.012979 -0.682290
    28 1.100771 0.004527 -0.010679 -0.016147 -0.001453 -1.484153
    29 0.120153 -0.050270 -0.054489 0.287569 3.110905 1.561085
    30 0.447953 -2.798986 -0.200443 -1.437466 0.114004 0.072885
    31 -0.032909 -1.480204 0.004940 -1.509334 0.000000 0.000002
    32 -0.027022 -1.076920 -0.020210 -0.468857 0.000000 0.000000
    33 -0.249534 -2.846964 -0.174213 -1.276464 0.102703 0.104139
    34 0.043235 -1.683941 0.096012 -1.748945 0.002823 -0.000167
    35 0.031729 -1.160830 0.058838 -0.441250 0.000642 0.008372
    36 -0.963866 -2.785145 -0.085350 -0.264114 0.117202 0.219423
    37 0.028479 -1.403067 0.006271 -1.337894 0.000000 0.000000
    38 0.021413 -0.957781 0.020046 -1.052201 0.000000 0.000000
    39 1.164475 -2.543940 -0.170330 -1.221927 -0.015463 0.162804
    40 0.024032 -1.129042 0.017807 -1.512647 0.000000 0.000001
    41 0.014898 -0.883989 -0.019848 -0.378788 0.000000 0.000000
    42 -0.586770 -1.264477 0.200161 0.326456 -0.694116 -2.834291
    43 1.522835 0.058681 0.016848 0.001410 0.008985 1.061041
    44 1.117947 0.048424 -0.005766 -0.024907 -0.003817 1.474654
    45 -0.139399 -0.111698 0.014397 0.326501 0.088632 1.606227
    46 -2.666946 9.350911 -0.262871 1.580804 -0.005023 -1.416213
  time 23
    0 -0.349399 1.166145 0.203512 0.000000 0.000000 0.000000
    1 9.424848 -4.041903 -10.271028 -0.861979 -1.252010 0.527975
    2 -0.071918 -8.498730 -0.104136 0.181978 -0.105280 -0.304511
    3 2.834877 -3.284037 0.535784 -3.053061 0.124698 -1.545787
    4 -0.937847 3.087766 -0.006773 0.000000 0.000000 1.745329
    5 0.000000 0.000000 -0.000001 0.000000 0.000000 0.000000
    6 9.280671 -0.119233 0.129653 0.013190 0.190174 -1.575995
    7 -8.856178 -1.648134 -9.655644 0.950601 1.878302 1.216737
    8 0.096945 -8.450418 -0.009363 0.097736 -0.325858 0.095205
    9 -2.961830 -3.210661 0.985425 -0.073896 0.213120 -1.439451
    10 9.226532 0.012792 0.018556 0.017134 -0.145892 -1.609947
    11 -0.937847 3.087766 -0.010345 0.000000 0.000000 1.745330
    12 0.000000 0.000000 -0.000005 0.000000 0.000000 0.000000
    13 1.257180 8.762585 -0.153713 -1.570562 0.002683 -1.566807
    14 -0.488518 -2.755602 -0.228260 -0.647307 -0.134082 -0.416251
    15 0.039887 -1.479790 0.029854 -2.301996 0.000000 0.000001
    16 0.028786 -1.075731 -0.023109 -0.271941 0.000000 0.000000
    17 0.250027 -2.820665 -0.238396 -0.437374 -0.105209 -0.434549
    18 -0.049759 -1.680544 0.100479 -2.367108 0.000000 -0.000002
    19 -0.034142 -1.148312 0.084782 -0.535839 0.000000 0.000000
    20 0.957766 -2.746780 -0.090302 0.362703 -0.147176 -0.203865
    21 -0.033420 -1.397129 -0.011257 -1.115593 0.000000 -0.000001
    22 -0.022360 -0.957436 0.018784 -1.148778 0.000000 0.000000
    23 -1.180681 -2.507217 -0.193859 -0.393134 0.029677 -0.287744
    24 -0.024967 -1.123934 0.017597 -2.113280 0.000000 0.000001
    25 -0.020057 -0.890968 0.010090 -0.761958 0.000000 0.000000
    26 0.583510 -1.197277 0.185379 0.535783 -0.585068 -1.177524
    27 1.535927 0.010246 0.005009 -0.002964 -0.012979 -0.682290
    28 1.100771 0.004527 -0.010679 -0.016147 -0.001453 -1.484153
    29 0.120153 -0.050270 -0.054489 0.287569 3.110905 1.561085
    30 0.447953 -2.798986 -0.200443 -1.437466 0.114004 0.072885
    31 -0.032909 -1.480204 0.004940 -1.509334 0.000000 0.000002
    32 -0.027022 -1.076920 -0.020210 -0.468857 0.000000 0.000000
    33 -0.249534 -2.846964 -0.174213 -1.276464 0.102703 0.104139
    34 0.043235 -1.683941 0.096012 -1.748945 0.002823 -0.000167
    35 0.031729 -1.160830 0.058838 -0.441250 0.000642 0.008372
    36 -0.963866 -2.785145 -0.085350 -0.264114 0.117202 0.219423
    37 0.028479 -1.403067 0.006271 -1.337894 0.000000 0.000000
    38 0.021413 -0.957781 0.020046 -1.052201 0.000000 0.000000
    39 1.164475 -2.543940 -0.170330 -1.221927 -0.015463 0.162804
    40 0.024032 -1.129042 0.017807 -1.512647 0.000000 0.000001
    41 0.014898 -0.883989 -0.019848 -0.378788 0.000000 0.000000
    42 -0.586770 -1.264477 0.200161 0.326456 -0.694116 -2.834291
    43 1.522835 0.058681 0.016848 0.001410 0.008985 1.061041
    44 1.117947 0.048424 -0.005766 -0.024907 -0.003817 1.474654
    45 -0.139399 -0.111698 0.014397 0.326501 0.088632 1.606227
    46 -2.666946 9.350911 -0.262871 1.580804 -0.005023 -1.416213
  time 24
    0 -0.349399 1.166145 0.203512 0.000000 0.000000 0.000000
    1 9.460005 -3.830959 -10.306185 -0.864032 -1.236558 0.532882
    2 -0.071918 -8.498730 -0.104136 0.187584 -0.082821 -0.299104
    3 2.834877 -3.284037 0.535784 -3.053061 0.124698 -1.545787
    4 -0.937847 3.087766 -0.006773 0.000000 0.000000 1.745329
    5 0.000000 0.000000 -0.000001 0.000000 0.000000 0.000000
    6 9.280671 -0.119233 0.129653 0.013190 0.190174 -1.575995
    7 -8.844458 -1.445002 -9.667364 1.015018 1.871408 1.285278
    8 0.096945 -8.450418 -0.009363 0.113441 -0.330954 0.099308
    9 -2.961830 -3.210661 0.985425 -0.073896 0.213120 -1.439451
    10 9.226532 0.012792 0.018556 0.017134 -0.145892 -1.609947
    11 -0.937847 3.087766 -0.010345 0.000000 0.000000 1.745330
    12 0.000000 0.000000 -0.000005 0.000000 0.000000 0.000000
    13 1.257180 8.762585 -0.153713 -1.570562 0.002683 -1.566807
    14 -0.488518 -2.755602 -0.228260 -0.647307 -0.134082 -0.416251
    15 0.039887 -1.479790 0.029854 -2.301996 0.000000 0.000001
    16 0.028786 -1.075731 -0.023109 -0.271941 0.000000 0.000000
    17 0.250027 -2.820665 -0.238396 -0.437374 -0.105209 -0.434549
    18 -0.049759 -1.680544 0.100479 -2.367108 0.000000 -0.000002
    19 -0.034142 -1.148312 0.084782 -0.535839 0.000000 0.000000
    20 0.957766 -2.746780 -0.090302 0.362703 -0.147176 -0.203865
    21 -0.033420 -1.397129 -0.011257 -1.115593 0.000000 -0.000001
    22 -0.022360 -0.957436 0.018784 -1.148778 0.000000 0.000000
    23 -1.180681 -2.507217 -0.193859 -0.393134 0.029677 -0.287744
    24 -0.024967 -1.123934 0.017597 -2.113280 0.000000 0.000001
    25 -0.020057 -0.890968 0.010090 -0.761958 0.000000 0.000000
    26 0.583510 -1.197277 0.185379 0.535783 -0.585068 -1.177524
    27 1.535927 0.010246 0.005009 -0.002964 -0.012979 -0.682290
    28 1.100771 0.004527 -0.010679 -0.016147 -0.001453 -1.484153
    29 0.120153 -0.050270 -0.054489 0.287569 3.110905 1.561085
    30 0.447953 -2.798986 -0.200443 -1.437466 0.114004 0.072885
    31 -0.032909 -1.480204 0.004940 -1.509334 0.000000 0.000002
    32 -0.027022 -1.076920 -0.020210 -0.468857 0.000000 0.000000
    33 -0.249534 -2.846964 -0.174213 -1.276464 0.102703 0.104139
    34 0.043235 -1.683941 0.096012 -1.748945 0.002823 -0.000167
    35 0.031729 -1.160830 0.058838 -0.441250 0.000642 0.008372
    36 -0.963866 -2.785145 -0.085350 -0.264114 0.117202 0.219423
    37 0.028479 -1.403067 0.006271 -1.337894 0.000000 0.000000
    38 0.021413 -0.957781 0.020046 -1.052201 0.000000 0.000000
    39 1.164475 -2.543940 -0.170330 -1.221927 -0.015463 0.162804
    40 0.024032 -1.129042 0.017807 -1.512647 0.000000 0.000001
    41 0.014898 -0.883989 -0.019848 -0.378788 0.000000 0.000000
    42 -0.586770 -1.264477 0.200161 0.326456 -0.694116 -2.834291
    43 1.522835 0.058681 0.016848 0.001410 0.008985 1.061041
    44 1.117947 0.048424 -0.005766 -0.024907 -0.003817 1.474654
    45 -0.139399 -0.111698 0.014397 0.326501 0.088632 1.606227
    46 -2.666946 9.350911 -0.262871 1.580804 -0.005023 -1.416213
  time 25
    0 -0.349399 1.166145 0.203512 0.000000 0.000000 0.000000
    1 9.440473 -3.608296 -10.349155 -0.865428 -1.217463 0.537535
    2 -0.071918 -8.498730 -0.104136 0.193716 -0.055676 -0.291351
    3 2.834877 -3.284037 0.535784 -3.053061 0.124698 -1.545787
    4 -0.937847 3.087766 -0.006773 0.000000 0.000000 1.745329
    5 0.000000 0.000000 -0.000001 0.000000 0.000000 0.000000
    6 9.280671 -0.119233 0.129653 0.013190 0.190174 -1.575995
    7 -8.856178 -1.312186 -9.671270 1.057317 1.866839 1.329932
    8 0.096945 -8.450418 -0.009363 0.121034 -0.333439 0.101265
    9 -2.961830 -3.210661 0.985425 -0.073896 0.213120 -1.439451
    10 9.226532 0.012792 0.018556 0.017134 -0.145892 -1.609947
    11 -0.937847 3.087766 -0.010345 0.000000 0.000000 1.745330
    12 0.000000 0.000000 -0.000005 0.000000 0.000000 0.000000
    13 1.257180 8.762585 -0.153713 -1.570562 0.002683 -1.566807
    14 -0.488518 -2.755602 -0.228260 -0.647307 -0.134082 -0.416251
    15 0.039887 -1.479790 0.029854 -2.301996 0.000000 0.000001
    16 0.028786 -1.075731 -0.023109 -0.271941 0.000000 0.000000
    17 0.250027 -2.820665 -0.238396 -0.437374 -0.105209 -0.434549
    18 -0.049759 -1.680544 0.100479 -2.367108 0.000000 -0.000002
    19 -0.034142 -1.148312 0.084782 -0.535839 0.000000 0.000000
    20 0.957766 -2.746780 -0.090302 0.362703 -0.147176 -0.203865
    21 -0.033420 -1.397129 -0.011257 -1.115593 0.000000 -0.000001
    22 -0.022360 -0.957436 0.018784 -1.148778 0.000000 0.000000
    23 -1.180681 -2.507217 -0.193859 -0.393134 0.029677 -0.287744
    24 -0.024967 -1.123934 0.017597 -2.113280 0.000000 0.000001
    25 -0.020057 -0.890968 0.010090 -0.761958 0.000000 0.000000
    26 0.583510 -1.197277 0.185379 0.535783 -0.585068 -1.177524
    27 1.535927 0.010246 0.005009 -0.002964 -0.012979 -0.682290
    28 1.100771 0.004527 -0.010679 -0.016147 -0.001453 -1.484153
    29 0.120153 -0.050270 -0.054489 0.287569 3.110905 1.561085
    30 0.447953 -2.798986 -0.200443 -1.437466 0.114004 0.072885
    31 -0.032909 -1.480204 0.004940 -1.509334 0.000000 0.000002
    32 -0.027022 -1.076920 -0.020210 -0.468857 0.000000 0.000000
    33 -0.249534 -2.846964 -0.174213 -1.276464 0.102703 0.104139
    34 0.043235 -1.683941 0.096012 -1.748945 0.002823 -0.000167
    35 0.031729 -1.160830 0.058838 -0.441250 0.000642 0.008372
    36 -0.963866 -2.785145 -0.085350 -0.264114 0.117202 0.219423
    37 0.028479 -1.403067 0.006271 -1.337894 0.000000 0.000000
    38 0.021413 -0.957781 0.020046 -1.052201 0.000000 0.000000
    39 1.164475 -2.543940 -0.170330 -1.221927 -0.015463 0.162804
    40 0.024032 -1.129042 0.017807 -1.512647 0.000000 0.000001
    41 0.014898 -0.883989 -0.019848 -0.378788 0.000000 0.000000
    42 -0.586770 -1.264477 0.200161 0.326456 -0.694116 -2.834291
    43 1.522835 0.058681 0.016848 0.001410 0.008985 1.061041
    44 1.117947 0.048424 -0.005766 -0.024907 -0.003817 1.474654
    45 -0.139399 -0.111698 0.014397 0.326501 0.088632 1.606227
    46 -2.666946 9.350911 -0.262871 1.580804 -0.005023 -1.416213
  time 26
    0 -0.349399 1.166145 0.203512 0.000000 0.000000 0.000000
    1 9.381878 -3.377820 -10.399938 -0.866413 -1.196326 0.541935
    2 -0.071918 -8.498730 -0.104136 0.200349 -0.025906 -0.282130
    3 2.834877 -3.284037 0.535784 -3.053061 0.124698 -1.545787
    4 -0.937847 3.087766 -0.006773 0.000000 0.000000 1.745329
    5 0.000000 0.000000 -0.000001 0.000000 0.000000 0.000000
    6 9.280671 -0.119233 0.129653 0.013190 0.190174 -1.575995
    7 -8.883522 -1.245778 -9.675176 1.081532 1.863208 1.355303
    8 0.096945 -8.450418 -0.009363 0.121974 -0.333746 0.101500
    9 -2.961830 -3.210661 0.985425 -0.073896 0.213120 -1.439451
    10 9.226532 0.012792 0.018556 0.017134 -0.145892 -1.609947
    11 -0.937847 3.087766 -0.010345 0.000000 0.000000 1.745330
    12 0.000000 0.000000 -0.000005 0.000000 0.000000 0.000000
    13 1.257180 8.762585 -0.153713 -1.570562 0.002683 -1.566807
    14 -0.488518 -2.755602 -0.228260 -0.647307 -0.134082 -0.416251
    15 0.039887 -1.479790 0.029854 -2.301996 0.000000 0.000001
    16 0.028786 -1.075731 -0.023109 -0.271941 0.000000 0.000000
    17 0.250027 -2.820665 -0.238396 -0.437374 -0.105209 -0.434549
    18 -0.049759 -1.680544 0.100479 -2.367108 0.000000 -0.000002
    19 -0.034142 -1.148312 0.084782 -0.535839 0.000000 0.000000
    20 0.957766 -2.746780 -0.090302 0.362703 -0.147176 -0.203865
    21 -0.033420 -1.397129 -0.011257 -1.115593 0.000000 -0.000001
    22 -0.022360 -0.957436 0.018784 -1.148778 0.000000 0.000000
    23 -1.180681 -2.507217 -0.193859 -0.393134 0.029677 -0.287744
    24 -0.024967 -1.123934 0.017597 -2.113280 0.000000 0.000001
    25 -0.020057 -0.890968 0.010090 -0.761958 0.000000 0.000000
    26 0.583510 -1.197277 0.185379 0.535783 -0.585068 -1.177524
    27 1.535927 0.010246 0.005009 -0.002964 -0.012979 -0.682290
    28 1.100771 0.004527 -0.010679 -0.016147 -0.001453 -1.484153
    29 0.120153 -0.050270 -0.054489 0.287569 3.110905 1.561085
    30 0.447953 -2.798986 -0.200443 -1.437466 0.114004 0.072885
    31 -0.032909 -1.480204 0.004940 -1.509334 0.000000 0.000002
    32 -0.027022 -1.076920 -0.020210 -0.468857 0.000000 0.000000
    33 -0.249534 -2.846964 -0.174213 -1.276464 0.102703 0.104139
    34 0.043235 -1.683941 0.096012 -1.748945 0.002823 -0.000167
    35 0.031729 -1.160830 0.058838 -0.441250 0.000642 0.008372
    36 -0.963866 -2.785145 -0.085350 -0.264114 0.117202 0.219423
    37 0.028479 -1.403067 0.006271 -1.337894 0.000000 0.000000
    38 0.021413 -0.957781 0.020046 -1.052201 0.000000 0.000000
    39 1.164475 -2.543940 -0.170330 -1.221927 -0.015463 0.162804
    40 0.024032 -1.129042 0.017807 -1.512647 0.000000 0.000001
    41 0.014898 -0.883989 -0.019848 -0.378788 0.000000 0.000000
    42 -0.586770 -1.264477 0.200161 0.326456 -0.694116 -2.834291
    43 1.522835 0.058681 0.016848 0.001410 0.008985 1.061041
    44 1.117947 0.048424 -0.005766 -0.024907 -0.003817 1.474654
    45 -0.139399 -0.111698 0.014397 0.326501 0.088632 1.606227
    46 -2.666946 9.350911 -0.262871 1.580804 -0.005023 -1.416213
  time 27
    0 -0.349399 1.166145 0.203512 0.000000 0.000000 0.000000
    1 9.288125 -3.139531 -10.454627 -0.866988 -1.174656 0.546081
    2 -0.071918 -8.498730 -0.104136 0.207297 0.004474 -0.272407
    3 2.834877 -3.284037 0.535784 -3.053061 0.124698 -1.545787
    4 -0.937847 3.087766 -0.006773 0.000000 0.000000 1.745329
    5 0.000000 0.000000 -0.000001 0.000000 0.000000 0.000000
    6 9.280671 -0.119233 0.129653 0.013190 0.190174 -1.575995
    7 -8.918679 -1.237965 -9.675176 1.095269 1.859916 1.369433
    8 0.096945 -8.450418 -0.009363 0.119130 -0.332809 0.100780
    9 -2.961830 -3.210661 0.985425 -0.073896 0.213120 -1.439451
    10 9.226532 0.012792 0.018556 0.017134 -0.145892 -1.609947
    11 -0.937847 3.087766 -0.010345 0.000000 0.000000 1.745330
    12 0.000000 0.000000 -0.000005 0.000000 0.000000 0.000000
    13 1.257180 8.762585 -0.153713 -1.570562 0.002683 -1.566807
    14 -0.488518 -2.755602 -0.228260 -0.647307 -0.134082 -0.416251
    15 0.039887 -1.479790 0.029854 -2.301996 0.000000 0.000001
    16 0.028786 -1.075731 -0.023109 -0.271941 0.000000 0.000000
    17 0.250027 -2.820665 -0.238396 -0.437374 -0.105209 -0.434549
    18 -0.049759 -1.680544 0.100479 -2.367108 0.000000 -0.000002
    19 -0.034142 -1.148312 0.084782 -0.535839 0.000000 0.000000
    20 0.957766 -2.746780 -0.090302 0.362703 -0.147176 -0.203865
    21 -0.033420 -1.397129 -0.011257 -1.115593 0.000000 -0.000001
    22 -0.022360 -0.957436 0.018784 -1.148778 0.000000 0.000000
    23 -1.180681 -2.507217 -0.193859 -0.393134 0.029677 -0.287744
    24 -0.024967 -1.123934 0.017597 -2.113280 0.000000 0.000001
    25 -0.020057 -0.890968 0.010090 -0.761958 0.000000 0.000000
    26 0.583510 -1.197277 0.185379 0.535783 -0.585068 -1.177524
    27 1.535927 0.010246 0.005009 -0.002964 -0.012979 -0.682290
    28 1.100771 0.004527 -0.010679 -0.016147 -0.001453 -1.484153
    29 0.120153 -0.050270 -0.054489 0.287569 3.110905 1.561085
    30 0.447953 -2.798986 -0.200443 -1.437466 0.114004 0.072885
    31 -0.032909 -1.480204 0.004940 -1.509334 0.000000 0.000002
    32 -0.027022 -1.076920 -0.020210 -0.468857 0.000000 0.000000
    33 -0.249534 -2.846964 -0.174213 -1.276464 0.102703 0.104139
    34 0.043235 -1.683941 0.096012 -1.748945 0.002823 -0.000167
    35 0.031729 -1.160830 0.058838 -0.441250 0.000642 0.008372
    36 -0.963866 -2.785145 -0.085350 -0.264114 0.117202 0.219423
    37 0.028479 -1.403067 0.006271 -1.337894 0.000000 0.000000
    38 0.021413 -0.957781 0.020046 -1.052201 0.000000 0.000000
    39 1.164475 -2.543940 -0.170330 -1.221927 -0.015463 0.162804
    40 0.024032 -1.129042 0.017807 -1.512647 0.000000 0.000001
    41 0.014898 -0.883989 -0.019848 -0.378788 0.000000 0.000000
    42 -0.586770 -1.264477 0.200161 0.326456 -0.694116 -2.834291
    43 1.522835 0.058681 0.016848 0.001410 0.008985 1.061041
    44 1.117947 0.048424 -0.005766 -0.024907 -0.003817 1.474654
    45 -0.139399 -0.111698 0.014397 0.326501 0.088632 1.606227
    46 -2.666946 9.350911 -0.262871 1.580804 -0.005023 -1.416213
  time 28
    0 -0.349399 1.166145 0.203512 0.000000 0.000000 0.000000
    1 9.174840 -2.901243 -10.517129 -0.867481 -1.154006 0.549972
    2 -0.071918 -8.498730 -0.104136 0.214403 0.033453 -0.263115
    3 2.834877 -3.284037 0.535784 -3.053061 0.124698 -1.545787
    4 -0.937847 3.087766 -0.006773 0.000000 0.000000 1.745329
    5 0.000000 0.000000 -0.000001 0.000000 0.000000 0.000000
    6 9.280671 -0.119233 0.129653 0.013190 0.190174 -1.575995
    7 -8.961650 -1.261403 -9.671270 1.106523 1.856710 1.380908
    8 0.096945 -8.450418 -0.009363 0.115346 -0.331585 0.099793
    9 -2.961830 -3.210661 0.985425 -0.073896 0.213120 -1.439451
    10 9.226532 0.012792 0.018556 0.017134 -0.145892 -1.609947
    11 -0.937847 3.087766 -0.010345 0.000000 0.000000 1.745330
    12 0.000000 0.000000 -0.000005 0.000000 0.000000 0.000000
    13 1.257180 8.762585 -0.153713 -1.570562 0.002683 -1.566807
    14 -0.488518 -2.755602 -0.228260 -0.647307 -0.134082 -0.416251
    15 0.039887 -1.479790 0.029854 -2.301996 0.000000 0.000001
    16 0.028786 -1.075731 -0.023109 -0.271941 0.000000 0.000000
    17 0.250027 -2.820665 -0.238396 -0.437374 -0.105209 -0.434549
    18 -0.049759 -1.680544 0.100479 -2.367108 0.000000 -0.000002
    19 -0.034142 -1.148312 0.084782 -0.535839 0.000000 0.000000
    20 0.957766 -2.746780 -0.090302 0.362703 -0.147176 -0.203865
    21 -0.033420 -1.397129 -0.011257 -1.115593 0.000000 -0.000001
    22 -0.022360 -0.957436 0.018784 -1.148778 0.000000 0.000000
    23 -1.180681 -2.507217 -0.193859 -0.393134 0.029677 -0.287744
    24 -0.024967 -1.123934 0.017597 -2.113280 0.000000 0.000001
    25 -0.020057 -0.890968 0.010090 -0.761958 0.000000 0.000000
    26 0.583510 -1.197277 0.185379 0.535783 -0.585068 -1.177524
    27 1.535927 0.010246 0.005009 -0.002964 -0.012979 -0.682290
    28 1.100771 0.004527 -0.010679 -0.016147 -0.001453 -1.484153
    29 0.120153 -0.050270 -0.054489 0.287569 3.110905 1.561085
    30 0.447953 -2.798986 -0.200443 -1.437466 0.114004 0.072885
    31 -0.032909 -1.480204 0.004940 -1.509334 0.000000 0.000002
    32 -0.027022 -1.076920 -0.020210 -0.468857 0.000000 0.000000
    33 -0.249534 -2.846964 -0.174213 -1.276464 0.102703 0.104139
    34 0.043235 -1.683941 0.096012 -1.748945 0.002823 -0.000167
    35 0.031729 -1.160830 0.058838 -0.441250 0.000642 0.008372
    36 -0.963866 -2.785145 -0.085350 -0.264114 0.117202 0.219423
    37 0.028479 -1.403067 0.006271 -1.337894 0.000000 0.000000
    38 0.021413 -0.957781 0.020046 -1.052201 0.000000 0.000000
    39 1.164475 -2.543940 -0.170330 -1.221927 -0.015463 0.162804
    40 0.024032 -1.129042 0.017807 -1.512647 0.000000 0.000001
    41 0.014898 -0.883989 -0.019848 -0.378788 0.000000 0.000000
    42 -0.586770 -1.264477 0.200161 0.326456 -0.694116 -2.834291
    43 1.522835 0.058681 0.016848 0.001410 0.008985 1.061041
    44 1.117947 0.048424 -0.005766 -0.024907 -0.003817 1.474654
    45 -0.139399 -0.111698 0.014397 0.326501 0.088632 1.606227
    46 -2.666946 9.350911 -0.262871 1.580804 -0.005023 -1.416213
  time 29
    0 -0.349399 1.166145 0.203512 0.000000 0.000000 0.000000
    1 9.053743 -2.659048 -10.579631 -0.867891 -1.135955 0.553610
    2 -0.071918 -8.498730 -0.104136 0.221299 0.059028 -0.255290
    3 2.834877 -3.284037 0.535784 -3.053061 0.124698 -1.545787
    4 -0.937847 3.087766 -0.006773 0.000000 0.000000 1.745329
    5 0.000000 0.000000 -0.000001 0.000000 0.000000 0.000000
    6 9.280671 -0.119233 0.129653 0.013190 0.190174 -1.575995
    7 -9.004620 -1.304373 -9.667364 1.123675 1.853504 1.398629
    8 0.096945 -8.450418 -0.009363 0.113441 -0.330954 0.099308
    9 -2.961830 -3.210661 0.985425 -0.073896 0.213120 -1.439451
    10 9.226532 0.012792 0.018556 0.017134 -0.145892 -1.609947
    11 -0.937847 3.087766 -0.010345 0.000000 0.000000 1.745330
    12 0.000000 0.000000 -0.000005 0.000000 0.000000 0.000000
    13 1.257180 8.762585 -0.153713 -1.570562 0.002683 -1.566807
    14 -0.488518 -2.755602 -0.228260 -0.647307 -0.134082 -0.416251
    15 0.039887 -1.479790 0.029854 -2.301996 0.000000 0.000001
    16 0.028786 -1.075731 -0.023109 -0.271941 0.000000 0.000000
    17 0.250027 -2.820665 -0.238396 -0.437374 -0.105209 -0.434549
    18 -0.049759 -1.680544 0.100479 -2.367108 0.000000 -0.000002
    19 -0.034142 -1.148312 0.084782 -0.535839 0.000000 0.000000
    20 0.957766 -2.746780 -0.090302 0.362703 -0.147176 -0.203865
    21 -0.033420 -1.397129 -0.011257 -1.115593 0.000000 -0.000001
    22 -0.022360 -0.957436 0.018784 -1.148778 0.000000 0.000000
    23 -1.180681 -2.507217 -0.193859 -0.393134 0.029677 -0.287744
    24 -0.024967 -1.123934 0.017597 -2.113280 0.000000 0.000001
    25 -0.020057 -0.890968 0.010090 -0.761958 0.000000 0.000000
    26 0.583510 -1.197277 0.185379 0.535783 -0.585068 -1.177524
    27 1.535927 0.010246 0.005009 -0.002964 -0.012979 -0.682290
    28 1.100771 0.004527 -0.010679 -0.016147 -0.001453 -1.484153
    29 0.120153 -0.050270 -0.054489 0.287569 3.110905 1.561085
    30 0.447953 -2.798986 -0.200443 -1.437466 0.114004 0.072885
    31 -0.032909 -1.480204 0.004940 -1.509334 0.000000 0.000002
    32 -0.027022 -1.076920 -0.020210 -0.468857 0.000000 0.000000
    33 -0.249534 -2.846964 -0.174213 -1.276464 0.102703 0.104139
    34 0.043235 -1.683941 0.096012 -1.748945 0.002823 -0.000167
    35 0.031729 -1.160830 0.058838 -0.441250 0.000642 0.008372
    36 -0.963866 -2.785145 -0.085350 -0.264114 0.117202 0.219423
    37 0.028479 -1.403067 0.006271 -1.337894 0.000000 0.000000
    38 0.021413 -0.957781 0.020046 -1.052201 0.000000 0.000000
    39 1.164475 -2.543940 -0.170330 -1.221927 -0.015463 0.162804
    40 0.024032 -1.129042 0.017807 -1.512647 0.000000 0.000001
    41 0.014898 -0.883989 -0.019848 -0.378788 0.000000 0.000000
    42 -0.586770 -1.264477 0.200161 0.326456 -0.694116 -2.834291
    43 1.522835 0.058681 0.016848 0.001410 0.008985 1.061041
    44 1.117947 0.048424 -0.005766 -0.024907 -0.003817 1.474654
    45 -0.139399 -0.111698 0.014397 0.326501 0.088632 1.606227
    46 -2.666946 9.350911 -0.262871 1.580804 -0.005023 -1.416213
end
