// Created by Crowbar 0.34.0.0

$ModelName "weapons/tfa_cso/w_falconex.mdl"

$BodyGroup "studio"
{
	studio "v_falconex02"
}

$collisionmodel "v_falconex02.smd"
{
	$mass 9
}

$CDMaterials "models\weapons\tfa_cso\falconex"

$attachment "0" "root" 0.20 -28.00 -1.20 rotate -0 0 0

$Sequence "idle" {
	"anims\idle.smd"
	fps 30
}