// Created by Crowbar 0.58

$modelname "weapons/tfa_cso/w_m249camo.mdl"

$bodygroup "studio"
{
	studio "w_m249camo"
}

$collisionmodel "w_m249camo.smd"
{
	$mass 9
}

$CDMaterials "models\weapons\tfa_cso\m249"

$attachment "0" "CSO_PW_m249RED" 0.20 -17.40 1.80 rotate -0 0 0

$sequence "idle" {
	"w_m249camo_anims\idle"
	fps 30
}
