version 1
nodes
  0 "NGon01" -1
  1 "" 0
end
skeleton
  time 0
    0 0.000000 0.000000 -0.130400 1.570796 0.000000 0.000000
    1 -0.000400 0.050300 0.503060 -1.570797 0.000000 0.000000
end
triangles
Side1.bmp
  1 4.729600 9.366940 -0.080109 0.981978 -0.000200 -0.188996 0.000000 0.000000
  1 2.359600 9.376944 4.009891 0.654694 0.000600 0.755893 0.161290 0.000000
  1 4.729600 -6.313060 -0.080094 0.962176 -0.272193 0.011300 0.000000 0.793103
Side1.bmp
  1 4.729600 -6.313060 -0.080094 0.962176 -0.272193 0.011300 0.000000 0.793103
  1 2.359600 9.376944 4.009891 0.654694 0.000600 0.755893 0.161290 0.000000
  1 2.359600 -6.313056 4.019906 0.471513 -0.271507 0.839023 0.161290 0.793103
Side1.bmp
  1 2.359600 9.376944 4.009891 0.654694 0.000600 0.755893 0.161290 0.000000
  1 -2.360400 9.376944 4.009891 -0.327306 0.000800 0.944918 0.290323 0.000000
  1 2.359600 -6.313056 4.019906 0.471513 -0.271507 0.839023 0.161290 0.793103
Side1.bmp
  1 2.359600 -6.313056 4.019906 0.471513 -0.271507 0.839023 0.161290 0.793103
  1 -2.360400 9.376944 4.009891 -0.327306 0.000800 0.944918 0.290323 0.000000
  1 -2.360400 -6.313056 4.019906 -0.490720 -0.271511 0.827934 0.290323 0.793103
Side1.bmp
  1 -2.360400 9.376944 4.009891 -0.327306 0.000800 0.944918 0.290323 0.000000
  1 -4.730400 9.366940 -0.080109 -0.981978 0.000200 0.188996 0.451613 0.000000
  1 -2.360400 -6.313056 4.019906 -0.490720 -0.271511 0.827934 0.290323 0.793103
Side1.bmp
  1 -2.360400 -6.313056 4.019906 -0.490720 -0.271511 0.827934 0.290323 0.793103
  1 -4.730400 9.366940 -0.080109 -0.981978 0.000200 0.188996 0.451613 0.000000
  1 -4.730400 -6.313060 -0.080094 -0.962181 -0.272194 -0.010900 0.451613 0.793103
Side1.bmp
  1 -4.730400 9.366940 -0.080109 -0.981978 0.000200 0.188996 0.451613 0.000000
  1 -2.360400 9.366936 -4.180109 -0.654694 -0.000600 -0.755893 0.612903 0.000000
  1 -4.730400 -6.313060 -0.080094 -0.962181 -0.272194 -0.010900 0.451613 0.793103
Side1.bmp
  1 -4.730400 -6.313060 -0.080094 -0.962181 -0.272194 -0.010900 0.451613 0.793103
  1 -2.360400 9.366936 -4.180109 -0.654694 -0.000600 -0.755893 0.612903 0.000000
  1 -2.360400 -6.313064 -4.160094 -0.471491 -0.272895 -0.838585 0.612903 0.793103
Side1.bmp
  1 -2.360400 9.366936 -4.180109 -0.654694 -0.000600 -0.755893 0.612903 0.000000
  1 2.359600 9.366936 -4.180109 0.327306 -0.000800 -0.944918 0.741935 0.000000
  1 -2.360400 -6.313064 -4.160094 -0.471491 -0.272895 -0.838585 0.612903 0.793103
Side1.bmp
  1 -2.360400 -6.313064 -4.160094 -0.471491 -0.272895 -0.838585 0.612903 0.793103
  1 2.359600 9.366936 -4.180109 0.327306 -0.000800 -0.944918 0.741935 0.000000
  1 2.359600 -6.313064 -4.160094 0.490696 -0.272898 -0.827493 0.741935 0.793103
Side1.bmp
  1 2.359600 9.366936 -4.180109 0.327306 -0.000800 -0.944918 0.741935 0.000000
  1 4.729600 9.366940 -0.080109 0.981978 -0.000200 -0.188996 0.935484 0.000000
  1 2.359600 -6.313064 -4.160094 0.490696 -0.272898 -0.827493 0.741935 0.793103
Side1.bmp
  1 2.359600 -6.313064 -4.160094 0.490696 -0.272898 -0.827493 0.741935 0.793103
  1 4.729600 9.366940 -0.080109 0.981978 -0.000200 -0.188996 0.935484 0.000000
  1 4.729600 -6.313060 -0.080094 0.962176 -0.272193 0.011300 0.935484 0.793103
Side1.bmp
  1 4.729600 -6.313060 -0.080094 0.962176 -0.272193 0.011300 0.000000 0.793103
  1 2.359600 -6.313056 4.019906 0.471513 -0.271507 0.839023 0.161290 0.793103
  1 2.279600 -10.383060 -0.080090 0.688416 -0.713017 0.133003 0.000000 1.000000
Side1.bmp
  1 2.279600 -10.383060 -0.080090 0.688416 -0.713017 0.133003 0.000000 1.000000
  1 2.359600 -6.313056 4.019906 0.471513 -0.271507 0.839023 0.161290 0.793103
  1 1.139600 -10.373058 1.899910 0.186403 -0.821613 0.538708 0.161290 1.000000
Side1.bmp
  1 2.359600 -6.313056 4.019906 0.471513 -0.271507 0.839023 0.161290 0.793103
  1 -2.360400 -6.313056 4.019906 -0.490720 -0.271511 0.827934 0.290323 0.793103
  1 1.139600 -10.373058 1.899910 0.186403 -0.821613 0.538708 0.161290 1.000000
Side1.bmp
  1 1.139600 -10.373058 1.899910 0.186403 -0.821613 0.538708 0.161290 1.000000
  1 -2.360400 -6.313056 4.019906 -0.490720 -0.271511 0.827934 0.290323 0.793103
  1 -1.140400 -10.373058 1.899910 -0.308711 -0.881531 0.357213 0.290323 1.000000
Side1.bmp
  1 -2.360400 -6.313056 4.019906 -0.490720 -0.271511 0.827934 0.290323 0.793103
  1 -4.730400 -6.313060 -0.080094 -0.962181 -0.272194 -0.010900 0.451613 0.793103
  1 -1.140400 -10.373058 1.899910 -0.308711 -0.881531 0.357213 0.290323 1.000000
Side1.bmp
  1 -1.140400 -10.373058 1.899910 -0.308711 -0.881531 0.357213 0.290323 1.000000
  1 -4.730400 -6.313060 -0.080094 -0.962181 -0.272194 -0.010900 0.451613 0.793103
  1 -2.280400 -10.383060 -0.080090 -0.688369 -0.713268 -0.131894 0.451613 1.000000
Side1.bmp
  1 -4.730400 -6.313060 -0.080094 -0.962181 -0.272194 -0.010900 0.451613 0.793103
  1 -2.360400 -6.313064 -4.160094 -0.471491 -0.272895 -0.838585 0.612903 0.793103
  1 -2.280400 -10.383060 -0.080090 -0.688369 -0.713268 -0.131894 0.451613 1.000000
Side1.bmp
  1 -2.280400 -10.383060 -0.080090 -0.688369 -0.713268 -0.131894 0.451613 1.000000
  1 -2.360400 -6.313064 -4.160094 -0.471491 -0.272895 -0.838585 0.612903 0.793103
  1 -1.140400 -10.383062 -2.040090 -0.186395 -0.822479 -0.537387 0.612903 1.000000
Side1.bmp
  1 -2.360400 -6.313064 -4.160094 -0.471491 -0.272895 -0.838585 0.612903 0.793103
  1 2.359600 -6.313064 -4.160094 0.490696 -0.272898 -0.827493 0.741935 0.793103
  1 -1.140400 -10.383062 -2.040090 -0.186395 -0.822479 -0.537387 0.612903 1.000000
Side1.bmp
  1 -1.140400 -10.383062 -2.040090 -0.186395 -0.822479 -0.537387 0.612903 1.000000
  1 2.359600 -6.313064 -4.160094 0.490696 -0.272898 -0.827493 0.741935 0.793103
  1 1.139600 -10.383062 -2.040090 0.308702 -0.882105 -0.355802 0.741935 1.000000
Side1.bmp
  1 2.359600 -6.313064 -4.160094 0.490696 -0.272898 -0.827493 0.741935 0.793103
  1 4.729600 -6.313060 -0.080094 0.962176 -0.272193 0.011300 0.935484 0.793103
  1 1.139600 -10.383062 -2.040090 0.308702 -0.882105 -0.355802 0.741935 1.000000
Side1.bmp
  1 1.139600 -10.383062 -2.040090 0.308702 -0.882105 -0.355802 0.741935 1.000000
  1 4.729600 -6.313060 -0.080094 0.962176 -0.272193 0.011300 0.935484 0.793103
  1 2.279600 -10.383060 -0.080090 0.688416 -0.713017 0.133003 0.935484 1.000000
Tip1.bmp
  1 -4.730400 9.366940 -0.080109 0.000000 1.000000 -0.000800 0.857143 0.500000
  1 -2.360400 9.376944 4.009891 0.000000 1.000000 -0.000800 0.685714 0.100000
  1 -2.360400 9.366936 -4.180109 0.000000 1.000000 -0.000800 0.685714 0.900000
Tip1.bmp
  1 -2.360400 9.366936 -4.180109 0.000000 1.000000 -0.000800 0.685714 0.900000
  1 -2.360400 9.376944 4.009891 0.000000 1.000000 -0.000800 0.685714 0.100000
  1 2.359600 9.366936 -4.180109 0.000000 1.000000 -0.000800 0.285714 0.900000
Tip1.bmp
  1 -2.360400 9.376944 4.009891 0.000000 1.000000 -0.000800 0.685714 0.100000
  1 2.359600 9.376944 4.009891 0.000000 1.000000 -0.000800 0.285714 0.100000
  1 2.359600 9.366936 -4.180109 0.000000 1.000000 -0.000800 0.285714 0.900000
Tip1.bmp
  1 2.359600 9.366936 -4.180109 0.000000 1.000000 -0.000800 0.285714 0.900000
  1 2.359600 9.376944 4.009891 0.000000 1.000000 -0.000800 0.285714 0.100000
  1 4.729600 9.366940 -0.080109 0.000000 1.000000 -0.000800 0.114286 0.500000
Tip1.bmp
  1 1.139600 -10.373058 1.899910 0.186403 -0.821613 0.538708 0.228571 0.000000
  1 -1.140400 -10.373058 1.899910 -0.308711 -0.881531 0.357213 0.714286 0.000000
  1 1.139600 -10.383062 -2.040090 0.308702 -0.882105 -0.355802 0.228571 1.000000
Tip1.bmp
  1 1.139600 -10.383062 -2.040090 0.308702 -0.882105 -0.355802 0.228571 1.000000
  1 -1.140400 -10.373058 1.899910 -0.308711 -0.881531 0.357213 0.714286 0.000000
  1 -1.140400 -10.383062 -2.040090 -0.186395 -0.822479 -0.537387 0.714286 1.000000
Tip1.bmp
  1 -1.140400 -10.373058 1.899910 -0.308711 -0.881531 0.357213 0.714286 0.000000
  1 -2.280400 -10.383060 -0.080090 -0.688369 -0.713268 -0.131894 0.971429 0.500000
  1 -1.140400 -10.383062 -2.040090 -0.186395 -0.822479 -0.537387 0.714286 1.000000
Tip1.bmp
  1 2.279600 -10.383060 -0.080090 0.688416 -0.713017 0.133003 0.000000 0.500000
  1 1.139600 -10.373058 1.899910 0.186403 -0.821613 0.538708 0.228571 0.000000
  1 1.139600 -10.383062 -2.040090 0.308702 -0.882105 -0.355802 0.228571 1.000000
end
