version 1
nodes
  0 "Bone01" -1
  1 "Bone_Lefthand" 0
  2 "Bone02" 1
  3 "Bone03" 2
  4 "Bone25" 3
  5 "Bone54" 3
  6 "Bone50" 3
  7 "Bone52" 3
  8 "Bone56" 3
  9 "Bone4" 1
  10 "Bone13" 9
  11 "Bone14" 10
  12 "Bone15" 11
  13 "Bone17" 9
  14 "Bone18" 13
  15 "Bone19" 14
  16 "Bone21" 9
  17 "Bone22" 16
  18 "Bone23" 17
  19 "Bone05" 9
  20 "Bone06" 19
  21 "Bone07" 20
  22 "Bone09" 9
  23 "Bone10" 22
  24 "Bone11" 23
  25 "Bone04" -1
  26 "Bone_Righthand" 25
  27 "Bone26" 26
  28 "Bone35" 27
  29 "Bone36" 28
  30 "Bone37" 29
  31 "Bone31" 27
  32 "Bone32" 31
  33 "Bone33" 32
  34 "Bone39" 27
  35 "Bone40" 34
  36 "Bone41" 35
  37 "Bone43" 27
  38 "Bone44" 37
  39 "Bone45" 38
  40 "Bone27" 27
  41 "Bone28" 40
  42 "Bone29" 41
end
skeleton
  time 0
    0 8.106567 3.165656 -8.096398 -0.539034 -1.241315 0.311552
    1 0.000000 -8.563284 0.000000 0.344690 -0.091140 -0.140417
    2 -0.627912 -3.172447 0.559143 -1.247038 1.437605 -1.233845
    3 0.000000 1.888487 0.974220 0.000000 0.000000 0.000000
    4 -0.013948 -2.603321 1.100493 0.209431 0.000000 0.000000
    5 -0.013949 -4.784637 0.650334 0.000000 0.000000 0.000000
    6 -0.013949 -3.609846 2.626635 0.000000 0.000000 0.000000
    7 -0.551583 -1.713881 2.571738 0.000000 0.000000 0.340339
    8 -0.666018 -4.704158 1.993687 0.000000 0.337298 0.000000
    9 -0.003480 -0.404828 0.000000 -0.000001 0.000000 0.000000
    10 -0.519309 -2.501155 -0.278957 -1.107358 -0.060907 -0.152582
    11 -0.010599 -1.208185 -0.000001 -1.179843 0.000000 0.000000
    12 -0.000001 -0.763065 0.000000 -1.228712 0.000000 0.000000
    13 0.105981 -2.607135 -0.278958 -0.873864 -0.036146 -0.178594
    14 0.000001 -1.250578 0.000000 -1.223476 0.000000 0.000000
    15 -0.000001 -0.932635 0.000000 -1.567306 0.000000 0.000000
    16 0.763064 -2.490555 -0.278958 -0.307169 0.000000 0.130900
    17 -0.012322 -1.280916 0.000000 -1.192052 0.000000 0.000000
    18 -0.001697 -0.749371 0.000001 -0.593412 0.000000 0.000000
    19 0.354566 0.016268 0.318133 0.458018 -0.443926 -1.167637
    20 1.887166 0.012878 0.000000 -0.304014 -0.029870 -0.496333
    21 1.001873 -0.000270 0.000000 0.000000 0.000000 -0.577704
    22 -1.123359 -2.195093 -0.278958 -1.174574 -0.118742 -0.146524
    23 0.010771 -0.963792 0.000000 -0.977385 0.000000 0.000000
    24 -0.010412 -0.631916 0.000000 -1.034980 0.000000 0.000000
    25 -0.590500 -9.566937 -10.627959 -0.822932 0.449913 0.466873
    26 0.089928 -8.543164 0.000000 0.682104 -0.551340 0.128920
    27 -0.000001 -0.359712 0.000000 0.000000 0.000000 0.000000
    28 -0.170479 -2.636146 -0.277655 -1.043783 -0.052696 0.090280
    29 0.010598 -1.261177 -0.000001 -0.473438 0.000000 0.000000
    30 0.000001 -0.943234 0.000001 -0.944915 0.000000 0.000000
    31 -0.827562 -2.508972 -0.277655 -0.649137 0.000000 0.000000
    32 0.000000 -1.292971 -0.000001 -0.710575 -0.058257 0.000120
    33 0.000000 -0.752466 0.000000 -0.777529 -0.248776 0.191909
    34 0.444213 -2.561960 -0.277655 -1.341941 0.037893 0.167997
    35 0.021024 -1.208187 0.000001 -0.304119 0.000000 0.000000
    36 0.010598 -0.741867 -0.000001 -0.721174 0.000000 0.000000
    37 1.047446 -2.222820 -0.277655 -1.356430 -0.069497 -0.040770
    38 0.000000 -0.996224 -0.000001 -1.199041 0.000000 0.000000
    39 0.000001 -0.614692 0.000001 -1.031490 0.000000 0.000000
    40 -0.308254 -0.007813 0.307166 -0.295078 -0.605319 -2.458747
    41 1.978377 0.019542 -0.000001 -0.101941 -0.023968 0.319700
    42 0.982424 0.003187 0.000000 0.000000 0.000000 0.541329
  time 1
    0 8.583144 3.403944 -9.819107 -0.962012 -1.108286 0.683238
    1 0.000000 -8.563284 0.000000 0.411092 0.000040 -0.290200
    2 -0.627912 -3.172447 0.559143 -1.247015 1.437605 -1.233821
    3 0.000000 1.888487 0.974220 0.000000 0.000000 0.000000
    4 -0.013948 -2.603321 1.100493 0.212786 0.000000 0.000000
    5 -0.013949 -4.784637 0.650334 0.000000 0.000000 0.000000
    6 -0.010043 -3.059048 2.630541 0.000000 0.000000 0.000000
    7 -0.551583 -1.713881 2.571738 0.000000 0.000000 0.340339
    8 -0.666018 -4.704158 1.993687 0.000000 -1.060424 0.000000
    9 -0.003480 -0.404828 0.000000 -0.000001 0.000000 0.000000
    10 -0.519309 -2.501155 -0.278957 -1.107358 -0.060907 -0.152582
    11 -0.010599 -1.208185 -0.000001 -1.179843 0.000000 0.000000
    12 -0.000001 -0.763065 0.000000 -1.228712 0.000000 0.000000
    13 0.105981 -2.607135 -0.278958 -0.873864 -0.036146 -0.178594
    14 0.000001 -1.250578 0.000000 -1.223476 0.000000 0.000000
    15 -0.000001 -0.932635 0.000000 -1.567306 0.000000 0.000000
    16 0.763064 -2.490555 -0.278958 -0.307169 0.000000 0.130900
    17 -0.012322 -1.280916 0.000000 -1.192052 0.000000 0.000000
    18 -0.001697 -0.749371 0.000001 -0.755719 0.000000 0.000000
    19 0.354566 0.016268 0.318133 0.458018 -0.443926 -1.167637
    20 1.887166 0.012878 0.000000 -0.304014 -0.029870 -0.496333
    21 1.001873 -0.000270 0.000000 0.000000 0.000000 -0.577704
    22 -1.123359 -2.195093 -0.278958 -1.174574 -0.118742 -0.146524
    23 0.010771 -0.963792 0.000000 -0.977385 0.000000 0.000000
    24 -0.010412 -0.631916 0.000000 -1.034980 0.000000 0.000000
    25 -0.625658 -9.895072 -10.452172 -0.778568 0.452242 -5.596595
    26 0.089928 -8.543164 0.000000 0.615177 -0.466095 -0.055048
    27 -0.000001 -0.359712 0.000000 0.000000 0.000000 0.000000
    28 -0.170479 -2.636146 -0.277655 -1.050945 -0.053679 0.089693
    29 0.010598 -1.261177 -0.000001 -0.473438 0.000000 0.000000
    30 0.000001 -0.943234 0.000001 -0.945690 0.000000 0.000000
    31 -0.827562 -2.508972 -0.277655 -0.649137 0.000000 0.000000
    32 0.000000 -1.292971 -0.000001 -0.710575 -0.058257 0.000120
    33 0.000000 -0.752466 0.000000 -0.777529 -0.248776 0.191909
    34 0.444213 -2.561960 -0.277655 -1.339091 0.024830 0.164977
    35 0.021024 -1.208187 0.000001 -0.304726 0.000000 0.000000
    36 0.010598 -0.741867 -0.000001 -0.721174 0.000000 0.000000
    37 1.047446 -2.222820 -0.277655 -1.356430 -0.069497 -0.040770
    38 0.000000 -0.996224 -0.000001 -1.199041 0.000000 0.000000
    39 0.000001 -0.614692 0.000001 -1.031490 0.000000 0.000000
    40 -0.308254 -0.007813 0.307166 -0.257602 -0.604991 -2.460359
    41 1.978377 0.019542 -0.000001 -0.103189 -0.018263 0.380347
    42 0.982424 0.003187 0.000000 0.000000 0.000000 0.490128
  time 2
    0 8.426889 2.939086 -9.229245 -0.956065 -1.114491 0.671575
    1 0.000000 -8.563284 0.000000 0.411679 0.004735 -0.295210
    2 -0.627912 -3.172447 0.559143 -1.247015 1.437605 -1.233821
    3 0.000000 1.888487 0.974220 0.000000 0.000000 0.000000
    4 -0.013948 -2.603321 1.100493 0.219486 0.000000 0.000000
    5 -0.013949 -4.784637 0.650334 0.000000 0.000000 0.000000
    6 0.001676 -1.402748 2.650073 0.000000 0.000000 0.000000
    7 -0.551583 -1.713881 2.571738 0.000000 0.000000 0.340339
    8 -0.666018 -4.704158 1.993687 0.000000 2.758154 0.000000
    9 -0.003480 -0.404828 0.000000 -0.000001 0.000000 0.000000
    10 -0.519309 -2.501155 -0.278957 -1.107358 -0.060907 -0.152582
    11 -0.010599 -1.208185 -0.000001 -1.179843 0.000000 0.000000
    12 -0.000001 -0.763065 0.000000 -1.228712 0.000000 0.000000
    13 0.105981 -2.607135 -0.278958 -0.873864 -0.036146 -0.178594
    14 0.000001 -1.250578 0.000000 -1.223476 0.000000 0.000000
    15 -0.000001 -0.932635 0.000000 -1.567306 0.000000 0.000000
    16 0.763064 -2.490555 -0.278958 -0.309889 0.000000 0.130900
    17 -0.012322 -1.280916 0.000000 -1.203120 0.000000 0.000000
    18 -0.001697 -0.749371 0.000001 -0.777759 0.000000 0.000000
    19 0.354566 0.016268 0.318133 0.458018 -0.443926 -1.167637
    20 1.887166 0.012878 0.000000 -0.304014 -0.029870 -0.496333
    21 1.001873 -0.000270 0.000000 0.000000 0.000000 -0.577704
    22 -1.123359 -2.195093 -0.278958 -1.174574 -0.118742 -0.146524
    23 0.010771 -0.963792 0.000000 -0.977385 0.000000 0.000000
    24 -0.010412 -0.631916 0.000000 -1.034980 0.000000 0.000000
    25 -0.758474 -10.262271 -10.084974 -0.782110 0.452428 -5.614192
    26 0.089928 -8.543164 0.000000 0.626861 -0.466248 -0.061247
    27 -0.000001 -0.359712 0.000000 0.000000 0.000000 0.000000
    28 -0.170479 -2.636146 -0.277655 -1.058438 -0.055632 0.088518
    29 0.010598 -1.261177 -0.000001 -0.473438 0.000000 0.000000
    30 0.000001 -0.943234 0.000001 -0.947500 0.000000 0.000000
    31 -0.827562 -2.508972 -0.277655 -0.649137 0.000000 0.000000
    32 0.000000 -1.292971 -0.000001 -0.710575 -0.058257 0.000120
    33 0.000000 -0.752466 0.000000 -0.777529 -0.248776 0.191909
    34 0.444213 -2.561960 -0.277655 -1.336188 0.011779 0.161909
    35 0.021024 -1.208187 0.000001 -0.306159 0.000000 0.000000
    36 0.010598 -0.741867 -0.000001 -0.721174 0.000000 0.000000
    37 1.047446 -2.222820 -0.277655 -1.356430 -0.069497 -0.040770
    38 0.000000 -0.996224 -0.000001 -1.199041 0.000000 0.000000
    39 0.000001 -0.614692 0.000001 -1.031490 0.000000 0.000000
    40 -0.308254 -0.007813 0.307166 -0.217334 -0.604239 -2.463561
    41 1.978377 0.019542 -0.000001 -0.104176 -0.012619 0.444886
    42 0.982424 0.003187 0.000000 0.000000 0.000000 0.435895
  time 3
    0 8.317511 2.603139 -8.807358 -0.888735 -1.148306 0.608082
    1 0.000000 -8.563284 0.000000 0.403524 -0.005187 -0.277437
    2 -0.627912 -3.172447 0.559143 -1.247015 1.437605 -1.233821
    3 0.000000 1.888487 0.974220 0.000000 0.000000 0.000000
    4 -0.013948 -2.603321 1.100493 0.224507 0.000000 0.000000
    5 -0.013949 -4.784637 0.650334 0.000000 0.000000 0.000000
    6 0.001676 -1.648849 2.646167 0.000000 0.000000 0.000000
    7 -0.551583 -1.713881 2.571738 0.000000 0.000000 0.340339
    8 -0.666018 -4.704158 1.993687 0.000000 -1.872252 0.000000
    9 -0.003480 -0.404828 0.000000 -0.000001 0.000000 0.000000
    10 -0.519309 -2.501155 -0.278957 -1.107358 -0.060907 -0.152582
    11 -0.010599 -1.208185 -0.000001 -1.179843 0.000000 0.000000
    12 -0.000001 -0.763065 0.000000 -1.228712 0.000000 0.000000
    13 0.105981 -2.607135 -0.278958 -0.873864 -0.036146 -0.178594
    14 0.000001 -1.250578 0.000000 -1.223476 0.000000 0.000000
    15 -0.000001 -0.932635 0.000000 -1.567306 0.000000 0.000000
    16 0.763064 -2.490555 -0.278958 -0.312598 0.000000 0.130900
    17 -0.012322 -1.280916 0.000000 -1.214189 0.000000 0.000000
    18 -0.001697 -0.749371 0.000001 -0.772749 0.000000 0.000000
    19 0.354566 0.016268 0.318133 0.458018 -0.443926 -1.167637
    20 1.887166 0.012878 0.000000 -0.304014 -0.029870 -0.496333
    21 1.001873 -0.000270 0.000000 0.000000 0.000000 -0.577704
    22 -1.123359 -2.195093 -0.278958 -1.174574 -0.118742 -0.146524
    23 0.010771 -0.963792 0.000000 -0.977385 0.000000 0.000000
    24 -0.010412 -0.631916 0.000000 -1.034980 0.000000 0.000000
    25 -0.961605 -10.543529 -10.116225 -0.789460 0.452521 0.632418
    26 0.089928 -8.543164 0.000000 0.644828 -0.471458 -0.055693
    27 -0.000001 -0.359712 0.000000 0.000000 0.000000 0.000000
    28 -0.170479 -2.636146 -0.277655 -1.065710 -0.057107 0.087667
    29 0.010598 -1.261177 -0.000001 -0.473438 0.000000 0.000000
    30 0.000001 -0.943234 0.000001 -0.949752 0.000000 0.000000
    31 -0.827562 -2.508972 -0.277655 -0.649137 0.000000 0.000000
    32 0.000000 -1.292971 -0.000001 -0.710575 -0.058257 0.000120
    33 0.000000 -0.752466 0.000000 -0.777529 -0.248776 0.191909
    34 0.444213 -2.561960 -0.277655 -1.335185 0.002407 0.160183
    35 0.021024 -1.208187 0.000001 -0.307922 0.000000 0.000000
    36 0.010598 -0.741867 -0.000001 -0.721174 0.000000 0.000000
    37 1.047446 -2.222820 -0.277655 -1.356430 -0.069497 -0.040770
    38 0.000000 -0.996224 -0.000001 -1.199041 0.000000 0.000000
    39 0.000001 -0.614692 0.000001 -1.031490 0.000000 0.000000
    40 -0.308254 -0.007813 0.307166 -0.178492 -0.603582 -2.465946
    41 1.978377 0.019542 -0.000001 -0.104756 -0.006854 0.507494
    42 0.982424 0.003187 0.000000 0.000000 0.000000 0.383164
  time 4
    0 8.251102 2.403914 -8.557350 -0.793385 -1.185259 0.520259
    1 0.000000 -8.563284 0.000000 0.390659 -0.022417 -0.248398
    2 -0.627912 -3.172447 0.559143 -1.247015 1.437605 -1.233821
    3 0.000000 1.888487 0.974220 0.000000 0.000000 0.000000
    4 -0.013948 -2.603321 1.100493 0.222841 0.000000 0.000000
    5 -0.013949 -4.784637 0.650334 0.000000 0.000000 0.000000
    6 -0.006136 -2.383246 2.638354 0.000000 0.000000 0.000000
    7 -0.551583 -1.713881 2.571738 0.000000 0.000000 0.340339
    8 -0.666018 -4.704158 1.993687 0.000000 -0.245271 0.000000
    9 -0.003480 -0.404828 0.000000 -0.000001 0.000000 0.000000
    10 -0.519309 -2.501155 -0.278957 -1.107358 -0.060907 -0.152582
    11 -0.010599 -1.208185 -0.000001 -1.179843 0.000000 0.000000
    12 -0.000001 -0.763065 0.000000 -1.228712 0.000000 0.000000
    13 0.105981 -2.607135 -0.278958 -0.873864 -0.036146 -0.178594
    14 0.000001 -1.250578 0.000000 -1.223476 0.000000 0.000000
    15 -0.000001 -0.932635 0.000000 -1.567306 0.000000 0.000000
    16 0.763064 -2.490555 -0.278958 -0.307169 0.000000 0.130900
    17 -0.012322 -1.280916 0.000000 -1.192052 0.000000 0.000000
    18 -0.001697 -0.749371 0.000001 -0.755719 0.000000 0.000000
    19 0.354566 0.016268 0.318133 0.458018 -0.443926 -1.167637
    20 1.887166 0.012878 0.000000 -0.304014 -0.029870 -0.496333
    21 1.001873 -0.000270 0.000000 0.000000 0.000000 -0.577704
    22 -1.123359 -2.195093 -0.278958 -1.174574 -0.118742 -0.146524
    23 0.010771 -0.963792 0.000000 -0.977385 0.000000 0.000000
    24 -0.010412 -0.631916 0.000000 -1.034980 0.000000 0.000000
    25 -1.008482 -10.656814 -10.420921 -0.799289 0.452242 0.584314
    26 0.089928 -8.543164 0.000000 0.666886 -0.480559 -0.042165
    27 -0.000001 -0.359712 0.000000 0.000000 0.000000 0.000000
    28 -0.170479 -2.636146 -0.277655 -1.072376 -0.056627 0.087967
    29 0.010598 -1.261177 -0.000001 -0.473438 0.000000 0.000000
    30 0.000001 -0.943234 0.000001 -0.951783 0.000000 0.000000
    31 -0.827562 -2.508972 -0.277655 -0.649137 0.000000 0.000000
    32 0.000000 -1.292971 -0.000001 -0.710575 -0.058257 0.000120
    33 0.000000 -0.752466 0.000000 -0.777529 -0.248776 0.191909
    34 0.444213 -2.561960 -0.277655 -1.334869 -0.005107 0.160914
    35 0.021024 -1.208187 0.000001 -0.309521 0.000000 0.000000
    36 0.010598 -0.741867 -0.000001 -0.721174 0.000000 0.000000
    37 1.047446 -2.222820 -0.277655 -1.356430 -0.069497 -0.040770
    38 0.000000 -0.996224 -0.000001 -1.199041 0.000000 0.000000
    39 0.000001 -0.614692 0.000001 -1.031490 0.000000 0.000000
    40 -0.308254 -0.007813 0.307166 -0.145223 -0.603691 -2.465108
    41 1.978377 0.019542 -0.000001 -0.104902 -0.000826 0.562288
    42 0.982424 0.003187 0.000000 0.000000 0.000000 0.336497
  time 5
    0 8.231570 2.337506 -8.471410 -0.727920 -1.205339 0.460242
    1 0.000000 -8.563284 0.000000 0.377374 -0.039869 -0.219731
    2 -0.627912 -3.172447 0.559143 -1.247015 1.437605 -1.233821
    3 0.000000 1.888487 0.974220 0.000000 0.000000 0.000000
    4 -0.013948 -2.603321 1.100493 0.209431 0.000000 0.000000
    5 -0.013949 -4.784637 0.650334 0.000000 0.000000 0.000000
    6 -0.013949 -3.609846 2.626635 0.000000 0.000000 0.000000
    7 -0.551583 -1.713881 2.571738 0.000000 0.000000 0.340339
    8 -0.666018 -4.704158 1.993687 0.000000 0.337298 0.000000
    9 -0.003480 -0.404828 0.000000 -0.000001 0.000000 0.000000
    10 -0.519309 -2.501155 -0.278957 -1.107358 -0.060907 -0.152582
    11 -0.010599 -1.208185 -0.000001 -1.179843 0.000000 0.000000
    12 -0.000001 -0.763065 0.000000 -1.228712 0.000000 0.000000
    13 0.105981 -2.607135 -0.278958 -0.873864 -0.036146 -0.178594
    14 0.000001 -1.250578 0.000000 -1.223476 0.000000 0.000000
    15 -0.000001 -0.932635 0.000000 -1.567306 0.000000 0.000000
    16 0.763064 -2.490555 -0.278958 -0.291133 0.000000 0.130900
    17 -0.012322 -1.280916 0.000000 -1.126573 0.000000 0.000000
    18 -0.001697 -0.749371 0.000001 -0.732038 0.000000 0.000000
    19 0.354566 0.016268 0.318133 0.458018 -0.443926 -1.167637
    20 1.887166 0.012878 0.000000 -0.304014 -0.029870 -0.496333
    21 1.001873 -0.000270 0.000000 0.000000 0.000000 -0.577704
    22 -1.123359 -2.195093 -0.278958 -1.174574 -0.118742 -0.146524
    23 0.010771 -0.963792 0.000000 -0.977385 0.000000 0.000000
    24 -0.010412 -0.631916 0.000000 -1.034980 0.000000 0.000000
    25 -0.918635 -10.484934 -10.577176 -0.809826 0.451496 0.531810
    26 0.089928 -8.543164 0.000000 0.690744 -0.492319 -0.024408
    27 -0.000001 -0.359712 0.000000 0.000000 0.000000 0.000000
    28 -0.170479 -2.636146 -0.277655 -1.077885 -0.052696 0.090280
    29 0.010598 -1.261177 -0.000001 -0.473438 0.000000 0.000000
    30 0.000001 -0.943234 0.000001 -0.952965 0.000000 0.000000
    31 -0.827562 -2.508972 -0.277655 -0.649137 0.000000 0.000000
    32 0.000000 -1.292971 -0.000001 -0.710575 -0.058257 0.000120
    33 0.000000 -0.752466 0.000000 -0.777529 -0.248776 0.191909
    34 0.444213 -2.561960 -0.277655 -1.336452 -0.008942 0.163012
    35 0.021024 -1.208187 0.000001 -0.310458 0.000000 0.000000
    36 0.010598 -0.741867 -0.000001 -0.721174 0.000000 0.000000
    37 1.047446 -2.222820 -0.277655 -1.356430 -0.069497 -0.040770
    38 0.000000 -0.996224 -0.000001 -1.199041 0.000000 0.000000
    39 0.000001 -0.614692 0.000001 -1.031490 0.000000 0.000000
    40 -0.308254 -0.007813 0.307166 -0.121673 -0.605319 -2.458747
    41 1.978377 0.019542 -0.000001 -0.104553 0.005634 0.603446
    42 0.982424 0.003187 0.000000 0.000000 0.000000 0.300399
  time 6
    0 8.243290 2.446884 -8.526099 -0.710029 -1.210045 0.444485
    1 0.000000 -8.563284 0.000000 0.368708 -0.050943 -0.203396
    2 -0.627912 -3.172447 0.559143 -1.247015 1.437605 -1.233821
    3 0.000000 1.888487 0.974220 0.000000 0.000000 0.000000
    4 -0.013948 -2.615040 1.100493 0.174244 0.000000 0.000000
    5 -0.013949 -4.784637 0.650334 0.000000 0.000000 0.000000
    6 -0.013949 -3.609846 2.626635 0.000000 0.000000 0.000000
    7 -0.551583 -1.713881 2.571738 0.000000 0.000000 0.340339
    8 -0.666018 -4.704158 1.993687 0.000000 0.337298 0.000000
    9 -0.003480 -0.404828 0.000000 -0.000001 0.000000 0.000000
    10 -0.519309 -2.501155 -0.278957 -1.107358 -0.060907 -0.152582
    11 -0.010599 -1.208185 -0.000001 -1.179843 0.000000 0.000000
    12 -0.000001 -0.763065 0.000000 -1.228712 0.000000 0.000000
    13 0.105981 -2.607135 -0.278958 -0.873864 -0.036146 -0.178594
    14 0.000001 -1.250578 0.000000 -1.223476 0.000000 0.000000
    15 -0.000001 -0.932635 0.000000 -1.567306 0.000000 0.000000
    16 0.763064 -2.490555 -0.278958 -0.269681 0.000000 0.130900
    17 -0.012322 -1.280916 0.000000 -1.038938 0.000000 0.000000
    18 -0.001697 -0.749371 0.000001 -0.700386 0.000000 0.000000
    19 0.354566 0.016268 0.318133 0.458018 -0.443926 -1.167637
    20 1.887166 0.012878 0.000000 -0.304014 -0.029870 -0.496333
    21 1.001873 -0.000270 0.000000 0.000000 0.000000 -0.577704
    22 -1.123359 -2.195093 -0.278958 -1.174574 -0.118742 -0.146524
    23 0.010771 -0.963792 0.000000 -0.977385 0.000000 0.000000
    24 -0.010412 -0.631916 0.000000 -1.034980 0.000000 0.000000
    25 -0.781912 -10.156799 -10.577176 -0.819744 0.450379 0.482462
    26 0.089928 -8.543164 0.000000 0.714210 -0.505244 -0.006134
    27 -0.000001 -0.359712 0.000000 0.000000 0.000000 0.000000
    28 -0.170479 -2.636146 -0.277655 -1.080530 -0.037212 0.099268
    29 0.010598 -1.261177 -0.000001 -0.473438 0.000000 0.000000
    30 0.000001 -0.943234 0.000001 -0.952633 0.000000 0.000000
    31 -0.827562 -2.508972 -0.277655 -0.649137 0.000000 0.000000
    32 0.000000 -1.292971 -0.000001 -0.710575 -0.058257 0.000120
    33 0.000000 -0.752466 0.000000 -0.777529 -0.248776 0.191909
    34 0.444213 -2.561960 -0.277655 -1.345266 0.000082 0.164594
    35 0.021024 -1.208187 0.000001 -0.310201 0.000000 0.000000
    36 0.010598 -0.741867 -0.000001 -0.721174 0.000000 0.000000
    37 1.047446 -2.222820 -0.277655 -1.356430 -0.069497 -0.040770
    38 0.000000 -0.996224 -0.000001 -1.199041 0.000000 0.000000
    39 0.000001 -0.614692 0.000001 -1.031490 0.000000 0.000000
    40 -0.308254 -0.007813 0.307166 -0.120571 -0.610314 -2.433629
    41 1.978377 0.019542 -0.000001 -0.103392 0.016024 0.614031
    42 0.982424 0.003187 0.000000 0.000000 0.000000 0.286942
  time 7
    0 8.255009 2.548450 -8.576882 -0.703226 -1.211614 0.439155
    1 0.000000 -8.563284 0.000000 0.365046 -0.055682 -0.199201
    2 -0.627912 -3.172447 0.559143 -1.247015 1.437605 -1.233821
    3 0.000000 1.888487 0.974220 0.000000 0.000000 0.000000
    4 -0.013948 -2.646291 1.100493 0.120637 0.000000 0.000000
    5 -0.013949 -4.784637 0.650334 0.000000 0.000000 0.000000
    6 -0.013949 -3.609846 2.626635 0.000000 0.000000 0.000000
    7 -0.551583 -1.713881 2.571738 0.000000 0.000000 0.340339
    8 -0.666018 -4.704158 1.993687 0.000000 0.337298 0.000000
    9 -0.003480 -0.404828 0.000000 -0.000001 0.000000 0.000000
    10 -0.519309 -2.501155 -0.278957 -1.107358 -0.060907 -0.152582
    11 -0.010599 -1.208185 -0.000001 -1.179843 0.000000 0.000000
    12 -0.000001 -0.763065 0.000000 -1.228712 0.000000 0.000000
    13 0.105981 -2.607135 -0.278958 -0.873864 -0.036146 -0.178594
    14 0.000001 -1.250578 0.000000 -1.223476 0.000000 0.000000
    15 -0.000001 -0.932635 0.000000 -1.567306 0.000000 0.000000
    16 0.763064 -2.490555 -0.278958 -0.246203 0.000000 0.130900
    17 -0.012322 -1.280916 0.000000 -0.943015 0.000000 0.000000
    18 -0.001697 -0.749371 0.000001 -0.665715 0.000000 0.000000
    19 0.354566 0.016268 0.318133 0.458018 -0.443926 -1.167637
    20 1.887166 0.012878 0.000000 -0.304014 -0.029870 -0.496333
    21 1.001873 -0.000270 0.000000 0.000000 0.000000 -0.577704
    22 -1.123359 -2.195093 -0.278958 -1.174574 -0.118742 -0.146524
    23 0.010771 -0.963792 0.000000 -0.977385 0.000000 0.000000
    24 -0.010412 -0.631916 0.000000 -1.034980 0.000000 0.000000
    25 -0.649096 -9.918510 -10.588895 -0.827625 0.449168 0.443347
    26 0.089928 -8.543164 0.000000 0.735155 -0.517708 0.009041
    27 -0.000001 -0.359712 0.000000 0.000000 0.000000 0.000000
    28 -0.170479 -2.636146 -0.277655 -1.080530 -0.014885 0.112236
    29 0.010598 -1.261177 -0.000001 -0.473438 0.000000 0.000000
    30 0.000001 -0.943234 0.000001 -0.950158 0.000000 0.000000
    31 -0.827562 -2.508972 -0.277655 -0.649137 0.000000 0.000000
    32 0.000000 -1.292971 -0.000001 -0.710575 -0.058257 0.000120
    33 0.000000 -0.752466 0.000000 -0.777529 -0.248776 0.191909
    34 0.444213 -2.561960 -0.277655 -1.378937 0.049686 0.163132
    35 0.021024 -1.208187 0.000001 -0.308272 0.000000 0.000000
    36 0.010598 -0.741867 -0.000001 -0.721174 0.000000 0.000000
    37 1.047446 -2.222820 -0.277655 -1.356430 -0.069497 -0.040770
    38 0.000000 -0.996224 -0.000001 -1.199041 0.000000 0.000000
    39 0.000001 -0.614692 0.000001 -1.031490 0.000000 0.000000
    40 -0.308254 -0.007813 0.307166 -0.139159 -0.617781 -2.397209
    41 1.978377 0.019542 -0.000001 -0.102144 0.027302 0.597593
    42 0.982424 0.003187 0.000000 0.000000 0.000000 0.294479
  time 8
    0 8.262821 2.638296 -8.619852 -0.705846 -1.210637 0.442631
    1 0.000000 -8.563284 0.000000 0.362991 -0.058539 -0.198422
    2 -0.627912 -3.172447 0.559143 -1.247015 1.437605 -1.233821
    3 0.000000 1.888487 0.974220 0.000000 0.000000 0.000000
    4 -0.013948 -2.681448 1.100493 0.063662 0.000000 0.000000
    5 -0.013949 -4.784637 0.650334 0.000000 0.000000 0.000000
    6 -0.013949 -3.609846 2.626635 0.000000 0.000000 0.000000
    7 -0.551583 -1.713881 2.571738 0.000000 0.000000 0.340339
    8 -0.666018 -4.704158 1.993687 0.000000 0.337298 0.000000
    9 -0.003480 -0.404828 0.000000 -0.000001 0.000000 0.000000
    10 -0.519309 -2.501155 -0.278957 -1.107358 -0.060907 -0.152582
    11 -0.010599 -1.208185 -0.000001 -1.179843 0.000000 0.000000
    12 -0.000001 -0.763065 0.000000 -1.228712 0.000000 0.000000
    13 0.105981 -2.607135 -0.278958 -0.873864 -0.036146 -0.178594
    14 0.000001 -1.250578 0.000000 -1.223476 0.000000 0.000000
    15 -0.000001 -0.932635 0.000000 -1.567306 0.000000 0.000000
    16 0.763064 -2.490555 -0.278958 -0.224055 0.000000 0.130900
    17 -0.012322 -1.280916 0.000000 -0.852636 0.000000 0.000000
    18 -0.001697 -0.749371 0.000001 -0.633021 0.000000 0.000000
    19 0.354566 0.016268 0.318133 0.458018 -0.443926 -1.167637
    20 1.887166 0.012878 0.000000 -0.304014 -0.029870 -0.496333
    21 1.001873 -0.000270 0.000000 0.000000 0.000000 -0.577704
    22 -1.123359 -2.195093 -0.278958 -1.174574 -0.118742 -0.146524
    23 0.010771 -0.963792 0.000000 -0.977385 0.000000 0.000000
    24 -0.010412 -0.631916 0.000000 -1.034980 0.000000 0.000000
    25 -0.543624 -9.742723 -10.588895 -0.831876 0.448329 0.421925
    26 0.089928 -8.543164 0.000000 0.751584 -0.527841 0.017532
    27 -0.000001 -0.359712 0.000000 0.000000 0.000000 0.000000
    28 -0.170479 -2.636146 -0.277655 -1.080860 -0.003511 0.118863
    29 0.010598 -1.261177 -0.000001 -0.473438 0.000000 0.000000
    30 0.000001 -0.943234 0.000001 -0.944915 0.000000 0.000000
    31 -0.827562 -2.508972 -0.277655 -0.649137 0.000000 0.000000
    32 0.000000 -1.292971 -0.000001 -0.710575 -0.058257 0.000120
    33 0.000000 -0.752466 0.000000 -0.777529 -0.248776 0.191909
    34 0.444213 -2.561960 -0.277655 -1.406328 0.094772 0.160243
    35 0.021024 -1.208187 0.000001 -0.304119 0.000000 0.000000
    36 0.010598 -0.741867 -0.000001 -0.721174 0.000000 0.000000
    37 1.047446 -2.222820 -0.277655 -1.356430 -0.069497 -0.040770
    38 0.000000 -0.996224 -0.000001 -1.199041 0.000000 0.000000
    39 0.000001 -0.614692 0.000001 -1.031490 0.000000 0.000000
    40 -0.308254 -0.007813 0.307166 -0.157747 -0.625343 -2.378558
    41 1.978377 0.019542 -0.000001 -0.101999 0.029699 0.578976
    42 0.982424 0.003187 0.000000 0.000000 0.000000 0.306926
  time 9
    0 8.270634 2.720330 -8.662822 -0.715674 -1.207639 0.452981
    1 0.000000 -8.563284 0.000000 0.362264 -0.059846 -0.200412
    2 -0.627912 -3.172447 0.559143 -1.247015 1.437605 -1.233821
    3 0.000000 1.888487 0.974220 0.000000 0.000000 0.000000
    4 -0.013948 -2.708793 1.100493 0.018420 0.000000 0.000000
    5 -0.013949 -4.784637 0.650334 0.000000 0.000000 0.000000
    6 -0.013949 -3.609846 2.626635 0.000000 0.000000 0.000000
    7 -0.551583 -1.713881 2.571738 0.000000 0.000000 0.340339
    8 -0.666018 -4.704158 1.993687 0.000000 0.337298 0.000000
    9 -0.003480 -0.404828 0.000000 -0.000001 0.000000 0.000000
    10 -0.519309 -2.501155 -0.278957 -1.107358 -0.060907 -0.152582
    11 -0.010599 -1.208185 -0.000001 -1.179843 0.000000 0.000000
    12 -0.000001 -0.763065 0.000000 -1.228712 0.000000 0.000000
    13 0.105981 -2.607135 -0.278958 -0.873864 -0.036146 -0.178594
    14 0.000001 -1.250578 0.000000 -1.223476 0.000000 0.000000
    15 -0.000001 -0.932635 0.000000 -1.567306 0.000000 0.000000
    16 0.763064 -2.490555 -0.278958 -0.206606 0.000000 0.130900
    17 -0.012322 -1.280916 0.000000 -0.781652 0.000000 0.000000
    18 -0.001697 -0.749371 0.000001 -0.607254 0.000000 0.000000
    19 0.354566 0.016268 0.318133 0.458018 -0.443926 -1.167637
    20 1.887166 0.012878 0.000000 -0.304014 -0.029870 -0.496333
    21 1.001873 -0.000270 0.000000 0.000000 0.000000 -0.577704
    22 -1.123359 -2.195093 -0.278958 -1.174574 -0.118742 -0.146524
    23 0.010771 -0.963792 0.000000 -0.977385 0.000000 0.000000
    24 -0.010412 -0.631916 0.000000 -1.034980 0.000000 0.000000
    25 -0.492841 -9.609907 -10.549832 -0.833027 0.448143 0.415900
    26 0.089928 -8.543164 0.000000 0.762974 -0.536766 0.017791
    27 -0.000001 -0.359712 0.000000 0.000000 0.000000 0.000000
    28 -0.170479 -2.636146 -0.277655 -1.082513 -0.005093 0.117964
    29 0.010598 -1.261177 -0.000001 -0.473438 0.000000 0.000000
    30 0.000001 -0.943234 0.000001 -0.930476 0.000276 0.000228
    31 -0.827562 -2.508972 -0.277655 -0.649137 0.000000 0.000000
    32 0.000000 -1.292971 -0.000001 -0.710616 -0.058257 0.000120
    33 0.000000 -0.752466 0.000000 -0.777529 -0.248776 0.191909
    34 0.444213 -2.561960 -0.277655 -1.404956 0.101640 0.160423
    35 0.021024 -1.208187 0.000001 -0.296733 0.000240 0.000899
    36 0.010598 -0.741867 -0.000001 -0.721174 0.000000 0.000000
    37 1.047446 -2.222820 -0.277655 -1.356430 -0.069497 -0.040770
    38 0.000000 -0.996224 -0.000001 -1.199041 0.000000 0.000000
    39 0.000001 -0.614692 0.000001 -1.031490 0.000000 0.000000
    40 -0.308254 -0.007813 0.307166 -0.169995 -0.633468 -2.380621
    41 1.978377 0.019542 -0.000001 -0.102637 0.023539 0.567207
    42 0.982424 0.003187 0.000000 0.000000 0.000000 0.316657
  time 10
    0 8.278447 2.790644 -8.697979 -0.730389 -1.203142 0.467966
    1 0.000000 -8.563284 0.000000 0.362608 -0.059957 -0.204511
    2 -0.627912 -3.172447 0.559143 -1.247015 1.437605 -1.233821
    3 0.000000 1.888487 0.974220 0.000000 0.000000 0.000000
    4 -0.013948 -2.720512 1.100493 0.000000 0.000000 0.000000
    5 -0.013949 -4.784637 0.650334 0.000000 0.000000 0.000000
    6 -0.013949 -3.609846 2.626635 0.000000 0.000000 0.000000
    7 -0.551583 -1.713881 2.571738 0.000000 0.000000 0.340339
    8 -0.666018 -4.704158 1.993687 0.000000 0.337298 0.000000
    9 -0.003480 -0.404828 0.000000 -0.000001 0.000000 0.000000
    10 -0.519309 -2.501155 -0.278957 -1.107358 -0.060907 -0.152582
    11 -0.010599 -1.208185 -0.000001 -1.179843 0.000000 0.000000
    12 -0.000001 -0.763065 0.000000 -1.228712 0.000000 0.000000
    13 0.105981 -2.607135 -0.278958 -0.873864 -0.036146 -0.178594
    14 0.000001 -1.250578 0.000000 -1.223476 0.000000 0.000000
    15 -0.000001 -0.932635 0.000000 -1.567306 0.000000 0.000000
    16 0.763064 -2.490555 -0.278958 -0.197222 0.000000 0.130900
    17 -0.012322 -1.280916 0.000000 -0.743930 0.000000 0.000000
    18 -0.001697 -0.749371 0.000001 -0.593412 0.000000 0.000000
    19 0.354566 0.016268 0.318133 0.458018 -0.443926 -1.167637
    20 1.887166 0.012878 0.000000 -0.304014 -0.029870 -0.496333
    21 1.001873 -0.000270 0.000000 0.000000 0.000000 -0.577704
    22 -1.123359 -2.195093 -0.278958 -1.174574 -0.118742 -0.146524
    23 0.010771 -0.963792 0.000000 -0.977385 0.000000 0.000000
    24 -0.010412 -0.631916 0.000000 -1.034980 0.000000 0.000000
    25 -0.481122 -9.523967 -10.487330 -0.832761 0.448236 0.417526
    26 0.089928 -8.543164 0.000000 0.770632 -0.545888 0.012625
    27 -0.000001 -0.359712 0.000000 0.000000 0.000000 0.000000
    28 -0.170479 -2.636146 -0.277655 -1.084331 -0.009372 0.115519
    29 0.010598 -1.261177 -0.000001 -0.473438 0.000000 0.000000
    30 0.000001 -0.943234 0.000001 -0.906400 0.000743 0.000623
    31 -0.827562 -2.508972 -0.277655 -0.649137 0.000000 0.000000
    32 0.000000 -1.292971 -0.000001 -0.710575 -0.058257 0.000120
    33 0.000000 -0.752466 0.000000 -0.777529 -0.248776 0.191909
    34 0.444213 -2.561960 -0.277655 -1.399097 0.103881 0.161142
    35 0.021024 -1.208187 0.000001 -0.286113 0.000779 0.003008
    36 0.010598 -0.741867 -0.000001 -0.721174 0.000000 0.000000
    37 1.047446 -2.222820 -0.277655 -1.356430 -0.069497 -0.040770
    38 0.000000 -0.996224 -0.000001 -1.199041 0.000000 0.000000
    39 0.000001 -0.614692 0.000001 -1.031490 0.000000 0.000000
    40 -0.308254 -0.007813 0.307166 -0.182974 -0.642986 -2.386014
    41 1.978377 0.019542 -0.000001 -0.103305 0.015857 0.554879
    42 0.982424 0.003187 0.000000 0.000000 0.000000 0.326563
  time 11
    0 8.286260 2.853146 -8.729230 -0.747726 -1.197634 0.485423
    1 0.000000 -8.563284 0.000000 0.363744 -0.059182 -0.210047
    2 -0.627912 -3.172447 0.559143 -1.247015 1.437605 -1.233821
    3 0.000000 1.888487 0.974220 0.000000 0.000000 0.000000
    4 -0.013948 -2.720512 1.100493 0.001019 0.000000 0.000000
    5 -0.013949 -4.784637 0.650334 0.000000 0.000000 0.000000
    6 -0.013949 -3.609846 2.626635 0.000000 0.000000 0.000000
    7 -0.551583 -1.713881 2.571738 0.000000 0.000000 0.340339
    8 -0.666018 -4.704158 1.993687 0.000000 0.337298 0.000000
    9 -0.003480 -0.404828 0.000000 -0.000001 0.000000 0.000000
    10 -0.519309 -2.501155 -0.278957 -1.107358 -0.060907 -0.152582
    11 -0.010599 -1.208185 -0.000001 -1.179843 0.000000 0.000000
    12 -0.000001 -0.763065 0.000000 -1.228712 0.000000 0.000000
    13 0.105981 -2.607135 -0.278958 -0.873864 -0.036146 -0.178594
    14 0.000001 -1.250578 0.000000 -1.223476 0.000000 0.000000
    15 -0.000001 -0.932635 0.000000 -1.567306 0.000000 0.000000
    16 0.763064 -2.490555 -0.278958 -0.193411 0.000000 0.130900
    17 -0.012322 -1.280916 0.000000 -0.729147 0.000000 0.000000
    18 -0.001697 -0.749371 0.000001 -0.587779 0.000000 0.000000
    19 0.354566 0.016268 0.318133 0.458018 -0.443926 -1.167637
    20 1.887166 0.012878 0.000000 -0.304014 -0.029870 -0.496333
    21 1.001873 -0.000270 0.000000 0.000000 0.000000 -0.577704
    22 -1.123359 -2.195093 -0.278958 -1.174574 -0.118742 -0.146524
    23 0.010771 -0.963792 0.000000 -0.977385 0.000000 0.000000
    24 -0.010412 -0.631916 0.000000 -1.034980 0.000000 0.000000
    25 -0.485028 -9.469278 -10.432640 -0.831256 0.448516 0.424985
    26 0.089928 -8.543164 0.000000 0.775279 -0.553934 0.005102
    27 -0.000001 -0.359712 0.000000 0.000000 0.000000 0.000000
    28 -0.170479 -2.636146 -0.277655 -1.086149 -0.015676 0.111936
    29 0.010598 -1.261177 -0.000001 -0.473438 0.000000 0.000000
    30 0.000001 -0.943234 0.000001 -0.881031 0.000827 0.000707
    31 -0.827562 -2.508972 -0.277655 -0.649137 0.000000 0.000000
    32 0.000000 -1.292971 -0.000001 -0.710575 -0.058257 0.000120
    33 0.000000 -0.752466 0.000000 -0.777529 -0.248776 0.191909
    34 0.444213 -2.561960 -0.277655 -1.390389 0.102658 0.162209
    35 0.021024 -1.208187 0.000001 -0.273344 0.001378 0.005429
    36 0.010598 -0.741867 -0.000001 -0.721174 0.000000 0.000000
    37 1.047446 -2.222820 -0.277655 -1.356430 -0.069497 -0.040770
    38 0.000000 -0.996224 -0.000001 -1.199041 0.000000 0.000000
    39 0.000001 -0.614692 0.000001 -1.031490 0.000000 0.000000
    40 -0.308254 -0.007813 0.307166 -0.196313 -0.653366 -2.393943
    41 1.978377 0.019542 -0.000001 -0.104002 0.006988 0.542145
    42 0.982424 0.003187 0.000000 0.000000 0.000000 0.336612
  time 12
    0 8.294072 2.907835 -8.756575 -0.765566 -1.191673 0.503420
    1 0.000000 -8.563284 0.000000 0.365377 -0.057853 -0.216375
    2 -0.627912 -3.172447 0.559143 -1.247015 1.437605 -1.233821
    3 0.000000 1.888487 0.974220 0.000000 0.000000 0.000000
    4 -0.013948 -2.720512 1.100493 0.003979 0.000000 0.000000
    5 -0.013949 -4.784637 0.650334 0.000000 0.000000 0.000000
    6 -0.013949 -3.609846 2.626635 0.000000 0.000000 0.000000
    7 -0.551583 -1.713881 2.571738 0.000000 0.000000 0.340339
    8 -0.666018 -4.704158 1.993687 0.000000 0.337298 0.000000
    9 -0.003480 -0.404828 0.000000 -0.000001 0.000000 0.000000
    10 -0.519309 -2.501155 -0.278957 -1.107358 -0.060907 -0.152582
    11 -0.010599 -1.208185 -0.000001 -1.179843 0.000000 0.000000
    12 -0.000001 -0.763065 0.000000 -1.228712 0.000000 0.000000
    13 0.105981 -2.607135 -0.278958 -0.873864 -0.036146 -0.178594
    14 0.000001 -1.250578 0.000000 -1.223476 0.000000 0.000000
    15 -0.000001 -0.932635 0.000000 -1.567306 0.000000 0.000000
    16 0.763064 -2.490555 -0.278958 -0.190379 0.000000 0.130900
    17 -0.012322 -1.280916 0.000000 -0.717602 0.000000 0.000000
    18 -0.001697 -0.749371 0.000001 -0.583309 0.000000 0.000000
    19 0.354566 0.016268 0.318133 0.458018 -0.443926 -1.167637
    20 1.887166 0.012878 0.000000 -0.304014 -0.029870 -0.496333
    21 1.001873 -0.000270 0.000000 0.000000 0.000000 -0.577704
    22 -1.123359 -2.195093 -0.278958 -1.174574 -0.118742 -0.146524
    23 0.010771 -0.963792 0.000000 -0.977385 0.000000 0.000000
    24 -0.010412 -0.631916 0.000000 -1.034980 0.000000 0.000000
    25 -0.496747 -9.441933 -10.381858 -0.828865 0.448888 0.436844
    26 0.089928 -8.543164 0.000000 0.777603 -0.559671 -0.001646
    27 -0.000001 -0.359712 0.000000 0.000000 0.000000 0.000000
    28 -0.170479 -2.636146 -0.277655 -1.088077 -0.023286 0.107598
    29 0.010598 -1.261177 -0.000001 -0.473438 0.000000 0.000000
    30 0.000001 -0.943234 0.000001 -0.862788 0.000000 0.000000
    31 -0.827562 -2.508972 -0.277655 -0.649137 0.000000 0.000000
    32 0.000000 -1.292971 -0.000001 -0.710575 -0.058257 0.000120
    33 0.000000 -0.752466 0.000000 -0.777529 -0.248776 0.191909
    34 0.444213 -2.561960 -0.277655 -1.380256 0.099111 0.163395
    35 0.021024 -1.208187 0.000001 -0.259564 0.001786 0.007251
    36 0.010598 -0.741867 -0.000001 -0.721174 0.000000 0.000000
    37 1.047446 -2.222820 -0.277655 -1.356430 -0.069497 -0.040770
    38 0.000000 -0.996224 -0.000001 -1.199041 0.000000 0.000000
    39 0.000001 -0.614692 0.000001 -1.031490 0.000000 0.000000
    40 -0.308254 -0.007813 0.307166 -0.209676 -0.664106 -2.403698
    41 1.978377 0.019542 -0.000001 -0.104640 -0.002767 0.529132
    42 0.982424 0.003187 0.000000 0.000000 0.000000 0.346806
  time 13
    0 8.297979 2.950806 -8.776107 -0.781945 -1.185886 0.520027
    1 0.000000 -8.563284 0.000000 0.367241 -0.056258 -0.222811
    2 -0.627912 -3.172447 0.559143 -1.247015 1.437605 -1.233821
    3 0.000000 1.888487 0.974220 0.000000 0.000000 0.000000
    4 -0.013948 -2.716606 1.100493 0.008713 0.000000 0.000000
    5 -0.013949 -4.784637 0.650334 0.000000 0.000000 0.000000
    6 -0.013949 -3.609846 2.626635 0.000000 0.000000 0.000000
    7 -0.551583 -1.713881 2.571738 0.000000 0.000000 0.340339
    8 -0.666018 -4.704158 1.993687 0.000000 0.337298 0.000000
    9 -0.003480 -0.404828 0.000000 -0.000001 0.000000 0.000000
    10 -0.519309 -2.501155 -0.278957 -1.107358 -0.060907 -0.152582
    11 -0.010599 -1.208185 -0.000001 -1.179843 0.000000 0.000000
    12 -0.000001 -0.763065 0.000000 -1.228712 0.000000 0.000000
    13 0.105981 -2.607135 -0.278958 -0.873864 -0.036146 -0.178594
    14 0.000001 -1.250578 0.000000 -1.223476 0.000000 0.000000
    15 -0.000001 -0.932635 0.000000 -1.567306 0.000000 0.000000
    16 0.763064 -2.490555 -0.278958 -0.188066 0.000000 0.130900
    17 -0.012322 -1.280916 0.000000 -0.709029 0.000000 0.000000
    18 -0.001697 -0.749371 0.000001 -0.579881 0.000000 0.000000
    19 0.354566 0.016268 0.318133 0.458018 -0.443926 -1.167637
    20 1.887166 0.012878 0.000000 -0.304014 -0.029870 -0.496333
    21 1.001873 -0.000270 0.000000 0.000000 0.000000 -0.577704
    22 -1.123359 -2.195093 -0.278958 -1.174574 -0.118742 -0.146524
    23 0.010771 -0.963792 0.000000 -0.977385 0.000000 0.000000
    24 -0.010412 -0.631916 0.000000 -1.034980 0.000000 0.000000
    25 -0.524092 -9.445839 -10.334981 -0.825943 0.449447 0.451476
    26 0.089928 -8.543164 0.000000 0.778257 -0.561869 -0.004616
    27 -0.000001 -0.359712 0.000000 0.000000 0.000000 0.000000
    28 -0.170479 -2.636146 -0.277655 -1.089951 -0.031519 0.102936
    29 0.010598 -1.261177 -0.000001 -0.473438 0.000000 0.000000
    30 0.000001 -0.943234 0.000001 -0.853077 -0.002661 -0.002325
    31 -0.827562 -2.508972 -0.277655 -0.649137 0.000000 0.000000
    32 0.000000 -1.292971 -0.000001 -0.710575 -0.058257 0.000120
    33 0.000000 -0.752466 0.000000 -0.777529 -0.248776 0.191909
    34 0.444213 -2.561960 -0.277655 -1.370334 0.094389 0.164522
    35 0.021024 -1.208187 0.000001 -0.245857 0.001810 0.007562
    36 0.010598 -0.741867 -0.000001 -0.721174 0.000000 0.000000
    37 1.047446 -2.222820 -0.277655 -1.356430 -0.069497 -0.040770
    38 0.000000 -0.996224 -0.000001 -1.199041 0.000000 0.000000
    39 0.000001 -0.614692 0.000001 -1.031490 0.000000 0.000000
    40 -0.308254 -0.007813 0.307166 -0.222727 -0.674689 -2.414484
    41 1.978377 0.019542 -0.000001 -0.105192 -0.013098 0.515994
    42 0.982424 0.003187 0.000000 0.000000 0.000000 0.357145
  time 14
    0 8.301885 2.985963 -8.791732 -0.795149 -1.180866 0.533930
    1 0.000000 -8.563284 0.000000 0.369053 -0.054774 -0.228707
    2 -0.627912 -3.172447 0.559143 -1.247015 1.437605 -1.233821
    3 0.000000 1.888487 0.974220 0.000000 0.000000 0.000000
    4 -0.013948 -2.708793 1.100493 0.015077 0.000000 0.000000
    5 -0.013949 -4.784637 0.650334 0.000000 0.000000 0.000000
    6 -0.013949 -3.609846 2.626635 0.000000 0.000000 0.000000
    7 -0.551583 -1.713881 2.571738 0.000000 0.000000 0.340339
    8 -0.666018 -4.704158 1.993687 0.000000 0.337298 0.000000
    9 -0.003480 -0.404828 0.000000 -0.000001 0.000000 0.000000
    10 -0.519309 -2.501155 -0.278957 -1.107358 -0.060907 -0.152582
    11 -0.010599 -1.208185 -0.000001 -1.179843 0.000000 0.000000
    12 -0.000001 -0.763065 0.000000 -1.228712 0.000000 0.000000
    13 0.105981 -2.607135 -0.278958 -0.873864 -0.036146 -0.178594
    14 0.000001 -1.250578 0.000000 -1.223476 0.000000 0.000000
    15 -0.000001 -0.932635 0.000000 -1.567306 0.000000 0.000000
    16 0.763064 -2.490555 -0.278958 -0.186400 0.000000 0.130900
    17 -0.012322 -1.280916 0.000000 -0.703161 0.000000 0.000000
    18 -0.001697 -0.749371 0.000001 -0.577437 0.000000 0.000000
    19 0.354566 0.016268 0.318133 0.458018 -0.443926 -1.167637
    20 1.887166 0.012878 0.000000 -0.304014 -0.029870 -0.496333
    21 1.001873 -0.000270 0.000000 0.000000 0.000000 -0.577704
    22 -1.123359 -2.195093 -0.278958 -1.174574 -0.118742 -0.146524
    23 0.010771 -0.963792 0.000000 -0.977385 0.000000 0.000000
    24 -0.010412 -0.631916 0.000000 -1.034980 0.000000 0.000000
    25 -0.547530 -9.461465 -10.299824 -0.822755 0.449913 0.467352
    26 0.089928 -8.543164 0.000000 0.776326 -0.558396 -0.003486
    27 -0.000001 -0.359712 0.000000 0.000000 0.000000 0.000000
    28 -0.170479 -2.636146 -0.277655 -1.091769 -0.039681 0.098322
    29 0.010598 -1.261177 -0.000001 -0.473438 0.000000 0.000000
    30 0.000001 -0.943234 0.000001 -0.847759 -0.006592 -0.005813
    31 -0.827562 -2.508972 -0.277655 -0.649137 0.000000 0.000000
    32 0.000000 -1.292971 -0.000001 -0.710575 -0.058257 0.000120
    33 0.000000 -0.752466 0.000000 -0.777529 -0.248776 0.191909
    34 0.444213 -2.561960 -0.277655 -1.362048 0.089643 0.165433
    35 0.021024 -1.208187 0.000001 -0.233345 0.001270 0.005453
    36 0.010598 -0.741867 -0.000001 -0.721174 0.000000 0.000000
    37 1.047446 -2.222820 -0.277655 -1.356430 -0.069497 -0.040770
    38 0.000000 -0.996224 -0.000001 -1.199041 0.000000 0.000000
    39 0.000001 -0.614692 0.000001 -1.031490 0.000000 0.000000
    40 -0.308254 -0.007813 0.307166 -0.235155 -0.684520 -2.425593
    41 1.978377 0.019542 -0.000001 -0.105627 -0.023669 0.502949
    42 0.982424 0.003187 0.000000 0.000000 0.000000 0.367627
  time 15
    0 8.301885 3.009401 -8.803451 -0.803767 -1.177310 0.543431
    1 0.000000 -8.563284 0.000000 0.370546 -0.053711 -0.233393
    2 -0.627912 -3.172447 0.559143 -1.247015 1.437605 -1.233821
    3 0.000000 1.888487 0.974220 0.000000 0.000000 0.000000
    4 -0.013948 -2.704886 1.100493 0.022903 0.000000 0.000000
    5 -0.013949 -4.784637 0.650334 0.000000 0.000000 0.000000
    6 -0.013949 -3.609846 2.626635 0.000000 0.000000 0.000000
    7 -0.551583 -1.713881 2.571738 0.000000 0.000000 0.340339
    8 -0.666018 -4.704158 1.993687 0.000000 0.337298 0.000000
    9 -0.003480 -0.404828 0.000000 -0.000001 0.000000 0.000000
    10 -0.519309 -2.501155 -0.278957 -1.107358 -0.060907 -0.152582
    11 -0.010599 -1.208185 -0.000001 -1.179843 0.000000 0.000000
    12 -0.000001 -0.763065 0.000000 -1.228712 0.000000 0.000000
    13 0.105981 -2.607135 -0.278958 -0.873864 -0.036146 -0.178594
    14 0.000001 -1.250578 0.000000 -1.223476 0.000000 0.000000
    15 -0.000001 -0.932635 0.000000 -1.567306 0.000000 0.000000
    16 0.763064 -2.490555 -0.278958 -0.185333 0.000000 0.130900
    17 -0.012322 -1.280916 0.000000 -0.699732 0.000000 0.000000
    18 -0.001697 -0.749371 0.000001 -0.575855 0.000000 0.000000
    19 0.354566 0.016268 0.318133 0.458018 -0.443926 -1.167637
    20 1.887166 0.012878 0.000000 -0.304014 -0.029870 -0.496333
    21 1.001873 -0.000270 0.000000 0.000000 0.000000 -0.577704
    22 -1.123359 -2.195093 -0.278958 -1.174574 -0.118742 -0.146524
    23 0.010771 -0.963792 0.000000 -0.977385 0.000000 0.000000
    24 -0.010412 -0.631916 0.000000 -1.034980 0.000000 0.000000
    25 -0.559249 -9.496622 -10.284198 -0.819656 0.450379 0.482940
    26 0.089928 -8.543164 0.000000 0.771417 -0.550109 -0.000419
    27 -0.000001 -0.359712 0.000000 0.000000 0.000000 0.000000
    28 -0.170479 -2.636146 -0.277655 -1.093476 -0.047087 0.094163
    29 0.010598 -1.261177 -0.000001 -0.473438 0.000000 0.000000
    30 0.000001 -0.943234 0.000001 -0.846577 -0.010163 -0.008964
    31 -0.827562 -2.508972 -0.277655 -0.649137 0.000000 0.000000
    32 0.000000 -1.292971 -0.000001 -0.710575 -0.058257 0.000120
    33 0.000000 -0.752466 0.000000 -0.777529 -0.248776 0.191909
    34 0.444213 -2.561960 -0.277655 -1.357035 0.086060 0.165996
    35 0.021024 -1.208187 0.000001 -0.223129 0.000000 0.000000
    36 0.010598 -0.741867 -0.000001 -0.721174 0.000000 0.000000
    37 1.047446 -2.222820 -0.277655 -1.356430 -0.069497 -0.040770
    38 0.000000 -0.996224 -0.000001 -1.199041 0.000000 0.000000
    39 0.000001 -0.614692 0.000001 -1.031490 0.000000 0.000000
    40 -0.308254 -0.007813 0.307166 -0.246673 -0.693053 -2.436272
    41 1.978377 0.019542 -0.000001 -0.105918 -0.034143 0.490091
    42 0.982424 0.003187 0.000000 0.000000 0.000000 0.378197
  time 16
    0 8.305791 3.021120 -8.811264 -0.806085 -1.175881 0.547370
    1 0.000000 -8.563284 0.000000 0.371478 -0.053423 -0.236222
    2 -0.627912 -3.172447 0.559143 -1.247015 1.437605 -1.233821
    3 0.000000 1.888487 0.974220 0.000000 0.000000 0.000000
    4 -0.013948 -2.697074 1.100493 0.032035 0.000000 0.000000
    5 -0.013949 -4.784637 0.650334 0.000000 0.000000 0.000000
    6 -0.013949 -3.609846 2.626635 0.000000 0.000000 0.000000
    7 -0.551583 -1.713881 2.571738 0.000000 0.000000 0.340339
    8 -0.666018 -4.704158 1.993687 0.000000 0.337298 0.000000
    9 -0.003480 -0.404828 0.000000 -0.000001 0.000000 0.000000
    10 -0.519309 -2.501155 -0.278957 -1.107358 -0.060907 -0.152582
    11 -0.010599 -1.208185 -0.000001 -1.179843 0.000000 0.000000
    12 -0.000001 -0.763065 0.000000 -1.228712 0.000000 0.000000
    13 0.105981 -2.607135 -0.278958 -0.873864 -0.036146 -0.178594
    14 0.000001 -1.250578 0.000000 -1.223476 0.000000 0.000000
    15 -0.000001 -0.932635 0.000000 -1.567306 0.000000 0.000000
    16 0.763064 -2.490555 -0.278958 -0.184794 0.000000 0.130900
    17 -0.012322 -1.280916 0.000000 -0.698493 0.000000 0.000000
    18 -0.001697 -0.749371 0.000001 -0.575064 0.000000 0.000000
    19 0.354566 0.016268 0.318133 0.458018 -0.443926 -1.167637
    20 1.887166 0.012878 0.000000 -0.304014 -0.029870 -0.496333
    21 1.001873 -0.000270 0.000000 0.000000 0.000000 -0.577704
    22 -1.123359 -2.195093 -0.278958 -1.174574 -0.118742 -0.146524
    23 0.010771 -0.963792 0.000000 -0.977385 0.000000 0.000000
    24 -0.010412 -0.631916 0.000000 -1.034980 0.000000 0.000000
    25 -0.567062 -9.551311 -10.284198 -0.816910 0.450751 0.496616
    26 0.089928 -8.543164 0.000000 0.764839 -0.540151 0.004295
    27 -0.000001 -0.359712 0.000000 0.000000 0.000000 0.000000
    28 -0.170479 -2.636146 -0.277655 -1.095184 -0.053020 0.090843
    29 0.010598 -1.261177 -0.000001 -0.473438 0.000000 0.000000
    30 0.000001 -0.943234 0.000001 -0.849273 -0.011733 -0.010319
    31 -0.827562 -2.508972 -0.277655 -0.649137 0.000000 0.000000
    32 0.000000 -1.292971 -0.000001 -0.710575 -0.058257 0.000120
    33 0.000000 -0.752466 0.000000 -0.777529 -0.248776 0.191909
    34 0.444213 -2.561960 -0.277655 -1.354343 0.083339 0.166319
    35 0.021024 -1.208187 0.000001 -0.220814 -0.008018 -0.035331
    36 0.010598 -0.741867 -0.000001 -0.721174 0.000000 0.000000
    37 1.047446 -2.222820 -0.277655 -1.356430 -0.069497 -0.040770
    38 0.000000 -0.996224 -0.000001 -1.199041 0.000000 0.000000
    39 0.000001 -0.614692 0.000001 -1.031490 0.000000 0.000000
    40 -0.308254 -0.007813 0.307166 -0.256991 -0.699675 -2.445812
    41 1.978377 0.019542 -0.000001 -0.106063 -0.044246 0.477607
    42 0.982424 0.003187 0.000000 0.000000 0.000000 0.388853
  time 17
    0 8.305791 3.028933 -8.815170 -0.800642 -1.177206 0.544126
    1 0.000000 -8.563284 0.000000 0.371567 -0.054243 -0.236533
    2 -0.627912 -3.172447 0.559143 -1.247015 1.437605 -1.233821
    3 0.000000 1.888487 0.974220 0.000000 0.000000 0.000000
    4 -0.013948 -2.689261 1.100493 0.042330 0.000000 0.000000
    5 -0.013949 -4.784637 0.650334 0.000000 0.000000 0.000000
    6 -0.013949 -3.609846 2.626635 0.000000 0.000000 0.000000
    7 -0.551583 -1.713881 2.571738 0.000000 0.000000 0.340339
    8 -0.666018 -4.704158 1.993687 0.000000 0.337298 0.000000
    9 -0.003480 -0.404828 0.000000 -0.000001 0.000000 0.000000
    10 -0.519309 -2.501155 -0.278957 -1.107358 -0.060907 -0.152582
    11 -0.010599 -1.208185 -0.000001 -1.179843 0.000000 0.000000
    12 -0.000001 -0.763065 0.000000 -1.228712 0.000000 0.000000
    13 0.105981 -2.607135 -0.278958 -0.873864 -0.036146 -0.178594
    14 0.000001 -1.250578 0.000000 -1.223476 0.000000 0.000000
    15 -0.000001 -0.932635 0.000000 -1.567306 0.000000 0.000000
    16 0.763064 -2.490555 -0.278958 -0.184722 0.000000 0.130900
    17 -0.012322 -1.280916 0.000000 -0.699160 0.000000 0.000000
    18 -0.001697 -0.749371 0.000001 -0.574956 0.000000 0.000000
    19 0.354566 0.016268 0.318133 0.458018 -0.443926 -1.167637
    20 1.887166 0.012878 0.000000 -0.304014 -0.029870 -0.496333
    21 1.001873 -0.000270 0.000000 0.000000 0.000000 -0.577704
    22 -1.123359 -2.195093 -0.278958 -1.174574 -0.118742 -0.146524
    23 0.010771 -0.963792 0.000000 -0.977385 0.000000 0.000000
    24 -0.010412 -0.631916 0.000000 -1.034980 0.000000 0.000000
    25 -0.574875 -9.609907 -10.284198 -0.814874 0.451031 0.506753
    26 0.089928 -8.543164 0.000000 0.757835 -0.531666 0.010365
    27 -0.000001 -0.359712 0.000000 0.000000 0.000000 0.000000
    28 -0.170479 -2.636146 -0.277655 -1.097774 -0.054266 0.090148
    29 0.010598 -1.261177 -0.000001 -0.473438 0.000000 0.000000
    30 0.000001 -0.943234 0.000001 -0.854147 -0.011649 -0.010187
    31 -0.827562 -2.508972 -0.277655 -0.649137 0.000000 0.000000
    32 0.000000 -1.292971 -0.000001 -0.710575 -0.058257 0.000120
    33 0.000000 -0.752466 0.000000 -0.777529 -0.248776 0.191909
    34 0.444213 -2.561960 -0.277655 -1.352127 0.080475 0.166583
    35 0.021024 -1.208187 0.000001 -0.225315 -0.015352 -0.066922
    36 0.010598 -0.741867 -0.000001 -0.721174 0.000000 0.000000
    37 1.047446 -2.222820 -0.277655 -1.356430 -0.069497 -0.040770
    38 0.000000 -0.996224 -0.000001 -1.199041 0.000000 0.000000
    39 0.000001 -0.614692 0.000001 -1.031490 0.000000 0.000000
    40 -0.308254 -0.007813 0.307166 -0.265872 -0.703777 -2.453462
    41 1.978377 0.019542 -0.000001 -0.106092 -0.053642 0.465652
    42 0.982424 0.003187 0.000000 0.000000 0.000000 0.399624
  time 18
    0 8.274541 3.048465 -8.709698 -0.790462 -1.180204 0.536479
    1 0.000000 -8.563284 0.000000 0.370546 -0.056524 -0.233669
    2 -0.627912 -3.172447 0.559143 -1.247015 1.437605 -1.233821
    3 0.000000 1.888487 0.974220 0.000000 0.000000 0.000000
    4 -0.013948 -2.681448 1.100493 0.053607 0.000000 0.000000
    5 -0.013949 -4.784637 0.650334 0.000000 0.000000 0.000000
    6 -0.013949 -3.609846 2.626635 0.000000 0.000000 0.000000
    7 -0.551583 -1.713881 2.571738 0.000000 0.000000 0.340339
    8 -0.666018 -4.704158 1.993687 0.000000 0.337298 0.000000
    9 -0.003480 -0.404828 0.000000 -0.000001 0.000000 0.000000
    10 -0.519309 -2.501155 -0.278957 -1.107358 -0.060907 -0.152582
    11 -0.010599 -1.208185 -0.000001 -1.179843 0.000000 0.000000
    12 -0.000001 -0.763065 0.000000 -1.228712 0.000000 0.000000
    13 0.105981 -2.607135 -0.278958 -0.873864 -0.036146 -0.178594
    14 0.000001 -1.250578 0.000000 -1.223476 0.000000 0.000000
    15 -0.000001 -0.932635 0.000000 -1.567306 0.000000 0.000000
    16 0.763064 -2.490555 -0.278958 -0.185046 0.000000 0.130900
    17 -0.012322 -1.280916 0.000000 -0.701504 0.000000 0.000000
    18 -0.001697 -0.749371 0.000001 -0.575435 0.000000 0.000000
    19 0.354566 0.016268 0.318133 0.458018 -0.443926 -1.167637
    20 1.887166 0.012878 0.000000 -0.304014 -0.029870 -0.496333
    21 1.001873 -0.000270 0.000000 0.000000 0.000000 -0.577704
    22 -1.123359 -2.195093 -0.278958 -1.174574 -0.118742 -0.146524
    23 0.010771 -0.963792 0.000000 -0.977385 0.000000 0.000000
    24 -0.010412 -0.631916 0.000000 -1.034980 0.000000 0.000000
    25 -0.586594 -9.648971 -10.280292 -0.813900 0.451124 0.511822
    26 0.089928 -8.543164 0.000000 0.751584 -0.527841 0.017532
    27 -0.000001 -0.359712 0.000000 0.000000 0.000000 0.000000
    28 -0.170479 -2.636146 -0.277655 -1.097774 -0.053020 0.090843
    29 0.010598 -1.261177 -0.000001 -0.473438 0.000000 0.000000
    30 0.000001 -0.943234 0.000001 -0.859613 -0.011337 -0.009875
    31 -0.827562 -2.508972 -0.277655 -0.649137 0.000000 0.000000
    32 0.000000 -1.292971 -0.000001 -0.710575 -0.058257 0.000120
    33 0.000000 -0.752466 0.000000 -0.777529 -0.248776 0.191909
    34 0.444213 -2.561960 -0.277655 -1.350332 0.077467 0.166799
    35 0.021024 -1.208187 0.000001 -0.230809 -0.015364 -0.066119
    36 0.010598 -0.741867 -0.000001 -0.721174 0.000000 0.000000
    37 1.047446 -2.222820 -0.277655 -1.356430 -0.069497 -0.040770
    38 0.000000 -0.996224 -0.000001 -1.199041 0.000000 0.000000
    39 0.000001 -0.614692 0.000001 -1.031490 0.000000 0.000000
    40 -0.308254 -0.007813 0.307166 -0.273027 -0.704763 -2.458468
    41 1.978377 0.019542 -0.000001 -0.105976 -0.061995 0.454350
    42 0.982424 0.003187 0.000000 0.000000 0.000000 0.410453
  time 19
    0 8.247196 3.067997 -8.608133 -0.779879 -1.183376 0.528060
    1 0.000000 -8.563284 0.000000 0.368913 -0.059447 -0.228875
    2 -0.627912 -3.172447 0.559143 -1.247015 1.437605 -1.233821
    3 0.000000 1.888487 0.974220 0.000000 0.000000 0.000000
    4 -0.013948 -2.673635 1.100493 0.065735 0.000000 0.000000
    5 -0.013949 -4.784637 0.650334 0.000000 0.000000 0.000000
    6 -0.013949 -3.609846 2.626635 0.000000 0.000000 0.000000
    7 -0.551583 -1.713881 2.571738 0.000000 0.000000 0.340339
    8 -0.666018 -4.704158 1.993687 0.000000 0.337298 0.000000
    9 -0.003480 -0.404828 0.000000 -0.000001 0.000000 0.000000
    10 -0.519309 -2.501155 -0.278957 -1.107358 -0.060907 -0.152582
    11 -0.010599 -1.208185 -0.000001 -1.179843 0.000000 0.000000
    12 -0.000001 -0.763065 0.000000 -1.228712 0.000000 0.000000
    13 0.105981 -2.607135 -0.278958 -0.873864 -0.036146 -0.178594
    14 0.000001 -1.250578 0.000000 -1.223476 0.000000 0.000000
    15 -0.000001 -0.932635 0.000000 -1.567306 0.000000 0.000000
    16 0.763064 -2.490555 -0.278958 -0.185717 0.000000 0.130900
    17 -0.012322 -1.280916 0.000000 -0.705238 0.000000 0.000000
    18 -0.001697 -0.749371 0.000001 -0.576418 0.000000 0.000000
    19 0.354566 0.016268 0.318133 0.458018 -0.443926 -1.167637
    20 1.887166 0.012878 0.000000 -0.304014 -0.029870 -0.496333
    21 1.001873 -0.000270 0.000000 0.000000 0.000000 -0.577704
    22 -1.123359 -2.195093 -0.278958 -1.174574 -0.118742 -0.146524
    23 0.010771 -0.963792 0.000000 -0.977385 0.000000 0.000000
    24 -0.010412 -0.631916 0.000000 -1.034980 0.000000 0.000000
    25 -0.606126 -9.664596 -10.256854 -0.813634 0.451124 0.512970
    26 0.089928 -8.543164 0.000000 0.746086 -0.527819 0.025475
    27 -0.000001 -0.359712 0.000000 0.000000 0.000000 0.000000
    28 -0.170479 -2.636146 -0.277655 -1.094027 -0.053020 0.090843
    29 0.010598 -1.261177 -0.000001 -0.473438 0.000000 0.000000
    30 0.000001 -0.943234 0.000001 -0.865558 -0.010846 -0.009384
    31 -0.827562 -2.508972 -0.277655 -0.649137 0.000000 0.000000
    32 0.000000 -1.292971 -0.000001 -0.710575 -0.058257 0.000120
    33 0.000000 -0.752466 0.000000 -0.777529 -0.248776 0.191909
    34 0.444213 -2.561960 -0.277655 -1.348854 0.074351 0.166967
    35 0.021024 -1.208187 0.000001 -0.236505 -0.015041 -0.063926
    36 0.010598 -0.741867 -0.000001 -0.721174 0.000000 0.000000
    37 1.047446 -2.222820 -0.277655 -1.356430 -0.069497 -0.040770
    38 0.000000 -0.996224 -0.000001 -1.199041 0.000000 0.000000
    39 0.000001 -0.614692 0.000001 -1.031490 0.000000 0.000000
    40 -0.308254 -0.007813 0.307166 -0.278540 -0.702775 -2.461347
    41 1.978377 0.019542 -0.000001 -0.105744 -0.068994 0.443890
    42 0.982424 0.003187 0.000000 0.000000 0.000000 0.421312
  time 20
    0 8.223758 3.083622 -8.522193 -0.768640 -1.186793 0.518636
    1 0.000000 -8.563284 0.000000 0.367317 -0.062105 -0.223806
    2 -0.627912 -3.172447 0.559143 -1.247015 1.437605 -1.233821
    3 0.000000 1.888487 0.974220 0.000000 0.000000 0.000000
    4 -0.013948 -2.661916 1.100493 0.078535 0.000000 0.000000
    5 -0.013949 -4.784637 0.650334 0.000000 0.000000 0.000000
    6 -0.013949 -3.609846 2.626635 0.000000 0.000000 0.000000
    7 -0.551583 -1.713881 2.571738 0.000000 0.000000 0.340339
    8 -0.666018 -4.704158 1.993687 0.000000 0.337298 0.000000
    9 -0.003480 -0.404828 0.000000 -0.000001 0.000000 0.000000
    10 -0.519309 -2.501155 -0.278957 -1.107358 -0.060907 -0.152582
    11 -0.010599 -1.208185 -0.000001 -1.179843 0.000000 0.000000
    12 -0.000001 -0.763065 0.000000 -1.228712 0.000000 0.000000
    13 0.105981 -2.607135 -0.278958 -0.873864 -0.036146 -0.178594
    14 0.000001 -1.250578 0.000000 -1.223476 0.000000 0.000000
    15 -0.000001 -0.932635 0.000000 -1.567306 0.000000 0.000000
    16 0.763064 -2.490555 -0.278958 -0.186652 0.000000 0.130900
    17 -0.012322 -1.280916 0.000000 -0.710096 0.000000 0.000000
    18 -0.001697 -0.749371 0.000001 -0.577808 0.000000 0.000000
    19 0.354566 0.016268 0.318133 0.458018 -0.443926 -1.167637
    20 1.887166 0.012878 0.000000 -0.304014 -0.029870 -0.496333
    21 1.001873 -0.000270 0.000000 0.000000 0.000000 -0.577704
    22 -1.123359 -2.195093 -0.278958 -1.174574 -0.118742 -0.146524
    23 0.010771 -0.963792 0.000000 -0.977385 0.000000 0.000000
    24 -0.010412 -0.631916 0.000000 -1.034980 0.000000 0.000000
    25 -0.625658 -9.668502 -10.221696 -0.813723 0.451124 0.512396
    26 0.089928 -8.543164 0.000000 0.740523 -0.528523 0.033805
    27 -0.000001 -0.359712 0.000000 0.000000 0.000000 0.000000
    28 -0.170479 -2.636146 -0.277655 -1.090061 -0.053020 0.090843
    29 0.010598 -1.261177 -0.000001 -0.473438 0.000000 0.000000
    30 0.000001 -0.943234 0.000001 -0.871983 -0.010199 -0.008761
    31 -0.827562 -2.508972 -0.277655 -0.649137 0.000000 0.000000
    32 0.000000 -1.292971 -0.000001 -0.710575 -0.058257 0.000120
    33 0.000000 -0.752466 0.000000 -0.777529 -0.248776 0.191909
    34 0.444213 -2.561960 -0.277655 -1.347693 0.071127 0.167110
    35 0.021024 -1.208187 0.000001 -0.242366 -0.014429 -0.060498
    36 0.010598 -0.741867 -0.000001 -0.721174 0.000000 0.000000
    37 1.047446 -2.222820 -0.277655 -1.356430 -0.069497 -0.040770
    38 0.000000 -0.996224 -0.000001 -1.199041 0.000000 0.000000
    39 0.000001 -0.614692 0.000001 -1.031490 0.000000 0.000000
    40 -0.308254 -0.007813 0.307166 -0.282758 -0.698579 -2.463238
    41 1.978377 0.019542 -0.000001 -0.105540 -0.073668 0.436729
    42 0.982424 0.003187 0.000000 0.000000 0.000000 0.432256
  time 21
    0 8.200320 3.099248 -8.440159 -0.756344 -1.190488 0.508132
    1 0.000000 -8.563284 0.000000 0.365748 -0.064563 -0.218389
    2 -0.627912 -3.172447 0.559143 -1.247038 1.437605 -1.233845
    3 0.000000 1.888487 0.974220 0.000000 0.000000 0.000000
    4 -0.013948 -2.654104 1.100493 0.091862 0.000000 0.000000
    5 -0.013949 -4.784637 0.650334 0.000000 0.000000 0.000000
    6 -0.013949 -3.609846 2.626635 0.000000 0.000000 0.000000
    7 -0.551583 -1.713881 2.571738 0.000000 0.000000 0.340339
    8 -0.666018 -4.704158 1.993687 0.000000 0.337298 0.000000
    9 -0.003480 -0.404828 0.000000 -0.000001 0.000000 0.000000
    10 -0.519309 -2.501155 -0.278957 -1.107358 -0.060907 -0.152582
    11 -0.010599 -1.208185 -0.000001 -1.179843 0.000000 0.000000
    12 -0.000001 -0.763065 0.000000 -1.228712 0.000000 0.000000
    13 0.105981 -2.607135 -0.278958 -0.873864 -0.036146 -0.178594
    14 0.000001 -1.250578 0.000000 -1.223476 0.000000 0.000000
    15 -0.000001 -0.932635 0.000000 -1.567306 0.000000 0.000000
    16 0.763064 -2.490555 -0.278958 -0.187802 0.000000 0.130900
    17 -0.012322 -1.280916 0.000000 -0.715830 0.000000 0.000000
    18 -0.001697 -0.749371 0.000001 -0.579510 0.000000 0.000000
    19 0.354566 0.016268 0.318133 0.458018 -0.443926 -1.167637
    20 1.887166 0.012878 0.000000 -0.304014 -0.029870 -0.496333
    21 1.001873 -0.000270 0.000000 0.000000 0.000000 -0.577704
    22 -1.123359 -2.195093 -0.278958 -1.174574 -0.118742 -0.146524
    23 0.010771 -0.963792 0.000000 -0.977385 0.000000 0.000000
    24 -0.010412 -0.631916 0.000000 -1.034980 0.000000 0.000000
    25 -0.653002 -9.660690 -10.186539 -0.814165 0.451124 0.510388
    26 0.089928 -8.543164 0.000000 0.734926 -0.529842 0.042554
    27 -0.000001 -0.359712 0.000000 0.000000 0.000000 0.000000
    28 -0.170479 -2.636146 -0.277655 -1.085874 -0.053032 0.090843
    29 0.010598 -1.261177 -0.000001 -0.473438 0.000000 0.000000
    30 0.000001 -0.943234 0.000001 -0.878741 -0.009396 -0.008018
    31 -0.827562 -2.508972 -0.277655 -0.649137 0.000000 0.000000
    32 0.000000 -1.292971 -0.000001 -0.710575 -0.058257 0.000120
    33 0.000000 -0.752466 0.000000 -0.777529 -0.248776 0.191909
    34 0.444213 -2.561960 -0.277655 -1.346796 0.067819 0.167218
    35 0.021024 -1.208187 0.000001 -0.248356 -0.013543 -0.056052
    36 0.010598 -0.741867 -0.000001 -0.721174 0.000000 0.000000
    37 1.047446 -2.222820 -0.277655 -1.356430 -0.069497 -0.040770
    38 0.000000 -0.996224 -0.000001 -1.199041 0.000000 0.000000
    39 0.000001 -0.614692 0.000001 -1.031490 0.000000 0.000000
    40 -0.308254 -0.007813 0.307166 -0.285874 -0.692505 -2.464270
    41 1.978377 0.019542 -0.000001 -0.105424 -0.075574 0.433460
    42 0.982424 0.003187 0.000000 0.000000 0.000000 0.443230
  time 22
    0 8.180788 3.114873 -8.365938 -0.742787 -1.194532 0.496159
    1 0.000000 -8.563284 0.000000 0.364127 -0.066889 -0.212528
    2 -0.627912 -3.172447 0.559143 -1.247015 1.437605 -1.233821
    3 0.000000 1.888487 0.974220 0.000000 0.000000 0.000000
    4 -0.013948 -2.646291 1.100493 0.105548 0.000000 0.000000
    5 -0.013949 -4.784637 0.650334 0.000000 0.000000 0.000000
    6 -0.013949 -3.609846 2.626635 0.000000 0.000000 0.000000
    7 -0.551583 -1.713881 2.571738 0.000000 0.000000 0.340339
    8 -0.666018 -4.704158 1.993687 0.000000 0.337298 0.000000
    9 -0.003480 -0.404828 0.000000 -0.000001 0.000000 0.000000
    10 -0.519309 -2.501155 -0.278957 -1.107358 -0.060907 -0.152582
    11 -0.010599 -1.208185 -0.000001 -1.179843 0.000000 0.000000
    12 -0.000001 -0.763065 0.000000 -1.228712 0.000000 0.000000
    13 0.105981 -2.607135 -0.278958 -0.873864 -0.036146 -0.178594
    14 0.000001 -1.250578 0.000000 -1.223476 0.000000 0.000000
    15 -0.000001 -0.932635 0.000000 -1.567306 0.000000 0.000000
    16 0.763064 -2.490555 -0.278958 -0.189108 0.000000 0.130900
    17 -0.012322 -1.280916 0.000000 -0.722193 0.000000 0.000000
    18 -0.001697 -0.749371 0.000001 -0.581427 0.000000 0.000000
    19 0.354566 0.016268 0.318133 0.458018 -0.443926 -1.167637
    20 1.887166 0.012878 0.000000 -0.304014 -0.029870 -0.496333
    21 1.001873 -0.000270 0.000000 0.000000 0.000000 -0.577704
    22 -1.123359 -2.195093 -0.278958 -1.174574 -0.118742 -0.146524
    23 0.010771 -0.963792 0.000000 -0.977385 0.000000 0.000000
    24 -0.010412 -0.631916 0.000000 -1.034980 0.000000 0.000000
    25 -0.676440 -9.648971 -10.151382 -0.814785 0.451031 0.507136
    26 0.089928 -8.543164 0.000000 0.729232 -0.531688 0.051627
    27 -0.000001 -0.359712 0.000000 0.000000 0.000000 0.000000
    28 -0.170479 -2.636146 -0.277655 -1.081466 -0.053032 0.090831
    29 0.010598 -1.261177 -0.000001 -0.473438 0.000000 0.000000
    30 0.000001 -0.943234 0.000001 -0.885831 -0.008485 -0.007191
    31 -0.827562 -2.508972 -0.277655 -0.649137 0.000000 0.000000
    32 0.000000 -1.292971 -0.000001 -0.710575 -0.058257 0.000120
    33 0.000000 -0.752466 0.000000 -0.777529 -0.248776 0.191909
    34 0.444213 -2.561960 -0.277655 -1.346110 0.064439 0.167302
    35 0.021024 -1.208187 0.000001 -0.254456 -0.012428 -0.050767
    36 0.010598 -0.741867 -0.000001 -0.721174 0.000000 0.000000
    37 1.047446 -2.222820 -0.277655 -1.356430 -0.069497 -0.040770
    38 0.000000 -0.996224 -0.000001 -1.199041 0.000000 0.000000
    39 0.000001 -0.614692 0.000001 -1.031490 0.000000 0.000000
    40 -0.308254 -0.007813 0.307166 -0.288055 -0.684833 -2.464592
    41 1.978377 0.019542 -0.000001 -0.105308 -0.075202 0.431281
    42 0.982424 0.003187 0.000000 0.000000 0.000000 0.454204
  time 23
    0 8.165162 3.126592 -8.303436 -0.727618 -1.198924 0.482642
    1 0.000000 -8.563284 0.000000 0.362442 -0.069214 -0.206164
    2 -0.627912 -3.172447 0.559143 -1.247038 1.437605 -1.233845
    3 0.000000 1.888487 0.974220 0.000000 0.000000 0.000000
    4 -0.013948 -2.638478 1.100493 0.119450 0.000000 0.000000
    5 -0.013949 -4.784637 0.650334 0.000000 0.000000 0.000000
    6 -0.013949 -3.609846 2.626635 0.000000 0.000000 0.000000
    7 -0.551583 -1.713881 2.571738 0.000000 0.000000 0.340339
    8 -0.666018 -4.704158 1.993687 0.000000 0.337298 0.000000
    9 -0.003480 -0.404828 0.000000 -0.000001 0.000000 0.000000
    10 -0.519309 -2.501155 -0.278957 -1.107358 -0.060907 -0.152582
    11 -0.010599 -1.208185 -0.000001 -1.179843 0.000000 0.000000
    12 -0.000001 -0.763065 0.000000 -1.228712 0.000000 0.000000
    13 0.105981 -2.607135 -0.278958 -0.873864 -0.036146 -0.178594
    14 0.000001 -1.250578 0.000000 -1.223476 0.000000 0.000000
    15 -0.000001 -0.932635 0.000000 -1.567306 0.000000 0.000000
    16 0.763064 -2.490555 -0.278958 -0.190499 0.000000 0.130900
    17 -0.012322 -1.280916 0.000000 -0.728899 0.000000 0.000000
    18 -0.001697 -0.749371 0.000001 -0.583477 0.000000 0.000000
    19 0.354566 0.016268 0.318133 0.458018 -0.443926 -1.167637
    20 1.887166 0.012878 0.000000 -0.304014 -0.029870 -0.496333
    21 1.001873 -0.000270 0.000000 0.000000 0.000000 -0.577704
    22 -1.123359 -2.195093 -0.278958 -1.174574 -0.118742 -0.146524
    23 0.010771 -0.963792 0.000000 -0.977385 0.000000 0.000000
    24 -0.010412 -0.631916 0.000000 -1.034980 0.000000 0.000000
    25 -0.692066 -9.633345 -10.135756 -0.815671 0.450938 0.502928
    26 0.089928 -8.543164 0.000000 0.723504 -0.533930 0.060958
    27 -0.000001 -0.359712 0.000000 0.000000 0.000000 0.000000
    28 -0.170479 -2.636146 -0.277655 -1.077004 -0.053032 0.090831
    29 0.010598 -1.261177 -0.000001 -0.473438 0.000000 0.000000
    30 0.000001 -0.943234 0.000001 -0.893143 -0.007478 -0.006292
    31 -0.827562 -2.508972 -0.277655 -0.649137 0.000000 0.000000
    32 0.000000 -1.292971 -0.000001 -0.710575 -0.058257 0.000120
    33 0.000000 -0.752466 0.000000 -0.777529 -0.248776 0.191909
    34 0.444213 -2.561960 -0.277655 -1.345582 0.061012 0.167374
    35 0.021024 -1.208187 0.000001 -0.260648 -0.011122 -0.044810
    36 0.010598 -0.741867 -0.000001 -0.721174 0.000000 0.000000
    37 1.047446 -2.222820 -0.277655 -1.356430 -0.069497 -0.040770
    38 0.000000 -0.996224 -0.000001 -1.199041 0.000000 0.000000
    39 0.000001 -0.614692 0.000001 -1.031490 0.000000 0.000000
    40 -0.308254 -0.007813 0.307166 -0.289493 -0.675910 -2.464377
    41 1.978377 0.019542 -0.000001 -0.105047 -0.073093 0.427483
    42 0.982424 0.003187 0.000000 0.000000 0.000000 0.465206
  time 24
    0 8.149537 3.138311 -8.248747 -0.710432 -1.203735 0.467116
    1 0.000000 -8.563284 0.000000 0.360643 -0.071562 -0.199213
    2 -0.627912 -3.172447 0.559143 -1.247015 1.437605 -1.233821
    3 0.000000 1.888487 0.974220 0.000000 0.000000 0.000000
    4 -0.013948 -2.630665 1.100493 0.133412 0.000000 0.000000
    5 -0.013949 -4.784637 0.650334 0.000000 0.000000 0.000000
    6 -0.013949 -3.609846 2.626635 0.000000 0.000000 0.000000
    7 -0.551583 -1.713881 2.571738 0.000000 0.000000 0.340339
    8 -0.666018 -4.704158 1.993687 0.000000 0.337298 0.000000
    9 -0.003480 -0.404828 0.000000 -0.000001 0.000000 0.000000
    10 -0.519309 -2.501155 -0.278957 -1.107358 -0.060907 -0.152582
    11 -0.010599 -1.208185 -0.000001 -1.179843 0.000000 0.000000
    12 -0.000001 -0.763065 0.000000 -1.228712 0.000000 0.000000
    13 0.105981 -2.607135 -0.278958 -0.873864 -0.036146 -0.178594
    14 0.000001 -1.250578 0.000000 -1.223476 0.000000 0.000000
    15 -0.000001 -0.932635 0.000000 -1.567306 0.000000 0.000000
    16 0.763064 -2.490555 -0.278958 -0.191901 0.000000 0.130900
    17 -0.012322 -1.280916 0.000000 -0.735681 0.000000 0.000000
    18 -0.001697 -0.749371 0.000001 -0.585550 0.000000 0.000000
    19 0.354566 0.016268 0.318133 0.458018 -0.443926 -1.167637
    20 1.887166 0.012878 0.000000 -0.304014 -0.029870 -0.496333
    21 1.001873 -0.000270 0.000000 0.000000 0.000000 -0.577704
    22 -1.123359 -2.195093 -0.278958 -1.174574 -0.118742 -0.146524
    23 0.010771 -0.963792 0.000000 -0.977385 0.000000 0.000000
    24 -0.010412 -0.631916 0.000000 -1.034980 0.000000 0.000000
    25 -0.699879 -9.621626 -10.151382 -0.816645 0.450751 0.498051
    26 0.089928 -8.543164 0.000000 0.717712 -0.536458 0.070514
    27 -0.000001 -0.359712 0.000000 0.000000 0.000000 0.000000
    28 -0.170479 -2.636146 -0.277655 -1.072376 -0.053032 0.090831
    29 0.010598 -1.261177 -0.000001 -0.473438 0.000000 0.000000
    30 0.000001 -0.943234 0.000001 -0.900602 -0.006400 -0.005345
    31 -0.827562 -2.508972 -0.277655 -0.649137 0.000000 0.000000
    32 0.000000 -1.292971 -0.000001 -0.710575 -0.058257 0.000120
    33 0.000000 -0.752466 0.000000 -0.777529 -0.248776 0.191909
    34 0.444213 -2.561960 -0.277655 -1.345160 0.057548 0.167434
    35 0.021024 -1.208187 0.000001 -0.266895 -0.009648 -0.038375
    36 0.010598 -0.741867 -0.000001 -0.721174 0.000000 0.000000
    37 1.047446 -2.222820 -0.277655 -1.356430 -0.069497 -0.040770
    38 0.000000 -0.996224 -0.000001 -1.199041 0.000000 0.000000
    39 0.000001 -0.614692 0.000001 -1.031490 0.000000 0.000000
    40 -0.308254 -0.007813 0.307166 -0.290356 -0.666031 -2.463711
    41 1.978377 0.019542 -0.000001 -0.104582 -0.069713 0.419295
    42 0.982424 0.003187 0.000000 0.000000 0.000000 0.476180
  time 25
    0 8.133911 3.146124 -8.201870 -0.690828 -1.208964 0.449351
    1 0.000000 -8.563284 0.000000 0.358665 -0.074065 -0.191579
    2 -0.627912 -3.172447 0.559143 -1.247015 1.437605 -1.233821
    3 0.000000 1.888487 0.974220 0.000000 0.000000 0.000000
    4 -0.013948 -2.622853 1.100493 0.147255 0.000000 0.000000
    5 -0.013949 -4.784637 0.650334 0.000000 0.000000 0.000000
    6 -0.013949 -3.609846 2.626635 0.000000 0.000000 0.000000
    7 -0.551583 -1.713881 2.571738 0.000000 0.000000 0.340339
    8 -0.666018 -4.704158 1.993687 0.000000 0.337298 0.000000
    9 -0.003480 -0.404828 0.000000 -0.000001 0.000000 0.000000
    10 -0.519309 -2.501155 -0.278957 -1.107358 -0.060907 -0.152582
    11 -0.010599 -1.208185 -0.000001 -1.179843 0.000000 0.000000
    12 -0.000001 -0.763065 0.000000 -1.228712 0.000000 0.000000
    13 0.105981 -2.607135 -0.278958 -0.873864 -0.036146 -0.178594
    14 0.000001 -1.250578 0.000000 -1.223476 0.000000 0.000000
    15 -0.000001 -0.932635 0.000000 -1.567306 0.000000 0.000000
    16 0.763064 -2.490555 -0.278958 -0.193267 0.000000 0.130900
    17 -0.012322 -1.280916 0.000000 -0.742292 0.000000 0.000000
    18 -0.001697 -0.749371 0.000001 -0.587564 0.000000 0.000000
    19 0.354566 0.016268 0.318133 0.458018 -0.443926 -1.167637
    20 1.887166 0.012878 0.000000 -0.304014 -0.029870 -0.496333
    21 1.001873 -0.000270 0.000000 0.000000 0.000000 -0.577704
    22 -1.123359 -2.195093 -0.278958 -1.174574 -0.118742 -0.146524
    23 0.010771 -0.963792 0.000000 -0.977385 0.000000 0.000000
    24 -0.010412 -0.631916 0.000000 -1.034980 0.000000 0.000000
    25 -0.695972 -9.617720 -10.186539 -0.817707 0.450658 0.492695
    26 0.089928 -8.543164 0.000000 0.711854 -0.539140 0.080200
    27 -0.000001 -0.359712 0.000000 0.000000 0.000000 0.000000
    28 -0.170479 -2.636146 -0.277655 -1.067693 -0.053032 0.090831
    29 0.010598 -1.261177 -0.000001 -0.473438 0.000000 0.000000
    30 0.000001 -0.943234 0.000001 -0.908172 -0.005285 -0.004374
    31 -0.827562 -2.508972 -0.277655 -0.649137 0.000000 0.000000
    32 0.000000 -1.292971 -0.000001 -0.710575 -0.058257 0.000120
    33 0.000000 -0.752466 0.000000 -0.777529 -0.248776 0.191909
    34 0.444213 -2.561960 -0.277655 -1.344791 0.054073 0.167482
    35 0.021024 -1.208187 0.000001 -0.273160 -0.008066 -0.031651
    36 0.010598 -0.741867 -0.000001 -0.721174 0.000000 0.000000
    37 1.047446 -2.222820 -0.277655 -1.356430 -0.069497 -0.040770
    38 0.000000 -0.996224 -0.000001 -1.199041 0.000000 0.000000
    39 0.000001 -0.614692 0.000001 -1.031490 0.000000 0.000000
    40 -0.308254 -0.007813 0.307166 -0.290836 -0.655511 -2.462787
    41 1.978377 0.019542 -0.000001 -0.103915 -0.064872 0.406375
    42 0.982424 0.003187 0.000000 0.000000 0.000000 0.487154
  time 26
    0 8.126099 3.153937 -8.162807 -0.668351 -1.214646 0.428882
    1 0.000000 -8.563284 0.000000 0.356495 -0.076744 -0.183190
    2 -0.627912 -3.172447 0.559143 -1.247038 1.437605 -1.233845
    3 0.000000 1.888487 0.974220 0.000000 0.000000 0.000000
    4 -0.013948 -2.615040 1.100493 0.160845 0.000000 0.000000
    5 -0.013949 -4.784637 0.650334 0.000000 0.000000 0.000000
    6 -0.013949 -3.609846 2.626635 0.000000 0.000000 0.000000
    7 -0.551583 -1.713881 2.571738 0.000000 0.000000 0.340339
    8 -0.666018 -4.704158 1.993687 0.000000 0.337298 0.000000
    9 -0.003480 -0.404828 0.000000 -0.000001 0.000000 0.000000
    10 -0.519309 -2.501155 -0.278957 -1.107358 -0.060907 -0.152582
    11 -0.010599 -1.208185 -0.000001 -1.179843 0.000000 0.000000
    12 -0.000001 -0.763065 0.000000 -1.228712 0.000000 0.000000
    13 0.105981 -2.607135 -0.278958 -0.873864 -0.036146 -0.178594
    14 0.000001 -1.250578 0.000000 -1.223476 0.000000 0.000000
    15 -0.000001 -0.932635 0.000000 -1.567306 0.000000 0.000000
    16 0.763064 -2.490555 -0.278958 -0.194525 0.000000 0.130900
    17 -0.012322 -1.280916 0.000000 -0.748465 0.000000 0.000000
    18 -0.001697 -0.749371 0.000001 -0.589421 0.000000 0.000000
    19 0.354566 0.016268 0.318133 0.458018 -0.443926 -1.167637
    20 1.887166 0.012878 0.000000 -0.304014 -0.029870 -0.496333
    21 1.001873 -0.000270 0.000000 0.000000 0.000000 -0.577704
    22 -1.123359 -2.195093 -0.278958 -1.174574 -0.118742 -0.146524
    23 0.010771 -0.963792 0.000000 -0.977385 0.000000 0.000000
    24 -0.010412 -0.631916 0.000000 -1.034980 0.000000 0.000000
    25 -0.688160 -9.609907 -10.241228 -0.818859 0.450472 0.487052
    26 0.089928 -8.543164 0.000000 0.705963 -0.541910 0.090015
    27 -0.000001 -0.359712 0.000000 0.000000 0.000000 0.000000
    28 -0.170479 -2.636146 -0.277655 -1.063010 -0.053044 0.090831
    29 0.010598 -1.261177 -0.000001 -0.473438 0.000000 0.000000
    30 0.000001 -0.943234 0.000001 -0.915742 -0.004147 -0.003416
    31 -0.827562 -2.508972 -0.277655 -0.649137 0.000000 0.000000
    32 0.000000 -1.292971 -0.000001 -0.710575 -0.058257 0.000120
    33 0.000000 -0.752466 0.000000 -0.777529 -0.248776 0.191909
    34 0.444213 -2.561960 -0.277655 -1.344421 0.050597 0.167542
    35 0.021024 -1.208187 0.000001 -0.279444 -0.006400 -0.024820
    36 0.010598 -0.741867 -0.000001 -0.721174 0.000000 0.000000
    37 1.047446 -2.222820 -0.277655 -1.356430 -0.069497 -0.040770
    38 0.000000 -0.996224 -0.000001 -1.199041 0.000000 0.000000
    39 0.000001 -0.614692 0.000001 -1.031490 0.000000 0.000000
    40 -0.308254 -0.007813 0.307166 -0.291111 -0.644693 -2.461734
    41 1.978377 0.019542 -0.000001 -0.103189 -0.058352 0.390808
    42 0.982424 0.003187 0.000000 0.000000 0.000000 0.498098
  time 27
    0 8.118286 3.157843 -8.131556 -0.642548 -1.220747 0.405478
    1 0.000000 -8.563284 0.000000 0.354057 -0.079734 -0.173962
    2 -0.627912 -3.172447 0.559143 -1.247015 1.437605 -1.233821
    3 0.000000 1.888487 0.974220 0.000000 0.000000 0.000000
    4 -0.013948 -2.611134 1.100493 0.174016 0.000000 0.000000
    5 -0.013949 -4.784637 0.650334 0.000000 0.000000 0.000000
    6 -0.013949 -3.609846 2.626635 0.000000 0.000000 0.000000
    7 -0.551583 -1.713881 2.571738 0.000000 0.000000 0.340339
    8 -0.666018 -4.704158 1.993687 0.000000 0.337298 0.000000
    9 -0.003480 -0.404828 0.000000 -0.000001 0.000000 0.000000
    10 -0.519309 -2.501155 -0.278957 -1.107358 -0.060907 -0.152582
    11 -0.010599 -1.208185 -0.000001 -1.179843 0.000000 0.000000
    12 -0.000001 -0.763065 0.000000 -1.228712 0.000000 0.000000
    13 0.105981 -2.607135 -0.278958 -0.873864 -0.036146 -0.178594
    14 0.000001 -1.250578 0.000000 -1.223476 0.000000 0.000000
    15 -0.000001 -0.932635 0.000000 -1.567306 0.000000 0.000000
    16 0.763064 -2.490555 -0.278958 -0.195616 0.000000 0.130900
    17 -0.012322 -1.280916 0.000000 -0.753951 0.000000 0.000000
    18 -0.001697 -0.749371 0.000001 -0.591027 0.000000 0.000000
    19 0.354566 0.016268 0.318133 0.458018 -0.443926 -1.167637
    20 1.887166 0.012878 0.000000 -0.304014 -0.029870 -0.496333
    21 1.001873 -0.000270 0.000000 0.000000 0.000000 -0.577704
    22 -1.123359 -2.195093 -0.278958 -1.174574 -0.118742 -0.146524
    23 0.010771 -0.963792 0.000000 -0.977385 0.000000 0.000000
    24 -0.010412 -0.631916 0.000000 -1.034980 0.000000 0.000000
    25 -0.672534 -9.598188 -10.311543 -0.820010 0.450379 0.481410
    26 0.089928 -8.543164 0.000000 0.700006 -0.544613 0.099863
    27 -0.000001 -0.359712 0.000000 0.000000 0.000000 0.000000
    28 -0.170479 -2.636146 -0.277655 -1.058328 -0.053044 0.090831
    29 0.010598 -1.261177 -0.000001 -0.473438 0.000000 0.000000
    30 0.000001 -0.943234 0.000001 -0.923312 -0.003032 -0.002469
    31 -0.827562 -2.508972 -0.277655 -0.649137 0.000000 0.000000
    32 0.000000 -1.292971 -0.000001 -0.710575 -0.058257 0.000120
    33 0.000000 -0.752466 0.000000 -0.777529 -0.248776 0.191909
    34 0.444213 -2.561960 -0.277655 -1.343999 0.047134 0.167590
    35 0.021024 -1.208187 0.000001 -0.285691 -0.004722 -0.018049
    36 0.010598 -0.741867 -0.000001 -0.721174 0.000000 0.000000
    37 1.047446 -2.222820 -0.277655 -1.356430 -0.069497 -0.040770
    38 0.000000 -0.996224 -0.000001 -1.199041 0.000000 0.000000
    39 0.000001 -0.614692 0.000001 -1.031490 0.000000 0.000000
    40 -0.308254 -0.007813 0.307166 -0.291363 -0.633859 -2.460681
    41 1.978377 0.019542 -0.000001 -0.102492 -0.050718 0.373498
    42 0.982424 0.003187 0.000000 0.000000 0.000000 0.508985
  time 28
    0 8.110473 3.161749 -8.112024 -0.612814 -1.227301 0.378443
    1 0.000000 -8.563284 0.000000 0.351314 -0.083078 -0.163811
    2 -0.627912 -3.172447 0.559143 -1.247015 1.437605 -1.233821
    3 0.000000 1.888487 0.974220 0.000000 0.000000 0.000000
    4 -0.013948 -2.607227 1.100493 0.186600 0.000000 0.000000
    5 -0.013949 -4.784637 0.650334 0.000000 0.000000 0.000000
    6 -0.013949 -3.609846 2.626635 0.000000 0.000000 0.000000
    7 -0.551583 -1.713881 2.571738 0.000000 0.000000 0.340339
    8 -0.666018 -4.704158 1.993687 0.000000 0.337298 0.000000
    9 -0.003480 -0.404828 0.000000 -0.000001 0.000000 0.000000
    10 -0.519309 -2.501155 -0.278957 -1.107358 -0.060907 -0.152582
    11 -0.010599 -1.208185 -0.000001 -1.179843 0.000000 0.000000
    12 -0.000001 -0.763065 0.000000 -1.228712 0.000000 0.000000
    13 0.105981 -2.607135 -0.278958 -0.873864 -0.036146 -0.178594
    14 0.000001 -1.250578 0.000000 -1.223476 0.000000 0.000000
    15 -0.000001 -0.932635 0.000000 -1.567306 0.000000 0.000000
    16 0.763064 -2.490555 -0.278958 -0.196467 0.000000 0.130900
    17 -0.012322 -1.280916 0.000000 -0.758467 0.000000 0.000000
    18 -0.001697 -0.749371 0.000001 -0.592297 0.000000 0.000000
    19 0.354566 0.016268 0.318133 0.458018 -0.443926 -1.167637
    20 1.887166 0.012878 0.000000 -0.304014 -0.029870 -0.496333
    21 1.001873 -0.000270 0.000000 0.000000 0.000000 -0.577704
    22 -1.123359 -2.195093 -0.278958 -1.174574 -0.118742 -0.146524
    23 0.010771 -0.963792 0.000000 -0.977385 0.000000 0.000000
    24 -0.010412 -0.631916 0.000000 -1.034980 0.000000 0.000000
    25 -0.653002 -9.590375 -10.401389 -0.821072 0.450192 0.475959
    26 0.089928 -8.543164 0.000000 0.694050 -0.547163 0.109678
    27 -0.000001 -0.359712 0.000000 0.000000 0.000000 0.000000
    28 -0.170479 -2.636146 -0.277655 -1.053645 -0.053044 0.090831
    29 0.010598 -1.261177 -0.000001 -0.473438 0.000000 0.000000
    30 0.000001 -0.943234 0.000001 -0.930698 -0.001942 -0.001570
    31 -0.827562 -2.508972 -0.277655 -0.649137 0.000000 0.000000
    32 0.000000 -1.292971 -0.000001 -0.710575 -0.058257 0.000120
    33 0.000000 -0.752466 0.000000 -0.777529 -0.248776 0.191909
    34 0.444213 -2.561960 -0.277655 -1.343471 0.043706 0.167650
    35 0.021024 -1.208187 0.000001 -0.291901 -0.003056 -0.011541
    36 0.010598 -0.741867 -0.000001 -0.721174 0.000000 0.000000
    37 1.047446 -2.222820 -0.277655 -1.356430 -0.069497 -0.040770
    38 0.000000 -0.996224 -0.000001 -1.199041 0.000000 0.000000
    39 0.000001 -0.614692 0.000001 -1.031490 0.000000 0.000000
    40 -0.308254 -0.007813 0.307166 -0.291795 -0.623339 -2.459800
    41 1.978377 0.019542 -0.000001 -0.101911 -0.042520 0.355317
    42 0.982424 0.003187 0.000000 0.000000 0.000000 0.519843
  time 29
    0 8.106567 3.165656 -8.100305 -0.578545 -1.234169 0.347315
    1 0.000000 -8.563284 0.000000 0.348212 -0.086866 -0.152665
    2 -0.627912 -3.172447 0.559143 -1.247015 1.437605 -1.233821
    3 0.000000 1.888487 0.974220 0.000000 0.000000 0.000000
    4 -0.013948 -2.603321 1.100493 0.198465 0.000000 0.000000
    5 -0.013949 -4.784637 0.650334 0.000000 0.000000 0.000000
    6 -0.013949 -3.609846 2.626635 0.000000 0.000000 0.000000
    7 -0.551583 -1.713881 2.571738 0.000000 0.000000 0.340339
    8 -0.666018 -4.704158 1.993687 0.000000 0.337298 0.000000
    9 -0.003480 -0.404828 0.000000 -0.000001 0.000000 0.000000
    10 -0.519309 -2.501155 -0.278957 -1.107358 -0.060907 -0.152582
    11 -0.010599 -1.208185 -0.000001 -1.179843 0.000000 0.000000
    12 -0.000001 -0.763065 0.000000 -1.228712 0.000000 0.000000
    13 0.105981 -2.607135 -0.278958 -0.873864 -0.036146 -0.178594
    14 0.000001 -1.250578 0.000000 -1.223476 0.000000 0.000000
    15 -0.000001 -0.932635 0.000000 -1.567306 0.000000 0.000000
    16 0.763064 -2.490555 -0.278958 -0.197030 0.000000 0.130900
    17 -0.012322 -1.280916 0.000000 -0.761762 0.000000 0.000000
    18 -0.001697 -0.749371 0.000001 -0.593124 0.000000 0.000000
    19 0.354566 0.016268 0.318133 0.458018 -0.443926 -1.167637
    20 1.887166 0.012878 0.000000 -0.304014 -0.029870 -0.496333
    21 1.001873 -0.000270 0.000000 0.000000 0.000000 -0.577704
    22 -1.123359 -2.195093 -0.278958 -1.174574 -0.118742 -0.146524
    23 0.010771 -0.963792 0.000000 -0.977385 0.000000 0.000000
    24 -0.010412 -0.631916 0.000000 -1.034980 0.000000 0.000000
    25 -0.625658 -9.578656 -10.502955 -0.822046 0.450006 0.471081
    26 0.089928 -8.543164 0.000000 0.688061 -0.549427 0.119396
    27 -0.000001 -0.359712 0.000000 0.000000 0.000000 0.000000
    28 -0.170479 -2.636146 -0.277655 -1.049017 -0.053044 0.090819
    29 0.010598 -1.261177 -0.000001 -0.473438 0.000000 0.000000
    30 0.000001 -0.943234 0.000001 -0.937936 -0.000923 -0.000743
    31 -0.827562 -2.508972 -0.277655 -0.649137 0.000000 0.000000
    32 0.000000 -1.292971 -0.000001 -0.710575 -0.058257 0.000120
    33 0.000000 -0.752466 0.000000 -0.777529 -0.248776 0.191909
    34 0.444213 -2.561960 -0.277655 -1.342785 0.040338 0.167722
    35 0.021024 -1.208187 0.000001 -0.298056 -0.001462 -0.005465
    36 0.010598 -0.741867 -0.000001 -0.721174 0.000000 0.000000
    37 1.047446 -2.222820 -0.277655 -1.356430 -0.069497 -0.040770
    38 0.000000 -0.996224 -0.000001 -1.199041 0.000000 0.000000
    39 0.000001 -0.614692 0.000001 -1.031490 0.000000 0.000000
    40 -0.308254 -0.007813 0.307166 -0.292586 -0.613460 -2.459220
    41 1.978377 0.019542 -0.000001 -0.101505 -0.034311 0.337135
    42 0.982424 0.003187 0.000000 0.000000 0.000000 0.530615
  time 30
    0 8.106567 3.165656 -8.096398 -0.539034 -1.241315 0.311552
    1 0.000000 -8.563284 0.000000 0.344690 -0.091140 -0.140417
    2 -0.627912 -3.172447 0.559143 -1.247015 1.437605 -1.233821
    3 0.000000 1.888487 0.974220 0.000000 0.000000 0.000000
    4 -0.013948 -2.603321 1.100493 0.209431 0.000000 0.000000
    5 -0.013949 -4.784637 0.650334 0.000000 0.000000 0.000000
    6 -0.013949 -3.609846 2.626635 0.000000 0.000000 0.000000
    7 -0.551583 -1.713881 2.571738 0.000000 0.000000 0.340339
    8 -0.666018 -4.704158 1.993687 0.000000 0.337298 0.000000
    9 -0.003480 -0.404828 0.000000 -0.000001 0.000000 0.000000
    10 -0.519309 -2.501155 -0.278957 -1.107358 -0.060907 -0.152582
    11 -0.010599 -1.208185 -0.000001 -1.179843 0.000000 0.000000
    12 -0.000001 -0.763065 0.000000 -1.228712 0.000000 0.000000
    13 0.105981 -2.607135 -0.278958 -0.873864 -0.036146 -0.178594
    14 0.000001 -1.250578 0.000000 -1.223476 0.000000 0.000000
    15 -0.000001 -0.932635 0.000000 -1.567306 0.000000 0.000000
    16 0.763064 -2.490555 -0.278958 -0.197222 0.000000 0.130900
    17 -0.012322 -1.280916 0.000000 -0.763572 0.000000 0.000000
    18 -0.001697 -0.749371 0.000001 -0.593412 0.000000 0.000000
    19 0.354566 0.016268 0.318133 0.458018 -0.443926 -1.167637
    20 1.887166 0.012878 0.000000 -0.304014 -0.029870 -0.496333
    21 1.001873 -0.000270 0.000000 0.000000 0.000000 -0.577704
    22 -1.123359 -2.195093 -0.278958 -1.174574 -0.118742 -0.146524
    23 0.010771 -0.963792 0.000000 -0.977385 0.000000 0.000000
    24 -0.010412 -0.631916 0.000000 -1.034980 0.000000 0.000000
    25 -0.590500 -9.566937 -10.627959 -0.822932 0.449913 0.466873
    26 0.089928 -8.543164 0.000000 0.682104 -0.551340 0.128920
    27 -0.000001 -0.359712 0.000000 0.000000 0.000000 0.000000
    28 -0.170479 -2.636146 -0.277655 -1.044554 -0.053056 0.090819
    29 0.010598 -1.261177 -0.000001 -0.473438 0.000000 0.000000
    30 0.000001 -0.943234 0.000001 -0.944915 0.000000 0.000000
    31 -0.827562 -2.508972 -0.277655 -0.649137 0.000000 0.000000
    32 0.000000 -1.292971 -0.000001 -0.710575 -0.058257 0.000120
    33 0.000000 -0.752466 0.000000 -0.777529 -0.248776 0.191909
    34 0.444213 -2.561960 -0.277655 -1.341888 0.037019 0.167818
    35 0.021024 -1.208187 0.000001 -0.304119 0.000000 0.000000
    36 0.010598 -0.741867 -0.000001 -0.721174 0.000000 0.000000
    37 1.047446 -2.222820 -0.277655 -1.356430 -0.069497 -0.040770
    38 0.000000 -0.996224 -0.000001 -1.199041 0.000000 0.000000
    39 0.000001 -0.614692 0.000001 -1.031490 0.000000 0.000000
    40 -0.308254 -0.007813 0.307166 -0.293928 -0.604521 -2.459091
    41 1.978377 0.019542 -0.000001 -0.101215 -0.026653 0.319856
    42 0.982424 0.003187 0.000000 0.000000 0.000000 0.541329
end
