version 1
nodes
  0 "sgdrill_root" -1
  1 "body" 0
  2 "piston" 1
  3 "front_piston" 1
  4 "triger" 0
  5 "megazine" 0
  6 "Mholster" 0
  7 "reload" 0
  8 "drill" 0
  9 "gun02" 8
  10 "gun03" 8
  11 "gun04" 8
  12 "gun01" 8
  13 "drillfx_bone" -1
  14 "drillfx_bone04" 13
  15 "drillfx_bone01" 13
  16 "drillfx_bone03" 13
  17 "drillfx_bone02" 13
  18 "lightning" -1
  19 "root" -1
  20 "Bone01" 19
  21 "Bone_L_Upper" 20
  22 "Bone_Lefthand" 20
  23 "Bone13" 22
  24 "Bone14" 23
  25 "Bone15" 24
  26 "Bone17" 22
  27 "Bone18" 26
  28 "Bone19" 27
  29 "Bone21" 22
  30 "Bone22" 29
  31 "Bone23" 30
  32 "Bone09" 22
  33 "Bone10" 32
  34 "Bone11" 33
  35 "Bone05" 22
  36 "Bone06" 35
  37 "Bone07" 36
  38 "Bone_Se_Hand-L" 22
  39 "Bone04" 19
  40 "Bone_Righthand" 39
  41 "Bone39" 40
  42 "Bone40" 41
  43 "Bone41" 42
  44 "Bone35" 40
  45 "Bone36" 44
  46 "Bone37" 45
  47 "Bone31" 40
  48 "Bone32" 47
  49 "Bone33" 48
  50 "Bone43" 40
  51 "Bone44" 50
  52 "Bone45" 51
  53 "Bone27" 40
  54 "Bone28" 53
  55 "Bone29" 54
  56 "Bone_Se_Hand-R" 40
  57 "Bone_R_Upper" 39
end
skeleton
  time 0
    0 0.000000 9.471461 -2.485660 1.570797 -1.570796 0.000000
    1 2.524357 -0.000011 3.832260 -1.570796 0.000000 -1.570796
    2 -0.000027 0.036710 2.105031 0.000000 0.000000 0.000000
    3 0.000000 -1.992241 0.000000 0.000000 0.000000 0.000000
    4 1.986367 -0.000002 -7.268454 -1.570796 -1.570451 0.000000
    5 0.402225 0.000000 -3.576116 -1.570796 -1.570451 0.000000
    6 0.269178 1.869026 -2.163483 -1.570796 0.000000 -1.570796
    7 3.343164 2.345367 0.674169 -1.570796 0.000000 -1.570796
    8 2.485660 0.000003 9.471458 -1.570796 0.000000 -1.570796
    9 0.598922 -16.557924 0.012332 0.000000 0.000000 0.000000
    10 0.000745 -16.557924 -0.582776 0.000000 0.000000 0.000000
    11 -0.594533 -16.557924 0.011085 0.000000 0.000000 0.000000
    12 0.000004 -16.557924 0.608017 0.000000 0.000000 0.000000
    13 0.000000 29.440231 -31.129044 1.570797 0.000000 1.570796
    14 0.000000 5.127279 -5.101059 0.000000 0.000000 0.000000
    15 0.000002 5.099751 5.047899 0.000000 0.000000 0.000000
    16 0.000002 -5.128132 -5.101062 0.000000 0.000000 0.000000
    17 0.000004 -5.128132 5.047902 0.000000 0.000000 0.000000
    18 -22.794685 27.151382 -36.804443 -1.570796 0.000000 0.000000
    19 0.001265 -0.569176 -20.601572 0.000000 0.000000 0.000000
    20 9.310103 -5.299614 -12.557959 3.138909 -0.000224 -1.566807
    21 1.257180 8.762585 -0.153713 -1.570562 0.002683 -1.566807
    22 -0.071921 -8.498736 -0.104134 -0.025046 0.287591 0.014898
    23 -0.488518 -2.755602 -0.228260 0.106454 0.010332 -0.264490
    24 0.039887 -1.479790 0.029854 -0.055395 0.000000 0.000001
    25 0.028786 -1.075731 -0.023109 0.002099 0.000000 0.000000
    26 0.250027 -2.820665 -0.238396 0.041826 -0.002921 0.008443
    27 -0.049759 -1.680544 0.100479 0.019826 0.000000 -0.000002
    28 -0.034142 -1.148312 0.084782 -0.040115 0.000000 0.000000
    29 0.957766 -2.746780 -0.090302 -0.017221 -0.162277 0.191558
    30 -0.033420 -1.397129 -0.011257 0.013931 0.000000 -0.000001
    31 -0.022360 -0.957436 0.018784 0.003845 0.000000 0.000000
    32 -1.180681 -2.507217 -0.193859 0.082999 0.013294 -0.477915
    33 -0.024967 -1.123934 0.017597 -0.018065 0.000000 0.000001
    34 -0.020057 -0.890968 0.010090 -0.060797 0.000000 0.000000
    35 0.583510 -1.197277 0.185379 0.158049 -0.404973 -0.364290
    36 1.535927 0.010246 0.005009 -0.002964 -0.012979 0.000887
    37 1.100771 0.004527 -0.010679 -0.002796 0.015973 0.003458
    38 0.120153 -0.050270 -0.054489 0.287569 3.110905 1.561085
    39 -9.310107 -5.231260 -12.513384 0.004984 -3.131565 -1.566847
    40 0.096944 -8.450418 -0.009365 -0.032965 -0.297907 -0.004663
    41 0.447953 -2.798986 -0.200443 0.106456 -0.010396 0.265094
    42 -0.032909 -1.480204 0.004940 -0.055403 0.000000 0.000002
    43 -0.027022 -1.076920 -0.020210 0.002094 0.000000 0.000000
    44 -0.249534 -2.846964 -0.174213 0.041903 -0.000125 -0.008396
    45 0.043235 -1.683941 0.096012 0.019757 0.002823 -0.000167
    46 0.031729 -1.160830 0.058838 -0.040181 0.000642 0.008372
    47 -0.963866 -2.785145 -0.085350 -0.017227 0.162276 -0.191556
    48 0.028479 -1.403067 0.006271 0.013941 0.000000 0.000000
    49 0.021413 -0.957781 0.020046 0.003851 0.000000 0.000000
    50 1.164475 -2.543940 -0.170330 0.083003 -0.013294 0.477915
    51 0.024032 -1.129042 0.017807 -0.018074 0.000000 0.000001
    52 0.014898 -0.883989 -0.019848 -0.060801 0.000000 0.000000
    53 -0.586770 -1.264477 0.200161 -0.152092 -0.410513 -2.814816
    54 1.522835 0.058681 0.016848 0.001410 0.008985 -0.046880
    55 1.117947 0.048424 -0.005766 -0.000243 -0.025198 0.065422
    56 -0.139399 -0.111698 0.014397 0.285382 -0.030687 1.580508
    57 -1.393470 8.839177 -0.239433 1.580804 -0.005023 -1.566847
end
triangles
$20@003_drillgold_v
  17 0.247902 41.780235 -36.987176 0.022330 0.859181 -0.511185 0.557730 0.052838
  17 1.897904 42.620235 -35.187177 0.315971 0.664091 -0.677603 0.563601 0.003914
  17 2.487903 41.780235 -36.447177 0.216243 0.859178 -0.463736 0.522505 0.031311
$20@003_drillgold_v
  17 2.487903 41.780235 -36.447177 0.216243 0.859178 -0.463736 0.522505 0.031311
  17 1.897904 42.620235 -35.187177 0.315971 0.664091 -0.677603 0.563601 0.003914
  17 4.337903 41.780234 -35.087178 0.377236 0.859181 -0.345690 0.557730 0.052838
$20@003_drillgold_v
  17 1.897904 42.620235 -35.187177 0.315971 0.664091 -0.677603 0.563601 0.003914
  17 3.307904 42.620235 -34.147178 0.551216 0.664096 -0.505111 0.626223 0.033268
  17 4.337903 41.780234 -35.087178 0.377236 0.859181 -0.345690 0.557730 0.052838
$20@003_drillgold_v
  17 4.337903 41.780234 -35.087178 0.377236 0.859181 -0.345690 0.557730 0.052838
  17 3.307904 42.620235 -34.147178 0.551216 0.664096 -0.505111 0.626223 0.033268
  17 5.527905 41.780234 -33.127179 0.480806 0.859184 -0.175008 0.630137 0.097847
$20@003_drillgold_v
  17 3.307904 42.620235 -34.147178 0.551216 0.664096 -0.505111 0.626223 0.033268
  17 4.217905 42.620234 -32.647178 0.702556 0.664097 -0.255717 0.686888 0.070450
  17 5.527905 41.780234 -33.127179 0.480806 0.859184 -0.175008 0.630137 0.097847
$20@003_drillgold_v
  17 5.527905 41.780234 -33.127179 0.480806 0.859184 -0.175008 0.630137 0.097847
  17 4.217905 42.620234 -32.647178 0.702556 0.664097 -0.255717 0.686888 0.070450
  15 5.877903 41.780232 -30.839296 0.511181 0.859183 0.022324 0.702544 0.152642
$20@003_drillgold_v
  17 4.217905 42.620234 -32.647178 0.702556 0.664097 -0.255717 0.686888 0.070450
  15 4.487903 42.620232 -30.899295 0.746934 0.664098 0.032619 0.749511 0.119374
  15 5.877903 41.780232 -30.839296 0.511181 0.859183 0.022324 0.702544 0.152642
$20@003_drillgold_v
  15 5.877903 41.780232 -30.839296 0.511181 0.859183 0.022324 0.702544 0.152642
  15 4.487903 42.620232 -30.899295 0.746934 0.664098 0.032619 0.749511 0.119374
  15 5.327904 41.780232 -28.609296 0.463730 0.859182 0.216241 0.771037 0.215264
$20@003_drillgold_v
  15 4.487903 42.620232 -30.899295 0.746934 0.664098 0.032619 0.749511 0.119374
  15 4.067904 42.620232 -29.199295 0.677600 0.664094 0.315971 0.810176 0.174168
  15 5.327904 41.780232 -28.609296 0.463730 0.859182 0.216241 0.771037 0.215264
$20@003_drillgold_v
  15 5.327904 41.780232 -28.609296 0.463730 0.859182 0.216241 0.771037 0.215264
  15 4.067904 42.620232 -29.199295 0.677600 0.664094 0.315971 0.810176 0.174168
  15 3.977905 41.780232 -26.749295 0.345681 0.859184 0.377238 0.833659 0.281800
$20@003_drillgold_v
  15 4.067904 42.620232 -29.199295 0.677600 0.664094 0.315971 0.810176 0.174168
  15 3.027905 42.620233 -27.779295 0.505107 0.664098 0.551217 0.864971 0.232877
  15 3.977905 41.780232 -26.749295 0.345681 0.859184 0.377238 0.833659 0.281800
$20@003_drillgold_v
  15 3.977905 41.780232 -26.749295 0.345681 0.859184 0.377238 0.833659 0.281800
  15 3.027905 42.620233 -27.779295 0.505107 0.664098 0.551217 0.864971 0.232877
  15 2.007906 41.780233 -25.569294 0.175000 0.859183 0.480811 0.888454 0.352250
$20@003_drillgold_v
  15 3.027905 42.620233 -27.779295 0.505107 0.664098 0.551217 0.864971 0.232877
  15 1.527906 42.620233 -26.869294 0.255707 0.664098 0.702558 0.911937 0.291585
  15 2.007906 41.780233 -25.569294 0.175000 0.859183 0.480811 0.888454 0.352250
$20@003_drillgold_v
  15 2.007906 41.780233 -25.569294 0.175000 0.859183 0.480811 0.888454 0.352250
  15 1.527906 42.620233 -26.869294 0.255707 0.664098 0.702558 0.911937 0.291585
  14 -0.271051 41.780232 -25.221765 -0.022318 0.859183 0.511182 0.929550 0.410959
$20@003_drillgold_v
  15 1.527906 42.620233 -26.869294 0.255707 0.664098 0.702558 0.911937 0.291585
  14 -0.211052 42.620232 -26.601765 -0.032613 0.664095 0.746936 0.951076 0.352250
  14 -0.271051 41.780232 -25.221765 -0.022318 0.859183 0.511182 0.929550 0.410959
$20@003_drillgold_v
  14 -0.271051 41.780232 -25.221765 -0.022318 0.859183 0.511182 0.929550 0.410959
  14 -0.211052 42.620232 -26.601765 -0.032613 0.664095 0.746936 0.951076 0.352250
  14 -2.511052 41.780232 -25.761763 -0.216240 0.859185 0.463726 0.958904 0.455969
$20@003_drillgold_v
  14 -0.211052 42.620232 -26.601765 -0.032613 0.664095 0.746936 0.951076 0.352250
  14 -1.921052 42.620232 -27.021764 -0.315968 0.664100 0.677595 0.986301 0.410959
  14 -2.511052 41.780232 -25.761763 -0.216240 0.859185 0.463726 0.958904 0.455969
$20@003_drillgold_v
  14 -2.511052 41.780232 -25.761763 -0.216240 0.859185 0.463726 0.958904 0.455969
  14 -1.921052 42.620232 -27.021764 -0.315968 0.664100 0.677595 0.986301 0.410959
  14 -3.331053 42.620233 -28.061763 -0.551222 0.664095 0.505106 0.951076 0.352250
$20@003_drillgold_v
  14 -1.921052 42.620232 -27.021764 -0.315968 0.664100 0.677595 0.986301 0.410959
  14 -2.841053 44.370233 -28.511763 -0.689045 0.355746 0.631397 0.962818 0.277886
  14 -3.331053 42.620233 -28.061763 -0.551222 0.664095 0.505106 0.951076 0.352250
$20@003_drillgold_v
  14 -3.331053 42.620233 -28.061763 -0.551222 0.664095 0.505106 0.951076 0.352250
  14 -2.841053 44.370233 -28.511763 -0.689045 0.355746 0.631397 0.962818 0.277886
  14 -3.611053 44.370233 -29.791762 -0.878217 0.355749 0.319653 0.931507 0.228963
$20@003_drillgold_v
  16 -2.031062 41.780234 -36.637174 -0.174992 0.859182 -0.480815 0.630137 0.097847
  17 0.187903 42.620236 -35.597176 0.032622 0.664096 -0.746935 0.626223 0.033268
  17 0.247902 41.780235 -36.987176 0.022330 0.859181 -0.511185 0.557730 0.052838
$20@003_drillgold_v
  17 0.247902 41.780235 -36.987176 0.022330 0.859181 -0.511185 0.557730 0.052838
  17 0.187903 42.620236 -35.597176 0.032622 0.664096 -0.746935 0.626223 0.033268
  17 1.897904 42.620235 -35.187177 0.315971 0.664091 -0.677603 0.563601 0.003914
$20@003_drillgold_v
  17 0.187903 42.620236 -35.597176 0.032622 0.664096 -0.746935 0.626223 0.033268
  17 1.607905 44.370235 -34.577177 0.394972 0.355745 -0.847020 0.655577 0.001957
  17 1.897904 42.620235 -35.187177 0.315971 0.664091 -0.677603 0.563601 0.003914
$20@003_drillgold_v
  17 1.897904 42.620235 -35.187177 0.315971 0.664091 -0.677603 0.563601 0.003914
  17 1.607905 44.370235 -34.577177 0.394972 0.355745 -0.847020 0.655577 0.001957
  17 3.307904 42.620235 -34.147178 0.551216 0.664096 -0.505111 0.626223 0.033268
$20@003_drillgold_v
  17 1.607905 44.370235 -34.577177 0.394972 0.355745 -0.847020 0.655577 0.001957
  17 2.817905 44.370235 -33.697177 0.689043 0.355747 -0.631398 0.704501 0.025440
  17 3.307904 42.620235 -34.147178 0.551216 0.664096 -0.505111 0.626223 0.033268
$20@003_drillgold_v
  17 3.307904 42.620235 -34.147178 0.551216 0.664096 -0.505111 0.626223 0.033268
  17 2.817905 44.370235 -33.697177 0.689043 0.355747 -0.631398 0.704501 0.025440
  17 4.217905 42.620234 -32.647178 0.702556 0.664097 -0.255717 0.686888 0.070450
$20@003_drillgold_v
  17 2.817905 44.370235 -33.697177 0.689043 0.355747 -0.631398 0.704501 0.025440
  17 3.587906 44.370235 -32.417178 0.878219 0.355747 -0.319649 0.753425 0.054795
  17 4.217905 42.620234 -32.647178 0.702556 0.664097 -0.255717 0.686888 0.070450
$20@003_drillgold_v
  17 4.217905 42.620234 -32.647178 0.702556 0.664097 -0.255717 0.686888 0.070450
  17 3.587906 44.370235 -32.417178 0.878219 0.355747 -0.319649 0.753425 0.054795
  15 4.487903 42.620232 -30.899295 0.746934 0.664098 0.032619 0.749511 0.119374
$20@003_drillgold_v
  17 3.587906 44.370235 -32.417178 0.878219 0.355747 -0.319649 0.753425 0.054795
  15 3.817904 44.370232 -30.929295 0.933693 0.355747 0.040774 0.802348 0.091977
  15 4.487903 42.620232 -30.899295 0.746934 0.664098 0.032619 0.749511 0.119374
$20@003_drillgold_v
  15 4.487903 42.620232 -30.899295 0.746934 0.664098 0.032619 0.749511 0.119374
  15 3.817904 44.370232 -30.929295 0.933693 0.355747 0.040774 0.802348 0.091977
  15 4.067904 42.620232 -29.199295 0.677600 0.664094 0.315971 0.810176 0.174168
$20@003_drillgold_v
  15 3.817904 44.370232 -30.929295 0.933693 0.355747 0.040774 0.802348 0.091977
  15 3.467904 44.370233 -29.479295 0.847020 0.355745 0.394972 0.849315 0.135029
  15 4.067904 42.620232 -29.199295 0.677600 0.664094 0.315971 0.810176 0.174168
$20@003_drillgold_v
  15 4.067904 42.620232 -29.199295 0.677600 0.664094 0.315971 0.810176 0.174168
  15 3.467904 44.370233 -29.479295 0.847020 0.355745 0.394972 0.849315 0.135029
  15 3.027905 42.620233 -27.779295 0.505107 0.664098 0.551217 0.864971 0.232877
$20@003_drillgold_v
  15 3.467904 44.370233 -29.479295 0.847020 0.355745 0.394972 0.849315 0.135029
  15 2.577905 44.370233 -28.279294 0.631400 0.355748 0.689041 0.892368 0.181996
  15 3.027905 42.620233 -27.779295 0.505107 0.664098 0.551217 0.864971 0.232877
$20@003_drillgold_v
  15 3.027905 42.620233 -27.779295 0.505107 0.664098 0.551217 0.864971 0.232877
  15 2.577905 44.370233 -28.279294 0.631400 0.355748 0.689041 0.892368 0.181996
  15 1.527906 42.620233 -26.869294 0.255707 0.664098 0.702558 0.911937 0.291585
$20@003_drillgold_v
  15 2.577905 44.370233 -28.279294 0.631400 0.355748 0.689041 0.892368 0.181996
  15 1.297906 44.370233 -27.499293 0.319641 0.355749 0.878221 0.931507 0.228963
  15 1.527906 42.620233 -26.869294 0.255707 0.664098 0.702558 0.911937 0.291585
$20@003_drillgold_v
  15 1.527906 42.620233 -26.869294 0.255707 0.664098 0.702558 0.911937 0.291585
  15 1.297906 44.370233 -27.499293 0.319641 0.355749 0.878221 0.931507 0.228963
  14 -0.211052 42.620232 -26.601765 -0.032613 0.664095 0.746936 0.951076 0.352250
$20@003_drillgold_v
  15 1.297906 44.370233 -27.499293 0.319641 0.355749 0.878221 0.931507 0.228963
  14 -0.181052 44.370232 -27.271765 -0.040767 0.355746 0.933693 0.962818 0.277886
  14 -0.211052 42.620232 -26.601765 -0.032613 0.664095 0.746936 0.951076 0.352250
$20@003_drillgold_v
  14 -0.211052 42.620232 -26.601765 -0.032613 0.664095 0.746936 0.951076 0.352250
  14 -0.181052 44.370232 -27.271765 -0.040767 0.355746 0.933693 0.962818 0.277886
  14 -1.921052 42.620232 -27.021764 -0.315968 0.664100 0.677595 0.986301 0.410959
$20@003_drillgold_v
  14 -0.181052 44.370232 -27.271765 -0.040767 0.355746 0.933693 0.962818 0.277886
  14 -1.631052 44.370232 -27.631764 -0.394971 0.355747 0.847020 0.988258 0.324853
  14 -1.921052 42.620232 -27.021764 -0.315968 0.664100 0.677595 0.986301 0.410959
$20@003_drillgold_v
  14 -1.921052 42.620232 -27.021764 -0.315968 0.664100 0.677595 0.986301 0.410959
  14 -1.631052 44.370232 -27.631764 -0.394971 0.355747 0.847020 0.988258 0.324853
  14 -2.841053 44.370233 -28.511763 -0.689045 0.355746 0.631397 0.962818 0.277886
$20@003_drillgold_v
  13 -0.009995 44.370232 -31.109044 0.000002 1.000000 -0.000002 0.821918 0.786693
  15 2.577905 44.370233 -28.279294 -0.000001 1.000000 0.000000 0.726027 0.639922
  15 3.467904 44.370233 -29.479295 -0.000001 1.000000 0.000000 0.782779 0.614481
$20@003_drillgold_v
  13 -0.009995 44.370232 -31.109044 0.000002 1.000000 -0.000002 0.821918 0.786693
  15 1.297906 44.370233 -27.499293 -0.000001 1.000000 0.000000 0.679061 0.682975
  15 2.577905 44.370233 -28.279294 -0.000001 1.000000 0.000000 0.726027 0.639922
$20@003_drillgold_v
  13 -0.009995 44.370232 -31.109044 0.000002 1.000000 -0.000002 0.821918 0.786693
  14 -0.181052 44.370232 -27.271765 0.000000 1.000000 -0.000001 0.647750 0.739726
  15 1.297906 44.370233 -27.499293 -0.000001 1.000000 0.000000 0.679061 0.682975
$20@003_drillgold_v
  13 -0.009995 44.370232 -31.109044 0.000002 1.000000 -0.000002 0.821918 0.786693
  14 -1.631052 44.370232 -27.631764 0.000000 1.000000 -0.000001 0.637965 0.806262
  14 -0.181052 44.370232 -27.271765 0.000000 1.000000 -0.000001 0.647750 0.739726
$20@003_drillgold_v
  13 -0.009995 44.370232 -31.109044 0.000002 1.000000 -0.000002 0.821918 0.786693
  14 -2.841053 44.370233 -28.511763 0.000000 1.000000 -0.000001 0.647750 0.739726
  14 -1.631052 44.370232 -27.631764 0.000000 1.000000 -0.000001 0.637965 0.806262
$20@003_drillgold_v
  13 -0.009995 44.370232 -31.109044 0.000002 1.000000 -0.000002 0.821918 0.786693
  14 -3.611053 44.370233 -29.791762 0.000000 1.000000 -0.000001 0.679061 0.682975
  14 -2.841053 44.370233 -28.511763 0.000000 1.000000 -0.000001 0.647750 0.739726
$20@003_drillgold_v
  13 -0.009995 44.370232 -31.109044 0.000002 1.000000 -0.000002 0.821918 0.786693
  16 -3.841057 44.370235 -31.277173 0.000003 1.000000 0.000001 0.726027 0.639922
  14 -3.611053 44.370233 -29.791762 0.000000 1.000000 -0.000001 0.679061 0.682975
$20@003_drillgold_v
  13 -0.009995 44.370232 -31.109044 0.000002 1.000000 -0.000002 0.821918 0.786693
  16 -3.491058 44.370235 -32.727173 0.000003 1.000000 0.000001 0.782779 0.614481
  16 -3.841057 44.370235 -31.277173 0.000003 1.000000 0.000001 0.726027 0.639922
$20@003_drillgold_v
  13 -0.009995 44.370232 -31.109044 0.000002 1.000000 -0.000002 0.821918 0.786693
  16 -2.601059 44.370234 -33.927174 0.000003 1.000000 0.000001 0.845401 0.612524
  16 -3.491058 44.370235 -32.727173 0.000003 1.000000 0.000001 0.782779 0.614481
$20@003_drillgold_v
  13 -0.009995 44.370232 -31.109044 0.000002 1.000000 -0.000002 0.821918 0.786693
  16 -1.331059 44.370234 -34.707175 0.000003 1.000000 0.000001 0.906067 0.632094
  16 -2.601059 44.370234 -33.927174 0.000003 1.000000 0.000001 0.845401 0.612524
$20@003_drillgold_v
  13 -0.009995 44.370232 -31.109044 0.000002 1.000000 -0.000002 0.821918 0.786693
  17 0.157904 44.370236 -34.937175 -0.000003 1.000000 -0.000015 0.956947 0.671233
  16 -1.331059 44.370234 -34.707175 0.000003 1.000000 0.000001 0.906067 0.632094
$20@003_drillgold_v
  13 -0.009995 44.370232 -31.109044 0.000002 1.000000 -0.000002 0.821918 0.786693
  17 1.607905 44.370235 -34.577177 -0.000003 1.000000 -0.000015 0.994129 0.727984
  17 0.157904 44.370236 -34.937175 -0.000003 1.000000 -0.000015 0.956947 0.671233
$20@003_drillgold_v
  13 -0.009995 44.370232 -31.109044 0.000002 1.000000 -0.000002 0.821918 0.786693
  17 2.817905 44.370235 -33.697177 -0.000003 1.000000 -0.000015 0.956947 0.671233
  17 1.607905 44.370235 -34.577177 -0.000003 1.000000 -0.000015 0.994129 0.727984
$20@003_drillgold_v
  13 -0.009995 44.370232 -31.109044 0.000002 1.000000 -0.000002 0.821918 0.786693
  17 3.587906 44.370235 -32.417178 -0.000003 1.000000 -0.000015 0.906067 0.632094
  17 2.817905 44.370235 -33.697177 -0.000003 1.000000 -0.000015 0.956947 0.671233
$20@003_drillgold_v
  13 -0.009995 44.370232 -31.109044 0.000002 1.000000 -0.000002 0.821918 0.786693
  15 3.817904 44.370232 -30.929295 -0.000001 1.000000 0.000000 0.845401 0.612524
  17 3.587906 44.370235 -32.417178 -0.000003 1.000000 -0.000015 0.906067 0.632094
$20@003_drillgold_v
  13 -0.009995 44.370232 -31.109044 0.000002 1.000000 -0.000002 0.821918 0.786693
  15 3.467904 44.370233 -29.479295 -0.000001 1.000000 0.000000 0.782779 0.614481
  15 3.817904 44.370232 -30.929295 -0.000001 1.000000 0.000000 0.845401 0.612524
$20@003_drillgold_v
  14 -3.331053 42.620233 -28.061763 -0.551222 0.664095 0.505106 0.951076 0.352250
  14 -4.241054 42.620233 -29.561762 -0.702554 0.664099 0.255715 0.911937 0.291585
  14 -4.361053 41.780233 -27.111762 -0.377241 0.859183 0.345679 0.929550 0.410959
$20@003_drillgold_v
  14 -4.361053 41.780233 -27.111762 -0.377241 0.859183 0.345679 0.929550 0.410959
  14 -4.241054 42.620233 -29.561762 -0.702554 0.664099 0.255715 0.911937 0.291585
  14 -5.551054 41.780233 -29.081761 -0.480809 0.859183 0.175004 0.888454 0.352250
$20@003_drillgold_v
  14 -4.241054 42.620233 -29.561762 -0.702554 0.664099 0.255715 0.911937 0.291585
  16 -4.511058 42.620235 -31.307173 -0.746934 0.664098 -0.032617 0.864971 0.232877
  14 -5.551054 41.780233 -29.081761 -0.480809 0.859183 0.175004 0.888454 0.352250
$20@003_drillgold_v
  14 -5.551054 41.780233 -29.081761 -0.480809 0.859183 0.175004 0.888454 0.352250
  16 -4.511058 42.620235 -31.307173 -0.746934 0.664098 -0.032617 0.864971 0.232877
  16 -5.901058 41.780235 -31.367172 -0.511181 0.859183 -0.022322 0.833659 0.281800
$20@003_drillgold_v
  16 -4.511058 42.620235 -31.307173 -0.746934 0.664098 -0.032617 0.864971 0.232877
  16 -4.091059 42.620235 -33.007173 -0.677601 0.664093 -0.315970 0.810176 0.174168
  16 -5.901058 41.780235 -31.367172 -0.511181 0.859183 -0.022322 0.833659 0.281800
$20@003_drillgold_v
  16 -5.901058 41.780235 -31.367172 -0.511181 0.859183 -0.022322 0.833659 0.281800
  16 -4.091059 42.620235 -33.007173 -0.677601 0.664093 -0.315970 0.810176 0.174168
  16 -5.351060 41.780235 -33.597172 -0.463731 0.859182 -0.216241 0.771037 0.215264
$20@003_drillgold_v
  16 -4.091059 42.620235 -33.007173 -0.677601 0.664093 -0.315970 0.810176 0.174168
  16 -3.051060 42.620235 -34.427173 -0.505108 0.664097 -0.551218 0.749511 0.119374
  16 -5.351060 41.780235 -33.597172 -0.463731 0.859182 -0.216241 0.771037 0.215264
$20@003_drillgold_v
  16 -5.351060 41.780235 -33.597172 -0.463731 0.859182 -0.216241 0.771037 0.215264
  16 -3.051060 42.620235 -34.427173 -0.505108 0.664097 -0.551218 0.749511 0.119374
  16 -4.001061 41.780235 -35.457173 -0.345683 0.859182 -0.377240 0.702544 0.152642
$20@003_drillgold_v
  16 -3.051060 42.620235 -34.427173 -0.505108 0.664097 -0.551218 0.749511 0.119374
  16 -1.551060 42.620234 -35.337174 -0.255704 0.664095 -0.702562 0.686888 0.070450
  16 -4.001061 41.780235 -35.457173 -0.345683 0.859182 -0.377240 0.702544 0.152642
$20@003_drillgold_v
  16 -4.001061 41.780235 -35.457173 -0.345683 0.859182 -0.377240 0.702544 0.152642
  16 -1.551060 42.620234 -35.337174 -0.255704 0.664095 -0.702562 0.686888 0.070450
  16 -2.031062 41.780234 -36.637174 -0.174992 0.859182 -0.480815 0.630137 0.097847
$20@003_drillgold_v
  16 -1.551060 42.620234 -35.337174 -0.255704 0.664095 -0.702562 0.686888 0.070450
  17 0.187903 42.620236 -35.597176 0.032622 0.664096 -0.746935 0.626223 0.033268
  16 -2.031062 41.780234 -36.637174 -0.174992 0.859182 -0.480815 0.630137 0.097847
$20@003_drillgold_v
  14 -3.611053 44.370233 -29.791762 -0.878217 0.355749 0.319653 0.931507 0.228963
  16 -3.841057 44.370235 -31.277173 -0.933692 0.355748 -0.040773 0.892368 0.181996
  14 -4.241054 42.620233 -29.561762 -0.702554 0.664099 0.255715 0.911937 0.291585
$20@003_drillgold_v
  14 -4.241054 42.620233 -29.561762 -0.702554 0.664099 0.255715 0.911937 0.291585
  16 -3.841057 44.370235 -31.277173 -0.933692 0.355748 -0.040773 0.892368 0.181996
  16 -4.511058 42.620235 -31.307173 -0.746934 0.664098 -0.032617 0.864971 0.232877
$20@003_drillgold_v
  16 -3.841057 44.370235 -31.277173 -0.933692 0.355748 -0.040773 0.892368 0.181996
  16 -3.491058 44.370235 -32.727173 -0.847020 0.355746 -0.394971 0.849315 0.135029
  16 -4.511058 42.620235 -31.307173 -0.746934 0.664098 -0.032617 0.864971 0.232877
$20@003_drillgold_v
  16 -4.511058 42.620235 -31.307173 -0.746934 0.664098 -0.032617 0.864971 0.232877
  16 -3.491058 44.370235 -32.727173 -0.847020 0.355746 -0.394971 0.849315 0.135029
  16 -4.091059 42.620235 -33.007173 -0.677601 0.664093 -0.315970 0.810176 0.174168
$20@003_drillgold_v
  16 -3.491058 44.370235 -32.727173 -0.847020 0.355746 -0.394971 0.849315 0.135029
  16 -2.601059 44.370234 -33.927174 -0.631400 0.355747 -0.689041 0.802348 0.091977
  16 -4.091059 42.620235 -33.007173 -0.677601 0.664093 -0.315970 0.810176 0.174168
$20@003_drillgold_v
  16 -4.091059 42.620235 -33.007173 -0.677601 0.664093 -0.315970 0.810176 0.174168
  16 -2.601059 44.370234 -33.927174 -0.631400 0.355747 -0.689041 0.802348 0.091977
  16 -3.051060 42.620235 -34.427173 -0.505108 0.664097 -0.551218 0.749511 0.119374
$20@003_drillgold_v
  16 -2.601059 44.370234 -33.927174 -0.631400 0.355747 -0.689041 0.802348 0.091977
  16 -1.331059 44.370234 -34.707175 -0.319645 0.355749 -0.878220 0.753425 0.054795
  16 -3.051060 42.620235 -34.427173 -0.505108 0.664097 -0.551218 0.749511 0.119374
$20@003_drillgold_v
  16 -3.051060 42.620235 -34.427173 -0.505108 0.664097 -0.551218 0.749511 0.119374
  16 -1.331059 44.370234 -34.707175 -0.319645 0.355749 -0.878220 0.753425 0.054795
  16 -1.551060 42.620234 -35.337174 -0.255704 0.664095 -0.702562 0.686888 0.070450
$20@003_drillgold_v
  16 -1.331059 44.370234 -34.707175 -0.319645 0.355749 -0.878220 0.753425 0.054795
  17 0.157904 44.370236 -34.937175 0.040770 0.355747 -0.933693 0.704501 0.025440
  16 -1.551060 42.620234 -35.337174 -0.255704 0.664095 -0.702562 0.686888 0.070450
$20@003_drillgold_v
  16 -1.551060 42.620234 -35.337174 -0.255704 0.664095 -0.702562 0.686888 0.070450
  17 0.157904 44.370236 -34.937175 0.040770 0.355747 -0.933693 0.704501 0.025440
  17 0.187903 42.620236 -35.597176 0.032622 0.664096 -0.746935 0.626223 0.033268
$20@003_drillgold_v
  17 0.157904 44.370236 -34.937175 0.040770 0.355747 -0.933693 0.704501 0.025440
  17 1.607905 44.370235 -34.577177 0.394972 0.355745 -0.847020 0.655577 0.001957
  17 0.187903 42.620236 -35.597176 0.032622 0.664096 -0.746935 0.626223 0.033268
$20@003_drillgold_v
  13 -0.010005 13.380232 -31.109044 0.863763 -0.302792 0.402779 0.011742 0.986301
  14 -0.271051 41.780232 -25.221765 -0.042712 -0.203221 0.978201 0.929550 0.410959
  14 -2.511052 41.780232 -25.761763 -0.232900 -0.199474 0.951823 0.958904 0.455969
$20@003_drillgold_v
  13 -0.010005 13.380232 -31.109044 0.863763 -0.302792 0.402779 0.011742 0.986301
  15 2.007906 41.780233 -25.569294 0.334877 -0.203222 0.920086 0.888454 0.352250
  14 -0.271051 41.780232 -25.221765 -0.042712 -0.203221 0.978201 0.929550 0.410959
$20@003_drillgold_v
  13 -0.010005 13.380232 -31.109044 0.863763 -0.302792 0.402779 0.011742 0.986301
  15 3.977905 41.780232 -26.749295 0.661498 -0.203221 0.721888 0.833659 0.281800
  15 2.007906 41.780233 -25.569294 0.334877 -0.203222 0.920086 0.888454 0.352250
$20@003_drillgold_v
  13 -0.010005 13.380232 -31.109044 0.863763 -0.302792 0.402779 0.011742 0.986301
  15 5.327904 41.780232 -28.609296 0.887396 -0.203221 0.413800 0.771037 0.215264
  15 3.977905 41.780232 -26.749295 0.661498 -0.203221 0.721888 0.833659 0.281800
$20@003_drillgold_v
  13 -0.010005 13.380232 -31.109044 0.863763 -0.302792 0.402779 0.011742 0.986301
  15 5.877903 41.780232 -30.839296 0.978200 -0.203222 0.042716 0.702544 0.152642
  15 5.327904 41.780232 -28.609296 0.887396 -0.203221 0.413800 0.771037 0.215264
$20@003_drillgold_v
  13 -0.010005 13.380232 -31.109044 0.863763 -0.302792 0.402779 0.011742 0.986301
  17 5.527905 41.780234 -33.127179 0.920084 -0.203222 -0.334881 0.630137 0.097847
  15 5.877903 41.780232 -30.839296 0.978200 -0.203222 0.042716 0.702544 0.152642
$20@003_drillgold_v
  13 -0.010005 13.380232 -31.109044 0.863763 -0.302792 0.402779 0.011742 0.986301
  17 4.337903 41.780234 -35.087178 0.721891 -0.203223 -0.661494 0.557730 0.052838
  17 5.527905 41.780234 -33.127179 0.920084 -0.203222 -0.334881 0.630137 0.097847
$20@003_drillgold_v
  13 -0.010005 13.380232 -31.109044 0.863763 -0.302792 0.402779 0.011742 0.986301
  17 2.487903 41.780235 -36.447177 0.579420 -0.199475 -0.790242 0.522505 0.031311
  17 4.337903 41.780234 -35.087178 0.721891 -0.203223 -0.661494 0.557730 0.052838
$20@003_drillgold_v
  13 -0.010005 13.380232 -31.109044 -0.863762 -0.302792 -0.402781 0.011742 0.986301
  17 0.247902 41.780235 -36.987176 0.042710 -0.203223 -0.978201 0.557730 0.052838
  17 2.487903 41.780235 -36.447177 0.232916 -0.199475 -0.951819 0.522505 0.031311
$20@003_drillgold_v
  13 -0.010005 13.380232 -31.109044 -0.863762 -0.302792 -0.402781 0.011742 0.986301
  16 -2.031062 41.780234 -36.637174 -0.334887 -0.203222 -0.920082 0.630137 0.097847
  17 0.247902 41.780235 -36.987176 0.042710 -0.203223 -0.978201 0.557730 0.052838
$20@003_drillgold_v
  13 -0.010005 13.380232 -31.109044 -0.863762 -0.302792 -0.402781 0.011742 0.986301
  16 -4.001061 41.780235 -35.457173 -0.661498 -0.203222 -0.721887 0.702544 0.152642
  16 -2.031062 41.780234 -36.637174 -0.334887 -0.203222 -0.920082 0.630137 0.097847
$20@003_drillgold_v
  13 -0.010005 13.380232 -31.109044 -0.863762 -0.302792 -0.402781 0.011742 0.986301
  16 -5.351060 41.780235 -33.597172 -0.887396 -0.203221 -0.413799 0.771037 0.215264
  16 -4.001061 41.780235 -35.457173 -0.661498 -0.203222 -0.721887 0.702544 0.152642
$20@003_drillgold_v
  13 -0.010005 13.380232 -31.109044 -0.863762 -0.302792 -0.402781 0.011742 0.986301
  16 -5.901058 41.780235 -31.367172 -0.978201 -0.203222 -0.042716 0.833659 0.281800
  16 -5.351060 41.780235 -33.597172 -0.887396 -0.203221 -0.413799 0.771037 0.215264
$20@003_drillgold_v
  13 -0.010005 13.380232 -31.109044 -0.863762 -0.302792 -0.402781 0.011742 0.986301
  14 -5.551054 41.780233 -29.081761 -0.920081 -0.203222 0.334890 0.888454 0.352250
  16 -5.901058 41.780235 -31.367172 -0.978201 -0.203222 -0.042716 0.833659 0.281800
$20@003_drillgold_v
  13 -0.010005 13.380232 -31.109044 -0.863762 -0.302792 -0.402781 0.011742 0.986301
  14 -4.361053 41.780233 -27.111762 -0.721889 -0.203221 0.661496 0.929550 0.410959
  14 -5.551054 41.780233 -29.081761 -0.920081 -0.203222 0.334890 0.888454 0.352250
$20@003_drillgold_v
  13 -0.010005 13.380232 -31.109044 -0.863762 -0.302792 -0.402781 0.011742 0.986301
  14 -2.511052 41.780232 -25.761763 -0.579434 -0.199474 0.790232 0.958904 0.455969
  14 -4.361053 41.780233 -27.111762 -0.721889 -0.203221 0.661496 0.929550 0.410959
$20@003_drillgold_v
  14 -2.511052 41.780232 -25.761763 -0.216240 0.859185 0.463726 0.958904 0.455969
  14 -3.331053 42.620233 -28.061763 -0.551222 0.664095 0.505106 0.951076 0.352250
  14 -4.361053 41.780233 -27.111762 -0.377241 0.859183 0.345679 0.929550 0.410959
$20@003_drillgold_v
  14 -3.331053 42.620233 -28.061763 -0.551222 0.664095 0.505106 0.951076 0.352250
  14 -3.611053 44.370233 -29.791762 -0.878217 0.355749 0.319653 0.931507 0.228963
  14 -4.241054 42.620233 -29.561762 -0.702554 0.664099 0.255715 0.911937 0.291585
$0b_drillgold_add
  17 0.027898 15.820235 -31.517176 0.994529 0.086310 0.058844 0.733333 0.015686
  14 -2.791062 19.100232 -30.691763 0.908611 0.393851 -0.138952 0.745098 0.078431
  15 0.637895 15.540234 -30.839293 0.974031 0.219976 -0.053616 0.262745 0.015686
$0b_drillgold_add
  15 0.637895 15.540234 -30.839293 0.974031 0.219976 -0.053616 0.262745 0.015686
  14 -2.791062 19.100232 -30.691763 0.908611 0.393851 -0.138952 0.745098 0.078431
  14 -0.691062 18.370232 -29.961764 0.849450 0.466315 -0.246952 0.250980 0.078431
$0b_drillgold_add
  14 -2.791062 19.100232 -30.691763 0.908611 0.393851 -0.138952 0.745098 0.078431
  14 -5.061060 22.180233 -29.761762 0.831381 0.523216 -0.187218 0.752941 0.145098
  14 -0.691062 18.370232 -29.961764 0.849450 0.466315 -0.246952 0.250980 0.078431
$0b_drillgold_add
  14 -0.691062 18.370232 -29.961764 0.849450 0.466315 -0.246952 0.250980 0.078431
  14 -5.061060 22.180233 -29.761762 0.831381 0.523216 -0.187218 0.752941 0.145098
  14 -1.681060 21.060232 -29.141764 0.743023 0.596649 -0.303195 0.243137 0.145098
$0b_drillgold_add
  14 -5.061060 22.180233 -29.761762 0.831381 0.523216 -0.187218 0.752941 0.145098
  14 -6.771059 25.060233 -28.691760 0.778027 0.600272 -0.185332 0.764706 0.207843
  14 -1.681060 21.060232 -29.141764 0.743023 0.596649 -0.303195 0.243137 0.145098
$0b_drillgold_add
  14 -1.681060 21.060232 -29.141764 0.743023 0.596649 -0.303195 0.243137 0.145098
  14 -6.771059 25.060233 -28.691760 0.778027 0.600272 -0.185332 0.764706 0.207843
  14 -2.351059 23.600232 -28.391763 0.647722 0.689542 -0.324020 0.231373 0.207843
$0b_drillgold_add
  14 -6.771059 25.060233 -28.691760 0.778027 0.600272 -0.185332 0.764706 0.207843
  14 -7.951057 27.750234 -27.501760 0.742287 0.653426 -0.148474 0.776471 0.270588
  14 -2.351059 23.600232 -28.391763 0.647722 0.689542 -0.324020 0.231373 0.207843
$0b_drillgold_add
  14 -2.351059 23.600232 -28.391763 0.647722 0.689542 -0.324020 0.231373 0.207843
  14 -7.951057 27.750234 -27.501760 0.742287 0.653426 -0.148474 0.776471 0.270588
  14 -2.701058 26.000232 -27.711763 0.560355 0.767824 -0.310561 0.219608 0.270588
$0b_drillgold_add
  14 -7.951057 27.750234 -27.501760 0.742287 0.653426 -0.148474 0.776471 0.270588
  14 -8.601056 30.240234 -26.181759 0.721291 0.687748 -0.082106 0.788235 0.337255
  14 -2.701058 26.000232 -27.711763 0.560355 0.767824 -0.310561 0.219608 0.270588
$0b_drillgold_add
  14 -2.701058 26.000232 -27.711763 0.560355 0.767824 -0.310561 0.219608 0.270588
  14 -8.601056 30.240234 -26.181759 0.721291 0.687748 -0.082106 0.788235 0.337255
  14 -2.721057 28.250232 -27.091763 0.488483 0.834245 -0.255773 0.207843 0.337255
$0b_drillgold_add
  14 -8.601056 30.240234 -26.181759 0.721291 0.687748 -0.082106 0.788235 0.337255
  14 -8.691054 32.540234 -24.741759 0.712229 0.701895 0.008534 0.800000 0.400000
  14 -2.721057 28.250232 -27.091763 0.488483 0.834245 -0.255773 0.207843 0.337255
$0b_drillgold_add
  14 -2.721057 28.250232 -27.091763 0.488483 0.834245 -0.255773 0.207843 0.337255
  14 -8.691054 32.540234 -24.741759 0.712229 0.701895 0.008534 0.800000 0.400000
  14 -2.431056 30.340232 -26.531763 0.443247 0.883073 -0.153993 0.196078 0.400000
$0b_drillgold_add
  14 -8.691054 32.540234 -24.741759 0.712229 0.701895 0.008534 0.800000 0.400000
  14 -8.251052 34.650234 -23.161760 0.711524 0.693072 0.115691 0.807843 0.462745
  14 -2.431056 30.340232 -26.531763 0.443247 0.883073 -0.153993 0.196078 0.400000
$0b_drillgold_add
  14 -2.431056 30.340232 -26.531763 0.443247 0.883073 -0.153993 0.196078 0.400000
  14 -8.251052 34.650234 -23.161760 0.711524 0.693072 0.115691 0.807843 0.462745
  14 -1.811055 32.300232 -26.031764 0.432454 0.901612 -0.008871 0.188235 0.462745
$0b_drillgold_add
  14 -8.251052 34.650234 -23.161760 0.711524 0.693072 0.115691 0.807843 0.462745
  14 -7.261051 36.560233 -21.461760 0.715330 0.660740 0.227434 0.819608 0.529412
  14 -1.811055 32.300232 -26.031764 0.432454 0.901612 -0.008871 0.188235 0.462745
$0b_drillgold_add
  14 -1.811055 32.300232 -26.031764 0.432454 0.901612 -0.008871 0.188235 0.462745
  14 -7.261051 36.560233 -21.461760 0.715330 0.660740 0.227434 0.819608 0.529412
  14 -0.871054 34.110232 -25.621764 0.453737 0.876824 0.159070 0.176471 0.529412
$0b_drillgold_add
  14 -7.261051 36.560233 -21.461760 0.715330 0.660740 0.227434 0.819608 0.529412
  14 -5.741049 38.280233 -19.621761 0.720710 0.609802 0.329726 0.831373 0.592157
  14 -0.871054 34.110232 -25.621764 0.453737 0.876824 0.159070 0.176471 0.529412
$0b_drillgold_add
  14 -0.871054 34.110232 -25.621764 0.453737 0.876824 0.159070 0.176471 0.529412
  14 -5.741049 38.280233 -19.621761 0.720710 0.609802 0.329726 0.831373 0.592157
  15 0.407905 35.780233 -25.249293 0.494096 0.809500 0.317142 0.164706 0.592157
$0b_drillgold_add
  14 -5.741049 38.280233 -19.621761 0.720710 0.609802 0.329726 0.831373 0.592157
  14 -3.681047 39.800232 -17.661762 0.726469 0.549664 0.412448 0.843137 0.654902
  15 0.407905 35.780233 -25.249293 0.494096 0.809500 0.317142 0.164706 0.592157
$0b_drillgold_add
  15 0.407905 35.780233 -25.249293 0.494096 0.809500 0.317142 0.164706 0.592157
  14 -3.681047 39.800232 -17.661762 0.726469 0.549664 0.412448 0.843137 0.654902
  15 1.997905 37.300233 -24.949294 0.538861 0.718025 0.440532 0.152941 0.654902
$0b_drillgold_add
  14 -3.681047 39.800232 -17.661762 0.726469 0.549664 0.412448 0.843137 0.654902
  14 -1.061045 41.130231 -15.561765 0.732600 0.489688 0.472761 0.850980 0.721569
  15 1.997905 37.300233 -24.949294 0.538861 0.718025 0.440532 0.152941 0.654902
$0b_drillgold_add
  15 1.997905 37.300233 -24.949294 0.538861 0.718025 0.440532 0.152941 0.654902
  14 -1.061045 41.130231 -15.561765 0.732600 0.489688 0.472761 0.850980 0.721569
  15 3.907906 38.680232 -24.709295 0.579735 0.623980 0.523981 0.145098 0.721569
$0b_drillgold_add
  14 -1.061045 41.130231 -15.561765 0.732600 0.489688 0.472761 0.850980 0.721569
  15 2.097914 42.270233 -13.349294 0.739266 0.435828 0.513361 0.862745 0.784314
  15 3.907906 38.680232 -24.709295 0.579735 0.623980 0.523981 0.145098 0.721569
$0b_drillgold_add
  15 3.907906 38.680232 -24.709295 0.579735 0.623980 0.523981 0.145098 0.721569
  15 2.097914 42.270233 -13.349294 0.739266 0.435828 0.513361 0.862745 0.784314
  15 6.127906 39.910232 -24.539296 0.614571 0.540206 0.574874 0.133333 0.784314
$0b_drillgold_add
  15 2.097914 42.270233 -13.349294 0.739266 0.435828 0.513361 0.862745 0.784314
  15 5.787916 43.210232 -10.999297 0.746393 0.390352 0.539002 0.874510 0.847059
  15 6.127906 39.910232 -24.539296 0.614571 0.540206 0.574874 0.133333 0.784314
$0b_drillgold_add
  15 6.127906 39.910232 -24.539296 0.614571 0.540206 0.574874 0.133333 0.784314
  15 5.787916 43.210232 -10.999297 0.746393 0.390352 0.539002 0.874510 0.847059
  15 8.687907 41.000231 -24.429298 0.643890 0.470758 0.603152 0.121569 0.847059
$0b_drillgold_add
  15 5.787916 43.210232 -10.999297 0.746393 0.390352 0.539002 0.874510 0.847059
  15 10.027918 43.950230 -8.519299 0.753754 0.353176 0.554185 0.886275 0.913725
  15 8.687907 41.000231 -24.429298 0.643890 0.470758 0.603152 0.121569 0.847059
$0b_drillgold_add
  15 8.687907 41.000231 -24.429298 0.643890 0.470758 0.603152 0.121569 0.847059
  15 10.027918 43.950230 -8.519299 0.753754 0.353176 0.554185 0.886275 0.913725
  15 11.567907 41.940230 -24.389300 0.668738 0.415077 0.616848 0.109804 0.913725
$0b_drillgold_add
  15 10.027918 43.950230 -8.519299 0.753754 0.353176 0.554185 0.886275 0.913725
  15 14.807920 44.510228 -5.909301 0.753754 0.353176 0.554185 0.898039 0.976471
  15 11.567907 41.940230 -24.389300 0.668738 0.415077 0.616848 0.109804 0.913725
$0b_drillgold_add
  15 11.567907 41.940230 -24.389300 0.668738 0.415077 0.616848 0.109804 0.913725
  15 14.807920 44.510228 -5.909301 0.753754 0.353176 0.554185 0.898039 0.976471
  15 14.767908 42.730229 -24.409302 0.668738 0.415077 0.616848 0.098039 0.976471
$0b_drillgold_add
  15 0.557895 15.820233 -31.089293 0.465211 -0.197048 0.862990 0.733333 0.015686
  17 1.267897 19.100235 -33.937176 0.593325 -0.477291 0.648197 0.745098 0.078431
  14 -0.331063 15.540232 -30.891764 0.515148 -0.346107 0.784112 0.262745 0.015686
$0b_drillgold_add
  14 -0.331063 15.540232 -30.891764 0.515148 -0.346107 0.784112 0.262745 0.015686
  17 1.267897 19.100235 -33.937176 0.593325 -0.477291 0.648197 0.745098 0.078431
  16 -0.431066 18.370234 -32.477175 0.581309 -0.589629 0.560729 0.250980 0.078431
$0b_drillgold_add
  17 1.267897 19.100235 -33.937176 0.593325 -0.477291 0.648197 0.745098 0.078431
  17 1.587896 22.180235 -36.357176 0.647795 -0.555146 0.521703 0.752941 0.145098
  16 -0.431066 18.370234 -32.477175 0.581309 -0.589629 0.560729 0.250980 0.078431
$0b_drillgold_add
  16 -0.431066 18.370234 -32.477175 0.581309 -0.589629 0.560729 0.250980 0.078431
  17 1.587896 22.180235 -36.357176 0.647795 -0.555146 0.521703 0.752941 0.145098
  16 -0.641066 21.060233 -33.747175 0.622136 -0.668666 0.407226 0.243137 0.145098
$0b_drillgold_add
  17 1.587896 22.180235 -36.357176 0.647795 -0.555146 0.521703 0.752941 0.145098
  17 1.527896 25.060235 -38.387177 0.691377 -0.572624 0.440568 0.764706 0.207843
  16 -0.641066 21.060233 -33.747175 0.622136 -0.668666 0.407226 0.243137 0.145098
$0b_drillgold_add
  16 -0.641066 21.060233 -33.747175 0.622136 -0.668666 0.407226 0.243137 0.145098
  17 1.527896 25.060235 -38.387177 0.691377 -0.572624 0.440568 0.764706 0.207843
  16 -0.961066 23.600233 -34.707175 0.652742 -0.703623 0.280789 0.231373 0.207843
$0b_drillgold_add
  17 1.527896 25.060235 -38.387177 0.691377 -0.572624 0.440568 0.764706 0.207843
  17 1.087896 27.750235 -40.007176 0.737923 -0.553217 0.386549 0.776471 0.270588
  16 -0.961066 23.600233 -34.707175 0.652742 -0.703623 0.280789 0.231373 0.207843
$0b_drillgold_add
  16 -0.961066 23.600233 -34.707175 0.652742 -0.703623 0.280789 0.231373 0.207843
  17 1.087896 27.750235 -40.007176 0.737923 -0.553217 0.386549 0.776471 0.270588
  16 -1.381066 26.000234 -35.347175 0.689950 -0.703918 0.168728 0.219608 0.270588
$0b_drillgold_add
  17 1.087896 27.750235 -40.007176 0.737923 -0.553217 0.386549 0.776471 0.270588
  17 0.267896 30.240235 -41.217176 0.788012 -0.503193 0.354732 0.788235 0.337255
  16 -1.381066 26.000234 -35.347175 0.689950 -0.703918 0.168728 0.219608 0.270588
$0b_drillgold_add
  16 -1.381066 26.000234 -35.347175 0.689950 -0.703918 0.168728 0.219608 0.270588
  17 0.267896 30.240235 -41.217176 0.788012 -0.503193 0.354732 0.788235 0.337255
  16 -1.901065 28.250234 -35.687174 0.741980 -0.665999 0.076891 0.207843 0.337255
$0b_drillgold_add
  17 0.267896 30.240235 -41.217176 0.788012 -0.503193 0.354732 0.788235 0.337255
  16 -0.951068 32.540234 -42.027175 0.837140 -0.426078 0.343009 0.800000 0.400000
  16 -1.901065 28.250234 -35.687174 0.741980 -0.665999 0.076891 0.207843 0.337255
$0b_drillgold_add
  16 -1.901065 28.250234 -35.687174 0.741980 -0.665999 0.076891 0.207843 0.337255
  16 -0.951068 32.540234 -42.027175 0.837140 -0.426078 0.343009 0.800000 0.400000
  16 -2.531065 30.340234 -35.707174 0.810874 -0.584946 0.017951 0.196078 0.400000
$0b_drillgold_add
  16 -0.951068 32.540234 -42.027175 0.837140 -0.426078 0.343009 0.800000 0.400000
  16 -2.541067 34.650234 -42.427174 0.878208 -0.326895 0.349128 0.807843 0.462745
  16 -2.531065 30.340234 -35.707174 0.810874 -0.584946 0.017951 0.196078 0.400000
$0b_drillgold_add
  16 -2.531065 30.340234 -35.707174 0.810874 -0.584946 0.017951 0.196078 0.400000
  16 -2.541067 34.650234 -42.427174 0.878208 -0.326895 0.349128 0.807843 0.462745
  16 -3.271064 32.300234 -35.417173 0.887575 -0.460644 0.004298 0.188235 0.462745
$0b_drillgold_add
  16 -2.541067 34.650234 -42.427174 0.878208 -0.326895 0.349128 0.807843 0.462745
  16 -4.511067 36.560235 -42.427173 0.903953 -0.215236 0.369516 0.819608 0.529412
  16 -3.271064 32.300234 -35.417173 0.887575 -0.460644 0.004298 0.188235 0.462745
$0b_drillgold_add
  16 -3.271064 32.300234 -35.417173 0.887575 -0.460644 0.004298 0.188235 0.462745
  16 -4.511067 36.560235 -42.427173 0.903953 -0.215236 0.369516 0.819608 0.529412
  16 -4.111063 34.110235 -34.807173 0.951344 -0.305678 0.038803 0.176471 0.529412
$0b_drillgold_add
  16 -4.511067 36.560235 -42.427173 0.903953 -0.215236 0.369516 0.819608 0.529412
  16 -6.851066 38.280236 -42.027171 0.910914 -0.104929 0.399030 0.831373 0.592157
  16 -4.111063 34.110235 -34.807173 0.951344 -0.305678 0.038803 0.176471 0.529412
$0b_drillgold_add
  16 -4.111063 34.110235 -34.807173 0.951344 -0.305678 0.038803 0.176471 0.529412
  16 -6.851066 38.280236 -42.027171 0.910914 -0.104929 0.399030 0.831373 0.592157
  16 -5.061062 35.780235 -33.897172 0.983216 -0.146689 0.108480 0.164706 0.592157
$0b_drillgold_add
  16 -6.851066 38.280236 -42.027171 0.910914 -0.104929 0.399030 0.831373 0.592157
  16 -9.591065 39.800236 -41.217169 0.901698 -0.008482 0.432283 0.843137 0.654902
  16 -5.061062 35.780235 -33.897172 0.983216 -0.146689 0.108480 0.164706 0.592157
$0b_drillgold_add
  16 -5.061062 35.780235 -33.897172 0.983216 -0.146689 0.108480 0.164706 0.592157
  16 -9.591065 39.800236 -41.217169 0.901698 -0.008482 0.432283 0.843137 0.654902
  16 -6.111060 37.300235 -32.677172 0.981440 -0.009946 0.191513 0.152941 0.654902
$0b_drillgold_add
  16 -9.591065 39.800236 -41.217169 0.901698 -0.008482 0.432283 0.843137 0.654902
  16 -12.711064 41.130237 -39.997167 0.882613 0.067846 0.465179 0.850980 0.721569
  16 -6.111060 37.300235 -32.677172 0.981440 -0.009946 0.191513 0.152941 0.654902
$0b_drillgold_add
  16 -6.111060 37.300235 -32.677172 0.981440 -0.009946 0.191513 0.152941 0.654902
  16 -12.711064 41.130237 -39.997167 0.882613 0.067846 0.465179 0.850980 0.721569
  16 -7.271059 38.680235 -31.137171 0.958064 0.093063 0.271022 0.145098 0.721569
$0b_drillgold_add
  16 -12.711064 41.130237 -39.997167 0.882613 0.067846 0.465179 0.850980 0.721569
  16 -16.211062 42.270238 -38.377165 0.859767 0.124050 0.495392 0.862745 0.784314
  16 -7.271059 38.680235 -31.137171 0.958064 0.093063 0.271022 0.145098 0.721569
$0b_drillgold_add
  16 -7.271059 38.680235 -31.137171 0.958064 0.093063 0.271022 0.145098 0.721569
  16 -16.211062 42.270238 -38.377165 0.859767 0.124050 0.495392 0.862745 0.784314
  14 -8.531055 39.910234 -29.281759 0.926051 0.164266 0.339775 0.133333 0.784314
$0b_drillgold_add
  16 -16.211062 42.270238 -38.377165 0.859767 0.124050 0.495392 0.862745 0.784314
  16 -20.091061 43.210240 -36.357163 0.837123 0.163482 0.522014 0.874510 0.847059
  14 -8.531055 39.910234 -29.281759 0.926051 0.164266 0.339775 0.133333 0.784314
$0b_drillgold_add
  14 -8.531055 39.910234 -29.281759 0.926051 0.164266 0.339775 0.133333 0.784314
  16 -20.091061 43.210240 -36.357163 0.837123 0.163482 0.522014 0.874510 0.847059
  14 -9.911053 41.000235 -27.121758 0.893381 0.210798 0.396781 0.121569 0.847059
$0b_drillgold_add
  16 -20.091061 43.210240 -36.357163 0.837123 0.163482 0.522014 0.874510 0.847059
  16 -24.361059 43.950241 -33.927160 0.816567 0.190234 0.545004 0.886275 0.913725
  14 -9.911053 41.000235 -27.121758 0.893381 0.210798 0.396781 0.121569 0.847059
$0b_drillgold_add
  14 -9.911053 41.000235 -27.121758 0.893381 0.210798 0.396781 0.121569 0.847059
  16 -24.361059 43.950241 -33.927160 0.816567 0.190234 0.545004 0.886275 0.913725
  14 -11.381051 41.940235 -24.661757 0.863622 0.239815 0.443448 0.109804 0.913725
$0b_drillgold_add
  16 -24.361059 43.950241 -33.927160 0.816567 0.190234 0.545004 0.886275 0.913725
  14 -29.001054 44.510240 -31.081746 0.814357 0.204626 0.543094 0.898039 0.976471
  14 -11.381051 41.940235 -24.661757 0.863622 0.239815 0.443448 0.109804 0.913725
$0b_drillgold_add
  14 -11.381051 41.940235 -24.661757 0.863622 0.239815 0.443448 0.109804 0.913725
  14 -29.001054 44.510240 -31.081746 0.814357 0.204626 0.543094 0.898039 0.976471
  14 -12.971049 42.730235 -21.881757 0.863622 0.239815 0.443448 0.098039 0.976471
$0b_drillgold_add
  14 -0.121063 15.820231 -30.641765 0.403059 0.747104 0.528564 0.733333 0.015686
  15 1.987897 19.100233 -28.609294 0.126038 0.639587 0.758316 0.745098 0.078431
  17 0.157898 15.540236 -31.517176 0.264971 0.725380 0.635306 0.262745 0.015686
$0b_drillgold_add
  17 0.157898 15.540236 -31.517176 0.264971 0.725380 0.635306 0.262745 0.015686
  15 1.987897 19.100233 -28.609294 0.126038 0.639587 0.758316 0.745098 0.078431
  15 1.577895 18.370233 -30.799294 -0.009113 0.608976 0.793136 0.250980 0.078431
$0b_drillgold_add
  15 1.987897 19.100233 -28.609294 0.126038 0.639587 0.758316 0.745098 0.078431
  15 3.937899 22.180232 -27.119295 0.025838 0.546072 0.837340 0.752941 0.145098
  15 1.577895 18.370233 -30.799294 -0.009113 0.608976 0.793136 0.250980 0.078431
$0b_drillgold_add
  15 1.577895 18.370233 -30.799294 -0.009113 0.608976 0.793136 0.250980 0.078431
  15 3.937899 22.180232 -27.119295 0.025838 0.546072 0.837340 0.752941 0.145098
  15 2.777897 21.060232 -30.349295 -0.127547 0.494809 0.859590 0.243137 0.145098
$0b_drillgold_add
  15 3.937899 22.180232 -27.119295 0.025838 0.546072 0.837340 0.752941 0.145098
  15 5.707901 25.060231 -26.149296 -0.008898 0.471289 0.881934 0.764706 0.207843
  15 2.777897 21.060232 -30.349295 -0.127547 0.494809 0.859590 0.243137 0.145098
$0b_drillgold_add
  15 2.777897 21.060232 -30.349295 -0.127547 0.494809 0.859590 0.243137 0.145098
  15 5.707901 25.060231 -26.149296 -0.008898 0.471289 0.881934 0.764706 0.207843
  15 3.757898 23.600232 -30.139295 -0.201768 0.389417 0.898690 0.231373 0.207843
$0b_drillgold_add
  15 5.707901 25.060231 -26.149296 -0.008898 0.471289 0.881934 0.764706 0.207843
  15 7.327902 27.750231 -25.739297 -0.000348 0.405341 0.914165 0.776471 0.270588
  15 3.757898 23.600232 -30.139295 -0.201768 0.389417 0.898690 0.231373 0.207843
$0b_drillgold_add
  15 3.757898 23.600232 -30.139295 -0.201768 0.389417 0.898690 0.231373 0.207843
  15 7.327902 27.750231 -25.739297 -0.000348 0.405341 0.914165 0.776471 0.270588
  15 4.527898 26.000232 -30.179296 -0.238921 0.281602 0.929310 0.219608 0.270588
$0b_drillgold_add
  15 7.327902 27.750231 -25.739297 -0.000348 0.405341 0.914165 0.776471 0.270588
  15 8.797902 30.240231 -25.839298 0.044395 0.346218 0.937103 0.788235 0.337255
  15 4.527898 26.000232 -30.179296 -0.238921 0.281602 0.929310 0.219608 0.270588
$0b_drillgold_add
  15 4.527898 26.000232 -30.179296 -0.238921 0.281602 0.929310 0.219608 0.270588
  15 8.797902 30.240231 -25.839298 0.044395 0.346218 0.937103 0.788235 0.337255
  15 5.067899 28.250232 -30.469296 -0.230437 0.173382 0.957516 0.207843 0.337255
$0b_drillgold_add
  15 8.797902 30.240231 -25.839298 0.044395 0.346218 0.937103 0.788235 0.337255
  15 10.097903 32.540230 -26.469299 0.119847 0.294419 0.948132 0.800000 0.400000
  15 5.067899 28.250232 -30.469296 -0.230437 0.173382 0.957516 0.207843 0.337255
$0b_drillgold_add
  15 5.067899 28.250232 -30.469296 -0.230437 0.173382 0.957516 0.207843 0.337255
  15 10.097903 32.540230 -26.469299 0.119847 0.294419 0.948132 0.800000 0.400000
  15 5.407899 30.340232 -31.009296 -0.165829 0.073654 0.983400 0.196078 0.400000
$0b_drillgold_add
  15 10.097903 32.540230 -26.469299 0.119847 0.294419 0.948132 0.800000 0.400000
  15 11.247902 34.650230 -27.649300 0.218285 0.251476 0.942927 0.807843 0.462745
  15 5.407899 30.340232 -31.009296 -0.165829 0.073654 0.983400 0.196078 0.400000
$0b_drillgold_add
  15 5.407899 30.340232 -31.009296 -0.165829 0.073654 0.983400 0.196078 0.400000
  15 11.247902 34.650230 -27.649300 0.218285 0.251476 0.942927 0.807843 0.462745
  17 5.517903 32.300233 -31.797179 -0.042756 -0.004627 0.999075 0.188235 0.462745
$0b_drillgold_add
  15 11.247902 34.650230 -27.649300 0.218285 0.251476 0.942927 0.807843 0.462745
  15 12.227902 36.560229 -29.349300 0.327621 0.219596 0.918935 0.819608 0.529412
  17 5.517903 32.300233 -31.797179 -0.042756 -0.004627 0.999075 0.188235 0.462745
$0b_drillgold_add
  17 5.517903 32.300233 -31.797179 -0.042756 -0.004627 0.999075 0.188235 0.462745
  15 12.227902 36.560229 -29.349300 0.327621 0.219596 0.918935 0.819608 0.529412
  17 5.427902 34.110234 -32.837179 0.122186 -0.049402 0.991277 0.176471 0.529412
$0b_drillgold_add
  15 12.227902 36.560229 -29.349300 0.327621 0.219596 0.918935 0.819608 0.529412
  17 13.057905 38.280231 -31.607184 0.433028 0.200452 0.878809 0.831373 0.592157
  17 5.427902 34.110234 -32.837179 0.122186 -0.049402 0.991277 0.176471 0.529412
$0b_drillgold_add
  17 5.427902 34.110234 -32.837179 0.122186 -0.049402 0.991277 0.176471 0.529412
  17 13.057905 38.280231 -31.607184 0.433028 0.200452 0.878809 0.831373 0.592157
  17 5.107902 35.780234 -34.107179 0.294484 -0.057530 0.953923 0.164706 0.592157
$0b_drillgold_add
  17 13.057905 38.280231 -31.607184 0.433028 0.200452 0.878809 0.831373 0.592157
  17 13.717903 39.800231 -34.377184 0.522888 0.193660 0.830111 0.843137 0.654902
  17 5.107902 35.780234 -34.107179 0.294484 -0.057530 0.953923 0.164706 0.592157
$0b_drillgold_add
  17 5.107902 35.780234 -34.107179 0.294484 -0.057530 0.953923 0.164706 0.592157
  17 13.717903 39.800231 -34.377184 0.522888 0.193660 0.830111 0.843137 0.654902
  17 4.587902 37.300234 -35.637178 0.442312 -0.037613 0.896072 0.152941 0.654902
$0b_drillgold_add
  17 13.717903 39.800231 -34.377184 0.522888 0.193660 0.830111 0.843137 0.654902
  17 14.227902 41.130230 -37.677185 0.592611 0.196702 0.781102 0.850980 0.721569
  17 4.587902 37.300234 -35.637178 0.442312 -0.037613 0.896072 0.152941 0.654902
$0b_drillgold_add
  17 4.587902 37.300234 -35.637178 0.442312 -0.037613 0.896072 0.152941 0.654902
  17 14.227902 41.130230 -37.677185 0.592611 0.196702 0.781102 0.850980 0.721569
  17 3.837901 38.680234 -37.397178 0.553177 -0.002725 0.833059 0.145098 0.721569
$0b_drillgold_add
  17 14.227902 41.130230 -37.677185 0.592611 0.196702 0.781102 0.850980 0.721569
  17 14.577899 42.270231 -41.517185 0.643403 0.206181 0.737239 0.862745 0.784314
  17 3.837901 38.680234 -37.397178 0.553177 -0.002725 0.833059 0.145098 0.721569
$0b_drillgold_add
  17 3.837901 38.680234 -37.397178 0.553177 -0.002725 0.833059 0.145098 0.721569
  17 14.577899 42.270231 -41.517185 0.643403 0.206181 0.737239 0.862745 0.784314
  17 2.867900 39.910235 -39.417177 0.630176 0.037114 0.775565 0.133333 0.784314
$0b_drillgold_add
  17 14.577899 42.270231 -41.517185 0.643403 0.206181 0.737239 0.862745 0.784314
  17 14.757897 43.210231 -45.897185 0.679041 0.219100 0.700641 0.874510 0.847059
  17 2.867900 39.910235 -39.417177 0.630176 0.037114 0.775565 0.133333 0.784314
$0b_drillgold_add
  17 2.867900 39.910235 -39.417177 0.630176 0.037114 0.775565 0.133333 0.784314
  17 14.757897 43.210231 -45.897185 0.679041 0.219100 0.700641 0.874510 0.847059
  17 1.687899 41.000235 -41.687176 0.681606 0.076455 0.727714 0.121569 0.847059
$0b_drillgold_add
  17 14.757897 43.210231 -45.897185 0.679041 0.219100 0.700641 0.874510 0.847059
  17 14.787894 43.950231 -50.807185 0.703525 0.233380 0.671258 0.886275 0.913725
  17 1.687899 41.000235 -41.687176 0.681606 0.076455 0.727714 0.121569 0.847059
$0b_drillgold_add
  17 1.687899 41.000235 -41.687176 0.681606 0.076455 0.727714 0.121569 0.847059
  17 14.787894 43.950231 -50.807185 0.703525 0.233380 0.671258 0.886275 0.913725
  17 0.287897 41.940235 -44.207175 0.715229 0.112928 0.689707 0.109804 0.913725
$0b_drillgold_add
  17 14.787894 43.950231 -50.807185 0.703525 0.233380 0.671258 0.886275 0.913725
  17 14.657890 44.510230 -56.247185 0.703525 0.233380 0.671258 0.898039 0.976471
  17 0.287897 41.940235 -44.207175 0.715229 0.112928 0.689707 0.109804 0.913725
$0b_drillgold_add
  17 0.287897 41.940235 -44.207175 0.715229 0.112928 0.689707 0.109804 0.913725
  17 14.657890 44.510230 -56.247185 0.703525 0.233380 0.671258 0.898039 0.976471
  16 -1.341068 42.730234 -46.967175 0.729333 0.120524 0.673460 0.098039 0.976471
$0b_sgdgold_lightning
  18 -26.294685 27.151384 -40.304443 0.000000 1.000000 0.000000 0.000000 1.000000
  18 -26.294685 27.151381 -33.304443 0.000000 1.000000 0.000000 0.000000 0.000000
  18 -19.294685 27.151384 -40.304443 0.000000 1.000000 0.000000 1.000000 1.000000
$0b_sgdgold_lightning
  18 -19.294685 27.151384 -40.304443 0.000000 1.000000 0.000000 1.000000 1.000000
  18 -26.294685 27.151381 -33.304443 0.000000 1.000000 0.000000 0.000000 0.000000
  18 -19.294685 27.151381 -33.304443 0.000000 1.000000 0.000000 1.000000 0.000000
$0b_sgdgold_fx01
  13 -0.000005 13.850231 -31.129044 0.000000 1.000000 0.000000 0.509804 0.509804
  13 14.900009 44.400227 -24.499053 -0.805920 0.470895 -0.358819 0.713725 0.968627
  13 16.310004 44.400226 -31.129054 -0.882189 0.470895 0.000000 0.509804 1.000000
$0b_sgdgold_fx01
  13 -0.000005 13.850231 -31.129044 0.000000 1.000000 0.000000 0.509804 0.509804
  13 10.910012 44.400228 -19.009051 -0.590300 0.470895 -0.655594 0.882353 0.847059
  13 14.900009 44.400227 -24.499053 -0.805920 0.470895 -0.358819 0.713725 0.968627
$0b_sgdgold_fx01
  13 -0.000005 13.850231 -31.129044 0.000000 1.000000 0.000000 0.509804 0.509804
  13 5.040015 44.400230 -15.619047 -0.272611 0.470895 -0.839012 0.988235 0.666667
  13 10.910012 44.400228 -19.009051 -0.590300 0.470895 -0.655594 0.882353 0.847059
$0b_sgdgold_fx01
  13 -0.000005 13.850231 -31.129044 0.000000 1.000000 0.000000 0.509804 0.509804
  13 -1.699985 44.400232 -14.909043 0.092214 0.470895 -0.877356 1.000000 0.458824
  13 5.040015 44.400230 -15.619047 -0.272611 0.470895 -0.839012 0.988235 0.666667
$0b_sgdgold_fx01
  13 -0.000005 13.850231 -31.129044 0.000000 1.000000 0.000000 0.509804 0.509804
  13 -8.149986 44.400234 -17.009038 0.441095 0.470895 -0.763998 0.945098 0.258824
  13 -1.699985 44.400232 -14.909043 0.092214 0.470895 -0.877356 1.000000 0.458824
$0b_sgdgold_fx01
  13 -0.000005 13.850231 -31.129044 0.000000 1.000000 0.000000 0.509804 0.509804
  13 -13.189989 44.400236 -21.549035 0.713706 0.470895 -0.518538 0.803922 0.105882
  13 -8.149986 44.400234 -17.009038 0.441095 0.470895 -0.763998 0.945098 0.258824
$0b_sgdgold_fx01
  13 -0.000005 13.850231 -31.129044 0.000000 1.000000 0.000000 0.509804 0.509804
  13 -15.949993 44.400236 -27.739033 0.862911 0.470895 -0.183417 0.615686 0.019608
  13 -13.189989 44.400236 -21.549035 0.713706 0.470895 -0.518538 0.803922 0.105882
$0b_sgdgold_fx01
  13 -0.000005 13.850231 -31.129044 0.000000 1.000000 0.000000 0.509804 0.509804
  13 -15.949997 44.400236 -34.519033 0.862911 0.470895 0.183417 0.403922 0.019608
  13 -15.949993 44.400236 -27.739033 0.862911 0.470895 -0.183417 0.615686 0.019608
$0b_sgdgold_fx01
  13 -0.000005 13.850231 -31.129044 0.000000 1.000000 0.000000 0.509804 0.509804
  13 -13.190001 44.400236 -40.709035 0.713706 0.470895 0.518538 0.215686 0.105882
  13 -15.949997 44.400236 -34.519033 0.862911 0.470895 0.183417 0.403922 0.019608
$0b_sgdgold_fx01
  13 -0.000005 13.850231 -31.129044 0.000000 1.000000 0.000000 0.509804 0.509804
  13 -8.150004 44.400234 -45.249038 0.441094 0.470895 0.763998 0.074510 0.258824
  13 -13.190001 44.400236 -40.709035 0.713706 0.470895 0.518538 0.215686 0.105882
$0b_sgdgold_fx01
  13 -0.000005 13.850231 -31.129044 0.000000 1.000000 0.000000 0.509804 0.509804
  13 -1.700006 44.400232 -47.349042 0.092214 0.470895 0.877356 0.007843 0.458824
  13 -8.150004 44.400234 -45.249038 0.441094 0.470895 0.763998 0.074510 0.258824
$0b_sgdgold_fx01
  13 -0.000005 13.850231 -31.129044 0.000000 1.000000 0.000000 0.509804 0.509804
  13 5.039995 44.400230 -46.639047 -0.272611 0.470895 0.839012 0.031373 0.666667
  13 -1.700006 44.400232 -47.349042 0.092214 0.470895 0.877356 0.007843 0.458824
$0b_sgdgold_fx01
  13 -0.000005 13.850231 -31.129044 0.000000 1.000000 0.000000 0.509804 0.509804
  13 10.909997 44.400228 -43.249050 -0.590300 0.470895 0.655594 0.137255 0.847059
  13 5.039995 44.400230 -46.639047 -0.272611 0.470895 0.839012 0.031373 0.666667
$0b_sgdgold_fx01
  13 -0.000005 13.850231 -31.129044 0.000000 1.000000 0.000000 0.509804 0.509804
  13 14.900000 44.400227 -37.759053 -0.805920 0.470895 0.358818 0.305882 0.968627
  13 10.909997 44.400228 -43.249050 -0.590300 0.470895 0.655594 0.137255 0.847059
$0b_sgdgold_fx01
  13 -0.000005 13.850231 -31.129044 0.000000 1.000000 0.000000 0.509804 0.509804
  13 16.310004 44.400226 -31.129054 -0.882189 0.470895 0.000000 0.509804 1.000000
  13 14.900000 44.400227 -37.759053 -0.805920 0.470895 0.358818 0.305882 0.968627
end
