// Created by Crowbar 0.58

$modelname "weapons/tfa_cso/w_uts15_v6.mdl"

$bodygroup "studio"
{
	studio "w_uts15_w_ref"
}

$collisionmodel "w_uts15_w_ref.smd"
{
	$mass 9
}

$CDMaterials "models\weapons\tfa_cso\uts15_v6"

$attachment "0" "UTS15_Muzzle" -8.30 12.20 0.40 rotate 0 0 -0

$sequence "idle" {
	"w_uts15_anims\idle"
	fps 30
}
