version 1
nodes
  0 "root_divinespear" -1
  1 "Bone_f_r" 0
  2 "Bone_knf_r" 1
  3 "Bone_cover_r" 1
  4 "Bone_f_l" 0
  5 "Bone_knf_l" 4
  6 "Bone_cover_l" 4
  7 "Bone_c" 0
  8 "Bone_link_r" 0
  9 "Bone_link_l" 0
  10 "Plane007" 0
  11 "Cylinder006" 10
  12 "Cylinder008" 10
  13 "Cylinder007" 10
  14 "Cylinder001" 10
  15 "Cylinder002" 10
  16 "Cylinder003" 10
  17 "Cylinder004" 10
  18 "Cylinder005" 10
  19 "Bip01 R Clavicle" -1
  20 "Bip01 R UpperArm" 19
  21 "Bip01 R Forearm" 20
  22 "Bip01 R Hand" 21
  23 "Plane001" 22
  24 "Plane008" 2
  25 "Plane003" 8
  26 "Plane002" 9
  27 "Bone_lwing2" 8
  28 "Bone_lwing1" 8
  29 "Plane005" 8
  30 "Bone_rwing2" 9
  31 "Bone_rwing1" 9
  32 "Plane006" 9
  33 "atkfx_plane" -1
  34 "root" -1
  35 "draw_fxPlane" 34
  36 "v_ref_atk4fx" 34
  37 "slashfx_plane" 34
  38 "chrgfx_plane" -1
  39 "Bone_dvspear_throw_root" -1
  40 "Bone_dvspear_throw_3" 39
  41 "Bone_dvspear_throw_1" 39
  42 "Bone_dvspear_throw_2" 39
  43 "Bone_dvspear_throw_4" 39
  44 "divine_atk3_fx" -1
  45 "Bip01 L Clavicle" -1
  46 "Bip01 L UpperArm" 45
  47 "Bip01 L Forearm" 46
  48 "Bip01 L Hand" 47
  49 "Bip01 L Finger0" 48
  50 "Bip01 L Finger01" 49
  51 "Bip01 L Finger02" 50
  52 "Bip01 L Finger0s002" 50
  53 "Bip01 L Finger0s001" 49
  54 "Bip01 L Finger1" 48
  55 "Bip01 L Finger11" 54
  56 "Bip01 L Finger12" 55
  57 "Bip01 L Finger0s004" 55
  58 "Bip01 L Finger0s003" 54
  59 "Bip01 L Finger2" 48
  60 "Bip01 L Finger21" 59
  61 "Bip01 L Finger22" 60
  62 "Bip01 L Finger0s006" 60
  63 "Bip01 L Finger0s005" 59
  64 "Bip01 L Finger3" 48
  65 "Bip01 L Finger31" 64
  66 "Bip01 L Finger32" 65
  67 "Bip01 L Finger0s008" 65
  68 "Bip01 L Finger0s007" 64
  69 "Bip01 L Finger4" 48
  70 "Bip01 L Finger41" 69
  71 "Bip01 L Finger42" 70
  72 "Bip01 L Finger0s010" 70
  73 "Bip01 L Finger0s009" 69
  74 "Bip01 L Finger4sr" 48
  75 "Bip01 L Finger3sr" 48
  76 "Bip01 L Finger2sr" 48
  77 "Bip01 L Finger1sr" 48
  78 "Bip01 L ForeTwist" 46
  79 "Bip01 L ForeTwist1" 78
  80 "Bip01 L ForeTwist2" 79
  81 "Bip01 L elbow" 46
  82 "Bip01 R Finger0" 22
  83 "Bip01 R Finger01" 82
  84 "Bip01 R Finger02" 83
  85 "Bip01 R Finger01s" 83
  86 "Bip01 R Finger0s" 82
  87 "Bip01 R Finger1" 22
  88 "Bip01 R Finger11" 87
  89 "Bip01 R Finger12" 88
  90 "Bip01 R Finger11s" 88
  91 "Bip01 R Finger1s" 87
  92 "Bip01 R Finger2" 22
  93 "Bip01 R Finger21" 92
  94 "Bip01 R Finger22" 93
  95 "Bip01 R Finger21s" 93
  96 "Bip01 R Finger2s" 92
  97 "Bip01 R Finger3" 22
  98 "Bip01 R Finger31" 97
  99 "Bip01 R Finger32" 98
  100 "Bip01 R Finger31s" 98
  101 "Bip01 R Finger3s" 97
  102 "Bip01 R Finger4" 22
  103 "Bip01 R Finger41" 102
  104 "Bip01 R Finger42" 103
  105 "Bip01 R Finger41s" 103
  106 "Bip01 R Finger4s" 102
  107 "Bip01 R Finger1sr" 22
  108 "Bip01 R Finger2sr" 22
  109 "Bip01 R Finger3sr" 22
  110 "Bip01 R Finger4sr" 22
  111 "Bip01 R ForeTwist" 20
  112 "Bip01 R ForeTwist1" 111
  113 "Bip01 R ForeTwist2" 112
  114 "Bip01 R elbow" 20
  115 "Bone_Righthand" -1
  116 "Bone_Lefthand" -1
end
skeleton
  time 0
    0 -7.945556 -6.804895 -6.805737 -0.126106 -0.074717 -1.486311
    1 13.077911 -1.999996 0.000004 0.000000 0.000000 0.000000
    2 6.207455 1.000002 0.000004 0.000000 0.000000 0.000000
    3 2.505192 -1.499999 0.000000 0.000000 0.000000 0.000000
    4 13.077911 2.000004 0.000000 0.000000 0.000000 0.000000
    5 6.207455 -0.999998 0.000000 0.000000 0.000000 0.000000
    6 2.505192 1.500001 0.000000 0.000000 0.000000 0.000000
    7 13.989113 0.000004 0.000000 0.000000 0.000000 0.000000
    8 11.117264 2.500004 0.000000 0.000000 0.000000 -0.000001
    9 11.117264 -2.499996 0.000002 0.000000 0.000000 -0.000001
    10 11.866768 0.023022 2.257078 1.620970 0.005250 -1.550407
    11 -0.029562 0.280472 -0.054672 0.927459 1.326899 2.404550
    12 -0.029561 0.181687 -0.053909 -1.369432 0.150227 -0.075746
    13 0.024222 0.140738 -0.002510 -1.142999 0.213293 -0.068356
    14 -0.029560 0.414737 -0.055698 -1.578469 0.000000 0.000000
    15 -0.029560 0.398393 -0.055569 -1.579053 -0.420353 0.190516
    16 -0.029562 0.247614 -0.054417 -1.255871 -1.971218 0.149518
    17 -0.029560 0.291007 -0.054752 -1.481300 -2.034700 0.149881
    18 -0.029559 0.295509 -0.054783 -1.557421 2.181703 0.010956
    19 -2.112983 0.097498 -6.626338 0.000000 -3.141592 0.041458
    20 4.065896 0.000000 0.000000 1.011941 -0.649127 -1.283253
    21 7.451247 0.000001 0.000000 0.000000 0.000000 -0.464433
    22 9.021111 0.000000 -0.000001 -3.037184 0.021570 -0.178410
    23 3.288883 3.971971 1.230882 1.327838 1.216871 1.331327
    24 7.787952 -0.379009 6.064643 1.422749 -0.005158 -3.117669
    25 -3.331646 0.379867 6.296103 1.458103 0.028155 -2.852272
    26 -3.898962 -1.308557 6.142703 1.504710 -0.026257 2.874964
    27 3.491928 3.031936 -0.000001 0.000001 0.000000 2.617995
    28 3.491928 3.031936 -0.000001 0.000001 0.000000 2.879795
    29 -9.136648 6.165041 0.486084 -0.047589 0.063456 -1.777958
    30 3.491928 -3.009382 0.000003 0.000001 0.000000 -2.617993
    31 3.491928 -3.009382 0.000003 0.000001 0.000000 -2.879792
    32 -10.639877 -6.967785 0.821027 0.038237 3.042773 -1.343399
    33 88.628113 89.948372 17.286848 -0.118746 0.587889 -4.706120
    34 0.002735 1.707083 -6.596804 0.000000 0.000000 0.000000
    35 -4.938570 -0.913393 -38.135551 1.570796 0.000000 -3.141592
    36 174.178589 72.052269 -185.025970 0.890876 -0.421989 -2.821804
    37 596.179565 -47.880154 -0.725405 0.785398 0.000000 3.141592
    38 -6.568616 -18.544185 0.326825 1.553427 -0.003397 -0.020376
    39 13.660057 50.891399 0.000000 -1.570796 0.000000 -1.570796
    40 -25.000004 25.000000 0.000002 0.000000 0.000000 0.000000
    41 -24.999996 -25.000000 -0.000004 0.000000 0.000000 0.000000
    42 24.999996 -25.000000 0.000003 0.000000 0.000000 0.000000
    43 25.000000 25.000000 0.000007 0.000000 0.000000 0.000000
    44 23.253777 -5.932435 -33.022305 -1.570796 0.000000 -1.570796
    45 2.462541 0.097671 -6.623486 0.000000 0.000000 0.081672
    46 4.065896 0.000000 0.000000 0.286046 1.105511 0.370071
    47 7.451248 0.000000 0.000000 0.000000 0.000000 -0.670494
    48 9.021112 0.000000 0.000000 -1.605178 0.035696 -0.008403
    49 1.127069 0.260708 -0.809209 2.036304 1.129024 0.465327
    50 1.389874 0.000000 0.000000 0.000000 -0.031600 -0.103426
    51 0.975416 -0.000002 0.000000 0.000000 0.000000 -0.103426
    52 0.975416 0.000002 0.000000 0.000000 0.000000 -0.103426
    53 1.389874 0.000004 0.000000 0.000000 -0.031600 -0.103426
    54 2.570181 -0.048783 -0.726834 -0.122438 0.193603 -0.030101
    55 1.523346 0.000000 0.000000 0.000000 0.000000 -0.000404
    56 1.162989 0.000000 0.000000 0.000000 0.000000 -0.012474
    57 1.162987 -0.000004 0.000001 -0.000001 0.000000 -0.012474
    58 1.523352 0.000000 0.000002 -0.000001 0.000000 -0.000404
    59 2.716949 -0.032341 -0.020266 -0.244180 -0.002584 -0.000588
    60 1.738605 0.000000 0.000000 0.000000 0.000000 0.004058
    61 1.155094 0.000000 0.000000 0.000000 0.000000 -0.014569
    62 1.155090 0.000004 0.000000 0.000000 0.000000 -0.007284
    63 1.738605 0.000000 0.000000 0.000000 0.000000 0.002029
    64 2.666088 0.108882 0.673818 -0.236789 -0.252403 -0.025148
    65 1.520893 0.000000 0.000000 0.000000 0.000000 0.023490
    66 1.109413 0.000000 0.000000 0.000000 0.000000 0.012310
    67 1.109419 0.000004 -0.000003 0.000000 0.000000 0.012310
    68 1.520891 0.000004 0.000002 0.000000 0.000000 0.023490
    69 2.501347 0.300780 1.374819 -0.195345 -0.498418 0.056457
    70 1.197973 0.000000 0.000000 0.000000 0.000000 0.006466
    71 0.825676 0.000000 0.000001 0.000000 0.000000 0.043368
    72 0.825676 0.000008 0.000004 0.000000 0.000000 0.043368
    73 1.197975 0.000000 0.000000 0.000000 0.000000 0.006466
    74 2.501347 0.300780 1.374819 -0.150930 -0.399748 0.035860
    75 2.666096 0.108882 0.673818 -0.189090 -0.201561 -0.024927
    76 2.515263 -0.032223 -0.020787 -0.195344 -0.002057 -0.000521
    77 2.570501 -0.048788 -0.726891 -0.035940 0.058443 -0.006488
    78 7.451248 0.000000 0.000000 -0.008590 0.000000 -0.670494
    79 3.007038 0.000000 0.000000 -0.008590 0.000000 0.000000
    80 3.007038 0.000000 0.000000 -0.008590 0.000000 0.000000
    81 7.451247 0.000000 0.000000 -0.000038 0.000539 -0.419339
    82 1.127071 0.260708 0.809209 -2.172659 -0.836715 0.848275
    83 1.389876 0.000004 0.000000 0.012620 0.028975 0.307638
    84 0.975416 -0.000002 0.000000 0.000000 0.000000 0.630488
    85 0.975416 -0.000002 0.000000 0.000000 0.000000 0.263531
    86 1.389876 0.000000 0.000000 0.004818 0.031025 0.102118
    87 2.570181 -0.048783 0.726834 0.122438 -0.193603 -0.030101
    88 1.523348 0.000000 0.000000 0.000000 0.000000 0.914964
    89 1.162989 0.000000 0.000000 0.000000 0.000000 0.902863
    90 1.162987 0.000000 0.000001 0.000000 0.000000 0.445195
    91 1.523348 0.000000 0.000000 0.000000 0.000000 0.457280
    92 2.716949 -0.032341 0.020266 0.143342 0.002584 -0.000588
    93 1.738605 0.000000 0.000000 0.000000 0.000000 0.919414
    94 1.155094 0.000000 0.000000 0.000000 0.000000 0.900777
    95 1.155092 0.000000 0.000000 0.000000 0.000000 0.443105
    96 1.738605 0.000000 0.000000 0.000000 0.000000 0.461735
    97 2.666090 0.108882 -0.673818 0.259775 0.214920 0.130846
    98 1.520895 0.000000 0.000000 0.000000 0.000000 0.938858
    99 1.109407 0.000000 0.000000 0.000000 0.000000 0.927658
    100 1.109404 0.000000 0.000000 0.000000 0.000000 0.469983
    101 1.520897 0.000000 0.000001 0.000001 0.000000 0.481174
    102 2.501347 0.300780 -1.374819 0.416353 0.349677 0.342044
    103 1.197973 0.000000 0.000000 0.000000 0.000000 0.921814
    104 0.825678 0.000000 0.000000 0.000000 0.000000 0.958716
    105 0.825678 0.000000 0.000001 0.000000 0.000000 0.501041
    106 1.197975 0.000000 0.000002 0.000000 0.000000 0.464140
    107 2.570181 -0.048783 0.726834 0.097220 -0.155201 -0.022100
    108 2.515263 -0.032223 0.020787 0.165095 0.002057 -0.000521
    109 2.666092 0.108882 -0.673818 0.192566 0.194491 0.022352
    110 2.501348 0.300780 -1.374820 0.209499 0.366023 0.129238
    111 7.451247 0.000000 0.000000 0.419328 0.000000 -0.464410
    112 3.007038 0.000000 0.000000 0.419328 0.000000 0.000000
    113 3.007038 0.000000 0.000000 0.419328 0.000000 0.000000
    114 7.451247 0.000000 0.000000 0.206662 -0.007143 -0.314485
    115 -7.609342 -14.592625 -13.275726 1.034980 0.150586 -7.777826
    116 13.453850 -2.185229 -20.311097 -2.459989 0.910623 -0.854896
  time 1
    0 -7.945556 -6.789270 -6.805737 -0.126106 -0.074717 -1.486311
    1 13.077911 -2.187502 0.000004 0.000000 0.000000 0.000000
    2 6.207455 0.718743 0.000004 0.000000 0.000000 0.000000
    3 2.505192 -1.546875 0.000000 0.000000 0.000000 0.000000
    4 13.077911 2.187510 0.000000 0.000000 0.000000 0.000000
    5 6.207455 -0.718739 0.000000 0.000000 0.000000 0.000000
    6 2.505192 1.546877 0.000000 0.000000 0.000000 0.000000
    7 14.368031 0.000004 0.000000 0.000000 0.000000 0.000000
    8 11.265706 2.781263 0.000000 0.000000 0.000000 -0.000001
    9 11.265706 -2.781255 0.000002 0.000000 0.000000 -0.000001
    10 11.866768 0.023022 2.257078 1.620970 0.005250 -1.550407
    11 -0.029562 0.280472 -0.054672 1.137702 1.218401 2.624108
    12 -0.029561 0.181687 -0.053909 -1.367173 0.211767 -0.062994
    13 0.024222 0.140738 -0.002510 -1.106069 0.440232 0.045926
    14 -0.029560 0.414737 -0.055698 -1.578469 0.062799 -0.000479
    15 -0.029560 0.398393 -0.055569 -1.578682 -0.294758 0.189437
    16 -0.029562 0.247614 -0.054417 -0.822247 -1.749174 -0.299637
    17 -0.029560 0.291007 -0.054752 -1.468276 -1.972188 0.135525
    18 -0.029559 0.295509 -0.054783 -1.558491 2.244500 0.009620
    19 -2.112983 0.097498 -6.626338 0.000000 -3.141592 0.041458
    20 4.065896 0.000000 0.000000 1.008909 -0.645220 -1.274460
    21 7.451247 0.000001 0.000000 0.000000 0.000000 -0.495726
    22 9.021111 0.000000 -0.000001 -3.036392 0.017040 -0.135359
    23 3.288883 3.971971 1.230882 1.327838 1.216871 1.331327
    24 7.787952 -0.379009 6.064643 1.422749 -0.005158 -3.117669
    25 -3.331646 0.379867 6.296103 1.458103 0.028155 -2.852272
    26 -3.898962 -1.308557 6.142703 1.504710 -0.026257 2.874964
    27 3.491928 3.031936 -0.000001 0.000001 0.000000 2.617995
    28 3.491928 3.031936 -0.000001 0.000001 0.000000 2.879795
    29 -9.136648 6.165041 0.486084 -0.047589 0.063456 -1.777958
    30 3.491928 -3.009382 0.000003 0.000001 0.000000 -2.617993
    31 3.491928 -3.009382 0.000003 0.000001 0.000000 -2.879792
    32 -10.639877 -6.967785 0.821027 0.038237 3.042773 -1.343399
    33 88.628113 89.948372 17.286848 -0.118746 0.587889 -4.706120
    34 0.002735 1.707083 -6.596804 0.000000 0.000000 0.000000
    35 -4.938570 -0.913393 -38.135551 1.570796 0.000000 -3.141592
    36 174.178589 72.052269 -185.025970 0.890876 -0.421989 -2.821804
    37 596.179565 -47.880154 -0.725405 0.785398 0.000000 3.141592
    38 -6.564709 -18.528559 0.326825 1.553427 -0.003397 -0.020376
    39 13.660057 50.891399 0.000000 -1.570796 0.000000 -1.570796
    40 -25.000004 25.000000 0.000002 0.000000 0.000000 0.000000
    41 -24.999996 -25.000000 -0.000004 0.000000 0.000000 0.000000
    42 24.999996 -25.000000 0.000003 0.000000 0.000000 0.000000
    43 25.000000 25.000000 0.000007 0.000000 0.000000 0.000000
    44 23.253777 -5.932435 -33.022305 -1.570796 0.000000 -1.570796
    45 2.462541 0.097671 -6.623486 0.000000 0.000000 0.081672
    46 4.065896 0.000000 0.000000 0.286046 1.105511 0.370071
    47 7.451248 0.000000 0.000000 0.000000 0.000000 -0.670494
    48 9.021112 0.000000 0.000000 -1.605178 0.035696 -0.008403
    49 1.127069 0.260708 -0.809209 2.036304 1.129024 0.465327
    50 1.389874 0.000000 0.000000 0.000000 -0.031600 -0.103426
    51 0.975416 -0.000002 0.000000 0.000000 0.000000 -0.103426
    52 0.975416 0.000002 0.000000 0.000000 0.000000 -0.103426
    53 1.389874 0.000004 0.000000 0.000000 -0.031600 -0.103426
    54 2.570181 -0.048783 -0.726834 -0.122438 0.193603 -0.030101
    55 1.523346 0.000000 0.000000 0.000000 0.000000 -0.000404
    56 1.162989 0.000000 0.000000 0.000000 0.000000 -0.012474
    57 1.162987 -0.000004 0.000001 -0.000001 0.000000 -0.012474
    58 1.523352 0.000000 0.000002 -0.000001 0.000000 -0.000404
    59 2.716949 -0.032341 -0.020266 -0.244180 -0.002584 -0.000588
    60 1.738605 0.000000 0.000000 0.000000 0.000000 0.004058
    61 1.155094 0.000000 0.000000 0.000000 0.000000 -0.014569
    62 1.155090 0.000004 0.000000 0.000000 0.000000 -0.007284
    63 1.738605 0.000000 0.000000 0.000000 0.000000 0.002029
    64 2.666088 0.108882 0.673818 -0.236789 -0.252403 -0.025148
    65 1.520893 0.000000 0.000000 0.000000 0.000000 0.023490
    66 1.109413 0.000000 0.000000 0.000000 0.000000 0.012310
    67 1.109419 0.000004 -0.000003 0.000000 0.000000 0.012310
    68 1.520891 0.000004 0.000002 0.000000 0.000000 0.023490
    69 2.501347 0.300780 1.374819 -0.195345 -0.498418 0.056457
    70 1.197973 0.000000 0.000000 0.000000 0.000000 0.006466
    71 0.825676 0.000000 0.000001 0.000000 0.000000 0.043368
    72 0.825676 0.000008 0.000004 0.000000 0.000000 0.043368
    73 1.197975 0.000000 0.000000 0.000000 0.000000 0.006466
    74 2.501347 0.300780 1.374819 -0.150930 -0.399748 0.035860
    75 2.666096 0.108882 0.673818 -0.189090 -0.201561 -0.024927
    76 2.515263 -0.032223 -0.020787 -0.195344 -0.002057 -0.000521
    77 2.570501 -0.048788 -0.726891 -0.035940 0.058443 -0.006488
    78 7.451248 0.000000 0.000000 -0.008590 0.000000 -0.670494
    79 3.007038 0.000000 0.000000 -0.008590 0.000000 0.000000
    80 3.007038 0.000000 0.000000 -0.008590 0.000000 0.000000
    81 7.451247 0.000000 0.000000 -0.000038 0.000539 -0.419339
    82 1.127071 0.260708 0.809209 -2.173375 -0.837654 0.849267
    83 1.389876 0.000004 0.000000 0.011997 0.029239 0.286187
    84 0.975416 -0.000002 0.000000 0.000000 0.000000 0.412767
    85 0.975416 -0.000002 0.000000 0.000000 0.000000 0.154670
    86 1.389876 0.000000 0.000000 0.004566 0.031085 0.091391
    87 2.570181 -0.048783 0.726834 0.152855 -0.170736 -0.197619
    88 1.523348 0.000000 0.000000 0.000000 0.000000 0.658568
    89 1.162989 0.000000 0.000000 0.000000 0.000000 0.646495
    90 1.162987 0.000000 0.000001 0.000000 0.000000 0.317010
    91 1.523348 0.000000 0.000000 0.000000 0.000000 0.329082
    92 2.716949 -0.032341 0.020266 0.141987 0.019890 -0.120993
    93 1.738605 0.000000 0.000000 0.000000 0.000000 0.797775
    94 1.155094 0.000000 0.000000 0.000000 0.000000 0.779138
    95 1.155092 0.000000 0.000000 0.000000 0.000000 0.382285
    96 1.738605 0.000000 0.000000 0.000000 0.000000 0.400915
    97 2.666090 0.108882 -0.673818 0.241667 0.235182 0.049704
    98 1.520895 0.000000 0.000000 0.000000 0.000000 0.857224
    99 1.109407 0.000000 0.000000 0.000000 0.000000 0.846036
    100 1.109404 0.000000 0.000000 0.000000 0.000000 0.429172
    101 1.520897 0.000000 0.000001 0.000001 0.000000 0.440357
    102 2.501347 0.300780 -1.374819 0.394109 0.374852 0.279270
    103 1.197973 0.000000 0.000000 0.000000 0.000000 0.857947
    104 0.825678 0.000000 0.000000 0.000000 0.000000 0.894849
    105 0.825678 0.000000 0.000001 0.000000 0.000000 0.469108
    106 1.197975 0.000000 0.000002 0.000000 0.000000 0.432206
    107 2.570181 -0.048783 0.726834 0.103356 -0.150970 -0.072479
    108 2.515263 -0.032223 0.020787 0.164927 0.005449 -0.036895
    109 2.666092 0.108882 -0.673818 0.188742 0.198266 -0.002399
    110 2.501348 0.300780 -1.374820 0.204261 0.370518 0.109163
    111 7.451247 0.000000 0.000000 0.419328 0.000000 -0.495686
    112 3.007038 0.000000 0.000000 0.419328 0.000000 0.000000
    113 3.007038 0.000000 0.000000 0.419328 0.000000 0.000000
    114 7.451247 0.000000 0.000000 0.206806 -0.008809 -0.330152
    115 -7.613248 -14.659033 -12.974935 1.030548 0.135797 -7.790282
    116 13.453850 -2.185229 -20.311097 -2.459989 0.910623 -0.854896
  time 2
    0 -7.941650 -6.804895 -6.805737 -0.126106 -0.074717 -1.486311
    1 13.077911 -2.406258 0.000004 0.000000 0.000000 0.000000
    2 6.207455 0.390608 0.000004 0.000000 0.000000 0.000000
    3 2.505192 -1.601565 0.000000 0.000000 0.000000 0.000000
    4 13.077911 2.406266 0.000000 0.000000 0.000000 0.000000
    5 6.207455 -0.390604 0.000000 0.000000 0.000000 0.000000
    6 2.505192 1.601567 0.000000 0.000000 0.000000 0.000000
    7 14.801638 0.000004 0.000000 0.000000 0.000000 0.000000
    8 11.441492 3.109398 0.000000 0.000000 0.000000 -0.000001
    9 11.441492 -3.109390 0.000002 0.000000 0.000000 -0.000001
    10 11.866768 0.023022 2.257078 1.620970 0.005250 -1.550407
    11 -0.029562 0.280472 -0.054672 1.244762 1.101505 2.740598
    12 -0.029561 0.181687 -0.053909 -1.363994 0.273261 -0.049763
    13 0.024222 0.140738 -0.002510 -1.031367 0.660958 0.187531
    14 -0.029560 0.414737 -0.055698 -1.578517 0.125598 -0.000959
    15 -0.029560 0.398393 -0.055569 -1.578454 -0.169068 0.188443
    16 -0.029562 0.247614 -0.054417 -2.364040 -1.400577 1.226952
    17 -0.029560 0.291007 -0.054752 -1.450261 -1.909773 0.116210
    18 -0.029559 0.295509 -0.054783 -1.559365 2.307298 0.008465
    19 -2.112983 0.097498 -6.626338 0.000000 -3.141592 0.041458
    20 4.065896 0.000000 0.000000 1.005961 -0.641180 -1.265590
    21 7.451247 0.000001 0.000000 0.000000 0.000000 -0.527018
    22 9.021111 0.000000 -0.000001 -3.035776 0.012432 -0.092307
    23 3.288883 3.971971 1.230882 1.327838 1.216871 1.331327
    24 7.787952 -0.379009 6.064643 1.422749 -0.005158 -3.117669
    25 -3.331646 0.379867 6.296103 1.458103 0.028155 -2.852272
    26 -3.898962 -1.308557 6.142703 1.504710 -0.026257 2.874964
    27 3.491928 3.031936 -0.000001 0.000001 0.000000 2.617995
    28 3.491928 3.031936 -0.000001 0.000001 0.000000 2.879795
    29 -9.136648 6.165041 0.486084 -0.047589 0.063456 -1.777958
    30 3.491928 -3.009382 0.000003 0.000001 0.000000 -2.617993
    31 3.491928 -3.009382 0.000003 0.000001 0.000000 -2.879792
    32 -10.639877 -6.967785 0.821027 0.038237 3.042773 -1.343399
    33 88.628113 89.948372 17.286848 -0.118746 0.587889 -4.706120
    34 0.002735 1.707083 -6.596804 0.000000 0.000000 0.000000
    35 -4.938570 -0.913393 -38.135551 1.570796 0.000000 -3.141592
    36 174.178589 72.052269 -185.025970 0.890876 -0.421989 -2.821804
    37 596.179565 -47.880154 -0.725405 0.785398 0.000000 3.141592
    38 -6.564709 -18.544185 0.326825 1.553427 -0.003397 -0.020376
    39 13.660057 50.891399 0.000000 -1.570796 0.000000 -1.570796
    40 -25.000004 25.000000 0.000002 0.000000 0.000000 0.000000
    41 -24.999996 -25.000000 -0.000004 0.000000 0.000000 0.000000
    42 24.999996 -25.000000 0.000003 0.000000 0.000000 0.000000
    43 25.000000 25.000000 0.000007 0.000000 0.000000 0.000000
    44 23.253777 -5.932435 -33.022305 -1.570796 0.000000 -1.570796
    45 2.462541 0.097671 -6.623486 0.000000 0.000000 0.081672
    46 4.065896 0.000000 0.000000 0.286046 1.105511 0.370071
    47 7.451248 0.000000 0.000000 0.000000 0.000000 -0.670494
    48 9.021112 0.000000 0.000000 -1.605178 0.035696 -0.008403
    49 1.127069 0.260708 -0.809209 2.036304 1.129024 0.465327
    50 1.389874 0.000000 0.000000 0.000000 -0.031600 -0.103426
    51 0.975416 -0.000002 0.000000 0.000000 0.000000 -0.103426
    52 0.975416 0.000002 0.000000 0.000000 0.000000 -0.103426
    53 1.389874 0.000004 0.000000 0.000000 -0.031600 -0.103426
    54 2.570181 -0.048783 -0.726834 -0.122438 0.193603 -0.030101
    55 1.523346 0.000000 0.000000 0.000000 0.000000 -0.000404
    56 1.162989 0.000000 0.000000 0.000000 0.000000 -0.012474
    57 1.162987 -0.000004 0.000001 -0.000001 0.000000 -0.012474
    58 1.523352 0.000000 0.000002 -0.000001 0.000000 -0.000404
    59 2.716949 -0.032341 -0.020266 -0.244180 -0.002584 -0.000588
    60 1.738605 0.000000 0.000000 0.000000 0.000000 0.004058
    61 1.155094 0.000000 0.000000 0.000000 0.000000 -0.014569
    62 1.155090 0.000004 0.000000 0.000000 0.000000 -0.007284
    63 1.738605 0.000000 0.000000 0.000000 0.000000 0.002029
    64 2.666088 0.108882 0.673818 -0.236789 -0.252403 -0.025148
    65 1.520893 0.000000 0.000000 0.000000 0.000000 0.023490
    66 1.109413 0.000000 0.000000 0.000000 0.000000 0.012310
    67 1.109419 0.000004 -0.000003 0.000000 0.000000 0.012310
    68 1.520891 0.000004 0.000002 0.000000 0.000000 0.023490
    69 2.501347 0.300780 1.374819 -0.195345 -0.498418 0.056457
    70 1.197973 0.000000 0.000000 0.000000 0.000000 0.006466
    71 0.825676 0.000000 0.000001 0.000000 0.000000 0.043368
    72 0.825676 0.000008 0.000004 0.000000 0.000000 0.043368
    73 1.197975 0.000000 0.000000 0.000000 0.000000 0.006466
    74 2.501347 0.300780 1.374819 -0.150930 -0.399748 0.035860
    75 2.666096 0.108882 0.673818 -0.189090 -0.201561 -0.024927
    76 2.515263 -0.032223 -0.020787 -0.195344 -0.002057 -0.000521
    77 2.570501 -0.048788 -0.726891 -0.035940 0.058443 -0.006488
    78 7.451248 0.000000 0.000000 -0.008590 0.000000 -0.670494
    79 3.007038 0.000000 0.000000 -0.008590 0.000000 0.000000
    80 3.007038 0.000000 0.000000 -0.008590 0.000000 0.000000
    81 7.451247 0.000000 0.000000 -0.000038 0.000539 -0.419339
    82 1.127071 0.260708 0.809209 -2.174091 -0.838611 0.850237
    83 1.389876 0.000004 0.000000 0.011361 0.029491 0.264736
    84 0.975416 -0.000002 0.000000 0.000000 0.000000 0.195082
    85 0.975416 -0.000002 0.000000 0.000000 0.000000 0.045828
    86 1.389876 0.000000 0.000000 0.004326 0.031145 0.080663
    87 2.570181 -0.048783 0.726834 0.178873 -0.143208 -0.363686
    88 1.523348 0.000000 0.000000 0.000000 0.000000 0.402171
    89 1.162989 0.000000 0.000000 0.000000 0.000000 0.390127
    90 1.162987 0.000000 0.000001 0.000000 0.000000 0.188826
    91 1.523348 0.000000 0.000000 0.000000 0.000000 0.200884
    92 2.716949 -0.032341 0.020266 0.138560 0.036920 -0.241495
    93 1.738605 0.000000 0.000000 0.000000 0.000000 0.676136
    94 1.155094 0.000000 0.000000 0.000000 0.000000 0.657498
    95 1.155092 0.000000 0.000000 0.000000 0.000000 0.321465
    96 1.738605 0.000000 0.000000 0.000000 0.000000 0.340096
    97 2.666090 0.108882 -0.673818 0.221844 0.253923 -0.032113
    98 1.520895 0.000000 0.000000 0.000000 0.000000 0.775591
    99 1.109407 0.000000 0.000000 0.000000 0.000000 0.764413
    100 1.109404 0.000000 0.000000 0.000000 0.000000 0.388361
    101 1.520897 0.000000 0.000001 0.000001 0.000000 0.399540
    102 2.501347 0.300780 -1.374819 0.369972 0.398654 0.215329
    103 1.197973 0.000000 0.000000 0.000000 0.000000 0.794143
    104 0.825678 0.000000 0.000000 0.000000 0.000000 0.831045
    105 0.825678 0.000000 0.000001 0.000000 0.000000 0.437206
    106 1.197975 0.000000 0.000002 0.000000 0.000000 0.400304
    107 2.570181 -0.048783 0.726834 0.109097 -0.146189 -0.122772
    108 2.515263 -0.032223 0.020787 0.164532 0.008828 -0.073255
    109 2.666092 0.108882 -0.673818 0.184752 0.201862 -0.027181
    110 2.501348 0.300780 -1.374820 0.198868 0.374844 0.089002
    111 7.451247 0.000000 0.000000 0.419328 0.000000 -0.527021
    112 3.007038 0.000000 0.000000 0.419328 0.000000 0.000000
    113 3.007038 0.000000 0.000000 0.419328 0.000000 0.000000
    114 7.451247 0.000000 0.000000 0.206938 -0.010487 -0.345790
    115 -7.613248 -14.717629 -12.674145 1.026210 0.121104 -7.802642
    116 13.453850 -2.185229 -20.311097 -2.459989 0.910623 -0.854896
  time 3
    0 -7.953369 -6.820521 -6.817456 -0.126106 -0.074717 -1.486311
    1 13.077911 -2.621109 0.000004 0.000000 0.000000 0.000000
    2 6.207455 0.066380 0.000004 0.000000 0.000000 0.000000
    3 2.505192 -1.652347 0.000000 0.000000 0.000000 0.000000
    4 13.077911 2.621117 0.000000 0.000000 0.000000 0.000000
    5 6.207455 -0.066376 0.000000 0.000000 0.000000 0.000000
    6 2.505192 1.652349 0.000000 0.000000 0.000000 0.000000
    7 15.235245 0.000004 0.000000 0.000000 0.000000 0.000000
    8 11.613373 3.433626 0.000000 0.000000 0.000000 -0.000001
    9 11.613373 -3.433618 0.000002 0.000000 0.000000 -0.000001
    10 11.866768 0.023022 2.257078 1.620970 0.005250 -1.550407
    11 -0.029562 0.280472 -0.054672 1.307231 0.981166 2.812889
    12 -0.029561 0.181687 -0.053909 -1.359895 0.334755 -0.036149
    13 0.024222 0.140738 -0.002510 -0.892686 0.868005 0.386565
    14 -0.029560 0.414737 -0.055698 -1.578565 0.188398 -0.001438
    15 -0.029560 0.398393 -0.055569 -1.578346 -0.043377 0.187484
    16 -0.029562 0.247614 -0.054417 -1.894210 -1.181122 0.741598
    17 -0.029560 0.291007 -0.054752 -1.423869 -1.847453 0.088542
    18 -0.029559 0.295509 -0.054783 -1.560083 2.370095 0.007467
    19 -2.112983 0.097498 -6.626338 0.000000 -3.141592 0.041458
    20 4.065896 0.000000 0.000000 1.004529 -0.639259 -1.261421
    21 7.451247 0.000001 0.000000 0.000000 0.000000 -0.541927
    22 9.021111 0.000000 -0.000001 -3.035512 0.010226 -0.071798
    23 3.288883 3.971971 1.230882 1.327838 1.216871 1.331327
    24 7.787952 -0.379009 6.064643 1.422749 -0.005158 -3.117669
    25 -3.331646 0.379867 6.296103 1.458103 0.028155 -2.852272
    26 -3.898962 -1.308557 6.142703 1.504710 -0.026257 2.874964
    27 3.491928 3.031936 -0.000001 0.000001 0.000000 2.617995
    28 3.491928 3.031936 -0.000001 0.000001 0.000000 2.879795
    29 -9.136648 6.165041 0.486084 -0.047589 0.063456 -1.777958
    30 3.491928 -3.009382 0.000003 0.000001 0.000000 -2.617993
    31 3.491928 -3.009382 0.000003 0.000001 0.000000 -2.879792
    32 -10.639877 -6.967785 0.821027 0.038237 3.042773 -1.343399
    33 88.628113 89.948372 17.286848 -0.118746 0.587889 -4.706120
    34 0.002735 1.707083 -6.596804 0.000000 0.000000 0.000000
    35 -4.938570 -0.913393 -38.135551 1.570796 0.000000 -3.141592
    36 174.178589 72.052269 -185.025970 0.890876 -0.421989 -2.821804
    37 596.179565 -47.880154 -0.725405 0.785398 0.000000 3.141592
    38 -6.576428 -18.555904 0.315106 1.553427 -0.003397 -0.020376
    39 13.660057 50.891399 0.000000 -1.570796 0.000000 -1.570796
    40 -25.000004 25.000000 0.000002 0.000000 0.000000 0.000000
    41 -24.999996 -25.000000 -0.000004 0.000000 0.000000 0.000000
    42 24.999996 -25.000000 0.000003 0.000000 0.000000 0.000000
    43 25.000000 25.000000 0.000007 0.000000 0.000000 0.000000
    44 23.253777 -5.932435 -33.022305 -1.570796 0.000000 -1.570796
    45 2.462541 0.097671 -6.623486 0.000000 0.000000 0.081672
    46 4.065896 0.000000 0.000000 0.286046 1.105511 0.370071
    47 7.451248 0.000000 0.000000 0.000000 0.000000 -0.670494
    48 9.021112 0.000000 0.000000 -1.605178 0.035696 -0.008403
    49 1.127069 0.260708 -0.809209 2.036304 1.129024 0.465327
    50 1.389874 0.000000 0.000000 0.000000 -0.031600 -0.103426
    51 0.975416 -0.000002 0.000000 0.000000 0.000000 -0.103426
    52 0.975416 0.000002 0.000000 0.000000 0.000000 -0.103426
    53 1.389874 0.000004 0.000000 0.000000 -0.031600 -0.103426
    54 2.570181 -0.048783 -0.726834 -0.122438 0.193603 -0.030101
    55 1.523346 0.000000 0.000000 0.000000 0.000000 -0.000404
    56 1.162989 0.000000 0.000000 0.000000 0.000000 -0.012474
    57 1.162987 -0.000004 0.000001 -0.000001 0.000000 -0.012474
    58 1.523352 0.000000 0.000002 -0.000001 0.000000 -0.000404
    59 2.716949 -0.032341 -0.020266 -0.244180 -0.002584 -0.000588
    60 1.738605 0.000000 0.000000 0.000000 0.000000 0.004058
    61 1.155094 0.000000 0.000000 0.000000 0.000000 -0.014569
    62 1.155090 0.000004 0.000000 0.000000 0.000000 -0.007284
    63 1.738605 0.000000 0.000000 0.000000 0.000000 0.002029
    64 2.666088 0.108882 0.673818 -0.236789 -0.252403 -0.025148
    65 1.520893 0.000000 0.000000 0.000000 0.000000 0.023490
    66 1.109413 0.000000 0.000000 0.000000 0.000000 0.012310
    67 1.109419 0.000004 -0.000003 0.000000 0.000000 0.012310
    68 1.520891 0.000004 0.000002 0.000000 0.000000 0.023490
    69 2.501347 0.300780 1.374819 -0.195345 -0.498418 0.056457
    70 1.197973 0.000000 0.000000 0.000000 0.000000 0.006466
    71 0.825676 0.000000 0.000001 0.000000 0.000000 0.043368
    72 0.825676 0.000008 0.000004 0.000000 0.000000 0.043368
    73 1.197975 0.000000 0.000000 0.000000 0.000000 0.006466
    74 2.501347 0.300780 1.374819 -0.150930 -0.399748 0.035860
    75 2.666096 0.108882 0.673818 -0.189090 -0.201561 -0.024927
    76 2.515263 -0.032223 -0.020787 -0.195344 -0.002057 -0.000521
    77 2.570501 -0.048788 -0.726891 -0.035940 0.058443 -0.006488
    78 7.451248 0.000000 0.000000 -0.008590 0.000000 -0.670494
    79 3.007038 0.000000 0.000000 -0.008590 0.000000 0.000000
    80 3.007038 0.000000 0.000000 -0.008590 0.000000 0.000000
    81 7.451247 0.000000 0.000000 -0.000038 0.000539 -0.419339
    82 1.127071 0.260708 0.809209 -2.174439 -0.839047 0.850701
    83 1.389876 0.000004 0.000000 0.011062 0.029611 0.254511
    84 0.975416 -0.000002 0.000000 0.000000 0.000000 0.091413
    85 0.975416 -0.000002 0.000000 0.000000 0.000000 -0.006007
    86 1.389876 0.000000 0.000000 0.004207 0.031181 0.075550
    87 2.570181 -0.048783 0.726834 0.189528 -0.128694 -0.442261
    88 1.523348 0.000000 0.000000 0.000000 0.000000 0.280064
    89 1.162989 0.000000 0.000000 0.000000 0.000000 0.268031
    90 1.162987 0.000000 0.000001 0.000000 0.000000 0.127778
    91 1.523348 0.000000 0.000000 0.000000 0.000000 0.139830
    92 2.716949 -0.032341 0.020266 0.136211 0.044854 -0.298908
    93 1.738605 0.000000 0.000000 0.000000 0.000000 0.618195
    94 1.155094 0.000000 0.000000 0.000000 0.000000 0.599556
    95 1.155092 0.000000 0.000000 0.000000 0.000000 0.292494
    96 1.738605 0.000000 0.000000 0.000000 0.000000 0.311126
    97 2.666090 0.108882 -0.673818 0.211813 0.262291 -0.071359
    98 1.520895 0.000000 0.000000 0.000000 0.000000 0.736697
    99 1.109407 0.000000 0.000000 0.000000 0.000000 0.725518
    100 1.109404 0.000000 0.000000 0.000000 0.000000 0.368913
    101 1.520897 0.000000 0.000001 0.000001 0.000000 0.380093
    102 2.501347 0.300780 -1.374819 0.357820 0.409470 0.184446
    103 1.197973 0.000000 0.000000 0.000000 0.000000 0.763742
    104 0.825678 0.000000 0.000000 0.000000 0.000000 0.800644
    105 0.825678 0.000000 0.000001 0.000000 0.000000 0.422005
    106 1.197975 0.000000 0.000002 0.000000 0.000000 0.385104
    107 2.570181 -0.048783 0.726834 0.111685 -0.143732 -0.146688
    108 2.515263 -0.032223 0.020787 0.164268 0.010422 -0.090578
    109 2.666092 0.108882 -0.673818 0.182786 0.203515 -0.039013
    110 2.501348 0.300780 -1.374820 0.196232 0.376833 0.079361
    111 7.451247 0.000000 0.000000 0.419328 0.000000 -0.541931
    112 3.007038 0.000000 0.000000 0.419328 0.000000 0.000000
    113 3.007038 0.000000 0.000000 0.419328 0.000000 0.000000
    114 7.451247 0.000000 0.000000 0.207010 -0.011277 -0.353244
    115 -7.609342 -14.741067 -12.529609 1.024230 0.114043 -7.808391
    116 13.453850 -2.185229 -20.311097 -2.459989 0.910623 -0.854896
  time 4
    0 -7.945556 -6.812708 -6.809644 -0.126106 -0.074717 -1.486311
    1 13.077911 -2.812521 0.000004 0.000000 0.000000 0.000000
    2 6.207455 -0.218785 0.000004 0.000000 0.000000 0.000000
    3 2.505192 -1.703130 0.000000 0.000000 0.000000 0.000000
    4 13.077911 2.812529 0.000000 0.000000 0.000000 0.000000
    5 6.207455 0.218789 0.000000 0.000000 0.000000 0.000000
    6 2.505192 1.703132 0.000000 0.000000 0.000000 0.000000
    7 15.618069 0.000004 0.000000 0.000000 0.000000 0.000000
    8 11.765721 3.718791 0.000000 0.000000 0.000000 -0.000001
    9 11.765721 -3.718783 0.000002 0.000000 0.000000 -0.000001
    10 11.866768 0.023022 2.257078 1.620970 0.005250 -1.550407
    11 -0.029562 0.280472 -0.054672 1.347082 0.859232 2.862937
    12 -0.029561 0.181687 -0.053909 -1.354792 0.396155 -0.021863
    13 0.024222 0.140738 -0.002510 -0.633473 1.043652 0.701798
    14 -0.029560 0.414737 -0.055698 -1.578710 0.251293 -0.001965
    15 -0.029560 0.398393 -0.055569 -1.578370 0.082217 0.186525
    16 -0.029562 0.247614 -0.054417 -1.776388 -0.938082 0.607542
    17 -0.029560 0.291007 -0.054752 -1.381987 -1.785516 0.045369
    18 -0.029559 0.295509 -0.054783 -1.560683 2.432988 0.006585
    19 -2.112983 0.097498 -6.626338 0.000000 -3.141592 0.041458
    20 4.065896 0.000000 0.000000 1.004445 -0.639127 -1.261118
    21 7.451247 0.000001 0.000000 0.000000 0.000000 -0.543058
    22 9.021111 0.000000 -0.000001 -3.035512 0.010069 -0.070217
    23 3.288883 3.971971 1.230882 1.327838 1.216871 1.331327
    24 7.787952 -0.379009 6.064643 1.422749 -0.005158 -3.117669
    25 -3.331646 0.379867 6.296103 1.458103 0.028155 -2.852272
    26 -3.898962 -1.308557 6.142703 1.504710 -0.026257 2.874964
    27 3.491928 3.031936 -0.000001 0.000001 0.000000 2.617995
    28 3.491928 3.031936 -0.000001 0.000001 0.000000 2.879795
    29 -9.136648 6.165041 0.486084 -0.047589 0.063456 -1.777958
    30 3.491928 -3.009382 0.000003 0.000001 0.000000 -2.617993
    31 3.491928 -3.009382 0.000003 0.000001 0.000000 -2.879792
    32 -10.639877 -6.967785 0.821027 0.038237 3.042773 -1.343399
    33 88.628113 89.948372 17.286848 -0.118746 0.587889 -4.706120
    34 0.002735 1.707083 -6.596804 0.000000 0.000000 0.000000
    35 -4.938570 -0.913393 -38.135551 1.570796 0.000000 -3.141592
    36 174.178589 72.052269 -185.025970 0.890876 -0.421989 -2.821804
    37 596.179565 -47.880154 -0.725405 0.785398 0.000000 3.141592
    38 -6.568616 -18.551997 0.322919 1.553427 -0.003397 -0.020376
    39 13.660057 50.891399 0.000000 -1.570796 0.000000 -1.570796
    40 -25.000004 25.000000 0.000002 0.000000 0.000000 0.000000
    41 -24.999996 -25.000000 -0.000004 0.000000 0.000000 0.000000
    42 24.999996 -25.000000 0.000003 0.000000 0.000000 0.000000
    43 25.000000 25.000000 0.000007 0.000000 0.000000 0.000000
    44 23.253777 -5.932435 -33.022305 -1.570796 0.000000 -1.570796
    45 2.462541 0.097671 -6.623486 0.000000 0.000000 0.081672
    46 4.065896 0.000000 0.000000 0.286046 1.105511 0.370071
    47 7.451248 0.000000 0.000000 0.000000 0.000000 -0.670494
    48 9.021112 0.000000 0.000000 -1.605178 0.035696 -0.008403
    49 1.127069 0.260708 -0.809209 2.036304 1.129024 0.465327
    50 1.389874 0.000000 0.000000 0.000000 -0.031600 -0.103426
    51 0.975416 -0.000002 0.000000 0.000000 0.000000 -0.103426
    52 0.975416 0.000002 0.000000 0.000000 0.000000 -0.103426
    53 1.389874 0.000004 0.000000 0.000000 -0.031600 -0.103426
    54 2.570181 -0.048783 -0.726834 -0.122438 0.193603 -0.030101
    55 1.523346 0.000000 0.000000 0.000000 0.000000 -0.000404
    56 1.162989 0.000000 0.000000 0.000000 0.000000 -0.012474
    57 1.162987 -0.000004 0.000001 -0.000001 0.000000 -0.012474
    58 1.523352 0.000000 0.000002 -0.000001 0.000000 -0.000404
    59 2.716949 -0.032341 -0.020266 -0.244180 -0.002584 -0.000588
    60 1.738605 0.000000 0.000000 0.000000 0.000000 0.004058
    61 1.155094 0.000000 0.000000 0.000000 0.000000 -0.014569
    62 1.155090 0.000004 0.000000 0.000000 0.000000 -0.007284
    63 1.738605 0.000000 0.000000 0.000000 0.000000 0.002029
    64 2.666088 0.108882 0.673818 -0.236789 -0.252403 -0.025148
    65 1.520893 0.000000 0.000000 0.000000 0.000000 0.023490
    66 1.109413 0.000000 0.000000 0.000000 0.000000 0.012310
    67 1.109419 0.000004 -0.000003 0.000000 0.000000 0.012310
    68 1.520891 0.000004 0.000002 0.000000 0.000000 0.023490
    69 2.501347 0.300780 1.374819 -0.195345 -0.498418 0.056457
    70 1.197973 0.000000 0.000000 0.000000 0.000000 0.006466
    71 0.825676 0.000000 0.000001 0.000000 0.000000 0.043368
    72 0.825676 0.000008 0.000004 0.000000 0.000000 0.043368
    73 1.197975 0.000000 0.000000 0.000000 0.000000 0.006466
    74 2.501347 0.300780 1.374819 -0.150930 -0.399748 0.035860
    75 2.666096 0.108882 0.673818 -0.189090 -0.201561 -0.024927
    76 2.515263 -0.032223 -0.020787 -0.195344 -0.002057 -0.000521
    77 2.570501 -0.048788 -0.726891 -0.035940 0.058443 -0.006488
    78 7.451248 0.000000 0.000000 -0.008590 0.000000 -0.670494
    79 3.007038 0.000000 0.000000 -0.008590 0.000000 0.000000
    80 3.007038 0.000000 0.000000 -0.008590 0.000000 0.000000
    81 7.451247 0.000000 0.000000 -0.000038 0.000539 -0.419339
    82 1.127071 0.260708 0.809209 -2.174480 -0.839097 0.850743
    83 1.389876 0.000004 0.000000 0.011038 0.029611 0.253735
    84 0.975416 -0.000002 0.000000 0.000000 0.000000 0.083546
    85 0.975416 -0.000002 0.000000 0.000000 0.000000 -0.009940
    86 1.389876 0.000000 0.000000 0.004195 0.031181 0.075161
    87 2.570181 -0.048783 0.726834 0.190295 -0.127556 -0.448232
    88 1.523348 0.000000 0.000000 0.000000 0.000000 0.270855
    89 1.162989 0.000000 0.000000 0.000000 0.000000 0.258789
    90 1.162987 0.000000 0.000001 0.000000 0.000000 0.123158
    91 1.523348 0.000000 0.000000 0.000000 0.000000 0.135226
    92 2.716949 -0.032341 0.020266 0.136019 0.045453 -0.303264
    93 1.738605 0.000000 0.000000 0.000000 0.000000 0.613815
    94 1.155094 0.000000 0.000000 0.000000 0.000000 0.595183
    95 1.155092 0.000000 0.000000 0.000000 0.000000 0.290308
    96 1.738605 0.000000 0.000000 0.000000 0.000000 0.308936
    97 2.666090 0.108882 -0.673818 0.211046 0.262918 -0.074374
    98 1.520895 0.000000 0.000000 0.000000 0.000000 0.733797
    99 1.109407 0.000000 0.000000 0.000000 0.000000 0.722580
    100 1.109404 0.000000 0.000000 0.000000 0.000000 0.367444
    101 1.520897 0.000000 0.000001 0.000001 0.000000 0.378643
    102 2.501347 0.300780 -1.374819 0.356885 0.410294 0.182058
    103 1.197973 0.000000 0.000000 0.000000 0.000000 0.761443
    104 0.825678 0.000000 0.000000 0.000000 0.000000 0.798345
    105 0.825678 0.000000 0.000001 0.000000 0.000000 0.420856
    106 1.197975 0.000000 0.000002 0.000000 0.000000 0.383954
    107 2.570181 -0.048783 0.726834 0.111877 -0.143540 -0.148494
    108 2.515263 -0.032223 0.020787 0.164256 0.010542 -0.091882
    109 2.666092 0.108882 -0.673818 0.182642 0.203635 -0.039908
    110 2.501348 0.300780 -1.374820 0.196028 0.376989 0.078636
    111 7.451247 0.000000 0.000000 0.419328 0.000000 -0.543038
    112 3.007038 0.000000 0.000000 0.419328 0.000000 0.000000
    113 3.007038 0.000000 0.000000 0.419328 0.000000 0.000000
    114 7.451247 0.000000 0.000000 0.207010 -0.011337 -0.353827
    115 -7.609342 -14.741067 -12.517890 1.024041 0.113470 -7.808870
    116 13.453850 -2.185229 -20.311097 -2.459989 0.910623 -0.854896
  time 5
    0 -7.957275 -6.793176 -6.794018 -0.126106 -0.074717 -1.486311
    1 13.077911 -2.945337 0.000004 0.000000 0.000000 0.000000
    2 6.207455 -0.421916 0.000004 0.000000 0.000000 0.000000
    3 2.505192 -1.734381 0.000000 0.000000 0.000000 0.000000
    4 13.077911 2.945345 0.000000 0.000000 0.000000 0.000000
    5 6.207455 0.421920 0.000000 0.000000 0.000000 0.000000
    6 2.505192 1.734383 0.000000 0.000000 0.000000 0.000000
    7 15.883702 0.000004 0.000000 0.000000 0.000000 0.000000
    8 11.875099 3.921922 0.000000 0.000000 0.000000 -0.000001
    9 11.875099 -3.921914 0.000002 0.000000 0.000000 -0.000001
    10 11.866768 0.023022 2.257078 1.620970 0.005250 -1.550407
    11 -0.029562 0.280472 -0.054672 1.374009 0.736289 2.900424
    12 -0.029561 0.181687 -0.053909 -1.348602 0.457463 -0.006811
    13 0.024222 0.140738 -0.002510 -0.179307 1.146029 1.209833
    14 -0.029560 0.414737 -0.055698 -1.578854 0.314092 -0.002493
    15 -0.029560 0.398393 -0.055569 -1.578502 0.207908 0.185566
    16 -0.029562 0.247614 -0.054417 -1.728058 -0.690728 0.541665
    17 -0.029560 0.291007 -0.054752 -1.306025 -1.724251 -0.031840
    18 -0.029559 0.295509 -0.054783 -1.561179 2.495786 0.005793
    19 -2.112983 0.097498 -6.626338 0.000000 -3.141592 0.041458
    20 4.065896 0.000000 0.000000 1.004361 -0.638994 -1.260890
    21 7.451247 0.000001 0.000000 0.000000 0.000000 -0.543993
    22 9.021111 0.000000 -0.000001 -3.035512 0.009911 -0.068975
    23 3.288883 3.971971 1.230882 1.327838 1.216871 1.331327
    24 7.787952 -0.379009 6.064643 1.422749 -0.005158 -3.117669
    25 -3.331646 0.379867 6.296103 1.458103 0.028155 -2.852272
    26 -3.898962 -1.308557 6.142703 1.504710 -0.026257 2.874964
    27 3.491928 3.031936 -0.000001 0.000001 0.000000 2.617995
    28 3.491928 3.031936 -0.000001 0.000001 0.000000 2.879795
    29 -9.136648 6.165041 0.486084 -0.047589 0.063456 -1.777958
    30 3.491928 -3.009382 0.000003 0.000001 0.000000 -2.617993
    31 3.491928 -3.009382 0.000003 0.000001 0.000000 -2.879792
    32 -10.639877 -6.967785 0.821027 0.038237 3.042773 -1.343399
    33 88.628113 89.948372 17.286848 -0.118746 0.587889 -4.706120
    34 0.002735 1.707083 -6.596804 0.000000 0.000000 0.000000
    35 -4.938570 -0.913393 -38.135551 1.570796 0.000000 -3.141592
    36 174.178589 72.052269 -185.025970 0.890876 -0.421989 -2.821804
    37 596.179565 -47.880154 -0.725405 0.785398 0.000000 3.141592
    38 -6.576428 -18.528559 0.338544 1.553427 -0.003397 -0.020376
    39 13.660057 50.891399 0.000000 -1.570796 0.000000 -1.570796
    40 -25.000004 25.000000 0.000002 0.000000 0.000000 0.000000
    41 -24.999996 -25.000000 -0.000004 0.000000 0.000000 0.000000
    42 24.999996 -25.000000 0.000003 0.000000 0.000000 0.000000
    43 25.000000 25.000000 0.000007 0.000000 0.000000 0.000000
    44 23.253777 -5.932435 -33.022305 -1.570796 0.000000 -1.570796
    45 2.462541 0.097671 -6.623486 0.000000 0.000000 0.081672
    46 4.065896 0.000000 0.000000 0.286046 1.105511 0.370071
    47 7.451248 0.000000 0.000000 0.000000 0.000000 -0.670494
    48 9.021112 0.000000 0.000000 -1.605178 0.035696 -0.008403
    49 1.127069 0.260708 -0.809209 2.036304 1.129024 0.465327
    50 1.389874 0.000000 0.000000 0.000000 -0.031600 -0.103426
    51 0.975416 -0.000002 0.000000 0.000000 0.000000 -0.103426
    52 0.975416 0.000002 0.000000 0.000000 0.000000 -0.103426
    53 1.389874 0.000004 0.000000 0.000000 -0.031600 -0.103426
    54 2.570181 -0.048783 -0.726834 -0.122438 0.193603 -0.030101
    55 1.523346 0.000000 0.000000 0.000000 0.000000 -0.000404
    56 1.162989 0.000000 0.000000 0.000000 0.000000 -0.012474
    57 1.162987 -0.000004 0.000001 -0.000001 0.000000 -0.012474
    58 1.523352 0.000000 0.000002 -0.000001 0.000000 -0.000404
    59 2.716949 -0.032341 -0.020266 -0.244180 -0.002584 -0.000588
    60 1.738605 0.000000 0.000000 0.000000 0.000000 0.004058
    61 1.155094 0.000000 0.000000 0.000000 0.000000 -0.014569
    62 1.155090 0.000004 0.000000 0.000000 0.000000 -0.007284
    63 1.738605 0.000000 0.000000 0.000000 0.000000 0.002029
    64 2.666088 0.108882 0.673818 -0.236789 -0.252403 -0.025148
    65 1.520893 0.000000 0.000000 0.000000 0.000000 0.023490
    66 1.109413 0.000000 0.000000 0.000000 0.000000 0.012310
    67 1.109419 0.000004 -0.000003 0.000000 0.000000 0.012310
    68 1.520891 0.000004 0.000002 0.000000 0.000000 0.023490
    69 2.501347 0.300780 1.374819 -0.195345 -0.498418 0.056457
    70 1.197973 0.000000 0.000000 0.000000 0.000000 0.006466
    71 0.825676 0.000000 0.000001 0.000000 0.000000 0.043368
    72 0.825676 0.000008 0.000004 0.000000 0.000000 0.043368
    73 1.197975 0.000000 0.000000 0.000000 0.000000 0.006466
    74 2.501347 0.300780 1.374819 -0.150930 -0.399748 0.035860
    75 2.666096 0.108882 0.673818 -0.189090 -0.201561 -0.024927
    76 2.515263 -0.032223 -0.020787 -0.195344 -0.002057 -0.000521
    77 2.570501 -0.048788 -0.726891 -0.035940 0.058443 -0.006488
    78 7.451248 0.000000 0.000000 -0.008590 0.000000 -0.670494
    79 3.007038 0.000000 0.000000 -0.008590 0.000000 0.000000
    80 3.007038 0.000000 0.000000 -0.008590 0.000000 0.000000
    81 7.451247 0.000000 0.000000 -0.000038 0.000539 -0.419339
    82 1.127071 0.260708 0.809209 -2.174500 -0.839114 0.850764
    83 1.389876 0.000004 0.000000 0.011026 0.029623 0.253120
    84 0.975416 -0.000002 0.000000 0.000000 0.000000 0.077152
    85 0.975416 -0.000002 0.000000 0.000000 0.000000 -0.013137
    86 1.389876 0.000000 0.000000 0.004195 0.031181 0.074854
    87 2.570181 -0.048783 0.726834 0.190906 -0.126633 -0.453042
    88 1.523348 0.000000 0.000000 0.000000 0.000000 0.263278
    89 1.162989 0.000000 0.000000 0.000000 0.000000 0.251233
    90 1.162987 0.000000 0.000001 0.000000 0.000000 0.119380
    91 1.523348 0.000000 0.000000 0.000000 0.000000 0.131437
    92 2.716949 -0.032341 0.020266 0.135851 0.045932 -0.306788
    93 1.738605 0.000000 0.000000 0.000000 0.000000 0.610249
    94 1.155094 0.000000 0.000000 0.000000 0.000000 0.591615
    95 1.155092 0.000000 0.000000 0.000000 0.000000 0.288524
    96 1.738605 0.000000 0.000000 0.000000 0.000000 0.307152
    97 2.666090 0.108882 -0.673818 0.210411 0.263403 -0.076765
    98 1.520895 0.000000 0.000000 0.000000 0.000000 0.731402
    99 1.109407 0.000000 0.000000 0.000000 0.000000 0.720217
    100 1.109404 0.000000 0.000000 0.000000 0.000000 0.366263
    101 1.520897 0.000000 0.000001 0.000001 0.000000 0.377446
    102 2.501347 0.300780 -1.374819 0.356118 0.410953 0.180148
    103 1.197973 0.000000 0.000000 0.000000 0.000000 0.759527
    104 0.825678 0.000000 0.000000 0.000000 0.000000 0.796429
    105 0.825678 0.000000 0.000001 0.000000 0.000000 0.419898
    106 1.197975 0.000000 0.000002 0.000000 0.000000 0.382996
    107 2.570181 -0.048783 0.726834 0.112033 -0.143384 -0.149966
    108 2.515263 -0.032223 0.020787 0.164232 0.010650 -0.092952
    109 2.666092 0.108882 -0.673818 0.182522 0.203731 -0.040644
    110 2.501348 0.300780 -1.374820 0.195872 0.377109 0.078048
    111 7.451247 0.000000 0.000000 0.419328 0.000000 -0.543970
    112 3.007038 0.000000 0.000000 0.419328 0.000000 0.000000
    113 3.007038 0.000000 0.000000 0.419328 0.000000 0.000000
    114 7.451247 0.000000 0.000000 0.207022 -0.011385 -0.354293
    115 -7.609342 -14.744973 -12.510077 1.023947 0.112993 -7.809254
    116 13.453850 -2.185229 -20.311097 -2.459989 0.910623 -0.854896
  time 6
    0 -7.949462 -6.793176 -6.794018 -0.126106 -0.074717 -1.486311
    1 13.077911 -2.996120 0.000004 0.000000 0.000000 0.000000
    2 6.207455 -0.496137 0.000004 0.000000 0.000000 0.000000
    3 2.505192 -1.746100 0.000000 0.000000 0.000000 0.000000
    4 13.077911 2.996128 0.000000 0.000000 0.000000 0.000000
    5 6.207455 0.496141 0.000000 0.000000 0.000000 0.000000
    6 2.505192 1.746102 0.000000 0.000000 0.000000 0.000000
    7 15.985268 0.000004 0.000000 0.000000 0.000000 0.000000
    8 11.914163 3.996143 0.000000 0.000000 0.000000 -0.000001
    9 11.914163 -3.996135 0.000002 0.000000 0.000000 -0.000001
    10 11.866768 0.023022 2.257078 1.620970 0.005250 -1.550407
    11 -0.029562 0.280472 -0.054672 1.392750 0.612843 2.930338
    12 -0.029561 0.181687 -0.053909 -1.341156 0.518725 0.009105
    13 0.024222 0.140738 -0.002510 0.366028 1.121592 1.808469
    14 -0.029560 0.414737 -0.055698 -1.579047 0.376891 -0.003020
    15 -0.029560 0.398393 -0.055569 -1.578777 0.333598 0.184536
    16 -0.029562 0.247614 -0.054417 -1.704763 -0.442031 0.498514
    17 -0.029560 0.291007 -0.054752 -1.131668 -1.665095 -0.207452
    18 -0.029559 0.295509 -0.054783 -1.561596 2.558583 0.005067
    19 -2.112983 0.097498 -6.626338 0.000000 -3.141592 0.041458
    20 4.065896 0.000000 0.000000 1.004277 -0.638928 -1.260663
    21 7.451247 0.000001 0.000000 0.000000 0.000000 -0.544731
    22 9.021111 0.000000 -0.000001 -3.035512 0.009832 -0.067959
    23 3.288883 3.971971 1.230882 1.327838 1.216871 1.331327
    24 7.787952 -0.379009 6.064643 1.422749 -0.005158 -3.117669
    25 -3.331646 0.379867 6.296103 1.458103 0.028155 -2.852272
    26 -3.898962 -1.308557 6.142703 1.504710 -0.026257 2.874964
    27 3.491928 3.031936 -0.000001 0.000001 0.000000 2.617995
    28 3.491928 3.031936 -0.000001 0.000001 0.000000 2.879795
    29 -9.136648 6.165041 0.486084 -0.047589 0.063456 -1.777958
    30 3.491928 -3.009382 0.000003 0.000001 0.000000 -2.617993
    31 3.491928 -3.009382 0.000003 0.000001 0.000000 -2.879792
    32 -10.639877 -6.967785 0.821027 0.038237 3.042773 -1.343399
    33 88.628113 89.948372 17.286848 -0.118746 0.587889 -4.706120
    34 0.002735 1.707083 -6.596804 0.000000 0.000000 0.000000
    35 -4.938570 -0.913393 -38.135551 1.570796 0.000000 -3.141592
    36 174.178589 72.052269 -185.025970 0.890876 -0.421989 -2.821804
    37 596.179565 -47.880154 -0.725405 0.785398 0.000000 3.141592
    38 -6.572522 -18.528559 0.338544 1.553427 -0.003397 -0.020376
    39 13.660057 50.891399 0.000000 -1.570796 0.000000 -1.570796
    40 -25.000004 25.000000 0.000002 0.000000 0.000000 0.000000
    41 -24.999996 -25.000000 -0.000004 0.000000 0.000000 0.000000
    42 24.999996 -25.000000 0.000003 0.000000 0.000000 0.000000
    43 25.000000 25.000000 0.000007 0.000000 0.000000 0.000000
    44 23.253777 -5.932435 -33.022305 -1.570796 0.000000 -1.570796
    45 2.462541 0.097671 -6.623486 0.000000 0.000000 0.081672
    46 4.065896 0.000000 0.000000 0.286046 1.105511 0.370071
    47 7.451248 0.000000 0.000000 0.000000 0.000000 -0.670494
    48 9.021112 0.000000 0.000000 -1.605178 0.035696 -0.008403
    49 1.127069 0.260708 -0.809209 2.036304 1.129024 0.465327
    50 1.389874 0.000000 0.000000 0.000000 -0.031600 -0.103426
    51 0.975416 -0.000002 0.000000 0.000000 0.000000 -0.103426
    52 0.975416 0.000002 0.000000 0.000000 0.000000 -0.103426
    53 1.389874 0.000004 0.000000 0.000000 -0.031600 -0.103426
    54 2.570181 -0.048783 -0.726834 -0.122438 0.193603 -0.030101
    55 1.523346 0.000000 0.000000 0.000000 0.000000 -0.000404
    56 1.162989 0.000000 0.000000 0.000000 0.000000 -0.012474
    57 1.162987 -0.000004 0.000001 -0.000001 0.000000 -0.012474
    58 1.523352 0.000000 0.000002 -0.000001 0.000000 -0.000404
    59 2.716949 -0.032341 -0.020266 -0.244180 -0.002584 -0.000588
    60 1.738605 0.000000 0.000000 0.000000 0.000000 0.004058
    61 1.155094 0.000000 0.000000 0.000000 0.000000 -0.014569
    62 1.155090 0.000004 0.000000 0.000000 0.000000 -0.007284
    63 1.738605 0.000000 0.000000 0.000000 0.000000 0.002029
    64 2.666088 0.108882 0.673818 -0.236789 -0.252403 -0.025148
    65 1.520893 0.000000 0.000000 0.000000 0.000000 0.023490
    66 1.109413 0.000000 0.000000 0.000000 0.000000 0.012310
    67 1.109419 0.000004 -0.000003 0.000000 0.000000 0.012310
    68 1.520891 0.000004 0.000002 0.000000 0.000000 0.023490
    69 2.501347 0.300780 1.374819 -0.195345 -0.498418 0.056457
    70 1.197973 0.000000 0.000000 0.000000 0.000000 0.006466
    71 0.825676 0.000000 0.000001 0.000000 0.000000 0.043368
    72 0.825676 0.000008 0.000004 0.000000 0.000000 0.043368
    73 1.197975 0.000000 0.000000 0.000000 0.000000 0.006466
    74 2.501347 0.300780 1.374819 -0.150930 -0.399748 0.035860
    75 2.666096 0.108882 0.673818 -0.189090 -0.201561 -0.024927
    76 2.515263 -0.032223 -0.020787 -0.195344 -0.002057 -0.000521
    77 2.570501 -0.048788 -0.726891 -0.035940 0.058443 -0.006488
    78 7.451248 0.000000 0.000000 -0.008590 0.000000 -0.670494
    79 3.007038 0.000000 0.000000 -0.008590 0.000000 0.000000
    80 3.007038 0.000000 0.000000 -0.008590 0.000000 0.000000
    81 7.451247 0.000000 0.000000 -0.000038 0.000539 -0.419339
    82 1.127071 0.260708 0.809209 -2.174500 -0.839147 0.850785
    83 1.389876 0.000004 0.000000 0.011014 0.029623 0.252603
    84 0.975416 -0.000002 0.000000 0.000000 0.000000 0.072123
    85 0.975416 -0.000002 0.000000 0.000000 0.000000 -0.015652
    86 1.389876 0.000000 0.000000 0.004183 0.031181 0.074595
    87 2.570181 -0.048783 0.726834 0.191385 -0.125902 -0.456857
    88 1.523348 0.000000 0.000000 0.000000 0.000000 0.257391
    89 1.162989 0.000000 0.000000 0.000000 0.000000 0.245308
    90 1.162987 0.000000 0.000001 0.000000 0.000000 0.116417
    91 1.523348 0.000000 0.000000 0.000000 0.000000 0.128494
    92 2.716949 -0.032341 0.020266 0.135731 0.046316 -0.309578
    93 1.738605 0.000000 0.000000 0.000000 0.000000 0.607433
    94 1.155094 0.000000 0.000000 0.000000 0.000000 0.588796
    95 1.155092 0.000000 0.000000 0.000000 0.000000 0.287114
    96 1.738605 0.000000 0.000000 0.000000 0.000000 0.305745
    97 2.666090 0.108882 -0.673818 0.209908 0.263811 -0.078688
    98 1.520895 0.000000 0.000000 0.000000 0.000000 0.729510
    99 1.109407 0.000000 0.000000 0.000000 0.000000 0.718301
    100 1.109404 0.000000 0.000000 0.000000 0.000000 0.365305
    101 1.520897 0.000000 0.000001 0.000001 0.000000 0.376500
    102 2.501347 0.300780 -1.374819 0.355519 0.411447 0.178662
    103 1.197973 0.000000 0.000000 0.000000 0.000000 0.758058
    104 0.825678 0.000000 0.000000 0.000000 0.000000 0.794960
    105 0.825678 0.000000 0.000001 0.000000 0.000000 0.419163
    106 1.197975 0.000000 0.000002 0.000000 0.000000 0.382262
    107 2.570181 -0.048783 0.726834 0.112165 -0.143252 -0.151129
    108 2.515263 -0.032223 0.020787 0.164220 0.010722 -0.093802
    109 2.666092 0.108882 -0.673818 0.182427 0.203815 -0.041220
    110 2.501348 0.300780 -1.374820 0.195740 0.377205 0.077582
    111 7.451247 0.000000 0.000000 0.419328 0.000000 -0.544727
    112 3.007038 0.000000 0.000000 0.419328 0.000000 0.000000
    113 3.007038 0.000000 0.000000 0.419328 0.000000 0.000000
    114 7.451247 0.000000 0.000000 0.207022 -0.011421 -0.354642
    115 -7.609342 -14.744973 -12.502264 1.023852 0.112707 -7.809541
    116 13.453850 -2.185229 -20.311097 -2.459989 0.910623 -0.854896
end
