// Created by Crowbar 0.49.0.0

$modelname "weapons/tfa_cso/w_sl8gs.mdl"

$bodygroup "studio"
{
	studio "w_sl8gs_w_gold_reference_sl8"
}

$collisionmodel "w_sl8gs_w_gold_reference_sl8.smd"
{
	$mass 9
}

$CDMaterials "models\weapons\tfa_cso\sl8gs"

$attachment "0" "PW_SL8" -0.10 18.80 0.60 rotate 0 0 0

$sequence "idle" {
	"w_sl8gs_anims\idle"
	fps 30
}
