version 1
nodes
  0 "Bone01" -1
  1 "Bone_Lefthand" 0
  2 "Bone02" 1
  3 "Bone 04" 1
  4 "Bone13" 3
  5 "Bone14" 4
  6 "Bone15" 5
  7 "Bone17" 3
  8 "Bone18" 7
  9 "Bone19" 8
  10 "Bone21" 3
  11 "Bone22" 10
  12 "Bone23" 11
  13 "Bone05" 3
  14 "Bone06" 13
  15 "Bone07" 14
  16 "Bone09" 3
  17 "Bone10" 16
  18 "Bone11" 17
  19 "Bone04" -1
  20 "Bone_Righthand" 19
  21 "Bone26" 20
  22 "Bone35" 21
  23 "Bone36" 22
  24 "Bone37" 23
  25 "Bone31" 21
  26 "Bone32" 25
  27 "Bone33" 26
  28 "Bone39" 21
  29 "Bone40" 28
  30 "Bone41" 29
  31 "Bone43" 21
  32 "Bone44" 31
  33 "Bone45" 32
  34 "Bone27" 21
  35 "Bone28" 34
  36 "Bone29" 35
end
skeleton
  time 0
    0 7.598738 1.165596 -6.193997 1.122140 -1.938870 -1.314664
    1 0.000001 -8.563280 0.000000 0.011360 0.045153 -0.172443
    2 2.360136 -3.245876 1.423021 -1.205423 1.106299 -1.376897
    3 -0.003480 -0.404830 0.000000 0.000000 0.000000 0.000000
    4 -0.519309 -2.501153 -0.278956 -0.390529 0.037668 -0.005934
    5 -0.010598 -1.208185 0.000000 -1.055925 0.000000 0.000000
    6 0.000000 -0.763066 -0.000001 -0.602148 0.000000 0.000000
    7 0.105981 -2.607132 -0.278957 -0.537311 0.054194 -0.010195
    8 0.000000 -1.250579 0.000000 -0.776700 0.000000 0.000000
    9 -0.000001 -0.932634 0.000000 -1.230488 0.000000 0.000000
    10 0.763064 -2.490553 -0.278957 -0.349065 0.000000 0.130900
    11 -0.012322 -1.280917 0.000000 -0.750491 0.000000 0.000000
    12 -0.001697 -0.749371 -0.000001 -0.907564 0.000000 0.000000
    13 0.354567 0.016268 0.318133 0.743986 -0.762896 -1.122494
    14 1.887164 0.012878 0.000000 -0.040082 -0.219749 -0.583100
    15 1.001874 -0.000270 0.000000 0.000000 0.000000 -0.532315
    16 -1.123359 -2.195091 -0.278957 -0.156516 0.013626 -0.001073
    17 0.010771 -0.963790 0.000000 -0.698121 0.000000 0.000000
    18 -0.010411 -0.631916 0.000000 -0.907581 0.000000 0.000000
    19 -4.898099 2.365545 -6.248532 0.790237 1.318993 0.567289
    20 0.089928 -8.543162 0.000000 0.079760 -0.284688 0.455199
    21 0.000000 -0.359714 0.000001 0.000000 0.000000 0.000000
    22 -0.170480 -2.636147 -0.277655 -0.200802 0.000000 0.000000
    23 0.010599 -1.261177 0.000001 -0.226926 0.000000 0.000000
    24 -0.000001 -0.943232 0.000001 -0.261890 0.000000 0.000000
    25 -0.827563 -2.508973 -0.277656 -0.322950 0.000000 0.000000
    26 0.000000 -1.292970 0.000000 0.069777 0.000000 0.000000
    27 0.000000 -0.752466 0.000001 -0.174560 0.000000 0.000000
    28 0.444212 -2.561960 -0.277654 -0.462963 -0.016288 -0.016713
    29 0.021022 -1.208186 -0.000001 -0.069865 0.000000 0.000000
    30 0.010597 -0.741867 -0.000002 -0.183350 0.000000 0.000000
    31 1.047444 -2.222821 -0.277654 -0.402703 -0.021037 -0.024371
    32 0.000000 -0.996222 -0.000001 -0.226930 0.000000 0.000000
    33 -0.000001 -0.614690 0.000000 -0.253137 0.000000 0.000000
    34 -0.308254 -0.007814 0.307167 -0.448524 -0.441252 -2.149287
    35 1.978377 0.019543 0.000001 -0.000002 -0.000010 0.357842
    36 0.982426 0.003186 0.000000 0.000000 0.000000 0.174600
  time 1
    0 7.739367 1.333570 -6.221341 0.980993 -1.954061 -1.191252
    1 0.000001 -8.563280 0.000000 0.140717 0.083875 -0.128849
    2 2.360136 -3.245876 1.423021 -1.205423 1.106299 -1.376897
    3 -0.003480 -0.404830 0.000000 0.000000 0.000000 0.000000
    4 -0.519309 -2.501153 -0.278956 -0.390529 0.037668 -0.005934
    5 -0.010598 -1.208185 0.000000 -1.055925 0.000000 0.000000
    6 0.000000 -0.763066 -0.000001 -0.602148 0.000000 0.000000
    7 0.105981 -2.607132 -0.278957 -0.537311 0.054194 -0.010195
    8 0.000000 -1.250579 0.000000 -0.776700 0.000000 0.000000
    9 -0.000001 -0.932634 0.000000 -1.230488 0.000000 0.000000
    10 0.763064 -2.490553 -0.278957 -0.349065 0.000000 0.130900
    11 -0.012322 -1.280917 0.000000 -0.750491 0.000000 0.000000
    12 -0.001697 -0.749371 -0.000001 -0.907564 0.000000 0.000000
    13 0.354567 0.016268 0.318133 0.743986 -0.762896 -1.122494
    14 1.887164 0.012878 0.000000 -0.040082 -0.219749 -0.583100
    15 1.001874 -0.000270 0.000000 0.000000 0.000000 -0.532315
    16 -1.123359 -2.195091 -0.278957 -0.156516 0.013626 -0.001073
    17 0.010771 -0.963790 0.000000 -0.698121 0.000000 0.000000
    18 -0.010411 -0.631916 0.000000 -0.907581 0.000000 0.000000
    19 -5.734062 1.834279 -6.248532 0.783080 1.367122 0.576524
    20 0.089928 -8.543162 0.000000 0.074211 -0.238781 0.423270
    21 0.000000 -0.359714 0.000001 0.000000 0.000000 0.000000
    22 -0.170480 -2.636147 -0.277655 -0.192445 0.000000 0.000000
    23 0.010599 -1.261177 0.000001 -0.221102 0.000000 0.000000
    24 -0.000001 -0.943232 0.000001 -0.255841 0.000000 0.000000
    25 -0.827563 -2.508973 -0.277656 -0.328198 0.000000 0.000000
    26 0.000000 -1.292970 0.000000 0.049231 0.000000 0.000000
    27 0.000000 -0.752466 0.000001 -0.206024 0.000000 0.000000
    28 0.444212 -2.561960 -0.277654 -0.454645 -0.016312 -0.016701
    29 0.021022 -1.208186 -0.000001 -0.064020 0.000000 0.000000
    30 0.010597 -0.741867 -0.000002 -0.177301 0.000000 0.000000
    31 1.047444 -2.222821 -0.277654 -0.394337 -0.021049 -0.024371
    32 0.000000 -0.996222 -0.000001 -0.221106 0.000000 0.000000
    33 -0.000001 -0.614690 0.000000 -0.247193 0.000000 0.000000
    34 -0.308254 -0.007814 0.307167 -0.441405 -0.448371 -2.165850
    35 1.978377 0.019543 0.000001 -0.000002 -0.000010 0.311020
    36 0.982426 0.003186 0.000000 0.000000 0.000000 0.133737
  time 2
    0 7.864371 1.493731 -6.236967 0.845538 -1.976520 -1.074783
    1 0.000001 -8.563280 0.000000 0.272098 0.116641 -0.080429
    2 2.360136 -3.245876 1.423021 -1.205423 1.106299 -1.376897
    3 -0.003480 -0.404830 0.000000 0.000000 0.000000 0.000000
    4 -0.519309 -2.501153 -0.278956 -0.390529 0.037668 -0.005934
    5 -0.010598 -1.208185 0.000000 -1.055925 0.000000 0.000000
    6 0.000000 -0.763066 -0.000001 -0.602148 0.000000 0.000000
    7 0.105981 -2.607132 -0.278957 -0.537311 0.054194 -0.010195
    8 0.000000 -1.250579 0.000000 -0.776700 0.000000 0.000000
    9 -0.000001 -0.932634 0.000000 -1.230488 0.000000 0.000000
    10 0.763064 -2.490553 -0.278957 -0.349065 0.000000 0.130900
    11 -0.012322 -1.280917 0.000000 -0.750491 0.000000 0.000000
    12 -0.001697 -0.749371 -0.000001 -0.907564 0.000000 0.000000
    13 0.354567 0.016268 0.318133 0.743986 -0.762896 -1.122494
    14 1.887164 0.012878 0.000000 -0.040082 -0.219749 -0.583100
    15 1.001874 -0.000270 0.000000 0.000000 0.000000 -0.532315
    16 -1.123359 -2.195091 -0.278957 -0.156516 0.013626 -0.001073
    17 0.010771 -0.963790 0.000000 -0.698121 0.000000 0.000000
    18 -0.010411 -0.631916 0.000000 -0.907581 0.000000 0.000000
    19 -6.484085 1.357702 -6.248532 0.771791 1.511739 0.613903
    20 0.089928 -8.543162 0.000000 0.062569 -0.190700 0.390274
    21 0.000000 -0.359714 0.000001 0.000000 0.000000 0.000000
    22 -0.170480 -2.636147 -0.277655 -0.171018 0.000000 0.000000
    23 0.010599 -1.261177 0.000001 -0.206223 0.000000 0.000000
    24 -0.000001 -0.943232 0.000001 -0.240628 0.000000 0.000000
    25 -0.827563 -2.508973 -0.277656 -0.328236 0.000000 0.000000
    26 0.000000 -1.292970 0.000000 0.032737 0.000000 0.000000
    27 0.000000 -0.752466 0.000001 -0.230535 0.000000 0.000000
    28 0.444212 -2.561960 -0.277654 -0.433210 -0.016348 -0.016653
    29 0.021022 -1.208186 -0.000001 -0.049141 0.000000 0.000000
    30 0.010597 -0.741867 -0.000002 -0.162088 0.000000 0.000000
    31 1.047444 -2.222821 -0.277654 -0.372953 -0.021157 -0.024312
    32 0.000000 -0.996222 -0.000001 -0.206186 0.000000 0.000000
    33 -0.000001 -0.614690 0.000000 -0.231875 0.000000 0.000000
    34 -0.308254 -0.007814 0.307167 -0.433567 -0.455921 -2.183803
    35 1.978377 0.019543 0.000001 -0.000002 -0.000010 0.257556
    36 0.982426 0.003186 0.000000 0.000000 0.000000 0.082267
  time 3
    0 7.981562 1.642173 -6.256499 0.721468 -2.005413 -0.970350
    1 0.000001 -8.563280 0.000000 0.324556 0.127847 -0.058921
    2 2.360136 -3.245876 1.423021 -1.205423 1.106299 -1.376897
    3 -0.003480 -0.404830 0.000000 0.000000 0.000000 0.000000
    4 -0.519309 -2.501153 -0.278956 -0.390529 0.037668 -0.005934
    5 -0.010598 -1.208185 0.000000 -1.055925 0.000000 0.000000
    6 0.000000 -0.763066 -0.000001 -0.602148 0.000000 0.000000
    7 0.105981 -2.607132 -0.278957 -0.537311 0.054194 -0.010195
    8 0.000000 -1.250579 0.000000 -0.776700 0.000000 0.000000
    9 -0.000001 -0.932634 0.000000 -1.230488 0.000000 0.000000
    10 0.763064 -2.490553 -0.278957 -0.349065 0.000000 0.130900
    11 -0.012322 -1.280917 0.000000 -0.750491 0.000000 0.000000
    12 -0.001697 -0.749371 -0.000001 -0.907564 0.000000 0.000000
    13 0.354567 0.016268 0.318133 0.743986 -0.762896 -1.122494
    14 1.887164 0.012878 0.000000 -0.040082 -0.219749 -0.583100
    15 1.001874 -0.000270 0.000000 0.000000 0.000000 -0.532315
    16 -1.123359 -2.195091 -0.278957 -0.156516 0.013626 -0.001073
    17 0.010771 -0.963790 0.000000 -0.698121 0.000000 0.000000
    18 -0.010411 -0.631916 0.000000 -0.907581 0.000000 0.000000
    19 -7.148168 0.935814 -6.248532 0.709368 1.735452 0.626571
    20 0.089928 -8.543162 0.000000 0.046274 -0.141499 0.356137
    21 0.000000 -0.359714 0.000001 0.000000 0.000000 0.000000
    22 -0.170480 -2.636147 -0.277655 -0.142249 0.000000 0.000000
    23 0.010599 -1.261177 0.000001 -0.186137 0.000000 0.000000
    24 -0.000001 -0.943232 0.000001 -0.220073 0.000000 0.000000
    25 -0.827563 -2.508973 -0.277656 -0.325346 0.000000 0.000000
    26 0.000000 -1.292970 0.000000 0.018836 0.000000 0.000000
    27 0.000000 -0.752466 0.000001 -0.251429 0.000000 0.000000
    28 0.444212 -2.561960 -0.277654 -0.404397 -0.016408 -0.016605
    29 0.021022 -1.208186 -0.000001 -0.029055 0.000000 0.000000
    30 0.010597 -0.741867 -0.000002 -0.141533 0.000000 0.000000
    31 1.047444 -2.222821 -0.277654 -0.344119 -0.021265 -0.024240
    32 0.000000 -0.996222 -0.000001 -0.186100 0.000000 0.000000
    33 -0.000001 -0.614690 0.000000 -0.211320 0.000000 0.000000
    34 -0.308254 -0.007814 0.307167 -0.425214 -0.463615 -2.202606
    35 1.978377 0.019543 0.000001 -0.000002 -0.000010 0.200329
    36 0.982426 0.003186 0.000000 0.000000 0.000000 0.024736
  time 4
    0 8.083127 1.778896 -6.264312 0.611982 -2.039191 -0.880638
    1 0.000001 -8.563280 0.000000 0.293019 0.121327 -0.069714
    2 2.360136 -3.245876 1.423021 -1.205423 1.106299 -1.376897
    3 -0.003480 -0.404830 0.000000 0.000000 0.000000 0.000000
    4 -0.519309 -2.501153 -0.278956 -0.390529 0.037668 -0.005934
    5 -0.010598 -1.208185 0.000000 -1.055925 0.000000 0.000000
    6 0.000000 -0.763066 -0.000001 -0.602148 0.000000 0.000000
    7 0.105981 -2.607132 -0.278957 -0.537311 0.054194 -0.010195
    8 0.000000 -1.250579 0.000000 -0.776700 0.000000 0.000000
    9 -0.000001 -0.932634 0.000000 -1.230488 0.000000 0.000000
    10 0.763064 -2.490553 -0.278957 -0.349065 0.000000 0.130900
    11 -0.012322 -1.280917 0.000000 -0.750491 0.000000 0.000000
    12 -0.001697 -0.749371 -0.000001 -0.907564 0.000000 0.000000
    13 0.354567 0.016268 0.318133 0.743986 -0.762896 -1.122494
    14 1.887164 0.012878 0.000000 -0.040082 -0.219749 -0.583100
    15 1.001874 -0.000270 0.000000 0.000000 0.000000 -0.532315
    16 -1.123359 -2.195091 -0.278957 -0.156516 0.013626 -0.001073
    17 0.010771 -0.963790 0.000000 -0.698121 0.000000 0.000000
    18 -0.010411 -0.631916 0.000000 -0.907581 0.000000 0.000000
    19 -7.722404 0.576428 -6.248532 0.673637 1.966640 0.670003
    20 0.089928 -8.543162 0.000000 0.026818 -0.092154 0.320933
    21 0.000000 -0.359714 0.000001 0.000000 0.000000 0.000000
    22 -0.170480 -2.636147 -0.277655 -0.111475 0.000000 0.000000
    23 0.010599 -1.261177 0.000001 -0.164755 0.000000 0.000000
    24 -0.000001 -0.943232 0.000001 -0.198104 0.000000 0.000000
    25 -0.827563 -2.508973 -0.277656 -0.321638 0.000000 0.000000
    26 0.000000 -1.292970 0.000000 0.005947 0.000000 0.000000
    27 0.000000 -0.752466 0.000001 -0.271164 0.000000 0.000000
    28 0.444212 -2.561960 -0.277654 -0.373703 -0.016480 -0.016545
    29 0.021022 -1.208186 -0.000001 -0.007652 0.000000 0.000000
    30 0.010597 -0.741867 -0.000002 -0.119564 0.000000 0.000000
    31 1.047444 -2.222821 -0.277654 -0.313429 -0.021373 -0.024168
    32 0.000000 -0.996222 -0.000001 -0.164759 0.000000 0.000000
    33 -0.000001 -0.614690 0.000000 -0.189351 0.000000 0.000000
    34 -0.308254 -0.007814 0.307167 -0.416573 -0.471285 -2.221794
    35 1.978377 0.019543 0.000001 -0.000002 -0.000010 0.142084
    36 0.982426 0.003186 0.000000 0.000000 0.000000 -0.034310
  time 5
    0 8.169068 1.907806 -6.268218 0.517155 -2.076305 -0.805739
    1 0.000001 -8.563280 0.000000 0.234201 0.108156 -0.091550
    2 2.360136 -3.245876 1.423021 -1.205423 1.106299 -1.376897
    3 -0.003480 -0.404830 0.000000 0.000000 0.000000 0.000000
    4 -0.519309 -2.501153 -0.278956 -0.390529 0.037668 -0.005934
    5 -0.010598 -1.208185 0.000000 -1.055925 0.000000 0.000000
    6 0.000000 -0.763066 -0.000001 -0.602148 0.000000 0.000000
    7 0.105981 -2.607132 -0.278957 -0.537311 0.054194 -0.010195
    8 0.000000 -1.250579 0.000000 -0.776700 0.000000 0.000000
    9 -0.000001 -0.932634 0.000000 -1.230488 0.000000 0.000000
    10 0.763064 -2.490553 -0.278957 -0.349065 0.000000 0.130900
    11 -0.012322 -1.280917 0.000000 -0.750491 0.000000 0.000000
    12 -0.001697 -0.749371 -0.000001 -0.907564 0.000000 0.000000
    13 0.354567 0.016268 0.318133 0.743986 -0.762896 -1.122494
    14 1.887164 0.012878 0.000000 -0.040082 -0.219749 -0.583100
    15 1.001874 -0.000270 0.000000 0.000000 0.000000 -0.532315
    16 -1.123359 -2.195091 -0.278957 -0.156516 0.013626 -0.001073
    17 0.010771 -0.963790 0.000000 -0.698121 0.000000 0.000000
    18 -0.010411 -0.631916 0.000000 -0.907581 0.000000 0.000000
    19 -8.206794 0.267825 -6.248532 0.633194 2.197142 0.712498
    20 0.089928 -8.543162 0.000000 0.005712 -0.043512 0.284895
    21 0.000000 -0.359714 0.000001 0.000000 0.000000 0.000000
    22 -0.170480 -2.636147 -0.277655 -0.084581 0.000000 0.000000
    23 0.010599 -1.261177 0.000001 -0.145987 0.000000 0.000000
    24 -0.000001 -0.943232 0.000001 -0.178832 0.000000 0.000000
    25 -0.827563 -2.508973 -0.277656 -0.319413 0.000000 0.000000
    26 0.000000 -1.292970 0.000000 -0.007460 0.000000 0.000000
    27 0.000000 -0.752466 0.000001 -0.292901 0.000000 0.000000
    28 0.444212 -2.561960 -0.277654 -0.346747 -0.016528 -0.016497
    29 0.021022 -1.208186 -0.000001 0.011117 0.000000 0.000000
    30 0.010597 -0.741867 -0.000002 -0.100292 0.000000 0.000000
    31 1.047444 -2.222821 -0.277654 -0.286475 -0.021456 -0.024096
    32 0.000000 -0.996222 -0.000001 -0.145970 0.000000 0.000000
    33 -0.000001 -0.614690 0.000000 -0.170105 0.000000 0.000000
    34 -0.308254 -0.007814 0.307167 -0.407908 -0.478680 -2.240706
    35 1.978377 0.019543 0.000001 -0.000002 -0.000010 0.085722
    36 0.982426 0.003186 0.000000 0.000000 0.000000 -0.090301
  time 6
    0 8.255008 2.024997 -6.264312 0.436756 -2.114909 -0.744357
    1 0.000001 -8.563280 0.000000 0.158063 0.089041 -0.118931
    2 2.360136 -3.245876 1.423021 -1.205423 1.106299 -1.376897
    3 -0.003480 -0.404830 0.000000 0.000000 0.000000 0.000000
    4 -0.519309 -2.501153 -0.278956 -0.390529 0.037668 -0.005934
    5 -0.010598 -1.208185 0.000000 -1.055925 0.000000 0.000000
    6 0.000000 -0.763066 -0.000001 -0.602148 0.000000 0.000000
    7 0.105981 -2.607132 -0.278957 -0.537311 0.054194 -0.010195
    8 0.000000 -1.250579 0.000000 -0.776700 0.000000 0.000000
    9 -0.000001 -0.932634 0.000000 -1.230488 0.000000 0.000000
    10 0.763064 -2.490553 -0.278957 -0.349065 0.000000 0.130900
    11 -0.012322 -1.280917 0.000000 -0.750491 0.000000 0.000000
    12 -0.001697 -0.749371 -0.000001 -0.907564 0.000000 0.000000
    13 0.354567 0.016268 0.318133 0.743986 -0.762896 -1.122494
    14 1.887164 0.012878 0.000000 -0.040082 -0.219749 -0.583100
    15 1.001874 -0.000270 0.000000 0.000000 0.000000 -0.532315
    16 -1.123359 -2.195091 -0.278957 -0.156516 0.013626 -0.001073
    17 0.010771 -0.963790 0.000000 -0.698121 0.000000 0.000000
    18 -0.010411 -0.631916 0.000000 -0.907581 0.000000 0.000000
    19 -8.605243 0.013911 -6.248532 0.589023 2.426499 0.757677
    20 0.089928 -8.543162 0.000000 -0.015447 0.003679 0.248403
    21 0.000000 -0.359714 0.000001 0.000000 0.000000 0.000000
    22 -0.170480 -2.636147 -0.277655 -0.066929 0.000000 0.000000
    23 0.010599 -1.261177 0.000001 -0.133659 0.000000 0.000000
    24 -0.000001 -0.943232 0.000001 -0.166211 0.000000 0.000000
    25 -0.827563 -2.508973 -0.277656 -0.320934 0.000000 0.000000
    26 0.000000 -1.292970 0.000000 -0.022916 0.000000 0.000000
    27 0.000000 -0.752466 0.000001 -0.319519 0.000000 0.000000
    28 0.444212 -2.561960 -0.277654 -0.329146 -0.016576 -0.016461
    29 0.021022 -1.208186 -0.000001 0.023424 0.000000 0.000000
    30 0.010597 -0.741867 -0.000002 -0.087671 0.000000 0.000000
    31 1.047444 -2.222821 -0.277654 -0.268827 -0.021516 -0.024060
    32 0.000000 -0.996222 -0.000001 -0.133643 0.000000 0.000000
    33 -0.000001 -0.614690 0.000000 -0.157484 0.000000 0.000000
    34 -0.308254 -0.007814 0.307167 -0.399507 -0.485535 -2.258826
    35 1.978377 0.019543 0.000001 -0.000002 -0.000010 0.034215
    36 0.982426 0.003186 0.000000 0.000000 0.000000 -0.138741
  time 7
    0 8.333135 2.130469 -6.256499 0.368990 -2.153452 -0.694733
    1 0.000001 -8.563280 0.000000 0.074436 0.065611 -0.146749
    2 2.360136 -3.245876 1.423021 -1.205423 1.106299 -1.376897
    3 -0.003480 -0.404830 0.000000 0.000000 0.000000 0.000000
    4 -0.519309 -2.501153 -0.278956 -0.390529 0.037668 -0.005934
    5 -0.010598 -1.208185 0.000000 -1.055925 0.000000 0.000000
    6 0.000000 -0.763066 -0.000001 -0.602148 0.000000 0.000000
    7 0.105981 -2.607132 -0.278957 -0.537311 0.054194 -0.010195
    8 0.000000 -1.250579 0.000000 -0.776700 0.000000 0.000000
    9 -0.000001 -0.932634 0.000000 -1.230488 0.000000 0.000000
    10 0.763064 -2.490553 -0.278957 -0.349065 0.000000 0.130900
    11 -0.012322 -1.280917 0.000000 -0.750491 0.000000 0.000000
    12 -0.001697 -0.749371 -0.000001 -0.907564 0.000000 0.000000
    13 0.354567 0.016268 0.318133 0.743986 -0.762896 -1.122494
    14 1.887164 0.012878 0.000000 -0.040082 -0.219749 -0.583100
    15 1.001874 -0.000270 0.000000 0.000000 0.000000 -0.532315
    16 -1.123359 -2.195091 -0.278957 -0.156516 0.013626 -0.001073
    17 0.010771 -0.963790 0.000000 -0.698121 0.000000 0.000000
    18 -0.010411 -0.631916 0.000000 -0.907581 0.000000 0.000000
    19 -8.913846 -0.177501 -6.248532 0.539647 2.654255 0.807599
    20 0.089928 -8.543162 0.000000 -0.035079 0.048819 0.212095
    21 0.000000 -0.359714 0.000001 0.000000 0.000000 0.000000
    22 -0.170480 -2.636147 -0.277655 -0.064039 0.000000 0.000000
    23 0.010599 -1.261177 0.000001 -0.131704 0.000000 0.000000
    24 -0.000001 -0.943232 0.000001 -0.164221 0.000000 0.000000
    25 -0.827563 -2.508973 -0.277656 -0.328464 0.000000 0.000000
    26 0.000000 -1.292970 0.000000 -0.041931 0.000000 0.000000
    27 0.000000 -0.752466 0.000001 -0.353687 0.000000 0.000000
    28 0.444212 -2.561960 -0.277654 -0.326349 -0.016576 -0.016461
    29 0.021022 -1.208186 -0.000001 0.025379 0.000000 0.000000
    30 0.010597 -0.741867 -0.000002 -0.085681 0.000000 0.000000
    31 1.047444 -2.222821 -0.277654 -0.266031 -0.021528 -0.024048
    32 0.000000 -0.996222 -0.000001 -0.131729 0.000000 0.000000
    33 -0.000001 -0.614690 0.000000 -0.155494 0.000000 0.000000
    34 -0.308254 -0.007814 0.307167 -0.391669 -0.491695 -2.275557
    35 1.978377 0.019543 0.000001 -0.000002 -0.000010 -0.009708
    36 0.982426 0.003186 0.000000 0.000000 0.000000 -0.175034
  time 8
    0 8.399543 2.232035 -6.236967 0.312609 -2.190209 -0.655108
    1 0.000001 -8.563280 0.000000 -0.007300 0.040683 -0.170506
    2 2.360136 -3.245876 1.423021 -1.205423 1.106299 -1.376897
    3 -0.003480 -0.404830 0.000000 0.000000 0.000000 0.000000
    4 -0.519309 -2.501153 -0.278956 -0.390529 0.037668 -0.005934
    5 -0.010598 -1.208185 0.000000 -1.055925 0.000000 0.000000
    6 0.000000 -0.763066 -0.000001 -0.602148 0.000000 0.000000
    7 0.105981 -2.607132 -0.278957 -0.537311 0.054194 -0.010195
    8 0.000000 -1.250579 0.000000 -0.776700 0.000000 0.000000
    9 -0.000001 -0.932634 0.000000 -1.230488 0.000000 0.000000
    10 0.763064 -2.490553 -0.278957 -0.349065 0.000000 0.130900
    11 -0.012322 -1.280917 0.000000 -0.750491 0.000000 0.000000
    12 -0.001697 -0.749371 -0.000001 -0.907564 0.000000 0.000000
    13 0.354567 0.016268 0.318133 0.743986 -0.762896 -1.122494
    14 1.887164 0.012878 0.000000 -0.040082 -0.219749 -0.583100
    15 1.001874 -0.000270 0.000000 0.000000 0.000000 -0.532315
    16 -1.123359 -2.195091 -0.278957 -0.156516 0.013626 -0.001073
    17 0.010771 -0.963790 0.000000 -0.698121 0.000000 0.000000
    18 -0.010411 -0.631916 0.000000 -0.907581 0.000000 0.000000
    19 -9.124790 -0.322037 -6.248532 0.482956 2.879570 0.864697
    20 0.089928 -8.543162 0.000000 -0.051321 0.091452 0.176658
    21 0.000000 -0.359714 0.000001 0.000000 0.000000 0.000000
    22 -0.170480 -2.636147 -0.277655 -0.081795 0.000000 0.000000
    23 0.010599 -1.261177 0.000001 -0.144031 0.000000 0.000000
    24 -0.000001 -0.943232 0.000001 -0.176842 0.000000 0.000000
    25 -0.827563 -2.508973 -0.277656 -0.344228 0.000000 0.000000
    26 0.000000 -1.292970 0.000000 -0.066082 0.000000 0.000000
    27 0.000000 -0.752466 0.000001 -0.398530 0.000000 0.000000
    28 0.444212 -2.561960 -0.277654 -0.343974 -0.016540 -0.016497
    29 0.021022 -1.208186 -0.000001 0.013072 0.000000 0.000000
    30 0.010597 -0.741867 -0.000002 -0.098302 0.000000 0.000000
    31 1.047444 -2.222821 -0.277654 -0.283679 -0.021456 -0.024096
    32 0.000000 -0.996222 -0.000001 -0.144015 0.000000 0.000000
    33 -0.000001 -0.614690 0.000000 -0.168115 0.000000 0.000000
    34 -0.308254 -0.007814 0.307167 -0.384706 -0.496956 -2.290226
    35 1.978377 0.019543 0.000001 -0.000002 -0.000010 -0.043054
    36 0.982426 0.003186 0.000000 0.000000 0.000000 -0.194708
  time 9
    0 8.442513 2.310162 -6.221341 0.266287 -2.223808 -0.623815
    1 0.000001 -8.563280 0.000000 -0.078128 0.018056 -0.186766
    2 2.360136 -3.245876 1.423021 -1.205423 1.106299 -1.376897
    3 -0.003480 -0.404830 0.000000 0.000000 0.000000 0.000000
    4 -0.519309 -2.501153 -0.278956 -0.390529 0.037668 -0.005934
    5 -0.010598 -1.208185 0.000000 -1.055925 0.000000 0.000000
    6 0.000000 -0.763066 -0.000001 -0.602148 0.000000 0.000000
    7 0.105981 -2.607132 -0.278957 -0.537311 0.054194 -0.010195
    8 0.000000 -1.250579 0.000000 -0.776700 0.000000 0.000000
    9 -0.000001 -0.932634 0.000000 -1.230488 0.000000 0.000000
    10 0.763064 -2.490553 -0.278957 -0.349065 0.000000 0.130900
    11 -0.012322 -1.280917 0.000000 -0.750491 0.000000 0.000000
    12 -0.001697 -0.749371 -0.000001 -0.907564 0.000000 0.000000
    13 0.354567 0.016268 0.318133 0.743986 -0.762896 -1.122494
    14 1.887164 0.012878 0.000000 -0.040082 -0.219749 -0.583100
    15 1.001874 -0.000270 0.000000 0.000000 0.000000 -0.532315
    16 -1.123359 -2.195091 -0.278957 -0.156516 0.013626 -0.001073
    17 0.010771 -0.963790 0.000000 -0.698121 0.000000 0.000000
    18 -0.010411 -0.631916 0.000000 -0.907581 0.000000 0.000000
    19 -9.265420 -0.400164 -6.248532 0.415504 3.101071 0.932466
    20 0.089928 -8.543162 0.000000 -0.062366 0.131248 0.143073
    21 0.000000 -0.359714 0.000001 0.000000 0.000000 0.000000
    22 -0.170480 -2.636147 -0.277655 -0.125430 0.000000 0.000000
    23 0.010599 -1.261177 0.000001 -0.174489 0.000000 0.000000
    24 -0.000001 -0.943232 0.000001 -0.208028 0.000000 0.000000
    25 -0.827563 -2.508973 -0.277656 -0.370508 0.000000 0.000000
    26 0.000000 -1.292970 0.000000 -0.096854 0.000000 0.000000
    27 0.000000 -0.752466 0.000001 -0.456753 0.000000 0.000000
    28 0.444212 -2.561960 -0.277654 -0.387712 -0.016444 -0.016569
    29 0.021022 -1.208186 -0.000001 -0.017386 0.000000 0.000000
    30 0.010597 -0.741867 -0.000002 -0.129488 0.000000 0.000000
    31 1.047444 -2.222821 -0.277654 -0.327364 -0.021325 -0.024204
    32 0.000000 -0.996222 -0.000001 -0.174452 0.000000 0.000000
    33 -0.000001 -0.614690 0.000000 -0.199301 0.000000 0.000000
    34 -0.308254 -0.007814 0.307167 -0.378978 -0.501223 -2.302234
    35 1.978377 0.019543 0.000001 -0.000002 -0.000010 -0.063078
    36 0.982426 0.003186 0.000000 0.000000 0.000000 -0.193121
  time 10
    0 8.493296 2.384383 -6.193997 0.229558 -2.252642 -0.599281
    1 0.000001 -8.563280 0.000000 -0.129298 0.002164 -0.192982
    2 2.360136 -3.245876 1.423021 -1.205423 1.106299 -1.376897
    3 -0.003480 -0.404830 0.000000 0.000000 0.000000 0.000000
    4 -0.519309 -2.501153 -0.278956 -0.390529 0.037668 -0.005934
    5 -0.010598 -1.208185 0.000000 -1.055925 0.000000 0.000000
    6 0.000000 -0.763066 -0.000001 -0.602148 0.000000 0.000000
    7 0.105981 -2.607132 -0.278957 -0.537311 0.054194 -0.010195
    8 0.000000 -1.250579 0.000000 -0.776700 0.000000 0.000000
    9 -0.000001 -0.932634 0.000000 -1.230488 0.000000 0.000000
    10 0.763064 -2.490553 -0.278957 -0.349065 0.000000 0.130900
    11 -0.012322 -1.280917 0.000000 -0.750491 0.000000 0.000000
    12 -0.001697 -0.749371 -0.000001 -0.907564 0.000000 0.000000
    13 0.354567 0.016268 0.318133 0.743986 -0.762896 -1.122494
    14 1.887164 0.012878 0.000000 -0.040082 -0.219749 -0.583100
    15 1.001874 -0.000270 0.000000 0.000000 0.000000 -0.532315
    16 -1.123359 -2.195091 -0.278957 -0.156516 0.013626 -0.001073
    17 0.010771 -0.963790 0.000000 -0.698121 0.000000 0.000000
    18 -0.010411 -0.631916 0.000000 -0.907581 0.000000 0.000000
    19 -9.304483 -0.431415 -6.248532 0.332015 3.317004 1.016084
    20 0.089928 -8.543162 0.000000 -0.066265 0.167977 0.112432
    21 0.000000 -0.359714 0.000001 0.000000 0.000000 0.000000
    22 -0.170480 -2.636147 -0.277655 -0.200802 0.000000 0.000000
    23 0.010599 -1.261177 0.000001 -0.226926 0.000000 0.000000
    24 -0.000001 -0.943232 0.000001 -0.261890 0.000000 0.000000
    25 -0.827563 -2.508973 -0.277656 -0.409452 0.000000 0.000000
    26 0.000000 -1.292970 0.000000 -0.135802 0.000000 0.000000
    27 0.000000 -0.752466 0.000001 -0.531269 0.000000 0.000000
    28 0.444212 -2.561960 -0.277654 -0.462963 -0.016288 -0.016713
    29 0.021022 -1.208186 -0.000001 -0.069865 0.000000 0.000000
    30 0.010597 -0.741867 -0.000002 -0.183350 0.000000 0.000000
    31 1.047444 -2.222821 -0.277654 -0.402703 -0.021037 -0.024371
    32 0.000000 -0.996222 -0.000001 -0.226930 0.000000 0.000000
    33 -0.000001 -0.614690 0.000000 -0.253137 0.000000 0.000000
    34 -0.308254 -0.007814 0.307167 -0.374735 -0.504255 -2.310983
    35 1.978377 0.019543 0.000001 -0.000002 -0.000010 -0.066879
    36 0.982426 0.003186 0.000000 0.000000 0.000000 -0.165750
  time 11
    0 8.508922 2.458604 -6.162746 0.204915 -2.269560 -0.581320
    1 0.000001 -8.563280 0.000000 -0.160968 -0.005278 -0.187219
    2 2.360136 -3.245876 1.423021 -1.205423 1.106299 -1.376897
    3 -0.003480 -0.404830 0.000000 0.000000 0.000000 0.000000
    4 -0.519309 -2.501153 -0.278956 -0.390529 0.037668 -0.005934
    5 -0.010598 -1.208185 0.000000 -1.055925 0.000000 0.000000
    6 0.000000 -0.763066 -0.000001 -0.602148 0.000000 0.000000
    7 0.105981 -2.607132 -0.278957 -0.537311 0.054194 -0.010195
    8 0.000000 -1.250579 0.000000 -0.776700 0.000000 0.000000
    9 -0.000001 -0.932634 0.000000 -1.230488 0.000000 0.000000
    10 0.763064 -2.490553 -0.278957 -0.349065 0.000000 0.130900
    11 -0.012322 -1.280917 0.000000 -0.750491 0.000000 0.000000
    12 -0.001697 -0.749371 -0.000001 -0.907564 0.000000 0.000000
    13 0.354567 0.016268 0.318133 0.743986 -0.762896 -1.122494
    14 1.887164 0.012878 0.000000 -0.040082 -0.219749 -0.583100
    15 1.001874 -0.000270 0.000000 0.000000 0.000000 -0.532315
    16 -1.123359 -2.195091 -0.278957 -0.156516 0.013626 -0.001073
    17 0.010771 -0.963790 0.000000 -0.698121 0.000000 0.000000
    18 -0.010411 -0.631916 0.000000 -0.907581 0.000000 0.000000
    19 -9.019318 -0.587670 -6.303221 0.327654 3.317386 1.017083
    20 0.089928 -8.543162 0.000000 -0.060909 0.201454 0.085937
    21 0.000000 -0.359714 0.000001 0.000000 0.000000 0.000000
    22 -0.170480 -2.636147 -0.277655 -0.435640 0.000000 0.000000
    23 0.010599 -1.261177 0.000001 -0.366518 0.000000 0.000000
    24 -0.000001 -0.943232 0.000001 -0.371447 0.000000 0.000000
    25 -0.827563 -2.508973 -0.277656 -0.511319 0.000000 0.000000
    26 0.000000 -1.292970 0.000000 -0.184482 0.000000 0.000000
    27 0.000000 -0.752466 0.000001 -0.654421 0.000000 0.000000
    28 0.444212 -2.561960 -0.277654 -0.700266 -0.015953 -0.017085
    29 0.021022 -1.208186 -0.000001 -0.209479 0.000000 0.000000
    30 0.010597 -0.741867 -0.000002 -0.292907 0.000000 0.000000
    31 1.047444 -2.222821 -0.277654 -0.652572 -0.020378 -0.024887
    32 0.000000 -0.996222 -0.000001 -0.366542 0.000000 0.000000
    33 -0.000001 -0.614690 0.000000 -0.362720 0.000000 0.000000
    34 -0.308254 -0.007814 0.307167 -0.377540 -0.502217 -2.305183
    35 1.978377 0.019543 0.000001 -0.000002 -0.000010 -0.022279
    36 0.982426 0.003186 0.000000 0.000000 0.000000 -0.080945
  time 12
    0 8.524547 2.532825 -6.131495 0.193218 -2.271645 -0.569099
    1 0.000001 -8.563280 0.000000 -0.180679 -0.006644 -0.171865
    2 2.360136 -3.245876 1.423021 -1.205423 1.106299 -1.376897
    3 -0.003480 -0.404830 0.000000 0.000000 0.000000 0.000000
    4 -0.519309 -2.501153 -0.278956 -0.390529 0.037668 -0.005934
    5 -0.010598 -1.208185 0.000000 -1.055925 0.000000 0.000000
    6 0.000000 -0.763066 -0.000001 -0.602148 0.000000 0.000000
    7 0.105981 -2.607132 -0.278957 -0.537311 0.054194 -0.010195
    8 0.000000 -1.250579 0.000000 -0.776700 0.000000 0.000000
    9 -0.000001 -0.932634 0.000000 -1.230488 0.000000 0.000000
    10 0.763064 -2.490553 -0.278957 -0.349065 0.000000 0.130900
    11 -0.012322 -1.280917 0.000000 -0.750491 0.000000 0.000000
    12 -0.001697 -0.749371 -0.000001 -0.907564 0.000000 0.000000
    13 0.354567 0.016268 0.318133 0.743986 -0.762896 -1.122494
    14 1.887164 0.012878 0.000000 -0.040082 -0.219749 -0.583100
    15 1.001874 -0.000270 0.000000 0.000000 0.000000 -0.532315
    16 -1.123359 -2.195091 -0.278957 -0.156516 0.013626 -0.001073
    17 0.010771 -0.963790 0.000000 -0.698121 0.000000 0.000000
    18 -0.010411 -0.631916 0.000000 -0.907581 0.000000 0.000000
    19 -8.769311 -0.736112 -6.334472 0.314642 3.318453 1.019766
    20 0.089928 -8.543162 0.000000 -0.044245 0.231472 0.064888
    21 0.000000 -0.359714 0.000001 0.000000 0.000000 0.000000
    22 -0.170480 -2.636147 -0.277655 -0.842466 0.000000 0.000000
    23 0.010599 -1.261177 0.000001 -0.606848 0.000000 0.000000
    24 -0.000001 -0.943232 0.000001 -0.547749 0.000000 0.000000
    25 -0.827563 -2.508973 -0.277656 -0.681623 0.000000 0.000000
    26 0.000000 -1.292970 0.000000 -0.287071 0.000000 0.000000
    27 0.000000 -0.752466 0.000001 -0.835620 0.000000 0.000000
    28 0.444212 -2.561960 -0.277654 -1.111194 -0.015509 -0.017852
    29 0.021022 -1.208186 -0.000001 -0.449812 0.000000 0.000000
    30 0.010597 -0.741867 -0.000002 -0.469209 0.000000 0.000000
    31 1.047444 -2.222821 -0.277654 -1.084419 -0.019551 -0.026073
    32 0.000000 -0.996222 -0.000001 -0.606912 0.000000 0.000000
    33 -0.000001 -0.614690 0.000000 -0.539022 0.000000 0.000000
    34 -0.308254 -0.007814 0.307167 -0.388242 -0.494343 -2.282831
    35 1.978377 0.019543 0.000001 -0.000002 -0.000010 0.080829
    36 0.982426 0.003186 0.000000 0.000000 0.000000 0.071588
  time 13
    0 8.520641 2.603140 -6.088525 0.190255 -2.264854 -0.561322
    1 0.000001 -8.563280 0.000000 -0.190613 -0.003457 -0.151138
    2 2.360136 -3.245876 1.423021 -1.205423 1.106299 -1.376897
    3 -0.003480 -0.404830 0.000000 0.000000 0.000000 0.000000
    4 -0.519309 -2.501153 -0.278956 -0.390529 0.037668 -0.005934
    5 -0.010598 -1.208185 0.000000 -1.055925 0.000000 0.000000
    6 0.000000 -0.763066 -0.000001 -0.602148 0.000000 0.000000
    7 0.105981 -2.607132 -0.278957 -0.537311 0.054194 -0.010195
    8 0.000000 -1.250579 0.000000 -0.776700 0.000000 0.000000
    9 -0.000001 -0.932634 0.000000 -1.230488 0.000000 0.000000
    10 0.763064 -2.490553 -0.278957 -0.349065 0.000000 0.130900
    11 -0.012322 -1.280917 0.000000 -0.750491 0.000000 0.000000
    12 -0.001697 -0.749371 -0.000001 -0.907564 0.000000 0.000000
    13 0.354567 0.016268 0.318133 0.743986 -0.762896 -1.122494
    14 1.887164 0.012878 0.000000 -0.040082 -0.219749 -0.583100
    15 1.001874 -0.000270 0.000000 0.000000 0.000000 -0.532315
    16 -1.123359 -2.195091 -0.278957 -0.156516 0.013626 -0.001073
    17 0.010771 -0.963790 0.000000 -0.698121 0.000000 0.000000
    18 -0.010411 -0.631916 0.000000 -0.907581 0.000000 0.000000
    19 -8.554461 -0.853303 -6.369630 0.297902 3.319750 1.023261
    20 0.089928 -8.543162 0.000000 0.004570 0.255854 0.053260
    21 0.000000 -0.359714 0.000001 0.000000 0.000000 0.000000
    22 -0.170480 -2.636147 -0.277655 -1.253953 0.000000 0.000000
    23 0.010599 -1.261177 0.000001 -0.874590 0.000000 0.000000
    24 -0.000001 -0.943232 0.000001 -0.761050 0.000000 0.000000
    25 -0.827563 -2.508973 -0.277656 -0.855311 0.000000 0.000000
    26 0.000000 -1.292970 0.000000 -0.450380 0.000000 0.000000
    27 0.000000 -0.752466 0.000001 -1.043296 0.000000 0.000000
    28 0.444212 -2.561960 -0.277654 -1.523472 -0.015509 -0.018942
    29 0.021022 -1.208186 -0.000001 -0.717557 0.000000 0.000000
    30 0.010597 -0.741867 -0.000002 -0.682510 0.000000 0.000000
    31 1.047444 -2.222821 -0.277654 -1.500874 -0.019371 -0.027931
    32 0.000000 -0.996222 -0.000001 -0.874632 0.000000 0.000000
    33 -0.000001 -0.614690 0.000000 -0.752323 0.000000 0.000000
    34 -0.308254 -0.007814 0.307167 -0.400202 -0.484984 -2.257364
    35 1.978377 0.019543 0.000001 -0.000002 -0.000010 0.211996
    36 0.982426 0.003186 0.000000 0.000000 0.000000 0.264263
  time 14
    0 8.505015 2.657829 -6.037742 0.192516 -2.255203 -0.557341
    1 0.000001 -8.563280 0.000000 -0.192900 0.002596 -0.129052
    2 2.360136 -3.245876 1.423021 -1.205423 1.106299 -1.376897
    3 -0.003480 -0.404830 0.000000 0.000000 0.000000 0.000000
    4 -0.519309 -2.501153 -0.278956 -0.390529 0.037668 -0.005934
    5 -0.010598 -1.208185 0.000000 -1.055925 0.000000 0.000000
    6 0.000000 -0.763066 -0.000001 -0.602148 0.000000 0.000000
    7 0.105981 -2.607132 -0.278957 -0.537311 0.054194 -0.010195
    8 0.000000 -1.250579 0.000000 -0.776700 0.000000 0.000000
    9 -0.000001 -0.932634 0.000000 -1.230488 0.000000 0.000000
    10 0.763064 -2.490553 -0.278957 -0.349065 0.000000 0.130900
    11 -0.012322 -1.280917 0.000000 -0.750491 0.000000 0.000000
    12 -0.001697 -0.749371 -0.000001 -0.907564 0.000000 0.000000
    13 0.354567 0.016268 0.318133 0.743986 -0.762896 -1.122494
    14 1.887164 0.012878 0.000000 -0.040082 -0.219749 -0.583100
    15 1.001874 -0.000270 0.000000 0.000000 0.000000 -0.532315
    16 -1.123359 -2.195091 -0.278957 -0.156516 0.013626 -0.001073
    17 0.010771 -0.963790 0.000000 -0.698121 0.000000 0.000000
    18 -0.010411 -0.631916 0.000000 -0.907581 0.000000 0.000000
    19 -8.374768 -0.947056 -6.396974 0.281127 3.320970 1.026880
    20 0.089928 -8.543162 0.000000 0.095177 0.273214 0.053640
    21 0.000000 -0.359714 0.000001 0.000000 0.000000 0.000000
    22 -0.170480 -2.636147 -0.277655 -1.502511 0.000000 0.000000
    23 0.010599 -1.261177 0.000001 -1.096274 0.000000 0.000000
    24 -0.000001 -0.943232 0.000001 -0.981656 0.000000 0.000000
    25 -0.827563 -2.508973 -0.277656 -0.967504 0.000000 0.000000
    26 0.000000 -1.292970 0.000000 -0.619768 0.000000 0.000000
    27 0.000000 -0.752466 0.000001 -1.246583 0.000000 0.000000
    28 0.444212 -2.561960 -0.277654 -1.764536 -0.015869 -0.020129
    29 0.021022 -1.208186 -0.000001 -0.939182 0.000000 0.000000
    30 0.010597 -0.741867 -0.000002 -0.903116 0.000000 0.000000
    31 1.047444 -2.222821 -0.277654 -1.704143 -0.019898 -0.029645
    32 0.000000 -0.996222 -0.000001 -1.096274 0.000000 0.000000
    33 -0.000001 -0.614690 0.000000 -0.972929 0.000000 0.000000
    34 -0.308254 -0.007814 0.307167 -0.407513 -0.479015 -2.241652
    35 1.978377 0.019543 0.000001 -0.000002 -0.000010 0.341018
    36 0.982426 0.003186 0.000000 0.000000 0.000000 0.469445
  time 15
    0 8.497203 2.681267 -5.979147 0.197351 -2.248769 -0.556971
    1 0.000001 -8.563280 0.000000 -0.189877 0.009691 -0.109559
    2 2.360136 -3.245876 1.423021 -1.205423 1.106299 -1.376897
    3 -0.003480 -0.404830 0.000000 0.000000 0.000000 0.000000
    4 -0.519309 -2.501153 -0.278956 -0.390529 0.037668 -0.005934
    5 -0.010598 -1.208185 0.000000 -1.055925 0.000000 0.000000
    6 0.000000 -0.763066 -0.000001 -0.602148 0.000000 0.000000
    7 0.105981 -2.607132 -0.278957 -0.537311 0.054194 -0.010195
    8 0.000000 -1.250579 0.000000 -0.776700 0.000000 0.000000
    9 -0.000001 -0.932634 0.000000 -1.230488 0.000000 0.000000
    10 0.763064 -2.490553 -0.278957 -0.349065 0.000000 0.130900
    11 -0.012322 -1.280917 0.000000 -0.750491 0.000000 0.000000
    12 -0.001697 -0.749371 -0.000001 -0.907564 0.000000 0.000000
    13 0.354567 0.016268 0.318133 0.743986 -0.762896 -1.122494
    14 1.887164 0.012878 0.000000 -0.040082 -0.219749 -0.583100
    15 1.001874 -0.000270 0.000000 0.000000 0.000000 -0.532315
    16 -1.123359 -2.195091 -0.278957 -0.156516 0.013626 -0.001073
    17 0.010771 -0.963790 0.000000 -0.698121 0.000000 0.000000
    18 -0.010411 -0.631916 0.000000 -0.907581 0.000000 0.000000
    19 -8.241951 -1.032996 -6.416506 0.264387 3.322267 1.030437
    20 0.089928 -8.543162 0.000000 0.212562 0.283717 0.064140
    21 0.000000 -0.359714 0.000001 0.000000 0.000000 0.000000
    22 -0.170480 -2.636147 -0.277655 -1.593738 0.000000 0.000000
    23 0.010599 -1.261177 0.000001 -1.198370 0.000000 0.000000
    24 -0.000001 -0.943232 0.000001 -1.179822 0.000000 0.000000
    25 -0.827563 -2.508973 -0.277656 -1.020310 0.000000 0.000000
    26 0.000000 -1.292970 0.000000 -0.740547 0.000000 0.000000
    27 0.000000 -0.752466 0.000001 -1.413946 0.000000 0.000000
    28 0.444212 -2.561960 -0.277654 -1.839064 -0.016348 -0.021195
    29 0.021022 -1.208186 -0.000001 -1.041320 0.000000 0.000000
    30 0.010597 -0.741867 -0.000002 -1.101282 0.000000 0.000000
    31 1.047444 -2.222821 -0.277654 -1.723624 -0.020498 -0.031227
    32 0.000000 -0.996222 -0.000001 -1.198390 0.000000 0.000000
    33 -0.000001 -0.614690 0.000000 -1.171095 0.000000 0.000000
    34 -0.308254 -0.007814 0.307167 -0.410557 -0.476462 -2.234989
    35 1.978377 0.019543 0.000001 -0.000002 -0.000010 0.437426
    36 0.982426 0.003186 0.000000 0.000000 0.000000 0.659498
  time 16
    0 8.493296 2.669548 -5.920551 0.201484 -2.251569 -0.559841
    1 0.000001 -8.563280 0.000000 -0.183859 0.016210 -0.096720
    2 2.360136 -3.245876 1.423021 -1.205423 1.106299 -1.376897
    3 -0.003480 -0.404830 0.000000 0.000000 0.000000 0.000000
    4 -0.519309 -2.501153 -0.278956 -0.390529 0.037668 -0.005934
    5 -0.010598 -1.208185 0.000000 -1.055925 0.000000 0.000000
    6 0.000000 -0.763066 -0.000001 -0.602148 0.000000 0.000000
    7 0.105981 -2.607132 -0.278957 -0.537311 0.054194 -0.010195
    8 0.000000 -1.250579 0.000000 -0.776700 0.000000 0.000000
    9 -0.000001 -0.932634 0.000000 -1.230488 0.000000 0.000000
    10 0.763064 -2.490553 -0.278957 -0.349065 0.000000 0.130900
    11 -0.012322 -1.280917 0.000000 -0.750491 0.000000 0.000000
    12 -0.001697 -0.749371 -0.000001 -0.907564 0.000000 0.000000
    13 0.354567 0.016268 0.318133 0.743986 -0.762896 -1.122494
    14 1.887164 0.012878 0.000000 -0.040082 -0.219749 -0.583100
    15 1.001874 -0.000270 0.000000 0.000000 0.000000 -0.532315
    16 -1.123359 -2.195091 -0.278957 -0.156516 0.013626 -0.001073
    17 0.010771 -0.963790 0.000000 -0.698121 0.000000 0.000000
    18 -0.010411 -0.631916 0.000000 -0.907581 0.000000 0.000000
    19 -8.148198 -1.087685 -6.432131 0.247594 3.323411 1.033994
    20 0.089928 -8.543162 0.000000 0.341133 0.287591 0.081803
    21 0.000000 -0.359714 0.000001 0.000000 0.000000 0.000000
    22 -0.170480 -2.636147 -0.277655 -1.648855 0.000000 0.000000
    23 0.010599 -1.261177 0.000001 -1.206149 0.000000 0.000000
    24 -0.000001 -0.943232 0.000001 -1.325985 0.000000 0.000000
    25 -0.827563 -2.508973 -0.277656 -1.060281 0.000000 0.000000
    26 0.000000 -1.292970 0.000000 -0.818609 0.000000 0.000000
    27 0.000000 -0.752466 0.000001 -1.514343 0.000000 0.000000
    28 0.444212 -2.561960 -0.277654 -1.871614 -0.016912 -0.022418
    29 0.021022 -1.208186 -0.000001 -1.049017 0.000000 0.000000
    30 0.010597 -0.741867 -0.000002 -1.247445 0.000000 0.000000
    31 1.047444 -2.222821 -0.277654 -1.721932 -0.021133 -0.032952
    32 0.000000 -0.996222 -0.000001 -1.206128 0.000000 0.000000
    33 -0.000001 -0.614690 0.000000 -1.317258 0.000000 0.000000
    34 -0.308254 -0.007814 0.307167 -0.413517 -0.473946 -2.228493
    35 1.978377 0.019543 0.000001 -0.000002 -0.000010 0.506547
    36 0.982426 0.003186 0.000000 0.000000 0.000000 0.806957
  time 17
    0 8.497203 2.603140 -5.858049 0.209204 -2.263960 -0.571136
    1 0.000001 -8.563280 0.000000 -0.165751 0.030352 -0.093237
    2 2.360136 -3.245876 1.423021 -1.205423 1.106299 -1.376897
    3 -0.003480 -0.404830 0.000000 0.000000 0.000000 0.000000
    4 -0.519309 -2.501153 -0.278956 -0.390529 0.037668 -0.005934
    5 -0.010598 -1.208185 0.000000 -1.055925 0.000000 0.000000
    6 0.000000 -0.763066 -0.000001 -0.602148 0.000000 0.000000
    7 0.105981 -2.607132 -0.278957 -0.537311 0.054194 -0.010195
    8 0.000000 -1.250579 0.000000 -0.776700 0.000000 0.000000
    9 -0.000001 -0.932634 0.000000 -1.230488 0.000000 0.000000
    10 0.763064 -2.490553 -0.278957 -0.349065 0.000000 0.130900
    11 -0.012322 -1.280917 0.000000 -0.750491 0.000000 0.000000
    12 -0.001697 -0.749371 -0.000001 -0.907564 0.000000 0.000000
    13 0.354567 0.016268 0.318133 0.743986 -0.762896 -1.122494
    14 1.887164 0.012878 0.000000 -0.040082 -0.219749 -0.583100
    15 1.001874 -0.000270 0.000000 0.000000 0.000000 -0.532315
    16 -1.123359 -2.195091 -0.278957 -0.156516 0.013626 -0.001073
    17 0.010771 -0.963790 0.000000 -0.698121 0.000000 0.000000
    18 -0.010411 -0.631916 0.000000 -0.907581 0.000000 0.000000
    19 -8.085696 -1.118936 -6.447757 0.230854 3.324403 1.037676
    20 0.089928 -8.543162 0.000000 0.465138 0.285955 0.103355
    21 0.000000 -0.359714 0.000001 0.000000 0.000000 0.000000
    22 -0.170480 -2.636147 -0.277655 -1.673432 0.000000 0.000000
    23 0.010599 -1.261177 0.000001 -1.195324 0.000000 0.000000
    24 -0.000001 -0.943232 0.000001 -1.390347 0.000000 0.000000
    25 -0.827563 -2.508973 -0.277656 -1.089089 0.000000 0.000000
    26 0.000000 -1.292970 0.000000 -0.893112 0.000000 0.000000
    27 0.000000 -0.752466 0.000001 -1.541277 0.000000 0.000000
    28 0.444212 -2.561960 -0.277654 -1.870312 -0.017379 -0.023628
    29 0.021022 -1.208186 -0.000001 -1.038295 0.000000 0.000000
    30 0.010597 -0.741867 -0.000002 -1.311807 0.000000 0.000000
    31 1.047444 -2.222821 -0.277654 -1.701934 -0.021744 -0.034858
    32 0.000000 -0.996222 -0.000001 -1.195365 0.000000 0.000000
    33 -0.000001 -0.614690 0.000000 -1.381620 0.000000 0.000000
    34 -0.308254 -0.007814 0.307167 -0.416094 -0.471753 -2.222896
    35 1.978377 0.019543 0.000001 -0.000002 -0.000010 0.572338
    36 0.982426 0.003186 0.000000 0.000000 0.000000 0.884089
  time 18
    0 8.508922 2.489855 -5.795547 0.223475 -2.281117 -0.591967
    1 0.000001 -8.563280 0.000000 -0.132189 0.051649 -0.096267
    2 2.360136 -3.245876 1.423021 -1.205423 1.106299 -1.376897
    3 -0.003480 -0.404830 0.000000 0.000000 0.000000 0.000000
    4 -0.519309 -2.501153 -0.278956 -0.390529 0.037668 -0.005934
    5 -0.010598 -1.208185 0.000000 -1.055925 0.000000 0.000000
    6 0.000000 -0.763066 -0.000001 -0.602148 0.000000 0.000000
    7 0.105981 -2.607132 -0.278957 -0.537311 0.054194 -0.010195
    8 0.000000 -1.250579 0.000000 -0.776700 0.000000 0.000000
    9 -0.000001 -0.932634 0.000000 -1.230488 0.000000 0.000000
    10 0.763064 -2.490553 -0.278957 -0.349065 0.000000 0.130900
    11 -0.012322 -1.280917 0.000000 -0.750491 0.000000 0.000000
    12 -0.001697 -0.749371 -0.000001 -0.907564 0.000000 0.000000
    13 0.354567 0.016268 0.318133 0.743986 -0.762896 -1.122494
    14 1.887164 0.012878 0.000000 -0.040082 -0.219749 -0.583100
    15 1.001874 -0.000270 0.000000 0.000000 0.000000 -0.532315
    16 -1.123359 -2.195091 -0.278957 -0.156516 0.013626 -0.001073
    17 0.010771 -0.963790 0.000000 -0.698121 0.000000 0.000000
    18 -0.010411 -0.631916 0.000000 -0.907581 0.000000 0.000000
    19 -8.073977 -1.130655 -6.447757 0.214044 3.325471 1.041295
    20 0.089928 -8.543162 0.000000 0.568896 0.281190 0.125974
    21 0.000000 -0.359714 0.000001 0.000000 0.000000 0.000000
    22 -0.170480 -2.636147 -0.277655 -1.673015 0.000000 0.000000
    23 0.010599 -1.261177 0.000001 -1.168694 0.000000 0.000000
    24 -0.000001 -0.943232 0.000001 -1.387650 0.000000 0.000000
    25 -0.827563 -2.508973 -0.277656 -1.108561 0.000000 0.000000
    26 0.000000 -1.292970 0.000000 -0.959274 0.000000 0.000000
    27 0.000000 -0.752466 0.000001 -1.518627 0.000000 0.000000
    28 0.444212 -2.561960 -0.277654 -1.843380 -0.017846 -0.024911
    29 0.021022 -1.208186 -0.000001 -1.011644 0.000000 0.000000
    30 0.010597 -0.741867 -0.000002 -1.309110 0.000000 0.000000
    31 1.047444 -2.222821 -0.277654 -1.666309 -0.022295 -0.036883
    32 0.000000 -0.996222 -0.000001 -1.168735 0.000000 0.000000
    33 -0.000001 -0.614690 0.000000 -1.378923 0.000000 0.000000
    34 -0.308254 -0.007814 0.307167 -0.417928 -0.470159 -2.218870
    35 1.978377 0.019543 0.000001 -0.000002 -0.000010 0.632558
    36 0.982426 0.003186 0.000000 0.000000 0.000000 0.839618
  time 19
    0 8.536266 2.329694 -5.740858 0.238994 -2.301849 -0.614927
    1 0.000001 -8.563280 0.000000 -0.094423 0.065743 -0.101968
    2 2.360136 -3.245876 1.423021 -1.205423 1.106299 -1.376897
    3 -0.003480 -0.404830 0.000000 0.000000 0.000000 0.000000
    4 -0.519309 -2.501153 -0.278956 -0.390529 0.037668 -0.005934
    5 -0.010598 -1.208185 0.000000 -1.055925 0.000000 0.000000
    6 0.000000 -0.763066 -0.000001 -0.602148 0.000000 0.000000
    7 0.105981 -2.607132 -0.278957 -0.537311 0.054194 -0.010195
    8 0.000000 -1.250579 0.000000 -0.776700 0.000000 0.000000
    9 -0.000001 -0.932634 0.000000 -1.230488 0.000000 0.000000
    10 0.763064 -2.490553 -0.278957 -0.349065 0.000000 0.130900
    11 -0.012322 -1.280917 0.000000 -0.750491 0.000000 0.000000
    12 -0.001697 -0.749371 -0.000001 -0.907564 0.000000 0.000000
    13 0.354567 0.016268 0.318133 0.743986 -0.762896 -1.122494
    14 1.887164 0.012878 0.000000 -0.040082 -0.219749 -0.583100
    15 1.001874 -0.000270 0.000000 0.000000 0.000000 -0.532315
    16 -1.123359 -2.195091 -0.278957 -0.156516 0.013626 -0.001073
    17 0.010771 -0.963790 0.000000 -0.698121 0.000000 0.000000
    18 -0.010411 -0.631916 0.000000 -0.907581 0.000000 0.000000
    19 -8.179449 -1.286910 -6.475101 0.222537 3.325471 1.041295
    20 0.089928 -8.543162 0.000000 0.637220 0.277006 0.147624
    21 0.000000 -0.359714 0.000001 0.000000 0.000000 0.000000
    22 -0.170480 -2.636147 -0.277655 -1.653489 0.000000 0.000000
    23 0.010599 -1.261177 0.000001 -1.128934 0.000000 0.000000
    24 -0.000001 -0.943232 0.000001 -1.355888 0.000000 0.000000
    25 -0.827563 -2.508973 -0.277656 -1.120275 0.000000 0.000000
    26 0.000000 -1.292970 0.000000 -1.012336 0.000000 0.000000
    27 0.000000 -0.752466 0.000001 -1.460194 0.000000 0.000000
    28 0.444212 -2.561960 -0.277654 -1.798774 -0.018158 -0.026229
    29 0.021022 -1.208186 -0.000001 -0.971863 0.000000 0.000000
    30 0.010597 -0.741867 -0.000002 -1.277348 0.000000 0.000000
    31 1.047444 -2.222821 -0.277654 -1.617877 -0.022751 -0.039005
    32 0.000000 -0.996222 -0.000001 -1.128934 0.000000 0.000000
    33 -0.000001 -0.614690 0.000000 -1.347161 0.000000 0.000000
    34 -0.308254 -0.007814 0.307167 -0.418755 -0.469416 -2.216976
    35 1.978377 0.019543 0.000001 -0.000002 -0.000010 0.685006
    36 0.982426 0.003186 0.000000 0.000000 0.000000 0.684944
  time 20
    0 8.567517 2.138282 -5.678356 0.251159 -2.324427 -0.633999
    1 0.000001 -8.563280 0.000000 -0.063463 0.058096 -0.107951
    2 2.360136 -3.245876 1.423021 -1.205423 1.106299 -1.376897
    3 -0.003480 -0.404830 0.000000 0.000000 0.000000 0.000000
    4 -0.519309 -2.501153 -0.278956 -0.390529 0.037668 -0.005934
    5 -0.010598 -1.208185 0.000000 -1.055925 0.000000 0.000000
    6 0.000000 -0.763066 -0.000001 -0.602148 0.000000 0.000000
    7 0.105981 -2.607132 -0.278957 -0.537311 0.054194 -0.010195
    8 0.000000 -1.250579 0.000000 -0.776700 0.000000 0.000000
    9 -0.000001 -0.932634 0.000000 -1.230488 0.000000 0.000000
    10 0.763064 -2.490553 -0.278957 -0.349065 0.000000 0.130900
    11 -0.012322 -1.280917 0.000000 -0.750491 0.000000 0.000000
    12 -0.001697 -0.749371 -0.000001 -0.907564 0.000000 0.000000
    13 0.354567 0.016268 0.318133 0.743986 -0.762896 -1.122494
    14 1.887164 0.012878 0.000000 -0.040082 -0.219749 -0.583100
    15 1.001874 -0.000270 0.000000 0.000000 0.000000 -0.532315
    16 -1.123359 -2.195091 -0.278957 -0.156516 0.013626 -0.001073
    17 0.010771 -0.963790 0.000000 -0.698121 0.000000 0.000000
    18 -0.010411 -0.631916 0.000000 -0.907581 0.000000 0.000000
    19 -8.249764 -1.404101 -6.482914 0.246961 3.325471 1.041295
    20 0.089928 -8.543162 0.000000 0.655113 0.277938 0.166759
    21 0.000000 -0.359714 0.000001 0.000000 0.000000 0.000000
    22 -0.170480 -2.636147 -0.277655 -1.620320 0.000000 0.000000
    23 0.010599 -1.261177 0.000001 -1.078596 0.000000 0.000000
    24 -0.000001 -0.943232 0.000001 -1.300167 0.000000 0.000000
    25 -0.827563 -2.508973 -0.277656 -1.126170 0.000000 0.000000
    26 0.000000 -1.292970 0.000000 -1.047514 0.000000 0.000000
    27 0.000000 -0.752466 0.000001 -1.379708 0.000000 0.000000
    28 0.444212 -2.561960 -0.277654 -1.744789 -0.018446 -0.027463
    29 0.021022 -1.208186 -0.000001 -0.921545 0.000000 0.000000
    30 0.010597 -0.741867 -0.000002 -1.221627 0.000000 0.000000
    31 1.047444 -2.222821 -0.277654 -1.559270 -0.023014 -0.041114
    32 0.000000 -0.996222 -0.000001 -1.078617 0.000000 0.000000
    33 -0.000001 -0.614690 0.000000 -1.291440 0.000000 0.000000
    34 -0.308254 -0.007814 0.307167 -0.418311 -0.469775 -2.217971
    35 1.978377 0.019543 0.000001 -0.000002 -0.000010 0.727555
    36 0.982426 0.003186 0.000000 0.000000 0.000000 0.487026
  time 21
    0 8.594862 1.939057 -5.592416 0.255994 -2.346886 -0.643813
    1 0.000001 -8.563280 0.000000 -0.043200 -0.004343 -0.129724
    2 2.360136 -3.245876 1.423021 -1.205423 1.106299 -1.376897
    3 -0.003480 -0.404830 0.000000 0.000000 0.000000 0.000000
    4 -0.519309 -2.501153 -0.278956 -0.390529 0.037668 -0.005934
    5 -0.010598 -1.208185 0.000000 -1.055925 0.000000 0.000000
    6 0.000000 -0.763066 -0.000001 -0.602148 0.000000 0.000000
    7 0.105981 -2.607132 -0.278957 -0.537311 0.054194 -0.010195
    8 0.000000 -1.250579 0.000000 -0.776700 0.000000 0.000000
    9 -0.000001 -0.932634 0.000000 -1.230488 0.000000 0.000000
    10 0.763064 -2.490553 -0.278957 -0.349065 0.000000 0.130900
    11 -0.012322 -1.280917 0.000000 -0.750491 0.000000 0.000000
    12 -0.001697 -0.749371 -0.000001 -0.907564 0.000000 0.000000
    13 0.354567 0.016268 0.318133 0.743986 -0.762896 -1.122494
    14 1.887164 0.012878 0.000000 -0.040082 -0.219749 -0.583100
    15 1.001874 -0.000270 0.000000 0.000000 0.000000 -0.532315
    16 -1.123359 -2.195091 -0.278957 -0.156516 0.013626 -0.001073
    17 0.010771 -0.963790 0.000000 -0.698121 0.000000 0.000000
    18 -0.010411 -0.631916 0.000000 -0.907581 0.000000 0.000000
    19 -8.308359 -1.490041 -6.494633 0.275289 3.325471 1.041295
    20 0.089928 -8.543162 0.000000 0.599134 0.286866 0.187072
    21 0.000000 -0.359714 0.000001 0.000000 0.000000 0.000000
    22 -0.170480 -2.636147 -0.277655 -1.579263 0.000000 0.000000
    23 0.010599 -1.261177 0.000001 -1.020479 0.000000 0.000000
    24 -0.000001 -0.943232 0.000001 -1.225436 0.000000 0.000000
    25 -0.827563 -2.508973 -0.277656 -1.127748 0.000000 0.000000
    26 0.000000 -1.292970 0.000000 -1.060049 0.000000 0.000000
    27 0.000000 -0.752466 0.000001 -1.290724 0.000000 0.000000
    28 0.444212 -2.561960 -0.277654 -1.689309 -0.018614 -0.028710
    29 0.021022 -1.208186 -0.000001 -0.863386 0.000000 0.000000
    30 0.010597 -0.741867 -0.000002 -1.146896 0.000000 0.000000
    31 1.047444 -2.222821 -0.277654 -1.493354 -0.023086 -0.043199
    32 0.000000 -0.996222 -0.000001 -1.020459 0.000000 0.000000
    33 -0.000001 -0.614690 0.000000 -1.216709 0.000000 0.000000
    34 -0.308254 -0.007814 0.307167 -0.416298 -0.471573 -2.222441
    35 1.978377 0.019543 0.000001 -0.000002 -0.000010 0.757891
    36 0.982426 0.003186 0.000000 0.000000 0.000000 0.312510
  time 22
    0 8.598768 1.767177 -5.490850 0.250145 -2.367677 -0.639091
    1 0.000001 -8.563280 0.000000 -0.026091 -0.096757 -0.156027
    2 2.360136 -3.245876 1.423021 -1.205423 1.106299 -1.376897
    3 -0.003480 -0.404830 0.000000 0.000000 0.000000 0.000000
    4 -0.519309 -2.501153 -0.278956 -0.390529 0.037668 -0.005934
    5 -0.010598 -1.208185 0.000000 -1.055925 0.000000 0.000000
    6 0.000000 -0.763066 -0.000001 -0.602148 0.000000 0.000000
    7 0.105981 -2.607132 -0.278957 -0.537311 0.054194 -0.010195
    8 0.000000 -1.250579 0.000000 -0.776700 0.000000 0.000000
    9 -0.000001 -0.932634 0.000000 -1.230488 0.000000 0.000000
    10 0.763064 -2.490553 -0.278957 -0.349065 0.000000 0.130900
    11 -0.012322 -1.280917 0.000000 -0.750491 0.000000 0.000000
    12 -0.001697 -0.749371 -0.000001 -0.907564 0.000000 0.000000
    13 0.354567 0.016268 0.318133 0.743986 -0.762896 -1.122494
    14 1.887164 0.012878 0.000000 -0.040082 -0.219749 -0.583100
    15 1.001874 -0.000270 0.000000 0.000000 0.000000 -0.532315
    16 -1.123359 -2.195091 -0.278957 -0.156516 0.013626 -0.001073
    17 0.010771 -0.963790 0.000000 -0.698121 0.000000 0.000000
    18 -0.010411 -0.631916 0.000000 -0.907581 0.000000 0.000000
    19 -8.351329 -1.540824 -6.506352 0.303599 3.325471 1.041295
    20 0.089928 -8.543162 0.000000 0.473636 0.303211 0.210169
    21 0.000000 -0.359714 0.000001 0.000000 0.000000 0.000000
    22 -0.170480 -2.636147 -0.277655 -1.535888 0.000000 0.000000
    23 0.010599 -1.261177 0.000001 -0.957135 0.000000 0.000000
    24 -0.000001 -0.943232 0.000001 -1.136722 0.000000 0.000000
    25 -0.827563 -2.508973 -0.277656 -1.126893 0.000000 0.000000
    26 0.000000 -1.292970 0.000000 -1.045182 0.000000 0.000000
    27 0.000000 -0.752466 0.000001 -1.207218 0.000000 0.000000
    28 0.444212 -2.561960 -0.277654 -1.640580 -0.018721 -0.029764
    29 0.021022 -1.208186 -0.000001 -0.800041 0.000000 0.000000
    30 0.010597 -0.741867 -0.000002 -1.058208 0.000000 0.000000
    31 1.047444 -2.222821 -0.277654 -1.422785 -0.022991 -0.045297
    32 0.000000 -0.996222 -0.000001 -0.957115 0.000000 0.000000
    33 -0.000001 -0.614690 0.000000 -1.127995 0.000000 0.000000
    34 -0.308254 -0.007814 0.307167 -0.412343 -0.474940 -2.231130
    35 1.978377 0.019543 0.000001 -0.000002 -0.000010 0.773887
    36 0.982426 0.003186 0.000000 0.000000 0.000000 0.228138
  time 23
    0 8.583143 1.595297 -5.322877 0.224021 -2.388290 -0.606132
    1 0.000001 -8.563280 0.000000 -0.012609 -0.147451 -0.142797
    2 2.360136 -3.245876 1.423021 -1.205423 1.106299 -1.376897
    3 -0.003480 -0.404830 0.000000 0.000000 0.000000 0.000000
    4 -0.519309 -2.501153 -0.278956 -0.390529 0.037668 -0.005934
    5 -0.010598 -1.208185 0.000000 -1.055925 0.000000 0.000000
    6 0.000000 -0.763066 -0.000001 -0.602148 0.000000 0.000000
    7 0.105981 -2.607132 -0.278957 -0.537311 0.054194 -0.010195
    8 0.000000 -1.250579 0.000000 -0.776700 0.000000 0.000000
    9 -0.000001 -0.932634 0.000000 -1.230488 0.000000 0.000000
    10 0.763064 -2.490553 -0.278957 -0.349065 0.000000 0.130900
    11 -0.012322 -1.280917 0.000000 -0.750491 0.000000 0.000000
    12 -0.001697 -0.749371 -0.000001 -0.907564 0.000000 0.000000
    13 0.354567 0.016268 0.318133 0.743986 -0.762896 -1.122494
    14 1.887164 0.012878 0.000000 -0.040082 -0.219749 -0.583100
    15 1.001874 -0.000270 0.000000 0.000000 0.000000 -0.532315
    16 -1.123359 -2.195091 -0.278957 -0.156516 0.013626 -0.001073
    17 0.010771 -0.963790 0.000000 -0.698121 0.000000 0.000000
    18 -0.010411 -0.631916 0.000000 -0.907581 0.000000 0.000000
    19 -8.363048 -1.564262 -6.506352 0.331927 3.325471 1.041295
    20 0.089928 -8.543162 0.000000 0.305557 0.325647 0.231218
    21 0.000000 -0.359714 0.000001 0.000000 0.000000 0.000000
    22 -0.170480 -2.636147 -0.277655 -1.472570 0.000000 0.000000
    23 0.010599 -1.261177 0.000001 -0.891321 0.000000 0.000000
    24 -0.000001 -0.943232 0.000001 -1.039315 0.000000 0.000000
    25 -0.827563 -2.508973 -0.277656 -1.118716 0.000000 0.000000
    26 0.000000 -1.292970 0.000000 -0.991931 0.000000 0.000000
    27 0.000000 -0.752466 0.000001 -1.113458 0.000000 0.000000
    28 0.444212 -2.561960 -0.277654 -1.582858 -0.018829 -0.030939
    29 0.021022 -1.208186 -0.000001 -0.734247 0.000000 0.000000
    30 0.010597 -0.741867 -0.000002 -0.960775 0.000000 0.000000
    31 1.047444 -2.222821 -0.277654 -1.350267 -0.022703 -0.047214
    32 0.000000 -0.996222 -0.000001 -0.891322 0.000000 0.000000
    33 -0.000001 -0.614690 0.000000 -1.030588 0.000000 0.000000
    34 -0.308254 -0.007814 0.307167 -0.404828 -0.481208 -2.247393
    35 1.978377 0.019543 0.000001 -0.000002 -0.000010 0.773153
    36 0.982426 0.003186 0.000000 0.000000 0.000000 0.228763
  time 24
    0 8.555798 1.407791 -5.115839 0.181443 -2.411166 -0.549842
    1 0.000001 -8.563280 0.000000 -0.008798 -0.074585 -0.020310
    2 2.360136 -3.245876 1.423021 -1.205423 1.106299 -1.376897
    3 -0.003480 -0.404830 0.000000 0.000000 0.000000 0.000000
    4 -0.519309 -2.501153 -0.278956 -0.390529 0.037668 -0.005934
    5 -0.010598 -1.208185 0.000000 -1.055925 0.000000 0.000000
    6 0.000000 -0.763066 -0.000001 -0.602148 0.000000 0.000000
    7 0.105981 -2.607132 -0.278957 -0.537311 0.054194 -0.010195
    8 0.000000 -1.250579 0.000000 -0.776700 0.000000 0.000000
    9 -0.000001 -0.932634 0.000000 -1.230488 0.000000 0.000000
    10 0.763064 -2.490553 -0.278957 -0.349065 0.000000 0.130900
    11 -0.012322 -1.280917 0.000000 -0.750491 0.000000 0.000000
    12 -0.001697 -0.749371 -0.000001 -0.907564 0.000000 0.000000
    13 0.354567 0.016268 0.318133 0.743986 -0.762896 -1.122494
    14 1.887164 0.012878 0.000000 -0.040082 -0.219749 -0.583100
    15 1.001874 -0.000270 0.000000 0.000000 0.000000 -0.532315
    16 -1.123359 -2.195091 -0.278957 -0.156516 0.013626 -0.001073
    17 0.010771 -0.963790 0.000000 -0.698121 0.000000 0.000000
    18 -0.010411 -0.631916 0.000000 -0.907581 0.000000 0.000000
    19 -7.538805 -1.372850 -5.912584 0.360255 3.325471 1.041295
    20 0.089928 -8.543162 0.000000 0.121815 0.350879 0.246710
    21 0.000000 -0.359714 0.000001 0.000000 0.000000 0.000000
    22 -0.170480 -2.636147 -0.277655 -1.376474 0.000000 0.000000
    23 0.010599 -1.261177 0.000001 -0.825610 0.000000 0.000000
    24 -0.000001 -0.943232 0.000001 -0.937980 0.000000 0.000000
    25 -0.827563 -2.508973 -0.277656 -1.099510 0.000000 0.000000
    26 0.000000 -1.292970 0.000000 -0.901100 0.000000 0.000000
    27 0.000000 -0.752466 0.000001 -0.993923 0.000000 0.000000
    28 0.444212 -2.561960 -0.277654 -1.501531 -0.018805 -0.032173
    29 0.021022 -1.208186 -0.000001 -0.668597 0.000000 0.000000
    30 0.010597 -0.741867 -0.000002 -0.859440 0.000000 0.000000
    31 1.047444 -2.222821 -0.277654 -1.278688 -0.022235 -0.049036
    32 0.000000 -0.996222 -0.000001 -0.825694 0.000000 0.000000
    33 -0.000001 -0.614690 0.000000 -0.929253 0.000000 0.000000
    34 -0.308254 -0.007814 0.307167 -0.393215 -0.490472 -2.272261
    35 1.978377 0.019543 0.000001 -0.000002 -0.000010 0.757345
    36 0.982426 0.003186 0.000000 0.000000 0.000000 0.259717
  time 25
    0 8.524547 1.259349 -4.936146 0.138007 -2.434399 -0.490682
    1 0.000001 -8.563280 0.000000 0.007286 0.023916 0.137961
    2 2.360136 -3.245876 1.423021 -1.205423 1.106299 -1.376897
    3 -0.003480 -0.404830 0.000000 0.000000 0.000000 0.000000
    4 -0.519309 -2.501153 -0.278956 -0.390529 0.037668 -0.005934
    5 -0.010598 -1.208185 0.000000 -1.055925 0.000000 0.000000
    6 0.000000 -0.763066 -0.000001 -0.602148 0.000000 0.000000
    7 0.105981 -2.607132 -0.278957 -0.537311 0.054194 -0.010195
    8 0.000000 -1.250579 0.000000 -0.776700 0.000000 0.000000
    9 -0.000001 -0.932634 0.000000 -1.230488 0.000000 0.000000
    10 0.763064 -2.490553 -0.278957 -0.349065 0.000000 0.130900
    11 -0.012322 -1.280917 0.000000 -0.750491 0.000000 0.000000
    12 -0.001697 -0.749371 -0.000001 -0.907564 0.000000 0.000000
    13 0.354567 0.016268 0.318133 0.743986 -0.762896 -1.122494
    14 1.887164 0.012878 0.000000 -0.040082 -0.219749 -0.583100
    15 1.001874 -0.000270 0.000000 0.000000 0.000000 -0.532315
    16 -1.123359 -2.195091 -0.278957 -0.156516 0.013626 -0.001073
    17 0.010771 -0.963790 0.000000 -0.698121 0.000000 0.000000
    18 -0.010411 -0.631916 0.000000 -0.907581 0.000000 0.000000
    19 -7.269265 -1.310348 -5.721172 0.388618 3.325471 1.041295
    20 0.089928 -8.543162 0.000000 -0.049917 0.374060 0.255812
    21 0.000000 -0.359714 0.000001 0.000000 0.000000 0.000000
    22 -0.170480 -2.636147 -0.277655 -1.260253 0.000000 0.000000
    23 0.010599 -1.261177 0.000001 -0.762842 0.000000 0.000000
    24 -0.000001 -0.943232 0.000001 -0.837876 0.000000 0.000000
    25 -0.827563 -2.508973 -0.277656 -1.072698 0.000000 0.000000
    26 0.000000 -1.292970 0.000000 -0.785575 0.000000 0.000000
    27 0.000000 -0.752466 0.000001 -0.861079 0.000000 0.000000
    28 0.444212 -2.561960 -0.277654 -1.406701 -0.018625 -0.033480
    29 0.021022 -1.208186 -0.000001 -0.605746 0.000000 0.000000
    30 0.010597 -0.741867 -0.000002 -0.759336 0.000000 0.000000
    31 1.047444 -2.222821 -0.277654 -1.210634 -0.021696 -0.050630
    32 0.000000 -0.996222 -0.000001 -0.762823 0.000000 0.000000
    33 -0.000001 -0.614690 0.000000 -0.829149 0.000000 0.000000
    34 -0.308254 -0.007814 0.307167 -0.378774 -0.501354 -2.302714
    35 1.978377 0.019543 0.000001 -0.000002 -0.000010 0.730265
    36 0.982426 0.003186 0.000000 0.000000 0.000000 0.313520
  time 26
    0 8.505015 1.165596 -4.818955 0.106814 -2.454058 -0.447724
    1 0.000001 -8.563280 0.000000 0.032201 0.038502 0.292343
    2 2.360136 -3.245876 1.423021 -1.205423 1.106299 -1.376897
    3 -0.003480 -0.404830 0.000000 0.000000 0.000000 0.000000
    4 -0.519309 -2.501153 -0.278956 -0.390529 0.037668 -0.005934
    5 -0.010598 -1.208185 0.000000 -1.055925 0.000000 0.000000
    6 0.000000 -0.763066 -0.000001 -0.602148 0.000000 0.000000
    7 0.105981 -2.607132 -0.278957 -0.537311 0.054194 -0.010195
    8 0.000000 -1.250579 0.000000 -0.776700 0.000000 0.000000
    9 -0.000001 -0.932634 0.000000 -1.230488 0.000000 0.000000
    10 0.763064 -2.490553 -0.278957 -0.349065 0.000000 0.130900
    11 -0.012322 -1.280917 0.000000 -0.750491 0.000000 0.000000
    12 -0.001697 -0.749371 -0.000001 -0.907564 0.000000 0.000000
    13 0.354567 0.016268 0.318133 0.743986 -0.762896 -1.122494
    14 1.887164 0.012878 0.000000 -0.040082 -0.219749 -0.583100
    15 1.001874 -0.000270 0.000000 0.000000 0.000000 -0.532315
    16 -1.123359 -2.195091 -0.278957 -0.156516 0.013626 -0.001073
    17 0.010771 -0.963790 0.000000 -0.698121 0.000000 0.000000
    18 -0.010411 -0.631916 0.000000 -0.907581 0.000000 0.000000
    19 -7.210670 -1.298629 -5.287565 0.394245 3.379549 1.011841
    20 0.089928 -8.543162 0.000000 -0.181103 0.389991 0.260559
    21 0.000000 -0.359714 0.000001 0.000000 0.000000 0.000000
    22 -0.170480 -2.636147 -0.277655 -1.136560 0.000000 0.000000
    23 0.010599 -1.261177 0.000001 -0.705507 0.000000 0.000000
    24 -0.000001 -0.943232 0.000001 -0.743951 0.000000 0.000000
    25 -0.827563 -2.508973 -0.277656 -1.041703 0.000000 0.000000
    26 0.000000 -1.292970 0.000000 -0.658245 0.000000 0.000000
    27 0.000000 -0.752466 0.000001 -0.727708 0.000000 0.000000
    28 0.444212 -2.561960 -0.277654 -1.308472 -0.018326 -0.034606
    29 0.021022 -1.208186 -0.000001 -0.548431 0.000000 0.000000
    30 0.010597 -0.741867 -0.000002 -0.665411 0.000000 0.000000
    31 1.047444 -2.222821 -0.277654 -1.149042 -0.021121 -0.051984
    32 0.000000 -0.996222 -0.000001 -0.705509 0.000000 0.000000
    33 -0.000001 -0.614690 0.000000 -0.735303 0.000000 0.000000
    34 -0.308254 -0.007814 0.307167 -0.362763 -0.512548 -2.335600
    35 1.978377 0.019543 0.000001 -0.000002 -0.000010 0.695676
    36 0.982426 0.003186 0.000000 0.000000 0.000000 0.382619
  time 27
    0 8.473764 1.134345 -4.744734 0.111883 -2.461445 -0.463648
    1 0.000001 -8.563280 0.000000 0.048575 0.031323 0.339357
    2 2.360136 -3.245876 1.423021 -1.205423 1.106299 -1.376897
    3 -0.003480 -0.404830 0.000000 0.000000 0.000000 0.000000
    4 -0.519309 -2.501153 -0.278956 -0.390529 0.037668 -0.005934
    5 -0.010598 -1.208185 0.000000 -1.055925 0.000000 0.000000
    6 0.000000 -0.763066 -0.000001 -0.602148 0.000000 0.000000
    7 0.105981 -2.607132 -0.278957 -0.537311 0.054194 -0.010195
    8 0.000000 -1.250579 0.000000 -0.776700 0.000000 0.000000
    9 -0.000001 -0.932634 0.000000 -1.230488 0.000000 0.000000
    10 0.763064 -2.490553 -0.278957 -0.349065 0.000000 0.130900
    11 -0.012322 -1.280917 0.000000 -0.750491 0.000000 0.000000
    12 -0.001697 -0.749371 -0.000001 -0.907564 0.000000 0.000000
    13 0.354567 0.016268 0.318133 0.743986 -0.762896 -1.122494
    14 1.887164 0.012878 0.000000 -0.040082 -0.219749 -0.583100
    15 1.001874 -0.000270 0.000000 0.000000 0.000000 -0.532315
    16 -1.123359 -2.195091 -0.278957 -0.156516 0.013626 -0.001073
    17 0.010771 -0.963790 0.000000 -0.698121 0.000000 0.000000
    18 -0.010411 -0.631916 0.000000 -0.907581 0.000000 0.000000
    19 -7.195044 -1.294723 -5.146936 0.401630 3.433628 0.981638
    20 0.089928 -8.543162 0.000000 -0.242368 0.394092 0.264668
    21 0.000000 -0.359714 0.000001 0.000000 0.000000 0.000000
    22 -0.170480 -2.636147 -0.277655 -1.017995 0.000000 0.000000
    23 0.010599 -1.261177 0.000001 -0.656363 0.000000 0.000000
    24 -0.000001 -0.943232 0.000001 -0.661443 0.000000 0.000000
    25 -0.827563 -2.508973 -0.277656 -1.009756 0.000000 0.000000
    26 0.000000 -1.292970 0.000000 -0.531928 0.000000 0.000000
    27 0.000000 -0.752466 0.000001 -0.606663 0.000000 0.000000
    28 0.444212 -2.561960 -0.277654 -1.216801 -0.017870 -0.035553
    29 0.021022 -1.208186 -0.000001 -0.499286 0.000000 0.000000
    30 0.010597 -0.741867 -0.000002 -0.582903 0.000000 0.000000
    31 1.047444 -2.222821 -0.277654 -1.096474 -0.020558 -0.053075
    32 0.000000 -0.996222 -0.000001 -0.656365 0.000000 0.000000
    33 -0.000001 -0.614690 0.000000 -0.652716 0.000000 0.000000
    34 -0.308254 -0.007814 0.307167 -0.346895 -0.522903 -2.367706
    35 1.978377 0.019543 0.000001 -0.000002 -0.000010 0.657380
    36 0.982426 0.003186 0.000000 0.000000 0.000000 0.459656
  time 28
    0 8.505015 1.165596 -4.779891 0.106814 -2.454058 -0.447724
    1 0.000001 -8.563280 0.000000 0.043161 0.035937 0.067268
    2 2.360136 -3.245876 1.423021 -1.205423 1.106299 -1.376897
    3 -0.003480 -0.404830 0.000000 0.000000 0.000000 0.000000
    4 -0.519309 -2.501153 -0.278956 -0.390529 0.037668 -0.005934
    5 -0.010598 -1.208185 0.000000 -1.055925 0.000000 0.000000
    6 0.000000 -0.763066 -0.000001 -0.602148 0.000000 0.000000
    7 0.105981 -2.607132 -0.278957 -0.537311 0.054194 -0.010195
    8 0.000000 -1.250579 0.000000 -0.776700 0.000000 0.000000
    9 -0.000001 -0.932634 0.000000 -1.230488 0.000000 0.000000
    10 0.763064 -2.490553 -0.278957 -0.349065 0.000000 0.130900
    11 -0.012322 -1.280917 0.000000 -0.750491 0.000000 0.000000
    12 -0.001697 -0.749371 -0.000001 -0.907564 0.000000 0.000000
    13 0.354567 0.016268 0.318133 0.743986 -0.762896 -1.122494
    14 1.887164 0.012878 0.000000 -0.040082 -0.219749 -0.583100
    15 1.001874 -0.000270 0.000000 0.000000 0.000000 -0.532315
    16 -1.123359 -2.195091 -0.278957 -0.156516 0.013626 -0.001073
    17 0.010771 -0.963790 0.000000 -0.698121 0.000000 0.000000
    18 -0.010411 -0.631916 0.000000 -0.907581 0.000000 0.000000
    19 -9.324015 -1.236127 -7.287626 0.410932 3.487325 0.950500
    20 0.089928 -8.543162 0.000000 -0.211200 0.380088 0.272199
    21 0.000000 -0.359714 0.000001 0.000000 0.000000 0.000000
    22 -0.170480 -2.636147 -0.277655 -0.917343 0.000000 0.000000
    23 0.010599 -1.261177 0.000001 -0.618064 0.000000 0.000000
    24 -0.000001 -0.943232 0.000001 -0.595353 0.000000 0.000000
    25 -0.827563 -2.508973 -0.277656 -0.980301 0.000000 0.000000
    26 0.000000 -1.292970 0.000000 -0.419537 0.000000 0.000000
    27 0.000000 -0.752466 0.000001 -0.510691 0.000000 0.000000
    28 0.444212 -2.561960 -0.277654 -1.141815 -0.017511 -0.036092
    29 0.021022 -1.208186 -0.000001 -0.460987 0.000000 0.000000
    30 0.010597 -0.741867 -0.000002 -0.516813 0.000000 0.000000
    31 1.047444 -2.222821 -0.277654 -1.055820 -0.020054 -0.053914
    32 0.000000 -0.996222 -0.000001 -0.618087 0.000000 0.000000
    33 -0.000001 -0.614690 0.000000 -0.586626 0.000000 0.000000
    34 -0.308254 -0.007814 0.307167 -0.332861 -0.531436 -2.395618
    35 1.978377 0.019543 0.000001 -0.000002 -0.000010 0.619234
    36 0.982426 0.003186 0.000000 0.000000 0.000000 0.537053
  time 29
    0 8.696427 1.251536 -5.033805 0.054644 -2.439522 -0.333107
    1 0.000001 -8.563280 0.000000 0.031176 0.036956 -0.235686
    2 2.360136 -3.245876 1.423021 -1.205423 1.106299 -1.376897
    3 -0.003480 -0.404830 0.000000 0.000000 0.000000 0.000000
    4 -0.519309 -2.501153 -0.278956 -0.390529 0.037668 -0.005934
    5 -0.010598 -1.208185 0.000000 -1.055925 0.000000 0.000000
    6 0.000000 -0.763066 -0.000001 -0.602148 0.000000 0.000000
    7 0.105981 -2.607132 -0.278957 -0.537311 0.054194 -0.010195
    8 0.000000 -1.250579 0.000000 -0.776700 0.000000 0.000000
    9 -0.000001 -0.932634 0.000000 -1.230488 0.000000 0.000000
    10 0.763064 -2.490553 -0.278957 -0.349065 0.000000 0.130900
    11 -0.012322 -1.280917 0.000000 -0.750491 0.000000 0.000000
    12 -0.001697 -0.749371 -0.000001 -0.907564 0.000000 0.000000
    13 0.354567 0.016268 0.318133 0.743986 -0.762896 -1.122494
    14 1.887164 0.012878 0.000000 -0.040082 -0.219749 -0.583100
    15 1.001874 -0.000270 0.000000 0.000000 0.000000 -0.532315
    16 -1.123359 -2.195091 -0.278957 -0.156516 0.013626 -0.001073
    17 0.010771 -0.963790 0.000000 -0.698121 0.000000 0.000000
    18 -0.010411 -0.631916 0.000000 -0.907581 0.000000 0.000000
    19 -11.054537 -1.181438 -9.037680 0.422168 3.540717 0.918113
    20 0.089928 -8.543162 0.000000 -0.106283 0.348476 0.280160
    21 0.000000 -0.359714 0.000001 0.000000 0.000000 0.000000
    22 -0.170480 -2.636147 -0.277655 -0.847178 0.000000 0.000000
    23 0.010599 -1.261177 0.000001 -0.593286 0.000000 0.000000
    24 -0.000001 -0.943232 0.000001 -0.550603 0.000000 0.000000
    25 -0.827563 -2.508973 -0.277656 -0.956817 0.000000 0.000000
    26 0.000000 -1.292970 0.000000 -0.333936 0.000000 0.000000
    27 0.000000 -0.752466 0.000001 -0.452609 0.000000 0.000000
    28 0.444212 -2.561960 -0.277654 -1.093496 -0.017211 -0.036308
    29 0.021022 -1.208186 -0.000001 -0.436188 0.000000 0.000000
    30 0.010597 -0.741867 -0.000002 -0.472063 0.000000 0.000000
    31 1.047444 -2.222821 -0.277654 -1.029689 -0.019755 -0.054513
    32 0.000000 -0.996222 -0.000001 -0.593309 0.000000 0.000000
    33 -0.000001 -0.614690 0.000000 -0.541876 0.000000 0.000000
    34 -0.308254 -0.007814 0.307167 -0.322554 -0.537308 -2.415776
    35 1.978377 0.019543 0.000001 -0.000002 -0.000010 0.585003
    36 0.982426 0.003186 0.000000 0.000000 0.000000 0.607379
  time 30
    0 9.036282 1.407791 -5.459599 -0.014058 -2.427965 -0.186179
    1 0.000001 -8.563280 0.000000 0.026919 0.036991 -0.341851
    2 2.360136 -3.245876 1.423021 -1.205423 1.106299 -1.376897
    3 -0.003480 -0.404830 0.000000 0.000000 0.000000 0.000000
    4 -0.519309 -2.501153 -0.278956 -0.390529 0.037668 -0.005934
    5 -0.010598 -1.208185 0.000000 -1.055925 0.000000 0.000000
    6 0.000000 -0.763066 -0.000001 -0.602148 0.000000 0.000000
    7 0.105981 -2.607132 -0.278957 -0.537311 0.054194 -0.010195
    8 0.000000 -1.250579 0.000000 -0.776700 0.000000 0.000000
    9 -0.000001 -0.932634 0.000000 -1.230488 0.000000 0.000000
    10 0.763064 -2.490553 -0.278957 -0.349065 0.000000 0.130900
    11 -0.012322 -1.280917 0.000000 -0.750491 0.000000 0.000000
    12 -0.001697 -0.749371 -0.000001 -0.907564 0.000000 0.000000
    13 0.354567 0.016268 0.318133 0.743986 -0.762896 -1.122494
    14 1.887164 0.012878 0.000000 -0.040082 -0.219749 -0.583100
    15 1.001874 -0.000270 0.000000 0.000000 0.000000 -0.532315
    16 -1.123359 -2.195091 -0.278957 -0.156516 0.013626 -0.001073
    17 0.010771 -0.963790 0.000000 -0.698121 0.000000 0.000000
    18 -0.010411 -0.631916 0.000000 -0.907581 0.000000 0.000000
    19 -12.413953 -1.150187 -10.397096 0.435620 3.593804 0.884354
    20 0.089928 -8.543162 0.000000 0.040444 0.306650 0.280933
    21 0.000000 -0.359714 0.000001 0.000000 0.000000 0.000000
    22 -0.170480 -2.636147 -0.277655 -0.820310 0.000000 0.000000
    23 0.010599 -1.261177 0.000001 -0.584663 0.000000 0.000000
    24 -0.000001 -0.943232 0.000001 -0.532326 0.000000 0.000000
    25 -0.827563 -2.508973 -0.277656 -0.942498 0.000000 0.000000
    26 0.000000 -1.292970 0.000000 -0.287990 0.000000 0.000000
    27 0.000000 -0.752466 0.000001 -0.445059 0.000000 0.000000
    28 0.444212 -2.561960 -0.277654 -1.081947 -0.017163 -0.035972
    29 0.021022 -1.208186 -0.000001 -0.427606 0.000000 0.000000
    30 0.010597 -0.741867 -0.000002 -0.453786 0.000000 0.000000
    31 1.047444 -2.222821 -0.277654 -1.020947 -0.019647 -0.054788
    32 0.000000 -0.996222 -0.000001 -0.584686 0.000000 0.000000
    33 -0.000001 -0.614690 0.000000 -0.523599 0.000000 0.000000
    34 -0.308254 -0.007814 0.307167 -0.318048 -0.539825 -2.424633
    35 1.978377 0.019543 0.000001 -0.000002 -0.000010 0.558449
    36 0.982426 0.003186 0.000000 0.000000 0.000000 0.663202
  time 31
    0 9.497233 1.618735 -6.068993 -0.090793 -2.424331 -0.025549
    1 0.000001 -8.563280 0.000000 0.024264 0.036980 -0.389177
    2 2.360136 -3.245876 1.423021 -1.205423 1.106299 -1.376897
    3 -0.003480 -0.404830 0.000000 0.000000 0.000000 0.000000
    4 -0.519309 -2.501153 -0.278956 -0.390529 0.037668 -0.005934
    5 -0.010598 -1.208185 0.000000 -1.055925 0.000000 0.000000
    6 0.000000 -0.763066 -0.000001 -0.602148 0.000000 0.000000
    7 0.105981 -2.607132 -0.278957 -0.537311 0.054194 -0.010195
    8 0.000000 -1.250579 0.000000 -0.776700 0.000000 0.000000
    9 -0.000001 -0.932634 0.000000 -1.230488 0.000000 0.000000
    10 0.763064 -2.490553 -0.278957 -0.349065 0.000000 0.130900
    11 -0.012322 -1.280917 0.000000 -0.750491 0.000000 0.000000
    12 -0.001697 -0.749371 -0.000001 -0.907564 0.000000 0.000000
    13 0.354567 0.016268 0.318133 0.743986 -0.762896 -1.122494
    14 1.887164 0.012878 0.000000 -0.040082 -0.219749 -0.583100
    15 1.001874 -0.000270 0.000000 0.000000 0.000000 -0.532315
    16 -1.123359 -2.195091 -0.278957 -0.156516 0.013626 -0.001073
    17 0.010771 -0.963790 0.000000 -0.698121 0.000000 0.000000
    18 -0.010411 -0.631916 0.000000 -0.907581 0.000000 0.000000
    19 -13.371014 -1.118936 -11.369782 0.451463 3.646281 0.848784
    20 0.089928 -8.543162 0.000000 0.198743 0.263768 0.270335
    21 0.000000 -0.359714 0.000001 0.000000 0.000000 0.000000
    22 -0.170480 -2.636147 -0.277655 -0.861550 0.000000 0.000000
    23 0.010599 -1.261177 0.000001 -0.622283 0.000000 0.000000
    24 -0.000001 -0.943232 0.000001 -0.577678 0.000000 0.000000
    25 -0.827563 -2.508973 -0.277656 -0.940444 0.000000 0.000000
    26 0.000000 -1.292970 0.000000 -0.299960 0.000000 0.000000
    27 0.000000 -0.752466 0.000001 -0.524597 0.000000 0.000000
    28 0.444212 -2.561960 -0.277654 -1.130941 -0.017511 -0.034798
    29 0.021022 -1.208186 -0.000001 -0.465206 0.000000 0.000000
    30 0.010597 -0.741867 -0.000002 -0.499138 0.000000 0.000000
    31 1.047444 -2.222821 -0.277654 -1.063575 -0.020150 -0.053710
    32 0.000000 -0.996222 -0.000001 -0.622285 0.000000 0.000000
    33 -0.000001 -0.614690 0.000000 -0.568951 0.000000 0.000000
    34 -0.308254 -0.007814 0.307167 -0.322590 -0.537284 -2.415705
    35 1.978377 0.019543 0.000001 -0.000002 -0.000010 0.538614
    36 0.982426 0.003186 0.000000 0.000000 0.000000 0.707793
  time 32
    0 10.091001 1.884368 -6.850267 -0.164096 -2.429633 0.128878
    1 0.000001 -8.563280 0.000000 0.021610 0.036848 -0.436520
    2 2.360136 -3.245876 1.423021 -1.205423 1.106299 -1.376897
    3 -0.003480 -0.404830 0.000000 0.000000 0.000000 0.000000
    4 -0.519309 -2.501153 -0.278956 -0.390529 0.037668 -0.005934
    5 -0.010598 -1.208185 0.000000 -1.055925 0.000000 0.000000
    6 0.000000 -0.763066 -0.000001 -0.602148 0.000000 0.000000
    7 0.105981 -2.607132 -0.278957 -0.537311 0.054194 -0.010195
    8 0.000000 -1.250579 0.000000 -0.776700 0.000000 0.000000
    9 -0.000001 -0.932634 0.000000 -1.230488 0.000000 0.000000
    10 0.763064 -2.490553 -0.278957 -0.349065 0.000000 0.130900
    11 -0.012322 -1.280917 0.000000 -0.750491 0.000000 0.000000
    12 -0.001697 -0.749371 -0.000001 -0.907564 0.000000 0.000000
    13 0.354567 0.016268 0.318133 0.743986 -0.762896 -1.122494
    14 1.887164 0.012878 0.000000 -0.040082 -0.219749 -0.583100
    15 1.001874 -0.000270 0.000000 0.000000 0.000000 -0.532315
    16 -1.123359 -2.195091 -0.278957 -0.156516 0.013626 -0.001073
    17 0.010771 -0.963790 0.000000 -0.698121 0.000000 0.000000
    18 -0.010411 -0.631916 0.000000 -0.907581 0.000000 0.000000
    19 -13.960876 -1.107217 -11.944018 0.469856 3.697919 0.811406
    20 0.089928 -8.543162 0.000000 0.340184 0.229276 0.249372
    21 0.000000 -0.359714 0.000001 0.000000 0.000000 0.000000
    22 -0.170480 -2.636147 -0.277655 -0.969284 0.000000 0.000000
    23 0.010599 -1.261177 0.000001 -0.718390 0.000000 0.000000
    24 -0.000001 -0.943232 0.000001 -0.699725 0.000000 0.000000
    25 -0.827563 -2.508973 -0.277656 -0.948621 0.000000 0.000000
    26 0.000000 -1.292970 0.000000 -0.365486 0.000000 0.000000
    27 0.000000 -0.752466 0.000001 -0.694243 0.000000 0.000000
    28 0.444212 -2.561960 -0.277654 -1.241009 -0.017954 -0.032557
    29 0.021022 -1.208186 -0.000001 -0.561314 0.000000 0.000000
    30 0.010597 -0.741867 -0.000002 -0.621263 0.000000 0.000000
    31 1.047444 -2.222821 -0.277654 -1.171766 -0.021277 -0.050474
    32 0.000000 -0.996222 -0.000001 -0.718392 0.000000 0.000000
    33 -0.000001 -0.614690 0.000000 -0.691077 0.000000 0.000000
    34 -0.308254 -0.007814 0.307167 -0.335809 -0.529650 -2.389746
    35 1.978377 0.019543 0.000001 -0.000002 -0.000010 0.521395
    36 0.982426 0.003186 0.000000 0.000000 0.000000 0.749209
  time 33
    0 10.817586 2.212503 -7.811234 -0.164096 -2.429633 0.128878
    1 0.000001 -8.563280 0.000000 0.021610 0.036848 -0.436520
    2 2.360136 -3.245876 1.423021 -1.205423 1.106299 -1.376897
    3 -0.003480 -0.404830 0.000000 0.000000 0.000000 0.000000
    4 -0.519309 -2.501153 -0.278956 -0.390529 0.037668 -0.005934
    5 -0.010598 -1.208185 0.000000 -1.055925 0.000000 0.000000
    6 0.000000 -0.763066 -0.000001 -0.602148 0.000000 0.000000
    7 0.105981 -2.607132 -0.278957 -0.537311 0.054194 -0.010195
    8 0.000000 -1.250579 0.000000 -0.776700 0.000000 0.000000
    9 -0.000001 -0.932634 0.000000 -1.230488 0.000000 0.000000
    10 0.763064 -2.490553 -0.278957 -0.349065 0.000000 0.130900
    11 -0.012322 -1.280917 0.000000 -0.750491 0.000000 0.000000
    12 -0.001697 -0.749371 -0.000001 -0.907564 0.000000 0.000000
    13 0.354567 0.016268 0.318133 0.743986 -0.762896 -1.122494
    14 1.887164 0.012878 0.000000 -0.040082 -0.219749 -0.583100
    15 1.001874 -0.000270 0.000000 0.000000 0.000000 -0.532315
    16 -1.123359 -2.195091 -0.278957 -0.156516 0.013626 -0.001073
    17 0.010771 -0.963790 0.000000 -0.698121 0.000000 0.000000
    18 -0.010411 -0.631916 0.000000 -0.907581 0.000000 0.000000
    19 -14.148381 -1.099404 -12.147150 0.488038 3.741777 0.777459
    20 0.089928 -8.543162 0.000000 0.436551 0.210694 0.223245
    21 0.000000 -0.359714 0.000001 0.000000 0.000000 0.000000
    22 -0.170480 -2.636147 -0.277655 -1.116226 0.000000 0.000000
    23 0.010599 -1.261177 0.000001 -0.848865 0.000000 0.000000
    24 -0.000001 -0.943232 0.000001 -0.867098 0.000000 0.000000
    25 -0.827563 -2.508973 -0.277656 -0.963358 0.000000 0.000000
    26 0.000000 -1.292970 0.000000 -0.463386 0.000000 0.000000
    27 0.000000 -0.752466 0.000001 -0.915860 0.000000 0.000000
    28 0.444212 -2.561960 -0.277654 -1.386496 -0.018206 -0.029645
    29 0.021022 -1.208186 -0.000001 -0.691790 0.000000 0.000000
    30 0.010597 -0.741867 -0.000002 -0.788558 0.000000 0.000000
    31 1.047444 -2.222821 -0.277654 -1.318754 -0.022188 -0.045848
    32 0.000000 -0.996222 -0.000001 -0.848887 0.000000 0.000000
    33 -0.000001 -0.614690 0.000000 -0.858371 0.000000 0.000000
    34 -0.308254 -0.007814 0.307167 -0.353702 -0.518528 -2.353996
    35 1.978377 0.019543 0.000001 -0.000002 -0.000010 0.506735
    36 0.982426 0.003186 0.000000 0.000000 0.000000 0.786922
  time 34
    0 10.817586 2.212503 -7.811234 -0.164096 -2.429633 0.128878
    1 0.000001 -8.563280 0.000000 0.021610 0.036848 -0.436520
    2 2.360136 -3.245876 1.423021 -1.205423 1.106299 -1.376897
    3 -0.003480 -0.404830 0.000000 0.000000 0.000000 0.000000
    4 -0.519309 -2.501153 -0.278956 -0.390529 0.037668 -0.005934
    5 -0.010598 -1.208185 0.000000 -1.055925 0.000000 0.000000
    6 0.000000 -0.763066 -0.000001 -0.602148 0.000000 0.000000
    7 0.105981 -2.607132 -0.278957 -0.537311 0.054194 -0.010195
    8 0.000000 -1.250579 0.000000 -0.776700 0.000000 0.000000
    9 -0.000001 -0.932634 0.000000 -1.230488 0.000000 0.000000
    10 0.763064 -2.490553 -0.278957 -0.349065 0.000000 0.130900
    11 -0.012322 -1.280917 0.000000 -0.750491 0.000000 0.000000
    12 -0.001697 -0.749371 -0.000001 -0.907564 0.000000 0.000000
    13 0.354567 0.016268 0.318133 0.743986 -0.762896 -1.122494
    14 1.887164 0.012878 0.000000 -0.040082 -0.219749 -0.583100
    15 1.001874 -0.000270 0.000000 0.000000 0.000000 -0.532315
    16 -1.123359 -2.195091 -0.278957 -0.156516 0.013626 -0.001073
    17 0.010771 -0.963790 0.000000 -0.698121 0.000000 0.000000
    18 -0.010411 -0.631916 0.000000 -0.907581 0.000000 0.000000
    19 -14.402295 -1.068154 -12.350281 0.503811 3.775414 0.749565
    20 0.089928 -8.543162 0.000000 0.444224 0.232901 0.174830
    21 0.000000 -0.359714 0.000001 0.000000 0.000000 0.000000
    22 -0.170480 -2.636147 -0.277655 -1.275275 0.000000 0.000000
    23 0.010599 -1.261177 0.000001 -0.989692 0.000000 0.000000
    24 -0.000001 -0.943232 0.000001 -1.048139 0.000000 0.000000
    25 -0.827563 -2.508973 -0.277656 -0.980567 0.000000 0.000000
    26 0.000000 -1.292970 0.000000 -0.572455 0.000000 0.000000
    27 0.000000 -0.752466 0.000001 -1.151805 0.000000 0.000000
    28 0.444212 -2.561960 -0.277654 -1.542158 -0.018026 -0.026612
    29 0.021022 -1.208186 -0.000001 -0.832640 0.000000 0.000000
    30 0.010597 -0.741867 -0.000002 -0.969599 0.000000 0.000000
    31 1.047444 -2.222821 -0.277654 -1.477398 -0.022379 -0.040730
    32 0.000000 -0.996222 -0.000001 -0.989672 0.000000 0.000000
    33 -0.000001 -0.614690 0.000000 -1.039412 0.000000 0.000000
    34 -0.308254 -0.007814 0.307167 -0.372554 -0.505825 -2.315561
    35 1.978377 0.019543 0.000001 -0.000002 -0.000010 0.494183
    36 0.982426 0.003186 0.000000 0.000000 0.000000 0.820401
  time 35
    0 10.817586 2.212503 -7.811234 -0.164096 -2.429633 0.128878
    1 0.000001 -8.563280 0.000000 0.021610 0.036848 -0.436520
    2 2.360136 -3.245876 1.423021 -1.205423 1.106299 -1.376897
    3 -0.003480 -0.404830 0.000000 0.000000 0.000000 0.000000
    4 -0.519309 -2.501153 -0.278956 -0.390529 0.037668 -0.005934
    5 -0.010598 -1.208185 0.000000 -1.055925 0.000000 0.000000
    6 0.000000 -0.763066 -0.000001 -0.602148 0.000000 0.000000
    7 0.105981 -2.607132 -0.278957 -0.537311 0.054194 -0.010195
    8 0.000000 -1.250579 0.000000 -0.776700 0.000000 0.000000
    9 -0.000001 -0.932634 0.000000 -1.230488 0.000000 0.000000
    10 0.763064 -2.490553 -0.278957 -0.349065 0.000000 0.130900
    11 -0.012322 -1.280917 0.000000 -0.750491 0.000000 0.000000
    12 -0.001697 -0.749371 -0.000001 -0.907564 0.000000 0.000000
    13 0.354567 0.016268 0.318133 0.743986 -0.762896 -1.122494
    14 1.887164 0.012878 0.000000 -0.040082 -0.219749 -0.583100
    15 1.001874 -0.000270 0.000000 0.000000 0.000000 -0.532315
    16 -1.123359 -2.195091 -0.278957 -0.156516 0.013626 -0.001073
    17 0.010771 -0.963790 0.000000 -0.698121 0.000000 0.000000
    18 -0.010411 -0.631916 0.000000 -0.907581 0.000000 0.000000
    19 -15.062472 -0.982213 -12.897172 0.516067 3.799288 0.728848
    20 0.089928 -8.543162 0.000000 0.386067 0.276467 0.111414
    21 0.000000 -0.359714 0.000001 0.000000 0.000000 0.000000
    22 -0.170480 -2.636147 -0.277655 -1.419094 0.000000 0.000000
    23 0.010599 -1.261177 0.000001 -1.116792 0.000000 0.000000
    24 -0.000001 -0.943232 0.000001 -1.211584 0.000000 0.000000
    25 -0.827563 -2.508973 -0.277656 -0.996388 0.000000 0.000000
    26 0.000000 -1.292970 0.000000 -0.671558 0.000000 0.000000
    27 0.000000 -0.752466 0.000001 -1.363941 0.000000 0.000000
    28 0.444212 -2.561960 -0.277654 -1.682606 -0.017511 -0.024036
    29 0.021022 -1.208186 -0.000001 -0.959721 0.000000 0.000000
    30 0.010597 -0.741867 -0.000002 -1.133044 0.000000 0.000000
    31 1.047444 -2.222821 -0.277654 -1.620744 -0.021888 -0.036128
    32 0.000000 -0.996222 -0.000001 -1.116792 0.000000 0.000000
    33 -0.000001 -0.614690 0.000000 -1.202857 0.000000 0.000000
    34 -0.308254 -0.007814 0.307167 -0.388985 -0.493744 -2.281249
    35 1.978377 0.019543 0.000001 -0.000002 -0.000010 0.483494
    36 0.982426 0.003186 0.000000 0.000000 0.000000 0.849287
  time 36
    0 10.817586 2.212503 -7.811234 -0.164096 -2.429633 0.128878
    1 0.000001 -8.563280 0.000000 0.021610 0.036848 -0.436520
    2 2.360136 -3.245876 1.423021 -1.205423 1.106299 -1.376897
    3 -0.003480 -0.404830 0.000000 0.000000 0.000000 0.000000
    4 -0.519309 -2.501153 -0.278956 -0.390529 0.037668 -0.005934
    5 -0.010598 -1.208185 0.000000 -1.055925 0.000000 0.000000
    6 0.000000 -0.763066 -0.000001 -0.602148 0.000000 0.000000
    7 0.105981 -2.607132 -0.278957 -0.537311 0.054194 -0.010195
    8 0.000000 -1.250579 0.000000 -0.776700 0.000000 0.000000
    9 -0.000001 -0.932634 0.000000 -1.230488 0.000000 0.000000
    10 0.763064 -2.490553 -0.278957 -0.349065 0.000000 0.130900
    11 -0.012322 -1.280917 0.000000 -0.750491 0.000000 0.000000
    12 -0.001697 -0.749371 -0.000001 -0.907564 0.000000 0.000000
    13 0.354567 0.016268 0.318133 0.743986 -0.762896 -1.122494
    14 1.887164 0.012878 0.000000 -0.040082 -0.219749 -0.583100
    15 1.001874 -0.000270 0.000000 0.000000 0.000000 -0.532315
    16 -1.123359 -2.195091 -0.278957 -0.156516 0.013626 -0.001073
    17 0.010771 -0.963790 0.000000 -0.698121 0.000000 0.000000
    18 -0.010411 -0.631916 0.000000 -0.907581 0.000000 0.000000
    19 -15.960937 -0.865022 -13.631570 0.523804 3.813551 0.715993
    20 0.089928 -8.543162 0.000000 0.341133 0.287591 0.081791
    21 0.000000 -0.359714 0.000001 0.000000 0.000000 0.000000
    22 -0.170480 -2.636147 -0.277655 -1.520371 0.000000 0.000000
    23 0.010599 -1.261177 0.000001 -1.206108 0.000000 0.000000
    24 -0.000001 -0.943232 0.000001 -1.325985 0.000000 0.000000
    25 -0.827563 -2.508973 -0.277656 -1.006904 0.000000 0.000000
    26 0.000000 -1.292970 0.000000 -0.739534 0.000000 0.000000
    27 0.000000 -0.752466 0.000001 -1.514343 0.000000 0.000000
    28 0.444212 -2.561960 -0.277654 -1.782354 -0.016876 -0.022130
    29 0.021022 -1.208186 -0.000001 -1.049017 0.000000 0.000000
    30 0.010597 -0.741867 -0.000002 -1.247445 0.000000 0.000000
    31 1.047444 -2.222821 -0.277654 -1.721885 -0.021145 -0.032964
    32 0.000000 -0.996222 -0.000001 -1.206128 0.000000 0.000000
    33 -0.000001 -0.614690 0.000000 -1.317258 0.000000 0.000000
    34 -0.308254 -0.007814 0.307167 -0.400142 -0.485008 -2.257508
    35 1.978377 0.019543 0.000001 -0.000002 -0.000010 0.474367
    36 0.982426 0.003186 0.000000 0.000000 0.000000 0.872977
  time 37
    0 10.817586 2.212503 -7.811234 -0.164096 -2.429633 0.128878
    1 0.000001 -8.563280 0.000000 0.021610 0.036848 -0.436520
    2 2.360136 -3.245876 1.423021 -1.205423 1.106299 -1.376897
    3 -0.003480 -0.404830 0.000000 0.000000 0.000000 0.000000
    4 -0.519309 -2.501153 -0.278956 -0.390529 0.037668 -0.005934
    5 -0.010598 -1.208185 0.000000 -1.055925 0.000000 0.000000
    6 0.000000 -0.763066 -0.000001 -0.602148 0.000000 0.000000
    7 0.105981 -2.607132 -0.278957 -0.537311 0.054194 -0.010195
    8 0.000000 -1.250579 0.000000 -0.776700 0.000000 0.000000
    9 -0.000001 -0.932634 0.000000 -1.230488 0.000000 0.000000
    10 0.763064 -2.490553 -0.278957 -0.349065 0.000000 0.130900
    11 -0.012322 -1.280917 0.000000 -0.750491 0.000000 0.000000
    12 -0.001697 -0.749371 -0.000001 -0.907564 0.000000 0.000000
    13 0.354567 0.016268 0.318133 0.743986 -0.762896 -1.122494
    14 1.887164 0.012878 0.000000 -0.040082 -0.219749 -0.583100
    15 1.001874 -0.000270 0.000000 0.000000 0.000000 -0.532315
    16 -1.123359 -2.195091 -0.278957 -0.156516 0.013626 -0.001073
    17 0.010771 -0.963790 0.000000 -0.698121 0.000000 0.000000
    18 -0.010411 -0.631916 0.000000 -0.907581 0.000000 0.000000
    19 -16.945342 -0.740018 -14.440188 0.526494 3.818204 0.711625
    20 0.089928 -8.543162 0.000000 0.331528 0.267124 0.088697
    21 0.000000 -0.359714 0.000001 0.000000 0.000000 0.000000
    22 -0.170480 -2.636147 -0.277655 -1.572103 0.000000 0.000000
    23 0.010599 -1.261177 0.000001 -1.249284 0.000000 0.000000
    24 -0.000001 -0.943232 0.000001 -1.378983 0.000000 0.000000
    25 -0.827563 -2.508973 -0.277656 -1.015974 0.000000 0.000000
    26 0.000000 -1.292970 0.000000 -0.771626 0.000000 0.000000
    27 0.000000 -0.752466 0.000001 -1.584856 0.000000 0.000000
    28 0.444212 -2.561960 -0.277654 -1.834097 -0.016540 -0.021387
    29 0.021022 -1.208186 -0.000001 -1.092173 0.000000 0.000000
    30 0.010597 -0.741867 -0.000002 -1.300443 0.000000 0.000000
    31 1.047444 -2.222821 -0.277654 -1.773701 -0.020761 -0.031742
    32 0.000000 -0.996222 -0.000001 -1.249263 0.000000 0.000000
    33 -0.000001 -0.614690 0.000000 -1.370256 0.000000 0.000000
    34 -0.308254 -0.007814 0.307167 -0.404193 -0.481748 -2.248759
    35 1.978377 0.019543 0.000001 -0.000002 -0.000010 0.470509
    36 0.982426 0.003186 0.000000 0.000000 0.000000 0.889693
  time 38
    0 10.817586 2.212503 -7.811234 -0.164096 -2.429633 0.128878
    1 0.000001 -8.563280 0.000000 0.021610 0.036848 -0.436520
    2 2.360136 -3.245876 1.423021 -1.205423 1.106299 -1.376897
    3 -0.003480 -0.404830 0.000000 0.000000 0.000000 0.000000
    4 -0.519309 -2.501153 -0.278956 -0.390529 0.037668 -0.005934
    5 -0.010598 -1.208185 0.000000 -1.055925 0.000000 0.000000
    6 0.000000 -0.763066 -0.000001 -0.602148 0.000000 0.000000
    7 0.105981 -2.607132 -0.278957 -0.537311 0.054194 -0.010195
    8 0.000000 -1.250579 0.000000 -0.776700 0.000000 0.000000
    9 -0.000001 -0.932634 0.000000 -1.230488 0.000000 0.000000
    10 0.763064 -2.490553 -0.278957 -0.349065 0.000000 0.130900
    11 -0.012322 -1.280917 0.000000 -0.750491 0.000000 0.000000
    12 -0.001697 -0.749371 -0.000001 -0.907564 0.000000 0.000000
    13 0.354567 0.016268 0.318133 0.743986 -0.762896 -1.122494
    14 1.887164 0.012878 0.000000 -0.040082 -0.219749 -0.583100
    15 1.001874 -0.000270 0.000000 0.000000 0.000000 -0.532315
    16 -1.123359 -2.195091 -0.278957 -0.156516 0.013626 -0.001073
    17 0.010771 -0.963790 0.000000 -0.698121 0.000000 0.000000
    18 -0.010411 -0.631916 0.000000 -0.907581 0.000000 0.000000
    19 -17.855526 -0.622827 -15.170679 0.550039 3.710962 0.687101
    20 0.089928 -8.543162 0.000000 0.322291 0.245869 0.096780
    21 0.000000 -0.359714 0.000001 0.000000 0.000000 0.000000
    22 -0.170480 -2.636147 -0.277655 -1.588167 0.000000 0.000000
    23 0.010599 -1.261177 0.000001 -1.259018 0.000000 0.000000
    24 -0.000001 -0.943232 0.000001 -1.387781 0.000000 0.000000
    25 -0.827563 -2.508973 -0.277656 -1.024741 0.000000 0.000000
    26 0.000000 -1.292970 0.000000 -0.779967 0.000000 0.000000
    27 0.000000 -0.752466 0.000001 -1.595742 0.000000 0.000000
    28 0.444212 -2.561960 -0.277654 -1.850155 -0.016588 -0.021447
    29 0.021022 -1.208186 -0.000001 -1.101969 0.000000 0.000000
    30 0.010597 -0.741867 -0.000002 -1.309241 0.000000 0.000000
    31 1.047444 -2.222821 -0.277654 -1.789704 -0.020833 -0.031898
    32 0.000000 -0.996222 -0.000001 -1.259038 0.000000 0.000000
    33 -0.000001 -0.614690 0.000000 -1.379133 0.000000 0.000000
    34 -0.308254 -0.007814 0.307167 -0.403414 -0.482383 -2.250449
    35 1.978377 0.019543 0.000001 -0.000002 -0.000010 0.472391
    36 0.982426 0.003186 0.000000 0.000000 0.000000 0.896596
  time 39
    0 10.817586 2.212503 -7.811234 -0.164096 -2.429633 0.128878
    1 0.000001 -8.563280 0.000000 0.021610 0.036848 -0.436520
    2 2.360136 -3.245876 1.423021 -1.205423 1.106299 -1.376897
    3 -0.003480 -0.404830 0.000000 0.000000 0.000000 0.000000
    4 -0.519309 -2.501153 -0.278956 -0.390529 0.037668 -0.005934
    5 -0.010598 -1.208185 0.000000 -1.055925 0.000000 0.000000
    6 0.000000 -0.763066 -0.000001 -0.602148 0.000000 0.000000
    7 0.105981 -2.607132 -0.278957 -0.537311 0.054194 -0.010195
    8 0.000000 -1.250579 0.000000 -0.776700 0.000000 0.000000
    9 -0.000001 -0.932634 0.000000 -1.230488 0.000000 0.000000
    10 0.763064 -2.490553 -0.278957 -0.349065 0.000000 0.130900
    11 -0.012322 -1.280917 0.000000 -0.750491 0.000000 0.000000
    12 -0.001697 -0.749371 -0.000001 -0.907564 0.000000 0.000000
    13 0.354567 0.016268 0.318133 0.743986 -0.762896 -1.122494
    14 1.887164 0.012878 0.000000 -0.040082 -0.219749 -0.583100
    15 1.001874 -0.000270 0.000000 0.000000 0.000000 -0.532315
    16 -1.123359 -2.195091 -0.278957 -0.156516 0.013626 -0.001073
    17 0.010771 -0.963790 0.000000 -0.698121 0.000000 0.000000
    18 -0.010411 -0.631916 0.000000 -0.907581 0.000000 0.000000
    19 -18.503983 -0.540794 -15.717571 0.569311 3.603415 0.666820
    20 0.089928 -8.543162 0.000000 0.313283 0.223890 0.106029
    21 0.000000 -0.359714 0.000001 0.000000 0.000000 0.000000
    22 -0.170480 -2.636147 -0.277655 -1.572702 0.000000 0.000000
    23 0.010599 -1.261177 0.000001 -1.242925 0.000000 0.000000
    24 -0.000001 -0.943232 0.000001 -1.365812 0.000000 0.000000
    25 -0.827563 -2.508973 -0.277656 -1.024741 0.000000 0.000000
    26 0.000000 -1.292970 0.000000 -0.768539 0.000000 0.000000
    27 0.000000 -0.752466 0.000001 -1.565788 0.000000 0.000000
    28 0.444212 -2.561960 -0.277654 -1.834700 -0.016792 -0.021843
    29 0.021022 -1.208186 -0.000001 -1.085876 0.000000 0.000000
    30 0.010597 -0.741867 -0.000002 -1.287272 0.000000 0.000000
    31 1.047444 -2.222821 -0.277654 -1.774218 -0.021025 -0.032437
    32 0.000000 -0.996222 -0.000001 -1.242945 0.000000 0.000000
    33 -0.000001 -0.614690 0.000000 -1.357085 0.000000 0.000000
    34 -0.308254 -0.007814 0.307167 -0.401305 -0.484133 -2.255075
    35 1.978377 0.019543 0.000001 -0.000002 -0.000010 0.475327
    36 0.982426 0.003186 0.000000 0.000000 0.000000 0.891641
  time 40
    0 10.817586 2.212503 -7.811234 -0.164096 -2.429633 0.128878
    1 0.000001 -8.563280 0.000000 0.021610 0.036848 -0.436520
    2 2.360136 -3.245876 1.423021 -1.205423 1.106299 -1.376897
    3 -0.003480 -0.404830 0.000000 0.000000 0.000000 0.000000
    4 -0.519309 -2.501153 -0.278956 -0.390529 0.037668 -0.005934
    5 -0.010598 -1.208185 0.000000 -1.055925 0.000000 0.000000
    6 0.000000 -0.763066 -0.000001 -0.602148 0.000000 0.000000
    7 0.105981 -2.607132 -0.278957 -0.537311 0.054194 -0.010195
    8 0.000000 -1.250579 0.000000 -0.776700 0.000000 0.000000
    9 -0.000001 -0.932634 0.000000 -1.230488 0.000000 0.000000
    10 0.763064 -2.490553 -0.278957 -0.349065 0.000000 0.130900
    11 -0.012322 -1.280917 0.000000 -0.750491 0.000000 0.000000
    12 -0.001697 -0.749371 -0.000001 -0.907564 0.000000 0.000000
    13 0.354567 0.016268 0.318133 0.743986 -0.762896 -1.122494
    14 1.887164 0.012878 0.000000 -0.040082 -0.219749 -0.583100
    15 1.001874 -0.000270 0.000000 0.000000 0.000000 -0.532315
    16 -1.123359 -2.195091 -0.278957 -0.156516 0.013626 -0.001073
    17 0.010771 -0.963790 0.000000 -0.698121 0.000000 0.000000
    18 -0.010411 -0.631916 0.000000 -0.907581 0.000000 0.000000
    19 -18.757897 -0.497824 -15.912889 0.585348 3.495487 0.649659
    20 0.089928 -8.543162 0.000000 0.304451 0.201289 0.116345
    21 0.000000 -0.359714 0.000001 0.000000 0.000000 0.000000
    22 -0.170480 -2.636147 -0.277655 -1.529952 0.000000 0.000000
    23 0.010599 -1.261177 0.000001 -1.208701 0.000000 0.000000
    24 -0.000001 -0.943232 0.000001 -1.325985 0.000000 0.000000
    25 -0.827563 -2.508973 -0.277656 -1.007589 0.000000 0.000000
    26 0.000000 -1.292970 0.000000 -0.741372 0.000000 0.000000
    27 0.000000 -0.752466 0.000001 -1.514343 0.000000 0.000000
    28 0.444212 -2.561960 -0.277654 -1.791902 -0.016792 -0.021926
    29 0.021022 -1.208186 -0.000001 -1.051610 0.000000 0.000000
    30 0.010597 -0.741867 -0.000002 -1.247445 0.000000 0.000000
    31 1.047444 -2.222821 -0.277654 -1.731473 -0.021013 -0.032653
    32 0.000000 -0.996222 -0.000001 -1.208721 0.000000 0.000000
    33 -0.000001 -0.614690 0.000000 -1.317258 0.000000 0.000000
    34 -0.308254 -0.007814 0.307167 -0.401197 -0.484181 -2.255231
    35 1.978377 0.019543 0.000001 -0.000002 -0.000010 0.474367
    36 0.982426 0.003186 0.000000 0.000000 0.000000 0.872977
end
