version 1
nodes
  0 "phantom_1" -1
  1 "phantom_11" -1
  2 "phantom_22" -1
  3 "phantom_2" -1
  4 "stab_fx_bone" -1
  5 "root" -1
  6 "Bone01" 5
  7 "Bone_L_Upper" 6
  8 "Bone_Lefthand" 6
  9 "Bone13" 8
  10 "Bone14" 9
  11 "Bone15" 10
  12 "Bone17" 8
  13 "Bone18" 12
  14 "Bone19" 13
  15 "Bone21" 8
  16 "Bone22" 15
  17 "Bone23" 16
  18 "Bone09" 8
  19 "Bone10" 18
  20 "Bone11" 19
  21 "Bone05" 8
  22 "Bone06" 21
  23 "Bone07" 22
  24 "Bone_Se_Hand-L" 8
  25 "Bone04" 5
  26 "Bone_Righthand" 25
  27 "Bone39" 26
  28 "Bone40" 27
  29 "Bone41" 28
  30 "Bone35" 26
  31 "Bone36" 30
  32 "Bone37" 31
  33 "Bone31" 26
  34 "Bone32" 33
  35 "Bone33" 34
  36 "Bone43" 26
  37 "Bone44" 36
  38 "Bone45" 37
  39 "Bone27" 26
  40 "Bone28" 39
  41 "Bone29" 40
  42 "Bone_Se_Hand-R" 26
  43 "Bone_R_Upper" 25
end
skeleton
  time 0
    0 14.191837 -17.668508 -34.131316 -1.463322 3.055602 -1.007319
    1 8.178541 -8.254158 -35.595166 -1.463282 3.055589 -1.007319
    2 11.396547 -9.019806 -16.633650 -5.146022 -0.226725 1.083046
    3 6.190383 -18.727133 -19.064450 -5.146020 -0.226725 1.083046
    4 39.600525 24.928131 5.355363 0.000000 0.000000 -1.570796
    5 -0.002752 2.424590 -5.812058 0.367124 0.000000 0.000000
    6 9.310103 6.337460 -3.655343 4.917574 -2.243274 1.374618
    7 1.257180 8.762585 -0.153713 -1.570562 0.002683 -1.566807
    8 -0.071921 -8.498736 -0.104134 0.156625 0.281227 0.066041
    9 -0.488518 -2.755602 -0.228260 0.106454 0.010332 -0.264490
    10 0.039887 -1.479790 0.029854 -0.055395 0.000000 0.000001
    11 0.028786 -1.075731 -0.023109 0.002099 0.000000 0.000000
    12 0.250027 -2.820665 -0.238396 0.041826 -0.002921 0.008443
    13 -0.049759 -1.680544 0.100479 0.019826 0.000000 -0.000002
    14 -0.034142 -1.148312 0.084782 -0.040115 0.000000 0.000000
    15 0.957766 -2.746780 -0.090302 -0.017221 -0.162277 0.191558
    16 -0.033420 -1.397129 -0.011257 0.013931 0.000000 -0.000001
    17 -0.022360 -0.957436 0.018784 0.003845 0.000000 0.000000
    18 -1.180681 -2.507217 -0.193859 0.082999 0.013294 -0.477915
    19 -0.024967 -1.123934 0.017597 -0.018065 0.000000 0.000001
    20 -0.020057 -0.890968 0.010090 -0.060797 0.000000 0.000000
    21 0.583510 -1.197277 0.185379 0.158049 -0.404973 -0.364290
    22 1.535927 0.010246 0.005009 -0.002964 -0.012979 0.000887
    23 1.100771 0.004527 -0.010679 -0.002796 0.015973 0.003458
    24 0.120153 -0.050270 -0.054489 0.287569 3.110905 1.561085
    25 -9.794497 -13.622141 -2.763086 0.044986 -3.147155 0.928135
    26 0.096944 -8.450418 -0.009365 0.007553 0.221680 -0.146873
    27 0.447953 -2.798986 -0.200443 -0.432949 0.007042 0.102403
    28 -0.032909 -1.480204 0.004940 -0.721714 0.000000 0.000002
    29 -0.027022 -1.076920 -0.020210 -0.205919 0.000000 0.000000
    30 -0.249534 -2.846964 -0.174213 -0.146038 -0.000125 -0.008396
    31 0.043235 -1.683941 0.096012 -0.729693 0.002823 -0.000167
    32 0.031729 -1.160830 0.058838 -0.456187 0.000642 0.008372
    33 -0.963866 -2.785145 -0.085350 -0.240872 0.163163 -0.073052
    34 0.028479 -1.403067 0.006271 -0.381709 0.000000 0.000000
    35 0.021413 -0.957781 0.020046 0.071783 0.000000 0.000000
    36 1.164475 -2.543940 -0.170330 -0.677886 0.010016 0.200245
    37 0.024032 -1.129042 0.017807 -0.663804 0.000000 0.000001
    38 0.014898 -0.883989 -0.019848 -0.319901 0.000000 0.000000
    39 -0.586770 -1.264477 0.200161 -0.800294 -0.844960 -2.026371
    40 1.522835 0.058681 0.016848 0.001410 0.008985 0.139420
    41 1.117947 0.048424 -0.005766 -0.013402 -0.021351 0.616690
    42 -0.139399 -0.111698 0.014397 0.358632 0.302122 1.681023
    43 -7.210054 6.843022 -0.192557 1.605702 -0.001306 -0.796361
  time 1
    0 14.191837 -17.668508 -34.131316 -1.463322 3.055602 -1.007319
    1 8.178541 -8.254158 -35.595166 -1.463282 3.055589 -1.007319
    2 11.396547 -12.269905 -17.516489 -5.109895 -0.277523 1.325453
    3 8.709991 -22.805382 -20.501994 -5.109872 -0.277523 1.325453
    4 39.600525 24.928131 5.355363 0.000000 0.000000 -1.570796
    5 -0.002752 2.424590 -4.901874 0.244749 0.000000 0.000000
    6 9.310103 6.337460 -3.655343 4.917574 -2.243274 1.374618
    7 1.257180 8.762585 -0.153713 -1.570562 0.002683 -1.566807
    8 -0.071921 -8.498736 -0.104134 0.156625 0.281227 0.066041
    9 -0.488518 -2.755602 -0.228260 0.106454 0.010332 -0.264490
    10 0.039887 -1.479790 0.029854 -0.055395 0.000000 0.000001
    11 0.028786 -1.075731 -0.023109 0.002099 0.000000 0.000000
    12 0.250027 -2.820665 -0.238396 0.041826 -0.002921 0.008443
    13 -0.049759 -1.680544 0.100479 0.019826 0.000000 -0.000002
    14 -0.034142 -1.148312 0.084782 -0.040115 0.000000 0.000000
    15 0.957766 -2.746780 -0.090302 -0.017221 -0.162277 0.191558
    16 -0.033420 -1.397129 -0.011257 0.013931 0.000000 -0.000001
    17 -0.022360 -0.957436 0.018784 0.003845 0.000000 0.000000
    18 -1.180681 -2.507217 -0.193859 0.082999 0.013294 -0.477915
    19 -0.024967 -1.123934 0.017597 -0.018065 0.000000 0.000001
    20 -0.020057 -0.890968 0.010090 -0.060797 0.000000 0.000000
    21 0.583510 -1.197277 0.185379 0.158049 -0.404973 -0.364290
    22 1.535927 0.010246 0.005009 -0.002964 -0.012979 0.000887
    23 1.100771 0.004527 -0.010679 -0.002796 0.015973 0.003458
    24 0.120153 -0.050270 -0.054489 0.287569 3.110905 1.561085
    25 -9.794497 -13.622141 -2.763086 0.110738 -3.092161 0.918505
    26 0.096944 -8.450418 -0.009365 -0.174957 0.221680 -0.146873
    27 0.447953 -2.798986 -0.200443 -0.432949 0.007042 0.102403
    28 -0.032909 -1.480204 0.004940 -0.721714 0.000000 0.000002
    29 -0.027022 -1.076920 -0.020210 -0.205919 0.000000 0.000000
    30 -0.249534 -2.846964 -0.174213 -0.146038 -0.000125 -0.008396
    31 0.043235 -1.683941 0.096012 -0.729693 0.002823 -0.000167
    32 0.031729 -1.160830 0.058838 -0.403905 0.000642 0.008372
    33 -0.963866 -2.785145 -0.085350 -0.240872 0.163163 -0.073052
    34 0.028479 -1.403067 0.006271 -0.381709 0.000000 0.000000
    35 0.021413 -0.957781 0.020046 0.071783 0.000000 0.000000
    36 1.164475 -2.543940 -0.170330 -0.677886 0.010016 0.200245
    37 0.024032 -1.129042 0.017807 -0.663804 0.000000 0.000001
    38 0.014898 -0.883989 -0.019848 -0.319901 0.000000 0.000000
    39 -0.586770 -1.264477 0.200161 -0.800294 -0.844960 -2.026371
    40 1.522835 0.058681 0.016848 0.001410 0.008985 0.139420
    41 1.117947 0.048424 -0.005766 -0.013402 -0.021351 0.616690
    42 -0.139399 -0.111698 0.014397 0.358632 0.302122 1.681023
    43 -7.210054 6.843022 -0.192557 1.605702 -0.001306 -0.796361
  time 2
    0 14.191837 -17.668508 -34.131316 -1.463322 3.055602 -1.007319
    1 8.178541 -8.254158 -35.595166 -1.463282 3.055589 -1.007319
    2 11.396547 -16.094240 -17.723527 -5.022404 -0.301245 -4.707347
    3 11.413198 -26.899257 -20.959039 -5.022369 -0.301245 -4.707347
    4 39.600525 24.928131 5.355363 0.000000 0.000000 -1.570796
    5 -0.002752 2.424590 -3.991690 0.122375 0.000000 0.000000
    6 9.310103 6.337460 -3.655343 4.917574 -2.243274 1.374618
    7 1.257180 8.762585 -0.153713 -1.570562 0.002683 -1.566807
    8 -0.071921 -8.498736 -0.104134 0.156625 0.281227 0.066041
    9 -0.488518 -2.755602 -0.228260 0.106454 0.010332 -0.264490
    10 0.039887 -1.479790 0.029854 -0.055395 0.000000 0.000001
    11 0.028786 -1.075731 -0.023109 0.002099 0.000000 0.000000
    12 0.250027 -2.820665 -0.238396 0.041826 -0.002921 0.008443
    13 -0.049759 -1.680544 0.100479 0.019826 0.000000 -0.000002
    14 -0.034142 -1.148312 0.084782 -0.040115 0.000000 0.000000
    15 0.957766 -2.746780 -0.090302 -0.017221 -0.162277 0.191558
    16 -0.033420 -1.397129 -0.011257 0.013931 0.000000 -0.000001
    17 -0.022360 -0.957436 0.018784 0.003845 0.000000 0.000000
    18 -1.180681 -2.507217 -0.193859 0.082999 0.013294 -0.477915
    19 -0.024967 -1.123934 0.017597 -0.018065 0.000000 0.000001
    20 -0.020057 -0.890968 0.010090 -0.060797 0.000000 0.000000
    21 0.583510 -1.197277 0.185379 0.158049 -0.404973 -0.364290
    22 1.535927 0.010246 0.005009 -0.002964 -0.012979 0.000887
    23 1.100771 0.004527 -0.010679 -0.002796 0.015973 0.003458
    24 0.120153 -0.050270 -0.054489 0.287569 3.110905 1.561085
    25 -9.794497 -13.622141 -2.763086 0.232740 -2.989824 0.900674
    26 0.096944 -8.450418 -0.009365 -0.357495 0.221680 -0.146873
    27 0.447953 -2.798986 -0.200443 -0.432949 0.007042 0.102403
    28 -0.032909 -1.480204 0.004940 -0.721714 0.000000 0.000002
    29 -0.027022 -1.076920 -0.020210 -0.205919 0.000000 0.000000
    30 -0.249534 -2.846964 -0.174213 -0.146038 -0.000125 -0.008396
    31 0.043235 -1.683941 0.096012 -0.729693 0.002823 -0.000167
    32 0.031729 -1.160830 0.058838 -0.288864 0.000642 0.008372
    33 -0.963866 -2.785145 -0.085350 -0.240872 0.163163 -0.073052
    34 0.028479 -1.403067 0.006271 -0.381709 0.000000 0.000000
    35 0.021413 -0.957781 0.020046 0.071783 0.000000 0.000000
    36 1.164475 -2.543940 -0.170330 -0.677886 0.010016 0.200245
    37 0.024032 -1.129042 0.017807 -0.663804 0.000000 0.000001
    38 0.014898 -0.883989 -0.019848 -0.319901 0.000000 0.000000
    39 -0.586770 -1.264477 0.200161 -0.800294 -0.844960 -2.026371
    40 1.522835 0.058681 0.016848 0.001410 0.008985 0.139420
    41 1.117947 0.048424 -0.005766 -0.013402 -0.021351 0.616690
    42 -0.139399 -0.111698 0.014397 0.358632 0.302122 1.681023
    43 -7.210054 6.843022 -0.192557 1.605702 -0.001306 -0.796361
  time 3
    0 14.191837 -17.668508 -34.131316 -1.463322 3.055602 -1.007319
    1 8.178541 -8.254158 -35.595166 -1.463282 3.055589 -1.007319
    2 11.396547 -14.887172 -11.758501 -5.174004 -0.021637 1.296828
    3 8.292009 -25.731253 -11.900169 -5.174040 -0.021637 1.296828
    4 39.600525 24.928131 5.355363 0.000000 0.000000 -1.570796
    5 -0.002752 2.424590 -3.081506 0.000000 0.000000 0.000000
    6 9.310103 6.337460 -3.655343 4.917574 -2.243274 1.374618
    7 1.257180 8.762585 -0.153713 -1.570562 0.002683 -1.566807
    8 -0.071921 -8.498736 -0.104134 0.156625 0.281227 0.066041
    9 -0.488518 -2.755602 -0.228260 0.106454 0.010332 -0.264490
    10 0.039887 -1.479790 0.029854 -0.055395 0.000000 0.000001
    11 0.028786 -1.075731 -0.023109 0.002099 0.000000 0.000000
    12 0.250027 -2.820665 -0.238396 0.041826 -0.002921 0.008443
    13 -0.049759 -1.680544 0.100479 0.019826 0.000000 -0.000002
    14 -0.034142 -1.148312 0.084782 -0.040115 0.000000 0.000000
    15 0.957766 -2.746780 -0.090302 -0.017221 -0.162277 0.191558
    16 -0.033420 -1.397129 -0.011257 0.013931 0.000000 -0.000001
    17 -0.022360 -0.957436 0.018784 0.003845 0.000000 0.000000
    18 -1.180681 -2.507217 -0.193859 0.082999 0.013294 -0.477915
    19 -0.024967 -1.123934 0.017597 -0.018065 0.000000 0.000001
    20 -0.020057 -0.890968 0.010090 -0.060797 0.000000 0.000000
    21 0.583510 -1.197277 0.185379 0.158049 -0.404973 -0.364290
    22 1.535927 0.010246 0.005009 -0.002964 -0.012979 0.000887
    23 1.100771 0.004527 -0.010679 -0.002796 0.015973 0.003458
    24 0.120153 -0.050270 -0.054489 0.287569 3.110905 1.561085
    25 -9.794497 -13.622141 -2.763086 0.298396 -2.934735 0.891043
    26 0.096944 -8.450418 -0.009365 -0.206044 0.221680 -0.146873
    27 0.447953 -2.798986 -0.200443 -0.254274 0.007042 0.102403
    28 -0.032909 -1.480204 0.004940 -0.583152 0.000000 0.000002
    29 -0.027022 -1.076920 -0.020210 -0.205919 0.000000 0.000000
    30 -0.249534 -2.846964 -0.174213 0.032647 -0.000125 -0.008396
    31 0.043235 -1.683941 0.096012 -0.591133 0.002823 -0.000167
    32 0.031729 -1.160830 0.058838 -0.173824 0.000642 0.008372
    33 -0.963866 -2.785145 -0.085350 -0.062199 0.163163 -0.073052
    34 0.028479 -1.403067 0.006271 -0.243112 0.000000 0.000000
    35 0.021413 -0.957781 0.020046 0.071783 0.000000 0.000000
    36 1.164475 -2.543940 -0.170330 -0.499217 0.010016 0.200245
    37 0.024032 -1.129042 0.017807 -0.525205 0.000000 0.000001
    38 0.014898 -0.883989 -0.019848 -0.319901 0.000000 0.000000
    39 -0.586770 -1.264477 0.200161 -0.800294 -0.844960 -2.026371
    40 1.522835 0.058681 0.016848 0.001410 0.008985 0.139420
    41 1.117947 0.048424 -0.005766 -0.013402 -0.021351 0.616690
    42 -0.139399 -0.111698 0.014397 0.358632 0.302122 1.681023
    43 -7.210054 6.843022 -0.192557 1.605702 -0.001306 -0.796361
  time 4
    0 14.191837 -17.668508 -34.131316 -1.463322 3.055602 -1.007319
    1 8.178541 -8.254158 -35.595166 -1.463282 3.055589 -1.007319
    2 11.396547 -12.144901 -9.211548 -5.326274 0.135563 1.018136
    3 5.479424 -21.606127 -7.591443 -5.326285 0.135563 1.018136
    4 39.600525 24.928131 5.355363 0.000000 0.000000 -1.570796
    5 -0.002752 2.424590 -3.222135 0.000000 0.000000 0.000000
    6 9.310103 6.337460 -3.655343 4.917574 -2.243274 1.374618
    7 1.257180 8.762585 -0.153713 -1.570562 0.002683 -1.566807
    8 -0.071921 -8.498736 -0.104134 0.156625 0.281227 0.066041
    9 -0.488518 -2.755602 -0.228260 0.106454 0.010332 -0.264490
    10 0.039887 -1.479790 0.029854 -0.055395 0.000000 0.000001
    11 0.028786 -1.075731 -0.023109 0.002099 0.000000 0.000000
    12 0.250027 -2.820665 -0.238396 0.041826 -0.002921 0.008443
    13 -0.049759 -1.680544 0.100479 0.019826 0.000000 -0.000002
    14 -0.034142 -1.148312 0.084782 -0.040115 0.000000 0.000000
    15 0.957766 -2.746780 -0.090302 -0.017221 -0.162277 0.191558
    16 -0.033420 -1.397129 -0.011257 0.013931 0.000000 -0.000001
    17 -0.022360 -0.957436 0.018784 0.003845 0.000000 0.000000
    18 -1.180681 -2.507217 -0.193859 0.082999 0.013294 -0.477915
    19 -0.024967 -1.123934 0.017597 -0.018065 0.000000 0.000001
    20 -0.020057 -0.890968 0.010090 -0.060797 0.000000 0.000000
    21 0.583510 -1.197277 0.185379 0.158049 -0.404973 -0.364290
    22 1.535927 0.010246 0.005009 -0.002964 -0.012979 0.000887
    23 1.100771 0.004527 -0.010679 -0.002796 0.015973 0.003458
    24 0.120153 -0.050270 -0.054489 0.287569 3.110905 1.561085
    25 -9.794497 -13.622141 -2.763086 0.219627 -2.980069 0.900769
    26 0.096944 -8.450418 -0.009365 -0.028955 0.221680 -0.146873
    27 0.447953 -2.798986 -0.200443 -0.075572 0.007042 0.102403
    28 -0.032909 -1.480204 0.004940 -0.444542 0.000000 0.000002
    29 -0.027022 -1.076920 -0.020210 -0.205919 0.000000 0.000000
    30 -0.249534 -2.846964 -0.174213 0.211309 -0.000125 -0.008396
    31 0.043235 -1.683941 0.096012 -0.452519 0.002823 -0.000167
    32 0.031729 -1.160830 0.058838 -0.121517 0.000642 0.008372
    33 -0.963866 -2.785145 -0.085350 0.116475 0.163163 -0.073052
    34 0.028479 -1.403067 0.006271 -0.104515 0.000000 0.000000
    35 0.021413 -0.957781 0.020046 0.071783 0.000000 0.000000
    36 1.164475 -2.543940 -0.170330 -0.320517 0.010016 0.200245
    37 0.024032 -1.129042 0.017807 -0.386648 0.000000 0.000001
    38 0.014898 -0.883989 -0.019848 -0.319901 0.000000 0.000000
    39 -0.586770 -1.264477 0.200161 -0.800294 -0.844960 -2.026371
    40 1.522835 0.058681 0.016848 0.001410 0.008985 0.139420
    41 1.117947 0.048424 -0.005766 -0.013402 -0.021351 0.616690
    42 -0.139399 -0.111698 0.014397 0.358632 0.302122 1.681023
    43 -7.210054 6.843022 -0.192557 1.605702 -0.001306 -0.796361
  time 5
    0 14.191837 -17.668508 -34.131316 -1.463322 3.055602 -1.007319
    1 8.178541 -8.254158 -35.595166 -1.463282 3.055589 -1.007319
    2 11.396547 -12.144901 -9.352178 -5.321099 0.117407 1.056048
    3 5.827091 -21.848322 -7.935204 -5.321121 0.117407 1.056048
    4 39.600525 24.928131 5.355363 0.000000 0.000000 -1.570796
    5 -0.002752 2.424590 -3.362765 0.000000 0.000000 0.000000
    6 9.310103 6.337460 -3.655343 4.917574 -2.243274 1.374618
    7 1.257180 8.762585 -0.153713 -1.570562 0.002683 -1.566807
    8 -0.071921 -8.498736 -0.104134 0.156625 0.281227 0.066041
    9 -0.488518 -2.755602 -0.228260 0.106454 0.010332 -0.264490
    10 0.039887 -1.479790 0.029854 -0.055395 0.000000 0.000001
    11 0.028786 -1.075731 -0.023109 0.002099 0.000000 0.000000
    12 0.250027 -2.820665 -0.238396 0.041826 -0.002921 0.008443
    13 -0.049759 -1.680544 0.100479 0.019826 0.000000 -0.000002
    14 -0.034142 -1.148312 0.084782 -0.040115 0.000000 0.000000
    15 0.957766 -2.746780 -0.090302 -0.017221 -0.162277 0.191558
    16 -0.033420 -1.397129 -0.011257 0.013931 0.000000 -0.000001
    17 -0.022360 -0.957436 0.018784 0.003845 0.000000 0.000000
    18 -1.180681 -2.507217 -0.193859 0.082999 0.013294 -0.477915
    19 -0.024967 -1.123934 0.017597 -0.018065 0.000000 0.000001
    20 -0.020057 -0.890968 0.010090 -0.060797 0.000000 0.000000
    21 0.583510 -1.197277 0.185379 0.158049 -0.404973 -0.364290
    22 1.535927 0.010246 0.005009 -0.002964 -0.012979 0.000887
    23 1.100771 0.004527 -0.010679 -0.002796 0.015973 0.003458
    24 0.120153 -0.050270 -0.054489 0.287569 3.110905 1.561085
    25 -9.794497 -13.622141 -2.763086 0.073491 -3.064329 0.918981
    26 0.096944 -8.450418 -0.009365 0.002132 0.221680 -0.146873
    27 0.447953 -2.798986 -0.200443 -0.254274 0.007042 0.102403
    28 -0.032909 -1.480204 0.004940 -0.583152 0.000000 0.000002
    29 -0.027022 -1.076920 -0.020210 -0.205919 0.000000 0.000000
    30 -0.249534 -2.846964 -0.174213 0.032647 -0.000125 -0.008396
    31 0.043235 -1.683941 0.096012 -0.591133 0.002823 -0.000167
    32 0.031729 -1.160830 0.058838 -0.288864 0.000642 0.008372
    33 -0.963866 -2.785145 -0.085350 -0.062199 0.163163 -0.073052
    34 0.028479 -1.403067 0.006271 -0.243112 0.000000 0.000000
    35 0.021413 -0.957781 0.020046 0.071783 0.000000 0.000000
    36 1.164475 -2.543940 -0.170330 -0.499217 0.010016 0.200245
    37 0.024032 -1.129042 0.017807 -0.525205 0.000000 0.000001
    38 0.014898 -0.883989 -0.019848 -0.319901 0.000000 0.000000
    39 -0.586770 -1.264477 0.200161 -0.800294 -0.844960 -2.026371
    40 1.522835 0.058681 0.016848 0.001410 0.008985 0.139420
    41 1.117947 0.048424 -0.005766 -0.013402 -0.021351 0.616690
    42 -0.139399 -0.111698 0.014397 0.358632 0.302122 1.681023
    43 -7.210054 6.843022 -0.192557 1.605702 -0.001306 -0.796361
  time 6
    0 14.191837 -17.668508 -34.131316 -1.463322 3.055602 -1.007319
    1 8.178541 -8.254158 -35.595166 -1.463282 3.055589 -1.007319
    2 11.396547 -12.144901 -9.492807 -5.315925 0.099315 1.093960
    3 6.190383 -22.074891 -8.278964 -5.315861 0.099315 1.093960
    4 39.600525 24.928131 5.355363 0.000000 0.000000 -1.570796
    5 -0.002752 2.424590 -3.503394 0.000000 0.000000 0.000000
    6 9.310103 6.337460 -3.655343 4.917574 -2.243274 1.374618
    7 1.257180 8.762585 -0.153713 -1.570562 0.002683 -1.566807
    8 -0.071921 -8.498736 -0.104134 0.156625 0.281227 0.066041
    9 -0.488518 -2.755602 -0.228260 0.106454 0.010332 -0.264490
    10 0.039887 -1.479790 0.029854 -0.055395 0.000000 0.000001
    11 0.028786 -1.075731 -0.023109 0.002099 0.000000 0.000000
    12 0.250027 -2.820665 -0.238396 0.041826 -0.002921 0.008443
    13 -0.049759 -1.680544 0.100479 0.019826 0.000000 -0.000002
    14 -0.034142 -1.148312 0.084782 -0.040115 0.000000 0.000000
    15 0.957766 -2.746780 -0.090302 -0.017221 -0.162277 0.191558
    16 -0.033420 -1.397129 -0.011257 0.013931 0.000000 -0.000001
    17 -0.022360 -0.957436 0.018784 0.003845 0.000000 0.000000
    18 -1.180681 -2.507217 -0.193859 0.082999 0.013294 -0.477915
    19 -0.024967 -1.123934 0.017597 -0.018065 0.000000 0.000001
    20 -0.020057 -0.890968 0.010090 -0.060797 0.000000 0.000000
    21 0.583510 -1.197277 0.185379 0.158049 -0.404973 -0.364290
    22 1.535927 0.010246 0.005009 -0.002964 -0.012979 0.000887
    23 1.100771 0.004527 -0.010679 -0.002796 0.015973 0.003458
    24 0.120153 -0.050270 -0.054489 0.287569 3.110905 1.561085
    25 -9.794497 -13.622141 -2.763086 -0.005088 -3.109663 0.928803
    26 0.096944 -8.450418 -0.009365 0.007553 0.221680 -0.146873
    27 0.447953 -2.798986 -0.200443 -0.432949 0.007042 0.102403
    28 -0.032909 -1.480204 0.004940 -0.721714 0.000000 0.000002
    29 -0.027022 -1.076920 -0.020210 -0.205919 0.000000 0.000000
    30 -0.249534 -2.846964 -0.174213 -0.146038 -0.000125 -0.008396
    31 0.043235 -1.683941 0.096012 -0.729693 0.002823 -0.000167
    32 0.031729 -1.160830 0.058838 -0.456187 0.000642 0.008372
    33 -0.963866 -2.785145 -0.085350 -0.240872 0.163163 -0.073052
    34 0.028479 -1.403067 0.006271 -0.381709 0.000000 0.000000
    35 0.021413 -0.957781 0.020046 0.071783 0.000000 0.000000
    36 1.164475 -2.543940 -0.170330 -0.677886 0.010016 0.200245
    37 0.024032 -1.129042 0.017807 -0.663804 0.000000 0.000001
    38 0.014898 -0.883989 -0.019848 -0.319901 0.000000 0.000000
    39 -0.586770 -1.264477 0.200161 -0.800294 -0.844960 -2.026371
    40 1.522835 0.058681 0.016848 0.001410 0.008985 0.139420
    41 1.117947 0.048424 -0.005766 -0.013402 -0.021351 0.616690
    42 -0.139399 -0.111698 0.014397 0.358632 0.302122 1.681023
    43 -7.210054 6.843022 -0.192557 1.605702 -0.001306 -0.796361
end
