// Created by Crowbar 0.62

$modelname "weapons/tfa_cso/c_magnumlauncher_gs18.mdl"

$Include "csonline_gmod.qci"

$bodygroup "LED"
{
	studio "v_sgmissilepaintgs18_v_ref03"
}
$bodygroup "weapon"
{
	studio "v_sgmissilepaintgs18_v_ref04"
}
$bodygroup "fx1"
{
	studio "v_sgmissilepaintgs18_fx_ref"
}
$bodygroup "fx2"
{
	studio "v_sgmissilepaintgs18_fx_ref2"
}
$bodygroup "fx3"
{
	studio "v_sgmissilepaintgs18_fx_ref3"
}
$bodygroup "fx4"
{
	studio "v_sgmissilepaintgs18_fx_ref4"
}
$bodygroup "fx5"
{
	studio "v_sgmissilepaintgs18_fx_ref5"
}
$bodygroup "skingroup"
{
	studio "v_sgmissilepaintgs18_v_ref01"
	studio "v_sgmissilepaintgs18_v_ref01_2"
}
$bodygroup "skingroup2"
{
	studio "v_sgmissilepaintgs18_v_ref02"
	studio "v_sgmissilepaintgs18_v_ref02_2"
}
$bodygroup "fx6"
{
	studio "v_sgmissilepaintgs18_fx_ref6"
}

$CDMaterials "models\weapons\tfa_cso\magnumlauncher_gs18\"

$attachment 0 "sm_root" 0 0 0
//$attachment 1 "sm_root" 0 1 19
//$attachment 2 "sm_root" 1.7 0 0
//$attachment 3 "sm_root" 1.7 1.6 0
//$attachment 4 "sm_root" 1.7 -1.6 0

$sequence "idle" {
	"v_sgmissilepaintgs18_anims\idle"
	fps 30
	loop
}
$sequence "reload" {
	"v_sgmissilepaintgs18_anims\reload"
	{ event 5004 11 "MagnumLancer.ClipOut" }
	{ event 5004 37 "MagnumLancer.ClipIn" }
	fps 30
}
$sequence "draw" {
	"v_sgmissilepaintgs18_anims\draw"
	{ event 5004 5 "MagnumLancer.Draw" }
	fps 30
}
$sequence "shoot" {
	"v_sgmissilepaintgs18_anims\shoot"
	{ event 5001 0 "#I64 S0.08 R2 F0 P30 T999 A1 L0 O0 X0" }
	{ event 5001 1 "#I63 S0.1 R2 F0 P30 T999 A1 L0 O0 X0" }
	fps 30
}
$sequence "idle_b" {
	"v_sgmissilepaintgs18_anims\idle_b"
	fps 30
	loop
	activity "ACT_VM_IDLE" 1
	snap
}
$sequence "reload_b" {
	"v_sgmissilepaintgs18_anims\reload_b"
	{ event 5004 11 "MagnumLancer.ClipOut" }
	{ event 5004 37 "MagnumLancer.ClipIn" }
	fps 30
	activity "ACT_VM_RELOAD" 1
	snap
}
$sequence "draw_b" {
	"v_sgmissilepaintgs18_anims\draw_b"
	{ event 5004 5 "MagnumLancer.DrawB" }
	fps 30
	activity "ACT_VM_DRAW" 1
	snap
}
$sequence "shoot_b" {
	"v_sgmissilepaintgs18_anims\shoot_b"
	{ event 5001 0 "#I64 S0.08 R2 F0 P30 T999 A1 L0 O0 X0" }
	{ event 5001 1 "#I63 S0.1 R2 F0 P30 T999 A1 L0 O0 X0" }
	fps 30
	activity "ACT_VM_PRIMARYATTACK" 1
	snap
}
$sequence "shoot2_b" {
	"v_sgmissilepaintgs18_anims\shoot2_b"
	{ event 5001 0 "#I64 S0.08 R2 F0 P30 T999 A1 L0 O0 X0" }
	{ event 5001 1 "#I63 S0.1 R2 F0 P30 T999 A1 L0 O0 X0" }
	fps 30
}
$sequence "shoot_missile" {
	"v_sgmissilepaintgs18_anims\shoot_missile"
	{ event 5021 0 "#I75 S0.07 R2 F0 P30 T999 A1 L0 O0 X2" }
	{ event 5031 1 "#I65 S0.1 R1 F0 P30 T999 A1 L0 O0 X3" }
	{ event 5001 1 "#I60 S0.09 R2 F0 P30 T999 A1 L0 O0 X4" }
	fps 30
	activity "ACT_VM_SECONDARYATTACK" 1
	snap
}
$sequence "shoot_missile_last" {
	"v_sgmissilepaintgs18_anims\shoot_missile_last"
	{ event 5021 0 "#I75 S0.07 R2 F0 P30 T999 A1 L0 O0 X2" }
	{ event 5031 1 "#I65 S0.1 R1 F0 P30 T999 A1 L0 O0 X3" }
	{ event 5001 1 "#I60 S0.09 R2 F0 P30 T999 A1 L0 O0 X4" }
	{ event 5004 4 "MagnumLancer.MissileShotLast" }
	fps 30
}
$sequence "missile_on" {
	"v_sgmissilepaintgs18_anims\missile_on"
	{ event 5004 2 "MagnumLancer.MissileReload" }
	fps 30
}
