// Created by Crowbar 0.68

$modelname "weapons/tfa_cso/c_harmonium.mdl"

$include "csonline_gmod.qci"

$bodygroup "weapon"
{
	studio "v_pipeorgan1"
}
$bodygroup "weapon"
{
	studio "v_pipeorgan2"
}
$bodygroup "weapon"
{
	studio "v_pipeorgan3"
}
$bodygroup "weapon"
{
	studio "v_pipeorgan4"
}
$bodygroup "weapon"
{
	studio "v_pipeorgan5"
}
$bodygroup "weapon"
{
	studio "v_pipeorgan6"
}
$bodygroup "weapon"
{
	studio "v_pipeorgan7"
}
$bodygroup "weapon"
{
	studio "v_pipeorgan8"
}

$cdmaterials "models/weapons/tfa_cso/harmonium"

$attachment 0 "Point_light_center" 0 0 0
//$attachment 1 "Point_L055" 0 0 0
//$attachment 2 "Point_L056" 0 0 0
//$attachment 3 "Point_L057" 0 0 0
//$attachment 4 "Point_R4" 0 0 0
//$attachment 5 "Point_R045" 0 0 0
//$attachment 6 "Point_R050" 0 0 0
//$attachment 7 "Point_light_L027" 0 0 0
//$attachment 8 "Point_light_L026" 0 0 0
//$attachment 9 "Point_light_L025" 0 0 0
//$attachment 10 "Point_light_R1" 0 0 0
//$attachment 11 "Point_light_R015" 0 0 0
//$attachment 12 "Point_light_R020" 0 0 0

$sequence "idle" {
	"v_pianogun_anims\idle"
	activity "ACT_VM_IDLE" 20
	fps 30
	loop
}
$sequence "idle2" {
	"v_pianogun_anims\idle2"
	{ event 5004 0 "Harmonium.Idle" }
	activity "ACT_VM_IDLE" 1
	fps 15
	loop
}
$sequence "shoot_a" {
	"v_pianogun_anims\shoot_a"
	activity "ACT_VM_PRIMARYATTACK" 1
	{ event 5001 0 "#I130 S0.04 R2 F0 P30 T999 A1 L0.1 O0 X0" }
	{ event 5011 0 "#I136 S0.01 R0 F0 P30 T999 A1 L0 O0 X1 U1" }
	{ event 5021 0 "#I136 S0.01 R0 F0 P30 T999 A1 L0 O0 X2 U1" }
	{ event 5031 0 "#I136 S0.01 R0 F0 P30 T999 A1 L0 O0 X3 U1" }
	{ event 5041 0 "#I136 S0.01 R0 F0 P30 T999 A1 L0 O0 X4 U1" }
	{ event 5051 0 "#I136 S0.01 R0 F0 P30 T999 A1 L0 O0 X5 U1" }
	{ event 5061 0 "#I136 S0.01 R0 F0 P30 T999 A1 L0 O0 X6 U1" }
	{ event 5004 1 "Harmonium.ShootA" }
	fps 30
	snap
}
$sequence "shoot_b" {
	"v_pianogun_anims\shoot_b"
	activity "ACT_VM_PRIMARYATTACK" 1
	{ event 5001 0 "#I131 S0.04 R2 F0 P30 T999 A1 L0.1 O0 X0" }
	{ event 5071 0 "#I134 S0.015 R0 F0 P30 T999 A1 L0 O0 X7 U1" }
	{ event 5081 0 "#I134 S0.015 R0 F0 P30 T999 A1 L0 O0 X8 U1" }
	{ event 5091 0 "#I134 S0.015 R0 F0 P30 T999 A1 L0 O0 X9 U1" }
	{ event 5101 0 "#I134 S0.015 R0 F0 P30 T999 A1 L0 O0 X10 U1" }
	{ event 5111 0 "#I134 S0.015 R0 F0 P30 T999 A1 L0 O0 X11 U1" }
	{ event 5121 0 "#I134 S0.015 R0 F0 P30 T999 A1 L0 O0 X12 U1" }
	{ event 5004 1 "Harmonium.ShootB" }
	fps 30
	snap
}
$sequence "shoot_c1" {
	"v_pianogun_anims\shoot_c1"
	{ event 5001 0 "#I130 S0.04 R2 F0 P30 T999 A1 L0.1 O0 X0" }
	{ event 5001 0 "#I137 S0.1 R0 F0 P30 T999 A1 L0.1 O0 X0" }
	{ event 5011 0 "#I136 S0.01 R0 F0 P30 T999 A1 L0 O0 X1 U1" }
	{ event 5021 0 "#I136 S0.01 R0 F0 P30 T999 A1 L0 O0 X2 U1" }
	{ event 5031 0 "#I136 S0.01 R0 F0 P30 T999 A1 L0 O0 X3 U1" }
	{ event 5041 0 "#I136 S0.01 R0 F0 P30 T999 A1 L0 O0 X4 U1" }
	{ event 5051 0 "#I136 S0.01 R0 F0 P30 T999 A1 L0 O0 X5 U1" }
	{ event 5061 0 "#I136 S0.01 R0 F0 P30 T999 A1 L0 O0 X6 U1" }
	{ event 5071 0 "#I134 S0.015 R0 F0 P30 T999 A1 L0 O0 X7 U1" }
	{ event 5081 0 "#I134 S0.03 R0 F0 P30 T999 A1 L0 O0 X8 U1" }
	{ event 5091 0 "#I134 S0.03 R0 F0 P30 T999 A1 L0 O0 X9 U1" }
	{ event 5101 0 "#I134 S0.03 R0 F0 P30 T999 A1 L0 O0 X10 U1" }
	{ event 5111 0 "#I134 S0.03 R0 F0 P30 T999 A1 L0 O0 X11 U1" }
	{ event 5121 0 "#I134 S0.03 R0 F0 P30 T999 A1 L0 O0 X12 U1" }
	{ event 5004 1 "Harmonium.ShootC1" }
	fps 30
	activity "ACT_VM_SECONDARYATTACK" 1
	snap
}
$sequence "shoot_c2" {
	"v_pianogun_anims\shoot_c2"
	{ event 5001 0 "#I130 S0.04 R2 F0 P30 T999 A1 L0.1 O0 X0" }
	{ event 5001 0 "#I137 S0.1 R0 F0 P30 T999 A1 L0.1 O0 X0" }
	{ event 5011 0 "#I136 S0.01 R0 F0 P30 T999 A1 L0 O0 X1 U1" }
	{ event 5021 0 "#I136 S0.01 R0 F0 P30 T999 A1 L0 O0 X2 U1" }
	{ event 5031 0 "#I136 S0.01 R0 F0 P30 T999 A1 L0 O0 X3 U1" }
	{ event 5041 0 "#I136 S0.01 R0 F0 P30 T999 A1 L0 O0 X4 U1" }
	{ event 5051 0 "#I136 S0.01 R0 F0 P30 T999 A1 L0 O0 X5 U1" }
	{ event 5061 0 "#I136 S0.01 R0 F0 P30 T999 A1 L0 O0 X6 U1" }
	{ event 5071 0 "#I134 S0.015 R0 F0 P30 T999 A1 L0 O0 X7 U1" }
	{ event 5081 0 "#I134 S0.03 R0 F0 P30 T999 A1 L0 O0 X8 U1" }
	{ event 5091 0 "#I134 S0.03 R0 F0 P30 T999 A1 L0 O0 X9 U1" }
	{ event 5101 0 "#I134 S0.03 R0 F0 P30 T999 A1 L0 O0 X10 U1" }
	{ event 5111 0 "#I134 S0.03 R0 F0 P30 T999 A1 L0 O0 X11 U1" }
	{ event 5121 0 "#I134 S0.03 R0 F0 P30 T999 A1 L0 O0 X12 U1" }
	{ event 5004 1 "Harmonium.ShootC2" }
	fps 30
	activity "ACT_VM_SECONDARYATTACK" 1
	snap
}
$sequence "reload" {
	"v_pianogun_anims\reload"
	activity "ACT_VM_RELOAD" 1
	{ event 5001 20 "#I133 S0.04 R2 F0 P30 T999 A1 L0.1 O0 X0 U1" }
	{ event 5004 3 "Harmonium.Reload" }
	fps 30
	snap
}
$sequence "draw" {
	"v_pianogun_anims\draw"
	activity "ACT_VM_DRAW" 1
	{ event 5004 3 "Harmonium.Draw" }
	fps 30
	snap
}
