// Created by Crowbar 0.68

// Stored modelname (without quotes): "v_ak47L3.mdl"
$modelname "weapons/tfa_cso/c_ak4713_v8.mdl"

$include "csonline_gmod.qci"

$bodygroup "weapon"
{
	studio "ak47Long_template"
}

$cdmaterials "models/weapons/tfa_cso/ak4713_v8"

$attachment 0 "Bone 04" 2.75 -22.5 2.9
//$attachment 1 "Bone52" 0 -3 0

$sequence "idle1" {
	"v_ak47l3_anims\idle1"
	fps 30
	activity "ACT_VM_IDLE" 1
	loop
	snap
}
$sequence "reload" {
	"v_ak47l3_anims\reload"
	{ event 5004 13 "AK47.ClipOut" }
	{ event 5004 60 "AK47.ClipIn" }
	fps 37
	activity "ACT_VM_RELOAD" 1
	snap
}
$sequence "draw" {
	"v_ak47l3_anims\draw"
	{ event 5004 11 "AK47.Draw" }
	fps 30
	activity "ACT_VM_DRAW" 1
	snap
}
$sequence "shoot1" {
	"v_ak47l3_anims\shoot1"
	{ event 5001 0 "22" }
	fps 20
	activity "ACT_VM_PRIMARYATTACK" 1
	snap
}
$sequence "shoot2" {
	"v_ak47l3_anims\shoot2"
	{ event 5001 0 "22" }
	fps 20
}
$sequence "shoot3" {
	"v_ak47l3_anims\shoot3"
	{ event 5001 0 "22" }
	fps 20
}
