"UnLitGeneric"
{
    $basetexture    "models\weapons\tfa_cso\divine_blaster\$20_winggun_gold"
    //$additive        "1"
	
    "$angle" 0.0
    "$translate" "[1.0 0.0]"
    "$center" "[0 0]"
	"$rate" "0.2"

    "Proxies"
    {
        "TextureScroll"
        {
            "textureScrollVar" "$basetexturetransform" // we don't need this, but it's not optional
            "textureScrollRate" "$rate"
            "textureScrollAngle" "$angle"
        }
    } 
}