version 1
nodes
  0 "root" -1
  1 "Bone01" 0
  2 "Bone_L_Upper" 1
  3 "Bone_Lefthand" 1
  4 "Bone13" 3
  5 "Bone14" 4
  6 "Bone15" 5
  7 "Bone17" 3
  8 "Bone18" 7
  9 "Bone19" 8
  10 "Bone21" 3
  11 "Bone22" 10
  12 "Bone23" 11
  13 "Bone09" 3
  14 "Bone10" 13
  15 "Bone11" 14
  16 "Bone05" 3
  17 "Bone06" 16
  18 "Bone07" 17
  19 "Bone_Se_Hand-L" 3
  20 "Bone04" 0
  21 "Bone_Righthand" 20
  22 "Bone39" 21
  23 "Bone40" 22
  24 "Bone41" 23
  25 "Bone35" 21
  26 "Bone36" 25
  27 "Bone37" 26
  28 "Bone31" 21
  29 "Bone32" 28
  30 "Bone33" 29
  31 "Bone43" 21
  32 "Bone44" 31
  33 "Bone45" 32
  34 "Bone27" 21
  35 "Bone28" 34
  36 "Bone29" 35
  37 "Bone_Se_Hand-R" 21
  38 "Bone_R_Upper" 20
  39 "Bone02" 3
  40 "Dummy01" 39
  41 "Bone34" 40
  42 "Bone38" 41
  43 "Bone08" 39
  44 "Bone12" 43
  45 "Bone16" 44
  46 "Bone20" 45
  47 "Bone24" 46
  48 "Bone25" 47
  49 "Bone26" 48
  50 "Bone30" 49
  51 "Bone03" 39
  52 "Bone46" 39
  53 "Bone47" 52
  54 "Bone48" 39
  55 "Bone42" 39
end
skeleton
  time 0
    0 -0.350419 1.162833 0.199844 0.000000 0.000000 0.000000
    1 4.173228 3.009233 -6.999195 4.629065 -1.258910 1.303123
    2 1.257180 8.762585 -0.153713 -1.570562 0.002683 -1.566807
    3 -0.071921 -8.498736 -0.104134 0.219996 0.128015 -0.383424
    4 -0.488518 -2.755602 -0.228260 -1.043629 0.109301 -0.409563
    5 0.039887 -1.479790 0.029854 -1.667534 0.000000 0.000001
    6 0.028786 -1.075731 -0.023109 -0.454504 0.000000 0.000000
    7 0.250027 -2.820665 -0.238396 -0.736464 0.165690 -0.428552
    8 -0.049759 -1.680544 0.100479 -1.752455 0.000000 -0.000002
    9 -0.034142 -1.148312 0.084782 -0.832761 0.000000 0.000000
    10 0.957766 -2.746780 -0.090302 0.093708 -0.022057 -0.463076
    11 -0.033420 -1.397129 -0.011257 -0.387585 0.000000 -0.000001
    12 -0.022360 -0.957436 0.018784 -0.125146 0.000000 0.000000
    13 -1.180681 -2.507217 -0.193859 -1.338388 0.249247 -0.349934
    14 -0.024967 -1.123934 0.017597 -1.138789 0.000000 0.000001
    15 -0.020057 -0.890968 0.010090 -0.444210 0.000000 0.000000
    16 0.583510 -1.197277 0.185379 -0.170604 -0.642052 -0.400567
    17 1.535927 0.010246 0.005009 -0.002964 -0.012979 -0.887956
    18 1.100771 0.004527 -0.010679 -0.012432 0.010412 -0.697595
    19 0.120153 -0.050270 -0.054489 0.287569 3.110905 1.561085
    20 -4.466209 -11.051750 -9.716424 -1.671737 -5.315737 -1.093053
    21 0.096944 -8.450418 -0.009365 -0.036421 -1.226933 0.518820
    22 0.447953 -2.798986 -0.200443 -1.421015 0.011476 0.381620
    23 -0.032909 -1.480204 0.004940 -1.018175 0.000000 0.000002
    24 -0.027022 -1.076920 -0.020210 0.205179 0.000000 0.000000
    25 -0.249534 -2.846964 -0.174213 -0.964632 0.069314 0.302245
    26 0.043235 -1.683941 0.096012 -1.453583 0.002823 -0.000167
    27 0.031729 -1.160830 0.058838 0.134689 0.000642 0.008372
    28 -0.963866 -2.785145 -0.085350 -0.482986 0.119647 0.325274
    29 0.028479 -1.403067 0.006271 -1.337917 0.000000 0.000000
    30 0.021413 -0.957781 0.020046 -0.325455 0.000000 0.000000
    31 1.164475 -2.543940 -0.170330 -1.543958 -0.041925 0.506498
    32 0.024032 -1.129042 0.017807 -1.093989 0.000000 0.000001
    33 0.014898 -0.883989 -0.019848 0.162897 0.000000 0.000000
    34 -0.586770 -1.264477 0.200161 0.164856 -0.089915 -2.665668
    35 1.522835 0.058681 0.016848 0.001410 0.008985 0.554186
    36 1.117947 0.048424 -0.005766 -0.001597 -0.025150 0.119454
    37 -0.139399 -0.111698 0.014397 0.812761 0.207751 1.328796
    38 -6.260806 6.983652 -0.294122 1.580804 -0.005023 -0.912799
    39 2.797113 -4.285051 0.754741 0.081666 0.118528 -1.471580
    40 4.325385 -1.379109 0.015213 0.000000 0.000000 1.570796
    41 -23.500717 35.968767 -0.093753 0.000000 0.000000 0.000000
    42 0.000000 0.000000 0.000000 0.000000 0.000000 -1.570796
    43 17.120821 -2.613614 0.025636 0.000000 0.000000 -2.652568
    44 3.828057 0.000004 0.000000 0.000000 0.000000 -0.096263
    45 3.059667 0.000000 -0.000001 0.000000 0.000000 -0.117919
    46 3.356923 -0.000001 0.000000 -0.000001 0.000000 -0.197044
    47 3.735583 -0.000055 -0.000001 -0.000003 0.000000 -0.056545
    48 4.003521 0.000000 -0.000001 0.000001 -0.000001 -0.012630
    49 2.212389 0.000000 0.000000 -0.000001 0.000002 -0.112050
    50 2.509602 0.000060 0.000000 -0.000004 -0.000002 -0.057169
    51 24.842110 -1.409671 0.149747 0.000000 0.000000 -1.605142
    52 2.664384 -0.430788 1.215825 0.000000 0.000000 1.570796
    53 0.352535 -0.574134 -3.102314 0.000000 0.000000 0.000000
    54 4.670054 -0.512681 0.025918 3.141592 -1.570796 0.000000
    55 0.904484 -2.705253 0.034546 0.000000 0.000000 -1.570796
  time 1
    0 -0.350419 1.162833 0.199844 0.000000 0.000000 0.000000
    1 4.173228 3.009233 -6.999195 4.629065 -1.258910 1.303123
    2 1.257180 8.762585 -0.153713 -1.570562 0.002683 -1.566807
    3 -0.071921 -8.498736 -0.104134 0.219996 0.128015 -0.383424
    4 -0.488518 -2.755602 -0.228260 -1.043629 0.109301 -0.409563
    5 0.039887 -1.479790 0.029854 -1.667534 0.000000 0.000001
    6 0.028786 -1.075731 -0.023109 -0.454504 0.000000 0.000000
    7 0.250027 -2.820665 -0.238396 -0.736464 0.165690 -0.428552
    8 -0.049759 -1.680544 0.100479 -1.752455 0.000000 -0.000002
    9 -0.034142 -1.148312 0.084782 -0.832761 0.000000 0.000000
    10 0.957766 -2.746780 -0.090302 0.093708 -0.022057 -0.463076
    11 -0.033420 -1.397129 -0.011257 -0.387585 0.000000 -0.000001
    12 -0.022360 -0.957436 0.018784 -0.125146 0.000000 0.000000
    13 -1.180681 -2.507217 -0.193859 -1.338388 0.249247 -0.349934
    14 -0.024967 -1.123934 0.017597 -1.138789 0.000000 0.000001
    15 -0.020057 -0.890968 0.010090 -0.444210 0.000000 0.000000
    16 0.583510 -1.197277 0.185379 -0.170604 -0.642052 -0.400567
    17 1.535927 0.010246 0.005009 -0.002964 -0.012979 -0.887956
    18 1.100771 0.004527 -0.010679 -0.012432 0.010412 -0.697595
    19 0.120153 -0.050270 -0.054489 0.287569 3.110905 1.561085
    20 -4.466209 -11.051750 -9.716424 -1.671737 -5.315737 -1.093053
    21 0.096944 -8.450418 -0.009365 -0.036421 -1.226933 0.518820
    22 0.447953 -2.798986 -0.200443 -1.421015 0.011476 0.381620
    23 -0.032909 -1.480204 0.004940 -1.018175 0.000000 0.000002
    24 -0.027022 -1.076920 -0.020210 0.205179 0.000000 0.000000
    25 -0.249534 -2.846964 -0.174213 -0.964632 0.069314 0.302245
    26 0.043235 -1.683941 0.096012 -1.453583 0.002823 -0.000167
    27 0.031729 -1.160830 0.058838 0.134689 0.000642 0.008372
    28 -0.963866 -2.785145 -0.085350 -0.482986 0.119647 0.325274
    29 0.028479 -1.403067 0.006271 -1.337917 0.000000 0.000000
    30 0.021413 -0.957781 0.020046 -0.325455 0.000000 0.000000
    31 1.164475 -2.543940 -0.170330 -1.543958 -0.041925 0.506498
    32 0.024032 -1.129042 0.017807 -1.093989 0.000000 0.000001
    33 0.014898 -0.883989 -0.019848 0.162897 0.000000 0.000000
    34 -0.586770 -1.264477 0.200161 0.164856 -0.089915 -2.665668
    35 1.522835 0.058681 0.016848 0.001410 0.008985 0.554186
    36 1.117947 0.048424 -0.005766 -0.001597 -0.025150 0.119454
    37 -0.139399 -0.111698 0.014397 0.812761 0.207751 1.328796
    38 -6.260806 6.983652 -0.294122 1.580804 -0.005023 -0.912799
    39 2.797113 -4.285051 0.754741 0.081666 0.118528 -1.471580
    40 4.325385 -1.379109 0.015213 0.000000 0.000000 1.570796
    41 -23.500717 35.968767 -0.093753 0.000000 0.000000 0.000000
    42 0.000000 0.000000 0.000000 0.000000 0.000000 -1.570796
    43 17.120821 -2.613614 0.025636 0.000000 0.000000 -2.652568
    44 3.828057 0.000004 0.000000 0.000000 0.000000 -0.096263
    45 3.059667 0.000000 -0.000001 0.000000 0.000000 -0.117919
    46 3.356923 -0.000001 0.000000 -0.000001 0.000000 -0.197044
    47 3.735583 -0.000055 -0.000001 -0.000003 0.000000 -0.056545
    48 4.003521 0.000000 -0.000001 0.000001 -0.000001 -0.012630
    49 2.212389 0.000000 0.000000 -0.000001 0.000002 -0.112050
    50 2.509602 0.000060 0.000000 -0.000004 -0.000002 -0.057169
    51 24.842110 -1.409671 0.149747 0.000000 0.000000 -1.605142
    52 2.664384 -0.430788 1.215825 0.000000 0.000000 1.570796
    53 0.352535 -0.574134 -3.102314 0.000000 0.000000 0.000000
    54 4.670054 -0.512681 0.025918 3.141592 -1.570796 0.000000
    55 0.904484 -2.705253 0.034546 0.000000 0.000000 -1.570796
end
