version 1
nodes
  0 "kronos7_root" -1
  1 "magazine001" 0
  2 "Bone046" 1
  3 "Bone047" 1
  4 "Bone048" 1
  5 "Bone049" 1
  6 "Bone050" 1
  7 "Bone051" 1
  8 "Bone052" 1
  9 "Bone053" 1
  10 "on_off001" 0
  11 "trigger001" 0
  12 "trans_004" 0
  13 "effect001" 0
  14 "ef" 0
  15 "root" -1
  16 "Bone01" 15
  17 "Bone_L_Upper" 16
  18 "Bone_Lefthand" 16
  19 "Bone13" 18
  20 "Bone14" 19
  21 "Bone15" 20
  22 "Bone17" 18
  23 "Bone18" 22
  24 "Bone19" 23
  25 "Bone21" 18
  26 "Bone22" 25
  27 "Bone23" 26
  28 "Bone09" 18
  29 "Bone10" 28
  30 "Bone11" 29
  31 "Bone05" 18
  32 "Bone06" 31
  33 "Bone07" 32
  34 "Bone_Se_Hand-L" 18
  35 "Bone04" 15
  36 "Bone_Righthand" 35
  37 "Bone39" 36
  38 "Bone40" 37
  39 "Bone41" 38
  40 "Bone35" 36
  41 "Bone36" 40
  42 "Bone37" 41
  43 "Bone31" 36
  44 "Bone32" 43
  45 "Bone33" 44
  46 "Bone43" 36
  47 "Bone44" 46
  48 "Bone45" 47
  49 "Bone27" 36
  50 "Bone28" 49
  51 "Bone29" 50
  52 "Bone_Se_Hand-R" 36
  53 "Bone_R_Upper" 35
end
skeleton
  time 0
    0 0.035417 -6.737684 -4.988588 -4.699936 -0.036653 -1.564828
    1 7.256281 -6.789095 0.007775 1.570852 0.002703 1.570796
    2 5.050453 1.454163 -1.017509 -1.568094 -1.570796 0.000000
    3 5.626474 1.455924 -1.019152 -1.570686 -1.579097 0.002594
    4 6.206468 1.457541 -1.014370 -1.570777 -1.577000 -6.280407
    5 6.772547 1.458829 -1.017507 -1.568736 -1.570796 0.000000
    6 7.351276 1.460386 -1.013219 -1.568094 -1.570796 0.000000
    7 7.892139 1.461847 -1.013220 -1.568094 -1.570796 0.000000
    8 8.301605 1.184708 -1.014370 -1.563894 -1.576998 -0.004125
    9 8.469214 0.696302 -1.013290 -1.570510 -1.577010 0.002395
    10 7.343514 2.039688 -0.990803 0.000001 -1.570451 0.000000
    11 4.373582 -1.441754 -0.000001 -0.000006 0.000000 -1.560452
    12 1.562920 2.182060 0.829536 1.570774 -1.566830 1.570833
    13 4.731497 -2.650227 -0.000001 1.570796 0.000000 0.000000
    14 -6.085832 -8.128743 0.141889 3.141592 0.000000 0.000000
    15 -0.002752 -0.001265 -0.003287 0.000000 0.000000 0.000000
    16 7.372544 -0.666660 -8.405488 0.446936 -1.660804 -1.225133
    17 7.827693 -1.280691 -0.403721 -1.568549 -0.028851 -3.223476
    18 -0.075827 -8.553426 -0.111947 0.579477 0.268104 -0.005328
    19 -0.488518 -2.755602 -0.228260 -0.217645 0.067570 -0.276451
    20 0.039887 -1.534479 0.014229 -1.596812 -0.010882 0.035751
    21 0.028786 -1.208548 -0.132487 -1.366952 -0.014358 0.030740
    22 0.250027 -2.820665 -0.238396 -0.284011 -0.014546 -0.237277
    23 -0.049759 -1.598510 0.049696 -1.349022 0.004087 -0.036986
    24 -0.034142 -1.167844 0.049625 -1.065694 0.007478 -0.027888
    25 0.957766 -2.746780 -0.090302 0.232302 -0.188739 0.289376
    26 -0.033420 -1.397129 -0.026882 -0.828317 0.050803 -0.074941
    27 -0.022360 -0.957436 0.003159 -0.680035 0.007706 -0.032994
    28 -1.180681 -2.507217 -0.193859 -0.239554 0.256809 -0.312036
    29 -0.024967 -1.127840 0.017597 -1.386071 -0.005825 -0.057381
    30 -0.020057 -0.902687 0.025715 -0.813372 0.007466 -0.032694
    31 0.642106 -1.201183 0.208817 0.023810 -1.396598 0.068846
    32 1.430455 -0.267106 0.083136 0.090192 -0.258148 -0.988353
    33 1.014831 -0.175166 0.040104 0.076698 -0.232887 -0.981966
    34 0.120153 -0.050270 -0.054489 0.287569 3.110905 1.561085
    35 -5.364674 -11.305664 -10.497697 0.263674 -3.930990 0.413380
    36 0.128195 -8.477763 -0.032803 0.045388 -0.132859 -0.096407
    37 0.447953 -2.798986 -0.200443 -0.766401 -0.129331 0.115023
    38 -0.032909 -1.499736 0.024472 -1.317840 0.023130 -0.024399
    39 -0.027022 -1.135516 -0.020210 -1.457332 0.024916 -0.028667
    40 -0.249534 -2.846964 -0.174213 -0.840251 -0.015933 -0.006622
    41 0.043235 -1.656596 0.072574 -1.342461 -0.021254 0.006221
    42 0.031729 -1.137392 0.051025 -1.488958 -0.016472 0.008684
    43 -0.963866 -2.785145 -0.085350 -0.692189 0.147942 -0.217960
    44 0.028479 -1.403067 -0.017167 -0.912717 -0.023190 -0.033125
    45 0.021413 -0.938249 0.004421 -1.329270 -0.041215 -0.037835
    46 1.164475 -2.543940 -0.170330 -0.761950 -0.355109 0.187253
    47 0.024032 -1.140761 -0.005631 -1.027049 0.002169 0.047053
    48 0.014898 -0.899614 -0.015942 -0.980908 0.008042 0.049281
    49 -0.586770 -1.264477 0.200161 0.341954 -0.697086 -2.918566
    50 1.561899 0.035243 0.016848 -0.017214 -0.006571 0.835038
    51 1.110134 0.040611 -0.005766 -0.036664 -0.031897 1.293241
    52 -0.139399 -0.111698 0.014397 -0.044786 -0.030687 1.580508
    53 -5.764697 6.608640 -0.364437 1.580325 -0.020914 -0.961574
  time 1
    0 -0.034898 -6.671275 -4.965150 -1.542006 -3.095098 1.567333
    1 7.256281 -6.789095 0.007775 1.570852 0.002703 1.570796
    2 5.050453 1.458070 -1.017509 -1.568094 -1.570796 0.000000
    3 5.626474 1.471550 -1.019152 -1.570686 -1.579097 0.002594
    4 6.206468 1.469260 -1.014370 -1.570777 -1.577000 -6.280407
    5 6.772547 1.462736 -1.017507 -1.568736 -1.570796 0.000000
    6 7.351276 1.460386 -1.013219 -1.568094 -1.570796 0.000000
    7 7.892139 1.457941 -1.013220 -1.568094 -1.570796 0.000000
    8 8.301605 1.180802 -1.014370 -1.563894 -1.576998 -0.004125
    9 8.469214 0.696302 -1.013290 -1.570510 -1.577010 0.002395
    10 7.343514 2.039688 -0.990803 0.000001 -1.570451 0.000000
    11 4.373582 -1.441754 -0.000001 -0.000006 0.000000 -1.560452
    12 1.562920 2.182060 0.829536 1.570774 -1.566830 1.570833
    13 4.731497 -2.650227 -0.000001 1.570796 0.000000 0.000000
    14 -6.085832 -8.128743 0.141889 3.141592 0.000000 0.000000
    15 -0.002752 -0.001265 -0.003287 0.000000 0.000000 0.000000
    16 7.353012 -0.654941 -8.413301 0.525352 -1.662702 -1.304938
    17 7.812068 -1.343192 -0.403721 -1.568357 -0.028947 -3.231472
    18 -0.079734 -8.549519 -0.111947 0.570635 0.248054 -0.018736
    19 -0.488518 -2.755602 -0.228260 -0.217645 0.067570 -0.276451
    20 0.039887 -1.534479 0.014229 -1.596812 -0.010882 0.035751
    21 0.028786 -1.208548 -0.132487 -1.366952 -0.014358 0.030740
    22 0.250027 -2.820665 -0.238396 -0.284011 -0.014546 -0.237277
    23 -0.049759 -1.598510 0.049696 -1.349022 0.004087 -0.036986
    24 -0.034142 -1.167844 0.049625 -1.065694 0.007478 -0.027888
    25 0.957766 -2.746780 -0.090302 0.232302 -0.188739 0.289376
    26 -0.033420 -1.397129 -0.026882 -0.828317 0.050803 -0.074941
    27 -0.022360 -0.957436 0.003159 -0.680035 0.007706 -0.032994
    28 -1.180681 -2.507217 -0.193859 -0.239554 0.256809 -0.312036
    29 -0.024967 -1.127840 0.017597 -1.386071 -0.005825 -0.057381
    30 -0.020057 -0.902687 0.025715 -0.813372 0.007466 -0.032694
    31 0.642106 -1.201183 0.208817 0.023810 -1.396598 0.068846
    32 1.430455 -0.267106 0.083136 0.090192 -0.258148 -0.988353
    33 1.014831 -0.175166 0.040104 0.076698 -0.232887 -0.981966
    34 0.120153 -0.050270 -0.054489 0.287569 3.110905 1.561085
    35 -5.388113 -11.305664 -10.732080 0.324888 -3.943361 0.451812
    36 0.128195 -8.469950 -0.036710 0.028214 -0.126574 -0.073852
    37 0.447953 -2.798986 -0.200443 -0.766401 -0.129331 0.115023
    38 -0.032909 -1.499736 0.024472 -1.317840 0.023130 -0.024399
    39 -0.027022 -1.135516 -0.020210 -1.457332 0.024916 -0.028667
    40 -0.249534 -2.846964 -0.174213 -0.840251 -0.015933 -0.006622
    41 0.043235 -1.656596 0.072574 -1.342461 -0.021254 0.006221
    42 0.031729 -1.137392 0.051025 -1.488958 -0.016472 0.008684
    43 -0.963866 -2.785145 -0.085350 -0.692189 0.147942 -0.217960
    44 0.028479 -1.403067 -0.017167 -0.912717 -0.023190 -0.033125
    45 0.021413 -0.938249 0.004421 -1.329270 -0.041215 -0.037835
    46 1.164475 -2.543940 -0.170330 -0.761950 -0.355109 0.187253
    47 0.024032 -1.140761 -0.005631 -1.027049 0.002169 0.047053
    48 0.014898 -0.899614 -0.015942 -0.980908 0.008042 0.049281
    49 -0.586770 -1.264477 0.200161 0.341954 -0.697086 -2.918566
    50 1.561899 0.035243 0.016848 -0.017214 -0.006571 0.835038
    51 1.110134 0.040611 -0.005766 -0.036664 -0.031897 1.293241
    52 -0.139399 -0.111698 0.014397 -0.044786 -0.030687 1.580508
    53 -6.186585 6.163314 -0.380062 1.579654 -0.022733 -0.887089
  time 2
    0 -0.070055 -6.604867 -4.926086 -1.529070 -3.083990 1.558385
    1 7.256281 -6.789095 0.007775 1.570852 0.002703 1.570796
    2 5.050453 1.465882 -1.017509 -1.568094 -1.570796 0.000000
    3 5.626474 1.506707 -1.019152 -1.570686 -1.579097 0.002594
    4 6.206468 1.496605 -1.014370 -1.570777 -1.577000 -6.280407
    5 6.772547 1.478361 -1.017507 -1.568736 -1.570796 0.000000
    6 7.351276 1.468199 -1.013219 -1.568094 -1.570796 0.000000
    7 7.892139 1.457941 -1.013220 -1.568094 -1.570796 0.000000
    8 8.301605 1.169083 -1.014370 -1.563894 -1.576998 -0.004125
    9 8.469214 0.696302 -1.013290 -1.570510 -1.577010 0.002395
    10 7.343514 2.039688 -0.990803 0.000001 -1.570451 0.000000
    11 4.373582 -1.441754 -0.000001 -0.000006 0.000000 -1.560452
    12 1.562920 2.182060 0.829536 1.570774 -1.566830 1.570833
    13 4.731497 -2.650227 -0.000001 1.570796 0.000000 0.000000
    14 -6.085832 -8.128743 0.141889 3.141592 0.000000 0.000000
    15 -0.002752 -0.001265 -0.003287 0.000000 0.000000 0.000000
    16 7.364732 -0.651035 -8.393769 0.578487 -1.664811 -1.360075
    17 7.800348 -1.390069 -0.403721 -1.568261 -0.029042 -3.237112
    18 -0.083640 -8.545613 -0.115853 0.563432 0.230389 -0.026247
    19 -0.488518 -2.755602 -0.228260 -0.217645 0.067570 -0.276451
    20 0.039887 -1.534479 0.014229 -1.596812 -0.010882 0.035751
    21 0.028786 -1.208548 -0.132487 -1.366952 -0.014358 0.030740
    22 0.250027 -2.820665 -0.238396 -0.284011 -0.014546 -0.237277
    23 -0.049759 -1.598510 0.049696 -1.349022 0.004087 -0.036986
    24 -0.034142 -1.167844 0.049625 -1.065694 0.007478 -0.027888
    25 0.957766 -2.746780 -0.090302 0.232302 -0.188739 0.289376
    26 -0.033420 -1.397129 -0.026882 -0.828317 0.050803 -0.074941
    27 -0.022360 -0.957436 0.003159 -0.680035 0.007706 -0.032994
    28 -1.180681 -2.507217 -0.193859 -0.239554 0.256809 -0.312036
    29 -0.024967 -1.127840 0.017597 -1.386071 -0.005825 -0.057381
    30 -0.020057 -0.902687 0.025715 -0.813372 0.007466 -0.032694
    31 0.642106 -1.201183 0.208817 0.023810 -1.396598 0.068860
    32 1.430455 -0.267106 0.083136 0.090192 -0.258148 -0.988353
    33 1.014831 -0.175166 0.040104 0.076698 -0.232887 -0.981966
    34 0.120153 -0.050270 -0.054489 0.287569 3.110905 1.561085
    35 -5.349049 -11.317383 -10.931304 0.390252 -3.953935 0.490901
    36 0.128195 -8.462138 -0.036710 0.007164 -0.116455 -0.052821
    37 0.447953 -2.798986 -0.200443 -0.766401 -0.129331 0.115023
    38 -0.032909 -1.499736 0.024472 -1.317840 0.023130 -0.024399
    39 -0.027022 -1.135516 -0.020210 -1.457332 0.024916 -0.028667
    40 -0.249534 -2.846964 -0.174213 -0.840251 -0.015945 -0.006622
    41 0.043235 -1.656596 0.072574 -1.342461 -0.021254 0.006221
    42 0.031729 -1.137392 0.051025 -1.488958 -0.016472 0.008684
    43 -0.963866 -2.785145 -0.085350 -0.692189 0.147942 -0.217960
    44 0.028479 -1.403067 -0.017167 -0.912717 -0.023190 -0.033125
    45 0.021413 -0.938249 0.004421 -1.329270 -0.041215 -0.037835
    46 1.164475 -2.543940 -0.170330 -0.761950 -0.355109 0.187253
    47 0.024032 -1.140761 -0.005631 -1.027049 0.002169 0.047053
    48 0.014898 -0.899614 -0.015942 -0.980908 0.008042 0.049281
    49 -0.586770 -1.264477 0.200161 0.341954 -0.697086 -2.918566
    50 1.561899 0.035243 0.016848 -0.017214 -0.006571 0.835038
    51 1.110134 0.040611 -0.005766 -0.036664 -0.031897 1.293241
    52 -0.139399 -0.111698 0.014397 -0.044786 -0.030687 1.580508
    53 -6.518626 5.764865 -0.391781 1.578888 -0.024264 -0.824406
  time 3
    0 -0.003647 -6.530646 -4.820614 -1.526771 -3.068668 1.550513
    1 7.256281 -6.789095 0.007775 1.570852 0.002703 1.570796
    2 5.050453 1.477602 -1.017509 -1.568094 -1.570796 0.000000
    3 5.622568 1.561396 -1.019152 -1.570686 -1.579097 0.002594
    4 6.206468 1.539575 -1.014370 -1.570777 -1.577000 -6.280407
    5 6.772547 1.501799 -1.017507 -1.568736 -1.570796 0.000000
    6 7.351276 1.476012 -1.013219 -1.568094 -1.570796 0.000000
    7 7.892139 1.450128 -1.013220 -1.568094 -1.570796 0.000000
    8 8.301605 1.153457 -1.014370 -1.563894 -1.576986 -0.004125
    9 8.469214 0.696302 -1.013290 -1.570510 -1.576986 0.002395
    10 7.343514 2.039688 -0.990803 0.000001 -1.570451 0.000000
    11 4.373582 -1.441754 -0.000001 -0.000006 0.000000 -1.560452
    12 1.562920 2.182060 0.696720 1.570774 -1.566830 1.570833
    13 4.731497 -2.650227 -0.000001 1.570796 0.000000 0.000000
    14 -6.085832 -8.128743 0.141889 3.141592 0.000000 0.000000
    15 -0.002752 -0.001265 -0.003287 0.000000 0.000000 0.000000
    16 7.462391 -0.658847 -8.300016 0.583829 -1.667342 -1.369749
    17 7.800348 -1.390069 -0.403721 -1.568261 -0.029042 -3.237183
    18 -0.083640 -8.545613 -0.115853 0.560348 0.220010 -0.019024
    19 -0.488518 -2.755602 -0.228260 -0.217645 0.067570 -0.276451
    20 0.039887 -1.534479 0.014229 -1.596812 -0.010882 0.035751
    21 0.028786 -1.208548 -0.132487 -1.366952 -0.014358 0.030740
    22 0.250027 -2.820665 -0.238396 -0.284011 -0.014546 -0.237277
    23 -0.049759 -1.598510 0.049696 -1.349022 0.004087 -0.036986
    24 -0.034142 -1.167844 0.049625 -1.065694 0.007478 -0.027888
    25 0.957766 -2.746780 -0.090302 0.232302 -0.188739 0.289376
    26 -0.033420 -1.397129 -0.026882 -0.828317 0.050803 -0.074941
    27 -0.022360 -0.957436 0.003159 -0.680035 0.007706 -0.032994
    28 -1.180681 -2.507217 -0.193859 -0.239554 0.256809 -0.312036
    29 -0.024967 -1.127840 0.017597 -1.386071 -0.005825 -0.057381
    30 -0.020057 -0.902687 0.025715 -0.813372 0.007466 -0.032694
    31 0.642106 -1.201183 0.208817 0.023810 -1.396598 0.068846
    32 1.430455 -0.267106 0.083136 0.090192 -0.258148 -0.988353
    33 1.014831 -0.175166 0.040104 0.076698 -0.232887 -0.981966
    34 0.120153 -0.050270 -0.054489 0.287569 3.110905 1.561085
    35 -5.235764 -11.375979 -11.048495 0.470312 -3.958497 0.541830
    36 0.132101 -8.454325 -0.044522 -0.021371 -0.095669 -0.027087
    37 0.447953 -2.798986 -0.200443 -0.766401 -0.129331 0.115023
    38 -0.032909 -1.499736 0.024472 -1.317840 0.023130 -0.024399
    39 -0.027022 -1.135516 -0.020210 -1.457332 0.024916 -0.028667
    40 -0.249534 -2.846964 -0.174213 -0.840251 -0.015933 -0.006622
    41 0.043235 -1.656596 0.072574 -1.342461 -0.021254 0.006221
    42 0.031729 -1.137392 0.051025 -1.488958 -0.016472 0.008684
    43 -0.963866 -2.785145 -0.085350 -0.692189 0.147942 -0.217960
    44 0.028479 -1.403067 -0.017167 -0.912717 -0.023190 -0.033125
    45 0.021413 -0.938249 0.004421 -1.329270 -0.041215 -0.037835
    46 1.164475 -2.543940 -0.170330 -0.761950 -0.355109 0.187253
    47 0.024032 -1.140761 -0.005631 -1.027049 0.002169 0.047053
    48 0.014898 -0.899614 -0.015942 -0.980908 0.008042 0.049281
    49 -0.586770 -1.264477 0.200161 0.341954 -0.697086 -2.918566
    50 1.561899 0.035243 0.016848 -0.017214 -0.006571 0.835038
    51 1.110134 0.040611 -0.005766 -0.036664 -0.031897 1.293241
    52 -0.139399 -0.111698 0.014397 -0.044786 -0.030687 1.580508
    53 -6.760821 5.432823 -0.399594 1.578217 -0.025509 -0.774243
  time 4
    0 0.117451 -6.452519 -4.742487 -1.528208 -3.051431 1.544188
    1 7.256281 -6.789095 0.007775 1.570852 0.002703 1.570796
    2 5.050453 1.489321 -1.017509 -1.568094 -1.570796 0.000000
    3 5.622568 1.616085 -1.019152 -1.570686 -1.579097 0.002594
    4 6.206468 1.586452 -1.014370 -1.570777 -1.577000 -6.280407
    5 6.772547 1.525238 -1.017507 -1.568736 -1.570796 0.000000
    6 7.351276 1.487731 -1.013219 -1.568094 -1.570796 0.000000
    7 7.892139 1.446222 -1.013220 -1.568094 -1.570796 0.000000
    8 8.301605 1.141738 -1.014370 -1.563990 -1.577010 -0.004125
    9 8.469214 0.696302 -1.013290 -1.570510 -1.577010 0.002395
    10 7.343514 2.039688 -0.990803 0.000001 -1.570451 0.000000
    11 4.373582 -1.441754 -0.000001 -0.000006 0.000000 -1.560452
    12 1.562920 2.182060 0.446712 1.570774 -1.566830 1.570833
    13 4.731497 -2.650227 -0.000001 1.570796 0.000000 0.000000
    14 -6.085832 -8.128743 0.141889 3.141592 0.000000 0.000000
    15 -0.002752 -0.001265 -0.003287 0.000000 0.000000 0.000000
    16 7.603020 -0.662754 -8.167200 0.515049 -1.666920 -1.304799
    17 7.812068 -1.347099 -0.403721 -1.568357 -0.028947 -3.232114
    18 -0.083640 -8.549519 -0.119759 0.558688 0.212412 0.000092
    19 -0.488518 -2.755602 -0.228260 -0.217633 0.067570 -0.276451
    20 0.039887 -1.534479 0.014229 -1.596812 -0.010882 0.035751
    21 0.028786 -1.208548 -0.132487 -1.366952 -0.014358 0.030740
    22 0.250027 -2.820665 -0.238396 -0.284011 -0.014546 -0.237277
    23 -0.049759 -1.598510 0.049696 -1.349022 0.004087 -0.036986
    24 -0.034142 -1.167844 0.049625 -1.065694 0.007478 -0.027888
    25 0.957766 -2.746780 -0.090302 0.232302 -0.188739 0.289376
    26 -0.033420 -1.397129 -0.026882 -0.828317 0.050803 -0.074941
    27 -0.022360 -0.957436 0.003159 -0.680035 0.007706 -0.032994
    28 -1.180681 -2.507217 -0.193859 -0.239554 0.256809 -0.312036
    29 -0.024967 -1.127840 0.017597 -1.386071 -0.005825 -0.057381
    30 -0.020057 -0.902687 0.025715 -0.813372 0.007466 -0.032694
    31 0.642106 -1.201183 0.208817 0.023810 -1.396598 0.068846
    32 1.430455 -0.267106 0.083136 0.090192 -0.258148 -0.988353
    33 1.014831 -0.175166 0.040104 0.076698 -0.232887 -0.981966
    34 0.120153 -0.050270 -0.054489 0.287569 3.110905 1.561085
    35 -5.056071 -11.458012 -11.134436 0.550514 -3.961883 0.594263
    36 0.132101 -8.450418 -0.052335 -0.049939 -0.068915 -0.005186
    37 0.447953 -2.798986 -0.200443 -0.766401 -0.129331 0.115023
    38 -0.032909 -1.499736 0.024472 -1.317840 0.023130 -0.024399
    39 -0.027022 -1.135516 -0.020210 -1.457332 0.024916 -0.028667
    40 -0.249534 -2.846964 -0.174213 -0.840251 -0.015933 -0.006622
    41 0.043235 -1.656596 0.072574 -1.342461 -0.021254 0.006221
    42 0.031729 -1.137392 0.051025 -1.488958 -0.016472 0.008684
    43 -0.963866 -2.785145 -0.085350 -0.692189 0.147942 -0.217960
    44 0.028479 -1.403067 -0.017167 -0.912717 -0.023190 -0.033125
    45 0.021413 -0.938249 0.004421 -1.329270 -0.041215 -0.037835
    46 1.164475 -2.543940 -0.170330 -0.761950 -0.355109 0.187253
    47 0.024032 -1.140761 -0.005631 -1.027049 0.002169 0.047053
    48 0.014898 -0.899614 -0.015942 -0.980908 0.008042 0.049281
    49 -0.586770 -1.264477 0.200161 0.341954 -0.697086 -2.918566
    50 1.561899 0.035243 0.016848 -0.017214 -0.006571 0.835038
    51 1.110134 0.040611 -0.005766 -0.036664 -0.031897 1.293241
    52 -0.139399 -0.111698 0.014397 -0.044786 -0.030687 1.580508
    53 -6.932702 5.178909 -0.407407 1.577738 -0.026275 -0.737045
  time 5
    0 0.320582 -6.382204 -4.883116 -1.529262 -3.032949 1.543179
    1 7.256281 -6.789095 0.007775 1.570852 0.002703 1.570796
    2 5.050453 1.501040 -1.017509 -1.568094 -1.570796 0.000000
    3 5.622568 1.666868 -1.019152 -1.570686 -1.579097 0.002594
    4 6.206468 1.625515 -1.014370 -1.570777 -1.577000 -6.280407
    5 6.772547 1.548676 -1.017507 -1.568736 -1.570796 0.000000
    6 7.351276 1.499450 -1.013219 -1.568094 -1.570796 0.000000
    7 7.892139 1.442315 -1.013220 -1.568094 -1.570796 0.000000
    8 8.301605 1.126113 -1.014370 -1.563990 -1.577010 -0.004125
    9 8.469214 0.696302 -1.013290 -1.570510 -1.576986 0.002395
    10 7.343514 2.039688 -0.990803 0.000001 -1.570451 0.000000
    11 4.373582 -1.441754 -0.000001 -0.000006 0.000000 -1.560452
    12 1.562920 2.182060 0.313896 1.570774 -1.566830 1.570833
    13 4.731497 -2.650227 -0.000001 1.570796 0.000000 0.000000
    14 -6.085832 -8.128743 0.141889 3.141592 0.000000 0.000000
    15 -0.002752 -0.001265 -0.003287 0.000000 0.000000 0.000000
    16 7.790526 -0.619784 -8.022664 0.161417 -1.659749 -0.949652
    17 7.851131 -1.186938 -0.399814 -1.568741 -0.028660 -3.211768
    18 -0.083640 -8.557332 -0.119759 0.558106 0.204550 0.047234
    19 -0.488518 -2.755602 -0.228260 -0.217633 0.067570 -0.276451
    20 0.039887 -1.534479 0.014229 -1.596812 -0.010882 0.035751
    21 0.028786 -1.208548 -0.132487 -1.366952 -0.014358 0.030740
    22 0.250027 -2.820665 -0.238396 -0.284011 -0.014546 -0.237277
    23 -0.049759 -1.598510 0.049696 -1.349022 0.004087 -0.036986
    24 -0.034142 -1.167844 0.049625 -1.065694 0.007478 -0.027888
    25 0.957766 -2.746780 -0.090302 0.232302 -0.188739 0.289376
    26 -0.033420 -1.397129 -0.026882 -0.828317 0.050803 -0.074941
    27 -0.022360 -0.957436 0.003159 -0.680035 0.007706 -0.032994
    28 -1.180681 -2.507217 -0.193859 -0.239554 0.256809 -0.312036
    29 -0.024967 -1.127840 0.017597 -1.386071 -0.005825 -0.057381
    30 -0.020057 -0.902687 0.025715 -0.813372 0.007466 -0.032694
    31 0.642106 -1.201183 0.208817 0.023810 -1.396598 0.068846
    32 1.430455 -0.267106 0.083136 0.090192 -0.258148 -0.988353
    33 1.014831 -0.175166 0.040104 0.076698 -0.232887 -0.981966
    34 0.120153 -0.050270 -0.054489 0.287569 3.110905 1.561085
    35 -4.786532 -11.536140 -11.271158 0.609963 -3.973287 0.640964
    36 0.136008 -8.446512 -0.060148 -0.064607 -0.037405 0.001215
    37 0.447953 -2.798986 -0.200443 -0.766401 -0.129331 0.115023
    38 -0.032909 -1.499736 0.024472 -1.317840 0.023130 -0.024399
    39 -0.027022 -1.135516 -0.020210 -1.457332 0.024916 -0.028667
    40 -0.249534 -2.846964 -0.174213 -0.840251 -0.015945 -0.006622
    41 0.043235 -1.656596 0.072574 -1.342461 -0.021254 0.006221
    42 0.031729 -1.137392 0.051025 -1.488958 -0.016472 0.008684
    43 -0.963866 -2.785145 -0.085350 -0.692189 0.147942 -0.217960
    44 0.028479 -1.403067 -0.017167 -0.912717 -0.023190 -0.033125
    45 0.021413 -0.938249 0.004421 -1.329270 -0.041215 -0.037835
    46 1.164475 -2.543940 -0.170330 -0.761950 -0.355109 0.187253
    47 0.024032 -1.140761 -0.005631 -1.027049 0.002169 0.047053
    48 0.014898 -0.899614 -0.015942 -0.980908 0.008042 0.049281
    49 -0.586770 -1.264477 0.200161 0.341954 -0.697086 -2.918566
    50 1.561899 0.035243 0.016848 -0.017214 -0.006571 0.835038
    51 1.110134 0.040611 -0.005766 -0.036664 -0.031897 1.293241
    52 -0.139399 -0.111698 0.014397 -0.044786 -0.030687 1.580508
    53 -7.045986 4.995310 -0.411313 1.577355 -0.026849 -0.711113
  time 6
    0 0.605747 -6.386110 -4.804989 -1.523800 -3.035630 1.552262
    1 7.256281 -6.789095 0.007775 1.570852 0.002703 1.570796
    2 5.050453 1.508852 -1.017509 -1.568094 -1.570796 0.000000
    3 5.622568 1.705932 -1.019152 -1.570686 -1.579097 0.002594
    4 6.206468 1.656766 -1.014370 -1.570777 -1.577000 -6.280407
    5 6.772547 1.572114 -1.017507 -1.568736 -1.570796 0.000000
    6 7.351276 1.511169 -1.013219 -1.568094 -1.570796 0.000000
    7 7.892139 1.438409 -1.013220 -1.568094 -1.570796 0.000000
    8 8.301605 1.114394 -1.014370 -1.563990 -1.577010 -0.004125
    9 8.469214 0.696302 -1.013290 -1.570510 -1.577010 0.002395
    10 7.343514 2.039688 -0.990803 0.000001 -1.570451 0.000000
    11 4.373582 -1.441754 -0.000001 -0.000006 0.000000 -1.560452
    12 1.562920 2.182060 0.395930 1.570774 -1.566830 1.570833
    13 4.731497 -2.650227 -0.000001 1.570796 0.000000 0.000000
    14 -6.085832 -8.128743 0.141889 3.141592 0.000000 0.000000
    15 -0.002752 -0.001265 -0.003287 0.000000 0.000000 0.000000
    16 8.032721 -0.541656 -7.831252 0.013076 -1.667201 -0.791217
    17 7.831599 -1.272878 -0.403721 -1.568549 -0.028851 -3.222405
    18 -0.079734 -8.557332 -0.119759 0.558192 0.211033 0.054745
    19 -0.488518 -2.755602 -0.228260 -0.217633 0.067570 -0.276451
    20 0.039887 -1.534479 0.014229 -1.596812 -0.010882 0.035751
    21 0.028786 -1.208548 -0.132487 -1.366952 -0.014358 0.030740
    22 0.250027 -2.820665 -0.238396 -0.284011 -0.014546 -0.237277
    23 -0.049759 -1.598510 0.049696 -1.349022 0.004087 -0.036986
    24 -0.034142 -1.167844 0.049625 -1.065694 0.007478 -0.027888
    25 0.957766 -2.746780 -0.090302 0.232302 -0.188739 0.289376
    26 -0.033420 -1.397129 -0.026882 -0.828317 0.050803 -0.074941
    27 -0.022360 -0.957436 0.003159 -0.680035 0.007706 -0.032994
    28 -1.180681 -2.507217 -0.193859 -0.239554 0.256809 -0.312036
    29 -0.024967 -1.127840 0.017597 -1.386071 -0.005825 -0.057381
    30 -0.020057 -0.902687 0.025715 -0.813372 0.007466 -0.032694
    31 0.642106 -1.201183 0.208817 0.023810 -1.396598 0.068846
    32 1.430455 -0.267106 0.083136 0.090192 -0.258148 -0.988353
    33 1.014831 -0.175166 0.040104 0.076698 -0.232887 -0.981966
    34 0.120153 -0.050270 -0.054489 0.287569 3.110905 1.561085
    35 -4.388082 -11.649424 -11.400069 0.657435 -3.989874 0.695182
    36 0.139914 -8.442606 -0.064054 -0.077705 -0.011631 0.018240
    37 0.447953 -2.798986 -0.200443 -0.766401 -0.129331 0.115023
    38 -0.032909 -1.499736 0.024472 -1.317840 0.023130 -0.024399
    39 -0.027022 -1.135516 -0.020210 -1.457332 0.024916 -0.028667
    40 -0.249534 -2.846964 -0.174213 -0.840251 -0.015933 -0.006622
    41 0.043235 -1.656596 0.072574 -1.342461 -0.021254 0.006221
    42 0.031729 -1.137392 0.051025 -1.488958 -0.016472 0.008684
    43 -0.963866 -2.785145 -0.085350 -0.692189 0.147942 -0.217960
    44 0.028479 -1.403067 -0.017167 -0.912717 -0.023190 -0.033125
    45 0.021413 -0.938249 0.004421 -1.329270 -0.041215 -0.037835
    46 1.164475 -2.543940 -0.170330 -0.761950 -0.355109 0.187253
    47 0.024032 -1.140761 -0.005631 -1.027049 0.002169 0.047053
    48 0.014898 -0.899614 -0.015942 -0.980908 0.008042 0.049281
    49 -0.586770 -1.264477 0.200161 0.341954 -0.697086 -2.918566
    50 1.561899 0.035243 0.016848 -0.017214 -0.006571 0.835038
    51 1.110134 0.040611 -0.005766 -0.036664 -0.031897 1.293241
    52 -0.139399 -0.111698 0.014397 -0.044786 -0.030687 1.580508
    53 -7.081144 4.936714 -0.411313 1.577259 -0.027136 -0.702440
  time 7
    0 0.894818 -6.401736 -4.711236 -1.517380 -3.040035 1.563162
    1 7.256281 -6.789095 0.007775 1.570852 0.002703 1.570796
    2 5.050453 1.512759 -1.017509 -1.568094 -1.570796 0.000000
    3 5.622568 1.721557 -1.019152 -1.570686 -1.579097 0.002594
    4 6.206468 1.668485 -1.014370 -1.570777 -1.577000 -6.280407
    5 6.772547 1.583833 -1.017507 -1.568736 -1.570796 0.000000
    6 7.351276 1.518982 -1.013219 -1.568094 -1.570796 0.000000
    7 7.892139 1.438409 -1.013220 -1.568094 -1.570796 0.000000
    8 8.301605 1.102675 -1.014370 -1.563894 -1.576998 -0.004125
    9 8.469214 0.696302 -1.013290 -1.570510 -1.577010 0.002395
    10 7.343514 2.039688 -0.990803 0.000001 -1.570451 0.000000
    11 4.373582 -1.441754 -0.000001 -0.000006 0.000000 -1.560452
    12 1.562920 2.182060 0.477963 1.570774 -1.566830 1.570833
    13 4.731497 -2.650227 -0.000001 1.570796 0.000000 0.000000
    14 -6.085832 -8.128743 0.141889 3.141592 0.000000 0.000000
    15 -0.002752 -0.001265 -0.003287 0.000000 0.000000 0.000000
    16 8.278822 -0.463529 -7.620308 6.172780 -1.677887 -0.657657
    17 7.808161 -1.362724 -0.403721 -1.568357 -0.029042 -3.234042
    18 -0.079734 -8.557332 -0.115853 0.559939 0.219507 0.060440
    19 -0.488518 -2.755602 -0.228260 -0.217633 0.067570 -0.276451
    20 0.039887 -1.534479 0.014229 -1.596812 -0.010882 0.035751
    21 0.028786 -1.208548 -0.132487 -1.366952 -0.014358 0.030740
    22 0.250027 -2.820665 -0.238396 -0.284011 -0.014546 -0.237277
    23 -0.049759 -1.598510 0.049696 -1.349022 0.004087 -0.036986
    24 -0.034142 -1.167844 0.049625 -1.065694 0.007478 -0.027888
    25 0.957766 -2.746780 -0.090302 0.232302 -0.188739 0.289376
    26 -0.033420 -1.397129 -0.026882 -0.828317 0.050803 -0.074941
    27 -0.022360 -0.957436 0.003159 -0.680035 0.007706 -0.032994
    28 -1.180681 -2.507217 -0.193859 -0.239554 0.256809 -0.312036
    29 -0.024967 -1.127840 0.017597 -1.386071 -0.005825 -0.057381
    30 -0.020057 -0.902687 0.025715 -0.813372 0.007466 -0.032694
    31 0.642106 -1.201183 0.208817 0.023810 -1.396598 0.068846
    32 1.430455 -0.267106 0.083136 0.090192 -0.258148 -0.988353
    33 1.014831 -0.175166 0.040104 0.076698 -0.232887 -0.981966
    34 0.120153 -0.050270 -0.054489 0.287569 3.110905 1.561085
    35 -3.966194 -11.762709 -11.501634 0.701568 -4.007083 0.748836
    36 0.143820 -8.438699 -0.071867 -0.088831 0.012932 0.033132
    37 0.447953 -2.798986 -0.200443 -0.766401 -0.129331 0.115023
    38 -0.032909 -1.499736 0.024472 -1.317840 0.023130 -0.024399
    39 -0.027022 -1.135516 -0.020210 -1.457332 0.024916 -0.028667
    40 -0.249534 -2.846964 -0.174213 -0.840251 -0.015933 -0.006622
    41 0.043235 -1.656596 0.072574 -1.342461 -0.021254 0.006221
    42 0.031729 -1.137392 0.051025 -1.488958 -0.016472 0.008684
    43 -0.963866 -2.785145 -0.085350 -0.692189 0.147942 -0.217960
    44 0.028479 -1.403067 -0.017167 -0.912717 -0.023190 -0.033125
    45 0.021413 -0.938249 0.004421 -1.329270 -0.041215 -0.037835
    46 1.164475 -2.543940 -0.170330 -0.761950 -0.355109 0.187253
    47 0.024032 -1.140761 -0.005631 -1.027049 0.002169 0.047053
    48 0.014898 -0.899614 -0.015942 -0.980908 0.008042 0.049281
    49 -0.586770 -1.264477 0.200161 0.341954 -0.697086 -2.918566
    50 1.561899 0.035243 0.016848 -0.017214 -0.006571 0.835038
    51 1.110134 0.040611 -0.005766 -0.036664 -0.031897 1.293241
    52 -0.139399 -0.111698 0.014397 -0.044786 -0.030687 1.580508
    53 -7.081144 4.932808 -0.411313 1.577259 -0.027136 -0.702172
  time 8
    0 1.187796 -6.425174 -4.613576 -4.652216 -0.096121 -1.566914
    1 7.256281 -6.789095 0.007775 1.570852 0.002703 1.570796
    2 5.050453 1.504946 -1.017509 -1.568094 -1.570796 0.000000
    3 5.622568 1.709838 -1.019152 -1.570686 -1.579097 0.002594
    4 6.206468 1.668485 -1.014370 -1.570777 -1.577000 -6.280503
    5 6.772547 1.591646 -1.017507 -1.568736 -1.570796 0.000000
    6 7.351276 1.522888 -1.013219 -1.568094 -1.570796 0.000000
    7 7.892139 1.442315 -1.013220 -1.568094 -1.570796 0.000000
    8 8.301605 1.098768 -1.014370 -1.563894 -1.577010 -0.004125
    9 8.469214 0.696302 -1.013290 -1.570510 -1.576986 0.002395
    10 7.343514 2.039688 -0.990803 0.000001 -1.570451 0.000000
    11 4.373582 -1.441754 -0.000001 -0.000006 0.000000 -1.560452
    12 1.562920 2.182060 0.395930 1.570774 -1.566830 1.570833
    13 4.731497 -2.650227 -0.000001 1.570796 0.000000 0.000000
    14 -6.085832 -8.128743 0.141889 3.141592 0.000000 0.000000
    15 -0.002752 -0.001265 -0.003287 0.000000 0.000000 0.000000
    16 8.517110 -0.381495 -7.401551 6.073187 -1.690963 -0.546829
    17 7.780817 -1.464290 -0.403721 -1.568165 -0.029138 -3.246749
    18 -0.075827 -8.561238 -0.115853 0.561103 0.229442 0.065269
    19 -0.488518 -2.755602 -0.228260 -0.217633 0.067570 -0.276451
    20 0.039887 -1.534479 0.014229 -1.596812 -0.010882 0.035751
    21 0.028786 -1.208548 -0.132487 -1.366952 -0.014358 0.030740
    22 0.250027 -2.820665 -0.238396 -0.284011 -0.014546 -0.237277
    23 -0.049759 -1.598510 0.049696 -1.349022 0.004087 -0.036986
    24 -0.034142 -1.167844 0.049625 -1.065694 0.007478 -0.027888
    25 0.957766 -2.746780 -0.090302 0.232302 -0.188739 0.289376
    26 -0.033420 -1.397129 -0.026882 -0.828317 0.050803 -0.074941
    27 -0.022360 -0.957436 0.003159 -0.680035 0.007706 -0.032994
    28 -1.180681 -2.507217 -0.193859 -0.239554 0.256809 -0.312036
    29 -0.024967 -1.127840 0.017597 -1.386071 -0.005825 -0.057381
    30 -0.020057 -0.902687 0.025715 -0.813372 0.007466 -0.032694
    31 0.642106 -1.201183 0.208817 0.023810 -1.396598 0.068846
    32 1.430455 -0.267106 0.083136 0.090192 -0.258148 -0.988353
    33 1.014831 -0.175166 0.040104 0.076698 -0.232887 -0.981966
    34 0.120153 -0.050270 -0.054489 0.287569 3.110905 1.561085
    35 -3.536494 -11.860368 -11.583668 0.742791 -4.024361 0.801269
    36 0.143820 -8.434793 -0.075773 -0.097619 0.036543 0.046195
    37 0.447953 -2.798986 -0.200443 -0.766401 -0.129331 0.115023
    38 -0.032909 -1.499736 0.024472 -1.317840 0.023130 -0.024399
    39 -0.027022 -1.135516 -0.020210 -1.457332 0.024916 -0.028667
    40 -0.249534 -2.846964 -0.174213 -0.840251 -0.015933 -0.006622
    41 0.043235 -1.656596 0.072574 -1.342461 -0.021254 0.006221
    42 0.031729 -1.137392 0.051025 -1.488958 -0.016472 0.008684
    43 -0.963866 -2.785145 -0.085350 -0.692189 0.147942 -0.217960
    44 0.028479 -1.403067 -0.017167 -0.912717 -0.023190 -0.033125
    45 0.021413 -0.938249 0.004421 -1.329270 -0.041215 -0.037835
    46 1.164475 -2.543940 -0.170330 -0.761950 -0.355109 0.187253
    47 0.024032 -1.140761 -0.005631 -1.027049 0.002169 0.047053
    48 0.014898 -0.899614 -0.015942 -0.980908 0.008042 0.049281
    49 -0.586770 -1.264477 0.200161 0.341954 -0.697086 -2.918566
    50 1.561899 0.035243 0.016848 -0.017214 -0.006571 0.835038
    51 1.110134 0.040611 -0.005766 -0.036664 -0.031897 1.293241
    52 -0.139399 -0.111698 0.014397 -0.044786 -0.030687 1.580508
    53 -7.053799 4.979684 -0.411313 1.577355 -0.026945 -0.708789
  time 9
    0 1.488586 -6.444706 -4.504198 -4.645605 -0.090471 -1.556283
    1 7.256281 -6.789095 0.007775 1.570852 0.002703 1.570796
    2 5.050453 1.489321 -1.017509 -1.568094 -1.570796 0.000000
    3 5.622568 1.686400 -1.019152 -1.570686 -1.579097 0.002594
    4 6.206468 1.668485 -1.014370 -1.570777 -1.577000 -6.280407
    5 6.772547 1.591646 -1.017507 -1.568736 -1.570796 0.000000
    6 7.351276 1.530701 -1.013219 -1.568094 -1.570796 0.000000
    7 7.892139 1.454035 -1.013220 -1.568094 -1.570796 0.000000
    8 8.301605 1.098768 -1.014370 -1.563894 -1.576998 -0.004125
    9 8.469214 0.696302 -1.013290 -1.570510 -1.577010 0.002395
    10 7.343514 2.039688 -0.990803 0.000001 -1.570451 0.000000
    11 4.373582 -1.441754 -0.000001 -0.000006 0.000000 -1.560452
    12 1.562920 2.182060 0.313896 1.570774 -1.566830 1.570833
    13 4.731497 -2.650227 -0.000001 1.570796 0.000000 0.000000
    14 -6.085832 -8.128743 0.141889 3.141592 0.000000 0.000000
    15 -0.002752 -0.001265 -0.003287 0.000000 0.000000 0.000000
    16 8.747586 -0.287742 -7.171075 5.993150 -1.705515 -0.453551
    17 7.749566 -1.573668 -0.407627 -1.567878 -0.029329 -3.260670
    18 -0.075827 -8.561238 -0.115853 0.559507 0.240276 0.070041
    19 -0.488518 -2.755602 -0.228260 -0.217633 0.067570 -0.276451
    20 0.039887 -1.534479 0.014229 -1.596812 -0.010882 0.035751
    21 0.028786 -1.208548 -0.132487 -1.366952 -0.014358 0.030740
    22 0.250027 -2.820665 -0.238396 -0.284011 -0.014546 -0.237277
    23 -0.049759 -1.598510 0.049696 -1.349022 0.004087 -0.036986
    24 -0.034142 -1.167844 0.049625 -1.065694 0.007478 -0.027888
    25 0.957766 -2.746780 -0.090302 0.232302 -0.188739 0.289376
    26 -0.033420 -1.397129 -0.026882 -0.828317 0.050803 -0.074941
    27 -0.022360 -0.957436 0.003159 -0.680035 0.007706 -0.032994
    28 -1.180681 -2.507217 -0.193859 -0.239554 0.256809 -0.312036
    29 -0.024967 -1.127840 0.017597 -1.386071 -0.005825 -0.057381
    30 -0.020057 -0.902687 0.025715 -0.813372 0.007466 -0.032694
    31 0.642106 -1.201183 0.208817 0.023810 -1.396598 0.068846
    32 1.430455 -0.267106 0.083136 0.090192 -0.258148 -0.988353
    33 1.014831 -0.175166 0.040104 0.076698 -0.232887 -0.981966
    34 0.120153 -0.050270 -0.054489 0.287569 3.110905 1.561085
    35 -3.114606 -11.946308 -11.638357 0.781580 -4.041086 0.852198
    36 0.143820 -8.430887 -0.083586 -0.103867 0.059491 0.057820
    37 0.447953 -2.798986 -0.200443 -0.766401 -0.129331 0.115023
    38 -0.032909 -1.499736 0.024472 -1.317840 0.023130 -0.024399
    39 -0.027022 -1.135516 -0.020210 -1.457332 0.024916 -0.028667
    40 -0.249534 -2.846964 -0.174213 -0.840251 -0.015945 -0.006622
    41 0.043235 -1.656596 0.072574 -1.342461 -0.021254 0.006221
    42 0.031729 -1.137392 0.051025 -1.488958 -0.016472 0.008684
    43 -0.963866 -2.785145 -0.085350 -0.692189 0.147942 -0.217960
    44 0.028479 -1.403067 -0.017167 -0.912717 -0.023190 -0.033125
    45 0.021413 -0.938249 0.004421 -1.329270 -0.041215 -0.037835
    46 1.164475 -2.543940 -0.170330 -0.761950 -0.355109 0.187253
    47 0.024032 -1.140761 -0.005631 -1.027049 0.002169 0.047053
    48 0.014898 -0.899614 -0.015942 -0.980908 0.008042 0.049281
    49 -0.586770 -1.264477 0.200161 0.341954 -0.697086 -2.918566
    50 1.561899 0.035243 0.016848 -0.017214 -0.006571 0.835038
    51 1.110134 0.040611 -0.005766 -0.036664 -0.031897 1.293241
    52 -0.139399 -0.111698 0.014397 -0.044786 -0.030687 1.580508
    53 -7.006923 5.061718 -0.411313 1.577546 -0.026657 -0.720323
  time 10
    0 1.797190 -6.464238 -4.394820 -4.639855 -0.085300 -1.547604
    1 7.256281 -6.789095 0.007775 1.570852 0.002703 1.570796
    2 5.050453 1.469789 -1.017509 -1.568094 -1.570796 0.000000
    3 5.622568 1.651243 -1.019152 -1.570686 -1.579097 0.002594
    4 6.206468 1.664579 -1.014370 -1.570777 -1.577000 -6.280407
    5 6.772547 1.595552 -1.017507 -1.568736 -1.570796 0.000000
    6 7.351276 1.534607 -1.013219 -1.568094 -1.570796 0.000000
    7 7.892139 1.461847 -1.013220 -1.568094 -1.570796 0.000000
    8 8.301605 1.098768 -1.014370 -1.563894 -1.576998 -0.004125
    9 8.469214 0.696302 -1.013290 -1.570510 -1.577010 0.002395
    10 7.343514 2.039688 -0.990803 0.000001 -1.570451 0.000000
    11 4.373582 -1.441754 -0.000001 -0.000006 0.000000 -1.560452
    12 1.562920 2.182060 0.313896 1.570774 -1.566830 1.570833
    13 4.731497 -2.650227 -0.000001 1.570796 0.000000 0.000000
    14 -6.085832 -8.128743 0.141889 3.141592 0.000000 0.000000
    15 -0.002752 -0.001265 -0.003287 0.000000 0.000000 0.000000
    16 8.962437 -0.186177 -6.944506 5.927804 -1.720841 -0.372295
    17 7.714408 -1.690859 -0.407627 -1.567686 -0.029520 -3.275876
    18 -0.071921 -8.561238 -0.111947 0.552973 0.251362 0.075433
    19 -0.488518 -2.755602 -0.228260 -0.217633 0.067570 -0.276451
    20 0.039887 -1.534479 0.014229 -1.596812 -0.010882 0.035751
    21 0.028786 -1.208548 -0.132487 -1.366952 -0.014358 0.030740
    22 0.250027 -2.820665 -0.238396 -0.284011 -0.014546 -0.237277
    23 -0.049759 -1.598510 0.049696 -1.349022 0.004087 -0.036986
    24 -0.034142 -1.167844 0.049625 -1.065694 0.007478 -0.027888
    25 0.957766 -2.746780 -0.090302 0.232302 -0.188739 0.289376
    26 -0.033420 -1.397129 -0.026882 -0.828317 0.050803 -0.074941
    27 -0.022360 -0.957436 0.003159 -0.680035 0.007706 -0.032994
    28 -1.180681 -2.507217 -0.193859 -0.239554 0.256809 -0.312036
    29 -0.024967 -1.127840 0.017597 -1.386071 -0.005825 -0.057381
    30 -0.020057 -0.902687 0.025715 -0.813372 0.007466 -0.032694
    31 0.642106 -1.201183 0.208817 0.023810 -1.396598 0.068846
    32 1.430455 -0.267106 0.083136 0.090192 -0.258148 -0.988353
    33 1.014831 -0.175166 0.040104 0.076698 -0.232887 -0.981966
    34 0.120153 -0.050270 -0.054489 0.287569 3.110905 1.561085
    35 -2.708343 -12.012717 -11.673514 0.818461 -4.056429 0.901060
    36 0.147727 -8.426980 -0.087492 -0.107442 0.082151 0.068532
    37 0.447953 -2.798986 -0.200443 -0.766401 -0.129331 0.115023
    38 -0.032909 -1.499736 0.024472 -1.317840 0.023130 -0.024399
    39 -0.027022 -1.135516 -0.020210 -1.457332 0.024916 -0.028667
    40 -0.249534 -2.846964 -0.174213 -0.840251 -0.015945 -0.006622
    41 0.043235 -1.656596 0.072574 -1.342461 -0.021254 0.006221
    42 0.031729 -1.137392 0.051025 -1.488958 -0.016472 0.008684
    43 -0.963866 -2.785145 -0.085350 -0.692189 0.147942 -0.217960
    44 0.028479 -1.403067 -0.017167 -0.912717 -0.023190 -0.033125
    45 0.021413 -0.938249 0.004421 -1.329270 -0.041215 -0.037835
    46 1.164475 -2.543940 -0.170330 -0.761950 -0.355109 0.187253
    47 0.024032 -1.140761 -0.005631 -1.027049 0.002169 0.047053
    48 0.014898 -0.899614 -0.015942 -0.980908 0.008042 0.049281
    49 -0.586770 -1.264477 0.200161 0.341954 -0.697086 -2.918566
    50 1.561899 0.035243 0.016848 -0.017214 -0.006571 0.835038
    51 1.110134 0.040611 -0.005766 -0.036664 -0.031897 1.293241
    52 -0.139399 -0.111698 0.014397 -0.044786 -0.030687 1.580508
    53 -6.940514 5.163284 -0.407407 1.577738 -0.026370 -0.734899
  time 11
    0 2.113605 -6.475957 -4.297161 -4.635639 -0.081566 -1.542288
    1 7.256281 -6.789095 0.007775 1.570852 0.002703 1.570796
    2 5.050453 1.450257 -1.017509 -1.568094 -1.570796 0.000000
    3 5.622568 1.616085 -1.019152 -1.570686 -1.579097 0.002594
    4 6.206468 1.660673 -1.014370 -1.570777 -1.577000 -6.280503
    5 6.772547 1.595552 -1.017507 -1.568736 -1.570796 0.000000
    6 7.351276 1.534607 -1.013219 -1.568094 -1.570796 0.000000
    7 7.892139 1.469660 -1.013220 -1.568094 -1.570796 0.000000
    8 8.301605 1.098768 -1.014370 -1.563894 -1.576986 -0.004125
    9 8.469214 0.696302 -1.013290 -1.570510 -1.577010 0.002395
    10 7.343514 2.039688 -0.990803 0.000001 -1.570451 0.000000
    11 4.373582 -1.441754 -0.000001 -0.000006 0.000000 -1.560452
    12 1.562920 2.182060 0.313896 1.570774 -1.566830 1.570833
    13 4.731497 -2.650227 -0.000001 1.570796 0.000000 0.000000
    14 -6.085832 -8.128743 0.141889 3.141592 0.000000 0.000000
    15 -0.002752 -0.001265 -0.003287 0.000000 0.000000 0.000000
    16 9.149942 -0.068986 -6.725749 5.873524 -1.736096 -0.298226
    17 7.671438 -1.819770 -0.407627 -1.567398 -0.029711 -3.292153
    18 -0.071921 -8.557332 -0.111947 0.539301 0.261980 0.082021
    19 -0.488518 -2.755602 -0.228260 -0.217633 0.067570 -0.276451
    20 0.039887 -1.534479 0.014229 -1.596812 -0.010882 0.035751
    21 0.028786 -1.208548 -0.132487 -1.366952 -0.014358 0.030740
    22 0.250027 -2.820665 -0.238396 -0.284011 -0.014546 -0.237277
    23 -0.049759 -1.598510 0.049696 -1.349022 0.004087 -0.036986
    24 -0.034142 -1.167844 0.049625 -1.065694 0.007478 -0.027888
    25 0.957766 -2.746780 -0.090302 0.232302 -0.188739 0.289376
    26 -0.033420 -1.397129 -0.026882 -0.828317 0.050803 -0.074941
    27 -0.022360 -0.957436 0.003159 -0.680035 0.007706 -0.032994
    28 -1.180681 -2.507217 -0.193859 -0.239554 0.256809 -0.312036
    29 -0.024967 -1.127840 0.017597 -1.386071 -0.005825 -0.057381
    30 -0.020057 -0.902687 0.025715 -0.813372 0.007466 -0.032694
    31 0.642106 -1.201183 0.208817 0.023810 -1.396598 0.068846
    32 1.430455 -0.267106 0.083136 0.090192 -0.258148 -0.988353
    33 1.014831 -0.175166 0.040104 0.076698 -0.232887 -0.981966
    34 0.120153 -0.050270 -0.054489 0.287569 3.110905 1.561085
    35 -2.337238 -12.063500 -11.693046 0.854149 -4.069492 0.947573
    36 0.147727 -8.423074 -0.091399 -0.108344 0.104984 0.078982
    37 0.447953 -2.798986 -0.200443 -0.766401 -0.129331 0.115023
    38 -0.032909 -1.499736 0.024472 -1.317840 0.023130 -0.024399
    39 -0.027022 -1.135516 -0.020210 -1.457332 0.024916 -0.028667
    40 -0.249534 -2.846964 -0.174213 -0.840251 -0.015933 -0.006622
    41 0.043235 -1.656596 0.072574 -1.342461 -0.021254 0.006221
    42 0.031729 -1.137392 0.051025 -1.488958 -0.016472 0.008684
    43 -0.963866 -2.785145 -0.085350 -0.692189 0.147942 -0.217960
    44 0.028479 -1.403067 -0.017167 -0.912717 -0.023190 -0.033125
    45 0.021413 -0.938249 0.004421 -1.329270 -0.041215 -0.037835
    46 1.164475 -2.543940 -0.170330 -0.761950 -0.355109 0.187253
    47 0.024032 -1.140761 -0.005631 -1.027049 0.002169 0.047053
    48 0.014898 -0.899614 -0.015942 -0.980908 0.008042 0.049281
    49 -0.586770 -1.264477 0.200161 0.341954 -0.697086 -2.918566
    50 1.561899 0.035243 0.016848 -0.017214 -0.006571 0.835038
    51 1.110134 0.040611 -0.005766 -0.036664 -0.031897 1.293241
    52 -0.139399 -0.111698 0.014397 -0.044786 -0.030687 1.580508
    53 -6.874106 5.264849 -0.403501 1.577930 -0.025987 -0.749921
  time 12
    0 2.531587 -6.608773 -4.273722 -4.631423 -0.080129 -1.540606
    1 7.256281 -6.789095 0.007775 1.570852 0.002703 1.570796
    2 5.050453 1.434631 -1.017509 -1.568094 -1.570796 0.000000
    3 5.622568 1.584834 -1.019152 -1.570686 -1.579097 0.002594
    4 6.206468 1.633328 -1.014370 -1.570777 -1.577000 -6.280407
    5 6.772547 1.576020 -1.017507 -1.568736 -1.570796 0.000000
    6 7.351276 1.522888 -1.013219 -1.568094 -1.570796 0.000000
    7 7.892139 1.469660 -1.013220 -1.568094 -1.570796 0.000000
    8 8.301605 1.098768 -1.014370 -1.563894 -1.576998 -0.004125
    9 8.469214 0.696302 -1.013290 -1.570510 -1.576986 0.002395
    10 7.343514 2.039688 -0.990803 0.000001 -1.570451 0.000000
    11 4.373582 -1.441754 -0.000001 -0.000006 0.000000 -1.560452
    12 1.562920 2.182060 0.313896 1.570774 -1.566830 1.570833
    13 4.731497 -2.650227 -0.000001 1.570796 0.000000 0.000000
    14 -6.085832 -8.128743 0.141889 3.141592 0.000000 0.000000
    15 -0.002752 -0.001265 -0.003287 0.000000 0.000000 0.000000
    16 9.302291 0.005235 -6.553869 5.829928 -1.761123 -0.216072
    17 7.667532 -1.827582 -0.407627 -1.567303 -0.029807 -3.293652
    18 -0.071921 -8.553426 -0.108040 0.503739 0.279537 0.092070
    19 -0.488518 -2.755602 -0.228260 -0.217633 0.067570 -0.276451
    20 0.039887 -1.534479 0.014229 -1.596812 -0.010882 0.035751
    21 0.028786 -1.208548 -0.132487 -1.366952 -0.014358 0.030740
    22 0.250027 -2.820665 -0.238396 -0.284011 -0.014546 -0.237277
    23 -0.049759 -1.598510 0.049696 -1.349022 0.004087 -0.036986
    24 -0.034142 -1.167844 0.049625 -1.065694 0.007478 -0.027888
    25 0.957766 -2.746780 -0.090302 0.232302 -0.188739 0.289376
    26 -0.033420 -1.397129 -0.026882 -0.828317 0.050803 -0.074941
    27 -0.022360 -0.957436 0.003159 -0.680035 0.007706 -0.032994
    28 -1.180681 -2.507217 -0.193859 -0.239554 0.256809 -0.312036
    29 -0.024967 -1.127840 0.017597 -1.386071 -0.005825 -0.057381
    30 -0.020057 -0.902687 0.025715 -0.813372 0.007466 -0.032694
    31 0.642106 -1.201183 0.208817 0.023810 -1.396598 0.068846
    32 1.430455 -0.267106 0.083136 0.090192 -0.258148 -0.988353
    33 1.014831 -0.175166 0.040104 0.076698 -0.232887 -0.981966
    34 0.120153 -0.050270 -0.054489 0.287569 3.110905 1.561085
    35 -1.930976 -12.157252 -11.614919 0.868367 -4.094510 0.976890
    36 0.151633 -8.426980 -0.095305 -0.097118 0.128797 0.073147
    37 0.447953 -2.798986 -0.200443 -0.766401 -0.129331 0.115023
    38 -0.032909 -1.499736 0.024472 -1.317840 0.023130 -0.024399
    39 -0.027022 -1.135516 -0.020210 -1.457332 0.024916 -0.028667
    40 -0.249534 -2.846964 -0.174213 -0.840251 -0.015933 -0.006622
    41 0.043235 -1.656596 0.072574 -1.342461 -0.021254 0.006221
    42 0.031729 -1.137392 0.051025 -1.488958 -0.016472 0.008684
    43 -0.963866 -2.785145 -0.085350 -0.692189 0.147942 -0.217960
    44 0.028479 -1.403067 -0.017167 -0.912717 -0.023190 -0.033125
    45 0.021413 -0.938249 0.004421 -1.329270 -0.041215 -0.037835
    46 1.164475 -2.543940 -0.170330 -0.761950 -0.355109 0.187253
    47 0.024032 -1.140761 -0.005631 -1.027049 0.002169 0.047053
    48 0.014898 -0.899614 -0.015942 -0.980908 0.008042 0.049281
    49 -0.586770 -1.264477 0.200161 0.341954 -0.697086 -2.918566
    50 1.561899 0.035243 0.016848 -0.017214 -0.006571 0.835038
    51 1.110134 0.040611 -0.005766 -0.036664 -0.031897 1.293241
    52 -0.139399 -0.111698 0.014397 -0.044786 -0.030687 1.580508
    53 -6.624098 5.624235 -0.395688 1.578600 -0.024839 -0.802946
  time 13
    0 3.027696 -6.780654 -4.277629 -4.627303 -0.079650 -1.540875
    1 7.256281 -6.789095 0.007775 1.570852 0.002703 1.570796
    2 5.050453 1.419006 -1.017509 -1.568094 -1.570796 0.000000
    3 5.622568 1.545771 -1.019152 -1.570686 -1.579097 0.002594
    4 6.206468 1.574732 -1.014370 -1.570777 -1.577000 -6.280407
    5 6.772547 1.529144 -1.017507 -1.568736 -1.570796 0.000000
    6 7.351276 1.499450 -1.013219 -1.568094 -1.570796 0.000000
    7 7.892139 1.469660 -1.013220 -1.568094 -1.570796 0.000000
    8 8.301605 1.106581 -1.014370 -1.563894 -1.577010 -0.004125
    9 8.469214 0.696302 -1.013290 -1.570510 -1.577010 0.002395
    10 7.343514 2.039688 -0.990803 0.000001 -1.570451 0.000000
    11 4.373582 -1.441754 -0.000001 -0.000006 0.000000 -1.560452
    12 1.562920 2.182060 0.313896 1.570774 -1.566830 1.570833
    13 4.731497 -2.650227 -0.000001 1.570796 0.000000 0.000000
    14 -6.085832 -8.128743 0.141889 3.141592 0.000000 0.000000
    15 -0.002752 -0.001265 -0.003287 0.000000 0.000000 0.000000
    16 9.427294 0.083363 -6.413240 5.806747 -1.790017 -0.142140
    17 7.671438 -1.819770 -0.407627 -1.567303 -0.029711 -3.292581
    18 -0.068015 -8.545613 -0.104134 0.454031 0.300391 0.101311
    19 -0.488518 -2.755602 -0.228260 -0.217633 0.067570 -0.276451
    20 0.039887 -1.534479 0.014229 -1.596812 -0.010882 0.035751
    21 0.028786 -1.208548 -0.132487 -1.366952 -0.014358 0.030740
    22 0.250027 -2.820665 -0.238396 -0.284011 -0.014546 -0.237277
    23 -0.049759 -1.598510 0.049696 -1.349022 0.004087 -0.036986
    24 -0.034142 -1.167844 0.049625 -1.065694 0.007478 -0.027888
    25 0.957766 -2.746780 -0.090302 0.232302 -0.188739 0.289376
    26 -0.033420 -1.397129 -0.026882 -0.828317 0.050803 -0.074941
    27 -0.022360 -0.957436 0.003159 -0.680035 0.007706 -0.032994
    28 -1.180681 -2.507217 -0.193859 -0.239554 0.256809 -0.312036
    29 -0.024967 -1.127840 0.017597 -1.386071 -0.005825 -0.057381
    30 -0.020057 -0.902687 0.025715 -0.813372 0.007466 -0.032694
    31 0.642106 -1.201183 0.208817 0.023810 -1.396598 0.068846
    32 1.430455 -0.267106 0.083136 0.090192 -0.258148 -0.988353
    33 1.014831 -0.175166 0.040104 0.076698 -0.232887 -0.981966
    34 0.120153 -0.050270 -0.054489 0.287569 3.110905 1.561085
    35 -1.509088 -12.254912 -11.482102 0.869559 -4.123883 0.998126
    36 0.155540 -8.430887 -0.099211 -0.077371 0.151947 0.061739
    37 0.447953 -2.798986 -0.200443 -0.766401 -0.129331 0.115023
    38 -0.032909 -1.499736 0.024472 -1.317840 0.023130 -0.024399
    39 -0.027022 -1.135516 -0.020210 -1.457332 0.024916 -0.028667
    40 -0.249534 -2.846964 -0.174213 -0.840251 -0.015945 -0.006622
    41 0.043235 -1.656596 0.072574 -1.342461 -0.021254 0.006221
    42 0.031729 -1.137392 0.051025 -1.488958 -0.016472 0.008684
    43 -0.963866 -2.785145 -0.085350 -0.692189 0.147942 -0.217960
    44 0.028479 -1.403067 -0.017167 -0.912717 -0.023190 -0.033125
    45 0.021413 -0.938249 0.004421 -1.329270 -0.041215 -0.037835
    46 1.164475 -2.543940 -0.170330 -0.761950 -0.355109 0.187253
    47 0.024032 -1.140761 -0.005631 -1.027049 0.002169 0.047053
    48 0.014898 -0.899614 -0.015942 -0.980908 0.008042 0.049281
    49 -0.586770 -1.264477 0.200161 0.341954 -0.697086 -2.918566
    50 1.561899 0.035243 0.016848 -0.017214 -0.006571 0.835038
    51 1.110134 0.040611 -0.005766 -0.036664 -0.031897 1.293241
    52 -0.139399 -0.111698 0.014397 -0.044786 -0.030687 1.580508
    53 -6.264712 6.077374 -0.383969 1.579463 -0.023116 -0.873139
  time 14
    0 3.574588 -6.952534 -4.289348 -4.624236 -0.079363 -1.543096
    1 7.256281 -6.789095 0.007775 1.570852 0.002703 1.570796
    2 5.050453 1.407287 -1.017509 -1.568094 -1.570796 0.000000
    3 5.626474 1.506707 -1.019152 -1.570686 -1.579097 0.002594
    4 6.206468 1.504418 -1.014370 -1.570777 -1.577000 -6.280503
    5 6.772547 1.474455 -1.017507 -1.568736 -1.570796 0.000000
    6 7.351276 1.468199 -1.013219 -1.568094 -1.570796 0.000000
    7 7.892139 1.465754 -1.013220 -1.568094 -1.570796 0.000000
    8 8.301605 1.118300 -1.014370 -1.563894 -1.576998 -0.004125
    9 8.469214 0.696302 -1.013290 -1.570510 -1.577010 0.002395
    10 7.343514 2.039688 -0.990803 0.000001 -1.570451 0.000000
    11 4.373582 -1.441754 -0.000001 -0.000006 0.000000 -1.560452
    12 1.562920 2.182060 0.313896 1.570774 -1.566830 1.570833
    13 4.731497 -2.650227 -0.000001 1.570796 0.000000 0.000000
    14 -6.085832 -8.128743 0.141889 3.141592 0.000000 0.000000
    15 -0.002752 -0.001265 -0.003287 0.000000 0.000000 0.000000
    16 9.544486 0.157584 -6.284330 5.793868 -1.821160 -0.072424
    17 7.683157 -1.784612 -0.407627 -1.567398 -0.029711 -3.287798
    18 -0.060202 -8.537800 -0.100228 0.396322 0.323892 0.110797
    19 -0.488518 -2.755602 -0.228260 -0.217633 0.067570 -0.276451
    20 0.039887 -1.534479 0.014229 -1.596812 -0.010882 0.035751
    21 0.028786 -1.208548 -0.132487 -1.366952 -0.014358 0.030740
    22 0.250027 -2.820665 -0.238396 -0.284011 -0.014546 -0.237277
    23 -0.049759 -1.598510 0.049696 -1.349022 0.004087 -0.036986
    24 -0.034142 -1.167844 0.049625 -1.065694 0.007478 -0.027888
    25 0.957766 -2.746780 -0.090302 0.232302 -0.188739 0.289376
    26 -0.033420 -1.397129 -0.026882 -0.828317 0.050803 -0.074941
    27 -0.022360 -0.957436 0.003159 -0.680035 0.007706 -0.032994
    28 -1.180681 -2.507217 -0.193859 -0.239554 0.256809 -0.312036
    29 -0.024967 -1.127840 0.017597 -1.386071 -0.005825 -0.057381
    30 -0.020057 -0.902687 0.025715 -0.813372 0.007466 -0.032694
    31 0.642106 -1.201183 0.208817 0.023810 -1.396598 0.068846
    32 1.430455 -0.267106 0.083136 0.090192 -0.258148 -0.988353
    33 1.014831 -0.175166 0.040104 0.076698 -0.232887 -0.981966
    34 0.120153 -0.050270 -0.054489 0.287569 3.110905 1.561085
    35 -1.098919 -12.340852 -11.318035 0.859874 -4.154431 1.011281
    36 0.159446 -8.438699 -0.103118 -0.052010 0.173944 0.048154
    37 0.447953 -2.798986 -0.200443 -0.766401 -0.129331 0.115023
    38 -0.032909 -1.499736 0.024472 -1.317840 0.023130 -0.024399
    39 -0.027022 -1.135516 -0.020210 -1.457332 0.024916 -0.028667
    40 -0.249534 -2.846964 -0.174213 -0.840251 -0.015933 -0.006622
    41 0.043235 -1.656596 0.072574 -1.342461 -0.021254 0.006221
    42 0.031729 -1.137392 0.051025 -1.488958 -0.016472 0.008684
    43 -0.963866 -2.785145 -0.085350 -0.692189 0.147942 -0.217960
    44 0.028479 -1.403067 -0.017167 -0.912717 -0.023190 -0.033125
    45 0.021413 -0.938249 0.004421 -1.329270 -0.041215 -0.037835
    46 1.164475 -2.543940 -0.170330 -0.761950 -0.355109 0.187253
    47 0.024032 -1.140761 -0.005631 -1.027049 0.002169 0.047053
    48 0.014898 -0.899614 -0.015942 -0.980908 0.008042 0.049281
    49 -0.586770 -1.264477 0.200161 0.341954 -0.697086 -2.918566
    50 1.561899 0.035243 0.016848 -0.017214 -0.006571 0.835038
    51 1.110134 0.040611 -0.005766 -0.036664 -0.031897 1.293241
    52 -0.139399 -0.111698 0.014397 -0.044786 -0.030687 1.580508
    53 -5.827199 6.550045 -0.368343 1.580229 -0.021201 -0.951291
  time 15
    0 4.133198 -7.104882 -4.308880 -4.623182 -0.078501 -1.547133
    1 7.256281 -6.789095 0.007775 1.570852 0.002703 1.570796
    2 5.050453 1.395568 -1.017509 -1.568094 -1.570796 0.000000
    3 5.626474 1.475456 -1.019152 -1.570686 -1.579097 0.002594
    4 6.206468 1.449729 -1.014370 -1.570777 -1.577000 -6.280407
    5 6.772547 1.427578 -1.017507 -1.568736 -1.570796 0.000000
    6 7.351276 1.444761 -1.013219 -1.568094 -1.570796 0.000000
    7 7.892139 1.465754 -1.013220 -1.568094 -1.570796 0.000000
    8 8.301605 1.130019 -1.014370 -1.563894 -1.576998 -0.004125
    9 8.469214 0.696302 -1.013290 -1.570510 -1.577010 0.002395
    10 7.343514 2.039688 -0.990803 0.000001 -1.570451 0.000000
    11 4.373582 -1.441754 -0.000001 -0.000006 0.000000 -1.560452
    12 1.562920 2.182060 0.313896 1.570774 -1.566830 1.570833
    13 4.731497 -2.650227 -0.000001 1.570796 0.000000 0.000000
    14 -6.085832 -8.128743 0.141889 3.141592 0.000000 0.000000
    15 -0.002752 -0.001265 -0.003287 0.000000 0.000000 0.000000
    16 9.646051 0.223992 -6.159326 5.782803 -1.853358 -0.004296
    17 7.706596 -1.710391 -0.407627 -1.567590 -0.029616 -3.278232
    18 -0.056296 -8.529987 -0.096321 0.336866 0.349384 0.121898
    19 -0.488518 -2.755602 -0.228260 -0.217645 0.067570 -0.276451
    20 0.039887 -1.534479 0.014229 -1.596812 -0.010882 0.035751
    21 0.028786 -1.208548 -0.132487 -1.366952 -0.014358 0.030740
    22 0.250027 -2.820665 -0.238396 -0.284011 -0.014546 -0.237277
    23 -0.049759 -1.598510 0.049696 -1.349022 0.004087 -0.036986
    24 -0.034142 -1.167844 0.049625 -1.065694 0.007478 -0.027888
    25 0.957766 -2.746780 -0.090302 0.232302 -0.188739 0.289376
    26 -0.033420 -1.397129 -0.026882 -0.828317 0.050803 -0.074941
    27 -0.022360 -0.957436 0.003159 -0.680035 0.007706 -0.032994
    28 -1.180681 -2.507217 -0.193859 -0.239554 0.256809 -0.312036
    29 -0.024967 -1.127840 0.017597 -1.386071 -0.005825 -0.057381
    30 -0.020057 -0.902687 0.025715 -0.813372 0.007466 -0.032694
    31 0.642106 -1.201183 0.208817 0.023810 -1.396598 0.068846
    32 1.430455 -0.267106 0.083136 0.090192 -0.258148 -0.988353
    33 1.014831 -0.175166 0.040104 0.076698 -0.232887 -0.981966
    34 0.120153 -0.050270 -0.054489 0.287569 3.110905 1.561085
    35 -0.770784 -12.399447 -11.122716 0.836734 -4.183735 1.018047
    36 0.163352 -8.446512 -0.107024 -0.018029 0.194932 0.036789
    37 0.447953 -2.798986 -0.200443 -0.766401 -0.129331 0.115023
    38 -0.032909 -1.499736 0.024472 -1.317840 0.023130 -0.024399
    39 -0.027022 -1.135516 -0.020210 -1.457332 0.024916 -0.028667
    40 -0.249534 -2.846964 -0.174213 -0.840251 -0.015933 -0.006622
    41 0.043235 -1.656596 0.072574 -1.342461 -0.021254 0.006221
    42 0.031729 -1.137392 0.051025 -1.488958 -0.016472 0.008684
    43 -0.963866 -2.785145 -0.085350 -0.692189 0.147942 -0.217960
    44 0.028479 -1.403067 -0.017167 -0.912717 -0.023190 -0.033125
    45 0.021413 -0.938249 0.004421 -1.329270 -0.041215 -0.037835
    46 1.164475 -2.543940 -0.170330 -0.761950 -0.355109 0.187253
    47 0.024032 -1.140761 -0.005631 -1.027049 0.002169 0.047053
    48 0.014898 -0.899614 -0.015942 -0.980908 0.008042 0.049281
    49 -0.586770 -1.264477 0.200161 0.341954 -0.697086 -2.918566
    50 1.561899 0.035243 0.016848 -0.017214 -0.006571 0.835038
    51 1.110134 0.040611 -0.005766 -0.036664 -0.031897 1.293241
    52 -0.139399 -0.111698 0.014397 -0.044786 -0.030687 1.580508
    53 -5.327184 7.007090 -0.352718 1.580804 -0.019095 -1.033377
  time 16
    0 4.672277 -7.225980 -4.324505 -4.625194 -0.076682 -1.552852
    1 7.256281 -6.789095 0.007775 1.570852 0.002703 1.570796
    2 5.050453 1.391661 -1.017509 -1.568094 -1.570460 0.000000
    3 5.626474 1.448112 -1.019152 -1.570686 -1.579097 0.002594
    4 6.206468 1.422384 -1.014370 -1.570777 -1.577000 -6.280407
    5 6.772547 1.411953 -1.017507 -1.568736 -1.570796 0.000000
    6 7.351276 1.433042 -1.013219 -1.568094 -1.570796 0.000000
    7 7.892139 1.465754 -1.013220 -1.568094 -1.570796 0.000000
    8 8.301605 1.141738 -1.014370 -1.563894 -1.577010 -0.004125
    9 8.469214 0.696302 -1.013290 -1.570510 -1.577010 0.002395
    10 7.343514 2.039688 -0.990803 0.000001 -1.570451 0.000000
    11 4.373582 -1.441754 -0.000001 -0.000006 0.000000 -1.560452
    12 1.562920 2.182060 0.313896 1.570774 -1.566830 1.570833
    13 4.731497 -2.650227 -0.000001 1.570796 0.000000 0.000000
    14 -6.085832 -8.128743 0.141889 3.141592 0.000000 0.000000
    15 -0.002752 -0.001265 -0.003287 0.000000 0.000000 0.000000
    16 9.743710 0.278681 -6.026509 5.766394 -1.885345 0.063279
    17 7.745659 -1.589294 -0.407627 -1.567878 -0.029329 -3.262598
    18 -0.052389 -8.522175 -0.092415 0.282089 0.376277 0.136401
    19 -0.488518 -2.755602 -0.228260 -0.217645 0.067570 -0.276451
    20 0.039887 -1.534479 0.014229 -1.596812 -0.010882 0.035751
    21 0.028786 -1.208548 -0.132487 -1.366952 -0.014358 0.030740
    22 0.250027 -2.820665 -0.238396 -0.284011 -0.014546 -0.237277
    23 -0.049759 -1.598510 0.049696 -1.349022 0.004087 -0.036986
    24 -0.034142 -1.167844 0.049625 -1.065694 0.007478 -0.027888
    25 0.957766 -2.746780 -0.090302 0.232302 -0.188739 0.289376
    26 -0.033420 -1.397129 -0.026882 -0.828317 0.050803 -0.074941
    27 -0.022360 -0.957436 0.003159 -0.680035 0.007706 -0.032994
    28 -1.180681 -2.507217 -0.193859 -0.239554 0.256809 -0.312036
    29 -0.024967 -1.127840 0.017597 -1.386071 -0.005825 -0.057381
    30 -0.020057 -0.902687 0.025715 -0.813372 0.007466 -0.032694
    31 0.642106 -1.201183 0.208817 0.023810 -1.396598 0.068846
    32 1.430455 -0.267106 0.083136 0.090192 -0.258148 -0.988353
    33 1.014831 -0.175166 0.040104 0.076698 -0.232887 -0.981966
    34 0.120153 -0.050270 -0.054489 0.287569 3.110905 1.561085
    35 -0.497338 -12.434605 -10.958649 0.809300 -4.206265 1.017671
    36 0.163352 -8.450418 -0.110931 0.014047 0.212633 0.030476
    37 0.447953 -2.798986 -0.200443 -0.766401 -0.129331 0.115023
    38 -0.032909 -1.499736 0.024472 -1.317840 0.023130 -0.024399
    39 -0.027022 -1.135516 -0.020210 -1.457332 0.024916 -0.028667
    40 -0.249534 -2.846964 -0.174213 -0.840251 -0.015945 -0.006622
    41 0.043235 -1.656596 0.072574 -1.342461 -0.021254 0.006221
    42 0.031729 -1.137392 0.051025 -1.488958 -0.016472 0.008684
    43 -0.963866 -2.785145 -0.085350 -0.692189 0.147942 -0.217960
    44 0.028479 -1.403067 -0.017167 -0.912717 -0.023190 -0.033125
    45 0.021413 -0.938249 0.004421 -1.329270 -0.041215 -0.037835
    46 1.164475 -2.543940 -0.170330 -0.761950 -0.355109 0.187253
    47 0.024032 -1.140761 -0.005631 -1.027049 0.002169 0.047053
    48 0.014898 -0.899614 -0.015942 -0.980908 0.008042 0.049281
    49 -0.586770 -1.264477 0.200161 0.341954 -0.697086 -2.918566
    50 1.561899 0.035243 0.016848 -0.017214 -0.006571 0.835038
    51 1.110134 0.040611 -0.005766 -0.036664 -0.031897 1.293241
    52 -0.139399 -0.111698 0.014397 -0.044786 -0.030687 1.580508
    53 -4.897483 7.350850 -0.337092 1.581187 -0.017372 -1.100441
  time 17
    0 5.148854 -7.304107 -4.344037 -4.631423 -0.073617 -1.559849
    1 7.256281 -6.789095 0.007775 1.570852 0.002703 1.570796
    2 5.050453 1.411193 -1.017509 -1.568094 -1.570460 0.000000
    3 5.626474 1.432486 -1.019152 -1.570686 -1.579097 0.002594
    4 6.206468 1.441916 -1.014370 -1.570777 -1.577000 -6.280407
    5 6.772547 1.439297 -1.017507 -1.568736 -1.570796 0.000000
    6 7.351276 1.444761 -1.013219 -1.568094 -1.570796 0.000000
    7 7.892139 1.461847 -1.013220 -1.568094 -1.570796 0.000000
    8 8.301605 1.153457 -1.014370 -1.563894 -1.577010 -0.004125
    9 8.469214 0.696302 -1.013290 -1.570510 -1.577010 0.002395
    10 7.343514 2.039688 -0.990803 0.000001 -1.570451 0.000000
    11 4.373582 -1.441754 -0.000001 -0.000006 0.000000 -1.560452
    12 1.562920 2.182060 0.313896 1.570774 -1.566830 1.570833
    13 4.731497 -2.650227 -0.000001 1.570796 0.000000 0.000000
    14 -6.085832 -8.128743 0.141889 3.141592 0.000000 0.000000
    15 -0.002752 -0.001265 -0.003287 0.000000 0.000000 0.000000
    16 9.845276 0.306026 -5.870255 5.738634 -1.916559 0.130093
    17 7.796442 -1.409601 -0.403721 -1.568261 -0.029042 -3.239896
    18 -0.044576 -8.518268 -0.088509 0.238700 0.403973 0.156526
    19 -0.488518 -2.755602 -0.228260 -0.217645 0.067570 -0.276451
    20 0.039887 -1.534479 0.014229 -1.596812 -0.010882 0.035751
    21 0.028786 -1.208548 -0.132487 -1.366952 -0.014358 0.030740
    22 0.250027 -2.820665 -0.238396 -0.284011 -0.014546 -0.237277
    23 -0.049759 -1.598510 0.049696 -1.349022 0.004087 -0.036986
    24 -0.034142 -1.167844 0.049625 -1.065694 0.007478 -0.027888
    25 0.957766 -2.746780 -0.090302 0.232302 -0.188739 0.289376
    26 -0.033420 -1.397129 -0.026882 -0.828317 0.050803 -0.074941
    27 -0.022360 -0.957436 0.003159 -0.680035 0.007706 -0.032994
    28 -1.180681 -2.507217 -0.193859 -0.239554 0.256809 -0.312036
    29 -0.024967 -1.127840 0.017597 -1.386071 -0.005825 -0.057381
    30 -0.020057 -0.902687 0.025715 -0.813372 0.007466 -0.032694
    31 0.642106 -1.201183 0.208817 0.023810 -1.396598 0.068846
    32 1.430455 -0.267106 0.083136 0.090192 -0.258148 -0.988353
    33 1.014831 -0.175166 0.040104 0.076698 -0.232887 -0.981966
    34 0.120153 -0.050270 -0.054489 0.287569 3.110905 1.561085
    35 -0.305926 -12.438511 -10.864896 0.786924 -4.219328 1.017483
    36 0.167259 -8.450418 -0.110931 0.040677 0.228287 0.033045
    37 0.447953 -2.798986 -0.200443 -0.766401 -0.129331 0.115023
    38 -0.032909 -1.499736 0.024472 -1.317840 0.023130 -0.024399
    39 -0.027022 -1.135516 -0.020210 -1.457332 0.024916 -0.028667
    40 -0.249534 -2.846964 -0.174213 -0.840251 -0.015945 -0.006622
    41 0.043235 -1.656596 0.072574 -1.342461 -0.021254 0.006221
    42 0.031729 -1.137392 0.051025 -1.488958 -0.016472 0.008684
    43 -0.963866 -2.785145 -0.085350 -0.692189 0.147942 -0.217960
    44 0.028479 -1.403067 -0.017167 -0.912717 -0.023190 -0.033125
    45 0.021413 -0.938249 0.004421 -1.329270 -0.041215 -0.037835
    46 1.164475 -2.543940 -0.170330 -0.761950 -0.355109 0.187253
    47 0.024032 -1.140761 -0.005631 -1.027049 0.002169 0.047053
    48 0.014898 -0.899614 -0.015942 -0.980908 0.008042 0.049281
    49 -0.586770 -1.264477 0.200161 0.341954 -0.697086 -2.918566
    50 1.561899 0.035243 0.016848 -0.017214 -0.006571 0.835038
    51 1.110134 0.040611 -0.005766 -0.036664 -0.031897 1.293241
    52 -0.139399 -0.111698 0.014397 -0.044786 -0.030687 1.580508
    53 -4.627944 7.538356 -0.329279 1.581379 -0.016319 -1.140500
  time 18
    0 5.488708 -7.347077 -4.433883 -1.511247 -3.074701 1.566122
    1 7.256281 -6.789095 0.007775 1.570852 0.002703 1.570796
    2 5.050453 1.450257 -1.017509 -1.568094 -1.570796 0.000000
    3 5.626474 1.424673 -1.019152 -1.570686 -1.579097 0.002594
    4 6.206468 1.469260 -1.014370 -1.570777 -1.577000 -6.280407
    5 6.772547 1.505706 -1.017507 -1.568736 -1.570796 0.000000
    6 7.351276 1.468199 -1.013219 -1.568094 -1.570796 0.000000
    7 7.892139 1.461847 -1.013220 -1.568094 -1.570796 0.000000
    8 8.301605 1.165177 -1.014370 -1.563990 -1.577010 -0.004125
    9 8.469214 0.696302 -1.013290 -1.570510 -1.577010 0.002395
    10 7.343514 2.039688 -0.990803 0.000001 -1.570451 0.000000
    11 4.373582 -1.441754 -0.000001 -0.000006 0.000000 -1.560452
    12 1.562920 2.182060 0.313896 1.570774 -1.566830 1.570833
    13 4.731497 -2.650227 -0.000001 1.570796 0.000000 0.000000
    14 -6.085832 -8.128743 0.141889 3.141592 0.000000 0.000000
    15 -0.002752 -0.001265 -0.003287 0.000000 0.000000 0.000000
    16 9.958561 0.239618 -5.635872 5.658025 -1.954240 0.219986
    17 7.901914 -0.972087 -0.399814 -1.569220 -0.028278 -3.184497
    18 -0.036764 -8.518268 -0.084602 0.220240 0.439687 0.204504
    19 -0.488518 -2.755602 -0.228260 -0.217645 0.067570 -0.276451
    20 0.039887 -1.534479 0.014229 -1.596812 -0.010882 0.035751
    21 0.028786 -1.208548 -0.132487 -1.366952 -0.014358 0.030740
    22 0.250027 -2.820665 -0.238396 -0.284011 -0.014546 -0.237277
    23 -0.049759 -1.598510 0.049696 -1.349022 0.004087 -0.036986
    24 -0.034142 -1.167844 0.049625 -1.065694 0.007478 -0.027888
    25 0.957766 -2.746780 -0.090302 0.232302 -0.188739 0.289376
    26 -0.033420 -1.397129 -0.026882 -0.828317 0.050803 -0.074941
    27 -0.022360 -0.957436 0.003159 -0.680035 0.007706 -0.032994
    28 -1.180681 -2.507217 -0.193859 -0.239554 0.256809 -0.312036
    29 -0.024967 -1.127840 0.017597 -1.386071 -0.005825 -0.057381
    30 -0.020057 -0.902687 0.025715 -0.813372 0.007466 -0.032694
    31 0.642106 -1.201183 0.208817 0.023810 -1.396598 0.068846
    32 1.430455 -0.267106 0.083136 0.090192 -0.258148 -0.988353
    33 1.014831 -0.175166 0.040104 0.076698 -0.232887 -0.981966
    34 0.120153 -0.050270 -0.054489 0.287569 3.110905 1.561085
    35 -0.313739 -12.399447 -10.997713 0.791599 -4.216770 1.028947
    36 0.167259 -8.450418 -0.118743 0.052305 0.252908 0.056775
    37 0.447953 -2.798986 -0.200443 -0.766401 -0.129331 0.115023
    38 -0.032909 -1.499736 0.024472 -1.317840 0.023130 -0.024399
    39 -0.027022 -1.135516 -0.020210 -1.457332 0.024916 -0.028667
    40 -0.249534 -2.846964 -0.174213 -0.840251 -0.015945 -0.006622
    41 0.043235 -1.656596 0.072574 -1.342461 -0.021254 0.006221
    42 0.031729 -1.137392 0.051025 -1.488958 -0.016472 0.008684
    43 -0.963866 -2.785145 -0.085350 -0.692189 0.147942 -0.217960
    44 0.028479 -1.403067 -0.017167 -0.912717 -0.023190 -0.033125
    45 0.021413 -0.938249 0.004421 -1.329270 -0.041215 -0.037835
    46 1.164475 -2.543940 -0.170330 -0.761950 -0.355109 0.187253
    47 0.024032 -1.140761 -0.005631 -1.027049 0.002169 0.047053
    48 0.014898 -0.899614 -0.015942 -0.980908 0.008042 0.049281
    49 -0.586770 -1.264477 0.200161 0.341954 -0.697086 -2.918566
    50 1.561899 0.035243 0.016848 -0.017214 -0.006571 0.835038
    51 1.110134 0.040611 -0.005766 -0.036664 -0.031897 1.293241
    52 -0.139399 -0.111698 0.014397 -0.044786 -0.030687 1.580508
    53 -4.823262 7.401633 -0.337092 1.581283 -0.017085 -1.111171
  time 19
    0 5.684027 -7.366609 -4.590138 -1.542965 -3.083128 1.545399
    1 7.256281 -6.789095 0.007775 1.570852 0.002703 1.570796
    2 5.050453 1.469789 -1.017509 -1.568094 -1.570796 0.000000
    3 5.626474 1.424673 -1.019152 -1.570686 -1.579097 0.002594
    4 6.206468 1.484886 -1.014370 -1.570777 -1.577000 -6.280503
    5 6.772547 1.536957 -1.017507 -1.568736 -1.570796 0.000000
    6 7.351276 1.479918 -1.013219 -1.568094 -1.570796 0.000000
    7 7.892139 1.461847 -1.013220 -1.568094 -1.570796 0.000000
    8 8.301605 1.172989 -1.014370 -1.563990 -1.577010 -0.004125
    9 8.469214 0.696302 -1.013290 -1.570510 -1.576986 0.002395
    10 7.343514 2.039688 -0.990803 0.000001 -1.570451 0.000000
    11 4.373582 -1.441754 -0.000001 -0.000006 0.000000 -1.560452
    12 1.562920 2.182060 0.313896 1.570774 -1.566830 1.570833
    13 4.731497 -2.650227 -0.000001 1.570796 0.000000 0.000000
    14 -6.085832 -8.128743 0.141889 3.141592 0.000000 0.000000
    15 -0.002752 -0.001265 -0.003287 0.000000 0.000000 0.000000
    16 10.048407 0.091176 -5.362427 5.555379 -1.998741 0.307253
    17 8.011292 -0.335349 -0.392002 -1.570466 -0.027131 -3.105112
    18 -0.028951 -8.526081 -0.080696 0.225049 0.478829 0.273862
    19 -0.488518 -2.755602 -0.228260 -0.217645 0.067570 -0.276451
    20 0.039887 -1.534479 0.014229 -1.596812 -0.010882 0.035751
    21 0.028786 -1.208548 -0.132487 -1.366952 -0.014358 0.030740
    22 0.250027 -2.820665 -0.238396 -0.284011 -0.014546 -0.237277
    23 -0.049759 -1.598510 0.049696 -1.349022 0.004087 -0.036986
    24 -0.034142 -1.167844 0.049625 -1.065694 0.007478 -0.027888
    25 0.957766 -2.746780 -0.090302 0.232302 -0.188739 0.289376
    26 -0.033420 -1.397129 -0.026882 -0.828317 0.050803 -0.074941
    27 -0.022360 -0.957436 0.003159 -0.680035 0.007706 -0.032994
    28 -1.180681 -2.507217 -0.193859 -0.239554 0.256809 -0.312036
    29 -0.024967 -1.127840 0.017597 -1.386071 -0.005825 -0.057381
    30 -0.020057 -0.902687 0.025715 -0.813372 0.007466 -0.032694
    31 0.642106 -1.201183 0.208817 0.023810 -1.396598 0.068846
    32 1.430455 -0.267106 0.083136 0.090192 -0.258148 -0.988353
    33 1.014831 -0.175166 0.040104 0.076698 -0.232887 -0.981966
    34 0.120153 -0.050270 -0.054489 0.287569 3.110905 1.561085
    35 -0.489526 -12.313507 -11.286784 0.814596 -4.202948 1.045391
    36 0.167259 -8.438699 -0.122650 0.050567 0.282890 0.092567
    37 0.447953 -2.798986 -0.200443 -0.766401 -0.129331 0.115023
    38 -0.032909 -1.499736 0.024472 -1.317840 0.023130 -0.024399
    39 -0.027022 -1.135516 -0.020210 -1.457332 0.024916 -0.028667
    40 -0.249534 -2.846964 -0.174213 -0.840251 -0.015933 -0.006622
    41 0.043235 -1.656596 0.072574 -1.342461 -0.021254 0.006221
    42 0.031729 -1.137392 0.051025 -1.488958 -0.016472 0.008684
    43 -0.963866 -2.785145 -0.085350 -0.692189 0.147942 -0.217960
    44 0.028479 -1.403067 -0.017167 -0.912717 -0.023190 -0.033125
    45 0.021413 -0.938249 0.004421 -1.329270 -0.041215 -0.037835
    46 1.164475 -2.543940 -0.170330 -0.761950 -0.355109 0.187253
    47 0.024032 -1.140761 -0.005631 -1.027049 0.002169 0.047053
    48 0.014898 -0.899614 -0.015942 -0.980908 0.008042 0.049281
    49 -0.586770 -1.264477 0.200161 0.341954 -0.697086 -2.918566
    50 1.561899 0.035243 0.016848 -0.017214 -0.006571 0.835038
    51 1.110134 0.040611 -0.005766 -0.036664 -0.031897 1.293241
    52 -0.139399 -0.111698 0.014397 -0.044786 -0.030687 1.580508
    53 -5.331090 7.003184 -0.352718 1.580804 -0.019095 -1.032751
  time 20
    0 5.785593 -7.370515 -4.691704 -1.563854 -3.088299 1.532615
    1 7.256281 -6.789095 0.007775 1.570852 0.002703 1.570796
    2 5.050453 1.461976 -1.017509 -1.568094 -1.570796 0.000000
    3 5.626474 1.440299 -1.019152 -1.570686 -1.579097 0.002594
    4 6.206468 1.473167 -1.014370 -1.570777 -1.577000 -6.280503
    5 6.772547 1.497893 -1.017507 -1.568736 -1.570796 0.000000
    6 7.351276 1.472105 -1.013219 -1.568094 -1.570796 0.000000
    7 7.892139 1.461847 -1.013220 -1.568094 -1.570796 0.000000
    8 8.301605 1.180802 -1.014370 -1.563894 -1.576998 -0.004125
    9 8.469214 0.696302 -1.013290 -1.570510 -1.577010 0.002395
    10 7.343514 2.039688 -0.990803 0.000001 -1.570451 0.000000
    11 4.373582 -1.441754 -0.000001 -0.000006 0.000000 -1.560452
    12 1.562920 2.182060 0.313896 1.570774 -1.566830 1.570833
    13 4.731497 -2.650227 -0.000001 1.570796 0.000000 0.000000
    14 -6.085832 -8.128743 0.141889 3.141592 0.000000 0.000000
    15 -0.002752 -0.001265 -0.003287 0.000000 0.000000 0.000000
    16 10.083565 -0.014296 -5.178827 5.497665 -2.029954 0.352579
    17 8.054262 0.098258 -0.384189 1.570434 -3.115202 0.089719
    18 -0.021138 -8.529987 -0.080696 0.232446 0.503697 0.321365
    19 -0.488518 -2.755602 -0.228260 -0.217645 0.067570 -0.276451
    20 0.039887 -1.534479 0.014229 -1.596812 -0.010882 0.035751
    21 0.028786 -1.208548 -0.132487 -1.366952 -0.014358 0.030740
    22 0.250027 -2.820665 -0.238396 -0.284011 -0.014546 -0.237277
    23 -0.049759 -1.598510 0.049696 -1.349022 0.004087 -0.036986
    24 -0.034142 -1.167844 0.049625 -1.065694 0.007478 -0.027888
    25 0.957766 -2.746780 -0.090302 0.232302 -0.188739 0.289376
    26 -0.033420 -1.397129 -0.026882 -0.828317 0.050803 -0.074941
    27 -0.022360 -0.957436 0.003159 -0.680035 0.007706 -0.032994
    28 -1.180681 -2.507217 -0.193859 -0.239554 0.256809 -0.312036
    29 -0.024967 -1.127840 0.017597 -1.386071 -0.005825 -0.057381
    30 -0.020057 -0.902687 0.025715 -0.813372 0.007466 -0.032694
    31 0.642106 -1.201183 0.208817 0.023810 -1.396598 0.068846
    32 1.430455 -0.267106 0.083136 0.090192 -0.258148 -0.988353
    33 1.014831 -0.175166 0.040104 0.076698 -0.232887 -0.981966
    34 0.120153 -0.050270 -0.054489 0.287569 3.110905 1.561085
    35 -0.622342 -12.247099 -11.486009 0.827621 -4.190093 1.053942
    36 0.167259 -8.434793 -0.130462 0.048462 0.299467 0.117473
    37 0.447953 -2.798986 -0.200443 -0.766401 -0.129331 0.115023
    38 -0.032909 -1.499736 0.024472 -1.317840 0.023130 -0.024399
    39 -0.027022 -1.135516 -0.020210 -1.457332 0.024916 -0.028667
    40 -0.249534 -2.846964 -0.174213 -0.840251 -0.015933 -0.006622
    41 0.043235 -1.656596 0.072574 -1.342461 -0.021254 0.006221
    42 0.031729 -1.137392 0.051025 -1.488958 -0.016472 0.008684
    43 -0.963866 -2.785145 -0.085350 -0.692189 0.147942 -0.217960
    44 0.028479 -1.403067 -0.017167 -0.912717 -0.023190 -0.033125
    45 0.021413 -0.938249 0.004421 -1.329270 -0.041215 -0.037835
    46 1.164475 -2.543940 -0.170330 -0.761950 -0.355109 0.187253
    47 0.024032 -1.140761 -0.005631 -1.027049 0.002169 0.047053
    48 0.014898 -0.899614 -0.015942 -0.980908 0.008042 0.049281
    49 -0.586770 -1.264477 0.200161 0.341954 -0.697086 -2.918566
    50 1.561899 0.035243 0.016848 -0.017214 -0.006571 0.835038
    51 1.110134 0.040611 -0.005766 -0.036664 -0.031897 1.293241
    52 -0.139399 -0.111698 0.014397 -0.044786 -0.030687 1.580508
    53 -5.690476 6.682861 -0.364437 1.580421 -0.020627 -0.974272
  time 21
    0 5.816844 -7.370515 -4.687797 -1.569795 -3.089735 1.528578
    1 7.256281 -6.789095 0.007775 1.570852 0.002703 1.570796
    2 5.050453 1.454163 -1.017509 -1.568094 -1.570796 0.000000
    3 5.626474 1.455924 -1.019152 -1.570686 -1.579097 0.002594
    4 6.206468 1.457541 -1.014370 -1.570777 -1.577000 -6.280407
    5 6.772547 1.458829 -1.017507 -1.568736 -1.570796 0.000000
    6 7.351276 1.460386 -1.013219 -1.568094 -1.570796 0.000000
    7 7.892139 1.461847 -1.013220 -1.568094 -1.570796 0.000000
    8 8.301605 1.184708 -1.014370 -1.563894 -1.576998 -0.004125
    9 8.469214 0.696302 -1.013290 -1.570510 -1.577010 0.002395
    10 7.343514 2.039688 -0.990803 0.000001 -1.570451 0.000000
    11 4.373582 -1.441754 -0.000001 -0.000006 0.000000 -1.560452
    12 1.562920 2.182060 0.313896 1.570774 -1.566830 1.570833
    13 4.731497 -2.650227 -0.000001 1.570796 0.000000 0.000000
    14 -6.085832 -8.128743 0.141889 3.141592 0.000000 0.000000
    15 -0.002752 -0.001265 -0.003287 0.000000 0.000000 0.000000
    16 10.095284 -0.037735 -5.120232 5.488602 -2.036844 0.359212
    17 8.062075 0.184198 -0.384189 1.570243 -3.115393 0.100428
    18 -0.017232 -8.529987 -0.076789 0.232424 0.511283 0.330923
    19 -0.488518 -2.755602 -0.228260 -0.217645 0.067570 -0.276451
    20 0.039887 -1.534479 0.014229 -1.596812 -0.010882 0.035751
    21 0.028786 -1.208548 -0.132487 -1.366952 -0.014358 0.030740
    22 0.250027 -2.820665 -0.238396 -0.284011 -0.014546 -0.237277
    23 -0.049759 -1.598510 0.049696 -1.349022 0.004087 -0.036986
    24 -0.034142 -1.167844 0.049625 -1.065694 0.007478 -0.027888
    25 0.957766 -2.746780 -0.090302 0.232302 -0.188739 0.289376
    26 -0.033420 -1.397129 -0.026882 -0.828317 0.050803 -0.074941
    27 -0.022360 -0.957436 0.003159 -0.680035 0.007706 -0.032994
    28 -1.180681 -2.507217 -0.193859 -0.239554 0.256809 -0.312036
    29 -0.024967 -1.127840 0.017597 -1.386071 -0.005825 -0.057381
    30 -0.020057 -0.902687 0.025715 -0.813372 0.007466 -0.032694
    31 0.642106 -1.201183 0.208817 0.023810 -1.396598 0.068846
    32 1.430455 -0.267106 0.083136 0.090192 -0.258148 -0.988353
    33 1.014831 -0.175166 0.040104 0.076698 -0.232887 -0.981966
    34 0.120153 -0.050270 -0.054489 0.287569 3.110905 1.561085
    35 -0.684844 -12.223661 -11.552417 0.832106 -4.179381 1.057982
    36 0.163352 -8.430887 -0.130462 0.048228 0.300044 0.130580
    37 0.447953 -2.798986 -0.200443 -0.766401 -0.129331 0.115023
    38 -0.032909 -1.499736 0.024472 -1.317840 0.023130 -0.024399
    39 -0.027022 -1.135516 -0.020210 -1.457332 0.024916 -0.028667
    40 -0.249534 -2.846964 -0.174213 -0.840251 -0.015933 -0.006622
    41 0.043235 -1.656596 0.072574 -1.342461 -0.021254 0.006221
    42 0.031729 -1.137392 0.051025 -1.488958 -0.016472 0.008684
    43 -0.963866 -2.785145 -0.085350 -0.692189 0.147942 -0.217960
    44 0.028479 -1.403067 -0.017167 -0.912717 -0.023190 -0.033125
    45 0.021413 -0.938249 0.004421 -1.329270 -0.041215 -0.037835
    46 1.164475 -2.543940 -0.170330 -0.761950 -0.355109 0.187253
    47 0.024032 -1.140761 -0.005631 -1.027049 0.002169 0.047053
    48 0.014898 -0.899614 -0.015942 -0.980908 0.008042 0.049281
    49 -0.586770 -1.264477 0.200161 0.341954 -0.697086 -2.918566
    50 1.561899 0.035243 0.016848 -0.017214 -0.006571 0.835038
    51 1.110134 0.040611 -0.005766 -0.036664 -0.031897 1.293241
    52 -0.139399 -0.111698 0.014397 -0.044786 -0.030687 1.580508
    53 -5.850637 6.522700 -0.368343 1.580229 -0.021297 -0.946820
  time 22
    0 5.820750 -7.374422 -4.683891 -1.570466 -3.089927 1.528107
    1 7.256281 -6.789095 0.007775 1.570852 0.002703 1.570796
    2 5.050453 1.454163 -1.017509 -1.568094 -1.570796 0.000000
    3 5.626474 1.455924 -1.019152 -1.570686 -1.579097 0.002594
    4 6.206468 1.457541 -1.014370 -1.570777 -1.577000 -6.280407
    5 6.772547 1.458829 -1.017507 -1.568736 -1.570796 0.000000
    6 7.351276 1.460386 -1.013219 -1.568094 -1.570796 0.000000
    7 7.892139 1.461847 -1.013220 -1.568094 -1.570796 0.000000
    8 8.301605 1.184708 -1.014370 -1.563990 -1.577010 -0.004125
    9 8.469214 0.696302 -1.013290 -1.570510 -1.577010 0.002395
    10 7.343514 2.039688 -0.990803 0.000001 -1.570451 0.000000
    11 4.373582 -1.441754 -0.000001 -0.000006 0.000000 -1.560452
    12 1.562920 2.182060 0.313896 1.570774 -1.566830 1.570833
    13 4.731497 -2.650227 -0.000001 1.570796 0.000000 0.000000
    14 -6.085832 -8.128743 0.141889 3.141592 0.000000 0.000000
    15 -0.002752 -0.001265 -0.003287 0.000000 0.000000 0.000000
    16 10.095284 -0.041641 -5.112419 5.487553 -2.037758 0.360041
    17 8.062075 0.195917 -0.384189 1.570243 -3.115393 0.101784
    18 -0.017232 -8.529987 -0.076789 0.232424 0.512242 0.332120
    19 -0.488518 -2.755602 -0.228260 -0.217645 0.067570 -0.276451
    20 0.039887 -1.534479 0.014229 -1.596812 -0.010882 0.035751
    21 0.028786 -1.208548 -0.132487 -1.366952 -0.014358 0.030740
    22 0.250027 -2.820665 -0.238396 -0.284011 -0.014546 -0.237277
    23 -0.049759 -1.598510 0.049696 -1.349022 0.004087 -0.036986
    24 -0.034142 -1.167844 0.049625 -1.065694 0.007478 -0.027888
    25 0.957766 -2.746780 -0.090302 0.232302 -0.188739 0.289376
    26 -0.033420 -1.397129 -0.026882 -0.828317 0.050803 -0.074941
    27 -0.022360 -0.957436 0.003159 -0.680035 0.007706 -0.032994
    28 -1.180681 -2.507217 -0.193859 -0.239554 0.256809 -0.312036
    29 -0.024967 -1.127840 0.017597 -1.386071 -0.005825 -0.057381
    30 -0.020057 -0.902687 0.025715 -0.813372 0.007466 -0.032694
    31 0.642106 -1.201183 0.208817 0.023810 -1.396598 0.068846
    32 1.430455 -0.267106 0.083136 0.090192 -0.258148 -0.988353
    33 1.014831 -0.175166 0.040104 0.076698 -0.232887 -0.981966
    34 0.120153 -0.050270 -0.054489 0.287569 3.110905 1.561085
    35 -0.723908 -12.211942 -11.591481 0.830770 -4.171433 1.058358
    36 0.163352 -8.430887 -0.126556 0.049531 0.295489 0.137459
    37 0.447953 -2.798986 -0.200443 -0.766401 -0.129331 0.115023
    38 -0.032909 -1.499736 0.024472 -1.317840 0.023130 -0.024399
    39 -0.027022 -1.135516 -0.020210 -1.457332 0.024916 -0.028667
    40 -0.249534 -2.846964 -0.174213 -0.840251 -0.015933 -0.006622
    41 0.043235 -1.656596 0.072574 -1.342461 -0.021254 0.006221
    42 0.031729 -1.137392 0.051025 -1.488958 -0.016472 0.008684
    43 -0.963866 -2.785145 -0.085350 -0.692189 0.147942 -0.217960
    44 0.028479 -1.403067 -0.017167 -0.912717 -0.023190 -0.033125
    45 0.021413 -0.938249 0.004421 -1.329270 -0.041215 -0.037835
    46 1.164475 -2.543940 -0.170330 -0.761950 -0.355109 0.187253
    47 0.024032 -1.140761 -0.005631 -1.027049 0.002169 0.047053
    48 0.014898 -0.899614 -0.015942 -0.980908 0.008042 0.049281
    49 -0.586770 -1.264477 0.200161 0.341954 -0.697086 -2.918566
    50 1.561899 0.035243 0.016848 -0.017214 -0.006571 0.835038
    51 1.110134 0.040611 -0.005766 -0.036664 -0.031897 1.293241
    52 -0.139399 -0.111698 0.014397 -0.044786 -0.030687 1.580508
    53 -5.960016 6.413322 -0.372250 1.580037 -0.021775 -0.928132
  time 23
    0 5.809031 -7.370515 -4.687797 -1.568262 -3.089352 1.529588
    1 7.256281 -6.789095 0.007775 1.570852 0.002703 1.570796
    2 5.050453 1.454163 -1.017509 -1.568094 -1.570796 0.000000
    3 5.626474 1.455924 -1.019152 -1.570686 -1.579097 0.002594
    4 6.206468 1.457541 -1.014370 -1.570777 -1.577000 -6.280407
    5 6.772547 1.458829 -1.017507 -1.568736 -1.570796 0.000000
    6 7.351276 1.460386 -1.013219 -1.568094 -1.570796 0.000000
    7 7.892139 1.461847 -1.013220 -1.568094 -1.570796 0.000000
    8 8.301605 1.184708 -1.014370 -1.563894 -1.576998 -0.004125
    9 8.469214 0.696302 -1.013290 -1.570510 -1.576986 0.002395
    10 7.343514 2.039688 -0.990803 0.000001 -1.570451 0.000000
    11 4.373582 -1.441754 -0.000001 -0.000006 0.000000 -1.560452
    12 1.562920 2.182060 0.313896 1.570774 -1.566830 1.570833
    13 4.731497 -2.650227 -0.000001 1.570796 0.000000 0.000000
    14 -6.085832 -8.128743 0.141889 3.141592 0.000000 0.000000
    15 -0.002752 -0.001265 -0.003287 0.000000 0.000000 0.000000
    16 10.091377 -0.033828 -5.135857 5.490891 -2.035086 0.357554
    17 8.062075 0.160760 -0.384189 1.570243 -3.115297 0.097715
    18 -0.021138 -8.529987 -0.076789 0.232424 0.509390 0.328530
    19 -0.488518 -2.755602 -0.228260 -0.217645 0.067570 -0.276451
    20 0.039887 -1.534479 0.014229 -1.596812 -0.010882 0.035751
    21 0.028786 -1.208548 -0.132487 -1.366952 -0.014358 0.030740
    22 0.250027 -2.820665 -0.238396 -0.284011 -0.014546 -0.237277
    23 -0.049759 -1.598510 0.049696 -1.349022 0.004087 -0.036986
    24 -0.034142 -1.167844 0.049625 -1.065694 0.007478 -0.027888
    25 0.957766 -2.746780 -0.090302 0.232302 -0.188739 0.289376
    26 -0.033420 -1.397129 -0.026882 -0.828317 0.050803 -0.074941
    27 -0.022360 -0.957436 0.003159 -0.680035 0.007706 -0.032994
    28 -1.180681 -2.507217 -0.193859 -0.239554 0.256809 -0.312036
    29 -0.024967 -1.127840 0.017597 -1.386071 -0.005825 -0.057381
    30 -0.020057 -0.902687 0.025715 -0.813372 0.007466 -0.032694
    31 0.642106 -1.201183 0.208817 0.023810 -1.396598 0.068846
    32 1.430455 -0.267106 0.083136 0.090192 -0.258148 -0.988353
    33 1.014831 -0.175166 0.040104 0.076698 -0.232887 -0.981966
    34 0.120153 -0.050270 -0.054489 0.287569 3.110905 1.561085
    35 -0.747346 -12.204129 -11.618825 0.827096 -4.165696 1.057700
    36 0.163352 -8.430887 -0.126556 0.051469 0.288656 0.140507
    37 0.447953 -2.798986 -0.200443 -0.766401 -0.129331 0.115023
    38 -0.032909 -1.499736 0.024472 -1.317840 0.023130 -0.024399
    39 -0.027022 -1.135516 -0.020210 -1.457332 0.024916 -0.028667
    40 -0.249534 -2.846964 -0.174213 -0.840251 -0.015933 -0.006622
    41 0.043235 -1.656596 0.072574 -1.342461 -0.021254 0.006221
    42 0.031729 -1.137392 0.051025 -1.488958 -0.016472 0.008684
    43 -0.963866 -2.785145 -0.085350 -0.692189 0.147942 -0.217960
    44 0.028479 -1.403067 -0.017167 -0.912717 -0.023190 -0.033125
    45 0.021413 -0.938249 0.004421 -1.329270 -0.041215 -0.037835
    46 1.164475 -2.543940 -0.170330 -0.761950 -0.355109 0.187253
    47 0.024032 -1.140761 -0.005631 -1.027049 0.002169 0.047053
    48 0.014898 -0.899614 -0.015942 -0.980908 0.008042 0.049281
    49 -0.586770 -1.264477 0.200161 0.341954 -0.697086 -2.918566
    50 1.561899 0.035243 0.016848 -0.017214 -0.006571 0.835038
    51 1.110134 0.040611 -0.005766 -0.036664 -0.031897 1.293241
    52 -0.139399 -0.111698 0.014397 -0.044786 -0.030687 1.580508
    53 -6.034237 6.335194 -0.376156 1.579942 -0.022063 -0.915255
  time 24
    0 5.793405 -7.370515 -4.691704 -1.565291 -3.088586 1.531606
    1 7.256281 -6.789095 0.007775 1.570852 0.002703 1.570796
    2 5.050453 1.454163 -1.017509 -1.568094 -1.570460 0.000000
    3 5.626474 1.455924 -1.019152 -1.570686 -1.579097 0.002594
    4 6.206468 1.457541 -1.014370 -1.570777 -1.577000 -6.280407
    5 6.772547 1.458829 -1.017507 -1.568736 -1.570796 0.000000
    6 7.351276 1.460386 -1.013219 -1.568094 -1.570796 0.000000
    7 7.892139 1.461847 -1.013220 -1.568094 -1.570796 0.000000
    8 8.301605 1.184708 -1.014370 -1.563894 -1.576998 -0.004125
    9 8.469214 0.696302 -1.013290 -1.570510 -1.577010 0.002395
    10 7.343514 2.039688 -0.990803 0.000001 -1.570451 0.000000
    11 4.373582 -1.441754 -0.000001 -0.000006 0.000000 -1.560452
    12 1.562920 2.182060 0.313896 1.570774 -1.566830 1.570833
    13 4.731497 -2.650227 -0.000001 1.570796 0.000000 0.000000
    14 -6.085832 -8.128743 0.141889 3.141592 0.000000 0.000000
    15 -0.002752 -0.001265 -0.003287 0.000000 0.000000 0.000000
    16 10.087471 -0.022109 -5.163202 5.495375 -2.031642 0.354237
    17 8.058169 0.117790 -0.384189 1.570338 -3.115202 0.092361
    18 -0.021138 -8.529987 -0.080696 0.232446 0.505591 0.323744
    19 -0.488518 -2.755602 -0.228260 -0.217645 0.067570 -0.276451
    20 0.039887 -1.534479 0.014229 -1.596812 -0.010882 0.035751
    21 0.028786 -1.208548 -0.132487 -1.366952 -0.014358 0.030740
    22 0.250027 -2.820665 -0.238396 -0.284011 -0.014546 -0.237277
    23 -0.049759 -1.598510 0.049696 -1.349022 0.004087 -0.036986
    24 -0.034142 -1.167844 0.049625 -1.065694 0.007478 -0.027888
    25 0.957766 -2.746780 -0.090302 0.232302 -0.188739 0.289376
    26 -0.033420 -1.397129 -0.026882 -0.828317 0.050803 -0.074941
    27 -0.022360 -0.957436 0.003159 -0.680035 0.007706 -0.032994
    28 -1.180681 -2.507217 -0.193859 -0.239554 0.256809 -0.312036
    29 -0.024967 -1.127840 0.017597 -1.386071 -0.005825 -0.057381
    30 -0.020057 -0.902687 0.025715 -0.813372 0.007466 -0.032694
    31 0.642106 -1.201183 0.208817 0.023810 -1.396598 0.068846
    32 1.430455 -0.267106 0.083136 0.090192 -0.258148 -0.988353
    33 1.014831 -0.175166 0.040104 0.076698 -0.232887 -0.981966
    34 0.120153 -0.050270 -0.054489 0.287569 3.110905 1.561085
    35 -0.759065 -12.196316 -11.642264 0.824329 -4.161619 1.057794
    36 0.163352 -8.430887 -0.122650 0.053274 0.282400 0.142118
    37 0.447953 -2.798986 -0.200443 -0.766401 -0.129331 0.115023
    38 -0.032909 -1.499736 0.024472 -1.317840 0.023130 -0.024399
    39 -0.027022 -1.135516 -0.020210 -1.457332 0.024916 -0.028667
    40 -0.249534 -2.846964 -0.174213 -0.840251 -0.015945 -0.006622
    41 0.043235 -1.656596 0.072574 -1.342461 -0.021254 0.006221
    42 0.031729 -1.137392 0.051025 -1.488958 -0.016472 0.008684
    43 -0.963866 -2.785145 -0.085350 -0.692189 0.147942 -0.217960
    44 0.028479 -1.403067 -0.017167 -0.912717 -0.023190 -0.033125
    45 0.021413 -0.938249 0.004421 -1.329270 -0.041215 -0.037835
    46 1.164475 -2.543940 -0.170330 -0.761950 -0.355109 0.187253
    47 0.024032 -1.140761 -0.005631 -1.027049 0.002169 0.047053
    48 0.014898 -0.899614 -0.015942 -0.980908 0.008042 0.049281
    49 -0.586770 -1.264477 0.200161 0.341954 -0.697086 -2.918566
    50 1.561899 0.035243 0.016848 -0.017214 -0.006571 0.835038
    51 1.110134 0.040611 -0.005766 -0.036664 -0.031897 1.293241
    52 -0.139399 -0.111698 0.014397 -0.044786 -0.030687 1.580508
    53 -6.088926 6.276599 -0.376156 1.579846 -0.022350 -0.905419
  time 25
    0 5.785593 -7.370515 -4.691704 -1.563854 -3.088299 1.532615
    1 7.256281 -6.789095 0.007775 1.570852 0.002703 1.570796
    2 5.050453 1.454163 -1.017509 -1.568094 -1.570796 0.000000
    3 5.626474 1.455924 -1.019152 -1.570686 -1.579097 0.002594
    4 6.206468 1.457541 -1.014370 -1.570777 -1.577000 -6.280407
    5 6.772547 1.458829 -1.017507 -1.568736 -1.570796 0.000000
    6 7.351276 1.460386 -1.013219 -1.568094 -1.570796 0.000000
    7 7.892139 1.461847 -1.013220 -1.568094 -1.570796 0.000000
    8 8.301605 1.184708 -1.014370 -1.563894 -1.576998 -0.004125
    9 8.469214 0.696302 -1.013290 -1.570510 -1.577010 0.002395
    10 7.343514 2.039688 -0.990803 0.000001 -1.570451 0.000000
    11 4.373582 -1.441754 -0.000001 -0.000006 0.000000 -1.560452
    12 1.562920 2.182060 0.313896 1.570774 -1.566830 1.570833
    13 4.731497 -2.650227 -0.000001 1.570796 0.000000 0.000000
    14 -6.085832 -8.128743 0.141889 3.141592 0.000000 0.000000
    15 -0.002752 -0.001265 -0.003287 0.000000 0.000000 0.000000
    16 10.083565 -0.014296 -5.178827 5.497665 -2.029954 0.352579
    17 8.054262 0.098258 -0.384189 1.570434 -3.115202 0.089719
    18 -0.021138 -8.529987 -0.080696 0.232446 0.503697 0.321365
    19 -0.488518 -2.755602 -0.228260 -0.217645 0.067570 -0.276451
    20 0.039887 -1.534479 0.014229 -1.596812 -0.010882 0.035751
    21 0.028786 -1.208548 -0.132487 -1.366952 -0.014358 0.030740
    22 0.250027 -2.820665 -0.238396 -0.284011 -0.014546 -0.237277
    23 -0.049759 -1.598510 0.049696 -1.349022 0.004087 -0.036986
    24 -0.034142 -1.167844 0.049625 -1.065694 0.007478 -0.027888
    25 0.957766 -2.746780 -0.090302 0.232302 -0.188739 0.289376
    26 -0.033420 -1.397129 -0.026882 -0.828317 0.050803 -0.074941
    27 -0.022360 -0.957436 0.003159 -0.680035 0.007706 -0.032994
    28 -1.180681 -2.507217 -0.193859 -0.239554 0.256809 -0.312036
    29 -0.024967 -1.127840 0.017597 -1.386071 -0.005825 -0.057381
    30 -0.020057 -0.902687 0.025715 -0.813372 0.007466 -0.032694
    31 0.642106 -1.201183 0.208817 0.023810 -1.396598 0.068846
    32 1.430455 -0.267106 0.083136 0.090192 -0.258148 -0.988353
    33 1.014831 -0.175166 0.040104 0.076698 -0.232887 -0.981966
    34 0.120153 -0.050270 -0.054489 0.287569 3.110905 1.561085
    35 -0.770784 -12.184597 -11.665702 0.825331 -4.158509 1.060425
    36 0.163352 -8.426980 -0.122650 0.054076 0.279604 0.144557
    37 0.447953 -2.798986 -0.200443 -0.766401 -0.129331 0.115023
    38 -0.032909 -1.499736 0.024472 -1.317840 0.023130 -0.024399
    39 -0.027022 -1.135516 -0.020210 -1.457332 0.024916 -0.028667
    40 -0.249534 -2.846964 -0.174213 -0.840251 -0.015933 -0.006622
    41 0.043235 -1.656596 0.072574 -1.342461 -0.021254 0.006221
    42 0.031729 -1.137392 0.051025 -1.488958 -0.016472 0.008684
    43 -0.963866 -2.785145 -0.085350 -0.692189 0.147942 -0.217960
    44 0.028479 -1.403067 -0.017167 -0.912717 -0.023190 -0.033125
    45 0.021413 -0.938249 0.004421 -1.329270 -0.041215 -0.037835
    46 1.164475 -2.543940 -0.170330 -0.761950 -0.355109 0.187253
    47 0.024032 -1.140761 -0.005631 -1.027049 0.002169 0.047053
    48 0.014898 -0.899614 -0.015942 -0.980908 0.008042 0.049281
    49 -0.586770 -1.264477 0.200161 0.341954 -0.697086 -2.918566
    50 1.561899 0.035243 0.016848 -0.017214 -0.006571 0.835038
    51 1.110134 0.040611 -0.005766 -0.036664 -0.031897 1.293241
    52 -0.139399 -0.111698 0.014397 -0.044786 -0.030687 1.580508
    53 -6.139709 6.218003 -0.380062 1.579750 -0.022541 -0.896031
end
