version 1
nodes
  0 "Bone_Root" -1
  1 "Bone01" 0
  2 "Bone_Lefthand" 1
  3 "wa2000_root" 2
  4 "trigger" 3
  5 "load" 3
  6 "magazine" 3
  7 "Bone04" 0
  8 "Bone_Righthand" 7
  9 "Bone39" 8
  10 "Bone40" 9
  11 "Bone41" 10
  12 "Bone35" 8
  13 "Bone36" 12
  14 "Bone37" 13
  15 "Bone31" 8
  16 "Bone32" 15
  17 "Bone33" 16
  18 "Bone43" 8
  19 "Bone44" 18
  20 "Bone45" 19
  21 "Bone27" 8
  22 "Bone28" 21
  23 "Bone29" 22
  24 "Bone_Se_Hand-R" 8
  25 "Bone13" 2
  26 "Bone14" 25
  27 "Bone15" 26
  28 "Bone17" 2
  29 "Bone18" 28
  30 "Bone19" 29
  31 "Bone21" 2
  32 "Bone22" 31
  33 "Bone23" 32
  34 "Bone09" 2
  35 "Bone10" 34
  36 "Bone11" 35
  37 "Bone05" 2
  38 "Bone06" 37
  39 "Bone07" 38
  40 "Bone_Se_Hand-L" 2
end
skeleton
  time 0
    0 0.000000 0.000000 0.000000 0.000000 0.000000 -0.000015
    1 6.208814 4.865604 -6.974305 6.073715 -1.608779 0.168997
    2 -0.071918 -8.498732 -0.104137 0.000815 0.288635 0.105900
    3 2.305589 -2.755951 1.800741 -0.057826 0.286072 -3.251386
    4 0.822732 1.600163 0.000001 0.000002 0.000000 -0.024500
    5 -0.135229 4.811260 0.000000 0.000000 0.000000 1.558216
    6 -0.114076 -2.997109 0.000000 0.000000 0.000000 -0.019284
    7 -1.055155 -7.031262 -7.666015 -0.126097 -6.210308 0.489245
    8 0.096944 -8.450418 -0.009364 -0.135218 -0.268259 0.357727
    9 0.447952 -2.798983 -0.200442 -0.766175 -0.010396 0.265094
    10 -0.032910 -1.480206 0.004936 -0.491709 0.000000 0.000002
    11 -0.027022 -1.076919 -0.020212 -1.394127 0.000000 0.000000
    12 -0.249534 -2.846962 -0.174215 -0.219885 -0.000125 -0.008396
    13 0.043235 -1.683940 0.096014 -1.114670 0.002823 -0.000167
    14 0.031729 -1.160831 0.058836 -0.912818 0.000642 0.008372
    15 -0.963866 -2.785142 -0.085346 0.070022 0.162276 -0.191556
    16 0.028479 -1.403069 0.006271 -0.596895 0.000000 0.000000
    17 0.021413 -0.957782 0.020047 -0.432482 0.000000 0.000000
    18 1.164474 -2.543938 -0.170328 -0.702390 -0.013294 0.477915
    19 0.024033 -1.129042 0.017806 -0.803472 0.000000 0.000001
    20 0.014896 -0.883989 -0.019845 -0.584392 0.000000 0.000000
    21 -0.586770 -1.264475 0.200164 -0.286523 -0.333668 -2.448911
    22 1.522835 0.058681 0.016850 -0.077532 -0.420682 0.144516
    23 1.117948 0.048424 -0.005764 -0.000243 -0.025198 0.065422
    24 -0.139399 -0.111697 0.014397 0.285382 -0.030687 1.580508
    25 -0.488517 -2.755600 -0.228261 -1.119640 -0.066262 -0.107564
    26 0.039888 -1.479789 0.029853 -1.451658 0.000000 0.000000
    27 0.028786 -1.075730 -0.023111 -0.870565 0.000000 0.000000
    28 0.250028 -2.820664 -0.238396 -0.916633 -0.083577 -0.024886
    29 -0.049759 -1.680545 0.100480 -1.550922 0.000000 -0.000002
    30 -0.034141 -1.148312 0.084779 -1.087312 0.000000 0.000000
    31 0.957766 -2.746776 -0.090301 -0.432128 -0.184437 0.072455
    32 -0.033419 -1.397128 -0.011255 -0.247860 0.000000 -0.000001
    33 -0.022361 -0.957434 0.018783 -0.956086 0.000000 0.000000
    34 -1.180680 -2.507215 -0.193861 -0.747365 0.130011 -0.054388
    35 -0.024966 -1.123935 0.017594 -1.414285 0.000000 0.000001
    36 -0.020057 -0.890966 0.010091 -0.846171 0.000000 0.000000
    37 0.583510 -1.197274 0.185377 0.631272 -1.323162 -0.918160
    38 1.535926 0.010244 0.005008 -0.124883 0.065220 -0.956765
    39 1.100770 0.004526 -0.010676 -0.014685 0.006877 -0.956472
    40 0.120152 -0.050266 -0.054488 0.287568 3.110905 1.561085
  time 1
    0 0.000000 0.000000 0.000000 0.028240 0.000000 -0.000015
    1 6.615076 5.381244 -6.974305 5.707474 -1.622001 0.530890
    2 -0.071918 -8.498732 -0.104137 0.000332 0.289312 0.092830
    3 2.305589 -2.755951 1.800741 -0.057826 0.286072 -3.251386
    4 0.822732 1.600163 0.000001 0.000002 0.000000 -0.024500
    5 -0.158667 2.815106 0.000000 0.000000 0.000000 1.558216
    6 -0.114076 -2.997109 0.000000 0.000000 0.000000 -0.019284
    7 -1.055155 -6.562498 -7.666015 -0.125332 -6.209075 0.499631
    8 0.096944 -8.450418 -0.009364 -0.138646 -0.268259 0.357727
    9 0.447952 -2.798983 -0.200442 -0.766175 -0.010396 0.265094
    10 -0.032910 -1.480206 0.004936 -0.491709 0.000000 0.000002
    11 -0.027022 -1.076919 -0.020212 -1.394127 0.000000 0.000000
    12 -0.249534 -2.846962 -0.174215 -0.219885 -0.000125 -0.008396
    13 0.043235 -1.683940 0.096014 -1.114670 0.002823 -0.000167
    14 0.031729 -1.160831 0.058836 -0.912818 0.000642 0.008372
    15 -0.963866 -2.785142 -0.085346 0.070022 0.162276 -0.191556
    16 0.028479 -1.403069 0.006271 -0.596895 0.000000 0.000000
    17 0.021413 -0.957782 0.020047 -0.432482 0.000000 0.000000
    18 1.164474 -2.543938 -0.170328 -0.702390 -0.013294 0.477915
    19 0.024033 -1.129042 0.017806 -0.803472 0.000000 0.000001
    20 0.014896 -0.883989 -0.019845 -0.584392 0.000000 0.000000
    21 -0.586770 -1.264475 0.200164 -0.286523 -0.333668 -2.448911
    22 1.522835 0.058681 0.016850 -0.035370 -0.423975 0.042335
    23 1.117948 0.048424 -0.005764 -0.003695 -0.024719 0.204129
    24 -0.139399 -0.111697 0.014397 0.285382 -0.030687 1.580508
    25 -0.488517 -2.755600 -0.228261 -1.119640 -0.066262 -0.107564
    26 0.039888 -1.479789 0.029853 -1.451658 0.000000 0.000000
    27 0.028786 -1.075730 -0.023111 -0.870565 0.000000 0.000000
    28 0.250028 -2.820664 -0.238396 -0.916633 -0.083577 -0.024886
    29 -0.049759 -1.680545 0.100480 -1.550922 0.000000 -0.000002
    30 -0.034141 -1.148312 0.084779 -1.087312 0.000000 0.000000
    31 0.957766 -2.746776 -0.090301 -0.432128 -0.184437 0.072455
    32 -0.033419 -1.397128 -0.011255 -0.247860 0.000000 -0.000001
    33 -0.022361 -0.957434 0.018783 -0.956086 0.000000 0.000000
    34 -1.180680 -2.507215 -0.193861 -0.747365 0.130011 -0.054388
    35 -0.024966 -1.123935 0.017594 -1.414285 0.000000 0.000001
    36 -0.020057 -0.890966 0.010091 -0.846171 0.000000 0.000000
    37 0.583510 -1.197274 0.185377 0.631272 -1.323162 -0.918160
    38 1.535926 0.010244 0.005008 -0.124883 0.065220 -0.956765
    39 1.100770 0.004526 -0.010676 -0.014685 0.006877 -0.956472
    40 0.120152 -0.050266 -0.054488 0.287568 3.110905 1.561085
  time 2
    0 0.000000 0.000000 0.000000 0.056479 0.000000 -0.000015
    1 7.021339 5.892979 -6.974305 5.341233 -1.635174 0.892866
    2 -0.071918 -8.498732 -0.104137 -0.000151 0.289972 0.079742
    3 2.305589 -2.755951 1.800741 -0.057826 0.286072 -3.251386
    4 0.822732 1.600163 0.000001 0.000002 0.000000 -0.024500
    5 -0.182105 0.815045 0.000000 0.000000 0.000000 1.558216
    6 -0.114076 -2.997109 0.000000 0.000000 0.000000 -0.019284
    7 -1.055155 -6.093734 -7.666015 -0.124567 -6.207748 0.510112
    8 0.096944 -8.450418 -0.009364 -0.147913 -0.268259 0.357727
    9 0.447952 -2.798983 -0.200442 -0.766175 -0.010396 0.265094
    10 -0.032910 -1.480206 0.004936 -0.491709 0.000000 0.000002
    11 -0.027022 -1.076919 -0.020212 -1.394127 0.000000 0.000000
    12 -0.249534 -2.846962 -0.174215 -0.219885 -0.000125 -0.008396
    13 0.043235 -1.683940 0.096014 -1.114670 0.002823 -0.000167
    14 0.031729 -1.160831 0.058836 -0.912818 0.000642 0.008372
    15 -0.963866 -2.785142 -0.085346 0.070022 0.162276 -0.191556
    16 0.028479 -1.403069 0.006271 -0.596895 0.000000 0.000000
    17 0.021413 -0.957782 0.020047 -0.432482 0.000000 0.000000
    18 1.164474 -2.543938 -0.170328 -0.702390 -0.013294 0.477915
    19 0.024033 -1.129042 0.017806 -0.803472 0.000000 0.000001
    20 0.014896 -0.883989 -0.019845 -0.584392 0.000000 0.000000
    21 -0.586770 -1.264475 0.200164 -0.286523 -0.333668 -2.448911
    22 1.522835 0.058681 0.016850 0.006775 -0.427294 -0.059809
    23 1.117948 0.048424 -0.005764 -0.007410 -0.024097 0.354585
    24 -0.139399 -0.111697 0.014397 0.285382 -0.030687 1.580508
    25 -0.488517 -2.755600 -0.228261 -1.119640 -0.066262 -0.107564
    26 0.039888 -1.479789 0.029853 -1.451658 0.000000 0.000000
    27 0.028786 -1.075730 -0.023111 -0.870565 0.000000 0.000000
    28 0.250028 -2.820664 -0.238396 -0.916633 -0.083577 -0.024886
    29 -0.049759 -1.680545 0.100480 -1.550922 0.000000 -0.000002
    30 -0.034141 -1.148312 0.084779 -1.087312 0.000000 0.000000
    31 0.957766 -2.746776 -0.090301 -0.432128 -0.184437 0.072455
    32 -0.033419 -1.397128 -0.011255 -0.247860 0.000000 -0.000001
    33 -0.022361 -0.957434 0.018783 -0.956086 0.000000 0.000000
    34 -1.180680 -2.507215 -0.193861 -0.747365 0.130011 -0.054388
    35 -0.024966 -1.123935 0.017594 -1.414285 0.000000 0.000001
    36 -0.020057 -0.890966 0.010091 -0.846171 0.000000 0.000000
    37 0.583510 -1.197274 0.185377 0.631272 -1.323162 -0.918177
    38 1.535926 0.010244 0.005008 -0.124883 0.065220 -0.956765
    39 1.100770 0.004526 -0.010676 -0.014685 0.006877 -0.956472
    40 0.120152 -0.050266 -0.054488 0.287568 3.110905 1.561085
  time 3
    0 0.000000 0.000000 0.000000 0.042111 0.000000 -0.000015
    1 7.013526 5.885166 -6.974305 6.067715 -1.625345 0.163229
    2 -0.071918 -8.498732 -0.104137 -0.000006 0.289770 0.084238
    3 2.305589 -2.755951 1.800741 -0.057826 0.286072 -3.251386
    4 0.822732 1.600163 0.000001 0.000002 0.000000 -0.024500
    5 -0.178199 1.233026 0.000000 0.000000 0.000000 1.558216
    6 -0.114076 -2.997109 0.000000 0.000000 0.000000 -0.019284
    7 -1.055155 -6.148423 -7.443352 -0.127881 -6.207843 0.509160
    8 0.096944 -8.450418 -0.009364 -0.161554 -0.268259 0.357727
    9 0.447952 -2.798983 -0.200442 -0.766175 -0.010396 0.265094
    10 -0.032910 -1.480206 0.004936 -0.491709 0.000000 0.000002
    11 -0.027022 -1.076919 -0.020212 -1.394127 0.000000 0.000000
    12 -0.249534 -2.846962 -0.174215 -0.219885 -0.000125 -0.008396
    13 0.043235 -1.683940 0.096014 -1.114670 0.002823 -0.000167
    14 0.031729 -1.160831 0.058836 -0.912818 0.000642 0.008372
    15 -0.963866 -2.785142 -0.085346 0.070022 0.162276 -0.191556
    16 0.028479 -1.403069 0.006271 -0.596895 0.000000 0.000000
    17 0.021413 -0.957782 0.020047 -0.432482 0.000000 0.000000
    18 1.164474 -2.543938 -0.170328 -0.702390 -0.013294 0.477915
    19 0.024033 -1.129042 0.017806 -0.803472 0.000000 0.000001
    20 0.014896 -0.883989 -0.019845 -0.584392 0.000000 0.000000
    21 -0.586770 -1.264475 0.200164 -0.286523 -0.333668 -2.448911
    22 1.522835 0.058681 0.016850 -0.074234 -0.419275 0.137258
    23 1.117948 0.048424 -0.005764 -0.007901 -0.023906 0.376267
    24 -0.139399 -0.111697 0.014397 0.285382 -0.030687 1.580508
    25 -0.488517 -2.755600 -0.228261 -1.119640 -0.066262 -0.107564
    26 0.039888 -1.479789 0.029853 -1.451658 0.000000 0.000000
    27 0.028786 -1.075730 -0.023111 -0.870565 0.000000 0.000000
    28 0.250028 -2.820664 -0.238396 -0.916633 -0.083577 -0.024886
    29 -0.049759 -1.680545 0.100480 -1.550922 0.000000 -0.000002
    30 -0.034141 -1.148312 0.084779 -1.087312 0.000000 0.000000
    31 0.957766 -2.746776 -0.090301 -0.432128 -0.184437 0.072455
    32 -0.033419 -1.397128 -0.011255 -0.247860 0.000000 -0.000001
    33 -0.022361 -0.957434 0.018783 -0.956086 0.000000 0.000000
    34 -1.180680 -2.507215 -0.193861 -0.747365 0.130011 -0.054388
    35 -0.024966 -1.123935 0.017594 -1.414285 0.000000 0.000001
    36 -0.020057 -0.890966 0.010091 -0.846171 0.000000 0.000000
    37 0.583510 -1.197274 0.185377 0.631272 -1.323162 -0.918160
    38 1.535926 0.010244 0.005008 -0.124883 0.065220 -0.956765
    39 1.100770 0.004526 -0.010676 -0.014685 0.006877 -0.956472
    40 0.120152 -0.050266 -0.054488 0.287568 3.110905 1.561085
  time 4
    0 0.000000 0.000000 0.000000 0.015390 0.000000 -0.000015
    1 6.993994 5.857821 -6.974305 0.511066 -1.615166 -0.566409
    2 -0.071918 -8.498732 -0.104137 0.000405 0.289202 0.096106
    3 2.305589 -2.755951 1.800741 -0.057826 0.286072 -3.251386
    4 0.822732 1.600163 0.000001 0.000002 0.000000 -0.024500
    5 -0.166480 2.225244 0.000000 0.000000 0.000000 1.558216
    6 -0.114076 -2.997109 0.000000 0.000000 0.000000 -0.019284
    7 -1.055155 -6.253895 -7.138655 -0.136356 -6.208127 0.506873
    8 0.096944 -8.450418 -0.009364 -0.178069 -0.268259 0.357727
    9 0.447952 -2.798983 -0.200442 -0.766175 -0.010396 0.265094
    10 -0.032910 -1.480206 0.004936 -0.491709 0.000000 0.000002
    11 -0.027022 -1.076919 -0.020212 -1.394127 0.000000 0.000000
    12 -0.249534 -2.846962 -0.174215 -0.219885 -0.000125 -0.008396
    13 0.043235 -1.683940 0.096014 -1.114670 0.002823 -0.000167
    14 0.031729 -1.160831 0.058836 -0.912818 0.000642 0.008372
    15 -0.963866 -2.785142 -0.085346 0.070022 0.162276 -0.191556
    16 0.028479 -1.403069 0.006271 -0.596895 0.000000 0.000000
    17 0.021413 -0.957782 0.020047 -0.432482 0.000000 0.000000
    18 1.164474 -2.543938 -0.170328 -0.702390 -0.013294 0.477915
    19 0.024033 -1.129042 0.017806 -0.803472 0.000000 0.000001
    20 0.014896 -0.883989 -0.019845 -0.584392 0.000000 0.000000
    21 -0.586770 -1.264475 0.200164 -0.286523 -0.333668 -2.448911
    22 1.522835 0.058681 0.016850 -0.074691 -0.419328 0.138241
    23 1.117948 0.048424 -0.005764 -0.008333 -0.023762 0.394550
    24 -0.139399 -0.111697 0.014397 0.285382 -0.030687 1.580508
    25 -0.488517 -2.755600 -0.228261 -1.119640 -0.066262 -0.107564
    26 0.039888 -1.479789 0.029853 -1.451658 0.000000 0.000000
    27 0.028786 -1.075730 -0.023111 -0.870565 0.000000 0.000000
    28 0.250028 -2.820664 -0.238396 -0.916633 -0.083577 -0.024886
    29 -0.049759 -1.680545 0.100480 -1.550922 0.000000 -0.000002
    30 -0.034141 -1.148312 0.084779 -1.087312 0.000000 0.000000
    31 0.957766 -2.746776 -0.090301 -0.432128 -0.184437 0.072455
    32 -0.033419 -1.397128 -0.011255 -0.247860 0.000000 -0.000001
    33 -0.022361 -0.957434 0.018783 -0.956086 0.000000 0.000000
    34 -1.180680 -2.507215 -0.193861 -0.747365 0.130011 -0.054388
    35 -0.024966 -1.123935 0.017594 -1.414285 0.000000 0.000001
    36 -0.020057 -0.890966 0.010091 -0.846171 0.000000 0.000000
    37 0.583510 -1.197274 0.185377 0.631272 -1.323162 -0.918177
    38 1.535926 0.010244 0.005008 -0.124883 0.065220 -0.956765
    39 1.100770 0.004526 -0.010676 -0.014685 0.006877 -0.956472
    40 0.120152 -0.050266 -0.054488 0.287568 3.110905 1.561085
  time 5
    0 0.000000 0.000000 0.000000 0.000818 0.000000 -0.000015
    1 6.958837 5.818758 -6.974305 0.502972 -1.614467 -0.558169
    2 -0.071918 -8.498732 -0.104137 0.000960 0.288415 0.112905
    3 2.305589 -2.755951 1.800741 -0.057826 0.286072 -3.251386
    4 0.822732 1.600163 0.000001 0.000002 0.000000 -0.024500
    5 -0.150854 3.404967 0.000000 0.000000 0.000000 1.558216
    6 -0.114076 -2.997109 0.000000 0.000000 0.000000 -0.019284
    7 -1.055155 -6.378899 -7.021464 -0.147891 -6.208506 0.503824
    8 0.096944 -8.450418 -0.009364 -0.195977 -0.268259 0.357727
    9 0.447952 -2.798983 -0.200442 -0.766175 -0.010396 0.265094
    10 -0.032910 -1.480206 0.004936 -0.491709 0.000000 0.000002
    11 -0.027022 -1.076919 -0.020212 -1.394127 0.000000 0.000000
    12 -0.249534 -2.846962 -0.174215 -0.219885 -0.000125 -0.008396
    13 0.043235 -1.683940 0.096014 -1.114670 0.002823 -0.000167
    14 0.031729 -1.160831 0.058836 -0.912818 0.000642 0.008372
    15 -0.963866 -2.785142 -0.085346 0.070022 0.162276 -0.191556
    16 0.028479 -1.403069 0.006271 -0.596895 0.000000 0.000000
    17 0.021413 -0.957782 0.020047 -0.432482 0.000000 0.000000
    18 1.164474 -2.543938 -0.170328 -0.702390 -0.013294 0.477915
    19 0.024033 -1.129042 0.017806 -0.803472 0.000000 0.000001
    20 0.014896 -0.883989 -0.019845 -0.584392 0.000000 0.000000
    21 -0.586770 -1.264475 0.200164 -0.286523 -0.333668 -2.448911
    22 1.522835 0.058681 0.016850 -0.075149 -0.419435 0.139262
    23 1.117948 0.048424 -0.005764 -0.008668 -0.023618 0.409581
    24 -0.139399 -0.111697 0.014397 0.285382 -0.030687 1.580508
    25 -0.488517 -2.755600 -0.228261 -1.119640 -0.066262 -0.107564
    26 0.039888 -1.479789 0.029853 -1.451658 0.000000 0.000000
    27 0.028786 -1.075730 -0.023111 -0.870565 0.000000 0.000000
    28 0.250028 -2.820664 -0.238396 -0.916633 -0.083577 -0.024886
    29 -0.049759 -1.680545 0.100480 -1.550922 0.000000 -0.000002
    30 -0.034141 -1.148312 0.084779 -1.087312 0.000000 0.000000
    31 0.957766 -2.746776 -0.090301 -0.432128 -0.184437 0.072455
    32 -0.033419 -1.397128 -0.011255 -0.247860 0.000000 -0.000001
    33 -0.022361 -0.957434 0.018783 -0.956086 0.000000 0.000000
    34 -1.180680 -2.507215 -0.193861 -0.747365 0.130011 -0.054388
    35 -0.024966 -1.123935 0.017594 -1.414285 0.000000 0.000001
    36 -0.020057 -0.890966 0.010091 -0.846171 0.000000 0.000000
    37 0.583510 -1.197274 0.185377 0.631272 -1.323162 -0.918160
    38 1.535926 0.010244 0.005008 -0.124883 0.065220 -0.956765
    39 1.100770 0.004526 -0.010676 -0.014685 0.006877 -0.956472
    40 0.120152 -0.050266 -0.054488 0.287568 3.110905 1.561085
  time 6
    0 0.000000 0.000000 0.000000 0.000496 0.000000 -0.000015
    1 6.915867 5.764069 -6.974305 0.480117 -1.613819 -0.534768
    2 -0.071918 -8.498732 -0.104137 0.001612 0.287518 0.132144
    3 2.305589 -2.755951 1.800741 -0.057826 0.286072 -3.251386
    4 0.822732 1.600163 0.000001 0.000002 0.000000 -0.024500
    5 -0.139135 4.397185 0.000000 0.000000 0.000000 1.558216
    6 -0.114076 -2.997109 0.000000 0.000000 0.000000 -0.019284
    7 -1.055155 -6.499996 -6.990213 -0.160190 -6.208886 0.500584
    8 0.096944 -8.450418 -0.009364 -0.213796 -0.268259 0.357727
    9 0.447952 -2.798983 -0.200442 -0.766175 -0.010396 0.265094
    10 -0.032910 -1.480206 0.004936 -0.491709 0.000000 0.000002
    11 -0.027022 -1.076919 -0.020212 -1.394127 0.000000 0.000000
    12 -0.249534 -2.846962 -0.174215 -0.219885 -0.000125 -0.008396
    13 0.043235 -1.683940 0.096014 -1.114670 0.002823 -0.000167
    14 0.031729 -1.160831 0.058836 -0.912818 0.000642 0.008372
    15 -0.963866 -2.785142 -0.085346 0.070022 0.162276 -0.191556
    16 0.028479 -1.403069 0.006271 -0.596895 0.000000 0.000000
    17 0.021413 -0.957782 0.020047 -0.432482 0.000000 0.000000
    18 1.164474 -2.543938 -0.170328 -0.702390 -0.013294 0.477915
    19 0.024033 -1.129042 0.017806 -0.803472 0.000000 0.000001
    20 0.014896 -0.883989 -0.019845 -0.584392 0.000000 0.000000
    21 -0.586770 -1.264475 0.200164 -0.286523 -0.333668 -2.448911
    22 1.522835 0.058681 0.016850 -0.075591 -0.419567 0.140245
    23 1.117948 0.048424 -0.005764 -0.008956 -0.023475 0.421506
    24 -0.139399 -0.111697 0.014397 0.285382 -0.030687 1.580508
    25 -0.488517 -2.755600 -0.228261 -1.119640 -0.066262 -0.107564
    26 0.039888 -1.479789 0.029853 -1.451658 0.000000 0.000000
    27 0.028786 -1.075730 -0.023111 -0.870565 0.000000 0.000000
    28 0.250028 -2.820664 -0.238396 -0.916633 -0.083577 -0.024886
    29 -0.049759 -1.680545 0.100480 -1.550922 0.000000 -0.000002
    30 -0.034141 -1.148312 0.084779 -1.087312 0.000000 0.000000
    31 0.957766 -2.746776 -0.090301 -0.432128 -0.184437 0.072455
    32 -0.033419 -1.397128 -0.011255 -0.247860 0.000000 -0.000001
    33 -0.022361 -0.957434 0.018783 -0.956086 0.000000 0.000000
    34 -1.180680 -2.507215 -0.193861 -0.747365 0.130011 -0.054388
    35 -0.024966 -1.123935 0.017594 -1.414285 0.000000 0.000001
    36 -0.020057 -0.890966 0.010091 -0.846171 0.000000 0.000000
    37 0.583510 -1.197274 0.185377 0.631272 -1.323162 -0.918160
    38 1.535926 0.010244 0.005008 -0.124883 0.065220 -0.956765
    39 1.100770 0.004526 -0.010676 -0.014685 0.006877 -0.956472
    40 0.120152 -0.050266 -0.054488 0.287568 3.110905 1.561085
  time 7
    0 0.000000 0.000000 0.000000 0.000263 0.000000 -0.000015
    1 6.868990 5.701567 -6.974305 0.444598 -1.613170 -0.498512
    2 -0.071918 -8.498732 -0.104137 0.002240 0.286620 0.151383
    3 2.305589 -2.755951 1.800741 -0.057826 0.286072 -3.251386
    4 0.822732 1.600163 0.000001 0.000002 0.000000 -0.024500
    5 -0.135229 4.811260 0.000000 0.000000 0.000000 1.558216
    6 -0.114076 -2.997109 0.000000 0.000000 0.000000 -0.019284
    7 -1.055155 -6.589843 -7.009745 -0.171214 -6.209265 0.497916
    8 0.096944 -8.450418 -0.009364 -0.230026 -0.268259 0.357727
    9 0.447952 -2.798983 -0.200442 -0.766175 -0.010396 0.265094
    10 -0.032910 -1.480206 0.004936 -0.491709 0.000000 0.000002
    11 -0.027022 -1.076919 -0.020212 -1.394127 0.000000 0.000000
    12 -0.249534 -2.846962 -0.174215 -0.219885 -0.000125 -0.008396
    13 0.043235 -1.683940 0.096014 -1.114670 0.002823 -0.000167
    14 0.031729 -1.160831 0.058836 -0.912818 0.000642 0.008372
    15 -0.963866 -2.785142 -0.085346 0.070022 0.162276 -0.191556
    16 0.028479 -1.403069 0.006271 -0.596895 0.000000 0.000000
    17 0.021413 -0.957782 0.020047 -0.432482 0.000000 0.000000
    18 1.164474 -2.543938 -0.170328 -0.702390 -0.013294 0.477915
    19 0.024033 -1.129042 0.017806 -0.803472 0.000000 0.000001
    20 0.014896 -0.883989 -0.019845 -0.584392 0.000000 0.000000
    21 -0.586770 -1.264475 0.200164 -0.286523 -0.333668 -2.448911
    22 1.522835 0.058681 0.016850 -0.076033 -0.419780 0.141190
    23 1.117948 0.048424 -0.005764 -0.009160 -0.023379 0.430501
    24 -0.139399 -0.111697 0.014397 0.285382 -0.030687 1.580508
    25 -0.488517 -2.755600 -0.228261 -1.119640 -0.066262 -0.107564
    26 0.039888 -1.479789 0.029853 -1.451658 0.000000 0.000000
    27 0.028786 -1.075730 -0.023111 -0.870565 0.000000 0.000000
    28 0.250028 -2.820664 -0.238396 -0.916633 -0.083577 -0.024886
    29 -0.049759 -1.680545 0.100480 -1.550922 0.000000 -0.000002
    30 -0.034141 -1.148312 0.084779 -1.087312 0.000000 0.000000
    31 0.957766 -2.746776 -0.090301 -0.432128 -0.184437 0.072455
    32 -0.033419 -1.397128 -0.011255 -0.247860 0.000000 -0.000001
    33 -0.022361 -0.957434 0.018783 -0.956086 0.000000 0.000000
    34 -1.180680 -2.507215 -0.193861 -0.747365 0.130011 -0.054388
    35 -0.024966 -1.123935 0.017594 -1.414285 0.000000 0.000001
    36 -0.020057 -0.890966 0.010091 -0.846171 0.000000 0.000000
    37 0.583510 -1.197274 0.185377 0.631272 -1.323162 -0.918160
    38 1.535926 0.010244 0.005008 -0.124883 0.065220 -0.956765
    39 1.100770 0.004526 -0.010676 -0.014685 0.006877 -0.956472
    40 0.120152 -0.050266 -0.054488 0.287568 3.110905 1.561085
  time 8
    0 0.000000 0.000000 0.000000 0.000088 0.000000 -0.000015
    1 6.810395 5.627346 -6.974305 0.398508 -1.612571 -0.451463
    2 -0.071918 -8.498732 -0.104137 0.002795 0.285833 0.168165
    3 2.305589 -2.755951 1.800741 -0.057826 0.286072 -3.251386
    4 0.822732 1.600163 0.000001 0.000002 0.000000 -0.024500
    5 -0.135229 4.811260 0.000000 0.000000 0.000000 1.558216
    6 -0.114076 -2.997109 0.000000 0.000000 0.000000 -0.019284
    7 -1.055155 -6.691408 -7.060528 -0.183258 -6.209550 0.495819
    8 0.096944 -8.450418 -0.009364 -0.250880 -0.268259 0.357727
    9 0.447952 -2.798983 -0.200442 -0.766175 -0.010396 0.265094
    10 -0.032910 -1.480206 0.004936 -0.491709 0.000000 0.000002
    11 -0.027022 -1.076919 -0.020212 -1.394127 0.000000 0.000000
    12 -0.249534 -2.846962 -0.174215 -0.219885 -0.000125 -0.008396
    13 0.043235 -1.683940 0.096014 -1.114670 0.002823 -0.000167
    14 0.031729 -1.160831 0.058836 -0.912818 0.000642 0.008372
    15 -0.963866 -2.785142 -0.085346 0.070022 0.162276 -0.191556
    16 0.028479 -1.403069 0.006271 -0.596895 0.000000 0.000000
    17 0.021413 -0.957782 0.020047 -0.432482 0.000000 0.000000
    18 1.164474 -2.543938 -0.170328 -0.702390 -0.013294 0.477915
    19 0.024033 -1.129042 0.017806 -0.803472 0.000000 0.000001
    20 0.014896 -0.883989 -0.019845 -0.584392 0.000000 0.000000
    21 -0.586770 -1.264475 0.200164 -0.286523 -0.333668 -2.448911
    22 1.522835 0.058681 0.016850 -0.076443 -0.419966 0.142097
    23 1.117948 0.048424 -0.005764 -0.009315 -0.023331 0.436742
    24 -0.139399 -0.111697 0.014397 0.285382 -0.030687 1.580508
    25 -0.488517 -2.755600 -0.228261 -1.119640 -0.066262 -0.107564
    26 0.039888 -1.479789 0.029853 -1.451658 0.000000 0.000000
    27 0.028786 -1.075730 -0.023111 -0.870565 0.000000 0.000000
    28 0.250028 -2.820664 -0.238396 -0.916633 -0.083577 -0.024886
    29 -0.049759 -1.680545 0.100480 -1.550922 0.000000 -0.000002
    30 -0.034141 -1.148312 0.084779 -1.087312 0.000000 0.000000
    31 0.957766 -2.746776 -0.090301 -0.432128 -0.184437 0.072455
    32 -0.033419 -1.397128 -0.011255 -0.247860 0.000000 -0.000001
    33 -0.022361 -0.957434 0.018783 -0.956086 0.000000 0.000000
    34 -1.180680 -2.507215 -0.193861 -0.747365 0.130011 -0.054388
    35 -0.024966 -1.123935 0.017594 -1.414285 0.000000 0.000001
    36 -0.020057 -0.890966 0.010091 -0.846171 0.000000 0.000000
    37 0.583510 -1.197274 0.185377 0.631272 -1.323162 -0.918177
    38 1.535926 0.010244 0.005008 -0.124883 0.065220 -0.956794
    39 1.100770 0.004526 -0.010676 -0.014685 0.006877 -0.956472
    40 0.120152 -0.050266 -0.054488 0.287568 3.110905 1.561085
  time 9
    0 0.000000 0.000000 0.000000 0.000000 0.000000 -0.000015
    1 6.747893 5.549218 -6.974305 0.344039 -1.611972 -0.395844
    2 -0.071918 -8.498732 -0.104137 0.003206 0.285265 0.180050
    3 2.305589 -2.755951 1.800741 -0.057826 0.286072 -3.251386
    4 0.822732 1.600163 0.000001 0.000002 0.000000 -0.024500
    5 -0.135229 4.811260 0.000000 0.000000 0.000000 1.558216
    6 -0.114076 -2.997109 0.000000 0.000000 0.000000 -0.019284
    7 -1.055155 -6.792974 -7.126936 -0.195620 -6.209739 0.494009
    8 0.096944 -8.450418 -0.009364 -0.273913 -0.268259 0.357727
    9 0.447952 -2.798983 -0.200442 -0.766175 -0.010396 0.265094
    10 -0.032910 -1.480206 0.004936 -0.491709 0.000000 0.000002
    11 -0.027022 -1.076919 -0.020212 -1.394127 0.000000 0.000000
    12 -0.249534 -2.846962 -0.174215 -0.219885 -0.000125 -0.008396
    13 0.043235 -1.683940 0.096014 -1.114670 0.002823 -0.000167
    14 0.031729 -1.160831 0.058836 -0.912818 0.000642 0.008372
    15 -0.963866 -2.785142 -0.085346 0.070022 0.162276 -0.191556
    16 0.028479 -1.403069 0.006271 -0.596895 0.000000 0.000000
    17 0.021413 -0.957782 0.020047 -0.432482 0.000000 0.000000
    18 1.164474 -2.543938 -0.170328 -0.702390 -0.013294 0.477915
    19 0.024033 -1.129042 0.017806 -0.803472 0.000000 0.000001
    20 0.014896 -0.883989 -0.019845 -0.584392 0.000000 0.000000
    21 -0.586770 -1.264475 0.200164 -0.286523 -0.333668 -2.448911
    22 1.522835 0.058681 0.016850 -0.076790 -0.420178 0.142891
    23 1.117948 0.048424 -0.005764 -0.009399 -0.023283 0.440375
    24 -0.139399 -0.111697 0.014397 0.285382 -0.030687 1.580508
    25 -0.488517 -2.755600 -0.228261 -1.119640 -0.066262 -0.107564
    26 0.039888 -1.479789 0.029853 -1.451658 0.000000 0.000000
    27 0.028786 -1.075730 -0.023111 -0.870565 0.000000 0.000000
    28 0.250028 -2.820664 -0.238396 -0.916633 -0.083577 -0.024886
    29 -0.049759 -1.680545 0.100480 -1.550922 0.000000 -0.000002
    30 -0.034141 -1.148312 0.084779 -1.087312 0.000000 0.000000
    31 0.957766 -2.746776 -0.090301 -0.432128 -0.184437 0.072455
    32 -0.033419 -1.397128 -0.011255 -0.247860 0.000000 -0.000001
    33 -0.022361 -0.957434 0.018783 -0.956086 0.000000 0.000000
    34 -1.180680 -2.507215 -0.193861 -0.747365 0.130011 -0.054388
    35 -0.024966 -1.123935 0.017594 -1.414285 0.000000 0.000001
    36 -0.020057 -0.890966 0.010091 -0.846171 0.000000 0.000000
    37 0.583510 -1.197274 0.185377 0.631272 -1.323162 -0.918160
    38 1.535926 0.010244 0.005008 -0.124883 0.065220 -0.956765
    39 1.100770 0.004526 -0.010676 -0.014685 0.006877 -0.956472
    40 0.120152 -0.050266 -0.054488 0.287568 3.110905 1.561085
  time 10
    0 0.000000 0.000000 0.000000 0.000000 0.000000 -0.000015
    1 6.681484 5.467185 -6.974305 0.283094 -1.611473 -0.333716
    2 -0.071918 -8.498732 -0.104137 0.003351 0.285064 0.184546
    3 2.305589 -2.755951 1.800741 -0.057826 0.286072 -3.251386
    4 0.822732 1.600163 0.000001 0.000002 0.000000 -0.024500
    5 -0.135229 4.811260 0.000000 0.000000 0.000000 1.558216
    6 -0.114076 -2.997109 0.000000 0.000000 0.000000 -0.019284
    7 -1.055155 -6.882820 -7.201157 -0.201356 -6.209929 0.492389
    8 0.096944 -8.450418 -0.009364 -0.284786 -0.268259 0.357727
    9 0.447952 -2.798983 -0.200442 -0.766175 -0.010396 0.265094
    10 -0.032910 -1.480206 0.004936 -0.491709 0.000000 0.000002
    11 -0.027022 -1.076919 -0.020212 -1.394127 0.000000 0.000000
    12 -0.249534 -2.846962 -0.174215 -0.219885 -0.000125 -0.008396
    13 0.043235 -1.683940 0.096014 -1.114670 0.002823 -0.000167
    14 0.031729 -1.160831 0.058836 -0.912818 0.000642 0.008372
    15 -0.963866 -2.785142 -0.085346 0.070022 0.162276 -0.191556
    16 0.028479 -1.403069 0.006271 -0.596895 0.000000 0.000000
    17 0.021413 -0.957782 0.020047 -0.432482 0.000000 0.000000
    18 1.164474 -2.543938 -0.170328 -0.702390 -0.013294 0.477915
    19 0.024033 -1.129042 0.017806 -0.803472 0.000000 0.000001
    20 0.014896 -0.883989 -0.019845 -0.584392 0.000000 0.000000
    21 -0.586770 -1.264475 0.200164 -0.286523 -0.333668 -2.448911
    22 1.522835 0.058681 0.016850 -0.077090 -0.420364 0.143534
    23 1.117948 0.048424 -0.005764 -0.009423 -0.023283 0.441547
    24 -0.139399 -0.111697 0.014397 0.285382 -0.030687 1.580508
    25 -0.488517 -2.755600 -0.228261 -1.119640 -0.066262 -0.107564
    26 0.039888 -1.479789 0.029853 -1.451658 0.000000 0.000000
    27 0.028786 -1.075730 -0.023111 -0.870565 0.000000 0.000000
    28 0.250028 -2.820664 -0.238396 -0.916633 -0.083577 -0.024886
    29 -0.049759 -1.680545 0.100480 -1.550922 0.000000 -0.000002
    30 -0.034141 -1.148312 0.084779 -1.087312 0.000000 0.000000
    31 0.957766 -2.746776 -0.090301 -0.432128 -0.184437 0.072455
    32 -0.033419 -1.397128 -0.011255 -0.247860 0.000000 -0.000001
    33 -0.022361 -0.957434 0.018783 -0.956086 0.000000 0.000000
    34 -1.180680 -2.507215 -0.193861 -0.747365 0.130011 -0.054388
    35 -0.024966 -1.123935 0.017594 -1.414285 0.000000 0.000001
    36 -0.020057 -0.890966 0.010091 -0.846171 0.000000 0.000000
    37 0.583510 -1.197274 0.185377 0.631272 -1.323162 -0.918160
    38 1.535926 0.010244 0.005008 -0.124883 0.065220 -0.956765
    39 1.100770 0.004526 -0.010676 -0.014685 0.006877 -0.956472
    40 0.120152 -0.050266 -0.054488 0.287568 3.110905 1.561085
  time 11
    0 0.000000 0.000000 0.000000 0.000000 0.000000 -0.000015
    1 6.615076 5.381244 -6.974305 0.218054 -1.610974 -0.267303
    2 -0.071918 -8.498732 -0.104137 0.003206 0.285229 0.180573
    3 2.305589 -2.755951 1.800741 -0.057826 0.286072 -3.251386
    4 0.822732 1.600163 0.000001 0.000002 0.000000 -0.024500
    5 -0.135229 4.811260 0.000000 0.000000 0.000000 1.558216
    6 -0.114076 -2.997109 0.000000 0.000000 0.000000 -0.019284
    7 -1.055155 -6.960948 -7.271472 -0.195302 -6.210024 0.490960
    8 0.096944 -8.450418 -0.009364 -0.261361 -0.268259 0.357727
    9 0.447952 -2.798983 -0.200442 -0.766175 -0.010396 0.265094
    10 -0.032910 -1.480206 0.004936 -0.491709 0.000000 0.000002
    11 -0.027022 -1.076919 -0.020212 -1.394127 0.000000 0.000000
    12 -0.249534 -2.846962 -0.174215 -0.219885 -0.000125 -0.008396
    13 0.043235 -1.683940 0.096014 -1.114670 0.002823 -0.000167
    14 0.031729 -1.160831 0.058836 -0.912818 0.000642 0.008372
    15 -0.963866 -2.785142 -0.085346 0.070022 0.162276 -0.191556
    16 0.028479 -1.403069 0.006271 -0.596895 0.000000 0.000000
    17 0.021413 -0.957782 0.020047 -0.432482 0.000000 0.000000
    18 1.164474 -2.543938 -0.170328 -0.702390 -0.013294 0.477915
    19 0.024033 -1.129042 0.017806 -0.803472 0.000000 0.000001
    20 0.014896 -0.883989 -0.019845 -0.584392 0.000000 0.000000
    21 -0.586770 -1.264475 0.200164 -0.286523 -0.333668 -2.448911
    22 1.522835 0.058681 0.016850 -0.077326 -0.420523 0.144063
    23 1.117948 0.048424 -0.005764 -0.007038 -0.023762 0.344037
    24 -0.139399 -0.111697 0.014397 0.285382 -0.030687 1.580508
    25 -0.488517 -2.755600 -0.228261 -1.119640 -0.066262 -0.107564
    26 0.039888 -1.479789 0.029853 -1.451658 0.000000 0.000000
    27 0.028786 -1.075730 -0.023111 -0.870565 0.000000 0.000000
    28 0.250028 -2.820664 -0.238396 -0.916633 -0.083577 -0.024886
    29 -0.049759 -1.680545 0.100480 -1.550922 0.000000 -0.000002
    30 -0.034141 -1.148312 0.084779 -1.087312 0.000000 0.000000
    31 0.957766 -2.746776 -0.090301 -0.432128 -0.184437 0.072455
    32 -0.033419 -1.397128 -0.011255 -0.247860 0.000000 -0.000001
    33 -0.022361 -0.957434 0.018783 -0.956086 0.000000 0.000000
    34 -1.180680 -2.507215 -0.193861 -0.747365 0.130011 -0.054388
    35 -0.024966 -1.123935 0.017594 -1.414285 0.000000 0.000001
    36 -0.020057 -0.890966 0.010091 -0.846171 0.000000 0.000000
    37 0.583510 -1.197274 0.185377 0.631272 -1.323162 -0.918177
    38 1.535926 0.010244 0.005008 -0.124883 0.065220 -0.956765
    39 1.100770 0.004526 -0.010676 -0.014685 0.006877 -0.956472
    40 0.120152 -0.050266 -0.054488 0.287568 3.110905 1.561085
  time 12
    0 0.000000 0.000000 0.000000 0.000000 0.000000 -0.000015
    1 6.548668 5.295304 -6.974305 0.150824 -1.610525 -0.198665
    2 -0.071918 -8.498732 -0.104137 0.002844 0.285705 0.169768
    3 2.305589 -2.755951 1.800741 -0.057826 0.286072 -3.251386
    4 0.822732 1.600163 0.000001 0.000002 0.000000 -0.024500
    5 -0.135229 4.811260 0.000000 0.000000 0.000000 1.558216
    6 -0.114076 -2.997109 0.000000 0.000000 0.000000 -0.019284
    7 -1.055155 -7.011730 -7.322254 -0.180645 -6.210119 0.489721
    8 0.096944 -8.450418 -0.009364 -0.216474 -0.268259 0.357727
    9 0.447952 -2.798983 -0.200442 -0.766175 -0.010396 0.265094
    10 -0.032910 -1.480206 0.004936 -0.491709 0.000000 0.000002
    11 -0.027022 -1.076919 -0.020212 -1.394127 0.000000 0.000000
    12 -0.249534 -2.846962 -0.174215 -0.219885 -0.000125 -0.008396
    13 0.043235 -1.683940 0.096014 -1.114670 0.002823 -0.000167
    14 0.031729 -1.160831 0.058836 -0.912818 0.000642 0.008372
    15 -0.963866 -2.785142 -0.085346 0.070022 0.162276 -0.191556
    16 0.028479 -1.403069 0.006271 -0.596895 0.000000 0.000000
    17 0.021413 -0.957782 0.020047 -0.432482 0.000000 0.000000
    18 1.164474 -2.543938 -0.170328 -0.702390 -0.013294 0.477915
    19 0.024033 -1.129042 0.017806 -0.803472 0.000000 0.000001
    20 0.014896 -0.883989 -0.019845 -0.584392 0.000000 0.000000
    21 -0.586770 -1.264475 0.200164 -0.286523 -0.333668 -2.448911
    22 1.522835 0.058681 0.016850 -0.077484 -0.420629 0.144403
    23 1.117948 0.048424 -0.005764 -0.002616 -0.024719 0.162933
    24 -0.139399 -0.111697 0.014397 0.285382 -0.030687 1.580508
    25 -0.488517 -2.755600 -0.228261 -1.119640 -0.066262 -0.107564
    26 0.039888 -1.479789 0.029853 -1.451658 0.000000 0.000000
    27 0.028786 -1.075730 -0.023111 -0.870565 0.000000 0.000000
    28 0.250028 -2.820664 -0.238396 -0.916633 -0.083577 -0.024886
    29 -0.049759 -1.680545 0.100480 -1.550922 0.000000 -0.000002
    30 -0.034141 -1.148312 0.084779 -1.087312 0.000000 0.000000
    31 0.957766 -2.746776 -0.090301 -0.432128 -0.184437 0.072455
    32 -0.033419 -1.397128 -0.011255 -0.247860 0.000000 -0.000001
    33 -0.022361 -0.957434 0.018783 -0.956086 0.000000 0.000000
    34 -1.180680 -2.507215 -0.193861 -0.747365 0.130011 -0.054388
    35 -0.024966 -1.123935 0.017594 -1.414285 0.000000 0.000001
    36 -0.020057 -0.890966 0.010091 -0.846171 0.000000 0.000000
    37 0.583510 -1.197274 0.185377 0.631272 -1.323162 -0.918160
    38 1.535926 0.010244 0.005008 -0.124883 0.065220 -0.956765
    39 1.100770 0.004526 -0.010676 -0.014685 0.006877 -0.956472
    40 0.120152 -0.050266 -0.054488 0.287568 3.110905 1.561085
  time 13
    0 0.000000 0.000000 0.000000 0.000000 0.000000 -0.000015
    1 6.482260 5.213271 -6.974305 0.083690 -1.610126 -0.130109
    2 -0.071918 -8.498732 -0.104137 0.002312 0.286419 0.153858
    3 2.305589 -2.755951 1.800741 -0.057826 0.286072 -3.251386
    4 0.822732 1.600163 0.000001 0.000002 0.000000 -0.024500
    5 -0.135229 4.811260 0.000000 0.000000 0.000000 1.558216
    6 -0.114076 -2.997109 0.000000 0.000000 0.000000 -0.019284
    7 -1.055155 -7.031262 -7.337880 -0.162356 -6.210308 0.489245
    8 0.096944 -8.450418 -0.009364 -0.188246 -0.268259 0.357727
    9 0.447952 -2.798983 -0.200442 -0.766175 -0.010396 0.265094
    10 -0.032910 -1.480206 0.004936 -0.491709 0.000000 0.000002
    11 -0.027022 -1.076919 -0.020212 -1.394127 0.000000 0.000000
    12 -0.249534 -2.846962 -0.174215 -0.219885 -0.000125 -0.008396
    13 0.043235 -1.683940 0.096014 -1.114670 0.002823 -0.000167
    14 0.031729 -1.160831 0.058836 -0.912818 0.000642 0.008372
    15 -0.963866 -2.785142 -0.085346 0.070022 0.162276 -0.191556
    16 0.028479 -1.403069 0.006271 -0.596895 0.000000 0.000000
    17 0.021413 -0.957782 0.020047 -0.432482 0.000000 0.000000
    18 1.164474 -2.543938 -0.170328 -0.702390 -0.013294 0.477915
    19 0.024033 -1.129042 0.017806 -0.803472 0.000000 0.000001
    20 0.014896 -0.883989 -0.019845 -0.584392 0.000000 0.000000
    21 -0.586770 -1.264475 0.200164 -0.286523 -0.333668 -2.448911
    22 1.522835 0.058681 0.016850 -0.077532 -0.420682 0.144516
    23 1.117948 0.048424 -0.005764 -0.000243 -0.025198 0.065422
    24 -0.139399 -0.111697 0.014397 0.285382 -0.030687 1.580508
    25 -0.488517 -2.755600 -0.228261 -1.119640 -0.066262 -0.107564
    26 0.039888 -1.479789 0.029853 -1.451658 0.000000 0.000000
    27 0.028786 -1.075730 -0.023111 -0.870565 0.000000 0.000000
    28 0.250028 -2.820664 -0.238396 -0.916633 -0.083577 -0.024886
    29 -0.049759 -1.680545 0.100480 -1.550922 0.000000 -0.000002
    30 -0.034141 -1.148312 0.084779 -1.087312 0.000000 0.000000
    31 0.957766 -2.746776 -0.090301 -0.432128 -0.184437 0.072455
    32 -0.033419 -1.397128 -0.011255 -0.247860 0.000000 -0.000001
    33 -0.022361 -0.957434 0.018783 -0.956086 0.000000 0.000000
    34 -1.180680 -2.507215 -0.193861 -0.747365 0.130011 -0.054388
    35 -0.024966 -1.123935 0.017594 -1.414285 0.000000 0.000001
    36 -0.020057 -0.890966 0.010091 -0.846171 0.000000 0.000000
    37 0.583510 -1.197274 0.185377 0.631272 -1.323162 -0.918160
    38 1.535926 0.010244 0.005008 -0.124883 0.065220 -0.956765
    39 1.100770 0.004526 -0.010676 -0.014685 0.006877 -0.956472
    40 0.120152 -0.050266 -0.054488 0.287568 3.110905 1.561085
  time 14
    0 0.000000 0.000000 0.000000 0.000000 0.000000 -0.000015
    1 6.419758 5.135143 -6.974305 0.018650 -1.609777 -0.063696
    2 -0.071918 -8.498732 -0.104137 0.001660 0.287261 0.134532
    3 2.305589 -2.755951 1.800741 -0.057826 0.286072 -3.251386
    4 0.822732 1.600163 0.000001 0.000002 0.000000 -0.024500
    5 -0.135229 4.811260 0.000000 0.000000 0.000000 1.558216
    6 -0.114076 -2.997109 0.000000 0.000000 0.000000 -0.019284
    7 -1.055155 -7.031262 -7.337880 -0.140753 -6.212205 0.489435
    8 0.096944 -8.450418 -0.009364 -0.181354 -0.268259 0.357727
    9 0.447952 -2.798983 -0.200442 -0.766175 -0.010396 0.265094
    10 -0.032910 -1.480206 0.004936 -0.491709 0.000000 0.000002
    11 -0.027022 -1.076919 -0.020212 -1.394127 0.000000 0.000000
    12 -0.249534 -2.846962 -0.174215 -0.219885 -0.000125 -0.008396
    13 0.043235 -1.683940 0.096014 -1.114670 0.002823 -0.000167
    14 0.031729 -1.160831 0.058836 -0.912818 0.000642 0.008372
    15 -0.963866 -2.785142 -0.085346 0.070022 0.162276 -0.191556
    16 0.028479 -1.403069 0.006271 -0.596895 0.000000 0.000000
    17 0.021413 -0.957782 0.020047 -0.432482 0.000000 0.000000
    18 1.164474 -2.543938 -0.170328 -0.702390 -0.013294 0.477915
    19 0.024033 -1.129042 0.017806 -0.803472 0.000000 0.000001
    20 0.014896 -0.883989 -0.019845 -0.584392 0.000000 0.000000
    21 -0.586770 -1.264475 0.200164 -0.286523 -0.333668 -2.448911
    22 1.522835 0.058681 0.016850 -0.077532 -0.420682 0.144516
    23 1.117948 0.048424 -0.005764 -0.000243 -0.025198 0.065422
    24 -0.139399 -0.111697 0.014397 0.285382 -0.030687 1.580508
    25 -0.488517 -2.755600 -0.228261 -1.119640 -0.066262 -0.107564
    26 0.039888 -1.479789 0.029853 -1.451658 0.000000 0.000000
    27 0.028786 -1.075730 -0.023111 -0.870565 0.000000 0.000000
    28 0.250028 -2.820664 -0.238396 -0.916633 -0.083577 -0.024886
    29 -0.049759 -1.680545 0.100480 -1.550922 0.000000 -0.000002
    30 -0.034141 -1.148312 0.084779 -1.087312 0.000000 0.000000
    31 0.957766 -2.746776 -0.090301 -0.432128 -0.184437 0.072455
    32 -0.033419 -1.397128 -0.011255 -0.247860 0.000000 -0.000001
    33 -0.022361 -0.957434 0.018783 -0.956086 0.000000 0.000000
    34 -1.180680 -2.507215 -0.193861 -0.747365 0.130011 -0.054388
    35 -0.024966 -1.123935 0.017594 -1.414285 0.000000 0.000001
    36 -0.020057 -0.890966 0.010091 -0.846171 0.000000 0.000000
    37 0.583510 -1.197274 0.185377 0.631272 -1.323162 -0.918177
    38 1.535926 0.010244 0.005008 -0.124883 0.065220 -0.956765
    39 1.100770 0.004526 -0.010676 -0.014685 0.006877 -0.956472
    40 0.120152 -0.050266 -0.054488 0.287568 3.110905 1.561085
  time 15
    0 0.000000 0.000000 0.000000 0.000000 0.000000 -0.000015
    1 6.361162 5.060922 -6.974305 6.240837 -1.609478 -0.001568
    2 -0.071918 -8.498732 -0.104137 0.000960 0.288177 0.113515
    3 2.305589 -2.755951 1.800741 -0.057826 0.286072 -3.251386
    4 0.822732 1.600163 0.000001 0.000002 0.000000 -0.024500
    5 -0.135229 4.811260 0.000000 0.000000 0.000000 1.558216
    6 -0.114076 -2.997109 0.000000 0.000000 0.000000 -0.019284
    7 -1.055155 -7.031262 -7.333973 -0.114626 -6.216378 0.489912
    8 0.096944 -8.450418 -0.009364 -0.175034 -0.268259 0.357727
    9 0.447952 -2.798983 -0.200442 -0.766175 -0.010396 0.265094
    10 -0.032910 -1.480206 0.004936 -0.491709 0.000000 0.000002
    11 -0.027022 -1.076919 -0.020212 -1.394127 0.000000 0.000000
    12 -0.249534 -2.846962 -0.174215 -0.219885 -0.000125 -0.008396
    13 0.043235 -1.683940 0.096014 -1.114670 0.002823 -0.000167
    14 0.031729 -1.160831 0.058836 -0.912818 0.000642 0.008372
    15 -0.963866 -2.785142 -0.085346 0.070022 0.162276 -0.191556
    16 0.028479 -1.403069 0.006271 -0.596895 0.000000 0.000000
    17 0.021413 -0.957782 0.020047 -0.432482 0.000000 0.000000
    18 1.164474 -2.543938 -0.170328 -0.702390 -0.013294 0.477915
    19 0.024033 -1.129042 0.017806 -0.803472 0.000000 0.000001
    20 0.014896 -0.883989 -0.019845 -0.584392 0.000000 0.000000
    21 -0.586770 -1.264475 0.200164 -0.286523 -0.333668 -2.448911
    22 1.522835 0.058681 0.016850 -0.077532 -0.420682 0.144516
    23 1.117948 0.048424 -0.005764 -0.000243 -0.025198 0.065422
    24 -0.139399 -0.111697 0.014397 0.285382 -0.030687 1.580508
    25 -0.488517 -2.755600 -0.228261 -1.119640 -0.066262 -0.107564
    26 0.039888 -1.479789 0.029853 -1.451658 0.000000 0.000000
    27 0.028786 -1.075730 -0.023111 -0.870565 0.000000 0.000000
    28 0.250028 -2.820664 -0.238396 -0.916633 -0.083577 -0.024886
    29 -0.049759 -1.680545 0.100480 -1.550922 0.000000 -0.000002
    30 -0.034141 -1.148312 0.084779 -1.087312 0.000000 0.000000
    31 0.957766 -2.746776 -0.090301 -0.432128 -0.184437 0.072455
    32 -0.033419 -1.397128 -0.011255 -0.247860 0.000000 -0.000001
    33 -0.022361 -0.957434 0.018783 -0.956086 0.000000 0.000000
    34 -1.180680 -2.507215 -0.193861 -0.747365 0.130011 -0.054388
    35 -0.024966 -1.123935 0.017594 -1.414285 0.000000 0.000001
    36 -0.020057 -0.890966 0.010091 -0.846171 0.000000 0.000000
    37 0.583510 -1.197274 0.185377 0.631272 -1.323162 -0.918160
    38 1.535926 0.010244 0.005008 -0.124883 0.065220 -0.956765
    39 1.100770 0.004526 -0.010676 -0.014685 0.006877 -0.956472
    40 0.120152 -0.050266 -0.054488 0.287568 3.110905 1.561085
  time 16
    0 0.000000 0.000000 0.000000 0.000000 0.000000 -0.000015
    1 6.310379 4.998420 -6.974305 6.186272 -1.609228 0.054133
    2 -0.071918 -8.498732 -0.104137 0.000236 0.289111 0.092481
    3 2.305589 -2.755951 1.800741 -0.057826 0.286072 -3.251386
    4 0.822732 1.600163 0.000001 0.000002 0.000000 -0.024500
    5 -0.135229 4.811260 0.000000 0.000000 0.000000 1.558216
    6 -0.114076 -2.997109 0.000000 0.000000 0.000000 -0.019284
    7 -1.055155 -7.031262 -7.330067 -0.086970 -6.221973 0.490483
    8 0.096944 -8.450418 -0.009364 -0.169267 -0.268259 0.357727
    9 0.447952 -2.798983 -0.200442 -0.766175 -0.010396 0.265094
    10 -0.032910 -1.480206 0.004936 -0.491709 0.000000 0.000002
    11 -0.027022 -1.076919 -0.020212 -1.394127 0.000000 0.000000
    12 -0.249534 -2.846962 -0.174215 -0.219885 -0.000125 -0.008396
    13 0.043235 -1.683940 0.096014 -1.114670 0.002823 -0.000167
    14 0.031729 -1.160831 0.058836 -0.912818 0.000642 0.008372
    15 -0.963866 -2.785142 -0.085346 0.070022 0.162276 -0.191556
    16 0.028479 -1.403069 0.006271 -0.596895 0.000000 0.000000
    17 0.021413 -0.957782 0.020047 -0.432482 0.000000 0.000000
    18 1.164474 -2.543938 -0.170328 -0.702390 -0.013294 0.477915
    19 0.024033 -1.129042 0.017806 -0.803472 0.000000 0.000001
    20 0.014896 -0.883989 -0.019845 -0.584392 0.000000 0.000000
    21 -0.586770 -1.264475 0.200164 -0.286523 -0.333668 -2.448911
    22 1.522835 0.058681 0.016850 -0.077532 -0.420682 0.144516
    23 1.117948 0.048424 -0.005764 -0.000243 -0.025198 0.065422
    24 -0.139399 -0.111697 0.014397 0.285382 -0.030687 1.580508
    25 -0.488517 -2.755600 -0.228261 -1.119640 -0.066262 -0.107564
    26 0.039888 -1.479789 0.029853 -1.451658 0.000000 0.000000
    27 0.028786 -1.075730 -0.023111 -0.870565 0.000000 0.000000
    28 0.250028 -2.820664 -0.238396 -0.916633 -0.083577 -0.024886
    29 -0.049759 -1.680545 0.100480 -1.550922 0.000000 -0.000002
    30 -0.034141 -1.148312 0.084779 -1.087312 0.000000 0.000000
    31 0.957766 -2.746776 -0.090301 -0.432128 -0.184437 0.072455
    32 -0.033419 -1.397128 -0.011255 -0.247860 0.000000 -0.000001
    33 -0.022361 -0.957434 0.018783 -0.956086 0.000000 0.000000
    34 -1.180680 -2.507215 -0.193861 -0.747365 0.130011 -0.054388
    35 -0.024966 -1.123935 0.017594 -1.414285 0.000000 0.000001
    36 -0.020057 -0.890966 0.010091 -0.846171 0.000000 0.000000
    37 0.583510 -1.197274 0.185377 0.631272 -1.323162 -0.918160
    38 1.535926 0.010244 0.005008 -0.124883 0.065220 -0.956765
    39 1.100770 0.004526 -0.010676 -0.014685 0.006877 -0.956472
    40 0.120152 -0.050266 -0.054488 0.287568 3.110905 1.561085
  time 17
    0 0.000000 0.000000 0.000000 0.000000 0.000000 -0.000015
    1 6.267409 4.943731 -6.974305 6.140183 -1.609028 0.101101
    2 -0.071918 -8.498732 -0.104137 -0.000416 0.289972 0.073173
    3 2.305589 -2.755951 1.800741 -0.057826 0.286072 -3.251386
    4 0.822732 1.600163 0.000001 0.000002 0.000000 -0.024500
    5 -0.135229 4.811260 0.000000 0.000000 0.000000 1.558216
    6 -0.114076 -2.997109 0.000000 0.000000 0.000000 -0.019284
    7 -1.055155 -7.031262 -7.326161 -0.060460 -6.228043 0.491150
    8 0.096944 -8.450418 -0.009364 -0.164018 -0.268259 0.357727
    9 0.447952 -2.798983 -0.200442 -0.766175 -0.010396 0.265094
    10 -0.032910 -1.480206 0.004936 -0.491709 0.000000 0.000002
    11 -0.027022 -1.076919 -0.020212 -1.394127 0.000000 0.000000
    12 -0.249534 -2.846962 -0.174215 -0.219885 -0.000125 -0.008396
    13 0.043235 -1.683940 0.096014 -1.114670 0.002823 -0.000167
    14 0.031729 -1.160831 0.058836 -0.912818 0.000642 0.008372
    15 -0.963866 -2.785142 -0.085346 0.070022 0.162276 -0.191556
    16 0.028479 -1.403069 0.006271 -0.596895 0.000000 0.000000
    17 0.021413 -0.957782 0.020047 -0.432482 0.000000 0.000000
    18 1.164474 -2.543938 -0.170328 -0.702390 -0.013294 0.477915
    19 0.024033 -1.129042 0.017806 -0.803472 0.000000 0.000001
    20 0.014896 -0.883989 -0.019845 -0.584392 0.000000 0.000000
    21 -0.586770 -1.264475 0.200164 -0.286523 -0.333668 -2.448911
    22 1.522835 0.058681 0.016850 -0.077532 -0.420682 0.144516
    23 1.117948 0.048424 -0.005764 -0.000243 -0.025198 0.065422
    24 -0.139399 -0.111697 0.014397 0.285382 -0.030687 1.580508
    25 -0.488517 -2.755600 -0.228261 -1.119640 -0.066262 -0.107564
    26 0.039888 -1.479789 0.029853 -1.451658 0.000000 0.000000
    27 0.028786 -1.075730 -0.023111 -0.870565 0.000000 0.000000
    28 0.250028 -2.820664 -0.238396 -0.916633 -0.083577 -0.024886
    29 -0.049759 -1.680545 0.100480 -1.550922 0.000000 -0.000002
    30 -0.034141 -1.148312 0.084779 -1.087312 0.000000 0.000000
    31 0.957766 -2.746776 -0.090301 -0.432128 -0.184437 0.072455
    32 -0.033419 -1.397128 -0.011255 -0.247860 0.000000 -0.000001
    33 -0.022361 -0.957434 0.018783 -0.956086 0.000000 0.000000
    34 -1.180680 -2.507215 -0.193861 -0.747365 0.130011 -0.054388
    35 -0.024966 -1.123935 0.017594 -1.414285 0.000000 0.000001
    36 -0.020057 -0.890966 0.010091 -0.846171 0.000000 0.000000
    37 0.583510 -1.197274 0.185377 0.631272 -1.323162 -0.918160
    38 1.535926 0.010244 0.005008 -0.124883 0.065220 -0.956765
    39 1.100770 0.004526 -0.010676 -0.014685 0.006877 -0.956472
    40 0.120152 -0.050266 -0.054488 0.287568 3.110905 1.561085
  time 18
    0 0.000000 0.000000 0.000000 0.000000 0.000000 -0.000015
    1 6.236158 4.900761 -6.974305 6.104663 -1.608879 0.137438
    2 -0.071918 -8.498732 -0.104137 -0.000948 0.290667 0.057262
    3 2.305589 -2.755951 1.800741 -0.057826 0.286072 -3.251386
    4 0.822732 1.600163 0.000001 0.000002 0.000000 -0.024500
    5 -0.135229 4.811260 0.000000 0.000000 0.000000 1.558216
    6 -0.114076 -2.997109 0.000000 0.000000 0.000000 -0.019284
    7 -1.055155 -7.031262 -7.322254 -0.038093 -6.233543 0.491722
    8 0.096944 -8.450418 -0.009364 -0.159286 -0.268259 0.357727
    9 0.447952 -2.798983 -0.200442 -0.766175 -0.010396 0.265094
    10 -0.032910 -1.480206 0.004936 -0.491709 0.000000 0.000002
    11 -0.027022 -1.076919 -0.020212 -1.394127 0.000000 0.000000
    12 -0.249534 -2.846962 -0.174215 -0.219885 -0.000125 -0.008396
    13 0.043235 -1.683940 0.096014 -1.114670 0.002823 -0.000167
    14 0.031729 -1.160831 0.058836 -0.912818 0.000642 0.008372
    15 -0.963866 -2.785142 -0.085346 0.070022 0.162276 -0.191556
    16 0.028479 -1.403069 0.006271 -0.596895 0.000000 0.000000
    17 0.021413 -0.957782 0.020047 -0.432482 0.000000 0.000000
    18 1.164474 -2.543938 -0.170328 -0.702390 -0.013294 0.477915
    19 0.024033 -1.129042 0.017806 -0.803472 0.000000 0.000001
    20 0.014896 -0.883989 -0.019845 -0.584392 0.000000 0.000000
    21 -0.586770 -1.264475 0.200164 -0.286523 -0.333668 -2.448911
    22 1.522835 0.058681 0.016850 -0.077532 -0.420682 0.144516
    23 1.117948 0.048424 -0.005764 -0.000243 -0.025198 0.065422
    24 -0.139399 -0.111697 0.014397 0.285382 -0.030687 1.580508
    25 -0.488517 -2.755600 -0.228261 -1.119640 -0.066262 -0.107564
    26 0.039888 -1.479789 0.029853 -1.451658 0.000000 0.000000
    27 0.028786 -1.075730 -0.023111 -0.870565 0.000000 0.000000
    28 0.250028 -2.820664 -0.238396 -0.916633 -0.083577 -0.024886
    29 -0.049759 -1.680545 0.100480 -1.550922 0.000000 -0.000002
    30 -0.034141 -1.148312 0.084779 -1.087312 0.000000 0.000000
    31 0.957766 -2.746776 -0.090301 -0.432128 -0.184437 0.072455
    32 -0.033419 -1.397128 -0.011255 -0.247860 0.000000 -0.000001
    33 -0.022361 -0.957434 0.018783 -0.956086 0.000000 0.000000
    34 -1.180680 -2.507215 -0.193861 -0.747365 0.130011 -0.054388
    35 -0.024966 -1.123935 0.017594 -1.414285 0.000000 0.000001
    36 -0.020057 -0.890966 0.010091 -0.846171 0.000000 0.000000
    37 0.583510 -1.197274 0.185377 0.631272 -1.323162 -0.918160
    38 1.535926 0.010244 0.005008 -0.124883 0.065220 -0.956765
    39 1.100770 0.004526 -0.010676 -0.014685 0.006877 -0.956472
    40 0.120152 -0.050266 -0.054488 0.287568 3.110905 1.561085
  time 19
    0 0.000000 0.000000 0.000000 0.000000 0.000000 -0.000015
    1 6.216627 4.877323 -6.974305 6.081809 -1.608779 0.160757
    2 -0.071918 -8.498732 -0.104137 -0.001310 0.291143 0.046458
    3 2.305589 -2.755951 1.800741 -0.057826 0.286072 -3.251386
    4 0.822732 1.600163 0.000001 0.000002 0.000000 -0.024500
    5 -0.135229 4.811260 0.000000 0.000000 0.000000 1.558216
    6 -0.114076 -2.997109 0.000000 0.000000 0.000000 -0.019284
    7 -1.055155 -7.031262 -7.322254 -0.022544 -6.237526 0.492199
    8 0.096944 -8.450418 -0.009364 -0.155055 -0.268259 0.357727
    9 0.447952 -2.798983 -0.200442 -0.766175 -0.010396 0.265094
    10 -0.032910 -1.480206 0.004936 -0.491709 0.000000 0.000002
    11 -0.027022 -1.076919 -0.020212 -1.394127 0.000000 0.000000
    12 -0.249534 -2.846962 -0.174215 -0.219885 -0.000125 -0.008396
    13 0.043235 -1.683940 0.096014 -1.114670 0.002823 -0.000167
    14 0.031729 -1.160831 0.058836 -0.912818 0.000642 0.008372
    15 -0.963866 -2.785142 -0.085346 0.070022 0.162276 -0.191556
    16 0.028479 -1.403069 0.006271 -0.596895 0.000000 0.000000
    17 0.021413 -0.957782 0.020047 -0.432482 0.000000 0.000000
    18 1.164474 -2.543938 -0.170328 -0.702390 -0.013294 0.477915
    19 0.024033 -1.129042 0.017806 -0.803472 0.000000 0.000001
    20 0.014896 -0.883989 -0.019845 -0.584392 0.000000 0.000000
    21 -0.586770 -1.264475 0.200164 -0.286523 -0.333668 -2.448911
    22 1.522835 0.058681 0.016850 -0.077532 -0.420682 0.144516
    23 1.117948 0.048424 -0.005764 -0.000243 -0.025198 0.065422
    24 -0.139399 -0.111697 0.014397 0.285382 -0.030687 1.580508
    25 -0.488517 -2.755600 -0.228261 -1.119640 -0.066262 -0.107564
    26 0.039888 -1.479789 0.029853 -1.451658 0.000000 0.000000
    27 0.028786 -1.075730 -0.023111 -0.870565 0.000000 0.000000
    28 0.250028 -2.820664 -0.238396 -0.916633 -0.083577 -0.024886
    29 -0.049759 -1.680545 0.100480 -1.550922 0.000000 -0.000002
    30 -0.034141 -1.148312 0.084779 -1.087312 0.000000 0.000000
    31 0.957766 -2.746776 -0.090301 -0.432128 -0.184437 0.072455
    32 -0.033419 -1.397128 -0.011255 -0.247860 0.000000 -0.000001
    33 -0.022361 -0.957434 0.018783 -0.956086 0.000000 0.000000
    34 -1.180680 -2.507215 -0.193861 -0.747365 0.130011 -0.054388
    35 -0.024966 -1.123935 0.017594 -1.414285 0.000000 0.000001
    36 -0.020057 -0.890966 0.010091 -0.846171 0.000000 0.000000
    37 0.583510 -1.197274 0.185377 0.631272 -1.323162 -0.918177
    38 1.535926 0.010244 0.005008 -0.124883 0.065220 -0.956765
    39 1.100770 0.004526 -0.010676 -0.014685 0.006877 -0.956472
    40 0.120152 -0.050266 -0.054488 0.287568 3.110905 1.561085
  time 20
    0 0.000000 0.000000 0.000000 0.000000 0.000000 -0.000015
    1 6.208814 4.865604 -6.974305 6.073715 -1.608779 0.168997
    2 -0.071918 -8.498732 -0.104137 -0.001455 0.291327 0.042484
    3 2.305589 -2.755951 1.800741 -0.057826 0.286072 -3.251386
    4 0.822732 1.600163 0.000001 0.000002 0.000000 -0.024500
    5 -0.135229 4.811260 0.000000 0.000000 0.000000 1.558216
    6 -0.114076 -2.997109 0.000000 0.000000 0.000000 -0.019284
    7 -1.055155 -7.031262 -7.318348 -0.016745 -6.239044 0.492389
    8 0.096944 -8.450418 -0.009364 -0.151269 -0.268259 0.357727
    9 0.447952 -2.798983 -0.200442 -0.766175 -0.010396 0.265094
    10 -0.032910 -1.480206 0.004936 -0.491709 0.000000 0.000002
    11 -0.027022 -1.076919 -0.020212 -1.394127 0.000000 0.000000
    12 -0.249534 -2.846962 -0.174215 -0.219885 -0.000125 -0.008396
    13 0.043235 -1.683940 0.096014 -1.114670 0.002823 -0.000167
    14 0.031729 -1.160831 0.058836 -0.912818 0.000642 0.008372
    15 -0.963866 -2.785142 -0.085346 0.070022 0.162276 -0.191556
    16 0.028479 -1.403069 0.006271 -0.596895 0.000000 0.000000
    17 0.021413 -0.957782 0.020047 -0.432482 0.000000 0.000000
    18 1.164474 -2.543938 -0.170328 -0.702390 -0.013294 0.477915
    19 0.024033 -1.129042 0.017806 -0.803472 0.000000 0.000001
    20 0.014896 -0.883989 -0.019845 -0.584392 0.000000 0.000000
    21 -0.586770 -1.264475 0.200164 -0.286523 -0.333668 -2.448911
    22 1.522835 0.058681 0.016850 -0.077532 -0.420682 0.144516
    23 1.117948 0.048424 -0.005764 -0.000243 -0.025198 0.065422
    24 -0.139399 -0.111697 0.014397 0.285382 -0.030687 1.580508
    25 -0.488517 -2.755600 -0.228261 -1.119640 -0.066262 -0.107564
    26 0.039888 -1.479789 0.029853 -1.451658 0.000000 0.000000
    27 0.028786 -1.075730 -0.023111 -0.870565 0.000000 0.000000
    28 0.250028 -2.820664 -0.238396 -0.916633 -0.083577 -0.024886
    29 -0.049759 -1.680545 0.100480 -1.550922 0.000000 -0.000002
    30 -0.034141 -1.148312 0.084779 -1.087312 0.000000 0.000000
    31 0.957766 -2.746776 -0.090301 -0.432128 -0.184437 0.072455
    32 -0.033419 -1.397128 -0.011255 -0.247860 0.000000 -0.000001
    33 -0.022361 -0.957434 0.018783 -0.956086 0.000000 0.000000
    34 -1.180680 -2.507215 -0.193861 -0.747365 0.130011 -0.054388
    35 -0.024966 -1.123935 0.017594 -1.414285 0.000000 0.000001
    36 -0.020057 -0.890966 0.010091 -0.846171 0.000000 0.000000
    37 0.583510 -1.197274 0.185377 0.631272 -1.323162 -0.918160
    38 1.535926 0.010244 0.005008 -0.124883 0.065220 -0.956765
    39 1.100770 0.004526 -0.010676 -0.014685 0.006877 -0.956472
    40 0.120152 -0.050266 -0.054488 0.287568 3.110905 1.561085
  time 21
    0 0.000000 0.000000 0.000000 0.000000 0.000000 -0.000015
    1 6.208814 4.865604 -6.974305 6.073715 -1.608779 0.168997
    2 -0.071918 -8.498732 -0.104137 -0.001382 0.291253 0.044262
    3 2.305589 -2.755951 1.800741 -0.057826 0.286072 -3.251386
    4 0.822732 1.600163 0.000001 0.000002 0.000000 -0.024500
    5 -0.135229 4.811260 0.000000 0.000000 0.000000 1.558216
    6 -0.114076 -2.997109 0.000000 0.000000 0.000000 -0.019284
    7 -1.055155 -7.031262 -7.330067 -0.019804 -6.238285 0.492294
    8 0.096944 -8.450418 -0.009364 -0.147966 -0.268259 0.357727
    9 0.447952 -2.798983 -0.200442 -0.766175 -0.010396 0.265094
    10 -0.032910 -1.480206 0.004936 -0.491709 0.000000 0.000002
    11 -0.027022 -1.076919 -0.020212 -1.394127 0.000000 0.000000
    12 -0.249534 -2.846962 -0.174215 -0.219885 -0.000125 -0.008396
    13 0.043235 -1.683940 0.096014 -1.114670 0.002823 -0.000167
    14 0.031729 -1.160831 0.058836 -0.912818 0.000642 0.008372
    15 -0.963866 -2.785142 -0.085346 0.070022 0.162276 -0.191556
    16 0.028479 -1.403069 0.006271 -0.596895 0.000000 0.000000
    17 0.021413 -0.957782 0.020047 -0.432482 0.000000 0.000000
    18 1.164474 -2.543938 -0.170328 -0.702390 -0.013294 0.477915
    19 0.024033 -1.129042 0.017806 -0.803472 0.000000 0.000001
    20 0.014896 -0.883989 -0.019845 -0.584392 0.000000 0.000000
    21 -0.586770 -1.264475 0.200164 -0.286523 -0.333668 -2.448911
    22 1.522835 0.058681 0.016850 -0.077532 -0.420682 0.144516
    23 1.117948 0.048424 -0.005764 -0.000243 -0.025198 0.065422
    24 -0.139399 -0.111697 0.014397 0.285382 -0.030687 1.580508
    25 -0.488517 -2.755600 -0.228261 -1.119640 -0.066262 -0.107564
    26 0.039888 -1.479789 0.029853 -1.451658 0.000000 0.000000
    27 0.028786 -1.075730 -0.023111 -0.870565 0.000000 0.000000
    28 0.250028 -2.820664 -0.238396 -0.916633 -0.083577 -0.024886
    29 -0.049759 -1.680545 0.100480 -1.550922 0.000000 -0.000002
    30 -0.034141 -1.148312 0.084779 -1.087312 0.000000 0.000000
    31 0.957766 -2.746776 -0.090301 -0.432128 -0.184437 0.072455
    32 -0.033419 -1.397128 -0.011255 -0.247860 0.000000 -0.000001
    33 -0.022361 -0.957434 0.018783 -0.956086 0.000000 0.000000
    34 -1.180680 -2.507215 -0.193861 -0.747365 0.130011 -0.054388
    35 -0.024966 -1.123935 0.017594 -1.414285 0.000000 0.000001
    36 -0.020057 -0.890966 0.010091 -0.846171 0.000000 0.000000
    37 0.583510 -1.197274 0.185377 0.631272 -1.323162 -0.918160
    38 1.535926 0.010244 0.005008 -0.124883 0.065220 -0.956765
    39 1.100770 0.004526 -0.010676 -0.014685 0.006877 -0.956472
    40 0.120152 -0.050266 -0.054488 0.287568 3.110905 1.561085
  time 22
    0 0.000000 0.000000 0.000000 0.000000 0.000000 -0.000015
    1 6.208814 4.865604 -6.974305 6.073715 -1.608779 0.168997
    2 -0.071918 -8.498732 -0.104137 -0.001213 0.291052 0.049072
    3 2.305589 -2.755951 1.800741 -0.057826 0.286072 -3.251386
    4 0.822732 1.600163 0.000001 0.000002 0.000000 -0.024500
    5 -0.135229 4.811260 0.000000 0.000000 0.000000 1.558216
    6 -0.114076 -2.997109 0.000000 0.000000 0.000000 -0.019284
    7 -1.055155 -7.031262 -7.353505 -0.028088 -6.236104 0.492103
    8 0.096944 -8.450418 -0.009364 -0.145074 -0.268259 0.357727
    9 0.447952 -2.798983 -0.200442 -0.766175 -0.010396 0.265094
    10 -0.032910 -1.480206 0.004936 -0.491709 0.000000 0.000002
    11 -0.027022 -1.076919 -0.020212 -1.394127 0.000000 0.000000
    12 -0.249534 -2.846962 -0.174215 -0.219885 -0.000125 -0.008396
    13 0.043235 -1.683940 0.096014 -1.114670 0.002823 -0.000167
    14 0.031729 -1.160831 0.058836 -0.912818 0.000642 0.008372
    15 -0.963866 -2.785142 -0.085346 0.070022 0.162276 -0.191556
    16 0.028479 -1.403069 0.006271 -0.596895 0.000000 0.000000
    17 0.021413 -0.957782 0.020047 -0.432482 0.000000 0.000000
    18 1.164474 -2.543938 -0.170328 -0.702390 -0.013294 0.477915
    19 0.024033 -1.129042 0.017806 -0.803472 0.000000 0.000001
    20 0.014896 -0.883989 -0.019845 -0.584392 0.000000 0.000000
    21 -0.586770 -1.264475 0.200164 -0.286523 -0.333668 -2.448911
    22 1.522835 0.058681 0.016850 -0.077532 -0.420682 0.144516
    23 1.117948 0.048424 -0.005764 -0.000243 -0.025198 0.065422
    24 -0.139399 -0.111697 0.014397 0.285382 -0.030687 1.580508
    25 -0.488517 -2.755600 -0.228261 -1.119640 -0.066262 -0.107564
    26 0.039888 -1.479789 0.029853 -1.451658 0.000000 0.000000
    27 0.028786 -1.075730 -0.023111 -0.870565 0.000000 0.000000
    28 0.250028 -2.820664 -0.238396 -0.916633 -0.083577 -0.024886
    29 -0.049759 -1.680545 0.100480 -1.550922 0.000000 -0.000002
    30 -0.034141 -1.148312 0.084779 -1.087312 0.000000 0.000000
    31 0.957766 -2.746776 -0.090301 -0.432128 -0.184437 0.072455
    32 -0.033419 -1.397128 -0.011255 -0.247860 0.000000 -0.000001
    33 -0.022361 -0.957434 0.018783 -0.956086 0.000000 0.000000
    34 -1.180680 -2.507215 -0.193861 -0.747365 0.130011 -0.054388
    35 -0.024966 -1.123935 0.017594 -1.414285 0.000000 0.000001
    36 -0.020057 -0.890966 0.010091 -0.846171 0.000000 0.000000
    37 0.583510 -1.197274 0.185377 0.631272 -1.323162 -0.918160
    38 1.535926 0.010244 0.005008 -0.124883 0.065220 -0.956765
    39 1.100770 0.004526 -0.010676 -0.014685 0.006877 -0.956472
    40 0.120152 -0.050266 -0.054488 0.287568 3.110905 1.561085
  time 23
    0 0.000000 0.000000 0.000000 0.000000 0.000000 -0.000015
    1 6.208814 4.865604 -6.974305 6.073715 -1.608779 0.168997
    2 -0.071918 -8.498732 -0.104137 -0.000972 0.290741 0.056182
    3 2.305589 -2.755951 1.800741 -0.057826 0.286072 -3.251386
    4 0.822732 1.600163 0.000001 0.000002 0.000000 -0.024500
    5 -0.135229 4.811260 0.000000 0.000000 0.000000 1.558216
    6 -0.114076 -2.997109 0.000000 0.000000 0.000000 -0.019284
    7 -1.055155 -7.031262 -7.392569 -0.040387 -6.232879 0.491722
    8 0.096944 -8.450418 -0.009364 -0.142610 -0.268259 0.357727
    9 0.447952 -2.798983 -0.200442 -0.766175 -0.010396 0.265094
    10 -0.032910 -1.480206 0.004936 -0.491709 0.000000 0.000002
    11 -0.027022 -1.076919 -0.020212 -1.394127 0.000000 0.000000
    12 -0.249534 -2.846962 -0.174215 -0.219885 -0.000125 -0.008396
    13 0.043235 -1.683940 0.096014 -1.114670 0.002823 -0.000167
    14 0.031729 -1.160831 0.058836 -0.912818 0.000642 0.008372
    15 -0.963866 -2.785142 -0.085346 0.070022 0.162276 -0.191556
    16 0.028479 -1.403069 0.006271 -0.596895 0.000000 0.000000
    17 0.021413 -0.957782 0.020047 -0.432482 0.000000 0.000000
    18 1.164474 -2.543938 -0.170328 -0.702390 -0.013294 0.477915
    19 0.024033 -1.129042 0.017806 -0.803472 0.000000 0.000001
    20 0.014896 -0.883989 -0.019845 -0.584392 0.000000 0.000000
    21 -0.586770 -1.264475 0.200164 -0.286523 -0.333668 -2.448911
    22 1.522835 0.058681 0.016850 -0.077532 -0.420682 0.144516
    23 1.117948 0.048424 -0.005764 -0.000243 -0.025198 0.065422
    24 -0.139399 -0.111697 0.014397 0.285382 -0.030687 1.580508
    25 -0.488517 -2.755600 -0.228261 -1.119640 -0.066262 -0.107564
    26 0.039888 -1.479789 0.029853 -1.451658 0.000000 0.000000
    27 0.028786 -1.075730 -0.023111 -0.870565 0.000000 0.000000
    28 0.250028 -2.820664 -0.238396 -0.916633 -0.083577 -0.024886
    29 -0.049759 -1.680545 0.100480 -1.550922 0.000000 -0.000002
    30 -0.034141 -1.148312 0.084779 -1.087312 0.000000 0.000000
    31 0.957766 -2.746776 -0.090301 -0.432128 -0.184437 0.072455
    32 -0.033419 -1.397128 -0.011255 -0.247860 0.000000 -0.000001
    33 -0.022361 -0.957434 0.018783 -0.956086 0.000000 0.000000
    34 -1.180680 -2.507215 -0.193861 -0.747365 0.130011 -0.054388
    35 -0.024966 -1.123935 0.017594 -1.414285 0.000000 0.000001
    36 -0.020057 -0.890966 0.010091 -0.846171 0.000000 0.000000
    37 0.583510 -1.197274 0.185377 0.631272 -1.323162 -0.918177
    38 1.535926 0.010244 0.005008 -0.124883 0.065220 -0.956765
    39 1.100770 0.004526 -0.010676 -0.014685 0.006877 -0.956472
    40 0.120152 -0.050266 -0.054488 0.287568 3.110905 1.561085
  time 24
    0 0.000000 0.000000 0.000000 0.000000 0.000000 -0.000015
    1 6.208814 4.865604 -6.974305 6.073715 -1.608779 0.168997
    2 -0.071918 -8.498732 -0.104137 -0.000658 0.290374 0.064808
    3 2.305589 -2.755951 1.800741 -0.057826 0.286072 -3.251386
    4 0.822732 1.600163 0.000001 0.000002 0.000000 -0.024500
    5 -0.135229 4.811260 0.000000 0.000000 0.000000 1.558216
    6 -0.114076 -2.997109 0.000000 0.000000 0.000000 -0.019284
    7 -1.055155 -7.031262 -7.439445 -0.055235 -6.228991 0.491246
    8 0.096944 -8.450418 -0.009364 -0.140539 -0.268259 0.357727
    9 0.447952 -2.798983 -0.200442 -0.766175 -0.010396 0.265094
    10 -0.032910 -1.480206 0.004936 -0.491709 0.000000 0.000002
    11 -0.027022 -1.076919 -0.020212 -1.394127 0.000000 0.000000
    12 -0.249534 -2.846962 -0.174215 -0.219885 -0.000125 -0.008396
    13 0.043235 -1.683940 0.096014 -1.114670 0.002823 -0.000167
    14 0.031729 -1.160831 0.058836 -0.912818 0.000642 0.008372
    15 -0.963866 -2.785142 -0.085346 0.070022 0.162276 -0.191556
    16 0.028479 -1.403069 0.006271 -0.596895 0.000000 0.000000
    17 0.021413 -0.957782 0.020047 -0.432482 0.000000 0.000000
    18 1.164474 -2.543938 -0.170328 -0.702390 -0.013294 0.477915
    19 0.024033 -1.129042 0.017806 -0.803472 0.000000 0.000001
    20 0.014896 -0.883989 -0.019845 -0.584392 0.000000 0.000000
    21 -0.586770 -1.264475 0.200164 -0.286523 -0.333668 -2.448911
    22 1.522835 0.058681 0.016850 -0.077532 -0.420682 0.144516
    23 1.117948 0.048424 -0.005764 -0.000243 -0.025198 0.065422
    24 -0.139399 -0.111697 0.014397 0.285382 -0.030687 1.580508
    25 -0.488517 -2.755600 -0.228261 -1.119640 -0.066262 -0.107564
    26 0.039888 -1.479789 0.029853 -1.451658 0.000000 0.000000
    27 0.028786 -1.075730 -0.023111 -0.870565 0.000000 0.000000
    28 0.250028 -2.820664 -0.238396 -0.916633 -0.083577 -0.024886
    29 -0.049759 -1.680545 0.100480 -1.550922 0.000000 -0.000002
    30 -0.034141 -1.148312 0.084779 -1.087312 0.000000 0.000000
    31 0.957766 -2.746776 -0.090301 -0.432128 -0.184437 0.072455
    32 -0.033419 -1.397128 -0.011255 -0.247860 0.000000 -0.000001
    33 -0.022361 -0.957434 0.018783 -0.956086 0.000000 0.000000
    34 -1.180680 -2.507215 -0.193861 -0.747365 0.130011 -0.054388
    35 -0.024966 -1.123935 0.017594 -1.414285 0.000000 0.000001
    36 -0.020057 -0.890966 0.010091 -0.846171 0.000000 0.000000
    37 0.583510 -1.197274 0.185377 0.631272 -1.323162 -0.918160
    38 1.535926 0.010244 0.005008 -0.124883 0.065220 -0.956765
    39 1.100770 0.004526 -0.010676 -0.014685 0.006877 -0.956472
    40 0.120152 -0.050266 -0.054488 0.287568 3.110905 1.561085
  time 25
    0 0.000000 0.000000 0.000000 0.000000 0.000000 -0.000015
    1 6.208814 4.865604 -6.974305 6.073715 -1.608779 0.168997
    2 -0.071918 -8.498732 -0.104137 -0.000320 0.289990 0.074183
    3 2.305589 -2.755951 1.800741 -0.057826 0.286072 -3.251386
    4 0.822732 1.600163 0.000001 0.000002 0.000000 -0.024500
    5 -0.135229 4.811260 0.000000 0.000000 0.000000 1.558216
    6 -0.114076 -2.997109 0.000000 0.000000 0.000000 -0.019284
    7 -1.055155 -7.031262 -7.494135 -0.071421 -6.224723 0.490865
    8 0.096944 -8.450418 -0.009364 -0.138825 -0.268259 0.357727
    9 0.447952 -2.798983 -0.200442 -0.766175 -0.010396 0.265094
    10 -0.032910 -1.480206 0.004936 -0.491709 0.000000 0.000002
    11 -0.027022 -1.076919 -0.020212 -1.394127 0.000000 0.000000
    12 -0.249534 -2.846962 -0.174215 -0.219885 -0.000125 -0.008396
    13 0.043235 -1.683940 0.096014 -1.114670 0.002823 -0.000167
    14 0.031729 -1.160831 0.058836 -0.912818 0.000642 0.008372
    15 -0.963866 -2.785142 -0.085346 0.070022 0.162276 -0.191556
    16 0.028479 -1.403069 0.006271 -0.596895 0.000000 0.000000
    17 0.021413 -0.957782 0.020047 -0.432482 0.000000 0.000000
    18 1.164474 -2.543938 -0.170328 -0.702390 -0.013294 0.477915
    19 0.024033 -1.129042 0.017806 -0.803472 0.000000 0.000001
    20 0.014896 -0.883989 -0.019845 -0.584392 0.000000 0.000000
    21 -0.586770 -1.264475 0.200164 -0.286523 -0.333668 -2.448911
    22 1.522835 0.058681 0.016850 -0.077532 -0.420682 0.144516
    23 1.117948 0.048424 -0.005764 -0.000243 -0.025198 0.065422
    24 -0.139399 -0.111697 0.014397 0.285382 -0.030687 1.580508
    25 -0.488517 -2.755600 -0.228261 -1.119640 -0.066262 -0.107564
    26 0.039888 -1.479789 0.029853 -1.451658 0.000000 0.000000
    27 0.028786 -1.075730 -0.023111 -0.870565 0.000000 0.000000
    28 0.250028 -2.820664 -0.238396 -0.916633 -0.083577 -0.024886
    29 -0.049759 -1.680545 0.100480 -1.550922 0.000000 -0.000002
    30 -0.034141 -1.148312 0.084779 -1.087312 0.000000 0.000000
    31 0.957766 -2.746776 -0.090301 -0.432128 -0.184437 0.072455
    32 -0.033419 -1.397128 -0.011255 -0.247860 0.000000 -0.000001
    33 -0.022361 -0.957434 0.018783 -0.956086 0.000000 0.000000
    34 -1.180680 -2.507215 -0.193861 -0.747365 0.130011 -0.054388
    35 -0.024966 -1.123935 0.017594 -1.414285 0.000000 0.000001
    36 -0.020057 -0.890966 0.010091 -0.846171 0.000000 0.000000
    37 0.583510 -1.197274 0.185377 0.631272 -1.323162 -0.918160
    38 1.535926 0.010244 0.005008 -0.124883 0.065220 -0.956765
    39 1.100770 0.004526 -0.010676 -0.014685 0.006877 -0.956472
    40 0.120152 -0.050266 -0.054488 0.287568 3.110905 1.561085
  time 26
    0 0.000000 0.000000 0.000000 0.000000 0.000000 -0.000015
    1 6.208814 4.865604 -6.974305 6.073715 -1.608779 0.168997
    2 -0.071918 -8.498732 -0.104137 0.000018 0.289587 0.083576
    3 2.305589 -2.755951 1.800741 -0.057826 0.286072 -3.251386
    4 0.822732 1.600163 0.000001 0.000002 0.000000 -0.024500
    5 -0.135229 4.811260 0.000000 0.000000 0.000000 1.558216
    6 -0.114076 -2.997109 0.000000 0.000000 0.000000 -0.019284
    7 -1.055155 -7.031262 -7.544917 -0.087607 -6.220456 0.490388
    8 0.096944 -8.450418 -0.009364 -0.137468 -0.268259 0.357727
    9 0.447952 -2.798983 -0.200442 -0.766175 -0.010396 0.265094
    10 -0.032910 -1.480206 0.004936 -0.491709 0.000000 0.000002
    11 -0.027022 -1.076919 -0.020212 -1.394127 0.000000 0.000000
    12 -0.249534 -2.846962 -0.174215 -0.219885 -0.000125 -0.008396
    13 0.043235 -1.683940 0.096014 -1.114670 0.002823 -0.000167
    14 0.031729 -1.160831 0.058836 -0.912818 0.000642 0.008372
    15 -0.963866 -2.785142 -0.085346 0.070022 0.162276 -0.191556
    16 0.028479 -1.403069 0.006271 -0.596895 0.000000 0.000000
    17 0.021413 -0.957782 0.020047 -0.432482 0.000000 0.000000
    18 1.164474 -2.543938 -0.170328 -0.702390 -0.013294 0.477915
    19 0.024033 -1.129042 0.017806 -0.803472 0.000000 0.000001
    20 0.014896 -0.883989 -0.019845 -0.584392 0.000000 0.000000
    21 -0.586770 -1.264475 0.200164 -0.286523 -0.333668 -2.448911
    22 1.522835 0.058681 0.016850 -0.077532 -0.420682 0.144516
    23 1.117948 0.048424 -0.005764 -0.000243 -0.025198 0.065422
    24 -0.139399 -0.111697 0.014397 0.285382 -0.030687 1.580508
    25 -0.488517 -2.755600 -0.228261 -1.119640 -0.066262 -0.107564
    26 0.039888 -1.479789 0.029853 -1.451658 0.000000 0.000000
    27 0.028786 -1.075730 -0.023111 -0.870565 0.000000 0.000000
    28 0.250028 -2.820664 -0.238396 -0.916633 -0.083577 -0.024886
    29 -0.049759 -1.680545 0.100480 -1.550922 0.000000 -0.000002
    30 -0.034141 -1.148312 0.084779 -1.087312 0.000000 0.000000
    31 0.957766 -2.746776 -0.090301 -0.432128 -0.184437 0.072455
    32 -0.033419 -1.397128 -0.011255 -0.247860 0.000000 -0.000001
    33 -0.022361 -0.957434 0.018783 -0.956086 0.000000 0.000000
    34 -1.180680 -2.507215 -0.193861 -0.747365 0.130011 -0.054388
    35 -0.024966 -1.123935 0.017594 -1.414285 0.000000 0.000001
    36 -0.020057 -0.890966 0.010091 -0.846171 0.000000 0.000000
    37 0.583510 -1.197274 0.185377 0.631272 -1.323162 -0.918160
    38 1.535926 0.010244 0.005008 -0.124883 0.065220 -0.956765
    39 1.100770 0.004526 -0.010676 -0.014685 0.006877 -0.956472
    40 0.120152 -0.050266 -0.054488 0.287568 3.110905 1.561085
  time 27
    0 0.000000 0.000000 0.000000 0.000000 0.000000 -0.000015
    1 6.208814 4.865604 -6.974305 6.073715 -1.608779 0.168997
    2 -0.071918 -8.498732 -0.104137 0.000332 0.289221 0.092202
    3 2.305589 -2.755951 1.800741 -0.057826 0.286072 -3.251386
    4 0.822732 1.600163 0.000001 0.000002 0.000000 -0.024500
    5 -0.135229 4.811260 0.000000 0.000000 0.000000 1.558216
    6 -0.114076 -2.997109 0.000000 0.000000 0.000000 -0.019284
    7 -1.055155 -7.031262 -7.591794 -0.102519 -6.216567 0.489912
    8 0.096944 -8.450418 -0.009364 -0.136450 -0.268259 0.357727
    9 0.447952 -2.798983 -0.200442 -0.766175 -0.010396 0.265094
    10 -0.032910 -1.480206 0.004936 -0.491709 0.000000 0.000002
    11 -0.027022 -1.076919 -0.020212 -1.394127 0.000000 0.000000
    12 -0.249534 -2.846962 -0.174215 -0.219885 -0.000125 -0.008396
    13 0.043235 -1.683940 0.096014 -1.114670 0.002823 -0.000167
    14 0.031729 -1.160831 0.058836 -0.912818 0.000642 0.008372
    15 -0.963866 -2.785142 -0.085346 0.070022 0.162276 -0.191556
    16 0.028479 -1.403069 0.006271 -0.596895 0.000000 0.000000
    17 0.021413 -0.957782 0.020047 -0.432482 0.000000 0.000000
    18 1.164474 -2.543938 -0.170328 -0.702390 -0.013294 0.477915
    19 0.024033 -1.129042 0.017806 -0.803472 0.000000 0.000001
    20 0.014896 -0.883989 -0.019845 -0.584392 0.000000 0.000000
    21 -0.586770 -1.264475 0.200164 -0.286523 -0.333668 -2.448911
    22 1.522835 0.058681 0.016850 -0.077532 -0.420682 0.144516
    23 1.117948 0.048424 -0.005764 -0.000243 -0.025198 0.065422
    24 -0.139399 -0.111697 0.014397 0.285382 -0.030687 1.580508
    25 -0.488517 -2.755600 -0.228261 -1.119640 -0.066262 -0.107564
    26 0.039888 -1.479789 0.029853 -1.451658 0.000000 0.000000
    27 0.028786 -1.075730 -0.023111 -0.870565 0.000000 0.000000
    28 0.250028 -2.820664 -0.238396 -0.916633 -0.083577 -0.024886
    29 -0.049759 -1.680545 0.100480 -1.550922 0.000000 -0.000002
    30 -0.034141 -1.148312 0.084779 -1.087312 0.000000 0.000000
    31 0.957766 -2.746776 -0.090301 -0.432128 -0.184437 0.072455
    32 -0.033419 -1.397128 -0.011255 -0.247860 0.000000 -0.000001
    33 -0.022361 -0.957434 0.018783 -0.956086 0.000000 0.000000
    34 -1.180680 -2.507215 -0.193861 -0.747365 0.130011 -0.054388
    35 -0.024966 -1.123935 0.017594 -1.414285 0.000000 0.000001
    36 -0.020057 -0.890966 0.010091 -0.846171 0.000000 0.000000
    37 0.583510 -1.197274 0.185377 0.631272 -1.323162 -0.918177
    38 1.535926 0.010244 0.005008 -0.124883 0.065220 -0.956765
    39 1.100770 0.004526 -0.010676 -0.014685 0.006877 -0.956472
    40 0.120152 -0.050266 -0.054488 0.287568 3.110905 1.561085
  time 28
    0 0.000000 0.000000 0.000000 0.000000 0.000000 -0.000015
    1 6.208814 4.865604 -6.974305 6.073715 -1.608779 0.168997
    2 -0.071918 -8.498732 -0.104137 0.000574 0.288909 0.099312
    3 2.305589 -2.755951 1.800741 -0.057826 0.286072 -3.251386
    4 0.822732 1.600163 0.000001 0.000002 0.000000 -0.024500
    5 -0.135229 4.811260 0.000000 0.000000 0.000000 1.558216
    6 -0.114076 -2.997109 0.000000 0.000000 0.000000 -0.019284
    7 -1.055155 -7.031262 -7.630858 -0.114754 -6.213343 0.489531
    8 0.096944 -8.450418 -0.009364 -0.135754 -0.268259 0.357727
    9 0.447952 -2.798983 -0.200442 -0.766175 -0.010396 0.265094
    10 -0.032910 -1.480206 0.004936 -0.491709 0.000000 0.000002
    11 -0.027022 -1.076919 -0.020212 -1.394127 0.000000 0.000000
    12 -0.249534 -2.846962 -0.174215 -0.219885 -0.000125 -0.008396
    13 0.043235 -1.683940 0.096014 -1.114670 0.002823 -0.000167
    14 0.031729 -1.160831 0.058836 -0.912818 0.000642 0.008372
    15 -0.963866 -2.785142 -0.085346 0.070022 0.162276 -0.191556
    16 0.028479 -1.403069 0.006271 -0.596895 0.000000 0.000000
    17 0.021413 -0.957782 0.020047 -0.432482 0.000000 0.000000
    18 1.164474 -2.543938 -0.170328 -0.702390 -0.013294 0.477915
    19 0.024033 -1.129042 0.017806 -0.803472 0.000000 0.000001
    20 0.014896 -0.883989 -0.019845 -0.584392 0.000000 0.000000
    21 -0.586770 -1.264475 0.200164 -0.286523 -0.333668 -2.448911
    22 1.522835 0.058681 0.016850 -0.077532 -0.420682 0.144516
    23 1.117948 0.048424 -0.005764 -0.000243 -0.025198 0.065422
    24 -0.139399 -0.111697 0.014397 0.285382 -0.030687 1.580508
    25 -0.488517 -2.755600 -0.228261 -1.119640 -0.066262 -0.107564
    26 0.039888 -1.479789 0.029853 -1.451658 0.000000 0.000000
    27 0.028786 -1.075730 -0.023111 -0.870565 0.000000 0.000000
    28 0.250028 -2.820664 -0.238396 -0.916633 -0.083577 -0.024886
    29 -0.049759 -1.680545 0.100480 -1.550922 0.000000 -0.000002
    30 -0.034141 -1.148312 0.084779 -1.087312 0.000000 0.000000
    31 0.957766 -2.746776 -0.090301 -0.432128 -0.184437 0.072455
    32 -0.033419 -1.397128 -0.011255 -0.247860 0.000000 -0.000001
    33 -0.022361 -0.957434 0.018783 -0.956086 0.000000 0.000000
    34 -1.180680 -2.507215 -0.193861 -0.747365 0.130011 -0.054388
    35 -0.024966 -1.123935 0.017594 -1.414285 0.000000 0.000001
    36 -0.020057 -0.890966 0.010091 -0.846171 0.000000 0.000000
    37 0.583510 -1.197274 0.185377 0.631272 -1.323162 -0.918160
    38 1.535926 0.010244 0.005008 -0.124883 0.065220 -0.956765
    39 1.100770 0.004526 -0.010676 -0.014685 0.006877 -0.956472
    40 0.120152 -0.050266 -0.054488 0.287568 3.110905 1.561085
  time 29
    0 0.000000 0.000000 0.000000 0.000000 0.000000 -0.000015
    1 6.208814 4.865604 -6.974305 6.073715 -1.608779 0.168997
    2 -0.071918 -8.498732 -0.104137 0.000767 0.288708 0.104122
    3 2.305589 -2.755951 1.800741 -0.057826 0.286072 -3.251386
    4 0.822732 1.600163 0.000001 0.000002 0.000000 -0.024500
    5 -0.135229 4.811260 0.000000 0.000000 0.000000 1.558216
    6 -0.114076 -2.997109 0.000000 0.000000 0.000000 -0.019284
    7 -1.055155 -7.031262 -7.658202 -0.123038 -6.211162 0.489340
    8 0.096944 -8.450418 -0.009364 -0.135343 -0.268259 0.357727
    9 0.447952 -2.798983 -0.200442 -0.766175 -0.010396 0.265094
    10 -0.032910 -1.480206 0.004936 -0.491709 0.000000 0.000002
    11 -0.027022 -1.076919 -0.020212 -1.394127 0.000000 0.000000
    12 -0.249534 -2.846962 -0.174215 -0.219885 -0.000125 -0.008396
    13 0.043235 -1.683940 0.096014 -1.114670 0.002823 -0.000167
    14 0.031729 -1.160831 0.058836 -0.912818 0.000642 0.008372
    15 -0.963866 -2.785142 -0.085346 0.070022 0.162276 -0.191556
    16 0.028479 -1.403069 0.006271 -0.596895 0.000000 0.000000
    17 0.021413 -0.957782 0.020047 -0.432482 0.000000 0.000000
    18 1.164474 -2.543938 -0.170328 -0.702390 -0.013294 0.477915
    19 0.024033 -1.129042 0.017806 -0.803472 0.000000 0.000001
    20 0.014896 -0.883989 -0.019845 -0.584392 0.000000 0.000000
    21 -0.586770 -1.264475 0.200164 -0.286523 -0.333668 -2.448911
    22 1.522835 0.058681 0.016850 -0.077532 -0.420682 0.144516
    23 1.117948 0.048424 -0.005764 -0.000243 -0.025198 0.065422
    24 -0.139399 -0.111697 0.014397 0.285382 -0.030687 1.580508
    25 -0.488517 -2.755600 -0.228261 -1.119640 -0.066262 -0.107564
    26 0.039888 -1.479789 0.029853 -1.451658 0.000000 0.000000
    27 0.028786 -1.075730 -0.023111 -0.870565 0.000000 0.000000
    28 0.250028 -2.820664 -0.238396 -0.916633 -0.083577 -0.024886
    29 -0.049759 -1.680545 0.100480 -1.550922 0.000000 -0.000002
    30 -0.034141 -1.148312 0.084779 -1.087312 0.000000 0.000000
    31 0.957766 -2.746776 -0.090301 -0.432128 -0.184437 0.072455
    32 -0.033419 -1.397128 -0.011255 -0.247860 0.000000 -0.000001
    33 -0.022361 -0.957434 0.018783 -0.956086 0.000000 0.000000
    34 -1.180680 -2.507215 -0.193861 -0.747365 0.130011 -0.054388
    35 -0.024966 -1.123935 0.017594 -1.414285 0.000000 0.000001
    36 -0.020057 -0.890966 0.010091 -0.846171 0.000000 0.000000
    37 0.583510 -1.197274 0.185377 0.631272 -1.323162 -0.918160
    38 1.535926 0.010244 0.005008 -0.124883 0.065220 -0.956765
    39 1.100770 0.004526 -0.010676 -0.014685 0.006877 -0.956472
    40 0.120152 -0.050266 -0.054488 0.287568 3.110905 1.561085
  time 30
    0 0.000000 0.000000 0.000000 0.000000 0.000000 -0.000015
    1 6.208814 4.865604 -6.974305 6.073715 -1.608779 0.168997
    2 -0.071918 -8.498732 -0.104137 0.000815 0.288635 0.105900
    3 2.305589 -2.755951 1.800741 -0.057826 0.286072 -3.251386
    4 0.822732 1.600163 0.000001 0.000002 0.000000 -0.024500
    5 -0.135229 4.811260 0.000000 0.000000 0.000000 1.558216
    6 -0.114076 -2.997109 0.000000 0.000000 0.000000 -0.019284
    7 -1.055155 -7.031262 -7.666015 -0.126097 -6.210308 0.489245
    8 0.096944 -8.450418 -0.009364 -0.135218 -0.268259 0.357727
    9 0.447952 -2.798983 -0.200442 -0.766175 -0.010396 0.265094
    10 -0.032910 -1.480206 0.004936 -0.491709 0.000000 0.000002
    11 -0.027022 -1.076919 -0.020212 -1.394127 0.000000 0.000000
    12 -0.249534 -2.846962 -0.174215 -0.219885 -0.000125 -0.008396
    13 0.043235 -1.683940 0.096014 -1.114670 0.002823 -0.000167
    14 0.031729 -1.160831 0.058836 -0.912818 0.000642 0.008372
    15 -0.963866 -2.785142 -0.085346 0.070022 0.162276 -0.191556
    16 0.028479 -1.403069 0.006271 -0.596895 0.000000 0.000000
    17 0.021413 -0.957782 0.020047 -0.432482 0.000000 0.000000
    18 1.164474 -2.543938 -0.170328 -0.702390 -0.013294 0.477915
    19 0.024033 -1.129042 0.017806 -0.803472 0.000000 0.000001
    20 0.014896 -0.883989 -0.019845 -0.584392 0.000000 0.000000
    21 -0.586770 -1.264475 0.200164 -0.286523 -0.333668 -2.448911
    22 1.522835 0.058681 0.016850 -0.077532 -0.420682 0.144516
    23 1.117948 0.048424 -0.005764 -0.000243 -0.025198 0.065422
    24 -0.139399 -0.111697 0.014397 0.285382 -0.030687 1.580508
    25 -0.488517 -2.755600 -0.228261 -1.119640 -0.066262 -0.107564
    26 0.039888 -1.479789 0.029853 -1.451658 0.000000 0.000000
    27 0.028786 -1.075730 -0.023111 -0.870565 0.000000 0.000000
    28 0.250028 -2.820664 -0.238396 -0.916633 -0.083577 -0.024886
    29 -0.049759 -1.680545 0.100480 -1.550922 0.000000 -0.000002
    30 -0.034141 -1.148312 0.084779 -1.087312 0.000000 0.000000
    31 0.957766 -2.746776 -0.090301 -0.432128 -0.184437 0.072455
    32 -0.033419 -1.397128 -0.011255 -0.247860 0.000000 -0.000001
    33 -0.022361 -0.957434 0.018783 -0.956086 0.000000 0.000000
    34 -1.180680 -2.507215 -0.193861 -0.747365 0.130011 -0.054388
    35 -0.024966 -1.123935 0.017594 -1.414285 0.000000 0.000001
    36 -0.020057 -0.890966 0.010091 -0.846171 0.000000 0.000000
    37 0.583510 -1.197274 0.185377 0.631272 -1.323162 -0.918160
    38 1.535926 0.010244 0.005008 -0.124883 0.065220 -0.956765
    39 1.100770 0.004526 -0.010676 -0.014685 0.006877 -0.956472
    40 0.120152 -0.050266 -0.054488 0.287568 3.110905 1.561085
end
