// Created by Crowbar 0.34.0.0

$ModelName "weapons/tfa_cso/w_mg36g.mdl"

$BodyGroup "studio"
{
	studio "v_mg36g_v_ref"
}

$collisionmodel "v_mg36g_v_ref.smd"
{
	$mass 9
}

$CDMaterials "models\weapons\tfa_cso\mg36g"

$attachment "0" "root" 0.30 -20.10 11.00 rotate -0 0 0

$Sequence "idle" {
	"anims\idle.smd"
	fps 30
}