version 1
nodes
0 "root" -1
end
skeleton
time 0
0  0.000000 0.000000 0.000000  0.000000 -0.000000 0.000000
end
triangles
CSO_C4_PW.BMP
0  -5.675894 0.587770 3.791085  -0.506345 0.512553 0.693472  0.952756 0.047244 1 0 1.000000
0  -4.935981 0.818052 3.471085  -0.193756 0.864581 -0.463636  0.968504 0.015748 1 0 1.000000
0  -5.615909 0.627793 3.541085  -0.210147 0.609691 -0.764274  0.968504 0.055118 1 0 1.000000
CSO_C4_PW.BMP
0  -5.675894 0.587770 3.791085  -0.506345 0.512553 0.693472  0.952756 0.047244 1 0 1.000000
0  -5.615909 0.627793 3.541085  -0.210147 0.609691 -0.764274  0.968504 0.055118 1 0 1.000000
0  -6.405500 -0.442509 2.581085  -0.152445 0.890379 -0.428936  0.968504 0.165354 1 0 1.000000
CSO_C4_PW.BMP
0  -5.675894 0.587770 3.791085  -0.506345 0.512553 0.693472  0.952756 0.047244 1 0 1.000000
0  -6.405500 -0.442509 2.581085  -0.152445 0.890379 -0.428936  0.968504 0.165354 1 0 1.000000
0  -6.555415 -0.662566 2.641085  -0.971211 -0.237975 0.010774  0.952756 0.173228 1 0 1.000000
CSO_C4_PW.BMP
0  -5.675894 0.587770 3.791085  -0.506345 0.512553 0.693472  0.952756 0.047244 1 0 1.000000
0  -6.555415 -0.662566 2.641085  -0.971211 -0.237975 0.010774  0.952756 0.173228 1 0 1.000000
0  -5.615794 0.327793 3.781085  0.150361 -0.754656 0.638659  0.929134 0.062992 1 0 1.000000
CSO_C4_PW.BMP
0  -5.675894 0.587770 3.791085  -0.506345 0.512553 0.693472  0.952756 0.047244 1 0 1.000000
0  -5.615794 0.327793 3.781085  0.150361 -0.754656 0.638659  0.929134 0.062992 1 0 1.000000
0  -4.885870 0.528071 3.711085  0.348983 -0.622005 0.700942  0.929134 0.023622 1 0 1.000000
CSO_C4_PW.BMP
0  -5.675894 0.587770 3.791085  -0.506345 0.512553 0.693472  0.952756 0.047244 1 0 1.000000
0  -4.885870 0.528071 3.711085  0.348983 -0.622005 0.700942  0.929134 0.023622 1 0 1.000000
0  -4.795969 0.788106 3.651085  -0.042383 0.690662 0.721935  0.952756 0.007874 1 0 1.000000
CSO_C4_PW.BMP
0  -5.675894 0.587770 3.791085  -0.506345 0.512553 0.693472  0.952756 0.047244 1 0 1.000000
0  -4.795969 0.788106 3.651085  -0.042383 0.690662 0.721935  0.952756 0.007874 1 0 1.000000
0  -4.935981 0.818052 3.471085  -0.193756 0.864581 -0.463636  0.968504 0.015748 1 0 1.000000
CSO_C4_PW.BMP
0  -6.315240 -1.122475 3.931085  -0.768222 -0.244953 0.591466  0.952756 0.086614 1 0 1.000000
0  -6.175328 -0.892421 3.891085  0.126128 0.876128 0.465286  0.929134 0.102362 1 0 1.000000
0  -6.495698 0.077457 2.041085  -0.852047 0.388013 -0.351371  0.952756 0.244094 1 0 1.000000
CSO_C4_PW.BMP
0  -6.315240 -1.122475 3.931085  -0.768222 -0.244953 0.591466  0.952756 0.086614 1 0 1.000000
0  -6.495698 0.077457 2.041085  -0.852047 0.388013 -0.351371  0.952756 0.244094 1 0 1.000000
0  -6.385608 -0.162501 2.051085  -0.182842 -0.933467 -0.308559  0.968504 0.236220 1 0 1.000000
CSO_C4_PW.BMP
0  -6.315240 -1.122475 3.931085  -0.768222 -0.244953 0.591466  0.952756 0.086614 1 0 1.000000
0  -6.385608 -0.162501 2.051085  -0.182842 -0.933467 -0.308559  0.968504 0.236220 1 0 1.000000
0  -6.195198 -1.232429 3.721085  -0.128978 -0.790989 -0.598081  0.968504 0.094488 1 0 1.000000
CSO_C4_PW.BMP
0  -6.315240 -1.122475 3.931085  -0.768222 -0.244953 0.591466  0.952756 0.086614 1 0 1.000000
0  -6.195198 -1.232429 3.721085  -0.128978 -0.790989 -0.598081  0.968504 0.094488 1 0 1.000000
0  -4.845022 -1.691913 4.031085  -0.218794 -0.968849 -0.116021  0.968504 0.015748 1 0 1.000000
CSO_C4_PW.BMP
0  -6.315240 -1.122475 3.931085  -0.768222 -0.244953 0.591466  0.952756 0.086614 1 0 1.000000
0  -4.845022 -1.691913 4.031085  -0.218794 -0.968849 -0.116021  0.968504 0.015748 1 0 1.000000
0  -4.715049 -1.621864 4.221085  -0.298023 -0.473706 0.828725  0.952756 0.007874 1 0 1.000000
CSO_C4_PW.BMP
0  -6.315240 -1.122475 3.931085  -0.768222 -0.244953 0.591466  0.952756 0.086614 1 0 1.000000
0  -4.715049 -1.621864 4.221085  -0.298023 -0.473706 0.828725  0.952756 0.007874 1 0 1.000000
0  -4.815148 -1.361902 4.211085  0.136388 0.633582 0.761559  0.929134 0.023622 1 0 1.000000
CSO_C4_PW.BMP
0  -6.315240 -1.122475 3.931085  -0.768222 -0.244953 0.591466  0.952756 0.086614 1 0 1.000000
0  -4.815148 -1.361902 4.211085  0.136388 0.633582 0.761559  0.929134 0.023622 1 0 1.000000
0  -6.175328 -0.892421 3.891085  0.126128 0.876128 0.465286  0.929134 0.102362 1 0 1.000000
CSO_C4_PW.BMP
0  -6.335520 -0.392482 4.081085  -0.700681 0.040933 0.712299  0.952756 0.086614 1 0 1.000000
0  -6.225583 -0.222440 3.911085  0.053658 0.975236 -0.214561  0.929134 0.102362 1 0 1.000000
0  -6.955449 -0.572719 2.521085  -0.971184 -0.097528 -0.217462  0.952756 0.244094 1 0 1.000000
CSO_C4_PW.BMP
0  -6.335520 -0.392482 4.081085  -0.700681 0.040933 0.712299  0.952756 0.086614 1 0 1.000000
0  -6.955449 -0.572719 2.521085  -0.971184 -0.097528 -0.217462  0.952756 0.244094 1 0 1.000000
0  -6.755385 -0.742643 2.601085  0.111008 -0.982700 0.148253  0.968504 0.236220 1 0 1.000000
CSO_C4_PW.BMP
0  -6.335520 -0.392482 4.081085  -0.700681 0.040933 0.712299  0.952756 0.086614 1 0 1.000000
0  -6.755385 -0.742643 2.601085  0.111008 -0.982700 0.148253  0.968504 0.236220 1 0 1.000000
0  -6.165446 -0.582417 3.981085  0.148660 -0.988360 -0.032331  0.968504 0.094488 1 0 1.000000
CSO_C4_PW.BMP
0  -6.335520 -0.392482 4.081085  -0.700681 0.040933 0.712299  0.952756 0.086614 1 0 1.000000
0  -6.165446 -0.582417 3.981085  0.148660 -0.988360 -0.032331  0.968504 0.094488 1 0 1.000000
0  -4.825499 -0.441906 4.521085  -0.025638 -0.756741 0.653212  0.968504 0.015748 1 0 1.000000
CSO_C4_PW.BMP
0  -6.335520 -0.392482 4.081085  -0.700681 0.040933 0.712299  0.952756 0.086614 1 0 1.000000
0  -4.825499 -0.441906 4.521085  -0.025638 -0.756741 0.653212  0.968504 0.015748 1 0 1.000000
0  -4.745587 -0.211875 4.581085  -0.316615 0.269241 0.909541  0.952756 0.007874 1 0 1.000000
CSO_C4_PW.BMP
0  -6.335520 -0.392482 4.081085  -0.700681 0.040933 0.712299  0.952756 0.086614 1 0 1.000000
0  -4.745587 -0.211875 4.581085  -0.316615 0.269241 0.909541  0.952756 0.007874 1 0 1.000000
0  -4.865637 -0.081921 4.391085  -0.003173 0.999430 -0.033597  0.929134 0.023622 1 0 1.000000
CSO_C4_PW.BMP
0  -6.335520 -0.392482 4.081085  -0.700681 0.040933 0.712299  0.952756 0.086614 1 0 1.000000
0  -4.865637 -0.081921 4.391085  -0.003173 0.999430 -0.033597  0.929134 0.023622 1 0 1.000000
0  -6.225583 -0.222440 3.911085  0.053658 0.975236 -0.214561  0.929134 0.102362 1 0 1.000000
CSO_C4_PW.BMP
0  -1.026050 0.999545 3.171085  -0.000353 0.924326 0.381603  0.322835 0.645669 1 0 1.000000
0  -4.945877 0.548048 4.261085  -0.631598 0.552966 0.543427  0.000000 0.724409 1 0 1.000000
0  -1.025878 0.549545 4.261085  -0.000273 0.713361 0.700797  0.322835 0.724409 1 0 1.000000
CSO_C4_PW.BMP
0  -4.945877 0.548048 4.261085  -0.631598 0.552966 0.543427  0.000000 0.724409 1 0 1.000000
0  -4.945469 -0.521951 4.721085  -0.629635 0.002432 0.776887  0.000000 0.818898 1 0 1.000000
0  -1.025878 0.549545 4.261085  -0.000273 0.713361 0.700797  0.322835 0.724409 1 0 1.000000
CSO_C4_PW.BMP
0  -1.025878 0.549545 4.261085  -0.000273 0.713361 0.700797  0.322835 0.724409 1 0 1.000000
0  -4.945469 -0.521951 4.721085  -0.629635 0.002432 0.776887  0.000000 0.818898 1 0 1.000000
0  -1.025469 -0.520454 4.721085  -0.000002 0.006342 0.999980  0.322835 0.818898 1 0 1.000000
CSO_C4_PW.BMP
0  -4.945469 -0.521951 4.721085  -0.629635 0.002432 0.776887  0.000000 0.818898 1 0 1.000000
0  -4.945049 -1.621951 4.261085  -0.630235 -0.550369 0.547629  0.000000 0.905512 1 0 1.000000
0  -1.025469 -0.520454 4.721085  -0.000002 0.006342 0.999980  0.322835 0.818898 1 0 1.000000
CSO_C4_PW.BMP
0  -1.025469 -0.520454 4.721085  -0.000002 0.006342 0.999980  0.322835 0.818898 1 0 1.000000
0  -4.945049 -1.621951 4.261085  -0.630235 -0.550369 0.547629  0.000000 0.905512 1 0 1.000000
0  -1.025049 -1.620454 4.261085  0.000271 -0.708714 0.705496  0.322835 0.905512 1 0 1.000000
CSO_C4_PW.BMP
0  -4.945049 -1.621951 4.261085  -0.630235 -0.550369 0.547629  0.000000 0.905512 1 0 1.000000
0  -4.944877 -2.071951 3.171085  -0.600099 -0.739426 0.305173  0.000000 0.984252 1 0 1.000000
0  -1.025049 -1.620454 4.261085  0.000271 -0.708714 0.705496  0.322835 0.905512 1 0 1.000000
CSO_C4_PW.BMP
0  -1.025049 -1.620454 4.261085  0.000271 -0.708714 0.705496  0.322835 0.905512 1 0 1.000000
0  -4.944877 -2.071951 3.171085  -0.600099 -0.739426 0.305173  0.000000 0.984252 1 0 1.000000
0  -1.024877 -2.070454 3.171085  0.000353 -0.924326 0.381603  0.322835 0.984252 1 0 1.000000
CSO_C4_PW.BMP
0  -4.935981 0.818052 3.471085  -0.193756 0.864581 -0.463636  0.968504 0.566929 1 0 1.000000
0  -5.615794 0.327793 3.781085  0.150361 -0.754656 0.638659  0.937008 0.645669 1 0 1.000000
0  -5.615909 0.627793 3.541085  -0.210147 0.609691 -0.764274  0.968504 0.645669 1 0 1.000000
CSO_C4_PW.BMP
0  -5.615794 0.327793 3.781085  0.150361 -0.754656 0.638659  0.937008 0.645669 1 0 1.000000
0  -6.355377 -0.762490 2.781085  0.165759 -0.777269 0.606941  0.937008 0.771654 1 0 1.000000
0  -5.615909 0.627793 3.541085  -0.210147 0.609691 -0.764274  0.968504 0.645669 1 0 1.000000
CSO_C4_PW.BMP
0  -5.615909 0.627793 3.541085  -0.210147 0.609691 -0.764274  0.968504 0.645669 1 0 1.000000
0  -6.355377 -0.762490 2.781085  0.165759 -0.777269 0.606941  0.937008 0.771654 1 0 1.000000
0  -6.405500 -0.442509 2.581085  -0.152445 0.890379 -0.428936  0.968504 0.771654 1 0 1.000000
CSO_C4_PW.BMP
0  -6.355377 -0.762490 2.781085  0.165759 -0.777269 0.606941  0.937008 0.771654 1 0 1.000000
0  -5.495274 -1.032161 1.501085  0.559059 -0.656291 0.506691  0.937008 0.976378 1 0 1.000000
0  -6.405500 -0.442509 2.581085  -0.152445 0.890379 -0.428936  0.968504 0.771654 1 0 1.000000
CSO_C4_PW.BMP
0  -6.405500 -0.442509 2.581085  -0.152445 0.890379 -0.428936  0.968504 0.771654 1 0 1.000000
0  -5.495274 -1.032161 1.501085  0.559059 -0.656291 0.506691  0.937008 0.976378 1 0 1.000000
0  -5.545392 -0.722181 1.301085  -0.050515 0.967538 -0.247626  0.968504 0.976378 1 0 1.000000
CSO_C4_PW.BMP
0  -5.545637 -0.082181 1.411085  -0.014431 -0.988918 -0.147762  0.968504 0.976378 1 0 1.000000
0  -5.505748 0.207835 1.621085  0.514443 0.476378 0.713031  0.937008 0.976378 1 0 1.000000
0  -6.385608 -0.162501 2.051085  -0.182842 -0.933467 -0.308559  0.968504 0.771654 1 0 1.000000
CSO_C4_PW.BMP
0  -5.505748 0.207835 1.621085  0.514443 0.476378 0.713031  0.937008 0.976378 1 0 1.000000
0  -6.355721 0.137510 2.261085  0.114019 0.798948 0.590492  0.937008 0.771654 1 0 1.000000
0  -6.385608 -0.162501 2.051085  -0.182842 -0.933467 -0.308559  0.968504 0.771654 1 0 1.000000
CSO_C4_PW.BMP
0  -6.385608 -0.162501 2.051085  -0.182842 -0.933467 -0.308559  0.968504 0.771654 1 0 1.000000
0  -6.355721 0.137510 2.261085  0.114019 0.798948 0.590492  0.937008 0.771654 1 0 1.000000
0  -6.195198 -1.232429 3.721085  -0.128978 -0.790989 -0.598081  0.968504 0.645669 1 0 1.000000
CSO_C4_PW.BMP
0  -6.355721 0.137510 2.261085  0.114019 0.798948 0.590492  0.937008 0.771654 1 0 1.000000
0  -6.175328 -0.892421 3.891085  0.126128 0.876128 0.465286  0.937008 0.645669 1 0 1.000000
0  -6.195198 -1.232429 3.721085  -0.128978 -0.790989 -0.598081  0.968504 0.645669 1 0 1.000000
CSO_C4_PW.BMP
0  -6.195198 -1.232429 3.721085  -0.128978 -0.790989 -0.598081  0.968504 0.645669 1 0 1.000000
0  -6.175328 -0.892421 3.891085  0.126128 0.876128 0.465286  0.937008 0.645669 1 0 1.000000
0  -4.815148 -1.361902 4.211085  0.136388 0.633582 0.761559  0.937008 0.566929 1 0 1.000000
CSO_C4_PW.BMP
0  -5.475388 -0.732154 1.271085  0.300737 -0.908354 0.290602  0.968504 0.976378 1 0 1.000000
0  -5.515530 -0.362169 1.261085  0.176592 0.969466 0.170146  0.937008 0.976378 1 0 1.000000
0  -6.755385 -0.742643 2.601085  0.111008 -0.982700 0.148253  0.968504 0.771654 1 0 1.000000
CSO_C4_PW.BMP
0  -5.515530 -0.362169 1.261085  0.176592 0.969466 0.170146  0.937008 0.976378 1 0 1.000000
0  -6.795530 -0.362658 2.591085  -0.077286 0.996760 0.022260  0.937008 0.771654 1 0 1.000000
0  -6.755385 -0.742643 2.601085  0.111008 -0.982700 0.148253  0.968504 0.771654 1 0 1.000000
CSO_C4_PW.BMP
0  -6.755385 -0.742643 2.601085  0.111008 -0.982700 0.148253  0.968504 0.771654 1 0 1.000000
0  -6.795530 -0.362658 2.591085  -0.077286 0.996760 0.022260  0.937008 0.771654 1 0 1.000000
0  -6.165446 -0.582417 3.981085  0.148660 -0.988360 -0.032331  0.968504 0.645669 1 0 1.000000
CSO_C4_PW.BMP
0  -6.795530 -0.362658 2.591085  -0.077286 0.996760 0.022260  0.937008 0.771654 1 0 1.000000
0  -6.225583 -0.222440 3.911085  0.053658 0.975236 -0.214561  0.937008 0.645669 1 0 1.000000
0  -6.165446 -0.582417 3.981085  0.148660 -0.988360 -0.032331  0.968504 0.645669 1 0 1.000000
CSO_C4_PW.BMP
0  -6.165446 -0.582417 3.981085  0.148660 -0.988360 -0.032331  0.968504 0.645669 1 0 1.000000
0  -6.225583 -0.222440 3.911085  0.053658 0.975236 -0.214561  0.937008 0.645669 1 0 1.000000
0  -4.865637 -0.081921 4.391085  -0.003173 0.999430 -0.033597  0.937008 0.566929 1 0 1.000000
CSO_C4_PW.BMP
0  -6.405500 -0.442509 2.581085  -0.152445 0.890379 -0.428936  0.968504 0.165354 1 0 1.000000
0  -5.545392 -0.722181 1.301085  -0.050515 0.967538 -0.247626  0.968504 0.440945 1 0 1.000000
0  -6.555415 -0.662566 2.641085  -0.971211 -0.237975 0.010774  0.952756 0.173228 1 0 1.000000
CSO_C4_PW.BMP
0  -5.545392 -0.722181 1.301085  -0.050515 0.967538 -0.247626  0.968504 0.440945 1 0 1.000000
0  -5.655297 -0.972223 1.301085  -0.810485 -0.348266 -0.470983  0.952756 0.448819 1 0 1.000000
0  -6.555415 -0.662566 2.641085  -0.971211 -0.237975 0.010774  0.952756 0.173228 1 0 1.000000
CSO_C4_PW.BMP
0  -6.555415 -0.662566 2.641085  -0.971211 -0.237975 0.010774  0.952756 0.173228 1 0 1.000000
0  -5.655297 -0.972223 1.301085  -0.810485 -0.348266 -0.470983  0.952756 0.448819 1 0 1.000000
0  -6.355377 -0.762490 2.781085  0.165759 -0.777269 0.606941  0.929134 0.165354 1 0 1.000000
CSO_C4_PW.BMP
0  -5.655297 -0.972223 1.301085  -0.810485 -0.348266 -0.470983  0.952756 0.448819 1 0 1.000000
0  -5.495274 -1.032161 1.501085  0.559059 -0.656291 0.506691  0.929134 0.440945 1 0 1.000000
0  -6.355377 -0.762490 2.781085  0.165759 -0.777269 0.606941  0.929134 0.165354 1 0 1.000000
CSO_C4_PW.BMP
0  -6.495698 0.077457 2.041085  -0.852047 0.388013 -0.351371  0.952756 0.244094 1 0 1.000000
0  -6.175328 -0.892421 3.891085  0.126128 0.876128 0.465286  0.929134 0.102362 1 0 1.000000
0  -6.355721 0.137510 2.261085  0.114019 0.798948 0.590492  0.929134 0.236220 1 0 1.000000
CSO_C4_PW.BMP
0  -6.495698 0.077457 2.041085  -0.852047 0.388013 -0.351371  0.952756 0.244094 1 0 1.000000
0  -6.355721 0.137510 2.261085  0.114019 0.798948 0.590492  0.929134 0.236220 1 0 1.000000
0  -5.645725 0.147781 1.401085  -0.566702 0.411654 -0.713716  0.952756 0.448819 1 0 1.000000
CSO_C4_PW.BMP
0  -6.495698 0.077457 2.041085  -0.852047 0.388013 -0.351371  0.952756 0.244094 1 0 1.000000
0  -5.645725 0.147781 1.401085  -0.566702 0.411654 -0.713716  0.952756 0.448819 1 0 1.000000
0  -5.545637 -0.082181 1.411085  -0.014431 -0.988918 -0.147762  0.968504 0.440945 1 0 1.000000
CSO_C4_PW.BMP
0  -6.495698 0.077457 2.041085  -0.852047 0.388013 -0.351371  0.952756 0.244094 1 0 1.000000
0  -5.545637 -0.082181 1.411085  -0.014431 -0.988918 -0.147762  0.968504 0.440945 1 0 1.000000
0  -6.385608 -0.162501 2.051085  -0.182842 -0.933467 -0.308559  0.968504 0.236220 1 0 1.000000
CSO_C4_PW.BMP
0  -6.955449 -0.572719 2.521085  -0.971184 -0.097528 -0.217462  0.952756 0.244094 1 0 1.000000
0  -6.225583 -0.222440 3.911085  0.053658 0.975236 -0.214561  0.929134 0.102362 1 0 1.000000
0  -6.795530 -0.362658 2.591085  -0.077286 0.996760 0.022260  0.929134 0.236220 1 0 1.000000
CSO_C4_PW.BMP
0  -6.955449 -0.572719 2.521085  -0.971184 -0.097528 -0.217462  0.952756 0.244094 1 0 1.000000
0  -6.795530 -0.362658 2.591085  -0.077286 0.996760 0.022260  0.929134 0.236220 1 0 1.000000
0  -5.615450 -0.572207 1.121085  -0.716713 -0.140929 -0.682980  0.952756 0.330709 1 0 1.000000
CSO_C4_PW.BMP
0  -6.955449 -0.572719 2.521085  -0.971184 -0.097528 -0.217462  0.952756 0.244094 1 0 1.000000
0  -5.615450 -0.572207 1.121085  -0.716713 -0.140929 -0.682980  0.952756 0.330709 1 0 1.000000
0  -5.475388 -0.732154 1.271085  0.300737 -0.908354 0.290602  0.968504 0.322835 1 0 1.000000
CSO_C4_PW.BMP
0  -6.955449 -0.572719 2.521085  -0.971184 -0.097528 -0.217462  0.952756 0.244094 1 0 1.000000
0  -5.475388 -0.732154 1.271085  0.300737 -0.908354 0.290602  0.968504 0.322835 1 0 1.000000
0  -6.755385 -0.742643 2.601085  0.111008 -0.982700 0.148253  0.968504 0.236220 1 0 1.000000
CSO_C4_PW.BMP
0  -4.946050 0.998048 3.171085  -0.600663 0.738967 0.305173  0.976378 0.472441 1 0 1.000000
0  -4.944877 -2.071951 3.171085  -0.600099 -0.739426 0.305173  0.755906 0.472441 1 0 1.000000
0  -4.945877 0.548048 4.261085  -0.631598 0.552966 0.543427  0.944882 0.551181 1 0 1.000000
CSO_C4_PW.BMP
0  -4.944877 -2.071951 3.171085  -0.600099 -0.739426 0.305173  0.755906 0.472441 1 0 1.000000
0  -4.945049 -1.621951 4.261085  -0.630235 -0.550369 0.547629  0.787402 0.551181 1 0 1.000000
0  -4.945877 0.548048 4.261085  -0.631598 0.552966 0.543427  0.944882 0.551181 1 0 1.000000
CSO_C4_PW.BMP
0  -4.945877 0.548048 4.261085  -0.631598 0.552966 0.543427  0.944882 0.551181 1 0 1.000000
0  -4.945049 -1.621951 4.261085  -0.630235 -0.550369 0.547629  0.787402 0.551181 1 0 1.000000
0  -4.945469 -0.521951 4.721085  -0.629635 0.002432 0.776887  0.866142 0.582677 1 0 1.000000
CSO_C4_PW.BMP
0  -1.486447 2.039370 3.411085  -0.707377 0.706837 0.000000  0.787402 0.598425 1 0 1.000000
0  -1.484717 -2.490630 3.411085  -0.706837 -0.707377 0.000000  0.787402 0.976378 1 0 1.000000
0  -1.486447 2.039370 4.901085  -0.577571 0.577130 0.577350  0.913386 0.598425 1 0 1.000000
CSO_C4_PW.BMP
0  -1.484717 -2.490630 3.411085  -0.706837 -0.707377 0.000000  0.787402 0.976378 1 0 1.000000
0  -1.484717 -2.490630 4.901085  -0.577130 -0.577571 0.577350  0.913386 0.976378 1 0 1.000000
0  -1.486447 2.039370 4.901085  -0.577571 0.577130 0.577350  0.913386 0.598425 1 0 1.000000
CSO_C4_PW.BMP
0  -1.484717 -2.490630 3.411085  -0.706837 -0.707377 0.000000  0.787402 0.598425 1 0 1.000000
0  3.575283 -2.488698 3.411085  0.707377 -0.706837 0.000000  0.787402 0.976378 1 0 1.000000
0  -1.484717 -2.490630 4.901085  -0.577130 -0.577571 0.577350  0.913386 0.598425 1 0 1.000000
CSO_C4_PW.BMP
0  3.575283 -2.488698 3.411085  0.707377 -0.706837 0.000000  0.787402 0.976378 1 0 1.000000
0  3.575283 -2.488698 4.901085  0.577571 -0.577130 0.577350  0.913386 0.976378 1 0 1.000000
0  -1.484717 -2.490630 4.901085  -0.577130 -0.577571 0.577350  0.913386 0.598425 1 0 1.000000
CSO_C4_PW.BMP
0  3.575283 -2.488698 3.411085  0.707377 -0.706837 0.000000  0.787402 0.598425 1 0 1.000000
0  3.573553 2.041302 3.411085  0.706837 0.707377 0.000000  0.787402 0.976378 1 0 1.000000
0  3.575283 -2.488698 4.901085  0.577571 -0.577130 0.577350  0.913386 0.598425 1 0 1.000000
CSO_C4_PW.BMP
0  3.573553 2.041302 3.411085  0.706837 0.707377 0.000000  0.787402 0.976378 1 0 1.000000
0  3.573553 2.041302 4.901085  0.577130 0.577571 0.577350  0.913386 0.976378 1 0 1.000000
0  3.575283 -2.488698 4.901085  0.577571 -0.577130 0.577350  0.913386 0.598425 1 0 1.000000
CSO_C4_PW.BMP
0  3.573553 2.041302 3.411085  0.706837 0.707377 0.000000  0.787402 0.598425 1 0 1.000000
0  -1.486447 2.039370 3.411085  -0.707377 0.706837 0.000000  0.787402 0.976378 1 0 1.000000
0  3.573553 2.041302 4.901085  0.577130 0.577571 0.577350  0.913386 0.598425 1 0 1.000000
CSO_C4_PW.BMP
0  -1.486447 2.039370 3.411085  -0.707377 0.706837 0.000000  0.787402 0.976378 1 0 1.000000
0  -1.486447 2.039370 4.901085  -0.577571 0.577130 0.577350  0.913386 0.976378 1 0 1.000000
0  3.573553 2.041302 4.901085  0.577130 0.577571 0.577350  0.913386 0.598425 1 0 1.000000
CSO_C4_PW.BMP
0  3.573553 2.041302 4.901085  0.577130 0.577571 0.577350  0.771654 0.543307 1 0 1.000000
0  -1.486447 2.039370 4.901085  -0.577571 0.577130 0.577350  0.338583 0.543307 1 0 1.000000
0  3.575283 -2.488698 4.901085  0.577571 -0.577130 0.577350  0.771654 0.984252 1 0 1.000000
CSO_C4_PW.BMP
0  -1.486447 2.039370 4.901085  -0.577571 0.577130 0.577350  0.338583 0.543307 1 0 1.000000
0  -1.484717 -2.490630 4.901085  -0.577130 -0.577571 0.577350  0.338583 0.984252 1 0 1.000000
0  3.575283 -2.488698 4.901085  0.577571 -0.577130 0.577350  0.771654 0.984252 1 0 1.000000
CSO_C4_PW.BMP
0  6.515533 -3.147575 3.431085  0.577571 -0.577130 0.577350  0.000000 0.629921 1 0 1.000000
0  6.515533 -3.147575 -0.028915  0.577571 -0.577130 -0.577350  0.000000 0.472441 1 0 1.000000
0  6.513300 2.702425 3.431085  0.577130 0.577571 0.577350  0.322835 0.629921 1 0 1.000000
CSO_C4_PW.BMP
0  6.515533 -3.147575 -0.028915  0.577571 -0.577130 -0.577350  0.000000 0.472441 1 0 1.000000
0  6.513300 2.702425 -0.028915  0.577130 0.577571 -0.577350  0.322835 0.472441 1 0 1.000000
0  6.513300 2.702425 3.431085  0.577130 0.577571 0.577350  0.322835 0.629921 1 0 1.000000
CSO_C4_PW.BMP
0  -5.884465 -3.152310 3.431085  -0.577130 -0.577571 0.577350  0.755906 0.000000 1 0 1.000000
0  -5.884465 -3.152310 -0.028915  -0.577130 -0.577571 -0.577350  0.905512 0.000000 1 0 1.000000
0  6.515533 -3.147575 3.431085  0.577571 -0.577130 0.577350  0.755906 0.448819 1 0 1.000000
CSO_C4_PW.BMP
0  -5.884465 -3.152310 -0.028915  -0.577130 -0.577571 -0.577350  0.905512 0.000000 1 0 1.000000
0  6.515533 -3.147575 -0.028915  0.577571 -0.577130 -0.577350  0.905512 0.448819 1 0 1.000000
0  6.515533 -3.147575 3.431085  0.577571 -0.577130 0.577350  0.755906 0.448819 1 0 1.000000
CSO_C4_PW.BMP
0  -5.886700 2.697689 3.431085  -0.577571 0.577130 0.577350  0.000000 0.629921 1 0 1.000000
0  -5.886700 2.697689 -0.028915  -0.577571 0.577130 -0.577350  0.000000 0.472441 1 0 1.000000
0  -5.884465 -3.152310 3.431085  -0.577130 -0.577571 0.577350  0.322835 0.629921 1 0 1.000000
CSO_C4_PW.BMP
0  -5.886700 2.697689 -0.028915  -0.577571 0.577130 -0.577350  0.000000 0.472441 1 0 1.000000
0  -5.884465 -3.152310 -0.028915  -0.577130 -0.577571 -0.577350  0.322835 0.472441 1 0 1.000000
0  -5.884465 -3.152310 3.431085  -0.577130 -0.577571 0.577350  0.322835 0.629921 1 0 1.000000
CSO_C4_PW.BMP
0  6.513300 2.702425 3.431085  0.577130 0.577571 0.577350  0.905512 0.448819 1 0 1.000000
0  6.513300 2.702425 -0.028915  0.577130 0.577571 -0.577350  0.755906 0.448819 1 0 1.000000
0  -5.886700 2.697689 3.431085  -0.577571 0.577130 0.577350  0.905512 0.000000 1 0 1.000000
CSO_C4_PW.BMP
0  6.513300 2.702425 -0.028915  0.577130 0.577571 -0.577350  0.755906 0.448819 1 0 1.000000
0  -5.886700 2.697689 -0.028915  -0.577571 0.577130 -0.577350  0.755906 0.000000 1 0 1.000000
0  -5.886700 2.697689 3.431085  -0.577571 0.577130 0.577350  0.905512 0.000000 1 0 1.000000
CSO_C4_PW.BMP
0  6.515533 -3.147575 3.431085  0.577571 -0.577130 0.577350  0.000000 0.448819 1 0 1.000000
0  6.513300 2.702425 3.431085  0.577130 0.577571 0.577350  0.000000 0.007874 1 0 1.000000
0  -5.884465 -3.152310 3.431085  -0.577130 -0.577571 0.577350  0.740157 0.448819 1 0 1.000000
CSO_C4_PW.BMP
0  6.513300 2.702425 3.431085  0.577130 0.577571 0.577350  0.000000 0.007874 1 0 1.000000
0  -5.886700 2.697689 3.431085  -0.577571 0.577130 0.577350  0.740157 0.007874 1 0 1.000000
0  -5.884465 -3.152310 3.431085  -0.577130 -0.577571 0.577350  0.740157 0.448819 1 0 1.000000
CSO_C4_PW.BMP
0  -5.886700 2.697689 -0.028915  -0.577571 0.577130 -0.577350  0.740157 0.448819 1 0 1.000000
0  6.513300 2.702425 -0.028915  0.577130 0.577571 -0.577350  0.000000 0.448819 1 0 1.000000
0  -5.884465 -3.152310 -0.028915  -0.577130 -0.577571 -0.577350  0.740157 0.007874 1 0 1.000000
CSO_C4_PW.BMP
0  6.513300 2.702425 -0.028915  0.577130 0.577571 -0.577350  0.000000 0.448819 1 0 1.000000
0  6.515533 -3.147575 -0.028915  0.577571 -0.577130 -0.577350  0.000000 0.007874 1 0 1.000000
0  -5.884465 -3.152310 -0.028915  -0.577130 -0.577571 -0.577350  0.740157 0.007874 1 0 1.000000
CSO_C4_PW.BMP
0  -6.555415 -0.662566 2.641085  -0.971211 -0.237975 0.010774  0.952756 0.173228 1 0 1.000000
0  -6.355377 -0.762490 2.781085  0.165759 -0.777269 0.606941  0.929134 0.165354 1 0 1.000000
0  -5.615794 0.327793 3.781085  0.150361 -0.754656 0.638659  0.929134 0.062992 1 0 1.000000
CSO_C4_PW.BMP
0  -4.815148 -1.361902 4.211085  0.136388 0.633582 0.761559  0.937008 0.566929 1 0 1.000000
0  -4.845022 -1.691913 4.031085  -0.218794 -0.968849 -0.116021  0.968504 0.566929 1 0 1.000000
0  -6.195198 -1.232429 3.721085  -0.128978 -0.790989 -0.598081  0.968504 0.645669 1 0 1.000000
CSO_C4_PW.BMP
0  -6.355721 0.137510 2.261085  0.114019 0.798948 0.590492  0.929134 0.236220 1 0 1.000000
0  -5.505748 0.207835 1.621085  0.514443 0.476378 0.713031  0.929134 0.440945 1 0 1.000000
0  -5.645725 0.147781 1.401085  -0.566702 0.411654 -0.713716  0.952756 0.448819 1 0 1.000000
CSO_C4_PW.BMP
0  -4.865637 -0.081921 4.391085  -0.003173 0.999430 -0.033597  0.937008 0.566929 1 0 1.000000
0  -4.825499 -0.441906 4.521085  -0.025638 -0.756741 0.653212  0.968504 0.566929 1 0 1.000000
0  -6.165446 -0.582417 3.981085  0.148660 -0.988360 -0.032331  0.968504 0.645669 1 0 1.000000
CSO_C4_PW.BMP
0  -6.795530 -0.362658 2.591085  -0.077286 0.996760 0.022260  0.929134 0.236220 1 0 1.000000
0  -5.515530 -0.362169 1.261085  0.176592 0.969466 0.170146  0.929134 0.314961 1 0 1.000000
0  -5.615450 -0.572207 1.121085  -0.716713 -0.140929 -0.682980  0.952756 0.330709 1 0 1.000000
CSO_C4_PW.BMP
0  -4.935981 0.818052 3.471085  -0.193756 0.864581 -0.463636  0.968504 0.566929 1 0 1.000000
0  -4.885870 0.528071 3.711085  0.348983 -0.622005 0.700942  0.937008 0.566929 1 0 1.000000
0  -5.615794 0.327793 3.781085  0.150361 -0.754656 0.638659  0.937008 0.645669 1 0 1.000000
CSO_C4_PW.BMP
0  -1.026050 0.999545 3.171085  -0.000353 0.924326 0.381603  0.322835 0.645669 1 0 1.000000
0  -4.946050 0.998048 3.171085  -0.600663 0.738967 0.305173  0.000000 0.645669 1 0 1.000000
0  -4.945877 0.548048 4.261085  -0.631598 0.552966 0.543427  0.000000 0.724409 1 0 1.000000
end
