version 1
nodes
  0 "Bone_Root" -1
  1 "Bone01" 0
  2 "Bone_Lefthand" 1
  3 "Kriss_root" 2
  4 "trigger" 3
  5 "magazine" 3
  6 "load01" 3
  7 "silencer" 3
  8 "Bone04" 0
  9 "Bone_Righthand" 8
  10 "Bone39" 9
  11 "Bone40" 10
  12 "Bone41" 11
  13 "Bone35" 9
  14 "Bone36" 13
  15 "Bone37" 14
  16 "Bone31" 9
  17 "Bone32" 16
  18 "Bone33" 17
  19 "Bone43" 9
  20 "Bone44" 19
  21 "Bone45" 20
  22 "Bone27" 9
  23 "Bone28" 22
  24 "Bone29" 23
  25 "Bone_Se_Hand-R" 9
  26 "Bone13" 2
  27 "Bone14" 26
  28 "Bone15" 27
  29 "Bone17" 2
  30 "Bone18" 29
  31 "Bone19" 30
  32 "Bone21" 2
  33 "Bone22" 32
  34 "Bone23" 33
  35 "Bone09" 2
  36 "Bone10" 35
  37 "Bone11" 36
  38 "Bone05" 2
  39 "Bone06" 38
  40 "Bone07" 39
  41 "Bone_Se_Hand-L" 2
end
skeleton
  time 0
    0 0.000000 0.000000 0.000000 0.000000 0.000000 0.000000
    1 6.650234 5.725005 -6.946960 0.769040 -1.860570 -0.716043
    2 -0.071918 -8.498732 -0.104137 -0.025046 0.287591 0.014898
    3 1.851738 -3.358099 0.933068 -0.001979 0.003529 -3.611060
    4 0.082600 1.146645 0.000000 0.000000 0.000000 0.063337
    5 -0.795049 6.628533 0.000002 0.000001 0.000000 -0.047613
    6 -1.846357 7.578958 0.739989 0.000000 -0.000001 1.835736
    7 52.562830 -52.553139 -1.562950 0.000000 0.000000 1.835736
    8 -2.188002 -7.683626 -9.919990 -2.110864 -5.190312 -1.381951
    9 0.096944 -8.450418 -0.009364 -0.119153 -0.275630 0.297905
    10 0.447952 -2.798983 -0.200442 -1.171631 -0.187313 0.022274
    11 -0.032910 -1.480206 0.004936 -1.151858 0.000000 0.000002
    12 -0.027022 -1.076919 -0.020212 -1.045074 0.000000 0.000000
    13 -0.249534 -2.846962 -0.174215 -1.050358 -0.194024 -0.118379
    14 0.043235 -1.683940 0.096014 -1.469808 0.002823 -0.000167
    15 0.031729 -1.160831 0.058836 -1.087362 0.000642 0.008372
    16 -0.963866 -2.785142 -0.085346 -0.613115 -0.085997 -0.167478
    17 0.028479 -1.403069 0.006271 -1.158127 0.000000 0.000000
    18 0.021413 -0.957782 0.020047 -0.780553 0.000000 0.000000
    19 1.164474 -2.543938 -0.170328 -0.955776 -0.336135 0.112541
    20 0.024033 -1.129042 0.017806 -0.850024 0.000000 0.000001
    21 0.014896 -0.883989 -0.019845 -1.052862 0.000000 0.000000
    22 -0.586770 -1.264475 0.200164 -0.276792 -0.716336 -2.528363
    23 1.522835 0.058681 0.016850 -0.417695 -0.629901 1.323585
    24 1.117948 0.048424 -0.005764 -0.002580 -0.025066 0.158718
    25 -0.139399 -0.111697 0.014397 0.285382 -0.030687 1.580508
    26 -0.488517 -2.755600 -0.228261 -1.376484 -0.075298 -0.281316
    27 0.039888 -1.479789 0.029853 -0.928033 0.000000 0.000000
    28 0.028786 -1.075730 -0.023111 -1.481386 0.000000 0.000000
    29 0.250028 -2.820664 -0.238396 -1.075893 -0.014906 -0.312588
    30 -0.049759 -1.680545 0.100480 -1.463659 0.000000 -0.000002
    31 -0.034141 -1.148312 0.084779 -1.087312 0.000000 0.000000
    32 0.957766 -2.746776 -0.090301 -0.143359 -0.206189 -0.071012
    33 -0.033419 -1.397128 -0.011255 -0.779119 0.124808 -0.122316
    34 -0.022361 -0.957434 0.018783 -1.043310 0.000000 0.000000
    35 -1.180680 -2.507215 -0.193861 -1.224952 -0.001292 -0.303995
    36 -0.024966 -1.123935 0.017594 -0.977967 0.000000 0.000001
    37 -0.020057 -0.890966 0.010091 -0.933434 0.000000 0.000000
    38 0.583510 -1.197274 0.185377 0.272562 -1.003490 -0.533081
    39 1.535926 0.010244 0.005008 0.440185 -0.138733 -1.296648
    40 1.100770 0.004526 -0.010676 -0.011449 0.011491 -0.607432
    41 0.120152 -0.050266 -0.054488 0.287568 3.110905 1.561085
  time 1
    0 0.000000 1.085971 0.000000 0.000000 0.000000 0.000000
    1 6.650234 5.725005 -6.946960 0.769040 -1.860570 -0.716043
    2 -0.071918 -8.498732 -0.104137 -0.023870 0.287675 0.019045
    3 1.851738 -3.358099 0.933068 -0.001979 0.003529 -3.611060
    4 0.133383 0.939607 0.000000 0.000000 0.000000 0.063337
    5 -0.795049 6.628533 0.000002 0.000001 0.000000 -0.047613
    6 -1.846357 7.578958 0.739989 0.000000 -0.000001 1.835736
    7 52.562830 -52.553139 -1.562950 0.000000 0.000000 1.835736
    8 -2.188002 -7.683626 -9.919990 -2.107374 -5.193473 -1.378025
    9 0.096944 -8.450418 -0.009364 -0.119153 -0.275630 0.297905
    10 0.447952 -2.798983 -0.200442 -1.171631 -0.187313 0.022274
    11 -0.032910 -1.480206 0.004936 -1.151858 0.000000 0.000002
    12 -0.027022 -1.076919 -0.020212 -1.045074 0.000000 0.000000
    13 -0.249534 -2.846962 -0.174215 -1.050358 -0.194024 -0.118379
    14 0.043235 -1.683940 0.096014 -1.469808 0.002823 -0.000167
    15 0.031729 -1.160831 0.058836 -1.087362 0.000642 0.008372
    16 -0.963866 -2.785142 -0.085346 -0.613115 -0.085997 -0.167478
    17 0.028479 -1.403069 0.006271 -1.158127 0.000000 0.000000
    18 0.021413 -0.957782 0.020047 -0.780553 0.000000 0.000000
    19 1.164474 -2.543938 -0.170328 -0.955776 -0.336135 0.112541
    20 0.024033 -1.129042 0.017806 -0.850024 0.000000 0.000001
    21 0.014896 -0.883989 -0.019845 -1.052862 0.000000 0.000000
    22 -0.586770 -1.264475 0.200164 -0.276792 -0.716336 -2.528363
    23 1.522835 0.058681 0.016850 -0.417695 -0.629901 1.323585
    24 1.117948 0.048424 -0.005764 -0.002580 -0.025066 0.158718
    25 -0.139399 -0.111697 0.014397 0.285382 -0.030687 1.580508
    26 -0.488517 -2.755600 -0.228261 -1.376484 -0.075298 -0.281316
    27 0.039888 -1.479789 0.029853 -0.928033 0.000000 0.000000
    28 0.028786 -1.075730 -0.023111 -1.481386 0.000000 0.000000
    29 0.250028 -2.820664 -0.238396 -1.075893 -0.014906 -0.312588
    30 -0.049759 -1.680545 0.100480 -1.463659 0.000000 -0.000002
    31 -0.034141 -1.148312 0.084779 -1.087312 0.000000 0.000000
    32 0.957766 -2.746776 -0.090301 -0.143359 -0.206189 -0.071012
    33 -0.033419 -1.397128 -0.011255 -0.779119 0.124808 -0.122316
    34 -0.022361 -0.957434 0.018783 -1.392418 0.000000 0.000000
    35 -1.180680 -2.507215 -0.193861 -1.224952 -0.001292 -0.303995
    36 -0.024966 -1.123935 0.017594 -0.977967 0.000000 0.000001
    37 -0.020057 -0.890966 0.010091 -0.933434 0.000000 0.000000
    38 0.583510 -1.197274 0.185377 0.272562 -1.003490 -0.533081
    39 1.535926 0.010244 0.005008 0.440185 -0.138733 -1.296648
    40 1.100770 0.004526 -0.010676 -0.011449 0.011491 -0.607432
    41 0.120152 -0.050266 -0.054488 0.287568 3.110905 1.561085
  time 2
    0 0.000000 1.078158 0.000000 -0.004314 0.000000 0.000000
    1 6.650234 5.725005 -6.946960 0.769040 -1.860570 -0.716043
    2 -0.071918 -8.498732 -0.104137 -0.021280 0.287855 0.028165
    3 1.851738 -3.358099 0.933068 -0.001979 0.003529 -3.611060
    4 0.133383 0.943514 0.000000 0.000000 0.000000 0.063337
    5 -0.795049 6.628533 0.000002 0.000001 0.000000 -0.047613
    6 -1.846357 7.578958 0.739989 0.000000 -0.000001 1.835736
    7 52.562830 -52.553139 -1.562950 0.000000 0.000000 1.835736
    8 -2.188002 -7.683626 -9.919990 -2.099094 -5.201232 -1.368642
    9 0.096944 -8.450418 -0.009364 -0.119153 -0.275630 0.297905
    10 0.447952 -2.798983 -0.200442 -1.171631 -0.187313 0.022274
    11 -0.032910 -1.480206 0.004936 -1.151858 0.000000 0.000002
    12 -0.027022 -1.076919 -0.020212 -1.045074 0.000000 0.000000
    13 -0.249534 -2.846962 -0.174215 -1.050358 -0.194024 -0.118379
    14 0.043235 -1.683940 0.096014 -1.469808 0.002823 -0.000167
    15 0.031729 -1.160831 0.058836 -1.087362 0.000642 0.008372
    16 -0.963866 -2.785142 -0.085346 -0.613115 -0.085997 -0.167478
    17 0.028479 -1.403069 0.006271 -1.158127 0.000000 0.000000
    18 0.021413 -0.957782 0.020047 -0.780553 0.000000 0.000000
    19 1.164474 -2.543938 -0.170328 -0.955776 -0.336135 0.112541
    20 0.024033 -1.129042 0.017806 -0.850024 0.000000 0.000001
    21 0.014896 -0.883989 -0.019845 -1.052862 0.000000 0.000000
    22 -0.586770 -1.264475 0.200164 -0.276792 -0.716336 -2.528363
    23 1.522835 0.058681 0.016850 -0.417695 -0.629901 1.323585
    24 1.117948 0.048424 -0.005764 -0.002580 -0.025066 0.158718
    25 -0.139399 -0.111697 0.014397 0.285382 -0.030687 1.580508
    26 -0.488517 -2.755600 -0.228261 -1.376484 -0.075298 -0.281316
    27 0.039888 -1.479789 0.029853 -0.928060 0.000000 0.000000
    28 0.028786 -1.075730 -0.023111 -1.481386 0.000000 0.000000
    29 0.250028 -2.820664 -0.238396 -1.075893 -0.014906 -0.312588
    30 -0.049759 -1.680545 0.100480 -1.463659 0.000000 -0.000002
    31 -0.034141 -1.148312 0.084779 -1.087312 0.000000 0.000000
    32 0.957766 -2.746776 -0.090301 -0.143359 -0.206189 -0.071012
    33 -0.033419 -1.397128 -0.011255 -0.779119 0.124808 -0.122316
    34 -0.022361 -0.957434 0.018783 -1.388924 0.000000 0.000000
    35 -1.180680 -2.507215 -0.193861 -1.224952 -0.001292 -0.303995
    36 -0.024966 -1.123935 0.017594 -0.977967 0.000000 0.000001
    37 -0.020057 -0.890966 0.010091 -0.933434 0.000000 0.000000
    38 0.583510 -1.197274 0.185377 0.272562 -1.003490 -0.533081
    39 1.535926 0.010244 0.005008 0.440185 -0.138733 -1.296648
    40 1.100770 0.004526 -0.010676 -0.011449 0.011491 -0.607432
    41 0.120152 -0.050266 -0.054488 0.287568 3.110905 1.561085
  time 3
    0 0.000000 1.050813 0.000000 -0.008629 0.000000 0.000000
    1 6.650234 5.725005 -6.946960 0.769040 -1.860570 -0.716043
    2 -0.071918 -8.498732 -0.104137 -0.018690 0.288046 0.037285
    3 1.851738 -3.358099 0.933068 -0.001979 0.003529 -3.611060
    4 0.133383 0.951326 0.000000 0.000000 0.000000 0.063337
    5 -0.795049 6.628533 0.000002 0.000001 0.000000 -0.047613
    6 -1.846357 7.578958 0.739989 0.000000 -0.000001 1.835736
    7 52.562830 -52.553139 -1.562950 0.000000 0.000000 1.835736
    8 -2.188002 -7.683626 -9.919990 -2.089240 -5.210428 -1.357343
    9 0.096944 -8.450418 -0.009364 -0.119153 -0.275630 0.297905
    10 0.447952 -2.798983 -0.200442 -1.171631 -0.187313 0.022274
    11 -0.032910 -1.480206 0.004936 -1.151858 0.000000 0.000002
    12 -0.027022 -1.076919 -0.020212 -1.045074 0.000000 0.000000
    13 -0.249534 -2.846962 -0.174215 -1.050358 -0.194024 -0.118379
    14 0.043235 -1.683940 0.096014 -1.469808 0.002823 -0.000167
    15 0.031729 -1.160831 0.058836 -1.087362 0.000642 0.008372
    16 -0.963866 -2.785142 -0.085346 -0.613115 -0.085997 -0.167478
    17 0.028479 -1.403069 0.006271 -1.158127 0.000000 0.000000
    18 0.021413 -0.957782 0.020047 -0.780553 0.000000 0.000000
    19 1.164474 -2.543938 -0.170328 -0.955776 -0.336135 0.112541
    20 0.024033 -1.129042 0.017806 -0.850024 0.000000 0.000001
    21 0.014896 -0.883989 -0.019845 -1.052862 0.000000 0.000000
    22 -0.586770 -1.264475 0.200164 -0.276792 -0.716336 -2.528363
    23 1.522835 0.058681 0.016850 -0.417695 -0.629901 1.323585
    24 1.117948 0.048424 -0.005764 -0.002580 -0.025066 0.158718
    25 -0.139399 -0.111697 0.014397 0.285382 -0.030687 1.580508
    26 -0.488517 -2.755600 -0.228261 -1.376484 -0.075298 -0.281316
    27 0.039888 -1.479789 0.029853 -0.928033 0.000000 0.000000
    28 0.028786 -1.075730 -0.023111 -1.481386 0.000000 0.000000
    29 0.250028 -2.820664 -0.238396 -1.075893 -0.014906 -0.312588
    30 -0.049759 -1.680545 0.100480 -1.463659 0.000000 -0.000002
    31 -0.034141 -1.148312 0.084779 -1.087312 0.000000 0.000000
    32 0.957766 -2.746776 -0.090301 -0.143359 -0.206189 -0.071012
    33 -0.033419 -1.397128 -0.011255 -0.779119 0.124808 -0.122316
    34 -0.022361 -0.957434 0.018783 -1.379038 0.000000 0.000000
    35 -1.180680 -2.507215 -0.193861 -1.224952 -0.001292 -0.303995
    36 -0.024966 -1.123935 0.017594 -0.977967 0.000000 0.000001
    37 -0.020057 -0.890966 0.010091 -0.933434 0.000000 0.000000
    38 0.583510 -1.197274 0.185377 0.272562 -1.003490 -0.533081
    39 1.535926 0.010244 0.005008 0.440185 -0.138733 -1.296648
    40 1.100770 0.004526 -0.010676 -0.011449 0.011491 -0.607432
    41 0.120152 -0.050266 -0.054488 0.287568 3.110905 1.561085
  time 4
    0 0.000000 1.011750 0.000000 -0.008126 0.000000 0.000000
    1 6.650234 5.725005 -6.946960 0.769040 -1.860570 -0.716043
    2 -0.071918 -8.498732 -0.104137 -0.017513 0.288130 0.041432
    3 1.851738 -3.358099 0.933068 -0.001979 0.003529 -3.611060
    4 0.129476 0.963046 0.000000 0.000000 0.000000 0.063337
    5 -0.795049 6.628533 0.000002 0.000001 0.000000 -0.047613
    6 -1.846357 7.578958 0.739989 0.000000 -0.000001 1.835736
    7 52.562830 -52.553139 -1.562950 0.000000 0.000000 1.835736
    8 -2.188002 -7.683626 -9.919990 -2.080960 -5.218187 -1.347959
    9 0.096944 -8.450418 -0.009364 -0.119153 -0.275630 0.297905
    10 0.447952 -2.798983 -0.200442 -1.171631 -0.187313 0.022274
    11 -0.032910 -1.480206 0.004936 -1.151858 0.000000 0.000002
    12 -0.027022 -1.076919 -0.020212 -1.045074 0.000000 0.000000
    13 -0.249534 -2.846962 -0.174215 -1.050358 -0.194024 -0.118379
    14 0.043235 -1.683940 0.096014 -1.469808 0.002823 -0.000167
    15 0.031729 -1.160831 0.058836 -1.087362 0.000642 0.008372
    16 -0.963866 -2.785142 -0.085346 -0.613115 -0.085997 -0.167478
    17 0.028479 -1.403069 0.006271 -1.158127 0.000000 0.000000
    18 0.021413 -0.957782 0.020047 -0.780553 0.000000 0.000000
    19 1.164474 -2.543938 -0.170328 -0.955776 -0.336135 0.112541
    20 0.024033 -1.129042 0.017806 -0.850024 0.000000 0.000001
    21 0.014896 -0.883989 -0.019845 -1.052862 0.000000 0.000000
    22 -0.586770 -1.264475 0.200164 -0.276792 -0.716336 -2.528363
    23 1.522835 0.058681 0.016850 -0.417695 -0.629901 1.323585
    24 1.117948 0.048424 -0.005764 -0.002580 -0.025066 0.158718
    25 -0.139399 -0.111697 0.014397 0.285382 -0.030687 1.580508
    26 -0.488517 -2.755600 -0.228261 -1.376484 -0.075298 -0.281316
    27 0.039888 -1.479789 0.029853 -0.928033 0.000000 0.000000
    28 0.028786 -1.075730 -0.023111 -1.481386 0.000000 0.000000
    29 0.250028 -2.820664 -0.238396 -1.075893 -0.014906 -0.312588
    30 -0.049759 -1.680545 0.100480 -1.463659 0.000000 -0.000002
    31 -0.034141 -1.148312 0.084779 -1.087312 0.000000 0.000000
    32 0.957766 -2.746776 -0.090301 -0.143359 -0.206189 -0.071012
    33 -0.033419 -1.397128 -0.011255 -0.779119 0.124808 -0.122316
    34 -0.022361 -0.957434 0.018783 -1.363613 0.000000 0.000000
    35 -1.180680 -2.507215 -0.193861 -1.224952 -0.001292 -0.303995
    36 -0.024966 -1.123935 0.017594 -0.977967 0.000000 0.000001
    37 -0.020057 -0.890966 0.010091 -0.933434 0.000000 0.000000
    38 0.583510 -1.197274 0.185377 0.272562 -1.003490 -0.533081
    39 1.535926 0.010244 0.005008 0.440185 -0.138733 -1.296648
    40 1.100770 0.004526 -0.010676 -0.011449 0.011491 -0.607432
    41 0.120152 -0.050266 -0.054488 0.287568 3.110905 1.561085
  time 5
    0 0.000000 0.960967 0.000000 -0.006735 0.000000 0.000000
    1 6.650234 5.725005 -6.946960 0.769040 -1.860570 -0.716043
    2 -0.071918 -8.498732 -0.104137 -0.017601 0.288118 0.041132
    3 1.851738 -3.358099 0.933068 -0.001979 0.003529 -3.611060
    4 0.125570 0.978671 0.000000 0.000000 0.000000 0.063337
    5 -0.795049 6.628533 0.000002 0.000001 0.000000 -0.047613
    6 -1.846357 7.578958 0.739989 0.000000 -0.000001 1.835736
    7 52.562830 -52.553139 -1.562950 0.000000 0.000000 1.835736
    8 -2.188002 -7.683626 -9.919990 -2.077470 -5.221444 -1.344033
    9 0.096944 -8.450418 -0.009364 -0.119153 -0.275630 0.297905
    10 0.447952 -2.798983 -0.200442 -1.171631 -0.187313 0.022274
    11 -0.032910 -1.480206 0.004936 -1.151858 0.000000 0.000002
    12 -0.027022 -1.076919 -0.020212 -1.045074 0.000000 0.000000
    13 -0.249534 -2.846962 -0.174215 -1.050358 -0.194024 -0.118379
    14 0.043235 -1.683940 0.096014 -1.469808 0.002823 -0.000167
    15 0.031729 -1.160831 0.058836 -1.087362 0.000642 0.008372
    16 -0.963866 -2.785142 -0.085346 -0.613115 -0.085997 -0.167478
    17 0.028479 -1.403069 0.006271 -1.158127 0.000000 0.000000
    18 0.021413 -0.957782 0.020047 -0.780553 0.000000 0.000000
    19 1.164474 -2.543938 -0.170328 -0.955776 -0.336135 0.112541
    20 0.024033 -1.129042 0.017806 -0.850024 0.000000 0.000001
    21 0.014896 -0.883989 -0.019845 -1.052862 0.000000 0.000000
    22 -0.586770 -1.264475 0.200164 -0.276792 -0.716336 -2.528363
    23 1.522835 0.058681 0.016850 -0.417695 -0.629901 1.323585
    24 1.117948 0.048424 -0.005764 -0.002580 -0.025066 0.158718
    25 -0.139399 -0.111697 0.014397 0.285382 -0.030687 1.580508
    26 -0.488517 -2.755600 -0.228261 -1.376484 -0.075298 -0.281316
    27 0.039888 -1.479789 0.029853 -0.928033 0.000000 0.000000
    28 0.028786 -1.075730 -0.023111 -1.481386 0.000000 0.000000
    29 0.250028 -2.820664 -0.238396 -1.075893 -0.014906 -0.312588
    30 -0.049759 -1.680545 0.100480 -1.463659 0.000000 -0.000002
    31 -0.034141 -1.148312 0.084779 -1.087312 0.000000 0.000000
    32 0.957766 -2.746776 -0.090301 -0.143359 -0.206189 -0.071012
    33 -0.033419 -1.397128 -0.011255 -0.779119 0.124808 -0.122316
    34 -0.022361 -0.957434 0.018783 -1.343501 0.000000 0.000000
    35 -1.180680 -2.507215 -0.193861 -1.224952 -0.001292 -0.303995
    36 -0.024966 -1.123935 0.017594 -0.977967 0.000000 0.000001
    37 -0.020057 -0.890966 0.010091 -0.933434 0.000000 0.000000
    38 0.583510 -1.197274 0.185377 0.272562 -1.003490 -0.533081
    39 1.535926 0.010244 0.005008 0.440185 -0.138733 -1.296648
    40 1.100770 0.004526 -0.010676 -0.011449 0.011491 -0.607432
    41 0.120152 -0.050266 -0.054488 0.287568 3.110905 1.561085
  time 6
    0 0.000000 0.898465 0.000000 -0.004626 0.000000 0.000000
    1 6.650234 5.725005 -6.946960 0.769040 -1.860570 -0.716043
    2 -0.071918 -8.498732 -0.104137 -0.017839 0.288106 0.040293
    3 1.851738 -3.358099 0.933068 -0.001979 0.003529 -3.611060
    4 0.121664 0.994297 0.000000 0.000000 0.000000 0.063337
    5 -0.795049 6.628533 0.000002 0.000001 0.000000 -0.047613
    6 -1.846357 7.578958 0.739989 0.000000 -0.000001 1.835736
    7 52.562830 -52.553139 -1.562950 0.000000 0.000000 1.835736
    8 -2.188002 -7.683626 -9.919990 -2.077881 -5.220965 -1.344512
    9 0.096944 -8.450418 -0.009364 -0.119153 -0.275630 0.297905
    10 0.447952 -2.798983 -0.200442 -1.171631 -0.187313 0.022274
    11 -0.032910 -1.480206 0.004936 -1.151858 0.000000 0.000002
    12 -0.027022 -1.076919 -0.020212 -1.045074 0.000000 0.000000
    13 -0.249534 -2.846962 -0.174215 -1.050358 -0.194024 -0.118379
    14 0.043235 -1.683940 0.096014 -1.469808 0.002823 -0.000167
    15 0.031729 -1.160831 0.058836 -1.087362 0.000642 0.008372
    16 -0.963866 -2.785142 -0.085346 -0.613115 -0.085997 -0.167478
    17 0.028479 -1.403069 0.006271 -1.158127 0.000000 0.000000
    18 0.021413 -0.957782 0.020047 -0.780553 0.000000 0.000000
    19 1.164474 -2.543938 -0.170328 -0.955776 -0.336135 0.112541
    20 0.024033 -1.129042 0.017806 -0.850024 0.000000 0.000001
    21 0.014896 -0.883989 -0.019845 -1.052862 0.000000 0.000000
    22 -0.586770 -1.264475 0.200164 -0.276792 -0.716336 -2.528363
    23 1.522835 0.058681 0.016850 -0.417695 -0.629901 1.323585
    24 1.117948 0.048424 -0.005764 -0.002580 -0.025066 0.158718
    25 -0.139399 -0.111697 0.014397 0.285382 -0.030687 1.580508
    26 -0.488517 -2.755600 -0.228261 -1.376484 -0.075298 -0.281316
    27 0.039888 -1.479789 0.029853 -0.928033 0.000000 0.000000
    28 0.028786 -1.075730 -0.023111 -1.481386 0.000000 0.000000
    29 0.250028 -2.820664 -0.238396 -1.075893 -0.014906 -0.312588
    30 -0.049759 -1.680545 0.100480 -1.463659 0.000000 -0.000002
    31 -0.034141 -1.148312 0.084779 -1.087312 0.000000 0.000000
    32 0.957766 -2.746776 -0.090301 -0.143359 -0.206189 -0.071012
    33 -0.033419 -1.397128 -0.011255 -0.779119 0.124808 -0.122316
    34 -0.022361 -0.957434 0.018783 -1.319554 0.000000 0.000000
    35 -1.180680 -2.507215 -0.193861 -1.224952 -0.001292 -0.303995
    36 -0.024966 -1.123935 0.017594 -0.977967 0.000000 0.000001
    37 -0.020057 -0.890966 0.010091 -0.933434 0.000000 0.000000
    38 0.583510 -1.197274 0.185377 0.272562 -1.003490 -0.533081
    39 1.535926 0.010244 0.005008 0.440185 -0.138733 -1.296648
    40 1.100770 0.004526 -0.010676 -0.011449 0.011491 -0.607432
    41 0.120152 -0.050266 -0.054488 0.287568 3.110905 1.561085
  time 7
    0 0.000000 0.828150 0.000000 -0.002001 0.000000 0.000000
    1 6.650234 5.725005 -6.946960 0.769040 -1.860570 -0.716043
    2 -0.071918 -8.498732 -0.104137 -0.018214 0.288082 0.038987
    3 1.851738 -3.358099 0.933068 -0.001979 0.003529 -3.611060
    4 0.113851 1.013828 0.000000 0.000000 0.000000 0.063337
    5 -0.795049 6.628533 0.000002 0.000001 0.000000 -0.047613
    6 -1.846357 7.578958 0.739989 0.000000 -0.000001 1.835736
    7 52.562830 -52.553139 -1.562950 0.000000 0.000000 1.835736
    8 -2.188002 -7.683626 -9.919990 -2.079113 -5.219911 -1.345853
    9 0.096944 -8.450418 -0.009364 -0.119153 -0.275630 0.297905
    10 0.447952 -2.798983 -0.200442 -1.171631 -0.187313 0.022274
    11 -0.032910 -1.480206 0.004936 -1.151858 0.000000 0.000002
    12 -0.027022 -1.076919 -0.020212 -1.045074 0.000000 0.000000
    13 -0.249534 -2.846962 -0.174215 -1.050358 -0.194024 -0.118379
    14 0.043235 -1.683940 0.096014 -1.469808 0.002823 -0.000167
    15 0.031729 -1.160831 0.058836 -1.087362 0.000642 0.008372
    16 -0.963866 -2.785142 -0.085346 -0.613115 -0.085997 -0.167478
    17 0.028479 -1.403069 0.006271 -1.158127 0.000000 0.000000
    18 0.021413 -0.957782 0.020047 -0.780553 0.000000 0.000000
    19 1.164474 -2.543938 -0.170328 -0.955776 -0.336135 0.112541
    20 0.024033 -1.129042 0.017806 -0.850024 0.000000 0.000001
    21 0.014896 -0.883989 -0.019845 -1.052862 0.000000 0.000000
    22 -0.586770 -1.264475 0.200164 -0.276792 -0.716336 -2.528363
    23 1.522835 0.058681 0.016850 -0.417695 -0.629901 1.323585
    24 1.117948 0.048424 -0.005764 -0.002580 -0.025066 0.158718
    25 -0.139399 -0.111697 0.014397 0.285382 -0.030687 1.580508
    26 -0.488517 -2.755600 -0.228261 -1.376484 -0.075298 -0.281316
    27 0.039888 -1.479789 0.029853 -0.928033 0.000000 0.000000
    28 0.028786 -1.075730 -0.023111 -1.481386 0.000000 0.000000
    29 0.250028 -2.820664 -0.238396 -1.075893 -0.014906 -0.312588
    30 -0.049759 -1.680545 0.100480 -1.463659 0.000000 -0.000002
    31 -0.034141 -1.148312 0.084779 -1.087312 0.000000 0.000000
    32 0.957766 -2.746776 -0.090301 -0.143359 -0.206189 -0.071012
    33 -0.033419 -1.397128 -0.011255 -0.779119 0.124808 -0.122316
    34 -0.022361 -0.957434 0.018783 -1.292624 0.000000 0.000000
    35 -1.180680 -2.507215 -0.193861 -1.224952 -0.001292 -0.303995
    36 -0.024966 -1.123935 0.017594 -0.977967 0.000000 0.000001
    37 -0.020057 -0.890966 0.010091 -0.933434 0.000000 0.000000
    38 0.583510 -1.197274 0.185377 0.272562 -1.003490 -0.533081
    39 1.535926 0.010244 0.005008 0.440185 -0.138733 -1.296648
    40 1.100770 0.004526 -0.010676 -0.011449 0.011491 -0.607432
    41 0.120152 -0.050266 -0.054488 0.287568 3.110905 1.561085
  time 8
    0 0.000000 0.750023 0.000000 0.000983 0.000000 0.000000
    1 6.650234 5.725005 -6.946960 0.769040 -1.860570 -0.716043
    2 -0.071918 -8.498732 -0.104137 -0.018690 0.288046 0.037285
    3 1.851738 -3.358099 0.933068 -0.001979 0.003529 -3.611060
    4 0.109945 1.033360 0.000000 0.000000 0.000000 0.063337
    5 -0.795049 6.628533 0.000002 0.000001 0.000000 -0.047613
    6 -1.846357 7.578958 0.739989 0.000000 -0.000001 1.835736
    7 52.562830 -52.553139 -1.562950 0.000000 0.000000 1.835736
    8 -2.188002 -7.683626 -9.919990 -2.080960 -5.218187 -1.347959
    9 0.096944 -8.450418 -0.009364 -0.119153 -0.275630 0.297905
    10 0.447952 -2.798983 -0.200442 -1.171631 -0.187313 0.022274
    11 -0.032910 -1.480206 0.004936 -1.151858 0.000000 0.000002
    12 -0.027022 -1.076919 -0.020212 -1.045074 0.000000 0.000000
    13 -0.249534 -2.846962 -0.174215 -1.050358 -0.194024 -0.118379
    14 0.043235 -1.683940 0.096014 -1.469808 0.002823 -0.000167
    15 0.031729 -1.160831 0.058836 -1.087362 0.000642 0.008372
    16 -0.963866 -2.785142 -0.085346 -0.613115 -0.085997 -0.167478
    17 0.028479 -1.403069 0.006271 -1.158127 0.000000 0.000000
    18 0.021413 -0.957782 0.020047 -0.780553 0.000000 0.000000
    19 1.164474 -2.543938 -0.170328 -0.955776 -0.336135 0.112541
    20 0.024033 -1.129042 0.017806 -0.850024 0.000000 0.000001
    21 0.014896 -0.883989 -0.019845 -1.052862 0.000000 0.000000
    22 -0.586770 -1.264475 0.200164 -0.276792 -0.716336 -2.528363
    23 1.522835 0.058681 0.016850 -0.417695 -0.629901 1.323585
    24 1.117948 0.048424 -0.005764 -0.002580 -0.025066 0.158718
    25 -0.139399 -0.111697 0.014397 0.285382 -0.030687 1.580508
    26 -0.488517 -2.755600 -0.228261 -1.376484 -0.075298 -0.281316
    27 0.039888 -1.479789 0.029853 -0.928033 0.000000 0.000000
    28 0.028786 -1.075730 -0.023111 -1.481386 0.000000 0.000000
    29 0.250028 -2.820664 -0.238396 -1.075893 -0.014906 -0.312588
    30 -0.049759 -1.680545 0.100480 -1.463659 0.000000 -0.000002
    31 -0.034141 -1.148312 0.084779 -1.087312 0.000000 0.000000
    32 0.957766 -2.746776 -0.090301 -0.143359 -0.206189 -0.071012
    33 -0.033419 -1.397128 -0.011255 -0.779119 0.124808 -0.122316
    34 -0.022361 -0.957434 0.018783 -1.263564 0.000000 0.000000
    35 -1.180680 -2.507215 -0.193861 -1.224952 -0.001292 -0.303995
    36 -0.024966 -1.123935 0.017594 -0.977967 0.000000 0.000001
    37 -0.020057 -0.890966 0.010091 -0.933434 0.000000 0.000000
    38 0.583510 -1.197274 0.185377 0.272562 -1.003490 -0.533081
    39 1.535926 0.010244 0.005008 0.440185 -0.138733 -1.296648
    40 1.100770 0.004526 -0.010676 -0.011449 0.011491 -0.607432
    41 0.120152 -0.050266 -0.054488 0.287568 3.110905 1.561085
  time 9
    0 0.000000 0.667989 0.000000 0.004159 0.000000 0.000000
    1 6.650234 5.725005 -6.946960 0.769040 -1.860570 -0.716043
    2 -0.071918 -8.498732 -0.104137 -0.019265 0.287998 0.035272
    3 1.851738 -3.358099 0.933068 -0.001979 0.003529 -3.611060
    4 0.106038 1.056798 0.000000 0.000000 0.000000 0.063337
    5 -0.795049 6.628533 0.000002 0.000001 0.000000 -0.047613
    6 -1.846357 7.578958 0.739989 0.000000 -0.000001 1.835736
    7 52.562830 -52.553139 -1.562950 0.000000 0.000000 1.835736
    8 -2.188002 -7.683626 -9.919990 -2.083287 -5.215984 -1.350640
    9 0.096944 -8.450418 -0.009364 -0.119153 -0.275630 0.297905
    10 0.447952 -2.798983 -0.200442 -1.171631 -0.187313 0.022274
    11 -0.032910 -1.480206 0.004936 -1.151858 0.000000 0.000002
    12 -0.027022 -1.076919 -0.020212 -1.045074 0.000000 0.000000
    13 -0.249534 -2.846962 -0.174215 -1.050358 -0.194024 -0.118379
    14 0.043235 -1.683940 0.096014 -1.469808 0.002823 -0.000167
    15 0.031729 -1.160831 0.058836 -1.087362 0.000642 0.008372
    16 -0.963866 -2.785142 -0.085346 -0.613115 -0.085997 -0.167478
    17 0.028479 -1.403069 0.006271 -1.158127 0.000000 0.000000
    18 0.021413 -0.957782 0.020047 -0.780553 0.000000 0.000000
    19 1.164474 -2.543938 -0.170328 -0.955776 -0.336135 0.112541
    20 0.024033 -1.129042 0.017806 -0.850024 0.000000 0.000001
    21 0.014896 -0.883989 -0.019845 -1.052862 0.000000 0.000000
    22 -0.586770 -1.264475 0.200164 -0.276792 -0.716336 -2.528363
    23 1.522835 0.058681 0.016850 -0.417695 -0.629901 1.323585
    24 1.117948 0.048424 -0.005764 -0.002580 -0.025066 0.158718
    25 -0.139399 -0.111697 0.014397 0.285382 -0.030687 1.580508
    26 -0.488517 -2.755600 -0.228261 -1.376484 -0.075298 -0.281316
    27 0.039888 -1.479789 0.029853 -0.928033 0.000000 0.000000
    28 0.028786 -1.075730 -0.023111 -1.481386 0.000000 0.000000
    29 0.250028 -2.820664 -0.238396 -1.075893 -0.014906 -0.312588
    30 -0.049759 -1.680545 0.100480 -1.463659 0.000000 -0.000002
    31 -0.034141 -1.148312 0.084779 -1.087312 0.000000 0.000000
    32 0.957766 -2.746776 -0.090301 -0.143359 -0.206189 -0.071012
    33 -0.033419 -1.397128 -0.011255 -0.779119 0.124808 -0.122316
    34 -0.022361 -0.957434 0.018783 -1.233225 0.000000 0.000000
    35 -1.180680 -2.507215 -0.193861 -1.224952 -0.001292 -0.303995
    36 -0.024966 -1.123935 0.017594 -0.977967 0.000000 0.000001
    37 -0.020057 -0.890966 0.010091 -0.933434 0.000000 0.000000
    38 0.583510 -1.197274 0.185377 0.272562 -1.003490 -0.533081
    39 1.535926 0.010244 0.005008 0.440185 -0.138733 -1.296648
    40 1.100770 0.004526 -0.010676 -0.011449 0.011491 -0.607432
    41 0.120152 -0.050266 -0.054488 0.287568 3.110905 1.561085
  time 10
    0 0.000000 0.585955 0.000000 0.007323 0.000000 0.000000
    1 6.650234 5.725005 -6.946960 0.769040 -1.860570 -0.716043
    2 -0.071918 -8.498732 -0.104137 -0.019903 0.287951 0.033031
    3 1.851738 -3.358099 0.933068 -0.001979 0.003529 -3.611060
    4 0.098225 1.076330 0.000000 0.000000 0.000000 0.063337
    5 -0.795049 6.628533 0.000002 0.000001 0.000000 -0.047613
    6 -1.846357 7.578958 0.739989 0.000000 -0.000001 1.835736
    7 52.562830 -52.553139 -1.562950 0.000000 0.000000 1.835736
    8 -2.188002 -7.683626 -9.919990 -2.086092 -5.213302 -1.353896
    9 0.096944 -8.450418 -0.009364 -0.119153 -0.275630 0.297905
    10 0.447952 -2.798983 -0.200442 -1.171631 -0.187313 0.022274
    11 -0.032910 -1.480206 0.004936 -1.151858 0.000000 0.000002
    12 -0.027022 -1.076919 -0.020212 -1.045074 0.000000 0.000000
    13 -0.249534 -2.846962 -0.174215 -1.050358 -0.194024 -0.118379
    14 0.043235 -1.683940 0.096014 -1.469808 0.002823 -0.000167
    15 0.031729 -1.160831 0.058836 -1.087362 0.000642 0.008372
    16 -0.963866 -2.785142 -0.085346 -0.613115 -0.085997 -0.167478
    17 0.028479 -1.403069 0.006271 -1.158127 0.000000 0.000000
    18 0.021413 -0.957782 0.020047 -0.780553 0.000000 0.000000
    19 1.164474 -2.543938 -0.170328 -0.955776 -0.336135 0.112541
    20 0.024033 -1.129042 0.017806 -0.850024 0.000000 0.000001
    21 0.014896 -0.883989 -0.019845 -1.052862 0.000000 0.000000
    22 -0.586770 -1.264475 0.200164 -0.276792 -0.716336 -2.528363
    23 1.522835 0.058681 0.016850 -0.417695 -0.629901 1.323585
    24 1.117948 0.048424 -0.005764 -0.002580 -0.025066 0.158718
    25 -0.139399 -0.111697 0.014397 0.285382 -0.030687 1.580508
    26 -0.488517 -2.755600 -0.228261 -1.376484 -0.075298 -0.281316
    27 0.039888 -1.479789 0.029853 -0.928033 0.000000 0.000000
    28 0.028786 -1.075730 -0.023111 -1.481386 0.000000 0.000000
    29 0.250028 -2.820664 -0.238396 -1.075893 -0.014906 -0.312588
    30 -0.049759 -1.680545 0.100480 -1.463659 0.000000 -0.000002
    31 -0.034141 -1.148312 0.084779 -1.087312 0.000000 0.000000
    32 0.957766 -2.746776 -0.090301 -0.143359 -0.206189 -0.071012
    33 -0.033419 -1.397128 -0.011255 -0.779119 0.124808 -0.122316
    34 -0.022361 -0.957434 0.018783 -1.202460 0.000000 0.000000
    35 -1.180680 -2.507215 -0.193861 -1.224952 -0.001292 -0.303995
    36 -0.024966 -1.123935 0.017594 -0.977967 0.000000 0.000001
    37 -0.020057 -0.890966 0.010091 -0.933434 0.000000 0.000000
    38 0.583510 -1.197274 0.185377 0.272562 -1.003490 -0.533081
    39 1.535926 0.010244 0.005008 0.440185 -0.138733 -1.296648
    40 1.100770 0.004526 -0.010676 -0.011449 0.011491 -0.607432
    41 0.120152 -0.050266 -0.054488 0.287568 3.110905 1.561085
  time 11
    0 0.000000 0.500015 0.000000 0.010319 0.000000 0.000000
    1 6.650234 5.725005 -6.946960 0.769040 -1.860570 -0.716043
    2 -0.071918 -8.498732 -0.104137 -0.020579 0.287903 0.030634
    3 1.851738 -3.358099 0.933068 -0.001979 0.003529 -3.611060
    4 0.094319 1.095862 0.000000 0.000000 0.000000 0.063337
    5 -0.795049 6.628533 0.000002 0.000001 0.000000 -0.047613
    6 -1.846357 7.578958 0.739989 0.000000 -0.000001 1.835736
    7 52.562830 -52.553139 -1.562950 0.000000 0.000000 1.835736
    8 -2.188002 -7.683626 -9.919990 -2.089240 -5.210428 -1.357343
    9 0.096944 -8.450418 -0.009364 -0.119153 -0.275630 0.297905
    10 0.447952 -2.798983 -0.200442 -1.171631 -0.187313 0.022274
    11 -0.032910 -1.480206 0.004936 -1.151858 0.000000 0.000002
    12 -0.027022 -1.076919 -0.020212 -1.045074 0.000000 0.000000
    13 -0.249534 -2.846962 -0.174215 -1.050358 -0.194024 -0.118379
    14 0.043235 -1.683940 0.096014 -1.469808 0.002823 -0.000167
    15 0.031729 -1.160831 0.058836 -1.087362 0.000642 0.008372
    16 -0.963866 -2.785142 -0.085346 -0.613115 -0.085997 -0.167478
    17 0.028479 -1.403069 0.006271 -1.158127 0.000000 0.000000
    18 0.021413 -0.957782 0.020047 -0.780553 0.000000 0.000000
    19 1.164474 -2.543938 -0.170328 -0.955776 -0.336135 0.112541
    20 0.024033 -1.129042 0.017806 -0.850024 0.000000 0.000001
    21 0.014896 -0.883989 -0.019845 -1.052862 0.000000 0.000000
    22 -0.586770 -1.264475 0.200164 -0.276792 -0.716336 -2.528363
    23 1.522835 0.058681 0.016850 -0.417695 -0.629901 1.323585
    24 1.117948 0.048424 -0.005764 -0.002580 -0.025066 0.158718
    25 -0.139399 -0.111697 0.014397 0.285382 -0.030687 1.580508
    26 -0.488517 -2.755600 -0.228261 -1.376484 -0.075298 -0.281316
    27 0.039888 -1.479789 0.029853 -0.928033 0.000000 0.000000
    28 0.028786 -1.075730 -0.023111 -1.481386 0.000000 0.000000
    29 0.250028 -2.820664 -0.238396 -1.075893 -0.014906 -0.312588
    30 -0.049759 -1.680545 0.100480 -1.463659 0.000000 -0.000002
    31 -0.034141 -1.148312 0.084779 -1.087312 0.000000 0.000000
    32 0.957766 -2.746776 -0.090301 -0.143359 -0.206189 -0.071012
    33 -0.033419 -1.397128 -0.011255 -0.779119 0.124808 -0.122316
    34 -0.022361 -0.957434 0.018783 -1.172164 0.000000 0.000000
    35 -1.180680 -2.507215 -0.193861 -1.224952 -0.001292 -0.303995
    36 -0.024966 -1.123935 0.017594 -0.977967 0.000000 0.000001
    37 -0.020057 -0.890966 0.010091 -0.933434 0.000000 0.000000
    38 0.583510 -1.197274 0.185377 0.272562 -1.003490 -0.533081
    39 1.535926 0.010244 0.005008 0.440185 -0.138733 -1.296648
    40 1.100770 0.004526 -0.010676 -0.011449 0.011491 -0.607432
    41 0.120152 -0.050266 -0.054488 0.287568 3.110905 1.561085
  time 12
    0 0.000000 0.414075 0.000000 0.012955 0.000000 0.000000
    1 6.650234 5.725005 -6.946960 0.769040 -1.860570 -0.716043
    2 -0.071918 -8.498732 -0.104137 -0.021280 0.287855 0.028165
    3 1.851738 -3.358099 0.933068 -0.001979 0.003529 -3.611060
    4 0.090413 1.111488 0.000000 0.000000 0.000000 0.063337
    5 -0.795049 6.628533 0.000002 0.000001 0.000000 -0.047613
    6 -1.846357 7.578958 0.739989 0.000000 -0.000001 1.835736
    7 52.562830 -52.553139 -1.562950 0.000000 0.000000 1.835736
    8 -2.188002 -7.683626 -9.919990 -2.092525 -5.207363 -1.361077
    9 0.096944 -8.450418 -0.009364 -0.119153 -0.275630 0.297905
    10 0.447952 -2.798983 -0.200442 -1.171631 -0.187313 0.022274
    11 -0.032910 -1.480206 0.004936 -1.151858 0.000000 0.000002
    12 -0.027022 -1.076919 -0.020212 -1.045074 0.000000 0.000000
    13 -0.249534 -2.846962 -0.174215 -1.050358 -0.194024 -0.118379
    14 0.043235 -1.683940 0.096014 -1.469808 0.002823 -0.000167
    15 0.031729 -1.160831 0.058836 -1.087362 0.000642 0.008372
    16 -0.963866 -2.785142 -0.085346 -0.613115 -0.085997 -0.167478
    17 0.028479 -1.403069 0.006271 -1.158127 0.000000 0.000000
    18 0.021413 -0.957782 0.020047 -0.780553 0.000000 0.000000
    19 1.164474 -2.543938 -0.170328 -0.955776 -0.336135 0.112541
    20 0.024033 -1.129042 0.017806 -0.850024 0.000000 0.000001
    21 0.014896 -0.883989 -0.019845 -1.052862 0.000000 0.000000
    22 -0.586770 -1.264475 0.200164 -0.276792 -0.716336 -2.528363
    23 1.522835 0.058681 0.016850 -0.417695 -0.629901 1.323585
    24 1.117948 0.048424 -0.005764 -0.002580 -0.025066 0.158718
    25 -0.139399 -0.111697 0.014397 0.285382 -0.030687 1.580508
    26 -0.488517 -2.755600 -0.228261 -1.376484 -0.075298 -0.281316
    27 0.039888 -1.479789 0.029853 -0.928033 0.000000 0.000000
    28 0.028786 -1.075730 -0.023111 -1.481386 0.000000 0.000000
    29 0.250028 -2.820664 -0.238396 -1.075893 -0.014906 -0.312588
    30 -0.049759 -1.680545 0.100480 -1.463659 0.000000 -0.000002
    31 -0.034141 -1.148312 0.084779 -1.087312 0.000000 0.000000
    32 0.957766 -2.746776 -0.090301 -0.143359 -0.206189 -0.071012
    33 -0.033419 -1.397128 -0.011255 -0.779119 0.124808 -0.122316
    34 -0.022361 -0.957434 0.018783 -1.143104 0.000000 0.000000
    35 -1.180680 -2.507215 -0.193861 -1.224952 -0.001292 -0.303995
    36 -0.024966 -1.123935 0.017594 -0.977967 0.000000 0.000001
    37 -0.020057 -0.890966 0.010091 -0.933434 0.000000 0.000000
    38 0.583510 -1.197274 0.185377 0.272562 -1.003490 -0.533081
    39 1.535926 0.010244 0.005008 0.440185 -0.138733 -1.296648
    40 1.100770 0.004526 -0.010676 -0.011449 0.011491 -0.607432
    41 0.120152 -0.050266 -0.054488 0.287568 3.110905 1.561085
  time 13
    0 0.000000 0.332041 0.000000 0.015053 0.000000 0.000000
    1 6.650234 5.725005 -6.946960 0.769040 -1.860570 -0.716043
    2 -0.071918 -8.498732 -0.104137 -0.021993 0.287807 0.025684
    3 1.851738 -3.358099 0.933068 -0.001979 0.003529 -3.611060
    4 0.086506 1.127113 0.000000 0.000000 0.000000 0.063337
    5 -0.795049 6.628533 0.000002 0.000001 0.000000 -0.047613
    6 -1.846357 7.578958 0.739989 0.000000 -0.000001 1.835736
    7 52.562830 -52.553139 -1.562950 0.000000 0.000000 1.835736
    8 -2.188002 -7.683626 -9.919990 -2.095809 -5.204297 -1.364907
    9 0.096944 -8.450418 -0.009364 -0.119153 -0.275630 0.297905
    10 0.447952 -2.798983 -0.200442 -1.171631 -0.187313 0.022274
    11 -0.032910 -1.480206 0.004936 -1.151858 0.000000 0.000002
    12 -0.027022 -1.076919 -0.020212 -1.045074 0.000000 0.000000
    13 -0.249534 -2.846962 -0.174215 -1.050358 -0.194024 -0.118379
    14 0.043235 -1.683940 0.096014 -1.469808 0.002823 -0.000167
    15 0.031729 -1.160831 0.058836 -1.087362 0.000642 0.008372
    16 -0.963866 -2.785142 -0.085346 -0.613115 -0.085997 -0.167478
    17 0.028479 -1.403069 0.006271 -1.158127 0.000000 0.000000
    18 0.021413 -0.957782 0.020047 -0.780553 0.000000 0.000000
    19 1.164474 -2.543938 -0.170328 -0.955776 -0.336135 0.112541
    20 0.024033 -1.129042 0.017806 -0.850024 0.000000 0.000001
    21 0.014896 -0.883989 -0.019845 -1.052862 0.000000 0.000000
    22 -0.586770 -1.264475 0.200164 -0.276792 -0.716336 -2.528363
    23 1.522835 0.058681 0.016850 -0.417695 -0.629901 1.323585
    24 1.117948 0.048424 -0.005764 -0.002580 -0.025066 0.158718
    25 -0.139399 -0.111697 0.014397 0.285382 -0.030687 1.580508
    26 -0.488517 -2.755600 -0.228261 -1.376484 -0.075298 -0.281316
    27 0.039888 -1.479789 0.029853 -0.928033 0.000000 0.000000
    28 0.028786 -1.075730 -0.023111 -1.481386 0.000000 0.000000
    29 0.250028 -2.820664 -0.238396 -1.075893 -0.014906 -0.312588
    30 -0.049759 -1.680545 0.100480 -1.463659 0.000000 -0.000002
    31 -0.034141 -1.148312 0.084779 -1.087312 0.000000 0.000000
    32 0.957766 -2.746776 -0.090301 -0.143359 -0.206189 -0.071012
    33 -0.033419 -1.397128 -0.011255 -0.779119 0.124808 -0.122316
    34 -0.022361 -0.957434 0.018783 -1.116174 0.000000 0.000000
    35 -1.180680 -2.507215 -0.193861 -1.224952 -0.001292 -0.303995
    36 -0.024966 -1.123935 0.017594 -0.977967 0.000000 0.000001
    37 -0.020057 -0.890966 0.010091 -0.933434 0.000000 0.000000
    38 0.583510 -1.197274 0.185377 0.272562 -1.003490 -0.533081
    39 1.535926 0.010244 0.005008 0.440185 -0.138733 -1.296648
    40 1.100770 0.004526 -0.010676 -0.011449 0.011491 -0.607432
    41 0.120152 -0.050266 -0.054488 0.287568 3.110905 1.561085
  time 14
    0 0.000000 0.253914 0.000000 0.016443 0.000000 0.000000
    1 6.650234 5.725005 -6.946960 0.769040 -1.860570 -0.716043
    2 -0.071918 -8.498732 -0.104137 -0.022669 0.287759 0.023287
    3 1.851738 -3.358099 0.933068 -0.001979 0.003529 -3.611060
    4 0.082600 1.138832 0.000000 0.000000 0.000000 0.063337
    5 -0.795049 6.628533 0.000002 0.000001 0.000000 -0.047613
    6 -1.846357 7.578958 0.739989 0.000000 -0.000001 1.835736
    7 52.562830 -52.553139 -1.562950 0.000000 0.000000 1.835736
    8 -2.188002 -7.683626 -9.919990 -2.099094 -5.201232 -1.368642
    9 0.096944 -8.450418 -0.009364 -0.119153 -0.275630 0.297905
    10 0.447952 -2.798983 -0.200442 -1.171631 -0.187313 0.022274
    11 -0.032910 -1.480206 0.004936 -1.151858 0.000000 0.000002
    12 -0.027022 -1.076919 -0.020212 -1.045074 0.000000 0.000000
    13 -0.249534 -2.846962 -0.174215 -1.050358 -0.194024 -0.118379
    14 0.043235 -1.683940 0.096014 -1.469808 0.002823 -0.000167
    15 0.031729 -1.160831 0.058836 -1.087362 0.000642 0.008372
    16 -0.963866 -2.785142 -0.085346 -0.613115 -0.085997 -0.167478
    17 0.028479 -1.403069 0.006271 -1.158127 0.000000 0.000000
    18 0.021413 -0.957782 0.020047 -0.780553 0.000000 0.000000
    19 1.164474 -2.543938 -0.170328 -0.955776 -0.336135 0.112541
    20 0.024033 -1.129042 0.017806 -0.850024 0.000000 0.000001
    21 0.014896 -0.883989 -0.019845 -1.052862 0.000000 0.000000
    22 -0.586770 -1.264475 0.200164 -0.276792 -0.716336 -2.528363
    23 1.522835 0.058681 0.016850 -0.417695 -0.629901 1.323585
    24 1.117948 0.048424 -0.005764 -0.002580 -0.025066 0.158718
    25 -0.139399 -0.111697 0.014397 0.285382 -0.030687 1.580508
    26 -0.488517 -2.755600 -0.228261 -1.376484 -0.075298 -0.281316
    27 0.039888 -1.479789 0.029853 -0.928033 0.000000 0.000000
    28 0.028786 -1.075730 -0.023111 -1.481386 0.000000 0.000000
    29 0.250028 -2.820664 -0.238396 -1.075893 -0.014906 -0.312588
    30 -0.049759 -1.680545 0.100480 -1.463659 0.000000 -0.000002
    31 -0.034141 -1.148312 0.084779 -1.087312 0.000000 0.000000
    32 0.957766 -2.746776 -0.090301 -0.143359 -0.206189 -0.071012
    33 -0.033419 -1.397128 -0.011255 -0.779119 0.124808 -0.122316
    34 -0.022361 -0.957434 0.018783 -1.092227 0.000000 0.000000
    35 -1.180680 -2.507215 -0.193861 -1.224952 -0.001292 -0.303995
    36 -0.024966 -1.123935 0.017594 -0.977967 0.000000 0.000001
    37 -0.020057 -0.890966 0.010091 -0.933434 0.000000 0.000000
    38 0.583510 -1.197274 0.185377 0.272562 -1.003490 -0.533081
    39 1.535926 0.010244 0.005008 0.440185 -0.138733 -1.296648
    40 1.100770 0.004526 -0.010676 -0.011449 0.011491 -0.607432
    41 0.120152 -0.050266 -0.054488 0.287568 3.110905 1.561085
  time 15
    0 0.000000 0.183599 0.000000 0.016946 0.000000 0.000000
    1 6.650234 5.725005 -6.946960 0.769040 -1.860570 -0.716043
    2 -0.071918 -8.498732 -0.104137 -0.023307 0.287711 0.021046
    3 1.851738 -3.358099 0.933068 -0.001979 0.003529 -3.611060
    4 0.082600 1.146645 0.000000 0.000000 0.000000 0.063337
    5 -0.795049 6.628533 0.000002 0.000001 0.000000 -0.047613
    6 -1.846357 7.578958 0.739989 0.000000 -0.000001 1.835736
    7 52.562830 -52.553139 -1.562950 0.000000 0.000000 1.835736
    8 -2.188002 -7.683626 -9.919990 -2.102173 -5.198358 -1.372089
    9 0.096944 -8.450418 -0.009364 -0.119153 -0.275630 0.297905
    10 0.447952 -2.798983 -0.200442 -1.171631 -0.187313 0.022274
    11 -0.032910 -1.480206 0.004936 -1.151858 0.000000 0.000002
    12 -0.027022 -1.076919 -0.020212 -1.045074 0.000000 0.000000
    13 -0.249534 -2.846962 -0.174215 -1.050358 -0.194024 -0.118379
    14 0.043235 -1.683940 0.096014 -1.469808 0.002823 -0.000167
    15 0.031729 -1.160831 0.058836 -1.087362 0.000642 0.008372
    16 -0.963866 -2.785142 -0.085346 -0.613115 -0.085997 -0.167478
    17 0.028479 -1.403069 0.006271 -1.158127 0.000000 0.000000
    18 0.021413 -0.957782 0.020047 -0.780553 0.000000 0.000000
    19 1.164474 -2.543938 -0.170328 -0.955776 -0.336135 0.112541
    20 0.024033 -1.129042 0.017806 -0.850024 0.000000 0.000001
    21 0.014896 -0.883989 -0.019845 -1.052862 0.000000 0.000000
    22 -0.586770 -1.264475 0.200164 -0.276792 -0.716336 -2.528363
    23 1.522835 0.058681 0.016850 -0.417695 -0.629901 1.323585
    24 1.117948 0.048424 -0.005764 -0.002580 -0.025066 0.158718
    25 -0.139399 -0.111697 0.014397 0.285382 -0.030687 1.580508
    26 -0.488517 -2.755600 -0.228261 -1.376484 -0.075298 -0.281316
    27 0.039888 -1.479789 0.029853 -0.928033 0.000000 0.000000
    28 0.028786 -1.075730 -0.023111 -1.481386 0.000000 0.000000
    29 0.250028 -2.820664 -0.238396 -1.075893 -0.014906 -0.312588
    30 -0.049759 -1.680545 0.100480 -1.463659 0.000000 -0.000002
    31 -0.034141 -1.148312 0.084779 -1.087312 0.000000 0.000000
    32 0.957766 -2.746776 -0.090301 -0.143359 -0.206189 -0.071012
    33 -0.033419 -1.397128 -0.011255 -0.779119 0.124808 -0.122316
    34 -0.022361 -0.957434 0.018783 -1.072114 0.000000 0.000000
    35 -1.180680 -2.507215 -0.193861 -1.224952 -0.001292 -0.303995
    36 -0.024966 -1.123935 0.017594 -0.977967 0.000000 0.000001
    37 -0.020057 -0.890966 0.010091 -0.933434 0.000000 0.000000
    38 0.583510 -1.197274 0.185377 0.272562 -1.003490 -0.533081
    39 1.535926 0.010244 0.005008 0.440185 -0.138733 -1.296648
    40 1.100770 0.004526 -0.010676 -0.011449 0.011491 -0.607432
    41 0.120152 -0.050266 -0.054488 0.287568 3.110905 1.561085
  time 16
    0 0.000000 0.121097 0.000000 0.015184 0.000000 0.000000
    1 6.650234 5.725005 -6.946960 0.769040 -1.860570 -0.716043
    2 -0.071918 -8.498732 -0.104137 -0.023870 0.287675 0.019045
    3 1.851738 -3.358099 0.933068 -0.001979 0.003529 -3.611060
    4 0.082600 1.146645 0.000000 0.000000 0.000000 0.063337
    5 -0.795049 6.628533 0.000002 0.000001 0.000000 -0.047613
    6 -1.846357 7.578958 0.739989 0.000000 -0.000001 1.835736
    7 52.562830 -52.553139 -1.562950 0.000000 0.000000 1.835736
    8 -2.188002 -7.683626 -9.919990 -2.104979 -5.195772 -1.375344
    9 0.096944 -8.450418 -0.009364 -0.119153 -0.275630 0.297905
    10 0.447952 -2.798983 -0.200442 -1.171631 -0.187313 0.022274
    11 -0.032910 -1.480206 0.004936 -1.151858 0.000000 0.000002
    12 -0.027022 -1.076919 -0.020212 -1.045074 0.000000 0.000000
    13 -0.249534 -2.846962 -0.174215 -1.050358 -0.194024 -0.118379
    14 0.043235 -1.683940 0.096014 -1.469808 0.002823 -0.000167
    15 0.031729 -1.160831 0.058836 -1.087362 0.000642 0.008372
    16 -0.963866 -2.785142 -0.085346 -0.613115 -0.085997 -0.167478
    17 0.028479 -1.403069 0.006271 -1.158127 0.000000 0.000000
    18 0.021413 -0.957782 0.020047 -0.780553 0.000000 0.000000
    19 1.164474 -2.543938 -0.170328 -0.955776 -0.336135 0.112541
    20 0.024033 -1.129042 0.017806 -0.850024 0.000000 0.000001
    21 0.014896 -0.883989 -0.019845 -1.052862 0.000000 0.000000
    22 -0.586770 -1.264475 0.200164 -0.276792 -0.716336 -2.528363
    23 1.522835 0.058681 0.016850 -0.417695 -0.629901 1.323585
    24 1.117948 0.048424 -0.005764 -0.002580 -0.025066 0.158718
    25 -0.139399 -0.111697 0.014397 0.285382 -0.030687 1.580508
    26 -0.488517 -2.755600 -0.228261 -1.376484 -0.075298 -0.281316
    27 0.039888 -1.479789 0.029853 -0.928060 0.000000 0.000000
    28 0.028786 -1.075730 -0.023111 -1.481386 0.000000 0.000000
    29 0.250028 -2.820664 -0.238396 -1.075893 -0.014906 -0.312588
    30 -0.049759 -1.680545 0.100480 -1.463659 0.000000 -0.000002
    31 -0.034141 -1.148312 0.084779 -1.087312 0.000000 0.000000
    32 0.957766 -2.746776 -0.090301 -0.143359 -0.206189 -0.071012
    33 -0.033419 -1.397128 -0.011255 -0.779119 0.124808 -0.122316
    34 -0.022361 -0.957434 0.018783 -1.056689 0.000000 0.000000
    35 -1.180680 -2.507215 -0.193861 -1.224952 -0.001292 -0.303995
    36 -0.024966 -1.123935 0.017594 -0.977967 0.000000 0.000001
    37 -0.020057 -0.890966 0.010091 -0.933434 0.000000 0.000000
    38 0.583510 -1.197274 0.185377 0.272562 -1.003490 -0.533081
    39 1.535926 0.010244 0.005008 0.440185 -0.138733 -1.296648
    40 1.100770 0.004526 -0.010676 -0.011449 0.011491 -0.607432
    41 0.120152 -0.050266 -0.054488 0.287568 3.110905 1.561085
  time 17
    0 0.000000 0.070315 0.000000 0.010978 0.000000 0.000000
    1 6.650234 5.725005 -6.946960 0.769040 -1.860570 -0.716043
    2 -0.071918 -8.498732 -0.104137 -0.024358 0.287639 0.017343
    3 1.851738 -3.358099 0.933068 -0.001979 0.003529 -3.611060
    4 0.082600 1.146645 0.000000 0.000000 0.000000 0.063337
    5 -0.795049 6.628533 0.000002 0.000001 0.000000 -0.047613
    6 -1.846357 7.578958 0.739989 0.000000 -0.000001 1.835736
    7 52.562830 -52.553139 -1.562950 0.000000 0.000000 1.835736
    8 -2.188002 -7.683626 -9.919990 -2.107374 -5.193473 -1.378025
    9 0.096944 -8.450418 -0.009364 -0.119153 -0.275630 0.297905
    10 0.447952 -2.798983 -0.200442 -1.171631 -0.187313 0.022274
    11 -0.032910 -1.480206 0.004936 -1.151858 0.000000 0.000002
    12 -0.027022 -1.076919 -0.020212 -1.045074 0.000000 0.000000
    13 -0.249534 -2.846962 -0.174215 -1.050358 -0.194024 -0.118379
    14 0.043235 -1.683940 0.096014 -1.469808 0.002823 -0.000167
    15 0.031729 -1.160831 0.058836 -1.087362 0.000642 0.008372
    16 -0.963866 -2.785142 -0.085346 -0.613115 -0.085997 -0.167478
    17 0.028479 -1.403069 0.006271 -1.158127 0.000000 0.000000
    18 0.021413 -0.957782 0.020047 -0.780553 0.000000 0.000000
    19 1.164474 -2.543938 -0.170328 -0.955776 -0.336135 0.112541
    20 0.024033 -1.129042 0.017806 -0.850024 0.000000 0.000001
    21 0.014896 -0.883989 -0.019845 -1.052862 0.000000 0.000000
    22 -0.586770 -1.264475 0.200164 -0.276792 -0.716336 -2.528363
    23 1.522835 0.058681 0.016850 -0.417695 -0.629901 1.323585
    24 1.117948 0.048424 -0.005764 -0.002580 -0.025066 0.158718
    25 -0.139399 -0.111697 0.014397 0.285382 -0.030687 1.580508
    26 -0.488517 -2.755600 -0.228261 -1.376484 -0.075298 -0.281316
    27 0.039888 -1.479789 0.029853 -0.928033 0.000000 0.000000
    28 0.028786 -1.075730 -0.023111 -1.481386 0.000000 0.000000
    29 0.250028 -2.820664 -0.238396 -1.075893 -0.014906 -0.312588
    30 -0.049759 -1.680545 0.100480 -1.463659 0.000000 -0.000002
    31 -0.034141 -1.148312 0.084779 -1.087312 0.000000 0.000000
    32 0.957766 -2.746776 -0.090301 -0.143359 -0.206189 -0.071012
    33 -0.033419 -1.397128 -0.011255 -0.779119 0.124808 -0.122316
    34 -0.022361 -0.957434 0.018783 -1.046804 0.000000 0.000000
    35 -1.180680 -2.507215 -0.193861 -1.224952 -0.001292 -0.303995
    36 -0.024966 -1.123935 0.017594 -0.977967 0.000000 0.000001
    37 -0.020057 -0.890966 0.010091 -0.933434 0.000000 0.000000
    38 0.583510 -1.197274 0.185377 0.272562 -1.003490 -0.533081
    39 1.535926 0.010244 0.005008 0.440185 -0.138733 -1.296648
    40 1.100770 0.004526 -0.010676 -0.011449 0.011491 -0.607432
    41 0.120152 -0.050266 -0.054488 0.287568 3.110905 1.561085
  time 18
    0 0.000000 0.031251 0.000000 0.005956 0.000000 0.000000
    1 6.650234 5.725005 -6.946960 0.769040 -1.860570 -0.716043
    2 -0.071918 -8.498732 -0.104137 -0.024733 0.287615 0.016037
    3 1.851738 -3.358099 0.933068 -0.001979 0.003529 -3.611060
    4 0.082600 1.146645 0.000000 0.000000 0.000000 0.063337
    5 -0.795049 6.628533 0.000002 0.000001 0.000000 -0.047613
    6 -1.846357 7.578958 0.739989 0.000000 -0.000001 1.835736
    7 52.562830 -52.553139 -1.562950 0.000000 0.000000 1.835736
    8 -2.188002 -7.683626 -9.919990 -2.109222 -5.191749 -1.380132
    9 0.096944 -8.450418 -0.009364 -0.119153 -0.275630 0.297905
    10 0.447952 -2.798983 -0.200442 -1.171631 -0.187313 0.022274
    11 -0.032910 -1.480206 0.004936 -1.151858 0.000000 0.000002
    12 -0.027022 -1.076919 -0.020212 -1.045074 0.000000 0.000000
    13 -0.249534 -2.846962 -0.174215 -1.050358 -0.194024 -0.118379
    14 0.043235 -1.683940 0.096014 -1.469808 0.002823 -0.000167
    15 0.031729 -1.160831 0.058836 -1.087362 0.000642 0.008372
    16 -0.963866 -2.785142 -0.085346 -0.613115 -0.085997 -0.167478
    17 0.028479 -1.403069 0.006271 -1.158127 0.000000 0.000000
    18 0.021413 -0.957782 0.020047 -0.780553 0.000000 0.000000
    19 1.164474 -2.543938 -0.170328 -0.955776 -0.336135 0.112541
    20 0.024033 -1.129042 0.017806 -0.850024 0.000000 0.000001
    21 0.014896 -0.883989 -0.019845 -1.052862 0.000000 0.000000
    22 -0.586770 -1.264475 0.200164 -0.276792 -0.716336 -2.528363
    23 1.522835 0.058681 0.016850 -0.417695 -0.629901 1.323585
    24 1.117948 0.048424 -0.005764 -0.002580 -0.025066 0.158718
    25 -0.139399 -0.111697 0.014397 0.285382 -0.030687 1.580508
    26 -0.488517 -2.755600 -0.228261 -1.376484 -0.075298 -0.281316
    27 0.039888 -1.479789 0.029853 -0.928033 0.000000 0.000000
    28 0.028786 -1.075730 -0.023111 -1.481386 0.000000 0.000000
    29 0.250028 -2.820664 -0.238396 -1.075893 -0.014906 -0.312588
    30 -0.049759 -1.680545 0.100480 -1.463659 0.000000 -0.000002
    31 -0.034141 -1.148312 0.084779 -1.087312 0.000000 0.000000
    32 0.957766 -2.746776 -0.090301 -0.143359 -0.206189 -0.071012
    33 -0.033419 -1.397128 -0.011255 -0.779119 0.124808 -0.122316
    34 -0.022361 -0.957434 0.018783 -1.043310 0.000000 0.000000
    35 -1.180680 -2.507215 -0.193861 -1.224952 -0.001292 -0.303995
    36 -0.024966 -1.123935 0.017594 -0.977967 0.000000 0.000001
    37 -0.020057 -0.890966 0.010091 -0.933434 0.000000 0.000000
    38 0.583510 -1.197274 0.185377 0.272562 -1.003490 -0.533081
    39 1.535926 0.010244 0.005008 0.440185 -0.138733 -1.296648
    40 1.100770 0.004526 -0.010676 -0.011449 0.011491 -0.607432
    41 0.120152 -0.050266 -0.054488 0.287568 3.110905 1.561085
  time 19
    0 0.000000 0.007813 0.000000 0.001762 0.000000 0.000000
    1 6.650234 5.725005 -6.946960 0.769040 -1.860570 -0.716043
    2 -0.071918 -8.498732 -0.104137 -0.024971 0.287591 0.015186
    3 1.851738 -3.358099 0.933068 -0.001979 0.003529 -3.611060
    4 0.082600 1.146645 0.000000 0.000000 0.000000 0.063337
    5 -0.795049 6.628533 0.000002 0.000001 0.000000 -0.047613
    6 -1.846357 7.578958 0.739989 0.000000 -0.000001 1.835736
    7 52.562830 -52.553139 -1.562950 0.000000 0.000000 1.835736
    8 -2.188002 -7.683626 -9.919990 -2.110453 -5.190695 -1.381472
    9 0.096944 -8.450418 -0.009364 -0.119153 -0.275630 0.297905
    10 0.447952 -2.798983 -0.200442 -1.171631 -0.187313 0.022274
    11 -0.032910 -1.480206 0.004936 -1.151858 0.000000 0.000002
    12 -0.027022 -1.076919 -0.020212 -1.045074 0.000000 0.000000
    13 -0.249534 -2.846962 -0.174215 -1.050358 -0.194024 -0.118379
    14 0.043235 -1.683940 0.096014 -1.469808 0.002823 -0.000167
    15 0.031729 -1.160831 0.058836 -1.087362 0.000642 0.008372
    16 -0.963866 -2.785142 -0.085346 -0.613115 -0.085997 -0.167478
    17 0.028479 -1.403069 0.006271 -1.158127 0.000000 0.000000
    18 0.021413 -0.957782 0.020047 -0.780553 0.000000 0.000000
    19 1.164474 -2.543938 -0.170328 -0.955776 -0.336135 0.112541
    20 0.024033 -1.129042 0.017806 -0.850024 0.000000 0.000001
    21 0.014896 -0.883989 -0.019845 -1.052862 0.000000 0.000000
    22 -0.586770 -1.264475 0.200164 -0.276792 -0.716336 -2.528363
    23 1.522835 0.058681 0.016850 -0.417695 -0.629901 1.323585
    24 1.117948 0.048424 -0.005764 -0.002580 -0.025066 0.158718
    25 -0.139399 -0.111697 0.014397 0.285382 -0.030687 1.580508
    26 -0.488517 -2.755600 -0.228261 -1.376484 -0.075298 -0.281316
    27 0.039888 -1.479789 0.029853 -0.928033 0.000000 0.000000
    28 0.028786 -1.075730 -0.023111 -1.481386 0.000000 0.000000
    29 0.250028 -2.820664 -0.238396 -1.075893 -0.014906 -0.312588
    30 -0.049759 -1.680545 0.100480 -1.463659 0.000000 -0.000002
    31 -0.034141 -1.148312 0.084779 -1.087312 0.000000 0.000000
    32 0.957766 -2.746776 -0.090301 -0.143359 -0.206189 -0.071012
    33 -0.033419 -1.397128 -0.011255 -0.779119 0.124808 -0.122316
    34 -0.022361 -0.957434 0.018783 -1.043310 0.000000 0.000000
    35 -1.180680 -2.507215 -0.193861 -1.224952 -0.001292 -0.303995
    36 -0.024966 -1.123935 0.017594 -0.977967 0.000000 0.000001
    37 -0.020057 -0.890966 0.010091 -0.933434 0.000000 0.000000
    38 0.583510 -1.197274 0.185377 0.272562 -1.003490 -0.533081
    39 1.535926 0.010244 0.005008 0.440185 -0.138733 -1.296648
    40 1.100770 0.004526 -0.010676 -0.011449 0.011491 -0.607432
    41 0.120152 -0.050266 -0.054488 0.287568 3.110905 1.561085
  time 20
    0 0.000000 0.000000 0.000000 0.000000 0.000000 0.000000
    1 6.650234 5.725005 -6.946960 0.769040 -1.860570 -0.716043
    2 -0.071918 -8.498732 -0.104137 -0.025046 0.287591 0.014898
    3 1.851738 -3.358099 0.933068 -0.001979 0.003529 -3.611060
    4 0.082600 1.146645 0.000000 0.000000 0.000000 0.063337
    5 -0.795049 6.628533 0.000002 0.000001 0.000000 -0.047613
    6 -1.846357 7.578958 0.739989 0.000000 -0.000001 1.835736
    7 52.562830 -52.553139 -1.562950 0.000000 0.000000 1.835736
    8 -2.188002 -7.683626 -9.919990 -2.110864 -5.190312 -1.381951
    9 0.096944 -8.450418 -0.009364 -0.119153 -0.275630 0.297905
    10 0.447952 -2.798983 -0.200442 -1.171631 -0.187313 0.022274
    11 -0.032910 -1.480206 0.004936 -1.151858 0.000000 0.000002
    12 -0.027022 -1.076919 -0.020212 -1.045074 0.000000 0.000000
    13 -0.249534 -2.846962 -0.174215 -1.050358 -0.194024 -0.118379
    14 0.043235 -1.683940 0.096014 -1.469808 0.002823 -0.000167
    15 0.031729 -1.160831 0.058836 -1.087362 0.000642 0.008372
    16 -0.963866 -2.785142 -0.085346 -0.613115 -0.085997 -0.167478
    17 0.028479 -1.403069 0.006271 -1.158127 0.000000 0.000000
    18 0.021413 -0.957782 0.020047 -0.780553 0.000000 0.000000
    19 1.164474 -2.543938 -0.170328 -0.955776 -0.336135 0.112541
    20 0.024033 -1.129042 0.017806 -0.850024 0.000000 0.000001
    21 0.014896 -0.883989 -0.019845 -1.052862 0.000000 0.000000
    22 -0.586770 -1.264475 0.200164 -0.276792 -0.716336 -2.528363
    23 1.522835 0.058681 0.016850 -0.417695 -0.629901 1.323585
    24 1.117948 0.048424 -0.005764 -0.002580 -0.025066 0.158718
    25 -0.139399 -0.111697 0.014397 0.285382 -0.030687 1.580508
    26 -0.488517 -2.755600 -0.228261 -1.376484 -0.075298 -0.281316
    27 0.039888 -1.479789 0.029853 -0.928033 0.000000 0.000000
    28 0.028786 -1.075730 -0.023111 -1.481386 0.000000 0.000000
    29 0.250028 -2.820664 -0.238396 -1.075893 -0.014906 -0.312588
    30 -0.049759 -1.680545 0.100480 -1.463659 0.000000 -0.000002
    31 -0.034141 -1.148312 0.084779 -1.087312 0.000000 0.000000
    32 0.957766 -2.746776 -0.090301 -0.143359 -0.206189 -0.071012
    33 -0.033419 -1.397128 -0.011255 -0.779119 0.124808 -0.122316
    34 -0.022361 -0.957434 0.018783 -1.043310 0.000000 0.000000
    35 -1.180680 -2.507215 -0.193861 -1.224952 -0.001292 -0.303995
    36 -0.024966 -1.123935 0.017594 -0.977967 0.000000 0.000001
    37 -0.020057 -0.890966 0.010091 -0.933434 0.000000 0.000000
    38 0.583510 -1.197274 0.185377 0.272562 -1.003490 -0.533081
    39 1.535926 0.010244 0.005008 0.440185 -0.138733 -1.296648
    40 1.100770 0.004526 -0.010676 -0.011449 0.011491 -0.607432
    41 0.120152 -0.050266 -0.054488 0.287568 3.110905 1.561085
end
