// Created by Crowbar 0.49.0.0

$modelname "weapons/tfa_cso/c_deagle.mdl"

$Include "csonline_gmod.qci"

$bodygroup "weapon"
{
	studio "v_deagle_ref_deonly"
}

$CDMaterials "models\weapons\tfa_cso\deagle\"

$attachment 0 "Bone 04" 2.6 -8.8 1.4
//$attachment 1 "Bone52" 0 -2.5 0


$sequence "idle1" {
	"v_deagle_anims\idle1"
	fps 16
	loop
	activity "ACT_VM_IDLE" 1
	snap
}
$sequence "shoot1" {
	"v_deagle_anims\shoot1"
	{ event 5001 0 "21" }
	fps 40
	activity "ACT_VM_PRIMARYATTACK" 1
	snap
}
$sequence "shoot2" {
	"v_deagle_anims\shoot2"
	{ event 5001 0 "21" }
	fps 40
	activity "ACT_VM_PRIMARYATTACK" 2
	snap
}
$sequence "shoot_empty" {
	"v_deagle_anims\shoot_empty"
	{ event 5001 0 "21" }
	fps 40
	activity "ACT_VM_PRIMARYATTACK_EMPTY" 1
	snap
}
$sequence "reload" {
	"v_deagle_anims\reload"
	{ event 5004 14 "DEAGLE.ClipOut" }
	{ event 5004 34 "DEAGLE.ClipIn" }
	fps 30
	activity "ACT_VM_RELOAD" 1
	snap
}
$sequence "draw" {
	"v_deagle_anims\draw"
	{ event 5004 1 "DEAGLE.Draw" }
	fps 30
	activity "ACT_VM_DRAW" 1
	snap
}
