version 1
nodes
  0 "root" -1
  1 "Bone01" 0
  2 "Bone_L_Upper" 1
  3 "Bone_Lefthand" 1
  4 "Bone13" 3
  5 "Bone14" 4
  6 "Bone15" 5
  7 "Bone17" 3
  8 "Bone18" 7
  9 "Bone19" 8
  10 "Bone21" 3
  11 "Bone22" 10
  12 "Bone23" 11
  13 "Bone09" 3
  14 "Bone10" 13
  15 "Bone11" 14
  16 "Bone05" 3
  17 "Bone06" 16
  18 "Bone07" 17
  19 "Bone_Se_Hand-L" 3
  20 "Bone04" 0
  21 "Bone_Righthand" 20
  22 "Bone39" 21
  23 "Bone40" 22
  24 "Bone41" 23
  25 "Bone35" 21
  26 "Bone36" 25
  27 "Bone37" 26
  28 "Bone31" 21
  29 "Bone32" 28
  30 "Bone33" 29
  31 "Bone43" 21
  32 "Bone44" 31
  33 "Bone45" 32
  34 "Bone27" 21
  35 "Bone28" 34
  36 "Bone29" 35
  37 "Bone_Se_Hand-R" 21
  38 "Bone_R_Upper" 20
  39 "root_rockbraker" 3
  40 "Bone_trigger" 39
  41 "Bone_reload" 39
  42 "Bone_battery" 39
  43 "Point_b3" 42
  44 "Point_b2" 42
  45 "Point_b1" 42
  46 "Bone_b_center" 39
  47 "Bone_b_up" 46
  48 "Bone_b_left" 46
  49 "Bone_b_right" 46
  50 "Bone_b_down" 46
  51 "Point001" -1
  52 "ef_rockbreaker1" 51
end
skeleton
  time 0
    0 -0.002752 -3.606844 1.403006 0.000000 0.000000 -0.000022
    1 7.958500 6.630438 -7.362488 6.133220 -1.612680 -0.045754
    2 1.257180 8.762585 -0.153713 -1.570562 0.002683 -1.566807
    3 -0.403962 -7.549489 0.095091 0.151242 0.282510 0.057553
    4 -0.488518 -2.755602 -0.228260 -0.871614 -0.202562 -0.209541
    5 0.039887 -1.479790 0.029854 -2.058952 0.000000 0.000001
    6 0.028786 -1.075731 -0.023109 -0.606348 0.000000 0.000000
    7 0.250027 -2.820665 -0.238396 -0.797118 -0.167517 -0.114938
    8 -0.049759 -1.680544 0.100479 -1.934764 0.000000 -0.000002
    9 -0.034142 -1.148312 0.084782 -0.925906 0.000000 0.000000
    10 0.957766 -2.746780 -0.090302 0.005849 -0.162684 0.097910
    11 -0.033420 -1.397129 -0.011257 -0.521018 0.000000 -0.000001
    12 -0.022360 -0.957436 0.018784 -0.975515 0.000000 0.000000
    13 -1.180681 -2.507217 -0.193859 -0.671429 -0.081516 -0.261329
    14 -0.024967 -1.123934 0.017597 -2.056303 0.000000 0.000001
    15 -0.020057 -0.890968 0.010090 -0.677843 0.000000 0.000000
    16 0.583510 -1.197277 0.185379 0.180209 -0.812077 -1.291294
    17 1.535927 0.010246 0.005009 -0.002964 -0.012979 -0.506650
    18 1.100771 0.004527 -0.010679 -0.015488 -0.004784 -1.694062
    19 0.120153 -0.050270 -0.054489 0.287569 3.110905 1.561085
    20 -4.798251 -4.176540 -9.864866 1.072255 -2.300091 0.116690
    21 0.096944 -8.450418 -0.009365 -0.589035 -0.619840 0.433133
    22 0.447953 -2.798986 -0.200443 -0.915554 -0.192394 0.103626
    23 -0.032909 -1.480204 0.004940 -0.991002 0.000000 0.000002
    24 -0.027022 -1.076920 -0.020210 -0.581934 0.000000 0.000000
    25 -0.249534 -2.846964 -0.174213 -0.698611 -0.044696 0.016077
    26 0.043235 -1.683941 0.096012 -0.785513 0.002823 -0.000167
    27 0.031729 -1.160830 0.058838 -1.181248 0.000642 0.008372
    28 -0.963866 -2.785145 -0.085350 -0.390470 0.056683 -0.022775
    29 0.028479 -1.403067 0.006271 -1.047836 -0.305236 0.172051
    30 0.021413 -0.957781 0.020046 -0.738181 0.000000 0.000000
    31 1.164475 -2.543940 -0.170330 -0.882543 -0.289459 -0.036486
    32 0.024032 -1.129042 0.017807 -0.709832 0.000000 0.000001
    33 0.014898 -0.883989 -0.019848 -0.845502 0.000000 0.000000
    34 -0.586770 -1.264477 0.200161 -0.758277 -0.410176 -2.195450
    35 1.522835 0.058681 0.016848 0.001410 0.008985 0.062485
    36 1.117947 0.048424 -0.005766 -0.007410 -0.024095 0.354271
    37 -0.139399 -0.111698 0.014397 0.653645 -0.030687 1.580508
    38 -1.393470 8.839177 -0.239433 1.580804 -0.005023 -1.566847
    39 -1.419167 -2.468916 0.303658 0.054780 -0.245273 -0.015301
    40 2.884050 -2.358110 -0.000291 -0.000005 0.000000 -3.141592
    41 5.491035 -4.545485 1.874737 -1.570796 1.570796 0.000000
    42 7.358565 -5.828294 0.033297 0.000539 0.000000 -1.570650
    43 2.847156 0.591605 1.108333 0.000000 0.000000 0.000000
    44 1.783906 0.591605 1.108334 0.000000 0.000000 0.000000
    45 0.698665 0.591605 1.108334 0.000000 0.000000 0.000000
    46 5.127886 -9.493374 0.032987 0.000538 0.000000 -1.570650
    47 0.876830 2.057685 0.002514 3.141592 -0.000008 0.000000
    48 0.876831 -0.003408 -2.061559 0.000000 0.000008 0.000000
    49 0.876830 -0.003059 2.061815 -3.141592 -0.000008 0.000000
    50 0.876830 -2.062429 -0.004198 0.000000 0.000008 0.000000
    51 6.019838 -34.183934 -2.473783 -0.917394 3.141592 1.570748
    52 -3.349888 0.000000 -0.000002 0.000000 1.570796 0.000000
  time 1
    0 -0.002752 -1.079423 1.383474 0.000000 0.000000 -0.000022
    1 7.958500 6.630438 -7.362488 6.133220 -1.612680 -0.045754
    2 1.257180 8.762585 -0.153713 -1.570562 0.002683 -1.566807
    3 -0.403962 -7.549489 0.095091 0.151242 0.282510 0.057553
    4 -0.488518 -2.755602 -0.228260 -0.871614 -0.202562 -0.209541
    5 0.039887 -1.479790 0.029854 -2.058952 0.000000 0.000001
    6 0.028786 -1.075731 -0.023109 -0.606348 0.000000 0.000000
    7 0.250027 -2.820665 -0.238396 -0.797118 -0.167517 -0.114938
    8 -0.049759 -1.680544 0.100479 -1.934764 0.000000 -0.000002
    9 -0.034142 -1.148312 0.084782 -0.925906 0.000000 0.000000
    10 0.957766 -2.746780 -0.090302 0.005849 -0.162684 0.097910
    11 -0.033420 -1.397129 -0.011257 -0.521018 0.000000 -0.000001
    12 -0.022360 -0.957436 0.018784 -0.975515 0.000000 0.000000
    13 -1.180681 -2.507217 -0.193859 -0.671429 -0.081516 -0.261329
    14 -0.024967 -1.123934 0.017597 -2.056303 0.000000 0.000001
    15 -0.020057 -0.890968 0.010090 -0.677843 0.000000 0.000000
    16 0.583510 -1.197277 0.185379 0.180209 -0.812077 -1.291294
    17 1.535927 0.010246 0.005009 -0.002964 -0.012979 -0.506650
    18 1.100771 0.004527 -0.010679 -0.015488 -0.004784 -1.694062
    19 0.120153 -0.050270 -0.054489 0.287569 3.110905 1.561085
    20 -4.798251 -4.176540 -9.864866 1.072255 -2.300091 0.116690
    21 0.096944 -8.450418 -0.009365 -0.589035 -0.619840 0.433133
    22 0.447953 -2.798986 -0.200443 -0.915554 -0.192394 0.103626
    23 -0.032909 -1.480204 0.004940 -0.991002 0.000000 0.000002
    24 -0.027022 -1.076920 -0.020210 -0.581934 0.000000 0.000000
    25 -0.249534 -2.846964 -0.174213 -0.698611 -0.044696 0.016077
    26 0.043235 -1.683941 0.096012 -0.785513 0.002823 -0.000167
    27 0.031729 -1.160830 0.058838 -1.181248 0.000642 0.008372
    28 -0.963866 -2.785145 -0.085350 -0.390470 0.056683 -0.022775
    29 0.028479 -1.403067 0.006271 -1.047836 -0.305236 0.172051
    30 0.021413 -0.957781 0.020046 -0.738181 0.000000 0.000000
    31 1.164475 -2.543940 -0.170330 -0.882543 -0.289459 -0.036486
    32 0.024032 -1.129042 0.017807 -0.709832 0.000000 0.000001
    33 0.014898 -0.883989 -0.019848 -0.845502 0.000000 0.000000
    34 -0.586770 -1.264477 0.200161 -0.758277 -0.410176 -2.195450
    35 1.522835 0.058681 0.016848 0.001410 0.008985 0.062485
    36 1.117947 0.048424 -0.005766 -0.007410 -0.024095 0.354271
    37 -0.139399 -0.111698 0.014397 0.653645 -0.030687 1.580508
    38 -1.393470 8.839177 -0.239433 1.580804 -0.005023 -1.566847
    39 -1.419167 -2.468916 0.303658 0.054780 -0.245273 -0.015301
    40 2.884050 -2.358110 -0.000291 -0.000005 0.000000 -3.141592
    41 5.491035 -4.545485 1.874737 -1.570796 1.570796 0.000000
    42 7.358565 -5.828294 0.033297 0.000539 0.000000 -1.570650
    43 2.847156 0.591605 1.108333 0.000000 0.000000 0.000000
    44 1.783906 0.591605 1.108334 0.000000 0.000000 0.000000
    45 0.698665 0.591605 1.108334 0.000000 0.000000 0.000000
    46 5.127886 -9.493374 0.032987 0.000538 0.000000 -1.570650
    47 0.876830 2.057685 0.002514 3.141592 -0.000008 0.000000
    48 20.631340 -0.003408 -2.061559 0.000000 0.000008 0.000000
    49 21.135261 -0.003059 2.061815 -3.141592 -0.000008 0.000000
    50 0.876830 -2.062429 -0.004198 0.000000 0.000008 0.000000
    51 7.492539 -50.164891 -2.477690 -0.468704 3.141592 1.570748
    52 -3.349888 0.000000 -0.000002 0.000000 1.570796 0.000000
  time 2
    0 -0.002752 -2.341180 1.395193 0.000000 0.000000 -0.000022
    1 7.958500 6.630438 -7.362488 6.133220 -1.612680 -0.045754
    2 1.257180 8.762585 -0.153713 -1.570562 0.002683 -1.566807
    3 -0.403962 -7.549489 0.095091 0.151242 0.282510 0.057553
    4 -0.488518 -2.755602 -0.228260 -0.871614 -0.202562 -0.209541
    5 0.039887 -1.479790 0.029854 -2.058952 0.000000 0.000001
    6 0.028786 -1.075731 -0.023109 -0.606348 0.000000 0.000000
    7 0.250027 -2.820665 -0.238396 -0.797118 -0.167517 -0.114938
    8 -0.049759 -1.680544 0.100479 -1.934764 0.000000 -0.000002
    9 -0.034142 -1.148312 0.084782 -0.925906 0.000000 0.000000
    10 0.957766 -2.746780 -0.090302 0.005849 -0.162684 0.097910
    11 -0.033420 -1.397129 -0.011257 -0.521018 0.000000 -0.000001
    12 -0.022360 -0.957436 0.018784 -0.975515 0.000000 0.000000
    13 -1.180681 -2.507217 -0.193859 -0.671429 -0.081516 -0.261329
    14 -0.024967 -1.123934 0.017597 -2.056303 0.000000 0.000001
    15 -0.020057 -0.890968 0.010090 -0.677843 0.000000 0.000000
    16 0.583510 -1.197277 0.185379 0.180209 -0.812077 -1.291294
    17 1.535927 0.010246 0.005009 -0.002964 -0.012979 -0.506650
    18 1.100771 0.004527 -0.010679 -0.015488 -0.004784 -1.694062
    19 0.120153 -0.050270 -0.054489 0.287569 3.110905 1.561085
    20 -4.798251 -4.176540 -9.864866 1.072255 -2.300091 0.116690
    21 0.096944 -8.450418 -0.009365 -0.589035 -0.619840 0.433133
    22 0.447953 -2.798986 -0.200443 -0.915554 -0.192394 0.103626
    23 -0.032909 -1.480204 0.004940 -0.991002 0.000000 0.000002
    24 -0.027022 -1.076920 -0.020210 -0.581934 0.000000 0.000000
    25 -0.249534 -2.846964 -0.174213 -0.698611 -0.044696 0.016077
    26 0.043235 -1.683941 0.096012 -0.785513 0.002823 -0.000167
    27 0.031729 -1.160830 0.058838 -1.181248 0.000642 0.008372
    28 -0.963866 -2.785145 -0.085350 -0.390470 0.056683 -0.022775
    29 0.028479 -1.403067 0.006271 -1.047836 -0.305236 0.172051
    30 0.021413 -0.957781 0.020046 -0.738181 0.000000 0.000000
    31 1.164475 -2.543940 -0.170330 -0.882543 -0.289459 -0.036486
    32 0.024032 -1.129042 0.017807 -0.709832 0.000000 0.000001
    33 0.014898 -0.883989 -0.019848 -0.845502 0.000000 0.000000
    34 -0.586770 -1.264477 0.200161 -0.758277 -0.410176 -2.195450
    35 1.522835 0.058681 0.016848 0.001410 0.008985 0.062485
    36 1.117947 0.048424 -0.005766 -0.007410 -0.024095 0.354271
    37 -0.139399 -0.111698 0.014397 0.653645 -0.030687 1.580508
    38 -1.393470 8.839177 -0.239433 1.580804 -0.005023 -1.566847
    39 -1.419167 -2.468916 0.303658 0.054780 -0.245273 -0.015301
    40 2.884050 -2.358110 -0.000291 -0.000005 0.000000 -3.141592
    41 5.491035 -4.545485 1.874737 -1.570796 1.570796 0.000000
    42 7.358565 -5.828294 0.033297 0.000539 0.000000 -1.570650
    43 2.847156 0.591605 1.108333 0.000000 0.000000 0.000000
    44 1.783906 0.591605 1.108334 0.000000 0.000000 0.000000
    45 0.698665 0.591605 1.108334 0.000000 0.000000 0.000000
    46 5.127886 -9.493374 0.032987 0.000538 0.000000 -1.570650
    47 0.876830 2.057685 0.002514 3.141592 -0.000008 0.000000
    48 10.752132 -0.003408 -2.061559 0.000000 0.000008 0.000000
    49 11.006045 -0.003059 2.061815 -3.141592 -0.000008 0.000000
    50 0.876830 -2.062429 -0.004198 0.000000 0.000008 0.000000
    51 7.129247 -40.863826 -2.481596 0.058178 3.141592 1.570748
    52 -3.349888 0.000000 -0.000002 0.000000 1.570796 0.000000
  time 3
    0 -0.002752 -3.606844 1.403006 0.000000 0.000000 -0.000022
    1 7.958500 6.630438 -7.362488 6.133220 -1.612680 -0.045754
    2 1.257180 8.762585 -0.153713 -1.570562 0.002683 -1.566807
    3 -0.403962 -7.549489 0.095091 0.151242 0.282510 0.057553
    4 -0.488518 -2.755602 -0.228260 -0.871614 -0.202562 -0.209541
    5 0.039887 -1.479790 0.029854 -2.058952 0.000000 0.000001
    6 0.028786 -1.075731 -0.023109 -0.606348 0.000000 0.000000
    7 0.250027 -2.820665 -0.238396 -0.797118 -0.167517 -0.114938
    8 -0.049759 -1.680544 0.100479 -1.934764 0.000000 -0.000002
    9 -0.034142 -1.148312 0.084782 -0.925906 0.000000 0.000000
    10 0.957766 -2.746780 -0.090302 0.005849 -0.162684 0.097910
    11 -0.033420 -1.397129 -0.011257 -0.521018 0.000000 -0.000001
    12 -0.022360 -0.957436 0.018784 -0.975515 0.000000 0.000000
    13 -1.180681 -2.507217 -0.193859 -0.671429 -0.081516 -0.261329
    14 -0.024967 -1.123934 0.017597 -2.056303 0.000000 0.000001
    15 -0.020057 -0.890968 0.010090 -0.677843 0.000000 0.000000
    16 0.583510 -1.197277 0.185379 0.180209 -0.812077 -1.291294
    17 1.535927 0.010246 0.005009 -0.002964 -0.012979 -0.506650
    18 1.100771 0.004527 -0.010679 -0.015488 -0.004784 -1.694062
    19 0.120153 -0.050270 -0.054489 0.287569 3.110905 1.561085
    20 -4.798251 -4.176540 -9.864866 1.072255 -2.300091 0.116690
    21 0.096944 -8.450418 -0.009365 -0.589035 -0.619840 0.433133
    22 0.447953 -2.798986 -0.200443 -0.915554 -0.192394 0.103626
    23 -0.032909 -1.480204 0.004940 -0.991002 0.000000 0.000002
    24 -0.027022 -1.076920 -0.020210 -0.581934 0.000000 0.000000
    25 -0.249534 -2.846964 -0.174213 -0.698611 -0.044696 0.016077
    26 0.043235 -1.683941 0.096012 -0.785513 0.002823 -0.000167
    27 0.031729 -1.160830 0.058838 -1.181248 0.000642 0.008372
    28 -0.963866 -2.785145 -0.085350 -0.390470 0.056683 -0.022775
    29 0.028479 -1.403067 0.006271 -1.047836 -0.305236 0.172051
    30 0.021413 -0.957781 0.020046 -0.738181 0.000000 0.000000
    31 1.164475 -2.543940 -0.170330 -0.882543 -0.289459 -0.036486
    32 0.024032 -1.129042 0.017807 -0.709832 0.000000 0.000001
    33 0.014898 -0.883989 -0.019848 -0.845502 0.000000 0.000000
    34 -0.586770 -1.264477 0.200161 -0.758277 -0.410176 -2.195450
    35 1.522835 0.058681 0.016848 0.001410 0.008985 0.062485
    36 1.117947 0.048424 -0.005766 -0.007410 -0.024095 0.354271
    37 -0.139399 -0.111698 0.014397 0.653645 -0.030687 1.580508
    38 -1.393470 8.839177 -0.239433 1.580804 -0.005023 -1.566847
    39 -1.419167 -2.468916 0.303658 0.054780 -0.245273 -0.015301
    40 2.884050 -2.358110 -0.000291 -0.000005 0.000000 -3.141592
    41 5.491035 -4.545485 1.874737 -1.570796 1.570796 0.000000
    42 7.358565 -5.828294 0.033297 0.000539 0.000000 -1.570650
    43 2.847156 0.591605 1.108333 0.000000 0.000000 0.000000
    44 1.783906 0.591605 1.108334 0.000000 0.000000 0.000000
    45 0.698665 0.591605 1.108334 0.000000 0.000000 0.000000
    46 5.127886 -9.493374 0.032987 0.000538 0.000000 -1.570650
    47 0.876830 2.057685 0.002514 3.141592 -0.000008 0.000000
    48 0.876831 -0.003408 -2.061559 0.000000 0.000008 0.000000
    49 0.876830 -0.003059 2.061815 -3.141592 -0.000008 0.000000
    50 0.876830 -2.062429 -0.004198 0.000000 0.000008 0.000000
    51 6.019838 -34.183934 -2.473783 -0.917394 3.141592 1.570748
    52 -3.349888 0.000000 -0.000002 0.000000 1.570796 0.000000
end
