// Created by Crowbar 0.34.0.0

$ModelName "weapons/tfa_cso/w_turbulent11.mdl"

$BodyGroup "studio"
{
	studio "v_turbulent11_2"
}

$collisionmodel "v_turbulent11_2.smd"
{
	$mass 9
}

$CDMaterials "models\weapons\tfa_cso\turbulent11"

$attachment "0" "root" 0.00 -18.30 -1.20 rotate -0 0 0

$Sequence "idle" {
	"anims\idle.smd"
	fps 30
}