// Created by Crowbar 0.68

$modelname "v_linkattacksg_parts.mdl"
$cd "."
$cdtexture "."
$cliptotextures
$scale 1.0

$bodygroup "weapon"
{
	studio "v_linkattacksg_change"
}

$flags 0

$texturegroup "skinfamilies"
{
	{ "$20_linkattacksg_oil01.bmp" }
	{ "$20_linkattacksg_oil02.bmp" }
}


$cbox 0 0 0 0 0 0

$bbox 0 0 0 0 0 0

$hbox 0 "linkattacksg_root" -5.86 0 -2.223911 0 23.15 2.00271
$hbox 0 "changeR_01" 0 0 -0.97 1.01 6.23 1.2
$hbox 0 "changeR_02" 0 -10.26 -1.54 2.54 7.99 1.46
$hbox 0 "changeL_02" 0 -8.02 -1.71 2.54 10.28 1.59

$sequence "idle" {
	"v_linkattacksg_parts_anims\idle"
	fps 30
	loop
}
$sequence "change_start" {
	"v_linkattacksg_parts_anims\change_start"
	fps 30
}
$sequence "change" {
	"v_linkattacksg_parts_anims\change"
	fps 30
	loop
}
$sequence "change_end" {
	"v_linkattacksg_parts_anims\change_end"
	fps 30
}
