// Created by Crowbar 0.68
version 1
nodes
  0 "root" -1
  1 "Bone01" 0
  2 "Bone_Lefthand" 1
  3 "Bone13" 2
  4 "Bone14" 3
  5 "Bone15" 4
  6 "ValveBiped.Bip01_L_Finger32" 5
  7 "ValveBiped.Bip01_L_Finger31" 4
  8 "ValveBiped.Bip01_L_Finger3" 3
  9 "Bone17" 2
  10 "Bone18" 9
  11 "Bone19" 10
  12 "ValveBiped.Bip01_L_Finger22" 11
  13 "ValveBiped.Bip01_L_Finger21" 10
  14 "ValveBiped.Bip01_L_Finger2" 9
  15 "Bone21" 2
  16 "Bone22" 15
  17 "Bone23" 16
  18 "ValveBiped.Bip01_L_Finger12" 17
  19 "ValveBiped.Bip01_L_Finger11" 16
  20 "ValveBiped.Bip01_L_Finger1" 15
  21 "Bone09" 2
  22 "Bone10" 21
  23 "Bone11" 22
  24 "ValveBiped.Bip01_L_Finger42" 23
  25 "ValveBiped.Bip01_L_Finger41" 22
  26 "ValveBiped.Bip01_L_Finger4" 21
  27 "Bone05" 2
  28 "Bone06" 27
  29 "Bone07" 28
  30 "ValveBiped.Bip01_L_Finger02" 29
  31 "ValveBiped.Bip01_L_Finger01" 28
  32 "ValveBiped.Bip01_L_Finger0" 27
  33 "ValveBiped.Bip01_L_Hand" 2
  34 "Bone_L_Upper" 1
  35 "ValveBiped.Bip01_L_UpperArm" 34
  36 "ValveBiped.Bip01_L_Forearm" 1
  37 "Bone04" 0
  38 "Bone_Righthand" 37
  39 "Bone39" 38
  40 "Bone40" 39
  41 "Bone41" 40
  42 "ValveBiped.Bip01_R_Finger32" 41
  43 "ValveBiped.Bip01_R_Finger31" 40
  44 "ValveBiped.Bip01_R_Finger3" 39
  45 "Bone35" 38
  46 "Bone36" 45
  47 "Bone37" 46
  48 "ValveBiped.Bip01_R_Finger22" 47
  49 "ValveBiped.Bip01_R_Finger21" 46
  50 "ValveBiped.Bip01_R_Finger2" 45
  51 "Bone31" 38
  52 "Bone32" 51
  53 "Bone33" 52
  54 "ValveBiped.Bip01_R_Finger12" 53
  55 "ValveBiped.Bip01_R_Finger11" 52
  56 "ValveBiped.Bip01_R_Finger1" 51
  57 "Bone43" 38
  58 "Bone44" 57
  59 "Bone45" 58
  60 "ValveBiped.Bip01_R_Finger42" 59
  61 "ValveBiped.Bip01_R_Finger41" 58
  62 "ValveBiped.Bip01_R_Finger4" 57
  63 "Bone27" 38
  64 "Bone28" 63
  65 "Bone29" 64
  66 "ValveBiped.Bip01_R_Finger02" 65
  67 "ValveBiped.Bip01_R_Finger01" 64
  68 "ValveBiped.Bip01_R_Finger0" 63
  69 "ValveBiped.Bip01_R_Hand" 38
  70 "Bone_R_Upper" 37
  71 "ValveBiped.Bip01_R_UpperArm" 70
  72 "ValveBiped.Bip01_R_Forearm" 37
  73 "Bone_Se_Hand-L" 2
  74 "Bone_Se_Hand-R" 38
  75 "blackhole_root" -1
  76 "blackhole_light_point002" 75
  77 "triger" 75
  78 "bone_up" 75
  79 "bone_up001" 78
  80 "bone_up002" 78
  81 "blackhole_up02" 78
  82 "bone_up003" 78
  83 "bone_up004" 78
  84 "bone_up005" 78
  85 "bone_sideR" 75
  86 "bone_sideR001" 85
  87 "bone_sideR002" 86
  88 "bone_sideR003" 87
  89 "bone_sideR004" 88
  90 "bone_sideL" 75
  91 "bone_sideL001" 90
  92 "bone_sideL002" 91
  93 "bone_sideL003" 92
  94 "bone_sideL004" 93
  95 "bullet10" -1
  96 "bullet09" -1
  97 "bullet08" -1
  98 "bullet07" -1
  99 "bullet06" -1
  100 "bullet05" -1
  101 "bullet04" -1
  102 "bullet03" -1
  103 "bullet02" -1
  104 "bullet01" -1
  105 "blackhole_ef_root" 78
  106 "blackhole_bone001" -1
  107 "blackhole_bone002" -1
  108 "blackhole_bone003" -1
  109 "blackhole_bone004" -1
  110 "blackhole_point" 105
  111 "blackhole_ring" 78
  112 "blackhole_bone021" 111
  113 "blackhole_bone022" 111
  114 "blackhole_bone023" 111
  115 "blackhole_bone024" 111
  116 "blackhole_light_point001" 75
  117 "epic_light_bone001" 116
  118 "epic_light_bone002" 116
  119 "epic_light_bone003" 116
  120 "epic_light_bone004" 116
  121 "epic_light_bone009" 76
  122 "epic_light_bone010" 76
  123 "epic_light_bone011" 76
  124 "epic_light_bone012" 76
  125 "epic_light_bone013" -1
  126 "epic_light_bone014" -1
  127 "epic_light_bone015" -1
  128 "epic_light_bone016" -1
  129 "blackhole_bone005" -1
  130 "blackhole_bone006" -1
  131 "blackhole_bone007" -1
  132 "blackhole_bone008" -1
  133 "blackhole_bone009" -1
  134 "blackhole_bone010" -1
  135 "blackhole_bone011" -1
  136 "blackhole_bone012" -1
  137 "blackhole_bone013" -1
  138 "blackhole_bone014" -1
  139 "blackhole_bone015" -1
  140 "blackhole_bone016" -1
end
skeleton
  time 0
    0 0.000000 1.629157 0.541027 0.000000 0.000000 0.000000
    1 9.310103 0.168160 -0.149879 3.138909 -0.000224 -1.566807
    2 -0.071920 -8.498734 -0.104137 -0.025046 0.287591 0.014898
    3 -0.488518 -2.755611 -0.228260 0.106453 0.010332 -0.264490
    4 0.039887 -1.479792 0.029853 -0.055394 -0.000001 -0.000002
    5 0.028789 -1.075739 -0.023109 0.002099 0.000000 0.000000
    6 0.007988 0.172186 -0.118553 -1.598091 -0.216549 -1.570593
    7 0.080660 0.135929 -0.203919 -1.506824 -0.066185 -1.662786
    8 0.117288 -0.155556 -0.604544 -1.412988 -0.374558 -1.569222
    9 0.250027 -2.820667 -0.238396 0.041826 -0.002921 0.008443
    10 -0.049760 -1.680544 0.100479 0.019826 0.000000 -0.000003
    11 -0.034142 -1.148321 0.084782 -0.040115 0.000000 0.000000
    12 -0.018589 0.129951 -0.123721 -1.294580 0.001302 -1.635383
    13 -0.006160 0.170065 -0.110169 -1.280084 -0.068681 -1.597215
    14 0.047100 -0.104074 -0.352264 -1.243369 -0.257298 -1.694346
    15 0.957766 -2.746782 -0.090302 -0.017220 -0.162277 0.191557
    16 -0.033419 -1.397135 -0.011256 0.013930 0.000000 0.000000
    17 -0.022361 -0.957438 0.018784 0.003845 0.000000 -0.000001
    18 -0.022325 0.045424 -0.038284 -1.125544 -0.129230 -1.681412
    19 -0.042901 -0.061277 -0.071212 -1.124462 -0.060454 -1.586099
    20 0.063741 -0.109104 -0.248158 -1.142813 -0.125805 -1.693583
    21 -1.180682 -2.507221 -0.193859 0.082998 0.013295 -0.477912
    22 -0.024971 -1.123928 0.017596 -0.018064 -0.000003 -0.000007
    23 -0.020050 -0.890970 0.010091 -0.060798 0.000001 0.000004
    24 -0.011721 0.093267 0.017949 -1.687855 -0.079155 -1.575164
    25 0.048863 -0.085541 0.028626 -1.715605 -0.034569 -1.653190
    26 0.173919 -0.198414 -0.336163 -1.668104 -0.422317 -1.710956
    27 0.583510 -1.197279 0.185379 0.158050 -0.404973 -0.364292
    28 1.535929 0.010252 0.005009 -0.002964 -0.012980 0.000892
    29 1.100770 0.004519 -0.010680 -0.002796 0.015973 0.003459
    30 -0.267710 0.037512 -0.093907 2.913812 -0.143386 0.078467
    31 -0.029266 0.205406 -0.329287 2.788574 -0.255486 -0.188917
    32 0.204373 0.521055 -0.268577 2.886669 0.042206 -0.230367
    33 0.195697 -0.010059 -0.293538 -1.333586 0.150863 -1.672749
    34 1.257181 8.762590 -0.153713 -1.570562 0.002683 -1.566808
    35 -0.093500 -0.114213 -0.738866 -1.570842 0.061811 0.002096
    36 0.010843 0.093623 -0.081439 -3.141462 0.041719 -1.568236
    37 -9.310107 -5.231259 -12.513384 -3.136609 -0.010027 1.574745
    38 0.096935 -8.450418 -0.009359 -0.032963 -0.297909 -0.004665
    39 0.447956 -2.798988 -0.200437 0.106457 -0.010396 0.265098
    40 -0.032910 -1.480204 0.004945 -0.055405 0.000001 -0.000004
    41 -0.027019 -1.076921 -0.020208 0.002095 -0.000002 -0.000001
    42 0.006927 0.005327 -0.181358 -1.528500 -0.248579 -1.611362
    43 -0.052313 0.038588 -0.230757 -1.592493 -0.043415 -1.528515
    44 -0.232601 -0.209658 -0.420670 -1.713790 -0.167173 -1.438930
    45 -0.249531 -2.846966 -0.174202 0.041904 -0.000125 -0.008397
    46 0.043239 -1.683939 0.096020 0.019757 0.002824 -0.000165
    47 0.031729 -1.160824 0.058846 -0.040183 0.000644 0.008371
    48 -0.038065 0.069168 -0.159883 -1.816986 0.066178 -1.575392
    49 -0.025151 0.088764 -0.068835 -1.817843 0.044510 -1.568287
    50 -0.102916 -0.186983 -0.272246 -1.833683 -0.232962 -1.472375
    51 -0.963863 -2.785145 -0.085340 -0.017228 0.162278 -0.191553
    52 0.028477 -1.403070 0.006275 0.013937 0.000003 -0.000002
    53 0.021413 -0.957781 0.020043 0.003850 0.000001 0.000001
    54 -0.004241 0.043711 -0.080203 -2.014997 -0.186996 -1.460723
    55 0.015383 -0.089136 -0.030009 -2.006083 0.036346 -1.568629
    56 -0.022610 -0.212358 -0.177905 -1.933161 -0.118801 -1.518895
    57 1.164478 -2.543932 -0.170328 0.083001 -0.013289 0.477914
    58 0.024035 -1.129044 0.017803 -0.018074 0.000004 0.000009
    59 0.014894 -0.883989 -0.019848 -0.060797 -0.000006 -0.000004
    60 -0.067138 0.063248 -0.010962 -0.899214 -0.014515 -1.600326
    61 -0.151180 -0.007395 -0.070065 -0.913061 -0.118819 -1.408558
    62 -0.178164 -0.244682 -0.357066 -1.159916 -0.384260 -1.556110
    63 -0.586769 -1.264469 0.200169 -0.152090 -0.410515 -2.814812
    64 1.522836 0.058674 0.016850 0.001405 0.008981 -0.046880
    65 1.117947 0.048420 -0.005766 -0.000243 -0.025198 0.065418
    66 -0.263408 -0.117640 -0.015658 0.000036 -0.082210 -0.026800
    67 0.007707 -0.334358 -0.191576 0.070788 -0.181563 0.282364
    68 0.225564 -0.567924 -0.420715 0.119895 -0.183798 0.223460
    69 -0.203683 -0.095654 -0.328304 -1.745077 0.075142 -1.515382
    70 -1.393460 8.839182 -0.239440 1.580804 -0.005024 -1.566848
    71 0.036020 0.082816 -0.692656 -1.570769 0.065989 0.001276
    72 -0.088586 0.054021 -0.088593 0.010231 0.033800 -1.560851
    73 0.120153 -0.050270 -0.054489 -2.854024 0.030688 -1.580508
    74 -0.139399 -0.111692 0.014400 0.285395 -0.031353 1.580313
    75 3.888964 -8.171732 -3.666628 -0.000001 0.000000 0.000000
    76 0.026707 -7.663448 2.477350 0.000000 0.000000 0.000000
    77 0.000000 0.000000 0.000000 -0.000001 0.000000 0.000000
    78 -0.002492 -0.142656 2.350765 0.000000 -0.349067 -1.570797
    79 3.648261 -0.591012 1.154948 0.000000 -0.349066 -0.349066
    80 3.648259 0.586283 1.154948 0.000000 -0.349066 0.349066
    81 1.638023 0.000147 0.712518 -0.754163 -0.927911 3.141592
    82 4.372977 0.004415 1.090627 -3.141593 -0.686853 -3.141593
    83 6.174505 0.004415 1.090625 -3.141593 -0.686853 -3.141593
    84 7.727386 0.004415 1.090622 -3.141593 -0.686853 -3.141593
    85 -0.861087 -1.742399 1.946832 0.000000 -0.000001 -2.268928
    86 1.752686 -0.302547 -0.187691 0.000000 0.000000 -0.610865
    87 2.180661 0.017717 -0.000003 0.000000 0.000000 0.181871
    88 2.344190 0.424479 -0.000004 0.000000 0.000000 0.683907
    89 1.295494 0.069204 -0.000001 0.000000 0.000000 0.203881
    90 0.904969 -1.742410 1.946826 0.000000 -0.000001 -0.872665
    91 1.750698 0.314426 -0.000002 0.000001 0.000001 0.610865
    92 2.187374 -0.186664 0.000000 0.000000 0.000000 -0.261799
    93 2.370610 -0.473123 0.000000 0.000000 0.000000 -0.650928
    94 1.352085 -0.060987 0.000000 0.000000 0.000000 -0.464585
    95 2.305325 -15.686938 -3.514146 -1.570798 0.628319 -0.000001
    96 1.871118 -15.686934 -2.177797 -1.570801 1.256638 -0.000004
    97 2.300508 -15.686928 -0.856263 1.570800 1.256637 -3.141590
    98 3.442191 -15.686922 -0.026779 1.570798 0.628319 -3.141592
    99 4.840371 -15.686919 -0.026774 1.570798 -0.000001 3.141593
    100 5.966851 -15.686917 -0.845208 1.570798 -0.628319 3.141593
    101 6.401179 -15.686915 -2.181931 1.570801 -1.256637 3.141590
    102 5.970810 -15.686914 -3.506473 -1.570799 -1.256638 0.000003
    103 4.821616 -15.686914 -4.341412 -1.570798 -0.628319 0.000001
    104 3.421892 -15.686914 -4.341414 -1.570797 -0.000001 0.000000
    105 5.261106 -0.112999 -1.667288 -0.096673 -0.466716 -2.857973
    106 -0.289740 -16.139378 2.481161 -1.570797 0.129944 -1.316020
    107 8.612186 -13.816513 2.481729 -1.570797 0.129944 -1.316020
    108 -0.589592 -14.988030 -6.641582 -1.570797 0.129944 -1.316020
    109 8.312334 -12.665166 -6.641015 -1.570797 0.129944 -1.316020
    110 0.000000 0.000000 0.000000 0.000000 0.000000 -3.141592
    111 -5.601693 0.000114 -17.397484 -0.754163 -0.927911 3.141592
    112 0.000004 -0.000006 0.000001 -1.570798 -0.000001 0.000000
    113 0.000004 -0.000006 -0.000002 -1.570798 -0.000001 0.000000
    114 0.000004 -0.000007 -0.000003 -1.570798 -0.000001 0.000000
    115 0.000004 -0.000004 -0.000001 -1.570798 -0.000001 0.000000
    116 0.005519 129.453491 2.472699 0.000000 0.000000 0.000000
    117 0.000000 0.000000 0.000000 0.000000 0.000000 0.000000
    118 0.000000 0.000000 0.000000 0.000000 0.000000 0.000000
    119 0.000000 0.000000 0.000000 0.000000 0.000000 0.000000
    120 0.000000 0.000000 0.000000 0.000000 0.000000 0.000000
    121 0.000000 0.000000 0.000000 0.000000 0.000000 0.000000
    122 0.000000 0.000000 0.000000 0.000000 0.000000 0.000000
    123 0.000000 0.000000 0.000000 0.000000 0.000000 0.000000
    124 0.000000 0.000000 0.000000 0.000000 0.000000 0.000000
    125 4.153549 -16.409199 -2.186037 0.000000 0.000000 0.000000
    126 4.153549 -16.409199 -2.186037 0.000000 0.000000 0.000000
    127 4.153549 -16.409199 -2.186037 0.000000 0.000000 0.000000
    128 4.153549 -16.409199 -2.186037 0.000000 0.000000 0.000000
    129 4.011350 -14.402475 -2.079954 -1.570798 0.129944 -1.316020
    130 4.011350 -14.402475 -2.079954 -1.570798 0.129944 -1.316020
    131 4.011350 -14.402475 -2.079954 -1.570798 0.129944 -1.316020
    132 4.011350 -14.402475 -2.079954 -1.570798 0.129944 -1.316020
    133 4.011350 -14.402475 -2.079954 -1.570798 0.129944 -1.316020
    134 4.011350 -14.402475 -2.079954 -1.570798 0.129944 -1.316020
    135 4.011350 -14.402475 -2.079954 -1.570798 0.129944 -1.316020
    136 4.011350 -14.402475 -2.079954 -1.570798 0.129944 -1.316020
    137 4.011350 -14.402477 -2.079954 -1.570798 0.129944 -1.316020
    138 4.011350 -14.402477 -2.079954 -1.570798 0.129944 -1.316020
    139 4.011350 -14.402477 -2.079954 -1.570798 0.129944 -1.316020
    140 4.011350 -14.402477 -2.079954 -1.570798 0.129944 -1.316020
end
triangles
$0b_blackhole_ef03
  138 4.011350 -14.402477 -2.079954 0.975176 -0.213997 -0.056885 0.000000 1.000000 1 138 1.000000
  140 4.011350 -14.402477 -2.079954 0.935440 -0.346282 -0.070995 1.000000 1.000000 1 140 1.000000
  137 4.011350 -14.402477 -2.079954 0.975107 -0.214306 -0.056919 0.000000 0.000000 1 137 1.000000
$0b_blackhole_ef03
  137 4.011350 -14.402477 -2.079954 0.975107 -0.214306 -0.056919 0.000000 0.000000 1 137 1.000000
  140 4.011350 -14.402477 -2.079954 0.935440 -0.346282 -0.070995 1.000000 1.000000 1 140 1.000000
  139 4.011350 -14.402477 -2.079954 0.935334 -0.346562 -0.071024 1.000000 0.000000 1 139 1.000000
blackhole_black
  138 4.008226 -14.390482 -2.078334 0.975176 -0.213997 -0.056885 0.000000 1.000000 1 138 1.000000
  140 4.008226 -14.390482 -2.078334 0.875017 -0.476712 -0.084211 0.499022 1.000000 1 140 1.000000
  137 4.008226 -14.390482 -2.078334 0.975074 -0.214451 -0.056935 0.000000 0.500978 1 137 1.000000
blackhole_black
  137 4.008226 -14.390482 -2.078334 0.975074 -0.214451 -0.056935 0.000000 0.500978 1 137 1.000000
  140 4.008226 -14.390482 -2.078334 0.875017 -0.476712 -0.084211 0.499022 1.000000 1 140 1.000000
  139 4.008226 -14.390482 -2.078334 0.874725 -0.477237 -0.084263 0.499022 0.500978 1 139 1.000000
end
