version 1
nodes
  0 "root" -1
  1 "Bone04" 0
  2 "Bone_Righthand" 1
  3 "Bone39" 2
  4 "Bone40" 3
  5 "Bone41" 4
  6 "Bone35" 2
  7 "Bone36" 6
  8 "Bone37" 7
  9 "Bone31" 2
  10 "Bone32" 9
  11 "Bone33" 10
  12 "Bone43" 2
  13 "Bone44" 12
  14 "Bone45" 13
  15 "Bone27" 2
  16 "Bone28" 15
  17 "Bone29" 16
  18 "Bone_Se_Hand-R" 2
  19 "Bone_R_Upper" 1
  20 "Bone01" 0
  21 "Bone_Lefthand" 20
  22 "Bone13" 21
  23 "Bone14" 22
  24 "Bone15" 23
  25 "Bone17" 21
  26 "Bone18" 25
  27 "Bone19" 26
  28 "Bone21" 21
  29 "Bone22" 28
  30 "Bone23" 29
  31 "Bone09" 21
  32 "Bone10" 31
  33 "Bone11" 32
  34 "Bone05" 21
  35 "Bone06" 34
  36 "Bone07" 35
  37 "Bone_L_Upper" 20
  38 "chainsaw_root" -1
  39 "saw001" 38
  40 "saw002" 38
  41 "saw003" 38
  42 "saw004" 38
  43 "teeth004" 38
  44 "teeth015" 38
  45 "teeth001" 38
  46 "teeth002" 38
  47 "teeth003" 38
  48 "teeth016" 38
  49 "teeth005" 38
  50 "teeth006" 38
  51 "teeth007" 38
  52 "teeth008" 38
  53 "teeth009" 38
  54 "teeth010" 38
  55 "teeth011" 38
  56 "teeth012" 38
  57 "teeth013" 38
  58 "teeth014" 38
end
skeleton
  time 0
    0 2.921964 0.000000 -2.066469 0.000000 0.000000 -0.000066
    1 -4.757703 -4.662068 -9.949350 0.948230 -3.710847 1.192065
    2 0.084157 -8.420083 -0.011867 0.260915 -0.207479 0.439191
    3 0.447952 -2.798988 -0.200443 -0.882497 0.040397 0.008894
    4 -0.033095 -1.498205 0.034224 -1.586064 0.023071 -0.032020
    5 -0.027702 -1.133388 -0.022576 -1.342717 0.024769 -0.025414
    6 -0.249534 -2.846973 -0.174215 -0.867960 0.160865 0.000445
    7 0.043017 -1.655117 0.053581 -1.839925 -0.004677 -0.003507
    8 0.023734 -1.143356 0.059665 -1.016662 -0.024514 -0.002443
    9 -0.963866 -2.785151 -0.085346 -1.240673 0.220007 -0.166913
    10 0.028663 -1.405643 -0.021507 -1.095864 -0.030801 -0.036393
    11 0.021422 -0.938366 0.006881 -1.299865 -0.039884 -0.037721
    12 1.164473 -2.543945 -0.170328 -0.501318 -0.161158 0.092387
    13 0.023466 -1.146865 -0.008955 -1.223259 0.020205 0.060465
    14 0.014968 -0.896790 -0.020059 -0.762990 0.002039 0.038621
    15 -0.586772 -1.264479 0.200165 -2.037515 -1.354517 -0.967814
    16 1.585696 0.038315 0.004581 -0.027409 -0.363465 1.215422
    17 1.117499 0.048465 -0.005883 -0.001615 -0.026521 0.124571
    18 0.227800 -0.068730 0.006584 -0.207404 0.065141 1.253439
    19 -8.241348 0.733456 -0.473817 1.566520 -0.036326 -0.167050
    20 15.645918 -3.109278 -9.888455 0.458139 -2.314378 -0.681094
    21 -0.021136 -8.424515 -0.092422 -0.461490 0.728885 0.251599
    22 -0.488515 -2.755602 -0.228256 -0.667590 -0.067442 -0.114705
    23 0.039936 -1.529655 0.013207 -1.413023 -0.012729 0.031191
    24 0.032903 -1.294774 -0.102672 -2.046379 -0.004466 0.045624
    25 0.250031 -2.820658 -0.238394 -0.623289 -0.088938 -0.136107
    26 -0.049187 -1.608001 0.063729 -1.109531 0.007173 -0.030668
    27 -0.033792 -1.193996 0.042160 -1.652630 -0.001324 -0.042455
    28 0.957769 -2.746773 -0.090297 -0.505939 -0.090425 -0.188449
    29 -0.033296 -1.395737 -0.025013 -0.828551 -0.110179 0.092049
    30 -0.021896 -0.964392 -0.011118 -1.165134 -0.000724 -0.055752
    31 -1.180678 -2.507215 -0.193858 -0.404064 0.138943 -0.096783
    32 -0.024978 -1.129404 0.016886 -1.230912 -0.001217 -0.052001
    33 -0.020518 -0.907372 0.039943 -1.273645 -0.000279 -0.052017
    34 0.604733 -1.198765 0.179235 0.767390 -0.961737 -1.160431
    35 1.518348 -0.137151 0.049418 0.009659 -0.140828 -0.462384
    36 1.058105 -0.135432 0.032545 0.030563 -0.175294 -0.710101
    37 6.605012 -3.944841 -0.423249 -1.561742 -0.032589 -3.585549
    38 15.083626 -10.106640 -8.701266 -1.171251 -2.809022 0.543130
    39 19.969769 -3.188614 1.358406 0.000000 0.000000 0.001876
    40 19.980885 -9.112012 1.358410 0.000000 0.000000 0.001876
    41 19.969769 -3.188615 -1.358761 0.000000 0.000000 0.001876
    42 19.980885 -9.112012 -1.358759 0.000000 0.000000 0.001876
    43 37.513889 -5.706630 1.410832 0.000000 0.000000 0.250193
    44 37.508564 -6.442426 -1.387376 0.000000 0.000000 -0.219907
    45 35.189121 -4.252908 1.410833 0.000000 0.000000 1.489751
    46 36.333588 -4.422521 1.406492 0.000000 0.000000 1.297920
    47 37.098946 -4.867690 1.410831 0.000000 0.000000 0.717059
    48 37.097366 -7.233098 -1.387378 0.000000 0.000000 -0.735074
    49 37.508568 -6.442424 1.410833 0.000000 0.000000 -0.219907
    50 37.097366 -7.233096 1.410832 0.000000 0.000000 -0.735074
    51 36.336815 -7.703540 1.410831 0.000000 0.000000 -1.329474
    52 35.217106 -7.894967 1.410834 0.000000 0.000000 -1.474549
    53 36.336815 -7.703540 -1.387373 0.000000 0.000000 -1.329474
    54 35.217110 -7.894971 -1.387375 0.000000 0.000000 -1.474549
    55 35.189121 -4.252910 -1.387377 0.000000 0.000000 1.489751
    56 36.333584 -4.422519 -1.391716 0.000000 0.000000 1.297920
    57 37.098938 -4.867692 -1.387377 0.000000 0.000000 0.717059
    58 37.513882 -5.706630 -1.387377 0.000000 0.000000 0.250193
  time 1
    0 2.918058 0.667989 -2.371166 0.034060 0.000000 -0.000066
    1 -1.995900 -7.130893 -8.593840 1.209822 -3.242969 1.545263
    2 0.080251 -8.314611 -0.125152 0.525116 0.321241 1.008868
    3 0.447952 -2.798988 -0.200443 -0.629704 0.062401 0.066385
    4 -0.033095 -1.502111 0.030317 -1.467379 0.023347 -0.028652
    5 -0.027702 -1.125575 -0.026483 -1.208255 0.024134 -0.021639
    6 -0.249534 -2.846973 -0.174215 -0.617332 0.165059 -0.001640
    7 0.043017 -1.655117 0.061394 -1.687700 -0.001825 -0.005616
    8 0.023734 -1.147263 0.063571 -0.847370 -0.022368 -0.002850
    9 -0.963866 -2.785151 -0.085346 -0.989137 0.230793 -0.163402
    10 0.028663 -1.405643 -0.021507 -1.095864 -0.030801 -0.036393
    11 0.021422 -0.942272 0.010787 -1.045609 -0.028727 -0.035072
    12 1.164473 -2.543945 -0.170328 -0.356748 -0.160886 0.174709
    13 0.023466 -1.146865 -0.008955 -1.223259 0.020205 0.060465
    14 0.014968 -0.896790 -0.020059 -0.762990 0.002039 0.038621
    15 -0.586772 -1.264479 0.200165 -0.027777 -0.896435 -2.847654
    16 1.550538 0.042221 0.000674 0.219798 -0.278372 0.506916
    17 1.117499 0.048465 -0.005883 -0.001615 -0.026521 0.124571
    18 0.227800 -0.068730 0.006584 -0.207404 0.065141 1.253439
    19 -8.229629 0.327194 -0.473817 1.565273 -0.036805 -0.117388
    20 14.290408 -0.562325 -8.673575 0.583631 -2.158501 -0.625164
    21 -0.040668 -8.416703 -0.104141 -0.604888 0.717078 0.296508
    22 -0.488515 -2.755602 -0.228256 -0.667590 -0.067442 -0.114705
    23 0.039936 -1.529655 0.013207 -1.413023 -0.012729 0.031191
    24 0.032903 -1.294774 -0.102672 -2.046379 -0.004466 0.045624
    25 0.250031 -2.820658 -0.238394 -0.623289 -0.088938 -0.136107
    26 -0.049187 -1.608001 0.063729 -1.109531 0.007173 -0.030668
    27 -0.033792 -1.193996 0.042160 -1.652630 -0.001324 -0.042455
    28 0.957769 -2.746773 -0.090297 -0.505939 -0.090425 -0.188449
    29 -0.033296 -1.395737 -0.025013 -0.828551 -0.110179 0.092049
    30 -0.021896 -0.964392 -0.011118 -1.165134 -0.000724 -0.055752
    31 -1.180678 -2.507215 -0.193858 -0.404064 0.138943 -0.096783
    32 -0.024978 -1.129404 0.016886 -1.230912 -0.001217 -0.052001
    33 -0.020518 -0.907372 0.039943 -1.273645 -0.000279 -0.052017
    34 0.604733 -1.198765 0.179235 0.767390 -0.961737 -1.160431
    35 1.518348 -0.137151 0.049418 0.009659 -0.140828 -0.462384
    36 1.058105 -0.135432 0.032545 0.030563 -0.175294 -0.710101
    37 6.534698 -4.046407 -0.423249 -1.561454 -0.032685 -3.600482
    38 15.474263 -7.016701 -7.974681 -1.221492 -2.720355 0.576040
    39 20.559630 -3.188614 1.358406 0.000000 0.000000 0.001876
    40 19.441806 -9.112012 1.358410 0.000000 0.000000 0.001876
    41 20.559630 -3.188615 -1.358761 0.000000 0.000000 0.001876
    42 19.441806 -9.112012 -1.358759 0.000000 0.000000 0.001876
    43 37.412324 -6.093361 1.410832 0.000000 0.000000 -0.024560
    44 37.211680 -6.770561 -1.387376 0.000000 0.000000 -0.513464
    45 35.665698 -4.385725 1.410833 0.000000 0.000000 1.290363
    46 36.630472 -4.715499 1.406492 0.000000 0.000000 1.006915
    47 37.204418 -5.277859 1.410831 0.000000 0.000000 0.483754
    48 36.636415 -7.404978 -1.387378 0.000000 0.000000 -0.922822
    49 37.211684 -6.770559 1.410833 0.000000 0.000000 -0.513464
    50 36.636415 -7.404976 1.410832 0.000000 0.000000 -0.922822
    51 35.797736 -7.781667 1.410831 0.000000 0.000000 -1.385790
    52 34.689746 -7.926218 1.410834 0.000000 0.000000 -1.493652
    53 35.797736 -7.781667 -1.387373 0.000000 0.000000 -1.385790
    54 34.689750 -7.926222 -1.387375 0.000000 0.000000 -1.493652
    55 35.665698 -4.385727 -1.387377 0.000000 0.000000 1.290363
    56 36.630468 -4.715497 -1.391716 0.000000 0.000000 1.006915
    57 37.204410 -5.277861 -1.387377 0.000000 0.000000 0.483754
    58 37.412316 -6.093361 -1.387377 0.000000 0.000000 -0.024560
  time 2
    0 2.890713 2.269601 -3.093844 0.115304 0.000000 -0.000066
    1 -0.718517 -6.830103 -5.921884 1.238419 -3.097636 1.318994
    2 0.095876 -8.314611 -0.183747 0.595393 0.548826 0.976660
    3 0.447952 -2.798988 -0.200443 -0.385257 0.069340 0.125313
    4 -0.033095 -1.502111 0.026411 -1.353051 0.023239 -0.025404
    5 -0.027702 -1.121669 -0.030389 -1.078763 0.023043 -0.018116
    6 -0.249534 -2.846973 -0.174215 -0.375811 0.169457 -0.002587
    7 0.043017 -1.655117 0.065300 -1.541106 0.001196 -0.007210
    8 0.023734 -1.151169 0.063571 -0.684349 -0.020259 -0.002898
    9 -0.963866 -2.785151 -0.085346 -0.746285 0.240057 -0.157481
    10 0.028663 -1.405643 -0.021507 -1.095864 -0.030801 -0.036393
    11 0.021422 -0.946179 0.014694 -0.800804 -0.018935 -0.029943
    12 1.164473 -2.543945 -0.170328 -0.217837 -0.171686 0.253328
    13 0.023466 -1.146865 -0.008955 -1.223259 0.020205 0.060465
    14 0.014968 -0.896790 -0.020059 -0.762990 0.002039 0.038621
    15 -0.586772 -1.264479 0.200165 0.675741 -0.962531 -3.582907
    16 1.566164 0.038315 0.000674 0.113020 -0.339024 0.833568
    17 1.117499 0.048465 -0.005883 -0.001615 -0.026521 0.124571
    18 0.227800 -0.068730 0.006584 -0.207404 0.065141 1.253439
    19 -7.479606 4.182780 -0.426941 1.575532 -0.029338 -0.599204
    20 11.559856 0.894751 -7.325877 0.728158 -2.001414 -0.594622
    21 -0.060200 -8.412796 -0.115860 -0.750296 0.709401 0.339344
    22 -0.488515 -2.755602 -0.228256 -0.667590 -0.067442 -0.114705
    23 0.039936 -1.529655 0.013207 -1.413023 -0.012729 0.031191
    24 0.032903 -1.294774 -0.102672 -2.046379 -0.004466 0.045624
    25 0.250031 -2.820658 -0.238394 -0.623289 -0.088938 -0.136107
    26 -0.049187 -1.608001 0.063729 -1.109531 0.007173 -0.030668
    27 -0.033792 -1.193996 0.042160 -1.652630 -0.001324 -0.042455
    28 0.957769 -2.746773 -0.090297 -0.505939 -0.090425 -0.188449
    29 -0.033296 -1.395737 -0.025013 -0.828551 -0.110179 0.092049
    30 -0.021896 -0.964392 -0.011118 -1.165134 -0.000724 -0.055752
    31 -1.180678 -2.507215 -0.193858 -0.404064 0.138943 -0.096783
    32 -0.024978 -1.129404 0.016886 -1.230912 -0.001217 -0.052001
    33 -0.020518 -0.907372 0.039943 -1.273645 -0.000279 -0.052017
    34 0.604733 -1.198765 0.179235 0.767390 -0.961737 -1.160431
    35 1.518348 -0.137151 0.049418 0.009659 -0.140828 -0.462384
    36 1.058105 -0.135432 0.032545 0.030563 -0.175294 -0.710101
    37 6.464383 -4.144066 -0.423249 -1.561167 -0.032685 -3.615500
    38 14.485952 -3.641598 -8.041089 -1.306470 -2.666579 0.644713
    39 21.657320 -3.188614 1.358406 0.000000 0.000000 0.001876
    40 18.437869 -9.112012 1.358410 0.000000 0.000000 0.001876
    41 21.657320 -3.188615 -1.358761 0.000000 0.000000 0.001876
    42 18.437869 -9.112012 -1.358759 0.000000 0.000000 0.001876
    43 37.220912 -6.819945 1.410832 0.000000 0.000000 -0.534833
    44 36.653069 -7.379955 -1.387376 0.000000 0.000000 -1.058661
    45 36.552444 -4.635732 1.410833 0.000000 0.000000 0.920058
    46 37.189083 -5.266297 1.406492 0.000000 0.000000 0.466457
    47 37.403642 -6.043507 1.410831 0.000000 0.000000 0.050459
    48 35.777014 -7.733113 -1.387378 0.000000 0.000000 -1.271509
    49 36.653073 -7.379952 1.410833 0.000000 0.000000 -1.058661
    50 35.777014 -7.733111 1.410832 0.000000 0.000000 -1.271509
    51 34.785986 -7.926203 1.410831 0.000000 0.000000 -1.490403
    52 33.705341 -7.988720 1.410834 0.000000 0.000000 -1.529151
    53 34.785986 -7.926203 -1.387373 0.000000 0.000000 -1.490403
    54 33.705345 -7.988724 -1.387375 0.000000 0.000000 -1.529151
    55 36.552444 -4.635734 -1.387377 0.000000 0.000000 0.920058
    56 37.189079 -5.266295 -1.391716 0.000000 0.000000 0.466457
    57 37.403635 -6.043509 -1.387377 0.000000 0.000000 0.050459
    58 37.220904 -6.819945 -1.387377 0.000000 0.000000 -0.534833
  time 3
    0 2.832118 4.175909 -3.957152 0.212259 0.000000 -0.000066
    1 0.508083 -4.966765 -4.093703 1.179596 -3.312340 1.027392
    2 0.158378 -8.392738 -0.195466 0.659162 0.577438 0.621432
    3 0.447952 -2.798988 -0.200443 -0.260422 0.067303 0.155598
    4 -0.033095 -1.498205 0.026411 -1.294728 0.023035 -0.023750
    5 -0.027702 -1.117762 -0.030389 -1.012675 0.022324 -0.016378
    6 -0.249534 -2.846973 -0.174215 -0.252477 0.171759 -0.002647
    7 0.043017 -1.655117 0.065300 -1.466289 0.002813 -0.007845
    8 0.023734 -1.151169 0.063571 -0.601169 -0.019192 -0.002778
    9 -0.963866 -2.785151 -0.085346 -0.622106 0.244168 -0.153622
    10 0.028663 -1.405643 -0.021507 -1.095864 -0.030801 -0.036393
    11 0.021422 -0.946179 0.018600 -0.675874 -0.014489 -0.026443
    12 1.164473 -2.543945 -0.170328 -0.147245 -0.181323 0.292746
    13 0.023466 -1.146865 -0.008955 -1.223259 0.020205 0.060465
    14 0.014968 -0.896790 -0.020059 -0.762990 0.002039 0.038621
    15 -0.586772 -1.264479 0.200165 1.284044 -0.926573 -4.241515
    16 1.585696 0.038315 0.004581 -0.027409 -0.363465 1.215422
    17 1.117499 0.048465 -0.005883 -0.001615 -0.026521 0.124571
    18 0.227800 -0.068730 0.006584 -0.207404 0.065141 1.253439
    19 -2.995094 8.397753 -0.282405 1.581668 -0.010288 -1.364474
    20 9.384008 1.058818 -6.462570 0.850876 -1.898302 -0.576392
    21 -0.071919 -8.408890 -0.127579 -0.841860 0.706756 0.346504
    22 -0.488515 -2.755602 -0.228256 -0.667590 -0.067442 -0.114705
    23 0.039936 -1.529655 0.013207 -1.413023 -0.012729 0.031191
    24 0.032903 -1.294774 -0.102672 -2.046379 -0.004466 0.045624
    25 0.250031 -2.820658 -0.238394 -0.623289 -0.088938 -0.136107
    26 -0.049187 -1.608001 0.063729 -1.109531 0.007173 -0.030668
    27 -0.033792 -1.193996 0.042160 -1.652630 -0.001324 -0.042455
    28 0.957769 -2.746773 -0.090297 -0.505939 -0.090425 -0.188449
    29 -0.033296 -1.395737 -0.025013 -0.828551 -0.110179 0.092049
    30 -0.021896 -0.964392 -0.011118 -1.165134 -0.000724 -0.055752
    31 -1.180678 -2.507215 -0.193858 -0.404064 0.138943 -0.096783
    32 -0.024978 -1.129404 0.016886 -1.230912 -0.001217 -0.052001
    33 -0.020518 -0.907372 0.039943 -1.273645 -0.000279 -0.052017
    34 0.604733 -1.198765 0.179235 0.767390 -0.961737 -1.160431
    35 1.518348 -0.137151 0.049418 0.009659 -0.140828 -0.462384
    36 1.058105 -0.135432 0.032545 0.030563 -0.175294 -0.710101
    37 6.319847 -4.331572 -0.423249 -1.560496 -0.032876 -3.644597
    38 13.567955 -1.043863 -8.841895 -1.410396 -2.680670 0.761125
    39 22.247182 -3.184708 1.358406 0.000000 0.000000 0.001876
    40 17.898790 -9.115918 1.358410 0.000000 0.000000 0.001876
    41 22.247182 -3.184709 -1.358761 0.000000 0.000000 0.001876
    42 17.898790 -9.115918 -1.358759 0.000000 0.000000 0.001876
    43 37.119346 -7.210582 1.410832 0.000000 0.000000 -0.809618
    44 36.352279 -7.708090 -1.387376 0.000000 0.000000 -1.352253
    45 37.029021 -4.772455 1.410833 0.000000 0.000000 0.720646
    46 37.489873 -5.563181 1.406492 0.000000 0.000000 0.175418
    47 37.513021 -6.453676 1.410831 0.000000 0.000000 -0.182846
    48 35.312156 -7.908900 -1.387378 0.000000 0.000000 -1.459279
    49 36.352283 -7.708087 1.410833 0.000000 0.000000 -1.352253
    50 35.312156 -7.908898 1.410832 0.000000 0.000000 -1.459279
    51 34.243001 -8.004330 1.410831 0.000000 0.000000 -1.546731
    52 33.177981 -8.023877 1.410834 0.000000 0.000000 -1.548266
    53 34.243001 -8.004330 -1.387373 0.000000 0.000000 -1.546731
    54 33.177985 -8.023881 -1.387375 0.000000 0.000000 -1.548266
    55 37.029021 -4.772457 -1.387377 0.000000 0.000000 0.720646
    56 37.489869 -5.563179 -1.391716 0.000000 0.000000 0.175418
    57 37.513013 -6.453678 -1.387377 0.000000 0.000000 -0.182846
    58 37.119338 -7.210582 -1.387377 0.000000 0.000000 -0.809618
  time 4
    0 2.718833 5.777520 -4.679830 0.293503 0.000000 -0.000066
    1 1.508114 -4.251899 -3.664002 1.073210 -3.420984 0.871629
    2 0.170097 -8.427896 -0.172028 0.614848 0.492375 0.464672
    3 0.447952 -2.798988 -0.200443 -0.321743 0.068729 0.140593
    4 -0.033095 -1.502111 0.026411 -1.323710 0.023143 -0.024565
    5 -0.027702 -1.121669 -0.030389 -1.045532 0.022696 -0.017229
    6 -0.249534 -2.846973 -0.174215 -0.313080 0.170620 -0.002659
    7 0.043017 -1.655117 0.065300 -1.503474 0.001951 -0.007510
    8 0.023734 -1.151169 0.063571 -0.642491 -0.019684 -0.002802
    9 -0.963866 -2.785151 -0.085346 -0.683117 0.242203 -0.155588
    10 0.028663 -1.405643 -0.021507 -1.095864 -0.030801 -0.036393
    11 0.021422 -0.946179 0.014694 -0.737965 -0.016646 -0.028253
    12 1.164473 -2.543945 -0.170328 -0.181580 -0.176251 0.273175
    13 0.023466 -1.146865 -0.008955 -1.223259 0.020205 0.060465
    14 0.014968 -0.896790 -0.020059 -0.762990 0.002039 0.038621
    15 -0.586772 -1.264479 0.200165 1.410997 -1.012004 -4.381621
    16 1.589602 0.038315 0.004581 -0.049193 -0.360405 1.282268
    17 1.117499 0.048465 -0.005883 -0.002562 -0.023956 0.111514
    18 0.223893 -0.068730 0.006584 -0.205575 0.064781 1.254661
    19 0.340945 8.948551 -0.196465 4.720295 -3.141824 1.363109
    20 8.395697 1.367421 -6.400068 0.833946 -1.871012 -0.424637
    21 -0.068013 -8.401077 -0.127579 -0.882337 0.730433 0.293744
    22 -0.488515 -2.755602 -0.228256 -0.667590 -0.067442 -0.114705
    23 0.039936 -1.529655 0.013207 -1.413023 -0.012729 0.031191
    24 0.032903 -1.294774 -0.102672 -2.046379 -0.004466 0.045624
    25 0.250031 -2.820658 -0.238394 -0.623289 -0.088938 -0.136107
    26 -0.049187 -1.608001 0.063729 -1.109531 0.007173 -0.030668
    27 -0.033792 -1.193996 0.042160 -1.652630 -0.001324 -0.042455
    28 0.957769 -2.746773 -0.090297 -0.505939 -0.090425 -0.188449
    29 -0.033296 -1.395737 -0.025013 -0.828551 -0.110179 0.092049
    30 -0.021896 -0.964392 -0.011118 -1.165134 -0.000724 -0.055752
    31 -1.180678 -2.507215 -0.193858 -0.404064 0.138943 -0.096783
    32 -0.024978 -1.129404 0.016886 -1.230912 -0.001217 -0.052001
    33 -0.020518 -0.907372 0.039943 -1.273645 -0.000279 -0.052017
    34 0.604733 -1.198765 0.179235 0.767390 -0.961737 -1.160431
    35 1.518348 -0.137151 0.049418 0.009659 -0.140828 -0.462384
    36 1.058105 -0.135432 0.032545 0.030563 -0.175294 -0.710101
    37 6.151874 -4.538609 -0.423249 -1.559825 -0.033068 -3.677279
    38 13.489828 1.409337 -9.877083 -1.499010 -2.769433 0.908543
    39 19.969769 -3.188614 1.358406 0.000000 0.000000 0.001876
    40 19.980885 -9.112012 1.358410 0.000000 0.000000 0.001876
    41 19.969769 -3.188615 -1.358761 0.000000 0.000000 0.001876
    42 19.980885 -9.112012 -1.358759 0.000000 0.000000 0.001876
    43 37.513889 -5.706630 1.410832 0.000000 0.000000 0.250193
    44 37.508564 -6.442426 -1.387376 0.000000 0.000000 -0.219907
    45 35.189121 -4.252908 1.410833 0.000000 0.000000 1.489751
    46 36.333588 -4.422521 1.406492 0.000000 0.000000 1.297920
    47 37.098946 -4.867690 1.410831 0.000000 0.000000 0.717059
    48 37.097366 -7.233098 -1.387378 0.000000 0.000000 -0.735074
    49 37.508568 -6.442424 1.410833 0.000000 0.000000 -0.219907
    50 37.097366 -7.233096 1.410832 0.000000 0.000000 -0.735074
    51 36.172747 -7.672289 1.176449 0.000000 0.000000 -1.329474
    52 35.217106 -7.894967 1.410834 0.000000 0.000000 -1.474549
    53 36.336815 -7.703540 -1.387373 0.000000 0.000000 -1.329474
    54 35.217110 -7.894971 -1.387375 0.000000 0.000000 -1.474549
    55 35.189121 -4.252910 -1.387377 0.000000 0.000000 1.489751
    56 36.333584 -4.422519 -1.391716 0.000000 0.000000 1.297920
    57 37.098938 -4.867692 -1.387377 0.000000 0.000000 0.717059
    58 37.513882 -5.706630 -1.387377 0.000000 0.000000 0.250193
  time 5
    0 2.539140 6.445509 -4.984527 0.327563 0.000000 -0.000066
    1 1.804998 -4.751914 -3.835883 0.977863 -3.374053 0.785030
    2 0.158378 -8.412270 -0.140777 0.486758 0.379475 0.465365
    3 0.447952 -2.798988 -0.200443 -0.428219 0.068980 0.114383
    4 -0.033095 -1.502111 0.026411 -1.374198 0.023287 -0.026003
    5 -0.027702 -1.121669 -0.030389 -1.102705 0.023283 -0.018751
    6 -0.249534 -2.846973 -0.174215 -0.418225 0.168666 -0.002503
    7 0.043017 -1.655117 0.065300 -1.568279 0.000417 -0.006791
    8 0.023734 -1.147263 0.063571 -0.714416 -0.020499 -0.002706
    9 -0.963866 -2.785151 -0.085346 -0.788964 0.238535 -0.158692
    10 0.028663 -1.405643 -0.021507 -1.095864 -0.030801 -0.036393
    11 0.021422 -0.942272 0.014694 -0.846086 -0.020649 -0.031069
    12 1.164473 -2.543945 -0.170328 -0.241174 -0.169063 0.238743
    13 0.023466 -1.146865 -0.008955 -1.223259 0.020205 0.060465
    14 0.014968 -0.896790 -0.020059 -0.762990 0.002039 0.038621
    15 -0.586772 -1.264479 0.200165 1.561977 -1.153567 -4.540011
    16 1.593508 0.038315 0.004581 -0.051832 -0.355137 1.308759
    17 1.121405 0.048465 -0.005883 -0.004767 -0.018359 0.082775
    18 0.219987 -0.068730 0.006584 -0.200224 0.063739 1.258195
    19 0.340945 8.948551 -0.196465 4.720295 -3.141824 1.363109
    20 8.126157 1.801028 -6.888364 0.896979 -1.926887 -0.427405
    21 -0.052387 -8.389358 -0.123673 -0.833353 0.711659 0.171831
    22 -0.488515 -2.755602 -0.228256 -0.667590 -0.067442 -0.114705
    23 0.039936 -1.529655 0.013207 -1.413023 -0.012729 0.031191
    24 0.032903 -1.294774 -0.102672 -2.046379 -0.004466 0.045624
    25 0.250031 -2.820658 -0.238394 -0.623289 -0.088938 -0.136107
    26 -0.049187 -1.608001 0.063729 -1.109531 0.007173 -0.030668
    27 -0.033792 -1.193996 0.042160 -1.652630 -0.001324 -0.042455
    28 0.957769 -2.746773 -0.090297 -0.505939 -0.090425 -0.188449
    29 -0.033296 -1.395737 -0.025013 -0.828551 -0.110179 0.092049
    30 -0.021896 -0.964392 -0.011118 -1.165134 -0.000724 -0.055752
    31 -1.180678 -2.507215 -0.193858 -0.404064 0.138943 -0.096783
    32 -0.024978 -1.129404 0.016886 -1.230912 -0.001217 -0.052001
    33 -0.020518 -0.907372 0.039943 -1.273645 -0.000279 -0.052017
    34 0.604733 -1.198765 0.179235 0.767390 -0.961737 -1.160431
    35 1.518348 -0.137151 0.049418 0.009659 -0.140828 -0.462384
    36 1.058105 -0.135432 0.032545 0.030563 -0.175294 -0.710101
    37 5.819832 -4.901901 -0.423249 -1.558579 -0.033356 -3.737607
    38 13.337479 2.776566 -10.127090 -1.555854 -2.878805 1.056278
    39 20.559630 -3.188614 1.358406 0.000000 0.000000 0.001876
    40 19.441806 -9.112012 1.358410 0.000000 0.000000 0.001876
    41 20.559630 -3.188615 -1.358761 0.000000 0.000000 0.001876
    42 19.441806 -9.112012 -1.358759 0.000000 0.000000 0.001876
    43 37.412324 -6.093361 1.410832 0.000000 0.000000 -0.024560
    44 37.211680 -6.770561 -1.387376 0.000000 0.000000 -0.513464
    45 35.665698 -4.385725 1.410833 0.000000 0.000000 1.290363
    46 36.630472 -4.715499 1.406492 0.000000 0.000000 1.006915
    47 37.204418 -5.277859 1.410831 0.000000 0.000000 0.483754
    48 36.636415 -7.404978 -1.387378 0.000000 0.000000 -0.922822
    49 37.211684 -6.770559 1.410833 0.000000 0.000000 -0.513464
    50 36.636415 -7.404976 1.410832 0.000000 0.000000 -0.922822
    51 35.797736 -7.781667 1.410831 0.000000 0.000000 -1.385790
    52 34.689746 -7.926218 1.410834 0.000000 0.000000 -1.493652
    53 35.797736 -7.781667 -1.387373 0.000000 0.000000 -1.385790
    54 34.689750 -7.926222 -1.387375 0.000000 0.000000 -1.493652
    55 35.665698 -4.385727 -1.387377 0.000000 0.000000 1.290363
    56 36.630468 -4.715497 -1.391716 0.000000 0.000000 1.006915
    57 37.204410 -5.277861 -1.387377 0.000000 0.000000 0.483754
    58 37.412316 -6.093361 -1.387377 0.000000 0.000000 -0.024560
  time 6
    0 2.214911 6.445509 -4.879055 0.327563 0.000000 0.006476
    1 2.066724 -5.216772 -3.890572 0.908668 -3.305038 0.714716
    2 0.142752 -8.392738 -0.117339 0.329986 0.290642 0.475068
    3 0.447952 -2.798988 -0.200443 -0.558680 0.065529 0.082504
    4 -0.033095 -1.502111 0.030317 -1.435919 0.023359 -0.027753
    5 -0.027702 -1.125575 -0.026483 -1.172620 0.023882 -0.020657
    6 -0.249534 -2.846973 -0.174215 -0.547082 0.166317 -0.002024
    7 0.043017 -1.655117 0.061394 -1.647520 -0.001429 -0.005724
    8 0.023734 -1.147263 0.063571 -0.802336 -0.021446 -0.002467
    9 -0.963866 -2.785151 -0.085346 -0.918535 0.233622 -0.161916
    10 0.028663 -1.405643 -0.021507 -1.095864 -0.030801 -0.036393
    11 0.021422 -0.942272 0.010787 -0.978254 -0.025910 -0.033898
    12 1.164473 -2.543945 -0.170328 -0.314603 -0.163014 0.196222
    13 0.023466 -1.146865 -0.008955 -1.223259 0.020205 0.060465
    14 0.014968 -0.896790 -0.020059 -0.762990 0.002039 0.038621
    15 -0.586772 -1.264479 0.200165 1.826435 -1.318049 -4.808710
    16 1.593508 0.038315 0.004581 -0.043292 -0.350737 1.305248
    17 1.121405 0.048465 -0.005883 -0.007128 -0.012822 0.054036
    18 0.216081 -0.068730 0.006584 -0.191654 0.062073 1.263894
    19 0.340945 8.948551 -0.196465 4.720295 -3.141824 1.363109
    20 8.083187 2.469017 -6.943053 0.772443 -1.977579 -0.299893
    21 -0.032855 -8.389358 -0.111954 -0.723561 0.731788 0.136658
    22 -0.488515 -2.755602 -0.228256 -0.667590 -0.067442 -0.114705
    23 0.039936 -1.529655 0.013207 -1.413023 -0.012729 0.031191
    24 0.032903 -1.294774 -0.102672 -2.046379 -0.004466 0.045624
    25 0.250031 -2.820658 -0.238394 -0.623289 -0.088938 -0.136107
    26 -0.049187 -1.608001 0.063729 -1.109531 0.007173 -0.030668
    27 -0.033792 -1.193996 0.042160 -1.652630 -0.001324 -0.042455
    28 0.957769 -2.746773 -0.090297 -0.505939 -0.090425 -0.188449
    29 -0.033296 -1.395737 -0.025013 -0.828551 -0.110179 0.092049
    30 -0.021896 -0.964392 -0.011118 -1.165134 -0.000724 -0.055752
    31 -1.180678 -2.507215 -0.193858 -0.404064 0.138943 -0.096783
    32 -0.024978 -1.129404 0.016886 -1.230912 -0.001217 -0.052001
    33 -0.020518 -0.907372 0.039943 -1.273645 -0.000279 -0.052017
    34 0.604733 -1.198765 0.179235 0.767390 -0.961737 -1.160431
    35 1.518348 -0.137151 0.049418 0.009659 -0.140828 -0.462384
    36 1.058105 -0.135432 0.032545 0.030563 -0.175294 -0.710101
    37 5.276847 -5.421449 -0.423249 -1.556565 -0.033547 -3.830020
    38 12.919498 3.331271 -9.822394 1.552836 -0.190706 -1.965432
    39 21.657320 -3.188614 1.358406 0.000000 0.000000 0.001876
    40 18.437869 -9.112012 1.358410 0.000000 0.000000 0.001876
    41 21.657320 -3.188615 -1.358761 0.000000 0.000000 0.001876
    42 18.437869 -9.112012 -1.358759 0.000000 0.000000 0.001876
    43 37.220912 -6.819945 1.410832 0.000000 0.000000 -0.534833
    44 36.653069 -7.379955 -1.387376 0.000000 0.000000 -1.058661
    45 36.552444 -4.635732 1.410833 0.000000 0.000000 0.920058
    46 37.189083 -5.266297 1.406492 0.000000 0.000000 0.466457
    47 37.403642 -6.043507 1.410831 0.000000 0.000000 0.050459
    48 35.777014 -7.733113 -1.387378 0.000000 0.000000 -1.271509
    49 36.653073 -7.379952 1.410833 0.000000 0.000000 -1.058661
    50 35.777014 -7.733111 1.410832 0.000000 0.000000 -1.271509
    51 34.785986 -7.926203 1.410831 0.000000 0.000000 -1.490403
    52 33.705341 -7.988720 1.410834 0.000000 0.000000 -1.529151
    53 34.785986 -7.926203 -1.387373 0.000000 0.000000 -1.490403
    54 33.705345 -7.988724 -1.387375 0.000000 0.000000 -1.529151
    55 36.552444 -4.635734 -1.387377 0.000000 0.000000 0.920058
    56 37.189079 -5.266295 -1.391716 0.000000 0.000000 0.466457
    57 37.403635 -6.043509 -1.387377 0.000000 0.000000 0.050459
    58 37.220904 -6.819945 -1.387377 0.000000 0.000000 -0.534833
  time 7
    0 1.718802 6.445509 -4.597797 0.327563 0.000000 0.023945
    1 2.137039 -5.482406 -3.714785 0.899556 -3.235043 0.656281
    2 0.127127 -8.369300 -0.117339 0.170942 0.280578 0.491376
    3 0.447952 -2.798988 -0.200443 -0.691883 0.057847 0.050853
    4 -0.033095 -1.502111 0.030317 -1.498640 0.023323 -0.029539
    5 -0.027702 -1.129482 -0.026483 -1.243655 0.024350 -0.022622
    6 -0.249534 -2.846973 -0.174215 -0.678850 0.163981 -0.001233
    7 0.043017 -1.655117 0.057488 -1.728102 -0.003263 -0.004394
    8 0.023734 -1.147263 0.063571 -0.891640 -0.022344 -0.002035
    9 -0.963866 -2.785151 -0.085346 -1.050914 0.228228 -0.164516
    10 0.028663 -1.405643 -0.021507 -1.095864 -0.030801 -0.036393
    11 0.021422 -0.942272 0.010787 -1.112575 -0.031591 -0.036043
    12 1.164473 -2.543945 -0.170328 -0.390244 -0.159995 0.152754
    13 0.023466 -1.146865 -0.008955 -1.223259 0.020205 0.060465
    14 0.014968 -0.896790 -0.020059 -0.762990 0.002039 0.038621
    15 -0.586772 -1.264479 0.200165 2.598056 -1.446426 -5.584395
    16 1.589602 0.038315 0.004581 -0.031399 -0.349180 1.281836
    17 1.121405 0.048465 -0.005883 -0.008255 -0.010329 0.040979
    18 0.204361 -0.068730 0.006584 -0.180104 0.059832 1.271548
    19 0.340945 8.948551 -0.196465 4.720295 -3.141824 1.363109
    20 8.325382 3.726868 -4.997681 0.095723 -2.008409 0.236595
    21 -0.017230 -8.444047 -0.084609 -0.407926 0.801208 0.477273
    22 -0.488515 -2.755602 -0.228256 -0.667590 -0.067442 -0.114705
    23 0.039936 -1.529655 0.013207 -1.413023 -0.012729 0.031191
    24 0.032903 -1.294774 -0.102672 -2.046379 -0.004466 0.045624
    25 0.250031 -2.820658 -0.238394 -0.623289 -0.088938 -0.136107
    26 -0.049187 -1.608001 0.063729 -1.109531 0.007173 -0.030668
    27 -0.033792 -1.193996 0.042160 -1.652630 -0.001324 -0.042455
    28 0.957769 -2.746773 -0.090297 -0.505939 -0.090425 -0.188449
    29 -0.033296 -1.395737 -0.025013 -0.828551 -0.110179 0.092049
    30 -0.021896 -0.964392 -0.011118 -1.165134 -0.000724 -0.055752
    31 -1.180678 -2.507215 -0.193858 -0.404064 0.138943 -0.096783
    32 -0.024978 -1.129404 0.016886 -1.230912 -0.001217 -0.052001
    33 -0.020518 -0.907372 0.039943 -1.273645 -0.000279 -0.052017
    34 0.604733 -1.198765 0.179235 0.767390 -0.961737 -1.160431
    35 1.518348 -0.137151 0.049418 0.009659 -0.140828 -0.462384
    36 1.058105 -0.135432 0.032545 0.030563 -0.175294 -0.710101
    37 4.280723 -6.163659 -0.419343 -1.553306 -0.033547 -3.982761
    38 12.032752 3.991447 -9.349723 1.506423 -0.158786 -1.897472
    39 22.247182 -3.184708 1.358406 0.000000 0.000000 0.001876
    40 17.898790 -9.115918 1.358410 0.000000 0.000000 0.001876
    41 22.247182 -3.184709 -1.358761 0.000000 0.000000 0.001876
    42 17.898790 -9.115918 -1.358759 0.000000 0.000000 0.001876
    43 37.119346 -7.210582 1.410832 0.000000 0.000000 -0.809618
    44 36.352279 -7.708090 -1.387376 0.000000 0.000000 -1.352253
    45 37.029021 -4.772455 1.410833 0.000000 0.000000 0.720646
    46 37.489873 -5.563181 1.406492 0.000000 0.000000 0.175418
    47 37.513021 -6.453676 1.410831 0.000000 0.000000 -0.182846
    48 35.312156 -7.908900 -1.387378 0.000000 0.000000 -1.459279
    49 36.352283 -7.708087 1.410833 0.000000 0.000000 -1.352253
    50 35.312156 -7.908898 1.410832 0.000000 0.000000 -1.459279
    51 34.243001 -8.004330 1.410831 0.000000 0.000000 -1.546731
    52 33.177981 -8.023877 1.410834 0.000000 0.000000 -1.548266
    53 34.243001 -8.004330 -1.387373 0.000000 0.000000 -1.546731
    54 33.177985 -8.023881 -1.387375 0.000000 0.000000 -1.548266
    55 37.029021 -4.772457 -1.387377 0.000000 0.000000 0.720646
    56 37.489869 -5.563179 -1.391716 0.000000 0.000000 0.175418
    57 37.513013 -6.453678 -1.387377 0.000000 0.000000 -0.182846
    58 37.119338 -7.210582 -1.387377 0.000000 0.000000 -0.809618
  time 8
    0 1.113315 6.445509 -4.195441 0.327563 0.000000 0.049036
    1 2.070631 -5.619128 -3.492122 0.916077 -3.186688 0.601773
    2 0.119314 -8.349768 -0.132965 0.035106 0.310705 0.494515
    3 0.447952 -2.798988 -0.200443 -0.806776 0.048079 0.024834
    4 -0.033095 -1.502111 0.030317 -1.552086 0.023191 -0.031061
    5 -0.027702 -1.129482 -0.022576 -1.304236 0.024637 -0.024324
    6 -0.249534 -2.846973 -0.174215 -0.792726 0.162075 -0.000298
    7 0.043017 -1.655117 0.057488 -1.796796 -0.004797 -0.003004
    8 0.023734 -1.143356 0.059665 -0.967735 -0.022992 -0.001472
    9 -0.963866 -2.785151 -0.085346 -1.165218 0.223339 -0.166158
    10 0.028663 -1.405643 -0.021507 -1.095864 -0.030801 -0.036393
    11 0.021422 -0.938366 0.006881 -1.227097 -0.036624 -0.037254
    12 1.164473 -2.543945 -0.170328 -0.456382 -0.159958 0.115733
    13 0.023466 -1.146865 -0.008955 -1.223259 0.020205 0.060465
    14 0.014968 -0.896790 -0.020059 -0.762990 0.002039 0.038621
    15 -0.586772 -1.264479 0.200165 -2.481526 -1.420547 -0.511632
    16 1.589602 0.038315 0.004581 -0.023687 -0.352530 1.248598
    17 1.121405 0.048465 -0.005883 -0.006685 -0.013829 0.059252
    18 0.196549 -0.072636 0.006584 -0.165879 0.057063 1.280994
    19 0.340945 8.948551 -0.196465 4.720295 -3.141824 1.363109
    20 8.844929 4.086254 -2.005402 5.664151 -2.148224 0.738340
    21 -0.001604 -8.514362 -0.072890 -0.065743 0.713014 0.958770
    22 -0.488515 -2.755602 -0.228256 -0.667590 -0.067442 -0.114705
    23 0.039936 -1.529655 0.013207 -1.413023 -0.012729 0.031191
    24 0.032903 -1.294774 -0.102672 -2.046379 -0.004466 0.045624
    25 0.250031 -2.820658 -0.238394 -0.623289 -0.088938 -0.136107
    26 -0.049187 -1.608001 0.063729 -1.109531 0.007173 -0.030668
    27 -0.033792 -1.193996 0.042160 -1.652630 -0.001324 -0.042455
    28 0.957769 -2.746773 -0.090297 -0.505939 -0.090425 -0.188449
    29 -0.033296 -1.395737 -0.025013 -0.828551 -0.110179 0.092049
    30 -0.021896 -0.964392 -0.011118 -1.165134 -0.000724 -0.055752
    31 -1.180678 -2.507215 -0.193858 -0.404064 0.138943 -0.096783
    32 -0.024978 -1.129404 0.016886 -1.230912 -0.001217 -0.052001
    33 -0.020518 -0.907372 0.039943 -1.273645 -0.000279 -0.052017
    34 0.604733 -1.198765 0.179235 0.767390 -0.961737 -1.160431
    35 1.518348 -0.137151 0.049418 0.009659 -0.140828 -0.462384
    36 1.058105 -0.135432 0.032545 0.030563 -0.175294 -0.710101
    37 3.265067 -6.706644 -0.411530 -1.550335 -0.033068 -4.124409
    38 10.938968 4.596934 -8.826269 1.460585 -0.147091 -1.860122
    39 19.969769 -3.188614 1.358406 0.000000 0.000000 0.001876
    40 19.980885 -9.112012 1.358410 0.000000 0.000000 0.001876
    41 19.969769 -3.188615 -1.358761 0.000000 0.000000 0.001876
    42 19.980885 -9.112012 -1.358759 0.000000 0.000000 0.001876
    43 37.513889 -5.706630 1.410832 0.000000 0.000000 0.250193
    44 37.508564 -6.442426 -1.387376 0.000000 0.000000 -0.219907
    45 35.189121 -4.252908 1.410833 0.000000 0.000000 1.489751
    46 36.333588 -4.422521 1.406492 0.000000 0.000000 1.297920
    47 37.098946 -4.867690 1.410831 0.000000 0.000000 0.717059
    48 37.097366 -7.233098 -1.387378 0.000000 0.000000 -0.735074
    49 37.508568 -6.442424 1.410833 0.000000 0.000000 -0.219907
    50 37.097366 -7.233096 1.410832 0.000000 0.000000 -0.735074
    51 36.336815 -7.703540 1.410831 0.000000 0.000000 -1.329474
    52 35.217106 -7.894967 1.410834 0.000000 0.000000 -1.474549
    53 36.336815 -7.703540 -1.387373 0.000000 0.000000 -1.329474
    54 35.217110 -7.894971 -1.387375 0.000000 0.000000 -1.474549
    55 35.189121 -4.252910 -1.387377 0.000000 0.000000 1.489751
    56 36.333584 -4.422519 -1.391716 0.000000 0.000000 1.297920
    57 37.098938 -4.867692 -1.387377 0.000000 0.000000 0.717059
    58 37.513882 -5.706630 -1.387377 0.000000 0.000000 0.250193
  time 9
    0 0.457045 6.445509 -3.722770 0.327563 0.000000 0.078578
    1 2.019848 -5.599597 -3.390557 0.931709 -3.153294 0.559623
    2 0.115408 -8.341956 -0.144684 -0.062924 0.345410 0.480735
    3 0.447952 -2.798988 -0.200443 -0.882497 0.040397 0.008894
    4 -0.033095 -1.498205 0.034224 -1.586064 0.023071 -0.032020
    5 -0.027702 -1.133388 -0.022576 -1.342717 0.024769 -0.025414
    6 -0.249534 -2.846973 -0.174215 -0.867960 0.160865 0.000445
    7 0.043017 -1.655117 0.053581 -1.840596 -0.005839 -0.001841
    8 0.023734 -1.143356 0.059665 -1.015994 -0.023207 -0.000897
    9 -0.963866 -2.785151 -0.085346 -1.240673 0.220007 -0.166913
    10 0.028663 -1.405643 -0.021507 -1.095864 -0.030801 -0.036393
    11 0.021422 -0.938366 0.006881 -1.299865 -0.039884 -0.037721
    12 1.164473 -2.543945 -0.170328 -0.501318 -0.161158 0.092387
    13 0.023466 -1.146865 -0.008955 -1.223259 0.020205 0.060465
    14 0.014968 -0.896790 -0.020059 -0.762990 0.002039 0.038621
    15 -0.586772 -1.264479 0.200165 -2.037515 -1.354517 -0.967814
    16 1.585696 0.038315 0.004581 -0.027409 -0.363465 1.215422
    17 1.117499 0.048465 -0.005883 -0.001615 -0.026521 0.124571
    18 0.184830 -0.072636 0.006584 -0.149214 0.053827 1.292051
    19 0.340945 8.948551 -0.196465 4.720295 -3.141824 1.363109
    20 9.294162 3.445610 0.260292 5.292457 -2.334672 0.940680
    21 0.021834 -8.569051 -0.072890 0.102988 0.575142 1.273948
    22 -0.488515 -2.755602 -0.228256 -0.667590 -0.067442 -0.114705
    23 0.039936 -1.529655 0.013207 -1.413023 -0.012729 0.031191
    24 0.032903 -1.294774 -0.102672 -2.046379 -0.004466 0.045624
    25 0.250031 -2.820658 -0.238394 -0.623289 -0.088938 -0.136107
    26 -0.049187 -1.608001 0.063729 -1.109531 0.007173 -0.030668
    27 -0.033792 -1.193996 0.042160 -1.652630 -0.001324 -0.042455
    28 0.957769 -2.746773 -0.090297 -0.505939 -0.090425 -0.188449
    29 -0.033296 -1.395737 -0.025013 -0.828551 -0.110179 0.092049
    30 -0.021896 -0.964392 -0.011118 -1.165134 -0.000724 -0.055752
    31 -1.180678 -2.507215 -0.193858 -0.404064 0.138943 -0.096783
    32 -0.024978 -1.129404 0.016886 -1.230912 -0.001217 -0.052001
    33 -0.020518 -0.907372 0.039943 -1.273645 -0.000279 -0.052017
    34 0.604733 -1.198765 0.179235 0.767390 -0.961737 -1.160431
    35 1.518348 -0.137151 0.049418 0.009659 -0.140828 -0.462384
    36 1.058105 -0.135432 0.032545 0.030563 -0.175294 -0.710101
    37 2.597078 -6.972277 -0.403718 -1.548513 -0.032589 -4.212725
    38 9.931125 5.112575 -8.212969 1.423072 -0.143161 -1.822534
    39 20.559630 -3.188614 1.358406 0.000000 0.000000 0.001876
    40 19.441806 -9.112012 1.358410 0.000000 0.000000 0.001876
    41 20.559630 -3.188615 -1.358761 0.000000 0.000000 0.001876
    42 19.441806 -9.112012 -1.358759 0.000000 0.000000 0.001876
    43 37.412324 -6.093361 1.410832 0.000000 0.000000 -0.024560
    44 37.211680 -6.770561 -1.387376 0.000000 0.000000 -0.513464
    45 35.665698 -4.385725 1.410833 0.000000 0.000000 1.290363
    46 36.630472 -4.715499 1.406492 0.000000 0.000000 1.006915
    47 37.204418 -5.277859 1.410831 0.000000 0.000000 0.483754
    48 36.636415 -7.404978 -1.387378 0.000000 0.000000 -0.922822
    49 37.211684 -6.770559 1.410833 0.000000 0.000000 -0.513464
    50 36.636415 -7.404976 1.410832 0.000000 0.000000 -0.922822
    51 35.797736 -7.781667 1.410831 0.000000 0.000000 -1.385790
    52 34.689746 -7.926218 1.410834 0.000000 0.000000 -1.493652
    53 35.797736 -7.781667 -1.387373 0.000000 0.000000 -1.385790
    54 34.689750 -7.926222 -1.387375 0.000000 0.000000 -1.493652
    55 35.665698 -4.385727 -1.387377 0.000000 0.000000 1.290363
    56 36.630468 -4.715497 -1.391716 0.000000 0.000000 1.006915
    57 37.204410 -5.277861 -1.387377 0.000000 0.000000 0.483754
    58 37.412316 -6.093361 -1.387377 0.000000 0.000000 -0.024560
  time 10
    0 -0.195318 6.445509 -3.230567 0.327563 0.000000 0.109200
    1 1.953440 -5.388653 -3.386650 0.954008 -3.134059 0.529064
    2 0.115408 -8.338049 -0.164216 -0.143600 0.395733 0.448608
    3 0.447952 -2.798988 -0.200443 -0.922908 0.036430 0.001512
    4 -0.033095 -1.498205 0.034224 -1.602014 0.023011 -0.032475
    5 -0.027702 -1.133388 -0.022576 -1.360756 0.024817 -0.025918
    6 -0.249534 -2.846973 -0.174215 -0.908191 0.160253 0.000877
    7 0.043017 -1.655117 0.053581 -1.861244 -0.006487 -0.000942
    8 0.023734 -1.143356 0.059665 -1.038504 -0.023052 -0.000345
    9 -0.963866 -2.785151 -0.085346 -1.280997 0.218221 -0.167225
    10 0.028663 -1.405643 -0.021507 -1.095864 -0.030801 -0.036393
    11 0.021422 -0.938366 0.006881 -1.333991 -0.041430 -0.037853
    12 1.164473 -2.543945 -0.170328 -0.527371 -0.162036 0.081733
    13 0.023466 -1.146865 -0.008955 -1.223259 0.020205 0.060465
    14 0.014968 -0.896790 -0.020059 -0.762990 0.002039 0.038621
    15 -0.586772 -1.264479 0.200165 -1.715587 -1.322850 -1.308500
    16 1.585696 0.038315 0.004581 -0.042438 -0.384177 1.176854
    17 1.117499 0.048465 -0.005883 0.005588 -0.051017 0.246526
    18 0.169204 -0.076543 0.006584 -0.130416 0.050160 1.304542
    19 0.340945 8.948551 -0.196465 4.720295 -3.141824 1.363109
    20 9.630109 1.847905 2.467390 5.023490 -2.603939 1.015412
    21 0.064804 -8.619834 -0.088516 0.218435 0.404754 1.600745
    22 -0.488515 -2.755602 -0.228256 -0.667590 -0.067442 -0.114705
    23 0.039936 -1.529655 0.013207 -1.413023 -0.012729 0.031191
    24 0.032903 -1.294774 -0.102672 -2.046379 -0.004466 0.045624
    25 0.250031 -2.820658 -0.238394 -0.623289 -0.088938 -0.136107
    26 -0.049187 -1.608001 0.063729 -1.109531 0.007173 -0.030668
    27 -0.033792 -1.193996 0.042160 -1.652630 -0.001324 -0.042455
    28 0.957769 -2.746773 -0.090297 -0.505939 -0.090425 -0.188449
    29 -0.033296 -1.395737 -0.025013 -0.828551 -0.110179 0.092049
    30 -0.021896 -0.964392 -0.011118 -1.165134 -0.000724 -0.055752
    31 -1.180678 -2.507215 -0.193858 -0.404064 0.138943 -0.096783
    32 -0.024978 -1.129404 0.016886 -1.230912 -0.001217 -0.052001
    33 -0.020518 -0.907372 0.039943 -1.273645 -0.000279 -0.052017
    34 0.604733 -1.198765 0.179235 0.767390 -0.961737 -1.160431
    35 1.518348 -0.137151 0.049418 0.009659 -0.140828 -0.462384
    36 1.058105 -0.135432 0.032545 0.030563 -0.175294 -0.710101
    37 1.901744 -7.179315 -0.395905 -1.546692 -0.031918 -4.301725
    38 8.935001 5.624309 -7.462947 1.382018 -0.143161 -1.787087
    39 21.657320 -3.188614 1.358406 0.000000 0.000000 0.001876
    40 18.437869 -9.112012 1.358410 0.000000 0.000000 0.001876
    41 21.657320 -3.188615 -1.358761 0.000000 0.000000 0.001876
    42 18.437869 -9.112012 -1.358759 0.000000 0.000000 0.001876
    43 37.220912 -6.819945 1.410832 0.000000 0.000000 -0.534833
    44 36.653069 -7.379955 -1.387376 0.000000 0.000000 -1.058661
    45 36.552444 -4.635732 1.410833 0.000000 0.000000 0.920058
    46 37.189083 -5.266297 1.406492 0.000000 0.000000 0.466457
    47 37.403642 -6.043507 1.410831 0.000000 0.000000 0.050459
    48 35.777014 -7.733113 -1.387378 0.000000 0.000000 -1.271509
    49 36.653073 -7.379952 1.410833 0.000000 0.000000 -1.058661
    50 35.777014 -7.733111 1.410832 0.000000 0.000000 -1.271509
    51 34.785986 -7.926203 1.410831 0.000000 0.000000 -1.490403
    52 33.705341 -7.988720 1.410834 0.000000 0.000000 -1.529151
    53 34.785986 -7.926203 -1.387373 0.000000 0.000000 -1.490403
    54 33.705345 -7.988724 -1.387375 0.000000 0.000000 -1.529151
    55 36.552444 -4.635734 -1.387377 0.000000 0.000000 0.920058
    56 37.189079 -5.266295 -1.391716 0.000000 0.000000 0.466457
    57 37.403635 -6.043509 -1.387377 0.000000 0.000000 0.050459
    58 37.220904 -6.819945 -1.387377 0.000000 0.000000 -0.534833
  time 11
    0 -0.785180 6.445509 -2.773522 0.327563 0.000000 0.137730
    1 1.871406 -5.095675 -3.445246 0.974011 -3.129072 0.505977
    2 0.119314 -8.341956 -0.183747 -0.215805 0.448414 0.402946
    3 0.447952 -2.798988 -0.200443 -0.947799 0.034513 -0.002024
    4 -0.033095 -1.498205 0.034224 -1.609490 0.022975 -0.032679
    5 -0.027702 -1.133388 -0.022576 -1.369227 0.024841 -0.026157
    6 -0.249534 -2.846973 -0.174215 -0.933009 0.159882 0.001152
    7 0.043017 -1.659023 0.053581 -1.871076 -0.006966 -0.000151
    8 0.027641 -1.143356 0.059665 -1.048944 -0.022680 0.000206
    9 -0.963866 -2.785151 -0.085346 -1.305884 0.217107 -0.167369
    10 0.028663 -1.405643 -0.021507 -1.095864 -0.030801 -0.036393
    11 0.021422 -0.938366 0.006881 -1.350022 -0.042149 -0.037901
    12 1.164473 -2.543945 -0.170328 -0.545583 -0.162519 0.077071
    13 0.023466 -1.146865 -0.008955 -1.223259 0.020205 0.060465
    14 0.014968 -0.896790 -0.020059 -0.762990 0.002039 0.038621
    15 -0.586772 -1.264479 0.200165 -1.350313 -1.284574 -1.697002
    16 1.581789 0.038315 0.000674 -0.061800 -0.413398 1.124055
    17 1.117499 0.048465 -0.005883 0.010537 -0.085605 0.413474
    18 0.153579 -0.076543 0.006584 -0.109704 0.046133 1.318270
    19 0.340945 8.948551 -0.196465 4.720295 -3.141824 1.363109
    20 10.024653 -0.046684 3.752586 4.815070 -2.830026 0.978189
    21 0.111680 -8.651085 -0.111954 0.274897 0.210559 1.842750
    22 -0.488515 -2.755602 -0.228256 -0.667590 -0.067442 -0.114705
    23 0.039936 -1.529655 0.013207 -1.413023 -0.012729 0.031191
    24 0.032903 -1.294774 -0.102672 -2.046379 -0.004466 0.045624
    25 0.250031 -2.820658 -0.238394 -0.623289 -0.088938 -0.136107
    26 -0.049187 -1.608001 0.063729 -1.109531 0.007173 -0.030668
    27 -0.033792 -1.193996 0.042160 -1.652630 -0.001324 -0.042455
    28 0.957769 -2.746773 -0.090297 -0.505939 -0.090425 -0.188449
    29 -0.033296 -1.395737 -0.025013 -0.828551 -0.110179 0.092049
    30 -0.021896 -0.964392 -0.011118 -1.165134 -0.000724 -0.055752
    31 -1.180678 -2.507215 -0.193858 -0.404064 0.138943 -0.096783
    32 -0.024978 -1.129404 0.016886 -1.230912 -0.001217 -0.052001
    33 -0.020518 -0.907372 0.039943 -1.273645 -0.000279 -0.052017
    34 0.604733 -1.198765 0.179235 0.767390 -0.961737 -1.160431
    35 1.518348 -0.137151 0.049418 0.009659 -0.140828 -0.462384
    36 1.058105 -0.135432 0.032545 0.030563 -0.175294 -0.710101
    37 1.569703 -7.253536 -0.391999 -1.545829 -0.031535 -4.343451
    38 7.993566 6.081354 -6.763706 1.342017 -0.144982 -1.755764
    39 22.247182 -3.184708 1.358406 0.000000 0.000000 0.001876
    40 17.898790 -9.115918 1.358410 0.000000 0.000000 0.001876
    41 22.247182 -3.184709 -1.358761 0.000000 0.000000 0.001876
    42 17.898790 -9.115918 -1.358759 0.000000 0.000000 0.001876
    43 37.119346 -7.210582 1.410832 0.000000 0.000000 -0.809618
    44 36.352279 -7.708090 -1.387376 0.000000 0.000000 -1.352253
    45 37.029021 -4.772455 1.410833 0.000000 0.000000 0.720646
    46 37.489873 -5.563181 1.406492 0.000000 0.000000 0.175418
    47 37.513021 -6.453676 1.410831 0.000000 0.000000 -0.182846
    48 35.312156 -7.908900 -1.387378 0.000000 0.000000 -1.459279
    49 36.352283 -7.708087 1.410833 0.000000 0.000000 -1.352253
    50 35.312156 -7.908898 1.410832 0.000000 0.000000 -1.459279
    51 34.243001 -8.004330 1.410831 0.000000 0.000000 -1.546731
    52 33.177981 -8.023877 1.410834 0.000000 0.000000 -1.548266
    53 34.243001 -8.004330 -1.387373 0.000000 0.000000 -1.546731
    54 33.177985 -8.023881 -1.387375 0.000000 0.000000 -1.548266
    55 37.029021 -4.772457 -1.387377 0.000000 0.000000 0.720646
    56 37.489869 -5.563179 -1.391716 0.000000 0.000000 0.175418
    57 37.513013 -6.453678 -1.387377 0.000000 0.000000 -0.182846
    58 37.119338 -7.210582 -1.387377 0.000000 0.000000 -0.809618
  time 12
    0 -1.253945 6.445509 -2.398511 0.327563 0.000000 0.160865
    1 1.773747 -4.790978 -3.566343 0.982605 -3.138956 0.488734
    2 0.123221 -8.345862 -0.199373 -0.271345 0.495304 0.350761
    3 0.447952 -2.798988 -0.200443 -0.960459 0.034321 -0.002695
    4 -0.033095 -1.498205 0.034224 -1.610449 0.022963 -0.032703
    5 -0.027702 -1.133388 -0.022576 -1.370347 0.024841 -0.026193
    6 -0.249534 -2.846973 -0.174215 -0.945620 0.159690 0.001296
    7 0.043017 -1.659023 0.053581 -1.872596 -0.007314 0.000556
    8 0.027641 -1.143356 0.059665 -1.050084 -0.022141 0.000721
    9 -0.963866 -2.785151 -0.085346 -1.318540 0.216532 -0.167429
    10 0.028663 -1.405643 -0.021507 -1.095864 -0.030801 -0.036393
    11 0.021422 -0.938366 0.006881 -1.352116 -0.042245 -0.037913
    12 1.164473 -2.543945 -0.170328 -0.557435 -0.162531 0.076987
    13 0.023466 -1.146865 -0.008955 -1.223259 0.020205 0.060465
    14 0.014968 -0.896790 -0.020059 -0.762990 0.002039 0.038621
    15 -0.586772 -1.264479 0.200165 -1.016290 -1.218544 -2.057202
    16 1.581789 0.038315 0.000674 -0.082589 -0.448757 1.062107
    17 1.117499 0.048465 -0.005883 0.008883 -0.126472 0.609565
    18 0.137953 -0.080449 0.006584 -0.087400 0.041795 1.333089
    19 0.340945 8.948551 -0.196465 4.720295 -3.141824 1.363109
    20 10.930930 -0.992026 3.893215 1.495936 -0.283308 -2.249610
    21 0.131212 -8.682336 -0.143205 0.301352 0.024623 1.883136
    22 -0.488515 -2.755602 -0.228256 -0.667590 -0.067442 -0.114705
    23 0.039936 -1.529655 0.013207 -1.413023 -0.012729 0.031191
    24 0.032903 -1.294774 -0.102672 -2.046379 -0.004466 0.045624
    25 0.250031 -2.820658 -0.238394 -0.623289 -0.088938 -0.136107
    26 -0.049187 -1.608001 0.063729 -1.109531 0.007173 -0.030668
    27 -0.033792 -1.193996 0.042160 -1.652630 -0.001324 -0.042455
    28 0.957769 -2.746773 -0.090297 -0.505939 -0.090425 -0.188449
    29 -0.033296 -1.395737 -0.025013 -0.828551 -0.110179 0.092049
    30 -0.021896 -0.964392 -0.011118 -1.165134 -0.000724 -0.055752
    31 -1.180678 -2.507215 -0.193858 -0.404064 0.138943 -0.096783
    32 -0.024978 -1.129404 0.016886 -1.230912 -0.001217 -0.052001
    33 -0.020518 -0.907372 0.039943 -1.273645 -0.000279 -0.052017
    34 0.604733 -1.198765 0.179235 0.767390 -0.961737 -1.160431
    35 1.518348 -0.137151 0.049418 0.009659 -0.140828 -0.462384
    36 1.058105 -0.135432 0.032545 0.030563 -0.175294 -0.710101
    37 2.007216 -7.151970 -0.399811 -1.546979 -0.032014 -4.288498
    38 7.153697 6.425115 -6.298849 1.307758 -0.146228 -1.731022
    39 19.969769 -3.188614 1.358406 0.000000 0.000000 0.001876
    40 19.980885 -9.112012 1.358410 0.000000 0.000000 0.001876
    41 19.969769 -3.188615 -1.358761 0.000000 0.000000 0.001876
    42 19.980885 -9.112012 -1.358759 0.000000 0.000000 0.001876
    43 37.513889 -5.706630 1.410832 0.000000 0.000000 0.250193
    44 37.508564 -6.442426 -1.387376 0.000000 0.000000 -0.219907
    45 35.189121 -4.252908 1.410833 0.000000 0.000000 1.489751
    46 36.333588 -4.422521 1.406492 0.000000 0.000000 1.297920
    47 37.098946 -4.867690 1.410831 0.000000 0.000000 0.717059
    48 37.097366 -7.233098 -1.387378 0.000000 0.000000 -0.735074
    49 37.508568 -6.442424 1.410833 0.000000 0.000000 -0.219907
    50 37.097366 -7.233096 1.410832 0.000000 0.000000 -0.735074
    51 36.336815 -7.703540 1.410831 0.000000 0.000000 -1.329474
    52 35.217106 -7.894967 1.410834 0.000000 0.000000 -1.474549
    53 36.336815 -7.703540 -1.387373 0.000000 0.000000 -1.329474
    54 35.217110 -7.894971 -1.387375 0.000000 0.000000 -1.474549
    55 35.189121 -4.252910 -1.387377 0.000000 0.000000 1.489751
    56 36.333584 -4.422519 -1.391716 0.000000 0.000000 1.297920
    57 37.098938 -4.867692 -1.387377 0.000000 0.000000 0.717059
    58 37.513882 -5.706630 -1.387377 0.000000 0.000000 0.250193
  time 13
    0 -1.539109 6.445509 -2.168035 0.327563 0.000000 0.175434
    1 1.664368 -4.556596 -3.746036 0.972159 -3.164069 0.473024
    2 0.131033 -8.353675 -0.207186 -0.301886 0.528797 0.299391
    3 0.447952 -2.798988 -0.200443 -0.964154 0.035388 -0.001364
    4 -0.033095 -1.498205 0.034224 -1.606891 0.022987 -0.032607
    5 -0.027702 -1.133388 -0.022576 -1.366287 0.024829 -0.026074
    6 -0.249534 -2.846973 -0.174215 -0.949311 0.159630 0.001344
    7 0.043017 -1.655117 0.053581 -1.868261 -0.007589 0.001203
    8 0.027641 -1.143356 0.059665 -1.044709 -0.021482 0.001225
    9 -0.963866 -2.785151 -0.085346 -1.322229 0.216364 -0.167453
    10 0.028663 -1.405643 -0.021507 -1.095864 -0.030801 -0.036393
    11 0.021422 -0.938366 0.006881 -1.344429 -0.041898 -0.037889
    12 1.164473 -2.543945 -0.170328 -0.564421 -0.162160 0.080079
    13 0.023466 -1.146865 -0.008955 -1.223259 0.020205 0.060465
    14 0.014968 -0.896790 -0.020059 -0.762990 0.002039 0.038621
    15 -0.586772 -1.264479 0.200165 -0.768959 -1.124646 -2.331790
    16 1.577883 0.038315 0.000674 -0.102334 -0.487519 0.996001
    17 1.117499 0.048465 -0.005883 -0.001675 -0.168634 0.819251
    18 0.118421 -0.080449 0.006584 -0.063741 0.037193 1.348788
    19 0.340945 8.948551 -0.196465 4.720295 -3.141824 1.363109
    20 12.095028 -1.097498 3.174443 1.366618 -0.410082 -2.320715
    21 0.123399 -8.705774 -0.174456 0.347391 -0.122088 1.770393
    22 -0.488515 -2.755602 -0.228256 -0.667590 -0.067442 -0.114705
    23 0.039936 -1.529655 0.013207 -1.413023 -0.012729 0.031191
    24 0.032903 -1.294774 -0.102672 -2.046379 -0.004466 0.045624
    25 0.250031 -2.820658 -0.238394 -0.623289 -0.088938 -0.136107
    26 -0.049187 -1.608001 0.063729 -1.109531 0.007173 -0.030668
    27 -0.033792 -1.193996 0.042160 -1.652630 -0.001324 -0.042455
    28 0.957769 -2.746773 -0.090297 -0.505939 -0.090425 -0.188449
    29 -0.033296 -1.395737 -0.025013 -0.828551 -0.110179 0.092049
    30 -0.021896 -0.964392 -0.011118 -1.165134 -0.000724 -0.055752
    31 -1.180678 -2.507215 -0.193858 -0.404064 0.138943 -0.096783
    32 -0.024978 -1.129404 0.016886 -1.230912 -0.001217 -0.052001
    33 -0.020518 -0.907372 0.039943 -1.273645 -0.000279 -0.052017
    34 0.604733 -1.198765 0.179235 0.767390 -0.961737 -1.160431
    35 1.518348 -0.137151 0.049418 0.009659 -0.140828 -0.462384
    36 1.058105 -0.135432 0.032545 0.030563 -0.175294 -0.710101
    37 2.862711 -6.874618 -0.407624 -1.549184 -0.032781 -4.177996
    38 6.458363 6.604808 -6.251972 1.283834 -0.144503 -1.715162
    39 20.559630 -3.188614 1.358406 0.000000 0.000000 0.001876
    40 19.441806 -9.112012 1.358410 0.000000 0.000000 0.001876
    41 20.559630 -3.188615 -1.358761 0.000000 0.000000 0.001876
    42 19.441806 -9.112012 -1.358759 0.000000 0.000000 0.001876
    43 37.412324 -6.093361 1.410832 0.000000 0.000000 -0.024560
    44 37.211680 -6.770561 -1.387376 0.000000 0.000000 -0.513464
    45 35.665698 -4.385725 1.410833 0.000000 0.000000 1.290363
    46 36.630472 -4.715499 1.406492 0.000000 0.000000 1.006915
    47 37.204418 -5.277859 1.410831 0.000000 0.000000 0.483754
    48 36.636415 -7.404978 -1.387378 0.000000 0.000000 -0.922822
    49 37.211684 -6.770559 1.410833 0.000000 0.000000 -0.513464
    50 36.636415 -7.404976 1.410832 0.000000 0.000000 -0.922822
    51 35.797736 -7.781667 1.410831 0.000000 0.000000 -1.385790
    52 34.689746 -7.926218 1.410834 0.000000 0.000000 -1.493652
    53 35.797736 -7.781667 -1.387373 0.000000 0.000000 -1.385790
    54 34.689750 -7.926222 -1.387375 0.000000 0.000000 -1.493652
    55 35.665698 -4.385727 -1.387377 0.000000 0.000000 1.290363
    56 36.630468 -4.715497 -1.391716 0.000000 0.000000 1.006915
    57 37.204410 -5.277861 -1.387377 0.000000 0.000000 0.483754
    58 37.412316 -6.093361 -1.387377 0.000000 0.000000 -0.024560
  time 14
    0 -1.664113 11.715201 -2.066469 0.327563 0.000000 0.181639
    1 1.523739 -4.462843 -3.999950 0.934746 -3.203786 0.450607
    2 0.138846 -8.361487 -0.211092 -0.298443 0.539771 0.254055
    3 0.447952 -2.798988 -0.200443 -0.962080 0.037161 0.001116
    4 -0.033095 -1.498205 0.034224 -1.600695 0.023011 -0.032439
    5 -0.027702 -1.133388 -0.022576 -1.359286 0.024817 -0.025882
    6 -0.249534 -2.846973 -0.174215 -0.947264 0.159666 0.001320
    7 0.043017 -1.655117 0.053581 -1.860618 -0.007805 0.001838
    8 0.027641 -1.143356 0.059665 -1.035604 -0.020727 0.001716
    9 -0.963866 -2.785151 -0.085346 -1.320157 0.216460 -0.167441
    10 0.028663 -1.405643 -0.021507 -1.095864 -0.030801 -0.036393
    11 0.021422 -0.938366 0.006881 -1.331210 -0.041298 -0.037853
    12 1.164473 -2.543945 -0.170328 -0.568005 -0.161566 0.084957
    13 0.023466 -1.146865 -0.008955 -1.223259 0.020205 0.060465
    14 0.014968 -0.896790 -0.020059 -0.762990 0.002039 0.038621
    15 -0.586772 -1.264479 0.200165 -0.605559 -1.016525 -2.521998
    16 1.573977 0.038315 0.000674 -0.119172 -0.526535 0.930695
    17 1.113592 0.048465 -0.005883 -0.020563 -0.206913 1.026649
    18 0.102796 -0.084355 0.010491 -0.038999 0.032387 1.365220
    19 0.340945 8.948551 -0.196465 4.720295 -3.141824 1.363109
    20 13.118497 -0.730299 1.607989 1.312289 -0.625375 -2.376454
    21 0.092149 -8.721399 -0.193987 0.442834 -0.202604 1.554831
    22 -0.488515 -2.755602 -0.228256 -0.667590 -0.067442 -0.114705
    23 0.039936 -1.529655 0.013207 -1.413023 -0.012729 0.031191
    24 0.032903 -1.294774 -0.102672 -2.046379 -0.004466 0.045624
    25 0.250031 -2.820658 -0.238394 -0.623289 -0.088938 -0.136107
    26 -0.049187 -1.608001 0.063729 -1.109531 0.007173 -0.030668
    27 -0.033792 -1.193996 0.042160 -1.652630 -0.001324 -0.042455
    28 0.957769 -2.746773 -0.090297 -0.505939 -0.090425 -0.188449
    29 -0.033296 -1.395737 -0.025013 -0.828551 -0.110179 0.092049
    30 -0.021896 -0.964392 -0.011118 -1.165134 -0.000724 -0.055752
    31 -1.180678 -2.507215 -0.193858 -0.404064 0.138943 -0.096783
    32 -0.024978 -1.129404 0.016886 -1.230912 -0.001217 -0.052001
    33 -0.020518 -0.907372 0.039943 -1.273645 -0.000279 -0.052017
    34 0.604733 -1.198765 0.179235 0.767390 -0.961737 -1.160431
    35 1.518348 -0.137151 0.049418 0.009659 -0.140828 -0.462384
    36 1.058105 -0.135432 0.032545 0.030563 -0.175294 -0.710101
    37 3.956494 -6.358977 -0.419343 -1.552348 -0.033452 -4.029266
    38 5.891939 11.874500 -6.759800 1.275030 -0.137506 -1.706995
    39 21.657320 -3.188614 1.358406 0.000000 0.000000 0.001876
    40 18.437869 -9.112012 1.358410 0.000000 0.000000 0.001876
    41 21.657320 -3.188615 -1.358761 0.000000 0.000000 0.001876
    42 18.437869 -9.112012 -1.358759 0.000000 0.000000 0.001876
    43 37.220912 -6.819945 1.410832 0.000000 0.000000 -0.534833
    44 36.653069 -7.379955 -1.387376 0.000000 0.000000 -1.058661
    45 36.552444 -4.635732 1.410833 0.000000 0.000000 0.920058
    46 37.189083 -5.266297 1.406492 0.000000 0.000000 0.466457
    47 37.403642 -6.043507 1.410831 0.000000 0.000000 0.050459
    48 35.777014 -7.733113 -1.387378 0.000000 0.000000 -1.271509
    49 36.653073 -7.379952 1.410833 0.000000 0.000000 -1.058661
    50 35.777014 -7.733111 1.410832 0.000000 0.000000 -1.271509
    51 34.785986 -7.926203 1.410831 0.000000 0.000000 -1.490403
    52 33.705341 -7.988720 1.410834 0.000000 0.000000 -1.529151
    53 34.785986 -7.926203 -1.387373 0.000000 0.000000 -1.490403
    54 33.705345 -7.988724 -1.387375 0.000000 0.000000 -1.529151
    55 36.552444 -4.635734 -1.387377 0.000000 0.000000 0.920058
    56 37.189079 -5.266295 -1.391716 0.000000 0.000000 0.466457
    57 37.403635 -6.043509 -1.387377 0.000000 0.000000 0.050459
    58 37.220904 -6.819945 -1.387377 0.000000 0.000000 -0.534833
  time 15
    0 2.543046 5.351726 1.066439 0.000000 0.000000 -0.000066
    1 -1.163843 -6.248054 -6.996135 0.532615 -3.238160 0.447829
    2 0.131033 -8.373206 -0.113433 0.100975 0.243483 0.422312
    3 0.447952 -2.798988 -0.200443 -0.957502 0.039103 0.003921
    4 -0.033095 -1.498205 0.034224 -1.593900 0.023047 -0.032247
    5 -0.027702 -1.133388 -0.022576 -1.351538 0.024793 -0.025654
    6 -0.249534 -2.846973 -0.174215 -0.942737 0.159726 0.001260
    7 0.043017 -1.655117 0.053581 -1.852171 -0.007997 0.002473
    8 0.027641 -1.143356 0.059665 -1.025588 -0.019912 0.002183
    9 -0.963866 -2.785151 -0.085346 -1.315617 0.216663 -0.167417
    10 0.028663 -1.405643 -0.021507 -1.095864 -0.030801 -0.036393
    11 0.021422 -0.938366 0.006881 -1.316584 -0.040639 -0.037793
    12 1.164473 -2.543945 -0.170328 -0.569653 -0.160923 0.090206
    13 0.023466 -1.146865 -0.008955 -1.223259 0.020205 0.060465
    14 0.014968 -0.896790 -0.020059 -0.762990 0.002039 0.038621
    15 -0.586772 -1.264479 0.200165 -0.503526 -0.910526 -2.648481
    16 1.570070 0.038315 -0.003232 -0.132059 -0.562347 0.871365
    17 1.113592 0.048465 -0.005883 -0.044256 -0.237353 1.214966
    18 0.083264 -0.084355 0.010491 -0.013443 0.027413 1.382173
    19 -4.686552 7.495381 -0.333188 1.581380 -0.016510 -1.131350
    20 12.571605 0.086132 -7.028993 4.750124 -1.953140 0.766592
    21 -0.040668 -8.674523 -0.162737 0.422876 -0.060152 0.865121
    22 -0.488515 -2.755602 -0.228256 -0.667590 -0.067442 -0.114705
    23 0.039936 -1.529655 0.013207 -1.413023 -0.012729 0.031191
    24 0.032903 -1.294774 -0.102672 -2.046379 -0.004466 0.045624
    25 0.250031 -2.820658 -0.238394 -0.623289 -0.088938 -0.136107
    26 -0.049187 -1.608001 0.063729 -1.109531 0.007173 -0.030668
    27 -0.033792 -1.193996 0.042160 -1.652630 -0.001324 -0.042455
    28 0.957769 -2.746773 -0.090297 -0.505939 -0.090425 -0.188449
    29 -0.033296 -1.395737 -0.025013 -0.828551 -0.110179 0.092049
    30 -0.021896 -0.964392 -0.011118 -1.165134 -0.000724 -0.055752
    31 -1.180678 -2.507215 -0.193858 -0.404064 0.138943 -0.096783
    32 -0.024978 -1.129404 0.016886 -1.230912 -0.001217 -0.052001
    33 -0.020518 -0.907372 0.039943 -1.273645 -0.000279 -0.052017
    34 0.604733 -1.198765 0.179235 0.767390 -0.961737 -1.160431
    35 1.518348 -0.137151 0.049418 0.009659 -0.140828 -0.462384
    36 1.058105 -0.135432 0.032545 0.030563 -0.175294 -0.710101
    37 8.019118 -0.253322 -0.391999 -1.570561 -0.027030 -3.095157
    38 8.868593 -0.446188 -8.197344 1.566042 -0.384911 -1.909605
    39 22.247182 -3.184708 1.358406 0.000000 0.000000 0.001876
    40 17.898790 -9.115918 1.358410 0.000000 0.000000 0.001876
    41 22.247182 -3.184709 -1.358761 0.000000 0.000000 0.001876
    42 17.898790 -9.115918 -1.358759 0.000000 0.000000 0.001876
    43 37.119346 -7.210582 1.410832 0.000000 0.000000 -0.809618
    44 36.352279 -7.708090 -1.387376 0.000000 0.000000 -1.352253
    45 37.029021 -4.772455 1.410833 0.000000 0.000000 0.720646
    46 37.489873 -5.563181 1.406492 0.000000 0.000000 0.175418
    47 37.513021 -6.453676 1.410831 0.000000 0.000000 -0.182846
    48 35.312156 -7.908900 -1.387378 0.000000 0.000000 -1.459279
    49 36.352283 -7.708087 1.410833 0.000000 0.000000 -1.352253
    50 35.312156 -7.908898 1.410832 0.000000 0.000000 -1.459279
    51 34.243001 -8.004330 1.410831 0.000000 0.000000 -1.546731
    52 33.177981 -8.023877 1.410834 0.000000 0.000000 -1.548266
    53 34.243001 -8.004330 -1.387373 0.000000 0.000000 -1.546731
    54 33.177985 -8.023881 -1.387375 0.000000 0.000000 -1.548266
    55 37.029021 -4.772457 -1.387377 0.000000 0.000000 0.720646
    56 37.489869 -5.563179 -1.391716 0.000000 0.000000 0.175418
    57 37.513013 -6.453678 -1.387377 0.000000 0.000000 -0.182846
    58 37.119338 -7.210582 -1.387377 0.000000 0.000000 -0.809618
end
