// Created by Crowbar 0.34.0.0

$ModelName "weapons/tfa_cso/w_shelteraxe.mdl"

$BodyGroup "studio"
{
	studio "v_shelter"
}

$collisionmodel "v_shelter.smd"
{
	$mass 9
}

$CDMaterials "models\weapons\tfa_cso\shelteraxe"

$Sequence "idle" {
	"anims\idle.smd"
	fps 30
}