version 1
nodes
  0 "root" -1
  1 "Bone01" 0
  2 "Bone_Lefthand" 1
  3 "Bone02" 2
  4 "Dummy01" 3
  5 "Bone08" 4
  6 "Dummy02" 3
  7 "Bone26" 6
  8 "Bone16" 3
  9 "Bone34" 3
  10 "Bone24" 3
  11 "Bone_L_Upper" 1
  12 "Bone13" 2
  13 "Bone14" 12
  14 "Bone15" 13
  15 "Bone17" 2
  16 "Bone18" 15
  17 "Bone19" 16
  18 "Bone21" 2
  19 "Bone22" 18
  20 "Bone23" 19
  21 "Bone09" 2
  22 "Bone10" 21
  23 "Bone11" 22
  24 "Bone05" 2
  25 "Bone06" 24
  26 "Bone07" 25
  27 "Bone_Se_Hand-L" 2
  28 "Bone04" 0
  29 "Bone_Righthand" 28
  30 "Bone39" 29
  31 "Bone40" 30
  32 "Bone41" 31
  33 "Bone35" 29
  34 "Bone36" 33
  35 "Bone37" 34
  36 "Bone31" 29
  37 "Bone32" 36
  38 "Bone33" 37
  39 "Bone43" 29
  40 "Bone44" 39
  41 "Bone45" 40
  42 "Bone27" 29
  43 "Bone28" 42
  44 "Bone29" 43
  45 "Bone_Se_Hand-R" 29
  46 "Bone_R_Upper" 28
end
skeleton
  time 0
    0 -0.349399 1.166145 0.203512 0.000000 0.000000 0.000000
    1 6.335129 4.733953 -6.895562 -0.452878 -0.968872 0.207118
    2 -0.071918 -8.498730 -0.104136 0.407160 0.227855 -0.253924
    3 2.672261 -3.383448 0.696208 0.083503 0.128137 -1.585662
    4 8.674173 -0.128572 0.000000 0.000000 0.000000 0.000000
    5 0.000000 0.000000 0.000000 0.000000 0.000000 0.000000
    6 4.045845 -0.586976 0.000000 0.000000 0.000000 0.000000
    7 -37.887875 -11.566759 -12.906644 -0.089908 0.184239 0.364821
    8 1.039971 -0.940679 0.000000 0.000000 0.000000 -1.570796
    9 4.782106 0.485510 0.407405 0.000000 0.000000 -1.570796
    10 5.548040 -0.183522 0.000000 1.570796 -1.570796 0.000000
    11 1.257180 8.762585 -0.153713 -1.570562 0.002683 -1.566807
    12 -0.488518 -2.755602 -0.228260 -0.518305 -0.074854 -0.310571
    13 0.039887 -1.479790 0.029854 -2.289231 0.000000 0.000001
    14 0.028786 -1.075731 -0.023109 -0.271941 0.000000 0.000000
    15 0.250027 -2.820665 -0.238396 -0.350825 -0.052441 -0.187301
    16 -0.049759 -1.680544 0.100479 -2.246572 0.000000 -0.000002
    17 -0.034142 -1.148312 0.084782 -0.535851 0.000000 0.000000
    18 0.957766 -2.746780 -0.090302 0.329289 -0.172344 0.119866
    19 -0.033420 -1.397129 -0.011257 -1.115580 0.000000 -0.000001
    20 -0.022360 -0.957436 0.018784 -1.148807 0.000000 0.000000
    21 -1.180681 -2.507217 -0.193859 -0.309305 0.033033 -0.314313
    22 -0.024967 -1.123934 0.017597 -2.040737 0.000000 0.000001
    23 -0.020057 -0.890968 0.010090 -0.646720 0.000000 0.000000
    24 0.583510 -1.197277 0.185379 0.371183 -0.693166 -0.903076
    25 1.535927 0.010246 0.005009 -0.002964 -0.012979 -0.682290
    26 1.100771 0.004527 -0.010679 -0.016147 -0.001453 -1.484153
    27 0.120153 -0.050270 -0.054489 0.287569 3.110905 1.561085
    28 -10.099194 -11.438480 -23.861386 0.414429 -2.878568 0.925469
    29 0.096944 -8.450418 -0.009365 0.075476 -1.267968 0.356845
    30 0.447953 -2.798986 -0.200443 -0.989815 0.042804 0.170619
    31 -0.032909 -1.480204 0.004940 -1.707946 0.000000 0.000002
    32 -0.027022 -1.076920 -0.020210 -0.612649 0.000000 0.000000
    33 -0.249534 -2.846964 -0.174213 -0.703763 0.002631 0.073866
    34 0.043235 -1.683941 0.096012 -1.758811 0.002823 -0.000167
    35 0.031729 -1.160830 0.058838 -0.802576 0.000642 0.008372
    36 -0.963866 -2.785145 -0.085350 -0.357782 0.070929 0.053157
    37 0.028479 -1.403067 0.006271 -1.767737 0.000000 0.000000
    38 0.021413 -0.957781 0.020046 -0.565397 0.000000 0.000000
    39 1.164475 -2.543940 -0.170330 -1.204006 -0.015463 0.162804
    40 0.024032 -1.129042 0.017807 -1.786702 0.000000 0.000001
    41 0.014898 -0.883989 -0.019848 -0.631202 0.000000 0.000000
    42 -0.586770 -1.264477 0.200161 -0.016715 -0.537524 -2.326427
    43 1.522835 0.058681 0.016848 0.001410 0.008985 0.226666
    44 1.117947 0.048424 -0.005766 -0.002568 -0.011344 -0.058244
    45 -0.139399 -0.111698 0.014397 0.774181 0.191172 1.472862
    46 -6.260806 6.983652 -0.294122 1.580804 -0.005023 -0.912799
  time 1
    0 -0.349399 1.166145 0.203512 0.000000 0.000000 0.000000
    1 6.124185 4.605042 -6.805716 -0.465875 -1.004950 0.225411
    2 -0.071918 -8.498730 -0.104136 0.400825 0.225375 -0.253025
    3 2.672261 -3.383448 0.696208 0.083503 0.128137 -1.585662
    4 8.674173 -0.128572 0.000000 0.000000 0.000000 0.000000
    5 0.000000 0.000000 0.000000 0.000000 0.000000 0.000000
    6 4.045845 -0.586976 0.000000 0.000000 0.000000 0.000000
    7 -38.118351 -13.016022 -14.176214 -0.077624 0.155141 0.344542
    8 1.039971 -0.940679 0.000000 0.000000 0.000000 -1.570796
    9 4.782106 0.485510 0.407405 0.000000 0.000000 -1.570796
    10 5.548040 -0.183522 0.000000 1.570796 -1.570796 0.000000
    11 1.257180 8.762585 -0.153713 -1.570562 0.002683 -1.566807
    12 -0.488518 -2.755602 -0.228260 -0.518305 -0.074854 -0.310571
    13 0.039887 -1.479790 0.029854 -2.289231 0.000000 0.000001
    14 0.028786 -1.075731 -0.023109 -0.271941 0.000000 0.000000
    15 0.250027 -2.820665 -0.238396 -0.350825 -0.052441 -0.187301
    16 -0.049759 -1.680544 0.100479 -2.246572 0.000000 -0.000002
    17 -0.034142 -1.148312 0.084782 -0.535851 0.000000 0.000000
    18 0.957766 -2.746780 -0.090302 0.329289 -0.172344 0.119866
    19 -0.033420 -1.397129 -0.011257 -1.115580 0.000000 -0.000001
    20 -0.022360 -0.957436 0.018784 -1.148807 0.000000 0.000000
    21 -1.180681 -2.507217 -0.193859 -0.309305 0.033033 -0.314313
    22 -0.024967 -1.123934 0.017597 -2.040737 0.000000 0.000001
    23 -0.020057 -0.890968 0.010090 -0.646720 0.000000 0.000000
    24 0.583510 -1.197277 0.185379 0.371183 -0.693166 -0.903076
    25 1.535927 0.010246 0.005009 -0.002964 -0.012979 -0.682290
    26 1.100771 0.004527 -0.010679 -0.016147 -0.001453 -1.484153
    27 0.120153 -0.050270 -0.054489 0.287569 3.110905 1.561085
    28 -9.208542 -11.891619 -23.916076 0.455949 -2.996854 0.968088
    29 0.096944 -8.450418 -0.009365 0.075476 -1.267968 0.356845
    30 0.447953 -2.798986 -0.200443 -0.962046 0.042804 0.170619
    31 -0.032909 -1.480204 0.004940 -1.547972 0.000000 0.000002
    32 -0.027022 -1.076920 -0.020210 -0.574111 0.000000 0.000000
    33 -0.249534 -2.846964 -0.174213 -0.665009 0.002631 0.073866
    34 0.043235 -1.683941 0.096012 -1.631799 0.002823 -0.000167
    35 0.031729 -1.160830 0.058838 -0.762091 0.000642 0.008372
    36 -0.963866 -2.785145 -0.085350 -0.311734 0.070929 0.053157
    37 0.028479 -1.403067 0.006271 -1.620383 0.000000 0.000000
    38 0.021413 -0.957781 0.020046 -0.532202 0.000000 0.000000
    39 1.164475 -2.543940 -0.170330 -1.173142 -0.015463 0.162804
    40 0.024032 -1.129042 0.017807 -1.647287 0.000000 0.000001
    41 0.014898 -0.883989 -0.019848 -0.589757 0.000000 0.000000
    42 -0.586770 -1.264477 0.200161 0.002384 -0.560276 -2.362109
    43 1.522835 0.058681 0.016848 0.001410 0.008985 0.192314
    44 1.117947 0.048424 -0.005766 -0.002568 -0.011344 -0.061132
    45 -0.139399 -0.111698 0.014397 0.774181 0.191172 1.472862
    46 -6.260806 6.983652 -0.294122 1.580804 -0.005023 -0.912799
  time 2
    0 -0.349399 1.166145 0.203512 0.000000 0.000000 0.000000
    1 5.835113 4.370660 -6.731495 -0.492787 -1.051065 0.258680
    2 -0.071918 -8.498730 -0.104136 0.389972 0.218471 -0.250520
    3 2.672261 -3.383448 0.696208 0.083503 0.128137 -1.585662
    4 8.674173 -0.128572 0.000000 0.000000 0.000000 0.000000
    5 0.000000 0.000000 0.000000 0.000000 0.000000 0.000000
    6 4.045845 -0.586976 0.000000 0.000000 0.000000 0.000000
    7 -38.274606 -14.344188 -15.152806 -0.075467 0.129949 0.312826
    8 1.039971 -0.940679 0.000000 0.000000 0.000000 -1.570796
    9 4.782106 0.485510 0.407405 0.000000 0.000000 -1.570796
    10 5.548040 -0.183522 0.000000 1.570796 -1.570796 0.000000
    11 1.257180 8.762585 -0.153713 -1.570562 0.002683 -1.566807
    12 -0.488518 -2.755602 -0.228260 -0.518305 -0.074854 -0.310571
    13 0.039887 -1.479790 0.029854 -2.289231 0.000000 0.000001
    14 0.028786 -1.075731 -0.023109 -0.271941 0.000000 0.000000
    15 0.250027 -2.820665 -0.238396 -0.350825 -0.052441 -0.187301
    16 -0.049759 -1.680544 0.100479 -2.246572 0.000000 -0.000002
    17 -0.034142 -1.148312 0.084782 -0.535851 0.000000 0.000000
    18 0.957766 -2.746780 -0.090302 0.329289 -0.172344 0.119866
    19 -0.033420 -1.397129 -0.011257 -1.115580 0.000000 -0.000001
    20 -0.022360 -0.957436 0.018784 -1.148807 0.000000 0.000000
    21 -1.180681 -2.507217 -0.193859 -0.309305 0.033033 -0.314313
    22 -0.024967 -1.123934 0.017597 -2.040737 0.000000 0.000001
    23 -0.020057 -0.890968 0.010090 -0.646720 0.000000 0.000000
    24 0.583510 -1.197277 0.185379 0.371183 -0.693166 -0.903076
    25 1.535927 0.010246 0.005009 -0.002964 -0.012979 -0.682290
    26 1.100771 0.004527 -0.010679 -0.016147 -0.001453 -1.484153
    27 0.120153 -0.050270 -0.054489 0.287569 3.110905 1.561085
    28 -7.368642 -12.114282 -22.951202 0.523319 -3.138998 1.024914
    29 0.096944 -8.450418 -0.009365 0.075476 -1.267968 0.356845
    30 0.447953 -2.798986 -0.200443 -0.895835 0.042804 0.170619
    31 -0.032909 -1.480204 0.004940 -1.166445 0.000000 0.000002
    32 -0.027022 -1.076920 -0.020210 -0.482186 0.000000 0.000000
    33 -0.249534 -2.846964 -0.174213 -0.572253 0.002631 0.073866
    34 0.043235 -1.683941 0.096012 -1.329055 0.002823 -0.000167
    35 0.031729 -1.160830 0.058838 -0.660088 0.000642 0.008372
    36 -0.963866 -2.785145 -0.085350 -0.201923 0.070929 0.053157
    37 0.028479 -1.403067 0.006271 -1.268963 0.000000 0.000000
    38 0.021413 -0.957781 0.020046 -0.453049 0.000000 0.000000
    39 1.164475 -2.543940 -0.170330 -1.099467 -0.015463 0.162804
    40 0.024032 -1.129042 0.017807 -1.314859 0.000000 0.000001
    41 0.014898 -0.883989 -0.019848 -0.490925 0.000000 0.000000
    42 -0.586770 -1.264477 0.200161 0.047965 -0.595658 -2.451375
    43 1.522835 0.058681 0.016848 0.001410 0.008985 0.110396
    44 1.117947 0.048424 -0.005766 -0.002568 -0.011344 -0.067990
    45 -0.139399 -0.111698 0.014397 0.774181 0.191172 1.472862
    46 -6.260806 6.983652 -0.294122 1.580804 -0.005023 -0.912799
  time 3
    0 -0.349399 1.166145 0.203512 0.000000 0.000000 0.000000
    1 5.889802 4.065963 -6.797903 -0.543610 -1.101963 0.306157
    2 -0.071918 -8.498730 -0.104136 0.375438 0.207937 -0.246685
    3 2.672261 -3.383448 0.696208 0.083503 0.128137 -1.585662
    4 8.674173 -0.128572 0.000000 0.000000 0.000000 0.000000
    5 0.000000 0.000000 0.000000 0.000000 0.000000 0.000000
    6 4.045845 -0.586976 0.000000 0.000000 0.000000 0.000000
    7 -38.532426 -15.766106 -15.137181 -0.079877 0.117006 0.274757
    8 1.039971 -0.940679 0.000000 0.000000 0.000000 -1.570796
    9 4.782106 0.485510 0.407405 0.000000 0.000000 -1.570796
    10 5.548040 -0.183522 0.000000 1.570796 -1.570796 0.000000
    11 1.257180 8.762585 -0.153713 -1.570562 0.002683 -1.566807
    12 -0.488518 -2.755602 -0.228260 -0.518305 -0.074854 -0.310571
    13 0.039887 -1.479790 0.029854 -2.289231 0.000000 0.000001
    14 0.028786 -1.075731 -0.023109 -0.271941 0.000000 0.000000
    15 0.250027 -2.820665 -0.238396 -0.350825 -0.052441 -0.187301
    16 -0.049759 -1.680544 0.100479 -2.246572 0.000000 -0.000002
    17 -0.034142 -1.148312 0.084782 -0.535851 0.000000 0.000000
    18 0.957766 -2.746780 -0.090302 0.329289 -0.172344 0.119866
    19 -0.033420 -1.397129 -0.011257 -1.115580 0.000000 -0.000001
    20 -0.022360 -0.957436 0.018784 -1.148807 0.000000 0.000000
    21 -1.180681 -2.507217 -0.193859 -0.309305 0.033033 -0.314313
    22 -0.024967 -1.123934 0.017597 -2.040737 0.000000 0.000001
    23 -0.020057 -0.890968 0.010090 -0.646720 0.000000 0.000000
    24 0.583510 -1.197277 0.185379 0.371183 -0.693166 -0.903076
    25 1.535927 0.010246 0.005009 -0.002964 -0.012979 -0.682290
    26 1.100771 0.004527 -0.010679 -0.016147 -0.001453 -1.484153
    27 0.120153 -0.050270 -0.054489 0.287569 3.110905 1.561085
    28 -5.095135 -12.176784 -21.337872 0.606695 -3.295091 1.102525
    29 0.096944 -8.450418 -0.009365 0.075476 -1.267968 0.356845
    30 0.447953 -2.798986 -0.200443 -0.816777 0.042804 0.170619
    31 -0.032909 -1.480204 0.004940 -0.711034 0.000000 0.000002
    32 -0.027022 -1.076920 -0.020210 -0.372503 0.000000 0.000000
    33 -0.249534 -2.846964 -0.174213 -0.460905 0.002631 0.073866
    34 0.043235 -1.683941 0.096012 -0.967636 0.002823 -0.000167
    35 0.031729 -1.160830 0.058838 -0.525883 0.000642 0.008372
    36 -0.963866 -2.785145 -0.085350 -0.070857 0.070929 0.053157
    37 0.028479 -1.403067 0.006271 -0.849575 0.000000 0.000000
    38 0.021413 -0.957781 0.020046 -0.358556 0.000000 0.000000
    39 1.164475 -2.543940 -0.170330 -1.011574 -0.015463 0.162804
    40 0.024032 -1.129042 0.017807 -0.918148 0.000000 0.000001
    41 0.014898 -0.883989 -0.019848 -0.373000 0.000000 0.000000
    42 -0.586770 -1.264477 0.200161 0.102338 -0.633522 -2.567559
    43 1.522835 0.058681 0.016848 0.001410 0.008985 0.012601
    44 1.117947 0.048424 -0.005766 -0.002568 -0.011344 -0.076172
    45 -0.139399 -0.111698 0.014397 0.774181 0.191172 1.472862
    46 -6.260806 6.983652 -0.294122 1.580804 -0.005023 -0.912799
  time 4
    0 -0.349399 1.166145 0.203512 0.000000 0.000000 0.000000
    1 6.362473 3.710484 -7.024472 -0.627510 -1.156459 0.375247
    2 -0.071918 -8.498730 -0.104136 0.358130 0.194586 -0.241832
    3 2.672261 -3.383448 0.696208 0.083503 0.128137 -1.585662
    4 8.674173 -0.128572 0.000000 0.000000 0.000000 0.000000
    5 0.000000 0.000000 0.000000 0.000000 0.000000 0.000000
    6 4.045845 -0.586976 0.000000 0.000000 0.000000 0.000000
    7 -38.950407 -17.230995 -13.973083 -0.092150 0.116562 0.231317
    8 1.039971 -0.940679 0.000000 0.000000 0.000000 -1.570796
    9 4.782106 0.485510 0.407405 0.000000 0.000000 -1.570796
    10 5.548040 -0.183522 0.000000 1.570796 -1.570796 0.000000
    11 1.257180 8.762585 -0.153713 -1.570562 0.002683 -1.566807
    12 -0.488518 -2.755602 -0.228260 -0.518305 -0.074854 -0.310571
    13 0.039887 -1.479790 0.029854 -2.289231 0.000000 0.000001
    14 0.028786 -1.075731 -0.023109 -0.271941 0.000000 0.000000
    15 0.250027 -2.820665 -0.238396 -0.350825 -0.052441 -0.187301
    16 -0.049759 -1.680544 0.100479 -2.246572 0.000000 -0.000002
    17 -0.034142 -1.148312 0.084782 -0.535851 0.000000 0.000000
    18 0.957766 -2.746780 -0.090302 0.329289 -0.172344 0.119866
    19 -0.033420 -1.397129 -0.011257 -1.115580 0.000000 -0.000001
    20 -0.022360 -0.957436 0.018784 -1.148807 0.000000 0.000000
    21 -1.180681 -2.507217 -0.193859 -0.309305 0.033033 -0.314313
    22 -0.024967 -1.123934 0.017597 -2.040737 0.000000 0.000001
    23 -0.020057 -0.890968 0.010090 -0.646720 0.000000 0.000000
    24 0.583510 -1.197277 0.185379 0.371183 -0.693166 -0.903076
    25 1.535927 0.010246 0.005009 -0.002964 -0.012979 -0.682290
    26 1.100771 0.004527 -0.010679 -0.016147 -0.001453 -1.484153
    27 0.120153 -0.050270 -0.054489 0.287569 3.110905 1.561085
    28 -2.907568 -12.153346 -19.451096 0.698576 -3.455313 1.205116
    29 0.096944 -8.450418 -0.009365 0.075476 -1.267968 0.356845
    30 0.447953 -2.798986 -0.200443 -0.750533 0.042804 0.170619
    31 -0.032909 -1.480204 0.004940 -0.329507 0.000000 0.000002
    32 -0.027022 -1.076920 -0.020210 -0.280578 0.000000 0.000000
    33 -0.249534 -2.846964 -0.174213 -0.366305 0.002631 0.073866
    34 0.043235 -1.683941 0.096012 -0.664833 0.002823 -0.000167
    35 0.031729 -1.160830 0.058838 -0.388746 0.000642 0.008372
    36 -0.963866 -2.785145 -0.085350 0.038930 0.070929 0.053157
    37 0.028479 -1.403067 0.006271 -0.498155 0.000000 0.000000
    38 0.021413 -0.957781 0.020046 -0.279403 0.000000 0.000000
    39 1.164475 -2.543940 -0.170330 -0.937939 -0.015463 0.162804
    40 0.024032 -1.129042 0.017807 -0.585721 0.000000 0.000001
    41 0.014898 -0.883989 -0.019848 -0.274168 0.000000 0.000000
    42 -0.586770 -1.264477 0.200161 0.147919 -0.663702 -2.684011
    43 1.522835 0.058681 0.016848 0.001410 0.008985 -0.069286
    44 1.117947 0.048424 -0.005766 -0.002568 -0.011344 -0.083006
    45 -0.139399 -0.111698 0.014397 0.774181 0.191172 1.472862
    46 -6.260806 6.983652 -0.294122 1.580804 -0.005023 -0.912799
  time 5
    0 -0.349399 1.166145 0.203512 0.000000 0.000000 0.000000
    1 6.995305 3.308128 -7.317450 -0.751152 -1.212681 0.479477
    2 -0.071918 -8.498730 -0.104136 0.338911 0.179222 -0.236247
    3 2.672261 -3.383448 0.696208 0.083503 0.128137 -1.585662
    4 8.674173 -0.128572 0.000000 0.000000 0.000000 0.000000
    5 0.000000 0.000000 0.000000 0.000000 0.000000 0.000000
    6 4.045845 -0.586976 0.000000 0.000000 0.000000 0.000000
    7 -39.391827 -18.594317 -12.086306 -0.113027 0.120205 0.183583
    8 1.039971 -0.940679 0.000000 0.000000 0.000000 -1.570796
    9 4.782106 0.485510 0.407405 0.000000 0.000000 -1.570796
    10 5.548040 -0.183522 0.000000 1.570796 -1.570796 0.000000
    11 1.257180 8.762585 -0.153713 -1.570562 0.002683 -1.566807
    12 -0.488518 -2.755602 -0.228260 -0.518305 -0.074854 -0.310571
    13 0.039887 -1.479790 0.029854 -2.289231 0.000000 0.000001
    14 0.028786 -1.075731 -0.023109 -0.271941 0.000000 0.000000
    15 0.250027 -2.820665 -0.238396 -0.350825 -0.052441 -0.187301
    16 -0.049759 -1.680544 0.100479 -2.246572 0.000000 -0.000002
    17 -0.034142 -1.148312 0.084782 -0.535851 0.000000 0.000000
    18 0.957766 -2.746780 -0.090302 0.329289 -0.172344 0.119866
    19 -0.033420 -1.397129 -0.011257 -1.115580 0.000000 -0.000001
    20 -0.022360 -0.957436 0.018784 -1.148807 0.000000 0.000000
    21 -1.180681 -2.507217 -0.193859 -0.309305 0.033033 -0.314313
    22 -0.024967 -1.123934 0.017597 -2.040737 0.000000 0.000001
    23 -0.020057 -0.890968 0.010090 -0.646720 0.000000 0.000000
    24 0.583510 -1.197277 0.185379 0.371183 -0.693166 -0.903076
    25 1.535927 0.010246 0.005009 -0.002964 -0.012979 -0.682290
    26 1.100771 0.004527 -0.010679 -0.016147 -0.001453 -1.484153
    27 0.120153 -0.050270 -0.054489 0.287569 3.110905 1.561085
    28 -1.313769 -12.118189 -17.654166 0.791461 -3.611589 1.333927
    29 0.096944 -8.450418 -0.009365 0.075476 -1.267968 0.356845
    30 0.447953 -2.798986 -0.200443 -0.722764 0.042804 0.170619
    31 -0.032909 -1.480204 0.004940 -0.169483 0.000000 0.000002
    32 -0.027022 -1.076920 -0.020210 -0.242041 0.000000 0.000000
    33 -0.249534 -2.846964 -0.174213 -0.323819 0.002631 0.073866
    34 0.043235 -1.683941 0.096012 -0.537879 0.002823 -0.000167
    35 0.031729 -1.160830 0.058838 -0.277971 0.000642 0.008372
    36 -0.963866 -2.785145 -0.085350 0.084978 0.070929 0.053157
    37 0.028479 -1.403067 0.006271 -0.350801 0.000000 0.000000
    38 0.021413 -0.957781 0.020046 -0.246208 0.000000 0.000000
    39 1.164475 -2.543940 -0.170330 -0.907075 -0.015463 0.162804
    40 0.024032 -1.129042 0.017807 -0.446360 0.000000 0.000001
    41 0.014898 -0.883989 -0.019848 -0.232724 0.000000 0.000000
    42 -0.586770 -1.264477 0.200161 0.167017 -0.676023 -2.774066
    43 1.522835 0.058681 0.016848 0.001410 0.008985 -0.103638
    44 1.117947 0.048424 -0.005766 -0.002568 -0.011344 -0.085894
    45 -0.139399 -0.111698 0.014397 0.774181 0.191172 1.472862
    46 -6.260806 6.983652 -0.294122 1.580804 -0.005023 -0.912799
  time 6
    0 -0.349399 1.166145 0.203512 0.000000 0.000000 0.000000
    1 7.714077 2.890146 -7.649491 -0.921285 -1.263544 0.627952
    2 -0.071918 -8.498730 -0.104136 0.318687 0.162659 -0.230231
    3 2.672261 -3.383448 0.696208 0.083503 0.128137 -1.585662
    4 8.674173 -0.128572 0.000000 0.000000 0.000000 0.000000
    5 0.000000 0.000000 0.000000 0.000000 0.000000 0.000000
    6 4.045845 -0.586976 0.000000 0.000000 0.000000 0.000000
    7 -39.731681 -19.789666 -9.676077 -0.138039 0.124041 0.135222
    8 1.039971 -0.940679 0.000000 0.000000 0.000000 -1.570796
    9 4.782106 0.485510 0.407405 0.000000 0.000000 -1.570796
    10 5.548040 -0.183522 0.000000 1.570796 -1.570796 0.000000
    11 1.257180 8.762585 -0.153713 -1.570562 0.002683 -1.566807
    12 -0.488518 -2.755602 -0.228260 -0.518305 -0.074854 -0.310571
    13 0.039887 -1.479790 0.029854 -2.289231 0.000000 0.000001
    14 0.028786 -1.075731 -0.023109 -0.271941 0.000000 0.000000
    15 0.250027 -2.820665 -0.238396 -0.350825 -0.052441 -0.187301
    16 -0.049759 -1.680544 0.100479 -2.246572 0.000000 -0.000002
    17 -0.034142 -1.148312 0.084782 -0.535851 0.000000 0.000000
    18 0.957766 -2.746780 -0.090302 0.329289 -0.172344 0.119866
    19 -0.033420 -1.397129 -0.011257 -1.115580 0.000000 -0.000001
    20 -0.022360 -0.957436 0.018784 -1.148807 0.000000 0.000000
    21 -1.180681 -2.507217 -0.193859 -0.309305 0.033033 -0.314313
    22 -0.024967 -1.123934 0.017597 -2.040737 0.000000 0.000001
    23 -0.020057 -0.890968 0.010090 -0.646720 0.000000 0.000000
    24 0.583510 -1.197277 0.185379 0.371183 -0.693166 -0.903076
    25 1.535927 0.010246 0.005009 -0.002964 -0.012979 -0.682290
    26 1.100771 0.004527 -0.010679 -0.016147 -0.001453 -1.484153
    27 0.120153 -0.050270 -0.054489 0.287569 3.110905 1.561085
    28 -0.762971 -11.899432 -15.177528 0.900418 -3.822191 1.557225
    29 0.096944 -8.450418 -0.009365 0.075476 -1.267968 0.356845
    30 0.447953 -2.798986 -0.200443 -0.732801 0.042804 0.170619
    31 -0.032909 -1.480204 0.004940 -0.509301 0.000000 0.000002
    32 -0.027022 -1.076920 -0.020210 -0.276534 0.000000 0.000000
    33 -0.249534 -2.846964 -0.174213 -0.320405 0.002631 0.073866
    34 0.043235 -1.683941 0.096012 -0.884890 0.002823 -0.000167
    35 0.031729 -1.160830 0.058838 -0.192697 0.000642 0.008372
    36 -0.963866 -2.785145 -0.085350 0.082884 0.070929 0.053157
    37 0.028479 -1.403067 0.006271 -0.606686 0.000000 0.000000
    38 0.021413 -0.957781 0.020046 -0.455176 0.000000 0.000000
    39 1.164475 -2.543940 -0.170330 -0.988715 -0.015463 0.162804
    40 0.024032 -1.129042 0.017807 -0.564185 0.000000 0.000001
    41 0.014898 -0.883989 -0.019848 -0.413121 0.000000 0.000000
    42 -0.586770 -1.264477 0.200161 0.160423 -0.487424 -2.829199
    43 1.522835 0.058681 0.016848 0.001410 0.008985 -0.014540
    44 1.117947 0.048424 -0.005766 -0.002568 -0.011344 0.079909
    45 -0.139399 -0.111698 0.014397 0.774181 0.191172 1.472862
    46 -6.260806 6.983652 -0.294122 1.580804 -0.005023 -0.912799
  time 7
    0 -0.349399 1.166145 0.203512 0.000000 0.000000 0.000000
    1 8.440662 2.483884 -7.985439 -1.135492 -1.302105 0.820757
    2 -0.071918 -8.498730 -0.104136 0.298296 0.145689 -0.224058
    3 2.672261 -3.383448 0.696208 0.083503 0.128137 -1.585662
    4 8.674173 -0.128572 0.000000 0.000000 0.000000 0.000000
    5 0.000000 0.000000 0.000000 0.000000 0.000000 0.000000
    6 4.045845 -0.586976 0.000000 0.000000 0.000000 0.000000
    7 -39.856685 -20.820948 -7.011933 -0.162008 0.125011 0.089849
    8 1.039971 -0.940679 0.000000 0.000000 0.000000 -1.570796
    9 4.782106 0.485510 0.407405 0.000000 0.000000 -1.570796
    10 5.548040 -0.183522 0.000000 1.570796 -1.570796 0.000000
    11 1.257180 8.762585 -0.153713 -1.570562 0.002683 -1.566807
    12 -0.488518 -2.755602 -0.228260 -0.518305 -0.074854 -0.310571
    13 0.039887 -1.479790 0.029854 -2.289231 0.000000 0.000001
    14 0.028786 -1.075731 -0.023109 -0.271941 0.000000 0.000000
    15 0.250027 -2.820665 -0.238396 -0.350825 -0.052441 -0.187301
    16 -0.049759 -1.680544 0.100479 -2.246572 0.000000 -0.000002
    17 -0.034142 -1.148312 0.084782 -0.535851 0.000000 0.000000
    18 0.957766 -2.746780 -0.090302 0.329289 -0.172344 0.119866
    19 -0.033420 -1.397129 -0.011257 -1.115580 0.000000 -0.000001
    20 -0.022360 -0.957436 0.018784 -1.148807 0.000000 0.000000
    21 -1.180681 -2.507217 -0.193859 -0.309305 0.033033 -0.314313
    22 -0.024967 -1.123934 0.017597 -2.040737 0.000000 0.000001
    23 -0.020057 -0.890968 0.010090 -0.646720 0.000000 0.000000
    24 0.583510 -1.197277 0.185379 0.371183 -0.693166 -0.903076
    25 1.535927 0.010246 0.005009 -0.002964 -0.012979 -0.682290
    26 1.100771 0.004527 -0.010679 -0.016147 -0.001453 -1.484153
    27 0.120153 -0.050270 -0.054489 0.287569 3.110905 1.561085
    28 -0.923133 -11.508795 -12.279002 -2.055164 -5.392111 -1.249158
    29 0.096944 -8.450418 -0.009365 0.075476 -1.267968 0.356845
    30 0.447953 -2.798986 -0.200443 -0.751370 0.042804 0.170619
    31 -0.032909 -1.480204 0.004940 -1.140371 0.000000 0.000002
    32 -0.027022 -1.076920 -0.020210 -0.340615 0.000000 0.000000
    33 -0.249534 -2.846964 -0.174213 -0.318903 0.002631 0.073866
    34 0.043235 -1.683941 0.096012 -1.529322 0.002823 -0.000167
    35 0.031729 -1.160830 0.058838 -0.126409 0.000642 0.008372
    36 -0.963866 -2.785145 -0.085350 0.078960 0.070929 0.053157
    37 0.028479 -1.403067 0.006271 -1.081970 0.000000 0.000000
    38 0.021413 -0.957781 0.020046 -0.843237 0.000000 0.000000
    39 1.164475 -2.543940 -0.170330 -1.140327 -0.015463 0.162804
    40 0.024032 -1.129042 0.017807 -0.783051 0.000000 0.000001
    41 0.014898 -0.883989 -0.019848 -0.748147 0.000000 0.000000
    42 -0.586770 -1.264477 0.200161 0.148196 -0.137208 -2.860410
    43 1.522835 0.058681 0.016848 0.001410 0.008985 0.178759
    44 1.117947 0.048424 -0.005766 -0.002568 -0.011344 0.387882
    45 -0.139399 -0.111698 0.014397 0.774181 0.191172 1.472862
    46 -6.260806 6.983652 -0.294122 1.580804 -0.005023 -0.912799
  time 8
    0 -0.349399 1.166145 0.203512 0.000000 0.000000 0.000000
    1 9.093025 2.124498 -8.286229 -1.367613 -1.324371 1.033982
    2 -0.071918 -8.498730 -0.104136 0.278622 0.129114 -0.218030
    3 2.672261 -3.383448 0.696208 0.083503 0.128137 -1.585662
    4 8.674173 -0.128572 0.000000 0.000000 0.000000 0.000000
    5 0.000000 0.000000 0.000000 0.000000 0.000000 0.000000
    6 4.045845 -0.586976 0.000000 0.000000 0.000000 0.000000
    7 -39.680898 -21.781915 -4.382946 -0.179134 0.120865 0.050921
    8 1.039971 -0.940679 0.000000 0.000000 0.000000 -1.570796
    9 4.782106 0.485510 0.407405 0.000000 0.000000 -1.570796
    10 5.548040 -0.183522 0.000000 1.570796 -1.570796 0.000000
    11 1.257180 8.762585 -0.153713 -1.570562 0.002683 -1.566807
    12 -0.488518 -2.755602 -0.228260 -0.518305 -0.074854 -0.310571
    13 0.039887 -1.479790 0.029854 -2.289231 0.000000 0.000001
    14 0.028786 -1.075731 -0.023109 -0.271941 0.000000 0.000000
    15 0.250027 -2.820665 -0.238396 -0.350825 -0.052441 -0.187301
    16 -0.049759 -1.680544 0.100479 -2.246572 0.000000 -0.000002
    17 -0.034142 -1.148312 0.084782 -0.535851 0.000000 0.000000
    18 0.957766 -2.746780 -0.090302 0.329289 -0.172344 0.119866
    19 -0.033420 -1.397129 -0.011257 -1.115580 0.000000 -0.000001
    20 -0.022360 -0.957436 0.018784 -1.148807 0.000000 0.000000
    21 -1.180681 -2.507217 -0.193859 -0.309305 0.033033 -0.314313
    22 -0.024967 -1.123934 0.017597 -2.040737 0.000000 0.000001
    23 -0.020057 -0.890968 0.010090 -0.646720 0.000000 0.000000
    24 0.583510 -1.197277 0.185379 0.371183 -0.693166 -0.903076
    25 1.535927 0.010246 0.005009 -0.002964 -0.012979 -0.682290
    26 1.100771 0.004527 -0.010679 -0.016147 -0.001453 -1.484153
    27 0.120153 -0.050270 -0.054489 0.287569 3.110905 1.561085
    28 -1.122357 -11.301758 -10.880522 -1.917410 -5.310440 -1.038731
    29 0.096944 -8.450418 -0.009365 0.075476 -1.267968 0.356845
    30 0.447953 -2.798986 -0.200443 -0.761407 0.042804 0.170619
    31 -0.032909 -1.480204 0.004940 -1.480139 0.000000 0.000002
    32 -0.027022 -1.076920 -0.020210 -0.375135 0.000000 0.000000
    33 -0.249534 -2.846964 -0.174213 -0.318562 0.002631 0.073866
    34 0.043235 -1.683941 0.096012 -1.876275 0.002823 -0.000167
    35 0.031729 -1.160830 0.058838 -0.099745 0.000642 0.008372
    36 -0.963866 -2.785145 -0.085350 0.076866 0.070929 0.053157
    37 0.028479 -1.403067 0.006271 -1.337909 0.000000 0.000000
    38 0.021413 -0.957781 0.020046 -1.052173 0.000000 0.000000
    39 1.164475 -2.543940 -0.170330 -1.221927 -0.015463 0.162804
    40 0.024032 -1.129042 0.017807 -0.900877 0.000000 0.000001
    41 0.014898 -0.883989 -0.019848 -0.928571 0.000000 0.000000
    42 -0.586770 -1.264477 0.200161 0.141623 0.051377 -2.870247
    43 1.522835 0.058681 0.016848 0.001410 0.008985 0.365002
    44 1.117947 0.048424 -0.005766 -0.002568 -0.011344 0.553684
    45 -0.139399 -0.111698 0.014397 0.774181 0.191172 1.472862
    46 -6.260806 6.983652 -0.294122 1.580804 -0.005023 -0.912799
  time 9
    0 -0.349399 1.166145 0.203512 0.000000 0.000000 0.000000
    1 9.596947 1.839333 -8.528424 -1.567989 -1.332284 1.220320
    2 -0.071918 -8.498730 -0.104136 0.260573 0.113762 -0.212457
    3 2.672261 -3.383448 0.696208 0.083503 0.128137 -1.585662
    4 8.674173 -0.128572 0.000000 0.000000 0.000000 0.000000
    5 0.000000 0.000000 0.000000 0.000000 0.000000 0.000000
    6 4.045845 -0.586976 0.000000 0.000000 0.000000 0.000000
    7 -39.145726 -22.832728 -2.097720 -0.183232 0.109995 0.021371
    8 1.039971 -0.940679 0.000000 0.000000 0.000000 -1.570796
    9 4.782106 0.485510 0.407405 0.000000 0.000000 -1.570796
    10 5.548040 -0.183522 0.000000 1.570796 -1.570796 0.000000
    11 1.257180 8.762585 -0.153713 -1.570562 0.002683 -1.566807
    12 -0.488518 -2.755602 -0.228260 -0.518305 -0.074854 -0.310571
    13 0.039887 -1.479790 0.029854 -2.289231 0.000000 0.000001
    14 0.028786 -1.075731 -0.023109 -0.271941 0.000000 0.000000
    15 0.250027 -2.820665 -0.238396 -0.350825 -0.052441 -0.187301
    16 -0.049759 -1.680544 0.100479 -2.246572 0.000000 -0.000002
    17 -0.034142 -1.148312 0.084782 -0.535851 0.000000 0.000000
    18 0.957766 -2.746780 -0.090302 0.329289 -0.172344 0.119866
    19 -0.033420 -1.397129 -0.011257 -1.115580 0.000000 -0.000001
    20 -0.022360 -0.957436 0.018784 -1.148807 0.000000 0.000000
    21 -1.180681 -2.507217 -0.193859 -0.309305 0.033033 -0.314313
    22 -0.024967 -1.123934 0.017597 -2.040737 0.000000 0.000001
    23 -0.020057 -0.890968 0.010090 -0.646720 0.000000 0.000000
    24 0.583510 -1.197277 0.185379 0.371183 -0.693166 -0.903076
    25 1.535927 0.010246 0.005009 -0.002964 -0.012979 -0.682290
    26 1.100771 0.004527 -0.010679 -0.016147 -0.001453 -1.484153
    27 0.120153 -0.050270 -0.054489 0.287569 3.110905 1.561085
    28 -0.641874 -11.465825 -11.439132 -1.854795 -5.363664 -1.013560
    29 0.096944 -8.450418 -0.009365 0.075476 -1.267968 0.356845
    30 0.447953 -2.798986 -0.200443 -0.761407 0.042804 0.170619
    31 -0.032909 -1.480204 0.004940 -1.480139 0.000000 0.000002
    32 -0.027022 -1.076920 -0.020210 -0.375135 0.000000 0.000000
    33 -0.249534 -2.846964 -0.174213 -0.318562 0.002631 0.073866
    34 0.043235 -1.683941 0.096012 -1.876275 0.002823 -0.000167
    35 0.031729 -1.160830 0.058838 -0.099745 0.000642 0.008372
    36 -0.963866 -2.785145 -0.085350 0.076866 0.070929 0.053157
    37 0.028479 -1.403067 0.006271 -1.337909 0.000000 0.000000
    38 0.021413 -0.957781 0.020046 -1.052173 0.000000 0.000000
    39 1.164475 -2.543940 -0.170330 -1.221927 -0.015463 0.162804
    40 0.024032 -1.129042 0.017807 -0.900877 0.000000 0.000001
    41 0.014898 -0.883989 -0.019848 -0.928571 0.000000 0.000000
    42 -0.586770 -1.264477 0.200161 0.145806 0.032417 -2.741737
    43 1.522835 0.058681 0.016848 0.001410 0.008985 0.531253
    44 1.117947 0.048424 -0.005766 -0.002568 -0.011344 0.205836
    45 -0.139399 -0.111698 0.014397 0.774181 0.191172 1.472862
    46 -6.260806 6.983652 -0.294122 1.580804 -0.005023 -0.912799
  time 10
    0 -0.349399 1.166145 0.203512 0.000000 0.000000 0.000000
    1 9.878205 1.675265 -8.680773 -1.662554 -1.332968 1.308809
    2 -0.071918 -8.498730 -0.104136 0.244987 0.100411 -0.207604
    3 2.672261 -3.383448 0.696208 0.083503 0.128137 -1.585662
    4 8.674173 -0.128572 0.000000 0.000000 0.000000 0.000000
    5 0.000000 0.000000 0.000000 0.000000 0.000000 0.000000
    6 4.045845 -0.586976 0.000000 0.000000 0.000000 0.000000
    7 -38.184759 -24.227302 -0.593768 -0.161624 0.091179 0.005513
    8 1.039971 -0.940679 0.000000 0.000000 0.000000 -1.570796
    9 4.782106 0.485510 0.407405 0.000000 0.000000 -1.570796
    10 5.548040 -0.183522 0.000000 1.570796 -1.570796 0.000000
    11 1.257180 8.762585 -0.153713 -1.570562 0.002683 -1.566807
    12 -0.488518 -2.755602 -0.228260 -0.518305 -0.074854 -0.310571
    13 0.039887 -1.479790 0.029854 -2.289231 0.000000 0.000001
    14 0.028786 -1.075731 -0.023109 -0.271941 0.000000 0.000000
    15 0.250027 -2.820665 -0.238396 -0.350825 -0.052441 -0.187301
    16 -0.049759 -1.680544 0.100479 -2.246572 0.000000 -0.000002
    17 -0.034142 -1.148312 0.084782 -0.535851 0.000000 0.000000
    18 0.957766 -2.746780 -0.090302 0.329289 -0.172344 0.119866
    19 -0.033420 -1.397129 -0.011257 -1.115580 0.000000 -0.000001
    20 -0.022360 -0.957436 0.018784 -1.148807 0.000000 0.000000
    21 -1.180681 -2.507217 -0.193859 -0.309305 0.033033 -0.314313
    22 -0.024967 -1.123934 0.017597 -2.040737 0.000000 0.000001
    23 -0.020057 -0.890968 0.010090 -0.646720 0.000000 0.000000
    24 0.583510 -1.197277 0.185379 0.371183 -0.693166 -0.903076
    25 1.535927 0.010246 0.005009 -0.002964 -0.012979 -0.682290
    26 1.100771 0.004527 -0.010679 -0.016147 -0.001453 -1.484153
    27 0.120153 -0.050270 -0.054489 0.287569 3.110905 1.561085
    28 -0.364522 -11.555672 -11.751642 -1.824994 -5.394956 -1.008698
    29 0.096944 -8.450418 -0.009365 0.075476 -1.267968 0.356845
    30 0.447953 -2.798986 -0.200443 -0.761407 0.042804 0.170619
    31 -0.032909 -1.480204 0.004940 -1.480139 0.000000 0.000002
    32 -0.027022 -1.076920 -0.020210 -0.375135 0.000000 0.000000
    33 -0.249534 -2.846964 -0.174213 -0.318562 0.002631 0.073866
    34 0.043235 -1.683941 0.096012 -1.876275 0.002823 -0.000167
    35 0.031729 -1.160830 0.058838 -0.099745 0.000642 0.008372
    36 -0.963866 -2.785145 -0.085350 0.076866 0.070929 0.053157
    37 0.028479 -1.403067 0.006271 -1.337909 0.000000 0.000000
    38 0.021413 -0.957781 0.020046 -1.052173 0.000000 0.000000
    39 1.164475 -2.543940 -0.170330 -1.221927 -0.015463 0.162804
    40 0.024032 -1.129042 0.017807 -0.900877 0.000000 0.000001
    41 0.014898 -0.883989 -0.019848 -0.928571 0.000000 0.000000
    42 -0.586770 -1.264477 0.200161 0.150010 0.013443 -2.613227
    43 1.522835 0.058681 0.016848 0.001410 0.008985 0.624684
    44 1.117947 0.048424 -0.005766 -0.002568 -0.011344 -0.141987
    45 -0.139399 -0.111698 0.014397 0.774181 0.191172 1.472862
    46 -6.260806 6.983652 -0.294122 1.580804 -0.005023 -0.912799
  time 11
    0 -0.349399 1.166145 0.203512 0.000000 0.000000 0.000000
    1 9.979771 1.624483 -8.754994 -1.652056 -1.333004 1.298939
    2 -0.071918 -8.498730 -0.104136 0.232796 0.089877 -0.203769
    3 2.672261 -3.383448 0.696208 0.083503 0.128137 -1.585662
    4 8.674173 -0.128572 0.000000 0.000000 0.000000 0.000000
    5 0.000000 0.000000 0.000000 0.000000 0.000000 0.000000
    6 4.045845 -0.586976 0.000000 0.000000 0.000000 0.000000
    7 -36.852687 -26.028138 0.054689 -0.114788 0.065484 0.000770
    8 1.039971 -0.940679 0.000000 0.000000 0.000000 -1.570796
    9 4.782106 0.485510 0.407405 0.000000 0.000000 -1.570796
    10 5.548040 -0.183522 0.000000 1.570796 -1.570796 0.000000
    11 1.257180 8.762585 -0.153713 -1.570562 0.002683 -1.566807
    12 -0.488518 -2.755602 -0.228260 -0.518305 -0.074854 -0.310571
    13 0.039887 -1.479790 0.029854 -2.289231 0.000000 0.000001
    14 0.028786 -1.075731 -0.023109 -0.271941 0.000000 0.000000
    15 0.250027 -2.820665 -0.238396 -0.350825 -0.052441 -0.187301
    16 -0.049759 -1.680544 0.100479 -2.246572 0.000000 -0.000002
    17 -0.034142 -1.148312 0.084782 -0.535851 0.000000 0.000000
    18 0.957766 -2.746780 -0.090302 0.329289 -0.172344 0.119866
    19 -0.033420 -1.397129 -0.011257 -1.115580 0.000000 -0.000001
    20 -0.022360 -0.957436 0.018784 -1.148807 0.000000 0.000000
    21 -1.180681 -2.507217 -0.193859 -0.309305 0.033033 -0.314313
    22 -0.024967 -1.123934 0.017597 -2.040737 0.000000 0.000001
    23 -0.020057 -0.890968 0.010090 -0.646720 0.000000 0.000000
    24 0.583510 -1.197277 0.185379 0.371183 -0.693166 -0.903076
    25 1.535927 0.010246 0.005009 -0.002964 -0.012979 -0.682290
    26 1.100771 0.004527 -0.010679 -0.016147 -0.001453 -1.484153
    27 0.120153 -0.050270 -0.054489 0.287569 3.110905 1.561085
    28 -0.290301 -11.559578 -11.833676 -1.822918 -5.404591 -1.018709
    29 0.096944 -8.450418 -0.009365 0.075476 -1.267968 0.356845
    30 0.447953 -2.798986 -0.200443 -0.761407 0.042804 0.170619
    31 -0.032909 -1.480204 0.004940 -1.480139 0.000000 0.000002
    32 -0.027022 -1.076920 -0.020210 -0.375135 0.000000 0.000000
    33 -0.249534 -2.846964 -0.174213 -0.318562 0.002631 0.073866
    34 0.043235 -1.683941 0.096012 -1.876275 0.002823 -0.000167
    35 0.031729 -1.160830 0.058838 -0.099745 0.000642 0.008372
    36 -0.963866 -2.785145 -0.085350 0.076866 0.070929 0.053157
    37 0.028479 -1.403067 0.006271 -1.337909 0.000000 0.000000
    38 0.021413 -0.957781 0.020046 -1.052173 0.000000 0.000000
    39 1.164475 -2.543940 -0.170330 -1.221927 -0.015463 0.162804
    40 0.024032 -1.129042 0.017807 -0.900877 0.000000 0.000001
    41 0.014898 -0.883989 -0.019848 -0.928571 0.000000 0.000000
    42 -0.586770 -1.264477 0.200161 0.150010 0.013443 -2.613227
    43 1.522835 0.058681 0.016848 0.001410 0.008985 0.624684
    44 1.117947 0.048424 -0.005766 -0.002568 -0.011344 -0.141987
    45 -0.139399 -0.111698 0.014397 0.774181 0.191172 1.472862
    46 -6.260806 6.983652 -0.294122 1.580804 -0.005023 -0.912799
  time 12
    0 -0.349399 1.166145 0.203512 0.000000 0.000000 0.000000
    1 9.956333 1.651827 -8.778432 -1.599400 -1.332716 1.249674
    2 -0.071918 -8.498730 -0.104136 0.224811 0.082962 -0.201264
    3 2.672261 -3.383448 0.696208 0.083503 0.128137 -1.585662
    4 8.674173 -0.128572 0.000000 0.000000 0.000000 0.000000
    5 0.000000 0.000000 0.000000 0.000000 0.000000 0.000000
    6 4.045845 -0.586976 0.000000 0.000000 0.000000 0.000000
    7 -35.274514 -28.086795 0.128910 -0.056340 0.034540 0.000501
    8 1.039971 -0.940679 0.000000 0.000000 0.000000 -1.570796
    9 4.782106 0.485510 0.407405 0.000000 0.000000 -1.570796
    10 5.548040 -0.183522 0.000000 1.570796 -1.570796 0.000000
    11 1.257180 8.762585 -0.153713 -1.570562 0.002683 -1.566807
    12 -0.488518 -2.755602 -0.228260 -0.518305 -0.074854 -0.310571
    13 0.039887 -1.479790 0.029854 -2.289231 0.000000 0.000001
    14 0.028786 -1.075731 -0.023109 -0.271941 0.000000 0.000000
    15 0.250027 -2.820665 -0.238396 -0.350825 -0.052441 -0.187301
    16 -0.049759 -1.680544 0.100479 -2.246572 0.000000 -0.000002
    17 -0.034142 -1.148312 0.084782 -0.535851 0.000000 0.000000
    18 0.957766 -2.746780 -0.090302 0.329289 -0.172344 0.119866
    19 -0.033420 -1.397129 -0.011257 -1.115580 0.000000 -0.000001
    20 -0.022360 -0.957436 0.018784 -1.148807 0.000000 0.000000
    21 -1.180681 -2.507217 -0.193859 -0.309305 0.033033 -0.314313
    22 -0.024967 -1.123934 0.017597 -2.040737 0.000000 0.000001
    23 -0.020057 -0.890968 0.010090 -0.646720 0.000000 0.000000
    24 0.583510 -1.197277 0.185379 0.371183 -0.693166 -0.903076
    25 1.535927 0.010246 0.005009 -0.002964 -0.012979 -0.682290
    26 1.100771 0.004527 -0.010679 -0.016147 -0.001453 -1.484153
    27 0.120153 -0.050270 -0.054489 0.287569 3.110905 1.561085
    28 -0.337177 -11.508795 -11.790706 -1.832963 -5.403123 -1.032248
    29 0.096944 -8.450418 -0.009365 0.075476 -1.267968 0.356845
    30 0.447953 -2.798986 -0.200443 -0.761407 0.042804 0.170619
    31 -0.032909 -1.480204 0.004940 -1.480139 0.000000 0.000002
    32 -0.027022 -1.076920 -0.020210 -0.375135 0.000000 0.000000
    33 -0.249534 -2.846964 -0.174213 -0.318562 0.002631 0.073866
    34 0.043235 -1.683941 0.096012 -1.876275 0.002823 -0.000167
    35 0.031729 -1.160830 0.058838 -0.099745 0.000642 0.008372
    36 -0.963866 -2.785145 -0.085350 0.076866 0.070929 0.053157
    37 0.028479 -1.403067 0.006271 -1.337909 0.000000 0.000000
    38 0.021413 -0.957781 0.020046 -1.052173 0.000000 0.000000
    39 1.164475 -2.543940 -0.170330 -1.221927 -0.015463 0.162804
    40 0.024032 -1.129042 0.017807 -0.900877 0.000000 0.000001
    41 0.014898 -0.883989 -0.019848 -0.928571 0.000000 0.000000
    42 -0.586770 -1.264477 0.200161 0.150010 0.013443 -2.613227
    43 1.522835 0.058681 0.016848 0.001410 0.008985 0.624684
    44 1.117947 0.048424 -0.005766 -0.002568 -0.011344 -0.141987
    45 -0.139399 -0.111698 0.014397 0.774181 0.191172 1.472862
    46 -6.260806 6.983652 -0.294122 1.580804 -0.005023 -0.912799
  time 13
    0 -0.349399 1.166145 0.203512 0.000000 0.000000 0.000000
    1 9.874299 1.714329 -8.778432 -1.567989 -1.332284 1.220320
    2 -0.071918 -8.498730 -0.104136 0.221967 0.080481 -0.200353
    3 2.672261 -3.383448 0.696208 0.083503 0.128137 -1.585662
    4 8.674173 -0.128572 0.000000 0.000000 0.000000 0.000000
    5 0.000000 0.000000 0.000000 0.000000 0.000000 0.000000
    6 4.045845 -0.586976 0.000000 0.000000 0.000000 0.000000
    7 -33.579150 -30.231391 0.000000 0.000000 0.000000 0.000000
    8 1.039971 -0.940679 0.000000 0.000000 0.000000 -1.570796
    9 4.782106 0.485510 0.407405 0.000000 0.000000 -1.570796
    10 5.548040 -0.183522 0.000000 1.570796 -1.570796 0.000000
    11 1.257180 8.762585 -0.153713 -1.570562 0.002683 -1.566807
    12 -0.488518 -2.755602 -0.228260 -0.518305 -0.074854 -0.310571
    13 0.039887 -1.479790 0.029854 -2.289231 0.000000 0.000001
    14 0.028786 -1.075731 -0.023109 -0.271941 0.000000 0.000000
    15 0.250027 -2.820665 -0.238396 -0.350825 -0.052441 -0.187301
    16 -0.049759 -1.680544 0.100479 -2.246572 0.000000 -0.000002
    17 -0.034142 -1.148312 0.084782 -0.535851 0.000000 0.000000
    18 0.957766 -2.746780 -0.090302 0.329289 -0.172344 0.119866
    19 -0.033420 -1.397129 -0.011257 -1.115580 0.000000 -0.000001
    20 -0.022360 -0.957436 0.018784 -1.148807 0.000000 0.000000
    21 -1.180681 -2.507217 -0.193859 -0.309305 0.033033 -0.314313
    22 -0.024967 -1.123934 0.017597 -2.040737 0.000000 0.000001
    23 -0.020057 -0.890968 0.010090 -0.646720 0.000000 0.000000
    24 0.583510 -1.197277 0.185379 0.371183 -0.693166 -0.903076
    25 1.535927 0.010246 0.005009 -0.002964 -0.012979 -0.682290
    26 1.100771 0.004527 -0.010679 -0.016147 -0.001453 -1.484153
    27 0.120153 -0.050270 -0.054489 0.287569 3.110905 1.561085
    28 -0.430930 -11.438480 -11.747736 -1.839794 -5.400462 -1.039113
    29 0.096944 -8.450418 -0.009365 0.075476 -1.267968 0.356845
    30 0.447953 -2.798986 -0.200443 -0.761407 0.042804 0.170619
    31 -0.032909 -1.480204 0.004940 -1.480139 0.000000 0.000002
    32 -0.027022 -1.076920 -0.020210 -0.375135 0.000000 0.000000
    33 -0.249534 -2.846964 -0.174213 -0.318562 0.002631 0.073866
    34 0.043235 -1.683941 0.096012 -1.876275 0.002823 -0.000167
    35 0.031729 -1.160830 0.058838 -0.099745 0.000642 0.008372
    36 -0.963866 -2.785145 -0.085350 0.076866 0.070929 0.053157
    37 0.028479 -1.403067 0.006271 -1.337909 0.000000 0.000000
    38 0.021413 -0.957781 0.020046 -1.052173 0.000000 0.000000
    39 1.164475 -2.543940 -0.170330 -1.221927 -0.015463 0.162804
    40 0.024032 -1.129042 0.017807 -0.900877 0.000000 0.000001
    41 0.014898 -0.883989 -0.019848 -0.928571 0.000000 0.000000
    42 -0.586770 -1.264477 0.200161 0.150010 0.013443 -2.613227
    43 1.522835 0.058681 0.016848 0.001410 0.008985 0.624684
    44 1.117947 0.048424 -0.005766 -0.002568 -0.011344 -0.141987
    45 -0.139399 -0.111698 0.014397 0.774181 0.191172 1.472862
    46 -6.260806 6.983652 -0.294122 1.580804 -0.005023 -0.912799
end
