// Created by Crowbar 0.68

$modelname "weapons/tfa_cso/w_janus7.mdl"

$bodygroup "studio"
{
	studio "w_ref"
}

$collisionmodel "w_ref.smd"
{
	$mass 9
}

$CDMaterials "models\weapons\tfa_cso\janus7\"

$attachment "0" "root" -0.60 -34.00 -0.60 rotate -0 -90 0

$sequence "idle" {
	"w_janus7_anims\idle"
	fps 30
}
