version 1
nodes
0 "001" -1
end
skeleton
time 0
0  0.000000 0.000000 0.000000  0.000000 -0.000000 0.000000
end
triangles
y20s2sacr4_Grenade.bmp
0  -1.618590 0.006670 1.839190  -0.660649 0.002723 0.750690  0.118110 0.629921 1 0 1.000000
0  -1.594988 -6.373135 1.883100  -0.637288 -0.254720 0.727311  0.740157 0.629921 1 0 1.000000
0  -0.484740 0.014707 2.397418  -0.197120 0.006018 0.980361  0.118110 0.748031 1 0 1.000000
y20s2sacr4_Grenade.bmp
0  -0.484740 0.014707 2.397418  -0.197120 0.006018 0.980361  0.118110 0.748031 1 0 1.000000
0  -1.594988 -6.373135 1.883100  -0.637288 -0.254720 0.727311  0.740157 0.629921 1 0 1.000000
0  -0.461137 -6.365098 2.441327  -0.188889 -0.250973 0.949386  0.740157 0.748031 1 0 1.000000
y20s2sacr4_Grenade.bmp
0  -1.594988 -6.373135 1.883100  -0.637288 -0.254720 0.727311  0.740157 0.629921 1 0 1.000000
0  -1.174894 -7.424818 1.417392  -0.447079 -0.730444 0.516307  0.866142 0.629921 1 0 1.000000
0  -0.461137 -6.365098 2.441327  -0.188889 -0.250973 0.949386  0.740157 0.748031 1 0 1.000000
y20s2sacr4_Grenade.bmp
0  -0.461137 -6.365098 2.441327  -0.188889 -0.250973 0.949386  0.740157 0.748031 1 0 1.000000
0  -1.174894 -7.424818 1.417392  -0.447079 -0.730444 0.516307  0.866142 0.629921 1 0 1.000000
0  -0.326608 -7.418834 1.830883  -0.131500 -0.728044 0.672800  0.866142 0.724409 1 0 1.000000
y20s2sacr4_Grenade.bmp
0  -1.174894 -7.424818 1.417392  -0.447079 -0.730444 0.516307  0.866142 0.629921 1 0 1.000000
0  0.030299 -8.189750 0.056367  0.003700 -0.999969 0.006882  0.960630 0.629921 1 0 1.000000
0  -0.326608 -7.418834 1.830883  -0.131500 -0.728044 0.672800  0.866142 0.724409 1 0 1.000000
y20s2sacr4_Grenade.bmp
0  -0.326608 -7.418834 1.830883  -0.131500 -0.728044 0.672800  0.866142 0.724409 1 0 1.000000
0  0.030299 -8.189750 0.056367  0.003700 -0.999969 0.006882  0.960630 0.629921 1 0 1.000000
0  0.604873 -7.415796 1.771436  0.220612 -0.726903 0.650340  0.866142 0.811024 1 0 1.000000
y20s2sacr4_Grenade.bmp
0  0.030299 -8.189750 0.056367  0.003700 -0.999969 0.006882  0.960630 0.629921 1 0 1.000000
0  1.393735 -7.416443 1.253463  0.513923 -0.727277 0.454919  0.866142 0.905512 1 0 1.000000
0  0.604873 -7.415796 1.771436  0.220612 -0.726903 0.650340  0.866142 0.811024 1 0 1.000000
y20s2sacr4_Grenade.bmp
0  0.604873 -7.415796 1.771436  0.220612 -0.726903 0.650340  0.866142 0.811024 1 0 1.000000
0  1.393735 -7.416443 1.253463  0.513923 -0.727277 0.454919  0.866142 0.905512 1 0 1.000000
0  1.862783 -6.361862 1.662426  0.726300 -0.250537 0.640093  0.740157 0.976378 1 0 1.000000
y20s2sacr4_Grenade.bmp
0  1.393735 -7.416443 1.253463  0.513923 -0.727277 0.454919  0.866142 0.905512 1 0 1.000000
0  1.807255 -7.420752 0.405180  0.670484 -0.728757 0.139154  0.866142 0.811024 1 0 1.000000
0  1.862783 -6.361862 1.662426  0.726300 -0.250537 0.640093  0.740157 0.976378 1 0 1.000000
y20s2sacr4_Grenade.bmp
0  1.862783 -6.361862 1.662426  0.726300 -0.250537 0.640093  0.740157 0.976378 1 0 1.000000
0  1.807255 -7.420752 0.405180  0.670484 -0.728757 0.139154  0.866142 0.811024 1 0 1.000000
0  2.421049 -6.367600 0.528580  0.948683 -0.251894 0.191181  0.740157 0.858268 1 0 1.000000
y20s2sacr4_Grenade.bmp
0  1.807255 -7.420752 0.405180  0.670484 -0.728757 0.139154  0.866142 0.811024 1 0 1.000000
0  1.747831 -7.427382 -0.526283  0.648034 -0.731250 -0.212899  0.866142 0.724409 1 0 1.000000
0  2.421049 -6.367600 0.528580  0.948683 -0.251894 0.191181  0.740157 0.858268 1 0 1.000000
y20s2sacr4_Grenade.bmp
0  2.421049 -6.367600 0.528580  0.948683 -0.251894 0.191181  0.740157 0.858268 1 0 1.000000
0  1.747831 -7.427382 -0.526283  0.648034 -0.731250 -0.212899  0.866142 0.724409 1 0 1.000000
0  2.340016 -6.376642 -0.741597  0.916481 -0.255909 -0.307527  0.740157 0.748031 1 0 1.000000
y20s2sacr4_Grenade.bmp
0  1.747831 -7.427382 -0.526283  0.648034 -0.731250 -0.212899  0.866142 0.724409 1 0 1.000000
0  1.229869 -7.434728 -1.315119  0.452672 -0.734152 -0.506072  0.866142 0.629921 1 0 1.000000
0  2.340016 -6.376642 -0.741597  0.916481 -0.255909 -0.307527  0.740157 0.748031 1 0 1.000000
y20s2sacr4_Grenade.bmp
0  2.340016 -6.376642 -0.741597  0.916481 -0.255909 -0.307527  0.740157 0.748031 1 0 1.000000
0  1.229869 -7.434728 -1.315119  0.452672 -0.734152 -0.506072  0.866142 0.629921 1 0 1.000000
0  1.642193 -6.386476 -1.795280  0.639503 -0.259981 -0.723495  0.740157 0.629921 1 0 1.000000
y20s2sacr4_Grenade.bmp
0  1.229869 -7.434728 -1.315119  0.452672 -0.734152 -0.506072  0.866142 0.629921 1 0 1.000000
0  0.381583 -7.440712 -1.728610  0.136842 -0.736251 -0.662728  0.866142 0.535433 1 0 1.000000
0  1.642193 -6.386476 -1.795280  0.639503 -0.259981 -0.723495  0.740157 0.629921 1 0 1.000000
y20s2sacr4_Grenade.bmp
0  1.642193 -6.386476 -1.795280  0.639503 -0.259981 -0.723495  0.740157 0.629921 1 0 1.000000
0  0.381583 -7.440712 -1.728610  0.136842 -0.736251 -0.662728  0.866142 0.535433 1 0 1.000000
0  0.508343 -6.394513 -2.353508  0.190390 -0.262526 -0.945955  0.740157 0.511811 1 0 1.000000
y20s2sacr4_Grenade.bmp
0  0.381583 -7.440712 -1.728610  0.136842 -0.736251 -0.662728  0.866142 0.535433 1 0 1.000000
0  -0.549898 -7.443749 -1.669163  -0.215267 -0.737391 -0.640246  0.866142 0.440945 1 0 1.000000
0  0.508343 -6.394513 -2.353508  0.190390 -0.262526 -0.945955  0.740157 0.511811 1 0 1.000000
y20s2sacr4_Grenade.bmp
0  0.508343 -6.394513 -2.353508  0.190390 -0.262526 -0.945955  0.740157 0.511811 1 0 1.000000
0  -0.549898 -7.443749 -1.669163  -0.215267 -0.737391 -0.640246  0.866142 0.440945 1 0 1.000000
0  -0.761859 -6.398654 -2.272444  -0.308026 -0.264411 -0.913896  0.740157 0.393701 1 0 1.000000
y20s2sacr4_Grenade.bmp
0  -0.549898 -7.443749 -1.669163  -0.215267 -0.737391 -0.640246  0.866142 0.440945 1 0 1.000000
0  -1.338761 -7.443103 -1.151190  -0.508382 -0.737403 -0.444730  0.866142 0.354331 1 0 1.000000
0  -0.761859 -6.398654 -2.272444  -0.308026 -0.264411 -0.913896  0.740157 0.393701 1 0 1.000000
y20s2sacr4_Grenade.bmp
0  -0.761859 -6.398654 -2.272444  -0.308026 -0.264411 -0.913896  0.740157 0.393701 1 0 1.000000
0  -1.338761 -7.443103 -1.151190  -0.508382 -0.737403 -0.444730  0.866142 0.354331 1 0 1.000000
0  -1.815577 -6.397749 -1.574606  -0.724457 -0.264383 -0.636604  0.740157 0.275591 1 0 1.000000
y20s2sacr4_Grenade.bmp
0  -1.338761 -7.443103 -1.151190  -0.508382 -0.737403 -0.444730  0.866142 0.354331 1 0 1.000000
0  -2.373843 -6.392011 -0.440760  -0.946577 -0.261780 -0.188317  0.740157 0.393701 1 0 1.000000
0  -1.815577 -6.397749 -1.574606  -0.724457 -0.264383 -0.636604  0.740157 0.275591 1 0 1.000000
y20s2sacr4_Grenade.bmp
0  -1.815577 -6.397749 -1.574606  -0.724457 -0.264383 -0.636604  0.740157 0.275591 1 0 1.000000
0  -2.373843 -6.392011 -0.440760  -0.946577 -0.261780 -0.188317  0.740157 0.393701 1 0 1.000000
0  -2.397446 -0.012205 -0.484670  -0.980383 -0.004983 -0.197041  0.118110 0.393701 1 0 1.000000
y20s2sacr4_Grenade.bmp
0  -2.373843 -6.392011 -0.440760  -0.946577 -0.261780 -0.188317  0.740157 0.393701 1 0 1.000000
0  -2.316413 -0.003164 0.785507  -0.947376 -0.001302 0.320121  0.118110 0.511811 1 0 1.000000
0  -2.397446 -0.012205 -0.484670  -0.980383 -0.004983 -0.197041  0.118110 0.393701 1 0 1.000000
y20s2sacr4_Grenade.bmp
0  0.604873 -7.415796 1.771436  0.220612 -0.726903 0.650340  0.866142 0.811024 1 0 1.000000
0  1.862783 -6.361862 1.662426  0.726300 -0.250537 0.640093  0.740157 0.976378 1 0 1.000000
0  0.809065 -6.360957 2.360264  0.309287 -0.249259 0.917721  0.740157 0.858268 1 0 1.000000
y20s2sacr4_Grenade.bmp
0  0.809065 -6.360957 2.360264  0.309287 -0.249259 0.917721  0.740157 0.858268 1 0 1.000000
0  1.862783 -6.361862 1.662426  0.726300 -0.250537 0.640093  0.740157 0.976378 1 0 1.000000
0  1.839180 0.017944 1.618516  0.750686 0.007324 0.660619  0.118110 0.976378 1 0 1.000000
y20s2sacr4_Grenade.bmp
0  1.862783 -6.361862 1.662426  0.726300 -0.250537 0.640093  0.740157 0.976378 1 0 1.000000
0  2.421049 -6.367600 0.528580  0.948683 -0.251894 0.191181  0.740157 0.858268 1 0 1.000000
0  1.839180 0.017944 1.618516  0.750686 0.007324 0.660619  0.118110 0.976378 1 0 1.000000
y20s2sacr4_Grenade.bmp
0  1.839180 0.017944 1.618516  0.750686 0.007324 0.660619  0.118110 0.976378 1 0 1.000000
0  2.421049 -6.367600 0.528580  0.948683 -0.251894 0.191181  0.740157 0.858268 1 0 1.000000
0  2.397446 0.012205 0.484670  0.980383 0.004983 0.197041  0.118110 0.858268 1 0 1.000000
y20s2sacr4_Grenade.bmp
0  2.421049 -6.367600 0.528580  0.948683 -0.251894 0.191181  0.740157 0.858268 1 0 1.000000
0  2.340016 -6.376642 -0.741597  0.916481 -0.255909 -0.307527  0.740157 0.748031 1 0 1.000000
0  2.397446 0.012205 0.484670  0.980383 0.004983 0.197041  0.118110 0.858268 1 0 1.000000
y20s2sacr4_Grenade.bmp
0  2.397446 0.012205 0.484670  0.980383 0.004983 0.197041  0.118110 0.858268 1 0 1.000000
0  2.340016 -6.376642 -0.741597  0.916481 -0.255909 -0.307527  0.740157 0.748031 1 0 1.000000
0  2.316413 0.003164 -0.785507  0.947409 0.001302 -0.320022  0.118110 0.748031 1 0 1.000000
y20s2sacr4_Grenade.bmp
0  2.340016 -6.376642 -0.741597  0.916481 -0.255909 -0.307527  0.740157 0.748031 1 0 1.000000
0  1.642193 -6.386476 -1.795280  0.639503 -0.259981 -0.723495  0.740157 0.629921 1 0 1.000000
0  2.316413 0.003164 -0.785507  0.947409 0.001302 -0.320022  0.118110 0.748031 1 0 1.000000
y20s2sacr4_Grenade.bmp
0  2.316413 0.003164 -0.785507  0.947409 0.001302 -0.320022  0.118110 0.748031 1 0 1.000000
0  1.642193 -6.386476 -1.795280  0.639503 -0.259981 -0.723495  0.740157 0.629921 1 0 1.000000
0  1.618590 -0.006670 -1.839190  0.660649 -0.002723 -0.750690  0.118110 0.629921 1 0 1.000000
y20s2sacr4_Grenade.bmp
0  1.642193 -6.386476 -1.795280  0.639503 -0.259981 -0.723495  0.740157 0.629921 1 0 1.000000
0  0.508343 -6.394513 -2.353508  0.190390 -0.262526 -0.945955  0.740157 0.511811 1 0 1.000000
0  1.618590 -0.006670 -1.839190  0.660649 -0.002723 -0.750690  0.118110 0.629921 1 0 1.000000
y20s2sacr4_Grenade.bmp
0  1.618590 -0.006670 -1.839190  0.660649 -0.002723 -0.750690  0.118110 0.629921 1 0 1.000000
0  0.508343 -6.394513 -2.353508  0.190390 -0.262526 -0.945955  0.740157 0.511811 1 0 1.000000
0  0.484740 -0.014707 -2.397418  0.197121 -0.006018 -0.980361  0.118110 0.511811 1 0 1.000000
y20s2sacr4_Grenade.bmp
0  0.508343 -6.394513 -2.353508  0.190390 -0.262526 -0.945955  0.740157 0.511811 1 0 1.000000
0  -0.761859 -6.398654 -2.272444  -0.308026 -0.264411 -0.913896  0.740157 0.393701 1 0 1.000000
0  0.484740 -0.014707 -2.397418  0.197121 -0.006018 -0.980361  0.118110 0.511811 1 0 1.000000
y20s2sacr4_Grenade.bmp
0  0.484740 -0.014707 -2.397418  0.197121 -0.006018 -0.980361  0.118110 0.511811 1 0 1.000000
0  -0.761859 -6.398654 -2.272444  -0.308026 -0.264411 -0.913896  0.740157 0.393701 1 0 1.000000
0  -0.785462 -0.018849 -2.316354  -0.320003 -0.007705 -0.947385  0.118110 0.393701 1 0 1.000000
y20s2sacr4_Grenade.bmp
0  -0.761859 -6.398654 -2.272444  -0.308026 -0.264411 -0.913896  0.740157 0.393701 1 0 1.000000
0  -1.815577 -6.397749 -1.574606  -0.724457 -0.264383 -0.636604  0.740157 0.275591 1 0 1.000000
0  -0.785462 -0.018849 -2.316354  -0.320003 -0.007705 -0.947385  0.118110 0.393701 1 0 1.000000
y20s2sacr4_Grenade.bmp
0  -0.785462 -0.018849 -2.316354  -0.320003 -0.007705 -0.947385  0.118110 0.393701 1 0 1.000000
0  -1.815577 -6.397749 -1.574606  -0.724457 -0.264383 -0.636604  0.740157 0.275591 1 0 1.000000
0  -1.839180 -0.017944 -1.618516  -0.750686 -0.007324 -0.660619  0.118110 0.275591 1 0 1.000000
y20s2sacr4_Grenade.bmp
0  -1.815577 -6.397749 -1.574606  -0.724457 -0.264383 -0.636604  0.740157 0.275591 1 0 1.000000
0  -2.397446 -0.012205 -0.484670  -0.980383 -0.004983 -0.197041  0.118110 0.393701 1 0 1.000000
0  -1.839180 -0.017944 -1.618516  -0.750686 -0.007324 -0.660619  0.118110 0.275591 1 0 1.000000
y20s2sacr4_Grenade.bmp
0  0.030299 -8.189750 0.056367  0.003700 -0.999969 0.006882  0.960630 0.629921 1 0 1.000000
0  1.807255 -7.420752 0.405180  0.670484 -0.728757 0.139154  0.866142 0.811024 1 0 1.000000
0  1.393735 -7.416443 1.253463  0.513923 -0.727277 0.454919  0.866142 0.905512 1 0 1.000000
y20s2sacr4_Grenade.bmp
0  0.030299 -8.189750 0.056367  0.003700 -0.999969 0.006882  0.960630 0.629921 1 0 1.000000
0  1.747831 -7.427382 -0.526283  0.648034 -0.731250 -0.212899  0.866142 0.724409 1 0 1.000000
0  1.807255 -7.420752 0.405180  0.670484 -0.728757 0.139154  0.866142 0.811024 1 0 1.000000
y20s2sacr4_Grenade.bmp
0  0.030299 -8.189750 0.056367  0.003700 -0.999969 0.006882  0.960630 0.629921 1 0 1.000000
0  1.229869 -7.434728 -1.315119  0.452672 -0.734152 -0.506072  0.866142 0.629921 1 0 1.000000
0  1.747831 -7.427382 -0.526283  0.648034 -0.731250 -0.212899  0.866142 0.724409 1 0 1.000000
y20s2sacr4_Grenade.bmp
0  0.030299 -8.189750 0.056367  0.003700 -0.999969 0.006882  0.960630 0.629921 1 0 1.000000
0  0.381583 -7.440712 -1.728610  0.136842 -0.736251 -0.662728  0.866142 0.535433 1 0 1.000000
0  1.229869 -7.434728 -1.315119  0.452672 -0.734152 -0.506072  0.866142 0.629921 1 0 1.000000
y20s2sacr4_Grenade.bmp
0  0.030299 -8.189750 0.056367  0.003700 -0.999969 0.006882  0.960630 0.629921 1 0 1.000000
0  -0.549898 -7.443749 -1.669163  -0.215267 -0.737391 -0.640246  0.866142 0.440945 1 0 1.000000
0  0.381583 -7.440712 -1.728610  0.136842 -0.736251 -0.662728  0.866142 0.535433 1 0 1.000000
y20s2sacr4_Grenade.bmp
0  0.030299 -8.189750 0.056367  0.003700 -0.999969 0.006882  0.960630 0.629921 1 0 1.000000
0  -1.338761 -7.443103 -1.151190  -0.508382 -0.737403 -0.444730  0.866142 0.354331 1 0 1.000000
0  -0.549898 -7.443749 -1.669163  -0.215267 -0.737391 -0.640246  0.866142 0.440945 1 0 1.000000
y20s2sacr4_Grenade.bmp
0  0.030299 -8.189750 0.056367  0.003700 -0.999969 0.006882  0.960630 0.629921 1 0 1.000000
0  -1.752280 -7.438794 -0.302907  -0.665078 -0.735531 -0.129097  0.866142 0.440945 1 0 1.000000
0  -1.338761 -7.443103 -1.151190  -0.508382 -0.737403 -0.444730  0.866142 0.354331 1 0 1.000000
y20s2sacr4_Grenade.bmp
0  0.030299 -8.189750 0.056367  0.003700 -0.999969 0.006882  0.960630 0.629921 1 0 1.000000
0  -1.692856 -7.432163 0.628556  -0.642608 -0.733039 0.222955  0.866142 0.535433 1 0 1.000000
0  -1.752280 -7.438794 -0.302907  -0.665078 -0.735531 -0.129097  0.866142 0.440945 1 0 1.000000
y20s2sacr4_Grenade.bmp
0  0.030299 -8.189750 0.056367  0.003700 -0.999969 0.006882  0.960630 0.629921 1 0 1.000000
0  -1.174894 -7.424818 1.417392  -0.447079 -0.730444 0.516307  0.866142 0.629921 1 0 1.000000
0  -1.692856 -7.432163 0.628556  -0.642608 -0.733039 0.222955  0.866142 0.535433 1 0 1.000000
y20s2sacr4_Grenade.bmp
0  -2.292810 -6.382969 0.829417  -0.915028 -0.257971 0.310122  0.740157 0.511811 1 0 1.000000
0  -1.618590 0.006670 1.839190  -0.660649 0.002723 0.750690  0.118110 0.629921 1 0 1.000000
0  -2.316413 -0.003164 0.785507  -0.947376 -0.001302 0.320121  0.118110 0.511811 1 0 1.000000
y20s2sacr4_Grenade.bmp
0  -2.292810 -6.382969 0.829417  -0.915028 -0.257971 0.310122  0.740157 0.511811 1 0 1.000000
0  -1.594988 -6.373135 1.883100  -0.637288 -0.254720 0.727311  0.740157 0.629921 1 0 1.000000
0  -1.618590 0.006670 1.839190  -0.660649 0.002723 0.750690  0.118110 0.629921 1 0 1.000000
y20s2sacr4_Grenade.bmp
0  -2.292810 -6.382969 0.829417  -0.915028 -0.257971 0.310122  0.740157 0.511811 1 0 1.000000
0  -1.692856 -7.432163 0.628556  -0.642608 -0.733039 0.222955  0.866142 0.535433 1 0 1.000000
0  -1.594988 -6.373135 1.883100  -0.637288 -0.254720 0.727311  0.740157 0.629921 1 0 1.000000
y20s2sacr4_Grenade.bmp
0  -2.292810 -6.382969 0.829417  -0.915028 -0.257971 0.310122  0.740157 0.511811 1 0 1.000000
0  -1.752280 -7.438794 -0.302907  -0.665078 -0.735531 -0.129097  0.866142 0.440945 1 0 1.000000
0  -1.692856 -7.432163 0.628556  -0.642608 -0.733039 0.222955  0.866142 0.535433 1 0 1.000000
y20s2sacr4_Grenade.bmp
0  -2.292810 -6.382969 0.829417  -0.915028 -0.257971 0.310122  0.740157 0.511811 1 0 1.000000
0  -2.373843 -6.392011 -0.440760  -0.946577 -0.261780 -0.188317  0.740157 0.393701 1 0 1.000000
0  -1.752280 -7.438794 -0.302907  -0.665078 -0.735531 -0.129097  0.866142 0.440945 1 0 1.000000
y20s2sacr4_Grenade.bmp
0  -2.292810 -6.382969 0.829417  -0.915028 -0.257971 0.310122  0.740157 0.511811 1 0 1.000000
0  -2.316413 -0.003164 0.785507  -0.947376 -0.001302 0.320121  0.118110 0.511811 1 0 1.000000
0  -2.373843 -6.392011 -0.440760  -0.946577 -0.261780 -0.188317  0.740157 0.393701 1 0 1.000000
y20s2sacr4_Grenade.bmp
0  1.839180 0.017944 1.618516  -0.003700 0.999969 -0.006882  0.259843 0.015748 1 0 1.000000
0  -1.618590 0.006670 1.839190  -0.003700 0.999969 -0.006882  0.496063 0.251969 1 0 1.000000
0  0.785462 0.018849 2.316354  -0.003700 0.999969 -0.006882  0.291339 0.133858 1 0 1.000000
y20s2sacr4_Grenade.bmp
0  1.839180 0.017944 1.618516  -0.003700 0.999969 -0.006882  0.259843 0.015748 1 0 1.000000
0  -2.397446 -0.012205 -0.484670  -0.003700 0.999969 -0.006882  0.692913 0.133858 1 0 1.000000
0  -1.618590 0.006670 1.839190  -0.003700 0.999969 -0.006882  0.496063 0.251969 1 0 1.000000
y20s2sacr4_Grenade.bmp
0  1.839180 0.017944 1.618516  -0.003700 0.999969 -0.006882  0.259843 0.015748 1 0 1.000000
0  -1.839180 -0.017944 -1.618516  -0.003700 0.999969 -0.006882  0.724409 0.015748 1 0 1.000000
0  -2.397446 -0.012205 -0.484670  -0.003700 0.999969 -0.006882  0.692913 0.133858 1 0 1.000000
y20s2sacr4_Grenade.bmp
0  1.839180 0.017944 1.618516  -0.003700 0.999969 -0.006882  0.259843 0.015748 1 0 1.000000
0  -0.785462 -0.018849 -2.316354  -0.003700 0.999970 -0.006882  0.692913 0.133858 1 0 1.000000
0  -1.839180 -0.017944 -1.618516  -0.003700 0.999969 -0.006882  0.724409 0.015748 1 0 1.000000
y20s2sacr4_Grenade.bmp
0  1.839180 0.017944 1.618516  -0.003700 0.999969 -0.006882  0.259843 0.015748 1 0 1.000000
0  1.618590 -0.006670 -1.839190  -0.003700 0.999969 -0.006882  0.496063 0.251969 1 0 1.000000
0  -0.785462 -0.018849 -2.316354  -0.003700 0.999970 -0.006882  0.692913 0.133858 1 0 1.000000
y20s2sacr4_Grenade.bmp
0  1.839180 0.017944 1.618516  -0.003700 0.999969 -0.006882  0.259843 0.015748 1 0 1.000000
0  2.397446 0.012205 0.484670  -0.003700 0.999969 -0.006882  0.291339 0.133858 1 0 1.000000
0  1.618590 -0.006670 -1.839190  -0.003700 0.999969 -0.006882  0.496063 0.251969 1 0 1.000000
y20s2sacr4_Grenade.bmp
0  -0.484740 0.014707 2.397418  -0.197120 0.006018 0.980361  0.118110 0.748031 1 0 1.000000
0  -0.461137 -6.365098 2.441327  -0.188889 -0.250973 0.949386  0.740157 0.748031 1 0 1.000000
0  0.785462 0.018849 2.316354  0.320152 0.007704 0.947335  0.118110 0.858268 1 0 1.000000
y20s2sacr4_Grenade.bmp
0  0.785462 0.018849 2.316354  0.320152 0.007704 0.947335  0.118110 0.858268 1 0 1.000000
0  -0.461137 -6.365098 2.441327  -0.188889 -0.250973 0.949386  0.740157 0.748031 1 0 1.000000
0  0.809065 -6.360957 2.360264  0.309287 -0.249259 0.917721  0.740157 0.858268 1 0 1.000000
y20s2sacr4_Grenade.bmp
0  -0.461137 -6.365098 2.441327  -0.188889 -0.250973 0.949386  0.740157 0.748031 1 0 1.000000
0  -0.326608 -7.418834 1.830883  -0.131500 -0.728044 0.672800  0.866142 0.724409 1 0 1.000000
0  0.809065 -6.360957 2.360264  0.309287 -0.249259 0.917721  0.740157 0.858268 1 0 1.000000
y20s2sacr4_Grenade.bmp
0  0.809065 -6.360957 2.360264  0.309287 -0.249259 0.917721  0.740157 0.858268 1 0 1.000000
0  -0.326608 -7.418834 1.830883  -0.131500 -0.728044 0.672800  0.866142 0.724409 1 0 1.000000
0  0.604873 -7.415796 1.771436  0.220612 -0.726903 0.650340  0.866142 0.811024 1 0 1.000000
y20s2sacr4_Grenade.bmp
0  0.809065 -6.360957 2.360264  0.309287 -0.249259 0.917721  0.740157 0.858268 1 0 1.000000
0  1.839180 0.017944 1.618516  0.750686 0.007324 0.660619  0.118110 0.976378 1 0 1.000000
0  0.785462 0.018849 2.316354  0.320152 0.007704 0.947335  0.118110 0.858268 1 0 1.000000
y20s2sacr4_Grenade.bmp
0  -1.594988 -6.373135 1.883100  -0.637288 -0.254720 0.727311  0.740157 0.629921 1 0 1.000000
0  -1.692856 -7.432163 0.628556  -0.642608 -0.733039 0.222955  0.866142 0.535433 1 0 1.000000
0  -1.174894 -7.424818 1.417392  -0.447079 -0.730444 0.516307  0.866142 0.629921 1 0 1.000000
y20s2sacr4_Grenade.bmp
0  -2.373843 -6.392011 -0.440760  -0.946577 -0.261780 -0.188317  0.740157 0.393701 1 0 1.000000
0  -1.338761 -7.443103 -1.151190  -0.508382 -0.737403 -0.444730  0.866142 0.354331 1 0 1.000000
0  -1.752280 -7.438794 -0.302907  -0.665078 -0.735531 -0.129097  0.866142 0.440945 1 0 1.000000
y20s2sacr4_Grenade.bmp
0  -1.618590 0.006670 1.839190  -0.003700 0.999969 -0.006882  0.496063 0.251969 1 0 1.000000
0  -2.397446 -0.012205 -0.484670  -0.003700 0.999969 -0.006882  0.692913 0.133858 1 0 1.000000
0  -2.316413 -0.003164 0.785507  -0.003700 0.999969 -0.006882  0.614173 0.220472 1 0 1.000000
y20s2sacr4_Grenade.bmp
0  0.785462 0.018849 2.316354  -0.003700 0.999969 -0.006882  0.291339 0.133858 1 0 1.000000
0  -1.618590 0.006670 1.839190  -0.003700 0.999969 -0.006882  0.496063 0.251969 1 0 1.000000
0  -0.484740 0.014707 2.397418  -0.003700 0.999970 -0.006882  0.377953 0.220472 1 0 1.000000
y20s2sacr4_Grenade.bmp
0  1.618590 -0.006670 -1.839190  -0.003700 0.999969 -0.006882  0.496063 0.251969 1 0 1.000000
0  2.397446 0.012205 0.484670  -0.003700 0.999969 -0.006882  0.291339 0.133858 1 0 1.000000
0  2.316413 0.003164 -0.785507  -0.003700 0.999969 -0.006882  0.377953 0.220472 1 0 1.000000
y20s2sacr4_Grenade.bmp
0  -0.785462 -0.018849 -2.316354  -0.003700 0.999970 -0.006882  0.692913 0.133858 1 0 1.000000
0  1.618590 -0.006670 -1.839190  -0.003700 0.999969 -0.006882  0.496063 0.251969 1 0 1.000000
0  0.484740 -0.014707 -2.397418  -0.003700 0.999970 -0.006882  0.614173 0.220472 1 0 1.000000
end
