// Created by Crowbar 0.34.0.0

$ModelName "weapons/tfa_cso/w_k1a.mdl"

$BodyGroup "studio"
{
	studio "w_k1a"
}

$collisionmodel "w_k1a.smd"
{
	$mass 9
}

$CDMaterials "models\weapons\tfa_cso\k1a"

$attachment "0" "root" -0.00 -19.50 0.20 rotate -0 -90 0

$Sequence "idle" {
	"anims\idle.smd"
	fps 30
}