version 1
nodes
  0 "Bone04" -1
  1 "Bone_Righthand" 0
  2 "NEXON_CSO_infi_Root_R" 1
  3 "NEXON_CSO_infi_Dummy_R" 2
  4 "NEXON_CSO_infi_Triigger_R" 3
  5 "NEXON_CSO_infi_Nori_R" 3
  6 "NEXON_CSO_infi_Slide_R" 3
  7 "NEXON_CSO_infi_Magazine_R" 3
  8 "NEXON_CSO_infi_Bullet_R" 7
  9 "Bone01" -1
  10 "Bone_Lefthand" 9
  11 "NEXON_CSO_infi_Root_L" 10
  12 "NEXON_CSO_infi_Dummy_L" 11
  13 "NEXON_CSO_infi_Slide_L" 12
  14 "NEXON_CSO_infi_Nori_L" 12
  15 "NEXON_CSO_infi_Triigger_L" 12
  16 "NEXON_CSO_infi_Magazine_L" 12
  17 "NEXON_CSO_infi_Bullet_L" 16
  18 "Bone27" 1
  19 "Bone28" 18
  20 "Bone29" 19
  21 "Bone31" 1
  22 "Bone32" 21
  23 "Bone33" 22
  24 "Bone35" 1
  25 "Bone36" 24
  26 "Bone37" 25
  27 "Bone39" 1
  28 "Bone40" 27
  29 "Bone41" 28
  30 "Bone43" 1
  31 "Bone44" 30
  32 "Bone45" 31
  33 "Bone_Se_Hand-R" 1
  34 "Bone05" 10
  35 "Bone06" 34
  36 "Bone07" 35
  37 "Bone21" 10
  38 "Bone22" 37
  39 "Bone23" 38
  40 "Bone17" 10
  41 "Bone18" 40
  42 "Bone19" 41
  43 "Bone13" 10
  44 "Bone14" 43
  45 "Bone15" 44
  46 "Bone09" 10
  47 "Bone10" 46
  48 "Bone11" 47
  49 "Bone_Se_Hand-L" 10
end
skeleton
  time 0
    0 -11.960718 0.864584 -7.922828 0.847156 1.867272 1.276235
    1 0.096945 -8.450421 -0.009365 0.352763 -0.231470 0.212837
    2 -0.192877 -2.997166 0.754425 0.973027 -1.502063 -0.975591
    3 0.000000 -1.808651 1.012937 0.000000 0.000000 0.000000
    4 0.000000 0.925423 0.002903 0.000000 0.000000 0.000000
    5 0.000000 2.290614 1.335354 0.000000 0.000000 0.000000
    6 -0.115834 -1.983283 1.652800 0.000000 0.000000 0.000000
    7 -0.194966 1.740246 -0.780593 0.000000 0.000000 0.000000
    8 0.000000 -0.273072 1.043217 0.000000 0.000000 0.000000
    9 11.470110 0.978882 -7.922828 0.777557 -1.819456 -1.208763
    10 -0.071917 -8.498732 -0.104135 0.352798 0.302533 -0.041828
    11 0.274485 -2.982786 0.324278 0.554706 1.379928 0.480518
    12 -0.000001 -1.808650 1.012938 0.000000 0.000000 0.000000
    13 -0.115835 -1.983282 1.652799 0.000000 0.000000 0.000000
    14 0.000000 2.290614 1.335353 0.000000 0.000000 0.000000
    15 0.000001 0.706665 0.002903 0.000000 0.000000 0.000000
    16 -0.194964 1.740244 -0.761062 0.000000 0.000000 0.000000
    17 0.000000 -0.273071 1.043216 0.000000 0.000000 0.000000
    18 -0.586769 -1.264477 0.200164 -0.224469 -0.772260 -2.217911
    19 1.522835 0.058680 0.016850 -0.042963 0.166884 0.909383
    20 1.117947 0.048424 -0.005765 -0.000024 0.000000 0.654922
    21 -0.963867 -2.785143 -0.085346 0.214204 0.199964 -0.171417
    22 0.028478 -1.403067 0.006272 -1.349763 -0.000007 -0.000010
    23 0.021412 -0.957782 0.020047 -0.668822 -0.000003 -0.000020
    24 -0.249534 -2.846963 -0.174215 -0.001225 0.000954 -0.025433
    25 0.043235 -1.683940 0.096015 -2.021624 -0.002959 -0.000336
    26 0.031729 -1.160830 0.058836 -1.017646 0.000000 0.000000
    27 0.447951 -2.798983 -0.200441 -0.016287 0.053270 0.116318
    28 -0.032909 -1.480207 0.004935 -1.783693 0.000000 0.000000
    29 -0.027023 -1.076921 -0.020212 -0.898881 0.000000 0.000000
    30 1.164474 -2.543939 -0.170327 0.050355 -0.000983 -0.002105
    31 0.024033 -1.129040 0.017807 -1.291488 -0.100227 0.187007
    32 0.014896 -0.883992 -0.019846 -1.038734 0.074161 0.017318
    33 -0.138841 -0.116973 0.013658 0.285538 -0.040582 1.576220
    34 0.583509 -1.197274 0.185379 -0.077873 -0.765977 -0.796238
    35 1.535926 0.010247 0.005009 -0.072813 0.036301 -1.031055
    36 1.100770 0.004528 -0.010675 0.000000 0.000000 -0.670669
    37 0.957766 -2.746777 -0.090301 0.182577 -0.050991 0.111154
    38 -0.033419 -1.397128 -0.011255 -0.842483 -0.018336 -0.065723
    39 -0.022361 -0.957433 0.018783 -0.642315 0.000000 0.000000
    40 0.250029 -2.820664 -0.238396 -0.282660 0.057277 -0.106700
    41 -0.049759 -1.680544 0.100479 -2.012794 0.000000 0.000000
    42 -0.034141 -1.148311 0.084779 -1.037503 0.000000 0.000000
    43 -0.488517 -2.755600 -0.228261 -0.195785 0.054574 -0.144146
    44 0.039889 -1.479791 0.029854 -2.042726 0.000000 0.000000
    45 0.028785 -1.075733 -0.023110 -0.841838 0.000000 0.000000
    46 -1.180679 -2.507216 -0.193861 0.008638 0.244088 -0.056758
    47 -0.024967 -1.123934 0.017595 -1.466576 0.000000 0.000000
    48 -0.020058 -0.890965 0.010091 -1.308781 0.000000 0.000000
    49 0.120180 -0.051600 -0.055246 0.287567 -3.172133 1.561006
  time 1
    0 -11.960718 2.368536 -7.922828 0.922170 1.894052 1.347687
    1 0.096945 -8.450421 -0.009365 0.377550 -0.147850 0.023660
    2 -0.192877 -2.997166 0.754425 0.973027 -1.502063 -0.975591
    3 0.000000 -1.808651 1.012937 0.000000 0.000000 0.000000
    4 0.000000 0.925423 0.002903 0.000000 0.000000 0.000000
    5 0.000000 2.290614 1.335354 0.000000 0.000000 0.000000
    6 -0.115834 0.290224 1.652800 0.000000 0.000000 0.000000
    7 -0.194966 1.740246 -0.780593 0.000000 0.000000 0.000000
    8 0.000000 -0.273072 1.043217 0.000000 0.000000 0.000000
    9 11.470110 0.978882 -7.922828 0.777557 -1.819456 -1.208763
    10 -0.071917 -8.498732 -0.104135 0.352798 0.302533 -0.041828
    11 0.274485 -2.982786 0.324278 0.554706 1.379928 0.480518
    12 -0.000001 -1.808650 1.012938 0.000000 0.000000 0.000000
    13 -0.115835 -1.983282 1.652799 0.000000 0.000000 0.000000
    14 0.000000 2.290614 1.335353 0.000000 0.000000 0.000000
    15 0.000001 0.706665 0.002903 0.000000 0.000000 0.000000
    16 -0.194964 1.740244 -0.761062 0.000000 0.000000 0.000000
    17 0.000000 -0.273071 1.043216 0.000000 0.000000 0.000000
    18 -0.586769 -1.264477 0.200164 -0.224469 -0.772260 -2.217911
    19 1.522835 0.058680 0.016850 -0.042963 0.166884 0.909383
    20 1.117947 0.048424 -0.005765 -0.000024 0.000000 0.654922
    21 -0.963867 -2.785143 -0.085346 0.213994 0.199964 -0.171417
    22 0.028478 -1.403067 0.006272 -1.354068 -0.000007 -0.000010
    23 0.021412 -0.957782 0.020047 -0.669584 -0.000003 -0.000020
    24 -0.249534 -2.846963 -0.174215 -0.001225 0.000954 -0.025433
    25 0.043235 -1.683940 0.096015 -2.021624 -0.002959 -0.000336
    26 0.031729 -1.160830 0.058836 -1.017646 0.000000 0.000000
    27 0.447951 -2.798983 -0.200441 -0.016287 0.053270 0.116318
    28 -0.032909 -1.480207 0.004935 -1.783693 0.000000 0.000000
    29 -0.027023 -1.076921 -0.020212 -0.898881 0.000000 0.000000
    30 1.164474 -2.543939 -0.170327 0.050355 -0.000983 -0.002105
    31 0.024033 -1.129040 0.017807 -1.291488 -0.100227 0.187007
    32 0.014896 -0.883992 -0.019846 -1.038734 0.074161 0.017318
    33 -0.138841 -0.116973 0.013658 0.285538 -0.040582 1.576220
    34 0.583509 -1.197274 0.185379 -0.077873 -0.765977 -0.796238
    35 1.535926 0.010247 0.005009 -0.072813 0.036301 -1.031055
    36 1.100770 0.004528 -0.010675 0.000000 0.000000 -0.670669
    37 0.957766 -2.746777 -0.090301 0.182577 -0.050991 0.111154
    38 -0.033419 -1.397128 -0.011255 -0.842483 -0.018336 -0.065723
    39 -0.022361 -0.957433 0.018783 -0.642315 0.000000 0.000000
    40 0.250029 -2.820664 -0.238396 -0.282660 0.057277 -0.106700
    41 -0.049759 -1.680544 0.100479 -2.012794 0.000000 0.000000
    42 -0.034141 -1.148311 0.084779 -1.037503 0.000000 0.000000
    43 -0.488517 -2.755600 -0.228261 -0.195785 0.054574 -0.144146
    44 0.039889 -1.479791 0.029854 -2.042726 0.000000 0.000000
    45 0.028785 -1.075733 -0.023110 -0.841838 0.000000 0.000000
    46 -1.180679 -2.507216 -0.193861 0.008638 0.244088 -0.056758
    47 -0.024967 -1.123934 0.017595 -1.466576 0.000000 0.000000
    48 -0.020058 -0.890965 0.010091 -1.308781 0.000000 0.000000
    49 0.120180 -0.051600 -0.055246 0.287567 -3.172133 1.561006
  time 2
    0 -11.960718 3.126372 -8.000956 0.918855 1.892675 1.344531
    1 0.096945 -8.450421 -0.009365 0.382167 -0.118251 -0.040326
    2 -0.192877 -2.997166 0.754425 0.973027 -1.502063 -0.975591
    3 0.000000 -1.808651 1.012937 0.000000 0.000000 0.000000
    4 0.000000 0.925423 0.002903 0.000000 0.000000 0.000000
    5 0.000000 2.290614 1.335354 0.000000 0.000000 0.000000
    6 -0.115834 0.290224 1.652800 0.000000 0.000000 0.000000
    7 -0.194966 1.740246 -0.780593 0.000000 0.000000 0.000000
    8 0.000000 -0.273072 1.043217 0.000000 0.000000 0.000000
    9 11.470110 0.978882 -7.922828 0.777557 -1.819456 -1.208763
    10 -0.071917 -8.498732 -0.104135 0.352798 0.302533 -0.041828
    11 0.274485 -2.982786 0.324278 0.554706 1.379928 0.480518
    12 -0.000001 -1.808650 1.012938 0.000000 0.000000 0.000000
    13 -0.115835 -1.983282 1.652799 0.000000 0.000000 0.000000
    14 0.000000 2.290614 1.335353 0.000000 0.000000 0.000000
    15 0.000001 0.706665 0.002903 0.000000 0.000000 0.000000
    16 -0.194964 1.740244 -0.761062 0.000000 0.000000 0.000000
    17 0.000000 -0.273071 1.043216 0.000000 0.000000 0.000000
    18 -0.586769 -1.264477 0.200164 -0.224469 -0.772260 -2.217911
    19 1.522835 0.058680 0.016850 -0.042963 0.166884 0.909383
    20 1.117947 0.048424 -0.005765 -0.000024 0.000000 0.654922
    21 -0.963867 -2.785143 -0.085346 0.213496 0.199964 -0.171417
    22 0.028478 -1.403067 0.006272 -1.363544 -0.000007 -0.000010
    23 0.021412 -0.957782 0.020047 -0.671236 -0.000003 -0.000020
    24 -0.249534 -2.846963 -0.174215 -0.001225 0.000954 -0.025433
    25 0.043235 -1.683940 0.096015 -2.021624 -0.002959 -0.000336
    26 0.031729 -1.160830 0.058836 -1.017646 0.000000 0.000000
    27 0.447951 -2.798983 -0.200441 -0.016287 0.053270 0.116318
    28 -0.032909 -1.480207 0.004935 -1.783693 0.000000 0.000000
    29 -0.027023 -1.076921 -0.020212 -0.898881 0.000000 0.000000
    30 1.164474 -2.543939 -0.170327 0.050355 -0.000983 -0.002105
    31 0.024033 -1.129040 0.017807 -1.291488 -0.100227 0.187007
    32 0.014896 -0.883992 -0.019846 -1.038734 0.074161 0.017318
    33 -0.138841 -0.116973 0.013658 0.285538 -0.040582 1.576220
    34 0.583509 -1.197274 0.185379 -0.077873 -0.765977 -0.796238
    35 1.535926 0.010247 0.005009 -0.072813 0.036301 -1.031055
    36 1.100770 0.004528 -0.010675 0.000000 0.000000 -0.670669
    37 0.957766 -2.746777 -0.090301 0.182577 -0.050991 0.111154
    38 -0.033419 -1.397128 -0.011255 -0.842483 -0.018336 -0.065723
    39 -0.022361 -0.957433 0.018783 -0.642315 0.000000 0.000000
    40 0.250029 -2.820664 -0.238396 -0.282660 0.057277 -0.106700
    41 -0.049759 -1.680544 0.100479 -2.012794 0.000000 0.000000
    42 -0.034141 -1.148311 0.084779 -1.037503 0.000000 0.000000
    43 -0.488517 -2.755600 -0.228261 -0.195785 0.054574 -0.144146
    44 0.039889 -1.479791 0.029854 -2.042726 0.000000 0.000000
    45 0.028785 -1.075733 -0.023110 -0.841838 0.000000 0.000000
    46 -1.180679 -2.507216 -0.193861 0.008638 0.244088 -0.056758
    47 -0.024967 -1.123934 0.017595 -1.466576 0.000000 0.000000
    48 -0.020058 -0.890965 0.010091 -1.308781 0.000000 0.000000
    49 0.120180 -0.051600 -0.055246 0.287567 -3.172133 1.561006
  time 3
    0 -11.960718 3.274814 -8.129866 0.910047 1.889308 1.336205
    1 0.096945 -8.450421 -0.009365 0.380401 -0.129751 -0.015529
    2 -0.192877 -2.997166 0.754425 0.973027 -1.502063 -0.975591
    3 0.000000 -1.808651 1.012937 0.000000 0.000000 0.000000
    4 0.000000 0.925423 0.002903 0.000000 0.000000 0.000000
    5 0.000000 2.290614 1.335354 0.000000 0.000000 0.000000
    6 -0.115834 0.290224 1.652800 0.000000 0.000000 0.000000
    7 -0.194966 1.740246 -0.780593 0.000000 0.000000 0.000000
    8 0.000000 -0.273072 1.043217 0.000000 0.000000 0.000000
    9 11.470110 0.978882 -7.922828 0.777557 -1.819456 -1.208763
    10 -0.071917 -8.498732 -0.104135 0.352798 0.302533 -0.041828
    11 0.274485 -2.982786 0.324278 0.554706 1.379928 0.480518
    12 -0.000001 -1.808650 1.012938 0.000000 0.000000 0.000000
    13 -0.115835 -1.983282 1.652799 0.000000 0.000000 0.000000
    14 0.000000 2.290614 1.335353 0.000000 0.000000 0.000000
    15 0.000001 0.706665 0.002903 0.000000 0.000000 0.000000
    16 -0.194964 1.740244 -0.761062 0.000000 0.000000 0.000000
    17 0.000000 -0.273071 1.043216 0.000000 0.000000 0.000000
    18 -0.586769 -1.264477 0.200164 -0.224469 -0.772260 -2.217911
    19 1.522835 0.058680 0.016850 -0.042963 0.166884 0.909383
    20 1.117947 0.048424 -0.005765 -0.000024 0.000000 0.654922
    21 -0.963867 -2.785143 -0.085346 0.213024 0.199964 -0.171417
    22 0.028478 -1.403067 0.006272 -1.373046 -0.000007 -0.000010
    23 0.021412 -0.957782 0.020047 -0.672888 -0.000003 -0.000020
    24 -0.249534 -2.846963 -0.174215 -0.001225 0.000954 -0.025433
    25 0.043235 -1.683940 0.096015 -2.021624 -0.002959 -0.000336
    26 0.031729 -1.160830 0.058836 -1.017646 0.000000 0.000000
    27 0.447951 -2.798983 -0.200441 -0.016287 0.053270 0.116318
    28 -0.032909 -1.480207 0.004935 -1.783693 0.000000 0.000000
    29 -0.027023 -1.076921 -0.020212 -0.898881 0.000000 0.000000
    30 1.164474 -2.543939 -0.170327 0.050355 -0.000983 -0.002105
    31 0.024033 -1.129040 0.017807 -1.291488 -0.100227 0.187007
    32 0.014896 -0.883992 -0.019846 -1.038734 0.074161 0.017318
    33 -0.138841 -0.116973 0.013658 0.285538 -0.040582 1.576220
    34 0.583509 -1.197274 0.185379 -0.077873 -0.765977 -0.796238
    35 1.535926 0.010247 0.005009 -0.072813 0.036301 -1.031055
    36 1.100770 0.004528 -0.010675 0.000000 0.000000 -0.670669
    37 0.957766 -2.746777 -0.090301 0.182577 -0.050991 0.111154
    38 -0.033419 -1.397128 -0.011255 -0.842483 -0.018336 -0.065723
    39 -0.022361 -0.957433 0.018783 -0.642315 0.000000 0.000000
    40 0.250029 -2.820664 -0.238396 -0.282660 0.057277 -0.106700
    41 -0.049759 -1.680544 0.100479 -2.012794 0.000000 0.000000
    42 -0.034141 -1.148311 0.084779 -1.037503 0.000000 0.000000
    43 -0.488517 -2.755600 -0.228261 -0.195785 0.054574 -0.144146
    44 0.039889 -1.479791 0.029854 -2.042726 0.000000 0.000000
    45 0.028785 -1.075733 -0.023110 -0.841838 0.000000 0.000000
    46 -1.180679 -2.507216 -0.193861 0.008638 0.244088 -0.056758
    47 -0.024967 -1.123934 0.017595 -1.466576 0.000000 0.000000
    48 -0.020058 -0.890965 0.010091 -1.308781 0.000000 0.000000
    49 0.120180 -0.051600 -0.055246 0.287567 -3.172133 1.561006
  time 4
    0 -11.960718 3.231844 -8.200180 0.897450 1.884513 1.324287
    1 0.096945 -8.450421 -0.009365 0.376848 -0.149075 0.026345
    2 -0.192877 -2.997166 0.754425 0.973027 -1.502063 -0.975591
    3 0.000000 -1.808651 1.012937 0.000000 0.000000 0.000000
    4 0.000000 0.925423 0.002903 0.000000 0.000000 0.000000
    5 0.000000 2.290614 1.335354 0.000000 0.000000 0.000000
    6 -0.115834 0.290224 1.652800 0.000000 0.000000 0.000000
    7 -0.194966 1.740246 -0.780593 0.000000 0.000000 0.000000
    8 0.000000 -0.273072 1.043217 0.000000 0.000000 0.000000
    9 11.470110 0.978882 -7.922828 0.777557 -1.819456 -1.208763
    10 -0.071917 -8.498732 -0.104135 0.352798 0.302533 -0.041828
    11 0.274485 -2.982786 0.324278 0.554706 1.379928 0.480518
    12 -0.000001 -1.808650 1.012938 0.000000 0.000000 0.000000
    13 -0.115835 -1.983282 1.652799 0.000000 0.000000 0.000000
    14 0.000000 2.290614 1.335353 0.000000 0.000000 0.000000
    15 0.000001 0.706665 0.002903 0.000000 0.000000 0.000000
    16 -0.194964 1.740244 -0.761062 0.000000 0.000000 0.000000
    17 0.000000 -0.273071 1.043216 0.000000 0.000000 0.000000
    18 -0.586769 -1.264477 0.200164 -0.224469 -0.772260 -2.217911
    19 1.522835 0.058680 0.016850 -0.042963 0.166884 0.909383
    20 1.117947 0.048424 -0.005765 -0.000024 0.000000 0.654922
    21 -0.963867 -2.785143 -0.085346 0.212841 0.199964 -0.171417
    22 0.028478 -1.403067 0.006272 -1.377351 -0.000007 -0.000010
    23 0.021412 -0.957782 0.020047 -0.673650 -0.000003 -0.000020
    24 -0.249534 -2.846963 -0.174215 -0.001225 0.000954 -0.025433
    25 0.043235 -1.683940 0.096015 -2.021624 -0.002959 -0.000336
    26 0.031729 -1.160830 0.058836 -1.017646 0.000000 0.000000
    27 0.447951 -2.798983 -0.200441 -0.016287 0.053270 0.116318
    28 -0.032909 -1.480207 0.004935 -1.783693 0.000000 0.000000
    29 -0.027023 -1.076921 -0.020212 -0.898881 0.000000 0.000000
    30 1.164474 -2.543939 -0.170327 0.050355 -0.000983 -0.002105
    31 0.024033 -1.129040 0.017807 -1.291488 -0.100227 0.187007
    32 0.014896 -0.883992 -0.019846 -1.038734 0.074161 0.017318
    33 -0.138841 -0.116973 0.013658 0.285538 -0.040582 1.576220
    34 0.583509 -1.197274 0.185379 -0.077873 -0.765977 -0.796238
    35 1.535926 0.010247 0.005009 -0.072813 0.036301 -1.031055
    36 1.100770 0.004528 -0.010675 0.000000 0.000000 -0.670669
    37 0.957766 -2.746777 -0.090301 0.182577 -0.050991 0.111154
    38 -0.033419 -1.397128 -0.011255 -0.842483 -0.018336 -0.065723
    39 -0.022361 -0.957433 0.018783 -0.642315 0.000000 0.000000
    40 0.250029 -2.820664 -0.238396 -0.282660 0.057277 -0.106700
    41 -0.049759 -1.680544 0.100479 -2.012794 0.000000 0.000000
    42 -0.034141 -1.148311 0.084779 -1.037503 0.000000 0.000000
    43 -0.488517 -2.755600 -0.228261 -0.195785 0.054574 -0.144146
    44 0.039889 -1.479791 0.029854 -2.042726 0.000000 0.000000
    45 0.028785 -1.075733 -0.023110 -0.841838 0.000000 0.000000
    46 -1.180679 -2.507216 -0.193861 0.008638 0.244088 -0.056758
    47 -0.024967 -1.123934 0.017595 -1.466576 0.000000 0.000000
    48 -0.020058 -0.890965 0.010091 -1.308781 0.000000 0.000000
    49 0.120180 -0.051600 -0.055246 0.287567 -3.172133 1.561006
  time 5
    0 -11.960718 2.977930 -8.157210 0.882769 1.879208 1.310247
    1 0.096945 -8.450421 -0.009365 0.371784 -0.170731 0.073960
    2 -0.192877 -2.997166 0.754425 0.973027 -1.502063 -0.975591
    3 0.000000 -1.808651 1.012937 0.000000 0.000000 0.000000
    4 0.000000 0.925423 0.002903 0.000000 0.000000 0.000000
    5 0.000000 2.290614 1.335354 0.000000 0.000000 0.000000
    6 -0.115834 0.290224 1.652800 0.000000 0.000000 0.000000
    7 -0.194966 1.740246 -0.780593 0.000000 0.000000 0.000000
    8 0.000000 -0.273072 1.043217 0.000000 0.000000 0.000000
    9 11.470110 0.978882 -7.922828 0.777557 -1.819456 -1.208763
    10 -0.071917 -8.498732 -0.104135 0.352798 0.302533 -0.041828
    11 0.274485 -2.982786 0.324278 0.554706 1.379928 0.480518
    12 -0.000001 -1.808650 1.012938 0.000000 0.000000 0.000000
    13 -0.115835 -1.983282 1.652799 0.000000 0.000000 0.000000
    14 0.000000 2.290614 1.335353 0.000000 0.000000 0.000000
    15 0.000001 0.706665 0.002903 0.000000 0.000000 0.000000
    16 -0.194964 1.740244 -0.761062 0.000000 0.000000 0.000000
    17 0.000000 -0.273071 1.043216 0.000000 0.000000 0.000000
    18 -0.586769 -1.264477 0.200164 -0.224469 -0.772260 -2.217911
    19 1.522835 0.058680 0.016850 -0.042963 0.166884 0.909383
    20 1.117947 0.048424 -0.005765 -0.000024 0.000000 0.654922
    21 -0.963867 -2.785143 -0.085346 0.213129 0.199964 -0.171417
    22 0.028478 -1.403067 0.006272 -1.371340 -0.000007 -0.000010
    23 0.021412 -0.957782 0.020047 -0.672591 -0.000003 -0.000020
    24 -0.249534 -2.846963 -0.174215 -0.001225 0.000954 -0.025433
    25 0.043235 -1.683940 0.096015 -2.021624 -0.002959 -0.000336
    26 0.031729 -1.160830 0.058836 -1.017646 0.000000 0.000000
    27 0.447951 -2.798983 -0.200441 -0.016287 0.053270 0.116318
    28 -0.032909 -1.480207 0.004935 -1.783693 0.000000 0.000000
    29 -0.027023 -1.076921 -0.020212 -0.898881 0.000000 0.000000
    30 1.164474 -2.543939 -0.170327 0.050355 -0.000983 -0.002105
    31 0.024033 -1.129040 0.017807 -1.291488 -0.100227 0.187007
    32 0.014896 -0.883992 -0.019846 -1.038734 0.074161 0.017318
    33 -0.138841 -0.116973 0.013658 0.285538 -0.040582 1.576220
    34 0.583509 -1.197274 0.185379 -0.077873 -0.765977 -0.796238
    35 1.535926 0.010247 0.005009 -0.072813 0.036301 -1.031055
    36 1.100770 0.004528 -0.010675 0.000000 0.000000 -0.670669
    37 0.957766 -2.746777 -0.090301 0.182577 -0.050991 0.111154
    38 -0.033419 -1.397128 -0.011255 -0.842483 -0.018336 -0.065723
    39 -0.022361 -0.957433 0.018783 -0.642315 0.000000 0.000000
    40 0.250029 -2.820664 -0.238396 -0.282660 0.057277 -0.106700
    41 -0.049759 -1.680544 0.100479 -2.012794 0.000000 0.000000
    42 -0.034141 -1.148311 0.084779 -1.037503 0.000000 0.000000
    43 -0.488517 -2.755600 -0.228261 -0.195785 0.054574 -0.144146
    44 0.039889 -1.479791 0.029854 -2.042726 0.000000 0.000000
    45 0.028785 -1.075733 -0.023110 -0.841838 0.000000 0.000000
    46 -1.180679 -2.507216 -0.193861 0.008638 0.244088 -0.056758
    47 -0.024967 -1.123934 0.017595 -1.466576 0.000000 0.000000
    48 -0.020058 -0.890965 0.010091 -1.308781 0.000000 0.000000
    49 0.120180 -0.051600 -0.055246 0.287567 -3.172133 1.561006
  time 6
    0 -11.960718 2.368536 -8.067364 0.867993 1.874056 1.296152
    1 0.096945 -8.450421 -0.009365 0.364125 -0.196694 0.132049
    2 -0.192877 -2.997166 0.754425 0.973027 -1.502063 -0.975591
    3 0.000000 -1.808651 1.012937 0.000000 0.000000 0.000000
    4 0.000000 0.925423 0.002903 0.000000 0.000000 0.000000
    5 0.000000 2.290614 1.335354 0.000000 0.000000 0.000000
    6 -0.115834 0.290224 1.652800 0.000000 0.000000 0.000000
    7 -0.194966 1.740246 -0.780593 0.000000 0.000000 0.000000
    8 0.000000 -0.273072 1.043217 0.000000 0.000000 0.000000
    9 11.470110 0.978882 -7.922828 0.777557 -1.819456 -1.208763
    10 -0.071917 -8.498732 -0.104135 0.352798 0.302533 -0.041828
    11 0.274485 -2.982786 0.324278 0.554706 1.379928 0.480518
    12 -0.000001 -1.808650 1.012938 0.000000 0.000000 0.000000
    13 -0.115835 -1.983282 1.652799 0.000000 0.000000 0.000000
    14 0.000000 2.290614 1.335353 0.000000 0.000000 0.000000
    15 0.000001 0.706665 0.002903 0.000000 0.000000 0.000000
    16 -0.194964 1.740244 -0.761062 0.000000 0.000000 0.000000
    17 0.000000 -0.273071 1.043216 0.000000 0.000000 0.000000
    18 -0.586769 -1.264477 0.200164 -0.224469 -0.772260 -2.217911
    19 1.522835 0.058680 0.016850 -0.042963 0.166884 0.909383
    20 1.117947 0.048424 -0.005765 -0.000024 0.000000 0.654922
    21 -0.963867 -2.785143 -0.085346 0.214204 0.199964 -0.171417
    22 0.028478 -1.403067 0.006272 -1.349763 -0.000007 -0.000010
    23 0.021412 -0.957782 0.020047 -0.668822 -0.000003 -0.000020
    24 -0.249534 -2.846963 -0.174215 -0.001225 0.000954 -0.025433
    25 0.043235 -1.683940 0.096015 -2.021624 -0.002959 -0.000336
    26 0.031729 -1.160830 0.058836 -1.017646 0.000000 0.000000
    27 0.447951 -2.798983 -0.200441 -0.016287 0.053270 0.116318
    28 -0.032909 -1.480207 0.004935 -1.783693 0.000000 0.000000
    29 -0.027023 -1.076921 -0.020212 -0.898881 0.000000 0.000000
    30 1.164474 -2.543939 -0.170327 0.050355 -0.000983 -0.002105
    31 0.024033 -1.129040 0.017807 -1.291488 -0.100227 0.187007
    32 0.014896 -0.883992 -0.019846 -1.038734 0.074161 0.017318
    33 -0.138841 -0.116973 0.013658 0.285538 -0.040582 1.576220
    34 0.583509 -1.197274 0.185379 -0.077873 -0.765977 -0.796238
    35 1.535926 0.010247 0.005009 -0.072813 0.036301 -1.031055
    36 1.100770 0.004528 -0.010675 0.000000 0.000000 -0.670669
    37 0.957766 -2.746777 -0.090301 0.182577 -0.050991 0.111154
    38 -0.033419 -1.397128 -0.011255 -0.842483 -0.018336 -0.065723
    39 -0.022361 -0.957433 0.018783 -0.642315 0.000000 0.000000
    40 0.250029 -2.820664 -0.238396 -0.282660 0.057277 -0.106700
    41 -0.049759 -1.680544 0.100479 -2.012794 0.000000 0.000000
    42 -0.034141 -1.148311 0.084779 -1.037503 0.000000 0.000000
    43 -0.488517 -2.755600 -0.228261 -0.195785 0.054574 -0.144146
    44 0.039889 -1.479791 0.029854 -2.042726 0.000000 0.000000
    45 0.028785 -1.075733 -0.023110 -0.841838 0.000000 0.000000
    46 -1.180679 -2.507216 -0.193861 0.008638 0.244088 -0.056758
    47 -0.024967 -1.123934 0.017595 -1.466576 0.000000 0.000000
    48 -0.020058 -0.890965 0.010091 -1.308781 0.000000 0.000000
    49 0.120180 -0.051600 -0.055246 0.287567 -3.172133 1.561006
  time 7
    0 -11.960718 1.669296 -7.961892 0.855301 1.869873 1.284071
    1 0.096945 -8.450421 -0.009365 0.353146 -0.226293 0.200385
    2 -0.192877 -2.997166 0.754425 0.973027 -1.502063 -0.975591
    3 0.000000 -1.808651 1.012937 0.000000 0.000000 0.000000
    4 0.000000 0.925423 0.002903 0.000000 0.000000 0.000000
    5 0.000000 2.290614 1.335354 0.000000 0.000000 0.000000
    6 -0.115834 0.290224 1.652800 0.000000 0.000000 0.000000
    7 -0.194966 1.740246 -0.780593 0.000000 0.000000 0.000000
    8 0.000000 -0.273072 1.043217 0.000000 0.000000 0.000000
    9 11.470110 0.978882 -7.922828 0.777557 -1.819456 -1.208763
    10 -0.071917 -8.498732 -0.104135 0.352798 0.302533 -0.041828
    11 0.274485 -2.982786 0.324278 0.554706 1.379928 0.480518
    12 -0.000001 -1.808650 1.012938 0.000000 0.000000 0.000000
    13 -0.115835 -1.983282 1.652799 0.000000 0.000000 0.000000
    14 0.000000 2.290614 1.335353 0.000000 0.000000 0.000000
    15 0.000001 0.706665 0.002903 0.000000 0.000000 0.000000
    16 -0.194964 1.740244 -0.761062 0.000000 0.000000 0.000000
    17 0.000000 -0.273071 1.043216 0.000000 0.000000 0.000000
    18 -0.586769 -1.264477 0.200164 -0.224469 -0.772260 -2.217911
    19 1.522835 0.058680 0.016850 -0.042963 0.166884 0.909383
    20 1.117947 0.048424 -0.005765 -0.000024 0.000000 0.654922
    21 -0.963867 -2.785143 -0.085346 0.216799 0.199964 -0.171417
    22 0.028478 -1.403067 0.006272 -1.296634 -0.000007 -0.000010
    23 0.021412 -0.957782 0.020047 -0.666224 -0.000003 -0.000020
    24 -0.249534 -2.846963 -0.174215 -0.001225 0.000954 -0.025433
    25 0.043235 -1.683940 0.096015 -2.021624 -0.002959 -0.000336
    26 0.031729 -1.160830 0.058836 -1.017646 0.000000 0.000000
    27 0.447951 -2.798983 -0.200441 -0.016287 0.053270 0.116318
    28 -0.032909 -1.480207 0.004935 -1.783693 0.000000 0.000000
    29 -0.027023 -1.076921 -0.020212 -0.898881 0.000000 0.000000
    30 1.164474 -2.543939 -0.170327 0.050355 -0.000983 -0.002105
    31 0.024033 -1.129040 0.017807 -1.291488 -0.100227 0.187007
    32 0.014896 -0.883992 -0.019846 -1.038734 0.074161 0.017318
    33 -0.138841 -0.116973 0.013658 0.285538 -0.040582 1.576220
    34 0.583509 -1.197274 0.185379 -0.077873 -0.765977 -0.796238
    35 1.535926 0.010247 0.005009 -0.072813 0.036301 -1.031055
    36 1.100770 0.004528 -0.010675 0.000000 0.000000 -0.670669
    37 0.957766 -2.746777 -0.090301 0.182577 -0.050991 0.111154
    38 -0.033419 -1.397128 -0.011255 -0.842483 -0.018336 -0.065723
    39 -0.022361 -0.957433 0.018783 -0.642315 0.000000 0.000000
    40 0.250029 -2.820664 -0.238396 -0.282660 0.057277 -0.106700
    41 -0.049759 -1.680544 0.100479 -2.012794 0.000000 0.000000
    42 -0.034141 -1.148311 0.084779 -1.037503 0.000000 0.000000
    43 -0.488517 -2.755600 -0.228261 -0.195785 0.054574 -0.144146
    44 0.039889 -1.479791 0.029854 -2.042726 0.000000 0.000000
    45 0.028785 -1.075733 -0.023110 -0.841838 0.000000 0.000000
    46 -1.180679 -2.507216 -0.193861 0.008638 0.244088 -0.056758
    47 -0.024967 -1.123934 0.017595 -1.466576 0.000000 0.000000
    48 -0.020058 -0.890965 0.010091 -1.308781 0.000000 0.000000
    49 0.120180 -0.051600 -0.055246 0.287567 -3.172133 1.561006
  time 8
    0 -11.960718 1.130217 -7.891577 0.847156 1.867272 1.276235
    1 0.096945 -8.450421 -0.009365 0.342082 -0.250913 0.259481
    2 -0.192877 -2.997166 0.754425 0.973027 -1.502063 -0.975591
    3 0.000000 -1.808651 1.012937 0.000000 0.000000 0.000000
    4 0.000000 0.862921 0.002903 0.000000 0.000000 0.000000
    5 0.000000 2.290614 1.335354 0.000000 0.000000 0.000000
    6 -0.115834 0.290224 1.652800 0.000000 0.000000 0.000000
    7 -0.194966 1.740246 -0.780593 0.000000 0.000000 0.000000
    8 0.000000 -0.273072 1.043217 0.000000 0.000000 0.000000
    9 11.470110 0.978882 -7.922828 0.777557 -1.819456 -1.208763
    10 -0.071917 -8.498732 -0.104135 0.352798 0.302533 -0.041828
    11 0.274485 -2.982786 0.324278 0.554706 1.379928 0.480518
    12 -0.000001 -1.808650 1.012938 0.000000 0.000000 0.000000
    13 -0.115835 -1.983282 1.652799 0.000000 0.000000 0.000000
    14 0.000000 2.290614 1.335353 0.000000 0.000000 0.000000
    15 0.000001 0.706665 0.002903 0.000000 0.000000 0.000000
    16 -0.194964 1.740244 -0.761062 0.000000 0.000000 0.000000
    17 0.000000 -0.273071 1.043216 0.000000 0.000000 0.000000
    18 -0.586769 -1.264477 0.200164 -0.224469 -0.772260 -2.217911
    19 1.522835 0.058680 0.016850 -0.042963 0.166884 0.909383
    20 1.117947 0.048424 -0.005765 -0.000024 0.000000 0.654922
    21 -0.963867 -2.785143 -0.085346 0.220836 0.199964 -0.171417
    22 0.028478 -1.403067 0.006272 -1.214001 -0.000007 -0.000010
    23 0.021412 -0.957782 0.020047 -0.656398 -0.000003 -0.000020
    24 -0.249534 -2.846963 -0.174215 -0.001225 0.000954 -0.025433
    25 0.043235 -1.683940 0.096015 -2.021624 -0.002959 -0.000336
    26 0.031729 -1.160830 0.058836 -1.017646 0.000000 0.000000
    27 0.447951 -2.798983 -0.200441 -0.016287 0.053270 0.116318
    28 -0.032909 -1.480207 0.004935 -1.783693 0.000000 0.000000
    29 -0.027023 -1.076921 -0.020212 -0.898881 0.000000 0.000000
    30 1.164474 -2.543939 -0.170327 0.050355 -0.000983 -0.002105
    31 0.024033 -1.129040 0.017807 -1.291488 -0.100227 0.187007
    32 0.014896 -0.883992 -0.019846 -1.038734 0.074161 0.017318
    33 -0.138841 -0.116973 0.013658 0.285538 -0.040582 1.576220
    34 0.583509 -1.197274 0.185379 -0.077873 -0.765977 -0.796238
    35 1.535926 0.010247 0.005009 -0.072813 0.036301 -1.031055
    36 1.100770 0.004528 -0.010675 0.000000 0.000000 -0.670669
    37 0.957766 -2.746777 -0.090301 0.182577 -0.050991 0.111154
    38 -0.033419 -1.397128 -0.011255 -0.842483 -0.018336 -0.065723
    39 -0.022361 -0.957433 0.018783 -0.642315 0.000000 0.000000
    40 0.250029 -2.820664 -0.238396 -0.282660 0.057277 -0.106700
    41 -0.049759 -1.680544 0.100479 -2.012794 0.000000 0.000000
    42 -0.034141 -1.148311 0.084779 -1.037503 0.000000 0.000000
    43 -0.488517 -2.755600 -0.228261 -0.195785 0.054574 -0.144146
    44 0.039889 -1.479791 0.029854 -2.042726 0.000000 0.000000
    45 0.028785 -1.075733 -0.023110 -0.841838 0.000000 0.000000
    46 -1.180679 -2.507216 -0.193861 0.008638 0.244088 -0.056758
    47 -0.024967 -1.123934 0.017595 -1.466576 0.000000 0.000000
    48 -0.020058 -0.890965 0.010091 -1.308781 0.000000 0.000000
    49 0.120180 -0.051600 -0.055246 0.287567 -3.172133 1.561006
  time 9
    0 -11.960718 0.829427 -7.844701 0.843273 1.866048 1.272371
    1 0.096945 -8.450421 -0.009365 0.336061 -0.263045 0.289107
    2 -0.192877 -2.997166 0.754425 0.973027 -1.502063 -0.975591
    3 0.000000 -1.808651 1.012937 0.000000 0.000000 0.000000
    4 0.000000 0.757449 0.002903 0.000000 0.000000 0.000000
    5 0.000000 2.290614 1.335354 0.000000 0.000000 0.000000
    6 -0.115834 0.290224 1.652800 0.000000 0.000000 0.000000
    7 -0.194966 1.740246 -0.780593 0.000000 0.000000 0.000000
    8 0.000000 -0.273072 1.043217 0.000000 0.000000 0.000000
    9 11.470110 0.978882 -7.922828 0.777557 -1.819456 -1.208763
    10 -0.071917 -8.498732 -0.104135 0.352798 0.302533 -0.041828
    11 0.274485 -2.982786 0.324278 0.554706 1.379928 0.480518
    12 -0.000001 -1.808650 1.012938 0.000000 0.000000 0.000000
    13 -0.115835 -1.983282 1.652799 0.000000 0.000000 0.000000
    14 0.000000 2.290614 1.335353 0.000000 0.000000 0.000000
    15 0.000001 0.706665 0.002903 0.000000 0.000000 0.000000
    16 -0.194964 1.740244 -0.761062 0.000000 0.000000 0.000000
    17 0.000000 -0.273071 1.043216 0.000000 0.000000 0.000000
    18 -0.586769 -1.264477 0.200164 -0.224469 -0.772260 -2.217911
    19 1.522835 0.058680 0.016850 -0.042963 0.166884 0.909383
    20 1.117947 0.048424 -0.005765 -0.000024 0.000000 0.654922
    21 -0.963867 -2.785143 -0.085346 0.225266 0.199964 -0.171417
    22 0.028478 -1.403067 0.006272 -1.123782 -0.000007 -0.000010
    23 0.021412 -0.957782 0.020047 -0.620030 -0.000003 -0.000020
    24 -0.249534 -2.846963 -0.174215 -0.001225 0.000954 -0.025433
    25 0.043235 -1.683940 0.096015 -2.021624 -0.002959 -0.000336
    26 0.031729 -1.160830 0.058836 -1.017646 0.000000 0.000000
    27 0.447951 -2.798983 -0.200441 -0.016287 0.053270 0.116318
    28 -0.032909 -1.480207 0.004935 -1.783693 0.000000 0.000000
    29 -0.027023 -1.076921 -0.020212 -0.898881 0.000000 0.000000
    30 1.164474 -2.543939 -0.170327 0.050355 -0.000983 -0.002105
    31 0.024033 -1.129040 0.017807 -1.291488 -0.100227 0.187007
    32 0.014896 -0.883992 -0.019846 -1.038734 0.074161 0.017318
    33 -0.138841 -0.116973 0.013658 0.285538 -0.040582 1.576220
    34 0.583509 -1.197274 0.185379 -0.077873 -0.765977 -0.796238
    35 1.535926 0.010247 0.005009 -0.072813 0.036301 -1.031055
    36 1.100770 0.004528 -0.010675 0.000000 0.000000 -0.670669
    37 0.957766 -2.746777 -0.090301 0.182577 -0.050991 0.111154
    38 -0.033419 -1.397128 -0.011255 -0.842483 -0.018336 -0.065723
    39 -0.022361 -0.957433 0.018783 -0.642315 0.000000 0.000000
    40 0.250029 -2.820664 -0.238396 -0.282660 0.057277 -0.106700
    41 -0.049759 -1.680544 0.100479 -2.012794 0.000000 0.000000
    42 -0.034141 -1.148311 0.084779 -1.037503 0.000000 0.000000
    43 -0.488517 -2.755600 -0.228261 -0.195785 0.054574 -0.144146
    44 0.039889 -1.479791 0.029854 -2.042726 0.000000 0.000000
    45 0.028785 -1.075733 -0.023110 -0.841838 0.000000 0.000000
    46 -1.180679 -2.507216 -0.193861 0.008638 0.244088 -0.056758
    47 -0.024967 -1.123934 0.017595 -1.466576 0.000000 0.000000
    48 -0.020058 -0.890965 0.010091 -1.308781 0.000000 0.000000
    49 0.120180 -0.051600 -0.055246 0.287567 -3.172133 1.561006
  time 10
    0 -11.960718 0.649734 -7.829075 0.841000 1.865385 1.270249
    1 0.096945 -8.450421 -0.009365 0.335316 -0.264665 0.292894
    2 -0.192877 -2.997166 0.754425 0.973027 -1.502063 -0.975591
    3 0.000000 -1.808651 1.012937 0.000000 0.000000 0.000000
    4 0.000000 0.706666 0.002903 0.000000 0.000000 0.000000
    5 0.000000 2.290614 1.335354 0.000000 0.000000 0.000000
    6 -0.115834 0.290224 1.652800 0.000000 0.000000 0.000000
    7 -0.194966 1.740246 -0.780593 0.000000 0.000000 0.000000
    8 0.000000 -0.273072 1.043217 0.000000 0.000000 0.000000
    9 11.470110 0.978882 -7.922828 0.777557 -1.819456 -1.208763
    10 -0.071917 -8.498732 -0.104135 0.352798 0.302533 -0.041828
    11 0.274485 -2.982786 0.324278 0.554706 1.379928 0.480518
    12 -0.000001 -1.808650 1.012938 0.000000 0.000000 0.000000
    13 -0.115835 -1.983282 1.652799 0.000000 0.000000 0.000000
    14 0.000000 2.290614 1.335353 0.000000 0.000000 0.000000
    15 0.000001 0.706665 0.002903 0.000000 0.000000 0.000000
    16 -0.194964 1.740244 -0.761062 0.000000 0.000000 0.000000
    17 0.000000 -0.273071 1.043216 0.000000 0.000000 0.000000
    18 -0.586769 -1.264477 0.200164 -0.224469 -0.772260 -2.217911
    19 1.522835 0.058680 0.016850 -0.042963 0.166884 0.909383
    20 1.117947 0.048424 -0.005765 -0.000024 0.000000 0.654922
    21 -0.963867 -2.785143 -0.085346 0.228962 0.199964 -0.171417
    22 0.028478 -1.403067 0.006272 -1.047895 -0.000007 -0.000010
    23 0.021412 -0.957782 0.020047 -0.523562 -0.000003 -0.000020
    24 -0.249534 -2.846963 -0.174215 -0.001225 0.000954 -0.025433
    25 0.043235 -1.683940 0.096015 -2.021624 -0.002959 -0.000336
    26 0.031729 -1.160830 0.058836 -1.017646 0.000000 0.000000
    27 0.447951 -2.798983 -0.200441 -0.016287 0.053270 0.116318
    28 -0.032909 -1.480207 0.004935 -1.783693 0.000000 0.000000
    29 -0.027023 -1.076921 -0.020212 -0.898881 0.000000 0.000000
    30 1.164474 -2.543939 -0.170327 0.050355 -0.000983 -0.002105
    31 0.024033 -1.129040 0.017807 -1.291488 -0.100227 0.187007
    32 0.014896 -0.883992 -0.019846 -1.038734 0.074161 0.017318
    33 -0.138841 -0.116973 0.013658 0.285538 -0.040582 1.576220
    34 0.583509 -1.197274 0.185379 -0.077873 -0.765977 -0.796238
    35 1.535926 0.010247 0.005009 -0.072813 0.036301 -1.031055
    36 1.100770 0.004528 -0.010675 0.000000 0.000000 -0.670669
    37 0.957766 -2.746777 -0.090301 0.182577 -0.050991 0.111154
    38 -0.033419 -1.397128 -0.011255 -0.842483 -0.018336 -0.065723
    39 -0.022361 -0.957433 0.018783 -0.642315 0.000000 0.000000
    40 0.250029 -2.820664 -0.238396 -0.282660 0.057277 -0.106700
    41 -0.049759 -1.680544 0.100479 -2.012794 0.000000 0.000000
    42 -0.034141 -1.148311 0.084779 -1.037503 0.000000 0.000000
    43 -0.488517 -2.755600 -0.228261 -0.195785 0.054574 -0.144146
    44 0.039889 -1.479791 0.029854 -2.042726 0.000000 0.000000
    45 0.028785 -1.075733 -0.023110 -0.841838 0.000000 0.000000
    46 -1.180679 -2.507216 -0.193861 0.008638 0.244088 -0.056758
    47 -0.024967 -1.123934 0.017595 -1.466576 0.000000 0.000000
    48 -0.020058 -0.890965 0.010091 -1.308781 0.000000 0.000000
    49 0.120180 -0.051600 -0.055246 0.287567 -3.172133 1.561006
  time 11
    0 -11.960718 0.575513 -7.821263 0.840336 1.865181 1.269650
    1 0.096945 -8.450421 -0.009365 0.336167 -0.263361 0.289347
    2 -0.192877 -2.997166 0.754425 0.973027 -1.502063 -0.975591
    3 0.000000 -1.808651 1.012937 0.000000 0.000000 0.000000
    4 0.000000 0.706666 0.002903 0.000000 0.000000 0.000000
    5 0.000000 2.290614 1.335354 0.000000 0.000000 0.000000
    6 -0.115834 0.290224 1.652800 0.000000 0.000000 0.000000
    7 -0.194966 1.740246 -0.780593 0.000000 0.000000 0.000000
    8 0.000000 -0.273072 1.043217 0.000000 0.000000 0.000000
    9 11.470110 0.978882 -7.922828 0.777557 -1.819456 -1.208763
    10 -0.071917 -8.498732 -0.104135 0.352798 0.302533 -0.041828
    11 0.274485 -2.982786 0.324278 0.554706 1.379928 0.480518
    12 -0.000001 -1.808650 1.012938 0.000000 0.000000 0.000000
    13 -0.115835 -1.983282 1.652799 0.000000 0.000000 0.000000
    14 0.000000 2.290614 1.335353 0.000000 0.000000 0.000000
    15 0.000001 0.706665 0.002903 0.000000 0.000000 0.000000
    16 -0.194964 1.740244 -0.761062 0.000000 0.000000 0.000000
    17 0.000000 -0.273071 1.043216 0.000000 0.000000 0.000000
    18 -0.586769 -1.264477 0.200164 -0.224469 -0.772260 -2.217911
    19 1.522835 0.058680 0.016850 -0.042963 0.166884 0.909383
    20 1.117947 0.048424 -0.005765 -0.000024 0.000000 0.654922
    21 -0.963867 -2.785143 -0.085346 0.230902 0.199964 -0.171417
    22 0.028478 -1.403067 0.006272 -1.008232 -0.000007 -0.000010
    23 0.021412 -0.957782 0.020047 -0.400538 -0.000003 -0.000020
    24 -0.249534 -2.846963 -0.174215 -0.001225 0.000954 -0.025433
    25 0.043235 -1.683940 0.096015 -2.021624 -0.002959 -0.000336
    26 0.031729 -1.160830 0.058836 -1.017646 0.000000 0.000000
    27 0.447951 -2.798983 -0.200441 -0.016287 0.053270 0.116318
    28 -0.032909 -1.480207 0.004935 -1.783693 0.000000 0.000000
    29 -0.027023 -1.076921 -0.020212 -0.898881 0.000000 0.000000
    30 1.164474 -2.543939 -0.170327 0.050355 -0.000983 -0.002105
    31 0.024033 -1.129040 0.017807 -1.291488 -0.100227 0.187007
    32 0.014896 -0.883992 -0.019846 -1.038734 0.074161 0.017318
    33 -0.138841 -0.116973 0.013658 0.285538 -0.040582 1.576220
    34 0.583509 -1.197274 0.185379 -0.077873 -0.765977 -0.796238
    35 1.535926 0.010247 0.005009 -0.072813 0.036301 -1.031055
    36 1.100770 0.004528 -0.010675 0.000000 0.000000 -0.670669
    37 0.957766 -2.746777 -0.090301 0.182577 -0.050991 0.111154
    38 -0.033419 -1.397128 -0.011255 -0.842483 -0.018336 -0.065723
    39 -0.022361 -0.957433 0.018783 -0.642315 0.000000 0.000000
    40 0.250029 -2.820664 -0.238396 -0.282660 0.057277 -0.106700
    41 -0.049759 -1.680544 0.100479 -2.012794 0.000000 0.000000
    42 -0.034141 -1.148311 0.084779 -1.037503 0.000000 0.000000
    43 -0.488517 -2.755600 -0.228261 -0.195785 0.054574 -0.144146
    44 0.039889 -1.479791 0.029854 -2.042726 0.000000 0.000000
    45 0.028785 -1.075733 -0.023110 -0.841838 0.000000 0.000000
    46 -1.180679 -2.507216 -0.193861 0.008638 0.244088 -0.056758
    47 -0.024967 -1.123934 0.017595 -1.466576 0.000000 0.000000
    48 -0.020058 -0.890965 0.010091 -1.308781 0.000000 0.000000
    49 0.120180 -0.051600 -0.055246 0.287567 -3.172133 1.561006
  time 12
    0 -11.960718 0.575513 -7.836888 0.841000 1.865334 1.270194
    1 0.096945 -8.450421 -0.009365 0.338231 -0.259765 0.279987
    2 -0.192877 -2.997166 0.754425 0.973027 -1.502063 -0.975591
    3 0.000000 -1.808651 1.012937 0.000000 0.000000 0.000000
    4 0.000000 0.706666 0.002903 0.000000 0.000000 0.000000
    5 0.000000 2.290614 1.335354 0.000000 0.000000 0.000000
    6 -0.115834 0.290224 1.652800 0.000000 0.000000 0.000000
    7 -0.194966 1.740246 -0.780593 0.000000 0.000000 0.000000
    8 0.000000 -0.273072 1.043217 0.000000 0.000000 0.000000
    9 11.470110 0.978882 -7.922828 0.777557 -1.819456 -1.208763
    10 -0.071917 -8.498732 -0.104135 0.352798 0.302533 -0.041828
    11 0.274485 -2.982786 0.324278 0.554706 1.379928 0.480518
    12 -0.000001 -1.808650 1.012938 0.000000 0.000000 0.000000
    13 -0.115835 -1.983282 1.652799 0.000000 0.000000 0.000000
    14 0.000000 2.290614 1.335353 0.000000 0.000000 0.000000
    15 0.000001 0.706665 0.002903 0.000000 0.000000 0.000000
    16 -0.194964 1.740244 -0.761062 0.000000 0.000000 0.000000
    17 0.000000 -0.273071 1.043216 0.000000 0.000000 0.000000
    18 -0.586769 -1.264477 0.200164 -0.224469 -0.772260 -2.217911
    19 1.522835 0.058680 0.016850 -0.042963 0.166884 0.909383
    20 1.117947 0.048424 -0.005765 -0.000024 0.000000 0.654922
    21 -0.963867 -2.785143 -0.085346 0.231531 0.199964 -0.171417
    22 0.028478 -1.403067 0.006272 -0.995475 -0.000007 -0.000010
    23 0.021412 -0.957782 0.020047 -0.332320 -0.000003 -0.000020
    24 -0.249534 -2.846963 -0.174215 -0.001225 0.000954 -0.025433
    25 0.043235 -1.683940 0.096015 -2.021624 -0.002959 -0.000336
    26 0.031729 -1.160830 0.058836 -1.017646 0.000000 0.000000
    27 0.447951 -2.798983 -0.200441 -0.016287 0.053270 0.116318
    28 -0.032909 -1.480207 0.004935 -1.783693 0.000000 0.000000
    29 -0.027023 -1.076921 -0.020212 -0.898881 0.000000 0.000000
    30 1.164474 -2.543939 -0.170327 0.050355 -0.000983 -0.002105
    31 0.024033 -1.129040 0.017807 -1.291488 -0.100227 0.187007
    32 0.014896 -0.883992 -0.019846 -1.038734 0.074161 0.017318
    33 -0.138841 -0.116973 0.013658 0.285538 -0.040582 1.576220
    34 0.583509 -1.197274 0.185379 -0.077873 -0.765977 -0.796238
    35 1.535926 0.010247 0.005009 -0.072813 0.036301 -1.031055
    36 1.100770 0.004528 -0.010675 0.000000 0.000000 -0.670669
    37 0.957766 -2.746777 -0.090301 0.182577 -0.050991 0.111154
    38 -0.033419 -1.397128 -0.011255 -0.842483 -0.018336 -0.065723
    39 -0.022361 -0.957433 0.018783 -0.642315 0.000000 0.000000
    40 0.250029 -2.820664 -0.238396 -0.282660 0.057277 -0.106700
    41 -0.049759 -1.680544 0.100479 -2.012794 0.000000 0.000000
    42 -0.034141 -1.148311 0.084779 -1.037503 0.000000 0.000000
    43 -0.488517 -2.755600 -0.228261 -0.195785 0.054574 -0.144146
    44 0.039889 -1.479791 0.029854 -2.042726 0.000000 0.000000
    45 0.028785 -1.075733 -0.023110 -0.841838 0.000000 0.000000
    46 -1.180679 -2.507216 -0.193861 0.008638 0.244088 -0.056758
    47 -0.024967 -1.123934 0.017595 -1.466576 0.000000 0.000000
    48 -0.020058 -0.890965 0.010091 -1.308781 0.000000 0.000000
    49 0.120180 -0.051600 -0.055246 0.287567 -3.172133 1.561006
  time 13
    0 -11.960718 0.630202 -7.852514 0.842136 1.865742 1.271337
    1 0.096945 -8.450421 -0.009365 0.341146 -0.254430 0.266372
    2 -0.192877 -2.997166 0.754425 0.973027 -1.502063 -0.975591
    3 0.000000 -1.808651 1.012937 0.000000 0.000000 0.000000
    4 0.000000 0.706666 0.002903 0.000000 0.000000 0.000000
    5 0.000000 2.290614 1.335354 0.000000 0.000000 0.000000
    6 -0.115834 0.290224 1.652800 0.000000 0.000000 0.000000
    7 -0.194966 1.740246 -0.780593 0.000000 0.000000 0.000000
    8 0.000000 -0.273072 1.043217 0.000000 0.000000 0.000000
    9 11.470110 0.978882 -7.922828 0.777557 -1.819456 -1.208763
    10 -0.071917 -8.498732 -0.104135 0.352798 0.302533 -0.041828
    11 0.274485 -2.982786 0.324278 0.554706 1.379928 0.480518
    12 -0.000001 -1.808650 1.012938 0.000000 0.000000 0.000000
    13 -0.115835 -1.983282 1.652799 0.000000 0.000000 0.000000
    14 0.000000 2.290614 1.335353 0.000000 0.000000 0.000000
    15 0.000001 0.706665 0.002903 0.000000 0.000000 0.000000
    16 -0.194964 1.740244 -0.761062 0.000000 0.000000 0.000000
    17 0.000000 -0.273071 1.043216 0.000000 0.000000 0.000000
    18 -0.586769 -1.264477 0.200164 -0.224469 -0.772260 -2.217911
    19 1.522835 0.058680 0.016850 -0.042963 0.166884 0.909383
    20 1.117947 0.048424 -0.005765 -0.000024 0.000000 0.654922
    21 -0.963867 -2.785143 -0.085346 0.232003 0.199964 -0.171417
    22 0.028478 -1.403067 0.006272 -0.985474 -0.000007 -0.000010
    23 0.021412 -0.957782 0.020047 -0.320093 -0.000003 -0.000020
    24 -0.249534 -2.846963 -0.174215 -0.001225 0.000954 -0.025433
    25 0.043235 -1.683940 0.096015 -2.021624 -0.002959 -0.000336
    26 0.031729 -1.160830 0.058836 -1.017646 0.000000 0.000000
    27 0.447951 -2.798983 -0.200441 -0.016287 0.053270 0.116318
    28 -0.032909 -1.480207 0.004935 -1.783693 0.000000 0.000000
    29 -0.027023 -1.076921 -0.020212 -0.898881 0.000000 0.000000
    30 1.164474 -2.543939 -0.170327 0.050355 -0.000983 -0.002105
    31 0.024033 -1.129040 0.017807 -1.291488 -0.100227 0.187007
    32 0.014896 -0.883992 -0.019846 -1.038734 0.074161 0.017318
    33 -0.138841 -0.116973 0.013658 0.285538 -0.040582 1.576220
    34 0.583509 -1.197274 0.185379 -0.077873 -0.765977 -0.796238
    35 1.535926 0.010247 0.005009 -0.072813 0.036301 -1.031055
    36 1.100770 0.004528 -0.010675 0.000000 0.000000 -0.670669
    37 0.957766 -2.746777 -0.090301 0.182577 -0.050991 0.111154
    38 -0.033419 -1.397128 -0.011255 -0.842483 -0.018336 -0.065723
    39 -0.022361 -0.957433 0.018783 -0.642315 0.000000 0.000000
    40 0.250029 -2.820664 -0.238396 -0.282660 0.057277 -0.106700
    41 -0.049759 -1.680544 0.100479 -2.012794 0.000000 0.000000
    42 -0.034141 -1.148311 0.084779 -1.037503 0.000000 0.000000
    43 -0.488517 -2.755600 -0.228261 -0.195785 0.054574 -0.144146
    44 0.039889 -1.479791 0.029854 -2.042726 0.000000 0.000000
    45 0.028785 -1.075733 -0.023110 -0.841838 0.000000 0.000000
    46 -1.180679 -2.507216 -0.193861 0.008638 0.244088 -0.056758
    47 -0.024967 -1.123934 0.017595 -1.466576 0.000000 0.000000
    48 -0.020058 -0.890965 0.010091 -1.308781 0.000000 0.000000
    49 0.120180 -0.051600 -0.055246 0.287567 -3.172133 1.561006
  time 14
    0 -11.960718 0.708329 -7.875952 0.843746 1.866252 1.272915
    1 0.096945 -8.450421 -0.009365 0.344508 -0.247949 0.250121
    2 -0.192877 -2.997166 0.754425 0.973027 -1.502063 -0.975591
    3 0.000000 -1.808651 1.012937 0.000000 0.000000 0.000000
    4 0.000000 0.706666 0.002903 0.000000 0.000000 0.000000
    5 0.000000 2.290614 1.335354 0.000000 0.000000 0.000000
    6 -0.115834 0.290224 1.652800 0.000000 0.000000 0.000000
    7 -0.194966 1.740246 -0.780593 0.000000 0.000000 0.000000
    8 0.000000 -0.273072 1.043217 0.000000 0.000000 0.000000
    9 11.470110 0.978882 -7.922828 0.777557 -1.819456 -1.208763
    10 -0.071917 -8.498732 -0.104135 0.352798 0.302533 -0.041828
    11 0.274485 -2.982786 0.324278 0.554706 1.379928 0.480518
    12 -0.000001 -1.808650 1.012938 0.000000 0.000000 0.000000
    13 -0.115835 -1.983282 1.652799 0.000000 0.000000 0.000000
    14 0.000000 2.290614 1.335353 0.000000 0.000000 0.000000
    15 0.000001 0.706665 0.002903 0.000000 0.000000 0.000000
    16 -0.194964 1.740244 -0.761062 0.000000 0.000000 0.000000
    17 0.000000 -0.273071 1.043216 0.000000 0.000000 0.000000
    18 -0.586769 -1.264477 0.200164 -0.224469 -0.772260 -2.217911
    19 1.522835 0.058680 0.016850 -0.042963 0.166884 0.909383
    20 1.117947 0.048424 -0.005765 -0.000024 0.000000 0.654922
    21 -0.963867 -2.785143 -0.085346 0.232370 0.199964 -0.171417
    22 0.028478 -1.403067 0.006272 -0.977993 -0.000007 -0.000010
    23 0.021412 -0.957782 0.020047 -0.310677 -0.000003 -0.000020
    24 -0.249534 -2.846963 -0.174215 -0.001225 0.000954 -0.025433
    25 0.043235 -1.683940 0.096015 -2.021624 -0.002959 -0.000336
    26 0.031729 -1.160830 0.058836 -1.017646 0.000000 0.000000
    27 0.447951 -2.798983 -0.200441 -0.016287 0.053270 0.116318
    28 -0.032909 -1.480207 0.004935 -1.783693 0.000000 0.000000
    29 -0.027023 -1.076921 -0.020212 -0.898881 0.000000 0.000000
    30 1.164474 -2.543939 -0.170327 0.050355 -0.000983 -0.002105
    31 0.024033 -1.129040 0.017807 -1.291488 -0.100227 0.187007
    32 0.014896 -0.883992 -0.019846 -1.038734 0.074161 0.017318
    33 -0.138841 -0.116973 0.013658 0.285538 -0.040582 1.576220
    34 0.583509 -1.197274 0.185379 -0.077873 -0.765977 -0.796238
    35 1.535926 0.010247 0.005009 -0.072813 0.036301 -1.031055
    36 1.100770 0.004528 -0.010675 0.000000 0.000000 -0.670669
    37 0.957766 -2.746777 -0.090301 0.182577 -0.050991 0.111154
    38 -0.033419 -1.397128 -0.011255 -0.842483 -0.018336 -0.065723
    39 -0.022361 -0.957433 0.018783 -0.642315 0.000000 0.000000
    40 0.250029 -2.820664 -0.238396 -0.282660 0.057277 -0.106700
    41 -0.049759 -1.680544 0.100479 -2.012794 0.000000 0.000000
    42 -0.034141 -1.148311 0.084779 -1.037503 0.000000 0.000000
    43 -0.488517 -2.755600 -0.228261 -0.195785 0.054574 -0.144146
    44 0.039889 -1.479791 0.029854 -2.042726 0.000000 0.000000
    45 0.028785 -1.075733 -0.023110 -0.841838 0.000000 0.000000
    46 -1.180679 -2.507216 -0.193861 0.008638 0.244088 -0.056758
    47 -0.024967 -1.123934 0.017595 -1.466576 0.000000 0.000000
    48 -0.020058 -0.890965 0.010091 -1.308781 0.000000 0.000000
    49 0.120180 -0.051600 -0.055246 0.287567 -3.172133 1.561006
  time 15
    0 -11.960718 0.790363 -7.903296 0.845451 1.866813 1.274493
    1 0.096945 -8.450421 -0.009365 0.347976 -0.240915 0.232755
    2 -0.192877 -2.997166 0.754425 0.973027 -1.502063 -0.975591
    3 0.000000 -1.808651 1.012937 0.000000 0.000000 0.000000
    4 0.000000 0.706666 0.002903 0.000000 0.000000 0.000000
    5 0.000000 2.290614 1.335354 0.000000 0.000000 0.000000
    6 -0.115834 0.290224 1.652800 0.000000 0.000000 0.000000
    7 -0.194966 1.740246 -0.780593 0.000000 0.000000 0.000000
    8 0.000000 -0.273072 1.043217 0.000000 0.000000 0.000000
    9 11.470110 0.978882 -7.922828 0.777557 -1.819456 -1.208763
    10 -0.071917 -8.498732 -0.104135 0.352798 0.302533 -0.041828
    11 0.274485 -2.982786 0.324278 0.554706 1.379928 0.480518
    12 -0.000001 -1.808650 1.012938 0.000000 0.000000 0.000000
    13 -0.115835 -1.983282 1.652799 0.000000 0.000000 0.000000
    14 0.000000 2.290614 1.335353 0.000000 0.000000 0.000000
    15 0.000001 0.706665 0.002903 0.000000 0.000000 0.000000
    16 -0.194964 1.740244 -0.761062 0.000000 0.000000 0.000000
    17 0.000000 -0.273071 1.043216 0.000000 0.000000 0.000000
    18 -0.586769 -1.264477 0.200164 -0.224469 -0.772260 -2.217911
    19 1.522835 0.058680 0.016850 -0.042963 0.166884 0.909383
    20 1.117947 0.048424 -0.005765 -0.000024 0.000000 0.654922
    21 -0.963867 -2.785143 -0.085346 0.232632 0.199964 -0.171417
    22 0.028478 -1.403067 0.006272 -0.972743 -0.000007 -0.000010
    23 0.021412 -0.957782 0.020047 -0.303773 -0.000003 -0.000020
    24 -0.249534 -2.846963 -0.174215 -0.001225 0.000954 -0.025433
    25 0.043235 -1.683940 0.096015 -2.021624 -0.002959 -0.000336
    26 0.031729 -1.160830 0.058836 -1.017646 0.000000 0.000000
    27 0.447951 -2.798983 -0.200441 -0.016287 0.053270 0.116318
    28 -0.032909 -1.480207 0.004935 -1.783693 0.000000 0.000000
    29 -0.027023 -1.076921 -0.020212 -0.898881 0.000000 0.000000
    30 1.164474 -2.543939 -0.170327 0.050355 -0.000983 -0.002105
    31 0.024033 -1.129040 0.017807 -1.291488 -0.100227 0.187007
    32 0.014896 -0.883992 -0.019846 -1.038734 0.074161 0.017318
    33 -0.138841 -0.116973 0.013658 0.285538 -0.040582 1.576220
    34 0.583509 -1.197274 0.185379 -0.077873 -0.765977 -0.796238
    35 1.535926 0.010247 0.005009 -0.072813 0.036301 -1.031055
    36 1.100770 0.004528 -0.010675 0.000000 0.000000 -0.670669
    37 0.957766 -2.746777 -0.090301 0.182577 -0.050991 0.111154
    38 -0.033419 -1.397128 -0.011255 -0.842483 -0.018336 -0.065723
    39 -0.022361 -0.957433 0.018783 -0.642315 0.000000 0.000000
    40 0.250029 -2.820664 -0.238396 -0.282660 0.057277 -0.106700
    41 -0.049759 -1.680544 0.100479 -2.012794 0.000000 0.000000
    42 -0.034141 -1.148311 0.084779 -1.037503 0.000000 0.000000
    43 -0.488517 -2.755600 -0.228261 -0.195785 0.054574 -0.144146
    44 0.039889 -1.479791 0.029854 -2.042726 0.000000 0.000000
    45 0.028785 -1.075733 -0.023110 -0.841838 0.000000 0.000000
    46 -1.180679 -2.507216 -0.193861 0.008638 0.244088 -0.056758
    47 -0.024967 -1.123934 0.017595 -1.466576 0.000000 0.000000
    48 -0.020058 -0.890965 0.010091 -1.308781 0.000000 0.000000
    49 0.120180 -0.051600 -0.055246 0.287567 -3.172133 1.561006
  time 16
    0 -11.960718 0.852865 -7.915015 0.846682 1.867119 1.275745
    1 0.096945 -8.450421 -0.009365 0.351210 -0.233881 0.215833
    2 -0.192877 -2.997166 0.754425 0.973027 -1.502063 -0.975591
    3 0.000000 -1.808651 1.012937 0.000000 0.000000 0.000000
    4 0.000000 0.706666 0.002903 0.000000 0.000000 0.000000
    5 0.000000 2.290614 1.335354 0.000000 0.000000 0.000000
    6 -0.115834 0.290224 1.652800 0.000000 0.000000 0.000000
    7 -0.194966 1.740246 -0.780593 0.000000 0.000000 0.000000
    8 0.000000 -0.273072 1.043217 0.000000 0.000000 0.000000
    9 11.470110 0.978882 -7.922828 0.777557 -1.819456 -1.208763
    10 -0.071917 -8.498732 -0.104135 0.352798 0.302533 -0.041828
    11 0.274485 -2.982786 0.324278 0.554706 1.379928 0.480518
    12 -0.000001 -1.808650 1.012938 0.000000 0.000000 0.000000
    13 -0.115835 -1.983282 1.652799 0.000000 0.000000 0.000000
    14 0.000000 2.290614 1.335353 0.000000 0.000000 0.000000
    15 0.000001 0.706665 0.002903 0.000000 0.000000 0.000000
    16 -0.194964 1.740244 -0.761062 0.000000 0.000000 0.000000
    17 0.000000 -0.273071 1.043216 0.000000 0.000000 0.000000
    18 -0.586769 -1.264477 0.200164 -0.224469 -0.772260 -2.217911
    19 1.522835 0.058680 0.016850 -0.042963 0.166884 0.909383
    20 1.117947 0.048424 -0.005765 -0.000024 0.000000 0.654922
    21 -0.963867 -2.785143 -0.085346 0.232816 0.199964 -0.171417
    22 0.028478 -1.403067 0.006272 -0.969593 -0.000007 -0.000010
    23 0.021412 -0.957782 0.020047 -0.299171 -0.000003 -0.000020
    24 -0.249534 -2.846963 -0.174215 -0.001225 0.000954 -0.025433
    25 0.043235 -1.683940 0.096015 -2.021624 -0.002959 -0.000336
    26 0.031729 -1.160830 0.058836 -1.017646 0.000000 0.000000
    27 0.447951 -2.798983 -0.200441 -0.016287 0.053270 0.116318
    28 -0.032909 -1.480207 0.004935 -1.783693 0.000000 0.000000
    29 -0.027023 -1.076921 -0.020212 -0.898881 0.000000 0.000000
    30 1.164474 -2.543939 -0.170327 0.050355 -0.000983 -0.002105
    31 0.024033 -1.129040 0.017807 -1.291488 -0.100227 0.187007
    32 0.014896 -0.883992 -0.019846 -1.038734 0.074161 0.017318
    33 -0.138841 -0.116973 0.013658 0.285538 -0.040582 1.576220
    34 0.583509 -1.197274 0.185379 -0.077873 -0.765977 -0.796238
    35 1.535926 0.010247 0.005009 -0.072813 0.036301 -1.031055
    36 1.100770 0.004528 -0.010675 0.000000 0.000000 -0.670669
    37 0.957766 -2.746777 -0.090301 0.182577 -0.050991 0.111154
    38 -0.033419 -1.397128 -0.011255 -0.842483 -0.018336 -0.065723
    39 -0.022361 -0.957433 0.018783 -0.642315 0.000000 0.000000
    40 0.250029 -2.820664 -0.238396 -0.282660 0.057277 -0.106700
    41 -0.049759 -1.680544 0.100479 -2.012794 0.000000 0.000000
    42 -0.034141 -1.148311 0.084779 -1.037503 0.000000 0.000000
    43 -0.488517 -2.755600 -0.228261 -0.195785 0.054574 -0.144146
    44 0.039889 -1.479791 0.029854 -2.042726 0.000000 0.000000
    45 0.028785 -1.075733 -0.023110 -0.841838 0.000000 0.000000
    46 -1.180679 -2.507216 -0.193861 0.008638 0.244088 -0.056758
    47 -0.024967 -1.123934 0.017595 -1.466576 0.000000 0.000000
    48 -0.020058 -0.890965 0.010091 -1.308781 0.000000 0.000000
    49 0.120180 -0.051600 -0.055246 0.287567 -3.172133 1.561006
  time 17
    0 -11.960718 0.864584 -7.922828 0.847156 1.867272 1.276235
    1 0.096945 -8.450421 -0.009365 0.353912 -0.227755 0.200888
    2 -0.192877 -2.997166 0.754425 0.973027 -1.502063 -0.975591
    3 0.000000 -1.808651 1.012937 0.000000 0.000000 0.000000
    4 0.000000 0.706666 0.002903 0.000000 0.000000 0.000000
    5 0.000000 2.290614 1.335354 0.000000 0.000000 0.000000
    6 -0.115834 0.290224 1.652800 0.000000 0.000000 0.000000
    7 -0.194966 1.740246 -0.780593 0.000000 0.000000 0.000000
    8 0.000000 -0.273072 1.043217 0.000000 0.000000 0.000000
    9 11.470110 0.978882 -7.922828 0.777557 -1.819456 -1.208763
    10 -0.071917 -8.498732 -0.104135 0.352798 0.302533 -0.041828
    11 0.274485 -2.982786 0.324278 0.554706 1.379928 0.480518
    12 -0.000001 -1.808650 1.012938 0.000000 0.000000 0.000000
    13 -0.115835 -1.983282 1.652799 0.000000 0.000000 0.000000
    14 0.000000 2.290614 1.335353 0.000000 0.000000 0.000000
    15 0.000001 0.706665 0.002903 0.000000 0.000000 0.000000
    16 -0.194964 1.740244 -0.761062 0.000000 0.000000 0.000000
    17 0.000000 -0.273071 1.043216 0.000000 0.000000 0.000000
    18 -0.586769 -1.264477 0.200164 -0.224469 -0.772260 -2.217911
    19 1.522835 0.058680 0.016850 -0.042963 0.166884 0.909383
    20 1.117947 0.048424 -0.005765 -0.000024 0.000000 0.654922
    21 -0.963867 -2.785143 -0.085346 0.232868 0.199964 -0.171417
    22 0.028478 -1.403067 0.006272 -0.968281 -0.000007 -0.000010
    23 0.021412 -0.957782 0.020047 -0.296587 -0.000003 -0.000020
    24 -0.249534 -2.846963 -0.174215 -0.001225 0.000954 -0.025433
    25 0.043235 -1.683940 0.096015 -2.021624 -0.002959 -0.000336
    26 0.031729 -1.160830 0.058836 -1.017646 0.000000 0.000000
    27 0.447951 -2.798983 -0.200441 -0.016287 0.053270 0.116318
    28 -0.032909 -1.480207 0.004935 -1.783693 0.000000 0.000000
    29 -0.027023 -1.076921 -0.020212 -0.898881 0.000000 0.000000
    30 1.164474 -2.543939 -0.170327 0.050355 -0.000983 -0.002105
    31 0.024033 -1.129040 0.017807 -1.291488 -0.100227 0.187007
    32 0.014896 -0.883992 -0.019846 -1.038734 0.074161 0.017318
    33 -0.138841 -0.116973 0.013658 0.285538 -0.040582 1.576220
    34 0.583509 -1.197274 0.185379 -0.077873 -0.765977 -0.796238
    35 1.535926 0.010247 0.005009 -0.072813 0.036301 -1.031055
    36 1.100770 0.004528 -0.010675 0.000000 0.000000 -0.670669
    37 0.957766 -2.746777 -0.090301 0.182577 -0.050991 0.111154
    38 -0.033419 -1.397128 -0.011255 -0.842483 -0.018336 -0.065723
    39 -0.022361 -0.957433 0.018783 -0.642315 0.000000 0.000000
    40 0.250029 -2.820664 -0.238396 -0.282660 0.057277 -0.106700
    41 -0.049759 -1.680544 0.100479 -2.012794 0.000000 0.000000
    42 -0.034141 -1.148311 0.084779 -1.037503 0.000000 0.000000
    43 -0.488517 -2.755600 -0.228261 -0.195785 0.054574 -0.144146
    44 0.039889 -1.479791 0.029854 -2.042726 0.000000 0.000000
    45 0.028785 -1.075733 -0.023110 -0.841838 0.000000 0.000000
    46 -1.180679 -2.507216 -0.193861 0.008638 0.244088 -0.056758
    47 -0.024967 -1.123934 0.017595 -1.466576 0.000000 0.000000
    48 -0.020058 -0.890965 0.010091 -1.308781 0.000000 0.000000
    49 0.120180 -0.051600 -0.055246 0.287567 -3.172133 1.561006
  time 18
    0 -11.960718 0.848958 -7.922828 0.847156 1.867272 1.276235
    1 0.096945 -8.450421 -0.009365 0.355997 -0.222934 0.189359
    2 -0.192877 -2.997166 0.754425 0.973027 -1.502063 -0.975591
    3 0.000000 -1.808651 1.012937 0.000000 0.000000 0.000000
    4 0.000000 0.706666 0.002903 0.000000 0.000000 0.000000
    5 0.000000 2.290614 1.335354 0.000000 0.000000 0.000000
    6 -0.115834 0.290224 1.652800 0.000000 0.000000 0.000000
    7 -0.194966 1.740246 -0.780593 0.000000 0.000000 0.000000
    8 0.000000 -0.273072 1.043217 0.000000 0.000000 0.000000
    9 11.470110 0.978882 -7.922828 0.777557 -1.819456 -1.208763
    10 -0.071917 -8.498732 -0.104135 0.352798 0.302533 -0.041828
    11 0.274485 -2.982786 0.324278 0.554706 1.379928 0.480518
    12 -0.000001 -1.808650 1.012938 0.000000 0.000000 0.000000
    13 -0.115835 -1.983282 1.652799 0.000000 0.000000 0.000000
    14 0.000000 2.290614 1.335353 0.000000 0.000000 0.000000
    15 0.000001 0.706665 0.002903 0.000000 0.000000 0.000000
    16 -0.194964 1.740244 -0.761062 0.000000 0.000000 0.000000
    17 0.000000 -0.273071 1.043216 0.000000 0.000000 0.000000
    18 -0.586769 -1.264477 0.200164 -0.224469 -0.772260 -2.217911
    19 1.522835 0.058680 0.016850 -0.042963 0.166884 0.909383
    20 1.117947 0.048424 -0.005765 -0.000024 0.000000 0.654922
    21 -0.963867 -2.785143 -0.085346 0.232868 0.199964 -0.171417
    22 0.028478 -1.403067 0.006272 -0.968517 -0.000007 -0.000010
    23 0.021412 -0.957782 0.020047 -0.295768 -0.000003 -0.000020
    24 -0.249534 -2.846963 -0.174215 -0.001225 0.000954 -0.025433
    25 0.043235 -1.683940 0.096015 -2.021624 -0.002959 -0.000336
    26 0.031729 -1.160830 0.058836 -1.017646 0.000000 0.000000
    27 0.447951 -2.798983 -0.200441 -0.016287 0.053270 0.116318
    28 -0.032909 -1.480207 0.004935 -1.783693 0.000000 0.000000
    29 -0.027023 -1.076921 -0.020212 -0.898881 0.000000 0.000000
    30 1.164474 -2.543939 -0.170327 0.050355 -0.000983 -0.002105
    31 0.024033 -1.129040 0.017807 -1.291488 -0.100227 0.187007
    32 0.014896 -0.883992 -0.019846 -1.038734 0.074161 0.017318
    33 -0.138841 -0.116973 0.013658 0.285538 -0.040582 1.576220
    34 0.583509 -1.197274 0.185379 -0.077873 -0.765977 -0.796238
    35 1.535926 0.010247 0.005009 -0.072813 0.036301 -1.031055
    36 1.100770 0.004528 -0.010675 0.000000 0.000000 -0.670669
    37 0.957766 -2.746777 -0.090301 0.182577 -0.050991 0.111154
    38 -0.033419 -1.397128 -0.011255 -0.842483 -0.018336 -0.065723
    39 -0.022361 -0.957433 0.018783 -0.642315 0.000000 0.000000
    40 0.250029 -2.820664 -0.238396 -0.282660 0.057277 -0.106700
    41 -0.049759 -1.680544 0.100479 -2.012794 0.000000 0.000000
    42 -0.034141 -1.148311 0.084779 -1.037503 0.000000 0.000000
    43 -0.488517 -2.755600 -0.228261 -0.195785 0.054574 -0.144146
    44 0.039889 -1.479791 0.029854 -2.042726 0.000000 0.000000
    45 0.028785 -1.075733 -0.023110 -0.841838 0.000000 0.000000
    46 -1.180679 -2.507216 -0.193861 0.008638 0.244088 -0.056758
    47 -0.024967 -1.123934 0.017595 -1.466576 0.000000 0.000000
    48 -0.020058 -0.890965 0.010091 -1.308781 0.000000 0.000000
    49 0.120180 -0.051600 -0.055246 0.287567 -3.172133 1.561006
  time 19
    0 -11.960718 0.841146 -7.922828 0.847156 1.867272 1.276235
    1 0.096945 -8.450421 -0.009365 0.357146 -0.220128 0.182816
    2 -0.192877 -2.997166 0.754425 0.973027 -1.502063 -0.975591
    3 0.000000 -1.808651 1.012937 0.000000 0.000000 0.000000
    4 0.000000 0.706666 0.002903 0.000000 0.000000 0.000000
    5 0.000000 2.290614 1.335354 0.000000 0.000000 0.000000
    6 -0.115834 0.290224 1.652800 0.000000 0.000000 0.000000
    7 -0.194966 1.740246 -0.780593 0.000000 0.000000 0.000000
    8 0.000000 -0.273072 1.043217 0.000000 0.000000 0.000000
    9 11.470110 0.978882 -7.922828 0.777557 -1.819456 -1.208763
    10 -0.071917 -8.498732 -0.104135 0.352798 0.302533 -0.041828
    11 0.274485 -2.982786 0.324278 0.554706 1.379928 0.480518
    12 -0.000001 -1.808650 1.012938 0.000000 0.000000 0.000000
    13 -0.115835 -1.983282 1.652799 0.000000 0.000000 0.000000
    14 0.000000 2.290614 1.335353 0.000000 0.000000 0.000000
    15 0.000001 0.706665 0.002903 0.000000 0.000000 0.000000
    16 -0.194964 1.740244 -0.761062 0.000000 0.000000 0.000000
    17 0.000000 -0.273071 1.043216 0.000000 0.000000 0.000000
    18 -0.586769 -1.264477 0.200164 -0.224469 -0.772260 -2.217911
    19 1.522835 0.058680 0.016850 -0.042963 0.166884 0.909383
    20 1.117947 0.048424 -0.005765 -0.000024 0.000000 0.654922
    21 -0.963867 -2.785143 -0.085346 0.232763 0.199964 -0.171417
    22 0.028478 -1.403067 0.006272 -0.970092 -0.000007 -0.000010
    23 0.021412 -0.957782 0.020047 -0.296502 -0.000003 -0.000020
    24 -0.249534 -2.846963 -0.174215 -0.001225 0.000954 -0.025433
    25 0.043235 -1.683940 0.096015 -2.021624 -0.002959 -0.000336
    26 0.031729 -1.160830 0.058836 -1.017646 0.000000 0.000000
    27 0.447951 -2.798983 -0.200441 -0.016287 0.053270 0.116318
    28 -0.032909 -1.480207 0.004935 -1.783693 0.000000 0.000000
    29 -0.027023 -1.076921 -0.020212 -0.898881 0.000000 0.000000
    30 1.164474 -2.543939 -0.170327 0.050355 -0.000983 -0.002105
    31 0.024033 -1.129040 0.017807 -1.291488 -0.100227 0.187007
    32 0.014896 -0.883992 -0.019846 -1.038734 0.074161 0.017318
    33 -0.138841 -0.116973 0.013658 0.285538 -0.040582 1.576220
    34 0.583509 -1.197274 0.185379 -0.077873 -0.765977 -0.796238
    35 1.535926 0.010247 0.005009 -0.072813 0.036301 -1.031055
    36 1.100770 0.004528 -0.010675 0.000000 0.000000 -0.670669
    37 0.957766 -2.746777 -0.090301 0.182577 -0.050991 0.111154
    38 -0.033419 -1.397128 -0.011255 -0.842483 -0.018336 -0.065723
    39 -0.022361 -0.957433 0.018783 -0.642315 0.000000 0.000000
    40 0.250029 -2.820664 -0.238396 -0.282660 0.057277 -0.106700
    41 -0.049759 -1.680544 0.100479 -2.012794 0.000000 0.000000
    42 -0.034141 -1.148311 0.084779 -1.037503 0.000000 0.000000
    43 -0.488517 -2.755600 -0.228261 -0.195785 0.054574 -0.144146
    44 0.039889 -1.479791 0.029854 -2.042726 0.000000 0.000000
    45 0.028785 -1.075733 -0.023110 -0.841838 0.000000 0.000000
    46 -1.180679 -2.507216 -0.193861 0.008638 0.244088 -0.056758
    47 -0.024967 -1.123934 0.017595 -1.466576 0.000000 0.000000
    48 -0.020058 -0.890965 0.010091 -1.308781 0.000000 0.000000
    49 0.120180 -0.051600 -0.055246 0.287567 -3.172133 1.561006
  time 20
    0 -11.960718 0.833333 -7.922828 0.847156 1.867272 1.276235
    1 0.096945 -8.450421 -0.009365 0.357614 -0.219061 0.180323
    2 -0.192877 -2.997166 0.754425 0.973027 -1.502063 -0.975591
    3 0.000000 -1.808651 1.012937 0.000000 0.000000 0.000000
    4 0.000000 0.706666 0.002903 0.000000 0.000000 0.000000
    5 0.000000 2.290614 1.335354 0.000000 0.000000 0.000000
    6 -0.115834 0.290224 1.652800 0.000000 0.000000 0.000000
    7 -0.194966 1.740246 -0.780593 0.000000 0.000000 0.000000
    8 0.000000 -0.273072 1.043217 0.000000 0.000000 0.000000
    9 11.470110 0.978882 -7.922828 0.777557 -1.819456 -1.208763
    10 -0.071917 -8.498732 -0.104135 0.352798 0.302533 -0.041828
    11 0.274485 -2.982786 0.324278 0.554706 1.379928 0.480518
    12 -0.000001 -1.808650 1.012938 0.000000 0.000000 0.000000
    13 -0.115835 -1.983282 1.652799 0.000000 0.000000 0.000000
    14 0.000000 2.290614 1.335353 0.000000 0.000000 0.000000
    15 0.000001 0.706665 0.002903 0.000000 0.000000 0.000000
    16 -0.194964 1.740244 -0.761062 0.000000 0.000000 0.000000
    17 0.000000 -0.273071 1.043216 0.000000 0.000000 0.000000
    18 -0.586769 -1.264477 0.200164 -0.224469 -0.772260 -2.217911
    19 1.522835 0.058680 0.016850 -0.042963 0.166884 0.909383
    20 1.117947 0.048424 -0.005765 -0.000024 0.000000 0.654922
    21 -0.963867 -2.785143 -0.085346 0.232632 0.199964 -0.171417
    22 0.028478 -1.403067 0.006272 -0.972743 -0.000007 -0.000010
    23 0.021412 -0.957782 0.020047 -0.298493 -0.000003 -0.000020
    24 -0.249534 -2.846963 -0.174215 -0.001225 0.000954 -0.025433
    25 0.043235 -1.683940 0.096015 -2.021624 -0.002959 -0.000336
    26 0.031729 -1.160830 0.058836 -1.017646 0.000000 0.000000
    27 0.447951 -2.798983 -0.200441 -0.016287 0.053270 0.116318
    28 -0.032909 -1.480207 0.004935 -1.783693 0.000000 0.000000
    29 -0.027023 -1.076921 -0.020212 -0.898881 0.000000 0.000000
    30 1.164474 -2.543939 -0.170327 0.050355 -0.000983 -0.002105
    31 0.024033 -1.129040 0.017807 -1.291488 -0.100227 0.187007
    32 0.014896 -0.883992 -0.019846 -1.038734 0.074161 0.017318
    33 -0.138841 -0.116973 0.013658 0.285538 -0.040582 1.576220
    34 0.583509 -1.197274 0.185379 -0.077873 -0.765977 -0.796238
    35 1.535926 0.010247 0.005009 -0.072813 0.036301 -1.031055
    36 1.100770 0.004528 -0.010675 0.000000 0.000000 -0.670669
    37 0.957766 -2.746777 -0.090301 0.182577 -0.050991 0.111154
    38 -0.033419 -1.397128 -0.011255 -0.842483 -0.018336 -0.065723
    39 -0.022361 -0.957433 0.018783 -0.642315 0.000000 0.000000
    40 0.250029 -2.820664 -0.238396 -0.282660 0.057277 -0.106700
    41 -0.049759 -1.680544 0.100479 -2.012794 0.000000 0.000000
    42 -0.034141 -1.148311 0.084779 -1.037503 0.000000 0.000000
    43 -0.488517 -2.755600 -0.228261 -0.195785 0.054574 -0.144146
    44 0.039889 -1.479791 0.029854 -2.042726 0.000000 0.000000
    45 0.028785 -1.075733 -0.023110 -0.841838 0.000000 0.000000
    46 -1.180679 -2.507216 -0.193861 0.008638 0.244088 -0.056758
    47 -0.024967 -1.123934 0.017595 -1.466576 0.000000 0.000000
    48 -0.020058 -0.890965 0.010091 -1.308781 0.000000 0.000000
    49 0.120180 -0.051600 -0.055246 0.287567 -3.172133 1.561006
  time 21
    0 -11.960718 0.833333 -7.922828 0.847156 1.867272 1.276235
    1 0.096945 -8.450421 -0.009365 0.357678 -0.218745 0.179795
    2 -0.192877 -2.997166 0.754425 0.973027 -1.502063 -0.975591
    3 0.000000 -1.808651 1.012937 0.000000 0.000000 0.000000
    4 0.000000 0.706666 0.002903 0.000000 0.000000 0.000000
    5 0.000000 2.290614 1.335354 0.000000 0.000000 0.000000
    6 -0.115834 0.290224 1.652800 0.000000 0.000000 0.000000
    7 -0.194966 1.740246 -0.780593 0.000000 0.000000 0.000000
    8 0.000000 -0.273072 1.043217 0.000000 0.000000 0.000000
    9 11.470110 0.978882 -7.922828 0.777557 -1.819456 -1.208763
    10 -0.071917 -8.498732 -0.104135 0.352798 0.302533 -0.041828
    11 0.274485 -2.982786 0.324278 0.554706 1.379928 0.480518
    12 -0.000001 -1.808650 1.012938 0.000000 0.000000 0.000000
    13 -0.115835 -1.983282 1.652799 0.000000 0.000000 0.000000
    14 0.000000 2.290614 1.335353 0.000000 0.000000 0.000000
    15 0.000001 0.706665 0.002903 0.000000 0.000000 0.000000
    16 -0.194964 1.740244 -0.761062 0.000000 0.000000 0.000000
    17 0.000000 -0.273071 1.043216 0.000000 0.000000 0.000000
    18 -0.586769 -1.264477 0.200164 -0.224469 -0.772260 -2.217911
    19 1.522835 0.058680 0.016850 -0.042963 0.166884 0.909383
    20 1.117947 0.048424 -0.005765 -0.000024 0.000000 0.654922
    21 -0.963867 -2.785143 -0.085346 0.232501 0.199964 -0.171417
    22 0.028478 -1.403067 0.006272 -0.976313 -0.000007 -0.000010
    23 0.021412 -0.957782 0.020047 -0.301500 -0.000003 -0.000020
    24 -0.249534 -2.846963 -0.174215 -0.001225 0.000954 -0.025433
    25 0.043235 -1.683940 0.096015 -2.021624 -0.002959 -0.000336
    26 0.031729 -1.160830 0.058836 -1.017646 0.000000 0.000000
    27 0.447951 -2.798983 -0.200441 -0.016287 0.053270 0.116318
    28 -0.032909 -1.480207 0.004935 -1.783693 0.000000 0.000000
    29 -0.027023 -1.076921 -0.020212 -0.898881 0.000000 0.000000
    30 1.164474 -2.543939 -0.170327 0.050355 -0.000983 -0.002105
    31 0.024033 -1.129040 0.017807 -1.291488 -0.100227 0.187007
    32 0.014896 -0.883992 -0.019846 -1.038734 0.074161 0.017318
    33 -0.138841 -0.116973 0.013658 0.285538 -0.040582 1.576220
    34 0.583509 -1.197274 0.185379 -0.077873 -0.765977 -0.796238
    35 1.535926 0.010247 0.005009 -0.072813 0.036301 -1.031055
    36 1.100770 0.004528 -0.010675 0.000000 0.000000 -0.670669
    37 0.957766 -2.746777 -0.090301 0.182577 -0.050991 0.111154
    38 -0.033419 -1.397128 -0.011255 -0.842483 -0.018336 -0.065723
    39 -0.022361 -0.957433 0.018783 -0.642315 0.000000 0.000000
    40 0.250029 -2.820664 -0.238396 -0.282660 0.057277 -0.106700
    41 -0.049759 -1.680544 0.100479 -2.012794 0.000000 0.000000
    42 -0.034141 -1.148311 0.084779 -1.037503 0.000000 0.000000
    43 -0.488517 -2.755600 -0.228261 -0.195785 0.054574 -0.144146
    44 0.039889 -1.479791 0.029854 -2.042726 0.000000 0.000000
    45 0.028785 -1.075733 -0.023110 -0.841838 0.000000 0.000000
    46 -1.180679 -2.507216 -0.193861 0.008638 0.244088 -0.056758
    47 -0.024967 -1.123934 0.017595 -1.466576 0.000000 0.000000
    48 -0.020058 -0.890965 0.010091 -1.308781 0.000000 0.000000
    49 0.120180 -0.051600 -0.055246 0.287567 -3.172133 1.561006
  time 22
    0 -11.960718 0.833333 -7.922828 0.847156 1.867272 1.276235
    1 0.096945 -8.450421 -0.009365 0.357465 -0.219140 0.180958
    2 -0.192877 -2.997166 0.754425 0.973027 -1.502063 -0.975591
    3 0.000000 -1.808651 1.012937 0.000000 0.000000 0.000000
    4 0.000000 0.706666 0.002903 0.000000 0.000000 0.000000
    5 0.000000 2.290614 1.335354 0.000000 0.000000 0.000000
    6 -0.115834 0.290224 1.652800 0.000000 0.000000 0.000000
    7 -0.194966 1.740246 -0.780593 0.000000 0.000000 0.000000
    8 0.000000 -0.273072 1.043217 0.000000 0.000000 0.000000
    9 11.470110 0.978882 -7.922828 0.777557 -1.819456 -1.208763
    10 -0.071917 -8.498732 -0.104135 0.352798 0.302533 -0.041828
    11 0.274485 -2.982786 0.324278 0.554706 1.379928 0.480518
    12 -0.000001 -1.808650 1.012938 0.000000 0.000000 0.000000
    13 -0.115835 -1.983282 1.652799 0.000000 0.000000 0.000000
    14 0.000000 2.290614 1.335353 0.000000 0.000000 0.000000
    15 0.000001 0.706665 0.002903 0.000000 0.000000 0.000000
    16 -0.194964 1.740244 -0.761062 0.000000 0.000000 0.000000
    17 0.000000 -0.273071 1.043216 0.000000 0.000000 0.000000
    18 -0.586769 -1.264477 0.200164 -0.224469 -0.772260 -2.217911
    19 1.522835 0.058680 0.016850 -0.042963 0.166884 0.909383
    20 1.117947 0.048424 -0.005765 -0.000024 0.000000 0.654922
    21 -0.963867 -2.785143 -0.085346 0.232265 0.199964 -0.171417
    22 0.028478 -1.403067 0.006272 -0.980513 -0.000007 -0.000010
    23 0.021412 -0.957782 0.020047 -0.305255 -0.000003 -0.000020
    24 -0.249534 -2.846963 -0.174215 -0.001225 0.000954 -0.025433
    25 0.043235 -1.683940 0.096015 -2.021624 -0.002959 -0.000336
    26 0.031729 -1.160830 0.058836 -1.017646 0.000000 0.000000
    27 0.447951 -2.798983 -0.200441 -0.016287 0.053270 0.116318
    28 -0.032909 -1.480207 0.004935 -1.783693 0.000000 0.000000
    29 -0.027023 -1.076921 -0.020212 -0.898881 0.000000 0.000000
    30 1.164474 -2.543939 -0.170327 0.050355 -0.000983 -0.002105
    31 0.024033 -1.129040 0.017807 -1.291488 -0.100227 0.187007
    32 0.014896 -0.883992 -0.019846 -1.038734 0.074161 0.017318
    33 -0.138841 -0.116973 0.013658 0.285538 -0.040582 1.576220
    34 0.583509 -1.197274 0.185379 -0.077873 -0.765977 -0.796238
    35 1.535926 0.010247 0.005009 -0.072813 0.036301 -1.031055
    36 1.100770 0.004528 -0.010675 0.000000 0.000000 -0.670669
    37 0.957766 -2.746777 -0.090301 0.182577 -0.050991 0.111154
    38 -0.033419 -1.397128 -0.011255 -0.842483 -0.018336 -0.065723
    39 -0.022361 -0.957433 0.018783 -0.642315 0.000000 0.000000
    40 0.250029 -2.820664 -0.238396 -0.282660 0.057277 -0.106700
    41 -0.049759 -1.680544 0.100479 -2.012794 0.000000 0.000000
    42 -0.034141 -1.148311 0.084779 -1.037503 0.000000 0.000000
    43 -0.488517 -2.755600 -0.228261 -0.195785 0.054574 -0.144146
    44 0.039889 -1.479791 0.029854 -2.042726 0.000000 0.000000
    45 0.028785 -1.075733 -0.023110 -0.841838 0.000000 0.000000
    46 -1.180679 -2.507216 -0.193861 0.008638 0.244088 -0.056758
    47 -0.024967 -1.123934 0.017595 -1.466576 0.000000 0.000000
    48 -0.020058 -0.890965 0.010091 -1.308781 0.000000 0.000000
    49 0.120180 -0.051600 -0.055246 0.287567 -3.172133 1.561006
  time 23
    0 -11.960718 0.833333 -7.922828 0.847156 1.867272 1.276235
    1 0.096945 -8.450421 -0.009365 0.357040 -0.220128 0.183475
    2 -0.192877 -2.997166 0.754425 0.973027 -1.502063 -0.975591
    3 0.000000 -1.808651 1.012937 0.000000 0.000000 0.000000
    4 0.000000 0.706666 0.002903 0.000000 0.000000 0.000000
    5 0.000000 2.290614 1.335354 0.000000 0.000000 0.000000
    6 -0.115834 0.290224 1.652800 0.000000 0.000000 0.000000
    7 -0.194966 1.740246 -0.780593 0.000000 0.000000 0.000000
    8 0.000000 -0.273072 1.043217 0.000000 0.000000 0.000000
    9 11.470110 0.978882 -7.922828 0.777557 -1.819456 -1.208763
    10 -0.071917 -8.498732 -0.104135 0.352798 0.302533 -0.041828
    11 0.274485 -2.982786 0.324278 0.554706 1.379928 0.480518
    12 -0.000001 -1.808650 1.012938 0.000000 0.000000 0.000000
    13 -0.115835 -1.983282 1.652799 0.000000 0.000000 0.000000
    14 0.000000 2.290614 1.335353 0.000000 0.000000 0.000000
    15 0.000001 0.706665 0.002903 0.000000 0.000000 0.000000
    16 -0.194964 1.740244 -0.761062 0.000000 0.000000 0.000000
    17 0.000000 -0.273071 1.043216 0.000000 0.000000 0.000000
    18 -0.586769 -1.264477 0.200164 -0.224469 -0.772260 -2.217911
    19 1.522835 0.058680 0.016850 -0.042963 0.166884 0.909383
    20 1.117947 0.048424 -0.005765 -0.000024 0.000000 0.654922
    21 -0.963867 -2.785143 -0.085346 0.232029 0.199964 -0.171417
    22 0.028478 -1.403067 0.006272 -0.985054 -0.000007 -0.000010
    23 0.021412 -0.957782 0.020047 -0.309533 -0.000003 -0.000020
    24 -0.249534 -2.846963 -0.174215 -0.001225 0.000954 -0.025433
    25 0.043235 -1.683940 0.096015 -2.021624 -0.002959 -0.000336
    26 0.031729 -1.160830 0.058836 -1.017646 0.000000 0.000000
    27 0.447951 -2.798983 -0.200441 -0.016287 0.053270 0.116318
    28 -0.032909 -1.480207 0.004935 -1.783693 0.000000 0.000000
    29 -0.027023 -1.076921 -0.020212 -0.898881 0.000000 0.000000
    30 1.164474 -2.543939 -0.170327 0.050355 -0.000983 -0.002105
    31 0.024033 -1.129040 0.017807 -1.291488 -0.100227 0.187007
    32 0.014896 -0.883992 -0.019846 -1.038734 0.074161 0.017318
    33 -0.138841 -0.116973 0.013658 0.285538 -0.040582 1.576220
    34 0.583509 -1.197274 0.185379 -0.077873 -0.765977 -0.796238
    35 1.535926 0.010247 0.005009 -0.072813 0.036301 -1.031055
    36 1.100770 0.004528 -0.010675 0.000000 0.000000 -0.670669
    37 0.957766 -2.746777 -0.090301 0.182577 -0.050991 0.111154
    38 -0.033419 -1.397128 -0.011255 -0.842483 -0.018336 -0.065723
    39 -0.022361 -0.957433 0.018783 -0.642315 0.000000 0.000000
    40 0.250029 -2.820664 -0.238396 -0.282660 0.057277 -0.106700
    41 -0.049759 -1.680544 0.100479 -2.012794 0.000000 0.000000
    42 -0.034141 -1.148311 0.084779 -1.037503 0.000000 0.000000
    43 -0.488517 -2.755600 -0.228261 -0.195785 0.054574 -0.144146
    44 0.039889 -1.479791 0.029854 -2.042726 0.000000 0.000000
    45 0.028785 -1.075733 -0.023110 -0.841838 0.000000 0.000000
    46 -1.180679 -2.507216 -0.193861 0.008638 0.244088 -0.056758
    47 -0.024967 -1.123934 0.017595 -1.466576 0.000000 0.000000
    48 -0.020058 -0.890965 0.010091 -1.308781 0.000000 0.000000
    49 0.120180 -0.051600 -0.055246 0.287567 -3.172133 1.561006
  time 24
    0 -11.960718 0.841146 -7.922828 0.847156 1.867272 1.276235
    1 0.096945 -8.450421 -0.009365 0.356380 -0.221551 0.187022
    2 -0.192877 -2.997166 0.754425 0.973027 -1.502063 -0.975591
    3 0.000000 -1.808651 1.012937 0.000000 0.000000 0.000000
    4 0.000000 0.706666 0.002903 0.000000 0.000000 0.000000
    5 0.000000 2.290614 1.335354 0.000000 0.000000 0.000000
    6 -0.115834 0.290224 1.652800 0.000000 0.000000 0.000000
    7 -0.194966 1.740246 -0.780593 0.000000 0.000000 0.000000
    8 0.000000 -0.273072 1.043217 0.000000 0.000000 0.000000
    9 11.470110 0.978882 -7.922828 0.777557 -1.819456 -1.208763
    10 -0.071917 -8.498732 -0.104135 0.352798 0.302533 -0.041828
    11 0.274485 -2.982786 0.324278 0.554706 1.379928 0.480518
    12 -0.000001 -1.808650 1.012938 0.000000 0.000000 0.000000
    13 -0.115835 -1.983282 1.652799 0.000000 0.000000 0.000000
    14 0.000000 2.290614 1.335353 0.000000 0.000000 0.000000
    15 0.000001 0.706665 0.002903 0.000000 0.000000 0.000000
    16 -0.194964 1.740244 -0.761062 0.000000 0.000000 0.000000
    17 0.000000 -0.273071 1.043216 0.000000 0.000000 0.000000
    18 -0.586769 -1.264477 0.200164 -0.224469 -0.772260 -2.217911
    19 1.522835 0.058680 0.016850 -0.042963 0.166884 0.909383
    20 1.117947 0.048424 -0.005765 -0.000024 0.000000 0.654922
    21 -0.963867 -2.785143 -0.085346 0.231793 0.199964 -0.171417
    22 0.028478 -1.403067 0.006272 -0.989779 -0.000007 -0.000010
    23 0.021412 -0.957782 0.020047 -0.314051 -0.000003 -0.000020
    24 -0.249534 -2.846963 -0.174215 -0.001225 0.000954 -0.025433
    25 0.043235 -1.683940 0.096015 -2.021624 -0.002959 -0.000336
    26 0.031729 -1.160830 0.058836 -1.017646 0.000000 0.000000
    27 0.447951 -2.798983 -0.200441 -0.016287 0.053270 0.116318
    28 -0.032909 -1.480207 0.004935 -1.783693 0.000000 0.000000
    29 -0.027023 -1.076921 -0.020212 -0.898881 0.000000 0.000000
    30 1.164474 -2.543939 -0.170327 0.050355 -0.000983 -0.002105
    31 0.024033 -1.129040 0.017807 -1.291488 -0.100227 0.187007
    32 0.014896 -0.883992 -0.019846 -1.038734 0.074161 0.017318
    33 -0.138841 -0.116973 0.013658 0.285538 -0.040582 1.576220
    34 0.583509 -1.197274 0.185379 -0.077873 -0.765977 -0.796238
    35 1.535926 0.010247 0.005009 -0.072813 0.036301 -1.031055
    36 1.100770 0.004528 -0.010675 0.000000 0.000000 -0.670669
    37 0.957766 -2.746777 -0.090301 0.182577 -0.050991 0.111154
    38 -0.033419 -1.397128 -0.011255 -0.842483 -0.018336 -0.065723
    39 -0.022361 -0.957433 0.018783 -0.642315 0.000000 0.000000
    40 0.250029 -2.820664 -0.238396 -0.282660 0.057277 -0.106700
    41 -0.049759 -1.680544 0.100479 -2.012794 0.000000 0.000000
    42 -0.034141 -1.148311 0.084779 -1.037503 0.000000 0.000000
    43 -0.488517 -2.755600 -0.228261 -0.195785 0.054574 -0.144146
    44 0.039889 -1.479791 0.029854 -2.042726 0.000000 0.000000
    45 0.028785 -1.075733 -0.023110 -0.841838 0.000000 0.000000
    46 -1.180679 -2.507216 -0.193861 0.008638 0.244088 -0.056758
    47 -0.024967 -1.123934 0.017595 -1.466576 0.000000 0.000000
    48 -0.020058 -0.890965 0.010091 -1.308781 0.000000 0.000000
    49 0.120180 -0.051600 -0.055246 0.287567 -3.172133 1.561006
  time 25
    0 -11.960718 0.848958 -7.922828 0.847156 1.867272 1.276235
    1 0.096945 -8.450421 -0.009365 0.355614 -0.223250 0.191325
    2 -0.192877 -2.997166 0.754425 0.973027 -1.502063 -0.975591
    3 0.000000 -1.808651 1.012937 0.000000 0.000000 0.000000
    4 0.000000 0.706666 0.002903 0.000000 0.000000 0.000000
    5 0.000000 2.290614 1.335354 0.000000 0.000000 0.000000
    6 -0.115834 0.290224 1.652800 0.000000 0.000000 0.000000
    7 -0.194966 1.740246 -0.780593 0.000000 0.000000 0.000000
    8 0.000000 -0.273072 1.043217 0.000000 0.000000 0.000000
    9 11.470110 0.978882 -7.922828 0.777557 -1.819456 -1.208763
    10 -0.071917 -8.498732 -0.104135 0.352798 0.302533 -0.041828
    11 0.274485 -2.982786 0.324278 0.554706 1.379928 0.480518
    12 -0.000001 -1.808650 1.012938 0.000000 0.000000 0.000000
    13 -0.115835 -1.983282 1.652799 0.000000 0.000000 0.000000
    14 0.000000 2.290614 1.335353 0.000000 0.000000 0.000000
    15 0.000001 0.706665 0.002903 0.000000 0.000000 0.000000
    16 -0.194964 1.740244 -0.761062 0.000000 0.000000 0.000000
    17 0.000000 -0.273071 1.043216 0.000000 0.000000 0.000000
    18 -0.586769 -1.264477 0.200164 -0.224469 -0.772260 -2.217911
    19 1.522835 0.058680 0.016850 -0.042963 0.166884 0.909383
    20 1.117947 0.048424 -0.005765 -0.000024 0.000000 0.654922
    21 -0.963867 -2.785143 -0.085346 0.231610 0.199964 -0.171417
    22 0.028478 -1.403067 0.006272 -0.994425 -0.000007 -0.000010
    23 0.021412 -0.957782 0.020047 -0.318583 -0.000003 -0.000020
    24 -0.249534 -2.846963 -0.174215 -0.001225 0.000954 -0.025433
    25 0.043235 -1.683940 0.096015 -2.021624 -0.002959 -0.000336
    26 0.031729 -1.160830 0.058836 -1.017646 0.000000 0.000000
    27 0.447951 -2.798983 -0.200441 -0.016287 0.053270 0.116318
    28 -0.032909 -1.480207 0.004935 -1.783693 0.000000 0.000000
    29 -0.027023 -1.076921 -0.020212 -0.898881 0.000000 0.000000
    30 1.164474 -2.543939 -0.170327 0.050355 -0.000983 -0.002105
    31 0.024033 -1.129040 0.017807 -1.291488 -0.100227 0.187007
    32 0.014896 -0.883992 -0.019846 -1.038734 0.074161 0.017318
    33 -0.138841 -0.116973 0.013658 0.285538 -0.040582 1.576220
    34 0.583509 -1.197274 0.185379 -0.077873 -0.765977 -0.796238
    35 1.535926 0.010247 0.005009 -0.072813 0.036301 -1.031055
    36 1.100770 0.004528 -0.010675 0.000000 0.000000 -0.670669
    37 0.957766 -2.746777 -0.090301 0.182577 -0.050991 0.111154
    38 -0.033419 -1.397128 -0.011255 -0.842483 -0.018336 -0.065723
    39 -0.022361 -0.957433 0.018783 -0.642315 0.000000 0.000000
    40 0.250029 -2.820664 -0.238396 -0.282660 0.057277 -0.106700
    41 -0.049759 -1.680544 0.100479 -2.012794 0.000000 0.000000
    42 -0.034141 -1.148311 0.084779 -1.037503 0.000000 0.000000
    43 -0.488517 -2.755600 -0.228261 -0.195785 0.054574 -0.144146
    44 0.039889 -1.479791 0.029854 -2.042726 0.000000 0.000000
    45 0.028785 -1.075733 -0.023110 -0.841838 0.000000 0.000000
    46 -1.180679 -2.507216 -0.193861 0.008638 0.244088 -0.056758
    47 -0.024967 -1.123934 0.017595 -1.466576 0.000000 0.000000
    48 -0.020058 -0.890965 0.010091 -1.308781 0.000000 0.000000
    49 0.120180 -0.051600 -0.055246 0.287567 -3.172133 1.561006
  time 26
    0 -11.960718 0.848958 -7.922828 0.847156 1.867272 1.276235
    1 0.096945 -8.450421 -0.009365 0.354763 -0.225068 0.196035
    2 -0.192877 -2.997166 0.754425 0.973027 -1.502063 -0.975591
    3 0.000000 -1.808651 1.012937 0.000000 0.000000 0.000000
    4 0.000000 0.706666 0.002903 0.000000 0.000000 0.000000
    5 0.000000 2.290614 1.335354 0.000000 0.000000 0.000000
    6 -0.115834 0.290224 1.652800 0.000000 0.000000 0.000000
    7 -0.194966 1.740246 -0.780593 0.000000 0.000000 0.000000
    8 0.000000 -0.273072 1.043217 0.000000 0.000000 0.000000
    9 11.470110 0.978882 -7.922828 0.777557 -1.819456 -1.208763
    10 -0.071917 -8.498732 -0.104135 0.352798 0.302533 -0.041828
    11 0.274485 -2.982786 0.324278 0.554706 1.379928 0.480518
    12 -0.000001 -1.808650 1.012938 0.000000 0.000000 0.000000
    13 -0.115835 -1.983282 1.652799 0.000000 0.000000 0.000000
    14 0.000000 2.290614 1.335353 0.000000 0.000000 0.000000
    15 0.000001 0.706665 0.002903 0.000000 0.000000 0.000000
    16 -0.194964 1.740244 -0.761062 0.000000 0.000000 0.000000
    17 0.000000 -0.273071 1.043216 0.000000 0.000000 0.000000
    18 -0.586769 -1.264477 0.200164 -0.224469 -0.772260 -2.217911
    19 1.522835 0.058680 0.016850 -0.042963 0.166884 0.909383
    20 1.117947 0.048424 -0.005765 -0.000024 0.000000 0.654922
    21 -0.963867 -2.785143 -0.085346 0.231400 0.199964 -0.171417
    22 0.028478 -1.403067 0.006272 -0.998809 -0.000007 -0.000010
    23 0.021412 -0.957782 0.020047 -0.322846 -0.000003 -0.000020
    24 -0.249534 -2.846963 -0.174215 -0.001225 0.000954 -0.025433
    25 0.043235 -1.683940 0.096015 -2.021624 -0.002959 -0.000336
    26 0.031729 -1.160830 0.058836 -1.017646 0.000000 0.000000
    27 0.447951 -2.798983 -0.200441 -0.016287 0.053270 0.116318
    28 -0.032909 -1.480207 0.004935 -1.783693 0.000000 0.000000
    29 -0.027023 -1.076921 -0.020212 -0.898881 0.000000 0.000000
    30 1.164474 -2.543939 -0.170327 0.050355 -0.000983 -0.002105
    31 0.024033 -1.129040 0.017807 -1.291488 -0.100227 0.187007
    32 0.014896 -0.883992 -0.019846 -1.038734 0.074161 0.017318
    33 -0.138841 -0.116973 0.013658 0.285538 -0.040582 1.576220
    34 0.583509 -1.197274 0.185379 -0.077873 -0.765977 -0.796238
    35 1.535926 0.010247 0.005009 -0.072813 0.036301 -1.031055
    36 1.100770 0.004528 -0.010675 0.000000 0.000000 -0.670669
    37 0.957766 -2.746777 -0.090301 0.182577 -0.050991 0.111154
    38 -0.033419 -1.397128 -0.011255 -0.842483 -0.018336 -0.065723
    39 -0.022361 -0.957433 0.018783 -0.642315 0.000000 0.000000
    40 0.250029 -2.820664 -0.238396 -0.282660 0.057277 -0.106700
    41 -0.049759 -1.680544 0.100479 -2.012794 0.000000 0.000000
    42 -0.034141 -1.148311 0.084779 -1.037503 0.000000 0.000000
    43 -0.488517 -2.755600 -0.228261 -0.195785 0.054574 -0.144146
    44 0.039889 -1.479791 0.029854 -2.042726 0.000000 0.000000
    45 0.028785 -1.075733 -0.023110 -0.841838 0.000000 0.000000
    46 -1.180679 -2.507216 -0.193861 0.008638 0.244088 -0.056758
    47 -0.024967 -1.123934 0.017595 -1.466576 0.000000 0.000000
    48 -0.020058 -0.890965 0.010091 -1.308781 0.000000 0.000000
    49 0.120180 -0.051600 -0.055246 0.287567 -3.172133 1.561006
  time 27
    0 -11.960718 0.856771 -7.922828 0.847156 1.867272 1.276235
    1 0.096945 -8.450421 -0.009365 0.353891 -0.227004 0.200852
    2 -0.192877 -2.997166 0.754425 0.973027 -1.502063 -0.975591
    3 0.000000 -1.808651 1.012937 0.000000 0.000000 0.000000
    4 0.000000 0.706666 0.002903 0.000000 0.000000 0.000000
    5 0.000000 2.290614 1.335354 0.000000 0.000000 0.000000
    6 -0.115834 0.290224 1.652800 0.000000 0.000000 0.000000
    7 -0.194966 1.740246 -0.780593 0.000000 0.000000 0.000000
    8 0.000000 -0.273072 1.043217 0.000000 0.000000 0.000000
    9 11.470110 0.978882 -7.922828 0.777557 -1.819456 -1.208763
    10 -0.071917 -8.498732 -0.104135 0.352798 0.302533 -0.041828
    11 0.274485 -2.982786 0.324278 0.554706 1.379928 0.480518
    12 -0.000001 -1.808650 1.012938 0.000000 0.000000 0.000000
    13 -0.115835 -1.983282 1.652799 0.000000 0.000000 0.000000
    14 0.000000 2.290614 1.335353 0.000000 0.000000 0.000000
    15 0.000001 0.706665 0.002903 0.000000 0.000000 0.000000
    16 -0.194964 1.740244 -0.761062 0.000000 0.000000 0.000000
    17 0.000000 -0.273071 1.043216 0.000000 0.000000 0.000000
    18 -0.586769 -1.264477 0.200164 -0.224469 -0.772260 -2.217911
    19 1.522835 0.058680 0.016850 -0.042963 0.166884 0.909383
    20 1.117947 0.048424 -0.005765 -0.000024 0.000000 0.654922
    21 -0.963867 -2.785143 -0.085346 0.231190 0.199964 -0.171417
    22 0.028478 -1.403067 0.006272 -1.002589 -0.000007 -0.000010
    23 0.021412 -0.957782 0.020047 -0.326616 -0.000003 -0.000020
    24 -0.249534 -2.846963 -0.174215 -0.001225 0.000954 -0.025433
    25 0.043235 -1.683940 0.096015 -2.021624 -0.002959 -0.000336
    26 0.031729 -1.160830 0.058836 -1.017646 0.000000 0.000000
    27 0.447951 -2.798983 -0.200441 -0.016287 0.053270 0.116318
    28 -0.032909 -1.480207 0.004935 -1.783693 0.000000 0.000000
    29 -0.027023 -1.076921 -0.020212 -0.898881 0.000000 0.000000
    30 1.164474 -2.543939 -0.170327 0.050355 -0.000983 -0.002105
    31 0.024033 -1.129040 0.017807 -1.291488 -0.100227 0.187007
    32 0.014896 -0.883992 -0.019846 -1.038734 0.074161 0.017318
    33 -0.138841 -0.116973 0.013658 0.285538 -0.040582 1.576220
    34 0.583509 -1.197274 0.185379 -0.077873 -0.765977 -0.796238
    35 1.535926 0.010247 0.005009 -0.072813 0.036301 -1.031055
    36 1.100770 0.004528 -0.010675 0.000000 0.000000 -0.670669
    37 0.957766 -2.746777 -0.090301 0.182577 -0.050991 0.111154
    38 -0.033419 -1.397128 -0.011255 -0.842483 -0.018336 -0.065723
    39 -0.022361 -0.957433 0.018783 -0.642315 0.000000 0.000000
    40 0.250029 -2.820664 -0.238396 -0.282660 0.057277 -0.106700
    41 -0.049759 -1.680544 0.100479 -2.012794 0.000000 0.000000
    42 -0.034141 -1.148311 0.084779 -1.037503 0.000000 0.000000
    43 -0.488517 -2.755600 -0.228261 -0.195785 0.054574 -0.144146
    44 0.039889 -1.479791 0.029854 -2.042726 0.000000 0.000000
    45 0.028785 -1.075733 -0.023110 -0.841838 0.000000 0.000000
    46 -1.180679 -2.507216 -0.193861 0.008638 0.244088 -0.056758
    47 -0.024967 -1.123934 0.017595 -1.466576 0.000000 0.000000
    48 -0.020058 -0.890965 0.010091 -1.308781 0.000000 0.000000
    49 0.120180 -0.051600 -0.055246 0.287567 -3.172133 1.561006
  time 28
    0 -11.960718 0.860677 -7.922828 0.847156 1.867272 1.276235
    1 0.096945 -8.450421 -0.009365 0.353040 -0.228822 0.205466
    2 -0.192877 -2.997166 0.754425 0.973027 -1.502063 -0.975591
    3 0.000000 -1.808651 1.012937 0.000000 0.000000 0.000000
    4 0.000000 0.706666 0.002903 0.000000 0.000000 0.000000
    5 0.000000 2.290614 1.335354 0.000000 0.000000 0.000000
    6 -0.115834 0.290224 1.652800 0.000000 0.000000 0.000000
    7 -0.194966 1.740246 -0.780593 0.000000 0.000000 0.000000
    8 0.000000 -0.273072 1.043217 0.000000 0.000000 0.000000
    9 11.470110 0.978882 -7.922828 0.777557 -1.819456 -1.208763
    10 -0.071917 -8.498732 -0.104135 0.352798 0.302533 -0.041828
    11 0.274485 -2.982786 0.324278 0.554706 1.379928 0.480518
    12 -0.000001 -1.808650 1.012938 0.000000 0.000000 0.000000
    13 -0.115835 -1.983282 1.652799 0.000000 0.000000 0.000000
    14 0.000000 2.290614 1.335353 0.000000 0.000000 0.000000
    15 0.000001 0.706665 0.002903 0.000000 0.000000 0.000000
    16 -0.194964 1.740244 -0.761062 0.000000 0.000000 0.000000
    17 0.000000 -0.273071 1.043216 0.000000 0.000000 0.000000
    18 -0.586769 -1.264477 0.200164 -0.224469 -0.772260 -2.217911
    19 1.522835 0.058680 0.016850 -0.042963 0.166884 0.909383
    20 1.117947 0.048424 -0.005765 -0.000024 0.000000 0.654922
    21 -0.963867 -2.785143 -0.085346 0.231033 0.199964 -0.171417
    22 0.028478 -1.403067 0.006272 -1.005581 -0.000007 -0.000010
    23 0.021412 -0.957782 0.020047 -0.329609 -0.000003 -0.000020
    24 -0.249534 -2.846963 -0.174215 -0.001225 0.000954 -0.025433
    25 0.043235 -1.683940 0.096015 -2.021624 -0.002959 -0.000336
    26 0.031729 -1.160830 0.058836 -1.017646 0.000000 0.000000
    27 0.447951 -2.798983 -0.200441 -0.016287 0.053270 0.116318
    28 -0.032909 -1.480207 0.004935 -1.783693 0.000000 0.000000
    29 -0.027023 -1.076921 -0.020212 -0.898881 0.000000 0.000000
    30 1.164474 -2.543939 -0.170327 0.050355 -0.000983 -0.002105
    31 0.024033 -1.129040 0.017807 -1.291488 -0.100227 0.187007
    32 0.014896 -0.883992 -0.019846 -1.038734 0.074161 0.017318
    33 -0.138841 -0.116973 0.013658 0.285538 -0.040582 1.576220
    34 0.583509 -1.197274 0.185379 -0.077873 -0.765977 -0.796238
    35 1.535926 0.010247 0.005009 -0.072813 0.036301 -1.031055
    36 1.100770 0.004528 -0.010675 0.000000 0.000000 -0.670669
    37 0.957766 -2.746777 -0.090301 0.182577 -0.050991 0.111154
    38 -0.033419 -1.397128 -0.011255 -0.842483 -0.018336 -0.065723
    39 -0.022361 -0.957433 0.018783 -0.642315 0.000000 0.000000
    40 0.250029 -2.820664 -0.238396 -0.282660 0.057277 -0.106700
    41 -0.049759 -1.680544 0.100479 -2.012794 0.000000 0.000000
    42 -0.034141 -1.148311 0.084779 -1.037503 0.000000 0.000000
    43 -0.488517 -2.755600 -0.228261 -0.195785 0.054574 -0.144146
    44 0.039889 -1.479791 0.029854 -2.042726 0.000000 0.000000
    45 0.028785 -1.075733 -0.023110 -0.841838 0.000000 0.000000
    46 -1.180679 -2.507216 -0.193861 0.008638 0.244088 -0.056758
    47 -0.024967 -1.123934 0.017595 -1.466576 0.000000 0.000000
    48 -0.020058 -0.890965 0.010091 -1.308781 0.000000 0.000000
    49 0.120180 -0.051600 -0.055246 0.287567 -3.172133 1.561006
  time 29
    0 -11.960718 0.864584 -7.922828 0.847156 1.867272 1.276235
    1 0.096945 -8.450421 -0.009365 0.352316 -0.230403 0.209553
    2 -0.192877 -2.997166 0.754425 0.973027 -1.502063 -0.975591
    3 0.000000 -1.808651 1.012937 0.000000 0.000000 0.000000
    4 0.000000 0.706666 0.002903 0.000000 0.000000 0.000000
    5 0.000000 2.290614 1.335354 0.000000 0.000000 0.000000
    6 -0.115834 0.290224 1.652800 0.000000 0.000000 0.000000
    7 -0.194966 1.740246 -0.780593 0.000000 0.000000 0.000000
    8 0.000000 -0.273072 1.043217 0.000000 0.000000 0.000000
    9 11.470110 0.978882 -7.922828 0.777557 -1.819456 -1.208763
    10 -0.071917 -8.498732 -0.104135 0.352798 0.302533 -0.041828
    11 0.274485 -2.982786 0.324278 0.554706 1.379928 0.480518
    12 -0.000001 -1.808650 1.012938 0.000000 0.000000 0.000000
    13 -0.115835 -1.983282 1.652799 0.000000 0.000000 0.000000
    14 0.000000 2.290614 1.335353 0.000000 0.000000 0.000000
    15 0.000001 0.706665 0.002903 0.000000 0.000000 0.000000
    16 -0.194964 1.740244 -0.761062 0.000000 0.000000 0.000000
    17 0.000000 -0.273071 1.043216 0.000000 0.000000 0.000000
    18 -0.586769 -1.264477 0.200164 -0.224469 -0.772260 -2.217911
    19 1.522835 0.058680 0.016850 -0.042963 0.166884 0.909383
    20 1.117947 0.048424 -0.005765 -0.000024 0.000000 0.654922
    21 -0.963867 -2.785143 -0.085346 0.230928 0.199964 -0.171417
    22 0.028478 -1.403067 0.006272 -1.007550 -0.000007 -0.000010
    23 0.021412 -0.957782 0.020047 -0.331600 -0.000003 -0.000020
    24 -0.249534 -2.846963 -0.174215 -0.001225 0.000954 -0.025433
    25 0.043235 -1.683940 0.096015 -2.021624 -0.002959 -0.000336
    26 0.031729 -1.160830 0.058836 -1.017646 0.000000 0.000000
    27 0.447951 -2.798983 -0.200441 -0.016287 0.053270 0.116318
    28 -0.032909 -1.480207 0.004935 -1.783693 0.000000 0.000000
    29 -0.027023 -1.076921 -0.020212 -0.898881 0.000000 0.000000
    30 1.164474 -2.543939 -0.170327 0.050355 -0.000983 -0.002105
    31 0.024033 -1.129040 0.017807 -1.291488 -0.100227 0.187007
    32 0.014896 -0.883992 -0.019846 -1.038734 0.074161 0.017318
    33 -0.138841 -0.116973 0.013658 0.285538 -0.040582 1.576220
    34 0.583509 -1.197274 0.185379 -0.077873 -0.765977 -0.796238
    35 1.535926 0.010247 0.005009 -0.072813 0.036301 -1.031055
    36 1.100770 0.004528 -0.010675 0.000000 0.000000 -0.670669
    37 0.957766 -2.746777 -0.090301 0.182577 -0.050991 0.111154
    38 -0.033419 -1.397128 -0.011255 -0.842483 -0.018336 -0.065723
    39 -0.022361 -0.957433 0.018783 -0.642315 0.000000 0.000000
    40 0.250029 -2.820664 -0.238396 -0.282660 0.057277 -0.106700
    41 -0.049759 -1.680544 0.100479 -2.012794 0.000000 0.000000
    42 -0.034141 -1.148311 0.084779 -1.037503 0.000000 0.000000
    43 -0.488517 -2.755600 -0.228261 -0.195785 0.054574 -0.144146
    44 0.039889 -1.479791 0.029854 -2.042726 0.000000 0.000000
    45 0.028785 -1.075733 -0.023110 -0.841838 0.000000 0.000000
    46 -1.180679 -2.507216 -0.193861 0.008638 0.244088 -0.056758
    47 -0.024967 -1.123934 0.017595 -1.466576 0.000000 0.000000
    48 -0.020058 -0.890965 0.010091 -1.308781 0.000000 0.000000
    49 0.120180 -0.051600 -0.055246 0.287567 -3.172133 1.561006
  time 30
    0 -11.960718 0.864584 -7.922828 0.847156 1.867272 1.276235
    1 0.096945 -8.450421 -0.009365 0.351699 -0.231589 0.212813
    2 -0.192877 -2.997166 0.754425 0.973027 -1.502063 -0.975591
    3 0.000000 -1.808651 1.012937 0.000000 0.000000 0.000000
    4 0.000000 0.706666 0.002903 0.000000 0.000000 0.000000
    5 0.000000 2.290614 1.335354 0.000000 0.000000 0.000000
    6 -0.115834 0.290224 1.652800 0.000000 0.000000 0.000000
    7 -0.194966 1.740246 -0.780593 0.000000 0.000000 0.000000
    8 0.000000 -0.273072 1.043217 0.000000 0.000000 0.000000
    9 11.470110 0.978882 -7.922828 0.777557 -1.819456 -1.208763
    10 -0.071917 -8.498732 -0.104135 0.352798 0.302533 -0.041828
    11 0.274485 -2.982786 0.324278 0.554706 1.379928 0.480518
    12 -0.000001 -1.808650 1.012938 0.000000 0.000000 0.000000
    13 -0.115835 -1.983282 1.652799 0.000000 0.000000 0.000000
    14 0.000000 2.290614 1.335353 0.000000 0.000000 0.000000
    15 0.000001 0.706665 0.002903 0.000000 0.000000 0.000000
    16 -0.194964 1.740244 -0.761062 0.000000 0.000000 0.000000
    17 0.000000 -0.273071 1.043216 0.000000 0.000000 0.000000
    18 -0.586769 -1.264477 0.200164 -0.224469 -0.772260 -2.217911
    19 1.522835 0.058680 0.016850 -0.042963 0.166884 0.909383
    20 1.117947 0.048424 -0.005765 -0.000024 0.000000 0.654922
    21 -0.963867 -2.785143 -0.085346 0.230902 0.199964 -0.171417
    22 0.028478 -1.403067 0.006272 -1.008232 -0.000007 -0.000010
    23 0.021412 -0.957782 0.020047 -0.332320 -0.000003 -0.000020
    24 -0.249534 -2.846963 -0.174215 -0.001225 0.000954 -0.025433
    25 0.043235 -1.683940 0.096015 -2.021624 -0.002959 -0.000336
    26 0.031729 -1.160830 0.058836 -1.017646 0.000000 0.000000
    27 0.447951 -2.798983 -0.200441 -0.016287 0.053270 0.116318
    28 -0.032909 -1.480207 0.004935 -1.783693 0.000000 0.000000
    29 -0.027023 -1.076921 -0.020212 -0.898881 0.000000 0.000000
    30 1.164474 -2.543939 -0.170327 0.050355 -0.000983 -0.002105
    31 0.024033 -1.129040 0.017807 -1.291488 -0.100227 0.187007
    32 0.014896 -0.883992 -0.019846 -1.038734 0.074161 0.017318
    33 -0.138841 -0.116973 0.013658 0.285538 -0.040582 1.576220
    34 0.583509 -1.197274 0.185379 -0.077873 -0.765977 -0.796238
    35 1.535926 0.010247 0.005009 -0.072813 0.036301 -1.031055
    36 1.100770 0.004528 -0.010675 0.000000 0.000000 -0.670669
    37 0.957766 -2.746777 -0.090301 0.182577 -0.050991 0.111154
    38 -0.033419 -1.397128 -0.011255 -0.842483 -0.018336 -0.065723
    39 -0.022361 -0.957433 0.018783 -0.642315 0.000000 0.000000
    40 0.250029 -2.820664 -0.238396 -0.282660 0.057277 -0.106700
    41 -0.049759 -1.680544 0.100479 -2.012794 0.000000 0.000000
    42 -0.034141 -1.148311 0.084779 -1.037503 0.000000 0.000000
    43 -0.488517 -2.755600 -0.228261 -0.195785 0.054574 -0.144146
    44 0.039889 -1.479791 0.029854 -2.042726 0.000000 0.000000
    45 0.028785 -1.075733 -0.023110 -0.841838 0.000000 0.000000
    46 -1.180679 -2.507216 -0.193861 0.008638 0.244088 -0.056758
    47 -0.024967 -1.123934 0.017595 -1.466576 0.000000 0.000000
    48 -0.020058 -0.890965 0.010091 -1.308781 0.000000 0.000000
    49 0.120180 -0.051600 -0.055246 0.287567 -3.172133 1.561006
end
