version 1
nodes
  0 "Bip01 L Clavicle" -1
  1 "Bip01 L UpperArm" 0
  2 "Bip01 L Forearm" 1
  3 "Bip01 L Hand" 2
  4 "Bone_epic_root" 3
  5 "Bone_magazine_01" 4
  6 "Bone_magazine_02" 5
  7 "Bone_magazine_03" 6
  8 "Bone_magazine_04" 7
  9 "Bone_trigger" 4
  10 "Point_led" 4
  11 "crossbowex21_led" 10
  12 "Bone_epick_right" 4
  13 "Bone_epick_left" 4
  14 "Bone_bowline" 4
  15 "Point_line" -1
  16 "bow_line2" 15
  17 "root" -1
  18 "Bone01" 17
  19 "Bone_Lefthand" 18
  20 "Bone_L_Upper" 18
  21 "Bone13" 19
  22 "Bone14" 21
  23 "Bone15" 22
  24 "Bone17" 19
  25 "Bone18" 24
  26 "Bone19" 25
  27 "Bone21" 19
  28 "Bone22" 27
  29 "Bone23" 28
  30 "Bone09" 19
  31 "Bone10" 30
  32 "Bone11" 31
  33 "Bone05" 19
  34 "Bone06" 33
  35 "Bone07" 34
  36 "Bone_Se_Hand-L" 19
  37 "Bone04" 17
  38 "Bone_Righthand" 37
  39 "Bone39" 38
  40 "Bone40" 39
  41 "Bone41" 40
  42 "Bone35" 38
  43 "Bone36" 42
  44 "Bone37" 43
  45 "Bone31" 38
  46 "Bone32" 45
  47 "Bone33" 46
  48 "Bone43" 38
  49 "Bone44" 48
  50 "Bone45" 49
  51 "Bone27" 38
  52 "Bone28" 51
  53 "Bone29" 52
  54 "Bone_Se_Hand-R" 38
  55 "Bone_R_Upper" 37
end
skeleton
  time 0
    0 1.568242 2.828082 -0.495831 0.000000 0.372218 0.081720
    1 4.065896 0.000000 0.000000 0.581565 0.089607 1.001026
    2 5.727314 0.000000 0.000000 0.000000 0.000000 -2.432950
    3 9.229775 0.000001 0.000000 -2.073161 0.058763 -0.317050
    4 -4.028509 2.385202 -0.139540 -1.712325 0.032869 -0.243476
    5 19.850609 -2.919322 1.053877 -1.570796 3.141592 0.000000
    6 1.136250 -0.000008 0.000000 0.000000 0.000000 0.000000
    7 0.163969 -1.053874 0.889052 0.000000 0.000000 -0.000001
    8 5.025910 0.000002 0.000001 0.000000 0.000000 3.141592
    9 9.203299 0.828617 -0.000001 0.000000 0.000000 -1.469692
    10 12.265707 7.447968 -0.000001 -1.570796 1.570451 0.000000
    11 -0.000008 0.000090 0.000003 0.000000 0.000000 0.000000
    12 11.236527 1.770459 3.999999 -1.570796 0.000000 0.000000
    13 11.236526 1.770458 -4.000000 -1.570796 0.000000 0.000000
    14 20.099432 0.000001 0.099096 -1.570796 0.000000 0.000000
    15 77.318169 -6.008379 -53.358147 0.000000 0.000000 -1.570796
    16 0.000004 -0.661568 0.189796 0.000000 0.000000 0.000000
    17 -1.125736 -2.126330 -0.470109 0.000000 0.000000 0.000000
    18 8.590434 9.606782 -3.374534 5.818953 -2.305732 0.356877
    19 0.010112 -8.475293 -0.072885 -0.080153 0.747111 0.296861
    20 5.542467 -5.175341 -0.415440 -1.557716 -0.033266 -3.785134
    21 -0.488518 -2.755602 -0.228260 -1.572657 -0.177694 0.023967
    22 0.039887 -1.511041 0.010322 -1.082681 -0.013818 0.022412
    23 0.028786 -1.157765 -0.124675 -1.025127 -0.015053 0.021608
    24 0.250027 -2.820665 -0.238396 -1.659120 -0.096485 0.161223
    25 -0.049759 -1.618042 0.080947 -0.884122 0.008641 -0.024211
    26 -0.034142 -1.156125 0.053531 -0.944064 0.008150 -0.024377
    27 0.957766 -2.746780 -0.090302 -0.057777 -0.183741 0.043836
    28 -0.033420 -1.397129 -0.011257 -0.283970 0.006340 -0.013592
    29 -0.022360 -0.957436 0.010971 -0.294056 0.006124 -0.013650
    30 -1.180681 -2.507217 -0.193859 -0.844729 -0.059117 0.074730
    31 -0.024967 -1.123934 0.017597 -1.583518 -0.012788 -0.063086
    32 -0.020057 -0.898781 0.017903 -0.698835 0.007958 -0.027493
    33 0.591323 -1.216809 0.247881 -0.837213 -0.216108 0.257682
    34 1.305451 -0.325702 0.106575 0.206790 -0.315386 -1.473233
    35 0.944516 -0.225949 0.008853 0.144111 -0.084853 -1.398688
    36 0.120153 -0.050270 -0.054489 0.287569 3.110905 1.561085
    37 2.877765 -3.692150 -6.981965 -0.059626 -6.073998 0.254873
    38 0.096944 -8.387917 -0.040616 -0.261619 -0.088568 0.128478
    39 0.701867 -2.736484 -0.305915 -0.129017 0.191904 0.297416
    40 -0.032909 -1.499736 0.032285 -1.581875 0.023070 -0.031901
    41 -0.027022 -1.127703 -0.020210 -1.322089 0.024688 -0.024808
    42 0.012193 -2.846964 -0.361719 0.212899 0.247369 0.269119
    43 0.043235 -1.656596 0.064761 -1.503151 -0.022908 0.008905
    44 0.031729 -1.141298 0.051025 -1.415745 -0.015753 0.008084
    45 -0.709952 -2.835928 -0.347077 0.195392 0.261101 0.242280
    46 0.028479 -1.403067 -0.001542 -0.497878 -0.008964 -0.021057
    47 0.021413 -0.949968 0.020046 -0.474313 -0.008329 -0.019727
    48 1.387138 -2.430655 -0.178143 -0.396521 -0.142440 0.586340
    49 0.024032 -1.148574 -0.009538 -1.399494 0.028583 0.065713
    50 0.014898 -0.903521 -0.012035 -1.199693 0.016227 0.058425
    51 -0.504736 -1.315260 0.063438 0.189258 -0.614315 -2.586011
    52 1.542367 0.039149 0.016848 -0.009148 -0.003060 0.525533
    53 1.117947 0.048424 -0.005766 -0.009124 -0.031598 0.407810
    54 -0.139399 -0.111698 0.014397 0.285382 -0.030687 1.580508
    55 -7.600691 3.901526 -0.426939 1.574959 -0.030008 -0.562142
  time 1
    0 1.568242 3.300753 -0.495831 0.000000 0.372218 0.081720
    1 4.065896 0.000000 0.000000 0.581505 0.089592 1.001054
    2 5.727314 0.000000 0.000000 0.000000 0.000000 -2.433017
    3 9.229775 0.000001 0.000000 -2.072614 0.057351 -0.319097
    4 -4.028509 2.385202 -0.139540 -1.712325 0.032869 -0.243476
    5 19.850609 -2.919322 1.053877 -1.570796 3.141592 0.000000
    6 1.136250 -0.000008 0.000000 0.000000 0.000000 0.000000
    7 0.163969 -1.053874 0.889052 0.000000 0.000000 -0.000001
    8 5.025910 0.000002 0.000001 0.000000 0.000000 3.141592
    9 9.203299 0.828617 -0.000001 0.000000 0.000000 -1.469692
    10 12.265707 7.447968 -0.000001 -1.570796 1.570451 0.000000
    11 -0.000008 0.000090 0.000003 0.000000 0.000000 0.000000
    12 11.236527 1.770459 3.999999 -1.570796 0.000000 0.000000
    13 11.236526 1.770458 -4.000000 -1.570796 0.000000 0.000000
    14 26.525409 0.000001 0.099096 -1.570796 0.000000 0.000000
    15 77.318169 -6.008379 -53.358147 0.000000 0.000000 -1.570796
    16 0.000004 -0.661568 0.189796 0.000000 0.000000 0.000000
    17 -1.125736 -1.661472 -0.470109 0.000000 0.000000 0.000000
    18 8.590434 9.606782 -3.374534 5.819041 -2.305732 0.356877
    19 0.010112 -8.475293 -0.072885 -0.078140 0.746563 0.300306
    20 5.542467 -5.175341 -0.415440 -1.557716 -0.033266 -3.785209
    21 -0.488518 -2.755602 -0.228260 -1.572657 -0.177694 0.023967
    22 0.039887 -1.511041 0.010322 -1.082681 -0.013818 0.022412
    23 0.028786 -1.157765 -0.124675 -1.025127 -0.015053 0.021608
    24 0.250027 -2.820665 -0.238396 -1.659120 -0.096485 0.161223
    25 -0.049759 -1.618042 0.080947 -0.884122 0.008641 -0.024211
    26 -0.034142 -1.156125 0.053531 -0.944119 0.008150 -0.024377
    27 0.957766 -2.746780 -0.090302 -0.057777 -0.183741 0.043836
    28 -0.033420 -1.397129 -0.011257 -0.283970 0.006340 -0.013592
    29 -0.022360 -0.957436 0.010971 -0.294056 0.006124 -0.013650
    30 -1.180681 -2.507217 -0.193859 -0.844729 -0.059117 0.074730
    31 -0.024967 -1.123934 0.017597 -1.583518 -0.012788 -0.063086
    32 -0.020057 -0.898781 0.017903 -0.698835 0.007958 -0.027493
    33 0.591323 -1.216809 0.247881 -0.837213 -0.216108 0.257682
    34 1.305451 -0.325702 0.106575 0.206790 -0.315386 -1.473233
    35 0.944516 -0.225949 0.008853 0.144111 -0.084853 -1.398688
    36 0.120153 -0.050270 -0.054489 0.287569 3.110905 1.561085
    37 2.877765 -3.699963 -6.981965 -0.063445 -6.073453 0.253921
    38 0.096944 -8.387917 -0.040616 -0.259875 -0.085343 0.127805
    39 0.701867 -2.736484 -0.305915 -0.128742 0.191904 0.297416
    40 -0.032909 -1.499736 0.032285 -1.579728 0.023070 -0.031817
    41 -0.027022 -1.127703 -0.020210 -1.319971 0.024676 -0.024748
    42 0.012193 -2.846964 -0.361719 0.212899 0.247369 0.269119
    43 0.043235 -1.656596 0.064761 -1.500438 -0.022884 0.008857
    44 0.031729 -1.141298 0.051025 -1.413030 -0.015729 0.008060
    45 -0.709952 -2.835928 -0.347077 0.195392 0.261101 0.242280
    46 0.028479 -1.403067 -0.001542 -0.497878 -0.008964 -0.021057
    47 0.021413 -0.949968 0.020046 -0.474313 -0.008329 -0.019727
    48 1.387138 -2.430655 -0.178143 -0.396222 -0.142440 0.586316
    49 0.024032 -1.148574 -0.009538 -1.396783 0.028451 0.065641
    50 0.014898 -0.903521 -0.012035 -1.196985 0.016107 0.058293
    51 -0.504736 -1.315260 0.063438 0.189258 -0.614315 -2.586011
    52 1.542367 0.039149 0.016848 -0.009148 -0.003060 0.525533
    53 1.117947 0.048424 -0.005766 -0.009124 -0.031598 0.407810
    54 -0.139399 -0.111698 0.014397 0.285382 -0.030687 1.580508
    55 -7.604597 3.897620 -0.426939 1.574959 -0.030008 -0.561695
  time 2
    0 1.568242 3.269502 -0.495831 0.000000 0.372218 0.081720
    1 4.065896 0.000000 0.000000 0.581457 0.089548 1.001082
    2 5.727314 0.000000 0.000000 0.000000 0.000000 -2.433151
    3 9.229775 0.000001 0.000000 -2.071625 0.054787 -0.322582
    4 -4.028509 2.385202 -0.139540 -1.712325 0.032869 -0.243476
    5 19.850609 -2.919322 1.053877 -1.570796 3.141592 0.000000
    6 1.136250 -0.000008 0.000000 0.000000 0.000000 0.000000
    7 0.163969 -1.053874 0.889052 0.000000 0.000000 -0.000001
    8 5.025910 0.000002 0.000001 0.000000 0.000000 3.141592
    9 9.203299 0.828617 -0.000001 0.000000 0.000000 -1.469692
    10 12.265707 7.447968 -0.000001 -1.570796 1.570451 0.000000
    11 -0.000008 0.000090 0.000003 0.000000 0.000000 0.000000
    12 11.236527 1.770459 3.999999 -1.570796 0.000000 0.000000
    13 11.236526 1.770458 -4.000000 -1.570796 0.000000 0.000000
    14 24.849577 0.000001 0.099096 -1.570796 0.000000 0.000000
    15 77.318169 -6.008379 -53.358147 0.000000 0.000000 -1.570796
    16 0.000004 -0.661568 0.189796 0.000000 0.000000 0.000000
    17 -1.125736 -1.692723 -0.470109 0.000000 0.000000 0.000000
    18 8.590434 9.606782 -3.374534 5.819129 -2.305732 0.356877
    19 0.010112 -8.475293 -0.072885 -0.074566 0.745628 0.306169
    20 5.542467 -5.175341 -0.415440 -1.557716 -0.033266 -3.785358
    21 -0.488518 -2.755602 -0.228260 -1.572657 -0.177694 0.023967
    22 0.039887 -1.511041 0.010322 -1.082681 -0.013818 0.022412
    23 0.028786 -1.157765 -0.124675 -1.025127 -0.015053 0.021608
    24 0.250027 -2.820665 -0.238396 -1.659120 -0.096485 0.161223
    25 -0.049759 -1.618042 0.080947 -0.884177 0.008641 -0.024211
    26 -0.034142 -1.156125 0.053531 -0.944119 0.008150 -0.024377
    27 0.957766 -2.746780 -0.090302 -0.057777 -0.183741 0.043836
    28 -0.033420 -1.397129 -0.011257 -0.283970 0.006340 -0.013592
    29 -0.022360 -0.957436 0.010971 -0.294056 0.006124 -0.013650
    30 -1.180681 -2.507217 -0.193859 -0.844729 -0.059117 0.074730
    31 -0.024967 -1.123934 0.017597 -1.583518 -0.012788 -0.063086
    32 -0.020057 -0.898781 0.017903 -0.698835 0.007958 -0.027493
    33 0.591323 -1.216809 0.247881 -0.837213 -0.216108 0.257682
    34 1.305451 -0.325702 0.106575 0.206790 -0.315386 -1.473233
    35 0.944516 -0.225949 0.008853 0.144111 -0.084853 -1.398688
    36 0.120153 -0.050270 -0.054489 0.287569 3.110905 1.561085
    37 2.877765 -3.699963 -6.962433 -0.068983 -6.073635 0.252302
    38 0.096944 -8.387917 -0.040616 -0.257940 -0.080853 0.127156
    39 0.701867 -2.736484 -0.305915 -0.128406 0.191892 0.297428
    40 -0.032909 -1.499736 0.032285 -1.577534 0.023082 -0.031757
    41 -0.027022 -1.127703 -0.020210 -1.317728 0.024664 -0.024676
    42 0.012193 -2.846964 -0.361719 0.212899 0.247369 0.269119
    43 0.043235 -1.656596 0.064761 -1.497582 -0.022860 0.008797
    44 0.031729 -1.141298 0.051025 -1.410272 -0.015705 0.008036
    45 -0.709952 -2.835928 -0.347077 0.195392 0.261101 0.242280
    46 0.028479 -1.403067 -0.001542 -0.497878 -0.008964 -0.021057
    47 0.021413 -0.949968 0.020046 -0.474313 -0.008329 -0.019727
    48 1.387138 -2.430655 -0.178143 -0.395907 -0.142440 0.586304
    49 0.024032 -1.148574 -0.009538 -1.393856 0.028332 0.065569
    50 0.014898 -0.903521 -0.012035 -1.194063 0.015987 0.058185
    51 -0.504736 -1.315260 0.063438 0.189258 -0.614315 -2.586011
    52 1.542367 0.039149 0.016848 -0.009148 -0.003060 0.525533
    53 1.117947 0.048424 -0.005766 -0.009124 -0.031598 0.407810
    54 -0.139399 -0.111698 0.014397 0.285382 -0.030687 1.580508
    55 -7.604597 3.897620 -0.426939 1.574959 -0.030008 -0.561695
  time 3
    0 1.568242 3.175749 -0.495831 0.000000 0.372218 0.081720
    1 4.065896 0.000000 0.000000 0.581421 0.089533 1.001110
    2 5.727314 0.000000 0.000000 0.000000 0.000000 -2.433218
    3 9.229775 0.000001 0.000000 -2.070531 0.051705 -0.326766
    4 -4.028509 2.385202 -0.139540 -1.712325 0.032869 -0.243476
    5 19.850609 -2.919322 1.053877 -1.570796 3.141592 0.000000
    6 1.136250 -0.000008 0.000000 0.000000 0.000000 0.000000
    7 0.163969 -1.053874 0.889052 0.000000 0.000000 -0.000001
    8 5.025910 0.000002 0.000001 0.000000 0.000000 3.141592
    9 9.203299 0.828617 -0.000001 0.000000 0.000000 -1.469692
    10 12.265707 7.447968 -0.000001 -1.570796 1.570787 0.000000
    11 -0.000008 0.000090 0.000003 0.000000 0.000000 0.000000
    12 11.236527 1.770459 3.999999 -1.570796 0.000000 0.000000
    13 11.236526 1.770458 -4.000000 -1.570796 0.000000 0.000000
    14 21.763545 0.000001 0.099096 -1.570796 0.000000 0.000000
    15 77.318169 -6.008379 -53.358147 0.000000 0.000000 -1.570796
    16 0.000004 -0.661568 0.189796 0.000000 0.000000 0.000000
    17 -1.125736 -1.778663 -0.470109 0.000000 0.000000 0.000000
    18 8.590434 9.606782 -3.374534 5.819217 -2.305732 0.356877
    19 0.010112 -8.475293 -0.072885 -0.070228 0.744564 0.313301
    20 5.542467 -5.175341 -0.415440 -1.557716 -0.033266 -3.785432
    21 -0.488518 -2.755602 -0.228260 -1.572657 -0.177694 0.023967
    22 0.039887 -1.511041 0.010322 -1.082681 -0.013818 0.022412
    23 0.028786 -1.157765 -0.124675 -1.025127 -0.015053 0.021608
    24 0.250027 -2.820665 -0.238396 -1.659120 -0.096485 0.161223
    25 -0.049759 -1.618042 0.080947 -0.884122 0.008641 -0.024211
    26 -0.034142 -1.156125 0.053531 -0.944119 0.008150 -0.024377
    27 0.957766 -2.746780 -0.090302 -0.057777 -0.183741 0.043836
    28 -0.033420 -1.397129 -0.011257 -0.283970 0.006340 -0.013592
    29 -0.022360 -0.957436 0.010971 -0.294056 0.006124 -0.013650
    30 -1.180681 -2.507217 -0.193859 -0.844729 -0.059117 0.074730
    31 -0.024967 -1.123934 0.017597 -1.583518 -0.012788 -0.063086
    32 -0.020057 -0.898781 0.017903 -0.698835 0.007958 -0.027493
    33 0.591323 -1.216809 0.247881 -0.837213 -0.216108 0.257682
    34 1.305451 -0.325702 0.106575 0.206790 -0.315386 -1.473233
    35 0.944516 -0.225949 0.008853 0.144111 -0.084853 -1.398688
    36 0.120153 -0.050270 -0.054489 0.287569 3.110905 1.561085
    37 2.877765 -3.711682 -6.938995 -0.075603 -6.073998 0.250683
    38 0.096944 -8.387917 -0.040616 -0.255890 -0.075423 0.126533
    39 0.701867 -2.736484 -0.305915 -0.128070 0.191880 0.297428
    40 -0.032909 -1.499736 0.032285 -1.575196 0.023094 -0.031697
    41 -0.027022 -1.127703 -0.020210 -1.315403 0.024664 -0.024616
    42 0.012193 -2.846964 -0.361719 0.212899 0.247369 0.269119
    43 0.043235 -1.656596 0.064761 -1.494584 -0.022812 0.008774
    44 0.031729 -1.141298 0.051025 -1.407255 -0.015645 0.008012
    45 -0.709952 -2.835928 -0.347077 0.195392 0.261101 0.242280
    46 0.028479 -1.403067 -0.001542 -0.497878 -0.008964 -0.021057
    47 0.021413 -0.949968 0.020046 -0.474313 -0.008329 -0.019727
    48 1.387138 -2.430655 -0.178143 -0.395560 -0.142440 0.586280
    49 0.024032 -1.148574 -0.009538 -1.390930 0.028188 0.065485
    50 0.014898 -0.903521 -0.012035 -1.191070 0.015892 0.058077
    51 -0.504736 -1.315260 0.063438 0.189258 -0.614315 -2.586011
    52 1.542367 0.039149 0.016848 -0.009148 -0.003060 0.525533
    53 1.117947 0.048424 -0.005766 -0.009124 -0.031598 0.407810
    54 -0.139399 -0.111698 0.014397 0.285382 -0.030687 1.580508
    55 -7.604597 3.897620 -0.426939 1.574959 -0.030008 -0.561695
  time 4
    0 1.568242 3.058558 -0.495831 0.000000 0.372218 0.081720
    1 4.065896 0.000000 0.000000 0.581397 0.089533 1.001138
    2 5.727314 0.000000 0.000000 0.000000 0.000000 -2.433218
    3 9.229775 0.000001 0.000000 -2.069458 0.048623 -0.330971
    4 -4.028509 2.385202 -0.139540 -1.712325 0.032869 -0.243476
    5 19.850609 -2.919322 1.053877 -1.570796 3.141592 0.000000
    6 1.136250 -0.000008 0.000000 0.000000 0.000000 0.000000
    7 0.163969 -1.053874 0.889052 0.000000 0.000000 -0.000001
    8 5.025910 0.000002 0.000001 0.000000 0.000000 3.141592
    9 9.203299 0.828617 -0.000001 0.000000 0.000000 -1.469692
    10 12.265707 7.447968 -0.000001 -1.570796 1.570451 0.000000
    11 -0.000008 0.000090 0.000003 0.000000 0.000000 0.000000
    12 11.236527 1.770459 3.999999 -1.570796 0.000000 0.000000
    13 11.236526 1.770458 -4.000000 -1.570796 0.000000 0.000000
    14 20.099432 0.000001 0.099096 -1.570796 0.000000 0.000000
    15 77.318169 -6.008379 -53.358147 0.000000 0.000000 -1.570796
    16 0.000004 -0.661568 0.189796 0.000000 0.000000 0.000000
    17 -1.125736 -1.891948 -0.470109 0.000000 0.000000 0.000000
    18 8.590434 9.606782 -3.374534 5.819217 -2.305732 0.356716
    19 0.010112 -8.475293 -0.072885 -0.065925 0.743468 0.320433
    20 5.542467 -5.175341 -0.415440 -1.557716 -0.033266 -3.785432
    21 -0.488518 -2.755602 -0.228260 -1.572657 -0.177694 0.023967
    22 0.039887 -1.511041 0.010322 -1.082681 -0.013818 0.022412
    23 0.028786 -1.157765 -0.124675 -1.025127 -0.015053 0.021608
    24 0.250027 -2.820665 -0.238396 -1.659120 -0.096485 0.161223
    25 -0.049759 -1.618042 0.080947 -0.884122 0.008641 -0.024211
    26 -0.034142 -1.156125 0.053531 -0.944119 0.008150 -0.024377
    27 0.957766 -2.746780 -0.090302 -0.057777 -0.183741 0.043836
    28 -0.033420 -1.397129 -0.011257 -0.283970 0.006340 -0.013592
    29 -0.022360 -0.957436 0.010971 -0.294056 0.006124 -0.013650
    30 -1.180681 -2.507217 -0.193859 -0.844729 -0.059117 0.074730
    31 -0.024967 -1.123934 0.017597 -1.583518 -0.012788 -0.063086
    32 -0.020057 -0.898781 0.017903 -0.698835 0.007958 -0.027493
    33 0.591323 -1.216809 0.247881 -0.837213 -0.216108 0.257682
    34 1.305451 -0.325702 0.106575 0.206790 -0.315386 -1.473233
    35 0.944516 -0.225949 0.008853 0.144111 -0.084853 -1.398688
    36 0.120153 -0.050270 -0.054489 0.287569 3.110905 1.561085
    37 2.877765 -3.711682 -6.919463 -0.082414 -6.074271 0.249350
    38 0.096944 -8.387917 -0.040616 -0.253725 -0.070075 0.125859
    39 0.701867 -2.736484 -0.305915 -0.127747 0.191868 0.297428
    40 -0.032909 -1.499736 0.032285 -1.572763 0.023106 -0.031625
    41 -0.027022 -1.127703 -0.020210 -1.312952 0.024652 -0.024544
    42 0.012193 -2.846964 -0.361719 0.212899 0.247369 0.269119
    43 0.043235 -1.656596 0.064761 -1.491443 -0.022776 0.008714
    44 0.031729 -1.141298 0.051025 -1.404022 -0.015609 0.007988
    45 -0.709952 -2.835928 -0.347077 0.195392 0.261101 0.242280
    46 0.028479 -1.403067 -0.001542 -0.497878 -0.008964 -0.021057
    47 0.021413 -0.949968 0.020046 -0.474313 -0.008329 -0.019727
    48 1.387138 -2.430655 -0.178143 -0.395229 -0.142452 0.586256
    49 0.024032 -1.148574 -0.009538 -1.387788 0.028020 0.065413
    50 0.014898 -0.903521 -0.012035 -1.187970 0.015760 0.057957
    51 -0.504736 -1.315260 0.063438 0.189258 -0.614315 -2.586011
    52 1.542367 0.039149 0.016848 -0.009148 -0.003060 0.525533
    53 1.117947 0.048424 -0.005766 -0.009124 -0.031598 0.407810
    54 -0.139399 -0.111698 0.014397 0.285382 -0.030687 1.580508
    55 -7.604597 3.901526 -0.426939 1.574959 -0.030008 -0.561695
  time 5
    0 1.568242 2.953086 -0.495831 0.000000 0.372218 0.081720
    1 4.065896 0.000000 0.000000 0.581385 0.089533 1.001166
    2 5.727314 0.000000 0.000000 0.000000 0.000000 -2.433285
    3 9.229775 0.000001 0.000000 -2.068575 0.046036 -0.334435
    4 -4.028509 2.385202 -0.139540 -1.712325 0.032869 -0.243476
    5 19.850609 -2.919322 1.053877 -1.570796 3.141592 0.000000
    6 1.136250 -0.000008 0.000000 0.000000 0.000000 0.000000
    7 0.163969 -1.053874 0.889052 0.000000 0.000000 -0.000001
    8 5.025910 0.000002 0.000001 0.000000 0.000000 3.141592
    9 9.203299 0.828617 -0.000001 0.000000 0.000000 -1.469692
    10 12.265707 7.447968 -0.000001 -1.570796 1.570451 0.000000
    11 -0.000008 0.000090 0.000003 0.000000 0.000000 0.000000
    12 11.236527 1.770459 3.999999 -1.570796 0.000000 0.000000
    13 11.236526 1.770458 -4.000000 -1.570796 0.000000 0.000000
    14 20.099432 0.000001 0.099096 -1.570796 0.000000 0.000000
    15 77.318169 -6.008379 -53.358147 0.000000 0.000000 -1.570796
    16 0.000004 -0.661568 0.189796 0.000000 0.000000 0.000000
    17 -1.125736 -2.009139 -0.470109 0.000000 0.000000 0.000000
    18 8.590434 9.606782 -3.374534 5.819217 -2.305732 0.356716
    19 0.010112 -8.479200 -0.072885 -0.062316 0.742533 0.326296
    20 5.542467 -5.175341 -0.415440 -1.557716 -0.033266 -3.785432
    21 -0.488518 -2.755602 -0.228260 -1.572657 -0.177694 0.023967
    22 0.039887 -1.511041 0.010322 -1.082681 -0.013818 0.022412
    23 0.028786 -1.157765 -0.124675 -1.025127 -0.015053 0.021608
    24 0.250027 -2.820665 -0.238396 -1.659120 -0.096485 0.161223
    25 -0.049759 -1.618042 0.080947 -0.884177 0.008641 -0.024211
    26 -0.034142 -1.156125 0.053531 -0.944119 0.008150 -0.024377
    27 0.957766 -2.746780 -0.090302 -0.057777 -0.183741 0.043836
    28 -0.033420 -1.397129 -0.011257 -0.283970 0.006340 -0.013592
    29 -0.022360 -0.957436 0.010971 -0.294056 0.006124 -0.013650
    30 -1.180681 -2.507217 -0.193859 -0.844729 -0.059117 0.074730
    31 -0.024967 -1.123934 0.017597 -1.583518 -0.012788 -0.063086
    32 -0.020057 -0.898781 0.017903 -0.698835 0.007958 -0.027493
    33 0.591323 -1.216809 0.247881 -0.837213 -0.216108 0.257682
    34 1.305451 -0.325702 0.106575 0.206790 -0.315386 -1.473233
    35 0.944516 -0.225949 0.008853 0.144111 -0.084853 -1.398688
    36 0.120153 -0.050270 -0.054489 0.287569 3.110905 1.561085
    37 2.877765 -3.723401 -6.907744 -0.088143 -6.074271 0.248017
    38 0.096944 -8.387917 -0.040616 -0.251579 -0.065258 0.125086
    39 0.701867 -2.736484 -0.305915 -0.127351 0.191868 0.297428
    40 -0.032909 -1.499736 0.032285 -1.570187 0.023106 -0.031553
    41 -0.027022 -1.127703 -0.020210 -1.310378 0.024640 -0.024497
    42 0.012193 -2.846964 -0.361719 0.212899 0.247369 0.269119
    43 0.043235 -1.656596 0.068667 -1.488159 -0.022752 0.008666
    44 0.031729 -1.141298 0.051025 -1.400833 -0.015585 0.007988
    45 -0.709952 -2.835928 -0.347077 0.195392 0.261101 0.242280
    46 0.028479 -1.403067 -0.001542 -0.497878 -0.008964 -0.021057
    47 0.021413 -0.949968 0.020046 -0.474313 -0.008329 -0.019727
    48 1.387138 -2.430655 -0.178143 -0.394834 -0.142452 0.586244
    49 0.024032 -1.148574 -0.009538 -1.384518 0.027840 0.065293
    50 0.014898 -0.903521 -0.012035 -1.184692 0.015628 0.057862
    51 -0.504736 -1.315260 0.063438 0.189258 -0.614315 -2.586011
    52 1.542367 0.039149 0.016848 -0.009148 -0.003060 0.525533
    53 1.117947 0.048424 -0.005766 -0.009124 -0.031598 0.407810
    54 -0.139399 -0.111698 0.014397 0.285382 -0.030687 1.580508
    55 -7.604597 3.901526 -0.426939 1.574959 -0.030008 -0.561874
  time 6
    0 1.568242 2.867146 -0.495831 0.000000 0.372218 0.081720
    1 4.065896 0.000000 0.000000 0.581385 0.089533 1.001166
    2 5.727314 0.000000 0.000000 0.000000 0.000000 -2.433285
    3 9.229775 0.000001 0.000000 -2.068049 0.044506 -0.336459
    4 -4.028509 2.385202 -0.139540 -1.712325 0.032869 -0.243476
    5 19.850609 -2.919322 1.053877 -1.570796 3.141592 0.000000
    6 1.136250 -0.000008 0.000000 0.000000 0.000000 0.000000
    7 0.163969 -1.053874 0.889052 0.000000 0.000000 -0.000001
    8 5.025910 0.000002 0.000001 0.000000 0.000000 3.141592
    9 9.203299 0.828617 -0.000001 0.000000 0.000000 -1.469692
    10 12.265707 7.447968 -0.000001 -1.570796 1.570451 0.000000
    11 -0.000008 0.000090 0.000003 0.000000 0.000000 0.000000
    12 11.236527 1.770459 3.999999 -1.570796 0.000000 0.000000
    13 11.236526 1.770458 -4.000000 -1.570796 0.000000 0.000000
    14 20.099432 0.000001 0.099096 -1.570796 0.000000 0.000000
    15 77.318169 -6.008379 -53.358147 0.000000 0.000000 -1.570796
    16 0.000004 -0.661568 0.189796 0.000000 0.000000 0.000000
    17 -1.125736 -2.095079 -0.470109 0.000000 0.000000 0.000000
    18 8.590434 9.606782 -3.374534 5.819305 -2.305732 0.356716
    19 0.010112 -8.479200 -0.072885 -0.060234 0.741985 0.329741
    20 5.542467 -5.175341 -0.415440 -1.557716 -0.033266 -3.785432
    21 -0.488518 -2.755602 -0.228260 -1.572657 -0.177694 0.023967
    22 0.039887 -1.511041 0.010322 -1.082681 -0.013818 0.022412
    23 0.028786 -1.157765 -0.124675 -1.025127 -0.015053 0.021608
    24 0.250027 -2.820665 -0.238396 -1.659120 -0.096485 0.161223
    25 -0.049759 -1.618042 0.080947 -0.884122 0.008641 -0.024211
    26 -0.034142 -1.156125 0.053531 -0.944064 0.008150 -0.024377
    27 0.957766 -2.746780 -0.090302 -0.057777 -0.183741 0.043836
    28 -0.033420 -1.397129 -0.011257 -0.283970 0.006340 -0.013592
    29 -0.022360 -0.957436 0.010971 -0.294056 0.006124 -0.013650
    30 -1.180681 -2.507217 -0.193859 -0.844729 -0.059117 0.074730
    31 -0.024967 -1.123934 0.017597 -1.583518 -0.012788 -0.063086
    32 -0.020057 -0.898781 0.017903 -0.698835 0.007958 -0.027493
    33 0.591323 -1.216809 0.247881 -0.837213 -0.216108 0.257682
    34 1.305451 -0.325702 0.106575 0.206790 -0.315386 -1.473233
    35 0.944516 -0.225949 0.008853 0.144111 -0.084853 -1.398688
    36 0.120153 -0.050270 -0.054489 0.287569 3.110905 1.561085
    37 2.877765 -3.723401 -6.899931 -0.092217 -6.073089 0.246874
    38 0.096944 -8.387917 -0.040616 -0.249433 -0.061543 0.124164
    39 0.701867 -2.736484 -0.305915 -0.126992 0.191856 0.297440
    40 -0.032909 -1.499736 0.032285 -1.567516 0.023118 -0.031494
    41 -0.027022 -1.127703 -0.020210 -1.307720 0.024628 -0.024425
    42 0.012193 -2.846964 -0.361719 0.212899 0.247369 0.269119
    43 0.043235 -1.656596 0.068667 -1.484732 -0.022716 0.008606
    44 0.031729 -1.141298 0.051025 -1.397385 -0.015549 0.007965
    45 -0.709952 -2.835928 -0.347077 0.195392 0.261101 0.242280
    46 0.028479 -1.403067 -0.001542 -0.497878 -0.008964 -0.021057
    47 0.021413 -0.949968 0.020046 -0.474313 -0.008329 -0.019727
    48 1.387138 -2.430655 -0.178143 -0.394472 -0.142452 0.586220
    49 0.024032 -1.148574 -0.009538 -1.380989 0.027672 0.065209
    50 0.014898 -0.903521 -0.012035 -1.181200 0.015460 0.057730
    51 -0.504736 -1.315260 0.063438 0.189258 -0.614315 -2.586011
    52 1.542367 0.039149 0.016848 -0.009148 -0.003060 0.525533
    53 1.117947 0.048424 -0.005766 -0.009124 -0.031598 0.407810
    54 -0.139399 -0.111698 0.014397 0.285382 -0.030687 1.580508
    55 -7.604597 3.901526 -0.426939 1.574959 -0.030008 -0.561695
  time 7
    0 1.568242 2.828082 -0.495831 0.000000 0.372218 0.081720
    1 4.065896 0.000000 0.000000 0.581373 0.089504 1.001166
    2 5.727314 0.000000 0.000000 0.000000 0.000000 -2.433285
    3 9.229775 0.000001 0.000000 -2.068070 0.044647 -0.336301
    4 -4.028509 2.385202 -0.139540 -1.712325 0.032869 -0.243476
    5 19.850609 -2.919322 1.053877 -1.570796 3.141592 0.000000
    6 1.136250 -0.000008 0.000000 0.000000 0.000000 0.000000
    7 0.163969 -1.053874 0.889052 0.000000 0.000000 -0.000001
    8 5.025910 0.000002 0.000001 0.000000 0.000000 3.141592
    9 9.203299 0.828617 -0.000001 0.000000 0.000000 -1.469692
    10 12.265707 7.447968 -0.000001 -1.570796 1.570451 0.000000
    11 -0.000008 0.000090 0.000003 0.000000 0.000000 0.000000
    12 11.236527 1.770459 3.999999 -1.570796 0.000000 0.000000
    13 11.236526 1.770458 -4.000000 -1.570796 0.000000 0.000000
    14 20.099432 0.000001 0.099096 -1.570796 0.000000 0.000000
    15 77.318169 -6.008379 -53.358147 0.000000 0.000000 -1.570796
    16 0.000004 -0.661568 0.189796 0.000000 0.000000 0.000000
    17 -1.125736 -2.126330 -0.470109 0.000000 0.000000 0.000000
    18 8.590434 9.606782 -3.374534 5.819305 -2.305732 0.356716
    19 0.010112 -8.479200 -0.072885 -0.060442 0.742082 0.329500
    20 5.542467 -5.175341 -0.415440 -1.557716 -0.033266 -3.785432
    21 -0.488518 -2.755602 -0.228260 -1.572657 -0.177694 0.023967
    22 0.039887 -1.511041 0.010322 -1.082681 -0.013818 0.022412
    23 0.028786 -1.157765 -0.124675 -1.025127 -0.015053 0.021608
    24 0.250027 -2.820665 -0.238396 -1.659120 -0.096485 0.161223
    25 -0.049759 -1.618042 0.080947 -0.884122 0.008641 -0.024211
    26 -0.034142 -1.156125 0.053531 -0.944119 0.008150 -0.024377
    27 0.957766 -2.746780 -0.090302 -0.057777 -0.183741 0.043836
    28 -0.033420 -1.397129 -0.011257 -0.283970 0.006340 -0.013592
    29 -0.022360 -0.957436 0.010971 -0.294056 0.006124 -0.013650
    30 -1.180681 -2.507217 -0.193859 -0.844729 -0.059117 0.074730
    31 -0.024967 -1.123934 0.017597 -1.583518 -0.012788 -0.063086
    32 -0.020057 -0.898781 0.017903 -0.698835 0.007958 -0.027493
    33 0.591323 -1.216809 0.247881 -0.837213 -0.216108 0.257682
    34 1.305451 -0.325702 0.106575 0.206790 -0.315386 -1.473233
    35 0.944516 -0.225949 0.008853 0.144111 -0.084853 -1.398688
    36 0.120153 -0.050270 -0.054489 0.287569 3.110905 1.561085
    37 2.877765 -3.723401 -6.919463 -0.093490 -6.070543 0.246684
    38 0.096944 -8.387917 -0.040616 -0.247517 -0.059747 0.123066
    39 0.701867 -2.736484 -0.305915 -0.126572 0.191844 0.297440
    40 -0.032909 -1.499736 0.032285 -1.564701 0.023130 -0.031422
    41 -0.027022 -1.127703 -0.020210 -1.304937 0.024616 -0.024341
    42 0.012193 -2.846964 -0.361719 0.212899 0.247369 0.269119
    43 0.043235 -1.656596 0.068667 -1.481115 -0.022692 0.008534
    44 0.031729 -1.141298 0.051025 -1.393808 -0.015513 0.007929
    45 -0.709952 -2.835928 -0.347077 0.195392 0.261101 0.242280
    46 0.028479 -1.403067 -0.001542 -0.497878 -0.008964 -0.021057
    47 0.021413 -0.949968 0.020046 -0.474313 -0.008329 -0.019727
    48 1.387138 -2.430655 -0.178143 -0.394062 -0.142452 0.586196
    49 0.024032 -1.148574 -0.009538 -1.377503 0.027517 0.065113
    50 0.014898 -0.903521 -0.012035 -1.177708 0.015316 0.057586
    51 -0.504736 -1.315260 0.063438 0.189258 -0.614315 -2.586011
    52 1.542367 0.039149 0.016848 -0.009148 -0.003060 0.525533
    53 1.117947 0.048424 -0.005766 -0.009124 -0.031598 0.407810
    54 -0.139399 -0.111698 0.014397 0.285382 -0.030687 1.580508
    55 -7.604597 3.897620 -0.426939 1.574959 -0.030104 -0.561248
  time 8
    0 1.568242 2.828082 -0.495831 0.000000 0.372218 0.081720
    1 4.065896 0.000000 0.000000 0.581373 0.089504 1.001166
    2 5.727314 0.000000 0.000000 0.000000 0.000000 -2.433285
    3 9.229775 0.000001 0.000000 -2.068743 0.046718 -0.333580
    4 -4.028509 2.385202 -0.139540 -1.712325 0.032869 -0.243476
    5 19.850609 -2.919322 1.053877 -1.570796 3.141592 0.000000
    6 1.136250 -0.000008 0.000000 0.000000 0.000000 0.000000
    7 0.163969 -1.053874 0.889052 0.000000 0.000000 -0.000001
    8 5.025910 0.000002 0.000001 0.000000 0.000000 3.141592
    9 9.203299 0.828617 -0.000001 0.000000 0.000000 -1.469692
    10 12.265707 7.447968 -0.000001 -1.570796 1.570451 0.000000
    11 -0.000008 0.000090 0.000003 0.000000 0.000000 0.000000
    12 11.236527 1.770459 3.999999 -1.570796 0.000000 0.000000
    13 11.236526 1.770458 -4.000000 -1.570796 0.000000 0.000000
    14 20.099432 0.000001 0.099096 -1.570796 0.000000 0.000000
    15 77.318169 -6.008379 -53.358147 0.000000 0.000000 -1.570796
    16 0.000004 -0.661568 0.189796 0.000000 0.000000 0.000000
    17 -1.125736 -2.126330 -0.470109 0.000000 0.000000 0.000000
    18 8.590434 9.606782 -3.374534 5.819305 -2.305732 0.356716
    19 0.010112 -8.479200 -0.072885 -0.063253 0.742759 0.324846
    20 5.542467 -5.175341 -0.415440 -1.557716 -0.033266 -3.785432
    21 -0.488518 -2.755602 -0.228260 -1.572657 -0.177694 0.023967
    22 0.039887 -1.511041 0.010322 -1.082681 -0.013818 0.022412
    23 0.028786 -1.157765 -0.124675 -1.025127 -0.015053 0.021608
    24 0.250027 -2.820665 -0.238396 -1.659120 -0.096485 0.161223
    25 -0.049759 -1.618042 0.080947 -0.884122 0.008641 -0.024211
    26 -0.034142 -1.156125 0.053531 -0.944119 0.008150 -0.024377
    27 0.957766 -2.746780 -0.090302 -0.057777 -0.183741 0.043836
    28 -0.033420 -1.397129 -0.011257 -0.283970 0.006340 -0.013592
    29 -0.022360 -0.957436 0.010971 -0.294056 0.006124 -0.013650
    30 -1.180681 -2.507217 -0.193859 -0.844729 -0.059117 0.074730
    31 -0.024967 -1.123934 0.017597 -1.583518 -0.012788 -0.063086
    32 -0.020057 -0.898781 0.017903 -0.698835 0.007958 -0.027493
    33 0.591323 -1.216809 0.247881 -0.837213 -0.216108 0.257682
    34 1.305451 -0.325702 0.106575 0.206790 -0.315386 -1.473233
    35 0.944516 -0.225949 0.008853 0.144111 -0.084853 -1.398688
    36 0.120153 -0.050270 -0.054489 0.287569 3.110905 1.561085
    37 2.877765 -3.723401 -6.938995 -0.091644 -6.066452 0.246779
    38 0.096944 -8.391823 -0.040616 -0.245735 -0.060196 0.121720
    39 0.701867 -2.736484 -0.305915 -0.126177 0.191832 0.297440
    40 -0.032909 -1.499736 0.032285 -1.561792 0.023142 -0.031338
    41 -0.027022 -1.127703 -0.020210 -1.301989 0.024604 -0.024257
    42 0.012193 -2.846964 -0.361719 0.212899 0.247369 0.269119
    43 0.043235 -1.656596 0.068667 -1.477403 -0.022656 0.008474
    44 0.031729 -1.141298 0.051025 -1.390058 -0.015465 0.007905
    45 -0.709952 -2.835928 -0.347077 0.195392 0.261101 0.242280
    46 0.028479 -1.403067 -0.001542 -0.497878 -0.008964 -0.021057
    47 0.021413 -0.949968 0.020046 -0.474313 -0.008329 -0.019727
    48 1.387138 -2.430655 -0.178143 -0.393652 -0.142452 0.586172
    49 0.024032 -1.148574 -0.009538 -1.373760 0.027325 0.065017
    50 0.014898 -0.903521 -0.012035 -1.173967 0.015161 0.057418
    51 -0.504736 -1.315260 0.063438 0.189258 -0.614315 -2.586011
    52 1.542367 0.039149 0.016848 -0.009148 -0.003060 0.525533
    53 1.117947 0.048424 -0.005766 -0.009124 -0.031598 0.407810
    54 -0.139399 -0.111698 0.014397 0.285382 -0.030687 1.580508
    55 -7.604597 3.889807 -0.426939 1.574959 -0.030104 -0.560622
  time 9
    0 1.568242 2.828082 -0.495831 0.000000 0.372218 0.081720
    1 4.065896 0.000000 0.000000 0.581373 0.089504 1.001166
    2 5.727314 0.000000 0.000000 0.000000 0.000000 -2.433285
    3 9.229775 0.000001 0.000000 -2.069963 0.050294 -0.328790
    4 -4.028509 2.385202 -0.139540 -1.712325 0.032869 -0.243476
    5 19.850609 -2.919322 1.053877 -1.570796 3.141592 0.000000
    6 1.136250 -0.000008 0.000000 0.000000 0.000000 0.000000
    7 0.163969 -1.053874 0.889052 0.000000 0.000000 -0.000001
    8 5.025910 0.000002 0.000001 0.000000 0.000000 3.141592
    9 9.203299 0.828617 -0.000001 0.000000 0.000000 -1.469692
    10 12.265707 7.447968 -0.000001 -1.570796 1.570451 0.000000
    11 -0.000008 0.000090 0.000003 0.000000 0.000000 0.000000
    12 11.236527 1.770459 3.999999 -1.570796 0.000000 0.000000
    13 11.236526 1.770458 -4.000000 -1.570796 0.000000 0.000000
    14 20.099432 0.000001 0.099096 -1.570796 0.000000 0.000000
    15 77.318169 -6.008379 -53.358147 0.000000 0.000000 -1.570796
    16 0.000004 -0.661568 0.189796 0.000000 0.000000 0.000000
    17 -1.125736 -2.126330 -0.470109 0.000000 0.000000 0.000000
    18 8.590434 9.606782 -3.374534 5.819305 -2.305732 0.356716
    19 0.010112 -8.475293 -0.072885 -0.068250 0.743984 0.316625
    20 5.542467 -5.175341 -0.415440 -1.557716 -0.033266 -3.785432
    21 -0.488518 -2.755602 -0.228260 -1.572657 -0.177694 0.023967
    22 0.039887 -1.511041 0.010322 -1.082681 -0.013818 0.022412
    23 0.028786 -1.157765 -0.124675 -1.025127 -0.015053 0.021608
    24 0.250027 -2.820665 -0.238396 -1.659120 -0.096485 0.161223
    25 -0.049759 -1.618042 0.080947 -0.884177 0.008641 -0.024211
    26 -0.034142 -1.156125 0.053531 -0.944064 0.008150 -0.024377
    27 0.957766 -2.746780 -0.090302 -0.057777 -0.183741 0.043836
    28 -0.033420 -1.397129 -0.011257 -0.283970 0.006340 -0.013592
    29 -0.022360 -0.957436 0.010971 -0.294056 0.006124 -0.013650
    30 -1.180681 -2.507217 -0.193859 -0.844729 -0.059117 0.074730
    31 -0.024967 -1.123934 0.017597 -1.583518 -0.012788 -0.063086
    32 -0.020057 -0.898781 0.017903 -0.698835 0.007958 -0.027493
    33 0.591323 -1.216809 0.247881 -0.837213 -0.216108 0.257682
    34 1.305451 -0.325702 0.106575 0.206790 -0.315386 -1.473233
    35 0.944516 -0.225949 0.008853 0.144111 -0.084853 -1.398688
    36 0.120153 -0.050270 -0.054489 0.287569 3.110905 1.561085
    37 2.877765 -3.711682 -6.981965 -0.087252 -6.060815 0.247636
    38 0.096944 -8.391823 -0.040616 -0.244126 -0.062482 0.120174
    39 0.701867 -2.736484 -0.305915 -0.125721 0.191796 0.297452
    40 -0.032909 -1.499736 0.032285 -1.558786 0.023154 -0.031254
    41 -0.027022 -1.127703 -0.020210 -1.298957 0.024592 -0.024173
    42 0.012193 -2.846964 -0.361719 0.212899 0.247369 0.269119
    43 0.043235 -1.656596 0.068667 -1.473500 -0.022620 0.008402
    44 0.031729 -1.141298 0.051025 -1.386179 -0.015429 0.007869
    45 -0.709952 -2.835928 -0.347077 0.195392 0.261101 0.242280
    46 0.028479 -1.403067 -0.001542 -0.497878 -0.008964 -0.021057
    47 0.021413 -0.949968 0.020046 -0.474313 -0.008329 -0.019727
    48 1.387138 -2.430655 -0.178143 -0.393211 -0.142464 0.586148
    49 0.024032 -1.148574 -0.009538 -1.369887 0.027109 0.064934
    50 0.014898 -0.903521 -0.012035 -1.170083 0.015029 0.057274
    51 -0.504736 -1.315260 0.063438 0.189258 -0.614315 -2.586011
    52 1.542367 0.039149 0.016848 -0.009148 -0.003060 0.525533
    53 1.117947 0.048424 -0.005766 -0.009124 -0.031598 0.407810
    54 -0.139399 -0.111698 0.014397 0.285382 -0.030687 1.580508
    55 -7.604597 3.885901 -0.426939 1.574959 -0.030104 -0.559549
  time 10
    0 1.568242 2.828082 -0.495831 0.000000 0.372218 0.081720
    1 4.065896 0.000000 0.000000 0.581385 0.089533 1.001166
    2 5.727314 0.000000 0.000000 0.000000 0.000000 -2.433285
    3 9.229775 0.000001 0.000000 -2.071562 0.054928 -0.322582
    4 -4.028509 2.385202 -0.139540 -1.712325 0.032869 -0.243476
    5 19.850609 -2.919322 1.053877 -1.570796 3.141592 0.000000
    6 1.136250 -0.000008 0.000000 0.000000 0.000000 0.000000
    7 0.163969 -1.053874 0.889052 0.000000 0.000000 -0.000001
    8 5.025910 0.000002 0.000001 0.000000 0.000000 3.141592
    9 9.203299 0.828617 -0.000001 0.000000 0.000000 -1.469692
    10 12.265707 7.447968 -0.000001 -1.570796 1.570451 0.000000
    11 -0.000008 0.000090 0.000003 0.000000 0.000000 0.000000
    12 11.236527 1.770459 3.999999 -1.570796 0.000000 0.000000
    13 11.236526 1.770458 -4.000000 -1.570796 0.000000 0.000000
    14 20.099432 0.000001 0.099096 -1.570796 0.000000 0.000000
    15 77.318169 -6.008379 -53.358147 0.000000 0.000000 -1.570796
    16 0.000004 -0.661568 0.189796 0.000000 0.000000 0.000000
    17 -1.125736 -2.126330 -0.470109 0.000000 0.000000 0.000000
    18 8.590434 9.606782 -3.374534 5.819305 -2.305732 0.356716
    19 0.010112 -8.475293 -0.072885 -0.074670 0.745499 0.306108
    20 5.542467 -5.175341 -0.415440 -1.557716 -0.033266 -3.785432
    21 -0.488518 -2.755602 -0.228260 -1.572657 -0.177694 0.023967
    22 0.039887 -1.511041 0.010322 -1.082681 -0.013818 0.022412
    23 0.028786 -1.157765 -0.124675 -1.025127 -0.015053 0.021608
    24 0.250027 -2.820665 -0.238396 -1.659120 -0.096485 0.161223
    25 -0.049759 -1.618042 0.080947 -0.884122 0.008641 -0.024211
    26 -0.034142 -1.156125 0.053531 -0.944119 0.008150 -0.024377
    27 0.957766 -2.746780 -0.090302 -0.057777 -0.183741 0.043836
    28 -0.033420 -1.397129 -0.011257 -0.283970 0.006340 -0.013592
    29 -0.022360 -0.957436 0.010971 -0.294056 0.006124 -0.013650
    30 -1.180681 -2.507217 -0.193859 -0.844729 -0.059117 0.074730
    31 -0.024967 -1.123934 0.017597 -1.583518 -0.012788 -0.063086
    32 -0.020057 -0.898781 0.017903 -0.698835 0.007958 -0.027493
    33 0.591323 -1.216809 0.247881 -0.837213 -0.216108 0.257682
    34 1.305451 -0.325702 0.106575 0.206790 -0.315386 -1.473233
    35 0.944516 -0.225949 0.008853 0.144111 -0.084853 -1.398688
    36 0.120153 -0.050270 -0.054489 0.287569 3.110905 1.561085
    37 2.869952 -3.699963 -7.036654 -0.081141 -6.054450 0.248969
    38 0.096944 -8.391823 -0.040616 -0.242478 -0.065911 0.118453
    39 0.701867 -2.736484 -0.305915 -0.125266 0.191784 0.297452
    40 -0.032909 -1.499736 0.032285 -1.555638 0.023154 -0.031170
    41 -0.027022 -1.127703 -0.020210 -1.295842 0.024580 -0.024065
    42 0.012193 -2.846964 -0.361719 0.212899 0.247369 0.269119
    43 0.043235 -1.656596 0.068667 -1.469454 -0.022572 0.008306
    44 0.031729 -1.141298 0.051025 -1.382128 -0.015381 0.007845
    45 -0.709952 -2.835928 -0.347077 0.195392 0.261101 0.242280
    46 0.028479 -1.403067 -0.001542 -0.497878 -0.008964 -0.021057
    47 0.021413 -0.949968 0.020046 -0.474313 -0.008329 -0.019727
    48 1.387138 -2.430655 -0.178143 -0.392753 -0.142464 0.586124
    49 0.024032 -1.148574 -0.009538 -1.365755 0.026917 0.064826
    50 0.014898 -0.903521 -0.012035 -1.166021 0.014861 0.057143
    51 -0.504736 -1.315260 0.063438 0.189258 -0.614315 -2.586011
    52 1.542367 0.039149 0.016848 -0.009148 -0.003060 0.525533
    53 1.117947 0.048424 -0.005766 -0.009124 -0.031598 0.407810
    54 -0.139399 -0.111698 0.014397 0.285382 -0.030687 1.580508
    55 -7.612410 3.878088 -0.426939 1.574959 -0.030104 -0.558476
  time 11
    0 1.568242 2.828082 -0.495831 0.000000 0.372218 0.081720
    1 4.065896 0.000000 0.000000 0.581397 0.089533 1.001138
    2 5.727314 0.000000 0.000000 0.000000 0.000000 -2.433218
    3 9.229775 0.000001 0.000000 -2.073182 0.060057 -0.315768
    4 -4.028509 2.385202 -0.139540 -1.712325 0.032869 -0.243476
    5 19.850609 -2.919322 1.053877 -1.570796 3.141592 0.000000
    6 1.136250 -0.000008 0.000000 0.000000 0.000000 0.000000
    7 0.163969 -1.053874 0.889052 0.000000 0.000000 -0.000001
    8 5.025910 0.000002 0.000001 0.000000 0.000000 3.141592
    9 9.203299 0.828617 -0.000001 0.000000 0.000000 -1.469692
    10 12.265707 7.447968 -0.000001 -1.570796 1.570451 0.000000
    11 -0.000008 0.000090 0.000003 0.000000 0.000000 0.000000
    12 11.236527 1.770459 3.999999 -1.570796 0.000000 0.000000
    13 11.236526 1.770458 -4.000000 -1.570796 0.000000 0.000000
    14 20.099432 0.000001 0.099096 -1.570796 0.000000 0.000000
    15 77.318169 -6.008379 -53.358147 0.000000 0.000000 -1.570796
    16 0.000004 -0.661568 0.189796 0.000000 0.000000 0.000000
    17 -1.125736 -2.126330 -0.470109 0.000000 0.000000 0.000000
    18 8.590434 9.606782 -3.374534 5.819217 -2.305732 0.356716
    19 0.010112 -8.471387 -0.072885 -0.081888 0.747111 0.294322
    20 5.542467 -5.175341 -0.415440 -1.557716 -0.033266 -3.785432
    21 -0.488518 -2.755602 -0.228260 -1.572657 -0.177694 0.023967
    22 0.039887 -1.511041 0.010322 -1.082681 -0.013818 0.022412
    23 0.028786 -1.157765 -0.124675 -1.025127 -0.015053 0.021608
    24 0.250027 -2.820665 -0.238396 -1.659120 -0.096485 0.161223
    25 -0.049759 -1.618042 0.080947 -0.884177 0.008641 -0.024211
    26 -0.034142 -1.156125 0.053531 -0.944119 0.008150 -0.024377
    27 0.957766 -2.746780 -0.090302 -0.057777 -0.183741 0.043836
    28 -0.033420 -1.397129 -0.011257 -0.283970 0.006340 -0.013592
    29 -0.022360 -0.957436 0.010971 -0.294056 0.006124 -0.013650
    30 -1.180681 -2.507217 -0.193859 -0.844729 -0.059117 0.074730
    31 -0.024967 -1.123934 0.017597 -1.583518 -0.012788 -0.063086
    32 -0.020057 -0.898781 0.017903 -0.698835 0.007958 -0.027493
    33 0.591323 -1.216809 0.247881 -0.837213 -0.216108 0.257682
    34 1.305451 -0.325702 0.106575 0.206790 -0.315386 -1.473233
    35 0.944516 -0.225949 0.008853 0.144111 -0.084853 -1.398688
    36 0.120153 -0.050270 -0.054489 0.287569 3.110905 1.561085
    37 2.858233 -3.692150 -7.091343 -0.074139 -6.047540 0.250969
    38 0.096944 -8.391823 -0.040616 -0.240792 -0.069830 0.116583
    39 0.701867 -2.736484 -0.305915 -0.124823 0.191772 0.297452
    40 -0.032909 -1.499736 0.032285 -1.552346 0.023166 -0.031050
    41 -0.027022 -1.127703 -0.020210 -1.292561 0.024568 -0.023969
    42 0.012193 -2.846964 -0.361719 0.212899 0.247369 0.269119
    43 0.043235 -1.656596 0.068667 -1.465219 -0.022536 0.008234
    44 0.031729 -1.141298 0.051025 -1.377904 -0.015345 0.007809
    45 -0.709952 -2.835928 -0.347077 0.195392 0.261101 0.242280
    46 0.028479 -1.403067 -0.001542 -0.497878 -0.008964 -0.021057
    47 0.021413 -0.949968 0.020046 -0.474313 -0.008329 -0.019727
    48 1.387138 -2.430655 -0.178143 -0.392280 -0.142464 0.586100
    49 0.024032 -1.148574 -0.009538 -1.361581 0.026726 0.064706
    50 0.014898 -0.903521 -0.012035 -1.161781 0.014669 0.056975
    51 -0.504736 -1.315260 0.063438 0.189258 -0.614315 -2.586011
    52 1.542367 0.039149 0.016848 -0.009148 -0.003060 0.525533
    53 1.117947 0.048424 -0.005766 -0.009124 -0.031598 0.407810
    54 -0.139399 -0.111698 0.014397 0.285382 -0.030687 1.580508
    55 -7.612410 3.866369 -0.426939 1.574959 -0.030104 -0.557403
  time 12
    0 1.568242 2.828082 -0.495831 0.000000 0.372218 0.081720
    1 4.065896 0.000000 0.000000 0.581409 0.089533 1.001138
    2 5.727314 0.000000 0.000000 0.000000 0.000000 -2.433218
    3 9.229775 0.000001 0.000000 -2.074865 0.065233 -0.308909
    4 -4.028509 2.385202 -0.139540 -1.712325 0.032869 -0.243476
    5 19.850609 -2.919322 1.053877 -1.570796 3.141592 0.000000
    6 1.136250 -0.000008 0.000000 0.000000 0.000000 0.000000
    7 0.163969 -1.053874 0.889052 0.000000 0.000000 -0.000001
    8 5.025910 0.000002 0.000001 0.000000 0.000000 3.141592
    9 9.203299 0.828617 -0.000001 0.000000 0.000000 -1.469692
    10 12.265707 7.447968 -0.000001 -1.570796 1.570451 0.000000
    11 -0.000008 0.000090 0.000003 0.000000 0.000000 0.000000
    12 11.236527 1.770459 3.999999 -1.570796 0.000000 0.000000
    13 11.236526 1.770458 -4.000000 -1.570796 0.000000 0.000000
    14 20.099432 0.000001 0.099096 -1.570796 0.000000 0.000000
    15 77.318169 -6.008379 -53.358147 0.000000 0.000000 -1.570796
    16 0.000004 -0.661568 0.189796 0.000000 0.000000 0.000000
    17 -1.125736 -2.126330 -0.470109 0.000000 0.000000 0.000000
    18 8.590434 9.606782 -3.374534 5.819217 -2.305732 0.356877
    19 0.010112 -8.471387 -0.072885 -0.089210 0.748755 0.282536
    20 5.542467 -5.175341 -0.415440 -1.557716 -0.033266 -3.785432
    21 -0.488518 -2.755602 -0.228260 -1.572657 -0.177694 0.023967
    22 0.039887 -1.511041 0.010322 -1.082681 -0.013818 0.022412
    23 0.028786 -1.157765 -0.124675 -1.025127 -0.015053 0.021608
    24 0.250027 -2.820665 -0.238396 -1.659120 -0.096485 0.161223
    25 -0.049759 -1.618042 0.080947 -0.884177 0.008641 -0.024211
    26 -0.034142 -1.156125 0.053531 -0.944119 0.008150 -0.024377
    27 0.957766 -2.746780 -0.090302 -0.057777 -0.183741 0.043836
    28 -0.033420 -1.397129 -0.011257 -0.283970 0.006340 -0.013592
    29 -0.022360 -0.957436 0.010971 -0.294056 0.006124 -0.013650
    30 -1.180681 -2.507217 -0.193859 -0.844729 -0.059117 0.074730
    31 -0.024967 -1.123934 0.017597 -1.583518 -0.012788 -0.063086
    32 -0.020057 -0.898781 0.017903 -0.698835 0.007958 -0.027493
    33 0.591323 -1.216809 0.247881 -0.837213 -0.216108 0.257682
    34 1.305451 -0.325702 0.106575 0.206790 -0.315386 -1.473233
    35 0.944516 -0.225949 0.008853 0.144111 -0.084853 -1.398688
    36 0.120153 -0.050270 -0.054489 0.287569 3.110905 1.561085
    37 2.858233 -3.680431 -7.142126 -0.067137 -6.040448 0.252778
    38 0.096944 -8.391823 -0.040616 -0.238991 -0.073709 0.114613
    39 0.701867 -2.736484 -0.305915 -0.124319 0.191760 0.297464
    40 -0.032909 -1.499736 0.032285 -1.548959 0.023178 -0.030954
    41 -0.027022 -1.127703 -0.020210 -1.289156 0.024556 -0.023873
    42 0.012193 -2.846964 -0.361719 0.212899 0.247369 0.269119
    43 0.043235 -1.656596 0.068667 -1.460840 -0.022488 0.008162
    44 0.031729 -1.141298 0.051025 -1.373508 -0.015298 0.007773
    45 -0.709952 -2.835928 -0.347077 0.195392 0.261101 0.242280
    46 0.028479 -1.403067 -0.001542 -0.497878 -0.008964 -0.021057
    47 0.021413 -0.949968 0.020046 -0.474313 -0.008329 -0.019727
    48 1.387138 -2.430655 -0.178143 -0.391792 -0.142464 0.586076
    49 0.024032 -1.148574 -0.009538 -1.357278 0.026510 0.064586
    50 0.014898 -0.903521 -0.012035 -1.157434 0.014489 0.056807
    51 -0.504736 -1.315260 0.063438 0.189258 -0.614315 -2.586011
    52 1.542367 0.039149 0.016848 -0.009148 -0.003060 0.525533
    53 1.117947 0.048424 -0.005766 -0.009124 -0.031598 0.407810
    54 -0.139399 -0.111698 0.014397 0.285382 -0.030687 1.580508
    55 -7.620223 3.858556 -0.426939 1.574959 -0.030104 -0.556330
  time 13
    0 1.568242 2.828082 -0.495831 0.000000 0.372218 0.081720
    1 4.065896 0.000000 0.000000 0.581433 0.089533 1.001110
    2 5.727314 0.000000 0.000000 0.000000 0.000000 -2.433218
    3 9.229775 0.000001 0.000000 -2.076337 0.069867 -0.302747
    4 -4.028509 2.385202 -0.139540 -1.712325 0.032869 -0.243476
    5 19.850609 -2.919322 1.053877 -1.570796 3.141592 0.000000
    6 1.136250 -0.000008 0.000000 0.000000 0.000000 0.000000
    7 0.163969 -1.053874 0.889052 0.000000 0.000000 -0.000001
    8 5.025910 0.000002 0.000001 0.000000 0.000000 3.141592
    9 9.203299 0.828617 -0.000001 0.000000 0.000000 -1.469692
    10 12.265707 7.447968 -0.000001 -1.570796 1.570451 0.000000
    11 -0.000008 0.000090 0.000003 0.000000 0.000000 0.000000
    12 11.236527 1.770459 3.999999 -1.570796 0.000000 0.000000
    13 11.236526 1.770458 -4.000000 -1.570796 0.000000 0.000000
    14 20.099432 0.000001 0.099096 -1.570796 0.000000 0.000000
    15 77.318169 -6.008379 -53.358147 0.000000 0.000000 -1.570796
    16 0.000004 -0.661568 0.189796 0.000000 0.000000 0.000000
    17 -1.125736 -2.126330 -0.470109 0.000000 0.000000 0.000000
    18 8.590434 9.606782 -3.374534 5.819217 -2.305732 0.356877
    19 0.010112 -8.471387 -0.072885 -0.095734 0.750109 0.271898
    20 5.542467 -5.175341 -0.415440 -1.557716 -0.033266 -3.785358
    21 -0.488518 -2.755602 -0.228260 -1.572657 -0.177694 0.023967
    22 0.039887 -1.511041 0.010322 -1.082681 -0.013818 0.022412
    23 0.028786 -1.157765 -0.124675 -1.025127 -0.015053 0.021608
    24 0.250027 -2.820665 -0.238396 -1.659120 -0.096485 0.161223
    25 -0.049759 -1.618042 0.080947 -0.884122 0.008641 -0.024211
    26 -0.034142 -1.156125 0.053531 -0.944119 0.008150 -0.024377
    27 0.957766 -2.746780 -0.090302 -0.057777 -0.183741 0.043836
    28 -0.033420 -1.397129 -0.011257 -0.283970 0.006340 -0.013592
    29 -0.022360 -0.957436 0.010971 -0.294056 0.006124 -0.013650
    30 -1.180681 -2.507217 -0.193859 -0.844729 -0.059117 0.074730
    31 -0.024967 -1.123934 0.017597 -1.583518 -0.012788 -0.063086
    32 -0.020057 -0.898781 0.017903 -0.698835 0.007958 -0.027493
    33 0.591323 -1.216809 0.247881 -0.837213 -0.216108 0.257682
    34 1.305451 -0.325702 0.106575 0.206790 -0.315386 -1.473233
    35 0.944516 -0.225949 0.008853 0.144111 -0.084853 -1.398688
    36 0.120153 -0.050270 -0.054489 0.287569 3.110905 1.561085
    37 2.846514 -3.668712 -7.196815 -0.061217 -6.033538 0.254492
    38 0.096944 -8.391823 -0.040616 -0.237037 -0.076770 0.112668
    39 0.701867 -2.736484 -0.305915 -0.123840 0.191748 0.297464
    40 -0.032909 -1.499736 0.032285 -1.545429 0.023190 -0.030846
    41 -0.027022 -1.127703 -0.020210 -1.285626 0.024544 -0.023777
    42 0.012193 -2.846964 -0.361719 0.212899 0.247369 0.269119
    43 0.043235 -1.656596 0.068667 -1.456318 -0.022453 0.008078
    44 0.031729 -1.141298 0.051025 -1.368896 -0.015274 0.007737
    45 -0.709952 -2.835928 -0.347077 0.195392 0.261101 0.242280
    46 0.028479 -1.403067 -0.001542 -0.497878 -0.008964 -0.021057
    47 0.021413 -0.949968 0.020046 -0.474313 -0.008329 -0.019727
    48 1.387138 -2.430655 -0.178143 -0.391287 -0.142476 0.586040
    49 0.024032 -1.148574 -0.009538 -1.352673 0.026270 0.064442
    50 0.014898 -0.903521 -0.012035 -1.152873 0.014334 0.056603
    51 -0.504736 -1.315260 0.063438 0.189258 -0.614315 -2.586011
    52 1.542367 0.039149 0.016848 -0.009148 -0.003060 0.525533
    53 1.117947 0.048424 -0.005766 -0.009124 -0.031598 0.407810
    54 -0.139399 -0.111698 0.014397 0.285382 -0.030687 1.580508
    55 -7.620223 3.854650 -0.426939 1.574959 -0.030104 -0.555436
  time 14
    0 1.568242 2.828082 -0.495831 0.000000 0.372218 0.081720
    1 4.065896 0.000000 0.000000 0.581445 0.089548 1.001082
    2 5.727314 0.000000 0.000000 0.000000 0.000000 -2.433151
    3 9.229775 0.000001 0.000000 -2.077473 0.073514 -0.297956
    4 -4.028509 2.385202 -0.139540 -1.712325 0.032869 -0.243476
    5 19.850609 -2.919322 1.053877 -1.570796 3.141592 0.000000
    6 1.136250 -0.000008 0.000000 0.000000 0.000000 0.000000
    7 0.163969 -1.053874 0.889052 0.000000 0.000000 -0.000001
    8 5.025910 0.000002 0.000001 0.000000 0.000000 3.141592
    9 9.203299 0.828617 -0.000001 0.000000 0.000000 -1.469692
    10 12.265707 7.447968 -0.000001 -1.570796 1.570451 0.000000
    11 -0.000008 0.000090 0.000003 0.000000 0.000000 0.000000
    12 11.236527 1.770459 3.999999 -1.570796 0.000000 0.000000
    13 11.236526 1.770458 -4.000000 -1.570796 0.000000 0.000000
    14 20.099432 0.000001 0.099096 -1.570796 0.000000 0.000000
    15 77.318169 -6.008379 -53.358147 0.000000 0.000000 -1.570796
    16 0.000004 -0.661568 0.189796 0.000000 0.000000 0.000000
    17 -1.125736 -2.126330 -0.470109 0.000000 0.000000 0.000000
    18 8.590434 9.606782 -3.374534 5.819129 -2.305732 0.356877
    19 0.010112 -8.471387 -0.072885 -0.100835 0.751205 0.263618
    20 5.542467 -5.175341 -0.415440 -1.557716 -0.033266 -3.785358
    21 -0.488518 -2.755602 -0.228260 -1.572657 -0.177694 0.023967
    22 0.039887 -1.511041 0.010322 -1.082681 -0.013818 0.022412
    23 0.028786 -1.157765 -0.124675 -1.025127 -0.015053 0.021608
    24 0.250027 -2.820665 -0.238396 -1.659120 -0.096485 0.161223
    25 -0.049759 -1.618042 0.080947 -0.884177 0.008641 -0.024211
    26 -0.034142 -1.156125 0.053531 -0.944119 0.008150 -0.024377
    27 0.957766 -2.746780 -0.090302 -0.057777 -0.183741 0.043836
    28 -0.033420 -1.397129 -0.011257 -0.283970 0.006340 -0.013592
    29 -0.022360 -0.957436 0.010971 -0.294056 0.006124 -0.013650
    30 -1.180681 -2.507217 -0.193859 -0.844729 -0.059117 0.074730
    31 -0.024967 -1.123934 0.017597 -1.583518 -0.012788 -0.063086
    32 -0.020057 -0.898781 0.017903 -0.698835 0.007958 -0.027493
    33 0.591323 -1.216809 0.247881 -0.837213 -0.216108 0.257682
    34 1.305451 -0.325702 0.106575 0.206790 -0.315386 -1.473233
    35 0.944516 -0.225949 0.008853 0.144111 -0.084853 -1.398688
    36 0.120153 -0.050270 -0.054489 0.287569 3.110905 1.561085
    37 2.846514 -3.656993 -7.239785 -0.057016 -6.027355 0.255825
    38 0.096944 -8.391823 -0.040616 -0.234795 -0.078607 0.110772
    39 0.701867 -2.736484 -0.305915 -0.123313 0.191724 0.297464
    40 -0.032909 -1.499736 0.032285 -1.541756 0.023202 -0.030750
    41 -0.027022 -1.127703 -0.020210 -1.281971 0.024520 -0.023694
    42 0.012193 -2.846964 -0.361719 0.212899 0.247369 0.269119
    43 0.043235 -1.656596 0.068667 -1.451607 -0.022429 0.008006
    44 0.031729 -1.141298 0.051025 -1.364198 -0.015226 0.007701
    45 -0.709952 -2.835928 -0.347077 0.195392 0.261101 0.242280
    46 0.028479 -1.403067 -0.001542 -0.497878 -0.008964 -0.021057
    47 0.021413 -0.949968 0.020046 -0.474313 -0.008329 -0.019727
    48 1.387138 -2.430655 -0.178143 -0.390767 -0.142476 0.586016
    49 0.024032 -1.148574 -0.009538 -1.348069 0.026043 0.064310
    50 0.014898 -0.903521 -0.012035 -1.148241 0.014142 0.056411
    51 -0.504736 -1.315260 0.063438 0.189258 -0.614315 -2.586011
    52 1.542367 0.039149 0.016848 -0.009148 -0.003060 0.525533
    53 1.117947 0.048424 -0.005766 -0.009124 -0.031598 0.407810
    54 -0.139399 -0.111698 0.014397 0.285382 -0.030687 1.580508
    55 -7.620223 3.846837 -0.426939 1.574959 -0.030104 -0.554631
  time 15
    0 1.568242 2.828082 -0.495831 0.000000 0.372218 0.081720
    1 4.065896 0.000000 0.000000 0.581457 0.089592 1.001082
    2 5.727314 0.000000 0.000000 0.000000 0.000000 -2.433151
    3 9.229775 0.000001 0.000000 -2.078105 0.075584 -0.295212
    4 -4.028509 2.385202 -0.139540 -1.712325 0.032869 -0.243476
    5 19.850609 -2.919322 1.053877 -1.570796 3.141592 0.000000
    6 1.136250 -0.000008 0.000000 0.000000 0.000000 0.000000
    7 0.163969 -1.053874 0.889052 0.000000 0.000000 -0.000001
    8 5.025910 0.000002 0.000001 0.000000 0.000000 3.141592
    9 9.203299 0.828617 -0.000001 0.000000 0.000000 -1.469692
    10 12.265707 7.447968 -0.000001 -1.570796 1.570451 0.000000
    11 -0.000008 0.000090 0.000003 0.000000 0.000000 0.000000
    12 11.236527 1.770459 3.999999 -1.570796 0.000000 0.000000
    13 11.236526 1.770458 -4.000000 -1.570796 0.000000 0.000000
    14 20.099432 0.000001 0.099096 -1.570796 0.000000 0.000000
    15 77.318169 -6.008379 -53.358147 0.000000 0.000000 -1.570796
    16 0.000004 -0.661568 0.189796 0.000000 0.000000 0.000000
    17 -1.125736 -2.126330 -0.470109 0.000000 0.000000 0.000000
    18 8.590434 9.606782 -3.374534 5.819129 -2.305732 0.356877
    19 0.010112 -8.471387 -0.072885 -0.103646 0.751721 0.258843
    20 5.542467 -5.175341 -0.415440 -1.557716 -0.033266 -3.785358
    21 -0.488518 -2.755602 -0.228260 -1.572657 -0.177694 0.023967
    22 0.039887 -1.511041 0.010322 -1.082681 -0.013818 0.022412
    23 0.028786 -1.157765 -0.124675 -1.025127 -0.015053 0.021608
    24 0.250027 -2.820665 -0.238396 -1.659120 -0.096485 0.161223
    25 -0.049759 -1.618042 0.080947 -0.884122 0.008641 -0.024211
    26 -0.034142 -1.156125 0.053531 -0.944119 0.008150 -0.024377
    27 0.957766 -2.746780 -0.090302 -0.057777 -0.183741 0.043836
    28 -0.033420 -1.397129 -0.011257 -0.283970 0.006340 -0.013592
    29 -0.022360 -0.957436 0.010971 -0.294056 0.006124 -0.013650
    30 -1.180681 -2.507217 -0.193859 -0.844729 -0.059117 0.074730
    31 -0.024967 -1.123934 0.017597 -1.583518 -0.012788 -0.063086
    32 -0.020057 -0.898781 0.017903 -0.698835 0.007958 -0.027493
    33 0.591323 -1.216809 0.247881 -0.837213 -0.216108 0.257682
    34 1.305451 -0.325702 0.106575 0.206790 -0.315386 -1.473233
    35 0.944516 -0.225949 0.008853 0.144111 -0.084853 -1.398688
    36 0.120153 -0.050270 -0.054489 0.287569 3.110905 1.561085
    37 2.838701 -3.656993 -7.271036 -0.055552 -6.022445 0.256587
    38 0.096944 -8.395729 -0.040616 -0.232285 -0.078403 0.109052
    39 0.701867 -2.736484 -0.305915 -0.122749 0.191712 0.297476
    40 -0.032909 -1.499736 0.032285 -1.537987 0.023214 -0.030667
    41 -0.027022 -1.127703 -0.020210 -1.278192 0.024508 -0.023586
    42 0.012193 -2.846964 -0.361719 0.212899 0.247369 0.269119
    43 0.043235 -1.656596 0.068667 -1.446752 -0.022381 0.007947
    44 0.031729 -1.141298 0.051025 -1.359328 -0.015178 0.007665
    45 -0.709952 -2.835928 -0.347077 0.195392 0.261101 0.242280
    46 0.028479 -1.403067 -0.001542 -0.497878 -0.008964 -0.021057
    47 0.021413 -0.949968 0.020046 -0.474313 -0.008329 -0.019727
    48 1.387138 -2.430655 -0.178143 -0.390231 -0.142476 0.585956
    49 0.024032 -1.148574 -0.009538 -1.343206 0.025827 0.064178
    50 0.014898 -0.903521 -0.012035 -1.143395 0.013926 0.056244
    51 -0.504736 -1.315260 0.063438 0.189258 -0.614315 -2.586011
    52 1.542367 0.039149 0.016848 -0.009148 -0.003060 0.525533
    53 1.117947 0.048424 -0.005766 -0.009124 -0.031598 0.407810
    54 -0.139399 -0.111698 0.014397 0.285382 -0.030687 1.580508
    55 -7.628035 3.846837 -0.426939 1.574959 -0.030104 -0.554005
  time 16
    0 1.568242 2.828082 -0.495831 0.000000 0.372218 0.081720
    1 4.065896 0.000000 0.000000 0.583231 0.090063 0.999429
    2 5.727314 0.000000 0.000000 0.000000 0.000000 -2.431577
    3 9.229775 0.000001 0.000000 -2.071857 0.074643 -0.293593
    4 -4.028509 2.385202 -0.139540 -1.712325 0.032869 -0.243476
    5 19.850609 -2.919322 1.053877 -1.570796 3.141592 0.000000
    6 1.136250 -0.000008 0.000000 0.000000 0.000000 0.000000
    7 0.163969 -1.053874 0.889052 0.000000 0.000000 -0.000001
    8 5.025910 0.000002 0.000001 0.000000 0.000000 3.141592
    9 9.203299 0.828617 -0.000001 0.000000 0.000000 -1.469692
    10 12.265707 7.447968 -0.000001 -1.570796 1.570451 0.000000
    11 -0.000008 0.000090 0.000003 0.000000 0.000000 0.000000
    12 11.236527 1.770459 3.999999 -1.570796 0.000000 0.000000
    13 11.236526 1.770458 -4.000000 -1.570796 0.000000 0.000000
    14 20.099432 0.000001 0.099096 -1.570796 0.000000 0.000000
    15 77.318169 -6.008379 -53.358147 0.000000 0.000000 -1.570796
    16 0.000004 -0.661568 0.189796 0.000000 0.000000 0.000000
    17 -1.125736 -2.126330 -0.470109 0.000000 0.000000 0.000000
    18 8.590434 9.602876 -3.378440 5.817106 -2.304538 0.357440
    19 0.010112 -8.471387 -0.072885 -0.102015 0.745596 0.258722
    20 5.550280 -5.167528 -0.415440 -1.557812 -0.033266 -3.783642
    21 -0.488518 -2.755602 -0.228260 -1.572657 -0.177694 0.023967
    22 0.039887 -1.511041 0.010322 -1.082681 -0.013818 0.022412
    23 0.028786 -1.157765 -0.124675 -1.025127 -0.015053 0.021608
    24 0.250027 -2.820665 -0.238396 -1.659120 -0.096485 0.161223
    25 -0.049759 -1.618042 0.080947 -0.884177 0.008641 -0.024211
    26 -0.034142 -1.156125 0.053531 -0.944119 0.008150 -0.024377
    27 0.957766 -2.746780 -0.090302 -0.057777 -0.183741 0.043836
    28 -0.033420 -1.397129 -0.011257 -0.283970 0.006340 -0.013592
    29 -0.022360 -0.957436 0.010971 -0.294056 0.006124 -0.013650
    30 -1.180681 -2.507217 -0.193859 -0.844729 -0.059117 0.074730
    31 -0.024967 -1.123934 0.017597 -1.583518 -0.012788 -0.063086
    32 -0.020057 -0.898781 0.017903 -0.698835 0.007958 -0.027493
    33 0.591323 -1.216809 0.247881 -0.837213 -0.216108 0.257682
    34 1.305451 -0.325702 0.106575 0.206790 -0.315386 -1.473233
    35 0.944516 -0.225949 0.008853 0.144111 -0.084853 -1.398688
    36 0.120153 -0.050270 -0.054489 0.287569 3.110905 1.561085
    37 2.838701 -3.656993 -7.298381 -0.054979 -6.017808 0.257349
    38 0.096944 -8.395729 -0.040616 -0.233492 -0.081138 0.106284
    39 0.701867 -2.736484 -0.305915 -0.122210 0.191700 0.297476
    40 -0.032909 -1.499736 0.032285 -1.534076 0.023226 -0.030547
    41 -0.027022 -1.127703 -0.020210 -1.274247 0.024497 -0.023478
    42 0.012193 -2.846964 -0.361719 0.212899 0.247369 0.269119
    43 0.043235 -1.656596 0.068667 -1.441707 -0.022333 0.007863
    44 0.031729 -1.141298 0.051025 -1.354415 -0.015118 0.007629
    45 -0.709952 -2.835928 -0.347077 0.195392 0.261101 0.242280
    46 0.028479 -1.403067 -0.001542 -0.497878 -0.008964 -0.021057
    47 0.021413 -0.949968 0.020046 -0.474313 -0.008329 -0.019727
    48 1.387138 -2.430655 -0.178143 -0.389647 -0.142476 0.585920
    49 0.024032 -1.148574 -0.009538 -1.338214 0.025563 0.064059
    50 0.014898 -0.903521 -0.012035 -1.138371 0.013722 0.056052
    51 -0.504736 -1.315260 0.063438 0.189258 -0.614315 -2.586011
    52 1.542367 0.039149 0.016848 -0.009148 -0.003060 0.525533
    53 1.117947 0.048424 -0.005766 -0.009124 -0.031598 0.407810
    54 -0.139399 -0.111698 0.014397 0.285382 -0.030687 1.580508
    55 -7.620223 3.854650 -0.426939 1.574959 -0.030104 -0.555078
  time 17
    0 1.568242 2.828082 -0.495831 0.000000 0.372218 0.081720
    1 4.065896 0.000000 0.000000 0.586754 0.091151 0.996012
    2 5.727314 0.000000 0.000000 0.000000 0.000000 -2.428362
    3 9.229775 0.000001 0.000000 -2.058645 0.070761 -0.293009
    4 -4.028509 2.385202 -0.139540 -1.712325 0.032869 -0.243476
    5 19.850609 -2.919322 1.053877 -1.570796 3.141592 0.000000
    6 1.136250 -0.000008 0.000000 0.000000 0.000000 0.000000
    7 0.163969 -1.053874 0.889052 0.000000 0.000000 -0.000001
    8 5.025910 0.000002 0.000001 0.000000 0.000000 3.141592
    9 9.203299 0.828617 -0.000001 0.000000 0.000000 -1.469692
    10 12.265707 7.447968 -0.000001 -1.570796 1.570451 0.000000
    11 -0.000008 0.000090 0.000003 0.000000 0.000000 0.000000
    12 11.236527 1.770459 3.999999 -1.570796 0.000000 0.000000
    13 11.236526 1.770458 -4.000000 -1.570796 0.000000 0.000000
    14 20.099432 0.000001 0.099096 -1.570796 0.000000 0.000000
    15 77.318169 -6.008379 -53.358147 0.000000 0.000000 -1.570796
    16 0.000004 -0.661568 0.189796 0.000000 0.000000 0.000000
    17 -1.125736 -2.126330 -0.470109 0.000000 0.000000 0.000000
    18 8.602153 9.595063 -3.397972 5.812972 -2.302406 0.358566
    19 0.010112 -8.471387 -0.072885 -0.095977 0.732604 0.262892
    20 5.573718 -5.144090 -0.415440 -1.557812 -0.033266 -3.780508
    21 -0.488518 -2.755602 -0.228260 -1.572657 -0.177694 0.023967
    22 0.039887 -1.511041 0.010322 -1.082681 -0.013818 0.022412
    23 0.028786 -1.157765 -0.124675 -1.025127 -0.015053 0.021608
    24 0.250027 -2.820665 -0.238396 -1.659120 -0.096485 0.161223
    25 -0.049759 -1.618042 0.080947 -0.884122 0.008641 -0.024211
    26 -0.034142 -1.156125 0.053531 -0.944064 0.008150 -0.024377
    27 0.957766 -2.746780 -0.090302 -0.057777 -0.183741 0.043836
    28 -0.033420 -1.397129 -0.011257 -0.283970 0.006340 -0.013592
    29 -0.022360 -0.957436 0.010971 -0.294056 0.006124 -0.013650
    30 -1.180681 -2.507217 -0.193859 -0.844729 -0.059117 0.074730
    31 -0.024967 -1.123934 0.017597 -1.583518 -0.012788 -0.063086
    32 -0.020057 -0.898781 0.017903 -0.698835 0.007958 -0.027493
    33 0.591323 -1.216809 0.247881 -0.837213 -0.216108 0.257682
    34 1.305451 -0.325702 0.106575 0.206790 -0.315386 -1.473233
    35 0.944516 -0.225949 0.008853 0.144111 -0.084853 -1.398688
    36 0.120153 -0.050270 -0.054489 0.287569 3.110905 1.561085
    37 2.834795 -3.668712 -7.321819 -0.055297 -6.013535 0.257920
    38 0.096944 -8.395729 -0.040616 -0.238416 -0.086854 0.102493
    39 0.701867 -2.736484 -0.305915 -0.121635 0.191688 0.297488
    40 -0.032909 -1.499736 0.032285 -1.530021 0.023226 -0.030439
    41 -0.027022 -1.127703 -0.020210 -1.270218 0.024497 -0.023370
    42 0.012193 -2.846964 -0.361719 0.212899 0.247369 0.269119
    43 0.043235 -1.656596 0.068667 -1.436519 -0.022273 0.007767
    44 0.031729 -1.141298 0.051025 -1.349200 -0.015070 0.007569
    45 -0.709952 -2.835928 -0.347077 0.195392 0.261101 0.242280
    46 0.028479 -1.403067 -0.001542 -0.497878 -0.008964 -0.021057
    47 0.021413 -0.949968 0.020046 -0.474313 -0.008329 -0.019727
    48 1.387138 -2.430655 -0.178143 -0.389080 -0.142488 0.585896
    49 0.024032 -1.148574 -0.009538 -1.333007 0.025311 0.063903
    50 0.014898 -0.903521 -0.012035 -1.133133 0.013543 0.055812
    51 -0.504736 -1.315260 0.063438 0.189258 -0.614315 -2.586011
    52 1.542367 0.039149 0.016848 -0.009148 -0.003060 0.525533
    53 1.117947 0.048424 -0.005766 -0.009124 -0.031598 0.407810
    54 -0.139399 -0.111698 0.014397 0.285382 -0.030687 1.580508
    55 -7.612410 3.870275 -0.426939 1.574959 -0.030104 -0.557582
  time 18
    0 1.568242 2.828082 -0.495831 0.000000 0.372218 0.081720
    1 4.065896 0.000000 0.000000 0.589439 0.092004 0.993435
    2 5.727314 0.000000 0.000000 0.000000 0.000000 -2.425951
    3 9.229775 0.000001 0.000000 -2.048085 0.065727 -0.295505
    4 -4.028509 2.385202 -0.139540 -1.712325 0.032869 -0.243476
    5 19.850609 -2.919322 1.053877 -1.570796 3.141592 0.000000
    6 1.136250 -0.000008 0.000000 0.000000 0.000000 0.000000
    7 0.163969 -1.053874 0.889052 0.000000 0.000000 -0.000001
    8 5.025910 0.000002 0.000001 0.000000 0.000000 3.141592
    9 9.203299 0.828617 -0.000001 0.000000 0.000000 -1.469692
    10 12.265707 7.447968 -0.000001 -1.570796 1.570787 0.000000
    11 -0.000008 0.000090 0.000003 0.000000 0.000000 0.000000
    12 11.236527 1.770459 3.999999 -1.570796 0.000000 0.000000
    13 11.236526 1.770458 -4.000000 -1.570796 0.000000 0.000000
    14 20.099432 0.000001 0.099096 -1.570796 0.000000 0.000000
    15 77.318169 -6.008379 -53.358147 0.000000 0.000000 -1.570796
    16 0.000004 -0.661568 0.189796 0.000000 0.000000 0.000000
    17 -1.125736 -2.126330 -0.470109 0.000000 0.000000 0.000000
    18 8.613872 9.583344 -3.401878 5.809894 -2.300956 0.359290
    19 0.010112 -8.471387 -0.072885 -0.088516 0.722191 0.270750
    20 5.589343 -5.136277 -0.415440 -1.557812 -0.033266 -3.777971
    21 -0.488518 -2.755602 -0.228260 -1.572657 -0.177694 0.023967
    22 0.039887 -1.511041 0.010322 -1.082681 -0.013818 0.022412
    23 0.028786 -1.157765 -0.124675 -1.025127 -0.015053 0.021608
    24 0.250027 -2.820665 -0.238396 -1.659120 -0.096485 0.161223
    25 -0.049759 -1.618042 0.080947 -0.884122 0.008641 -0.024211
    26 -0.034142 -1.156125 0.053531 -0.944119 0.008150 -0.024377
    27 0.957766 -2.746780 -0.090302 -0.057777 -0.183741 0.043836
    28 -0.033420 -1.397129 -0.011257 -0.283970 0.006340 -0.013592
    29 -0.022360 -0.957436 0.010971 -0.294056 0.006124 -0.013650
    30 -1.180681 -2.507217 -0.193859 -0.844729 -0.059117 0.074730
    31 -0.024967 -1.123934 0.017597 -1.583518 -0.012788 -0.063086
    32 -0.020057 -0.898781 0.017903 -0.698835 0.007958 -0.027493
    33 0.591323 -1.216809 0.247881 -0.837213 -0.216108 0.257682
    34 1.305451 -0.325702 0.106575 0.206790 -0.315386 -1.473233
    35 0.944516 -0.225949 0.008853 0.144111 -0.084853 -1.398688
    36 0.120153 -0.050270 -0.054489 0.287569 3.110905 1.561085
    37 2.826982 -3.680431 -7.321819 -0.059753 -6.010898 0.257063
    38 0.096944 -8.395729 -0.040616 -0.241041 -0.087588 0.099550
    39 0.701867 -2.736484 -0.305915 -0.121036 0.191664 0.297488
    40 -0.032909 -1.499736 0.032285 -1.525823 0.023238 -0.030295
    41 -0.027022 -1.127703 -0.020210 -1.266024 0.024473 -0.023226
    42 0.012193 -2.846964 -0.361719 0.212899 0.247369 0.269119
    43 0.043235 -1.656596 0.068667 -1.431141 -0.022225 0.007683
    44 0.031729 -1.141298 0.051025 -1.343726 -0.015010 0.007533
    45 -0.709952 -2.835928 -0.347077 0.195392 0.261101 0.242280
    46 0.028479 -1.403067 -0.001542 -0.497878 -0.008964 -0.021057
    47 0.021413 -0.949968 0.020046 -0.474313 -0.008329 -0.019727
    48 1.387138 -2.430655 -0.178143 -0.388481 -0.142488 0.585860
    49 0.024032 -1.148574 -0.009538 -1.327628 0.025072 0.063723
    50 0.014898 -0.903521 -0.012035 -1.127824 0.013339 0.055597
    51 -0.504736 -1.315260 0.063438 0.189258 -0.614315 -2.586011
    52 1.542367 0.039149 0.016848 -0.009148 -0.003060 0.525533
    53 1.117947 0.048424 -0.005766 -0.009124 -0.031598 0.407810
    54 -0.139399 -0.111698 0.014397 0.285382 -0.030687 1.580508
    55 -7.604597 3.885901 -0.426939 1.574959 -0.030104 -0.559549
  time 19
    0 1.568242 2.828082 -0.495831 0.000000 0.372218 0.081720
    1 4.065896 0.000000 0.000000 0.588588 0.091754 0.994304
    2 5.727314 0.000000 0.000000 0.000000 0.000000 -2.426655
    3 9.229775 0.000001 0.000000 -2.049747 0.061210 -0.302926
    4 -4.028509 2.385202 -0.139540 -1.712325 0.032869 -0.243476
    5 19.850609 -2.919322 1.053877 -1.570796 3.141592 0.000000
    6 1.136250 -0.000008 0.000000 0.000000 0.000000 0.000000
    7 0.163969 -1.053874 0.889052 0.000000 0.000000 -0.000001
    8 5.025910 0.000002 0.000001 0.000000 0.000000 3.141592
    9 9.203299 0.828617 -0.000001 0.000000 0.000000 -1.469692
    10 12.265707 7.447968 -0.000001 -1.570796 1.570451 0.000000
    11 -0.000008 0.000090 0.000003 0.000000 0.000000 0.000000
    12 11.236527 1.770459 3.999999 -1.570796 0.000000 0.000000
    13 11.236526 1.770458 -4.000000 -1.570796 0.000000 0.000000
    14 20.099432 0.000001 0.099096 -1.570796 0.000000 0.000000
    15 77.318169 -6.008379 -53.358147 0.000000 0.000000 -1.570796
    16 0.000004 -0.661568 0.189796 0.000000 0.000000 0.000000
    17 -1.125736 -2.126330 -0.470109 0.000000 0.000000 0.000000
    18 8.613872 9.587250 -3.397972 5.810861 -2.301468 0.359129
    19 0.010112 -8.475293 -0.072885 -0.082547 0.723932 0.282052
    20 5.581531 -5.136277 -0.415440 -1.557812 -0.033266 -3.778717
    21 -0.488518 -2.755602 -0.228260 -1.572657 -0.177694 0.023967
    22 0.039887 -1.511041 0.010322 -1.082681 -0.013818 0.022412
    23 0.028786 -1.157765 -0.124675 -1.025127 -0.015053 0.021608
    24 0.250027 -2.820665 -0.238396 -1.659120 -0.096485 0.161223
    25 -0.049759 -1.618042 0.080947 -0.884177 0.008641 -0.024211
    26 -0.034142 -1.156125 0.053531 -0.944064 0.008150 -0.024377
    27 0.957766 -2.746780 -0.090302 -0.057777 -0.183741 0.043836
    28 -0.033420 -1.397129 -0.011257 -0.283970 0.006340 -0.013592
    29 -0.022360 -0.957436 0.010971 -0.294056 0.006124 -0.013650
    30 -1.180681 -2.507217 -0.193859 -0.844729 -0.059117 0.074730
    31 -0.024967 -1.123934 0.017597 -1.583518 -0.012788 -0.063086
    32 -0.020057 -0.898781 0.017903 -0.698835 0.007958 -0.027493
    33 0.591323 -1.216809 0.247881 -0.837213 -0.216108 0.257682
    34 1.305451 -0.325702 0.106575 0.206790 -0.315386 -1.473233
    35 0.944516 -0.225949 0.008853 0.144111 -0.084853 -1.398688
    36 0.120153 -0.050270 -0.054489 0.287569 3.110905 1.561085
    37 2.834795 -3.692150 -7.282755 -0.071975 -6.011625 0.253254
    38 0.096944 -8.395729 -0.040616 -0.235389 -0.075791 0.099251
    39 0.701867 -2.736484 -0.305915 -0.120388 0.191652 0.297500
    40 -0.032909 -1.499736 0.032285 -1.521530 0.023250 -0.030175
    41 -0.027022 -1.127703 -0.020210 -1.261704 0.024449 -0.023106
    42 0.012193 -2.846964 -0.361719 0.212899 0.247369 0.269119
    43 0.043235 -1.656596 0.068667 -1.425573 -0.022165 0.007563
    44 0.031729 -1.141298 0.051025 -1.338166 -0.014950 0.007485
    45 -0.709952 -2.835928 -0.347077 0.195392 0.261101 0.242280
    46 0.028479 -1.403067 -0.001542 -0.497878 -0.008964 -0.021057
    47 0.021413 -0.949968 0.020046 -0.474313 -0.008329 -0.019727
    48 1.387138 -2.430655 -0.178143 -0.387866 -0.142488 0.585824
    49 0.024032 -1.148574 -0.009538 -1.322033 0.024784 0.063567
    50 0.014898 -0.903521 -0.012035 -1.122230 0.013099 0.055393
    51 -0.504736 -1.315260 0.063438 0.189258 -0.614315 -2.586011
    52 1.542367 0.039149 0.016848 -0.009148 -0.003060 0.525533
    53 1.117947 0.048424 -0.005766 -0.009124 -0.031598 0.407810
    54 -0.139399 -0.111698 0.014397 0.285382 -0.030687 1.580508
    55 -7.612410 3.878088 -0.426939 1.574959 -0.030104 -0.558655
  time 20
    0 1.568242 2.828082 -0.495831 0.000000 0.372218 0.081720
    1 4.065896 0.000000 0.000000 0.581565 0.089607 1.001026
    2 5.727314 0.000000 0.000000 0.000000 0.000000 -2.432950
    3 9.229775 0.000001 0.000000 -2.073161 0.058763 -0.317050
    4 -4.028509 2.385202 -0.139540 -1.712325 0.032869 -0.243476
    5 19.850609 -2.919322 1.053877 -1.570796 3.141592 0.000000
    6 1.136250 -0.000008 0.000000 0.000000 0.000000 0.000000
    7 0.163969 -1.053874 0.889052 0.000000 0.000000 -0.000001
    8 5.025910 0.000002 0.000001 0.000000 0.000000 3.141592
    9 9.203299 0.828617 -0.000001 0.000000 0.000000 -1.469692
    10 12.265707 7.447968 -0.000001 -1.570796 1.570451 0.000000
    11 -0.000008 0.000090 0.000003 0.000000 0.000000 0.000000
    12 11.236527 1.770459 3.999999 -1.570796 0.000000 0.000000
    13 11.236526 1.770458 -4.000000 -1.570796 0.000000 0.000000
    14 20.099432 0.000001 0.099096 -1.570796 0.000000 0.000000
    15 77.318169 -6.008379 -53.358147 0.000000 0.000000 -1.570796
    16 0.000004 -0.661568 0.189796 0.000000 0.000000 0.000000
    17 -1.125736 -2.126330 -0.470109 0.000000 0.000000 0.000000
    18 8.590434 9.606782 -3.374534 5.818953 -2.305732 0.356877
    19 0.010112 -8.475293 -0.072885 -0.080153 0.747111 0.296861
    20 5.542467 -5.175341 -0.415440 -1.557716 -0.033266 -3.785134
    21 -0.488518 -2.755602 -0.228260 -1.572657 -0.177694 0.023967
    22 0.039887 -1.511041 0.010322 -1.082681 -0.013818 0.022412
    23 0.028786 -1.157765 -0.124675 -1.025127 -0.015053 0.021608
    24 0.250027 -2.820665 -0.238396 -1.659120 -0.096485 0.161223
    25 -0.049759 -1.618042 0.080947 -0.884122 0.008641 -0.024211
    26 -0.034142 -1.156125 0.053531 -0.944064 0.008150 -0.024377
    27 0.957766 -2.746780 -0.090302 -0.057777 -0.183741 0.043836
    28 -0.033420 -1.397129 -0.011257 -0.283970 0.006340 -0.013592
    29 -0.022360 -0.957436 0.010971 -0.294056 0.006124 -0.013650
    30 -1.180681 -2.507217 -0.193859 -0.844729 -0.059117 0.074730
    31 -0.024967 -1.123934 0.017597 -1.583518 -0.012788 -0.063086
    32 -0.020057 -0.898781 0.017903 -0.698835 0.007958 -0.027493
    33 0.591323 -1.216809 0.247881 -0.837213 -0.216108 0.257682
    34 1.305451 -0.325702 0.106575 0.206790 -0.315386 -1.473233
    35 0.944516 -0.225949 0.008853 0.144111 -0.084853 -1.398688
    36 0.120153 -0.050270 -0.054489 0.287569 3.110905 1.561085
    37 2.846514 -3.692150 -7.196815 -0.095145 -6.017444 0.245541
    38 0.104757 -8.395729 -0.040616 -0.215463 -0.043418 0.103815
    39 0.701867 -2.736484 -0.305915 -0.119753 0.191628 0.297500
    40 -0.032909 -1.499736 0.032285 -1.517045 0.023262 -0.030043
    41 -0.027022 -1.127703 -0.020210 -1.257261 0.024425 -0.022974
    42 0.012193 -2.846964 -0.361719 0.212899 0.247369 0.269119
    43 0.043235 -1.656596 0.068667 -1.419862 -0.022105 0.007467
    44 0.031729 -1.141298 0.051025 -1.332477 -0.014866 0.007449
    45 -0.709952 -2.835928 -0.347077 0.195392 0.261101 0.242280
    46 0.028479 -1.403067 -0.001542 -0.497878 -0.008964 -0.021057
    47 0.021413 -0.949968 0.020046 -0.474313 -0.008329 -0.019727
    48 1.387138 -2.430655 -0.178143 -0.387203 -0.142500 0.585788
    49 0.024032 -1.148574 -0.009538 -1.316396 0.024508 0.063399
    50 0.014898 -0.903521 -0.012035 -1.116529 0.012871 0.055141
    51 -0.504736 -1.315260 0.063438 0.189258 -0.614315 -2.586011
    52 1.542367 0.039149 0.016848 -0.009148 -0.003060 0.525533
    53 1.117947 0.048424 -0.005766 -0.009124 -0.031598 0.407810
    54 -0.139399 -0.111698 0.014397 0.285382 -0.030687 1.580508
    55 -7.628035 3.846837 -0.426939 1.574959 -0.030104 -0.554184
end
