// Created by Crowbar 0.68

$modelname "weapons/tfa_cso/c_crossbowcls_v6.mdl"

$include "csonline_gmod.qci"

$bodygroup "weapon"
{
	studio "v_ref"
}

$cdmaterials "models/weapons/tfa_cso/crossbowcls_v6"

$attachment 0 "bone_load01" -38.117001 2.401 0

$definebone "Bone01" "" 0.497702 0.002174 -11.414404 -0.012834 -89.771431 179.847610 0.000000 0.000000 -0.000001 0.000000 0.000000 -0.000000
$definebone "Bone_Lefthand" "Bone01" -0.071918 -8.498729 -0.104137 16.477755 0.853593 -1.435030 0.000000 0.000000 0.000000 0.000005 0.000000 -0.000000
$definebone "bone_handle01" "Bone_Lefthand" -0.432209 9.361524 -11.607312 -56.440697 -177.904083 86.818176 0.000000 0.000000 -0.000000 0.000000 0.000002 -0.000000
$definebone "bone_load01" "bone_handle01" -1.699721 2.222293 0.000421 0.000000 -73.484016 -0.000000 0.000000 0.000000 0.000000 0.000000 -0.000002 -0.000000
$definebone "bone_R_blow01" "bone_handle01" -5.655031 16.263660 1.047437 -64.252518 -73.333153 0.337930 0.000000 0.000000 0.000000 -0.000000 -0.000001 0.000001
$definebone "bone_R_blow02" "bone_R_blow01" 7.696723 0.021893 -0.405258 32.175476 -0.021946 -0.097802 0.000000 -0.000000 0.000000 -0.000000 -0.000002 0.000001
$definebone "bone_R_blow03" "bone_R_blow02" 6.499036 0.037859 -0.093994 86.262634 -179.833099 -89.989632 0.000000 -0.000000 -0.000000 -0.000001 0.000002 0.000002
$definebone "bone_L_blow01" "bone_handle01" -5.655030 16.263659 -1.043029 64.252403 -73.333099 179.662140 0.000000 0.000000 0.000000 0.000002 0.000001 -0.000006
$definebone "bone_L_blow02" "bone_L_blow01" 7.721393 -0.021960 -0.393362 32.175484 0.021892 0.097740 0.000000 0.000000 0.000000 0.000007 0.000004 -0.000004
$definebone "bone_L_blow03" "bone_L_blow02" 6.490694 -0.037834 -0.107307 86.262642 179.833115 89.989571 -0.000001 -0.000000 0.000000 -0.000004 -0.000009 -0.000004
$definebone "bone_megazine01" "bone_handle01" -0.489117 10.226309 1.194557 0.000000 -73.460754 -0.000000 0.000000 0.000000 0.000000 0.000000 -0.000002 -0.000000
$definebone "bone_megazine02" "bone_megazine01" 1.189390 -0.918512 -1.194556 0.000000 0.211133 -0.000000 0.000000 0.000000 0.000000 0.000000 -0.000002 -0.000000
$definebone "bone_megazine03" "bone_handle01" -2.647894 8.542627 -0.000005 0.000000 -73.027824 -0.000000 0.000000 0.000000 0.000000 0.000000 -0.000002 -0.000000
$definebone "bone_bullet" "bone_handle01" 16.810591 -5.107452 0.000005 -0.000000 107.166992 0.000000 0.000000 0.000000 0.000000 -0.000000 -0.000002 0.000000

$sequence "idle1" {
	"v_crossbowcls_anims\idle1"
	fps 16
	activity "ACT_VM_IDLE" 1
	loop
}
$sequence "shoot" {
	"v_crossbowcls_anims\shoot"
	{ event 5001 0 "100112" }
	fps 30
	activity "ACT_VM_PRIMARYATTACK" 1
	snap
}
$sequence "shoot2" {
	"v_crossbowcls_anims\shoot2"
	{ event 5001 0 "100112" }
	fps 30
	activity "ACT_VM_PRIMARYATTACK" 1
	snap
}
$sequence "reload" {
	"v_crossbowcls_anims\reload"
	{ event 5004 21 "Crossbow.Foley1" }
	{ event 5004 44 "Crossbow.Foley2" }
	{ event 5004 73 "Crossbow.Foley3" }
	{ event 5004 85 "Crossbow.Foley4" }
	fps 30
	activity "ACT_VM_RELOAD" 1
	snap
}
$sequence "draw" {
	"v_crossbowcls_anims\draw"
	{ event 5004 9 "Crossbow.Draw" }
	fps 30
	activity "ACT_VM_DRAW" 1
	snap
}
