version 1
nodes
  0 "Bone_Root" -1
  1 "Bone04" 0
  2 "Bone_Righthand" 1
  3 "nataknife_R" 2
  4 "p_push_R" 3
  5 "Bone01" 0
  6 "Bone_Lefthand" 5
  7 "nataknife_L" 6
  8 "p_push_L" 7
  9 "Bone13" 6
  10 "Bone14" 9
  11 "Bone15" 10
  12 "Bone17" 6
  13 "Bone18" 12
  14 "Bone19" 13
  15 "Bone21" 6
  16 "Bone22" 15
  17 "Bone23" 16
  18 "Bone09" 6
  19 "Bone10" 18
  20 "Bone11" 19
  21 "Bone05" 6
  22 "Bone06" 21
  23 "Bone07" 22
  24 "Bone_Se_Hand-L" 6
  25 "Bone_L_Upper" 5
  26 "Bone39" 2
  27 "Bone40" 26
  28 "Bone41" 27
  29 "Bone35" 2
  30 "Bone36" 29
  31 "Bone37" 30
  32 "Bone31" 2
  33 "Bone32" 32
  34 "Bone33" 33
  35 "Bone43" 2
  36 "Bone44" 35
  37 "Bone45" 36
  38 "Bone27" 2
  39 "Bone28" 38
  40 "Bone29" 39
  41 "Bone_Se_Hand-R" 2
  42 "Bone_R_Upper" 1
end
skeleton
  time 0
    0 0.000000 0.000000 0.000000 0.000000 0.000000 -0.000015
    1 -5.091228 -7.439502 -6.296896 0.557901 -2.831925 1.392550
    2 0.096944 -8.450419 -0.009364 -0.382023 -0.297907 -0.004663
    3 -2.352024 -2.549693 1.315027 -3.109552 0.287422 0.018789
    4 0.000000 0.000000 0.000000 0.000001 -3.141592 0.000000
    5 4.579490 -9.156343 -6.341475 3.768576 -0.771755 1.115327
    6 -0.071918 -8.498729 -0.104137 -0.192370 0.281206 0.066061
    7 2.218057 -2.362811 1.698656 0.142463 -3.429023 -0.018788
    8 -0.000001 0.000001 0.000000 -3.141591 0.000001 0.000000
    9 -0.488517 -2.755600 -0.228261 -1.296287 -0.061815 -0.012694
    10 0.039887 -1.479790 0.029853 -1.626191 0.000000 0.000000
    11 0.028785 -1.075733 -0.023111 -1.394121 0.000000 0.000000
    12 0.250028 -2.820663 -0.238396 -1.267131 -0.002921 0.008443
    13 -0.049759 -1.680546 0.100480 -1.550922 0.000000 -0.000002
    14 -0.034141 -1.148310 0.084779 -1.436378 0.000000 0.000000
    15 0.957766 -2.746775 -0.090300 -1.319165 -0.034845 0.043237
    16 -0.033419 -1.397129 -0.011255 -0.771468 0.000000 -0.000001
    17 -0.022360 -0.957434 0.018783 -1.043321 0.000000 0.000000
    18 -1.180680 -2.507215 -0.193861 -1.145349 0.058091 -0.235658
    19 -0.024966 -1.123932 0.017594 -1.588813 0.000000 0.000001
    20 -0.020058 -0.890965 0.010091 -1.107962 0.000000 0.000000
    21 0.583510 -1.197275 0.185377 -0.045735 -1.064219 -0.151177
    22 1.535926 0.010246 0.005008 -0.002964 -0.536561 -1.046279
    23 1.100770 0.004526 -0.010676 -0.012408 0.010448 -0.694695
    24 0.120152 -0.050266 -0.054488 0.287568 3.110905 1.561085
    25 4.323679 7.660983 -0.153718 -1.570562 0.002683 -1.915870
    26 0.447952 -2.798983 -0.200442 -1.244815 0.066198 0.108168
    27 -0.032909 -1.480204 0.004936 -1.626151 0.000000 0.000002
    28 -0.027022 -1.076920 -0.020212 -1.394127 0.000000 0.000000
    29 -0.249534 -2.846960 -0.174215 -1.179791 -0.000125 -0.008396
    30 0.043235 -1.683941 0.096014 -1.550992 0.002823 -0.000167
    31 0.031729 -1.160830 0.058836 -1.436443 0.000642 0.008372
    32 -0.963867 -2.785143 -0.085346 -1.233894 0.022596 -0.054896
    33 0.028479 -1.403067 0.006271 -1.120488 0.000000 0.000000
    34 0.021414 -0.957779 0.020047 -1.043314 0.000000 0.000000
    35 1.164475 -2.543938 -0.170328 -1.197928 -0.095604 0.245486
    36 0.024033 -1.129042 0.017806 -1.588870 0.000000 0.000001
    37 0.014896 -0.883989 -0.019845 -1.107999 0.000000 0.000000
    38 -0.586770 -1.264477 0.200164 0.059268 -1.068467 -3.037418
    39 1.522835 0.058681 0.016850 0.001410 -0.514614 1.000317
    40 1.117948 0.048424 -0.005764 -0.016374 -0.019146 0.763687
    41 -0.139399 -0.111698 0.014397 0.285382 -0.030687 1.580508
    42 -4.256839 7.784457 -0.266779 1.580804 -0.005023 -1.217784
  time 1
    0 0.000000 0.000000 0.000000 0.000000 0.000000 -0.000015
    1 -3.923224 -7.642634 -5.933604 0.588545 -2.809884 1.421409
    2 0.096944 -8.450419 -0.009364 -0.379279 -0.301156 -0.013556
    3 -2.352024 -2.549693 1.315027 -3.109552 0.287422 0.018789
    4 0.000000 0.000000 0.000000 0.000001 -3.141592 0.000000
    5 4.376359 -9.617295 -6.903992 3.741598 -0.721859 1.157881
    6 -0.071918 -8.498729 -0.104137 -0.156036 0.281206 0.066061
    7 2.218057 -2.362811 1.698656 0.142463 -3.429023 -0.018788
    8 -0.000001 0.000001 0.000000 -3.141591 0.000001 0.000000
    9 -0.488517 -2.755600 -0.228261 -1.296287 -0.061815 -0.012694
    10 0.039887 -1.479790 0.029853 -1.626191 0.000000 0.000000
    11 0.028785 -1.075733 -0.023111 -1.394121 0.000000 0.000000
    12 0.250028 -2.820663 -0.238396 -1.267131 -0.002921 0.008443
    13 -0.049759 -1.680546 0.100480 -1.550922 0.000000 -0.000002
    14 -0.034141 -1.148310 0.084779 -1.436378 0.000000 0.000000
    15 0.957766 -2.746775 -0.090300 -1.319165 -0.034845 0.043237
    16 -0.033419 -1.397129 -0.011255 -0.771468 0.000000 -0.000001
    17 -0.022360 -0.957434 0.018783 -1.043321 0.000000 0.000000
    18 -1.180680 -2.507215 -0.193861 -1.145349 0.058091 -0.235658
    19 -0.024966 -1.123932 0.017594 -1.588813 0.000000 0.000001
    20 -0.020058 -0.890965 0.010091 -1.107962 0.000000 0.000000
    21 0.583510 -1.197275 0.185377 -0.045735 -1.064219 -0.151177
    22 1.535926 0.010246 0.005008 -0.002964 -0.536561 -1.046279
    23 1.100770 0.004526 -0.010676 -0.012408 0.010448 -0.694695
    24 0.120152 -0.050266 -0.054488 0.287568 3.110905 1.561085
    25 4.323679 7.660983 -0.153718 -1.570562 0.002683 -1.915870
    26 0.447952 -2.798983 -0.200442 -1.244815 0.066198 0.108168
    27 -0.032909 -1.480204 0.004936 -1.626151 0.000000 0.000002
    28 -0.027022 -1.076920 -0.020212 -1.394127 0.000000 0.000000
    29 -0.249534 -2.846960 -0.174215 -1.179791 -0.000125 -0.008396
    30 0.043235 -1.683941 0.096014 -1.550992 0.002823 -0.000167
    31 0.031729 -1.160830 0.058836 -1.436443 0.000642 0.008372
    32 -0.963867 -2.785143 -0.085346 -1.233894 0.022596 -0.054896
    33 0.028479 -1.403067 0.006271 -1.120488 0.000000 0.000000
    34 0.021414 -0.957779 0.020047 -1.043314 0.000000 0.000000
    35 1.164475 -2.543938 -0.170328 -1.197928 -0.095604 0.245486
    36 0.024033 -1.129042 0.017806 -1.588870 0.000000 0.000001
    37 0.014896 -0.883989 -0.019845 -1.107999 0.000000 0.000000
    38 -0.586770 -1.264477 0.200164 0.059268 -1.068467 -3.037418
    39 1.522835 0.058681 0.016850 0.001410 -0.514614 1.000317
    40 1.117948 0.048424 -0.005764 -0.016374 -0.019146 0.763687
    41 -0.139399 -0.111698 0.014397 0.285382 -0.030687 1.580508
    42 -4.256839 7.784457 -0.266779 1.580804 -0.005023 -1.217784
  time 2
    0 0.000000 0.000000 0.000000 0.000000 0.000000 -0.000015
    1 -1.137983 -8.130930 -5.062484 0.651996 -2.757347 1.490117
    2 0.096944 -8.450419 -0.009364 -0.372728 -0.308974 -0.034769
    3 -2.352024 -2.549693 1.315027 -3.109552 0.287422 0.018789
    4 0.000000 0.000000 0.000000 0.000001 -3.141592 0.000000
    5 3.891969 -10.714985 -8.294660 3.657605 -0.607565 1.267033
    6 -0.071918 -8.498729 -0.104137 -0.069492 0.281206 0.066061
    7 2.218057 -2.362811 1.698656 0.142463 -3.429023 -0.018788
    8 -0.000001 0.000001 0.000000 -3.141591 0.000001 0.000000
    9 -0.488517 -2.755600 -0.228261 -1.296287 -0.061815 -0.012694
    10 0.039887 -1.479790 0.029853 -1.626191 0.000000 0.000000
    11 0.028785 -1.075733 -0.023111 -1.394121 0.000000 0.000000
    12 0.250028 -2.820663 -0.238396 -1.267131 -0.002921 0.008443
    13 -0.049759 -1.680546 0.100480 -1.550922 0.000000 -0.000002
    14 -0.034141 -1.148310 0.084779 -1.436378 0.000000 0.000000
    15 0.957766 -2.746775 -0.090300 -1.319165 -0.034845 0.043237
    16 -0.033419 -1.397129 -0.011255 -0.771468 0.000000 -0.000001
    17 -0.022360 -0.957434 0.018783 -1.043353 0.000000 0.000000
    18 -1.180680 -2.507215 -0.193861 -1.145349 0.058091 -0.235658
    19 -0.024966 -1.123932 0.017594 -1.588813 0.000000 0.000001
    20 -0.020058 -0.890965 0.010091 -1.107962 0.000000 0.000000
    21 0.583510 -1.197275 0.185377 -0.045735 -1.064219 -0.151177
    22 1.535926 0.010246 0.005008 -0.002964 -0.536561 -1.046279
    23 1.100770 0.004526 -0.010676 -0.012408 0.010448 -0.694695
    24 0.120152 -0.050266 -0.054488 0.287568 3.110905 1.561085
    25 4.323679 7.660983 -0.153718 -1.570562 0.002683 -1.915870
    26 0.447952 -2.798983 -0.200442 -1.244815 0.066198 0.108168
    27 -0.032909 -1.480204 0.004936 -1.626151 0.000000 0.000002
    28 -0.027022 -1.076920 -0.020212 -1.394127 0.000000 0.000000
    29 -0.249534 -2.846960 -0.174215 -1.179791 -0.000125 -0.008396
    30 0.043235 -1.683941 0.096014 -1.550992 0.002823 -0.000167
    31 0.031729 -1.160830 0.058836 -1.436443 0.000642 0.008372
    32 -0.963867 -2.785143 -0.085346 -1.233894 0.022596 -0.054896
    33 0.028479 -1.403067 0.006271 -1.120488 0.000000 0.000000
    34 0.021414 -0.957779 0.020047 -1.043314 0.000000 0.000000
    35 1.164475 -2.543938 -0.170328 -1.197928 -0.095604 0.245486
    36 0.024033 -1.129042 0.017806 -1.588870 0.000000 0.000001
    37 0.014896 -0.883989 -0.019845 -1.107999 0.000000 0.000000
    38 -0.586770 -1.264477 0.200164 0.059268 -1.068467 -3.037418
    39 1.522835 0.058681 0.016850 0.001410 -0.514614 1.000317
    40 1.117948 0.048424 -0.005764 -0.016374 -0.019146 0.763687
    41 -0.139399 -0.111698 0.014397 0.285382 -0.030687 1.580508
    42 -4.256839 7.784457 -0.266779 1.580804 -0.005023 -1.217784
  time 3
    0 0.000000 0.000000 0.000000 0.000000 0.000000 -0.000015
    1 2.186337 -8.709072 -4.023389 -2.415837 -0.447154 -1.569332
    2 0.096944 -8.450419 -0.009364 -0.364908 -0.318298 -0.060104
    3 -2.352024 -2.549693 1.315027 -3.109552 0.287422 0.018789
    4 0.000000 0.000000 0.000000 0.000001 -3.141592 0.000000
    5 3.317733 -12.027525 -10.091590 3.548451 -0.472378 1.414922
    6 -0.071918 -8.498729 -0.104137 0.033849 0.281206 0.066061
    7 2.218057 -2.362811 1.698656 0.142463 -3.429023 -0.018788
    8 -0.000001 0.000001 0.000000 -3.141591 0.000001 0.000000
    9 -0.488517 -2.755600 -0.228261 -1.296287 -0.061815 -0.012694
    10 0.039887 -1.479790 0.029853 -1.626191 0.000000 0.000000
    11 0.028785 -1.075733 -0.023111 -1.394121 0.000000 0.000000
    12 0.250028 -2.820663 -0.238396 -1.267131 -0.002921 0.008443
    13 -0.049759 -1.680546 0.100480 -1.550922 0.000000 -0.000002
    14 -0.034141 -1.148310 0.084779 -1.436378 0.000000 0.000000
    15 0.957766 -2.746775 -0.090300 -1.319165 -0.034845 0.043237
    16 -0.033419 -1.397129 -0.011255 -0.771468 0.000000 -0.000001
    17 -0.022360 -0.957434 0.018783 -1.043321 0.000000 0.000000
    18 -1.180680 -2.507215 -0.193861 -1.145349 0.058091 -0.235658
    19 -0.024966 -1.123932 0.017594 -1.588813 0.000000 0.000001
    20 -0.020058 -0.890965 0.010091 -1.107962 0.000000 0.000000
    21 0.583510 -1.197275 0.185377 -0.045735 -1.064219 -0.151177
    22 1.535926 0.010246 0.005008 -0.002964 -0.536561 -1.046279
    23 1.100770 0.004526 -0.010676 -0.012408 0.010448 -0.694695
    24 0.120152 -0.050266 -0.054488 0.287568 3.110905 1.561085
    25 4.323679 7.660983 -0.153718 -1.570562 0.002683 -1.915870
    26 0.447952 -2.798983 -0.200442 -1.244815 0.066198 0.108168
    27 -0.032909 -1.480204 0.004936 -1.626151 0.000000 0.000002
    28 -0.027022 -1.076920 -0.020212 -1.394127 0.000000 0.000000
    29 -0.249534 -2.846960 -0.174215 -1.179791 -0.000125 -0.008396
    30 0.043235 -1.683941 0.096014 -1.550992 0.002823 -0.000167
    31 0.031729 -1.160830 0.058836 -1.436443 0.000642 0.008372
    32 -0.963867 -2.785143 -0.085346 -1.233894 0.022596 -0.054896
    33 0.028479 -1.403067 0.006271 -1.120488 0.000000 0.000000
    34 0.021414 -0.957779 0.020047 -1.043314 0.000000 0.000000
    35 1.164475 -2.543938 -0.170328 -1.197928 -0.095604 0.245486
    36 0.024033 -1.129042 0.017806 -1.588870 0.000000 0.000001
    37 0.014896 -0.883989 -0.019845 -1.107999 0.000000 0.000000
    38 -0.586770 -1.264477 0.200164 0.059268 -1.068467 -3.037418
    39 1.522835 0.058681 0.016850 0.001410 -0.514614 1.000317
    40 1.117948 0.048424 -0.005764 -0.016374 -0.019146 0.763687
    41 -0.139399 -0.111698 0.014397 0.285382 -0.030687 1.580508
    42 -4.256839 7.784457 -0.266779 1.580804 -0.005023 -1.217784
  time 4
    0 0.000000 0.000000 0.000000 0.000000 0.000000 -0.000015
    1 4.971579 -9.197369 -3.148363 -2.354830 -0.499785 -1.500624
    2 0.096944 -8.450419 -0.009364 -0.358357 -0.326090 -0.081317
    3 -2.352024 -2.549693 1.315027 -3.109552 0.287422 0.018789
    4 0.000000 0.000000 0.000000 0.000001 -3.141592 0.000000
    5 2.833343 -13.125214 -11.861175 0.304834 -2.782011 -1.567475
    6 -0.071918 -8.498729 -0.104137 0.120393 0.281206 0.066061
    7 2.218057 -2.362811 1.698656 0.142463 -3.429023 -0.018788
    8 -0.000001 0.000001 0.000000 -3.141591 0.000001 0.000000
    9 -0.488517 -2.755600 -0.228261 -1.296287 -0.061815 -0.012694
    10 0.039887 -1.479790 0.029853 -1.626191 0.000000 0.000000
    11 0.028785 -1.075733 -0.023111 -1.394121 0.000000 0.000000
    12 0.250028 -2.820663 -0.238396 -1.267131 -0.002921 0.008443
    13 -0.049759 -1.680546 0.100480 -1.550922 0.000000 -0.000002
    14 -0.034141 -1.148310 0.084779 -1.436378 0.000000 0.000000
    15 0.957766 -2.746775 -0.090300 -1.319165 -0.034845 0.043237
    16 -0.033419 -1.397129 -0.011255 -0.771468 0.000000 -0.000001
    17 -0.022360 -0.957434 0.018783 -1.043321 0.000000 0.000000
    18 -1.180680 -2.507215 -0.193861 -1.145349 0.058091 -0.235658
    19 -0.024966 -1.123932 0.017594 -1.588813 0.000000 0.000001
    20 -0.020058 -0.890965 0.010091 -1.107962 0.000000 0.000000
    21 0.583510 -1.197275 0.185377 -0.045735 -1.064219 -0.151177
    22 1.535926 0.010246 0.005008 -0.002964 -0.536561 -1.046279
    23 1.100770 0.004526 -0.010676 -0.012408 0.010448 -0.694695
    24 0.120152 -0.050266 -0.054488 0.287568 3.110905 1.561085
    25 4.323679 7.660983 -0.153718 -1.570562 0.002683 -1.915870
    26 0.447952 -2.798983 -0.200442 -1.244815 0.066198 0.108168
    27 -0.032909 -1.480204 0.004936 -1.626151 0.000000 0.000002
    28 -0.027022 -1.076920 -0.020212 -1.394127 0.000000 0.000000
    29 -0.249534 -2.846960 -0.174215 -1.179791 -0.000125 -0.008396
    30 0.043235 -1.683941 0.096014 -1.550992 0.002823 -0.000167
    31 0.031729 -1.160830 0.058836 -1.436443 0.000642 0.008372
    32 -0.963867 -2.785143 -0.085346 -1.233894 0.022596 -0.054896
    33 0.028479 -1.403067 0.006271 -1.120488 0.000000 0.000000
    34 0.021414 -0.957779 0.020047 -1.043314 0.000000 0.000000
    35 1.164475 -2.543938 -0.170328 -1.197928 -0.095604 0.245486
    36 0.024033 -1.129042 0.017806 -1.588870 0.000000 0.000001
    37 0.014896 -0.883989 -0.019845 -1.107999 0.000000 0.000000
    38 -0.586770 -1.264477 0.200164 0.059268 -1.068467 -3.037418
    39 1.522835 0.058681 0.016850 0.001410 -0.514614 1.000317
    40 1.117948 0.048424 -0.005764 -0.016374 -0.019146 0.763687
    41 -0.139399 -0.111698 0.014397 0.285382 -0.030687 1.580508
    42 -4.256839 7.784457 -0.266779 1.580804 -0.005023 -1.217784
  time 5
    0 0.000000 0.000000 0.000000 0.000000 0.000000 -0.000015
    1 6.139583 -9.400500 -2.785070 -2.329450 -0.521826 -1.471765
    2 0.096944 -8.450419 -0.009364 -0.355597 -0.329366 -0.090233
    3 -2.352024 -2.549693 1.315027 -3.109552 0.287422 0.018741
    4 0.000000 0.000000 0.000000 0.000001 -3.141592 0.000000
    5 2.630212 -13.586166 -13.169809 0.241982 -2.829236 -1.425215
    6 -0.071918 -8.498729 -0.104137 0.156690 0.281206 0.066061
    7 2.218057 -2.362811 1.698656 0.142463 -3.429023 -0.018788
    8 -0.000001 0.000001 0.000000 -3.141591 0.000001 0.000000
    9 -0.488517 -2.755600 -0.228261 -1.296287 -0.061815 -0.012694
    10 0.039887 -1.479790 0.029853 -1.626191 0.000000 0.000000
    11 0.028785 -1.075733 -0.023111 -1.394121 0.000000 0.000000
    12 0.250028 -2.820663 -0.238396 -1.267131 -0.002921 0.008443
    13 -0.049759 -1.680546 0.100480 -1.550922 0.000000 -0.000002
    14 -0.034141 -1.148310 0.084779 -1.436378 0.000000 0.000000
    15 0.957766 -2.746775 -0.090300 -1.319165 -0.034845 0.043237
    16 -0.033419 -1.397129 -0.011255 -0.771468 0.000000 -0.000001
    17 -0.022360 -0.957434 0.018783 -1.043321 0.000000 0.000000
    18 -1.180680 -2.507215 -0.193861 -1.145349 0.058091 -0.235658
    19 -0.024966 -1.123932 0.017594 -1.588813 0.000000 0.000001
    20 -0.020058 -0.890965 0.010091 -1.107962 0.000000 0.000000
    21 0.583510 -1.197275 0.185377 -0.045735 -1.064219 -0.151177
    22 1.535926 0.010246 0.005008 -0.002964 -0.536561 -1.046279
    23 1.100770 0.004526 -0.010676 -0.012408 0.010448 -0.694695
    24 0.120152 -0.050266 -0.054488 0.287568 3.110905 1.561085
    25 4.323679 7.660983 -0.153718 -1.570562 0.002683 -1.915870
    26 0.447952 -2.798983 -0.200442 -1.244815 0.066198 0.108168
    27 -0.032909 -1.480204 0.004936 -1.626151 0.000000 0.000002
    28 -0.027022 -1.076920 -0.020212 -1.394127 0.000000 0.000000
    29 -0.249534 -2.846960 -0.174215 -1.179791 -0.000125 -0.008396
    30 0.043235 -1.683941 0.096014 -1.550992 0.002823 -0.000167
    31 0.031729 -1.160830 0.058836 -1.436443 0.000642 0.008372
    32 -0.963867 -2.785143 -0.085346 -1.233894 0.022596 -0.054896
    33 0.028479 -1.403067 0.006271 -1.120488 0.000000 0.000000
    34 0.021414 -0.957779 0.020047 -1.043314 0.000000 0.000000
    35 1.164475 -2.543938 -0.170328 -1.197928 -0.095604 0.245486
    36 0.024033 -1.129042 0.017806 -1.588870 0.000000 0.000001
    37 0.014896 -0.883989 -0.019845 -1.107999 0.000000 0.000000
    38 -0.586770 -1.264477 0.200164 0.059268 -1.068467 -3.037418
    39 1.522835 0.058681 0.016850 0.001410 -0.514614 1.000317
    40 1.117948 0.048424 -0.005764 -0.016374 -0.019146 0.763687
    41 -0.139399 -0.111698 0.014397 0.285382 -0.030687 1.580508
    42 -4.256839 7.784457 -0.266779 1.580804 -0.005023 -1.217784
  time 6
    0 0.000000 0.000000 0.000000 0.000000 0.000000 -0.000015
    1 3.639507 -9.400500 -3.402277 0.775138 -2.677735 1.447211
    2 0.096944 -8.450419 -0.009364 -0.355597 -0.329366 -0.090233
    3 -2.352024 -2.549693 1.315027 -3.109552 0.287422 0.018789
    4 0.000000 0.000000 0.000000 0.000001 -3.141592 0.000000
    5 3.899782 -13.586166 -14.037023 0.215387 -2.824466 -1.278089
    6 -0.071918 -8.498729 -0.104137 0.109949 0.274145 0.038946
    7 2.218057 -2.362811 1.698656 0.142463 -3.429023 -0.018788
    8 -0.000001 0.000001 0.000000 -3.141591 0.000001 0.000000
    9 -0.488517 -2.755600 -0.228261 -1.296287 -0.061815 -0.012694
    10 0.039887 -1.479790 0.029853 -1.626191 0.000000 0.000000
    11 0.028785 -1.075733 -0.023111 -1.394121 0.000000 0.000000
    12 0.250028 -2.820663 -0.238396 -1.267131 -0.002921 0.008443
    13 -0.049759 -1.680546 0.100480 -1.550922 0.000000 -0.000002
    14 -0.034141 -1.148310 0.084779 -1.436378 0.000000 0.000000
    15 0.957766 -2.746775 -0.090300 -1.319165 -0.034845 0.043237
    16 -0.033419 -1.397129 -0.011255 -0.771468 0.000000 -0.000001
    17 -0.022360 -0.957434 0.018783 -1.043321 0.000000 0.000000
    18 -1.180680 -2.507215 -0.193861 -1.145349 0.058091 -0.235658
    19 -0.024966 -1.123932 0.017594 -1.588813 0.000000 0.000001
    20 -0.020058 -0.890965 0.010091 -1.107962 0.000000 0.000000
    21 0.583510 -1.197275 0.185377 -0.045735 -1.064219 -0.151177
    22 1.535926 0.010246 0.005008 -0.002964 -0.536561 -1.046279
    23 1.100770 0.004526 -0.010676 -0.012408 0.010448 -0.694695
    24 0.120152 -0.050266 -0.054488 0.287568 3.110905 1.561085
    25 4.323679 7.660983 -0.153718 -1.570562 0.002683 -1.915870
    26 0.447952 -2.798983 -0.200442 -1.244815 0.066198 0.108168
    27 -0.032909 -1.480204 0.004936 -1.626151 0.000000 0.000002
    28 -0.027022 -1.076920 -0.020212 -1.394127 0.000000 0.000000
    29 -0.249534 -2.846960 -0.174215 -1.179791 -0.000125 -0.008396
    30 0.043235 -1.683941 0.096014 -1.550992 0.002823 -0.000167
    31 0.031729 -1.160830 0.058836 -1.436443 0.000642 0.008372
    32 -0.963867 -2.785143 -0.085346 -1.233894 0.022596 -0.054896
    33 0.028479 -1.403067 0.006271 -1.120488 0.000000 0.000000
    34 0.021414 -0.957779 0.020047 -1.043314 0.000000 0.000000
    35 1.164475 -2.543938 -0.170328 -1.197928 -0.095604 0.245486
    36 0.024033 -1.129042 0.017806 -1.588870 0.000000 0.000001
    37 0.014896 -0.883989 -0.019845 -1.107999 0.000000 0.000000
    38 -0.586770 -1.264477 0.200164 0.059268 -1.068467 -3.037418
    39 1.522835 0.058681 0.016850 0.001410 -0.514614 1.000317
    40 1.117948 0.048424 -0.005764 -0.016374 -0.019146 0.763687
    41 -0.139399 -0.111698 0.014397 0.285382 -0.030687 1.580508
    42 -4.256839 7.784457 -0.266779 1.580804 -0.005023 -1.217784
  time 7
    0 0.000000 0.000000 0.000000 0.000000 0.000000 -0.000015
    1 -2.325519 -9.400500 -4.878884 0.686495 -2.820714 0.916566
    2 0.096944 -8.450419 -0.009364 -0.355597 -0.329366 -0.090233
    3 -2.352024 -2.549693 1.315027 -3.109552 0.287422 0.018789
    4 0.000000 0.000000 0.000000 0.000001 -3.141592 0.000000
    5 6.919405 -13.586166 -14.744075 0.198933 -2.811777 -1.107683
    6 -0.071918 -8.498729 -0.104137 -0.001535 0.257306 -0.025754
    7 2.218057 -2.362811 1.698656 0.142463 -3.429023 -0.018788
    8 -0.000001 0.000001 0.000000 -3.141591 0.000001 0.000000
    9 -0.488517 -2.755600 -0.228261 -1.296287 -0.061815 -0.012694
    10 0.039887 -1.479790 0.029853 -1.626191 0.000000 0.000000
    11 0.028785 -1.075733 -0.023111 -1.394121 0.000000 0.000000
    12 0.250028 -2.820663 -0.238396 -1.267131 -0.002921 0.008443
    13 -0.049759 -1.680546 0.100480 -1.550922 0.000000 -0.000002
    14 -0.034141 -1.148310 0.084779 -1.436378 0.000000 0.000000
    15 0.957766 -2.746775 -0.090300 -1.319165 -0.034845 0.043237
    16 -0.033419 -1.397129 -0.011255 -0.771468 0.000000 -0.000001
    17 -0.022360 -0.957434 0.018783 -1.043321 0.000000 0.000000
    18 -1.180680 -2.507215 -0.193861 -1.145349 0.058091 -0.235658
    19 -0.024966 -1.123932 0.017594 -1.588813 0.000000 0.000001
    20 -0.020058 -0.890965 0.010091 -1.107962 0.000000 0.000000
    21 0.583510 -1.197275 0.185377 -0.045735 -1.064219 -0.151177
    22 1.535926 0.010246 0.005008 -0.002964 -0.536561 -1.046279
    23 1.100770 0.004526 -0.010676 -0.012408 0.010448 -0.694695
    24 0.120152 -0.050266 -0.054488 0.287568 3.110905 1.561085
    25 4.323679 7.660983 -0.153718 -1.570562 0.002683 -1.915870
    26 0.447952 -2.798983 -0.200442 -1.244815 0.066198 0.108168
    27 -0.032909 -1.480204 0.004936 -1.626151 0.000000 0.000002
    28 -0.027022 -1.076920 -0.020212 -1.394127 0.000000 0.000000
    29 -0.249534 -2.846960 -0.174215 -1.179791 -0.000125 -0.008396
    30 0.043235 -1.683941 0.096014 -1.550992 0.002823 -0.000167
    31 0.031729 -1.160830 0.058836 -1.436443 0.000642 0.008372
    32 -0.963867 -2.785143 -0.085346 -1.233894 0.022596 -0.054896
    33 0.028479 -1.403067 0.006271 -1.120488 0.000000 0.000000
    34 0.021414 -0.957779 0.020047 -1.043314 0.000000 0.000000
    35 1.164475 -2.543938 -0.170328 -1.197928 -0.095604 0.245486
    36 0.024033 -1.129042 0.017806 -1.588870 0.000000 0.000001
    37 0.014896 -0.883989 -0.019845 -1.107999 0.000000 0.000000
    38 -0.586770 -1.264477 0.200164 0.059268 -1.068467 -3.037418
    39 1.522835 0.058681 0.016850 0.001410 -0.514614 1.000317
    40 1.117948 0.048424 -0.005764 -0.016374 -0.019146 0.763687
    41 -0.139399 -0.111698 0.014397 0.285382 -0.030687 1.580508
    42 -4.256839 7.784457 -0.266779 1.580804 -0.005023 -1.217784
  time 8
    0 0.000000 0.000000 0.000000 0.000000 0.000000 -0.000015
    1 -9.442924 -9.400500 -6.640657 0.578863 -3.003216 0.283099
    2 0.096944 -8.450419 -0.009364 -0.355597 -0.329366 -0.090233
    3 -2.352024 -2.549693 1.315027 -3.109552 0.287422 0.018789
    4 0.000000 0.000000 0.000000 0.000001 -3.141592 0.000000
    5 10.521078 -13.586166 -15.275342 0.190132 -2.793364 -0.946150
    6 -0.071918 -8.498729 -0.104137 -0.134638 0.237208 -0.102982
    7 2.218057 -2.362811 1.698656 0.142463 -3.429023 -0.018788
    8 -0.000001 0.000001 0.000000 -3.141591 0.000001 0.000000
    9 -0.488517 -2.755600 -0.228261 -1.296287 -0.061815 -0.012694
    10 0.039887 -1.479790 0.029853 -1.626191 0.000000 0.000000
    11 0.028785 -1.075733 -0.023111 -1.394121 0.000000 0.000000
    12 0.250028 -2.820663 -0.238396 -1.267131 -0.002921 0.008443
    13 -0.049759 -1.680546 0.100480 -1.550922 0.000000 -0.000002
    14 -0.034141 -1.148310 0.084779 -1.436378 0.000000 0.000000
    15 0.957766 -2.746775 -0.090300 -1.319165 -0.034845 0.043237
    16 -0.033419 -1.397129 -0.011255 -0.771436 0.000000 -0.000001
    17 -0.022360 -0.957434 0.018783 -1.043321 0.000000 0.000000
    18 -1.180680 -2.507215 -0.193861 -1.145349 0.058091 -0.235658
    19 -0.024966 -1.123932 0.017594 -1.588813 0.000000 0.000001
    20 -0.020058 -0.890965 0.010091 -1.107962 0.000000 0.000000
    21 0.583510 -1.197275 0.185377 -0.045735 -1.064219 -0.151177
    22 1.535926 0.010246 0.005008 -0.002964 -0.536561 -1.046279
    23 1.100770 0.004526 -0.010676 -0.012408 0.010448 -0.694695
    24 0.120152 -0.050266 -0.054488 0.287568 3.110905 1.561085
    25 4.323679 7.660983 -0.153718 -1.570562 0.002683 -1.915870
    26 0.447952 -2.798983 -0.200442 -1.244815 0.066198 0.108168
    27 -0.032909 -1.480204 0.004936 -1.626151 0.000000 0.000002
    28 -0.027022 -1.076920 -0.020212 -1.394127 0.000000 0.000000
    29 -0.249534 -2.846960 -0.174215 -1.179791 -0.000125 -0.008396
    30 0.043235 -1.683941 0.096014 -1.550992 0.002823 -0.000167
    31 0.031729 -1.160830 0.058836 -1.436443 0.000642 0.008372
    32 -0.963867 -2.785143 -0.085346 -1.233894 0.022596 -0.054896
    33 0.028479 -1.403067 0.006271 -1.120488 0.000000 0.000000
    34 0.021414 -0.957779 0.020047 -1.043314 0.000000 0.000000
    35 1.164475 -2.543938 -0.170328 -1.197928 -0.095604 0.245486
    36 0.024033 -1.129042 0.017806 -1.588870 0.000000 0.000001
    37 0.014896 -0.883989 -0.019845 -1.107999 0.000000 0.000000
    38 -0.586770 -1.264477 0.200164 0.059268 -1.068467 -3.037418
    39 1.522835 0.058681 0.016850 0.001410 -0.514614 1.000317
    40 1.117948 0.048424 -0.005764 -0.016374 -0.019146 0.763687
    41 -0.139399 -0.111698 0.014397 0.285382 -0.030687 1.580508
    42 -4.256839 7.784457 -0.266779 1.580804 -0.005023 -1.217784
  time 9
    0 0.000000 0.000000 0.000000 0.000000 0.000000 -0.000015
    1 -15.407950 -9.400500 -8.117264 0.485144 -3.179257 -0.247546
    2 0.096944 -8.450419 -0.009364 -0.355597 -0.329366 -0.090233
    3 -2.352024 -2.549693 1.315027 -3.109552 0.287422 0.018789
    4 0.000000 0.000000 0.000000 0.000001 -3.141592 0.000000
    5 13.540701 -13.586166 -15.611289 0.186592 -2.771708 -0.825644
    6 -0.071918 -8.498729 -0.104137 -0.246122 0.220369 -0.167682
    7 2.218057 -2.362811 1.698656 0.142463 -3.429023 -0.018788
    8 -0.000001 0.000001 0.000000 -3.141591 0.000001 0.000000
    9 -0.488517 -2.755600 -0.228261 -1.296287 -0.061815 -0.012694
    10 0.039887 -1.479790 0.029853 -1.626191 0.000000 0.000000
    11 0.028785 -1.075733 -0.023111 -1.394121 0.000000 0.000000
    12 0.250028 -2.820663 -0.238396 -1.267131 -0.002921 0.008443
    13 -0.049759 -1.680546 0.100480 -1.550922 0.000000 -0.000002
    14 -0.034141 -1.148310 0.084779 -1.436378 0.000000 0.000000
    15 0.957766 -2.746775 -0.090300 -1.319165 -0.034845 0.043237
    16 -0.033419 -1.397129 -0.011255 -0.771468 0.000000 -0.000001
    17 -0.022360 -0.957434 0.018783 -1.043321 0.000000 0.000000
    18 -1.180680 -2.507215 -0.193861 -1.145349 0.058091 -0.235658
    19 -0.024966 -1.123932 0.017594 -1.588813 0.000000 0.000001
    20 -0.020058 -0.890965 0.010091 -1.107962 0.000000 0.000000
    21 0.583510 -1.197275 0.185377 -0.045735 -1.064219 -0.151177
    22 1.535926 0.010246 0.005008 -0.002964 -0.536561 -1.046279
    23 1.100770 0.004526 -0.010676 -0.012408 0.010448 -0.694695
    24 0.120152 -0.050266 -0.054488 0.287568 3.110905 1.561085
    25 4.323679 7.660983 -0.153718 -1.570562 0.002683 -1.915870
    26 0.447952 -2.798983 -0.200442 -1.244815 0.066198 0.108168
    27 -0.032909 -1.480204 0.004936 -1.626151 0.000000 0.000002
    28 -0.027022 -1.076920 -0.020212 -1.394127 0.000000 0.000000
    29 -0.249534 -2.846960 -0.174215 -1.179791 -0.000125 -0.008396
    30 0.043235 -1.683941 0.096014 -1.550992 0.002823 -0.000167
    31 0.031729 -1.160830 0.058836 -1.436443 0.000642 0.008372
    32 -0.963867 -2.785143 -0.085346 -1.233894 0.022596 -0.054896
    33 0.028479 -1.403067 0.006271 -1.120488 0.000000 0.000000
    34 0.021414 -0.957779 0.020047 -1.043314 0.000000 0.000000
    35 1.164475 -2.543938 -0.170328 -1.197928 -0.095604 0.245486
    36 0.024033 -1.129042 0.017806 -1.588870 0.000000 0.000001
    37 0.014896 -0.883989 -0.019845 -1.107999 0.000000 0.000000
    38 -0.586770 -1.264477 0.200164 0.059268 -1.068467 -3.037418
    39 1.522835 0.058681 0.016850 0.001410 -0.514614 1.000317
    40 1.117948 0.048424 -0.005764 -0.016374 -0.019146 0.763687
    41 -0.139399 -0.111698 0.014397 0.285382 -0.030687 1.580508
    42 -4.256839 7.784457 -0.266779 1.580804 -0.005023 -1.217784
  time 10
    0 0.000000 0.000000 0.000000 0.000000 0.000000 -0.000015
    1 -17.908026 -9.400500 -8.734471 0.438331 -3.303236 -0.470105
    2 0.096944 -8.450419 -0.009364 -0.355597 -0.329366 -0.090233
    3 -2.352024 -2.549693 1.315027 -3.109552 0.287422 0.018789
    4 0.000000 0.000000 0.000000 0.000001 -3.141592 0.000000
    5 14.806365 -13.586166 -15.724574 0.186018 -2.749097 -0.778320
    6 -0.071918 -8.498729 -0.104137 -0.292899 0.213308 -0.194797
    7 2.218057 -2.362811 1.698656 0.142463 -3.429023 -0.018788
    8 -0.000001 0.000001 0.000000 -3.141591 0.000001 0.000000
    9 -0.488517 -2.755600 -0.228261 -1.296287 -0.061815 -0.012694
    10 0.039887 -1.479790 0.029853 -1.626191 0.000000 0.000000
    11 0.028785 -1.075733 -0.023111 -1.394121 0.000000 0.000000
    12 0.250028 -2.820663 -0.238396 -1.267131 -0.002921 0.008443
    13 -0.049759 -1.680546 0.100480 -1.550922 0.000000 -0.000002
    14 -0.034141 -1.148310 0.084779 -1.436378 0.000000 0.000000
    15 0.957766 -2.746775 -0.090300 -1.319165 -0.034845 0.043237
    16 -0.033419 -1.397129 -0.011255 -0.771468 0.000000 -0.000001
    17 -0.022360 -0.957434 0.018783 -1.043321 0.000000 0.000000
    18 -1.180680 -2.507215 -0.193861 -1.145349 0.058091 -0.235658
    19 -0.024966 -1.123932 0.017594 -1.588813 0.000000 0.000001
    20 -0.020058 -0.890965 0.010091 -1.107962 0.000000 0.000000
    21 0.583510 -1.197275 0.185377 -0.045735 -1.064219 -0.151177
    22 1.535926 0.010246 0.005008 -0.002964 -0.536561 -1.046279
    23 1.100770 0.004526 -0.010676 -0.012408 0.010448 -0.694695
    24 0.120152 -0.050266 -0.054488 0.287568 3.110905 1.561085
    25 4.323679 7.660983 -0.153718 -1.570562 0.002683 -1.915870
    26 0.447952 -2.798983 -0.200442 -1.244815 0.066198 0.108168
    27 -0.032909 -1.480204 0.004936 -1.626151 0.000000 0.000002
    28 -0.027022 -1.076920 -0.020212 -1.394127 0.000000 0.000000
    29 -0.249534 -2.846960 -0.174215 -1.179791 -0.000125 -0.008396
    30 0.043235 -1.683941 0.096014 -1.550992 0.002823 -0.000167
    31 0.031729 -1.160830 0.058836 -1.436443 0.000642 0.008372
    32 -0.963867 -2.785143 -0.085346 -1.233894 0.022596 -0.054896
    33 0.028479 -1.403067 0.006271 -1.120488 0.000000 0.000000
    34 0.021414 -0.957779 0.020047 -1.043314 0.000000 0.000000
    35 1.164475 -2.543938 -0.170328 -1.197928 -0.095604 0.245486
    36 0.024033 -1.129042 0.017806 -1.588870 0.000000 0.000001
    37 0.014896 -0.883989 -0.019845 -1.107999 0.000000 0.000000
    38 -0.586770 -1.264477 0.200164 0.059268 -1.068467 -3.037418
    39 1.522835 0.058681 0.016850 0.001410 -0.514614 1.000317
    40 1.117948 0.048424 -0.005764 -0.016374 -0.019146 0.763687
    41 -0.139399 -0.111698 0.014397 0.285382 -0.030687 1.580508
    42 -4.256839 7.784457 -0.266779 1.580804 -0.005023 -1.217784
  time 11
    0 0.000000 0.000000 0.000000 0.000000 0.000000 -0.000015
    1 -17.728333 -9.380968 -8.734471 0.426863 -3.385699 -0.442010
    2 0.096944 -8.450419 -0.009364 -0.355597 -0.329366 -0.090233
    3 -2.352024 -2.549693 1.315027 -3.109552 0.287422 0.018741
    4 0.000000 0.000000 0.000000 0.000001 -3.141592 0.000000
    5 14.732144 -13.554915 -15.658166 0.188027 -2.726391 -0.782804
    6 -0.071918 -8.498729 -0.104137 -0.285194 0.230925 -0.135294
    7 2.218057 -2.362811 1.698656 0.142463 -3.429023 -0.018788
    8 -0.000001 0.000001 0.000000 -3.141591 0.000001 0.000000
    9 -0.488517 -2.755600 -0.228261 -1.296287 -0.061815 -0.012694
    10 0.039887 -1.479790 0.029853 -1.626191 0.000000 0.000000
    11 0.028785 -1.075733 -0.023111 -1.394121 0.000000 0.000000
    12 0.250028 -2.820663 -0.238396 -1.267131 -0.002921 0.008443
    13 -0.049759 -1.680546 0.100480 -1.550922 0.000000 -0.000002
    14 -0.034141 -1.148310 0.084779 -1.436378 0.000000 0.000000
    15 0.957766 -2.746775 -0.090300 -1.319165 -0.034845 0.043237
    16 -0.033419 -1.397129 -0.011255 -0.771468 0.000000 -0.000001
    17 -0.022360 -0.957434 0.018783 -1.043321 0.000000 0.000000
    18 -1.180680 -2.507215 -0.193861 -1.145349 0.058091 -0.235658
    19 -0.024966 -1.123932 0.017594 -1.588813 0.000000 0.000001
    20 -0.020058 -0.890965 0.010091 -1.107962 0.000000 0.000000
    21 0.583510 -1.197275 0.185377 -0.045735 -1.064219 -0.151177
    22 1.535926 0.010246 0.005008 -0.002964 -0.536561 -1.046279
    23 1.100770 0.004526 -0.010676 -0.012408 0.010448 -0.694695
    24 0.120152 -0.050266 -0.054488 0.287568 3.110905 1.561085
    25 4.323679 7.660983 -0.153718 -1.570562 0.002683 -1.915870
    26 0.447952 -2.798983 -0.200442 -1.244815 0.066198 0.108168
    27 -0.032909 -1.480204 0.004936 -1.626151 0.000000 0.000002
    28 -0.027022 -1.076920 -0.020212 -1.394127 0.000000 0.000000
    29 -0.249534 -2.846960 -0.174215 -1.179791 -0.000125 -0.008396
    30 0.043235 -1.683941 0.096014 -1.550992 0.002823 -0.000167
    31 0.031729 -1.160830 0.058836 -1.436443 0.000642 0.008372
    32 -0.963867 -2.785143 -0.085346 -1.233894 0.022596 -0.054896
    33 0.028479 -1.403067 0.006271 -1.120488 0.000000 0.000000
    34 0.021414 -0.957779 0.020047 -1.043314 0.000000 0.000000
    35 1.164475 -2.543938 -0.170328 -1.197928 -0.095604 0.245486
    36 0.024033 -1.129042 0.017806 -1.588870 0.000000 0.000001
    37 0.014896 -0.883989 -0.019845 -1.107999 0.000000 0.000000
    38 -0.586770 -1.264477 0.200164 0.059268 -1.068467 -3.037418
    39 1.522835 0.058681 0.016850 0.001410 -0.514614 1.000317
    40 1.117948 0.048424 -0.005764 -0.016374 -0.019146 0.763687
    41 -0.139399 -0.111698 0.014397 0.285382 -0.030687 1.580508
    42 -4.256839 7.784457 -0.266779 1.580804 -0.005023 -1.217784
  time 12
    0 0.000000 0.000000 0.000000 0.000000 0.000000 -0.000015
    1 -17.240037 -9.330185 -8.730564 0.416993 -3.466832 -0.364129
    2 0.096944 -8.450419 -0.009364 -0.355597 -0.329366 -0.090233
    3 -2.352024 -2.549693 1.315027 -3.109552 0.287422 0.018741
    4 0.000000 0.000000 0.000000 0.000001 -3.141592 0.000000
    5 14.521200 -13.461162 -15.462847 0.193385 -2.702826 -0.795590
    6 -0.071918 -8.498729 -0.104137 -0.263248 0.263607 -0.017820
    7 2.218057 -2.362811 1.698656 0.142463 -3.429023 -0.018788
    8 -0.000001 0.000001 0.000000 -3.141591 0.000001 0.000000
    9 -0.488517 -2.755600 -0.228261 -1.296287 -0.061815 -0.012694
    10 0.039887 -1.479790 0.029853 -1.626191 0.000000 0.000000
    11 0.028785 -1.075733 -0.023111 -1.394121 0.000000 0.000000
    12 0.250028 -2.820663 -0.238396 -1.267131 -0.002921 0.008443
    13 -0.049759 -1.680546 0.100480 -1.550922 0.000000 -0.000002
    14 -0.034141 -1.148310 0.084779 -1.436378 0.000000 0.000000
    15 0.957766 -2.746775 -0.090300 -1.319165 -0.034845 0.043237
    16 -0.033419 -1.397129 -0.011255 -0.771436 0.000000 -0.000001
    17 -0.022360 -0.957434 0.018783 -1.043353 0.000000 0.000000
    18 -1.180680 -2.507215 -0.193861 -1.145349 0.058091 -0.235658
    19 -0.024966 -1.123932 0.017594 -1.588813 0.000000 0.000001
    20 -0.020058 -0.890965 0.010091 -1.107962 0.000000 0.000000
    21 0.583510 -1.197275 0.185377 -0.045735 -1.064219 -0.151177
    22 1.535926 0.010246 0.005008 -0.002964 -0.536561 -1.046279
    23 1.100770 0.004526 -0.010676 -0.012408 0.010448 -0.694695
    24 0.120152 -0.050266 -0.054488 0.287568 3.110905 1.561085
    25 4.323679 7.660983 -0.153718 -1.570562 0.002683 -1.915870
    26 0.447952 -2.798983 -0.200442 -1.244815 0.066198 0.108168
    27 -0.032909 -1.480204 0.004936 -1.626151 0.000000 0.000002
    28 -0.027022 -1.076920 -0.020212 -1.394127 0.000000 0.000000
    29 -0.249534 -2.846960 -0.174215 -1.179791 -0.000125 -0.008396
    30 0.043235 -1.683941 0.096014 -1.550992 0.002823 -0.000167
    31 0.031729 -1.160830 0.058836 -1.436443 0.000642 0.008372
    32 -0.963867 -2.785143 -0.085346 -1.233894 0.022596 -0.054896
    33 0.028479 -1.403067 0.006271 -1.120488 0.000000 0.000000
    34 0.021414 -0.957779 0.020047 -1.043314 0.000000 0.000000
    35 1.164475 -2.543938 -0.170328 -1.197928 -0.095604 0.245486
    36 0.024033 -1.129042 0.017806 -1.588870 0.000000 0.000001
    37 0.014896 -0.883989 -0.019845 -1.107999 0.000000 0.000000
    38 -0.586770 -1.264477 0.200164 0.059268 -1.068467 -3.037418
    39 1.522835 0.058681 0.016850 0.001410 -0.514614 1.000317
    40 1.117948 0.048424 -0.005764 -0.016374 -0.019146 0.763687
    41 -0.139399 -0.111698 0.014397 0.285382 -0.030687 1.580508
    42 -4.256839 7.784457 -0.266779 1.580804 -0.005023 -1.217784
  time 13
    0 0.000000 0.000000 0.000000 0.000000 0.000000 -0.000015
    1 -16.501733 -9.255964 -8.722751 0.408909 -3.544829 -0.246781
    2 0.096944 -8.450419 -0.009364 -0.355597 -0.329366 -0.090233
    3 -2.352024 -2.549693 1.315027 -3.109552 0.287422 0.018789
    4 0.000000 0.000000 0.000000 0.000001 -3.141592 0.000000
    5 14.185252 -13.316627 -15.154244 0.201325 -2.678498 -0.815626
    6 -0.071918 -8.498729 -0.104137 -0.228667 0.281206 0.066061
    7 2.218057 -2.362811 1.698656 0.142463 -3.429023 -0.018788
    8 -0.000001 0.000001 0.000000 -3.141591 0.000001 0.000000
    9 -0.488517 -2.755600 -0.228261 -1.296287 -0.061815 -0.012694
    10 0.039887 -1.479790 0.029853 -1.626191 0.000000 0.000000
    11 0.028785 -1.075733 -0.023111 -1.394121 0.000000 0.000000
    12 0.250028 -2.820663 -0.238396 -1.267131 -0.002921 0.008443
    13 -0.049759 -1.680546 0.100480 -1.550922 0.000000 -0.000002
    14 -0.034141 -1.148310 0.084779 -1.436378 0.000000 0.000000
    15 0.957766 -2.746775 -0.090300 -1.319165 -0.034845 0.043237
    16 -0.033419 -1.397129 -0.011255 -0.771468 0.000000 -0.000001
    17 -0.022360 -0.957434 0.018783 -1.043321 0.000000 0.000000
    18 -1.180680 -2.507215 -0.193861 -1.145349 0.058091 -0.235658
    19 -0.024966 -1.123932 0.017594 -1.588813 0.000000 0.000001
    20 -0.020058 -0.890965 0.010091 -1.107962 0.000000 0.000000
    21 0.583510 -1.197275 0.185377 -0.045735 -1.064219 -0.151177
    22 1.535926 0.010246 0.005008 -0.002964 -0.536561 -1.046279
    23 1.100770 0.004526 -0.010676 -0.012408 0.010448 -0.694695
    24 0.120152 -0.050266 -0.054488 0.287568 3.110905 1.561085
    25 4.323679 7.660983 -0.153718 -1.570562 0.002683 -1.915870
    26 0.447952 -2.798983 -0.200442 -1.244815 0.066198 0.108168
    27 -0.032909 -1.480204 0.004936 -1.626151 0.000000 0.000002
    28 -0.027022 -1.076920 -0.020212 -1.394127 0.000000 0.000000
    29 -0.249534 -2.846960 -0.174215 -1.179791 -0.000125 -0.008396
    30 0.043235 -1.683941 0.096014 -1.550992 0.002823 -0.000167
    31 0.031729 -1.160830 0.058836 -1.436443 0.000642 0.008372
    32 -0.963867 -2.785143 -0.085346 -1.233894 0.022596 -0.054896
    33 0.028479 -1.403067 0.006271 -1.120488 0.000000 0.000000
    34 0.021414 -0.957779 0.020047 -1.043314 0.000000 0.000000
    35 1.164475 -2.543938 -0.170328 -1.197928 -0.095604 0.245486
    36 0.024033 -1.129042 0.017806 -1.588870 0.000000 0.000001
    37 0.014896 -0.883989 -0.019845 -1.107999 0.000000 0.000000
    38 -0.586770 -1.264477 0.200164 0.059268 -1.068467 -3.037418
    39 1.522835 0.058681 0.016850 0.001410 -0.514614 1.000317
    40 1.117948 0.048424 -0.005764 -0.016374 -0.019146 0.763687
    41 -0.139399 -0.111698 0.014397 0.285382 -0.030687 1.580508
    42 -4.256839 7.784457 -0.266779 1.580804 -0.005023 -1.217784
  time 14
    0 0.000000 0.000000 0.000000 0.000000 0.000000 -0.000015
    1 -15.575923 -9.158305 -8.711032 0.402234 -3.617982 -0.100001
    2 0.096944 -8.450419 -0.009364 -0.355597 -0.329366 -0.090233
    3 -2.352024 -2.549693 1.315027 -3.109552 0.287422 0.018789
    4 0.000000 0.000000 0.000000 0.000001 -3.141592 0.000000
    5 13.743832 -13.125214 -14.747982 0.210987 -2.653598 -0.842151
    6 -0.071918 -8.498729 -0.104137 -0.182401 0.280210 0.101085
    7 2.218057 -2.362811 1.698656 0.142463 -3.429023 -0.018788
    8 -0.000001 0.000001 0.000000 -3.141591 0.000001 0.000000
    9 -0.488517 -2.755600 -0.228261 -1.296287 -0.061815 -0.012694
    10 0.039887 -1.479790 0.029853 -1.626191 0.000000 0.000000
    11 0.028785 -1.075733 -0.023111 -1.394121 0.000000 0.000000
    12 0.250028 -2.820663 -0.238396 -1.267131 -0.002921 0.008443
    13 -0.049759 -1.680546 0.100480 -1.550922 0.000000 -0.000002
    14 -0.034141 -1.148310 0.084779 -1.436378 0.000000 0.000000
    15 0.957766 -2.746775 -0.090300 -1.319165 -0.034845 0.043237
    16 -0.033419 -1.397129 -0.011255 -0.771468 0.000000 -0.000001
    17 -0.022360 -0.957434 0.018783 -1.043321 0.000000 0.000000
    18 -1.180680 -2.507215 -0.193861 -1.145349 0.058091 -0.235658
    19 -0.024966 -1.123932 0.017594 -1.588813 0.000000 0.000001
    20 -0.020058 -0.890965 0.010091 -1.107962 0.000000 0.000000
    21 0.583510 -1.197275 0.185377 -0.045735 -1.064219 -0.151177
    22 1.535926 0.010246 0.005008 -0.002964 -0.536561 -1.046279
    23 1.100770 0.004526 -0.010676 -0.012408 0.010448 -0.694695
    24 0.120152 -0.050266 -0.054488 0.287568 3.110905 1.561085
    25 4.323679 7.660983 -0.153718 -1.570562 0.002683 -1.915870
    26 0.447952 -2.798983 -0.200442 -1.244815 0.066198 0.108168
    27 -0.032909 -1.480204 0.004936 -1.626151 0.000000 0.000002
    28 -0.027022 -1.076920 -0.020212 -1.394127 0.000000 0.000000
    29 -0.249534 -2.846960 -0.174215 -1.179791 -0.000125 -0.008396
    30 0.043235 -1.683941 0.096014 -1.550992 0.002823 -0.000167
    31 0.031729 -1.160830 0.058836 -1.436443 0.000642 0.008372
    32 -0.963867 -2.785143 -0.085346 -1.233894 0.022596 -0.054896
    33 0.028479 -1.403067 0.006271 -1.120488 0.000000 0.000000
    34 0.021414 -0.957779 0.020047 -1.043314 0.000000 0.000000
    35 1.164475 -2.543938 -0.170328 -1.197928 -0.095604 0.245486
    36 0.024033 -1.129042 0.017806 -1.588870 0.000000 0.000001
    37 0.014896 -0.883989 -0.019845 -1.107999 0.000000 0.000000
    38 -0.586770 -1.264477 0.200164 0.059268 -1.068467 -3.037418
    39 1.522835 0.058681 0.016850 0.001410 -0.514614 1.000317
    40 1.117948 0.048424 -0.005764 -0.016374 -0.019146 0.763687
    41 -0.139399 -0.111698 0.014397 0.285382 -0.030687 1.580508
    42 -4.256839 7.784457 -0.266779 1.580804 -0.005023 -1.217784
  time 15
    0 0.000000 0.000000 0.000000 0.000000 0.000000 -0.000015
    1 -14.529016 -9.045020 -8.695407 0.396876 -3.684579 0.066178
    2 0.096944 -8.450419 -0.009364 -0.355597 -0.329366 -0.090233
    3 -2.352024 -2.549693 1.315027 -3.109552 0.287422 0.018741
    4 0.000000 0.000000 0.000000 0.000001 -3.141592 0.000000
    5 13.208660 -12.894739 -14.259686 0.221510 -2.628029 -0.874114
    6 -0.071918 -8.498729 -0.104137 -0.126896 0.277530 0.132845
    7 2.218057 -2.362811 1.698656 0.142463 -3.429023 -0.018788
    8 -0.000001 0.000001 0.000000 -3.141591 0.000001 0.000000
    9 -0.488517 -2.755600 -0.228261 -1.296287 -0.061815 -0.012694
    10 0.039887 -1.479790 0.029853 -1.626191 0.000000 0.000000
    11 0.028785 -1.075733 -0.023111 -1.394121 0.000000 0.000000
    12 0.250028 -2.820663 -0.238396 -1.267131 -0.002921 0.008443
    13 -0.049759 -1.680546 0.100480 -1.550922 0.000000 -0.000002
    14 -0.034141 -1.148310 0.084779 -1.436378 0.000000 0.000000
    15 0.957766 -2.746775 -0.090300 -1.319165 -0.034845 0.043237
    16 -0.033419 -1.397129 -0.011255 -0.771468 0.000000 -0.000001
    17 -0.022360 -0.957434 0.018783 -1.043353 0.000000 0.000000
    18 -1.180680 -2.507215 -0.193861 -1.145349 0.058091 -0.235658
    19 -0.024966 -1.123932 0.017594 -1.588813 0.000000 0.000001
    20 -0.020058 -0.890965 0.010091 -1.107962 0.000000 0.000000
    21 0.583510 -1.197275 0.185377 -0.045735 -1.064219 -0.151177
    22 1.535926 0.010246 0.005008 -0.002964 -0.536561 -1.046279
    23 1.100770 0.004526 -0.010676 -0.012408 0.010448 -0.694695
    24 0.120152 -0.050266 -0.054488 0.287568 3.110905 1.561085
    25 4.323679 7.660983 -0.153718 -1.570562 0.002683 -1.915870
    26 0.447952 -2.798983 -0.200442 -1.244815 0.066198 0.108168
    27 -0.032909 -1.480204 0.004936 -1.626151 0.000000 0.000002
    28 -0.027022 -1.076920 -0.020212 -1.394127 0.000000 0.000000
    29 -0.249534 -2.846960 -0.174215 -1.179791 -0.000125 -0.008396
    30 0.043235 -1.683941 0.096014 -1.550992 0.002823 -0.000167
    31 0.031729 -1.160830 0.058836 -1.436443 0.000642 0.008372
    32 -0.963867 -2.785143 -0.085346 -1.233894 0.022596 -0.054896
    33 0.028479 -1.403067 0.006271 -1.120488 0.000000 0.000000
    34 0.021414 -0.957779 0.020047 -1.043314 0.000000 0.000000
    35 1.164475 -2.543938 -0.170328 -1.197928 -0.095604 0.245486
    36 0.024033 -1.129042 0.017806 -1.588870 0.000000 0.000001
    37 0.014896 -0.883989 -0.019845 -1.107999 0.000000 0.000000
    38 -0.586770 -1.264477 0.200164 0.059268 -1.068467 -3.037418
    39 1.522835 0.058681 0.016850 0.001410 -0.514614 1.000317
    40 1.117948 0.048424 -0.005764 -0.016374 -0.019146 0.763687
    41 -0.139399 -0.111698 0.014397 0.285382 -0.030687 1.580508
    42 -4.256839 7.784457 -0.266779 1.580804 -0.005023 -1.217784
  time 16
    0 0.000000 0.000000 0.000000 0.000000 0.000000 -0.000015
    1 -13.423514 -8.923923 -8.671969 0.392834 -3.742911 0.241721
    2 0.096944 -8.450419 -0.009364 -0.301778 -0.326460 -0.160241
    3 -2.352024 -2.549693 1.315027 -3.109552 0.287422 0.018741
    4 0.000000 0.000000 0.000000 0.000001 -3.141592 0.000000
    5 12.595360 -12.629106 -13.697168 0.231938 -2.602080 -0.910657
    6 -0.071918 -8.498729 -0.104137 -0.066060 0.273656 0.161115
    7 2.218057 -2.362811 1.698656 0.142463 -3.429023 -0.018788
    8 -0.000001 0.000001 0.000000 -3.141591 0.000001 0.000000
    9 -0.488517 -2.755600 -0.228261 -1.281818 -0.061815 -0.012694
    10 0.039887 -1.479790 0.029853 -1.611666 0.000000 0.000000
    11 0.028785 -1.075733 -0.023111 -1.379634 0.000000 0.000000
    12 0.250028 -2.820663 -0.238396 -1.247797 -0.002921 0.008443
    13 -0.049759 -1.680546 0.100480 -1.531604 0.000000 -0.000002
    14 -0.034141 -1.148310 0.084779 -1.417033 0.000000 0.000000
    15 0.957766 -2.746775 -0.090300 -1.299855 -0.034845 0.043237
    16 -0.033419 -1.397129 -0.011255 -0.752101 0.000000 -0.000001
    17 -0.022360 -0.957434 0.018783 -1.023986 0.000000 0.000000
    18 -1.180680 -2.507215 -0.193861 -1.135678 0.058091 -0.235658
    19 -0.024966 -1.123932 0.017594 -1.579178 0.000000 0.000001
    20 -0.020058 -0.890965 0.010091 -1.098311 0.000000 0.000000
    21 0.583510 -1.197275 0.185377 -0.045735 -1.064219 -0.151177
    22 1.535926 0.010246 0.005008 -0.002964 -0.536561 -1.046279
    23 1.100770 0.004526 -0.010676 -0.012408 0.010448 -0.694695
    24 0.120152 -0.050266 -0.054488 0.287568 3.110905 1.561085
    25 4.323679 7.660983 -0.153718 -1.570562 0.002683 -1.915870
    26 0.447952 -2.798983 -0.200442 -1.244815 0.066198 0.108168
    27 -0.032909 -1.480204 0.004936 -1.626151 0.000000 0.000002
    28 -0.027022 -1.076920 -0.020212 -1.394127 0.000000 0.000000
    29 -0.249534 -2.846960 -0.174215 -1.179791 -0.000125 -0.008396
    30 0.043235 -1.683941 0.096014 -1.550992 0.002823 -0.000167
    31 0.031729 -1.160830 0.058836 -1.436443 0.000642 0.008372
    32 -0.963867 -2.785143 -0.085346 -1.233894 0.022596 -0.054896
    33 0.028479 -1.403067 0.006271 -1.120488 0.000000 0.000000
    34 0.021414 -0.957779 0.020047 -1.043314 0.000000 0.000000
    35 1.164475 -2.543938 -0.170328 -1.197928 -0.095604 0.245486
    36 0.024033 -1.129042 0.017806 -1.588870 0.000000 0.000001
    37 0.014896 -0.883989 -0.019845 -1.107999 0.000000 0.000000
    38 -0.586770 -1.264477 0.200164 0.059268 -1.068467 -3.037418
    39 1.522835 0.058681 0.016850 0.001410 -0.514614 1.000317
    40 1.117948 0.048424 -0.005764 -0.016374 -0.019146 0.763687
    41 -0.139399 -0.111698 0.014397 0.285382 -0.030687 1.580508
    42 -4.256839 7.784457 -0.266779 1.580804 -0.005023 -1.217784
  time 17
    0 0.000000 0.000000 0.000000 0.000000 0.000000 -0.000015
    1 -12.325824 -8.802825 -8.640718 0.389920 -3.791268 0.416405
    2 0.096944 -8.450419 -0.009364 -0.170932 -0.319513 -0.327213
    3 -2.352024 -2.549693 1.315027 -3.109552 0.287422 0.018789
    4 0.000000 0.000000 0.000000 0.000001 -3.141592 0.000000
    5 11.923464 -12.336128 -13.079962 0.241600 -2.575748 -0.950921
    6 -0.071918 -8.498729 -0.104137 -0.003836 0.269057 0.185644
    7 2.218057 -2.362811 1.698656 0.142463 -3.429023 -0.018788
    8 -0.000001 0.000001 0.000000 -3.141591 0.000001 0.000000
    9 -0.488517 -2.755600 -0.228261 -1.244402 -0.061815 -0.012694
    10 0.039887 -1.479790 0.029853 -1.574275 0.000000 0.000000
    11 0.028785 -1.075733 -0.023111 -1.342222 0.000000 0.000000
    12 0.250028 -2.820663 -0.238396 -1.197942 -0.002921 0.008443
    13 -0.049759 -1.680546 0.100480 -1.481749 0.000000 -0.000002
    14 -0.034141 -1.148310 0.084779 -1.367136 0.000000 0.000000
    15 0.957766 -2.746775 -0.090300 -1.249989 -0.034845 0.043237
    16 -0.033419 -1.397129 -0.011255 -0.702247 0.000000 -0.000001
    17 -0.022360 -0.957434 0.018783 -0.974132 0.000000 0.000000
    18 -1.180680 -2.507215 -0.193861 -1.110712 0.058091 -0.235658
    19 -0.024966 -1.123932 0.017594 -1.554251 0.000000 0.000001
    20 -0.020058 -0.890965 0.010091 -1.073384 0.000000 0.000000
    21 0.583510 -1.197275 0.185377 -0.045735 -1.064219 -0.151177
    22 1.535926 0.010246 0.005008 -0.002964 -0.536561 -1.046279
    23 1.100770 0.004526 -0.010676 -0.012408 0.010448 -0.694695
    24 0.120152 -0.050266 -0.054488 0.287568 3.110905 1.561085
    25 4.323679 7.660983 -0.153718 -1.570562 0.002683 -1.915870
    26 0.447952 -2.798983 -0.200442 -1.244815 0.066198 0.108168
    27 -0.032909 -1.480204 0.004936 -1.626151 0.000000 0.000002
    28 -0.027022 -1.076920 -0.020212 -1.394127 0.000000 0.000000
    29 -0.249534 -2.846960 -0.174215 -1.179791 -0.000125 -0.008396
    30 0.043235 -1.683941 0.096014 -1.550992 0.002823 -0.000167
    31 0.031729 -1.160830 0.058836 -1.436443 0.000642 0.008372
    32 -0.963867 -2.785143 -0.085346 -1.233894 0.022596 -0.054896
    33 0.028479 -1.403067 0.006271 -1.120488 0.000000 0.000000
    34 0.021414 -0.957779 0.020047 -1.043314 0.000000 0.000000
    35 1.164475 -2.543938 -0.170328 -1.197928 -0.095604 0.245486
    36 0.024033 -1.129042 0.017806 -1.588870 0.000000 0.000001
    37 0.014896 -0.883989 -0.019845 -1.107999 0.000000 0.000000
    38 -0.586770 -1.264477 0.200164 0.059268 -1.068467 -3.037418
    39 1.522835 0.058681 0.016850 0.001410 -0.514614 1.000317
    40 1.117948 0.048424 -0.005764 -0.016374 -0.019146 0.763687
    41 -0.139399 -0.111698 0.014397 0.285382 -0.030687 1.580508
    42 -4.256839 7.784457 -0.266779 1.580804 -0.005023 -1.217784
  time 18
    0 0.000000 0.000000 0.000000 0.000000 0.000000 -0.000015
    1 -11.294543 -8.677822 -8.601654 0.387946 -3.827939 0.580386
    2 0.096944 -8.450419 -0.009364 -0.009109 -0.311246 -0.526515
    3 -2.352024 -2.549693 1.315027 -3.109552 0.287422 0.018789
    4 0.000000 0.000000 0.000000 0.000001 -3.141592 0.000000
    5 11.204692 -12.027525 -12.423692 0.249540 -2.549130 -0.993856
    6 -0.071918 -8.498729 -0.104137 0.055868 0.264204 0.206206
    7 2.218057 -2.362811 1.698656 0.142506 -3.429023 -0.018788
    8 -0.000001 0.000001 0.000000 -3.141591 0.000001 0.000000
    9 -0.488517 -2.755600 -0.228261 -1.193287 -0.061815 -0.012694
    10 0.039887 -1.479790 0.029853 -1.523127 0.000000 0.000000
    11 0.028785 -1.075733 -0.023111 -1.291089 0.000000 0.000000
    12 0.250028 -2.820663 -0.238396 -1.129752 -0.002921 0.008443
    13 -0.049759 -1.680546 0.100480 -1.413583 0.000000 -0.000002
    14 -0.034141 -1.148310 0.084779 -1.298959 0.000000 0.000000
    15 0.957766 -2.746775 -0.090300 -1.181807 -0.034845 0.043237
    16 -0.033419 -1.397129 -0.011255 -0.634048 0.000000 -0.000001
    17 -0.022360 -0.957434 0.018783 -0.905934 0.000000 0.000000
    18 -1.180680 -2.507215 -0.193861 -1.076637 0.058091 -0.235658
    19 -0.024966 -1.123932 0.017594 -1.520120 0.000000 0.000001
    20 -0.020058 -0.890965 0.010091 -1.039284 0.000000 0.000000
    21 0.583510 -1.197275 0.185377 -0.045735 -1.064219 -0.151177
    22 1.535926 0.010246 0.005008 -0.002964 -0.536561 -1.046279
    23 1.100770 0.004526 -0.010676 -0.012408 0.010448 -0.694695
    24 0.120152 -0.050266 -0.054488 0.287568 3.110905 1.561085
    25 4.323679 7.660983 -0.153718 -1.570562 0.002683 -1.915870
    26 0.447952 -2.798983 -0.200442 -1.244815 0.066198 0.108168
    27 -0.032909 -1.480204 0.004936 -1.626151 0.000000 0.000002
    28 -0.027022 -1.076920 -0.020212 -1.394127 0.000000 0.000000
    29 -0.249534 -2.846960 -0.174215 -1.179791 -0.000125 -0.008396
    30 0.043235 -1.683941 0.096014 -1.550992 0.002823 -0.000167
    31 0.031729 -1.160830 0.058836 -1.436443 0.000642 0.008372
    32 -0.963867 -2.785143 -0.085346 -1.233894 0.022596 -0.054896
    33 0.028479 -1.403067 0.006271 -1.120488 0.000000 0.000000
    34 0.021414 -0.957779 0.020047 -1.043314 0.000000 0.000000
    35 1.164475 -2.543938 -0.170328 -1.197928 -0.095604 0.245486
    36 0.024033 -1.129042 0.017806 -1.588870 0.000000 0.000001
    37 0.014896 -0.883989 -0.019845 -1.107999 0.000000 0.000000
    38 -0.586770 -1.264477 0.200164 0.059268 -1.068467 -3.037418
    39 1.522835 0.058681 0.016850 0.001410 -0.514614 1.000317
    40 1.117948 0.048424 -0.005764 -0.016374 -0.019146 0.763687
    41 -0.139399 -0.111698 0.014397 0.285382 -0.030687 1.580508
    42 -4.256839 7.784457 -0.266779 1.580804 -0.005023 -1.217784
  time 19
    0 0.000000 0.000000 0.000000 0.000000 0.000000 -0.000015
    1 -10.392172 -8.564537 -8.554778 0.386818 -3.851215 0.723344
    2 0.096944 -8.450419 -0.009364 0.137773 -0.304299 -0.693487
    3 -2.352024 -2.549693 1.315027 -3.109552 0.287422 0.018741
    4 0.000000 0.000000 0.000000 0.000001 -3.141592 0.000000
    5 10.454670 -11.703296 -11.736171 0.254993 -2.522322 -1.038509
    6 -0.071918 -8.498729 -0.104137 0.109109 0.259605 0.222601
    7 2.218057 -2.362811 1.698656 0.142463 -3.429023 -0.018788
    8 -0.000001 0.000001 0.000000 -3.141591 0.000001 0.000000
    9 -0.488517 -2.755600 -0.228261 -1.137549 -0.061815 -0.012694
    10 0.039887 -1.479790 0.029853 -1.467424 0.000000 0.000000
    11 0.028785 -1.075733 -0.023111 -1.235397 0.000000 0.000000
    12 0.250028 -2.820663 -0.238396 -1.055490 -0.002921 0.008443
    13 -0.049759 -1.680546 0.100480 -1.339281 0.000000 -0.000002
    14 -0.034141 -1.148310 0.084779 -1.224689 0.000000 0.000000
    15 0.957766 -2.746775 -0.090300 -1.107506 -0.034845 0.043237
    16 -0.033419 -1.397129 -0.011255 -0.559778 0.000000 -0.000001
    17 -0.022360 -0.957434 0.018783 -0.831664 0.000000 0.000000
    18 -1.180680 -2.507215 -0.193861 -1.039488 0.058091 -0.235658
    19 -0.024966 -1.123932 0.017594 -1.483016 0.000000 0.000001
    20 -0.020058 -0.890965 0.010091 -1.002149 0.000000 0.000000
    21 0.583510 -1.197275 0.185377 -0.045735 -1.064219 -0.151177
    22 1.535926 0.010246 0.005008 -0.002964 -0.536561 -1.046279
    23 1.100770 0.004526 -0.010676 -0.012408 0.010448 -0.694695
    24 0.120152 -0.050266 -0.054488 0.287568 3.110905 1.561085
    25 4.323679 7.660983 -0.153718 -1.570562 0.002683 -1.915870
    26 0.447952 -2.798983 -0.200442 -1.244815 0.066198 0.108168
    27 -0.032909 -1.480204 0.004936 -1.626151 0.000000 0.000002
    28 -0.027022 -1.076920 -0.020212 -1.394127 0.000000 0.000000
    29 -0.249534 -2.846960 -0.174215 -1.179791 -0.000125 -0.008396
    30 0.043235 -1.683941 0.096014 -1.550992 0.002823 -0.000167
    31 0.031729 -1.160830 0.058836 -1.436443 0.000642 0.008372
    32 -0.963867 -2.785143 -0.085346 -1.233894 0.022596 -0.054896
    33 0.028479 -1.403067 0.006271 -1.120488 0.000000 0.000000
    34 0.021414 -0.957779 0.020047 -1.043314 0.000000 0.000000
    35 1.164475 -2.543938 -0.170328 -1.197928 -0.095604 0.245486
    36 0.024033 -1.129042 0.017806 -1.588870 0.000000 0.000001
    37 0.014896 -0.883989 -0.019845 -1.107999 0.000000 0.000000
    38 -0.586770 -1.264477 0.200164 0.059268 -1.068467 -3.037418
    39 1.522835 0.058681 0.016850 0.001410 -0.514614 1.000317
    40 1.117948 0.048424 -0.005764 -0.016374 -0.019146 0.763687
    41 -0.139399 -0.111698 0.014397 0.285382 -0.030687 1.580508
    42 -4.256839 7.784457 -0.266779 1.580804 -0.005023 -1.217784
  time 20
    0 0.000000 0.000000 0.000000 0.000000 0.000000 -0.000015
    1 -9.501519 -8.451252 -8.414148 0.386536 -3.859290 0.835340
    2 0.096944 -8.450419 -0.009364 0.223713 -0.301394 -0.763495
    3 -2.352024 -2.549693 1.315027 -3.109552 0.287422 0.018789
    4 0.000000 0.000000 0.000000 0.000001 -3.141592 0.000000
    5 9.689021 -11.371255 -11.033025 0.256906 -2.495513 -1.084116
    6 -0.071918 -8.498729 -0.104137 0.152016 0.255731 0.234602
    7 2.218057 -2.362811 1.698656 0.142463 -3.429023 -0.018788
    8 -0.000001 0.000001 0.000000 -3.141591 0.000001 0.000000
    9 -0.488517 -2.755600 -0.228261 -1.086392 -0.061815 -0.012694
    10 0.039887 -1.479790 0.029853 -1.416275 0.000000 0.000000
    11 0.028785 -1.075733 -0.023111 -1.184264 0.000000 0.000000
    12 0.250028 -2.820663 -0.238396 -0.987299 -0.002921 0.008443
    13 -0.049759 -1.680546 0.100480 -1.271067 0.000000 -0.000002
    14 -0.034141 -1.148310 0.084779 -1.156512 0.000000 0.000000
    15 0.957766 -2.746775 -0.090300 -1.039323 -0.034845 0.043237
    16 -0.033419 -1.397129 -0.011255 -0.491580 0.000000 -0.000001
    17 -0.022360 -0.957434 0.018783 -0.763465 0.000000 0.000000
    18 -1.180680 -2.507215 -0.193861 -1.005413 0.058091 -0.235658
    19 -0.024966 -1.123932 0.017594 -1.448885 0.000000 0.000001
    20 -0.020058 -0.890965 0.010091 -0.968050 0.000000 0.000000
    21 0.583510 -1.197275 0.185377 -0.045735 -1.064219 -0.151177
    22 1.535926 0.010246 0.005008 -0.002964 -0.536561 -1.046279
    23 1.100770 0.004526 -0.010676 -0.012408 0.010448 -0.694695
    24 0.120152 -0.050266 -0.054488 0.287568 3.110905 1.561085
    25 4.323679 7.660983 -0.153718 -1.570562 0.002683 -1.915870
    26 0.447952 -2.798983 -0.200442 -1.244815 0.066198 0.108168
    27 -0.032909 -1.480204 0.004936 -1.626151 0.000000 0.000002
    28 -0.027022 -1.076920 -0.020212 -1.394127 0.000000 0.000000
    29 -0.249534 -2.846960 -0.174215 -1.179791 -0.000125 -0.008396
    30 0.043235 -1.683941 0.096014 -1.550992 0.002823 -0.000167
    31 0.031729 -1.160830 0.058836 -1.436443 0.000642 0.008372
    32 -0.963867 -2.785143 -0.085346 -1.233894 0.022596 -0.054896
    33 0.028479 -1.403067 0.006271 -1.120488 0.000000 0.000000
    34 0.021414 -0.957779 0.020047 -1.043314 0.000000 0.000000
    35 1.164475 -2.543938 -0.170328 -1.197928 -0.095604 0.245486
    36 0.024033 -1.129042 0.017806 -1.588870 0.000000 0.000001
    37 0.014896 -0.883989 -0.019845 -1.107999 0.000000 0.000000
    38 -0.586770 -1.264477 0.200164 0.059268 -1.068467 -3.037418
    39 1.522835 0.058681 0.016850 0.001410 -0.514614 1.000317
    40 1.117948 0.048424 -0.005764 -0.016374 -0.019146 0.763687
    41 -0.139399 -0.111698 0.014397 0.285382 -0.030687 1.580508
    42 -4.256839 7.784457 -0.266779 1.580804 -0.005023 -1.217784
  time 21
    0 0.000000 0.000000 0.000000 0.000000 0.000000 -0.000015
    1 -8.501489 -8.322342 -8.140702 0.391330 -3.830599 0.926409
    2 0.096944 -8.450419 -0.009364 0.256738 -0.313174 -0.680032
    3 -2.352024 -2.549693 1.315027 -3.109552 0.287422 0.018789
    4 0.000000 0.000000 0.000000 0.000001 -3.141592 0.000000
    5 8.931186 -11.039213 -10.333785 0.245139 -2.462790 -1.137738
    6 -0.071918 -8.498729 -0.104137 0.180608 0.253051 0.241958
    7 2.218057 -2.362811 1.698656 0.142463 -3.429023 -0.018788
    8 -0.000001 0.000001 0.000000 -3.141591 0.000001 0.000000
    9 -0.488517 -2.755600 -0.228261 -1.049019 -0.061815 -0.012694
    10 0.039887 -1.479790 0.029853 -1.378885 0.000000 0.000000
    11 0.028785 -1.075733 -0.023111 -1.146852 0.000000 0.000000
    12 0.250028 -2.820663 -0.238396 -0.937405 -0.002921 0.008443
    13 -0.049759 -1.680546 0.100480 -1.221212 0.000000 -0.000002
    14 -0.034141 -1.148310 0.084779 -1.106615 0.000000 0.000000
    15 0.957766 -2.746775 -0.090300 -0.989458 -0.034845 0.043237
    16 -0.033419 -1.397129 -0.011255 -0.441725 0.000000 -0.000001
    17 -0.022360 -0.957434 0.018783 -0.713611 0.000000 0.000000
    18 -1.180680 -2.507215 -0.193861 -0.980447 0.058091 -0.235658
    19 -0.024966 -1.123932 0.017594 -1.423958 0.000000 0.000001
    20 -0.020058 -0.890965 0.010091 -0.943123 0.000000 0.000000
    21 0.583510 -1.197275 0.185377 -0.045735 -1.064219 -0.151177
    22 1.535926 0.010246 0.005008 -0.002964 -0.536561 -1.046279
    23 1.100770 0.004526 -0.010676 -0.012408 0.010448 -0.694695
    24 0.120152 -0.050266 -0.054488 0.287568 3.110905 1.561085
    25 4.323679 7.660983 -0.153718 -1.570562 0.002683 -1.915870
    26 0.447952 -2.798983 -0.200442 -1.244815 0.066198 0.108168
    27 -0.032909 -1.480204 0.004936 -1.626151 0.000000 0.000002
    28 -0.027022 -1.076920 -0.020212 -1.394127 0.000000 0.000000
    29 -0.249534 -2.846960 -0.174215 -1.179791 -0.000125 -0.008396
    30 0.043235 -1.683941 0.096014 -1.550992 0.002823 -0.000167
    31 0.031729 -1.160830 0.058836 -1.436443 0.000642 0.008372
    32 -0.963867 -2.785143 -0.085346 -1.233894 0.022596 -0.054896
    33 0.028479 -1.403067 0.006271 -1.120488 0.000000 0.000000
    34 0.021414 -0.957779 0.020047 -1.043314 0.000000 0.000000
    35 1.164475 -2.543938 -0.170328 -1.197928 -0.095604 0.245486
    36 0.024033 -1.129042 0.017806 -1.588870 0.000000 0.000001
    37 0.014896 -0.883989 -0.019845 -1.107999 0.000000 0.000000
    38 -0.586770 -1.264477 0.200164 0.059268 -1.068467 -3.037418
    39 1.522835 0.058681 0.016850 0.001410 -0.514614 1.000317
    40 1.117948 0.048424 -0.005764 -0.016374 -0.019146 0.763687
    41 -0.139399 -0.111698 0.014397 0.285382 -0.030687 1.580508
    42 -4.256839 7.784457 -0.266779 1.580804 -0.005023 -1.217784
  time 22
    0 0.000000 0.000000 0.000000 0.000000 0.000000 -0.000015
    1 -7.454582 -8.189525 -7.777410 0.404302 -3.752506 1.012508
    2 0.096944 -8.450419 -0.009364 0.277469 -0.341305 -0.480939
    3 -2.352024 -2.549693 1.315027 -3.109552 0.287422 0.018789
    4 0.000000 0.000000 0.000000 0.000001 -3.141592 0.000000
    5 8.181163 -10.714985 -9.646264 0.217109 -2.423770 -1.205290
    6 -0.071918 -8.498729 -0.104137 0.191015 0.252037 0.244444
    7 2.218057 -2.362811 1.698656 0.142463 -3.429023 -0.018788
    8 -0.000001 0.000001 0.000000 -3.141591 0.000001 0.000000
    9 -0.488517 -2.755600 -0.228261 -1.034507 -0.061815 -0.012694
    10 0.039887 -1.479790 0.029853 -1.364360 0.000000 0.000000
    11 0.028785 -1.075733 -0.023111 -1.132365 0.000000 0.000000
    12 0.250028 -2.820663 -0.238396 -0.918071 -0.002921 0.008443
    13 -0.049759 -1.680546 0.100480 -1.201894 0.000000 -0.000002
    14 -0.034141 -1.148310 0.084779 -1.087270 0.000000 0.000000
    15 0.957766 -2.746775 -0.090300 -0.970107 -0.034845 0.043237
    16 -0.033419 -1.397129 -0.011255 -0.422391 0.000000 -0.000001
    17 -0.022360 -0.957434 0.018783 -0.694276 0.000000 0.000000
    18 -1.180680 -2.507215 -0.193861 -0.970813 0.058091 -0.235658
    19 -0.024966 -1.123932 0.017594 -1.414323 0.000000 0.000001
    20 -0.020058 -0.890965 0.010091 -0.933440 0.000000 0.000000
    21 0.583510 -1.197275 0.185377 -0.045735 -1.064219 -0.151177
    22 1.535926 0.010246 0.005008 -0.002964 -0.536561 -1.046279
    23 1.100770 0.004526 -0.010676 -0.012408 0.010448 -0.694695
    24 0.120152 -0.050266 -0.054488 0.287568 3.110905 1.561085
    25 4.323679 7.660983 -0.153718 -1.570562 0.002683 -1.915870
    26 0.447952 -2.798983 -0.200442 -1.244815 0.066198 0.108168
    27 -0.032909 -1.480204 0.004936 -1.626151 0.000000 0.000002
    28 -0.027022 -1.076920 -0.020212 -1.394127 0.000000 0.000000
    29 -0.249534 -2.846960 -0.174215 -1.179791 -0.000125 -0.008396
    30 0.043235 -1.683941 0.096014 -1.550992 0.002823 -0.000167
    31 0.031729 -1.160830 0.058836 -1.436443 0.000642 0.008372
    32 -0.963867 -2.785143 -0.085346 -1.233894 0.022596 -0.054896
    33 0.028479 -1.403067 0.006271 -1.120488 0.000000 0.000000
    34 0.021414 -0.957779 0.020047 -1.043314 0.000000 0.000000
    35 1.164475 -2.543938 -0.170328 -1.197928 -0.095604 0.245486
    36 0.024033 -1.129042 0.017806 -1.588870 0.000000 0.000001
    37 0.014896 -0.883989 -0.019845 -1.107999 0.000000 0.000000
    38 -0.586770 -1.264477 0.200164 0.059268 -1.068467 -3.037418
    39 1.522835 0.058681 0.016850 0.001410 -0.514614 1.000317
    40 1.117948 0.048424 -0.005764 -0.016374 -0.019146 0.763687
    41 -0.139399 -0.111698 0.014397 0.285382 -0.030687 1.580508
    42 -4.256839 7.784457 -0.266779 1.580804 -0.005023 -1.217784
  time 23
    0 0.000000 0.000000 0.000000 0.000000 0.000000 -0.000015
    1 -6.435019 -8.056709 -7.371148 0.423573 -3.637362 1.092588
    2 0.096944 -8.450419 -0.009364 0.288747 -0.374877 -0.243334
    3 -2.352024 -2.549693 1.315027 -3.109552 0.287422 0.018789
    4 0.000000 0.000000 0.000000 0.000001 -3.141592 0.000000
    5 7.462391 -10.402475 -8.986087 0.183627 -2.386085 -1.284005
    6 -0.071918 -8.498729 -0.104137 0.174547 0.253286 0.236786
    7 2.218057 -2.362811 1.698656 0.142463 -3.429023 -0.018788
    8 -0.000001 0.000001 0.000000 -3.141591 0.000001 0.000000
    9 -0.488517 -2.755600 -0.228261 -1.045766 -0.061815 -0.012694
    10 0.039887 -1.479790 0.029853 -1.375625 0.000000 0.000000
    11 0.028785 -1.075733 -0.023111 -1.143614 0.000000 0.000000
    12 0.250028 -2.820663 -0.238396 -0.933091 -0.002921 0.008443
    13 -0.049759 -1.680546 0.100480 -1.216898 0.000000 -0.000002
    14 -0.034141 -1.148310 0.084779 -1.102269 0.000000 0.000000
    15 0.957766 -2.746775 -0.090300 -0.985127 -0.034845 0.043237
    16 -0.033419 -1.397129 -0.011255 -0.437379 0.000000 -0.000001
    17 -0.022360 -0.957434 0.018783 -0.709265 0.000000 0.000000
    18 -1.180680 -2.507215 -0.193861 -0.978310 0.058091 -0.235658
    19 -0.024966 -1.123932 0.017594 -1.421801 0.000000 0.000001
    20 -0.020058 -0.890965 0.010091 -0.940950 0.000000 0.000000
    21 0.583510 -1.197275 0.185377 -0.045735 -1.064219 -0.151177
    22 1.535926 0.010246 0.005008 -0.002964 -0.536561 -1.046279
    23 1.100770 0.004526 -0.010676 -0.012408 0.010448 -0.694695
    24 0.120152 -0.050266 -0.054488 0.287568 3.110905 1.561085
    25 4.323679 7.660983 -0.153718 -1.570562 0.002683 -1.915870
    26 0.447952 -2.798983 -0.200442 -1.244815 0.066198 0.108168
    27 -0.032909 -1.480204 0.004936 -1.626151 0.000000 0.000002
    28 -0.027022 -1.076920 -0.020212 -1.394127 0.000000 0.000000
    29 -0.249534 -2.846960 -0.174215 -1.179791 -0.000125 -0.008396
    30 0.043235 -1.683941 0.096014 -1.550992 0.002823 -0.000167
    31 0.031729 -1.160830 0.058836 -1.436443 0.000642 0.008372
    32 -0.963867 -2.785143 -0.085346 -1.233894 0.022596 -0.054896
    33 0.028479 -1.403067 0.006271 -1.120488 0.000000 0.000000
    34 0.021414 -0.957779 0.020047 -1.043314 0.000000 0.000000
    35 1.164475 -2.543938 -0.170328 -1.197928 -0.095604 0.245486
    36 0.024033 -1.129042 0.017806 -1.588870 0.000000 0.000001
    37 0.014896 -0.883989 -0.019845 -1.107999 0.000000 0.000000
    38 -0.586770 -1.264477 0.200164 0.059268 -1.068467 -3.037418
    39 1.522835 0.058681 0.016850 0.001410 -0.514614 1.000317
    40 1.117948 0.048424 -0.005764 -0.016374 -0.019146 0.763687
    41 -0.139399 -0.111698 0.014397 0.285382 -0.030687 1.580508
    42 -4.256839 7.784457 -0.266779 1.580804 -0.005023 -1.217784
  time 24
    0 0.000000 0.000000 0.000000 0.000000 0.000000 -0.000015
    1 -5.520929 -7.919986 -6.972698 0.446885 -3.497708 1.165595
    2 0.096944 -8.450419 -0.009364 0.293427 -0.403007 -0.044264
    3 -2.352024 -2.549693 1.315027 -3.109552 0.287422 0.018789
    4 0.000000 0.000000 0.000000 0.000001 -3.141592 0.000000
    5 6.786589 -10.113404 -8.368881 0.155597 -2.357655 -1.371021
    6 -0.071918 -8.498729 -0.104137 0.131165 0.256600 0.216575
    7 2.218057 -2.362811 1.698656 0.142463 -3.429023 -0.018788
    8 -0.000001 0.000001 0.000000 -3.141591 0.000001 0.000000
    9 -0.488517 -2.755600 -0.228261 -1.075433 -0.061815 -0.012694
    10 0.039887 -1.479790 0.029853 -1.405298 0.000000 0.000000
    11 0.028785 -1.075733 -0.023111 -1.173271 0.000000 0.000000
    12 0.250028 -2.820663 -0.238396 -0.972639 -0.002921 0.008443
    13 -0.049759 -1.680546 0.100480 -1.256446 0.000000 -0.000002
    14 -0.034141 -1.148310 0.084779 -1.141854 0.000000 0.000000
    15 0.957766 -2.746775 -0.090300 -1.024661 -0.034845 0.043237
    16 -0.033419 -1.397129 -0.011255 -0.476911 0.000000 -0.000001
    17 -0.022360 -0.957434 0.018783 -0.748797 0.000000 0.000000
    18 -1.180680 -2.507215 -0.193861 -0.998066 0.058091 -0.235658
    19 -0.024966 -1.123932 0.017594 -1.441599 0.000000 0.000001
    20 -0.020058 -0.890965 0.010091 -0.960732 0.000000 0.000000
    21 0.583510 -1.197275 0.185377 -0.045735 -1.064219 -0.151177
    22 1.535926 0.010246 0.005008 -0.002964 -0.536561 -1.046279
    23 1.100770 0.004526 -0.010676 -0.012408 0.010448 -0.694695
    24 0.120152 -0.050266 -0.054488 0.287568 3.110905 1.561085
    25 4.323679 7.660983 -0.153718 -1.570562 0.002683 -1.915870
    26 0.447952 -2.798983 -0.200442 -1.244815 0.066198 0.108168
    27 -0.032909 -1.480204 0.004936 -1.626151 0.000000 0.000002
    28 -0.027022 -1.076920 -0.020212 -1.394127 0.000000 0.000000
    29 -0.249534 -2.846960 -0.174215 -1.179791 -0.000125 -0.008396
    30 0.043235 -1.683941 0.096014 -1.550992 0.002823 -0.000167
    31 0.031729 -1.160830 0.058836 -1.436443 0.000642 0.008372
    32 -0.963867 -2.785143 -0.085346 -1.233894 0.022596 -0.054896
    33 0.028479 -1.403067 0.006271 -1.120488 0.000000 0.000000
    34 0.021414 -0.957779 0.020047 -1.043314 0.000000 0.000000
    35 1.164475 -2.543938 -0.170328 -1.197928 -0.095604 0.245486
    36 0.024033 -1.129042 0.017806 -1.588870 0.000000 0.000001
    37 0.014896 -0.883989 -0.019845 -1.107999 0.000000 0.000000
    38 -0.586770 -1.264477 0.200164 0.059268 -1.068467 -3.037418
    39 1.522835 0.058681 0.016850 0.001410 -0.514614 1.000317
    40 1.117948 0.048424 -0.005764 -0.016374 -0.019146 0.763687
    41 -0.139399 -0.111698 0.014397 0.285382 -0.030687 1.580508
    42 -4.256839 7.784457 -0.266779 1.580804 -0.005023 -1.217784
  time 25
    0 0.000000 0.000000 0.000000 0.000000 0.000000 -0.000015
    1 -4.778719 -7.791076 -6.628938 0.472266 -3.345607 1.230385
    2 0.096944 -8.450419 -0.009364 0.294362 -0.414814 0.039199
    3 -2.352024 -2.549693 1.315027 -3.109552 0.287422 0.018789
    4 0.000000 0.000000 0.000000 0.000001 -3.141592 0.000000
    5 6.177195 -9.847771 -7.810270 0.143830 -2.346492 -1.463476
    6 -0.071918 -8.498729 -0.104137 0.069745 0.261271 0.188004
    7 2.218057 -2.362811 1.698656 0.142463 -3.429023 -0.018788
    8 -0.000001 0.000001 0.000000 -3.141591 0.000001 0.000000
    9 -0.488517 -2.755600 -0.228261 -1.117343 -0.061815 -0.012694
    10 0.039887 -1.479790 0.029853 -1.447195 0.000000 0.000000
    11 0.028785 -1.075733 -0.023111 -1.215157 0.000000 0.000000
    12 0.250028 -2.820663 -0.238396 -1.028525 -0.002921 0.008443
    13 -0.049759 -1.680546 0.100480 -1.312340 0.000000 -0.000002
    14 -0.034141 -1.148310 0.084779 -1.197759 0.000000 0.000000
    15 0.957766 -2.746775 -0.090300 -1.080566 -0.034845 0.043237
    16 -0.033419 -1.397129 -0.011255 -0.532838 0.000000 -0.000001
    17 -0.022360 -0.957434 0.018783 -0.804723 0.000000 0.000000
    18 -1.180680 -2.507215 -0.193861 -1.026030 0.058091 -0.235658
    19 -0.024966 -1.123932 0.017594 -1.469546 0.000000 0.000001
    20 -0.020058 -0.890965 0.010091 -0.988663 0.000000 0.000000
    21 0.583510 -1.197275 0.185377 -0.045735 -1.064219 -0.151177
    22 1.535926 0.010246 0.005008 -0.002964 -0.536561 -1.046279
    23 1.100770 0.004526 -0.010676 -0.012408 0.010448 -0.694695
    24 0.120152 -0.050266 -0.054488 0.287568 3.110905 1.561085
    25 4.323679 7.660983 -0.153718 -1.570562 0.002683 -1.915870
    26 0.447952 -2.798983 -0.200442 -1.244815 0.066198 0.108168
    27 -0.032909 -1.480204 0.004936 -1.626151 0.000000 0.000002
    28 -0.027022 -1.076920 -0.020212 -1.394127 0.000000 0.000000
    29 -0.249534 -2.846960 -0.174215 -1.179791 -0.000125 -0.008396
    30 0.043235 -1.683941 0.096014 -1.550992 0.002823 -0.000167
    31 0.031729 -1.160830 0.058836 -1.436443 0.000642 0.008372
    32 -0.963867 -2.785143 -0.085346 -1.233894 0.022596 -0.054896
    33 0.028479 -1.403067 0.006271 -1.120488 0.000000 0.000000
    34 0.021414 -0.957779 0.020047 -1.043314 0.000000 0.000000
    35 1.164475 -2.543938 -0.170328 -1.197928 -0.095604 0.245486
    36 0.024033 -1.129042 0.017806 -1.588870 0.000000 0.000001
    37 0.014896 -0.883989 -0.019845 -1.107999 0.000000 0.000000
    38 -0.586770 -1.264477 0.200164 0.059268 -1.068467 -3.037418
    39 1.522835 0.058681 0.016850 0.001410 -0.514614 1.000317
    40 1.117948 0.048424 -0.005764 -0.016374 -0.019146 0.763687
    41 -0.139399 -0.111698 0.014397 0.285382 -0.030687 1.580508
    42 -4.256839 7.784457 -0.266779 1.580804 -0.005023 -1.217784
  time 26
    0 0.000000 0.000000 0.000000 0.000000 0.000000 -0.000015
    1 -4.282610 -7.669978 -6.390649 0.497552 -3.193507 1.285810
    2 0.096944 -8.450419 -0.009364 0.224015 -0.402664 0.034637
    3 -2.352024 -2.549693 1.315027 -3.109552 0.287422 0.018741
    4 0.000000 0.000000 0.000000 0.000001 -3.141592 0.000000
    5 5.642023 -9.617295 -7.318068 3.335596 -0.792553 1.559281
    6 -0.071918 -8.498729 -0.104137 -0.000659 0.266631 0.155240
    7 2.218057 -2.362811 1.698656 0.142463 -3.429023 -0.018788
    8 -0.000001 0.000001 0.000000 -3.141591 0.000001 0.000000
    9 -0.488517 -2.755600 -0.228261 -1.165418 -0.061815 -0.012694
    10 0.039887 -1.479790 0.029853 -1.495275 0.000000 0.000000
    11 0.028785 -1.075733 -0.023111 -1.263222 0.000000 0.000000
    12 0.250028 -2.820663 -0.238396 -1.092601 -0.002921 0.008443
    13 -0.049759 -1.680546 0.100480 -1.376432 0.000000 -0.000002
    14 -0.034141 -1.148310 0.084779 -1.261803 0.000000 0.000000
    15 0.957766 -2.746775 -0.090300 -1.144656 -0.034845 0.043237
    16 -0.033419 -1.397129 -0.011255 -0.596913 0.000000 -0.000001
    17 -0.022360 -0.957434 0.018783 -0.868799 0.000000 0.000000
    18 -1.180680 -2.507215 -0.193861 -1.058081 0.058091 -0.235658
    19 -0.024966 -1.123932 0.017594 -1.501568 0.000000 0.000001
    20 -0.020058 -0.890965 0.010091 -1.020717 0.000000 0.000000
    21 0.583510 -1.197275 0.185377 -0.045735 -1.064219 -0.151177
    22 1.535926 0.010246 0.005008 -0.002964 -0.536561 -1.046279
    23 1.100770 0.004526 -0.010676 -0.012408 0.010448 -0.694695
    24 0.120152 -0.050266 -0.054488 0.287568 3.110905 1.561085
    25 4.323679 7.660983 -0.153718 -1.570562 0.002683 -1.915870
    26 0.447952 -2.798983 -0.200442 -1.244815 0.066198 0.108168
    27 -0.032909 -1.480204 0.004936 -1.626151 0.000000 0.000002
    28 -0.027022 -1.076920 -0.020212 -1.394127 0.000000 0.000000
    29 -0.249534 -2.846960 -0.174215 -1.179791 -0.000125 -0.008396
    30 0.043235 -1.683941 0.096014 -1.550992 0.002823 -0.000167
    31 0.031729 -1.160830 0.058836 -1.436443 0.000642 0.008372
    32 -0.963867 -2.785143 -0.085346 -1.233931 0.022596 -0.054896
    33 0.028479 -1.403067 0.006271 -1.120488 0.000000 0.000000
    34 0.021414 -0.957779 0.020047 -1.043314 0.000000 0.000000
    35 1.164475 -2.543938 -0.170328 -1.197928 -0.095604 0.245486
    36 0.024033 -1.129042 0.017806 -1.588870 0.000000 0.000001
    37 0.014896 -0.883989 -0.019845 -1.107999 0.000000 0.000000
    38 -0.586770 -1.264477 0.200164 0.059268 -1.068467 -3.037418
    39 1.522835 0.058681 0.016850 0.001410 -0.514614 1.000317
    40 1.117948 0.048424 -0.005764 -0.016374 -0.019146 0.763687
    41 -0.139399 -0.111698 0.014397 0.285382 -0.030687 1.580508
    42 -4.256839 7.784457 -0.266779 1.580804 -0.005023 -1.217784
  time 27
    0 0.000000 0.000000 0.000000 0.000000 0.000000 -0.000015
    1 -4.099011 -7.560600 -6.296896 0.520864 -3.053852 1.330914
    2 0.096944 -8.450419 -0.009364 0.056259 -0.373662 0.023752
    3 -2.352024 -2.549693 1.315027 -3.109552 0.287422 0.018789
    4 0.000000 0.000000 0.000000 0.000001 -3.141592 0.000000
    5 5.200603 -9.425883 -6.911805 3.455369 -0.786829 1.412155
    6 -0.071918 -8.498729 -0.104137 -0.071026 0.271990 0.122501
    7 2.218057 -2.362811 1.698656 0.142463 -3.429023 -0.018788
    8 -0.000001 0.000001 0.000000 -3.141591 0.000001 0.000000
    9 -0.488517 -2.755600 -0.228261 -1.213493 -0.061815 -0.012694
    10 0.039887 -1.479790 0.029853 -1.543356 0.000000 0.000000
    11 0.028785 -1.075733 -0.023111 -1.311286 0.000000 0.000000
    12 0.250028 -2.820663 -0.238396 -1.156716 -0.002921 0.008443
    13 -0.049759 -1.680546 0.100480 -1.440523 0.000000 -0.000002
    14 -0.034141 -1.148310 0.084779 -1.325931 0.000000 0.000000
    15 0.957766 -2.746775 -0.090300 -1.208746 -0.034845 0.043237
    16 -0.033419 -1.397129 -0.011255 -0.661021 0.000000 -0.000001
    17 -0.022360 -0.957434 0.018783 -0.932874 0.000000 0.000000
    18 -1.180680 -2.507215 -0.193861 -1.090094 0.058091 -0.235658
    19 -0.024966 -1.123932 0.017594 -1.533638 0.000000 0.000001
    20 -0.020058 -0.890965 0.010091 -1.052771 0.000000 0.000000
    21 0.583510 -1.197275 0.185377 -0.045735 -1.064219 -0.151177
    22 1.535926 0.010246 0.005008 -0.002964 -0.536561 -1.046279
    23 1.100770 0.004526 -0.010676 -0.012408 0.010448 -0.694695
    24 0.120152 -0.050266 -0.054488 0.287568 3.110905 1.561085
    25 4.323679 7.660983 -0.153718 -1.570562 0.002683 -1.915870
    26 0.447952 -2.798983 -0.200442 -1.244815 0.066198 0.108168
    27 -0.032909 -1.480204 0.004936 -1.626151 0.000000 0.000002
    28 -0.027022 -1.076920 -0.020212 -1.394127 0.000000 0.000000
    29 -0.249534 -2.846960 -0.174215 -1.179791 -0.000125 -0.008396
    30 0.043235 -1.683941 0.096014 -1.550992 0.002823 -0.000167
    31 0.031729 -1.160830 0.058836 -1.436443 0.000642 0.008372
    32 -0.963867 -2.785143 -0.085346 -1.233894 0.022596 -0.054896
    33 0.028479 -1.403067 0.006271 -1.120488 0.000000 0.000000
    34 0.021414 -0.957779 0.020047 -1.043314 0.000000 0.000000
    35 1.164475 -2.543938 -0.170328 -1.197928 -0.095604 0.245486
    36 0.024033 -1.129042 0.017806 -1.588870 0.000000 0.000001
    37 0.014896 -0.883989 -0.019845 -1.107999 0.000000 0.000000
    38 -0.586770 -1.264477 0.200164 0.059268 -1.068467 -3.037418
    39 1.522835 0.058681 0.016850 0.001410 -0.514614 1.000317
    40 1.117948 0.048424 -0.005764 -0.016374 -0.019146 0.763687
    41 -0.139399 -0.111698 0.014397 0.285382 -0.030687 1.580508
    42 -4.256839 7.784457 -0.266779 1.580804 -0.005023 -1.217784
  time 28
    0 0.000000 0.000000 0.000000 0.000000 0.000000 -0.000015
    1 -4.356831 -7.482473 -6.296896 0.540135 -2.938804 1.364456
    2 0.096944 -8.450419 -0.009364 -0.143935 -0.339060 0.010761
    3 -2.352024 -2.549693 1.315027 -3.109552 0.287422 0.018789
    4 0.000000 0.000000 0.000000 0.000001 -3.141592 0.000000
    5 4.864655 -9.281347 -6.607108 3.598388 -0.779960 1.268178
    6 -0.071918 -8.498729 -0.104137 -0.132447 0.276661 0.093929
    7 2.218057 -2.362811 1.698656 0.142463 -3.429023 -0.018788
    8 -0.000001 0.000001 0.000000 -3.141591 0.000001 0.000000
    9 -0.488517 -2.755600 -0.228261 -1.255404 -0.061815 -0.012694
    10 0.039887 -1.479790 0.029853 -1.585253 0.000000 0.000000
    11 0.028785 -1.075733 -0.023111 -1.353258 0.000000 0.000000
    12 0.250028 -2.820663 -0.238396 -1.212603 -0.002921 0.008443
    13 -0.049759 -1.680546 0.100480 -1.496418 0.000000 -0.000002
    14 -0.034141 -1.148310 0.084779 -1.381836 0.000000 0.000000
    15 0.957766 -2.746775 -0.090300 -1.264651 -0.034845 0.043237
    16 -0.033419 -1.397129 -0.011255 -0.716915 0.000000 -0.000001
    17 -0.022360 -0.957434 0.018783 -0.988801 0.000000 0.000000
    18 -1.180680 -2.507215 -0.193861 -1.118059 0.058091 -0.235658
    19 -0.024966 -1.123932 0.017594 -1.561585 0.000000 0.000001
    20 -0.020058 -0.890965 0.010091 -1.080702 0.000000 0.000000
    21 0.583510 -1.197275 0.185377 -0.045735 -1.064219 -0.151177
    22 1.535926 0.010246 0.005008 -0.002964 -0.536561 -1.046279
    23 1.100770 0.004526 -0.010676 -0.012408 0.010448 -0.694695
    24 0.120152 -0.050266 -0.054488 0.287568 3.110905 1.561085
    25 4.323679 7.660983 -0.153718 -1.570562 0.002683 -1.915870
    26 0.447952 -2.798983 -0.200442 -1.244815 0.066198 0.108168
    27 -0.032909 -1.480204 0.004936 -1.626151 0.000000 0.000002
    28 -0.027022 -1.076920 -0.020212 -1.394127 0.000000 0.000000
    29 -0.249534 -2.846960 -0.174215 -1.179791 -0.000125 -0.008396
    30 0.043235 -1.683941 0.096014 -1.550992 0.002823 -0.000167
    31 0.031729 -1.160830 0.058836 -1.436443 0.000642 0.008372
    32 -0.963867 -2.785143 -0.085346 -1.233894 0.022596 -0.054896
    33 0.028479 -1.403067 0.006271 -1.120488 0.000000 0.000000
    34 0.021414 -0.957779 0.020047 -1.043314 0.000000 0.000000
    35 1.164475 -2.543938 -0.170328 -1.197928 -0.095604 0.245486
    36 0.024033 -1.129042 0.017806 -1.588870 0.000000 0.000001
    37 0.014896 -0.883989 -0.019845 -1.107999 0.000000 0.000000
    38 -0.586770 -1.264477 0.200164 0.059268 -1.068467 -3.037418
    39 1.522835 0.058681 0.016850 0.001410 -0.514614 1.000317
    40 1.117948 0.048424 -0.005764 -0.016374 -0.019146 0.763687
    41 -0.139399 -0.111698 0.014397 0.285382 -0.030687 1.580508
    42 -4.256839 7.784457 -0.266779 1.580804 -0.005023 -1.217784
  time 29
    0 0.000000 0.000000 0.000000 0.000000 0.000000 -0.000015
    1 -4.833408 -7.447315 -6.296896 0.553107 -2.860711 1.385383
    2 0.096944 -8.450419 -0.009364 -0.311676 -0.310057 -0.000101
    3 -2.352024 -2.549693 1.315027 -3.109552 0.287422 0.018789
    4 0.000000 0.000000 0.000000 0.000001 -3.141592 0.000000
    5 4.653711 -9.187594 -6.411790 3.718256 -0.774141 1.158835
    6 -0.071918 -8.498729 -0.104137 -0.175901 0.279957 0.073719
    7 2.218057 -2.362811 1.698656 0.142463 -3.429023 -0.018788
    8 -0.000001 0.000001 0.000000 -3.141591 0.000001 0.000000
    9 -0.488517 -2.755600 -0.228261 -1.285071 -0.061815 -0.012694
    10 0.039887 -1.479790 0.029853 -1.614926 0.000000 0.000000
    11 0.028785 -1.075733 -0.023111 -1.382915 0.000000 0.000000
    12 0.250028 -2.820663 -0.238396 -1.252151 -0.002921 0.008443
    13 -0.049759 -1.680546 0.100480 -1.535966 0.000000 -0.000002
    14 -0.034141 -1.148310 0.084779 -1.421336 0.000000 0.000000
    15 0.957766 -2.746775 -0.090300 -1.304186 -0.034845 0.043237
    16 -0.033419 -1.397129 -0.011255 -0.756447 0.000000 -0.000001
    17 -0.022360 -0.957434 0.018783 -1.028333 0.000000 0.000000
    18 -1.180680 -2.507215 -0.193861 -1.137814 0.058091 -0.235658
    19 -0.024966 -1.123932 0.017594 -1.581335 0.000000 0.000001
    20 -0.020058 -0.890965 0.010091 -1.100484 0.000000 0.000000
    21 0.583510 -1.197275 0.185377 -0.045735 -1.064219 -0.151177
    22 1.535926 0.010246 0.005008 -0.002964 -0.536561 -1.046279
    23 1.100770 0.004526 -0.010676 -0.012408 0.010448 -0.694695
    24 0.120152 -0.050266 -0.054488 0.287568 3.110905 1.561085
    25 4.323679 7.660983 -0.153718 -1.570562 0.002683 -1.915870
    26 0.447952 -2.798983 -0.200442 -1.244815 0.066198 0.108168
    27 -0.032909 -1.480204 0.004936 -1.626151 0.000000 0.000002
    28 -0.027022 -1.076920 -0.020212 -1.394127 0.000000 0.000000
    29 -0.249534 -2.846960 -0.174215 -1.179791 -0.000125 -0.008396
    30 0.043235 -1.683941 0.096014 -1.550992 0.002823 -0.000167
    31 0.031729 -1.160830 0.058836 -1.436443 0.000642 0.008372
    32 -0.963867 -2.785143 -0.085346 -1.233894 0.022596 -0.054896
    33 0.028479 -1.403067 0.006271 -1.120488 0.000000 0.000000
    34 0.021414 -0.957779 0.020047 -1.043314 0.000000 0.000000
    35 1.164475 -2.543938 -0.170328 -1.197928 -0.095604 0.245486
    36 0.024033 -1.129042 0.017806 -1.588870 0.000000 0.000001
    37 0.014896 -0.883989 -0.019845 -1.107999 0.000000 0.000000
    38 -0.586770 -1.264477 0.200164 0.059268 -1.068467 -3.037418
    39 1.522835 0.058681 0.016850 0.001410 -0.514614 1.000317
    40 1.117948 0.048424 -0.005764 -0.016374 -0.019146 0.763687
    41 -0.139399 -0.111698 0.014397 0.285382 -0.030687 1.580508
    42 -4.256839 7.784457 -0.266779 1.580804 -0.005023 -1.217784
  time 30
    0 0.000000 0.000000 0.000000 0.000000 0.000000 -0.000015
    1 -5.091228 -7.439502 -6.296896 0.557901 -2.831925 1.392550
    2 0.096944 -8.450419 -0.009364 -0.382023 -0.297907 -0.004663
    3 -2.352024 -2.549693 1.315027 -3.109552 0.287422 0.018789
    4 0.000000 0.000000 0.000000 0.000001 -3.141592 0.000000
    5 4.579490 -9.156343 -6.341475 3.768576 -0.771755 1.115327
    6 -0.071918 -8.498729 -0.104137 -0.192370 0.281206 0.066061
    7 2.218057 -2.362811 1.698656 0.142463 -3.429023 -0.018788
    8 -0.000001 0.000001 0.000000 -3.141591 0.000001 0.000000
    9 -0.488517 -2.755600 -0.228261 -1.296287 -0.061815 -0.012694
    10 0.039887 -1.479790 0.029853 -1.626191 0.000000 0.000000
    11 0.028785 -1.075733 -0.023111 -1.394121 0.000000 0.000000
    12 0.250028 -2.820663 -0.238396 -1.267131 -0.002921 0.008443
    13 -0.049759 -1.680546 0.100480 -1.550922 0.000000 -0.000002
    14 -0.034141 -1.148310 0.084779 -1.436378 0.000000 0.000000
    15 0.957766 -2.746775 -0.090300 -1.319165 -0.034845 0.043237
    16 -0.033419 -1.397129 -0.011255 -0.771468 0.000000 -0.000001
    17 -0.022360 -0.957434 0.018783 -1.043321 0.000000 0.000000
    18 -1.180680 -2.507215 -0.193861 -1.145349 0.058091 -0.235658
    19 -0.024966 -1.123932 0.017594 -1.588813 0.000000 0.000001
    20 -0.020058 -0.890965 0.010091 -1.107962 0.000000 0.000000
    21 0.583510 -1.197275 0.185377 -0.045735 -1.064219 -0.151177
    22 1.535926 0.010246 0.005008 -0.002964 -0.536561 -1.046279
    23 1.100770 0.004526 -0.010676 -0.012408 0.010448 -0.694695
    24 0.120152 -0.050266 -0.054488 0.287568 3.110905 1.561085
    25 4.323679 7.660983 -0.153718 -1.570562 0.002683 -1.915870
    26 0.447952 -2.798983 -0.200442 -1.244815 0.066198 0.108168
    27 -0.032909 -1.480204 0.004936 -1.626151 0.000000 0.000002
    28 -0.027022 -1.076920 -0.020212 -1.394127 0.000000 0.000000
    29 -0.249534 -2.846960 -0.174215 -1.179791 -0.000125 -0.008396
    30 0.043235 -1.683941 0.096014 -1.550992 0.002823 -0.000167
    31 0.031729 -1.160830 0.058836 -1.436443 0.000642 0.008372
    32 -0.963867 -2.785143 -0.085346 -1.233894 0.022596 -0.054896
    33 0.028479 -1.403067 0.006271 -1.120488 0.000000 0.000000
    34 0.021414 -0.957779 0.020047 -1.043314 0.000000 0.000000
    35 1.164475 -2.543938 -0.170328 -1.197928 -0.095604 0.245486
    36 0.024033 -1.129042 0.017806 -1.588870 0.000000 0.000001
    37 0.014896 -0.883989 -0.019845 -1.107999 0.000000 0.000000
    38 -0.586770 -1.264477 0.200164 0.059268 -1.068467 -3.037418
    39 1.522835 0.058681 0.016850 0.001410 -0.514614 1.000317
    40 1.117948 0.048424 -0.005764 -0.016374 -0.019146 0.763687
    41 -0.139399 -0.111698 0.014397 0.285382 -0.030687 1.580508
    42 -4.256839 7.784457 -0.266779 1.580804 -0.005023 -1.217784
end
