version 1
nodes
  0 "throwing knife-1_p" -1
end
skeleton
  time 0
    0 -0.303744 -0.033115 1.120278 -1.580122 0.159589 -0.760826
end
triangles
tknife1.bmp
  0 0.922639 3.954202 0.695789 -0.183593 0.278251 -0.942799 0.858268 0.324853
  0 1.862703 2.514733 -0.045903 -0.281465 0.265316 -0.922163 0.496063 0.346380
  0 0.701546 3.764300 0.703226 -0.291761 0.188299 -0.937773 0.858268 0.340509
tknife1.bmp
  0 0.701546 3.764300 0.703226 -0.291761 0.188299 -0.937773 0.858268 0.340509
  0 1.862703 2.514733 -0.045903 -0.281465 0.265316 -0.922163 0.496063 0.346380
  0 0.747958 3.167856 0.635399 -0.376272 0.139533 -0.915942 0.787402 0.362035
tknife1.bmp
  0 1.862703 2.514733 -0.045903 -0.281465 0.265316 -0.922163 0.496063 0.346380
  0 1.380812 2.007053 -0.039458 -0.308476 0.287828 -0.906641 0.496063 0.379648
  0 0.747958 3.167856 0.635399 -0.376272 0.139533 -0.915942 0.787402 0.362035
tknife1.bmp
  0 0.747958 3.167856 0.635399 -0.376272 0.139533 -0.915942 0.787402 0.362035
  0 1.380812 2.007053 -0.039458 -0.308476 0.287828 -0.906641 0.496063 0.379648
  0 0.502792 2.766162 0.623743 -0.281465 0.265316 -0.922163 0.763780 0.379648
tknife1.bmp
  0 1.380812 2.007053 -0.039458 -0.308476 0.287828 -0.906641 0.496063 0.379648
  0 0.960878 1.564646 -0.033842 -0.281465 0.265316 -0.922163 0.496063 0.407045
  0 0.502792 2.766162 0.623743 -0.281465 0.265316 -0.922163 0.763780 0.379648
tknife1.bmp
  0 0.502792 2.766162 0.623743 -0.281465 0.265316 -0.922163 0.763780 0.379648
  0 0.960878 1.564646 -0.033842 -0.281465 0.265316 -0.922163 0.496063 0.407045
  0 0.006822 2.630854 0.670700 -0.107662 0.331991 -0.937118 0.811024 0.399217
tknife1.bmp
  0 0.960878 1.564646 -0.033842 -0.281465 0.265316 -0.922163 0.496063 0.407045
  0 0.410144 0.984440 -0.026476 -0.249546 0.230828 -0.940450 0.496063 0.446184
  0 0.006822 2.630854 0.670700 -0.107662 0.331991 -0.937118 0.811024 0.399217
tknife1.bmp
  0 0.006822 2.630854 0.670700 -0.107662 0.331991 -0.937118 0.811024 0.399217
  0 0.410144 0.984440 -0.026476 -0.249546 0.230828 -0.940450 0.496063 0.446184
  0 -0.706599 2.854434 0.781799 -0.173814 0.241223 -0.954777 0.929134 0.418787
tknife1.bmp
  0 0.410144 0.984440 -0.026476 -0.249546 0.230828 -0.940450 0.496063 0.446184
  0 -1.055559 2.372072 0.774518 -0.291761 0.188299 -0.937773 0.921260 0.446184
  0 -0.706599 2.854434 0.781799 -0.173814 0.241223 -0.954777 0.929134 0.418787
tknife1.bmp
  0 -1.055559 2.372072 0.774518 -0.053428 -0.013346 0.998483 0.921260 0.446184
  0 0.525589 0.886767 0.911411 -0.010755 0.028796 0.999527 0.496063 0.446184
  0 -0.706599 2.854434 0.781799 0.066437 0.037954 0.997069 0.929134 0.418787
tknife1.bmp
  0 -0.706599 2.854434 0.781799 0.066437 0.037954 0.997069 0.929134 0.418787
  0 0.525589 0.886767 0.911411 -0.010755 0.028796 0.999527 0.496063 0.446184
  0 0.006822 2.630854 0.670700 0.128667 0.132041 0.982858 0.811024 0.399217
tknife1.bmp
  0 0.525589 0.886767 0.911411 -0.010755 0.028796 0.999527 0.496063 0.446184
  0 1.076322 1.466972 0.904046 -0.045335 0.065457 0.996825 0.496063 0.407045
  0 0.006822 2.630854 0.670700 0.128667 0.132041 0.982858 0.811024 0.399217
tknife1.bmp
  0 0.006822 2.630854 0.670700 0.128667 0.132041 0.982858 0.811024 0.399217
  0 1.076322 1.466972 0.904046 -0.045335 0.065457 0.996825 0.496063 0.407045
  0 0.502792 2.766162 0.623743 -0.045335 0.065457 0.996825 0.763780 0.379648
tknife1.bmp
  0 1.076322 1.466972 0.904046 -0.045335 0.065457 0.996825 0.496063 0.407045
  0 1.496256 1.909379 0.898429 -0.074632 0.089981 0.993143 0.496063 0.379648
  0 0.502792 2.766162 0.623743 -0.045335 0.065457 0.996825 0.763780 0.379648
tknife1.bmp
  0 0.502792 2.766162 0.623743 -0.045335 0.065457 0.996825 0.763780 0.379648
  0 1.496256 1.909379 0.898429 -0.074632 0.089981 0.993143 0.496063 0.379648
  0 0.747958 3.167856 0.635399 -0.141900 -0.058761 0.988135 0.787402 0.362035
tknife1.bmp
  0 1.496256 1.909379 0.898429 -0.074632 0.089981 0.993143 0.496063 0.379648
  0 1.978148 2.417059 0.891984 -0.045335 0.065457 0.996825 0.496063 0.346380
  0 0.747958 3.167856 0.635399 -0.141900 -0.058761 0.988135 0.787402 0.362035
tknife1.bmp
  0 0.747958 3.167856 0.635399 -0.141900 -0.058761 0.988135 0.787402 0.362035
  0 1.978148 2.417059 0.891984 -0.045335 0.065457 0.996825 0.496063 0.346380
  0 0.701546 3.764300 0.703226 -0.053428 -0.013346 0.998483 0.858268 0.340509
tknife1.bmp
  0 1.978148 2.417059 0.891984 -0.045335 0.065457 0.996825 0.496063 0.346380
  0 0.922639 3.954202 0.695789 0.054998 0.076387 0.995560 0.858268 0.324853
  0 0.701546 3.764300 0.703226 -0.053428 -0.013346 0.998483 0.858268 0.340509
tknife1.bmp
  0 0.458861 -1.955246 0.137452 0.013018 -0.015212 -0.999800 0.102362 0.544031
  0 -0.842774 -0.335528 -0.009719 0.013018 -0.015212 -0.999800 0.496063 0.530333
  0 0.495903 -1.686768 0.160853 0.085854 0.053988 -0.994844 0.125984 0.534247
tknife1.bmp
  0 0.495903 -1.686768 0.160853 0.085854 0.053988 -0.994844 0.125984 0.534247
  0 -0.842774 -0.335528 -0.009719 0.013018 -0.015212 -0.999800 0.496063 0.530333
  0 0.631188 -1.415175 0.172485 0.013018 -0.015212 -0.999800 0.141732 0.520548
tknife1.bmp
  0 -0.842774 -0.335528 -0.009719 0.013018 -0.015212 -0.999800 0.496063 0.530333
  0 -0.326461 0.208415 -0.016624 0.013018 -0.015212 -0.999800 0.496063 0.495108
  0 0.631188 -1.415175 0.172485 0.013018 -0.015212 -0.999800 0.141732 0.520548
tknife1.bmp
  0 0.631188 -1.415175 0.172485 0.013018 -0.015212 -0.999800 0.141732 0.520548
  0 -0.326461 0.208415 -0.016624 0.013018 -0.015212 -0.999800 0.496063 0.495108
  0 0.994983 -0.974548 0.173593 0.013018 -0.015212 -0.999800 0.141732 0.495108
tknife1.bmp
  0 -0.326461 0.208415 -0.016624 0.013018 -0.015212 -0.999800 0.496063 0.495108
  0 0.410144 0.984440 -0.026476 0.013018 -0.015212 -0.999800 0.496063 0.446184
  0 0.994983 -0.974548 0.173593 0.013018 -0.015212 -0.999800 0.141732 0.495108
tknife1.bmp
  0 0.994983 -0.974548 0.173593 0.013018 -0.015212 -0.999800 0.141732 0.495108
  0 0.410144 0.984440 -0.026476 0.013018 -0.015212 -0.999800 0.496063 0.446184
  0 1.480338 -0.649650 0.147687 -0.023197 -0.067380 -0.997458 0.118110 0.467710
tknife1.bmp
  0 0.410144 0.984440 -0.026476 0.013018 -0.015212 -0.999800 0.496063 0.446184
  0 1.976309 -0.514342 0.100729 -0.023197 -0.067380 -0.997458 0.070866 0.446184
  0 1.480338 -0.649650 0.147687 -0.023197 -0.067380 -0.997458 0.118110 0.467710
tknife1.bmp
  0 3.453962 1.544319 0.133239 0.085854 0.053988 -0.994844 0.133858 0.322896
  0 1.862703 2.514733 -0.045903 0.031784 -0.069845 -0.997051 0.496063 0.346380
  0 3.396181 1.999716 0.187777 0.112679 0.122221 -0.986086 0.196850 0.307241
tknife1.bmp
  0 3.396181 1.999716 0.187777 0.112679 0.122221 -0.986086 0.196850 0.307241
  0 1.862703 2.514733 -0.045903 0.031784 -0.069845 -0.997051 0.496063 0.346380
  0 3.417322 2.366170 0.223338 0.121540 0.024818 -0.992276 0.244094 0.295499
tknife1.bmp
  0 1.862703 2.514733 -0.045903 0.031784 -0.069845 -0.997051 0.496063 0.346380
  0 2.578657 3.269000 -0.055478 0.081238 -0.083020 -0.993231 0.496063 0.297456
  0 3.417322 2.366170 0.223338 0.121540 0.024818 -0.992276 0.244094 0.295499
tknife1.bmp
  0 3.417322 2.366170 0.223338 0.121540 0.024818 -0.992276 0.244094 0.295499
  0 2.578657 3.269000 -0.055478 0.081238 -0.083020 -0.993231 0.496063 0.297456
  0 3.531155 2.658185 0.239738 0.137358 -0.059062 -0.988759 0.267717 0.283757
tknife1.bmp
  0 2.578657 3.269000 -0.055478 0.081238 -0.083020 -0.993231 0.496063 0.297456
  0 5.332323 6.170028 -0.092306 0.103419 -0.110855 -0.988441 0.496063 0.109589
  0 3.531155 2.658185 0.239738 0.137358 -0.059062 -0.988759 0.267717 0.283757
tknife1.bmp
  0 3.531155 2.658185 0.239738 0.137358 -0.059062 -0.988759 0.267717 0.283757
  0 5.332323 6.170028 -0.092306 0.103419 -0.110855 -0.988441 0.496063 0.109589
  0 6.140254 5.406910 0.204843 0.103419 -0.110855 -0.988441 0.267717 0.111546
tknife1.bmp
  0 5.332323 6.170028 -0.092306 0.103419 -0.110855 -0.988441 0.496063 0.109589
  0 6.594609 5.885579 0.198766 0.038754 -0.117005 -0.992375 0.251969 0.078278
  0 6.140254 5.406910 0.204843 0.103419 -0.110855 -0.988441 0.267717 0.111546
tknife1.bmp
  0 1.976309 -0.514342 0.100729 0.215136 -0.269025 0.938798 0.070866 0.446184
  0 0.525589 0.886767 0.911411 0.252146 -0.217531 0.942922 0.496063 0.446184
  0 1.480338 -0.649650 0.147687 0.215136 -0.269025 0.938798 0.118110 0.467710
tknife1.bmp
  0 1.480338 -0.649650 0.147687 0.215136 -0.269025 0.938798 0.118110 0.467710
  0 0.525589 0.886767 0.911411 0.252146 -0.217531 0.942922 0.496063 0.446184
  0 0.994983 -0.974548 0.173593 0.252146 -0.217531 0.942922 0.141732 0.495108
tknife1.bmp
  0 0.525589 0.886767 0.911411 0.252146 -0.217531 0.942922 0.496063 0.446184
  0 -0.211017 0.110742 0.921263 0.252146 -0.217531 0.942922 0.496063 0.495108
  0 0.994983 -0.974548 0.173593 0.252146 -0.217531 0.942922 0.141732 0.495108
tknife1.bmp
  0 0.994983 -0.974548 0.173593 0.252146 -0.217531 0.942922 0.141732 0.495108
  0 -0.211017 0.110742 0.921263 0.252146 -0.217531 0.942922 0.496063 0.495108
  0 0.631188 -1.415175 0.172485 0.252146 -0.217531 0.942922 0.141732 0.520548
tknife1.bmp
  0 -0.211017 0.110742 0.921263 0.252146 -0.217531 0.942922 0.496063 0.495108
  0 -0.727330 -0.433201 0.928168 0.252146 -0.217531 0.942922 0.496063 0.530333
  0 0.631188 -1.415175 0.172485 0.252146 -0.217531 0.942922 0.141732 0.520548
tknife1.bmp
  0 0.631188 -1.415175 0.172485 0.252146 -0.217531 0.942922 0.141732 0.520548
  0 -0.727330 -0.433201 0.928168 0.252146 -0.217531 0.942922 0.496063 0.530333
  0 0.495903 -1.686768 0.160853 0.323371 -0.146968 0.934790 0.125984 0.534247
tknife1.bmp
  0 -0.727330 -0.433201 0.928168 0.252146 -0.217531 0.942922 0.496063 0.530333
  0 0.458861 -1.955246 0.137452 0.252146 -0.217531 0.942922 0.102362 0.544031
  0 0.495903 -1.686768 0.160853 0.323371 -0.146968 0.934790 0.125984 0.534247
tknife1.bmp
  0 -6.077955 -6.014763 0.762399 0.272798 -0.315021 0.909034 0.496063 0.886497
  0 -3.929416 -5.302022 0.329063 0.272798 -0.315021 0.909034 0.275591 0.796477
  0 -4.673172 -4.587896 0.971052 0.272798 -0.315021 0.909034 0.496063 0.794521
tknife1.bmp
  0 -4.673172 -4.587896 0.971052 0.272798 -0.315021 0.909034 0.496063 0.794521
  0 -3.929416 -5.302022 0.329063 0.272798 -0.315021 0.909034 0.275591 0.796477
  0 -3.523516 -3.376717 0.955676 0.268334 -0.269982 0.924720 0.496063 0.718200
tknife1.bmp
  0 -3.929416 -5.302022 0.329063 0.272798 -0.315021 0.909034 0.275591 0.796477
  0 -2.237688 -4.165102 0.239230 0.268334 -0.269982 0.924720 0.188976 0.704501
  0 -3.523516 -3.376717 0.955676 0.268334 -0.269982 0.924720 0.496063 0.718200
tknife1.bmp
  0 -3.523516 -3.376717 0.955676 0.268334 -0.269982 0.924720 0.496063 0.718200
  0 -2.237688 -4.165102 0.239230 0.268334 -0.269982 0.924720 0.188976 0.704501
  0 -2.379530 -2.173818 0.950265 0.252146 -0.217531 0.942922 0.496063 0.641879
tknife1.bmp
  0 -2.237688 -4.165102 0.239230 0.268334 -0.269982 0.924720 0.188976 0.704501
  0 -0.638652 -2.953743 0.168559 0.252146 -0.217531 0.942922 0.125984 0.612524
  0 -2.379530 -2.173818 0.950265 0.252146 -0.217531 0.942922 0.496063 0.641879
tknife1.bmp
  0 -2.379530 -2.173818 0.950265 0.252146 -0.217531 0.942922 0.496063 0.641879
  0 -0.638652 -2.953743 0.168559 0.252146 -0.217531 0.942922 0.125984 0.612524
  0 0.458861 -1.955246 0.137452 0.252146 -0.217531 0.942922 0.102362 0.544031
tknife1.bmp
  0 0.922639 3.954202 0.695789 0.054998 0.076387 0.995560 0.858268 0.324853
  0 1.978148 2.417059 0.891984 -0.045335 0.065457 0.996825 0.496063 0.346380
  0 1.379702 3.919454 0.635910 0.128667 0.132041 0.982858 0.795276 0.309198
tknife1.bmp
  0 1.379702 3.919454 0.635910 0.128667 0.132041 0.982858 0.795276 0.309198
  0 1.978148 2.417059 0.891984 -0.045335 0.065457 0.996825 0.496063 0.346380
  0 1.744074 3.959143 0.595193 0.034106 0.134762 0.990291 0.748031 0.295499
tknife1.bmp
  0 1.978148 2.417059 0.891984 -0.045335 0.065457 0.996825 0.496063 0.346380
  0 2.625259 3.098801 0.883330 -0.074632 0.089981 0.993143 0.496063 0.303327
  0 1.744074 3.959143 0.595193 0.034106 0.134762 0.990291 0.748031 0.295499
tknife1.bmp
  0 1.744074 3.959143 0.595193 0.034106 0.134762 0.990291 0.748031 0.295499
  0 2.625259 3.098801 0.883330 -0.074632 0.089981 0.993143 0.496063 0.303327
  0 2.029522 4.087777 0.573454 -0.053882 0.141212 0.988512 0.724409 0.283757
tknife1.bmp
  0 2.625259 3.098801 0.883330 -0.074632 0.089981 0.993143 0.496063 0.303327
  0 2.762942 3.243852 0.881488 -0.103514 0.110720 0.988446 0.496063 0.291585
  0 2.029522 4.087777 0.573454 -0.053882 0.141212 0.988512 0.724409 0.283757
tknife1.bmp
  0 2.029522 4.087777 0.573454 -0.053882 0.141212 0.988512 0.724409 0.283757
  0 2.762942 3.243852 0.881488 -0.103514 0.110720 0.988446 0.496063 0.291585
  0 5.447768 6.072355 0.845581 -0.103514 0.110720 0.988446 0.496063 0.111546
tknife1.bmp
  0 1.978148 2.417059 0.891984 0.268334 -0.269982 0.924720 0.496063 0.346380
  0 3.417322 2.366170 0.223338 0.355524 -0.171141 0.918865 0.244094 0.295499
  0 2.625259 3.098801 0.883330 0.315082 -0.280866 0.906553 0.496063 0.303327
tknife1.bmp
  0 1.978148 2.417059 0.891984 0.268334 -0.269982 0.924720 0.496063 0.346380
  0 3.396181 1.999716 0.187777 0.349008 -0.077729 0.933891 0.196850 0.307241
  0 3.417322 2.366170 0.223338 0.355524 -0.171141 0.918865 0.244094 0.295499
tknife1.bmp
  0 1.978148 2.417059 0.891984 0.268334 -0.269982 0.924720 0.496063 0.346380
  0 3.453962 1.544319 0.133239 0.323371 -0.146968 0.934790 0.133858 0.322896
  0 3.396181 1.999716 0.187777 0.349008 -0.077729 0.933891 0.196850 0.307241
tknife1.bmp
  0 1.978148 2.417059 0.891984 0.268334 -0.269982 0.924720 0.496063 0.346380
  0 3.275773 1.313571 0.131142 0.215136 -0.269025 0.938798 0.125984 0.338552
  0 3.453962 1.544319 0.133239 0.323371 -0.146968 0.934790 0.133858 0.322896
tknife1.bmp
  0 1.978148 2.417059 0.891984 0.268334 -0.269982 0.924720 0.496063 0.346380
  0 2.678628 1.329809 0.206335 0.170572 -0.356242 0.918693 0.204724 0.362035
  0 3.275773 1.313571 0.131142 0.215136 -0.269025 0.938798 0.125984 0.338552
tknife1.bmp
  0 1.978148 2.417059 0.891984 0.268334 -0.269982 0.924720 0.496063 0.346380
  0 1.496256 1.909379 0.898429 0.268334 -0.269982 0.924720 0.496063 0.379648
  0 2.678628 1.329809 0.206335 0.170572 -0.356242 0.918693 0.204724 0.362035
tknife1.bmp
  0 -1.464835 1.367259 0.720252 -0.249546 0.230828 -0.940450 0.850394 0.495108
  0 -0.842774 -0.335528 -0.009719 -0.249546 0.230828 -0.940450 0.496063 0.530333
  0 -1.885835 0.981093 0.731857 -0.249546 0.230828 -0.940450 0.850394 0.520548
tknife1.bmp
  0 -1.885835 0.981093 0.731857 -0.249546 0.230828 -0.940450 0.850394 0.520548
  0 -0.842774 -0.335528 -0.009719 -0.249546 0.230828 -0.940450 0.496063 0.530333
  0 -2.149831 0.832037 0.748829 -0.183593 0.278251 -0.942799 0.866142 0.534247
tknife1.bmp
  0 -0.842774 -0.335528 -0.009719 -0.249546 0.230828 -0.940450 0.496063 0.530333
  0 -1.469233 -0.995512 -0.001341 -0.249546 0.230828 -0.940450 0.496063 0.571429
  0 -2.149831 0.832037 0.748829 -0.183593 0.278251 -0.942799 0.866142 0.534247
tknife1.bmp
  0 -2.149831 0.832037 0.748829 -0.183593 0.278251 -0.942799 0.866142 0.534247
  0 -1.469233 -0.995512 -0.001341 -0.249546 0.230828 -0.940450 0.496063 0.571429
  0 -2.415693 0.781401 0.776280 -0.173814 0.241223 -0.954777 0.889764 0.544031
tknife1.bmp
  0 -1.469233 -0.995512 -0.001341 -0.249546 0.230828 -0.940450 0.496063 0.571429
  0 -3.355893 -0.366863 0.772426 -0.249546 0.230828 -0.940450 0.866142 0.612524
  0 -2.415693 0.781401 0.776280 -0.173814 0.241223 -0.954777 0.889764 0.544031
tknife1.bmp
  0 -4.786186 -4.492279 0.052910 0.038754 -0.117005 -0.992375 0.496063 0.794521
  0 -3.637745 -3.280071 0.027661 0.031784 -0.069845 -0.997051 0.496063 0.718200
  0 -3.929416 -5.302022 0.329063 0.038754 -0.117005 -0.992375 0.275591 0.796477
tknife1.bmp
  0 -3.929416 -5.302022 0.329063 0.038754 -0.117005 -0.992375 0.275591 0.796477
  0 -3.637745 -3.280071 0.027661 0.031784 -0.069845 -0.997051 0.496063 0.718200
  0 -2.237688 -4.165102 0.239230 0.031784 -0.069845 -0.997051 0.188976 0.704501
tknife1.bmp
  0 -3.637745 -3.280071 0.027661 0.031784 -0.069845 -0.997051 0.496063 0.718200
  0 -2.494974 -2.076145 0.012378 0.013018 -0.015212 -0.999800 0.496063 0.641879
  0 -2.237688 -4.165102 0.239230 0.031784 -0.069845 -0.997051 0.188976 0.704501
tknife1.bmp
  0 -2.237688 -4.165102 0.239230 0.031784 -0.069845 -0.997051 0.188976 0.704501
  0 -2.494974 -2.076145 0.012378 0.013018 -0.015212 -0.999800 0.496063 0.641879
  0 -0.638652 -2.953743 0.168559 0.013018 -0.015212 -0.999800 0.125984 0.612524
tknife1.bmp
  0 -2.494974 -2.076145 0.012378 0.013018 -0.015212 -0.999800 0.496063 0.641879
  0 0.458861 -1.955246 0.137452 0.013018 -0.015212 -0.999800 0.102362 0.544031
  0 -0.638652 -2.953743 0.168559 0.013018 -0.015212 -0.999800 0.125984 0.612524
tknife1.bmp
  0 5.499142 7.743073 0.527050 -0.145994 0.420276 -0.895575 0.708661 0.043053
  0 5.986319 6.859023 -0.101053 -0.202482 0.382700 -0.901411 0.496063 0.064579
  0 5.199393 7.628055 0.551968 -0.308476 0.287828 -0.906641 0.755906 0.064579
tknife1.bmp
  0 5.199393 7.628055 0.551968 -0.308476 0.287828 -0.906641 0.755906 0.064579
  0 5.986319 6.859023 -0.101053 -0.202482 0.382700 -0.901411 0.496063 0.064579
  0 5.092976 7.315171 0.532483 -0.340321 0.243884 -0.908131 0.748031 0.078278
tknife1.bmp
  0 5.986319 6.859023 -0.101053 -0.202482 0.382700 -0.901411 0.496063 0.064579
  0 5.332323 6.170028 -0.092306 -0.334870 0.306474 -0.891031 0.496063 0.111546
  0 5.092976 7.315171 0.532483 -0.340321 0.243884 -0.908131 0.748031 0.078278
tknife1.bmp
  0 5.092976 7.315171 0.532483 -0.340321 0.243884 -0.908131 0.748031 0.078278
  0 5.332323 6.170028 -0.092306 -0.334870 0.306474 -0.891031 0.496063 0.111546
  0 4.638622 6.836502 0.538559 -0.334870 0.306474 -0.891031 0.724409 0.111546
tknife1.bmp
  0 5.332323 6.170028 -0.092306 -0.334870 0.306474 -0.891031 0.496063 0.111546
  0 2.029522 4.087777 0.573454 -0.285381 0.343234 -0.894845 0.724409 0.283757
  0 4.638622 6.836502 0.538559 -0.334870 0.306474 -0.891031 0.724409 0.111546
tknife1.bmp
  0 2.180614 0.561349 0.187606 0.112679 0.122221 -0.986086 0.173228 0.399217
  0 1.380812 2.007053 -0.039458 0.031784 -0.069845 -0.997051 0.496063 0.379648
  0 2.290450 1.064267 0.226461 0.137358 -0.059062 -0.988759 0.220472 0.379648
tknife1.bmp
  0 2.290450 1.064267 0.226461 0.137358 -0.059062 -0.988759 0.220472 0.379648
  0 1.380812 2.007053 -0.039458 0.031784 -0.069845 -0.997051 0.496063 0.379648
  0 2.678628 1.329809 0.206335 -0.063800 -0.157948 -0.985384 0.204724 0.362035
tknife1.bmp
  0 1.380812 2.007053 -0.039458 0.031784 -0.069845 -0.997051 0.496063 0.379648
  0 1.862703 2.514733 -0.045903 0.031784 -0.069845 -0.997051 0.496063 0.346380
  0 2.678628 1.329809 0.206335 -0.063800 -0.157948 -0.985384 0.204724 0.362035
tknife1.bmp
  0 2.678628 1.329809 0.206335 -0.063800 -0.157948 -0.985384 0.204724 0.362035
  0 1.862703 2.514733 -0.045903 0.031784 -0.069845 -0.997051 0.496063 0.346380
  0 3.275773 1.313571 0.131142 -0.023197 -0.067380 -0.997458 0.125984 0.338552
tknife1.bmp
  0 1.862703 2.514733 -0.045903 0.031784 -0.069845 -0.997051 0.496063 0.346380
  0 3.453962 1.544319 0.133239 0.085854 0.053988 -0.994844 0.133858 0.322896
  0 3.275773 1.313571 0.131142 -0.023197 -0.067380 -0.997458 0.125984 0.338552
tknife1.bmp
  0 7.000775 6.313481 0.193334 0.438639 -0.111970 0.891661 0.283465 0.045010
  0 6.101763 6.761349 0.836834 0.404129 -0.170194 0.898729 0.496063 0.064579
  0 6.901243 6.007850 0.173757 0.315082 -0.280866 0.906553 0.236220 0.064579
tknife1.bmp
  0 6.901243 6.007850 0.173757 0.315082 -0.280866 0.906553 0.236220 0.064579
  0 6.101763 6.761349 0.836834 0.404129 -0.170194 0.898729 0.496063 0.064579
  0 6.594609 5.885579 0.198766 0.272798 -0.315021 0.909034 0.251969 0.078278
tknife1.bmp
  0 6.101763 6.761349 0.836834 0.404129 -0.170194 0.898729 0.496063 0.064579
  0 5.447768 6.072355 0.845581 0.334741 -0.306577 0.891044 0.496063 0.109589
  0 6.594609 5.885579 0.198766 0.272798 -0.315021 0.909034 0.251969 0.078278
tknife1.bmp
  0 6.594609 5.885579 0.198766 0.272798 -0.315021 0.909034 0.251969 0.078278
  0 5.447768 6.072355 0.845581 0.334741 -0.306577 0.891044 0.496063 0.109589
  0 6.140254 5.406910 0.204843 0.334741 -0.306577 0.891044 0.267717 0.111546
tknife1.bmp
  0 5.447768 6.072355 0.845581 0.334741 -0.306577 0.891044 0.496063 0.109589
  0 3.531155 2.658185 0.239738 0.363439 -0.255944 0.895770 0.267717 0.283757
  0 6.140254 5.406910 0.204843 0.334741 -0.306577 0.891044 0.267717 0.111546
tknife1.bmp
  0 2.029522 4.087777 0.573454 -0.053882 0.141212 0.988512 0.724409 0.283757
  0 5.447768 6.072355 0.845581 -0.103514 0.110720 0.988446 0.496063 0.111546
  0 4.638622 6.836502 0.538559 -0.103514 0.110720 0.988446 0.724409 0.111546
tknife1.bmp
  0 4.638622 6.836502 0.538559 -0.103514 0.110720 0.988446 0.724409 0.111546
  0 5.447768 6.072355 0.845581 -0.103514 0.110720 0.988446 0.496063 0.111546
  0 5.092976 7.315171 0.532483 -0.106277 0.045868 0.993278 0.748031 0.078278
tknife1.bmp
  0 5.447768 6.072355 0.845581 -0.103514 0.110720 0.988446 0.496063 0.111546
  0 6.101763 6.761349 0.836834 0.029347 0.186558 0.982006 0.496063 0.064579
  0 5.092976 7.315171 0.532483 -0.106277 0.045868 0.993278 0.748031 0.078278
tknife1.bmp
  0 5.092976 7.315171 0.532483 -0.106277 0.045868 0.993278 0.748031 0.078278
  0 6.101763 6.761349 0.836834 0.029347 0.186558 0.982006 0.496063 0.064579
  0 5.199393 7.628055 0.551968 -0.074632 0.089981 0.993143 0.755906 0.064579
tknife1.bmp
  0 6.101763 6.761349 0.836834 0.029347 0.186558 0.982006 0.496063 0.064579
  0 5.499142 7.743073 0.527050 0.083705 0.225935 0.970539 0.708661 0.043053
  0 5.199393 7.628055 0.551968 -0.074632 0.089981 0.993143 0.755906 0.064579
tknife1.bmp
  0 -3.355893 -0.366863 0.772426 -0.010755 0.028796 0.999527 0.866142 0.612524
  0 -1.353789 -1.093185 0.936547 -0.010755 0.028796 0.999527 0.496063 0.571429
  0 -2.415693 0.781401 0.776280 0.066437 0.037954 0.997069 0.889764 0.544031
tknife1.bmp
  0 -2.415693 0.781401 0.776280 0.066437 0.037954 0.997069 0.889764 0.544031
  0 -1.353789 -1.093185 0.936547 -0.010755 0.028796 0.999527 0.496063 0.571429
  0 -2.149831 0.832037 0.748829 0.054998 0.076387 0.995560 0.866142 0.534247
tknife1.bmp
  0 -1.353789 -1.093185 0.936547 -0.010755 0.028796 0.999527 0.496063 0.571429
  0 -0.727330 -0.433201 0.928168 -0.010755 0.028796 0.999527 0.496063 0.530333
  0 -2.149831 0.832037 0.748829 0.054998 0.076387 0.995560 0.866142 0.534247
tknife1.bmp
  0 -2.149831 0.832037 0.748829 0.054998 0.076387 0.995560 0.866142 0.534247
  0 -0.727330 -0.433201 0.928168 -0.010755 0.028796 0.999527 0.496063 0.530333
  0 -1.885835 0.981093 0.731857 -0.010755 0.028796 0.999527 0.850394 0.520548
tknife1.bmp
  0 -0.727330 -0.433201 0.928168 -0.010755 0.028796 0.999527 0.496063 0.530333
  0 -1.464835 1.367259 0.720252 -0.010755 0.028796 0.999527 0.850394 0.495108
  0 -1.885835 0.981093 0.731857 -0.010755 0.028796 0.999527 0.850394 0.520548
tknife1.bmp
  0 -5.531157 -3.777124 0.685026 -0.340321 0.243884 -0.908131 0.724409 0.794521
  0 -6.135070 -5.966440 0.298391 -0.340321 0.243884 -0.908131 0.496063 0.886497
  0 -6.543309 -5.574825 0.622395 -0.340321 0.243884 -0.908131 0.622047 0.886497
tknife1.bmp
  0 -5.531157 -3.777124 0.685026 -0.340321 0.243884 -0.908131 0.724409 0.794521
  0 -4.786186 -4.492279 0.052910 -0.340321 0.243884 -0.908131 0.496063 0.794521
  0 -6.135070 -5.966440 0.298391 -0.340321 0.243884 -0.908131 0.496063 0.886497
tknife1.bmp
  0 -5.531157 -3.777124 0.685026 -0.340321 0.243884 -0.908131 0.724409 0.794521
  0 -3.637745 -3.280071 0.027661 -0.296205 0.232114 -0.926491 0.496063 0.718200
  0 -4.786186 -4.492279 0.052910 -0.340321 0.243884 -0.908131 0.496063 0.794521
tknife1.bmp
  0 -5.531157 -3.777124 0.685026 -0.340321 0.243884 -0.908131 0.724409 0.794521
  0 -4.482987 -2.027522 0.738215 -0.296205 0.232114 -0.926491 0.803150 0.702544
  0 -3.637745 -3.280071 0.027661 -0.296205 0.232114 -0.926491 0.496063 0.718200
tknife1.bmp
  0 -0.842774 -0.335528 -0.009719 -0.249546 0.230828 -0.940450 0.496063 0.530333
  0 -1.464835 1.367259 0.720252 -0.249546 0.230828 -0.940450 0.850394 0.495108
  0 -0.326461 0.208415 -0.016624 -0.249546 0.230828 -0.940450 0.496063 0.495108
tknife1.bmp
  0 -0.326461 0.208415 -0.016624 -0.249546 0.230828 -0.940450 0.496063 0.495108
  0 -1.464835 1.367259 0.720252 -0.249546 0.230828 -0.940450 0.850394 0.495108
  0 0.410144 0.984440 -0.026476 -0.249546 0.230828 -0.940450 0.496063 0.446184
tknife1.bmp
  0 -1.464835 1.367259 0.720252 -0.249546 0.230828 -0.940450 0.850394 0.495108
  0 -1.165396 1.869154 0.735663 -0.291761 0.188299 -0.937773 0.874016 0.467710
  0 0.410144 0.984440 -0.026476 -0.249546 0.230828 -0.940450 0.496063 0.446184
tknife1.bmp
  0 0.410144 0.984440 -0.026476 -0.249546 0.230828 -0.940450 0.496063 0.446184
  0 -1.165396 1.869154 0.735663 -0.291761 0.188299 -0.937773 0.874016 0.467710
  0 -1.055559 2.372072 0.774518 -0.291761 0.188299 -0.937773 0.921260 0.446184
tknife1.bmp
  0 5.986319 6.859023 -0.101053 0.172298 0.025950 -0.984703 0.496063 0.064579
  0 6.594609 5.885579 0.198766 0.038754 -0.117005 -0.992375 0.251969 0.078278
  0 5.332323 6.170028 -0.092306 0.103419 -0.110855 -0.988441 0.496063 0.109589
tknife1.bmp
  0 5.986319 6.859023 -0.101053 0.172298 0.025950 -0.984703 0.496063 0.064579
  0 6.901243 6.007850 0.173757 0.081238 -0.083020 -0.993231 0.236220 0.064579
  0 6.594609 5.885579 0.198766 0.038754 -0.117005 -0.992375 0.251969 0.078278
tknife1.bmp
  0 5.986319 6.859023 -0.101053 0.172298 0.025950 -0.984703 0.496063 0.064579
  0 7.000775 6.313481 0.193334 0.208940 0.082371 -0.974453 0.283465 0.045010
  0 6.901243 6.007850 0.173757 0.081238 -0.083020 -0.993231 0.236220 0.064579
tknife1.bmp
  0 5.986319 6.859023 -0.101053 0.172298 0.025950 -0.984703 0.496063 0.064579
  0 6.669893 7.470684 0.354576 0.277352 0.217276 -0.935878 0.496063 0.015656
  0 7.000775 6.313481 0.193334 0.208940 0.082371 -0.974453 0.283465 0.045010
tknife1.bmp
  0 1.380812 2.007053 -0.039458 0.031784 -0.069845 -0.997051 0.496063 0.379648
  0 2.180614 0.561349 0.187606 0.112679 0.122221 -0.986086 0.173228 0.399217
  0 0.960878 1.564646 -0.033842 0.031784 -0.069845 -0.997051 0.496063 0.407045
tknife1.bmp
  0 0.960878 1.564646 -0.033842 0.031784 -0.069845 -0.997051 0.496063 0.407045
  0 2.180614 0.561349 0.187606 0.112679 0.122221 -0.986086 0.173228 0.399217
  0 0.410144 0.984440 -0.026476 0.013018 -0.015212 -0.999800 0.496063 0.446184
tknife1.bmp
  0 2.180614 0.561349 0.187606 0.112679 0.122221 -0.986086 0.173228 0.399217
  0 2.439680 -0.140901 0.082584 0.021794 0.054999 -0.998249 0.062992 0.418787
  0 0.410144 0.984440 -0.026476 0.013018 -0.015212 -0.999800 0.496063 0.446184
tknife1.bmp
  0 0.410144 0.984440 -0.026476 0.013018 -0.015212 -0.999800 0.496063 0.446184
  0 2.439680 -0.140901 0.082584 0.021794 0.054999 -0.998249 0.062992 0.418787
  0 1.976309 -0.514342 0.100729 -0.023197 -0.067380 -0.997458 0.070866 0.446184
tknife1.bmp
  0 -5.531157 -3.777124 0.685026 -0.106277 0.045868 0.993278 0.724409 0.794521
  0 -3.523516 -3.376717 0.955676 -0.059353 0.031722 0.997733 0.496063 0.718200
  0 -4.482987 -2.027522 0.738215 -0.059353 0.031722 0.997733 0.803150 0.702544
tknife1.bmp
  0 -4.482987 -2.027522 0.738215 -0.059353 0.031722 0.997733 0.803150 0.702544
  0 -3.523516 -3.376717 0.955676 -0.059353 0.031722 0.997733 0.496063 0.718200
  0 -3.355893 -0.366863 0.772426 -0.010755 0.028796 0.999527 0.866142 0.612524
tknife1.bmp
  0 -3.523516 -3.376717 0.955676 -0.059353 0.031722 0.997733 0.496063 0.718200
  0 -2.379530 -2.173818 0.950265 -0.010755 0.028796 0.999527 0.496063 0.641879
  0 -3.355893 -0.366863 0.772426 -0.010755 0.028796 0.999527 0.866142 0.612524
tknife1.bmp
  0 -3.355893 -0.366863 0.772426 -0.010755 0.028796 0.999527 0.866142 0.612524
  0 -2.379530 -2.173818 0.950265 -0.010755 0.028796 0.999527 0.496063 0.641879
  0 -1.353789 -1.093185 0.936547 -0.010755 0.028796 0.999527 0.496063 0.571429
tknife1.bmp
  0 -3.523516 -3.376717 0.955676 -0.059353 0.031722 0.997733 0.496063 0.718200
  0 -5.531157 -3.777124 0.685026 -0.106277 0.045868 0.993278 0.724409 0.794521
  0 -4.673172 -4.587896 0.971052 -0.106277 0.045868 0.993278 0.496063 0.794521
tknife1.bmp
  0 -4.673172 -4.587896 0.971052 -0.106277 0.045868 0.993278 0.496063 0.794521
  0 -5.531157 -3.777124 0.685026 -0.106277 0.045868 0.993278 0.724409 0.794521
  0 -6.077955 -6.014763 0.762399 -0.106277 0.045868 0.993278 0.496063 0.886497
tknife1.bmp
  0 -5.531157 -3.777124 0.685026 -0.106277 0.045868 0.993278 0.724409 0.794521
  0 -6.543309 -5.574825 0.622395 -0.106277 0.045868 0.993278 0.622047 0.886497
  0 -6.077955 -6.014763 0.762399 -0.106277 0.045868 0.993278 0.496063 0.886497
tknife1.bmp
  0 -6.077955 -6.014763 0.762399 -0.106277 0.045868 0.993278 0.496063 0.886497
  0 -6.543309 -5.574825 0.622395 -0.106277 0.045868 0.993278 0.622047 0.886497
  0 -7.483953 -7.440602 0.543873 -0.128191 0.017927 0.991587 0.496063 0.978474
tknife1.bmp
  0 2.678628 1.329809 0.206335 0.170572 -0.356242 0.918693 0.204724 0.362035
  0 1.496256 1.909379 0.898429 0.268334 -0.269982 0.924720 0.496063 0.379648
  0 2.290450 1.064267 0.226461 0.363439 -0.255944 0.895770 0.220472 0.379648
tknife1.bmp
  0 2.290450 1.064267 0.226461 0.363439 -0.255944 0.895770 0.220472 0.379648
  0 1.496256 1.909379 0.898429 0.268334 -0.269982 0.924720 0.496063 0.379648
  0 2.180614 0.561349 0.187606 0.349008 -0.077729 0.933891 0.173228 0.399217
tknife1.bmp
  0 1.496256 1.909379 0.898429 0.268334 -0.269982 0.924720 0.496063 0.379648
  0 1.076322 1.466972 0.904046 0.268334 -0.269982 0.924720 0.496063 0.407045
  0 2.180614 0.561349 0.187606 0.349008 -0.077729 0.933891 0.173228 0.399217
tknife1.bmp
  0 2.180614 0.561349 0.187606 0.349008 -0.077729 0.933891 0.173228 0.399217
  0 1.076322 1.466972 0.904046 0.268334 -0.269982 0.924720 0.496063 0.407045
  0 0.525589 0.886767 0.911411 0.252146 -0.217531 0.942922 0.496063 0.446184
tknife1.bmp
  0 -7.483953 -7.440602 0.543873 0.012018 -0.140317 -0.990034 0.496063 0.978474
  0 -6.135070 -5.966440 0.298391 0.038754 -0.117005 -0.992375 0.496063 0.886497
  0 -5.670931 -6.405350 0.428522 0.038754 -0.117005 -0.992375 0.377953 0.888454
tknife1.bmp
  0 -5.670931 -6.405350 0.428522 0.038754 -0.117005 -0.992375 0.377953 0.888454
  0 -6.135070 -5.966440 0.298391 0.038754 -0.117005 -0.992375 0.496063 0.886497
  0 -3.929416 -5.302022 0.329063 0.038754 -0.117005 -0.992375 0.275591 0.796477
tknife1.bmp
  0 -6.135070 -5.966440 0.298391 0.038754 -0.117005 -0.992375 0.496063 0.886497
  0 -4.786186 -4.492279 0.052910 0.038754 -0.117005 -0.992375 0.496063 0.794521
  0 -3.929416 -5.302022 0.329063 0.038754 -0.117005 -0.992375 0.275591 0.796477
tknife1.bmp
  0 2.578657 3.269000 -0.055478 -0.308476 0.287828 -0.906641 0.496063 0.297456
  0 1.862703 2.514733 -0.045903 -0.281465 0.265316 -0.922163 0.496063 0.346380
  0 1.744074 3.959143 0.595193 -0.204151 0.334790 -0.919912 0.748031 0.295499
tknife1.bmp
  0 1.744074 3.959143 0.595193 -0.204151 0.334790 -0.919912 0.748031 0.295499
  0 1.862703 2.514733 -0.045903 -0.281465 0.265316 -0.922163 0.496063 0.346380
  0 1.379702 3.919454 0.635910 -0.107662 0.331991 -0.937118 0.795276 0.309198
tknife1.bmp
  0 1.862703 2.514733 -0.045903 -0.281465 0.265316 -0.922163 0.496063 0.346380
  0 0.922639 3.954202 0.695789 -0.183593 0.278251 -0.942799 0.858268 0.324853
  0 1.379702 3.919454 0.635910 -0.107662 0.331991 -0.937118 0.795276 0.309198
tknife1.bmp
  0 -4.482987 -2.027522 0.738215 -0.296205 0.232114 -0.926491 0.803150 0.702544
  0 -3.355893 -0.366863 0.772426 -0.249546 0.230828 -0.940450 0.866142 0.612524
  0 -3.637745 -3.280071 0.027661 -0.296205 0.232114 -0.926491 0.496063 0.718200
tknife1.bmp
  0 -3.637745 -3.280071 0.027661 -0.296205 0.232114 -0.926491 0.496063 0.718200
  0 -3.355893 -0.366863 0.772426 -0.249546 0.230828 -0.940450 0.866142 0.612524
  0 -2.494974 -2.076145 0.012378 -0.249546 0.230828 -0.940450 0.496063 0.641879
tknife1.bmp
  0 -3.355893 -0.366863 0.772426 -0.249546 0.230828 -0.940450 0.866142 0.612524
  0 -1.469233 -0.995512 -0.001341 -0.249546 0.230828 -0.940450 0.496063 0.571429
  0 -2.494974 -2.076145 0.012378 -0.249546 0.230828 -0.940450 0.496063 0.641879
tknife1.bmp
  0 3.417322 2.366170 0.223338 0.355524 -0.171141 0.918865 0.244094 0.295499
  0 3.531155 2.658185 0.239738 0.363439 -0.255944 0.895770 0.267717 0.283757
  0 2.625259 3.098801 0.883330 0.315082 -0.280866 0.906553 0.496063 0.303327
tknife1.bmp
  0 2.625259 3.098801 0.883330 0.315082 -0.280866 0.906553 0.496063 0.303327
  0 3.531155 2.658185 0.239738 0.363439 -0.255944 0.895770 0.267717 0.283757
  0 2.762942 3.243852 0.881488 0.334741 -0.306577 0.891044 0.496063 0.291585
tknife1.bmp
  0 3.531155 2.658185 0.239738 0.363439 -0.255944 0.895770 0.267717 0.283757
  0 5.447768 6.072355 0.845581 0.334741 -0.306577 0.891044 0.496063 0.109589
  0 2.762942 3.243852 0.881488 0.334741 -0.306577 0.891044 0.496063 0.291585
tknife1.bmp
  0 -1.165396 1.869154 0.735663 -0.053428 -0.013346 0.998483 0.874016 0.467710
  0 -1.464835 1.367259 0.720252 -0.010755 0.028796 0.999527 0.850394 0.495108
  0 0.525589 0.886767 0.911411 -0.010755 0.028796 0.999527 0.496063 0.446184
tknife1.bmp
  0 0.525589 0.886767 0.911411 -0.010755 0.028796 0.999527 0.496063 0.446184
  0 -1.464835 1.367259 0.720252 -0.010755 0.028796 0.999527 0.850394 0.495108
  0 -0.211017 0.110742 0.921263 -0.010755 0.028796 0.999527 0.496063 0.495108
tknife1.bmp
  0 -1.464835 1.367259 0.720252 -0.010755 0.028796 0.999527 0.850394 0.495108
  0 -0.727330 -0.433201 0.928168 -0.010755 0.028796 0.999527 0.496063 0.530333
  0 -0.211017 0.110742 0.921263 -0.010755 0.028796 0.999527 0.496063 0.495108
tknife1.bmp
  0 -0.842774 -0.335528 -0.009719 0.013018 -0.015212 -0.999800 0.496063 0.530333
  0 0.458861 -1.955246 0.137452 0.013018 -0.015212 -0.999800 0.102362 0.544031
  0 -1.469233 -0.995512 -0.001341 0.013018 -0.015212 -0.999800 0.496063 0.571429
tknife1.bmp
  0 -1.469233 -0.995512 -0.001341 0.013018 -0.015212 -0.999800 0.496063 0.571429
  0 0.458861 -1.955246 0.137452 0.013018 -0.015212 -0.999800 0.102362 0.544031
  0 -2.494974 -2.076145 0.012378 0.013018 -0.015212 -0.999800 0.496063 0.641879
tknife1.bmp
  0 5.332323 6.170028 -0.092306 -0.334870 0.306474 -0.891031 0.496063 0.111546
  0 2.578657 3.269000 -0.055478 -0.308476 0.287828 -0.906641 0.496063 0.291585
  0 2.029522 4.087777 0.573454 -0.285381 0.343234 -0.894845 0.724409 0.283757
tknife1.bmp
  0 2.029522 4.087777 0.573454 -0.285381 0.343234 -0.894845 0.724409 0.283757
  0 2.578657 3.269000 -0.055478 -0.308476 0.287828 -0.906641 0.496063 0.291585
  0 1.744074 3.959143 0.595193 -0.204151 0.334790 -0.919912 0.748031 0.295499
tknife1.bmp
  0 -3.929416 -5.302022 0.329063 0.272798 -0.315021 0.909034 0.275591 0.796477
  0 -6.077955 -6.014763 0.762399 0.272798 -0.315021 0.909034 0.496063 0.886497
  0 -5.670931 -6.405350 0.428522 0.272798 -0.315021 0.909034 0.377953 0.888454
tknife1.bmp
  0 -5.670931 -6.405350 0.428522 0.272798 -0.315021 0.909034 0.377953 0.888454
  0 -6.077955 -6.014763 0.762399 0.272798 -0.315021 0.909034 0.496063 0.886497
  0 -7.483953 -7.440602 0.543873 0.245707 -0.338033 0.908494 0.496063 0.978474
tknife1.bmp
  0 -0.727330 -0.433201 0.928168 0.252146 -0.217531 0.942922 0.496063 0.530333
  0 -1.353789 -1.093185 0.936547 0.252146 -0.217531 0.942922 0.496063 0.571429
  0 0.458861 -1.955246 0.137452 0.252146 -0.217531 0.942922 0.102362 0.544031
tknife1.bmp
  0 0.458861 -1.955246 0.137452 0.252146 -0.217531 0.942922 0.102362 0.544031
  0 -1.353789 -1.093185 0.936547 0.252146 -0.217531 0.942922 0.496063 0.571429
  0 -2.379530 -2.173818 0.950265 0.252146 -0.217531 0.942922 0.496063 0.641879
tknife1.bmp
  0 2.180614 0.561349 0.187606 0.349008 -0.077729 0.933891 0.173228 0.399217
  0 0.525589 0.886767 0.911411 0.252146 -0.217531 0.942922 0.496063 0.446184
  0 2.439680 -0.140901 0.082584 0.262046 -0.148270 0.953597 0.062992 0.418787
tknife1.bmp
  0 2.439680 -0.140901 0.082584 0.262046 -0.148270 0.953597 0.062992 0.418787
  0 0.525589 0.886767 0.911411 0.252146 -0.217531 0.942922 0.496063 0.446184
  0 1.976309 -0.514342 0.100729 0.215136 -0.269025 0.938798 0.070866 0.446184
tknife1.bmp
  0 5.986319 6.859023 -0.101053 -0.202482 0.382700 -0.901411 0.496063 0.064579
  0 5.499142 7.743073 0.527050 -0.145994 0.420276 -0.895575 0.708661 0.043053
  0 6.669893 7.470684 0.354576 -0.007435 0.488400 -0.872588 0.496063 0.015656
tknife1.bmp
  0 -7.483953 -7.440602 0.543873 -0.361880 0.215643 -0.906940 0.496063 0.978474
  0 -6.543309 -5.574825 0.622395 -0.340321 0.243884 -0.908131 0.622047 0.886497
  0 -6.135070 -5.966440 0.298391 -0.340321 0.243884 -0.908131 0.496063 0.886497
tknife1.bmp
  0 6.669893 7.470684 0.354576 0.214358 0.300749 0.929301 0.496063 0.015656
  0 5.499142 7.743073 0.527050 0.083705 0.225935 0.970539 0.708661 0.043053
  0 6.101763 6.761349 0.836834 0.029347 0.186558 0.982006 0.496063 0.064579
tknife1.bmp
  0 7.000775 6.313481 0.193334 0.438639 -0.111970 0.891661 0.283465 0.045010
  0 6.669893 7.470684 0.354576 0.499146 0.029624 0.866012 0.496063 0.015656
  0 6.101763 6.761349 0.836834 0.404129 -0.170194 0.898729 0.496063 0.064579
tknife1.bmp
  0 -1.165396 1.869154 0.735663 -0.053428 -0.013346 0.998483 0.874016 0.467710
  0 0.525589 0.886767 0.911411 -0.010755 0.028796 0.999527 0.496063 0.446184
  0 -1.055559 2.372072 0.774518 -0.053428 -0.013346 0.998483 0.921260 0.446184
end
