// Created by Crowbar 0.71

$modelname "weapons/tfa_cso/c_spectre.mdl"

$include "csonline_gmod.qci"

$bodygroup "weapon"
{
	studio "NEXON_CSO_spectre_ref"
}
$CDMaterials "models\weapons\tfa_cso\spectre\"

$attachment 0 "NEXON_CSO_spectreBone03" 0.147 -7.377 2.637
//$attachment 1 "NEXON_CSO_spectreBone03" -0.128 -3.318 2.851

$definebone "Bone01" "" 6.590699 3.658477 -3.884651 -72.714885 27.401478 -40.110655 0.000000 0.000000 0.000000 -0.000001 -0.000000 -0.000001
$definebone "Bone_Lefthand" "Bone01" -0.071917 -8.498730 -0.104136 -8.982260 -10.337934 20.231657 0.000000 0.000000 0.000000 -0.000003 0.000000 -0.000002
$definebone "NEXON_CSO_spectreBone03" "Bone_Lefthand" 4.434187 -11.294303 4.175619 82.310775 -56.220524 -56.506986 0.000000 0.000000 0.000000 0.000002 0.000000 -0.000002
$definebone "NEXON_CSO_spectreBone56" "NEXON_CSO_spectreBone03" 0.000000 2.000728 0.853749 0.000002 0.000000 -0.000002 0.000000 0.000000 0.000000 0.000002 0.000000 -0.000002

$sequence "idle1" {
	"v_mp5_spectre_anims\idle1"
	fps 12
	loop
	activity "ACT_VM_IDLE" 1
	snap
}
$sequence "reload" {
	"v_mp5_spectre_anims\reload"
	{ event 5004 15 "Spectre.Clipout" }
	{ event 5004 46 "Spectre.Clipin" }
	{ event 5004 77 "Spectre.Draw" }
	fps 38
	activity "ACT_VM_RELOAD" 1
	snap
}
$sequence "draw" {
	"v_mp5_spectre_anims\draw"
	{ event 5004 0 "Spectre.Foley1" }
	{ event 5004 16 "Spectre.Draw" }
	fps 30
	activity "ACT_VM_DRAW" 1
	snap
}
$sequence "shoot1" {
	"v_mp5_spectre_anims\shoot1"
	{ event 5001 0 "11" }
	fps 30
	activity "ACT_VM_PRIMARYATTACK" 1
	snap
}
$sequence "shoot2" {
	"v_mp5_spectre_anims\shoot2"
	{ event 5001 0 "11" }
	fps 30
	activity "ACT_VM_PRIMARYATTACK" 2
	snap
}
$sequence "shoot3" {
	"v_mp5_spectre_anims\shoot3"
	{ event 5001 0 "11" }
	fps 30
	activity "ACT_VM_PRIMARYATTACK" 3
	snap
}