// Created by Crowbar 0.34.0.0

$ModelName "weapons/tfa_cso/w_newcomen_v6.mdl"

$BodyGroup "studio"
{
	studio "v_spsmg6"
}

$collisionmodel "v_spsmg6.smd"
{
	$mass 9
}

$CDMaterials "models\weapons\tfa_cso\newcomen_v6\"

$attachment "0" "root" -0.30 -9.50 -0.00 rotate -0 0 0

$Sequence "idle" {
	"anims\idle.smd"
	fps 30
}