version 1
nodes
  0 "Bone01" -1
  1 "Bone_Lefthand" 0
  2 "Bone03" 1
  3 "Bone56" 2
  4 "Bone54" 3
  5 "Bone25" 3
  6 "Bone48" 3
  7 "Bone50" 3
  8 "Bone52" 3
  9 "Bone 04" 1
  10 "Bone13" 9
  11 "Bone14" 10
  12 "Bone15" 11
  13 "Bone17" 9
  14 "Bone18" 13
  15 "Bone19" 14
  16 "Bone21" 9
  17 "Bone22" 16
  18 "Bone23" 17
  19 "Bone05" 9
  20 "Bone06" 19
  21 "Bone07" 20
  22 "Bone09" 9
  23 "Bone10" 22
  24 "Bone11" 23
  25 "Bone04" -1
  26 "Bone_Righthand" 25
  27 "Bone26" 26
  28 "Bone35" 27
  29 "Bone36" 28
  30 "Bone37" 29
  31 "Bone31" 27
  32 "Bone32" 31
  33 "Bone33" 32
  34 "Bone39" 27
  35 "Bone40" 34
  36 "Bone41" 35
  37 "Bone43" 27
  38 "Bone44" 37
  39 "Bone45" 38
  40 "Bone27" 27
  41 "Bone28" 40
  42 "Bone29" 41
end
skeleton
  time 0
    0 7.606551 2.665641 -8.194058 -0.774287 -1.331381 0.567272
    1 0.000000 -8.563285 0.000000 0.347509 -0.125220 -0.169570
    2 -0.435133 -3.043624 0.895601 -1.247037 1.437608 -1.233843
    3 0.000000 2.000727 0.853750 0.000000 0.000000 0.000000
    4 0.021119 -3.993921 3.201528 0.000000 0.000000 0.000000
    5 0.021119 -2.697111 1.084931 0.345564 0.000000 0.000000
    6 0.021119 -4.827049 0.994863 0.000000 0.000000 0.000000
    7 0.021119 -5.547592 1.535272 0.000000 0.000000 0.000000
    8 0.021119 -9.375484 3.809488 0.000000 0.000000 0.000000
    9 -0.003480 -0.404829 0.000001 0.000000 0.000000 0.000000
    10 -0.519309 -2.501156 -0.278957 -1.404591 -0.161672 -0.219512
    11 -0.010598 -1.208185 0.000001 -0.740030 0.000000 0.000000
    12 0.000000 -0.763066 0.000000 -1.343903 0.000000 0.000000
    13 0.105981 -2.607135 -0.278957 -1.135143 -0.167988 -0.238861
    14 0.000000 -1.250579 -0.000001 -0.966912 0.000000 0.000000
    15 0.000000 -0.932634 0.000000 -1.431181 0.000000 0.000000
    16 0.763063 -2.490557 -0.278957 -0.623597 -0.059228 0.057543
    17 -0.012322 -1.280917 0.000000 -0.872651 0.000000 0.000000
    18 -0.001697 -0.749371 0.000000 -0.420630 0.000000 0.000000
    19 0.354566 0.016267 0.318133 0.271703 -0.487906 -0.927541
    20 1.887165 0.012877 0.000000 -0.271037 -0.142581 -0.874135
    21 1.001873 -0.000270 0.000000 0.000000 0.000000 -0.902335
    22 -1.123359 -2.195094 -0.278957 -1.253823 -0.147135 -0.327965
    23 0.010772 -0.963791 0.000000 -0.542804 0.000000 0.000000
    24 -0.010412 -0.631916 -0.000001 -1.165881 0.000000 0.000000
    25 -0.800319 -9.330124 -10.486943 -0.726008 0.255020 0.648663
    26 0.089929 -8.543162 0.000001 0.570471 -0.049153 0.181509
    27 -0.000001 -0.359713 0.000000 0.000000 0.000000 0.000000
    28 -0.170479 -2.636147 -0.277655 -1.326477 0.000000 0.000000
    29 0.010598 -1.261177 0.000000 -0.687615 0.000000 0.000000
    30 -0.000001 -0.943233 -0.000001 -0.532326 0.000000 0.000000
    31 -0.827564 -2.508973 -0.277657 -0.851729 0.000000 0.000000
    32 -0.000001 -1.292971 0.000000 -1.167601 0.000000 0.000000
    33 0.000000 -0.752465 0.000000 -0.445059 0.000000 0.000000
    34 0.444212 -2.561960 -0.277655 -1.570265 -0.041073 -0.026169
    35 0.021022 -1.208186 0.000000 -0.427606 0.000000 0.000000
    36 0.010596 -0.741866 -0.000001 -0.453786 0.000000 0.000000
    37 1.047445 -2.222820 -0.277655 -1.508123 -0.078971 -0.038609
    38 -0.000001 -0.996223 -0.000002 -0.623094 0.000000 0.000000
    39 -0.000001 -0.614690 0.000001 -0.523599 0.000000 0.000000
    40 -0.308255 -0.007814 0.307166 0.124627 -0.099943 -2.491818
    41 1.978378 0.019544 0.000000 -0.098060 -0.036791 0.192024
    42 0.982426 0.003186 0.000001 0.000000 0.000000 0.383988
  time 1
    0 7.629989 2.739862 -8.209684 -0.767912 -1.328413 0.579524
    1 0.000000 -8.563285 0.000000 0.314264 -0.138619 -0.158532
    2 -0.435133 -3.043624 0.895601 -1.247037 1.437608 -1.233843
    3 0.000000 2.000727 0.853750 0.000000 0.000000 0.000000
    4 0.021119 -3.712662 3.201528 0.000000 0.000000 0.000000
    5 0.021119 -2.681485 1.084931 0.353653 0.000000 0.000000
    6 0.021119 -4.827049 0.994863 0.000000 0.000000 0.000000
    7 0.021119 -5.547592 1.535272 0.000000 0.000000 0.000000
    8 0.021119 -9.375484 3.809488 0.000000 0.000000 0.000000
    9 -0.003480 -0.404829 0.000001 0.000000 0.000000 0.000000
    10 -0.519309 -2.501156 -0.278957 -1.404591 -0.161672 -0.219512
    11 -0.010598 -1.208185 0.000001 -0.740030 0.000000 0.000000
    12 0.000000 -0.763066 0.000000 -1.343903 0.000000 0.000000
    13 0.105981 -2.607135 -0.278957 -1.135143 -0.167988 -0.238861
    14 0.000000 -1.250579 -0.000001 -0.966912 0.000000 0.000000
    15 0.000000 -0.932634 0.000000 -1.431181 0.000000 0.000000
    16 0.763063 -2.490557 -0.278957 -0.629107 -0.059072 0.057639
    17 -0.012322 -1.280917 0.000000 -0.876444 0.000000 0.000000
    18 -0.001697 -0.749371 0.000000 -0.417694 0.000000 0.000000
    19 0.354566 0.016267 0.318133 0.271703 -0.487906 -0.927541
    20 1.887165 0.012877 0.000000 -0.271037 -0.142581 -0.874135
    21 1.001873 -0.000270 0.000000 0.000000 0.000000 -0.902335
    22 -1.123359 -2.195094 -0.278957 -1.253823 -0.147135 -0.327965
    23 0.010772 -0.963791 0.000000 -0.542804 0.000000 0.000000
    24 -0.010412 -0.631916 -0.000001 -1.165881 0.000000 0.000000
    25 -1.085484 -9.689510 -10.424441 -0.753429 0.305160 0.700652
    26 0.089929 -8.543162 0.000001 0.592320 -0.065110 0.105712
    27 -0.000001 -0.359713 0.000000 0.000000 0.000000 0.000000
    28 -0.170479 -2.636147 -0.277655 -1.326477 0.000000 0.000000
    29 0.010598 -1.261177 0.000000 -0.687615 0.000000 0.000000
    30 -0.000001 -0.943233 -0.000001 -0.532326 0.000000 0.000000
    31 -0.827564 -2.508973 -0.277657 -0.851729 0.000000 0.000000
    32 -0.000001 -1.292971 0.000000 -1.167601 0.000000 0.000000
    33 0.000000 -0.752465 0.000000 -0.445059 0.000000 0.000000
    34 0.444212 -2.561960 -0.277655 -1.570265 -0.041073 -0.026169
    35 0.021022 -1.208186 0.000000 -0.427606 0.000000 0.000000
    36 0.010596 -0.741866 -0.000001 -0.453786 0.000000 0.000000
    37 1.047445 -2.222820 -0.277655 -1.508123 -0.078971 -0.038609
    38 -0.000001 -0.996223 -0.000002 -0.623094 0.000000 0.000000
    39 -0.000001 -0.614690 0.000001 -0.523599 0.000000 0.000000
    40 -0.308255 -0.007814 0.307166 0.124627 -0.099943 -2.491818
    41 1.978378 0.019544 0.000000 -0.098060 -0.036791 0.192024
    42 0.982426 0.003186 0.000001 0.000000 0.000000 0.383988
  time 2
    0 7.712023 2.966431 -8.248748 -0.761537 -1.325482 0.591702
    1 0.000000 -8.563285 0.000000 0.280779 -0.151646 -0.147039
    2 -0.435133 -3.043624 0.895601 -1.247037 1.437608 -1.233843
    3 0.000000 2.000727 0.853750 0.000000 0.000000 0.000000
    4 0.021119 -2.868887 3.201528 0.000000 0.000000 0.000000
    5 0.021119 -2.677579 1.084931 0.367172 0.000000 0.000000
    6 0.021119 -4.827049 0.994863 0.000000 0.000000 0.000000
    7 0.021119 -5.547592 1.535272 0.000000 0.000000 0.000000
    8 0.021119 -9.375484 3.809488 0.000000 0.000000 0.000000
    9 -0.003480 -0.404829 0.000001 0.000000 0.000000 0.000000
    10 -0.519309 -2.501156 -0.278957 -1.404591 -0.161672 -0.219512
    11 -0.010598 -1.208185 0.000001 -0.740030 0.000000 0.000000
    12 0.000000 -0.763066 0.000000 -1.343903 0.000000 0.000000
    13 0.105981 -2.607135 -0.278957 -1.135143 -0.167988 -0.238861
    14 0.000000 -1.250579 -0.000001 -0.966912 0.000000 0.000000
    15 0.000000 -0.932634 0.000000 -1.431181 0.000000 0.000000
    16 0.763063 -2.490557 -0.278957 -0.638331 -0.058832 0.057794
    17 -0.012322 -1.280917 0.000000 -0.882824 0.000000 0.000000
    18 -0.001697 -0.749371 0.000000 -0.412780 0.000000 0.000000
    19 0.354566 0.016267 0.318133 0.271703 -0.487906 -0.927541
    20 1.887165 0.012877 0.000000 -0.271037 -0.142581 -0.874135
    21 1.001873 -0.000270 0.000000 0.000000 0.000000 -0.902335
    22 -1.123359 -2.195094 -0.278957 -1.253823 -0.147135 -0.327965
    23 0.010772 -0.963791 0.000000 -0.542804 0.000000 0.000000
    24 -0.010412 -0.631916 -0.000001 -1.165881 0.000000 0.000000
    25 -1.296428 -10.005926 -10.381471 -0.778528 0.356714 0.752035
    26 0.089929 -8.543162 0.000001 0.615353 -0.079355 0.029486
    27 -0.000001 -0.359713 0.000000 0.000000 0.000000 0.000000
    28 -0.170479 -2.636147 -0.277655 -1.326477 0.000000 0.000000
    29 0.010598 -1.261177 0.000000 -0.687615 0.000000 0.000000
    30 -0.000001 -0.943233 -0.000001 -0.532326 0.000000 0.000000
    31 -0.827564 -2.508973 -0.277657 -0.851729 0.000000 0.000000
    32 -0.000001 -1.292971 0.000000 -1.167601 0.000000 0.000000
    33 0.000000 -0.752465 0.000000 -0.445059 0.000000 0.000000
    34 0.444212 -2.561960 -0.277655 -1.570265 -0.041073 -0.026169
    35 0.021022 -1.208186 0.000000 -0.427606 0.000000 0.000000
    36 0.010596 -0.741866 -0.000001 -0.453786 0.000000 0.000000
    37 1.047445 -2.222820 -0.277655 -1.508123 -0.078971 -0.038609
    38 -0.000001 -0.996223 -0.000002 -0.623094 0.000000 0.000000
    39 -0.000001 -0.614690 0.000001 -0.523599 0.000000 0.000000
    40 -0.308255 -0.007814 0.307166 0.124627 -0.099943 -2.491818
    41 1.978378 0.019544 0.000000 -0.098060 -0.036791 0.192024
    42 0.982426 0.003186 0.000001 0.000000 0.000000 0.383988
  time 3
    0 7.844839 3.341443 -8.319062 -0.757013 -1.323953 0.597939
    1 0.000000 -8.563285 0.000000 0.259998 -0.157854 -0.140232
    2 -0.435133 -3.043624 0.895601 -1.247037 1.437608 -1.233843
    3 0.000000 2.000727 0.853750 0.000000 0.000000 0.000000
    4 0.021119 -3.431404 3.201528 0.000000 0.000000 0.000000
    5 0.021119 -2.681485 1.084931 0.369856 0.000000 0.000000
    6 0.021119 -4.827049 0.994863 0.000000 0.000000 0.000000
    7 0.021119 -5.547592 1.535272 0.000000 0.000000 0.000000
    8 0.021119 -9.375484 3.809488 0.000000 0.000000 0.000000
    9 -0.003480 -0.404829 0.000001 0.000000 0.000000 0.000000
    10 -0.519309 -2.501156 -0.278957 -1.404591 -0.161672 -0.219512
    11 -0.010598 -1.208185 0.000001 -0.740030 0.000000 0.000000
    12 0.000000 -0.763066 0.000000 -1.343903 0.000000 0.000000
    13 0.105981 -2.607135 -0.278957 -1.135143 -0.167988 -0.238861
    14 0.000000 -1.250579 -0.000001 -0.966912 0.000000 0.000000
    15 0.000000 -0.932634 0.000000 -1.431181 0.000000 0.000000
    16 0.763063 -2.490557 -0.278957 -0.640175 -0.058785 0.057830
    17 -0.012322 -1.280917 0.000000 -0.884093 0.000000 0.000000
    18 -0.001697 -0.749371 0.000000 -0.411797 0.000000 0.000000
    19 0.354566 0.016267 0.318133 0.271703 -0.487906 -0.927541
    20 1.887165 0.012877 0.000000 -0.271037 -0.142581 -0.874135
    21 1.001873 -0.000270 0.000000 0.000000 0.000000 -0.902335
    22 -1.123359 -2.195094 -0.278957 -1.253823 -0.147135 -0.327965
    23 0.010772 -0.963791 0.000000 -0.542804 0.000000 0.000000
    24 -0.010412 -0.631916 -0.000001 -1.165881 0.000000 0.000000
    25 -1.382368 -10.138743 -10.361939 -0.789948 0.384141 0.777840
    26 0.089929 -8.543162 0.000001 0.626756 -0.091595 -0.010536
    27 -0.000001 -0.359713 0.000000 0.000000 0.000000 0.000000
    28 -0.170479 -2.636147 -0.277655 -1.326477 0.000000 0.000000
    29 0.010598 -1.261177 0.000000 -0.687615 0.000000 0.000000
    30 -0.000001 -0.943233 -0.000001 -0.532326 0.000000 0.000000
    31 -0.827564 -2.508973 -0.277657 -0.851729 0.000000 0.000000
    32 -0.000001 -1.292971 0.000000 -1.167601 0.000000 0.000000
    33 0.000000 -0.752465 0.000000 -0.445059 0.000000 0.000000
    34 0.444212 -2.561960 -0.277655 -1.570265 -0.041073 -0.026169
    35 0.021022 -1.208186 0.000000 -0.427606 0.000000 0.000000
    36 0.010596 -0.741866 -0.000001 -0.453786 0.000000 0.000000
    37 1.047445 -2.222820 -0.277655 -1.508123 -0.078971 -0.038609
    38 -0.000001 -0.996223 -0.000002 -0.623094 0.000000 0.000000
    39 -0.000001 -0.614690 0.000001 -0.523599 0.000000 0.000000
    40 -0.308255 -0.007814 0.307166 0.124627 -0.099943 -2.491818
    41 1.978378 0.019544 0.000000 -0.098060 -0.036791 0.192024
    42 0.982426 0.003186 0.000001 0.000000 0.000000 0.383988
  time 4
    0 7.758899 3.134405 -8.279999 -0.754683 -1.324547 0.595563
    1 0.000000 -8.563285 0.000000 0.260321 -0.154319 -0.141442
    2 -0.435133 -3.043624 0.895601 -1.247037 1.437608 -1.233843
    3 0.000000 2.000727 0.853750 0.000000 0.000000 0.000000
    4 0.021119 -3.993921 3.201528 0.000000 0.000000 0.000000
    5 0.021119 -2.697111 1.084931 0.345564 0.000000 0.000000
    6 0.021119 -4.827049 0.994863 0.000000 0.000000 0.000000
    7 0.021119 -5.547592 1.535272 0.000000 0.000000 0.000000
    8 0.021119 -9.375484 3.809488 0.000000 0.000000 0.000000
    9 -0.003480 -0.404829 0.000001 0.000000 0.000000 0.000000
    10 -0.519309 -2.501156 -0.278957 -1.404591 -0.161672 -0.219512
    11 -0.010598 -1.208185 0.000001 -0.740030 0.000000 0.000000
    12 0.000000 -0.763066 0.000000 -1.343903 0.000000 0.000000
    13 0.105981 -2.607135 -0.278957 -1.135143 -0.167988 -0.238861
    14 0.000000 -1.250579 -0.000001 -0.966912 0.000000 0.000000
    15 0.000000 -0.932634 0.000000 -1.431181 0.000000 0.000000
    16 0.763063 -2.490557 -0.278957 -0.623597 -0.059228 0.057543
    17 -0.012322 -1.280917 0.000000 -0.872651 0.000000 0.000000
    18 -0.001697 -0.749371 0.000000 -0.420630 0.000000 0.000000
    19 0.354566 0.016267 0.318133 0.271703 -0.487906 -0.927541
    20 1.887165 0.012877 0.000000 -0.271037 -0.142581 -0.874135
    21 1.001873 -0.000270 0.000000 0.000000 0.000000 -0.902335
    22 -1.123359 -2.195094 -0.278957 -1.253823 -0.147135 -0.327965
    23 0.010772 -0.963791 0.000000 -0.542804 0.000000 0.000000
    24 -0.010412 -0.631916 -0.000001 -1.165881 0.000000 0.000000
    25 -1.429244 -10.314529 -10.354127 -0.786786 0.381391 0.772755
    26 0.089929 -8.543162 0.000001 0.622591 -0.105216 -0.006354
    27 -0.000001 -0.359713 0.000000 0.000000 0.000000 0.000000
    28 -0.170479 -2.636147 -0.277655 -1.326477 0.000000 0.000000
    29 0.010598 -1.261177 0.000000 -0.687615 0.000000 0.000000
    30 -0.000001 -0.943233 -0.000001 -0.532326 0.000000 0.000000
    31 -0.827564 -2.508973 -0.277657 -0.851729 0.000000 0.000000
    32 -0.000001 -1.292971 0.000000 -1.167601 0.000000 0.000000
    33 0.000000 -0.752465 0.000000 -0.445059 0.000000 0.000000
    34 0.444212 -2.561960 -0.277655 -1.570265 -0.041073 -0.026169
    35 0.021022 -1.208186 0.000000 -0.427606 0.000000 0.000000
    36 0.010596 -0.741866 -0.000001 -0.453786 0.000000 0.000000
    37 1.047445 -2.222820 -0.277655 -1.508123 -0.078971 -0.038609
    38 -0.000001 -0.996223 -0.000002 -0.623094 0.000000 0.000000
    39 -0.000001 -0.614690 0.000001 -0.523599 0.000000 0.000000
    40 -0.308255 -0.007814 0.307166 0.124627 -0.099943 -2.491818
    41 1.978378 0.019544 0.000000 -0.098060 -0.036791 0.192024
    42 0.982426 0.003186 0.000001 0.000000 0.000000 0.383988
  time 5
    0 7.696397 2.985963 -8.252654 -0.753517 -1.326255 0.588583
    1 0.000000 -8.563285 0.000000 0.274786 -0.145234 -0.147662
    2 -0.435133 -3.043624 0.895601 -1.247037 1.437608 -1.233843
    3 0.000000 2.000727 0.853750 0.000000 0.000000 0.000000
    4 0.021119 -3.993921 3.201528 0.000000 0.000000 0.000000
    5 0.021119 -2.724455 1.084931 0.271307 0.000000 0.000000
    6 0.021119 -4.827049 0.994863 0.000000 0.000000 0.000000
    7 0.021119 -5.547592 1.535272 0.000000 0.000000 0.000000
    8 0.021119 -9.375484 3.809488 0.000000 0.000000 0.000000
    9 -0.003480 -0.404829 0.000001 0.000000 0.000000 0.000000
    10 -0.519309 -2.501156 -0.278957 -1.404591 -0.161672 -0.219512
    11 -0.010598 -1.208185 0.000001 -0.740030 0.000000 0.000000
    12 0.000000 -0.763066 0.000000 -1.343903 0.000000 0.000000
    13 0.105981 -2.607135 -0.278957 -1.135143 -0.167988 -0.238861
    14 0.000000 -1.250579 -0.000001 -0.966912 0.000000 0.000000
    15 0.000000 -0.932634 0.000000 -1.431181 0.000000 0.000000
    16 0.763063 -2.490557 -0.278957 -0.572952 -0.060498 0.056608
    17 -0.012322 -1.280917 0.000000 -0.842404 0.000000 0.000000
    18 -0.001697 -0.749371 0.000000 -0.440429 0.000000 0.000000
    19 0.354566 0.016267 0.318133 0.271703 -0.487906 -0.927541
    20 1.887165 0.012877 0.000000 -0.271037 -0.142581 -0.874135
    21 1.001873 -0.000270 0.000000 0.000000 0.000000 -0.902335
    22 -1.123359 -2.195094 -0.278957 -1.253823 -0.147135 -0.327965
    23 0.010772 -0.963791 0.000000 -0.542804 0.000000 0.000000
    24 -0.010412 -0.631916 -0.000001 -1.165881 0.000000 0.000000
    25 -1.366742 -10.271559 -10.358033 -0.776592 0.364887 0.753173
    26 0.089929 -8.543162 0.000001 0.610596 -0.120531 0.018397
    27 -0.000001 -0.359713 0.000000 0.000000 0.000000 0.000000
    28 -0.170479 -2.636147 -0.277655 -1.326477 0.000000 0.000000
    29 0.010598 -1.261177 0.000000 -0.687615 0.000000 0.000000
    30 -0.000001 -0.943233 -0.000001 -0.532326 0.000000 0.000000
    31 -0.827564 -2.508973 -0.277657 -0.851729 0.000000 0.000000
    32 -0.000001 -1.292971 0.000000 -1.167601 0.000000 0.000000
    33 0.000000 -0.752465 0.000000 -0.445059 0.000000 0.000000
    34 0.444212 -2.561960 -0.277655 -1.570265 -0.041073 -0.026169
    35 0.021022 -1.208186 0.000000 -0.427606 0.000000 0.000000
    36 0.010596 -0.741866 -0.000001 -0.453786 0.000000 0.000000
    37 1.047445 -2.222820 -0.277655 -1.508123 -0.078971 -0.038609
    38 -0.000001 -0.996223 -0.000002 -0.623094 0.000000 0.000000
    39 -0.000001 -0.614690 0.000001 -0.523599 0.000000 0.000000
    40 -0.308255 -0.007814 0.307166 0.124627 -0.099943 -2.491818
    41 1.978378 0.019544 0.000000 -0.098060 -0.036791 0.192024
    42 0.982426 0.003186 0.000001 0.000000 0.000000 0.383988
  time 6
    0 7.657333 2.896117 -8.233122 -0.753174 -1.328162 0.580712
    1 0.000000 -8.563285 0.000000 0.293351 -0.135239 -0.154937
    2 -0.435133 -3.043624 0.895601 -1.247037 1.437608 -1.233843
    3 0.000000 2.000727 0.853750 0.000000 0.000000 0.000000
    4 0.021119 -3.993921 3.201528 0.000000 0.000000 0.000000
    5 0.021119 -2.767426 1.084931 0.161984 0.000000 0.000000
    6 0.021119 -4.827049 0.994863 0.000000 0.000000 0.000000
    7 0.021119 -5.547592 1.535272 0.000000 0.000000 0.000000
    8 0.021119 -9.375484 3.809488 0.000000 0.000000 0.000000
    9 -0.003480 -0.404829 0.000001 0.000000 0.000000 0.000000
    10 -0.519309 -2.501156 -0.278957 -1.404591 -0.161672 -0.219512
    11 -0.010598 -1.208185 0.000001 -0.740030 0.000000 0.000000
    12 0.000000 -0.763066 0.000000 -1.343903 0.000000 0.000000
    13 0.105981 -2.607135 -0.278957 -1.135143 -0.167988 -0.238861
    14 0.000000 -1.250579 -0.000001 -0.966912 0.000000 0.000000
    15 0.000000 -0.932634 0.000000 -1.431181 0.000000 0.000000
    16 0.763063 -2.490557 -0.278957 -0.498351 -0.062308 0.055098
    17 -0.012322 -1.280917 0.000000 -0.798969 0.000000 0.000000
    18 -0.001697 -0.749371 0.000000 -0.466507 0.000000 0.000000
    19 0.354566 0.016267 0.318133 0.271703 -0.487906 -0.927541
    20 1.887165 0.012877 0.000000 -0.271037 -0.142581 -0.874135
    21 1.001873 -0.000270 0.000000 0.000000 0.000000 -0.902335
    22 -1.123359 -2.195094 -0.278957 -1.253823 -0.147135 -0.327965
    23 0.010772 -0.963791 0.000000 -0.542804 0.000000 0.000000
    24 -0.010412 -0.631916 -0.000001 -1.165881 0.000000 0.000000
    25 -1.202675 -10.033271 -10.369752 -0.763107 0.342096 0.727065
    26 0.089929 -8.543162 0.000001 0.594915 -0.134114 0.053036
    27 -0.000001 -0.359713 0.000000 0.000000 0.000000 0.000000
    28 -0.170479 -2.636147 -0.277655 -1.326477 0.000000 0.000000
    29 0.010598 -1.261177 0.000000 -0.687615 0.000000 0.000000
    30 -0.000001 -0.943233 -0.000001 -0.532326 0.000000 0.000000
    31 -0.827564 -2.508973 -0.277657 -0.851729 0.000000 0.000000
    32 -0.000001 -1.292971 0.000000 -1.167601 0.000000 0.000000
    33 0.000000 -0.752465 0.000000 -0.445059 0.000000 0.000000
    34 0.444212 -2.561960 -0.277655 -1.570265 -0.041073 -0.026169
    35 0.021022 -1.208186 0.000000 -0.427606 0.000000 0.000000
    36 0.010596 -0.741866 -0.000001 -0.453786 0.000000 0.000000
    37 1.047445 -2.222820 -0.277655 -1.508123 -0.078971 -0.038609
    38 -0.000001 -0.996223 -0.000002 -0.623094 0.000000 0.000000
    39 -0.000001 -0.614690 0.000001 -0.523599 0.000000 0.000000
    40 -0.308255 -0.007814 0.307166 0.124627 -0.099943 -2.491818
    41 1.978378 0.019544 0.000000 -0.098060 -0.036791 0.192024
    42 0.982426 0.003186 0.000001 0.000000 0.000000 0.383988
  time 7
    0 7.645614 2.864866 -8.225309 -0.753791 -1.329277 0.576034
    1 0.000000 -8.563285 0.000000 0.306162 -0.129139 -0.159587
    2 -0.435133 -3.043624 0.895601 -1.247037 1.437608 -1.233843
    3 0.000000 2.000727 0.853750 0.000000 0.000000 0.000000
    4 0.021119 -3.993921 3.201528 0.000000 0.000000 0.000000
    5 0.021119 -2.810396 1.084931 0.058029 0.000000 0.000000
    6 0.021119 -4.827049 0.994863 0.000000 0.000000 0.000000
    7 0.021119 -5.547592 1.535272 0.000000 0.000000 0.000000
    8 0.021119 -9.375484 3.809488 0.000000 0.000000 0.000000
    9 -0.003480 -0.404829 0.000001 0.000000 0.000000 0.000000
    10 -0.519309 -2.501156 -0.278957 -1.404591 -0.161672 -0.219512
    11 -0.010598 -1.208185 0.000001 -0.740030 0.000000 0.000000
    12 0.000000 -0.763066 0.000000 -1.343903 0.000000 0.000000
    13 0.105981 -2.607135 -0.278957 -1.135143 -0.167988 -0.238861
    14 0.000000 -1.250579 -0.000001 -0.966912 0.000000 0.000000
    15 0.000000 -0.932634 0.000000 -1.431181 0.000000 0.000000
    16 0.763063 -2.490557 -0.278957 -0.427414 -0.063926 0.053552
    17 -0.012322 -1.280917 0.000000 -0.752375 0.000000 0.000000
    18 -0.001697 -0.749371 0.000000 -0.496085 0.000000 0.000000
    19 0.354566 0.016267 0.318133 0.271703 -0.487906 -0.927541
    20 1.887165 0.012877 0.000000 -0.271037 -0.142581 -0.874135
    21 1.001873 -0.000270 0.000000 0.000000 0.000000 -0.902335
    22 -1.123359 -2.195094 -0.278957 -1.253823 -0.147135 -0.327965
    23 0.010772 -0.963791 0.000000 -0.542804 0.000000 0.000000
    24 -0.010412 -0.631916 -0.000001 -1.165881 0.000000 0.000000
    25 -1.038607 -9.771544 -10.381471 -0.750074 0.320406 0.702398
    26 0.089929 -8.543162 0.000001 0.580258 -0.142949 0.086580
    27 -0.000001 -0.359713 0.000000 0.000000 0.000000 0.000000
    28 -0.170479 -2.636147 -0.277655 -1.326477 0.000000 0.000000
    29 0.010598 -1.261177 0.000000 -0.687615 0.000000 0.000000
    30 -0.000001 -0.943233 -0.000001 -0.532326 0.000000 0.000000
    31 -0.827564 -2.508973 -0.277657 -0.851729 0.000000 0.000000
    32 -0.000001 -1.292971 0.000000 -1.167601 0.000000 0.000000
    33 0.000000 -0.752465 0.000000 -0.445059 0.000000 0.000000
    34 0.444212 -2.561960 -0.277655 -1.570265 -0.041073 -0.026169
    35 0.021022 -1.208186 0.000000 -0.427606 0.000000 0.000000
    36 0.010596 -0.741866 -0.000001 -0.453786 0.000000 0.000000
    37 1.047445 -2.222820 -0.277655 -1.508123 -0.078971 -0.038609
    38 -0.000001 -0.996223 -0.000002 -0.623094 0.000000 0.000000
    39 -0.000001 -0.614690 0.000001 -0.523599 0.000000 0.000000
    40 -0.308255 -0.007814 0.307166 0.124627 -0.099943 -2.491818
    41 1.978378 0.019544 0.000000 -0.098060 -0.036791 0.192024
    42 0.982426 0.003186 0.000001 0.000000 0.000000 0.383988
  time 8
    0 7.637802 2.837521 -8.225309 -0.754888 -1.329654 0.574400
    1 0.000000 -8.563285 0.000000 0.312430 -0.127042 -0.161552
    2 -0.435133 -3.043624 0.895601 -1.247037 1.437608 -1.233843
    3 0.000000 2.000727 0.853750 0.000000 0.000000 0.000000
    4 0.021119 -3.993921 3.201528 0.000000 0.000000 0.000000
    5 0.021119 -2.845553 1.084931 0.000000 0.000000 0.000000
    6 0.021119 -4.827049 0.994863 0.000000 0.000000 0.000000
    7 0.021119 -5.547592 1.535272 0.000000 0.000000 0.000000
    8 0.021119 -9.375484 3.809488 0.000000 0.000000 0.000000
    9 -0.003480 -0.404829 0.000001 0.000000 0.000000 0.000000
    10 -0.519309 -2.501156 -0.278957 -1.404591 -0.161672 -0.219512
    11 -0.010598 -1.208185 0.000001 -0.740030 0.000000 0.000000
    12 0.000000 -0.763066 0.000000 -1.343903 0.000000 0.000000
    13 0.105981 -2.607135 -0.278957 -1.135143 -0.167988 -0.238861
    14 0.000000 -1.250579 -0.000001 -0.966912 0.000000 0.000000
    15 0.000000 -0.932634 0.000000 -1.431181 0.000000 0.000000
    16 0.763063 -2.490557 -0.278957 -0.387814 -0.064777 0.052641
    17 -0.012322 -1.280917 0.000000 -0.712511 0.000000 0.000000
    18 -0.001697 -0.749371 0.000000 -0.526370 0.000000 0.000000
    19 0.354566 0.016267 0.318133 0.271703 -0.487906 -0.927541
    20 1.887165 0.012877 0.000000 -0.271037 -0.142581 -0.874135
    21 1.001873 -0.000270 0.000000 0.000000 0.000000 -0.902335
    22 -1.123359 -2.195094 -0.278957 -1.253823 -0.147135 -0.327965
    23 0.010772 -0.963791 0.000000 -0.542804 0.000000 0.000000
    24 -0.010412 -0.631916 -0.000001 -1.165881 0.000000 0.000000
    25 -0.960480 -9.646540 -10.389284 -0.742074 0.306653 0.687295
    26 0.089929 -8.543162 0.000001 0.571723 -0.144545 0.107900
    27 -0.000001 -0.359713 0.000000 0.000000 0.000000 0.000000
    28 -0.170479 -2.636147 -0.277655 -1.326477 0.000000 0.000000
    29 0.010598 -1.261177 0.000000 -0.687615 0.000000 0.000000
    30 -0.000001 -0.943233 -0.000001 -0.532326 0.000000 0.000000
    31 -0.827564 -2.508973 -0.277657 -0.851729 0.000000 0.000000
    32 -0.000001 -1.292971 0.000000 -1.167601 0.000000 0.000000
    33 0.000000 -0.752465 0.000000 -0.445059 0.000000 0.000000
    34 0.444212 -2.561960 -0.277655 -1.570265 -0.041073 -0.026169
    35 0.021022 -1.208186 0.000000 -0.427606 0.000000 0.000000
    36 0.010596 -0.741866 -0.000001 -0.453786 0.000000 0.000000
    37 1.047445 -2.222820 -0.277655 -1.508123 -0.078971 -0.038609
    38 -0.000001 -0.996223 -0.000002 -0.623094 0.000000 0.000000
    39 -0.000001 -0.614690 0.000001 -0.523599 0.000000 0.000000
    40 -0.308255 -0.007814 0.307166 0.124627 -0.099943 -2.491818
    41 1.978378 0.019544 0.000000 -0.098060 -0.036791 0.192024
    42 0.982426 0.003186 0.000001 0.000000 0.000000 0.383988
  time 9
    0 7.633895 2.810177 -8.221403 -0.756053 -1.329978 0.573064
    1 0.000000 -8.563285 0.000000 0.317907 -0.125723 -0.163110
    2 -0.435133 -3.043624 0.895601 -1.247037 1.437608 -1.233843
    3 0.000000 2.000727 0.853750 0.000000 0.000000 0.000000
    4 0.021119 -3.993921 3.201528 0.000000 0.000000 0.000000
    5 0.021119 -2.865085 1.084931 -0.018145 0.000000 0.000000
    6 0.021119 -4.827049 0.994863 0.000000 0.000000 0.000000
    7 0.021119 -5.547592 1.535272 0.000000 0.000000 0.000000
    8 0.021119 -9.375484 3.809488 0.000000 0.000000 0.000000
    9 -0.003480 -0.404829 0.000001 0.000000 0.000000 0.000000
    10 -0.519309 -2.501156 -0.278957 -1.404591 -0.161672 -0.219512
    11 -0.010598 -1.208185 0.000001 -0.740030 0.000000 0.000000
    12 0.000000 -0.763066 0.000000 -1.343903 0.000000 0.000000
    13 0.105981 -2.607135 -0.278957 -1.135143 -0.167988 -0.238861
    14 0.000000 -1.250579 -0.000001 -0.966912 0.000000 0.000000
    15 0.000000 -0.932634 0.000000 -1.431181 0.000000 0.000000
    16 0.763063 -2.490557 -0.278957 -0.375428 -0.065017 0.052353
    17 -0.012322 -1.280917 0.000000 -0.689389 0.000000 0.000000
    18 -0.001697 -0.749371 0.000000 -0.554570 0.000000 0.000000
    19 0.354566 0.016267 0.318133 0.271703 -0.487906 -0.927541
    20 1.887165 0.012877 0.000000 -0.271037 -0.142581 -0.874135
    21 1.001873 -0.000270 0.000000 0.000000 0.000000 -0.902335
    22 -1.123359 -2.195094 -0.278957 -1.253823 -0.147135 -0.327965
    23 0.010772 -0.963791 0.000000 -0.542804 0.000000 0.000000
    24 -0.010412 -0.631916 -0.000001 -1.165881 0.000000 0.000000
    25 -0.905791 -9.584038 -10.408816 -0.738525 0.299658 0.680388
    26 0.089929 -8.543162 0.000001 0.568582 -0.141003 0.118473
    27 -0.000001 -0.359713 0.000000 0.000000 0.000000 0.000000
    28 -0.170479 -2.636147 -0.277655 -1.326477 0.000000 0.000000
    29 0.010598 -1.261177 0.000000 -0.687615 0.000000 0.000000
    30 -0.000001 -0.943233 -0.000001 -0.532326 0.000000 0.000000
    31 -0.827564 -2.508973 -0.277657 -0.851729 0.000000 0.000000
    32 -0.000001 -1.292971 0.000000 -1.167601 0.000000 0.000000
    33 0.000000 -0.752465 0.000000 -0.445059 0.000000 0.000000
    34 0.444212 -2.561960 -0.277655 -1.570265 -0.041073 -0.026169
    35 0.021022 -1.208186 0.000000 -0.427606 0.000000 0.000000
    36 0.010596 -0.741866 -0.000001 -0.453786 0.000000 0.000000
    37 1.047445 -2.222820 -0.277655 -1.508123 -0.078971 -0.038609
    38 -0.000001 -0.996223 -0.000002 -0.623094 0.000000 0.000000
    39 -0.000001 -0.614690 0.000001 -0.523599 0.000000 0.000000
    40 -0.308255 -0.007814 0.307166 0.124627 -0.099943 -2.491818
    41 1.978378 0.019544 0.000000 -0.098060 -0.036791 0.192024
    42 0.982426 0.003186 0.000001 0.000000 0.000000 0.383988
  time 10
    0 7.629989 2.782832 -8.217497 -0.757424 -1.330266 0.571950
    1 0.000000 -8.563285 0.000000 0.322773 -0.125052 -0.164369
    2 -0.435133 -3.043624 0.895601 -1.247037 1.437608 -1.233843
    3 0.000000 2.000727 0.853750 0.000000 0.000000 0.000000
    4 0.021119 -3.993921 3.201528 0.000000 0.000000 0.000000
    5 0.021119 -2.888523 1.084931 -0.029985 0.000000 0.000000
    6 0.021119 -4.827049 0.994863 0.000000 0.000000 0.000000
    7 0.021119 -5.547592 1.535272 0.000000 0.000000 0.000000
    8 0.021119 -9.375484 3.809488 0.000000 0.000000 0.000000
    9 -0.003480 -0.404829 0.000001 0.000000 0.000000 0.000000
    10 -0.519309 -2.501156 -0.278957 -1.404591 -0.161672 -0.219512
    11 -0.010598 -1.208185 0.000001 -0.740030 0.000000 0.000000
    12 0.000000 -0.763066 0.000000 -1.343903 0.000000 0.000000
    13 0.105981 -2.607135 -0.278957 -1.135143 -0.167988 -0.238861
    14 0.000000 -1.250579 -0.000001 -0.966912 0.000000 0.000000
    15 0.000000 -0.932634 0.000000 -1.431181 0.000000 0.000000
    16 0.763063 -2.490557 -0.278957 -0.367355 -0.065184 0.052150
    17 -0.012322 -1.280917 0.000000 -0.679947 0.000000 0.000000
    18 -0.001697 -0.749371 0.000000 -0.577832 0.000000 0.000000
    19 0.354566 0.016267 0.318133 0.271703 -0.487906 -0.927541
    20 1.887165 0.012877 0.000000 -0.271037 -0.142581 -0.874135
    21 1.001873 -0.000270 0.000000 0.000000 0.000000 -0.902335
    22 -1.123359 -2.195094 -0.278957 -1.253823 -0.147135 -0.327965
    23 0.010772 -0.963791 0.000000 -0.542804 0.000000 0.000000
    24 -0.010412 -0.631916 -0.000001 -1.165881 0.000000 0.000000
    25 -0.858914 -9.529349 -10.428348 -0.735815 0.293686 0.674696
    26 0.089929 -8.543162 0.000001 0.566420 -0.135904 0.127524
    27 -0.000001 -0.359713 0.000000 0.000000 0.000000 0.000000
    28 -0.170479 -2.636147 -0.277655 -1.326477 0.000000 0.000000
    29 0.010598 -1.261177 0.000000 -0.687615 0.000000 0.000000
    30 -0.000001 -0.943233 -0.000001 -0.532326 0.000000 0.000000
    31 -0.827564 -2.508973 -0.277657 -0.851729 0.000000 0.000000
    32 -0.000001 -1.292971 0.000000 -1.167601 0.000000 0.000000
    33 0.000000 -0.752465 0.000000 -0.445059 0.000000 0.000000
    34 0.444212 -2.561960 -0.277655 -1.570265 -0.041073 -0.026169
    35 0.021022 -1.208186 0.000000 -0.427606 0.000000 0.000000
    36 0.010596 -0.741866 -0.000001 -0.453786 0.000000 0.000000
    37 1.047445 -2.222820 -0.277655 -1.508123 -0.078971 -0.038609
    38 -0.000001 -0.996223 -0.000002 -0.623094 0.000000 0.000000
    39 -0.000001 -0.614690 0.000001 -0.523599 0.000000 0.000000
    40 -0.308255 -0.007814 0.307166 0.124627 -0.099943 -2.491818
    41 1.978378 0.019544 0.000000 -0.098060 -0.036791 0.192024
    42 0.982426 0.003186 0.000001 0.000000 0.000000 0.383988
  time 11
    0 7.622176 2.763300 -8.213590 -0.758932 -1.330464 0.571133
    1 0.000000 -8.563285 0.000000 0.327135 -0.124836 -0.165363
    2 -0.435133 -3.043624 0.895601 -1.247037 1.437608 -1.233843
    3 0.000000 2.000727 0.853750 0.000000 0.000000 0.000000
    4 0.021119 -3.993921 3.201528 0.000000 0.000000 0.000000
    5 0.021119 -2.904148 1.084931 -0.036433 0.000000 0.000000
    6 0.021119 -4.827049 0.994863 0.000000 0.000000 0.000000
    7 0.021119 -5.547592 1.535272 0.000000 0.000000 0.000000
    8 0.021119 -9.375484 3.809488 0.000000 0.000000 0.000000
    9 -0.003480 -0.404829 0.000001 0.000000 0.000000 0.000000
    10 -0.519309 -2.501156 -0.278957 -1.404591 -0.161672 -0.219512
    11 -0.010598 -1.208185 0.000001 -0.740030 0.000000 0.000000
    12 0.000000 -0.763066 0.000000 -1.343903 0.000000 0.000000
    13 0.105981 -2.607135 -0.278957 -1.135143 -0.167988 -0.238861
    14 0.000000 -1.250579 -0.000001 -0.966912 0.000000 0.000000
    15 0.000000 -0.932634 0.000000 -1.431181 0.000000 0.000000
    16 0.763063 -2.490557 -0.278957 -0.362923 -0.065268 0.052054
    17 -0.012322 -1.280917 0.000000 -0.674059 0.000000 0.000000
    18 -0.001697 -0.749371 0.000000 -0.593412 0.000000 0.000000
    19 0.354566 0.016267 0.318133 0.271703 -0.487906 -0.927541
    20 1.887165 0.012877 0.000000 -0.271037 -0.142581 -0.874135
    21 1.001873 -0.000270 0.000000 0.000000 0.000000 -0.902335
    22 -1.123359 -2.195094 -0.278957 -1.253823 -0.147135 -0.327965
    23 0.010772 -0.963791 0.000000 -0.542804 0.000000 0.000000
    24 -0.010412 -0.631916 -0.000001 -1.165881 0.000000 0.000000
    25 -0.819851 -9.486379 -10.443973 -0.733686 0.288420 0.670142
    26 0.089929 -8.543162 0.000001 0.565168 -0.129502 0.135246
    27 -0.000001 -0.359713 0.000000 0.000000 0.000000 0.000000
    28 -0.170479 -2.636147 -0.277655 -1.326477 0.000000 0.000000
    29 0.010598 -1.261177 0.000000 -0.687615 0.000000 0.000000
    30 -0.000001 -0.943233 -0.000001 -0.532326 0.000000 0.000000
    31 -0.827564 -2.508973 -0.277657 -0.851729 0.000000 0.000000
    32 -0.000001 -1.292971 0.000000 -1.167601 0.000000 0.000000
    33 0.000000 -0.752465 0.000000 -0.445059 0.000000 0.000000
    34 0.444212 -2.561960 -0.277655 -1.570265 -0.041073 -0.026169
    35 0.021022 -1.208186 0.000000 -0.427606 0.000000 0.000000
    36 0.010596 -0.741866 -0.000001 -0.453786 0.000000 0.000000
    37 1.047445 -2.222820 -0.277655 -1.508123 -0.078971 -0.038609
    38 -0.000001 -0.996223 -0.000002 -0.623094 0.000000 0.000000
    39 -0.000001 -0.614690 0.000001 -0.523599 0.000000 0.000000
    40 -0.308255 -0.007814 0.307166 0.124627 -0.099943 -2.491818
    41 1.978378 0.019544 0.000000 -0.098060 -0.036791 0.192024
    42 0.982426 0.003186 0.000001 0.000000 0.000000 0.383988
  time 12
    0 7.618270 2.739862 -8.209684 -0.760509 -1.330608 0.570465
    1 0.000000 -8.563285 0.000000 0.331222 -0.124908 -0.166202
    2 -0.435133 -3.043624 0.895601 -1.247037 1.437608 -1.233843
    3 0.000000 2.000727 0.853750 0.000000 0.000000 0.000000
    4 0.021119 -3.993921 3.201528 0.000000 0.000000 0.000000
    5 0.021119 -2.915868 1.084931 -0.038387 0.000000 0.000000
    6 0.021119 -4.827049 0.994863 0.000000 0.000000 0.000000
    7 0.021119 -5.547592 1.535272 0.000000 0.000000 0.000000
    8 0.021119 -9.375484 3.809488 0.000000 0.000000 0.000000
    9 -0.003480 -0.404829 0.000001 0.000000 0.000000 0.000000
    10 -0.519309 -2.501156 -0.278957 -1.404591 -0.161672 -0.219512
    11 -0.010598 -1.208185 0.000001 -0.740030 0.000000 0.000000
    12 0.000000 -0.763066 0.000000 -1.343903 0.000000 0.000000
    13 0.105981 -2.607135 -0.278957 -1.135143 -0.167988 -0.238861
    14 0.000000 -1.250579 -0.000001 -0.966912 0.000000 0.000000
    15 0.000000 -0.932634 0.000000 -1.431181 0.000000 0.000000
    16 0.763063 -2.490557 -0.278957 -0.361605 -0.065304 0.052018
    17 -0.012322 -1.280917 0.000000 -0.671234 0.000000 0.000000
    18 -0.001697 -0.749371 0.000000 -0.601921 0.000000 0.000000
    19 0.354566 0.016267 0.318133 0.271703 -0.487906 -0.927541
    20 1.887165 0.012877 0.000000 -0.271037 -0.142581 -0.874135
    21 1.001873 -0.000270 0.000000 0.000000 0.000000 -0.902335
    22 -1.123359 -2.195094 -0.278957 -1.253823 -0.147135 -0.327965
    23 0.010772 -0.963791 0.000000 -0.542804 0.000000 0.000000
    24 -0.010412 -0.631916 -0.000001 -1.165881 0.000000 0.000000
    25 -0.788600 -9.451222 -10.455692 -0.732137 0.283783 0.666575
    26 0.089929 -8.543162 0.000001 0.564645 -0.121991 0.141852
    27 -0.000001 -0.359713 0.000000 0.000000 0.000000 0.000000
    28 -0.170479 -2.636147 -0.277655 -1.326477 0.000000 0.000000
    29 0.010598 -1.261177 0.000000 -0.687615 0.000000 0.000000
    30 -0.000001 -0.943233 -0.000001 -0.532326 0.000000 0.000000
    31 -0.827564 -2.508973 -0.277657 -0.851729 0.000000 0.000000
    32 -0.000001 -1.292971 0.000000 -1.167601 0.000000 0.000000
    33 0.000000 -0.752465 0.000000 -0.445059 0.000000 0.000000
    34 0.444212 -2.561960 -0.277655 -1.570265 -0.041073 -0.026169
    35 0.021022 -1.208186 0.000000 -0.427606 0.000000 0.000000
    36 0.010596 -0.741866 -0.000001 -0.453786 0.000000 0.000000
    37 1.047445 -2.222820 -0.277655 -1.508123 -0.078971 -0.038609
    38 -0.000001 -0.996223 -0.000002 -0.623094 0.000000 0.000000
    39 -0.000001 -0.614690 0.000001 -0.523599 0.000000 0.000000
    40 -0.308255 -0.007814 0.307166 0.124627 -0.099943 -2.491818
    41 1.978378 0.019544 0.000000 -0.098060 -0.036791 0.192024
    42 0.982426 0.003186 0.000001 0.000000 0.000000 0.383988
  time 13
    0 7.618270 2.724237 -8.205778 -0.762291 -1.330733 0.569945
    1 0.000000 -8.563285 0.000000 0.335153 -0.125148 -0.166969
    2 -0.435133 -3.043624 0.895601 -1.247037 1.437608 -1.233843
    3 0.000000 2.000727 0.853750 0.000000 0.000000 0.000000
    4 0.021119 -3.993921 3.201528 0.000000 0.000000 0.000000
    5 0.021119 -2.923680 1.084931 -0.036745 0.000000 0.000000
    6 0.021119 -4.827049 0.994863 0.000000 0.000000 0.000000
    7 0.021119 -5.547592 1.535272 0.000000 0.000000 0.000000
    8 0.021119 -9.375484 3.809488 0.000000 0.000000 0.000000
    9 -0.003480 -0.404829 0.000001 0.000000 0.000000 0.000000
    10 -0.519309 -2.501156 -0.278957 -1.404591 -0.161672 -0.219512
    11 -0.010598 -1.208185 0.000001 -0.740030 0.000000 0.000000
    12 0.000000 -0.763066 0.000000 -1.343903 0.000000 0.000000
    13 0.105981 -2.607135 -0.278957 -1.135143 -0.167988 -0.238861
    14 0.000000 -1.250579 -0.000001 -0.966912 0.000000 0.000000
    15 0.000000 -0.932634 0.000000 -1.431181 0.000000 0.000000
    16 0.763063 -2.490557 -0.278957 -0.362731 -0.065280 0.052042
    17 -0.012322 -1.280917 0.000000 -0.670853 0.000000 0.000000
    18 -0.001697 -0.749371 0.000000 -0.606463 0.000000 0.000000
    19 0.354566 0.016267 0.318133 0.271703 -0.487906 -0.927541
    20 1.887165 0.012877 0.000000 -0.271037 -0.142581 -0.874135
    21 1.001873 -0.000270 0.000000 0.000000 0.000000 -0.902335
    22 -1.123359 -2.195094 -0.278957 -1.253823 -0.147135 -0.327965
    23 0.010772 -0.963791 0.000000 -0.542804 0.000000 0.000000
    24 -0.010412 -0.631916 -0.000001 -1.165881 0.000000 0.000000
    25 -0.761255 -9.423877 -10.463505 -0.730976 0.279775 0.663690
    26 0.089929 -8.543162 0.000001 0.564736 -0.113643 0.147557
    27 -0.000001 -0.359713 0.000000 0.000000 0.000000 0.000000
    28 -0.170479 -2.636147 -0.277655 -1.326477 0.000000 0.000000
    29 0.010598 -1.261177 0.000000 -0.687615 0.000000 0.000000
    30 -0.000001 -0.943233 -0.000001 -0.532326 0.000000 0.000000
    31 -0.827564 -2.508973 -0.277657 -0.851729 0.000000 0.000000
    32 -0.000001 -1.292971 0.000000 -1.167601 0.000000 0.000000
    33 0.000000 -0.752465 0.000000 -0.445059 0.000000 0.000000
    34 0.444212 -2.561960 -0.277655 -1.570265 -0.041073 -0.026169
    35 0.021022 -1.208186 0.000000 -0.427606 0.000000 0.000000
    36 0.010596 -0.741866 -0.000001 -0.453786 0.000000 0.000000
    37 1.047445 -2.222820 -0.277655 -1.508123 -0.078971 -0.038609
    38 -0.000001 -0.996223 -0.000002 -0.623094 0.000000 0.000000
    39 -0.000001 -0.614690 0.000001 -0.523599 0.000000 0.000000
    40 -0.308255 -0.007814 0.307166 0.124627 -0.099943 -2.491818
    41 1.978378 0.019544 0.000000 -0.098060 -0.036791 0.192024
    42 0.982426 0.003186 0.000001 0.000000 0.000000 0.383988
  time 14
    0 7.614363 2.708611 -8.197965 -0.763936 -1.330805 0.569574
    1 0.000000 -8.563285 0.000000 0.339072 -0.125376 -0.167736
    2 -0.435133 -3.043624 0.895601 -1.247037 1.437608 -1.233843
    3 0.000000 2.000727 0.853750 0.000000 0.000000 0.000000
    4 0.021119 -3.993921 3.201528 0.000000 0.000000 0.000000
    5 0.021119 -2.923680 1.084931 -0.032382 0.000000 0.000000
    6 0.021119 -4.827049 0.994863 0.000000 0.000000 0.000000
    7 0.021119 -5.547592 1.535272 0.000000 0.000000 0.000000
    8 0.021119 -9.375484 3.809488 0.000000 0.000000 0.000000
    9 -0.003480 -0.404829 0.000001 0.000000 0.000000 0.000000
    10 -0.519309 -2.501156 -0.278957 -1.404591 -0.161672 -0.219512
    11 -0.010598 -1.208185 0.000001 -0.740030 0.000000 0.000000
    12 0.000000 -0.763066 0.000000 -1.343903 0.000000 0.000000
    13 0.105981 -2.607135 -0.278957 -1.135143 -0.167988 -0.238861
    14 0.000000 -1.250579 -0.000001 -0.966912 0.000000 0.000000
    15 0.000000 -0.932634 0.000000 -1.431181 0.000000 0.000000
    16 0.763063 -2.490557 -0.278957 -0.365702 -0.065220 0.052114
    17 -0.012322 -1.280917 0.000000 -0.672361 0.000000 0.000000
    18 -0.001697 -0.749371 0.000000 -0.607793 0.000000 0.000000
    19 0.354566 0.016267 0.318133 0.271703 -0.487906 -0.927541
    20 1.887165 0.012877 0.000000 -0.271037 -0.142581 -0.874135
    21 1.001873 -0.000270 0.000000 0.000000 0.000000 -0.902335
    22 -1.123359 -2.195094 -0.278957 -1.253823 -0.147135 -0.327965
    23 0.010772 -0.963791 0.000000 -0.542804 0.000000 0.000000
    24 -0.010412 -0.631916 -0.000001 -1.165881 0.000000 0.000000
    25 -0.745630 -9.400439 -10.471318 -0.730202 0.276082 0.661338
    26 0.089929 -8.543162 0.000001 0.565282 -0.104633 0.152597
    27 -0.000001 -0.359713 0.000000 0.000000 0.000000 0.000000
    28 -0.170479 -2.636147 -0.277655 -1.326477 0.000000 0.000000
    29 0.010598 -1.261177 0.000000 -0.687615 0.000000 0.000000
    30 -0.000001 -0.943233 -0.000001 -0.532326 0.000000 0.000000
    31 -0.827564 -2.508973 -0.277657 -0.851729 0.000000 0.000000
    32 -0.000001 -1.292971 0.000000 -1.167601 0.000000 0.000000
    33 0.000000 -0.752465 0.000000 -0.445059 0.000000 0.000000
    34 0.444212 -2.561960 -0.277655 -1.570265 -0.041073 -0.026169
    35 0.021022 -1.208186 0.000000 -0.427606 0.000000 0.000000
    36 0.010596 -0.741866 -0.000001 -0.453786 0.000000 0.000000
    37 1.047445 -2.222820 -0.277655 -1.508123 -0.078971 -0.038609
    38 -0.000001 -0.996223 -0.000002 -0.623094 0.000000 0.000000
    39 -0.000001 -0.614690 0.000001 -0.523599 0.000000 0.000000
    40 -0.308255 -0.007814 0.307166 0.124627 -0.099943 -2.491818
    41 1.978378 0.019544 0.000000 -0.098060 -0.036791 0.192024
    42 0.982426 0.003186 0.000001 0.000000 0.000000 0.383988
  time 15
    0 7.610457 2.692986 -8.197965 -0.765787 -1.330895 0.569277
    1 0.000000 -8.563285 0.000000 0.343147 -0.125460 -0.168575
    2 -0.435133 -3.043624 0.895601 -1.247037 1.437608 -1.233843
    3 0.000000 2.000727 0.853750 0.000000 0.000000 0.000000
    4 0.021119 -3.993921 3.201528 0.000000 0.000000 0.000000
    5 0.021119 -2.923680 1.084931 -0.026234 0.000000 0.000000
    6 0.021119 -4.827049 0.994863 0.000000 0.000000 0.000000
    7 0.021119 -5.547592 1.535272 0.000000 0.000000 0.000000
    8 0.021119 -9.375484 3.809488 0.000000 0.000000 0.000000
    9 -0.003480 -0.404829 0.000001 0.000000 0.000000 0.000000
    10 -0.519309 -2.501156 -0.278957 -1.404591 -0.161672 -0.219512
    11 -0.010598 -1.208185 0.000001 -0.740030 0.000000 0.000000
    12 0.000000 -0.763066 0.000000 -1.343903 0.000000 0.000000
    13 0.105981 -2.607135 -0.278957 -1.135143 -0.167988 -0.238861
    14 0.000000 -1.250579 -0.000001 -0.966912 0.000000 0.000000
    15 0.000000 -0.932634 0.000000 -1.431181 0.000000 0.000000
    16 0.763063 -2.490557 -0.278957 -0.369894 -0.065136 0.052222
    17 -0.012322 -1.280917 0.000000 -0.675186 0.000000 0.000000
    18 -0.001697 -0.749371 0.000000 -0.606739 0.000000 0.000000
    19 0.354566 0.016267 0.318133 0.271703 -0.487906 -0.927541
    20 1.887165 0.012877 0.000000 -0.271037 -0.142581 -0.874135
    21 1.001873 -0.000270 0.000000 0.000000 0.000000 -0.902335
    22 -1.123359 -2.195094 -0.278957 -1.253823 -0.147135 -0.327965
    23 0.010772 -0.963791 0.000000 -0.542804 0.000000 0.000000
    24 -0.010412 -0.631916 -0.000001 -1.165881 0.000000 0.000000
    25 -0.733910 -9.384814 -10.479131 -0.729621 0.272702 0.659364
    26 0.089929 -8.543162 0.000001 0.566147 -0.095195 0.157251
    27 -0.000001 -0.359713 0.000000 0.000000 0.000000 0.000000
    28 -0.170479 -2.636147 -0.277655 -1.326477 0.000000 0.000000
    29 0.010598 -1.261177 0.000000 -0.687615 0.000000 0.000000
    30 -0.000001 -0.943233 -0.000001 -0.532326 0.000000 0.000000
    31 -0.827564 -2.508973 -0.277657 -0.851729 0.000000 0.000000
    32 -0.000001 -1.292971 0.000000 -1.167601 0.000000 0.000000
    33 0.000000 -0.752465 0.000000 -0.445059 0.000000 0.000000
    34 0.444212 -2.561960 -0.277655 -1.570265 -0.041073 -0.026169
    35 0.021022 -1.208186 0.000000 -0.427606 0.000000 0.000000
    36 0.010596 -0.741866 -0.000001 -0.453786 0.000000 0.000000
    37 1.047445 -2.222820 -0.277655 -1.508123 -0.078971 -0.038609
    38 -0.000001 -0.996223 -0.000002 -0.623094 0.000000 0.000000
    39 -0.000001 -0.614690 0.000001 -0.523599 0.000000 0.000000
    40 -0.308255 -0.007814 0.307166 0.124627 -0.099943 -2.491818
    41 1.978378 0.019544 0.000000 -0.098060 -0.036791 0.192024
    42 0.982426 0.003186 0.000001 0.000000 0.000000 0.383988
  time 16
    0 7.610457 2.685173 -8.194058 -0.767569 -1.330967 0.568980
    1 0.000000 -8.563285 0.000000 0.347509 -0.125220 -0.169570
    2 -0.435133 -3.043624 0.895601 -1.247037 1.437608 -1.233843
    3 0.000000 2.000727 0.853750 0.000000 0.000000 0.000000
    4 0.021119 -3.993921 3.201528 0.000000 0.000000 0.000000
    5 0.021119 -2.915868 1.084931 -0.019175 0.000000 0.000000
    6 0.021119 -4.827049 0.994863 0.000000 0.000000 0.000000
    7 0.021119 -5.547592 1.535272 0.000000 0.000000 0.000000
    8 0.021119 -9.375484 3.809488 0.000000 0.000000 0.000000
    9 -0.003480 -0.404829 0.000001 0.000000 0.000000 0.000000
    10 -0.519309 -2.501156 -0.278957 -1.404603 -0.161672 -0.219512
    11 -0.010598 -1.208185 0.000001 -0.740030 0.000000 0.000000
    12 0.000000 -0.763066 0.000000 -1.343903 0.000000 0.000000
    13 0.105981 -2.607135 -0.278957 -1.135143 -0.167988 -0.238861
    14 0.000000 -1.250579 -0.000001 -0.966912 0.000000 0.000000
    15 0.000000 -0.932634 0.000000 -1.431181 0.000000 0.000000
    16 0.763063 -2.490557 -0.278957 -0.374709 -0.065029 0.052329
    17 -0.012322 -1.280917 0.000000 -0.678788 0.000000 0.000000
    18 -0.001697 -0.749371 0.000000 -0.604054 0.000000 0.000000
    19 0.354566 0.016267 0.318133 0.271703 -0.487906 -0.927541
    20 1.887165 0.012877 0.000000 -0.271037 -0.142581 -0.874135
    21 1.001873 -0.000270 0.000000 0.000000 0.000000 -0.902335
    22 -1.123359 -2.195094 -0.278957 -1.253823 -0.147135 -0.327965
    23 0.010772 -0.963791 0.000000 -0.542804 0.000000 0.000000
    24 -0.010412 -0.631916 -0.000001 -1.165881 0.000000 0.000000
    25 -0.730004 -9.365282 -10.483037 -0.729105 0.269402 0.657619
    26 0.089929 -8.543162 0.000001 0.567216 -0.085543 0.161670
    27 -0.000001 -0.359713 0.000000 0.000000 0.000000 0.000000
    28 -0.170479 -2.636147 -0.277655 -1.326477 0.000000 0.000000
    29 0.010598 -1.261177 0.000000 -0.687615 0.000000 0.000000
    30 -0.000001 -0.943233 -0.000001 -0.532326 0.000000 0.000000
    31 -0.827564 -2.508973 -0.277657 -0.851729 0.000000 0.000000
    32 -0.000001 -1.292971 0.000000 -1.167601 0.000000 0.000000
    33 0.000000 -0.752465 0.000000 -0.445059 0.000000 0.000000
    34 0.444212 -2.561960 -0.277655 -1.570265 -0.041073 -0.026169
    35 0.021022 -1.208186 0.000000 -0.427606 0.000000 0.000000
    36 0.010596 -0.741866 -0.000001 -0.453786 0.000000 0.000000
    37 1.047445 -2.222820 -0.277655 -1.508123 -0.078971 -0.038609
    38 -0.000001 -0.996223 -0.000002 -0.623094 0.000000 0.000000
    39 -0.000001 -0.614690 0.000001 -0.523599 0.000000 0.000000
    40 -0.308255 -0.007814 0.307166 0.124627 -0.099943 -2.491818
    41 1.978378 0.019544 0.000000 -0.098060 -0.036791 0.192024
    42 0.982426 0.003186 0.000001 0.000000 0.000000 0.383988
  time 17
    0 7.606551 2.677360 -8.194058 -0.769283 -1.331039 0.568683
    1 0.000000 -8.563285 0.000000 0.347509 -0.125220 -0.169570
    2 -0.435133 -3.043624 0.895601 -1.247037 1.437608 -1.233843
    3 0.000000 2.000727 0.853750 0.000000 0.000000 0.000000
    4 0.021119 -3.993921 3.201528 0.000000 0.000000 0.000000
    5 0.021119 -2.904148 1.084931 -0.012128 0.000000 0.000000
    6 0.021119 -4.827049 0.994863 0.000000 0.000000 0.000000
    7 0.021119 -5.547592 1.535272 0.000000 0.000000 0.000000
    8 0.021119 -9.375484 3.809488 0.000000 0.000000 0.000000
    9 -0.003480 -0.404829 0.000001 0.000000 0.000000 0.000000
    10 -0.519309 -2.501156 -0.278957 -1.404591 -0.161672 -0.219512
    11 -0.010598 -1.208185 0.000001 -0.740030 0.000000 0.000000
    12 0.000000 -0.763066 0.000000 -1.343903 0.000000 0.000000
    13 0.105981 -2.607135 -0.278957 -1.135143 -0.167988 -0.238861
    14 0.000000 -1.250579 -0.000001 -0.966912 0.000000 0.000000
    15 0.000000 -0.932634 0.000000 -1.431181 0.000000 0.000000
    16 0.763063 -2.490557 -0.278957 -0.379525 -0.064933 0.052449
    17 -0.012322 -1.280917 0.000000 -0.682597 0.000000 0.000000
    18 -0.001697 -0.749371 0.000000 -0.600603 0.000000 0.000000
    19 0.354566 0.016267 0.318133 0.271703 -0.487906 -0.927541
    20 1.887165 0.012877 0.000000 -0.271037 -0.142581 -0.874135
    21 1.001873 -0.000270 0.000000 0.000000 0.000000 -0.902335
    22 -1.123359 -2.195094 -0.278957 -1.253823 -0.147135 -0.327965
    23 0.010772 -0.963791 0.000000 -0.542804 0.000000 0.000000
    24 -0.010412 -0.631916 -0.000001 -1.165881 0.000000 0.000000
    25 -0.745630 -9.349656 -10.486943 -0.728653 0.266022 0.655873
    26 0.089929 -8.543162 0.000001 0.568309 -0.075891 0.166088
    27 -0.000001 -0.359713 0.000000 0.000000 0.000000 0.000000
    28 -0.170479 -2.636147 -0.277655 -1.326477 0.000000 0.000000
    29 0.010598 -1.261177 0.000000 -0.687615 0.000000 0.000000
    30 -0.000001 -0.943233 -0.000001 -0.532326 0.000000 0.000000
    31 -0.827564 -2.508973 -0.277657 -0.851729 0.000000 0.000000
    32 -0.000001 -1.292971 0.000000 -1.167601 0.000000 0.000000
    33 0.000000 -0.752465 0.000000 -0.445059 0.000000 0.000000
    34 0.444212 -2.561960 -0.277655 -1.570265 -0.041073 -0.026169
    35 0.021022 -1.208186 0.000000 -0.427606 0.000000 0.000000
    36 0.010596 -0.741866 -0.000001 -0.453786 0.000000 0.000000
    37 1.047445 -2.222820 -0.277655 -1.508123 -0.078971 -0.038609
    38 -0.000001 -0.996223 -0.000002 -0.623094 0.000000 0.000000
    39 -0.000001 -0.614690 0.000001 -0.523599 0.000000 0.000000
    40 -0.308255 -0.007814 0.307166 0.124627 -0.099943 -2.491818
    41 1.978378 0.019544 0.000000 -0.098060 -0.036791 0.192024
    42 0.982426 0.003186 0.000001 0.000000 0.000000 0.383988
  time 18
    0 7.606551 2.669547 -8.194058 -0.771065 -1.331129 0.568312
    1 0.000000 -8.563285 0.000000 0.347509 -0.125220 -0.169570
    2 -0.435133 -3.043624 0.895601 -1.247037 1.437608 -1.233843
    3 0.000000 2.000727 0.853750 0.000000 0.000000 0.000000
    4 0.021119 -3.993921 3.201528 0.000000 0.000000 0.000000
    5 0.021119 -2.888523 1.084931 -0.005980 0.000000 0.000000
    6 0.021119 -4.827049 0.994863 0.000000 0.000000 0.000000
    7 0.021119 -5.547592 1.535272 0.000000 0.000000 0.000000
    8 0.021119 -9.375484 3.809488 0.000000 0.000000 0.000000
    9 -0.003480 -0.404829 0.000001 0.000000 0.000000 0.000000
    10 -0.519309 -2.501156 -0.278957 -1.404591 -0.161672 -0.219512
    11 -0.010598 -1.208185 0.000001 -0.740030 0.000000 0.000000
    12 0.000000 -0.763066 0.000000 -1.343903 0.000000 0.000000
    13 0.105981 -2.607135 -0.278957 -1.135143 -0.167988 -0.238861
    14 0.000000 -1.250579 -0.000001 -0.966912 0.000000 0.000000
    15 0.000000 -0.932634 0.000000 -1.431181 0.000000 0.000000
    16 0.763063 -2.490557 -0.278957 -0.383717 -0.064861 0.052545
    17 -0.012322 -1.280917 0.000000 -0.685977 0.000000 0.000000
    18 -0.001697 -0.749371 0.000000 -0.597127 0.000000 0.000000
    19 0.354566 0.016267 0.318133 0.271703 -0.487906 -0.927541
    20 1.887165 0.012877 0.000000 -0.271037 -0.142581 -0.874135
    21 1.001873 -0.000270 0.000000 0.000000 0.000000 -0.902335
    22 -1.123359 -2.195094 -0.278957 -1.253823 -0.147135 -0.327965
    23 0.010772 -0.963791 0.000000 -0.542804 0.000000 0.000000
    24 -0.010412 -0.631916 -0.000001 -1.165881 0.000000 0.000000
    25 -0.769068 -9.337937 -10.486943 -0.728008 0.262722 0.653900
    26 0.089929 -8.543162 0.000001 0.569310 -0.066472 0.170742
    27 -0.000001 -0.359713 0.000000 0.000000 0.000000 0.000000
    28 -0.170479 -2.636147 -0.277655 -1.326477 0.000000 0.000000
    29 0.010598 -1.261177 0.000000 -0.687615 0.000000 0.000000
    30 -0.000001 -0.943233 -0.000001 -0.532326 0.000000 0.000000
    31 -0.827564 -2.508973 -0.277657 -0.851729 0.000000 0.000000
    32 -0.000001 -1.292971 0.000000 -1.167601 0.000000 0.000000
    33 0.000000 -0.752465 0.000000 -0.445059 0.000000 0.000000
    34 0.444212 -2.561960 -0.277655 -1.570265 -0.041073 -0.026169
    35 0.021022 -1.208186 0.000000 -0.427606 0.000000 0.000000
    36 0.010596 -0.741866 -0.000001 -0.453786 0.000000 0.000000
    37 1.047445 -2.222820 -0.277655 -1.508123 -0.078971 -0.038609
    38 -0.000001 -0.996223 -0.000002 -0.623094 0.000000 0.000000
    39 -0.000001 -0.614690 0.000001 -0.523599 0.000000 0.000000
    40 -0.308255 -0.007814 0.307166 0.124627 -0.099943 -2.491818
    41 1.978378 0.019544 0.000000 -0.098060 -0.036791 0.192024
    42 0.982426 0.003186 0.000001 0.000000 0.000000 0.383988
  time 19
    0 7.606551 2.665641 -8.194058 -0.772710 -1.331237 0.567866
    1 0.000000 -8.563285 0.000000 0.347509 -0.125220 -0.169570
    2 -0.435133 -3.043624 0.895601 -1.247037 1.437608 -1.233843
    3 0.000000 2.000727 0.853750 0.000000 0.000000 0.000000
    4 0.021119 -3.993921 3.201528 0.000000 0.000000 0.000000
    5 0.021119 -2.865085 1.084931 -0.001642 0.000000 0.000000
    6 0.021119 -4.827049 0.994863 0.000000 0.000000 0.000000
    7 0.021119 -5.547592 1.535272 0.000000 0.000000 0.000000
    8 0.021119 -9.375484 3.809488 0.000000 0.000000 0.000000
    9 -0.003480 -0.404829 0.000001 0.000000 0.000000 0.000000
    10 -0.519309 -2.501156 -0.278957 -1.404603 -0.161672 -0.219512
    11 -0.010598 -1.208185 0.000001 -0.740030 0.000000 0.000000
    12 0.000000 -0.763066 0.000000 -1.343903 0.000000 0.000000
    13 0.105981 -2.607135 -0.278957 -1.135143 -0.167988 -0.238861
    14 0.000000 -1.250579 -0.000001 -0.966912 0.000000 0.000000
    15 0.000000 -0.932634 0.000000 -1.431181 0.000000 0.000000
    16 0.763063 -2.490557 -0.278957 -0.386688 -0.064801 0.052617
    17 -0.012322 -1.280917 0.000000 -0.688453 0.000000 0.000000
    18 -0.001697 -0.749371 0.000000 -0.594479 0.000000 0.000000
    19 0.354566 0.016267 0.318133 0.271703 -0.487906 -0.927541
    20 1.887165 0.012877 0.000000 -0.271037 -0.142581 -0.874135
    21 1.001873 -0.000270 0.000000 0.000000 0.000000 -0.902335
    22 -1.123359 -2.195094 -0.278957 -1.253823 -0.147135 -0.327965
    23 0.010772 -0.963791 0.000000 -0.542804 0.000000 0.000000
    24 -0.010412 -0.631916 -0.000001 -1.165881 0.000000 0.000000
    25 -0.792506 -9.334031 -10.486943 -0.727169 0.258949 0.651547
    26 0.089929 -8.543162 0.000001 0.570061 -0.057482 0.175804
    27 -0.000001 -0.359713 0.000000 0.000000 0.000000 0.000000
    28 -0.170479 -2.636147 -0.277655 -1.326477 0.000000 0.000000
    29 0.010598 -1.261177 0.000000 -0.687615 0.000000 0.000000
    30 -0.000001 -0.943233 -0.000001 -0.532326 0.000000 0.000000
    31 -0.827564 -2.508973 -0.277657 -0.851729 0.000000 0.000000
    32 -0.000001 -1.292971 0.000000 -1.167601 0.000000 0.000000
    33 0.000000 -0.752465 0.000000 -0.445059 0.000000 0.000000
    34 0.444212 -2.561960 -0.277655 -1.570265 -0.041073 -0.026169
    35 0.021022 -1.208186 0.000000 -0.427606 0.000000 0.000000
    36 0.010596 -0.741866 -0.000001 -0.453786 0.000000 0.000000
    37 1.047445 -2.222820 -0.277655 -1.508123 -0.078971 -0.038609
    38 -0.000001 -0.996223 -0.000002 -0.623094 0.000000 0.000000
    39 -0.000001 -0.614690 0.000001 -0.523599 0.000000 0.000000
    40 -0.308255 -0.007814 0.307166 0.124627 -0.099943 -2.491818
    41 1.978378 0.019544 0.000000 -0.098060 -0.036791 0.192024
    42 0.982426 0.003186 0.000001 0.000000 0.000000 0.383988
  time 20
    0 7.606551 2.665641 -8.194058 -0.774287 -1.331381 0.567272
    1 0.000000 -8.563285 0.000000 0.347509 -0.125220 -0.169570
    2 -0.435133 -3.043624 0.895601 -1.247037 1.437608 -1.233843
    3 0.000000 2.000727 0.853750 0.000000 0.000000 0.000000
    4 0.021119 -3.993921 3.201528 0.000000 0.000000 0.000000
    5 0.021119 -2.845553 1.084931 0.000000 0.000000 0.000000
    6 0.021119 -4.827049 0.994863 0.000000 0.000000 0.000000
    7 0.021119 -5.547592 1.535272 0.000000 0.000000 0.000000
    8 0.021119 -9.375484 3.809488 0.000000 0.000000 0.000000
    9 -0.003480 -0.404829 0.000001 0.000000 0.000000 0.000000
    10 -0.519309 -2.501156 -0.278957 -1.404591 -0.161672 -0.219512
    11 -0.010598 -1.208185 0.000001 -0.740030 0.000000 0.000000
    12 0.000000 -0.763066 0.000000 -1.343903 0.000000 0.000000
    13 0.105981 -2.607135 -0.278957 -1.135143 -0.167988 -0.238861
    14 0.000000 -1.250579 -0.000001 -0.966912 0.000000 0.000000
    15 0.000000 -0.932634 0.000000 -1.431181 0.000000 0.000000
    16 0.763063 -2.490557 -0.278957 -0.387814 -0.064777 0.052641
    17 -0.012322 -1.280917 0.000000 -0.689389 0.000000 0.000000
    18 -0.001697 -0.749371 0.000000 -0.593412 0.000000 0.000000
    19 0.354566 0.016267 0.318133 0.271703 -0.487906 -0.927541
    20 1.887165 0.012877 0.000000 -0.271037 -0.142581 -0.874135
    21 1.001873 -0.000270 0.000000 0.000000 0.000000 -0.902335
    22 -1.123359 -2.195094 -0.278957 -1.253823 -0.147135 -0.327965
    23 0.010772 -0.963791 0.000000 -0.542804 0.000000 0.000000
    24 -0.010412 -0.631916 -0.000001 -1.165881 0.000000 0.000000
    25 -0.800319 -9.330124 -10.486943 -0.726008 0.255020 0.648663
    26 0.089929 -8.543162 0.000001 0.570471 -0.049153 0.181509
    27 -0.000001 -0.359713 0.000000 0.000000 0.000000 0.000000
    28 -0.170479 -2.636147 -0.277655 -1.326477 0.000000 0.000000
    29 0.010598 -1.261177 0.000000 -0.687615 0.000000 0.000000
    30 -0.000001 -0.943233 -0.000001 -0.532326 0.000000 0.000000
    31 -0.827564 -2.508973 -0.277657 -0.851729 0.000000 0.000000
    32 -0.000001 -1.292971 0.000000 -1.167601 0.000000 0.000000
    33 0.000000 -0.752465 0.000000 -0.445059 0.000000 0.000000
    34 0.444212 -2.561960 -0.277655 -1.570265 -0.041073 -0.026169
    35 0.021022 -1.208186 0.000000 -0.427606 0.000000 0.000000
    36 0.010596 -0.741866 -0.000001 -0.453786 0.000000 0.000000
    37 1.047445 -2.222820 -0.277655 -1.508123 -0.078971 -0.038609
    38 -0.000001 -0.996223 -0.000002 -0.623094 0.000000 0.000000
    39 -0.000001 -0.614690 0.000001 -0.523599 0.000000 0.000000
    40 -0.308255 -0.007814 0.307166 0.124627 -0.099943 -2.491818
    41 1.978378 0.019544 0.000000 -0.098060 -0.036791 0.192024
    42 0.982426 0.003186 0.000001 0.000000 0.000000 0.383988
end
