version 1
nodes
  0 "Bone01" -1
  1 "Bone_Lefthand" 0
  2 "Bone02" 1
  3 "Bone03" 2
  4 "Bone48" 3
  5 "Bone25" 3
  6 "Bone52" 3
  7 "Bone50" 3
  8 "Bone 04" 1
  9 "Bone13" 8
  10 "Bone14" 9
  11 "Bone15" 10
  12 "Bone17" 8
  13 "Bone18" 12
  14 "Bone19" 13
  15 "Bone21" 8
  16 "Bone22" 15
  17 "Bone23" 16
  18 "Bone05" 8
  19 "Bone06" 18
  20 "Bone07" 19
  21 "Bone09" 8
  22 "Bone10" 21
  23 "Bone11" 22
  24 "Bone04" -1
  25 "Bone_Righthand" 24
  26 "Bone26" 25
  27 "Bone35" 26
  28 "Bone36" 27
  29 "Bone37" 28
  30 "Bone31" 26
  31 "Bone32" 30
  32 "Bone33" 31
  33 "Bone39" 26
  34 "Bone40" 33
  35 "Bone41" 34
  36 "Bone43" 26
  37 "Bone44" 36
  38 "Bone45" 37
  39 "Bone27" 26
  40 "Bone28" 39
  41 "Bone29" 40
end
skeleton
  time 0
    0 10.540233 1.349194 -6.444005 -0.774287 -1.331380 0.326349
    1 0.000000 -8.563281 0.000000 0.421670 0.027177 -0.094079
    2 -0.687785 -3.268885 0.771382 -0.649191 1.517736 -0.634003
    3 0.000000 1.978415 0.899280 0.000000 0.000000 0.000000
    4 0.000000 -4.488900 2.000896 0.000000 0.000000 0.000000
    5 0.000000 -1.806052 0.681954 0.000000 0.000000 0.000000
    6 -0.000001 2.795271 0.337227 0.000000 0.000000 0.000000
    7 -0.000001 -6.827026 1.101617 0.000000 0.000000 0.000000
    8 -0.003480 -0.404829 0.000000 0.000000 0.000000 0.000000
    9 -0.519309 -2.501154 -0.278957 -1.025939 -0.112116 -0.189874
    10 -0.010598 -1.208184 0.000000 -1.226964 0.000000 0.000000
    11 0.000000 -0.763065 0.000000 -0.982627 0.000000 0.000000
    12 0.105981 -2.607134 -0.278957 -0.842755 -0.023454 -0.169254
    13 0.000000 -1.250579 0.000000 -1.291539 0.000000 0.000000
    14 0.000000 -0.932635 0.000000 -1.195552 0.000000 0.000000
    15 0.763064 -2.490555 -0.278957 -0.349058 0.000000 0.130900
    16 -0.012322 -1.280917 0.000000 -0.474706 0.000000 0.000000
    17 -0.001697 -0.749371 0.000000 -0.687659 0.000000 0.000000
    18 0.354567 0.016266 0.318133 0.488948 -0.453366 -1.121476
    19 1.887164 0.012878 0.000000 -0.301418 -0.050167 -0.561348
    20 1.001874 -0.000270 -0.000001 0.000000 0.000000 -0.703360
    21 -1.123359 -2.195093 -0.278957 -1.166683 -0.116814 -0.133119
    22 0.010772 -0.963791 0.000000 -0.657988 0.000000 0.000000
    23 -0.010412 -0.631916 -0.000001 -1.359599 0.000000 0.000000
    24 -0.562031 -7.833984 -9.326751 -2.116823 0.987287 -1.297769
    25 0.089929 -8.543163 0.000000 0.880817 -0.018644 0.571739
    26 0.000000 -0.359713 0.000002 0.000000 0.000000 0.000000
    27 -0.170479 -2.636147 -0.277654 -1.781942 0.000000 0.000000
    28 0.010599 -1.261177 0.000001 -0.493919 0.000000 0.000000
    29 -0.000001 -0.943233 -0.000001 -0.924996 0.000000 0.000000
    30 -0.827563 -2.508973 -0.277656 -1.710405 0.000000 0.000000
    31 0.000001 -1.292971 0.000002 -0.602126 0.000000 0.000000
    32 0.000000 -0.752466 0.000001 -1.078594 0.000000 0.000000
    33 0.444213 -2.561960 -0.277654 -1.701143 -0.045387 -0.024911
    34 0.021022 -1.208186 -0.000001 -0.548020 0.000000 0.000000
    35 0.010597 -0.741867 -0.000002 -0.872658 0.000000 0.000000
    36 1.047445 -2.222821 -0.277654 -1.508123 -0.078971 -0.038609
    37 0.000000 -0.996223 -0.000001 -0.570729 0.000000 0.000000
    38 -0.000001 -0.614690 0.000000 -0.523599 0.000000 0.000000
    39 -0.308254 -0.007814 0.307166 0.334142 -0.676682 -2.416499
    40 1.978377 0.019544 0.000000 -0.091217 0.051488 1.062266
    41 0.982426 0.003186 0.000000 0.000000 0.000000 1.137933
  time 1
    0 10.540233 1.349194 -6.444005 -0.774287 -1.331380 0.326349
    1 0.000000 -8.563281 0.000000 0.421670 0.027177 -0.094079
    2 -0.687785 -3.268885 0.771382 -0.649191 1.517736 -0.634003
    3 0.000000 1.978415 0.899280 0.000000 0.000000 0.000000
    4 0.000000 -4.488900 2.000896 0.000000 0.000000 0.000000
    5 0.000000 -1.806052 0.681954 0.000000 0.000000 0.000000
    6 -0.000001 2.795271 0.337227 0.000000 0.000000 0.000000
    7 -0.000001 -6.827026 1.101617 0.000000 0.000000 0.000000
    8 -0.003480 -0.404829 0.000000 0.000000 0.000000 0.000000
    9 -0.519309 -2.501154 -0.278957 -1.025939 -0.112116 -0.189874
    10 -0.010598 -1.208184 0.000000 -1.226964 0.000000 0.000000
    11 0.000000 -0.763065 0.000000 -0.982627 0.000000 0.000000
    12 0.105981 -2.607134 -0.278957 -0.842755 -0.023454 -0.169254
    13 0.000000 -1.250579 0.000000 -1.291539 0.000000 0.000000
    14 0.000000 -0.932635 0.000000 -1.195552 0.000000 0.000000
    15 0.763064 -2.490555 -0.278957 -0.349058 0.000000 0.130900
    16 -0.012322 -1.280917 0.000000 -0.474706 0.000000 0.000000
    17 -0.001697 -0.749371 0.000000 -0.687659 0.000000 0.000000
    18 0.354567 0.016266 0.318133 0.488948 -0.453366 -1.121476
    19 1.887164 0.012878 0.000000 -0.301418 -0.050167 -0.561348
    20 1.001874 -0.000270 -0.000001 0.000000 0.000000 -0.703360
    21 -1.123359 -2.195093 -0.278957 -1.166683 -0.116814 -0.133119
    22 0.010772 -0.963791 0.000000 -0.657988 0.000000 0.000000
    23 -0.010412 -0.631916 -0.000001 -1.359599 0.000000 0.000000
    24 -0.562031 -7.833984 -9.326751 -2.116823 0.987287 -1.297769
    25 0.089929 -8.543163 0.000000 0.880817 -0.018644 0.571739
    26 0.000000 -0.359713 0.000002 0.000000 0.000000 0.000000
    27 -0.170479 -2.636147 -0.277654 -1.781942 0.000000 0.000000
    28 0.010599 -1.261177 0.000001 -0.493919 0.000000 0.000000
    29 -0.000001 -0.943233 -0.000001 -0.924996 0.000000 0.000000
    30 -0.827563 -2.508973 -0.277656 -1.710405 0.000000 0.000000
    31 0.000001 -1.292971 0.000002 -0.602126 0.000000 0.000000
    32 0.000000 -0.752466 0.000001 -1.078594 0.000000 0.000000
    33 0.444213 -2.561960 -0.277654 -1.701143 -0.045387 -0.024911
    34 0.021022 -1.208186 -0.000001 -0.548020 0.000000 0.000000
    35 0.010597 -0.741867 -0.000002 -0.872658 0.000000 0.000000
    36 1.047445 -2.222821 -0.277654 -1.508123 -0.078971 -0.038609
    37 0.000000 -0.996223 -0.000001 -0.570729 0.000000 0.000000
    38 -0.000001 -0.614690 0.000000 -0.523599 0.000000 0.000000
    39 -0.308254 -0.007814 0.307166 0.334142 -0.676682 -2.416499
    40 1.978377 0.019544 0.000000 -0.091217 0.051488 1.062266
    41 0.982426 0.003186 0.000000 0.000000 0.000000 1.137933
  time 2
    0 10.540233 1.349194 -6.444005 -0.774287 -1.331380 0.326349
    1 0.000000 -8.563281 0.000000 0.421670 0.027177 -0.094079
    2 -0.687785 -3.268885 0.771382 -0.649191 1.517736 -0.634003
    3 0.000000 1.978415 0.899280 0.000000 0.000000 0.000000
    4 0.000000 -4.488900 2.000896 0.000000 0.000000 0.000000
    5 0.000000 -1.806052 0.681954 0.000000 0.000000 0.000000
    6 -0.000001 2.795271 0.337227 0.000000 0.000000 0.000000
    7 -0.000001 -6.827026 1.101617 0.000000 0.000000 0.000000
    8 -0.003480 -0.404829 0.000000 0.000000 0.000000 0.000000
    9 -0.519309 -2.501154 -0.278957 -1.025939 -0.112116 -0.189874
    10 -0.010598 -1.208184 0.000000 -1.226964 0.000000 0.000000
    11 0.000000 -0.763065 0.000000 -0.982627 0.000000 0.000000
    12 0.105981 -2.607134 -0.278957 -0.842755 -0.023454 -0.169254
    13 0.000000 -1.250579 0.000000 -1.291539 0.000000 0.000000
    14 0.000000 -0.932635 0.000000 -1.195552 0.000000 0.000000
    15 0.763064 -2.490555 -0.278957 -0.349058 0.000000 0.130900
    16 -0.012322 -1.280917 0.000000 -0.474706 0.000000 0.000000
    17 -0.001697 -0.749371 0.000000 -0.687659 0.000000 0.000000
    18 0.354567 0.016266 0.318133 0.488948 -0.453366 -1.121476
    19 1.887164 0.012878 0.000000 -0.301418 -0.050167 -0.561348
    20 1.001874 -0.000270 -0.000001 0.000000 0.000000 -0.703360
    21 -1.123359 -2.195093 -0.278957 -1.166683 -0.116814 -0.133119
    22 0.010772 -0.963791 0.000000 -0.657988 0.000000 0.000000
    23 -0.010412 -0.631916 -0.000001 -1.359599 0.000000 0.000000
    24 -0.562031 -7.833984 -9.326751 -2.116823 0.987287 -1.297769
    25 0.089929 -8.543163 0.000000 0.880817 -0.018644 0.571739
    26 0.000000 -0.359713 0.000002 0.000000 0.000000 0.000000
    27 -0.170479 -2.636147 -0.277654 -1.781942 0.000000 0.000000
    28 0.010599 -1.261177 0.000001 -0.493919 0.000000 0.000000
    29 -0.000001 -0.943233 -0.000001 -0.924996 0.000000 0.000000
    30 -0.827563 -2.508973 -0.277656 -1.710405 0.000000 0.000000
    31 0.000001 -1.292971 0.000002 -0.602126 0.000000 0.000000
    32 0.000000 -0.752466 0.000001 -1.078594 0.000000 0.000000
    33 0.444213 -2.561960 -0.277654 -1.701143 -0.045387 -0.024911
    34 0.021022 -1.208186 -0.000001 -0.548020 0.000000 0.000000
    35 0.010597 -0.741867 -0.000002 -0.872658 0.000000 0.000000
    36 1.047445 -2.222821 -0.277654 -1.508123 -0.078971 -0.038609
    37 0.000000 -0.996223 -0.000001 -0.570729 0.000000 0.000000
    38 -0.000001 -0.614690 0.000000 -0.523599 0.000000 0.000000
    39 -0.308254 -0.007814 0.307166 0.334142 -0.676682 -2.416499
    40 1.978377 0.019544 0.000000 -0.091217 0.051488 1.062266
    41 0.982426 0.003186 0.000000 0.000000 0.000000 1.137933
  time 3
    0 10.540233 1.349194 -6.444005 -0.774287 -1.331380 0.326349
    1 0.000000 -8.563281 0.000000 0.421670 0.027177 -0.094079
    2 -0.687785 -3.268885 0.771382 -0.649191 1.517736 -0.634003
    3 0.000000 1.978415 0.899280 0.000000 0.000000 0.000000
    4 0.000000 -4.488900 2.000896 0.000000 0.000000 0.000000
    5 0.000000 -1.806052 0.681954 0.000000 0.000000 0.000000
    6 -0.000001 2.795271 0.337227 0.000000 0.000000 0.000000
    7 -0.000001 -6.827026 1.101617 0.000000 0.000000 0.000000
    8 -0.003480 -0.404829 0.000000 0.000000 0.000000 0.000000
    9 -0.519309 -2.501154 -0.278957 -1.025939 -0.112116 -0.189874
    10 -0.010598 -1.208184 0.000000 -1.226964 0.000000 0.000000
    11 0.000000 -0.763065 0.000000 -0.982627 0.000000 0.000000
    12 0.105981 -2.607134 -0.278957 -0.842755 -0.023454 -0.169254
    13 0.000000 -1.250579 0.000000 -1.291539 0.000000 0.000000
    14 0.000000 -0.932635 0.000000 -1.195552 0.000000 0.000000
    15 0.763064 -2.490555 -0.278957 -0.349058 0.000000 0.130900
    16 -0.012322 -1.280917 0.000000 -0.474706 0.000000 0.000000
    17 -0.001697 -0.749371 0.000000 -0.687659 0.000000 0.000000
    18 0.354567 0.016266 0.318133 0.488948 -0.453366 -1.121476
    19 1.887164 0.012878 0.000000 -0.301418 -0.050167 -0.561348
    20 1.001874 -0.000270 -0.000001 0.000000 0.000000 -0.703360
    21 -1.123359 -2.195093 -0.278957 -1.166683 -0.116814 -0.133119
    22 0.010772 -0.963791 0.000000 -0.657988 0.000000 0.000000
    23 -0.010412 -0.631916 -0.000001 -1.359599 0.000000 0.000000
    24 -0.562031 -7.833984 -9.326751 -2.116823 0.987287 -1.297769
    25 0.089929 -8.543163 0.000000 0.880817 -0.018644 0.571739
    26 0.000000 -0.359713 0.000002 0.000000 0.000000 0.000000
    27 -0.170479 -2.636147 -0.277654 -1.781942 0.000000 0.000000
    28 0.010599 -1.261177 0.000001 -0.493919 0.000000 0.000000
    29 -0.000001 -0.943233 -0.000001 -0.924996 0.000000 0.000000
    30 -0.827563 -2.508973 -0.277656 -1.710405 0.000000 0.000000
    31 0.000001 -1.292971 0.000002 -0.602126 0.000000 0.000000
    32 0.000000 -0.752466 0.000001 -1.078594 0.000000 0.000000
    33 0.444213 -2.561960 -0.277654 -1.701143 -0.045387 -0.024911
    34 0.021022 -1.208186 -0.000001 -0.548020 0.000000 0.000000
    35 0.010597 -0.741867 -0.000002 -0.872658 0.000000 0.000000
    36 1.047445 -2.222821 -0.277654 -1.508123 -0.078971 -0.038609
    37 0.000000 -0.996223 -0.000001 -0.570729 0.000000 0.000000
    38 -0.000001 -0.614690 0.000000 -0.523599 0.000000 0.000000
    39 -0.308254 -0.007814 0.307166 0.334142 -0.676682 -2.416499
    40 1.978377 0.019544 0.000000 -0.091217 0.051488 1.062266
    41 0.982426 0.003186 0.000000 0.000000 0.000000 1.137933
  time 4
    0 10.540233 1.349194 -6.444005 -0.774287 -1.331380 0.326349
    1 0.000000 -8.563281 0.000000 0.421670 0.027177 -0.094079
    2 -0.687785 -3.268885 0.771382 -0.649191 1.517736 -0.634003
    3 0.000000 1.978415 0.899280 0.000000 0.000000 0.000000
    4 0.000000 -4.488900 2.000896 0.000000 0.000000 0.000000
    5 0.000000 -1.806052 0.681954 0.000000 0.000000 0.000000
    6 -0.000001 2.795271 0.337227 0.000000 0.000000 0.000000
    7 -0.000001 -6.827026 1.101617 0.000000 0.000000 0.000000
    8 -0.003480 -0.404829 0.000000 0.000000 0.000000 0.000000
    9 -0.519309 -2.501154 -0.278957 -1.025939 -0.112116 -0.189874
    10 -0.010598 -1.208184 0.000000 -1.226964 0.000000 0.000000
    11 0.000000 -0.763065 0.000000 -0.982627 0.000000 0.000000
    12 0.105981 -2.607134 -0.278957 -0.842755 -0.023454 -0.169254
    13 0.000000 -1.250579 0.000000 -1.291539 0.000000 0.000000
    14 0.000000 -0.932635 0.000000 -1.195552 0.000000 0.000000
    15 0.763064 -2.490555 -0.278957 -0.349058 0.000000 0.130900
    16 -0.012322 -1.280917 0.000000 -0.474706 0.000000 0.000000
    17 -0.001697 -0.749371 0.000000 -0.687659 0.000000 0.000000
    18 0.354567 0.016266 0.318133 0.488948 -0.453366 -1.121476
    19 1.887164 0.012878 0.000000 -0.301418 -0.050167 -0.561348
    20 1.001874 -0.000270 -0.000001 0.000000 0.000000 -0.703360
    21 -1.123359 -2.195093 -0.278957 -1.166683 -0.116814 -0.133119
    22 0.010772 -0.963791 0.000000 -0.657988 0.000000 0.000000
    23 -0.010412 -0.631916 -0.000001 -1.359599 0.000000 0.000000
    24 -0.562031 -7.833984 -9.326751 -2.116823 0.987287 -1.297769
    25 0.089929 -8.543163 0.000000 0.880817 -0.018644 0.571739
    26 0.000000 -0.359713 0.000002 0.000000 0.000000 0.000000
    27 -0.170479 -2.636147 -0.277654 -1.781942 0.000000 0.000000
    28 0.010599 -1.261177 0.000001 -0.493919 0.000000 0.000000
    29 -0.000001 -0.943233 -0.000001 -0.924996 0.000000 0.000000
    30 -0.827563 -2.508973 -0.277656 -1.710405 0.000000 0.000000
    31 0.000001 -1.292971 0.000002 -0.602126 0.000000 0.000000
    32 0.000000 -0.752466 0.000001 -1.078594 0.000000 0.000000
    33 0.444213 -2.561960 -0.277654 -1.701143 -0.045387 -0.024911
    34 0.021022 -1.208186 -0.000001 -0.548020 0.000000 0.000000
    35 0.010597 -0.741867 -0.000002 -0.872658 0.000000 0.000000
    36 1.047445 -2.222821 -0.277654 -1.508123 -0.078971 -0.038609
    37 0.000000 -0.996223 -0.000001 -0.570729 0.000000 0.000000
    38 -0.000001 -0.614690 0.000000 -0.523599 0.000000 0.000000
    39 -0.308254 -0.007814 0.307166 0.334142 -0.676682 -2.416499
    40 1.978377 0.019544 0.000000 -0.091217 0.051488 1.062266
    41 0.982426 0.003186 0.000000 0.000000 0.000000 1.137933
  time 5
    0 10.540233 1.349194 -6.444005 -0.774287 -1.331380 0.326349
    1 0.000000 -8.563281 0.000000 0.421670 0.027177 -0.094079
    2 -0.687785 -3.268885 0.771382 -0.649191 1.517736 -0.634003
    3 0.000000 1.978415 0.899280 0.000000 0.000000 0.000000
    4 0.000000 -4.488900 2.000896 0.000000 0.000000 0.000000
    5 0.000000 -1.806052 0.681954 0.000000 0.000000 0.000000
    6 -0.000001 2.795271 0.337227 0.000000 0.000000 0.000000
    7 -0.000001 -6.827026 1.101617 0.000000 0.000000 0.000000
    8 -0.003480 -0.404829 0.000000 0.000000 0.000000 0.000000
    9 -0.519309 -2.501154 -0.278957 -1.025939 -0.112116 -0.189874
    10 -0.010598 -1.208184 0.000000 -1.226964 0.000000 0.000000
    11 0.000000 -0.763065 0.000000 -0.982627 0.000000 0.000000
    12 0.105981 -2.607134 -0.278957 -0.842755 -0.023454 -0.169254
    13 0.000000 -1.250579 0.000000 -1.291539 0.000000 0.000000
    14 0.000000 -0.932635 0.000000 -1.195552 0.000000 0.000000
    15 0.763064 -2.490555 -0.278957 -0.349058 0.000000 0.130900
    16 -0.012322 -1.280917 0.000000 -0.474706 0.000000 0.000000
    17 -0.001697 -0.749371 0.000000 -0.687659 0.000000 0.000000
    18 0.354567 0.016266 0.318133 0.488948 -0.453366 -1.121476
    19 1.887164 0.012878 0.000000 -0.301418 -0.050167 -0.561348
    20 1.001874 -0.000270 -0.000001 0.000000 0.000000 -0.703360
    21 -1.123359 -2.195093 -0.278957 -1.166683 -0.116814 -0.133119
    22 0.010772 -0.963791 0.000000 -0.657988 0.000000 0.000000
    23 -0.010412 -0.631916 -0.000001 -1.359599 0.000000 0.000000
    24 -0.562031 -7.833984 -9.326751 -2.116823 0.987287 -1.297769
    25 0.089929 -8.543163 0.000000 0.880817 -0.018644 0.571739
    26 0.000000 -0.359713 0.000002 0.000000 0.000000 0.000000
    27 -0.170479 -2.636147 -0.277654 -1.781942 0.000000 0.000000
    28 0.010599 -1.261177 0.000001 -0.493919 0.000000 0.000000
    29 -0.000001 -0.943233 -0.000001 -0.924996 0.000000 0.000000
    30 -0.827563 -2.508973 -0.277656 -1.710405 0.000000 0.000000
    31 0.000001 -1.292971 0.000002 -0.602126 0.000000 0.000000
    32 0.000000 -0.752466 0.000001 -1.078594 0.000000 0.000000
    33 0.444213 -2.561960 -0.277654 -1.701143 -0.045387 -0.024911
    34 0.021022 -1.208186 -0.000001 -0.548020 0.000000 0.000000
    35 0.010597 -0.741867 -0.000002 -0.872658 0.000000 0.000000
    36 1.047445 -2.222821 -0.277654 -1.508123 -0.078971 -0.038609
    37 0.000000 -0.996223 -0.000001 -0.570729 0.000000 0.000000
    38 -0.000001 -0.614690 0.000000 -0.523599 0.000000 0.000000
    39 -0.308254 -0.007814 0.307166 0.334142 -0.676682 -2.416499
    40 1.978377 0.019544 0.000000 -0.091217 0.051488 1.062266
    41 0.982426 0.003186 0.000000 0.000000 0.000000 1.137933
  time 6
    0 10.540233 1.349194 -6.444005 -0.774287 -1.331380 0.326349
    1 0.000000 -8.563281 0.000000 0.421670 0.027177 -0.094079
    2 -0.687785 -3.268885 0.771382 -0.649191 1.517736 -0.634003
    3 0.000000 1.978415 0.899280 0.000000 0.000000 0.000000
    4 0.000000 -4.488900 2.000896 0.000000 0.000000 0.000000
    5 0.000000 -1.806052 0.681954 0.000000 0.000000 0.000000
    6 -0.000001 2.795271 0.337227 0.000000 0.000000 0.000000
    7 -0.000001 -6.827026 1.101617 0.000000 0.000000 0.000000
    8 -0.003480 -0.404829 0.000000 0.000000 0.000000 0.000000
    9 -0.519309 -2.501154 -0.278957 -1.025939 -0.112116 -0.189874
    10 -0.010598 -1.208184 0.000000 -1.226964 0.000000 0.000000
    11 0.000000 -0.763065 0.000000 -0.982627 0.000000 0.000000
    12 0.105981 -2.607134 -0.278957 -0.842755 -0.023454 -0.169254
    13 0.000000 -1.250579 0.000000 -1.291539 0.000000 0.000000
    14 0.000000 -0.932635 0.000000 -1.195552 0.000000 0.000000
    15 0.763064 -2.490555 -0.278957 -0.349058 0.000000 0.130900
    16 -0.012322 -1.280917 0.000000 -0.474706 0.000000 0.000000
    17 -0.001697 -0.749371 0.000000 -0.687659 0.000000 0.000000
    18 0.354567 0.016266 0.318133 0.488948 -0.453366 -1.121476
    19 1.887164 0.012878 0.000000 -0.301418 -0.050167 -0.561348
    20 1.001874 -0.000270 -0.000001 0.000000 0.000000 -0.703360
    21 -1.123359 -2.195093 -0.278957 -1.166683 -0.116814 -0.133119
    22 0.010772 -0.963791 0.000000 -0.657988 0.000000 0.000000
    23 -0.010412 -0.631916 -0.000001 -1.359599 0.000000 0.000000
    24 -0.562031 -7.833984 -9.326751 -2.116823 0.987287 -1.297769
    25 0.089929 -8.543163 0.000000 0.880817 -0.018644 0.571739
    26 0.000000 -0.359713 0.000002 0.000000 0.000000 0.000000
    27 -0.170479 -2.636147 -0.277654 -1.781942 0.000000 0.000000
    28 0.010599 -1.261177 0.000001 -0.493919 0.000000 0.000000
    29 -0.000001 -0.943233 -0.000001 -0.924996 0.000000 0.000000
    30 -0.827563 -2.508973 -0.277656 -1.710405 0.000000 0.000000
    31 0.000001 -1.292971 0.000002 -0.602126 0.000000 0.000000
    32 0.000000 -0.752466 0.000001 -1.078594 0.000000 0.000000
    33 0.444213 -2.561960 -0.277654 -1.701143 -0.045387 -0.024911
    34 0.021022 -1.208186 -0.000001 -0.548020 0.000000 0.000000
    35 0.010597 -0.741867 -0.000002 -0.872658 0.000000 0.000000
    36 1.047445 -2.222821 -0.277654 -1.508123 -0.078971 -0.038609
    37 0.000000 -0.996223 -0.000001 -0.570729 0.000000 0.000000
    38 -0.000001 -0.614690 0.000000 -0.523599 0.000000 0.000000
    39 -0.308254 -0.007814 0.307166 0.334142 -0.676682 -2.416499
    40 1.978377 0.019544 0.000000 -0.091217 0.051488 1.062266
    41 0.982426 0.003186 0.000000 0.000000 0.000000 1.137933
  time 7
    0 10.540233 1.349194 -6.444005 -0.774287 -1.331380 0.326349
    1 0.000000 -8.563281 0.000000 0.421670 0.027177 -0.094079
    2 -0.687785 -3.268885 0.771382 -0.649191 1.517736 -0.634003
    3 0.000000 1.978415 0.899280 0.000000 0.000000 0.000000
    4 0.000000 -4.488900 2.000896 0.000000 0.000000 0.000000
    5 0.000000 -1.806052 0.681954 0.000000 0.000000 0.000000
    6 -0.000001 2.795271 0.337227 0.000000 0.000000 0.000000
    7 -0.000001 -6.827026 1.101617 0.000000 0.000000 0.000000
    8 -0.003480 -0.404829 0.000000 0.000000 0.000000 0.000000
    9 -0.519309 -2.501154 -0.278957 -1.025939 -0.112116 -0.189874
    10 -0.010598 -1.208184 0.000000 -1.226964 0.000000 0.000000
    11 0.000000 -0.763065 0.000000 -0.982627 0.000000 0.000000
    12 0.105981 -2.607134 -0.278957 -0.842755 -0.023454 -0.169254
    13 0.000000 -1.250579 0.000000 -1.291539 0.000000 0.000000
    14 0.000000 -0.932635 0.000000 -1.195552 0.000000 0.000000
    15 0.763064 -2.490555 -0.278957 -0.349058 0.000000 0.130900
    16 -0.012322 -1.280917 0.000000 -0.474706 0.000000 0.000000
    17 -0.001697 -0.749371 0.000000 -0.687659 0.000000 0.000000
    18 0.354567 0.016266 0.318133 0.488948 -0.453366 -1.121476
    19 1.887164 0.012878 0.000000 -0.301418 -0.050167 -0.561348
    20 1.001874 -0.000270 -0.000001 0.000000 0.000000 -0.703360
    21 -1.123359 -2.195093 -0.278957 -1.166683 -0.116814 -0.133119
    22 0.010772 -0.963791 0.000000 -0.657988 0.000000 0.000000
    23 -0.010412 -0.631916 -0.000001 -1.359599 0.000000 0.000000
    24 -0.562031 -7.833984 -9.326751 -2.116823 0.987287 -1.297769
    25 0.089929 -8.543163 0.000000 0.880817 -0.018644 0.571739
    26 0.000000 -0.359713 0.000002 0.000000 0.000000 0.000000
    27 -0.170479 -2.636147 -0.277654 -1.781942 0.000000 0.000000
    28 0.010599 -1.261177 0.000001 -0.493919 0.000000 0.000000
    29 -0.000001 -0.943233 -0.000001 -0.924996 0.000000 0.000000
    30 -0.827563 -2.508973 -0.277656 -1.710405 0.000000 0.000000
    31 0.000001 -1.292971 0.000002 -0.602126 0.000000 0.000000
    32 0.000000 -0.752466 0.000001 -1.078594 0.000000 0.000000
    33 0.444213 -2.561960 -0.277654 -1.701143 -0.045387 -0.024911
    34 0.021022 -1.208186 -0.000001 -0.548020 0.000000 0.000000
    35 0.010597 -0.741867 -0.000002 -0.872658 0.000000 0.000000
    36 1.047445 -2.222821 -0.277654 -1.508123 -0.078971 -0.038609
    37 0.000000 -0.996223 -0.000001 -0.570729 0.000000 0.000000
    38 -0.000001 -0.614690 0.000000 -0.523599 0.000000 0.000000
    39 -0.308254 -0.007814 0.307166 0.334142 -0.676682 -2.416499
    40 1.978377 0.019544 0.000000 -0.091217 0.051488 1.062266
    41 0.982426 0.003186 0.000000 0.000000 0.000000 1.137933
  time 8
    0 10.540233 1.349194 -6.444005 -0.774287 -1.331380 0.326349
    1 0.000000 -8.563281 0.000000 0.421670 0.027177 -0.094079
    2 -0.687785 -3.268885 0.771382 -0.649191 1.517736 -0.634003
    3 0.000000 1.978415 0.899280 0.000000 0.000000 0.000000
    4 0.000000 -4.488900 2.000896 0.000000 0.000000 0.000000
    5 0.000000 -1.806052 0.681954 0.000000 0.000000 0.000000
    6 -0.000001 2.795271 0.337227 0.000000 0.000000 0.000000
    7 -0.000001 -6.827026 1.101617 0.000000 0.000000 0.000000
    8 -0.003480 -0.404829 0.000000 0.000000 0.000000 0.000000
    9 -0.519309 -2.501154 -0.278957 -1.025939 -0.112116 -0.189874
    10 -0.010598 -1.208184 0.000000 -1.226964 0.000000 0.000000
    11 0.000000 -0.763065 0.000000 -0.982627 0.000000 0.000000
    12 0.105981 -2.607134 -0.278957 -0.842755 -0.023454 -0.169254
    13 0.000000 -1.250579 0.000000 -1.291539 0.000000 0.000000
    14 0.000000 -0.932635 0.000000 -1.195552 0.000000 0.000000
    15 0.763064 -2.490555 -0.278957 -0.349058 0.000000 0.130900
    16 -0.012322 -1.280917 0.000000 -0.474706 0.000000 0.000000
    17 -0.001697 -0.749371 0.000000 -0.687659 0.000000 0.000000
    18 0.354567 0.016266 0.318133 0.488948 -0.453366 -1.121476
    19 1.887164 0.012878 0.000000 -0.301418 -0.050167 -0.561348
    20 1.001874 -0.000270 -0.000001 0.000000 0.000000 -0.703360
    21 -1.123359 -2.195093 -0.278957 -1.166683 -0.116814 -0.133119
    22 0.010772 -0.963791 0.000000 -0.657988 0.000000 0.000000
    23 -0.010412 -0.631916 -0.000001 -1.359599 0.000000 0.000000
    24 -0.562031 -7.833984 -9.326751 -2.116823 0.987287 -1.297769
    25 0.089929 -8.543163 0.000000 0.880817 -0.018644 0.571739
    26 0.000000 -0.359713 0.000002 0.000000 0.000000 0.000000
    27 -0.170479 -2.636147 -0.277654 -1.781942 0.000000 0.000000
    28 0.010599 -1.261177 0.000001 -0.493919 0.000000 0.000000
    29 -0.000001 -0.943233 -0.000001 -0.924996 0.000000 0.000000
    30 -0.827563 -2.508973 -0.277656 -1.710405 0.000000 0.000000
    31 0.000001 -1.292971 0.000002 -0.602126 0.000000 0.000000
    32 0.000000 -0.752466 0.000001 -1.078594 0.000000 0.000000
    33 0.444213 -2.561960 -0.277654 -1.701143 -0.045387 -0.024911
    34 0.021022 -1.208186 -0.000001 -0.548020 0.000000 0.000000
    35 0.010597 -0.741867 -0.000002 -0.872658 0.000000 0.000000
    36 1.047445 -2.222821 -0.277654 -1.508123 -0.078971 -0.038609
    37 0.000000 -0.996223 -0.000001 -0.570729 0.000000 0.000000
    38 -0.000001 -0.614690 0.000000 -0.523599 0.000000 0.000000
    39 -0.308254 -0.007814 0.307166 0.334142 -0.676682 -2.416499
    40 1.978377 0.019544 0.000000 -0.091217 0.051488 1.062266
    41 0.982426 0.003186 0.000000 0.000000 0.000000 1.137933
end
