// Created by Crowbar 0.49.0.0

$modelname "weapons/tfa_cso/w_at4_rocket.mdl"


$bodygroup "body"
{
	studio "rpgrocket_rocket"
}

$collisionmodel "rpgrocket_rocket.smd"
{
	$mass 9
}

$CDMaterials "models\weapons\tfa_cso\at4"

$sequence "idle" {
	"rpgrocket_anims\idle"
	fps 15
	loop
}
