version 1
nodes
  0 "Bone_Root" -1
  1 "Bone01" 0
  2 "Bone_Lefthand" 1
  3 "wa2000_root" 2
  4 "trigger" 3
  5 "load" 3
  6 "magazine" 3
  7 "Bone04" 0
  8 "Bone_Righthand" 7
  9 "Bone39" 8
  10 "Bone40" 9
  11 "Bone41" 10
  12 "Bone35" 8
  13 "Bone36" 12
  14 "Bone37" 13
  15 "Bone31" 8
  16 "Bone32" 15
  17 "Bone33" 16
  18 "Bone43" 8
  19 "Bone44" 18
  20 "Bone45" 19
  21 "Bone27" 8
  22 "Bone28" 21
  23 "Bone29" 22
  24 "Bone_Se_Hand-R" 8
  25 "Bone13" 2
  26 "Bone14" 25
  27 "Bone15" 26
  28 "Bone17" 2
  29 "Bone18" 28
  30 "Bone19" 29
  31 "Bone21" 2
  32 "Bone22" 31
  33 "Bone23" 32
  34 "Bone09" 2
  35 "Bone10" 34
  36 "Bone11" 35
  37 "Bone05" 2
  38 "Bone06" 37
  39 "Bone07" 38
  40 "Bone_Se_Hand-L" 2
end
skeleton
  time 0
    0 0.000000 0.000000 0.000000 0.956880 -0.092689 0.065089
    1 6.208814 4.861697 -6.974305 6.073625 -1.608730 0.168997
    2 -0.071918 -8.498732 -0.104137 0.000791 0.288635 0.105900
    3 2.309492 -2.752047 1.804646 -0.057826 0.286025 -3.251375
    4 0.822732 1.600163 0.000001 0.000002 0.000000 -0.024500
    5 -0.135229 4.811259 0.000000 0.000000 0.000000 1.558216
    6 -0.114076 -2.997109 0.000000 0.000000 0.000000 -0.019284
    7 -1.055155 -7.027356 -7.666015 -0.126093 -6.210215 0.489182
    8 0.096944 -8.450418 -0.009364 -0.135215 -0.268260 0.357715
    9 0.447952 -2.798983 -0.200442 -0.766149 -0.010396 0.265094
    10 -0.032910 -1.480206 0.004936 -0.491695 0.000000 0.000002
    11 -0.027022 -1.076919 -0.020212 -1.394127 0.000000 0.000000
    12 -0.249534 -2.846962 -0.174215 -0.219877 -0.000125 -0.008396
    13 0.043235 -1.683940 0.096014 -1.114635 0.002823 -0.000167
    14 0.031729 -1.160831 0.058836 -0.912818 0.000642 0.008372
    15 -0.963866 -2.785142 -0.085346 0.070019 0.162276 -0.191556
    16 0.028479 -1.403069 0.006271 -0.596876 0.000000 0.000000
    17 0.021413 -0.957782 0.020047 -0.432482 0.000000 0.000000
    18 1.164474 -2.543938 -0.170328 -0.702366 -0.013294 0.477915
    19 0.024033 -1.129042 0.017806 -0.803472 0.000000 0.000001
    20 0.014896 -0.883989 -0.019845 -0.584376 0.000000 0.000000
    21 -0.586770 -1.264475 0.200164 -0.286511 -0.333680 -2.448923
    22 1.522835 0.058681 0.016850 -0.077529 -0.420656 0.144479
    23 1.117948 0.048424 -0.005764 -0.000243 -0.025198 0.065422
    24 -0.139399 -0.111697 0.014397 0.285382 -0.030687 1.580508
    25 -0.488517 -2.755600 -0.228261 -1.119640 -0.066262 -0.107576
    26 0.039888 -1.479789 0.029853 -1.451658 0.000000 0.000000
    27 0.028786 -1.075730 -0.023111 -0.870565 0.000000 0.000000
    28 0.250028 -2.820664 -0.238396 -0.916633 -0.083565 -0.024874
    29 -0.049759 -1.680545 0.100480 -1.550922 0.000000 -0.000002
    30 -0.034141 -1.148312 0.084779 -1.087312 0.000000 0.000000
    31 0.957766 -2.746776 -0.090301 -0.432128 -0.184437 0.072455
    32 -0.033419 -1.397128 -0.011255 -0.247848 0.000000 -0.000001
    33 -0.022361 -0.957434 0.018783 -0.956086 0.000000 0.000000
    34 -1.180680 -2.507215 -0.193861 -0.747365 0.130011 -0.054388
    35 -0.024966 -1.123935 0.017594 -1.414285 0.000000 0.000001
    36 -0.020057 -0.890966 0.010091 -0.846171 0.000000 0.000000
    37 0.583510 -1.197274 0.185377 0.631272 -1.323162 -0.918143
    38 1.535926 0.010244 0.005008 -0.124871 0.065208 -0.956765
    39 1.100770 0.004526 -0.010676 -0.014685 0.006889 -0.956472
    40 0.120152 -0.050266 -0.054488 0.287568 3.110905 1.561085
  time 1
    0 0.011719 0.000000 0.000000 0.948324 -0.091862 0.065089
    1 6.208814 4.861697 -6.974305 6.075720 -1.608730 0.168997
    2 -0.071918 -8.498732 -0.104137 0.000791 0.288635 0.105900
    3 2.309492 -2.752047 1.804646 -0.057826 0.286025 -3.251375
    4 0.822732 1.600163 0.000001 0.000002 0.000000 -0.024500
    5 -0.135229 4.811259 0.000000 0.000000 0.000000 1.558216
    6 -0.114076 -2.997109 0.000000 0.000000 0.000000 -0.019284
    7 -1.055155 -7.042981 -7.697266 -0.127813 -6.193335 0.485943
    8 0.096944 -8.450418 -0.009364 -0.135215 -0.268260 0.357715
    9 0.447952 -2.798983 -0.200442 -0.766149 -0.010396 0.265094
    10 -0.032910 -1.480206 0.004936 -0.491695 0.000000 0.000002
    11 -0.027022 -1.076919 -0.020212 -1.394127 0.000000 0.000000
    12 -0.249534 -2.846962 -0.174215 -0.219877 -0.000125 -0.008396
    13 0.043235 -1.683940 0.096014 -1.114635 0.002823 -0.000167
    14 0.031729 -1.160831 0.058836 -0.912818 0.000642 0.008372
    15 -0.963866 -2.785142 -0.085346 0.070019 0.162276 -0.191556
    16 0.028479 -1.403069 0.006271 -0.596876 0.000000 0.000000
    17 0.021413 -0.957782 0.020047 -0.432482 0.000000 0.000000
    18 1.164474 -2.543938 -0.170328 -0.702366 -0.013294 0.477915
    19 0.024033 -1.129042 0.017806 -0.803472 0.000000 0.000001
    20 0.014896 -0.883989 -0.019845 -0.584376 0.000000 0.000000
    21 -0.586770 -1.264475 0.200164 -0.286511 -0.333680 -2.448923
    22 1.522835 0.058681 0.016850 -0.077529 -0.420656 0.144479
    23 1.117948 0.048424 -0.005764 -0.000243 -0.025198 0.065422
    24 -0.139399 -0.111697 0.014397 0.285382 -0.030687 1.580508
    25 -0.488517 -2.755600 -0.228261 -1.119640 -0.066262 -0.107576
    26 0.039888 -1.479789 0.029853 -1.451658 0.000000 0.000000
    27 0.028786 -1.075730 -0.023111 -0.870565 0.000000 0.000000
    28 0.250028 -2.820664 -0.238396 -0.916633 -0.083565 -0.024874
    29 -0.049759 -1.680545 0.100480 -1.550922 0.000000 -0.000002
    30 -0.034141 -1.148312 0.084779 -1.087312 0.000000 0.000000
    31 0.957766 -2.746776 -0.090301 -0.432128 -0.184437 0.072455
    32 -0.033419 -1.397128 -0.011255 -0.247848 0.000000 -0.000001
    33 -0.022361 -0.957434 0.018783 -0.956086 0.000000 0.000000
    34 -1.180680 -2.507215 -0.193861 -0.747365 0.130011 -0.054388
    35 -0.024966 -1.123935 0.017594 -1.414285 0.000000 0.000001
    36 -0.020057 -0.890966 0.010091 -0.846171 0.000000 0.000000
    37 0.583510 -1.197274 0.185377 0.631272 -1.323162 -0.918143
    38 1.535926 0.010244 0.005008 -0.124871 0.065208 -0.956794
    39 1.100770 0.004526 -0.010676 -0.014685 0.006889 -0.956472
    40 0.120152 -0.050266 -0.054488 0.287568 3.110905 1.561085
  time 2
    0 0.058596 0.000000 0.000000 0.924056 -0.089513 0.065039
    1 6.208814 4.861697 -6.974305 6.081243 -1.608730 0.168997
    2 -0.071918 -8.498732 -0.104137 0.000791 0.288635 0.105900
    3 2.309492 -2.752047 1.804646 -0.057826 0.286025 -3.251375
    4 0.822732 1.600163 0.000001 0.000002 0.000000 -0.024500
    5 -0.135229 4.811259 0.000000 0.000000 0.000000 1.558216
    6 -0.114076 -2.997109 0.000000 0.000000 0.000000 -0.019284
    7 -1.055155 -7.078139 -7.802738 -0.132529 -6.146393 0.477081
    8 0.096944 -8.450418 -0.009364 -0.135215 -0.268260 0.357715
    9 0.447952 -2.798983 -0.200442 -0.766149 -0.010396 0.265094
    10 -0.032910 -1.480206 0.004936 -0.491695 0.000000 0.000002
    11 -0.027022 -1.076919 -0.020212 -1.394127 0.000000 0.000000
    12 -0.249534 -2.846962 -0.174215 -0.219877 -0.000125 -0.008396
    13 0.043235 -1.683940 0.096014 -1.114635 0.002823 -0.000167
    14 0.031729 -1.160831 0.058836 -0.912818 0.000642 0.008372
    15 -0.963866 -2.785142 -0.085346 0.070019 0.162276 -0.191556
    16 0.028479 -1.403069 0.006271 -0.596876 0.000000 0.000000
    17 0.021413 -0.957782 0.020047 -0.432482 0.000000 0.000000
    18 1.164474 -2.543938 -0.170328 -0.702366 -0.013294 0.477915
    19 0.024033 -1.129042 0.017806 -0.803472 0.000000 0.000001
    20 0.014896 -0.883989 -0.019845 -0.584376 0.000000 0.000000
    21 -0.586770 -1.264475 0.200164 -0.286511 -0.333680 -2.448923
    22 1.522835 0.058681 0.016850 -0.077529 -0.420656 0.144479
    23 1.117948 0.048424 -0.005764 -0.000243 -0.025198 0.065422
    24 -0.139399 -0.111697 0.014397 0.285382 -0.030687 1.580508
    25 -0.488517 -2.755600 -0.228261 -1.119640 -0.066262 -0.107576
    26 0.039888 -1.479789 0.029853 -1.451658 0.000000 0.000000
    27 0.028786 -1.075730 -0.023111 -0.870565 0.000000 0.000000
    28 0.250028 -2.820664 -0.238396 -0.916633 -0.083565 -0.024874
    29 -0.049759 -1.680545 0.100480 -1.550922 0.000000 -0.000002
    30 -0.034141 -1.148312 0.084779 -1.087312 0.000000 0.000000
    31 0.957766 -2.746776 -0.090301 -0.432128 -0.184437 0.072455
    32 -0.033419 -1.397128 -0.011255 -0.247848 0.000000 -0.000001
    33 -0.022361 -0.957434 0.018783 -0.956086 0.000000 0.000000
    34 -1.180680 -2.507215 -0.193861 -0.747365 0.130011 -0.054388
    35 -0.024966 -1.123935 0.017594 -1.414285 0.000000 0.000001
    36 -0.020057 -0.890966 0.010091 -0.846171 0.000000 0.000000
    37 0.583510 -1.197274 0.185377 0.631272 -1.323162 -0.918143
    38 1.535926 0.010244 0.005008 -0.124871 0.065208 -0.956765
    39 1.100770 0.004526 -0.010676 -0.014685 0.006889 -0.956472
    40 0.120152 -0.050266 -0.054488 0.287568 3.110905 1.561085
  time 3
    0 0.125004 0.000000 0.000000 0.885976 -0.085822 0.064889
    1 6.208814 4.861697 -6.974305 6.089623 -1.608730 0.168997
    2 -0.071918 -8.498732 -0.104137 0.000791 0.288635 0.105900
    3 2.309492 -2.752047 1.804646 -0.057826 0.286025 -3.251375
    4 0.822732 1.600163 0.000001 0.000002 0.000000 -0.024500
    5 -0.135229 4.811259 0.000000 0.000000 0.000000 1.558216
    6 -0.114076 -2.997109 0.000000 0.000000 0.000000 -0.019284
    7 -1.055155 -7.128922 -7.951180 -0.139666 -6.075553 0.463741
    8 0.096944 -8.450418 -0.009364 -0.135215 -0.268260 0.357715
    9 0.447952 -2.798983 -0.200442 -0.766149 -0.010396 0.265094
    10 -0.032910 -1.480206 0.004936 -0.491695 0.000000 0.000002
    11 -0.027022 -1.076919 -0.020212 -1.394127 0.000000 0.000000
    12 -0.249534 -2.846962 -0.174215 -0.219877 -0.000125 -0.008396
    13 0.043235 -1.683940 0.096014 -1.114635 0.002823 -0.000167
    14 0.031729 -1.160831 0.058836 -0.912818 0.000642 0.008372
    15 -0.963866 -2.785142 -0.085346 0.070019 0.162276 -0.191556
    16 0.028479 -1.403069 0.006271 -0.596876 0.000000 0.000000
    17 0.021413 -0.957782 0.020047 -0.432482 0.000000 0.000000
    18 1.164474 -2.543938 -0.170328 -0.702366 -0.013294 0.477915
    19 0.024033 -1.129042 0.017806 -0.803472 0.000000 0.000001
    20 0.014896 -0.883989 -0.019845 -0.584376 0.000000 0.000000
    21 -0.586770 -1.264475 0.200164 -0.286511 -0.333680 -2.448923
    22 1.522835 0.058681 0.016850 -0.077529 -0.420656 0.144479
    23 1.117948 0.048424 -0.005764 -0.000243 -0.025198 0.065422
    24 -0.139399 -0.111697 0.014397 0.285382 -0.030687 1.580508
    25 -0.488517 -2.755600 -0.228261 -1.119640 -0.066262 -0.107576
    26 0.039888 -1.479789 0.029853 -1.451658 0.000000 0.000000
    27 0.028786 -1.075730 -0.023111 -0.870565 0.000000 0.000000
    28 0.250028 -2.820664 -0.238396 -0.916633 -0.083565 -0.024874
    29 -0.049759 -1.680545 0.100480 -1.550922 0.000000 -0.000002
    30 -0.034141 -1.148312 0.084779 -1.087312 0.000000 0.000000
    31 0.957766 -2.746776 -0.090301 -0.432128 -0.184437 0.072455
    32 -0.033419 -1.397128 -0.011255 -0.247848 0.000000 -0.000001
    33 -0.022361 -0.957434 0.018783 -0.956086 0.000000 0.000000
    34 -1.180680 -2.507215 -0.193861 -0.747365 0.130011 -0.054388
    35 -0.024966 -1.123935 0.017594 -1.414285 0.000000 0.000001
    36 -0.020057 -0.890966 0.010091 -0.846171 0.000000 0.000000
    37 0.583510 -1.197274 0.185377 0.631272 -1.323162 -0.918143
    38 1.535926 0.010244 0.005008 -0.124871 0.065208 -0.956765
    39 1.100770 0.004526 -0.010676 -0.014685 0.006889 -0.956472
    40 0.120152 -0.050266 -0.054488 0.287568 3.110905 1.561085
  time 4
    0 0.218757 0.000000 0.000000 0.836098 -0.080992 0.064790
    1 6.208814 4.861697 -6.974305 6.099907 -1.608730 0.168997
    2 -0.079731 -8.498732 -0.104137 0.000791 0.288635 0.105900
    3 2.309492 -2.752047 1.804646 -0.057826 0.286025 -3.251375
    4 0.822732 1.600163 0.000001 0.000002 0.000000 -0.024500
    5 -0.135229 4.811259 0.000000 0.000000 0.000000 1.558216
    6 -0.114076 -2.997109 0.000000 0.000000 0.000000 -0.019284
    7 -1.055155 -7.195330 -8.134779 -0.148587 -5.986694 0.446876
    8 0.096944 -8.450418 -0.009364 -0.135215 -0.268260 0.357715
    9 0.447952 -2.798983 -0.200442 -0.766149 -0.010396 0.265094
    10 -0.032910 -1.480206 0.004936 -0.491695 0.000000 0.000002
    11 -0.027022 -1.076919 -0.020212 -1.394127 0.000000 0.000000
    12 -0.249534 -2.846962 -0.174215 -0.219877 -0.000125 -0.008396
    13 0.043235 -1.683940 0.096014 -1.114635 0.002823 -0.000167
    14 0.031729 -1.160831 0.058836 -0.912818 0.000642 0.008372
    15 -0.963866 -2.785142 -0.085346 0.070019 0.162276 -0.191556
    16 0.028479 -1.403069 0.006271 -0.596876 0.000000 0.000000
    17 0.021413 -0.957782 0.020047 -0.432482 0.000000 0.000000
    18 1.164474 -2.543938 -0.170328 -0.702366 -0.013294 0.477915
    19 0.024033 -1.129042 0.017806 -0.803472 0.000000 0.000001
    20 0.014896 -0.883989 -0.019845 -0.584376 0.000000 0.000000
    21 -0.586770 -1.264475 0.200164 -0.286511 -0.333680 -2.448923
    22 1.522835 0.058681 0.016850 -0.077529 -0.420656 0.144479
    23 1.117948 0.048424 -0.005764 -0.000243 -0.025198 0.065422
    24 -0.139399 -0.111697 0.014397 0.285382 -0.030687 1.580508
    25 -0.488517 -2.755600 -0.228261 -1.119640 -0.066262 -0.107576
    26 0.039888 -1.479789 0.029853 -1.451658 0.000000 0.000000
    27 0.028786 -1.075730 -0.023111 -0.870565 0.000000 0.000000
    28 0.250028 -2.820664 -0.238396 -0.916633 -0.083565 -0.024874
    29 -0.049759 -1.680545 0.100480 -1.550922 0.000000 -0.000002
    30 -0.034141 -1.148312 0.084779 -1.087312 0.000000 0.000000
    31 0.957766 -2.746776 -0.090301 -0.432128 -0.184437 0.072455
    32 -0.033419 -1.397128 -0.011255 -0.247848 0.000000 -0.000001
    33 -0.022361 -0.957434 0.018783 -0.956086 0.000000 0.000000
    34 -1.180680 -2.507215 -0.193861 -0.747365 0.130011 -0.054388
    35 -0.024966 -1.123935 0.017594 -1.414285 0.000000 0.000001
    36 -0.020057 -0.890966 0.010091 -0.846171 0.000000 0.000000
    37 0.583510 -1.197274 0.185377 0.631272 -1.323162 -0.918143
    38 1.535926 0.010244 0.005008 -0.124871 0.065208 -0.956765
    39 1.100770 0.004526 -0.010676 -0.014685 0.006889 -0.956472
    40 0.120152 -0.050266 -0.054488 0.287568 3.110905 1.561085
  time 5
    0 0.328135 0.000000 0.000000 0.776379 -0.075191 0.064590
    1 6.208814 4.861697 -6.974305 6.111334 -1.608730 0.168997
    2 -0.079731 -8.498732 -0.104137 0.000791 0.288635 0.105900
    3 2.309492 -2.752047 1.804646 -0.057826 0.286025 -3.251375
    4 0.822732 1.600163 0.000001 0.000002 0.000000 -0.024500
    5 -0.135229 4.811259 0.000000 0.000000 0.000000 1.558216
    6 -0.114076 -2.997109 0.000000 0.000000 0.000000 -0.019284
    7 -1.055155 -7.265644 -8.337910 -0.158783 -5.885887 0.427820
    8 0.096944 -8.450418 -0.009364 -0.135215 -0.268260 0.357715
    9 0.447952 -2.798983 -0.200442 -0.766149 -0.010396 0.265094
    10 -0.032910 -1.480206 0.004936 -0.491695 0.000000 0.000002
    11 -0.027022 -1.076919 -0.020212 -1.394127 0.000000 0.000000
    12 -0.249534 -2.846962 -0.174215 -0.219877 -0.000125 -0.008396
    13 0.043235 -1.683940 0.096014 -1.114635 0.002823 -0.000167
    14 0.031729 -1.160831 0.058836 -0.912818 0.000642 0.008372
    15 -0.963866 -2.785142 -0.085346 0.070019 0.162276 -0.191556
    16 0.028479 -1.403069 0.006271 -0.596876 0.000000 0.000000
    17 0.021413 -0.957782 0.020047 -0.432482 0.000000 0.000000
    18 1.164474 -2.543938 -0.170328 -0.702366 -0.013294 0.477915
    19 0.024033 -1.129042 0.017806 -0.803472 0.000000 0.000001
    20 0.014896 -0.883989 -0.019845 -0.584376 0.000000 0.000000
    21 -0.586770 -1.264475 0.200164 -0.286511 -0.333680 -2.448923
    22 1.522835 0.058681 0.016850 -0.077529 -0.420656 0.144479
    23 1.117948 0.048424 -0.005764 -0.000243 -0.025198 0.065422
    24 -0.139399 -0.111697 0.014397 0.285382 -0.030687 1.580508
    25 -0.488517 -2.755600 -0.228261 -1.119640 -0.066262 -0.107576
    26 0.039888 -1.479789 0.029853 -1.451658 0.000000 0.000000
    27 0.028786 -1.075730 -0.023111 -0.870565 0.000000 0.000000
    28 0.250028 -2.820664 -0.238396 -0.916633 -0.083565 -0.024874
    29 -0.049759 -1.680545 0.100480 -1.550922 0.000000 -0.000002
    30 -0.034141 -1.148312 0.084779 -1.087312 0.000000 0.000000
    31 0.957766 -2.746776 -0.090301 -0.432128 -0.184437 0.072455
    32 -0.033419 -1.397128 -0.011255 -0.247848 0.000000 -0.000001
    33 -0.022361 -0.957434 0.018783 -0.956086 0.000000 0.000000
    34 -1.180680 -2.507215 -0.193861 -0.747365 0.130011 -0.054388
    35 -0.024966 -1.123935 0.017594 -1.414285 0.000000 0.000001
    36 -0.020057 -0.890966 0.010091 -0.846171 0.000000 0.000000
    37 0.583510 -1.197274 0.185377 0.631272 -1.323162 -0.918143
    38 1.535926 0.010244 0.005008 -0.124871 0.065208 -0.956765
    39 1.100770 0.004526 -0.010676 -0.014685 0.006889 -0.956472
    40 0.120152 -0.050266 -0.054488 0.287568 3.110905 1.561085
  time 6
    0 0.441420 0.000000 0.000000 0.708775 -0.068660 0.064240
    1 6.208814 4.861697 -6.974305 6.123237 -1.608730 0.168997
    2 -0.083637 -8.498732 -0.104137 0.000791 0.288635 0.105900
    3 2.309492 -2.752047 1.804646 -0.057826 0.286025 -3.251375
    4 0.822732 1.600163 0.000001 0.000002 0.000000 -0.024500
    5 -0.135229 4.811259 0.000000 0.000000 0.000000 1.558216
    6 -0.114076 -2.997109 0.000000 0.000000 0.000000 -0.019284
    7 -1.055155 -7.339865 -8.544948 -0.169488 -5.779105 0.407619
    8 0.096944 -8.450418 -0.009364 -0.135215 -0.268260 0.357715
    9 0.447952 -2.798983 -0.200442 -0.766149 -0.010396 0.265094
    10 -0.032910 -1.480206 0.004936 -0.491695 0.000000 0.000002
    11 -0.027022 -1.076919 -0.020212 -1.394127 0.000000 0.000000
    12 -0.249534 -2.846962 -0.174215 -0.219877 -0.000125 -0.008396
    13 0.043235 -1.683940 0.096014 -1.114635 0.002823 -0.000167
    14 0.031729 -1.160831 0.058836 -0.912818 0.000642 0.008372
    15 -0.963866 -2.785142 -0.085346 0.070019 0.162276 -0.191556
    16 0.028479 -1.403069 0.006271 -0.596876 0.000000 0.000000
    17 0.021413 -0.957782 0.020047 -0.432482 0.000000 0.000000
    18 1.164474 -2.543938 -0.170328 -0.702366 -0.013294 0.477915
    19 0.024033 -1.129042 0.017806 -0.803472 0.000000 0.000001
    20 0.014896 -0.883989 -0.019845 -0.584376 0.000000 0.000000
    21 -0.586770 -1.264475 0.200164 -0.286511 -0.333680 -2.448923
    22 1.522835 0.058681 0.016850 -0.077529 -0.420656 0.144479
    23 1.117948 0.048424 -0.005764 -0.000243 -0.025198 0.065422
    24 -0.139399 -0.111697 0.014397 0.285382 -0.030687 1.580508
    25 -0.488517 -2.755600 -0.228261 -1.119640 -0.066262 -0.107576
    26 0.039888 -1.479789 0.029853 -1.451658 0.000000 0.000000
    27 0.028786 -1.075730 -0.023111 -0.870565 0.000000 0.000000
    28 0.250028 -2.820664 -0.238396 -0.916633 -0.083565 -0.024874
    29 -0.049759 -1.680545 0.100480 -1.550922 0.000000 -0.000002
    30 -0.034141 -1.148312 0.084779 -1.087312 0.000000 0.000000
    31 0.957766 -2.746776 -0.090301 -0.432128 -0.184437 0.072455
    32 -0.033419 -1.397128 -0.011255 -0.247848 0.000000 -0.000001
    33 -0.022361 -0.957434 0.018783 -0.956086 0.000000 0.000000
    34 -1.180680 -2.507215 -0.193861 -0.747365 0.130011 -0.054388
    35 -0.024966 -1.123935 0.017594 -1.414285 0.000000 0.000001
    36 -0.020057 -0.890966 0.010091 -0.846171 0.000000 0.000000
    37 0.583510 -1.197274 0.185377 0.631272 -1.323162 -0.918143
    38 1.535926 0.010244 0.005008 -0.124871 0.065208 -0.956765
    39 1.100770 0.004526 -0.010676 -0.014685 0.006889 -0.956472
    40 0.120152 -0.050266 -0.054488 0.287568 3.110905 1.561085
  time 7
    0 0.570330 0.000000 0.000000 0.635272 -0.061541 0.063941
    1 6.208814 4.861697 -6.974305 6.134664 -1.608730 0.168997
    2 -0.091450 -8.498732 -0.104137 0.000791 0.288635 0.105900
    3 2.309492 -2.752047 1.804646 -0.057826 0.286025 -3.251375
    4 0.822732 1.600163 0.000001 0.000002 0.000000 -0.024500
    5 -0.135229 4.811259 0.000000 0.000000 0.000000 1.558216
    6 -0.114076 -2.997109 0.000000 0.000000 0.000000 -0.019284
    7 -1.055155 -7.410180 -8.751985 -0.180257 -5.672324 0.387419
    8 0.096944 -8.450418 -0.009364 -0.135215 -0.268260 0.357715
    9 0.447952 -2.798983 -0.200442 -0.766149 -0.010396 0.265094
    10 -0.032910 -1.480206 0.004936 -0.491695 0.000000 0.000002
    11 -0.027022 -1.076919 -0.020212 -1.394127 0.000000 0.000000
    12 -0.249534 -2.846962 -0.174215 -0.219877 -0.000125 -0.008396
    13 0.043235 -1.683940 0.096014 -1.114635 0.002823 -0.000167
    14 0.031729 -1.160831 0.058836 -0.912818 0.000642 0.008372
    15 -0.963866 -2.785142 -0.085346 0.070019 0.162276 -0.191556
    16 0.028479 -1.403069 0.006271 -0.596876 0.000000 0.000000
    17 0.021413 -0.957782 0.020047 -0.432482 0.000000 0.000000
    18 1.164474 -2.543938 -0.170328 -0.702366 -0.013294 0.477915
    19 0.024033 -1.129042 0.017806 -0.803472 0.000000 0.000001
    20 0.014896 -0.883989 -0.019845 -0.584376 0.000000 0.000000
    21 -0.586770 -1.264475 0.200164 -0.286511 -0.333680 -2.448923
    22 1.522835 0.058681 0.016850 -0.077529 -0.420656 0.144479
    23 1.117948 0.048424 -0.005764 -0.000243 -0.025198 0.065422
    24 -0.139399 -0.111697 0.014397 0.285382 -0.030687 1.580508
    25 -0.488517 -2.755600 -0.228261 -1.119640 -0.066262 -0.107576
    26 0.039888 -1.479789 0.029853 -1.451658 0.000000 0.000000
    27 0.028786 -1.075730 -0.023111 -0.870565 0.000000 0.000000
    28 0.250028 -2.820664 -0.238396 -0.916633 -0.083565 -0.024874
    29 -0.049759 -1.680545 0.100480 -1.550922 0.000000 -0.000002
    30 -0.034141 -1.148312 0.084779 -1.087312 0.000000 0.000000
    31 0.957766 -2.746776 -0.090301 -0.432128 -0.184437 0.072455
    32 -0.033419 -1.397128 -0.011255 -0.247848 0.000000 -0.000001
    33 -0.022361 -0.957434 0.018783 -0.956086 0.000000 0.000000
    34 -1.180680 -2.507215 -0.193861 -0.747365 0.130011 -0.054388
    35 -0.024966 -1.123935 0.017594 -1.414285 0.000000 0.000001
    36 -0.020057 -0.890966 0.010091 -0.846171 0.000000 0.000000
    37 0.583510 -1.197274 0.185377 0.631272 -1.323162 -0.918143
    38 1.535926 0.010244 0.005008 -0.124871 0.065208 -0.956765
    39 1.100770 0.004526 -0.010676 -0.014685 0.006889 -0.956472
    40 0.120152 -0.050266 -0.054488 0.287568 3.110905 1.561085
  time 8
    0 0.695334 0.000000 0.000000 0.557827 -0.054039 0.063442
    1 6.208814 4.861697 -6.974305 6.144948 -1.608730 0.168997
    2 -0.099263 -8.498732 -0.104137 0.000791 0.288635 0.105900
    3 2.309492 -2.752047 1.804646 -0.057826 0.286025 -3.251375
    4 0.822732 1.600163 0.000001 0.000002 0.000000 -0.024500
    5 -0.135229 4.811259 0.000000 0.000000 0.000000 1.558216
    6 -0.114076 -2.997109 0.000000 0.000000 0.000000 -0.019284
    7 -1.055155 -7.472682 -8.935585 -0.190389 -5.571517 0.368363
    8 0.096944 -8.450418 -0.009364 -0.135215 -0.268260 0.357715
    9 0.447952 -2.798983 -0.200442 -0.766149 -0.010396 0.265094
    10 -0.032910 -1.480206 0.004936 -0.491695 0.000000 0.000002
    11 -0.027022 -1.076919 -0.020212 -1.394127 0.000000 0.000000
    12 -0.249534 -2.846962 -0.174215 -0.219877 -0.000125 -0.008396
    13 0.043235 -1.683940 0.096014 -1.114635 0.002823 -0.000167
    14 0.031729 -1.160831 0.058836 -0.912818 0.000642 0.008372
    15 -0.963866 -2.785142 -0.085346 0.070019 0.162276 -0.191556
    16 0.028479 -1.403069 0.006271 -0.596876 0.000000 0.000000
    17 0.021413 -0.957782 0.020047 -0.432482 0.000000 0.000000
    18 1.164474 -2.543938 -0.170328 -0.702366 -0.013294 0.477915
    19 0.024033 -1.129042 0.017806 -0.803472 0.000000 0.000001
    20 0.014896 -0.883989 -0.019845 -0.584376 0.000000 0.000000
    21 -0.586770 -1.264475 0.200164 -0.286511 -0.333680 -2.448923
    22 1.522835 0.058681 0.016850 -0.077529 -0.420656 0.144479
    23 1.117948 0.048424 -0.005764 -0.000243 -0.025198 0.065422
    24 -0.139399 -0.111697 0.014397 0.285382 -0.030687 1.580508
    25 -0.488517 -2.755600 -0.228261 -1.119640 -0.066262 -0.107576
    26 0.039888 -1.479789 0.029853 -1.451658 0.000000 0.000000
    27 0.028786 -1.075730 -0.023111 -0.870565 0.000000 0.000000
    28 0.250028 -2.820664 -0.238396 -0.916633 -0.083565 -0.024874
    29 -0.049759 -1.680545 0.100480 -1.550922 0.000000 -0.000002
    30 -0.034141 -1.148312 0.084779 -1.087312 0.000000 0.000000
    31 0.957766 -2.746776 -0.090301 -0.432128 -0.184437 0.072455
    32 -0.033419 -1.397128 -0.011255 -0.247848 0.000000 -0.000001
    33 -0.022361 -0.957434 0.018783 -0.956086 0.000000 0.000000
    34 -1.180680 -2.507215 -0.193861 -0.747365 0.130011 -0.054388
    35 -0.024966 -1.123935 0.017594 -1.414285 0.000000 0.000001
    36 -0.020057 -0.890966 0.010091 -0.846171 0.000000 0.000000
    37 0.583510 -1.197274 0.185377 0.631272 -1.323162 -0.918143
    38 1.535926 0.010244 0.005008 -0.124871 0.065208 -0.956794
    39 1.100770 0.004526 -0.010676 -0.014685 0.006889 -0.956472
    40 0.120152 -0.050266 -0.054488 0.287568 3.110905 1.561085
  time 9
    0 0.820338 0.000000 0.000000 0.478425 -0.046332 0.062942
    1 6.208814 4.861697 -6.974305 6.153327 -1.608730 0.168997
    2 -0.103169 -8.498732 -0.104137 0.000791 0.288635 0.105900
    3 2.309492 -2.752047 1.804646 -0.057826 0.286025 -3.251375
    4 0.822732 1.600163 0.000001 0.000002 0.000000 -0.024500
    5 -0.135229 4.811259 0.000000 0.000000 0.000000 1.558216
    6 -0.114076 -2.997109 0.000000 0.000000 0.000000 -0.019284
    7 -1.055155 -7.523465 -9.084027 -0.199374 -5.482658 0.351593
    8 0.096944 -8.450418 -0.009364 -0.135215 -0.268260 0.357715
    9 0.447952 -2.798983 -0.200442 -0.766149 -0.010396 0.265094
    10 -0.032910 -1.480206 0.004936 -0.491695 0.000000 0.000002
    11 -0.027022 -1.076919 -0.020212 -1.394127 0.000000 0.000000
    12 -0.249534 -2.846962 -0.174215 -0.219877 -0.000125 -0.008396
    13 0.043235 -1.683940 0.096014 -1.114635 0.002823 -0.000167
    14 0.031729 -1.160831 0.058836 -0.912818 0.000642 0.008372
    15 -0.963866 -2.785142 -0.085346 0.070019 0.162276 -0.191556
    16 0.028479 -1.403069 0.006271 -0.596876 0.000000 0.000000
    17 0.021413 -0.957782 0.020047 -0.432482 0.000000 0.000000
    18 1.164474 -2.543938 -0.170328 -0.702366 -0.013294 0.477915
    19 0.024033 -1.129042 0.017806 -0.803472 0.000000 0.000001
    20 0.014896 -0.883989 -0.019845 -0.584376 0.000000 0.000000
    21 -0.586770 -1.264475 0.200164 -0.286511 -0.333680 -2.448923
    22 1.522835 0.058681 0.016850 -0.077529 -0.420656 0.144479
    23 1.117948 0.048424 -0.005764 -0.000243 -0.025198 0.065422
    24 -0.139399 -0.111697 0.014397 0.285382 -0.030687 1.580508
    25 -0.488517 -2.755600 -0.228261 -1.119640 -0.066262 -0.107576
    26 0.039888 -1.479789 0.029853 -1.451658 0.000000 0.000000
    27 0.028786 -1.075730 -0.023111 -0.870565 0.000000 0.000000
    28 0.250028 -2.820664 -0.238396 -0.916633 -0.083565 -0.024874
    29 -0.049759 -1.680545 0.100480 -1.550922 0.000000 -0.000002
    30 -0.034141 -1.148312 0.084779 -1.087312 0.000000 0.000000
    31 0.957766 -2.746776 -0.090301 -0.432128 -0.184437 0.072455
    32 -0.033419 -1.397128 -0.011255 -0.247848 0.000000 -0.000001
    33 -0.022361 -0.957434 0.018783 -0.956086 0.000000 0.000000
    34 -1.180680 -2.507215 -0.193861 -0.747365 0.130011 -0.054388
    35 -0.024966 -1.123935 0.017594 -1.414285 0.000000 0.000001
    36 -0.020057 -0.890966 0.010091 -0.846171 0.000000 0.000000
    37 0.583510 -1.197274 0.185377 0.631272 -1.323162 -0.918177
    38 1.535926 0.010244 0.005008 -0.124871 0.065208 -0.956765
    39 1.100770 0.004526 -0.010676 -0.014685 0.006889 -0.956472
    40 0.120152 -0.050266 -0.054488 0.287568 3.110905 1.561085
  time 10
    0 0.937529 0.000000 0.000000 0.399024 -0.038638 0.062293
    1 6.208814 4.861697 -6.974305 6.158850 -1.608730 0.168997
    2 -0.110982 -8.498732 -0.104137 0.000791 0.288635 0.105900
    3 2.309492 -2.752047 1.804646 -0.057826 0.286025 -3.251375
    4 0.822732 1.600163 0.000001 0.000002 0.000000 -0.024500
    5 -0.135229 4.811259 0.000000 0.000000 0.000000 1.558216
    6 -0.114076 -2.997109 0.000000 0.000000 0.000000 -0.019284
    7 -1.055155 -7.562529 -9.181686 -0.206511 -5.411818 0.338253
    8 0.096944 -8.450418 -0.009364 -0.135215 -0.268260 0.357715
    9 0.447952 -2.798983 -0.200442 -0.766149 -0.010396 0.265094
    10 -0.032910 -1.480206 0.004936 -0.491695 0.000000 0.000002
    11 -0.027022 -1.076919 -0.020212 -1.394127 0.000000 0.000000
    12 -0.249534 -2.846962 -0.174215 -0.219877 -0.000125 -0.008396
    13 0.043235 -1.683940 0.096014 -1.114635 0.002823 -0.000167
    14 0.031729 -1.160831 0.058836 -0.912818 0.000642 0.008372
    15 -0.963866 -2.785142 -0.085346 0.070019 0.162276 -0.191556
    16 0.028479 -1.403069 0.006271 -0.596876 0.000000 0.000000
    17 0.021413 -0.957782 0.020047 -0.432482 0.000000 0.000000
    18 1.164474 -2.543938 -0.170328 -0.702366 -0.013294 0.477915
    19 0.024033 -1.129042 0.017806 -0.803472 0.000000 0.000001
    20 0.014896 -0.883989 -0.019845 -0.584376 0.000000 0.000000
    21 -0.586770 -1.264475 0.200164 -0.286511 -0.333680 -2.448923
    22 1.522835 0.058681 0.016850 -0.077529 -0.420656 0.144479
    23 1.117948 0.048424 -0.005764 -0.000243 -0.025198 0.065422
    24 -0.139399 -0.111697 0.014397 0.285382 -0.030687 1.580508
    25 -0.488517 -2.755600 -0.228261 -1.119640 -0.066262 -0.107576
    26 0.039888 -1.479789 0.029853 -1.451658 0.000000 0.000000
    27 0.028786 -1.075730 -0.023111 -0.870565 0.000000 0.000000
    28 0.250028 -2.820664 -0.238396 -0.916633 -0.083565 -0.024874
    29 -0.049759 -1.680545 0.100480 -1.550922 0.000000 -0.000002
    30 -0.034141 -1.148312 0.084779 -1.087312 0.000000 0.000000
    31 0.957766 -2.746776 -0.090301 -0.432128 -0.184437 0.072455
    32 -0.033419 -1.397128 -0.011255 -0.247848 0.000000 -0.000001
    33 -0.022361 -0.957434 0.018783 -0.956086 0.000000 0.000000
    34 -1.180680 -2.507215 -0.193861 -0.747365 0.130011 -0.054388
    35 -0.024966 -1.123935 0.017594 -1.414285 0.000000 0.000001
    36 -0.020057 -0.890966 0.010091 -0.846171 0.000000 0.000000
    37 0.583510 -1.197274 0.185377 0.631272 -1.323162 -0.918143
    38 1.535926 0.010244 0.005008 -0.124871 0.065208 -0.956765
    39 1.100770 0.004526 -0.010676 -0.014685 0.006889 -0.956472
    40 0.120152 -0.050266 -0.054488 0.287568 3.110905 1.561085
  time 11
    0 1.046907 0.000000 0.000000 0.321578 -0.031148 0.061594
    1 6.208814 4.861697 -6.974305 6.160945 -1.608730 0.168997
    2 -0.114888 -8.498732 -0.104137 0.000791 0.288635 0.105900
    3 2.309492 -2.752047 1.804646 -0.057826 0.286025 -3.251375
    4 0.822732 1.600163 0.000001 0.000002 0.000000 -0.024500
    5 -0.135229 4.811259 0.000000 0.000000 0.000000 1.558216
    6 -0.114076 -2.997109 0.000000 0.000000 0.000000 -0.019284
    7 -1.055155 -7.574248 -9.220750 -0.211226 -5.364876 0.329296
    8 0.096944 -8.450418 -0.009364 -0.135215 -0.268260 0.357715
    9 0.447952 -2.798983 -0.200442 -0.766149 -0.010396 0.265094
    10 -0.032910 -1.480206 0.004936 -0.491695 0.000000 0.000002
    11 -0.027022 -1.076919 -0.020212 -1.394127 0.000000 0.000000
    12 -0.249534 -2.846962 -0.174215 -0.219877 -0.000125 -0.008396
    13 0.043235 -1.683940 0.096014 -1.114635 0.002823 -0.000167
    14 0.031729 -1.160831 0.058836 -0.912818 0.000642 0.008372
    15 -0.963866 -2.785142 -0.085346 0.070019 0.162276 -0.191556
    16 0.028479 -1.403069 0.006271 -0.596876 0.000000 0.000000
    17 0.021413 -0.957782 0.020047 -0.432482 0.000000 0.000000
    18 1.164474 -2.543938 -0.170328 -0.702366 -0.013294 0.477915
    19 0.024033 -1.129042 0.017806 -0.803472 0.000000 0.000001
    20 0.014896 -0.883989 -0.019845 -0.584376 0.000000 0.000000
    21 -0.586770 -1.264475 0.200164 -0.286511 -0.333680 -2.448923
    22 1.522835 0.058681 0.016850 -0.077529 -0.420656 0.144479
    23 1.117948 0.048424 -0.005764 -0.000243 -0.025198 0.065422
    24 -0.139399 -0.111697 0.014397 0.285382 -0.030687 1.580508
    25 -0.488517 -2.755600 -0.228261 -1.119640 -0.066262 -0.107576
    26 0.039888 -1.479789 0.029853 -1.451658 0.000000 0.000000
    27 0.028786 -1.075730 -0.023111 -0.870565 0.000000 0.000000
    28 0.250028 -2.820664 -0.238396 -0.916633 -0.083565 -0.024874
    29 -0.049759 -1.680545 0.100480 -1.550922 0.000000 -0.000002
    30 -0.034141 -1.148312 0.084779 -1.087312 0.000000 0.000000
    31 0.957766 -2.746776 -0.090301 -0.432128 -0.184437 0.072455
    32 -0.033419 -1.397128 -0.011255 -0.247848 0.000000 -0.000001
    33 -0.022361 -0.957434 0.018783 -0.956086 0.000000 0.000000
    34 -1.180680 -2.507215 -0.193861 -0.747365 0.130011 -0.054388
    35 -0.024966 -1.123935 0.017594 -1.414285 0.000000 0.000001
    36 -0.020057 -0.890966 0.010091 -0.846171 0.000000 0.000000
    37 0.583510 -1.197274 0.185377 0.631272 -1.323162 -0.918143
    38 1.535926 0.010244 0.005008 -0.124871 0.065208 -0.956765
    39 1.100770 0.004526 -0.010676 -0.014685 0.006889 -0.956472
    40 0.120152 -0.050266 -0.054488 0.287568 3.110905 1.561085
  time 12
    0 1.132847 0.000000 0.000000 0.248076 -0.024017 0.060796
    1 6.208814 4.861697 -6.974305 6.156089 -1.608730 0.168997
    2 -0.122701 -8.498732 -0.104137 0.000791 0.288635 0.105900
    3 2.309492 -2.752047 1.804646 -0.057826 0.286025 -3.251375
    4 0.822732 1.600163 0.000001 0.000002 0.000000 -0.024500
    5 -0.135229 4.811259 0.000000 0.000000 0.000000 1.558216
    6 -0.114076 -2.997109 0.000000 0.000000 0.000000 -0.019284
    7 -1.055155 -7.562529 -9.166061 -0.212947 -5.347901 0.326152
    8 0.096944 -8.450418 -0.009364 -0.135215 -0.268260 0.357715
    9 0.447952 -2.798983 -0.200442 -0.766149 -0.010396 0.265094
    10 -0.032910 -1.480206 0.004936 -0.491695 0.000000 0.000002
    11 -0.027022 -1.076919 -0.020212 -1.394127 0.000000 0.000000
    12 -0.249534 -2.846962 -0.174215 -0.219877 -0.000125 -0.008396
    13 0.043235 -1.683940 0.096014 -1.114635 0.002823 -0.000167
    14 0.031729 -1.160831 0.058836 -0.912818 0.000642 0.008372
    15 -0.963866 -2.785142 -0.085346 0.070019 0.162276 -0.191556
    16 0.028479 -1.403069 0.006271 -0.596876 0.000000 0.000000
    17 0.021413 -0.957782 0.020047 -0.432482 0.000000 0.000000
    18 1.164474 -2.543938 -0.170328 -0.702366 -0.013294 0.477915
    19 0.024033 -1.129042 0.017806 -0.803472 0.000000 0.000001
    20 0.014896 -0.883989 -0.019845 -0.584376 0.000000 0.000000
    21 -0.586770 -1.264475 0.200164 -0.286511 -0.333680 -2.448923
    22 1.522835 0.058681 0.016850 -0.077529 -0.420656 0.144479
    23 1.117948 0.048424 -0.005764 -0.000243 -0.025198 0.065422
    24 -0.139399 -0.111697 0.014397 0.285382 -0.030687 1.580508
    25 -0.488517 -2.755600 -0.228261 -1.119640 -0.066262 -0.107576
    26 0.039888 -1.479789 0.029853 -1.451658 0.000000 0.000000
    27 0.028786 -1.075730 -0.023111 -0.870565 0.000000 0.000000
    28 0.250028 -2.820664 -0.238396 -0.916633 -0.083565 -0.024874
    29 -0.049759 -1.680545 0.100480 -1.550922 0.000000 -0.000002
    30 -0.034141 -1.148312 0.084779 -1.087312 0.000000 0.000000
    31 0.957766 -2.746776 -0.090301 -0.432128 -0.184437 0.072455
    32 -0.033419 -1.397128 -0.011255 -0.247848 0.000000 -0.000001
    33 -0.022361 -0.957434 0.018783 -0.956086 0.000000 0.000000
    34 -1.180680 -2.507215 -0.193861 -0.747365 0.130011 -0.054388
    35 -0.024966 -1.123935 0.017594 -1.414285 0.000000 0.000001
    36 -0.020057 -0.890966 0.010091 -0.846171 0.000000 0.000000
    37 0.583510 -1.197274 0.185377 0.631272 -1.323162 -0.918143
    38 1.535926 0.010244 0.005008 -0.124871 0.065208 -0.956765
    39 1.100770 0.004526 -0.010676 -0.014685 0.006889 -0.956472
    40 0.120152 -0.050266 -0.054488 0.287568 3.110905 1.561085
  time 13
    0 1.203162 0.000000 0.000000 0.180472 -0.017474 0.059847
    1 6.208814 4.861697 -6.974305 6.143615 -1.608730 0.168997
    2 -0.134420 -8.498732 -0.104137 0.000791 0.288635 0.105900
    3 2.309492 -2.752047 1.804646 -0.057826 0.286025 -3.251375
    4 0.822732 1.600163 0.000001 0.000002 0.000000 -0.024500
    5 -0.135229 4.811259 0.000000 0.000000 0.000000 1.558216
    6 -0.114076 -2.997109 0.000000 0.000000 0.000000 -0.019284
    7 -1.055155 -7.523465 -9.021525 -0.206511 -5.411818 0.338253
    8 0.096944 -8.450418 -0.009364 -0.135215 -0.268260 0.357715
    9 0.447952 -2.798983 -0.200442 -0.766149 -0.010396 0.265094
    10 -0.032910 -1.480206 0.004936 -0.491695 0.000000 0.000002
    11 -0.027022 -1.076919 -0.020212 -1.394127 0.000000 0.000000
    12 -0.249534 -2.846962 -0.174215 -0.219877 -0.000125 -0.008396
    13 0.043235 -1.683940 0.096014 -1.114635 0.002823 -0.000167
    14 0.031729 -1.160831 0.058836 -0.912818 0.000642 0.008372
    15 -0.963866 -2.785142 -0.085346 0.070019 0.162276 -0.191556
    16 0.028479 -1.403069 0.006271 -0.596876 0.000000 0.000000
    17 0.021413 -0.957782 0.020047 -0.432482 0.000000 0.000000
    18 1.164474 -2.543938 -0.170328 -0.702366 -0.013294 0.477915
    19 0.024033 -1.129042 0.017806 -0.803472 0.000000 0.000001
    20 0.014896 -0.883989 -0.019845 -0.584376 0.000000 0.000000
    21 -0.586770 -1.264475 0.200164 -0.286511 -0.333680 -2.448923
    22 1.522835 0.058681 0.016850 -0.077529 -0.420656 0.144479
    23 1.117948 0.048424 -0.005764 -0.000243 -0.025198 0.065422
    24 -0.139399 -0.111697 0.014397 0.285382 -0.030687 1.580508
    25 -0.488517 -2.755600 -0.228261 -1.119640 -0.066262 -0.107576
    26 0.039888 -1.479789 0.029853 -1.451658 0.000000 0.000000
    27 0.028786 -1.075730 -0.023111 -0.870565 0.000000 0.000000
    28 0.250028 -2.820664 -0.238396 -0.916633 -0.083565 -0.024874
    29 -0.049759 -1.680545 0.100480 -1.550922 0.000000 -0.000002
    30 -0.034141 -1.148312 0.084779 -1.087312 0.000000 0.000000
    31 0.957766 -2.746776 -0.090301 -0.432128 -0.184437 0.072455
    32 -0.033419 -1.397128 -0.011255 -0.247848 0.000000 -0.000001
    33 -0.022361 -0.957434 0.018783 -0.956086 0.000000 0.000000
    34 -1.180680 -2.507215 -0.193861 -0.747365 0.130011 -0.054388
    35 -0.024966 -1.123935 0.017594 -1.414285 0.000000 0.000001
    36 -0.020057 -0.890966 0.010091 -0.846171 0.000000 0.000000
    37 0.583510 -1.197274 0.185377 0.631272 -1.323162 -0.918177
    38 1.535926 0.010244 0.005008 -0.124871 0.065208 -0.956765
    39 1.100770 0.004526 -0.010676 -0.014685 0.006889 -0.956472
    40 0.120152 -0.050266 -0.054488 0.287568 3.110905 1.561085
  time 14
    0 1.246132 0.000000 0.000000 0.120753 -0.011697 0.058749
    1 6.208814 4.861697 -6.974305 6.126570 -1.608730 0.168997
    2 -0.142233 -8.498732 -0.104137 0.000791 0.288635 0.105900
    3 2.309492 -2.752047 1.804646 -0.055086 0.286408 -3.241296
    4 0.822732 1.600163 0.000001 0.000002 0.000000 -0.024500
    5 -0.135229 4.811259 0.000000 0.000000 0.000000 1.558216
    6 -0.114076 -2.997109 0.000000 0.000000 0.000000 -0.019284
    7 -1.055155 -7.472682 -8.806675 -0.190389 -5.571517 0.368363
    8 0.096944 -8.450418 -0.009364 -0.135215 -0.268260 0.357715
    9 0.447952 -2.798983 -0.200442 -0.766149 -0.010396 0.265094
    10 -0.032910 -1.480206 0.004936 -0.491695 0.000000 0.000002
    11 -0.027022 -1.076919 -0.020212 -1.394127 0.000000 0.000000
    12 -0.249534 -2.846962 -0.174215 -0.219877 -0.000125 -0.008396
    13 0.043235 -1.683940 0.096014 -1.114635 0.002823 -0.000167
    14 0.031729 -1.160831 0.058836 -0.912818 0.000642 0.008372
    15 -0.963866 -2.785142 -0.085346 0.070019 0.162276 -0.191556
    16 0.028479 -1.403069 0.006271 -0.596876 0.000000 0.000000
    17 0.021413 -0.957782 0.020047 -0.432482 0.000000 0.000000
    18 1.164474 -2.543938 -0.170328 -0.702366 -0.013294 0.477915
    19 0.024033 -1.129042 0.017806 -0.803472 0.000000 0.000001
    20 0.014896 -0.883989 -0.019845 -0.584376 0.000000 0.000000
    21 -0.586770 -1.264475 0.200164 -0.286511 -0.333680 -2.448923
    22 1.522835 0.058681 0.016850 -0.077529 -0.420656 0.144479
    23 1.117948 0.048424 -0.005764 -0.000243 -0.025198 0.065422
    24 -0.139399 -0.111697 0.014397 0.285382 -0.030687 1.580508
    25 -0.488517 -2.755600 -0.228261 -1.119640 -0.066262 -0.107576
    26 0.039888 -1.479789 0.029853 -1.451658 0.000000 0.000000
    27 0.028786 -1.075730 -0.023111 -0.870565 0.000000 0.000000
    28 0.250028 -2.820664 -0.238396 -0.916633 -0.083565 -0.024874
    29 -0.049759 -1.680545 0.100480 -1.550922 0.000000 -0.000002
    30 -0.034141 -1.148312 0.084779 -1.087312 0.000000 0.000000
    31 0.957766 -2.746776 -0.090301 -0.432128 -0.184437 0.072455
    32 -0.033419 -1.397128 -0.011255 -0.247848 0.000000 -0.000001
    33 -0.022361 -0.957434 0.018783 -0.956086 0.000000 0.000000
    34 -1.180680 -2.507215 -0.193861 -0.747365 0.130011 -0.054388
    35 -0.024966 -1.123935 0.017594 -1.414285 0.000000 0.000001
    36 -0.020057 -0.890966 0.010091 -0.846171 0.000000 0.000000
    37 0.583510 -1.197274 0.185377 0.631272 -1.323162 -0.918143
    38 1.535926 0.010244 0.005008 -0.124871 0.065208 -0.956765
    39 1.100770 0.004526 -0.010676 -0.014685 0.006889 -0.956472
    40 0.120152 -0.050266 -0.054488 0.287568 3.110905 1.561085
  time 15
    0 1.269570 0.000000 0.000000 0.070875 -0.006843 0.057500
    1 6.208814 4.861697 -6.974305 6.108001 -1.608730 0.168997
    2 -0.146139 -8.498732 -0.104137 0.000791 0.288635 0.105900
    3 2.309492 -2.752047 1.804646 -0.048120 0.287416 -3.215313
    4 0.822732 1.600163 0.000001 0.000002 0.000000 -0.024500
    5 -0.135229 4.811259 0.000000 0.000000 0.000000 1.558216
    6 -0.114076 -2.997109 0.000000 0.000000 0.000000 -0.019284
    7 -1.055155 -7.406274 -8.537135 -0.169488 -5.779105 0.407619
    8 0.096944 -8.450418 -0.009364 -0.180457 -0.268260 0.357715
    9 0.447952 -2.798983 -0.200442 -0.766149 -0.010396 0.265094
    10 -0.032910 -1.480206 0.004936 -0.491695 0.000000 0.000002
    11 -0.027022 -1.076919 -0.020212 -1.394127 0.000000 0.000000
    12 -0.249534 -2.846962 -0.174215 -0.219877 -0.000125 -0.008396
    13 0.043235 -1.683940 0.096014 -1.114635 0.002823 -0.000167
    14 0.031729 -1.160831 0.058836 -0.912818 0.000642 0.008372
    15 -0.963866 -2.785142 -0.085346 0.070019 0.162276 -0.191556
    16 0.028479 -1.403069 0.006271 -0.596876 0.000000 0.000000
    17 0.021413 -0.957782 0.020047 -0.432482 0.000000 0.000000
    18 1.164474 -2.543938 -0.170328 -0.702366 -0.013294 0.477915
    19 0.024033 -1.129042 0.017806 -0.803472 0.000000 0.000001
    20 0.014896 -0.883989 -0.019845 -0.584376 0.000000 0.000000
    21 -0.586770 -1.264475 0.200164 -0.286511 -0.333680 -2.448923
    22 1.522835 0.058681 0.016850 -0.077529 -0.420656 0.144479
    23 1.117948 0.048424 -0.005764 -0.000243 -0.025198 0.065422
    24 -0.139399 -0.111697 0.014397 0.285382 -0.030687 1.580508
    25 -0.488517 -2.755600 -0.228261 -1.119640 -0.066262 -0.107576
    26 0.039888 -1.479789 0.029853 -1.451658 0.000000 0.000000
    27 0.028786 -1.075730 -0.023111 -0.870565 0.000000 0.000000
    28 0.250028 -2.820664 -0.238396 -0.916633 -0.083565 -0.024874
    29 -0.049759 -1.680545 0.100480 -1.550922 0.000000 -0.000002
    30 -0.034141 -1.148312 0.084779 -1.087312 0.000000 0.000000
    31 0.957766 -2.746776 -0.090301 -0.432128 -0.184437 0.072455
    32 -0.033419 -1.397128 -0.011255 -0.247848 0.000000 -0.000001
    33 -0.022361 -0.957434 0.018783 -0.956086 0.000000 0.000000
    34 -1.180680 -2.507215 -0.193861 -0.747365 0.130011 -0.054388
    35 -0.024966 -1.123935 0.017594 -1.414285 0.000000 0.000001
    36 -0.020057 -0.890966 0.010091 -0.846171 0.000000 0.000000
    37 0.583510 -1.197274 0.185377 0.631272 -1.323162 -0.918143
    38 1.535926 0.010244 0.005008 -0.124871 0.065208 -0.956765
    39 1.100770 0.004526 -0.010676 -0.014685 0.006889 -0.956472
    40 0.120152 -0.050266 -0.054488 0.287568 3.110905 1.561085
  time 16
    0 1.238319 0.000000 -0.007813 0.032794 -0.003176 0.056202
    1 6.208814 4.861697 -6.974305 6.090956 -1.608730 0.168997
    2 -0.153952 -8.498732 -0.104137 0.000791 0.288635 0.105900
    3 2.309492 -2.752047 1.804646 -0.038554 0.288808 -3.179767
    4 0.822732 1.600163 0.000001 0.000002 0.000000 -0.024500
    5 -0.135229 4.811259 0.000000 0.000000 0.000000 1.558216
    6 -0.114076 -2.997109 0.000000 0.000000 0.000000 -0.019284
    7 -1.055155 -7.332053 -8.240251 -0.148587 -5.986694 0.446876
    8 0.096944 -8.450418 -0.009364 -0.264496 -0.268260 0.357715
    9 0.447952 -2.798983 -0.200442 -0.766149 -0.010396 0.265094
    10 -0.032910 -1.480206 0.004936 -0.491695 0.000000 0.000002
    11 -0.027022 -1.076919 -0.020212 -1.394127 0.000000 0.000000
    12 -0.249534 -2.846962 -0.174215 -0.219877 -0.000125 -0.008396
    13 0.043235 -1.683940 0.096014 -1.114635 0.002823 -0.000167
    14 0.031729 -1.160831 0.058836 -0.912818 0.000642 0.008372
    15 -0.963866 -2.785142 -0.085346 0.070019 0.162276 -0.191556
    16 0.028479 -1.403069 0.006271 -0.596876 0.000000 0.000000
    17 0.021413 -0.957782 0.020047 -0.432482 0.000000 0.000000
    18 1.164474 -2.543938 -0.170328 -0.702366 -0.013294 0.477915
    19 0.024033 -1.129042 0.017806 -0.803472 0.000000 0.000001
    20 0.014896 -0.883989 -0.019845 -0.584376 0.000000 0.000000
    21 -0.586770 -1.264475 0.200164 -0.286511 -0.333680 -2.448923
    22 1.522835 0.058681 0.016850 -0.077529 -0.420656 0.144479
    23 1.117948 0.048424 -0.005764 -0.000243 -0.025198 0.065422
    24 -0.139399 -0.111697 0.014397 0.285382 -0.030687 1.580508
    25 -0.488517 -2.755600 -0.228261 -1.119640 -0.066262 -0.107576
    26 0.039888 -1.479789 0.029853 -1.451658 0.000000 0.000000
    27 0.028786 -1.075730 -0.023111 -0.870565 0.000000 0.000000
    28 0.250028 -2.820664 -0.238396 -0.916633 -0.083565 -0.024874
    29 -0.049759 -1.680545 0.100480 -1.550922 0.000000 -0.000002
    30 -0.034141 -1.148312 0.084779 -1.087312 0.000000 0.000000
    31 0.957766 -2.746776 -0.090301 -0.432128 -0.184437 0.072455
    32 -0.033419 -1.397128 -0.011255 -0.247848 0.000000 -0.000001
    33 -0.022361 -0.957434 0.018783 -0.956086 0.000000 0.000000
    34 -1.180680 -2.507215 -0.193861 -0.747365 0.130011 -0.054388
    35 -0.024966 -1.123935 0.017594 -1.414285 0.000000 0.000001
    36 -0.020057 -0.890966 0.010091 -0.846171 0.000000 0.000000
    37 0.583510 -1.197274 0.185377 0.631272 -1.323162 -0.918177
    38 1.535926 0.010244 0.005008 -0.124871 0.065208 -0.956765
    39 1.100770 0.004526 -0.010676 -0.014685 0.006889 -0.956472
    40 0.120152 -0.050266 -0.054488 0.287568 3.110905 1.561085
  time 17
    0 1.164098 0.000000 -0.050783 0.008498 -0.000827 0.054705
    1 6.208814 4.861697 -6.974305 6.078482 -1.608730 0.168997
    2 -0.161764 -8.498732 -0.104137 0.000791 0.288635 0.105900
    3 2.309492 -2.752047 1.804646 -0.028105 0.290295 -3.141056
    4 0.822732 1.600163 0.000001 0.000002 0.000000 -0.024500
    5 -0.135229 4.811259 0.000000 0.000000 0.000000 1.558216
    6 -0.114076 -2.997109 0.000000 0.000000 0.000000 -0.019284
    7 -1.055155 -7.257832 -7.927742 -0.132529 -6.146393 0.477081
    8 0.096944 -8.450418 -0.009364 -0.309738 -0.268260 0.357715
    9 0.447952 -2.798983 -0.200442 -0.766149 -0.010396 0.265094
    10 -0.032910 -1.480206 0.004936 -0.491695 0.000000 0.000002
    11 -0.027022 -1.076919 -0.020212 -1.394127 0.000000 0.000000
    12 -0.249534 -2.846962 -0.174215 -0.219877 -0.000125 -0.008396
    13 0.043235 -1.683940 0.096014 -1.114635 0.002823 -0.000167
    14 0.031729 -1.160831 0.058836 -0.912818 0.000642 0.008372
    15 -0.963866 -2.785142 -0.085346 0.070019 0.162276 -0.191556
    16 0.028479 -1.403069 0.006271 -0.596876 0.000000 0.000000
    17 0.021413 -0.957782 0.020047 -0.432482 0.000000 0.000000
    18 1.164474 -2.543938 -0.170328 -0.702366 -0.013294 0.477915
    19 0.024033 -1.129042 0.017806 -0.803472 0.000000 0.000001
    20 0.014896 -0.883989 -0.019845 -0.584376 0.000000 0.000000
    21 -0.586770 -1.264475 0.200164 -0.286511 -0.333680 -2.448923
    22 1.522835 0.058681 0.016850 -0.077529 -0.420656 0.144479
    23 1.117948 0.048424 -0.005764 -0.000243 -0.025198 0.065422
    24 -0.139399 -0.111697 0.014397 0.285382 -0.030687 1.580508
    25 -0.488517 -2.755600 -0.228261 -1.119640 -0.066262 -0.107576
    26 0.039888 -1.479789 0.029853 -1.451658 0.000000 0.000000
    27 0.028786 -1.075730 -0.023111 -0.870565 0.000000 0.000000
    28 0.250028 -2.820664 -0.238396 -0.916633 -0.083565 -0.024874
    29 -0.049759 -1.680545 0.100480 -1.550922 0.000000 -0.000002
    30 -0.034141 -1.148312 0.084779 -1.087312 0.000000 0.000000
    31 0.957766 -2.746776 -0.090301 -0.432128 -0.184437 0.072455
    32 -0.033419 -1.397128 -0.011255 -0.247848 0.000000 -0.000001
    33 -0.022361 -0.957434 0.018783 -0.956086 0.000000 0.000000
    34 -1.180680 -2.507215 -0.193861 -0.747365 0.130011 -0.054388
    35 -0.024966 -1.123935 0.017594 -1.414285 0.000000 0.000001
    36 -0.020057 -0.890966 0.010091 -0.846171 0.000000 0.000000
    37 0.583510 -1.197274 0.185377 0.631272 -1.323162 -0.918143
    38 1.535926 0.010244 0.005008 -0.124871 0.065208 -0.956765
    39 1.100770 0.004526 -0.010676 -0.014685 0.006889 -0.956472
    40 0.120152 -0.050266 -0.054488 0.287568 3.110905 1.561085
  time 18
    0 1.058626 0.000000 -0.101566 0.000000 0.000000 0.053107
    1 6.208814 4.861697 -6.974305 6.073625 -1.608730 0.168997
    2 -0.165671 -8.498732 -0.104137 0.000791 0.288635 0.105900
    3 2.309492 -2.752047 1.804646 -0.018538 0.291687 -3.105522
    4 0.822732 1.600163 0.000001 0.000002 0.000000 -0.024500
    5 -0.135229 4.811259 0.000000 0.000000 0.000000 1.558216
    6 -0.114076 -2.997109 0.000000 0.000000 0.000000 -0.019284
    7 -1.055155 -7.183611 -7.634764 -0.126093 -6.210215 0.489182
    8 0.096944 -8.450418 -0.009364 -0.296812 -0.268260 0.357715
    9 0.447952 -2.798983 -0.200442 -0.766149 -0.010396 0.265094
    10 -0.032910 -1.480206 0.004936 -0.491695 0.000000 0.000002
    11 -0.027022 -1.076919 -0.020212 -1.394127 0.000000 0.000000
    12 -0.249534 -2.846962 -0.174215 -0.219877 -0.000125 -0.008396
    13 0.043235 -1.683940 0.096014 -1.114635 0.002823 -0.000167
    14 0.031729 -1.160831 0.058836 -0.912818 0.000642 0.008372
    15 -0.963866 -2.785142 -0.085346 0.070019 0.162276 -0.191556
    16 0.028479 -1.403069 0.006271 -0.596876 0.000000 0.000000
    17 0.021413 -0.957782 0.020047 -0.432482 0.000000 0.000000
    18 1.164474 -2.543938 -0.170328 -0.702366 -0.013294 0.477915
    19 0.024033 -1.129042 0.017806 -0.803472 0.000000 0.000001
    20 0.014896 -0.883989 -0.019845 -0.584376 0.000000 0.000000
    21 -0.586770 -1.264475 0.200164 -0.286511 -0.333680 -2.448923
    22 1.522835 0.058681 0.016850 -0.077529 -0.420656 0.144479
    23 1.117948 0.048424 -0.005764 -0.000243 -0.025198 0.065422
    24 -0.139399 -0.111697 0.014397 0.285382 -0.030687 1.580508
    25 -0.488517 -2.755600 -0.228261 -1.119640 -0.066262 -0.107576
    26 0.039888 -1.479789 0.029853 -1.451658 0.000000 0.000000
    27 0.028786 -1.075730 -0.023111 -0.870565 0.000000 0.000000
    28 0.250028 -2.820664 -0.238396 -0.916633 -0.083565 -0.024874
    29 -0.049759 -1.680545 0.100480 -1.550922 0.000000 -0.000002
    30 -0.034141 -1.148312 0.084779 -1.087312 0.000000 0.000000
    31 0.957766 -2.746776 -0.090301 -0.432128 -0.184437 0.072455
    32 -0.033419 -1.397128 -0.011255 -0.247848 0.000000 -0.000001
    33 -0.022361 -0.957434 0.018783 -0.956086 0.000000 0.000000
    34 -1.180680 -2.507215 -0.193861 -0.747365 0.130011 -0.054388
    35 -0.024966 -1.123935 0.017594 -1.414285 0.000000 0.000001
    36 -0.020057 -0.890966 0.010091 -0.846171 0.000000 0.000000
    37 0.583510 -1.197274 0.185377 0.631272 -1.323162 -0.918177
    38 1.535926 0.010244 0.005008 -0.124871 0.065208 -0.956765
    39 1.100770 0.004526 -0.010676 -0.014685 0.006889 -0.956472
    40 0.120152 -0.050266 -0.054488 0.287568 3.110905 1.561085
  time 19
    0 0.925810 0.000000 -0.167974 0.000000 0.000000 0.049862
    1 6.208814 4.861697 -6.974305 6.073625 -1.608730 0.168997
    2 -0.177390 -8.498732 -0.104137 0.000791 0.288635 0.105900
    3 2.309492 -2.752047 1.804646 -0.011572 0.292694 -3.079527
    4 0.822732 1.600163 0.000001 0.000002 0.000000 -0.024500
    5 -0.135229 4.811259 0.000000 0.000000 0.000000 1.558216
    6 -0.114076 -2.997109 0.000000 0.000000 0.000000 -0.019284
    7 -1.055155 -7.113296 -7.369131 -0.126093 -6.210215 0.489182
    8 0.096944 -8.450418 -0.009364 -0.264496 -0.268260 0.357715
    9 0.447952 -2.798983 -0.200442 -0.766149 -0.010396 0.265094
    10 -0.032910 -1.480206 0.004936 -0.491695 0.000000 0.000002
    11 -0.027022 -1.076919 -0.020212 -1.394127 0.000000 0.000000
    12 -0.249534 -2.846962 -0.174215 -0.219877 -0.000125 -0.008396
    13 0.043235 -1.683940 0.096014 -1.114635 0.002823 -0.000167
    14 0.031729 -1.160831 0.058836 -0.912818 0.000642 0.008372
    15 -0.963866 -2.785142 -0.085346 0.070019 0.162276 -0.191556
    16 0.028479 -1.403069 0.006271 -0.596876 0.000000 0.000000
    17 0.021413 -0.957782 0.020047 -0.432482 0.000000 0.000000
    18 1.164474 -2.543938 -0.170328 -0.702366 -0.013294 0.477915
    19 0.024033 -1.129042 0.017806 -0.803472 0.000000 0.000001
    20 0.014896 -0.883989 -0.019845 -0.584376 0.000000 0.000000
    21 -0.586770 -1.264475 0.200164 -0.286511 -0.333680 -2.448923
    22 1.522835 0.058681 0.016850 -0.067352 -0.421984 0.119718
    23 1.117948 0.048424 -0.005764 -0.000243 -0.025198 0.065422
    24 -0.139399 -0.111697 0.014397 0.285382 -0.030687 1.580508
    25 -0.488517 -2.755600 -0.228261 -1.119640 -0.066262 -0.107576
    26 0.039888 -1.479789 0.029853 -1.451658 0.000000 0.000000
    27 0.028786 -1.075730 -0.023111 -0.870565 0.000000 0.000000
    28 0.250028 -2.820664 -0.238396 -0.916633 -0.083565 -0.024874
    29 -0.049759 -1.680545 0.100480 -1.550922 0.000000 -0.000002
    30 -0.034141 -1.148312 0.084779 -1.087312 0.000000 0.000000
    31 0.957766 -2.746776 -0.090301 -0.432128 -0.184437 0.072455
    32 -0.033419 -1.397128 -0.011255 -0.247848 0.000000 -0.000001
    33 -0.022361 -0.957434 0.018783 -0.956086 0.000000 0.000000
    34 -1.180680 -2.507215 -0.193861 -0.747365 0.130011 -0.054388
    35 -0.024966 -1.123935 0.017594 -1.414285 0.000000 0.000001
    36 -0.020057 -0.890966 0.010091 -0.846171 0.000000 0.000000
    37 0.583510 -1.197274 0.185377 0.631272 -1.323162 -0.918143
    38 1.535926 0.010244 0.005008 -0.124871 0.065208 -0.956765
    39 1.100770 0.004526 -0.010676 -0.014685 0.006889 -0.956472
    40 0.120152 -0.050266 -0.054488 0.287568 3.110905 1.561085
  time 20
    0 0.769555 0.000000 -0.230476 0.000000 0.000000 0.044270
    1 6.208814 4.861697 -6.974305 6.073625 -1.608730 0.168997
    2 -0.177390 -8.498732 -0.104137 0.000791 0.288635 0.105900
    3 2.309492 -2.752047 1.804646 -0.008832 0.293126 -3.069448
    4 0.822732 1.600163 0.000001 0.000002 0.000000 -0.024500
    5 -0.135229 4.811259 0.000000 0.000000 0.000000 1.558216
    6 -0.114076 -2.997109 0.000000 0.000000 0.000000 -0.019284
    7 -1.055155 -7.066420 -7.154280 -0.126093 -6.210215 0.489182
    8 0.096944 -8.450418 -0.009364 -0.222486 -0.268260 0.357715
    9 0.447952 -2.798983 -0.200442 -0.766149 -0.010396 0.265094
    10 -0.032910 -1.480206 0.004936 -0.491695 0.000000 0.000002
    11 -0.027022 -1.076919 -0.020212 -1.394127 0.000000 0.000000
    12 -0.249534 -2.846962 -0.174215 -0.219877 -0.000125 -0.008396
    13 0.043235 -1.683940 0.096014 -1.114635 0.002823 -0.000167
    14 0.031729 -1.160831 0.058836 -0.912818 0.000642 0.008372
    15 -0.963866 -2.785142 -0.085346 0.070019 0.162276 -0.191556
    16 0.028479 -1.403069 0.006271 -0.596876 0.000000 0.000000
    17 0.021413 -0.957782 0.020047 -0.432482 0.000000 0.000000
    18 1.164474 -2.543938 -0.170328 -0.702366 -0.013294 0.477915
    19 0.024033 -1.129042 0.017806 -0.803472 0.000000 0.000001
    20 0.014896 -0.883989 -0.019845 -0.584376 0.000000 0.000000
    21 -0.586770 -1.264475 0.200164 -0.286511 -0.333680 -2.448923
    22 1.522835 0.058681 0.016850 -0.048434 -0.424400 0.073674
    23 1.117948 0.048424 -0.005764 -0.000243 -0.025198 0.065422
    24 -0.139399 -0.111697 0.014397 0.285382 -0.030687 1.580508
    25 -0.488517 -2.755600 -0.228261 -1.119640 -0.066262 -0.107576
    26 0.039888 -1.479789 0.029853 -1.451658 0.000000 0.000000
    27 0.028786 -1.075730 -0.023111 -0.870565 0.000000 0.000000
    28 0.250028 -2.820664 -0.238396 -0.916633 -0.083565 -0.024874
    29 -0.049759 -1.680545 0.100480 -1.550922 0.000000 -0.000002
    30 -0.034141 -1.148312 0.084779 -1.087312 0.000000 0.000000
    31 0.957766 -2.746776 -0.090301 -0.432128 -0.184437 0.072455
    32 -0.033419 -1.397128 -0.011255 -0.247848 0.000000 -0.000001
    33 -0.022361 -0.957434 0.018783 -0.956086 0.000000 0.000000
    34 -1.180680 -2.507215 -0.193861 -0.747365 0.130011 -0.054388
    35 -0.024966 -1.123935 0.017594 -1.414285 0.000000 0.000001
    36 -0.020057 -0.890966 0.010091 -0.846171 0.000000 0.000000
    37 0.583510 -1.197274 0.185377 0.631272 -1.323162 -0.918177
    38 1.535926 0.010244 0.005008 -0.124871 0.065208 -0.956765
    39 1.100770 0.004526 -0.010676 -0.014685 0.006889 -0.956472
    40 0.120152 -0.050266 -0.054488 0.287568 3.110905 1.561085
  time 21
    0 0.613300 0.000000 -0.292978 0.000000 0.000000 0.036981
    1 6.208814 4.861697 -6.974305 6.073625 -1.608730 0.168997
    2 -0.185203 -8.498732 -0.104137 0.000791 0.288635 0.105900
    3 2.309492 -2.752047 1.804646 -0.011572 0.292694 -3.079527
    4 0.822732 1.600163 0.000001 0.000002 0.000000 -0.024500
    5 -0.135229 4.811259 0.000000 0.000000 0.000000 1.558216
    6 -0.114076 -2.997109 0.000000 0.000000 0.000000 -0.019284
    7 -1.055155 -7.027356 -7.009745 -0.126093 -6.210215 0.489182
    8 0.096944 -8.450418 -0.009364 -0.180457 -0.268260 0.357715
    9 0.447952 -2.798983 -0.200442 -0.766149 -0.010396 0.265094
    10 -0.032910 -1.480206 0.004936 -0.491695 0.000000 0.000002
    11 -0.027022 -1.076919 -0.020212 -1.394127 0.000000 0.000000
    12 -0.249534 -2.846962 -0.174215 -0.219877 -0.000125 -0.008396
    13 0.043235 -1.683940 0.096014 -1.114635 0.002823 -0.000167
    14 0.031729 -1.160831 0.058836 -0.912818 0.000642 0.008372
    15 -0.963866 -2.785142 -0.085346 0.070019 0.162276 -0.191556
    16 0.028479 -1.403069 0.006271 -0.596876 0.000000 0.000000
    17 0.021413 -0.957782 0.020047 -0.432482 0.000000 0.000000
    18 1.164474 -2.543938 -0.170328 -0.702366 -0.013294 0.477915
    19 0.024033 -1.129042 0.017806 -0.803472 0.000000 0.000001
    20 0.014896 -0.883989 -0.019845 -0.584376 0.000000 0.000000
    21 -0.586770 -1.264475 0.200164 -0.286511 -0.333680 -2.448923
    22 1.522835 0.058681 0.016850 -0.038257 -0.425701 0.048951
    23 1.117948 0.048424 -0.005764 -0.000243 -0.025198 0.065422
    24 -0.139399 -0.111697 0.014397 0.285382 -0.030687 1.580508
    25 -0.488517 -2.755600 -0.228261 -1.119640 -0.066262 -0.107576
    26 0.039888 -1.479789 0.029853 -1.451658 0.000000 0.000000
    27 0.028786 -1.075730 -0.023111 -0.870565 0.000000 0.000000
    28 0.250028 -2.820664 -0.238396 -0.916633 -0.083565 -0.024874
    29 -0.049759 -1.680545 0.100480 -1.550922 0.000000 -0.000002
    30 -0.034141 -1.148312 0.084779 -1.087312 0.000000 0.000000
    31 0.957766 -2.746776 -0.090301 -0.432128 -0.184437 0.072455
    32 -0.033419 -1.397128 -0.011255 -0.247848 0.000000 -0.000001
    33 -0.022361 -0.957434 0.018783 -0.956086 0.000000 0.000000
    34 -1.180680 -2.507215 -0.193861 -0.747365 0.130011 -0.054388
    35 -0.024966 -1.123935 0.017594 -1.414285 0.000000 0.000001
    36 -0.020057 -0.890966 0.010091 -0.846171 0.000000 0.000000
    37 0.583510 -1.197274 0.185377 0.631272 -1.323162 -0.918143
    38 1.535926 0.010244 0.005008 -0.124871 0.065208 -0.956765
    39 1.100770 0.004526 -0.010676 -0.014685 0.006889 -0.956472
    40 0.120152 -0.050266 -0.054488 0.287568 3.110905 1.561085
  time 22
    0 0.460952 0.000000 -0.347667 0.000000 0.000000 0.028744
    1 6.208814 4.861697 -6.974305 6.073625 -1.608730 0.168997
    2 -0.189109 -8.498732 -0.104137 0.000791 0.288635 0.105900
    3 2.309492 -2.752047 1.804646 -0.018538 0.291687 -3.105522
    4 0.822732 1.600163 0.000001 0.000002 0.000000 -0.024500
    5 -0.135229 4.811259 0.000000 0.000000 0.000000 1.558216
    6 -0.114076 -2.997109 0.000000 0.000000 0.000000 -0.019284
    7 -1.055155 -7.015637 -6.955056 -0.126093 -6.210215 0.489182
    8 0.096944 -8.450418 -0.009364 -0.148141 -0.268260 0.357715
    9 0.447952 -2.798983 -0.200442 -0.766149 -0.010396 0.265094
    10 -0.032910 -1.480206 0.004936 -0.491695 0.000000 0.000002
    11 -0.027022 -1.076919 -0.020212 -1.394127 0.000000 0.000000
    12 -0.249534 -2.846962 -0.174215 -0.219877 -0.000125 -0.008396
    13 0.043235 -1.683940 0.096014 -1.114635 0.002823 -0.000167
    14 0.031729 -1.160831 0.058836 -0.912818 0.000642 0.008372
    15 -0.963866 -2.785142 -0.085346 0.070019 0.162276 -0.191556
    16 0.028479 -1.403069 0.006271 -0.596876 0.000000 0.000000
    17 0.021413 -0.957782 0.020047 -0.432482 0.000000 0.000000
    18 1.164474 -2.543938 -0.170328 -0.702366 -0.013294 0.477915
    19 0.024033 -1.129042 0.017806 -0.803472 0.000000 0.000001
    20 0.014896 -0.883989 -0.019845 -0.584376 0.000000 0.000000
    21 -0.586770 -1.264475 0.200164 -0.286511 -0.333680 -2.448923
    22 1.522835 0.058681 0.016850 -0.048434 -0.424400 0.073674
    23 1.117948 0.048424 -0.005764 -0.000243 -0.025198 0.065422
    24 -0.139399 -0.111697 0.014397 0.285382 -0.030687 1.580508
    25 -0.488517 -2.755600 -0.228261 -1.119640 -0.066262 -0.107576
    26 0.039888 -1.479789 0.029853 -1.451658 0.000000 0.000000
    27 0.028786 -1.075730 -0.023111 -0.870565 0.000000 0.000000
    28 0.250028 -2.820664 -0.238396 -0.916633 -0.083565 -0.024874
    29 -0.049759 -1.680545 0.100480 -1.550922 0.000000 -0.000002
    30 -0.034141 -1.148312 0.084779 -1.087312 0.000000 0.000000
    31 0.957766 -2.746776 -0.090301 -0.432128 -0.184437 0.072455
    32 -0.033419 -1.397128 -0.011255 -0.247848 0.000000 -0.000001
    33 -0.022361 -0.957434 0.018783 -0.956086 0.000000 0.000000
    34 -1.180680 -2.507215 -0.193861 -0.747365 0.130011 -0.054388
    35 -0.024966 -1.123935 0.017594 -1.414285 0.000000 0.000001
    36 -0.020057 -0.890966 0.010091 -0.846171 0.000000 0.000000
    37 0.583510 -1.197274 0.185377 0.631272 -1.323162 -0.918177
    38 1.535926 0.010244 0.005008 -0.124871 0.065208 -0.956765
    39 1.100770 0.004526 -0.010676 -0.014685 0.006889 -0.956472
    40 0.120152 -0.050266 -0.054488 0.287568 3.110905 1.561085
  time 23
    0 0.316416 0.000000 -0.390637 0.000000 0.000000 0.020356
    1 6.208814 4.861697 -6.974305 6.073625 -1.608730 0.168997
    2 -0.196922 -8.498732 -0.104137 0.000791 0.288635 0.105900
    3 2.309492 -2.752047 1.804646 -0.028105 0.290295 -3.141056
    4 0.822732 1.600163 0.000001 0.000002 0.000000 -0.024500
    5 -0.135229 4.811259 0.000000 0.000000 0.000000 1.558216
    6 -0.114076 -2.997109 0.000000 0.000000 0.000000 -0.019284
    7 -1.055155 -7.019543 -7.040996 -0.126093 -6.210215 0.489182
    8 0.096944 -8.450418 -0.009364 -0.135215 -0.268260 0.357715
    9 0.447952 -2.798983 -0.200442 -0.766149 -0.010396 0.265094
    10 -0.032910 -1.480206 0.004936 -0.491695 0.000000 0.000002
    11 -0.027022 -1.076919 -0.020212 -1.394127 0.000000 0.000000
    12 -0.249534 -2.846962 -0.174215 -0.219877 -0.000125 -0.008396
    13 0.043235 -1.683940 0.096014 -1.114635 0.002823 -0.000167
    14 0.031729 -1.160831 0.058836 -0.912818 0.000642 0.008372
    15 -0.963866 -2.785142 -0.085346 0.070019 0.162276 -0.191556
    16 0.028479 -1.403069 0.006271 -0.596876 0.000000 0.000000
    17 0.021413 -0.957782 0.020047 -0.432482 0.000000 0.000000
    18 1.164474 -2.543938 -0.170328 -0.702366 -0.013294 0.477915
    19 0.024033 -1.129042 0.017806 -0.803472 0.000000 0.000001
    20 0.014896 -0.883989 -0.019845 -0.584376 0.000000 0.000000
    21 -0.586770 -1.264475 0.200164 -0.286511 -0.333680 -2.448923
    22 1.522835 0.058681 0.016850 -0.067352 -0.421984 0.119718
    23 1.117948 0.048424 -0.005764 -0.000243 -0.025198 0.065422
    24 -0.139399 -0.111697 0.014397 0.285382 -0.030687 1.580508
    25 -0.488517 -2.755600 -0.228261 -1.119640 -0.066262 -0.107576
    26 0.039888 -1.479789 0.029853 -1.451658 0.000000 0.000000
    27 0.028786 -1.075730 -0.023111 -0.870565 0.000000 0.000000
    28 0.250028 -2.820664 -0.238396 -0.916633 -0.083565 -0.024874
    29 -0.049759 -1.680545 0.100480 -1.550922 0.000000 -0.000002
    30 -0.034141 -1.148312 0.084779 -1.087312 0.000000 0.000000
    31 0.957766 -2.746776 -0.090301 -0.432128 -0.184437 0.072455
    32 -0.033419 -1.397128 -0.011255 -0.247848 0.000000 -0.000001
    33 -0.022361 -0.957434 0.018783 -0.956086 0.000000 0.000000
    34 -1.180680 -2.507215 -0.193861 -0.747365 0.130011 -0.054388
    35 -0.024966 -1.123935 0.017594 -1.414285 0.000000 0.000001
    36 -0.020057 -0.890966 0.010091 -0.846171 0.000000 0.000000
    37 0.583510 -1.197274 0.185377 0.631272 -1.323162 -0.918177
    38 1.535926 0.010244 0.005008 -0.124871 0.065208 -0.956765
    39 1.100770 0.004526 -0.010676 -0.014685 0.006889 -0.956472
    40 0.120152 -0.050266 -0.054488 0.287568 3.110905 1.561085
  time 24
    0 0.191412 0.000000 -0.398450 0.000000 0.000000 0.012568
    1 6.208814 4.861697 -6.974305 6.073625 -1.608730 0.168997
    2 -0.196922 -8.498732 -0.104137 0.000791 0.288635 0.105900
    3 2.309492 -2.752047 1.804646 -0.038554 0.288808 -3.179767
    4 0.822732 1.600163 0.000001 0.000002 0.000000 -0.024500
    5 -0.135229 4.811259 0.000000 0.000000 0.000000 1.558216
    6 -0.114076 -2.997109 0.000000 0.000000 0.000000 -0.019284
    7 -1.055155 -7.019543 -7.251940 -0.126093 -6.210215 0.489182
    8 0.096944 -8.450418 -0.009364 -0.135215 -0.268260 0.357715
    9 0.447952 -2.798983 -0.200442 -0.766149 -0.010396 0.265094
    10 -0.032910 -1.480206 0.004936 -0.491695 0.000000 0.000002
    11 -0.027022 -1.076919 -0.020212 -1.394127 0.000000 0.000000
    12 -0.249534 -2.846962 -0.174215 -0.219877 -0.000125 -0.008396
    13 0.043235 -1.683940 0.096014 -1.114635 0.002823 -0.000167
    14 0.031729 -1.160831 0.058836 -0.912818 0.000642 0.008372
    15 -0.963866 -2.785142 -0.085346 0.070019 0.162276 -0.191556
    16 0.028479 -1.403069 0.006271 -0.596876 0.000000 0.000000
    17 0.021413 -0.957782 0.020047 -0.432482 0.000000 0.000000
    18 1.164474 -2.543938 -0.170328 -0.702366 -0.013294 0.477915
    19 0.024033 -1.129042 0.017806 -0.803472 0.000000 0.000001
    20 0.014896 -0.883989 -0.019845 -0.584376 0.000000 0.000000
    21 -0.586770 -1.264475 0.200164 -0.286511 -0.333680 -2.448923
    22 1.522835 0.058681 0.016850 -0.077529 -0.420656 0.144479
    23 1.117948 0.048424 -0.005764 -0.000495 -0.025198 0.075735
    24 -0.139399 -0.111697 0.014397 0.285382 -0.030687 1.580508
    25 -0.488517 -2.755600 -0.228261 -1.119640 -0.066262 -0.107576
    26 0.039888 -1.479789 0.029853 -1.451658 0.000000 0.000000
    27 0.028786 -1.075730 -0.023111 -0.870565 0.000000 0.000000
    28 0.250028 -2.820664 -0.238396 -0.916633 -0.083565 -0.024874
    29 -0.049759 -1.680545 0.100480 -1.550922 0.000000 -0.000002
    30 -0.034141 -1.148312 0.084779 -1.087312 0.000000 0.000000
    31 0.957766 -2.746776 -0.090301 -0.432128 -0.184437 0.072455
    32 -0.033419 -1.397128 -0.011255 -0.247848 0.000000 -0.000001
    33 -0.022361 -0.957434 0.018783 -0.956086 0.000000 0.000000
    34 -1.180680 -2.507215 -0.193861 -0.747365 0.130011 -0.054388
    35 -0.024966 -1.123935 0.017594 -1.414285 0.000000 0.000001
    36 -0.020057 -0.890966 0.010091 -0.846171 0.000000 0.000000
    37 0.583510 -1.197274 0.185377 0.631272 -1.323162 -0.918143
    38 1.535926 0.010244 0.005008 -0.124871 0.065208 -0.956765
    39 1.100770 0.004526 -0.010676 -0.014685 0.006889 -0.956472
    40 0.120152 -0.050266 -0.054488 0.287568 3.110905 1.561085
  time 25
    0 0.093753 0.000000 -0.292978 0.000000 0.000000 0.006028
    1 6.208814 4.861697 -6.974305 6.073625 -1.608730 0.168997
    2 -0.204735 -8.498732 -0.104137 0.000791 0.288635 0.105900
    3 2.309492 -2.752047 1.804646 -0.048120 0.287416 -3.215313
    4 0.822732 1.600163 0.000001 0.000002 0.000000 -0.024500
    5 -0.135229 4.811259 0.000000 0.000000 0.000000 1.558216
    6 -0.114076 -2.997109 0.000000 0.000000 0.000000 -0.019284
    7 -1.055155 -7.019543 -7.498041 -0.126093 -6.210215 0.489182
    8 0.096944 -8.450418 -0.009364 -0.135215 -0.268260 0.357715
    9 0.447952 -2.798983 -0.200442 -0.766149 -0.010396 0.265094
    10 -0.032910 -1.480206 0.004936 -0.491695 0.000000 0.000002
    11 -0.027022 -1.076919 -0.020212 -1.394127 0.000000 0.000000
    12 -0.249534 -2.846962 -0.174215 -0.219877 -0.000125 -0.008396
    13 0.043235 -1.683940 0.096014 -1.114635 0.002823 -0.000167
    14 0.031729 -1.160831 0.058836 -0.912818 0.000642 0.008372
    15 -0.963866 -2.785142 -0.085346 0.070019 0.162276 -0.191556
    16 0.028479 -1.403069 0.006271 -0.596876 0.000000 0.000000
    17 0.021413 -0.957782 0.020047 -0.432482 0.000000 0.000000
    18 1.164474 -2.543938 -0.170328 -0.702366 -0.013294 0.477915
    19 0.024033 -1.129042 0.017806 -0.803472 0.000000 0.000001
    20 0.014896 -0.883989 -0.019845 -0.584376 0.000000 0.000000
    21 -0.586770 -1.264475 0.200164 -0.286511 -0.333680 -2.448923
    22 1.522835 0.058681 0.016850 -0.077529 -0.420656 0.144479
    23 1.117948 0.048424 -0.005764 -0.000962 -0.025198 0.094897
    24 -0.139399 -0.111697 0.014397 0.285382 -0.030687 1.580508
    25 -0.488517 -2.755600 -0.228261 -1.119640 -0.066262 -0.107576
    26 0.039888 -1.479789 0.029853 -1.451658 0.000000 0.000000
    27 0.028786 -1.075730 -0.023111 -0.870565 0.000000 0.000000
    28 0.250028 -2.820664 -0.238396 -0.916633 -0.083565 -0.024874
    29 -0.049759 -1.680545 0.100480 -1.550922 0.000000 -0.000002
    30 -0.034141 -1.148312 0.084779 -1.087312 0.000000 0.000000
    31 0.957766 -2.746776 -0.090301 -0.432128 -0.184437 0.072455
    32 -0.033419 -1.397128 -0.011255 -0.247848 0.000000 -0.000001
    33 -0.022361 -0.957434 0.018783 -0.956086 0.000000 0.000000
    34 -1.180680 -2.507215 -0.193861 -0.747365 0.130011 -0.054388
    35 -0.024966 -1.123935 0.017594 -1.414285 0.000000 0.000001
    36 -0.020057 -0.890966 0.010091 -0.846171 0.000000 0.000000
    37 0.583510 -1.197274 0.185377 0.631272 -1.323162 -0.918143
    38 1.535926 0.010244 0.005008 -0.124871 0.065208 -0.956765
    39 1.100770 0.004526 -0.010676 -0.014685 0.006889 -0.956472
    40 0.120152 -0.050266 -0.054488 0.287568 3.110905 1.561085
  time 26
    0 0.027345 0.000000 -0.101566 0.000000 0.000000 0.001585
    1 6.208814 4.861697 -6.974305 6.073625 -1.608730 0.168997
    2 -0.204735 -8.498732 -0.104137 0.000791 0.288635 0.105900
    3 2.309492 -2.752047 1.804646 -0.055086 0.286408 -3.241296
    4 0.822732 1.600163 0.000001 0.000002 0.000000 -0.024500
    5 -0.135229 4.811259 0.000000 0.000000 0.000000 1.558216
    6 -0.114076 -2.997109 0.000000 0.000000 0.000000 -0.019284
    7 -1.055155 -7.027356 -7.708985 -0.126093 -6.210215 0.489182
    8 0.096944 -8.450418 -0.009364 -0.135215 -0.268260 0.357715
    9 0.447952 -2.798983 -0.200442 -0.766149 -0.010396 0.265094
    10 -0.032910 -1.480206 0.004936 -0.491695 0.000000 0.000002
    11 -0.027022 -1.076919 -0.020212 -1.394127 0.000000 0.000000
    12 -0.249534 -2.846962 -0.174215 -0.219877 -0.000125 -0.008396
    13 0.043235 -1.683940 0.096014 -1.114635 0.002823 -0.000167
    14 0.031729 -1.160831 0.058836 -0.912818 0.000642 0.008372
    15 -0.963866 -2.785142 -0.085346 0.070019 0.162276 -0.191556
    16 0.028479 -1.403069 0.006271 -0.596876 0.000000 0.000000
    17 0.021413 -0.957782 0.020047 -0.432482 0.000000 0.000000
    18 1.164474 -2.543938 -0.170328 -0.702366 -0.013294 0.477915
    19 0.024033 -1.129042 0.017806 -0.803472 0.000000 0.000001
    20 0.014896 -0.883989 -0.019845 -0.584376 0.000000 0.000000
    21 -0.586770 -1.264475 0.200164 -0.286511 -0.333680 -2.448923
    22 1.522835 0.058681 0.016850 -0.077529 -0.420656 0.144479
    23 1.117948 0.048424 -0.005764 -0.001238 -0.025198 0.105240
    24 -0.139399 -0.111697 0.014397 0.285382 -0.030687 1.580508
    25 -0.488517 -2.755600 -0.228261 -1.119640 -0.066262 -0.107576
    26 0.039888 -1.479789 0.029853 -1.451658 0.000000 0.000000
    27 0.028786 -1.075730 -0.023111 -0.870565 0.000000 0.000000
    28 0.250028 -2.820664 -0.238396 -0.916633 -0.083565 -0.024874
    29 -0.049759 -1.680545 0.100480 -1.550922 0.000000 -0.000002
    30 -0.034141 -1.148312 0.084779 -1.087312 0.000000 0.000000
    31 0.957766 -2.746776 -0.090301 -0.432128 -0.184437 0.072455
    32 -0.033419 -1.397128 -0.011255 -0.247848 0.000000 -0.000001
    33 -0.022361 -0.957434 0.018783 -0.956086 0.000000 0.000000
    34 -1.180680 -2.507215 -0.193861 -0.747365 0.130011 -0.054388
    35 -0.024966 -1.123935 0.017594 -1.414285 0.000000 0.000001
    36 -0.020057 -0.890966 0.010091 -0.846171 0.000000 0.000000
    37 0.583510 -1.197274 0.185377 0.631272 -1.323162 -0.918177
    38 1.535926 0.010244 0.005008 -0.124871 0.065208 -0.956765
    39 1.100770 0.004526 -0.010676 -0.014685 0.006889 -0.956472
    40 0.120152 -0.050266 -0.054488 0.287568 3.110905 1.561085
  time 27
    0 0.000000 0.000000 0.000000 0.000000 0.000000 -0.000063
    1 6.208814 4.861697 -6.974305 6.073625 -1.608730 0.168997
    2 -0.204735 -8.498732 -0.104137 0.000791 0.288635 0.105900
    3 2.309492 -2.752047 1.804646 -0.057826 0.286025 -3.251375
    4 0.822732 1.600163 0.000001 0.000002 0.000000 -0.024500
    5 -0.135229 4.811259 0.000000 0.000000 0.000000 1.558216
    6 -0.114076 -2.997109 0.000000 0.000000 0.000000 -0.019284
    7 -1.055155 -7.027356 -7.794925 -0.126093 -6.210215 0.489182
    8 0.096944 -8.450418 -0.009364 -0.135215 -0.268260 0.357715
    9 0.447952 -2.798983 -0.200442 -0.766149 -0.010396 0.265094
    10 -0.032910 -1.480206 0.004936 -0.491695 0.000000 0.000002
    11 -0.027022 -1.076919 -0.020212 -1.394127 0.000000 0.000000
    12 -0.249534 -2.846962 -0.174215 -0.219877 -0.000125 -0.008396
    13 0.043235 -1.683940 0.096014 -1.114635 0.002823 -0.000167
    14 0.031729 -1.160831 0.058836 -0.912818 0.000642 0.008372
    15 -0.963866 -2.785142 -0.085346 0.070019 0.162276 -0.191556
    16 0.028479 -1.403069 0.006271 -0.596876 0.000000 0.000000
    17 0.021413 -0.957782 0.020047 -0.432482 0.000000 0.000000
    18 1.164474 -2.543938 -0.170328 -0.702366 -0.013294 0.477915
    19 0.024033 -1.129042 0.017806 -0.803472 0.000000 0.000001
    20 0.014896 -0.883989 -0.019845 -0.584376 0.000000 0.000000
    21 -0.586770 -1.264475 0.200164 -0.286511 -0.333680 -2.448923
    22 1.522835 0.058681 0.016850 -0.077529 -0.420656 0.144479
    23 1.117948 0.048424 -0.005764 -0.001082 -0.025198 0.098999
    24 -0.139399 -0.111697 0.014397 0.285382 -0.030687 1.580508
    25 -0.488517 -2.755600 -0.228261 -1.119640 -0.066262 -0.107576
    26 0.039888 -1.479789 0.029853 -1.451658 0.000000 0.000000
    27 0.028786 -1.075730 -0.023111 -0.870565 0.000000 0.000000
    28 0.250028 -2.820664 -0.238396 -0.916633 -0.083565 -0.024874
    29 -0.049759 -1.680545 0.100480 -1.550922 0.000000 -0.000002
    30 -0.034141 -1.148312 0.084779 -1.087312 0.000000 0.000000
    31 0.957766 -2.746776 -0.090301 -0.432128 -0.184437 0.072455
    32 -0.033419 -1.397128 -0.011255 -0.247848 0.000000 -0.000001
    33 -0.022361 -0.957434 0.018783 -0.956086 0.000000 0.000000
    34 -1.180680 -2.507215 -0.193861 -0.747365 0.130011 -0.054388
    35 -0.024966 -1.123935 0.017594 -1.414285 0.000000 0.000001
    36 -0.020057 -0.890966 0.010091 -0.846171 0.000000 0.000000
    37 0.583510 -1.197274 0.185377 0.631272 -1.323162 -0.918143
    38 1.535926 0.010244 0.005008 -0.124871 0.065208 -0.956765
    39 1.100770 0.004526 -0.010676 -0.014685 0.006889 -0.956472
    40 0.120152 -0.050266 -0.054488 0.287568 3.110905 1.561085
  time 28
    0 0.000000 0.000000 0.000000 0.000000 0.000000 -0.000063
    1 6.208814 4.861697 -6.974305 6.073625 -1.608730 0.168997
    2 -0.165671 -8.498732 -0.104137 0.000791 0.288635 0.105900
    3 2.309492 -2.752047 1.804646 -0.057826 0.286025 -3.251375
    4 0.822732 1.600163 0.000001 0.000002 0.000000 -0.024500
    5 -0.135229 4.811259 0.000000 0.000000 0.000000 1.558216
    6 -0.114076 -2.997109 0.000000 0.000000 0.000000 -0.019284
    7 -1.055155 -7.027356 -7.767580 -0.126093 -6.210215 0.489182
    8 0.096944 -8.450418 -0.009364 -0.135215 -0.268260 0.357715
    9 0.447952 -2.798983 -0.200442 -0.766149 -0.010396 0.265094
    10 -0.032910 -1.480206 0.004936 -0.491695 0.000000 0.000002
    11 -0.027022 -1.076919 -0.020212 -1.394127 0.000000 0.000000
    12 -0.249534 -2.846962 -0.174215 -0.219877 -0.000125 -0.008396
    13 0.043235 -1.683940 0.096014 -1.114635 0.002823 -0.000167
    14 0.031729 -1.160831 0.058836 -0.912818 0.000642 0.008372
    15 -0.963866 -2.785142 -0.085346 0.070019 0.162276 -0.191556
    16 0.028479 -1.403069 0.006271 -0.596876 0.000000 0.000000
    17 0.021413 -0.957782 0.020047 -0.432482 0.000000 0.000000
    18 1.164474 -2.543938 -0.170328 -0.702366 -0.013294 0.477915
    19 0.024033 -1.129042 0.017806 -0.803472 0.000000 0.000001
    20 0.014896 -0.883989 -0.019845 -0.584376 0.000000 0.000000
    21 -0.586770 -1.264475 0.200164 -0.286511 -0.333680 -2.448923
    22 1.522835 0.058681 0.016850 -0.077529 -0.420656 0.144479
    23 1.117948 0.048424 -0.005764 -0.000722 -0.025198 0.085316
    24 -0.139399 -0.111697 0.014397 0.285382 -0.030687 1.580508
    25 -0.488517 -2.755600 -0.228261 -1.119640 -0.066262 -0.107576
    26 0.039888 -1.479789 0.029853 -1.451658 0.000000 0.000000
    27 0.028786 -1.075730 -0.023111 -0.870565 0.000000 0.000000
    28 0.250028 -2.820664 -0.238396 -0.916633 -0.083565 -0.024874
    29 -0.049759 -1.680545 0.100480 -1.550922 0.000000 -0.000002
    30 -0.034141 -1.148312 0.084779 -1.087312 0.000000 0.000000
    31 0.957766 -2.746776 -0.090301 -0.432128 -0.184437 0.072455
    32 -0.033419 -1.397128 -0.011255 -0.247848 0.000000 -0.000001
    33 -0.022361 -0.957434 0.018783 -0.956086 0.000000 0.000000
    34 -1.180680 -2.507215 -0.193861 -0.747365 0.130011 -0.054388
    35 -0.024966 -1.123935 0.017594 -1.414285 0.000000 0.000001
    36 -0.020057 -0.890966 0.010091 -0.846171 0.000000 0.000000
    37 0.583510 -1.197274 0.185377 0.631272 -1.323162 -0.918143
    38 1.535926 0.010244 0.005008 -0.124871 0.065208 -0.956765
    39 1.100770 0.004526 -0.010676 -0.014685 0.006889 -0.956472
    40 0.120152 -0.050266 -0.054488 0.287568 3.110905 1.561085
  time 29
    0 0.000000 0.000000 0.000000 0.000000 0.000000 -0.000063
    1 6.208814 4.861697 -6.974305 6.073625 -1.608730 0.168997
    2 -0.103169 -8.498732 -0.104137 0.000791 0.288635 0.105900
    3 2.309492 -2.752047 1.804646 -0.057826 0.286025 -3.251375
    4 0.822732 1.600163 0.000001 0.000002 0.000000 -0.024500
    5 -0.135229 4.811259 0.000000 0.000000 0.000000 1.558216
    6 -0.114076 -2.997109 0.000000 0.000000 0.000000 -0.019284
    7 -1.055155 -7.027356 -7.697266 -0.126093 -6.210215 0.489182
    8 0.096944 -8.450418 -0.009364 -0.135215 -0.268260 0.357715
    9 0.447952 -2.798983 -0.200442 -0.766149 -0.010396 0.265094
    10 -0.032910 -1.480206 0.004936 -0.491695 0.000000 0.000002
    11 -0.027022 -1.076919 -0.020212 -1.394127 0.000000 0.000000
    12 -0.249534 -2.846962 -0.174215 -0.219877 -0.000125 -0.008396
    13 0.043235 -1.683940 0.096014 -1.114635 0.002823 -0.000167
    14 0.031729 -1.160831 0.058836 -0.912818 0.000642 0.008372
    15 -0.963866 -2.785142 -0.085346 0.070019 0.162276 -0.191556
    16 0.028479 -1.403069 0.006271 -0.596876 0.000000 0.000000
    17 0.021413 -0.957782 0.020047 -0.432482 0.000000 0.000000
    18 1.164474 -2.543938 -0.170328 -0.702366 -0.013294 0.477915
    19 0.024033 -1.129042 0.017806 -0.803472 0.000000 0.000001
    20 0.014896 -0.883989 -0.019845 -0.584376 0.000000 0.000000
    21 -0.586770 -1.264475 0.200164 -0.286511 -0.333680 -2.448923
    22 1.522835 0.058681 0.016850 -0.077529 -0.420656 0.144479
    23 1.117948 0.048424 -0.005764 -0.000399 -0.025198 0.071633
    24 -0.139399 -0.111697 0.014397 0.285382 -0.030687 1.580508
    25 -0.488517 -2.755600 -0.228261 -1.119640 -0.066262 -0.107576
    26 0.039888 -1.479789 0.029853 -1.451658 0.000000 0.000000
    27 0.028786 -1.075730 -0.023111 -0.870565 0.000000 0.000000
    28 0.250028 -2.820664 -0.238396 -0.916633 -0.083565 -0.024874
    29 -0.049759 -1.680545 0.100480 -1.550922 0.000000 -0.000002
    30 -0.034141 -1.148312 0.084779 -1.087312 0.000000 0.000000
    31 0.957766 -2.746776 -0.090301 -0.432128 -0.184437 0.072455
    32 -0.033419 -1.397128 -0.011255 -0.247848 0.000000 -0.000001
    33 -0.022361 -0.957434 0.018783 -0.956086 0.000000 0.000000
    34 -1.180680 -2.507215 -0.193861 -0.747365 0.130011 -0.054388
    35 -0.024966 -1.123935 0.017594 -1.414285 0.000000 0.000001
    36 -0.020057 -0.890966 0.010091 -0.846171 0.000000 0.000000
    37 0.583510 -1.197274 0.185377 0.631272 -1.323162 -0.918143
    38 1.535926 0.010244 0.005008 -0.124871 0.065208 -0.956765
    39 1.100770 0.004526 -0.010676 -0.014685 0.006889 -0.956472
    40 0.120152 -0.050266 -0.054488 0.287568 3.110905 1.561085
  time 30
    0 0.000000 0.000000 0.000000 0.000000 0.000000 -0.000063
    1 6.208814 4.861697 -6.974305 6.073625 -1.608730 0.168997
    2 -0.071918 -8.498732 -0.104137 0.000791 0.288635 0.105900
    3 2.309492 -2.752047 1.804646 -0.057826 0.286025 -3.251375
    4 0.822732 1.600163 0.000001 0.000002 0.000000 -0.024500
    5 -0.135229 4.811259 0.000000 0.000000 0.000000 1.558216
    6 -0.114076 -2.997109 0.000000 0.000000 0.000000 -0.019284
    7 -1.055155 -7.027356 -7.666015 -0.126093 -6.210215 0.489182
    8 0.096944 -8.450418 -0.009364 -0.135215 -0.268260 0.357715
    9 0.447952 -2.798983 -0.200442 -0.766149 -0.010396 0.265094
    10 -0.032910 -1.480206 0.004936 -0.491695 0.000000 0.000002
    11 -0.027022 -1.076919 -0.020212 -1.394127 0.000000 0.000000
    12 -0.249534 -2.846962 -0.174215 -0.219877 -0.000125 -0.008396
    13 0.043235 -1.683940 0.096014 -1.114635 0.002823 -0.000167
    14 0.031729 -1.160831 0.058836 -0.912818 0.000642 0.008372
    15 -0.963866 -2.785142 -0.085346 0.070019 0.162276 -0.191556
    16 0.028479 -1.403069 0.006271 -0.596876 0.000000 0.000000
    17 0.021413 -0.957782 0.020047 -0.432482 0.000000 0.000000
    18 1.164474 -2.543938 -0.170328 -0.702366 -0.013294 0.477915
    19 0.024033 -1.129042 0.017806 -0.803472 0.000000 0.000001
    20 0.014896 -0.883989 -0.019845 -0.584376 0.000000 0.000000
    21 -0.586770 -1.264475 0.200164 -0.286511 -0.333680 -2.448923
    22 1.522835 0.058681 0.016850 -0.077529 -0.420656 0.144479
    23 1.117948 0.048424 -0.005764 -0.000243 -0.025198 0.065422
    24 -0.139399 -0.111697 0.014397 0.285382 -0.030687 1.580508
    25 -0.488517 -2.755600 -0.228261 -1.119640 -0.066262 -0.107576
    26 0.039888 -1.479789 0.029853 -1.451658 0.000000 0.000000
    27 0.028786 -1.075730 -0.023111 -0.870565 0.000000 0.000000
    28 0.250028 -2.820664 -0.238396 -0.916633 -0.083565 -0.024874
    29 -0.049759 -1.680545 0.100480 -1.550922 0.000000 -0.000002
    30 -0.034141 -1.148312 0.084779 -1.087312 0.000000 0.000000
    31 0.957766 -2.746776 -0.090301 -0.432128 -0.184437 0.072455
    32 -0.033419 -1.397128 -0.011255 -0.247848 0.000000 -0.000001
    33 -0.022361 -0.957434 0.018783 -0.956086 0.000000 0.000000
    34 -1.180680 -2.507215 -0.193861 -0.747365 0.130011 -0.054388
    35 -0.024966 -1.123935 0.017594 -1.414285 0.000000 0.000001
    36 -0.020057 -0.890966 0.010091 -0.846171 0.000000 0.000000
    37 0.583510 -1.197274 0.185377 0.631272 -1.323162 -0.918143
    38 1.535926 0.010244 0.005008 -0.124871 0.065208 -0.956765
    39 1.100770 0.004526 -0.010676 -0.014685 0.006889 -0.956472
    40 0.120152 -0.050266 -0.054488 0.287568 3.110905 1.561085
end
