version 1
nodes
  0 "Bone01" -1
  1 "Bone_Lefthand" 0
  2 "Bone03" 1
  3 "Bone02" 2
  4 "Bone56" 3
  5 "Bone54" 3
  6 "Bone48" 3
  7 "Bone25" 3
  8 "Bone50" 3
  9 "Bone51" 8
  10 "Bone52" 9
  11 "Bone53" 10
  12 "Bone 04" 1
  13 "Bone13" 12
  14 "Bone14" 13
  15 "Bone15" 14
  16 "Bone17" 12
  17 "Bone18" 16
  18 "Bone19" 17
  19 "Bone21" 12
  20 "Bone22" 19
  21 "Bone23" 20
  22 "Bone05" 12
  23 "Bone06" 22
  24 "Bone07" 23
  25 "Bone09" 12
  26 "Bone10" 25
  27 "Bone11" 26
  28 "Bone04" -1
  29 "Bone_Righthand" 28
  30 "Bone26" 29
  31 "Bone35" 30
  32 "Bone36" 31
  33 "Bone37" 32
  34 "Bone31" 30
  35 "Bone32" 34
  36 "Bone33" 35
  37 "Bone39" 30
  38 "Bone40" 37
  39 "Bone41" 38
  40 "Bone43" 30
  41 "Bone44" 40
  42 "Bone45" 41
  43 "Bone27" 30
  44 "Bone28" 43
  45 "Bone29" 44
end
skeleton
  time 0
    0 7.088563 0.731340 -8.244841 -1.193330 -1.179502 1.009490
    1 0.000000 -8.563281 0.000001 0.084020 -0.013445 -0.314373
    2 -0.490616 -3.701483 0.535283 1.346881 1.541735 1.335142
    3 -0.025679 2.701181 0.658172 0.000000 0.000000 0.000000
    4 0.000000 -3.947158 3.041922 0.000000 0.000000 0.000000
    5 0.000000 -1.548280 0.485224 0.000000 0.000000 0.000000
    6 0.000000 -0.980124 2.284383 0.000000 0.000000 0.000000
    7 0.000000 -2.905539 1.621534 0.000000 0.000000 0.000000
    8 -0.000001 -5.746315 1.557464 0.000000 0.000000 0.000000
    9 0.000000 -0.031566 -0.614062 0.000000 0.000000 0.000000
    10 0.000000 -0.000001 -0.824930 0.000000 0.000000 0.000000
    11 0.000000 -0.015647 -0.615740 0.000000 0.000000 0.000000
    12 -0.003480 -0.404829 0.000000 0.000000 0.000000 0.000000
    13 -0.519309 -2.501153 -0.278957 -0.867431 0.000000 -0.122173
    14 -0.010598 -1.208185 0.000000 -0.870926 0.000000 0.000000
    15 0.000000 -0.763066 0.000000 -1.322966 0.000000 0.000000
    16 0.105981 -2.607133 -0.278957 -0.890118 0.000000 -0.148353
    17 0.000000 -1.250578 0.000000 -1.213004 0.000000 0.000000
    18 0.000000 -0.932634 -0.000001 -1.221739 0.000000 0.000000
    19 0.763064 -2.490555 -0.278957 0.090743 0.000000 0.130900
    20 -0.012322 -1.280915 0.000000 -1.265352 0.000000 0.000000
    21 -0.001697 -0.749371 0.000000 -0.593412 0.000000 0.000000
    22 0.354567 0.016267 0.318133 0.357130 -0.522242 -1.116358
    23 1.887164 0.012878 0.000001 -0.304163 -0.028296 -0.491334
    24 1.001873 -0.000270 0.000000 0.000000 0.000000 -0.855205
    25 -1.123358 -2.195092 -0.278957 -0.556764 0.000000 -0.087266
    26 0.010772 -0.963791 0.000000 -0.568979 0.000000 0.000000
    27 -0.010412 -0.631916 0.000000 -1.118757 0.000000 0.000000
    28 -3.908561 -10.007629 -9.779890 -1.987564 0.981908 -0.957315
    29 0.089930 -8.543162 0.000000 -0.202090 -0.345999 0.369637
    30 0.000001 -0.359713 -0.000001 0.000000 0.000000 0.000000
    31 -0.170478 -2.636147 -0.277655 -1.692969 0.000000 0.000000
    32 0.010599 -1.261177 0.000001 -1.404983 0.000000 0.000000
    33 -0.000002 -0.943232 -0.000001 -1.370083 0.000000 0.000000
    34 -0.827562 -2.508972 -0.277656 -1.595199 0.000000 0.000000
    35 0.000000 -1.292970 0.000000 -1.439887 0.000000 0.000000
    36 0.000000 -0.752467 0.000000 -1.167619 0.000000 0.000000
    37 0.444215 -2.561960 -0.277655 -1.727307 -0.046226 -0.024599
    38 0.021022 -1.208185 0.000000 -1.370067 0.000000 0.000000
    39 0.010597 -0.741867 -0.000001 -1.082103 0.000000 0.000000
    40 1.047446 -2.222821 -0.277655 -1.508123 -0.078971 -0.038609
    41 0.000000 -0.996221 -0.000001 -1.387532 0.000000 0.000000
    42 -0.000001 -0.614690 0.000000 -1.183321 0.000000 0.000000
    43 -0.308254 -0.007814 0.307166 -0.241552 -0.531379 -1.938567
    44 1.978377 0.019543 0.000000 -0.099390 0.032995 0.869278
    45 0.982426 0.003187 0.000000 0.000000 0.000000 1.117011
end
triangles
handle.bmp
  2 4.635469 -10.560031 -4.719557 -0.697882 0.046799 -0.714682 0.433071 0.190476
  2 4.527470 -11.614192 -4.691605 -0.883256 0.070396 -0.463577 0.637795 0.190476
  2 4.645770 -10.598388 -4.609454 -0.916899 0.092300 0.388300 0.433071 0.206349
handle.bmp
  2 4.645770 -10.598388 -4.609454 -0.916899 0.092300 0.388300 0.433071 0.206349
  2 4.527470 -11.614192 -4.691605 -0.883256 0.070396 -0.463577 0.637795 0.190476
  2 4.556555 -11.544139 -4.595446 -0.730045 0.338921 0.593437 0.629921 0.206349
handle.bmp
  2 4.527470 -11.614192 -4.691605 -0.883256 0.070396 -0.463577 0.637795 0.190476
  2 4.554476 -11.918940 -4.328014 -0.987534 0.095003 0.125504 0.700787 0.261905
  2 4.556555 -11.544139 -4.595446 -0.730045 0.338921 0.593437 0.629921 0.206349
handle.bmp
  2 4.556555 -11.544139 -4.595446 -0.730045 0.338921 0.593437 0.629921 0.206349
  2 4.554476 -11.918940 -4.328014 -0.987534 0.095003 0.125504 0.700787 0.261905
  2 4.567861 -11.816993 -4.220182 -0.696007 0.666707 0.266603 0.677165 0.277778
handle.bmp
  2 4.554476 -11.918940 -4.328014 -0.987534 0.095003 0.125504 0.700787 0.261905
  2 4.661755 -11.917627 -3.484752 -0.608301 0.076600 0.790001 0.700787 0.412698
  2 4.567861 -11.816993 -4.220182 -0.696007 0.666707 0.266603 0.677165 0.277778
handle.bmp
  2 4.567861 -11.816993 -4.220182 -0.696007 0.666707 0.266603 0.677165 0.277778
  2 4.661755 -11.917627 -3.484752 -0.608301 0.076600 0.790001 0.700787 0.412698
  2 4.673789 -11.788226 -3.488026 -0.442591 0.641387 0.626687 0.677165 0.412698
handle.bmp
  2 4.661755 -11.917627 -3.484752 -0.608301 0.076600 0.790001 0.700787 0.412698
  2 5.223377 -11.971918 -3.566196 0.127297 0.013300 0.991775 0.700787 0.412698
  2 4.673789 -11.788226 -3.488026 -0.442591 0.641387 0.626687 0.677165 0.412698
handle.bmp
  2 4.673789 -11.788226 -3.488026 -0.442591 0.641387 0.626687 0.677165 0.412698
  2 5.223377 -11.971918 -3.566196 0.127297 0.013300 0.991775 0.700787 0.412698
  2 5.236684 -11.842385 -3.559553 0.155300 0.717998 0.678499 0.677165 0.412698
handle.bmp
  2 4.471430 -9.137849 -6.290446 -0.796490 0.213797 -0.565593 0.590551 0.492063
  2 5.259260 -9.223947 -6.400499 -0.062101 0.030000 -0.997619 0.590551 0.492063
  2 4.351397 -10.321411 -6.259220 -0.127297 -0.013300 -0.991775 0.826772 0.492063
handle.bmp
  2 4.471430 -9.137849 -6.290446 -0.796490 0.213797 -0.565593 0.590551 0.492063
  2 5.070117 -8.592875 -6.374573 -0.041401 0.612209 -0.789612 0.448819 0.492063
  2 5.259260 -9.223947 -6.400499 -0.062101 0.030000 -0.997619 0.590551 0.492063
handle.bmp
  2 4.471430 -9.137849 -6.290446 -0.796490 0.213797 -0.565593 0.590551 0.492063
  2 4.772583 -8.564503 -6.346846 -0.449795 0.697292 -0.558094 0.448819 0.492063
  2 5.070117 -8.592875 -6.374573 -0.041401 0.612209 -0.789612 0.448819 0.492063
handle.bmp
  2 4.471430 -9.137849 -6.290446 -0.796490 0.213797 -0.565593 0.590551 0.492063
  2 4.890315 -8.544365 -5.515261 -0.458915 0.869428 0.183006 0.448819 0.642857
  2 4.772583 -8.564503 -6.346846 -0.449795 0.697292 -0.558094 0.448819 0.492063
handle.bmp
  2 4.471430 -9.137849 -6.290446 -0.796490 0.213797 -0.565593 0.590551 0.492063
  2 4.985098 -8.840077 -4.545431 -0.368796 0.921390 0.122599 0.511811 0.817460
  2 4.890315 -8.544365 -5.515261 -0.458915 0.869428 0.183006 0.448819 0.642857
handle.bmp
  2 4.471430 -9.137849 -6.290446 -0.796490 0.213797 -0.565593 0.590551 0.492063
  2 4.819303 -9.111484 -3.572728 -0.950701 0.286700 0.118200 0.598425 0.992063
  2 4.985098 -8.840077 -4.545431 -0.368796 0.921390 0.122599 0.511811 0.817460
handle.bmp
  2 4.471430 -9.137849 -6.290446 -0.796490 0.213797 -0.565593 0.590551 0.492063
  2 4.707872 -10.296128 -3.552675 -0.987534 0.095003 0.125504 0.826772 0.992063
  2 4.819303 -9.111484 -3.572728 -0.950701 0.286700 0.118200 0.598425 0.992063
handle.bmp
  2 4.471430 -9.137849 -6.290446 -0.796490 0.213797 -0.565593 0.590551 0.492063
  2 4.351397 -10.321411 -6.259220 -0.987534 0.095003 0.125504 0.826772 0.492063
  2 4.707872 -10.296128 -3.552675 -0.987534 0.095003 0.125504 0.826772 0.992063
handle.bmp
  10 4.564355 -14.040982 -4.909279 0.102297 0.992876 -0.061099 0.921260 0.420635
  10 4.774669 -14.078401 -5.218096 0.127003 0.991524 0.027401 0.976378 0.341270
  10 4.279976 -14.040848 -5.155102 0.127003 0.991524 0.027401 0.858268 0.341270
handle.bmp
  10 4.279976 -14.040848 -5.155102 0.127003 0.991524 0.027401 0.858268 0.341270
  10 4.774669 -14.078401 -5.218096 0.127003 0.991524 0.027401 0.976378 0.341270
  11 4.490078 -14.004996 -5.521072 0.106403 0.989231 0.100503 0.929134 0.285714
handle.bmp
  10 4.774669 -14.078401 -5.218096 0.127003 0.991524 0.027401 0.976378 0.341270
  11 4.696804 -14.013216 -5.880233 0.198691 0.806964 0.556175 0.976378 0.222222
  11 4.490078 -14.004996 -5.521072 0.106403 0.989231 0.100503 0.929134 0.285714
handle.bmp
  11 4.490078 -14.004996 -5.521072 0.106403 0.989231 0.100503 0.929134 0.285714
  11 4.696804 -14.013216 -5.880233 0.198691 0.806964 0.556175 0.976378 0.222222
  11 4.213838 -13.956705 -5.818998 0.099302 0.816313 0.569009 0.858268 0.222222
handle.bmp
  11 4.696804 -14.013216 -5.880233 0.198691 0.806964 0.556175 0.976378 0.222222
  11 4.445830 -13.899192 -5.869709 0.153901 0.429402 0.889904 0.913386 0.134921
  11 4.213838 -13.956705 -5.818998 0.099302 0.816313 0.569009 0.858268 0.222222
handle.bmp
  11 4.213838 -13.956705 -5.818998 0.099302 0.816313 0.569009 0.858268 0.222222
  11 4.445830 -13.899192 -5.869709 0.153901 0.429402 0.889904 0.913386 0.134921
  11 4.207085 -13.827282 -5.890441 0.106304 0.471318 0.875533 0.858268 0.111111
handle.bmp
  11 4.445830 -13.899192 -5.869709 0.153901 0.429402 0.889904 0.913386 0.134921
  11 4.711654 -13.865786 -5.954690 0.202996 0.460790 0.863982 0.984252 0.111111
  11 4.207085 -13.827282 -5.890441 0.106304 0.471318 0.875533 0.858268 0.111111
handle.bmp
  2 5.425355 -8.366614 -3.670556 -0.014000 0.741219 -0.671117 0.354331 0.992063
  2 5.320783 -8.852641 -4.205198 0.041999 0.927367 -0.371787 0.433071 0.888889
  2 5.025795 -8.824004 -4.157635 -0.354408 0.924821 -0.138203 0.511811 0.888889
handle.bmp
  2 5.025795 -8.824004 -4.157635 -0.354408 0.924821 -0.138203 0.511811 0.888889
  2 5.320783 -8.852641 -4.205198 0.041999 0.927367 -0.371787 0.433071 0.888889
  2 4.985098 -8.840077 -4.545431 -0.368796 0.921390 0.122599 0.511811 0.817460
handle.bmp
  2 5.320783 -8.852641 -4.205198 0.041999 0.927367 -0.371787 0.433071 0.888889
  2 5.260335 -8.866814 -4.590484 0.478773 0.877750 0.018199 0.433071 0.817460
  2 4.985098 -8.840077 -4.545431 -0.368796 0.921390 0.122599 0.511811 0.817460
handle.bmp
  2 4.985098 -8.840077 -4.545431 -0.368796 0.921390 0.122599 0.511811 0.817460
  2 5.260335 -8.866814 -4.590484 0.478773 0.877750 0.018199 0.433071 0.817460
  2 4.890315 -8.544365 -5.515261 -0.458915 0.869428 0.183006 0.448819 0.642857
handle.bmp
  2 5.260335 -8.866814 -4.590484 0.478773 0.877750 0.018199 0.433071 0.817460
  2 5.164626 -8.581055 -5.560062 0.110398 0.986384 0.121898 0.377953 0.642857
  2 4.890315 -8.544365 -5.515261 -0.458915 0.869428 0.183006 0.448819 0.642857
handle.bmp
  2 4.890315 -8.544365 -5.515261 -0.458915 0.869428 0.183006 0.448819 0.642857
  2 5.164626 -8.581055 -5.560062 0.110398 0.986384 0.121898 0.377953 0.642857
  2 4.772583 -8.564503 -6.346846 -0.449795 0.697292 -0.558094 0.448819 0.492063
handle.bmp
  2 5.164626 -8.581055 -5.560062 0.110398 0.986384 0.121898 0.377953 0.642857
  2 5.070117 -8.592875 -6.374573 -0.041401 0.612209 -0.789612 0.377953 0.492063
  2 4.772583 -8.564503 -6.346846 -0.449795 0.697292 -0.558094 0.448819 0.492063
handle.bmp
  2 4.753257 -15.376199 -2.855380 -0.462372 0.020599 -0.886447 0.984252 0.992063
  2 4.509228 -15.350169 -2.723576 -0.883256 0.070396 -0.463577 0.952756 0.992063
  2 4.668719 -13.728770 -2.775801 -0.883256 0.070396 -0.463577 0.952756 0.666667
handle.bmp
  2 4.668719 -13.728770 -2.775801 -0.883256 0.070396 -0.463577 0.952756 0.666667
  2 4.509228 -15.350169 -2.723576 -0.883256 0.070396 -0.463577 0.952756 0.992063
  2 4.694835 -13.733930 -2.486679 -0.737785 0.085598 0.669586 0.897638 0.666667
handle.bmp
  2 4.509228 -15.350169 -2.723576 -0.883256 0.070396 -0.463577 0.952756 0.992063
  2 4.545219 -15.356279 -2.435709 -0.737785 0.085598 0.669586 0.897638 0.992063
  2 4.694835 -13.733930 -2.486679 -0.737785 0.085598 0.669586 0.897638 0.666667
handle.bmp
  2 4.694835 -13.733930 -2.486679 -0.737785 0.085598 0.669586 0.897638 0.666667
  2 4.545219 -15.356279 -2.435709 -0.737785 0.085598 0.669586 0.897638 0.992063
  2 4.975125 -13.748304 -2.421634 -0.223605 0.045401 0.973622 0.858268 0.666667
handle.bmp
  2 4.545219 -15.356279 -2.435709 -0.737785 0.085598 0.669586 0.897638 0.992063
  2 4.814361 -15.369836 -2.379327 -0.223605 0.045401 0.973622 0.858268 0.992063
  2 4.975125 -13.748304 -2.421634 -0.223605 0.045401 0.973622 0.858268 0.666667
handle.bmp
  9 4.652239 -13.943113 -4.291755 0.066300 0.971401 -0.228000 0.921260 0.555556
  9 4.357214 -14.003232 -4.575738 0.018799 0.966258 -0.256889 0.858268 0.500000
  8 4.474526 -13.831753 -3.782358 -0.029900 0.977905 -0.206901 0.858268 0.619048
handle.bmp
  9 4.652239 -13.943113 -4.291755 0.066300 0.971401 -0.228000 0.921260 0.555556
  9 4.859931 -14.061643 -4.639483 0.104799 0.982087 -0.156598 0.976378 0.500000
  9 4.357214 -14.003232 -4.575738 0.018799 0.966258 -0.256889 0.858268 0.500000
handle.bmp
  9 4.652239 -13.943113 -4.291755 0.066300 0.971401 -0.228000 0.921260 0.555556
  8 4.977243 -13.890164 -3.846103 0.100704 0.976837 -0.188807 0.984252 0.619048
  9 4.859931 -14.061643 -4.639483 0.104799 0.982087 -0.156598 0.976378 0.500000
handle.bmp
  9 4.652239 -13.943113 -4.291755 0.066300 0.971401 -0.228000 0.921260 0.555556
  8 4.474526 -13.831753 -3.782358 0.100704 0.976837 -0.188807 0.858268 0.619048
  8 4.977243 -13.890164 -3.846103 0.100704 0.976837 -0.188807 0.984252 0.619048
handle.bmp
  5 4.011848 -10.283851 -9.711490 -0.987534 0.095003 0.125504 0.314961 0.007937
  5 4.848201 -10.196764 -3.195523 -0.608301 0.076600 0.790001 0.314961 1.000000
  5 4.111245 -9.228607 -9.728268 -0.632831 0.771037 0.070903 0.118110 0.007937
handle.bmp
  5 4.111245 -9.228607 -9.728268 -0.632831 0.771037 0.070903 0.118110 0.007937
  5 4.848201 -10.196764 -3.195523 -0.608301 0.076600 0.790001 0.314961 1.000000
  5 4.955853 -9.132781 -3.233643 -0.443204 0.637206 0.630506 0.118110 1.000000
handle.bmp
  5 4.848201 -10.196764 -3.195523 -0.608301 0.076600 0.790001 0.314961 1.000000
  5 5.470000 -10.246801 -3.284747 0.127297 0.013300 0.991775 0.314961 1.000000
  5 4.955853 -9.132781 -3.233643 -0.443204 0.637206 0.630506 0.118110 1.000000
handle.bmp
  5 4.955853 -9.132781 -3.233643 -0.443204 0.637206 0.630506 0.118110 1.000000
  5 5.470000 -10.246801 -3.284747 0.127297 0.013300 0.991775 0.314961 1.000000
  5 5.568472 -9.201512 -3.301274 0.155499 0.713198 0.683498 0.118110 1.000000
handle.bmp
  8 4.474526 -13.831753 -3.782358 -0.987534 0.095003 0.125504 0.000000 0.000000
  8 4.569692 -13.823822 -3.119123 -0.608301 0.076600 0.790001 0.000000 0.000000
  8 4.492733 -13.743118 -3.785879 -0.878708 0.465304 0.106601 0.000000 0.000000
handle.bmp
  8 4.492733 -13.743118 -3.785879 -0.878708 0.465304 0.106601 0.000000 0.000000
  8 4.569692 -13.823822 -3.119123 -0.608301 0.076600 0.790001 0.000000 0.000000
  8 4.577097 -13.744191 -3.121137 -0.443204 0.637206 0.630506 0.000000 0.000000
handle.bmp
  8 4.569692 -13.823822 -3.119123 -0.608301 0.076600 0.790001 0.000000 0.000000
  8 5.052658 -13.880333 -3.180358 0.127297 0.013300 0.991775 0.000000 0.000000
  8 4.577097 -13.744191 -3.121137 -0.443204 0.637206 0.630506 0.000000 0.000000
handle.bmp
  8 4.577097 -13.744191 -3.121137 -0.443204 0.637206 0.630506 0.000000 0.000000
  8 5.052658 -13.880333 -3.180358 0.127297 0.013300 0.991775 0.000000 0.000000
  8 5.071791 -13.781745 -3.184131 0.156697 0.517389 0.841282 0.000000 0.000000
handle.bmp
  7 5.168367 -11.261117 -3.296693 0.125199 -0.008900 0.992092 0.622047 0.460317
  7 4.932588 -10.796543 -3.272639 -0.887006 0.086401 0.453603 0.535433 0.460317
  7 4.901385 -11.225642 -3.272982 -0.505120 0.051102 0.861535 0.622047 0.460317
handle.bmp
  7 4.901385 -11.225642 -3.272982 -0.505120 0.051102 0.861535 0.622047 0.460317
  7 4.932588 -10.796543 -3.272639 -0.887006 0.086401 0.453603 0.535433 0.460317
  7 4.833451 -10.966564 -4.003778 -0.987534 0.095003 0.125504 0.559055 0.325397
handle.bmp
  7 4.932588 -10.796543 -3.272639 -0.887006 0.086401 0.453603 0.535433 0.460317
  7 4.829476 -10.807280 -4.075977 -0.837740 0.510024 -0.195109 0.535433 0.317460
  7 4.833451 -10.966564 -4.003778 -0.987534 0.095003 0.125504 0.559055 0.325397
handle.bmp
  7 4.833451 -10.966564 -4.003778 -0.987534 0.095003 0.125504 0.559055 0.325397
  7 4.829476 -10.807280 -4.075977 -0.837740 0.510024 -0.195109 0.535433 0.317460
  7 4.749743 -11.081734 -4.495641 -0.205705 0.819222 -0.535314 0.598425 0.238095
handle.bmp
  2 4.645770 -10.598388 -4.609454 -0.916899 0.092300 0.388300 0.433071 0.103175
  2 4.556555 -11.544139 -4.595446 -0.730045 0.338921 0.593437 0.637795 0.111111
  2 5.108649 -11.607301 -4.665465 0.157205 0.556816 0.815624 0.637795 0.190476
handle.bmp
  2 5.108649 -11.607301 -4.665465 0.157205 0.556816 0.815624 0.637795 0.190476
  2 4.556555 -11.544139 -4.595446 -0.730045 0.338921 0.593437 0.637795 0.111111
  2 5.132029 -11.871019 -4.281790 0.126196 0.954273 0.270992 0.700787 0.261905
handle.bmp
  2 4.556555 -11.544139 -4.595446 -0.730045 0.338921 0.593437 0.637795 0.111111
  2 4.567861 -11.816993 -4.220182 -0.696007 0.666707 0.266603 0.700787 0.166667
  2 5.132029 -11.871019 -4.281790 0.126196 0.954273 0.270992 0.700787 0.261905
handle.bmp
  9 4.357214 -14.003232 -4.575738 0.092599 0.995385 -0.025200 0.858268 0.500000
  9 4.859931 -14.061643 -4.639483 0.104799 0.982087 -0.156598 0.976378 0.500000
  10 4.564355 -14.040982 -4.909279 0.102297 0.992876 -0.061099 0.921260 0.420635
handle.bmp
  10 4.564355 -14.040982 -4.909279 0.102297 0.992876 -0.061099 0.921260 0.420635
  9 4.859931 -14.061643 -4.639483 0.104799 0.982087 -0.156598 0.976378 0.500000
  10 4.774669 -14.078401 -5.218096 0.127003 0.991524 0.027401 0.976378 0.341270
handle.bmp
  10 4.302075 -13.654105 -5.274019 0.102297 0.992876 -0.061099 0.858268 0.222222
  9 4.392429 -13.636817 -4.655735 0.092599 0.995385 -0.025200 0.858268 0.341270
  10 4.794917 -13.711566 -5.336510 0.102297 0.992876 -0.061099 0.984252 0.222222
handle.bmp
  10 4.794917 -13.711566 -5.336510 0.102297 0.992876 -0.061099 0.984252 0.222222
  9 4.392429 -13.636817 -4.655735 0.092599 0.995385 -0.025200 0.858268 0.341270
  9 4.874123 -13.693460 -4.726889 0.092599 0.995385 -0.025200 0.984252 0.341270
handle.bmp
  10 4.302075 -13.654105 -5.274019 0.059098 0.962768 -0.263791 0.858268 0.222222
  10 4.794917 -13.711566 -5.336510 0.059098 0.962768 -0.263791 0.984252 0.222222
  11 4.207085 -13.827282 -5.890441 0.059098 0.962768 -0.263791 0.858268 0.103175
handle.bmp
  11 4.207085 -13.827282 -5.890441 0.059098 0.962768 -0.263791 0.858268 0.103175
  10 4.794917 -13.711566 -5.336510 0.059098 0.962768 -0.263791 0.984252 0.222222
  11 4.711654 -13.865786 -5.954690 0.059098 0.962768 -0.263791 0.984252 0.103175
handle.bmp
  9 4.392429 -13.636817 -4.655735 0.108795 0.988159 0.108195 0.858268 0.341270
  8 4.492733 -13.743118 -3.785879 0.108795 0.988159 0.108195 0.858268 0.500000
  9 4.874123 -13.693460 -4.726889 0.108795 0.988159 0.108195 0.984252 0.341270
handle.bmp
  9 4.874123 -13.693460 -4.726889 0.108795 0.988159 0.108195 0.984252 0.341270
  8 4.492733 -13.743118 -3.785879 0.108795 0.988159 0.108195 0.858268 0.500000
  8 4.975699 -13.799629 -3.847115 0.108795 0.988159 0.108195 0.984252 0.500000
handle.bmp
  5 4.723169 -9.277695 -9.816239 0.092599 0.995385 -0.025200 0.000000 0.007937
  5 4.111245 -9.228607 -9.728268 -0.632831 0.771037 0.070903 0.118110 0.007937
  5 5.568472 -9.201512 -3.301274 0.155499 0.713198 0.683498 0.000000 1.000000
handle.bmp
  5 5.568472 -9.201512 -3.301274 0.155499 0.713198 0.683498 0.000000 1.000000
  5 4.111245 -9.228607 -9.728268 -0.632831 0.771037 0.070903 0.118110 0.007937
  5 4.955853 -9.132781 -3.233643 -0.443204 0.637206 0.630506 0.118110 1.000000
handle.bmp
  2 5.090365 -11.668350 -4.763132 -0.127297 -0.013300 -0.991775 0.637795 0.111111
  2 4.527470 -11.614192 -4.691605 -0.883256 0.070396 -0.463577 0.637795 0.190476
  2 5.187564 -10.623193 -4.789576 -0.127297 -0.013300 -0.991775 0.433071 0.111111
handle.bmp
  2 5.187564 -10.623193 -4.789576 -0.127297 -0.013300 -0.991775 0.433071 0.111111
  2 4.527470 -11.614192 -4.691605 -0.883256 0.070396 -0.463577 0.637795 0.190476
  2 4.635469 -10.560031 -4.719557 -0.697882 0.046799 -0.714682 0.433071 0.190476
handle.bmp
  2 5.132029 -11.871019 -4.281790 0.126196 0.954273 0.270992 0.700787 0.261905
  2 4.567861 -11.816993 -4.220182 -0.696007 0.666707 0.266603 0.795276 0.261905
  2 5.236684 -11.842385 -3.559553 0.155300 0.717998 0.678499 0.700787 0.412698
handle.bmp
  2 5.236684 -11.842385 -3.559553 0.155300 0.717998 0.678499 0.700787 0.412698
  2 4.567861 -11.816993 -4.220182 -0.696007 0.666707 0.266603 0.795276 0.261905
  2 4.673789 -11.788226 -3.488026 -0.442591 0.641387 0.626687 0.795276 0.412698
handle.bmp
  7 5.026253 -11.108338 -4.530777 0.005600 0.817835 -0.575425 0.543307 0.238095
  7 4.749743 -11.081734 -4.495641 -0.205705 0.819222 -0.535314 0.590551 0.238095
  7 5.094837 -10.833066 -4.119776 0.005600 0.817835 -0.575425 0.480315 0.317460
handle.bmp
  7 5.094837 -10.833066 -4.119776 0.005600 0.817835 -0.575425 0.480315 0.317460
  7 4.749743 -11.081734 -4.495641 -0.205705 0.819222 -0.535314 0.590551 0.238095
  7 4.829476 -10.807280 -4.075977 -0.837740 0.510024 -0.195109 0.535433 0.317460
handle.bmp
  11 4.213838 -13.956705 -5.818998 0.099302 0.816313 0.569009 0.858268 0.222222
  10 4.279976 -14.040848 -5.155102 0.017300 0.993703 0.110700 0.858268 0.341270
  11 4.490078 -14.004996 -5.521072 0.106403 0.989231 0.100503 0.929134 0.285714
handle.bmp
  11 4.445830 -13.899192 -5.869709 0.153901 0.429402 0.889904 0.913386 0.134921
  11 4.696804 -14.013216 -5.880233 0.198691 0.806964 0.556175 0.976378 0.222222
  11 4.711654 -13.865786 -5.954690 0.202996 0.460790 0.863982 0.984252 0.111111
handle.bmp
  2 4.668719 -13.728770 -2.775801 -0.883256 0.070396 -0.463577 0.952756 0.666667
  2 4.904146 -13.753717 -2.896432 -0.462372 0.020599 -0.886447 0.984252 0.666667
  2 4.753257 -15.376199 -2.855380 -0.462372 0.020599 -0.886447 0.984252 0.992063
handle.bmp
  2 5.260335 -8.866814 -4.590484 0.478773 0.877750 0.018199 0.511811 0.817460
  2 5.608984 -9.177674 -3.683285 0.826812 0.550908 -0.113502 0.598425 0.992063
  2 5.259260 -9.223947 -6.400499 -0.062101 0.030000 -0.997619 0.590551 0.492063
handle.bmp
  8 4.975699 -13.799629 -3.847115 0.092599 0.995385 -0.025200 0.984252 0.500000
  8 4.492733 -13.743118 -3.785879 0.092599 0.995385 -0.025200 0.858268 0.500000
  8 5.071791 -13.781745 -3.184131 0.092599 0.995385 -0.025200 0.984252 0.626984
handle.bmp
  8 5.071791 -13.781745 -3.184131 0.156697 0.517389 0.841282 0.984252 0.626984
  8 4.492733 -13.743118 -3.785879 -0.878708 0.465304 0.106601 0.858268 0.500000
  8 4.577097 -13.744191 -3.121137 -0.443204 0.637206 0.630506 0.858268 0.626984
handle.bmp
  2 4.351397 -10.321411 -6.259220 -0.127297 -0.013300 -0.991775 0.826772 0.492063
  2 5.259260 -9.223947 -6.400499 -0.062101 0.030000 -0.997619 0.590551 0.492063
  2 5.140152 -10.397555 -6.369526 -0.127297 -0.013300 -0.991775 0.826772 0.492063
handle.bmp
  2 4.819303 -9.111484 -3.572728 -0.950701 0.286700 0.118200 0.598425 0.992063
  2 5.025795 -8.824004 -4.157635 -0.354408 0.924821 -0.138203 0.511811 0.888889
  2 4.985098 -8.840077 -4.545431 -0.368796 0.921390 0.122599 0.511811 0.817460
handle.bmp
  9 4.357214 -14.003232 -4.575738 0.048299 0.997372 -0.053999 0.858268 0.500000
  10 4.564355 -14.040982 -4.909279 0.048299 0.997372 -0.053999 0.921260 0.420635
  10 4.279976 -14.040848 -5.155102 0.048299 0.997372 -0.053999 0.858268 0.341270
body.bmp
  2 5.674067 -6.325937 -4.294397 -0.478307 0.876913 0.047401 0.176471 1.000000
  2 6.002459 -6.279906 -1.665188 -0.438986 0.858373 0.265492 0.439216 1.000000
  2 5.792571 -6.337338 -4.309455 0.092103 0.995330 -0.028901 0.176471 1.000000
body.bmp
  2 5.792571 -6.337338 -4.309455 0.092103 0.995330 -0.028901 0.176471 1.000000
  2 6.002459 -6.279906 -1.665188 -0.438986 0.858373 0.265492 0.439216 1.000000
  2 6.122236 -6.291175 -1.670328 0.121996 0.965872 0.228493 0.439216 1.000000
body.bmp
  2 6.002459 -6.279906 -1.665188 -0.438986 0.858373 0.265492 0.439216 1.000000
  2 6.020051 -6.416079 -1.423635 -0.472396 0.630294 0.616094 0.478431 1.000000
  2 6.122236 -6.291175 -1.670328 0.121996 0.965872 0.228493 0.439216 1.000000
body.bmp
  2 6.122236 -6.291175 -1.670328 0.121996 0.965872 0.228493 0.439216 1.000000
  2 6.020051 -6.416079 -1.423635 -0.472396 0.630294 0.616094 0.478431 1.000000
  2 6.139828 -6.427348 -1.428776 0.112400 0.723603 0.681003 0.478431 1.000000
body.bmp
  2 6.020051 -6.416079 -1.423635 -0.472396 0.630294 0.616094 0.478431 1.000000
  2 6.017276 -6.662805 -1.258655 -0.493983 0.333489 0.802973 0.517647 1.000000
  2 6.139828 -6.427348 -1.428776 0.112400 0.723603 0.681003 0.478431 1.000000
body.bmp
  2 6.139828 -6.427348 -1.428776 0.112400 0.723603 0.681003 0.478431 1.000000
  2 6.017276 -6.662805 -1.258655 -0.493983 0.333489 0.802973 0.517647 1.000000
  2 6.137053 -6.674074 -1.263795 0.050602 0.357514 0.932536 0.517647 1.000000
body.bmp
  2 6.017276 -6.662805 -1.258655 -0.493983 0.333489 0.802973 0.517647 1.000000
  2 5.984027 -6.940298 -1.230513 -0.587392 0.004700 0.809289 0.533333 0.992063
  2 6.137053 -6.674074 -1.263795 0.050602 0.357514 0.932536 0.517647 1.000000
body.bmp
  2 6.137053 -6.674074 -1.263795 0.050602 0.357514 0.932536 0.517647 1.000000
  2 5.984027 -6.940298 -1.230513 -0.587392 0.004700 0.809289 0.533333 0.992063
  2 6.116226 -6.952253 -1.217072 -0.094899 -0.066099 0.993290 0.533333 1.000000
body.bmp
  2 5.984027 -6.940298 -1.230513 -0.587392 0.004700 0.809289 0.533333 0.992063
  2 5.941328 -7.250327 -1.331800 -0.687084 -0.272394 0.673585 0.549020 0.984127
  2 6.116226 -6.952253 -1.217072 -0.094899 -0.066099 0.993290 0.533333 1.000000
body.bmp
  2 6.116226 -6.952253 -1.217072 -0.094899 -0.066099 0.993290 0.533333 1.000000
  2 5.941328 -7.250327 -1.331800 -0.687084 -0.272394 0.673585 0.549020 0.984127
  2 6.070749 -7.292142 -1.317605 -0.220896 -0.472890 0.852983 0.549020 1.000000
body.bmp
  2 5.941328 -7.250327 -1.331800 -0.687084 -0.272394 0.673585 0.549020 0.984127
  2 5.900596 -7.575943 -1.644874 -0.616110 -0.273605 0.738613 0.639216 1.000000
  2 6.070749 -7.292142 -1.317605 -0.220896 -0.472890 0.852983 0.549020 1.000000
body.bmp
  2 6.070749 -7.292142 -1.317605 -0.220896 -0.472890 0.852983 0.549020 1.000000
  2 5.900596 -7.575943 -1.644874 -0.616110 -0.273605 0.738613 0.639216 1.000000
  2 6.008299 -7.596348 -1.658426 0.072100 -0.440601 0.894803 0.639216 1.000000
body.bmp
  2 5.900596 -7.575943 -1.644874 -0.616110 -0.273605 0.738613 0.639216 1.000000
  2 5.734699 -8.969308 -1.736036 -0.461606 0.197103 0.864911 0.894118 1.000000
  2 6.008299 -7.596348 -1.658426 0.072100 -0.440601 0.894803 0.639216 1.000000
body.bmp
  2 6.008299 -7.596348 -1.658426 0.072100 -0.440601 0.894803 0.639216 1.000000
  2 5.734699 -8.969308 -1.736036 -0.461606 0.197103 0.864911 0.894118 1.000000
  2 5.860648 -9.021343 -1.741424 0.167797 0.035499 0.985182 0.894118 1.000000
body.bmp
  2 5.734699 -8.969308 -1.736036 -0.461606 0.197103 0.864911 0.894118 1.000000
  2 5.613382 -9.297311 -1.645500 0.111103 0.246607 0.962726 0.988235 1.000000
  2 5.860648 -9.021343 -1.741424 0.167797 0.035499 0.985182 0.894118 1.000000
body.bmp
  2 5.860648 -9.021343 -1.741424 0.167797 0.035499 0.985182 0.894118 1.000000
  2 5.613382 -9.297311 -1.645500 0.111103 0.246607 0.962726 0.988235 1.000000
  2 5.636105 -9.440863 -1.676747 0.230492 -0.113196 0.966468 0.988235 1.000000
body.bmp
  2 5.613382 -9.297311 -1.645500 0.111103 0.246607 0.962726 0.988235 1.000000
  2 5.305048 -9.277943 -1.616266 0.124302 0.284404 0.950612 0.894118 1.000000
  2 5.636105 -9.440863 -1.676747 0.230492 -0.113196 0.966468 0.988235 1.000000
body.bmp
  2 5.636105 -9.440863 -1.676747 0.230492 -0.113196 0.966468 0.988235 1.000000
  2 5.305048 -9.277943 -1.616266 0.124302 0.284404 0.950612 0.894118 1.000000
  2 5.250966 -9.403808 -1.627808 -0.530476 -0.216590 0.819563 0.894118 1.000000
body.bmp
  2 5.305048 -9.277943 -1.616266 0.124302 0.284404 0.950612 0.894118 1.000000
  2 5.200504 -8.927954 -1.668022 0.445987 0.138396 0.884275 0.639216 1.000000
  2 5.250966 -9.403808 -1.627808 -0.530476 -0.216590 0.819563 0.894118 1.000000
body.bmp
  2 5.250966 -9.403808 -1.627808 -0.530476 -0.216590 0.819563 0.894118 1.000000
  2 5.200504 -8.927954 -1.668022 0.445987 0.138396 0.884275 0.639216 1.000000
  2 5.087825 -8.947497 -1.663381 -0.546305 -0.088401 0.832908 0.643137 1.000000
body.bmp
  2 5.200504 -8.927954 -1.668022 0.445987 0.138396 0.884275 0.639216 1.000000
  2 5.346651 -7.532688 -1.574351 0.072100 -0.440601 0.894803 0.592157 1.000000
  2 5.087825 -8.947497 -1.663381 -0.546305 -0.088401 0.832908 0.643137 1.000000
body.bmp
  2 5.087825 -8.947497 -1.663381 -0.546305 -0.088401 0.832908 0.643137 1.000000
  2 5.346651 -7.532688 -1.574351 0.072100 -0.440601 0.894803 0.592157 1.000000
  2 5.227221 -7.531240 -1.559041 -0.616110 -0.273605 0.738613 0.592157 1.000000
body.bmp
  2 5.346651 -7.532688 -1.574351 0.072100 -0.440601 0.894803 0.592157 1.000000
  2 5.409101 -7.228483 -1.233530 -0.071899 -0.509291 0.857586 0.537255 1.000000
  2 5.227221 -7.531240 -1.559041 -0.616110 -0.273605 0.738613 0.592157 1.000000
body.bmp
  2 5.227221 -7.531240 -1.559041 -0.616110 -0.273605 0.738613 0.592157 1.000000
  2 5.409101 -7.228483 -1.233530 -0.071899 -0.509291 0.857586 0.537255 1.000000
  2 5.290249 -7.207260 -1.228641 -0.600505 -0.328103 0.729206 0.537255 1.000000
body.bmp
  2 5.409101 -7.228483 -1.233530 -0.071899 -0.509291 0.857586 0.537255 1.000000
  2 5.454577 -6.888593 -1.132998 0.045998 -0.077097 0.995962 0.525490 1.000000
  2 5.290249 -7.207260 -1.228641 -0.600505 -0.328103 0.729206 0.537255 1.000000
body.bmp
  2 5.290249 -7.207260 -1.228641 -0.600505 -0.328103 0.729206 0.537255 1.000000
  2 5.454577 -6.888593 -1.132998 0.045998 -0.077097 0.995962 0.525490 1.000000
  2 5.344675 -6.878274 -1.129112 -0.519487 -0.000500 0.854478 0.525490 1.000000
body.bmp
  2 5.454577 -6.888593 -1.132998 0.045998 -0.077097 0.995962 0.525490 1.000000
  2 5.366776 -6.599963 -1.165917 -0.443603 0.365503 0.818306 0.517647 1.000000
  2 5.344675 -6.878274 -1.129112 -0.519487 -0.000500 0.854478 0.525490 1.000000
body.bmp
  2 5.064305 -6.467873 -4.204151 -0.689524 -0.717925 0.095603 0.176471 0.928571
  2 5.376148 -6.423565 -1.703873 -0.773257 -0.633265 -0.032398 0.439216 0.928571
  2 4.964007 -6.367836 -4.192614 -0.978822 -0.161104 0.126303 0.176471 0.960317
body.bmp
  2 4.964007 -6.367836 -4.192614 -0.978822 -0.161104 0.126303 0.176471 0.960317
  2 5.376148 -6.423565 -1.703873 -0.773257 -0.633265 -0.032398 0.439216 0.928571
  2 5.300115 -6.344674 -1.644753 -0.996659 -0.048798 0.065497 0.439216 0.960317
body.bmp
  2 5.376148 -6.423565 -1.703873 -0.773257 -0.633265 -0.032398 0.439216 0.928571
  2 5.388532 -6.520851 -1.532753 -0.817594 -0.467596 -0.335997 0.478431 0.928571
  2 5.300115 -6.344674 -1.644753 -0.996659 -0.048798 0.065497 0.439216 0.960317
body.bmp
  2 5.300115 -6.344674 -1.644753 -0.996659 -0.048798 0.065497 0.439216 0.960317
  2 5.388532 -6.520851 -1.532753 -0.817594 -0.467596 -0.335997 0.478431 0.928571
  2 5.305516 -6.450566 -1.442373 -0.999560 -0.029099 0.005800 0.478431 0.960317
body.bmp
  2 5.388532 -6.520851 -1.532753 -0.817594 -0.467596 -0.335997 0.478431 0.928571
  2 5.388071 -6.688476 -1.409458 -0.782497 -0.211599 -0.585598 0.517647 0.928571
  2 5.305516 -6.450566 -1.442373 -0.999560 -0.029099 0.005800 0.478431 0.960317
body.bmp
  2 5.305516 -6.450566 -1.442373 -0.999560 -0.029099 0.005800 0.478431 0.960317
  2 5.388071 -6.688476 -1.409458 -0.782497 -0.211599 -0.585598 0.517647 0.928571
  2 5.302626 -6.657874 -1.308153 -0.994921 0.021200 -0.098402 0.513725 0.960317
body.bmp
  2 5.388071 -6.688476 -1.409458 -0.782497 -0.211599 -0.585598 0.517647 0.928571
  2 5.373376 -6.887156 -1.374668 -0.411382 0.162493 -0.896862 0.525490 0.928571
  2 5.302626 -6.657874 -1.308153 -0.994921 0.021200 -0.098402 0.513725 0.960317
body.bmp
  2 5.302626 -6.657874 -1.308153 -0.994921 0.021200 -0.098402 0.513725 0.960317
  2 5.373376 -6.887156 -1.374668 -0.411382 0.162493 -0.896862 0.525490 0.928571
  2 5.285154 -6.886415 -1.272607 -0.985880 0.110298 -0.125997 0.521569 0.952381
body.bmp
  2 5.373376 -6.887156 -1.374668 -0.411382 0.162493 -0.896862 0.525490 0.928571
  2 5.333298 -7.116073 -1.437045 -0.002400 0.499193 -0.866488 0.537255 0.928571
  2 5.285154 -6.886415 -1.272607 -0.985880 0.110298 -0.125997 0.521569 0.952381
body.bmp
  2 5.285154 -6.886415 -1.272607 -0.985880 0.110298 -0.125997 0.521569 0.952381
  2 5.333298 -7.116073 -1.437045 -0.002400 0.499193 -0.866488 0.537255 0.928571
  2 5.259504 -7.147359 -1.356574 -0.967203 0.222401 -0.122700 0.533333 0.952381
body.bmp
  2 5.333298 -7.116073 -1.437045 -0.002400 0.499193 -0.866488 0.537255 0.928571
  2 5.276443 -7.480819 -1.767691 -0.322787 0.494581 -0.806969 0.592157 0.928571
  2 5.259504 -7.147359 -1.356574 -0.967203 0.222401 -0.122700 0.533333 0.952381
body.bmp
  2 5.718855 -6.500721 -4.287726 -0.689524 -0.717925 0.095603 0.176471 0.928571
  2 6.030120 -6.476188 -1.777027 -0.773595 -0.630096 -0.067300 0.439216 0.928571
  2 5.635531 -6.432446 -4.277944 -0.978822 -0.161104 0.126303 0.176471 0.960317
body.bmp
  2 5.635531 -6.432446 -4.277944 -0.978822 -0.161104 0.126303 0.176471 0.960317
  2 6.030120 -6.476188 -1.777027 -0.773595 -0.630096 -0.067300 0.439216 0.928571
  2 5.952466 -6.387608 -1.737995 -0.994939 -0.084603 0.054202 0.439216 0.960317
body.bmp
  2 6.030120 -6.476188 -1.777027 -0.773595 -0.630096 -0.067300 0.439216 0.928571
  2 6.042504 -6.573474 -1.605906 -0.822559 -0.435179 -0.366082 0.478431 0.928571
  2 5.952466 -6.387608 -1.737995 -0.994939 -0.084603 0.054202 0.439216 0.960317
body.bmp
  2 5.952466 -6.387608 -1.737995 -0.994939 -0.084603 0.054202 0.439216 0.960317
  2 6.042504 -6.573474 -1.605906 -0.822559 -0.435179 -0.366082 0.478431 0.928571
  2 5.968091 -6.504271 -1.526700 -0.999560 -0.029099 0.005800 0.478431 0.960317
body.bmp
  2 6.042504 -6.573474 -1.605906 -0.822559 -0.435179 -0.366082 0.478431 0.928571
  2 6.039844 -6.751186 -1.492278 -0.807891 -0.182098 -0.560494 0.517647 0.928571
  2 5.968091 -6.504271 -1.526700 -0.999560 -0.029099 0.005800 0.478431 0.960317
body.bmp
  2 5.968091 -6.504271 -1.526700 -0.999560 -0.029099 0.005800 0.478431 0.960317
  2 6.039844 -6.751186 -1.492278 -0.807891 -0.182098 -0.560494 0.517647 0.928571
  2 5.964274 -6.721534 -1.392228 -0.994921 0.021200 -0.098402 0.517647 0.960317
body.bmp
  2 6.039844 -6.751186 -1.492278 -0.807891 -0.182098 -0.560494 0.517647 0.928571
  2 6.026075 -6.939912 -1.457739 -0.458093 0.180497 -0.870386 0.533333 0.928571
  2 5.964274 -6.721534 -1.392228 -0.994921 0.021200 -0.098402 0.517647 0.960317
body.bmp
  2 5.964274 -6.721534 -1.392228 -0.994921 0.021200 -0.098402 0.517647 0.960317
  2 6.026075 -6.939912 -1.457739 -0.458093 0.180497 -0.870386 0.533333 0.928571
  2 5.947728 -6.940121 -1.356934 -0.985880 0.110298 -0.125997 0.533333 0.952381
body.bmp
  2 6.026075 -6.939912 -1.457739 -0.458093 0.180497 -0.870386 0.533333 0.928571
  2 5.985072 -7.178782 -1.519864 -0.163293 0.510777 -0.844063 0.549020 0.928571
  2 5.947728 -6.940121 -1.356934 -0.985880 0.110298 -0.125997 0.533333 0.952381
body.bmp
  2 5.947728 -6.940121 -1.356934 -0.985880 0.110298 -0.125997 0.533333 0.952381
  2 5.985072 -7.178782 -1.519864 -0.163293 0.510777 -0.844063 0.549020 0.928571
  2 5.921152 -7.211019 -1.440649 -0.967203 0.222401 -0.122700 0.549020 0.952381
body.bmp
  2 5.985072 -7.178782 -1.519864 -0.163293 0.510777 -0.844063 0.549020 0.928571
  2 5.919266 -7.532625 -1.849508 -0.362091 0.498288 -0.787781 0.639216 0.928571
  2 5.921152 -7.211019 -1.440649 -0.967203 0.222401 -0.122700 0.549020 0.952381
body.bmp
  2 5.129071 -6.293586 -4.224876 0.092103 0.995330 -0.028901 0.176471 1.000000
  2 5.349760 -6.227150 -1.582116 -0.438986 0.858373 0.265492 0.439216 1.000000
  2 5.468612 -6.248373 -1.587005 0.121996 0.965872 0.228493 0.439216 1.000000
body.bmp
  2 5.468612 -6.248373 -1.587005 0.121996 0.965872 0.228493 0.439216 1.000000
  2 5.349760 -6.227150 -1.582116 -0.438986 0.858373 0.265492 0.439216 1.000000
  2 5.475981 -6.373775 -1.354367 0.153595 0.742077 0.652480 0.478431 1.000000
body.bmp
  2 5.349760 -6.227150 -1.582116 -0.438986 0.858373 0.265492 0.439216 1.000000
  2 5.367352 -6.363323 -1.340564 -0.434408 0.661412 0.611411 0.478431 1.000000
  2 5.475981 -6.373775 -1.354367 0.153595 0.742077 0.652480 0.478431 1.000000
body.bmp
  2 5.475981 -6.373775 -1.354367 0.153595 0.742077 0.652480 0.478431 1.000000
  2 5.367352 -6.363323 -1.340564 -0.434408 0.661412 0.611411 0.478431 1.000000
  2 5.366776 -6.599963 -1.165917 -0.443603 0.365503 0.818306 0.517647 1.000000
body.bmp
  2 5.367352 -6.363323 -1.340564 -0.434408 0.661412 0.611411 0.478431 1.000000
  2 5.302626 -6.657874 -1.308153 -0.994921 0.021200 -0.098402 0.513725 0.960317
  2 5.366776 -6.599963 -1.165917 -0.443603 0.365503 0.818306 0.517647 1.000000
body.bmp
  2 5.366776 -6.599963 -1.165917 -0.443603 0.365503 0.818306 0.517647 1.000000
  2 5.302626 -6.657874 -1.308153 -0.994921 0.021200 -0.098402 0.513725 0.960317
  2 5.344675 -6.878274 -1.129112 -0.519487 -0.000500 0.854478 0.525490 0.992063
body.bmp
  2 5.302626 -6.657874 -1.308153 -0.994921 0.021200 -0.098402 0.513725 0.960317
  2 5.285154 -6.886415 -1.272607 -0.985880 0.110298 -0.125997 0.521569 0.960317
  2 5.344675 -6.878274 -1.129112 -0.519487 -0.000500 0.854478 0.525490 0.992063
body.bmp
  2 5.344675 -6.878274 -1.129112 -0.519487 -0.000500 0.854478 0.525490 0.992063
  2 5.285154 -6.886415 -1.272607 -0.985880 0.110298 -0.125997 0.521569 0.960317
  2 5.290249 -7.207260 -1.228641 -0.600505 -0.328103 0.729206 0.537255 0.984127
body.bmp
  2 5.285154 -6.886415 -1.272607 -0.985880 0.110298 -0.125997 0.521569 0.960317
  2 5.259504 -7.147359 -1.356574 -0.967203 0.222401 -0.122700 0.533333 0.960317
  2 5.290249 -7.207260 -1.228641 -0.600505 -0.328103 0.729206 0.537255 0.984127
body.bmp
  2 5.290249 -7.207260 -1.228641 -0.600505 -0.328103 0.729206 0.537255 0.984127
  2 5.259504 -7.147359 -1.356574 -0.967203 0.222401 -0.122700 0.533333 0.960317
  2 5.177998 -7.469307 -1.674546 -0.910122 0.296907 -0.289007 0.592157 0.960317
body.bmp
  2 5.558074 -6.767544 -1.924285 0.306784 0.874155 0.376480 0.054902 0.571429
  2 5.125796 -6.727483 -1.929833 -0.612489 0.699388 0.368393 0.000000 0.539683
  2 5.515371 -6.760120 -1.787825 0.092103 0.995330 -0.028901 0.047059 0.603175
body.bmp
  2 5.515371 -6.760120 -1.787825 0.092103 0.995330 -0.028901 0.047059 0.603175
  2 5.125796 -6.727483 -1.929833 -0.612489 0.699388 0.368393 0.000000 0.539683
  2 5.592445 -6.763965 -1.656506 0.042702 0.929037 -0.367515 0.054902 0.642857
body.bmp
  2 5.125796 -6.727483 -1.929833 -0.612489 0.699388 0.368393 0.000000 0.539683
  2 5.583226 -6.770826 -1.564484 -0.133404 0.627719 0.766924 0.050980 0.682540
  2 5.592445 -6.763965 -1.656506 0.042702 0.929037 -0.367515 0.054902 0.642857
body.bmp
  2 5.592445 -6.763965 -1.656506 0.042702 0.929037 -0.367515 0.054902 0.642857
  2 5.583226 -6.770826 -1.564484 -0.133404 0.627719 0.766924 0.050980 0.682540
  2 5.731047 -6.787088 -1.663904 -0.255691 0.863170 -0.435385 0.074510 0.642857
body.bmp
  2 5.583226 -6.770826 -1.564484 -0.133404 0.627719 0.766924 0.050980 0.682540
  2 5.770510 -6.779057 -1.598496 0.435810 0.611814 0.660116 0.074510 0.682540
  2 5.731047 -6.787088 -1.663904 -0.255691 0.863170 -0.435385 0.074510 0.642857
body.bmp
  2 5.731047 -6.787088 -1.663904 -0.255691 0.863170 -0.435385 0.074510 0.642857
  2 5.770510 -6.779057 -1.598496 0.435810 0.611814 0.660116 0.074510 0.682540
  2 5.792228 -6.796545 -1.812791 -0.478307 0.876913 0.047401 0.082353 0.603175
body.bmp
  2 5.770510 -6.779057 -1.598496 0.435810 0.611814 0.660116 0.074510 0.682540
  2 6.143305 -6.835169 -2.048913 0.506186 0.793477 0.337890 0.129412 0.539683
  2 5.792228 -6.796545 -1.812791 -0.478307 0.876913 0.047401 0.082353 0.603175
body.bmp
  2 5.792228 -6.796545 -1.812791 -0.478307 0.876913 0.047401 0.082353 0.603175
  2 6.143305 -6.835169 -2.048913 0.506186 0.793477 0.337890 0.129412 0.539683
  2 5.705279 -6.791750 -1.942856 -0.135894 0.870964 0.472180 0.074510 0.571429
body.bmp
  2 6.143305 -6.835169 -2.048913 0.506186 0.793477 0.337890 0.129412 0.539683
  2 5.558074 -6.767544 -1.924285 0.306784 0.874155 0.376480 0.054902 0.571429
  2 5.705279 -6.791750 -1.942856 -0.135894 0.870964 0.472180 0.074510 0.571429
body.bmp
  2 5.932953 -6.859051 -3.765940 -0.024600 0.694486 -0.719086 0.129412 0.000000
  2 4.259780 -13.708042 -3.459642 -0.788286 0.057799 -0.612589 0.988235 0.000000
  2 4.897314 -6.759153 -3.624263 -0.590197 0.621896 -0.514697 0.129412 0.000000
body.bmp
  2 4.897314 -6.759153 -3.624263 -0.590197 0.621896 -0.514697 0.129412 0.000000
  2 4.259780 -13.708042 -3.459642 -0.788286 0.057799 -0.612589 0.988235 0.000000
  2 4.675778 -10.332895 -2.741430 -0.907589 0.404895 0.111099 0.572549 0.253968
body.bmp
  2 4.259780 -13.708042 -3.459642 -0.788286 0.057799 -0.612589 0.988235 0.000000
  2 4.470131 -13.684160 -1.742615 -0.608301 0.076600 0.790001 0.988235 0.539683
  2 4.675778 -10.332895 -2.741430 -0.907589 0.404895 0.111099 0.572549 0.253968
body.bmp
  2 4.675778 -10.332895 -2.741430 -0.907589 0.404895 0.111099 0.572549 0.253968
  2 4.470131 -13.684160 -1.742615 -0.608301 0.076600 0.790001 0.988235 0.539683
  2 4.751231 -10.334895 -2.146113 -0.903717 0.382107 -0.193104 0.572549 0.444444
body.bmp
  2 4.470131 -13.684160 -1.742615 -0.608301 0.076600 0.790001 0.988235 0.539683
  2 5.104813 -6.845979 -1.925556 -0.767392 0.087399 0.635193 0.137255 0.539683
  2 4.751231 -10.334895 -2.146113 -0.903717 0.382107 -0.193104 0.572549 0.444444
body.bmp
  2 4.751231 -10.334895 -2.146113 -0.903717 0.382107 -0.193104 0.572549 0.444444
  2 5.104813 -6.845979 -1.925556 -0.767392 0.087399 0.635193 0.137255 0.539683
  2 4.856142 -9.099665 -2.176088 -0.977113 0.085901 -0.194603 0.423529 0.444444
body.bmp
  2 5.104813 -6.845979 -1.925556 -0.767392 0.087399 0.635193 0.137255 0.539683
  2 4.897314 -6.759153 -3.624263 -0.590197 0.621896 -0.514697 0.129412 0.000000
  2 4.856142 -9.099665 -2.176088 -0.977113 0.085901 -0.194603 0.423529 0.444444
body.bmp
  2 4.856142 -9.099665 -2.176088 -0.977113 0.085901 -0.194603 0.423529 0.444444
  2 4.897314 -6.759153 -3.624263 -0.590197 0.621896 -0.514697 0.129412 0.000000
  2 4.780110 -9.117439 -2.760984 -0.987534 0.095003 0.125504 0.423529 0.253968
body.bmp
  2 4.897314 -6.759153 -3.624263 -0.590197 0.621896 -0.514697 0.129412 0.000000
  2 4.675778 -10.332895 -2.741430 -0.907589 0.404895 0.111099 0.572549 0.253968
  2 4.780110 -9.117439 -2.760984 -0.987534 0.095003 0.125504 0.423529 0.253968
body.bmp
  2 5.635531 -6.432446 -4.277944 -0.978822 -0.161104 0.126303 0.176471 0.960317
  2 5.952466 -6.387608 -1.737995 -0.994939 -0.084603 0.054202 0.439216 0.960317
  2 5.674067 -6.325937 -4.294397 -0.478307 0.876913 0.047401 0.176471 1.000000
body.bmp
  2 5.674067 -6.325937 -4.294397 -0.478307 0.876913 0.047401 0.176471 1.000000
  2 5.952466 -6.387608 -1.737995 -0.994939 -0.084603 0.054202 0.439216 0.960317
  2 6.002459 -6.279906 -1.665188 -0.438986 0.858373 0.265492 0.439216 1.000000
body.bmp
  2 5.952466 -6.387608 -1.737995 -0.994939 -0.084603 0.054202 0.439216 0.960317
  2 5.968091 -6.504271 -1.526700 -0.999560 -0.029099 0.005800 0.478431 0.960317
  2 6.002459 -6.279906 -1.665188 -0.438986 0.858373 0.265492 0.439216 1.000000
body.bmp
  2 6.002459 -6.279906 -1.665188 -0.438986 0.858373 0.265492 0.439216 1.000000
  2 5.968091 -6.504271 -1.526700 -0.999560 -0.029099 0.005800 0.478431 0.960317
  2 6.020051 -6.416079 -1.423635 -0.472396 0.630294 0.616094 0.478431 1.000000
body.bmp
  2 5.968091 -6.504271 -1.526700 -0.999560 -0.029099 0.005800 0.478431 0.960317
  2 5.964274 -6.721534 -1.392228 -0.994921 0.021200 -0.098402 0.517647 0.960317
  2 6.020051 -6.416079 -1.423635 -0.472396 0.630294 0.616094 0.478431 1.000000
body.bmp
  2 6.020051 -6.416079 -1.423635 -0.472396 0.630294 0.616094 0.478431 1.000000
  2 5.964274 -6.721534 -1.392228 -0.994921 0.021200 -0.098402 0.517647 0.960317
  2 6.017276 -6.662805 -1.258655 -0.493983 0.333489 0.802973 0.517647 1.000000
body.bmp
  2 5.964274 -6.721534 -1.392228 -0.994921 0.021200 -0.098402 0.517647 0.960317
  2 5.984027 -6.940298 -1.230513 -0.587392 0.004700 0.809289 0.533333 0.992063
  2 6.017276 -6.662805 -1.258655 -0.493983 0.333489 0.802973 0.517647 1.000000
body.bmp
  2 5.613382 -9.297311 -1.645500 0.111103 0.246607 0.962726 0.988235 1.000000
  2 5.734699 -8.969308 -1.736036 -0.461606 0.197103 0.864911 0.894118 1.000000
  2 5.583910 -9.237278 -1.763515 -0.623799 0.781398 -0.017100 0.988235 0.968254
body.bmp
  2 5.583910 -9.237278 -1.763515 -0.623799 0.781398 -0.017100 0.988235 0.968254
  2 5.734699 -8.969308 -1.736036 -0.461606 0.197103 0.864911 0.894118 1.000000
  2 5.689450 -8.958227 -1.861454 -0.930824 0.242406 -0.273507 0.894118 0.968254
body.bmp
  2 5.734699 -8.969308 -1.736036 -0.461606 0.197103 0.864911 0.894118 1.000000
  2 5.900596 -7.575943 -1.644874 -0.616110 -0.273605 0.738613 0.639216 1.000000
  2 5.689450 -8.958227 -1.861454 -0.930824 0.242406 -0.273507 0.894118 0.968254
body.bmp
  2 5.689450 -8.958227 -1.861454 -0.930824 0.242406 -0.273507 0.894118 0.968254
  2 5.900596 -7.575943 -1.644874 -0.616110 -0.273605 0.738613 0.639216 1.000000
  2 5.839646 -7.532967 -1.758621 -0.910122 0.296907 -0.289007 0.639216 0.960317
body.bmp
  2 5.900596 -7.575943 -1.644874 -0.616110 -0.273605 0.738613 0.639216 1.000000
  2 5.941328 -7.250327 -1.331800 -0.687084 -0.272394 0.673585 0.549020 0.984127
  2 5.839646 -7.532967 -1.758621 -0.910122 0.296907 -0.289007 0.639216 0.960317
body.bmp
  2 5.839646 -7.532967 -1.758621 -0.910122 0.296907 -0.289007 0.639216 0.960317
  2 5.941328 -7.250327 -1.331800 -0.687084 -0.272394 0.673585 0.549020 0.984127
  2 5.921152 -7.211019 -1.440649 -0.967203 0.222401 -0.122700 0.549020 0.960317
body.bmp
  2 5.941328 -7.250327 -1.331800 -0.687084 -0.272394 0.673585 0.549020 0.984127
  2 5.947728 -6.940121 -1.356934 -0.985880 0.110298 -0.125997 0.533333 0.960317
  2 5.921152 -7.211019 -1.440649 -0.967203 0.222401 -0.122700 0.549020 0.960317
body.bmp
  2 5.023172 -8.944337 -1.776120 -0.969340 -0.165307 -0.181807 0.639216 0.960317
  2 5.227221 -7.531240 -1.559041 -0.616110 -0.273605 0.738613 0.592157 1.000000
  2 5.177998 -7.469307 -1.674546 -0.910122 0.296907 -0.289007 0.592157 0.960317
body.bmp
  2 5.023172 -8.944337 -1.776120 -0.969340 -0.165307 -0.181807 0.639216 0.960317
  2 5.087825 -8.947497 -1.663381 -0.546305 -0.088401 0.832908 0.643137 1.000000
  2 5.227221 -7.531240 -1.559041 -0.616110 -0.273605 0.738613 0.592157 1.000000
body.bmp
  2 5.023172 -8.944337 -1.776120 -0.969340 -0.165307 -0.181807 0.639216 0.960317
  2 5.223616 -9.414534 -1.755232 -0.912674 -0.356690 -0.199494 0.894118 0.968254
  2 5.087825 -8.947497 -1.663381 -0.546305 -0.088401 0.832908 0.643137 1.000000
body.bmp
  2 5.023172 -8.944337 -1.776120 -0.969340 -0.165307 -0.181807 0.639216 0.960317
  2 5.269134 -9.299419 -1.802945 -0.386011 0.103003 -0.916726 0.894118 0.928571
  2 5.223616 -9.414534 -1.755232 -0.912674 -0.356690 -0.199494 0.894118 0.968254
body.bmp
  2 5.023172 -8.944337 -1.776120 -0.969340 -0.165307 -0.181807 0.639216 0.960317
  2 5.115792 -8.924905 -1.858848 -0.682826 -0.107504 -0.722628 0.639216 0.928571
  2 5.269134 -9.299419 -1.802945 -0.386011 0.103003 -0.916726 0.894118 0.928571
body.bmp
  2 5.023172 -8.944337 -1.776120 -0.969340 -0.165307 -0.181807 0.639216 0.960317
  2 5.177998 -7.469307 -1.674546 -0.910122 0.296907 -0.289007 0.592157 0.960317
  2 5.115792 -8.924905 -1.858848 -0.682826 -0.107504 -0.722628 0.639216 0.928571
body.bmp
  2 5.333298 -7.116073 -1.437045 -0.002400 0.499193 -0.866488 0.537255 0.928571
  2 5.363431 -7.497447 -1.708054 0.543305 0.515404 -0.662706 0.592157 0.960317
  2 5.276443 -7.480819 -1.767691 -0.322787 0.494581 -0.806969 0.592157 0.928571
body.bmp
  2 5.333298 -7.116073 -1.437045 -0.002400 0.499193 -0.866488 0.537255 0.928571
  2 5.428079 -7.183154 -1.357567 0.721590 0.270496 -0.637291 0.533333 0.960317
  2 5.363431 -7.497447 -1.708054 0.543305 0.515404 -0.662706 0.592157 0.960317
body.bmp
  2 5.333298 -7.116073 -1.437045 -0.002400 0.499193 -0.866488 0.537255 0.928571
  2 5.474058 -6.904336 -1.286532 0.677479 0.095797 -0.729277 0.521569 0.960317
  2 5.428079 -7.183154 -1.357567 0.721590 0.270496 -0.637291 0.533333 0.960317
body.bmp
  2 5.333298 -7.116073 -1.437045 -0.002400 0.499193 -0.866488 0.537255 0.928571
  2 5.384524 -6.887974 -1.366005 0.615195 0.123799 -0.778594 0.525490 0.928571
  2 5.474058 -6.904336 -1.286532 0.677479 0.095797 -0.729277 0.521569 0.960317
body.bmp
  2 5.333298 -7.116073 -1.437045 -0.002400 0.499193 -0.866488 0.537255 0.928571
  2 5.373376 -6.887156 -1.374668 -0.411382 0.162493 -0.896862 0.525490 0.928571
  2 5.384524 -6.887974 -1.366005 0.615195 0.123799 -0.778594 0.525490 0.928571
body.bmp
  2 4.964007 -6.367836 -4.192614 -0.978822 -0.161104 0.126303 0.176471 0.960317
  2 5.300115 -6.344674 -1.644753 -0.996659 -0.048798 0.065497 0.439216 0.960317
  2 5.021368 -6.273181 -4.211325 -0.478307 0.876913 0.047401 0.176471 1.000000
body.bmp
  2 5.021368 -6.273181 -4.211325 -0.478307 0.876913 0.047401 0.176471 1.000000
  2 5.300115 -6.344674 -1.644753 -0.996659 -0.048798 0.065497 0.439216 0.960317
  2 5.349760 -6.227150 -1.582116 -0.438986 0.858373 0.265492 0.439216 1.000000
body.bmp
  2 5.300115 -6.344674 -1.644753 -0.996659 -0.048798 0.065497 0.439216 0.960317
  2 5.305516 -6.450566 -1.442373 -0.999560 -0.029099 0.005800 0.478431 0.960317
  2 5.349760 -6.227150 -1.582116 -0.438986 0.858373 0.265492 0.439216 1.000000
body.bmp
  2 5.349760 -6.227150 -1.582116 -0.438986 0.858373 0.265492 0.439216 1.000000
  2 5.305516 -6.450566 -1.442373 -0.999560 -0.029099 0.005800 0.478431 0.960317
  2 5.367352 -6.363323 -1.340564 -0.434408 0.661412 0.611411 0.478431 1.000000
body.bmp
  2 5.305516 -6.450566 -1.442373 -0.999560 -0.029099 0.005800 0.478431 0.960317
  2 5.302626 -6.657874 -1.308153 -0.994921 0.021200 -0.098402 0.513725 0.960317
  2 5.367352 -6.363323 -1.340564 -0.434408 0.661412 0.611411 0.478431 1.000000
body.bmp
  2 5.583910 -9.237278 -1.763515 -0.623799 0.781398 -0.017100 0.988235 0.968254
  2 5.689450 -8.958227 -1.861454 -0.930824 0.242406 -0.273507 0.894118 0.968254
  2 5.573997 -9.329006 -1.851763 -0.456903 0.582103 -0.672604 0.992157 0.928571
body.bmp
  2 5.573997 -9.329006 -1.851763 -0.456903 0.582103 -0.672604 0.992157 0.928571
  2 5.689450 -8.958227 -1.861454 -0.930824 0.242406 -0.273507 0.894118 0.968254
  2 5.768838 -8.987482 -1.931750 -0.679706 0.153201 -0.717307 0.894118 0.928571
body.bmp
  2 5.689450 -8.958227 -1.861454 -0.930824 0.242406 -0.273507 0.894118 0.968254
  2 5.839646 -7.532967 -1.758621 -0.910122 0.296907 -0.289007 0.639216 0.960317
  2 5.768838 -8.987482 -1.931750 -0.679706 0.153201 -0.717307 0.894118 0.928571
body.bmp
  2 5.768838 -8.987482 -1.931750 -0.679706 0.153201 -0.717307 0.894118 0.928571
  2 5.839646 -7.532967 -1.758621 -0.910122 0.296907 -0.289007 0.639216 0.960317
  2 5.919266 -7.532625 -1.849508 -0.362091 0.498288 -0.787781 0.639216 0.928571
body.bmp
  2 5.839646 -7.532967 -1.758621 -0.910122 0.296907 -0.289007 0.639216 0.960317
  2 5.921152 -7.211019 -1.440649 -0.967203 0.222401 -0.122700 0.549020 0.952381
  2 5.919266 -7.532625 -1.849508 -0.362091 0.498288 -0.787781 0.639216 0.928571
body.bmp
  2 5.513832 -10.397970 -2.233070 -0.590197 0.621896 -0.514697 0.572549 0.444444
  2 5.636642 -9.184547 -2.265051 -0.788286 0.057799 -0.612589 0.423529 0.444444
  2 5.558990 -9.192633 -2.870034 -0.987534 0.095003 0.125504 0.423529 0.253968
body.bmp
  2 5.513832 -10.397970 -2.233070 -0.590197 0.621896 -0.514697 0.572549 0.444444
  2 4.751231 -10.334895 -2.146113 -0.903717 0.382107 -0.193104 0.572549 0.444444
  2 5.636642 -9.184547 -2.265051 -0.788286 0.057799 -0.612589 0.423529 0.444444
body.bmp
  2 5.513832 -10.397970 -2.233070 -0.590197 0.621896 -0.514697 0.572549 0.444444
  2 4.675778 -10.332895 -2.741430 -0.907589 0.404895 0.111099 0.572549 0.253968
  2 4.751231 -10.334895 -2.146113 -0.903717 0.382107 -0.193104 0.572549 0.444444
body.bmp
  2 5.513832 -10.397970 -2.233070 -0.590197 0.621896 -0.514697 0.572549 0.444444
  2 5.435254 -10.416010 -2.837802 -0.632831 0.771037 0.070903 0.572549 0.253968
  2 4.675778 -10.332895 -2.741430 -0.907589 0.404895 0.111099 0.572549 0.253968
body.bmp
  2 5.513832 -10.397970 -2.233070 -0.590197 0.621896 -0.514697 0.572549 0.444444
  2 5.558990 -9.192633 -2.870034 -0.987534 0.095003 0.125504 0.423529 0.253968
  2 5.435254 -10.416010 -2.837802 -0.632831 0.771037 0.070903 0.572549 0.253968
body.bmp
  2 5.559040 -6.877854 -1.912852 0.615699 -0.037300 0.787098 0.137255 0.555556
  2 5.696369 -6.901110 -1.930168 -0.397102 0.060100 0.915805 0.137255 0.555556
  2 5.558074 -6.767544 -1.924285 0.306784 0.874155 0.376480 0.129412 0.555556
body.bmp
  2 5.558074 -6.767544 -1.924285 0.306784 0.874155 0.376480 0.129412 0.555556
  2 5.696369 -6.901110 -1.930168 -0.397102 0.060100 0.915805 0.137255 0.555556
  2 5.705279 -6.791750 -1.942856 -0.135894 0.870964 0.472180 0.129412 0.555556
body.bmp
  2 5.696369 -6.901110 -1.930168 -0.397102 0.060100 0.915805 0.137255 0.555556
  2 5.780773 -6.906171 -1.819939 -0.987534 0.095003 0.125504 0.137255 0.587302
  2 5.705279 -6.791750 -1.942856 -0.135894 0.870964 0.472180 0.129412 0.555556
body.bmp
  2 5.705279 -6.791750 -1.942856 -0.135894 0.870964 0.472180 0.129412 0.555556
  2 5.780773 -6.906171 -1.819939 -0.987534 0.095003 0.125504 0.137255 0.587302
  2 5.792228 -6.796545 -1.812791 -0.478307 0.876913 0.047401 0.129412 0.587302
body.bmp
  2 5.780773 -6.906171 -1.819939 -0.987534 0.095003 0.125504 0.137255 0.587302
  2 5.731047 -6.787088 -1.663904 -0.255691 0.863170 -0.435385 0.129412 0.619048
  2 5.792228 -6.796545 -1.812791 -0.478307 0.876913 0.047401 0.129412 0.587302
body.bmp
  2 5.376001 -13.740265 -1.424572 0.127297 0.013300 0.991775 0.607843 0.253968
  2 5.392045 -13.460606 -1.430369 0.124302 0.284404 0.950612 0.498039 0.253968
  2 5.333719 -13.444951 -1.423092 -0.529487 0.279993 0.800780 0.486275 0.301587
body.bmp
  2 5.333719 -13.444951 -1.423092 -0.529487 0.279993 0.800780 0.486275 0.301587
  2 5.392045 -13.460606 -1.430369 0.124302 0.284404 0.950612 0.498039 0.253968
  2 5.336609 -13.129211 -1.639424 -0.492119 0.751428 0.439517 0.349020 0.166667
body.bmp
  2 5.392045 -13.460606 -1.430369 0.124302 0.284404 0.950612 0.498039 0.253968
  2 5.406083 -13.145683 -1.638039 0.142701 0.877005 0.458802 0.384314 0.142857
  2 5.336609 -13.129211 -1.639424 -0.492119 0.751428 0.439517 0.349020 0.166667
body.bmp
  2 5.336609 -13.129211 -1.639424 -0.492119 0.751428 0.439517 0.349020 0.166667
  2 5.406083 -13.145683 -1.638039 0.142701 0.877005 0.458802 0.384314 0.142857
  2 5.296182 -13.131442 -1.876196 -0.590197 0.621896 -0.514697 0.349020 0.007937
body.bmp
  2 5.406083 -13.145683 -1.638039 0.142701 0.877005 0.458802 0.384314 0.142857
  2 5.364383 -13.148047 -1.884728 -0.024600 0.694486 -0.719086 0.384314 0.007937
  2 5.296182 -13.131442 -1.876196 -0.590197 0.621896 -0.514697 0.349020 0.007937
body.bmp
  2 5.240061 -13.748450 -1.850663 -0.788286 0.057799 -0.612589 0.607843 0.007937
  2 5.364383 -13.148047 -1.884728 -0.024600 0.694486 -0.719086 0.384314 0.007937
  2 5.319064 -13.756051 -1.860702 -0.127297 -0.013300 -0.991775 0.607843 0.007937
body.bmp
  2 5.240061 -13.748450 -1.850663 -0.788286 0.057799 -0.612589 0.607843 0.007937
  2 5.296182 -13.131442 -1.876196 -0.590197 0.621896 -0.514697 0.384314 0.007937
  2 5.364383 -13.148047 -1.884728 -0.024600 0.694486 -0.719086 0.384314 0.007937
body.bmp
  2 5.240061 -13.748450 -1.850663 -0.788286 0.057799 -0.612589 0.607843 0.007937
  2 5.336609 -13.129211 -1.639424 -0.492119 0.751428 0.439517 0.384314 0.142857
  2 5.296182 -13.131442 -1.876196 -0.590197 0.621896 -0.514697 0.384314 0.007937
body.bmp
  2 5.240061 -13.748450 -1.850663 -0.788286 0.057799 -0.612589 0.607843 0.007937
  2 5.333719 -13.444951 -1.423092 -0.529487 0.279993 0.800780 0.498039 0.253968
  2 5.336609 -13.129211 -1.639424 -0.492119 0.751428 0.439517 0.384314 0.142857
body.bmp
  2 5.240061 -13.748450 -1.850663 -0.788286 0.057799 -0.612589 0.607843 0.007937
  2 5.305948 -13.743568 -1.415536 -0.608301 0.076600 0.790001 0.607843 0.253968
  2 5.333719 -13.444951 -1.423092 -0.529487 0.279993 0.800780 0.498039 0.253968
body.bmp
  2 5.327498 -9.222395 -1.720719 0.514410 0.857316 0.019800 0.894118 0.960317
  2 5.583910 -9.237278 -1.763515 -0.623799 0.781398 -0.017100 0.988235 0.960317
  2 5.269134 -9.299419 -1.802945 -0.386011 0.103003 -0.916726 0.894118 0.928571
body.bmp
  2 5.327498 -9.222395 -1.720719 0.514410 0.857316 0.019800 0.894118 0.960317
  2 5.613382 -9.297311 -1.645500 0.111103 0.246607 0.962726 0.988235 1.000000
  2 5.583910 -9.237278 -1.763515 -0.623799 0.781398 -0.017100 0.988235 0.960317
body.bmp
  2 5.327498 -9.222395 -1.720719 0.514410 0.857316 0.019800 0.894118 0.960317
  2 5.305048 -9.277943 -1.616266 0.124302 0.284404 0.950612 0.894118 1.000000
  2 5.613382 -9.297311 -1.645500 0.111103 0.246607 0.962726 0.988235 1.000000
body.bmp
  2 5.327498 -9.222395 -1.720719 0.514410 0.857316 0.019800 0.894118 0.960317
  2 5.215780 -8.922442 -1.791052 0.914883 0.343394 0.212296 0.639216 0.960317
  2 5.305048 -9.277943 -1.616266 0.124302 0.284404 0.950612 0.894118 1.000000
body.bmp
  2 5.985072 -7.178782 -1.519864 -0.163293 0.510777 -0.844063 0.549020 0.928571
  2 6.036806 -7.542149 -1.793887 0.469007 0.549908 -0.691110 0.639216 0.960317
  2 5.919266 -7.532625 -1.849508 -0.362091 0.498288 -0.787781 0.639216 0.928571
body.bmp
  2 5.985072 -7.178782 -1.519864 -0.163293 0.510777 -0.844063 0.549020 0.928571
  2 6.015045 -7.191454 -1.513459 0.520293 0.381995 -0.763790 0.549020 0.936508
  2 6.036806 -7.542149 -1.793887 0.469007 0.549908 -0.691110 0.639216 0.960317
body.bmp
  2 5.985072 -7.178782 -1.519864 -0.163293 0.510777 -0.844063 0.549020 0.928571
  2 6.036297 -6.950683 -1.448825 0.487277 0.179691 -0.854560 0.533333 0.928571
  2 6.015045 -7.191454 -1.513459 0.520293 0.381995 -0.763790 0.549020 0.936508
body.bmp
  2 5.985072 -7.178782 -1.519864 -0.163293 0.510777 -0.844063 0.549020 0.928571
  2 6.026075 -6.939912 -1.457739 -0.458093 0.180497 -0.870386 0.533333 0.928571
  2 6.036297 -6.950683 -1.448825 0.487277 0.179691 -0.854560 0.533333 0.928571
body.bmp
  2 6.133122 -6.944662 -2.046143 0.480188 -0.022499 0.876877 0.141176 0.984127
  2 5.770510 -6.779057 -1.598496 0.435810 0.611814 0.660116 0.129412 0.801587
  2 5.751725 -6.887467 -1.584553 0.480188 -0.022499 0.876877 0.141176 0.801587
body.bmp
  2 5.751725 -6.887467 -1.584553 0.480188 -0.022499 0.876877 0.141176 0.801587
  2 5.770510 -6.779057 -1.598496 0.435810 0.611814 0.660116 0.129412 0.801587
  2 5.573969 -6.870364 -1.561966 -0.262992 -0.015699 0.964670 0.141176 0.722222
body.bmp
  2 5.770510 -6.779057 -1.598496 0.435810 0.611814 0.660116 0.129412 0.801587
  2 5.583226 -6.770826 -1.564484 -0.133404 0.627719 0.766924 0.129412 0.722222
  2 5.573969 -6.870364 -1.561966 -0.262992 -0.015699 0.964670 0.141176 0.722222
body.bmp
  2 5.573969 -6.870364 -1.561966 -0.262992 -0.015699 0.964670 0.141176 0.722222
  2 5.583226 -6.770826 -1.564484 -0.133404 0.627719 0.766924 0.129412 0.722222
  2 5.125796 -6.727483 -1.929833 -0.612489 0.699388 0.368393 0.129412 0.539683
body.bmp
  2 4.897314 -6.759153 -3.624263 -0.590197 0.621896 -0.514697 0.000000 0.007937
  2 5.125796 -6.727483 -1.929833 -0.612489 0.699388 0.368393 0.000000 0.539683
  2 5.932953 -6.859051 -3.765940 -0.024600 0.694486 -0.719086 0.129412 0.007937
body.bmp
  2 5.932953 -6.859051 -3.765940 -0.024600 0.694486 -0.719086 0.129412 0.007937
  2 5.125796 -6.727483 -1.929833 -0.612489 0.699388 0.368393 0.000000 0.539683
  2 6.143305 -6.835169 -2.048913 0.506186 0.793477 0.337890 0.129412 0.539683
body.bmp
  2 5.125796 -6.727483 -1.929833 -0.612489 0.699388 0.368393 0.000000 0.539683
  2 5.558074 -6.767544 -1.924285 0.306784 0.874155 0.376480 0.054902 0.571429
  2 6.143305 -6.835169 -2.048913 0.506186 0.793477 0.337890 0.129412 0.539683
body.bmp
  2 5.780773 -6.906171 -1.819939 -0.987534 0.095003 0.125504 0.137255 0.587302
  2 5.730740 -6.897531 -1.662388 -0.627478 0.038699 -0.777672 0.137255 0.619048
  2 5.731047 -6.787088 -1.663904 -0.255691 0.863170 -0.435385 0.129412 0.619048
body.bmp
  2 5.731047 -6.787088 -1.663904 -0.255691 0.863170 -0.435385 0.129412 0.619048
  2 5.730740 -6.897531 -1.662388 -0.627478 0.038699 -0.777672 0.137255 0.619048
  2 5.592445 -6.763965 -1.656506 0.042702 0.929037 -0.367515 0.129412 0.619048
body.bmp
  2 5.730740 -6.897531 -1.662388 -0.627478 0.038699 -0.777672 0.137255 0.619048
  2 5.583535 -6.873325 -1.643817 -0.127297 -0.013300 -0.991775 0.137255 0.619048
  2 5.592445 -6.763965 -1.656506 0.042702 0.929037 -0.367515 0.129412 0.619048
body.bmp
  2 5.259504 -7.147359 -1.356574 -0.967203 0.222401 -0.122700 0.533333 0.952381
  2 5.276443 -7.480819 -1.767691 -0.322787 0.494581 -0.806969 0.592157 0.928571
  2 5.177998 -7.469307 -1.674546 -0.910122 0.296907 -0.289007 0.592157 0.960317
body.bmp
  2 5.177998 -7.469307 -1.674546 -0.910122 0.296907 -0.289007 0.592157 0.960317
  2 5.276443 -7.480819 -1.767691 -0.322787 0.494581 -0.806969 0.592157 0.928571
  2 5.115792 -8.924905 -1.858848 -0.682826 -0.107504 -0.722628 0.639216 0.928571
body.bmp
  2 5.104813 -6.845979 -1.925556 -0.767392 0.087399 0.635193 0.137255 0.539683
  2 4.470131 -13.684160 -1.742615 -0.608301 0.076600 0.790001 0.988235 0.539683
  2 6.133122 -6.944662 -2.046143 0.480188 -0.022499 0.876877 0.137255 0.880952
body.bmp
  2 6.133122 -6.944662 -2.046143 0.480188 -0.022499 0.876877 0.137255 0.880952
  2 4.470131 -13.684160 -1.742615 -0.608301 0.076600 0.790001 0.988235 0.539683
  2 5.496820 -13.773154 -1.883289 0.127297 0.013300 0.991775 0.988235 0.880952
body.bmp
  2 5.573969 -6.870364 -1.561966 -0.262992 -0.015699 0.964670 0.141176 0.722222
  2 5.125796 -6.727483 -1.929833 -0.612489 0.699388 0.368393 0.129412 0.539683
  2 5.104813 -6.845979 -1.925556 -0.767392 0.087399 0.635193 0.141176 0.539683
body.bmp
  2 5.104813 -6.845979 -1.925556 -0.767392 0.087399 0.635193 0.141176 0.539683
  2 5.125796 -6.727483 -1.929833 -0.612489 0.699388 0.368393 0.129412 0.539683
  2 4.897314 -6.759153 -3.624263 -0.590197 0.621896 -0.514697 0.129412 0.000000
body.bmp
  2 5.941328 -7.250327 -1.331800 -0.687084 -0.272394 0.673585 0.549020 0.984127
  2 5.984027 -6.940298 -1.230513 -0.587392 0.004700 0.809289 0.533333 0.992063
  2 5.947728 -6.940121 -1.356934 -0.985880 0.110298 -0.125997 0.533333 0.960317
body.bmp
  2 5.947728 -6.940121 -1.356934 -0.985880 0.110298 -0.125997 0.533333 0.960317
  2 5.984027 -6.940298 -1.230513 -0.587392 0.004700 0.809289 0.533333 0.992063
  2 5.964274 -6.721534 -1.392228 -0.994921 0.021200 -0.098402 0.517647 0.960317
body.bmp
  2 5.454577 -6.888593 -1.132998 0.045998 -0.077097 0.995962 0.525490 1.000000
  2 5.475405 -6.610415 -1.179721 0.149294 0.377086 0.914066 0.517647 1.000000
  2 5.366776 -6.599963 -1.165917 -0.443603 0.365503 0.818306 0.517647 1.000000
body.bmp
  2 5.366776 -6.599963 -1.165917 -0.443603 0.365503 0.818306 0.517647 1.000000
  2 5.475405 -6.610415 -1.179721 0.149294 0.377086 0.914066 0.517647 1.000000
  2 5.475981 -6.373775 -1.354367 0.153595 0.742077 0.652480 0.478431 1.000000
body.bmp
  2 5.573997 -9.329006 -1.851763 -0.456903 0.582103 -0.672604 0.988235 0.928571
  2 5.269134 -9.299419 -1.802945 -0.386011 0.103003 -0.916726 0.894118 0.928571
  2 5.583910 -9.237278 -1.763515 -0.623799 0.781398 -0.017100 0.988235 0.960317
body.bmp
  2 5.215780 -8.922442 -1.791052 0.914883 0.343394 0.212296 0.639216 0.960317
  2 5.200504 -8.927954 -1.668022 0.445987 0.138396 0.884275 0.639216 1.000000
  2 5.305048 -9.277943 -1.616266 0.124302 0.284404 0.950612 0.894118 1.000000
body.bmp
  2 5.129071 -6.293586 -4.224876 0.092103 0.995330 -0.028901 0.176471 1.000000
  2 5.021368 -6.273181 -4.211325 -0.478307 0.876913 0.047401 0.176471 1.000000
  2 5.349760 -6.227150 -1.582116 -0.438986 0.858373 0.265492 0.439216 1.000000
body.bmp
  2 5.290249 -7.207260 -1.228641 -0.600505 -0.328103 0.729206 0.537255 0.992063
  2 5.177998 -7.469307 -1.674546 -0.910122 0.296907 -0.289007 0.592157 0.960317
  2 5.227221 -7.531240 -1.559041 -0.616110 -0.273605 0.738613 0.592157 1.000000
body.bmp
  2 5.250966 -9.403808 -1.627808 -0.530476 -0.216590 0.819563 0.894118 1.000000
  2 5.087825 -8.947497 -1.663381 -0.546305 -0.088401 0.832908 0.643137 1.000000
  2 5.223616 -9.414534 -1.755232 -0.912674 -0.356690 -0.199494 0.894118 0.968254
body.bmp
  2 5.289015 -13.796770 -3.580480 -0.127297 -0.013300 -0.991775 0.988235 0.000000
  2 4.259780 -13.708042 -3.459642 -0.788286 0.057799 -0.612589 0.988235 0.000000
  2 5.932953 -6.859051 -3.765940 -0.024600 0.694486 -0.719086 0.129412 0.000000
body.bmp
  2 4.751231 -10.334895 -2.146113 -0.903717 0.382107 -0.193104 0.572549 0.444444
  2 4.856142 -9.099665 -2.176088 -0.977113 0.085901 -0.194603 0.423529 0.444444
  2 5.636642 -9.184547 -2.265051 -0.788286 0.057799 -0.612589 0.423529 0.444444
body.bmp
  2 6.143305 -6.835169 -2.048913 0.506186 0.793477 0.337890 0.129412 0.992063
  2 5.770510 -6.779057 -1.598496 0.435810 0.611814 0.660116 0.129412 0.801587
  2 6.133122 -6.944662 -2.046143 0.480188 -0.022499 0.876877 0.141176 0.984127
body.bmp
  2 5.505188 -6.869612 -1.785055 0.929845 -0.077404 0.359717 0.137255 0.587302
  2 5.559040 -6.877854 -1.912852 0.615699 -0.037300 0.787098 0.137255 0.555556
  2 5.558074 -6.767544 -1.924285 0.306784 0.874155 0.376480 0.129412 0.555556
body.bmp
  2 5.305948 -13.743568 -1.415536 -0.608301 0.076600 0.790001 0.635294 0.301587
  2 5.376001 -13.740265 -1.424572 0.127297 0.013300 0.991775 0.607843 0.253968
  2 5.333719 -13.444951 -1.423092 -0.529487 0.279993 0.800780 0.486275 0.301587
buttstock.bmp
  2 4.831931 -13.697961 -1.355304 0.127297 0.013300 0.991775 0.629921 0.301587
  2 4.788376 -13.402780 -1.363741 -0.531218 0.274810 0.801428 0.496063 0.253968
  2 4.763729 -13.681356 -1.346771 -0.614032 0.055303 0.787341 0.598425 0.253968
buttstock.bmp
  2 4.763729 -13.681356 -1.346771 -0.614032 0.055303 0.787341 0.598425 0.253968
  2 4.788376 -13.402780 -1.363741 -0.531218 0.274810 0.801428 0.496063 0.253968
  2 4.717593 -13.688138 -1.784408 -0.788286 0.057799 -0.612589 0.598425 0.007937
buttstock.bmp
  2 4.788376 -13.402780 -1.363741 -0.531218 0.274810 0.801428 0.496063 0.253968
  2 4.793812 -13.086774 -1.560238 -0.490708 0.749412 0.444507 0.377953 0.142857
  2 4.717593 -13.688138 -1.784408 -0.788286 0.057799 -0.612589 0.598425 0.007937
buttstock.bmp
  2 4.717593 -13.688138 -1.784408 -0.788286 0.057799 -0.612589 0.598425 0.007937
  2 4.793812 -13.086774 -1.560238 -0.490708 0.749412 0.444507 0.377953 0.142857
  2 4.771862 -13.091038 -1.809437 -0.590197 0.621896 -0.514697 0.377953 0.007937
buttstock.bmp
  2 4.793812 -13.086774 -1.560238 -0.490708 0.749412 0.444507 0.377953 0.142857
  2 4.863865 -13.083471 -1.569274 0.143097 0.873781 0.464790 0.346457 0.174603
  2 4.771862 -13.091038 -1.809437 -0.590197 0.621896 -0.514697 0.377953 0.007937
buttstock.bmp
  2 4.771862 -13.091038 -1.809437 -0.590197 0.621896 -0.514697 0.377953 0.007937
  2 4.863865 -13.083471 -1.569274 0.143097 0.873781 0.464790 0.346457 0.174603
  2 4.843188 -13.087603 -1.808555 -0.024500 0.694488 -0.719087 0.346457 0.007937
buttstock.bmp
  4 5.403123 -12.082160 -1.863519 0.549681 0.831370 -0.081697 0.086614 0.007937
  4 5.159324 -11.918102 -1.834419 0.084403 0.996140 -0.024101 0.000000 0.007937
  4 5.183819 -11.913573 -1.565385 0.144697 0.795083 0.588987 0.000000 0.214286
buttstock.bmp
  4 5.183819 -11.913573 -1.565385 0.144697 0.795083 0.588987 0.000000 0.214286
  4 5.159324 -11.918102 -1.834419 0.084403 0.996140 -0.024101 0.000000 0.007937
  4 4.944652 -12.021120 -1.533249 -0.561092 0.472293 0.679790 0.086614 0.214286
buttstock.bmp
  4 5.159324 -11.918102 -1.834419 0.084403 0.996140 -0.024101 0.000000 0.007937
  4 4.900406 -12.023749 -1.799774 -0.805183 0.585287 0.095498 0.086614 0.007937
  4 4.944652 -12.021120 -1.533249 -0.561092 0.472293 0.679790 0.086614 0.214286
buttstock.bmp
  4 4.944652 -12.021120 -1.533249 -0.561092 0.472293 0.679790 0.086614 0.214286
  4 4.900406 -12.023749 -1.799774 -0.805183 0.585287 0.095498 0.086614 0.007937
  4 4.915608 -12.319869 -1.535612 -0.493306 0.067801 0.867210 0.188976 0.214286
buttstock.bmp
  4 4.900406 -12.023749 -1.799774 -0.805183 0.585287 0.095498 0.086614 0.007937
  4 4.870436 -12.332451 -1.801884 -0.987534 0.095003 0.125504 0.188976 0.007937
  4 4.915608 -12.319869 -1.535612 -0.493306 0.067801 0.867210 0.188976 0.214286
buttstock.bmp
  2 4.994946 -6.506507 -3.206606 -0.475204 0.448804 0.756807 0.913386 1.000000
  2 4.980059 -6.746615 -3.221652 -0.614032 0.055303 0.787341 0.984252 1.000000
  2 5.073949 -6.514108 -3.216645 0.156201 0.492105 0.856408 0.913386 0.960317
buttstock.bmp
  2 5.073949 -6.514108 -3.216645 0.156201 0.492105 0.856408 0.913386 0.960317
  2 4.980059 -6.746615 -3.221652 -0.614032 0.055303 0.787341 0.984252 1.000000
  2 5.066467 -6.674585 -3.233705 0.184697 0.295295 0.937384 0.952756 0.960317
buttstock.bmp
  2 4.980059 -6.746615 -3.221652 -0.614032 0.055303 0.787341 0.984252 1.000000
  2 5.966668 -6.851584 -3.346884 0.127297 0.013300 0.991775 0.984252 0.547619
  2 5.066467 -6.674585 -3.233705 0.184697 0.295295 0.937384 0.952756 0.960317
buttstock.bmp
  2 5.066467 -6.674585 -3.233705 0.184697 0.295295 0.937384 0.952756 0.960317
  2 5.966668 -6.851584 -3.346884 0.127297 0.013300 0.991775 0.984252 0.547619
  2 5.907145 -6.755215 -3.330449 -0.203799 0.313398 0.927495 0.952756 0.579365
buttstock.bmp
  2 5.966668 -6.851584 -3.346884 0.127297 0.013300 0.991775 0.984252 0.547619
  2 5.912081 -6.595003 -3.333224 -0.475204 0.448804 0.756807 0.913386 0.579365
  2 5.907145 -6.755215 -3.330449 -0.203799 0.313398 0.927495 0.952756 0.579365
buttstock.bmp
  6 4.738100 -10.328231 -2.767081 -0.987534 0.095003 0.125504 0.472441 0.611111
  6 4.818645 -10.329702 -2.132093 -0.608301 0.076600 0.790001 0.472441 0.968254
  6 4.864613 -9.074993 -2.800070 -0.863418 0.493610 0.104202 0.000000 0.611111
buttstock.bmp
  6 4.864613 -9.074993 -2.800070 -0.863418 0.493610 0.104202 0.000000 0.611111
  6 4.818645 -10.329702 -2.132093 -0.608301 0.076600 0.790001 0.472441 0.968254
  6 4.947010 -9.056556 -2.165585 -0.443204 0.637206 0.630506 0.000000 0.968254
buttstock.bmp
  6 4.818645 -10.329702 -2.132093 -0.608301 0.076600 0.790001 0.472441 0.968254
  6 5.363062 -10.381827 -2.191192 0.127297 0.013300 0.991775 0.472441 0.968254
  6 4.947010 -9.056556 -2.165585 -0.443204 0.637206 0.630506 0.000000 0.968254
buttstock.bmp
  6 4.947010 -9.056556 -2.165585 -0.443204 0.637206 0.630506 0.000000 0.968254
  6 5.363062 -10.381827 -2.191192 0.127297 0.013300 0.991775 0.472441 0.968254
  6 5.481552 -9.107731 -2.223429 0.156195 0.492686 0.856075 0.000000 0.968254
buttstock.bmp
  2 5.066467 -6.674585 -3.233705 0.184697 0.295295 0.937384 0.881890 1.000000
  2 5.907145 -6.755215 -3.330449 -0.203799 0.313398 0.927495 0.881890 0.626984
  2 4.916255 -6.690226 -4.404001 -0.003000 0.331008 -0.943623 0.519685 1.000000
buttstock.bmp
  2 4.916255 -6.690226 -4.404001 -0.003000 0.331008 -0.943623 0.519685 1.000000
  2 5.907145 -6.755215 -3.330449 -0.203799 0.313398 0.927495 0.881890 0.626984
  2 5.757858 -6.760903 -4.500997 -0.439906 0.352404 -0.826011 0.519685 0.626984
buttstock.bmp
  2 5.907145 -6.755215 -3.330449 -0.203799 0.313398 0.927495 0.881890 0.626984
  2 5.857838 -6.119613 -4.199747 -0.528223 0.848237 0.038402 0.622047 0.341270
  2 5.757858 -6.760903 -4.500997 -0.439906 0.352404 -0.826011 0.519685 0.626984
buttstock.bmp
  2 5.757858 -6.760903 -4.500997 -0.439906 0.352404 -0.826011 0.519685 0.626984
  2 5.857838 -6.119613 -4.199747 -0.528223 0.848237 0.038402 0.622047 0.341270
  2 5.788366 -6.312160 -4.520993 -0.661401 0.423101 -0.619301 0.519685 0.428571
buttstock.bmp
  2 4.828920 -6.772210 -4.391695 -0.761309 0.081801 -0.643208 0.984252 0.023810
  2 4.980059 -6.746615 -3.221652 -0.614032 0.055303 0.787341 0.984252 0.547619
  2 4.868107 -6.243705 -4.403789 -0.661401 0.423101 -0.619301 0.826772 0.023810
buttstock.bmp
  2 4.868107 -6.243705 -4.403789 -0.661401 0.423101 -0.619301 0.826772 0.023810
  2 4.980059 -6.746615 -3.221652 -0.614032 0.055303 0.787341 0.984252 0.547619
  2 4.940356 -6.021295 -4.083298 -0.528223 0.848237 0.038402 0.755906 0.166667
buttstock.bmp
  2 4.980059 -6.746615 -3.221652 -0.614032 0.055303 0.787341 0.984252 0.547619
  2 4.994946 -6.506507 -3.206606 -0.475204 0.448804 0.756807 0.913386 0.547619
  2 4.940356 -6.021295 -4.083298 -0.528223 0.848237 0.038402 0.755906 0.166667
buttstock.bmp
  4 4.915608 -12.319869 -1.535612 -0.493306 0.067801 0.867210 0.062992 0.222222
  4 5.131054 -12.480944 -1.551029 0.127297 0.013300 0.991775 0.000000 0.388889
  4 5.183819 -11.913573 -1.565385 0.144697 0.795083 0.588987 0.275591 0.388889
buttstock.bmp
  4 5.183819 -11.913573 -1.565385 0.144697 0.795083 0.588987 0.275591 0.388889
  4 5.131054 -12.480944 -1.551029 0.127297 0.013300 0.991775 0.000000 0.388889
  4 5.437494 -12.078581 -1.595740 0.434103 0.513903 0.739904 0.212598 0.579365
buttstock.bmp
  4 5.131054 -12.480944 -1.551029 0.127297 0.013300 0.991775 0.000000 0.388889
  4 5.398575 -12.376380 -1.596847 0.127297 0.013300 0.991775 0.062992 0.579365
  4 5.437494 -12.078581 -1.595740 0.434103 0.513903 0.739904 0.212598 0.579365
buttstock.bmp
  2 4.831931 -13.697961 -1.355304 0.127297 0.013300 0.991775 0.629921 0.301587
  2 4.866453 -13.420335 -1.373528 0.147503 0.280606 0.948421 0.480315 0.301587
  2 4.788376 -13.402780 -1.363741 -0.531218 0.274810 0.801428 0.496063 0.253968
buttstock.bmp
  2 4.788376 -13.402780 -1.363741 -0.531218 0.274810 0.801428 0.496063 0.253968
  2 4.866453 -13.420335 -1.373528 0.147503 0.280606 0.948421 0.480315 0.301587
  2 4.793812 -13.086774 -1.560238 -0.490708 0.749412 0.444507 0.377953 0.142857
buttstock.bmp
  2 4.866453 -13.420335 -1.373528 0.147503 0.280606 0.948421 0.480315 0.301587
  2 4.863865 -13.083471 -1.569274 0.143097 0.873781 0.464790 0.346457 0.174603
  2 4.793812 -13.086774 -1.560238 -0.490708 0.749412 0.444507 0.377953 0.142857
buttstock.bmp
  2 5.991084 -6.602604 -3.343263 0.156201 0.492105 0.856408 0.913386 0.547619
  2 5.936841 -6.127214 -4.209786 0.091097 0.995166 -0.036699 0.755906 0.166667
  2 5.857838 -6.119613 -4.199747 -0.528223 0.848237 0.038402 0.724409 0.166667
buttstock.bmp
  2 5.857838 -6.119613 -4.199747 -0.528223 0.848237 0.038402 0.724409 0.166667
  2 5.936841 -6.127214 -4.209786 0.091097 0.995166 -0.036699 0.755906 0.166667
  2 5.788366 -6.312160 -4.520993 -0.661401 0.423101 -0.619301 0.787402 0.015873
buttstock.bmp
  2 5.936841 -6.127214 -4.209786 0.091097 0.995166 -0.036699 0.755906 0.166667
  2 5.866096 -6.319894 -4.540949 -0.065498 0.476983 -0.876469 0.818898 0.015873
  2 5.788366 -6.312160 -4.520993 -0.661401 0.423101 -0.619301 0.787402 0.015873
buttstock.bmp
  2 5.825984 -6.858354 -4.528604 -0.176704 0.043101 -0.983320 0.000000 0.000000
  2 4.828920 -6.772210 -4.391695 -0.761309 0.081801 -0.643208 0.000000 0.000000
  2 4.916255 -6.690226 -4.404001 -0.003000 0.331008 -0.943623 0.000000 0.000000
buttstock.bmp
  2 4.916255 -6.690226 -4.404001 -0.003000 0.331008 -0.943623 0.000000 0.000000
  2 4.828920 -6.772210 -4.391695 -0.761309 0.081801 -0.643208 0.000000 0.000000
  2 4.945837 -6.251438 -4.423745 -0.065498 0.476983 -0.876469 0.000000 0.000000
buttstock.bmp
  2 4.828920 -6.772210 -4.391695 -0.761309 0.081801 -0.643208 0.000000 0.000000
  2 4.868107 -6.243705 -4.403789 -0.661401 0.423101 -0.619301 0.000000 0.000000
  2 4.945837 -6.251438 -4.423745 -0.065498 0.476983 -0.876469 0.000000 0.000000
buttstock.bmp
  2 5.073949 -6.514108 -3.216645 0.156201 0.492105 0.856408 0.913386 0.547619
  2 5.017160 -6.038983 -4.103003 0.091097 0.995166 -0.036699 0.755906 0.166667
  2 4.940356 -6.021295 -4.083298 -0.528223 0.848237 0.038402 0.724409 0.166667
buttstock.bmp
  2 4.940356 -6.021295 -4.083298 -0.528223 0.848237 0.038402 0.724409 0.166667
  2 5.017160 -6.038983 -4.103003 0.091097 0.995166 -0.036699 0.755906 0.166667
  2 4.868107 -6.243705 -4.403789 -0.661401 0.423101 -0.619301 0.787402 0.015873
buttstock.bmp
  2 5.017160 -6.038983 -4.103003 0.091097 0.995166 -0.036699 0.755906 0.166667
  2 4.945837 -6.251438 -4.423745 -0.065498 0.476983 -0.876469 0.818898 0.015873
  2 4.868107 -6.243705 -4.403789 -0.661401 0.423101 -0.619301 0.787402 0.015873
buttstock.bmp
  2 4.774647 -13.703926 -1.801603 -0.127297 -0.013300 -0.991775 0.598425 0.007937
  2 4.717593 -13.688138 -1.784408 -0.788286 0.057799 -0.612589 0.598425 0.007937
  2 4.843188 -13.087603 -1.808555 -0.024500 0.694488 -0.719087 0.377953 0.007937
buttstock.bmp
  2 4.843188 -13.087603 -1.808555 -0.024500 0.694488 -0.719087 0.377953 0.007937
  2 4.717593 -13.688138 -1.784408 -0.788286 0.057799 -0.612589 0.598425 0.007937
  2 4.771862 -13.091038 -1.809437 -0.590197 0.621896 -0.514697 0.377953 0.007937
buttstock.bmp
  2 5.866096 -6.319894 -4.540949 -0.065498 0.476983 -0.876469 0.000000 0.738095
  2 5.825984 -6.858354 -4.528604 -0.176704 0.043101 -0.983320 0.000000 0.301587
  2 5.788366 -6.312160 -4.520993 -0.661401 0.423101 -0.619301 0.000000 0.484127
buttstock.bmp
  2 5.788366 -6.312160 -4.520993 -0.661401 0.423101 -0.619301 0.000000 0.484127
  2 5.825984 -6.858354 -4.528604 -0.176704 0.043101 -0.983320 0.000000 0.301587
  2 5.757858 -6.760903 -4.500997 -0.439906 0.352404 -0.826011 0.000000 0.000000
buttstock.bmp
  4 5.183819 -11.913573 -1.565385 0.144697 0.795083 0.588987 0.000000 0.214286
  4 5.437494 -12.078581 -1.595740 0.434103 0.513903 0.739904 0.086614 0.214286
  4 5.403123 -12.082160 -1.863519 0.549681 0.831370 -0.081697 0.086614 0.007937
buttstock.bmp
  6 4.947010 -9.056556 -2.165585 -0.443204 0.637206 0.630506 0.000000 0.968254
  6 5.481552 -9.107731 -2.223429 0.156195 0.492686 0.856075 0.000000 0.968254
  6 4.864613 -9.074993 -2.800070 -0.863418 0.493610 0.104202 0.000000 0.611111
buttstock.bmp
  2 5.912081 -6.595003 -3.333224 -0.475204 0.448804 0.756807 0.881890 0.547619
  2 5.991084 -6.602604 -3.343263 0.156201 0.492105 0.856408 0.913386 0.547619
  2 5.857838 -6.119613 -4.199747 -0.528223 0.848237 0.038402 0.724409 0.166667
buttstock.bmp
  2 5.757858 -6.760903 -4.500997 -0.439906 0.352404 -0.826011 0.000000 0.000000
  2 5.825984 -6.858354 -4.528604 -0.176704 0.043101 -0.983320 0.000000 0.000000
  2 4.916255 -6.690226 -4.404001 -0.003000 0.331008 -0.943623 0.000000 0.000000
buttstock.bmp
  2 4.940356 -6.021295 -4.083298 -0.528223 0.848237 0.038402 0.724409 0.166667
  2 4.994946 -6.506507 -3.206606 -0.475204 0.448804 0.756807 0.881890 0.547619
  2 5.073949 -6.514108 -3.216645 0.156201 0.492105 0.856408 0.913386 0.547619
buttstock.bmp
  2 5.991084 -6.602604 -3.343263 0.156201 0.492105 0.856408 0.913386 0.547619
  2 5.912081 -6.595003 -3.333224 -0.475204 0.448804 0.756807 0.913386 0.579365
  2 5.966668 -6.851584 -3.346884 0.127297 0.013300 0.991775 0.984252 0.547619
buttstock.bmp
  2 5.857838 -6.119613 -4.199747 -0.528223 0.848237 0.038402 0.000000 0.484127
  2 5.907145 -6.755215 -3.330449 -0.203799 0.313398 0.927495 0.000000 0.000000
  2 5.912081 -6.595003 -3.333224 -0.475204 0.448804 0.756807 0.000000 0.634921
buttstock.bmp
  4 4.944652 -12.021120 -1.533249 -0.561092 0.472293 0.679790 0.212598 0.222222
  4 4.915608 -12.319869 -1.535612 -0.493306 0.067801 0.867210 0.062992 0.222222
  4 5.183819 -11.913573 -1.565385 0.144697 0.795083 0.588987 0.275591 0.388889
end
