// Created by Crowbar 0.71

$modelname "weapons/tfa_cso/w_cannonexdragon_v6.mdl"

$bodygroup "studio"
{
	studio "p_dragon"
}

$CDMaterials "models\tfa_cso\entities\cannonex_v6\"

$attachment 0 "Bone09" 0 0 0

$collisionmodel "p_dragon.smd"
{
	$mass 9
}

$sequence "idle" {
	"cannonexdragon_v6_anims\idle"
	{ event 5005 1 "Cannonex.Dragon_Idle" }
	fps 30
	loop
}
