version 1
nodes
  0 "root" -1
  1 "Bone01" 0
  2 "Bone_L_Upper" 1
  3 "Bone_Lefthand" 1
  4 "Bone13" 3
  5 "Bone14" 4
  6 "Bone15" 5
  7 "Bone17" 3
  8 "Bone18" 7
  9 "Bone19" 8
  10 "Bone21" 3
  11 "Bone22" 10
  12 "Bone23" 11
  13 "Bone09" 3
  14 "Bone10" 13
  15 "Bone11" 14
  16 "Bone05" 3
  17 "Bone06" 16
  18 "Bone07" 17
  19 "Bone_Se_Hand-L" 3
  20 "Bone04" 0
  21 "Bone_Righthand" 20
  22 "Bone39" 21
  23 "Bone40" 22
  24 "Bone41" 23
  25 "Bone35" 21
  26 "Bone36" 25
  27 "Bone37" 26
  28 "Bone31" 21
  29 "Bone32" 28
  30 "Bone33" 29
  31 "Bone43" 21
  32 "Bone44" 31
  33 "Bone45" 32
  34 "Bone27" 21
  35 "Bone28" 34
  36 "Bone29" 35
  37 "Bone_Se_Hand-R" 21
  38 "Bone_R_Upper" 20
  39 "oicw_root" 3
  40 "oicw_magazine01" 39
  41 "oicw_bullet" 40
  42 "oicw_grenade" 39
  43 "oicw_cover" 39
  44 "oicw_grenade_handle" 39
  45 "oicw_tirriger" 39
  46 "oicw_magazine02" 39
  47 "oicw_grenade01" 39
  48 "oicw_bullet01" 39
end
skeleton
  time 0
    0 2.305912 -5.888163 -14.331849 -0.257365 0.087068 -0.019360
    1 12.036749 2.149832 1.274495 0.937615 -2.029550 -1.288375
    2 1.257180 8.762585 -0.153713 -1.570562 0.002683 -1.566807
    3 -0.071921 -8.498736 -0.104134 0.066996 0.259612 -0.400262
    4 -0.488518 -2.755602 -0.228260 -0.975764 -0.012654 -0.479338
    5 0.039887 -1.479790 0.029854 -1.633593 0.000000 0.000001
    6 0.028786 -1.075731 -0.023109 -1.079768 0.000000 0.000000
    7 0.250027 -2.902699 -0.238396 -0.786122 -0.041775 -0.449047
    8 -0.049759 -1.680544 0.100479 -1.700938 0.000000 -0.000002
    9 -0.034142 -1.148312 0.084782 -1.417600 0.000000 0.000000
    10 1.207774 -3.121791 -0.090302 0.071211 -0.020967 -0.223811
    11 -0.033420 -1.397129 -0.011257 -1.086866 -0.058629 -0.003740
    12 -0.022360 -0.957436 0.018784 -0.906350 0.000000 0.000000
    13 -1.180681 -2.456434 -0.021979 -1.018798 0.181450 -0.662478
    14 -0.024967 -1.123934 0.017597 -1.658884 0.000000 0.000001
    15 -0.020057 -0.890968 0.010090 -0.829947 0.000000 0.000000
    16 0.583510 -1.197277 0.509608 0.061046 -0.873305 -0.553179
    17 1.535927 0.010246 0.005009 0.009716 -0.009096 -1.042668
    18 1.100771 0.004527 -0.010679 -0.014421 0.007404 -0.920566
    19 -0.059540 -0.081521 -0.101365 3.404069 6.051463 -1.412521
    20 -0.380147 -8.528235 -1.848996 -1.997582 -5.467784 -1.226165
    21 0.096944 -8.450418 -0.009365 0.534460 -0.293218 0.541156
    22 0.447953 -2.798986 -0.200443 -1.112446 -0.066171 0.229069
    23 -0.032909 -1.480204 0.004940 -1.347419 0.000000 0.000002
    24 -0.027022 -1.076920 -0.020210 -0.400303 0.000000 0.000000
    25 -0.249534 -2.846964 -0.174213 -0.394285 -0.072967 0.301114
    26 0.043235 -1.683941 0.096012 -1.779835 0.002823 -0.000167
    27 0.031729 -1.160830 0.058838 -0.380122 0.000642 0.008372
    28 -0.963866 -2.785145 -0.085350 0.051258 -0.124848 0.206177
    29 0.028479 -1.403067 0.006271 -1.421551 0.000000 0.000000
    30 0.021413 -0.957781 0.020046 -0.392787 0.000000 0.000000
    31 1.164475 -2.543940 -0.170330 -0.861563 -0.248888 0.129694
    32 0.024032 -1.129042 0.017807 -1.147963 0.000000 0.000001
    33 0.014898 -0.883989 -0.019848 -0.637535 0.000000 0.000000
    34 -0.586770 -1.131660 0.329071 -0.348555 -0.063554 -2.765910
    35 1.468146 0.148527 0.012942 -0.030524 -0.035190 1.138684
    36 1.117947 0.048424 -0.005766 0.018273 0.030590 0.216814
    37 -0.041740 -0.217170 -0.180921 0.410722 0.347940 1.237494
    38 -1.393470 8.839177 -0.239433 1.580804 -0.005023 -1.566847
    39 1.054939 -3.636106 0.874731 -0.016071 -0.000409 -3.923814
    40 -5.456142 2.769706 0.000000 0.000001 0.000000 0.804627
    41 -1.107399 -0.076477 0.744081 0.000000 0.000001 1.570796
    42 8.425154 -1.073555 9.097933 1.655723 1.354403 -0.685587
    43 -6.622900 1.902025 0.830027 0.000001 -0.188316 0.804626
    44 -7.386365 6.898025 -0.000001 0.000000 0.000000 2.377264
    45 -1.019399 0.526195 0.000000 0.000000 0.000000 0.672587
    46 34.806804 10.840265 6.867215 2.918510 0.013088 0.532698
    47 8.423338 -1.074370 9.097933 1.655738 1.354363 -0.685587
    48 21.285101 34.265373 -4.807539 2.336966 1.570796 0.000000
  time 1
    0 2.305912 -2.415401 -15.218595 -0.234611 0.087476 -0.017405
    1 12.036749 2.149832 1.274495 0.937615 -2.029550 -1.288375
    2 1.257180 8.762585 -0.153713 -1.570562 0.002683 -1.566807
    3 -0.071921 -8.498736 -0.104134 0.066996 0.259612 -0.400262
    4 -0.488518 -2.755602 -0.228260 -0.975731 -0.012654 -0.479338
    5 0.039887 -1.479790 0.029854 -1.633593 0.000000 0.000001
    6 0.028786 -1.075731 -0.023109 -1.079768 0.000000 0.000000
    7 0.250027 -2.902699 -0.238396 -0.786122 -0.041775 -0.449047
    8 -0.049759 -1.680544 0.100479 -1.700938 0.000000 -0.000002
    9 -0.034142 -1.148312 0.084782 -1.417600 0.000000 0.000000
    10 1.207774 -3.121791 -0.090302 0.071211 -0.020967 -0.223811
    11 -0.033420 -1.397129 -0.011257 -1.086866 -0.058629 -0.003740
    12 -0.022360 -0.957436 0.018784 -0.906350 0.000000 0.000000
    13 -1.180681 -2.456434 -0.021979 -1.018798 0.181450 -0.662478
    14 -0.024967 -1.123934 0.017597 -1.658884 0.000000 0.000001
    15 -0.020057 -0.890968 0.010090 -0.829947 0.000000 0.000000
    16 0.583510 -1.197277 0.509608 0.061046 -0.873305 -0.553179
    17 1.535927 0.010246 0.005009 0.009716 -0.009096 -1.042668
    18 1.100771 0.004527 -0.010679 -0.014421 0.007404 -0.920566
    19 -0.059540 -0.081521 -0.101365 3.404069 6.051553 -1.412612
    20 -0.380147 -8.528235 -1.848996 -1.997582 -5.467784 -1.226165
    21 0.096944 -8.450418 -0.009365 0.534460 -0.293218 0.541156
    22 0.447953 -2.798986 -0.200443 -1.112446 -0.066171 0.229069
    23 -0.032909 -1.480204 0.004940 -1.347419 0.000000 0.000002
    24 -0.027022 -1.076920 -0.020210 -0.400303 0.000000 0.000000
    25 -0.249534 -2.846964 -0.174213 -0.394285 -0.072967 0.301114
    26 0.043235 -1.683941 0.096012 -1.779835 0.002823 -0.000167
    27 0.031729 -1.160830 0.058838 -0.380122 0.000642 0.008372
    28 -0.963866 -2.785145 -0.085350 0.051258 -0.124848 0.206177
    29 0.028479 -1.403067 0.006271 -1.421551 0.000000 0.000000
    30 0.021413 -0.957781 0.020046 -0.392787 0.000000 0.000000
    31 1.164475 -2.543940 -0.170330 -0.861563 -0.248888 0.129694
    32 0.024032 -1.129042 0.017807 -1.147963 0.000000 0.000001
    33 0.014898 -0.883989 -0.019848 -0.637535 0.000000 0.000000
    34 -0.586770 -1.131660 0.329071 -0.348555 -0.063554 -2.765910
    35 1.468146 0.148527 0.012942 -0.030610 -0.034351 1.130566
    36 1.117947 0.048424 -0.005766 0.018273 0.030590 0.216814
    37 -0.041740 -0.217170 -0.180921 0.410722 0.347940 1.237494
    38 -1.393470 8.839177 -0.239433 1.580804 -0.005023 -1.566847
    39 1.054939 -3.636106 0.874731 -0.016071 -0.000424 -3.923814
    40 -5.456142 2.769706 0.000000 0.000001 0.000000 0.804627
    41 -1.107399 -0.076477 0.744081 0.000000 0.000001 1.570796
    42 8.425154 -1.073555 9.097933 1.655723 1.354403 -0.685587
    43 -6.622900 1.902025 0.830027 0.000001 -0.188316 0.804626
    44 -7.386365 6.898025 -0.000001 0.000000 0.000000 2.377264
    45 -1.019399 0.526195 0.000000 0.000000 0.000000 0.672587
    46 31.978592 13.816918 5.972656 2.918893 0.018078 0.554801
    47 8.423338 -1.074370 9.097933 1.655738 1.354363 -0.685587
    48 21.285101 34.265373 -4.807539 2.336966 1.570796 0.000000
  time 2
    0 2.305912 -1.442715 -14.984213 -0.213398 0.087823 -0.015548
    1 12.036749 2.149832 1.274495 0.937615 -2.029550 -1.288375
    2 1.257180 8.762585 -0.153713 -1.570562 0.002683 -1.566807
    3 -0.071921 -8.498736 -0.104134 0.066996 0.259612 -0.400262
    4 -0.488518 -2.755602 -0.228260 -0.975764 -0.012654 -0.479338
    5 0.039887 -1.479790 0.029854 -1.633593 0.000000 0.000001
    6 0.028786 -1.075731 -0.023109 -1.079768 0.000000 0.000000
    7 0.250027 -2.902699 -0.238396 -0.786122 -0.041775 -0.449047
    8 -0.049759 -1.680544 0.100479 -1.700938 0.000000 -0.000002
    9 -0.034142 -1.148312 0.084782 -1.417600 0.000000 0.000000
    10 1.207774 -3.121791 -0.090302 0.071211 -0.020967 -0.223811
    11 -0.033420 -1.397129 -0.011257 -1.086866 -0.058629 -0.003740
    12 -0.022360 -0.957436 0.018784 -0.906350 0.000000 0.000000
    13 -1.180681 -2.456434 -0.021979 -1.018798 0.181450 -0.662478
    14 -0.024967 -1.123934 0.017597 -1.658884 0.000000 0.000001
    15 -0.020057 -0.890968 0.010090 -0.829947 0.000000 0.000000
    16 0.583510 -1.197277 0.509608 0.061046 -0.873305 -0.553179
    17 1.535927 0.010246 0.005009 0.009716 -0.009096 -1.042668
    18 1.100771 0.004527 -0.010679 -0.014421 0.007404 -0.920566
    19 -0.059540 -0.081521 -0.101365 3.404069 6.051553 -1.412521
    20 -0.380147 -8.528235 -1.848996 -1.997582 -5.467784 -1.226165
    21 0.096944 -8.450418 -0.009365 0.534460 -0.293218 0.541156
    22 0.447953 -2.798986 -0.200443 -1.112446 -0.066171 0.229069
    23 -0.032909 -1.480204 0.004940 -1.347419 0.000000 0.000002
    24 -0.027022 -1.076920 -0.020210 -0.400303 0.000000 0.000000
    25 -0.249534 -2.846964 -0.174213 -0.394285 -0.072967 0.301114
    26 0.043235 -1.683941 0.096012 -1.779835 0.002823 -0.000167
    27 0.031729 -1.160830 0.058838 -0.380122 0.000642 0.008372
    28 -0.963866 -2.785145 -0.085350 0.051258 -0.124848 0.206177
    29 0.028479 -1.403067 0.006271 -1.421551 0.000000 0.000000
    30 0.021413 -0.957781 0.020046 -0.392787 0.000000 0.000000
    31 1.164475 -2.543940 -0.170330 -0.861563 -0.248888 0.129694
    32 0.024032 -1.129042 0.017807 -1.147963 0.000000 0.000001
    33 0.014898 -0.883989 -0.019848 -0.637535 0.000000 0.000000
    34 -0.586770 -1.131660 0.329071 -0.348555 -0.063554 -2.765910
    35 1.468146 0.148527 0.012942 -0.030867 -0.032050 1.108381
    36 1.117947 0.048424 -0.005766 0.018273 0.030590 0.216814
    37 -0.041740 -0.217170 -0.180921 0.410722 0.347940 1.237494
    38 -1.393470 8.839177 -0.239433 1.580804 -0.005023 -1.566847
    39 1.054939 -3.636106 0.874731 -0.016071 -0.000409 -3.923814
    40 -5.456142 2.769706 0.000000 0.000001 0.000000 0.804627
    41 -1.107399 -0.076477 0.744081 0.000000 0.000001 1.570796
    42 8.425154 -1.073555 9.097933 1.655723 1.354403 -0.685587
    43 -6.622900 1.902025 0.830027 0.000001 -0.188316 0.804626
    44 -7.386365 6.898025 -0.000001 0.000000 0.000000 2.377264
    45 -1.019399 0.526195 0.000000 0.000000 0.000000 0.672587
    46 31.330135 15.215398 5.621083 2.919276 0.022786 0.575427
    47 8.423338 -1.074370 9.097933 1.655738 1.354363 -0.685587
    48 21.285101 34.265373 -4.807539 2.336966 1.570796 0.000000
  time 3
    0 2.305912 -0.809883 -15.484228 -0.224712 0.088998 -0.016623
    1 12.036749 2.149832 1.274495 0.937615 -2.029550 -1.288375
    2 1.257180 8.762585 -0.153713 -1.570562 0.002683 -1.566807
    3 -0.071921 -8.498736 -0.104134 0.066996 0.259612 -0.400262
    4 -0.488518 -2.755602 -0.228260 -0.975764 -0.012654 -0.479338
    5 0.039887 -1.479790 0.029854 -1.633593 0.000000 0.000001
    6 0.028786 -1.075731 -0.023109 -1.079768 0.000000 0.000000
    7 0.250027 -2.902699 -0.238396 -0.786122 -0.041775 -0.449047
    8 -0.049759 -1.680544 0.100479 -1.700938 0.000000 -0.000002
    9 -0.034142 -1.148312 0.084782 -1.417600 0.000000 0.000000
    10 1.207774 -3.121791 -0.090302 0.071211 -0.020967 -0.223811
    11 -0.033420 -1.397129 -0.011257 -1.086866 -0.058629 -0.003740
    12 -0.022360 -0.957436 0.018784 -0.906350 0.000000 0.000000
    13 -1.180681 -2.456434 -0.021979 -1.018798 0.181450 -0.662478
    14 -0.024967 -1.123934 0.017597 -1.658884 0.000000 0.000001
    15 -0.020057 -0.890968 0.010090 -0.829947 0.000000 0.000000
    16 0.583510 -1.197277 0.509608 0.061046 -0.873305 -0.553179
    17 1.535927 0.010246 0.005009 0.009716 -0.009096 -1.042668
    18 1.100771 0.004527 -0.010679 -0.014421 0.007404 -0.920566
    19 -0.059540 -0.081521 -0.101365 3.404069 6.051463 -1.412612
    20 -0.380147 -8.528235 -1.848996 -1.997582 -5.467784 -1.226165
    21 0.096944 -8.450418 -0.009365 0.534460 -0.293218 0.541156
    22 0.447953 -2.798986 -0.200443 -1.112446 -0.066171 0.229069
    23 -0.032909 -1.480204 0.004940 -1.347419 0.000000 0.000002
    24 -0.027022 -1.076920 -0.020210 -0.400303 0.000000 0.000000
    25 -0.249534 -2.846964 -0.174213 -0.394285 -0.072967 0.301114
    26 0.043235 -1.683941 0.096012 -1.779835 0.002823 -0.000167
    27 0.031729 -1.160830 0.058838 -0.380122 0.000642 0.008372
    28 -0.963866 -2.785145 -0.085350 0.051258 -0.124848 0.206177
    29 0.028479 -1.403067 0.006271 -1.421551 0.000000 0.000000
    30 0.021413 -0.957781 0.020046 -0.392787 0.000000 0.000000
    31 1.164475 -2.543940 -0.170330 -0.861563 -0.248888 0.129694
    32 0.024032 -1.129042 0.017807 -1.147963 0.000000 0.000001
    33 0.014898 -0.883989 -0.019848 -0.637535 0.000000 0.000000
    34 -0.586770 -1.131660 0.329071 -0.343710 -0.063534 -2.766462
    35 1.468146 0.148527 0.012942 -0.031297 -0.028635 1.075506
    36 1.117947 0.048424 -0.005766 0.018273 0.030590 0.216814
    37 -0.041740 -0.217170 -0.180921 0.410722 0.347940 1.237494
    38 -1.393470 8.839177 -0.239433 1.580804 -0.005023 -1.566847
    39 1.054939 -3.636106 0.874731 -0.016071 -0.000424 -3.923814
    40 -5.456142 2.769706 0.000000 0.000001 0.000000 0.804627
    41 -1.107399 -0.076477 0.744081 0.000000 0.000001 1.570796
    42 8.425154 -1.073555 9.097933 1.655723 1.354403 -0.685587
    43 -6.622900 1.902025 0.830027 0.000001 -0.188316 0.804626
    44 -7.386365 6.898025 -0.000001 0.000000 0.000000 2.377264
    45 -1.019399 0.526195 0.000000 0.000000 0.000000 0.672587
    46 30.759805 15.211492 5.527330 2.918989 0.021562 0.564164
    47 8.423338 -1.074370 9.097933 1.655738 1.354363 -0.685587
    48 21.285101 34.265373 -4.807539 2.336966 1.570796 0.000000
  time 4
    0 2.305912 -0.817696 -15.870959 -0.251690 0.090975 -0.019165
    1 12.036749 2.149832 1.274495 0.937615 -2.029550 -1.288375
    2 1.257180 8.762585 -0.153713 -1.570562 0.002683 -1.566807
    3 -0.071921 -8.498736 -0.104134 0.066996 0.259612 -0.400262
    4 -0.488518 -2.755602 -0.228260 -0.975731 -0.012654 -0.479338
    5 0.039887 -1.479790 0.029854 -1.633593 0.000000 0.000001
    6 0.028786 -1.075731 -0.023109 -1.079768 0.000000 0.000000
    7 0.250027 -2.902699 -0.238396 -0.786122 -0.041775 -0.449047
    8 -0.049759 -1.680544 0.100479 -1.700938 0.000000 -0.000002
    9 -0.034142 -1.148312 0.084782 -1.417600 0.000000 0.000000
    10 1.207774 -3.121791 -0.090302 0.071211 -0.020967 -0.223811
    11 -0.033420 -1.397129 -0.011257 -1.086866 -0.058629 -0.003740
    12 -0.022360 -0.957436 0.018784 -0.906322 0.000000 0.000000
    13 -1.180681 -2.456434 -0.021979 -1.018798 0.181450 -0.662478
    14 -0.024967 -1.123934 0.017597 -1.658884 0.000000 0.000001
    15 -0.020057 -0.890968 0.010090 -0.829947 0.000000 0.000000
    16 0.583510 -1.197277 0.509608 0.061046 -0.873305 -0.553179
    17 1.535927 0.010246 0.005009 0.009716 -0.009096 -1.042668
    18 1.100771 0.004527 -0.010679 -0.014421 0.007404 -0.920566
    19 -0.059540 -0.081521 -0.101365 3.404069 6.051553 -1.412612
    20 -0.380147 -8.528235 -1.848996 -1.997582 -5.467784 -1.226165
    21 0.096944 -8.450418 -0.009365 0.534460 -0.293218 0.541156
    22 0.447953 -2.798986 -0.200443 -1.112446 -0.066171 0.229069
    23 -0.032909 -1.480204 0.004940 -1.347419 0.000000 0.000002
    24 -0.027022 -1.076920 -0.020210 -0.400303 0.000000 0.000000
    25 -0.249534 -2.846964 -0.174213 -0.394285 -0.072967 0.301114
    26 0.043235 -1.683941 0.096012 -1.779835 0.002823 -0.000167
    27 0.031729 -1.160830 0.058838 -0.380122 0.000642 0.008372
    28 -0.963866 -2.785145 -0.085350 0.051258 -0.124848 0.206177
    29 0.028479 -1.403067 0.006271 -1.421551 0.000000 0.000000
    30 0.021413 -0.957781 0.020046 -0.392787 0.000000 0.000000
    31 1.164475 -2.543940 -0.170330 -0.861563 -0.248888 0.129694
    32 0.024032 -1.129042 0.017807 -1.147963 0.000000 0.000001
    33 0.014898 -0.883989 -0.019848 -0.637535 0.000000 0.000000
    34 -0.586770 -1.131660 0.329071 -0.331254 -0.063514 -2.767906
    35 1.468146 0.148527 0.012942 -0.031784 -0.024428 1.035436
    36 1.117947 0.048424 -0.005766 0.018273 0.030590 0.216814
    37 -0.041740 -0.217170 -0.180921 0.410722 0.347940 1.237494
    38 -1.393470 8.839177 -0.239433 1.580804 -0.005023 -1.566847
    39 1.054939 -3.636106 0.874731 -0.016071 -0.000424 -3.923814
    40 -5.456142 2.769706 0.000000 0.000001 0.000000 0.804627
    41 -1.107399 -0.076477 0.744081 0.000000 0.000001 1.570796
    42 8.425154 -1.073555 9.097933 1.655723 1.354403 -0.685587
    43 -6.622900 1.902025 0.830027 0.000001 -0.188316 0.804626
    44 -7.386365 6.898025 -0.000001 0.000000 0.000000 2.377264
    45 -1.019399 0.526195 0.000000 0.000000 0.000000 0.672587
    46 30.869183 14.406780 5.628896 2.918319 0.018078 0.537485
    47 8.423338 -1.074370 9.097933 1.655738 1.354363 -0.685587
    48 21.285101 34.265373 -4.807539 2.336966 1.570796 0.000000
  time 5
    0 2.305912 -0.841134 -16.281128 -0.283890 0.093492 -0.022195
    1 12.036749 2.149832 1.274495 0.937615 -2.029550 -1.288375
    2 1.257180 8.762585 -0.153713 -1.570562 0.002683 -1.566807
    3 -0.071921 -8.498736 -0.104134 0.066996 0.259612 -0.400262
    4 -0.488518 -2.755602 -0.228260 -0.975764 -0.012654 -0.479338
    5 0.039887 -1.479790 0.029854 -1.633593 0.000000 0.000001
    6 0.028786 -1.075731 -0.023109 -1.079768 0.000000 0.000000
    7 0.250027 -2.902699 -0.238396 -0.786122 -0.041775 -0.449047
    8 -0.049759 -1.680544 0.100479 -1.700938 0.000000 -0.000002
    9 -0.034142 -1.148312 0.084782 -1.417600 0.000000 0.000000
    10 1.207774 -3.121791 -0.090302 0.071211 -0.020967 -0.223811
    11 -0.033420 -1.397129 -0.011257 -1.086866 -0.058629 -0.003740
    12 -0.022360 -0.957436 0.018784 -0.906350 0.000000 0.000000
    13 -1.180681 -2.456434 -0.021979 -1.018832 0.181450 -0.662478
    14 -0.024967 -1.123934 0.017597 -1.658884 0.000000 0.000001
    15 -0.020057 -0.890968 0.010090 -0.829947 0.000000 0.000000
    16 0.583510 -1.197277 0.509608 0.061046 -0.873305 -0.553179
    17 1.535927 0.010246 0.005009 0.009716 -0.009096 -1.042668
    18 1.100771 0.004527 -0.010679 -0.014421 0.007404 -0.920566
    19 -0.059540 -0.081521 -0.101365 3.404069 6.051553 -1.412612
    20 -0.380147 -8.528235 -1.848996 -1.997582 -5.467784 -1.226165
    21 0.096944 -8.450418 -0.009365 0.534460 -0.293218 0.541156
    22 0.447953 -2.798986 -0.200443 -1.112446 -0.066171 0.229069
    23 -0.032909 -1.480204 0.004940 -1.347419 0.000000 0.000002
    24 -0.027022 -1.076920 -0.020210 -0.400303 0.000000 0.000000
    25 -0.249534 -2.846964 -0.174213 -0.394285 -0.072967 0.301114
    26 0.043235 -1.683941 0.096012 -1.779835 0.002823 -0.000167
    27 0.031729 -1.160830 0.058838 -0.380122 0.000642 0.008372
    28 -0.963866 -2.785145 -0.085350 0.051258 -0.124848 0.206177
    29 0.028479 -1.403067 0.006271 -1.421551 0.000000 0.000000
    30 0.021413 -0.957781 0.020046 -0.392787 0.000000 0.000000
    31 1.164475 -2.543940 -0.170330 -0.861563 -0.248888 0.129694
    32 0.024032 -1.129042 0.017807 -1.147963 0.000000 0.000001
    33 0.014898 -0.883989 -0.019848 -0.637535 0.000000 0.000000
    34 -0.586770 -1.131660 0.329071 -0.314196 -0.063453 -2.769860
    35 1.468146 0.148527 0.012942 -0.032357 -0.019766 0.991468
    36 1.117947 0.048424 -0.005766 0.018273 0.030590 0.216814
    37 -0.041740 -0.217170 -0.180921 0.410722 0.347940 1.237494
    38 -1.393470 8.839177 -0.239433 1.580804 -0.005023 -1.566847
    39 1.054939 -3.636106 0.874731 -0.016071 -0.000409 -3.923814
    40 -5.456142 2.769706 0.000000 0.000001 0.000000 0.804627
    41 -1.107399 -0.076477 0.744081 0.000000 0.000001 1.570796
    42 8.425154 -1.073555 9.097933 1.655723 1.354403 -0.685587
    43 -6.622900 1.902025 0.830027 0.000001 -0.188316 0.804626
    44 -7.386365 6.898025 -0.000001 0.000000 0.000000 2.377264
    45 -1.019399 0.526195 0.000000 0.000000 0.000000 0.672587
    46 31.017625 13.469251 5.749993 2.917744 0.014030 0.505526
    47 8.423338 -1.074370 9.097933 1.655738 1.354363 -0.685587
    48 21.285101 34.265373 -4.807539 2.336966 1.570796 0.000000
  time 6
    0 2.305912 -0.837228 -16.566293 -0.310887 0.096284 -0.024737
    1 12.036749 2.149832 1.274495 0.937615 -2.029550 -1.288375
    2 1.257180 8.762585 -0.153713 -1.570562 0.002683 -1.566807
    3 -0.071921 -8.498736 -0.104134 0.066996 0.259612 -0.400262
    4 -0.488518 -2.755602 -0.228260 -0.975764 -0.012654 -0.479338
    5 0.039887 -1.479790 0.029854 -1.633593 0.000000 0.000001
    6 0.028786 -1.075731 -0.023109 -1.079768 0.000000 0.000000
    7 0.250027 -2.902699 -0.238396 -0.786122 -0.041775 -0.449047
    8 -0.049759 -1.680544 0.100479 -1.700938 0.000000 -0.000002
    9 -0.034142 -1.148312 0.084782 -1.417558 0.000000 0.000000
    10 1.207774 -3.121791 -0.090302 0.071211 -0.020967 -0.223811
    11 -0.033420 -1.397129 -0.011257 -1.086866 -0.058629 -0.003740
    12 -0.022360 -0.957436 0.018784 -0.906350 0.000000 0.000000
    13 -1.180681 -2.456434 -0.021979 -1.018798 0.181450 -0.662478
    14 -0.024967 -1.123934 0.017597 -1.658884 0.000000 0.000001
    15 -0.020057 -0.890968 0.010090 -0.829947 0.000000 0.000000
    16 0.583510 -1.197277 0.509608 0.061046 -0.873305 -0.553179
    17 1.535927 0.010246 0.005009 0.009716 -0.009096 -1.042668
    18 1.100771 0.004527 -0.010679 -0.014421 0.007404 -0.920566
    19 -0.059540 -0.081521 -0.101365 3.404069 6.051553 -1.412612
    20 -0.380147 -8.528235 -1.848996 -1.997582 -5.467784 -1.226165
    21 0.096944 -8.450418 -0.009365 0.534460 -0.293218 0.541156
    22 0.447953 -2.798986 -0.200443 -1.112446 -0.066171 0.229069
    23 -0.032909 -1.480204 0.004940 -1.347419 0.000000 0.000002
    24 -0.027022 -1.076920 -0.020210 -0.400303 0.000000 0.000000
    25 -0.249534 -2.846964 -0.174213 -0.394285 -0.072967 0.301114
    26 0.043235 -1.683941 0.096012 -1.779835 0.002823 -0.000167
    27 0.031729 -1.160830 0.058838 -0.380122 0.000642 0.008372
    28 -0.963866 -2.785145 -0.085350 0.051258 -0.124848 0.206177
    29 0.028479 -1.403067 0.006271 -1.421551 0.000000 0.000000
    30 0.021413 -0.957781 0.020046 -0.392787 0.000000 0.000000
    31 1.164475 -2.543940 -0.170330 -0.861563 -0.248888 0.129694
    32 0.024032 -1.129042 0.017807 -1.147963 0.000000 0.000001
    33 0.014898 -0.883989 -0.019848 -0.637535 0.000000 0.000000
    34 -0.586770 -1.131660 0.329071 -0.295612 -0.063412 -2.772005
    35 1.468146 0.148527 0.012942 -0.032958 -0.014972 0.946978
    36 1.117947 0.048424 -0.005766 0.018273 0.030590 0.216814
    37 -0.041740 -0.217170 -0.180921 0.410722 0.347940 1.237494
    38 -1.393470 8.839177 -0.239433 1.580804 -0.005023 -1.566847
    39 1.054939 -3.636106 0.874731 -0.016071 -0.000424 -3.923814
    40 -5.456142 2.769706 0.000000 0.000001 0.000000 0.804627
    41 -1.107399 -0.076477 0.744081 0.000000 0.000001 1.570796
    42 8.425154 -1.073555 9.097933 1.655723 1.354403 -0.685587
    43 -6.622900 1.902025 0.830027 0.000001 -0.188316 0.804626
    44 -7.386365 6.898025 -0.000001 0.000000 0.000000 2.377264
    45 -1.019399 0.526195 0.000000 0.000000 0.000000 0.672587
    46 31.154348 12.730947 5.820308 2.917361 0.011393 0.478636
    47 8.423338 -1.074370 9.097933 1.655738 1.354363 -0.685587
    48 21.285101 34.265373 -4.807539 2.336966 1.570796 0.000000
  time 7
    0 2.305912 -0.774726 -16.628795 -0.322200 0.099065 -0.025812
    1 12.036749 2.149832 1.274495 0.937615 -2.029550 -1.288375
    2 1.257180 8.762585 -0.153713 -1.570562 0.002683 -1.566807
    3 -0.071921 -8.498736 -0.104134 0.066996 0.259612 -0.400262
    4 -0.488518 -2.755602 -0.228260 -0.975764 -0.012654 -0.479338
    5 0.039887 -1.479790 0.029854 -1.633593 0.000000 0.000001
    6 0.028786 -1.075731 -0.023109 -1.079768 0.000000 0.000000
    7 0.250027 -2.902699 -0.238396 -0.786122 -0.041775 -0.449047
    8 -0.049759 -1.680544 0.100479 -1.700938 0.000000 -0.000002
    9 -0.034142 -1.148312 0.084782 -1.417600 0.000000 0.000000
    10 1.207774 -3.121791 -0.090302 0.071211 -0.020967 -0.223811
    11 -0.033420 -1.397129 -0.011257 -1.086866 -0.058629 -0.003740
    12 -0.022360 -0.957436 0.018784 -0.906350 0.000000 0.000000
    13 -1.180681 -2.456434 -0.021979 -1.018832 0.181450 -0.662478
    14 -0.024967 -1.123934 0.017597 -1.658884 0.000000 0.000001
    15 -0.020057 -0.890968 0.010090 -0.829947 0.000000 0.000000
    16 0.583510 -1.197277 0.509608 0.061046 -0.873305 -0.553179
    17 1.535927 0.010246 0.005009 0.009716 -0.009096 -1.042668
    18 1.100771 0.004527 -0.010679 -0.014421 0.007404 -0.920566
    19 -0.059540 -0.081521 -0.101365 3.404069 6.051553 -1.412612
    20 -0.380147 -8.528235 -1.848996 -1.997582 -5.467784 -1.226165
    21 0.096944 -8.450418 -0.009365 0.534460 -0.293218 0.541156
    22 0.447953 -2.798986 -0.200443 -1.112446 -0.066171 0.229069
    23 -0.032909 -1.480204 0.004940 -1.347419 0.000000 0.000002
    24 -0.027022 -1.076920 -0.020210 -0.400303 0.000000 0.000000
    25 -0.249534 -2.846964 -0.174213 -0.394285 -0.072967 0.301114
    26 0.043235 -1.683941 0.096012 -1.779835 0.002823 -0.000167
    27 0.031729 -1.160830 0.058838 -0.380122 0.000642 0.008372
    28 -0.963866 -2.785145 -0.085350 0.051258 -0.124848 0.206177
    29 0.028479 -1.403067 0.006271 -1.421551 0.000000 0.000000
    30 0.021413 -0.957781 0.020046 -0.392787 0.000000 0.000000
    31 1.164475 -2.543940 -0.170330 -0.861563 -0.248888 0.129694
    32 0.024032 -1.129042 0.017807 -1.147963 0.000000 0.000001
    33 0.014898 -0.883989 -0.019848 -0.637535 0.000000 0.000000
    34 -0.586770 -1.131660 0.329071 -0.278554 -0.063351 -2.773959
    35 1.468146 0.148527 0.012942 -0.033531 -0.010394 0.905422
    36 1.117947 0.048424 -0.005766 0.018273 0.030590 0.216814
    37 -0.041740 -0.217170 -0.180921 0.410722 0.347940 1.237494
    38 -1.393470 8.839177 -0.239433 1.580804 -0.005023 -1.566847
    39 1.054939 -3.636106 0.874731 -0.016071 -0.000424 -3.923814
    40 -5.456142 2.769706 0.000000 0.000001 0.000000 0.804627
    41 -1.107399 -0.076477 0.744081 0.000000 0.000001 1.570796
    42 8.425154 -1.073555 9.097933 1.655723 1.354403 -0.685587
    43 -6.622900 1.902025 0.830027 0.000001 -0.188316 0.804626
    44 -7.386365 6.898025 -0.000001 0.000000 0.000000 2.377264
    45 -1.019399 0.526195 0.000000 0.000000 0.000000 0.672587
    46 31.228569 12.492659 5.792963 2.917265 0.011958 0.467092
    47 8.423338 -1.074370 9.097933 1.655738 1.354363 -0.685587
    48 21.285101 34.265373 -4.807539 2.336966 1.570796 0.000000
  time 8
    0 2.305912 -0.720037 -16.578012 -0.320206 0.102492 -0.025568
    1 12.036749 2.149832 1.274495 0.937615 -2.029550 -1.288375
    2 1.257180 8.762585 -0.153713 -1.570562 0.002683 -1.566807
    3 -0.071921 -8.498736 -0.104134 0.066996 0.259612 -0.400262
    4 -0.488518 -2.755602 -0.228260 -0.975764 -0.012654 -0.479338
    5 0.039887 -1.479790 0.029854 -1.633593 0.000000 0.000001
    6 0.028786 -1.075731 -0.023109 -1.079768 0.000000 0.000000
    7 0.250027 -2.902699 -0.238396 -0.786122 -0.041775 -0.449047
    8 -0.049759 -1.680544 0.100479 -1.700938 0.000000 -0.000002
    9 -0.034142 -1.148312 0.084782 -1.417600 0.000000 0.000000
    10 1.207774 -3.121791 -0.090302 0.071211 -0.020967 -0.223811
    11 -0.033420 -1.397129 -0.011257 -1.086866 -0.058629 -0.003740
    12 -0.022360 -0.957436 0.018784 -0.906322 0.000000 0.000000
    13 -1.180681 -2.456434 -0.021979 -1.018798 0.181450 -0.662478
    14 -0.024967 -1.123934 0.017597 -1.658884 0.000000 0.000001
    15 -0.020057 -0.890968 0.010090 -0.829947 0.000000 0.000000
    16 0.583510 -1.197277 0.509608 0.061046 -0.873305 -0.553179
    17 1.535927 0.010246 0.005009 0.009716 -0.009096 -1.042668
    18 1.100771 0.004527 -0.010679 -0.014421 0.007404 -0.920566
    19 -0.059540 -0.081521 -0.101365 3.404069 6.051463 -1.412612
    20 -0.380147 -8.528235 -1.848996 -1.997582 -5.467784 -1.226165
    21 0.096944 -8.450418 -0.009365 0.534460 -0.293218 0.541156
    22 0.447953 -2.798986 -0.200443 -1.112446 -0.066171 0.229069
    23 -0.032909 -1.480204 0.004940 -1.347419 0.000000 0.000002
    24 -0.027022 -1.076920 -0.020210 -0.400303 0.000000 0.000000
    25 -0.249534 -2.846964 -0.174213 -0.394285 -0.072967 0.301114
    26 0.043235 -1.683941 0.096012 -1.779835 0.002823 -0.000167
    27 0.031729 -1.160830 0.058838 -0.380122 0.000642 0.008372
    28 -0.963866 -2.785145 -0.085350 0.051258 -0.124848 0.206177
    29 0.028479 -1.403067 0.006271 -1.421551 0.000000 0.000000
    30 0.021413 -0.957781 0.020046 -0.392787 0.000000 0.000000
    31 1.164475 -2.543940 -0.170330 -0.861563 -0.248888 0.129694
    32 0.024032 -1.129042 0.017807 -1.147963 0.000000 0.000001
    33 0.014898 -0.883989 -0.019848 -0.637535 0.000000 0.000000
    34 -0.586770 -1.131660 0.329071 -0.266076 -0.063310 -2.775403
    35 1.468146 0.148527 0.012942 -0.034018 -0.006343 0.870175
    36 1.117947 0.048424 -0.005766 0.018273 0.030590 0.216814
    37 -0.041740 -0.217170 -0.180921 0.410722 0.347940 1.237494
    38 -1.393470 8.839177 -0.239433 1.580804 -0.005023 -1.566847
    39 1.054939 -3.636106 0.874731 -0.016071 -0.000424 -3.923814
    40 -5.456142 2.769706 0.000000 0.000001 0.000000 0.804627
    41 -1.107399 -0.076477 0.744081 0.000000 0.000001 1.570796
    42 8.425154 -1.073555 9.097933 1.655723 1.354403 -0.685587
    43 -6.622900 1.902025 0.830027 0.000001 -0.188316 0.804626
    44 -7.386365 6.898025 -0.000001 0.000000 0.000000 2.377264
    45 -1.019399 0.526195 0.000000 0.000000 0.000000 0.672587
    46 31.220757 12.582505 5.683585 2.917361 0.015724 0.468359
    47 8.423338 -1.074370 9.097933 1.655738 1.354363 -0.685587
    48 21.285101 34.265373 -4.807539 2.336966 1.570796 0.000000
  time 9
    0 2.305912 -0.723943 -16.492072 -0.313280 0.106675 -0.024981
    1 12.036749 2.149832 1.274495 0.937615 -2.029550 -1.288375
    2 1.257180 8.762585 -0.153713 -1.570562 0.002683 -1.566807
    3 -0.071921 -8.498736 -0.104134 0.066996 0.259612 -0.400262
    4 -0.488518 -2.755602 -0.228260 -0.975731 -0.012654 -0.479338
    5 0.039887 -1.479790 0.029854 -1.633593 0.000000 0.000001
    6 0.028786 -1.075731 -0.023109 -1.079768 0.000000 0.000000
    7 0.250027 -2.902699 -0.238396 -0.786122 -0.041775 -0.449047
    8 -0.049759 -1.680544 0.100479 -1.700938 0.000000 -0.000002
    9 -0.034142 -1.148312 0.084782 -1.417600 0.000000 0.000000
    10 1.207774 -3.121791 -0.090302 0.071211 -0.020967 -0.223811
    11 -0.033420 -1.397129 -0.011257 -1.086866 -0.058629 -0.003740
    12 -0.022360 -0.957436 0.018784 -0.906350 0.000000 0.000000
    13 -1.180681 -2.456434 -0.021979 -1.018798 0.181450 -0.662478
    14 -0.024967 -1.123934 0.017597 -1.658884 0.000000 0.000001
    15 -0.020057 -0.890968 0.010090 -0.829947 0.000000 0.000000
    16 0.583510 -1.197277 0.509608 0.061046 -0.873305 -0.553179
    17 1.535927 0.010246 0.005009 0.009716 -0.009096 -1.042668
    18 1.100771 0.004527 -0.010679 -0.014421 0.007404 -0.920566
    19 -0.059540 -0.081521 -0.101365 3.404069 6.051463 -1.412521
    20 -0.380147 -8.528235 -1.848996 -1.997582 -5.467784 -1.226165
    21 0.096944 -8.450418 -0.009365 0.534460 -0.293218 0.541156
    22 0.447953 -2.798986 -0.200443 -1.112446 -0.066171 0.229069
    23 -0.032909 -1.480204 0.004940 -1.347419 0.000000 0.000002
    24 -0.027022 -1.076920 -0.020210 -0.400303 0.000000 0.000000
    25 -0.249534 -2.846964 -0.174213 -0.394285 -0.072967 0.301114
    26 0.043235 -1.683941 0.096012 -1.779835 0.002823 -0.000167
    27 0.031729 -1.160830 0.058838 -0.380122 0.000642 0.008372
    28 -0.963866 -2.785145 -0.085350 0.051258 -0.124848 0.206177
    29 0.028479 -1.403067 0.006271 -1.421551 0.000000 0.000000
    30 0.021413 -0.957781 0.020046 -0.392787 0.000000 0.000000
    31 1.164475 -2.543940 -0.170330 -0.861563 -0.248888 0.129694
    32 0.024032 -1.129042 0.017807 -1.147963 0.000000 0.000001
    33 0.014898 -0.883989 -0.019848 -0.637535 0.000000 0.000000
    34 -0.586770 -1.131660 0.329071 -0.261231 -0.063290 -2.775955
    35 1.468146 0.148527 0.012942 -0.034390 -0.003143 0.844614
    36 1.117947 0.048424 -0.005766 0.018273 0.030590 0.216814
    37 -0.041740 -0.217170 -0.180921 0.410722 0.347940 1.237494
    38 -1.393470 8.839177 -0.239433 1.580804 -0.005023 -1.566847
    39 1.054939 -3.636106 0.874731 -0.016071 -0.000409 -3.923814
    40 -5.456142 2.769706 0.000000 0.000001 0.000000 0.804627
    41 -1.107399 -0.076477 0.744081 0.000000 0.000001 1.570796
    42 8.425154 -1.073555 9.097933 1.655723 1.354403 -0.685587
    43 -6.622900 1.902025 0.830027 0.000001 -0.188316 0.804626
    44 -7.386365 6.898025 -0.000001 0.000000 0.000000 2.377264
    45 -1.019399 0.526195 0.000000 0.000000 0.000000 0.672587
    46 31.201225 12.750479 5.535143 2.917361 0.021186 0.474272
    47 8.423338 -1.074370 9.097933 1.655738 1.354363 -0.685587
    48 21.285101 34.265373 -4.807539 2.336966 1.570796 0.000000
  time 10
    0 2.305912 -0.763007 -16.328004 -0.298504 0.111361 -0.024150
    1 12.036749 2.149832 1.274495 0.937615 -2.029550 -1.288375
    2 1.257180 8.762585 -0.153713 -1.570562 0.002683 -1.566807
    3 -0.071921 -8.498736 -0.104134 0.066864 0.259815 -0.400964
    4 -0.488518 -2.755602 -0.228260 -0.975764 -0.012654 -0.479338
    5 0.039887 -1.479790 0.029854 -1.633593 0.000000 0.000001
    6 0.028786 -1.075731 -0.023109 -1.079768 0.000000 0.000000
    7 0.250027 -2.902699 -0.238396 -0.786122 -0.041775 -0.449047
    8 -0.049759 -1.680544 0.100479 -1.700938 0.000000 -0.000002
    9 -0.034142 -1.148312 0.084782 -1.417600 0.000000 0.000000
    10 1.207774 -3.121791 -0.090302 0.071211 -0.020967 -0.223811
    11 -0.033420 -1.397129 -0.011257 -1.086866 -0.058629 -0.003740
    12 -0.022360 -0.957436 0.018784 -0.906350 0.000000 0.000000
    13 -1.180681 -2.456434 -0.021979 -1.018798 0.181450 -0.662478
    14 -0.024967 -1.123934 0.017597 -1.658884 0.000000 0.000001
    15 -0.020057 -0.890968 0.010090 -0.829947 0.000000 0.000000
    16 0.583510 -1.197277 0.509608 0.061046 -0.873305 -0.553179
    17 1.535927 0.010246 0.005009 0.009716 -0.009096 -1.042668
    18 1.100771 0.004527 -0.010679 -0.014421 0.007404 -0.920566
    19 -0.059540 -0.081521 -0.101365 3.404069 6.051463 -1.412612
    20 -0.380147 -8.528235 -1.852902 -1.997582 -5.467784 -1.226165
    21 0.096944 -8.450418 -0.009365 0.534296 -0.293704 0.541726
    22 0.447953 -2.798986 -0.200443 -1.112446 -0.066171 0.229069
    23 -0.032909 -1.480204 0.004940 -1.347419 0.000000 0.000002
    24 -0.027022 -1.076920 -0.020210 -0.400303 0.000000 0.000000
    25 -0.249534 -2.846964 -0.174213 -0.394285 -0.072967 0.301114
    26 0.043235 -1.683941 0.096012 -1.779835 0.002823 -0.000167
    27 0.031729 -1.160830 0.058838 -0.380122 0.000642 0.008372
    28 -0.963866 -2.785145 -0.085350 0.051258 -0.124848 0.206177
    29 0.028479 -1.403067 0.006271 -1.421551 0.000000 0.000000
    30 0.021413 -0.957781 0.020046 -0.392787 0.000000 0.000000
    31 1.164475 -2.543940 -0.170330 -0.861563 -0.248888 0.129694
    32 0.024032 -1.129042 0.017807 -1.147963 0.000000 0.000001
    33 0.014898 -0.883989 -0.019848 -0.637535 0.000000 0.000000
    34 -0.586770 -1.131660 0.329071 -0.261231 -0.063290 -2.775955
    35 1.468146 0.148527 0.012942 -0.034677 -0.000411 0.824881
    36 1.117947 0.048424 -0.005766 0.018273 0.030590 0.216814
    37 -0.041740 -0.217170 -0.180921 0.410722 0.347940 1.237494
    38 -1.393470 8.839177 -0.239433 1.580804 -0.005023 -1.566847
    39 1.054939 -3.636106 0.874731 -0.016071 -0.000409 -3.923814
    40 -5.456142 2.769706 0.000000 0.000001 0.000000 0.804627
    41 -1.107399 -0.076477 0.744081 0.000000 0.000001 1.570796
    42 8.425154 -1.073555 9.097933 1.655723 1.354403 -0.685587
    43 -6.622900 1.902025 0.830027 0.000001 -0.188316 0.804626
    44 -7.386365 6.898025 -0.000001 0.000000 0.000000 2.377264
    45 -1.019399 0.526195 0.000000 0.000000 0.000000 0.672587
    46 31.142629 13.102053 5.335918 2.916882 0.028812 0.488421
    47 8.423338 -1.074370 9.097933 1.655738 1.354363 -0.685587
    48 21.285101 34.265373 -4.807539 2.336966 1.570796 0.000000
  time 11
    0 2.305912 -0.868479 -16.140498 -0.275876 0.116754 -0.023173
    1 12.036749 2.149832 1.274495 0.937615 -2.029550 -1.288375
    2 1.257180 8.762585 -0.153713 -1.570562 0.002683 -1.566807
    3 -0.071921 -8.498736 -0.104134 0.066504 0.260379 -0.402897
    4 -0.488518 -2.755602 -0.228260 -0.975764 -0.012654 -0.479338
    5 0.039887 -1.479790 0.029854 -1.633641 0.000000 0.000001
    6 0.028786 -1.075731 -0.023109 -1.079768 0.000000 0.000000
    7 0.250027 -2.902699 -0.238396 -0.786122 -0.041775 -0.449047
    8 -0.049759 -1.680544 0.100479 -1.700938 0.000000 -0.000002
    9 -0.034142 -1.148312 0.084782 -1.417600 0.000000 0.000000
    10 1.207774 -3.121791 -0.090302 0.071211 -0.020967 -0.223811
    11 -0.033420 -1.397129 -0.011257 -1.086866 -0.058629 -0.003740
    12 -0.022360 -0.957436 0.018784 -0.906322 0.000000 0.000000
    13 -1.180681 -2.456434 -0.021979 -1.018798 0.181450 -0.662478
    14 -0.024967 -1.123934 0.017597 -1.658884 0.000000 0.000001
    15 -0.020057 -0.890968 0.010090 -0.829947 0.000000 0.000000
    16 0.583510 -1.197277 0.509608 0.061046 -0.873305 -0.553179
    17 1.535927 0.010246 0.005009 0.009716 -0.009096 -1.042668
    18 1.100771 0.004527 -0.010679 -0.014421 0.007404 -0.920566
    19 -0.059540 -0.081521 -0.101365 3.404069 6.051553 -1.412612
    20 -0.380147 -8.524329 -1.864621 -1.997582 -5.467784 -1.226165
    21 0.096944 -8.450418 -0.009365 0.533847 -0.294987 0.543228
    22 0.447953 -2.798986 -0.200443 -1.112446 -0.066171 0.229069
    23 -0.032909 -1.480204 0.004940 -1.347419 0.000000 0.000002
    24 -0.027022 -1.076920 -0.020210 -0.400303 0.000000 0.000000
    25 -0.249534 -2.846964 -0.174213 -0.394285 -0.072967 0.301114
    26 0.043235 -1.683941 0.096012 -1.779835 0.002823 -0.000167
    27 0.031729 -1.160830 0.058838 -0.380122 0.000642 0.008372
    28 -0.963866 -2.785145 -0.085350 0.051258 -0.124848 0.206177
    29 0.028479 -1.403067 0.006271 -1.421551 0.000000 0.000000
    30 0.021413 -0.957781 0.020046 -0.392787 0.000000 0.000000
    31 1.164475 -2.543940 -0.170330 -0.861563 -0.248888 0.129694
    32 0.024032 -1.129042 0.017807 -1.147963 0.000000 0.000001
    33 0.014898 -0.883989 -0.019848 -0.637535 0.000000 0.000000
    34 -0.586770 -1.131660 0.329071 -0.261231 -0.063290 -2.775955
    35 1.468146 0.148527 0.012942 -0.034963 0.002429 0.805027
    36 1.117947 0.048424 -0.005766 0.018273 0.030590 0.216814
    37 -0.041740 -0.217170 -0.180921 0.410722 0.347940 1.237494
    38 -1.393470 8.839177 -0.239433 1.580804 -0.005023 -1.566847
    39 1.054939 -3.636106 0.874731 -0.016071 -0.000409 -3.923814
    40 -5.456142 2.769706 0.000000 0.000001 0.000000 0.804627
    41 -1.107399 -0.076477 0.744081 0.000000 0.000001 1.570796
    42 8.425154 -1.073555 9.097933 1.655723 1.354403 -0.685587
    43 -6.622900 1.902025 0.830027 0.000001 -0.188316 0.804626
    44 -7.386365 6.898025 -0.000001 0.000000 0.000000 2.377264
    45 -1.019399 0.526195 0.000000 0.000000 0.000000 0.672587
    46 30.998094 13.609881 5.074191 2.916021 0.039075 0.511298
    47 8.423338 -1.074370 9.097933 1.655738 1.354363 -0.685587
    48 21.285101 34.265373 -4.807539 2.336966 1.570796 0.000000
  time 12
    0 2.305912 -1.028640 -15.937367 -0.248427 0.122447 -0.022098
    1 12.036749 2.149832 1.274495 0.937615 -2.029550 -1.288375
    2 1.257180 8.762585 -0.153713 -1.570562 0.002683 -1.566807
    3 -0.071921 -8.498736 -0.104134 0.065965 0.261225 -0.405833
    4 -0.488518 -2.755602 -0.228260 -0.975731 -0.012654 -0.479338
    5 0.039887 -1.479790 0.029854 -1.633593 0.000000 0.000001
    6 0.028786 -1.075731 -0.023109 -1.079768 0.000000 0.000000
    7 0.250027 -2.902699 -0.238396 -0.786122 -0.041775 -0.449047
    8 -0.049759 -1.680544 0.100479 -1.700938 0.000000 -0.000002
    9 -0.034142 -1.148312 0.084782 -1.417600 0.000000 0.000000
    10 1.207774 -3.121791 -0.090302 0.071211 -0.020967 -0.223811
    11 -0.033420 -1.397129 -0.011257 -1.086866 -0.058629 -0.003740
    12 -0.022360 -0.957436 0.018784 -0.906350 0.000000 0.000000
    13 -1.180681 -2.456434 -0.021979 -1.018798 0.181450 -0.662478
    14 -0.024967 -1.123934 0.017597 -1.658884 0.000000 0.000001
    15 -0.020057 -0.890968 0.010090 -0.829947 0.000000 0.000000
    16 0.583510 -1.197277 0.509608 0.061046 -0.873305 -0.553179
    17 1.535927 0.010246 0.005009 0.009716 -0.009096 -1.042668
    18 1.100771 0.004527 -0.010679 -0.014421 0.007404 -0.920566
    19 -0.059540 -0.081521 -0.101365 3.404069 6.051553 -1.412612
    20 -0.380147 -8.520423 -1.880247 -1.997582 -5.467784 -1.226165
    21 0.096944 -8.450418 -0.009365 0.533233 -0.296934 0.545558
    22 0.447953 -2.798986 -0.200443 -1.112446 -0.066171 0.229069
    23 -0.032909 -1.480204 0.004940 -1.347419 0.000000 0.000002
    24 -0.027022 -1.076920 -0.020210 -0.400303 0.000000 0.000000
    25 -0.249534 -2.846964 -0.174213 -0.394285 -0.072967 0.301114
    26 0.043235 -1.683941 0.096012 -1.779835 0.002823 -0.000167
    27 0.031729 -1.160830 0.058838 -0.380122 0.000642 0.008372
    28 -0.963866 -2.785145 -0.085350 0.051258 -0.124848 0.206177
    29 0.028479 -1.403067 0.006271 -1.421551 0.000000 0.000000
    30 0.021413 -0.957781 0.020046 -0.392787 0.000000 0.000000
    31 1.164475 -2.543940 -0.170330 -0.861563 -0.248888 0.129694
    32 0.024032 -1.129042 0.017807 -1.147963 0.000000 0.000001
    33 0.014898 -0.883989 -0.019848 -0.637535 0.000000 0.000000
    34 -0.586770 -1.131660 0.329071 -0.261231 -0.063290 -2.775955
    35 1.468146 0.148527 0.012942 -0.035249 0.005366 0.785093
    36 1.117947 0.048424 -0.005766 0.018273 0.030590 0.216814
    37 -0.041740 -0.217170 -0.180921 0.410722 0.347940 1.237494
    38 -1.393470 8.839177 -0.239433 1.580804 -0.005023 -1.566847
    39 1.054939 -3.636106 0.874731 -0.016071 -0.000409 -3.923814
    40 -5.456142 2.769706 0.000000 0.000001 0.000000 0.804627
    41 -1.107399 -0.076477 0.744081 0.000000 0.000001 1.570796
    42 8.425154 -1.073555 9.097933 1.655723 1.354403 -0.685587
    43 -6.622900 1.902025 0.830027 0.000001 -0.188316 0.804626
    44 -7.386365 6.898025 -0.000001 0.000000 0.000000 2.377264
    45 -1.019399 0.526195 0.000000 0.000000 0.000000 0.672587
    46 30.787150 14.211461 4.785120 2.914968 0.050751 0.539737
    47 8.423338 -1.074370 9.097933 1.655738 1.354363 -0.685587
    48 21.285101 34.265373 -4.807539 2.336966 1.570796 0.000000
  time 13
    0 2.305912 -1.223959 -15.730330 -0.219164 0.128031 -0.021022
    1 12.036749 2.149832 1.274495 0.937615 -2.029550 -1.288375
    2 1.257180 8.762585 -0.153713 -1.570562 0.002683 -1.566807
    3 -0.071921 -8.498736 -0.104134 0.065294 0.262290 -0.409498
    4 -0.488518 -2.755602 -0.228260 -0.975764 -0.012654 -0.479338
    5 0.039887 -1.479790 0.029854 -1.633593 0.000000 0.000001
    6 0.028786 -1.075731 -0.023109 -1.079768 0.000000 0.000000
    7 0.250027 -2.902699 -0.238396 -0.786122 -0.041775 -0.449047
    8 -0.049759 -1.680544 0.100479 -1.700938 0.000000 -0.000002
    9 -0.034142 -1.148312 0.084782 -1.417600 0.000000 0.000000
    10 1.207774 -3.121791 -0.090302 0.071211 -0.020967 -0.223811
    11 -0.033420 -1.397129 -0.011257 -1.086866 -0.058629 -0.003740
    12 -0.022360 -0.957436 0.018784 -0.906350 0.000000 0.000000
    13 -1.180681 -2.456434 -0.021979 -1.018798 0.181450 -0.662478
    14 -0.024967 -1.123934 0.017597 -1.658884 0.000000 0.000001
    15 -0.020057 -0.890968 0.010090 -0.829947 0.000000 0.000000
    16 0.583510 -1.197277 0.509608 0.061046 -0.873305 -0.553179
    17 1.535927 0.010246 0.005009 0.009716 -0.009096 -1.042668
    18 1.100771 0.004527 -0.010679 -0.014421 0.007404 -0.920566
    19 -0.059540 -0.081521 -0.101365 3.404069 6.051553 -1.412612
    20 -0.376241 -8.512610 -1.903685 -1.997582 -5.467784 -1.226165
    21 0.096944 -8.450418 -0.009365 0.532416 -0.299323 0.548510
    22 0.447953 -2.798986 -0.200443 -1.112446 -0.066171 0.229069
    23 -0.032909 -1.480204 0.004940 -1.347419 0.000000 0.000002
    24 -0.027022 -1.076920 -0.020210 -0.400303 0.000000 0.000000
    25 -0.249534 -2.846964 -0.174213 -0.394285 -0.072967 0.301114
    26 0.043235 -1.683941 0.096012 -1.779835 0.002823 -0.000167
    27 0.031729 -1.160830 0.058838 -0.380122 0.000642 0.008372
    28 -0.963866 -2.785145 -0.085350 0.051258 -0.124848 0.206177
    29 0.028479 -1.403067 0.006271 -1.421551 0.000000 0.000000
    30 0.021413 -0.957781 0.020046 -0.392787 0.000000 0.000000
    31 1.164475 -2.543940 -0.170330 -0.861563 -0.248888 0.129694
    32 0.024032 -1.129042 0.017807 -1.147963 0.000000 0.000001
    33 0.014898 -0.883989 -0.019848 -0.637535 0.000000 0.000000
    34 -0.586770 -1.131660 0.329071 -0.261231 -0.063290 -2.775955
    35 1.468146 0.148527 0.012942 -0.035536 0.008362 0.765279
    36 1.117947 0.048424 -0.005766 0.018273 0.030590 0.216814
    37 -0.041740 -0.217170 -0.180921 0.410722 0.347940 1.237494
    38 -1.393470 8.839177 -0.239433 1.580804 -0.005023 -1.566847
    39 1.054939 -3.636106 0.874731 -0.016071 -0.000424 -3.923814
    40 -5.456142 2.769706 0.000000 0.000001 0.000000 0.804627
    41 -1.107399 -0.076477 0.744081 0.000000 0.000001 1.570796
    42 8.425154 -1.073555 9.097933 1.655723 1.354403 -0.685587
    43 -6.622900 1.902025 0.830027 0.000001 -0.188316 0.804626
    44 -7.386365 6.898025 -0.000001 0.000000 0.000000 2.377264
    45 -1.019399 0.526195 0.000000 0.000000 0.000000 0.672587
    46 30.544955 14.832574 4.480423 2.914010 0.062992 0.570710
    47 8.423338 -1.074370 9.097933 1.655738 1.354363 -0.685587
    48 21.285101 34.265373 -4.807539 2.336966 1.570796 0.000000
  time 14
    0 2.305912 -1.446622 -15.542824 -0.191152 0.133089 -0.020093
    1 12.036749 2.149832 1.274495 0.937615 -2.029550 -1.288375
    2 1.257180 8.762585 -0.153713 -1.570562 0.002683 -1.566807
    3 -0.071921 -8.498736 -0.104134 0.064527 0.263497 -0.413639
    4 -0.488518 -2.755602 -0.228260 -0.975764 -0.012654 -0.479338
    5 0.039887 -1.479790 0.029854 -1.633593 0.000000 0.000001
    6 0.028786 -1.075731 -0.023109 -1.079768 0.000000 0.000000
    7 0.250027 -2.902699 -0.238396 -0.786122 -0.041775 -0.449047
    8 -0.049759 -1.680544 0.100479 -1.700938 0.000000 -0.000002
    9 -0.034142 -1.148312 0.084782 -1.417600 0.000000 0.000000
    10 1.207774 -3.121791 -0.090302 0.071211 -0.020967 -0.223811
    11 -0.033420 -1.397129 -0.011257 -1.086866 -0.058629 -0.003740
    12 -0.022360 -0.957436 0.018784 -0.906322 0.000000 0.000000
    13 -1.180681 -2.456434 -0.021979 -1.018798 0.181450 -0.662478
    14 -0.024967 -1.123934 0.017597 -1.658884 0.000000 0.000001
    15 -0.020057 -0.890968 0.010090 -0.829947 0.000000 0.000000
    16 0.583510 -1.197277 0.509608 0.061046 -0.873305 -0.553179
    17 1.535927 0.010246 0.005009 0.009716 -0.009096 -1.042668
    18 1.100771 0.004527 -0.010679 -0.014421 0.007404 -0.920566
    19 -0.059540 -0.081521 -0.101365 3.404069 6.051553 -1.412521
    20 -0.376241 -8.508704 -1.927123 -1.997582 -5.467784 -1.226165
    21 0.096944 -8.450418 -0.009365 0.531475 -0.302110 0.551825
    22 0.447953 -2.798986 -0.200443 -1.112446 -0.066171 0.229069
    23 -0.032909 -1.480204 0.004940 -1.347419 0.000000 0.000002
    24 -0.027022 -1.076920 -0.020210 -0.400303 0.000000 0.000000
    25 -0.249534 -2.846964 -0.174213 -0.394285 -0.072967 0.301114
    26 0.043235 -1.683941 0.096012 -1.779835 0.002823 -0.000167
    27 0.031729 -1.160830 0.058838 -0.380122 0.000642 0.008372
    28 -0.963866 -2.785145 -0.085350 0.051258 -0.124848 0.206177
    29 0.028479 -1.403067 0.006271 -1.421551 0.000000 0.000000
    30 0.021413 -0.957781 0.020046 -0.392787 0.000000 0.000000
    31 1.164475 -2.543940 -0.170330 -0.861563 -0.248888 0.129694
    32 0.024032 -1.129042 0.017807 -1.147963 0.000000 0.000001
    33 0.014898 -0.883989 -0.019848 -0.637535 0.000000 0.000000
    34 -0.586770 -1.131660 0.329071 -0.261231 -0.063290 -2.775955
    35 1.468146 0.148527 0.012942 -0.035851 0.011394 0.745626
    36 1.117947 0.048424 -0.005766 0.018273 0.030590 0.216814
    37 -0.041740 -0.217170 -0.180921 0.410722 0.347940 1.237494
    38 -1.393470 8.839177 -0.239433 1.580804 -0.005023 -1.566847
    39 1.054939 -3.636106 0.874731 -0.016071 -0.000409 -3.923814
    40 -5.456142 2.769706 0.000000 0.000001 0.000000 0.804627
    41 -1.107399 -0.076477 0.744081 0.000000 0.000001 1.570796
    42 8.425154 -1.073555 9.097933 1.655723 1.354403 -0.685587
    43 -6.622900 1.902025 0.830027 0.000001 -0.188316 0.804626
    44 -7.386365 6.898025 -0.000001 0.000000 0.000000 2.377264
    45 -1.019399 0.526195 0.000000 0.000000 0.000000 0.672587
    46 30.294947 15.422436 4.195258 2.913149 0.074573 0.600979
    47 8.423338 -1.074370 9.097933 1.655738 1.354363 -0.685587
    48 21.285101 34.265373 -4.807539 2.336966 1.570796 0.000000
  time 15
    0 2.305912 -1.673191 -15.382663 -0.167382 0.137200 -0.019263
    1 12.036749 2.149832 1.274495 0.937615 -2.029550 -1.288375
    2 1.257180 8.762585 -0.153713 -1.570562 0.002683 -1.566807
    3 -0.071921 -8.498736 -0.104134 0.063724 0.264766 -0.418057
    4 -0.488518 -2.755602 -0.228260 -0.975731 -0.012654 -0.479338
    5 0.039887 -1.479790 0.029854 -1.633593 0.000000 0.000001
    6 0.028786 -1.075731 -0.023109 -1.079768 0.000000 0.000000
    7 0.250027 -2.902699 -0.238396 -0.786122 -0.041775 -0.449047
    8 -0.049759 -1.680544 0.100479 -1.700938 0.000000 -0.000002
    9 -0.034142 -1.148312 0.084782 -1.417600 0.000000 0.000000
    10 1.207774 -3.121791 -0.090302 0.071211 -0.020967 -0.223811
    11 -0.033420 -1.397129 -0.011257 -1.086866 -0.058629 -0.003740
    12 -0.022360 -0.957436 0.018784 -0.906350 0.000000 0.000000
    13 -1.180681 -2.456434 -0.021979 -1.018798 0.181450 -0.662478
    14 -0.024967 -1.123934 0.017597 -1.658884 0.000000 0.000001
    15 -0.020057 -0.890968 0.010090 -0.829947 0.000000 0.000000
    16 0.583510 -1.197277 0.509608 0.061046 -0.873305 -0.553179
    17 1.535927 0.010246 0.005009 0.009716 -0.009096 -1.042668
    18 1.100771 0.004527 -0.010679 -0.014421 0.007404 -0.920566
    19 -0.059540 -0.081521 -0.101365 3.404069 6.051463 -1.412612
    20 -0.372334 -8.500891 -1.954468 -1.997582 -5.467784 -1.226165
    21 0.096944 -8.450418 -0.009365 0.530494 -0.305030 0.555347
    22 0.447953 -2.798986 -0.200443 -1.112446 -0.066171 0.229069
    23 -0.032909 -1.480204 0.004940 -1.347419 0.000000 0.000002
    24 -0.027022 -1.076920 -0.020210 -0.400303 0.000000 0.000000
    25 -0.249534 -2.846964 -0.174213 -0.394285 -0.072967 0.301114
    26 0.043235 -1.683941 0.096012 -1.779835 0.002823 -0.000167
    27 0.031729 -1.160830 0.058838 -0.380122 0.000642 0.008372
    28 -0.963866 -2.785145 -0.085350 0.051258 -0.124848 0.206177
    29 0.028479 -1.403067 0.006271 -1.421551 0.000000 0.000000
    30 0.021413 -0.957781 0.020046 -0.392787 0.000000 0.000000
    31 1.164475 -2.543940 -0.170330 -0.861563 -0.248888 0.129694
    32 0.024032 -1.129042 0.017807 -1.147963 0.000000 0.000001
    33 0.014898 -0.883989 -0.019848 -0.637535 0.000000 0.000000
    34 -0.586770 -1.131660 0.329071 -0.261231 -0.063290 -2.775955
    35 1.468146 0.148527 0.012942 -0.036137 0.014450 0.726295
    36 1.117947 0.048424 -0.005766 0.018273 0.030590 0.216814
    37 -0.041740 -0.217170 -0.180921 0.410722 0.347940 1.237494
    38 -1.393470 8.839177 -0.239433 1.580804 -0.005023 -1.566847
    39 1.054939 -3.636106 0.874731 -0.016071 -0.000409 -3.923814
    40 -5.456142 2.769706 0.000000 0.000001 0.000000 0.804627
    41 -1.107399 -0.076477 0.744081 0.000000 0.000001 1.570796
    42 8.425154 -1.073555 9.097933 1.655723 1.354403 -0.685587
    43 -6.622900 1.902025 0.830027 0.000001 -0.188316 0.804626
    44 -7.386365 6.898025 -0.000001 0.000000 0.000000 2.377264
    45 -1.019399 0.526195 0.000000 0.000000 0.000000 0.672587
    46 30.076190 15.906826 3.960876 2.912670 0.084460 0.627588
    47 8.423338 -1.074370 9.097933 1.655738 1.354363 -0.685587
    48 21.285101 34.265373 -4.807539 2.336966 1.570796 0.000000
  time 16
    0 2.305912 -1.895854 -15.269378 -0.150920 0.139980 -0.018725
    1 12.036749 2.149832 1.274495 0.937615 -2.029550 -1.288375
    2 1.257180 8.762585 -0.153713 -1.570562 0.002683 -1.566807
    3 -0.071921 -8.498736 -0.104134 0.062909 0.266019 -0.422474
    4 -0.488518 -2.755602 -0.228260 -0.975731 -0.012654 -0.479338
    5 0.039887 -1.479790 0.029854 -1.633593 0.000000 0.000001
    6 0.028786 -1.075731 -0.023109 -1.079768 0.000000 0.000000
    7 0.250027 -2.902699 -0.238396 -0.786122 -0.041775 -0.449047
    8 -0.049759 -1.680544 0.100479 -1.700938 0.000000 -0.000002
    9 -0.034142 -1.148312 0.084782 -1.417600 0.000000 0.000000
    10 1.207774 -3.121791 -0.090302 0.071211 -0.020967 -0.223811
    11 -0.033420 -1.397129 -0.011257 -1.086866 -0.058629 -0.003740
    12 -0.022360 -0.957436 0.018784 -0.906350 0.000000 0.000000
    13 -1.180681 -2.456434 -0.021979 -1.018798 0.181450 -0.662478
    14 -0.024967 -1.123934 0.017597 -1.658884 0.000000 0.000001
    15 -0.020057 -0.890968 0.010090 -0.829947 0.000000 0.000000
    16 0.583510 -1.197277 0.509608 0.061046 -0.873305 -0.553179
    17 1.535927 0.010246 0.005009 0.009716 -0.009096 -1.042668
    18 1.100771 0.004527 -0.010679 -0.014421 0.007404 -0.920566
    19 -0.059540 -0.081521 -0.101365 3.404069 6.051553 -1.412612
    20 -0.368428 -8.493078 -1.981812 -1.997582 -5.467784 -1.226165
    21 0.096944 -8.450418 -0.009365 0.529513 -0.307950 0.558868
    22 0.447953 -2.798986 -0.200443 -1.112446 -0.066171 0.229069
    23 -0.032909 -1.480204 0.004940 -1.347419 0.000000 0.000002
    24 -0.027022 -1.076920 -0.020210 -0.400303 0.000000 0.000000
    25 -0.249534 -2.846964 -0.174213 -0.394285 -0.072967 0.301114
    26 0.043235 -1.683941 0.096012 -1.779835 0.002823 -0.000167
    27 0.031729 -1.160830 0.058838 -0.380122 0.000642 0.008372
    28 -0.963866 -2.785145 -0.085350 0.051258 -0.124848 0.206177
    29 0.028479 -1.403067 0.006271 -1.421551 0.000000 0.000000
    30 0.021413 -0.957781 0.020046 -0.392787 0.000000 0.000000
    31 1.164475 -2.543940 -0.170330 -0.861563 -0.248888 0.129694
    32 0.024032 -1.129042 0.017807 -1.147963 0.000000 0.000001
    33 0.014898 -0.883989 -0.019848 -0.637535 0.000000 0.000000
    34 -0.586770 -1.131660 0.329071 -0.261231 -0.063290 -2.775955
    35 1.468146 0.148527 0.012942 -0.036424 0.017482 0.707365
    36 1.117947 0.048424 -0.005766 0.018273 0.030590 0.216814
    37 -0.041740 -0.217170 -0.180921 0.410722 0.347940 1.237494
    38 -1.393470 8.839177 -0.239433 1.580804 -0.005023 -1.566847
    39 1.054939 -3.636106 0.874731 -0.016071 -0.000409 -3.923814
    40 -5.456142 2.769706 0.000000 0.000001 0.000000 0.804627
    41 -1.107399 -0.076477 0.744081 0.000000 0.000001 1.570796
    42 8.425154 -1.073555 9.097933 1.655723 1.354403 -0.685587
    43 -6.622900 1.902025 0.830027 0.000001 -0.188316 0.804626
    44 -7.386365 6.898025 -0.000001 0.000000 0.000000 2.377264
    45 -1.019399 0.526195 0.000000 0.000000 0.000000 0.672587
    46 29.943374 16.234961 3.800715 2.912478 0.091521 0.647369
    47 8.423338 -1.074370 9.097933 1.655738 1.354363 -0.685587
    48 21.285101 34.265373 -4.807539 2.336966 1.570796 0.000000
  time 17
    0 2.305912 -2.098985 -15.210783 -0.144755 0.140999 -0.018529
    1 12.036749 2.149832 1.274495 0.937615 -2.029550 -1.288375
    2 1.257180 8.762585 -0.153713 -1.570562 0.002683 -1.566807
    3 -0.071921 -8.498736 -0.104134 0.062154 0.267210 -0.426640
    4 -0.488518 -2.755602 -0.228260 -0.975764 -0.012654 -0.479338
    5 0.039887 -1.479790 0.029854 -1.633593 0.000000 0.000001
    6 0.028786 -1.075731 -0.023109 -1.079768 0.000000 0.000000
    7 0.250027 -2.902699 -0.238396 -0.786122 -0.041775 -0.449047
    8 -0.049759 -1.680544 0.100479 -1.700938 0.000000 -0.000002
    9 -0.034142 -1.148312 0.084782 -1.417600 0.000000 0.000000
    10 1.207774 -3.121791 -0.090302 0.071211 -0.020967 -0.223811
    11 -0.033420 -1.397129 -0.011257 -1.086866 -0.058629 -0.003740
    12 -0.022360 -0.957436 0.018784 -0.906350 0.000000 0.000000
    13 -1.180681 -2.456434 -0.021979 -1.018798 0.181450 -0.662478
    14 -0.024967 -1.123934 0.017597 -1.658884 0.000000 0.000001
    15 -0.020057 -0.890968 0.010090 -0.829947 0.000000 0.000000
    16 0.583510 -1.197277 0.509608 0.061046 -0.873305 -0.553179
    17 1.535927 0.010246 0.005009 0.009716 -0.009096 -1.042668
    18 1.100771 0.004527 -0.010679 -0.014421 0.007404 -0.920566
    19 -0.059540 -0.081521 -0.101365 3.404069 6.051553 -1.412612
    20 -0.368428 -8.489172 -2.005251 -1.997582 -5.467784 -1.226165
    21 0.096944 -8.450418 -0.009365 0.528614 -0.310692 0.562183
    22 0.447953 -2.798986 -0.200443 -1.112446 -0.066171 0.229069
    23 -0.032909 -1.480204 0.004940 -1.347419 0.000000 0.000002
    24 -0.027022 -1.076920 -0.020210 -0.400303 0.000000 0.000000
    25 -0.249534 -2.846964 -0.174213 -0.394285 -0.072967 0.301114
    26 0.043235 -1.683941 0.096012 -1.779835 0.002823 -0.000167
    27 0.031729 -1.160830 0.058838 -0.380122 0.000642 0.008372
    28 -0.963866 -2.785145 -0.085350 0.051258 -0.124848 0.206177
    29 0.028479 -1.403067 0.006271 -1.421551 0.000000 0.000000
    30 0.021413 -0.957781 0.020046 -0.392787 0.000000 0.000000
    31 1.164475 -2.543940 -0.170330 -0.861563 -0.248888 0.129694
    32 0.024032 -1.129042 0.017807 -1.147963 0.000000 0.000001
    33 0.014898 -0.883989 -0.019848 -0.637535 0.000000 0.000000
    34 -0.586770 -1.131660 0.329071 -0.261231 -0.063290 -2.775955
    35 1.468146 0.148527 0.012942 -0.036710 0.020490 0.688998
    36 1.117947 0.048424 -0.005766 0.018273 0.030590 0.216814
    37 -0.041740 -0.217170 -0.180921 0.410722 0.347940 1.237494
    38 -1.393470 8.839177 -0.239433 1.580804 -0.005023 -1.566847
    39 1.054939 -3.636106 0.874731 -0.016071 -0.000409 -3.923814
    40 -5.456142 2.769706 0.000000 0.000001 0.000000 0.804627
    41 -1.107399 -0.076477 0.744081 0.000000 0.000001 1.570796
    42 8.425154 -1.073555 9.097933 1.655723 1.354403 -0.685587
    43 -6.622900 1.902025 0.830027 0.000001 -0.188316 0.804626
    44 -7.386365 6.898025 -0.000001 0.000000 0.000000 2.377264
    45 -1.019399 0.526195 0.000000 0.000000 0.000000 0.672587
    46 29.931655 16.344339 3.746026 2.912478 0.094723 0.657294
    47 8.423338 -1.074370 9.097933 1.655738 1.354363 -0.685587
    48 21.285101 34.265373 -4.807539 2.336966 1.570796 0.000000
  time 18
    0 2.305912 -2.294304 -15.187344 -0.147167 0.138674 -0.018578
    1 12.036749 2.149832 1.274495 0.937615 -2.029550 -1.288375
    2 1.257180 8.762585 -0.153713 -1.570562 0.002683 -1.566807
    3 -0.071921 -8.498736 -0.104134 0.061483 0.268259 -0.430330
    4 -0.488518 -2.755602 -0.228260 -0.975731 -0.012654 -0.479338
    5 0.039887 -1.479790 0.029854 -1.633593 0.000000 0.000001
    6 0.028786 -1.075731 -0.023109 -1.079768 0.000000 0.000000
    7 0.250027 -2.902699 -0.238396 -0.786122 -0.041775 -0.449047
    8 -0.049759 -1.680544 0.100479 -1.700938 0.000000 -0.000002
    9 -0.034142 -1.148312 0.084782 -1.417600 0.000000 0.000000
    10 1.207774 -3.121791 -0.090302 0.071211 -0.020967 -0.223811
    11 -0.033420 -1.397129 -0.011257 -1.086866 -0.058629 -0.003740
    12 -0.022360 -0.957436 0.018784 -0.906350 0.000000 0.000000
    13 -1.180681 -2.456434 -0.021979 -1.018798 0.181450 -0.662478
    14 -0.024967 -1.123934 0.017597 -1.658884 0.000000 0.000001
    15 -0.020057 -0.890968 0.010090 -0.829947 0.000000 0.000000
    16 0.583510 -1.197277 0.509608 0.061046 -0.873305 -0.553179
    17 1.535927 0.010246 0.005009 0.009716 -0.009096 -1.042668
    18 1.100771 0.004527 -0.010679 -0.014421 0.007404 -0.920566
    19 -0.059540 -0.081521 -0.101365 3.404069 6.051553 -1.412612
    20 -0.364522 -8.481359 -2.028689 -1.997582 -5.467784 -1.226165
    21 0.096944 -8.450418 -0.009365 0.527796 -0.313126 0.565135
    22 0.447953 -2.798986 -0.200443 -1.112446 -0.066171 0.229069
    23 -0.032909 -1.480204 0.004940 -1.347419 0.000000 0.000002
    24 -0.027022 -1.076920 -0.020210 -0.400303 0.000000 0.000000
    25 -0.249534 -2.846964 -0.174213 -0.394285 -0.072967 0.301114
    26 0.043235 -1.683941 0.096012 -1.779835 0.002823 -0.000167
    27 0.031729 -1.160830 0.058838 -0.380122 0.000642 0.008372
    28 -0.963866 -2.785145 -0.085350 0.051258 -0.124848 0.206177
    29 0.028479 -1.403067 0.006271 -1.421551 0.000000 0.000000
    30 0.021413 -0.957781 0.020046 -0.392787 0.000000 0.000000
    31 1.164475 -2.543940 -0.170330 -0.861563 -0.248888 0.129694
    32 0.024032 -1.129042 0.017807 -1.147963 0.000000 0.000001
    33 0.014898 -0.883989 -0.019848 -0.637535 0.000000 0.000000
    34 -0.586770 -1.131660 0.329071 -0.261231 -0.063290 -2.775955
    35 1.468146 0.148527 0.012942 -0.036968 0.023426 0.671235
    36 1.117947 0.048424 -0.005766 0.018273 0.030590 0.216814
    37 -0.041740 -0.217170 -0.180921 0.410722 0.347940 1.237494
    38 -1.393470 8.839177 -0.239433 1.580804 -0.005023 -1.566847
    39 1.054939 -3.636106 0.874731 -0.016071 -0.000424 -3.923814
    40 -5.456142 2.769706 0.000000 0.000001 0.000000 0.804627
    41 -1.107399 -0.076477 0.744081 0.000000 0.000001 1.570796
    42 8.425154 -1.073555 9.097933 1.655723 1.354403 -0.685587
    43 -6.622900 1.902025 0.830027 0.000001 -0.188316 0.804626
    44 -7.386365 6.898025 -0.000001 0.000000 0.000000 2.377264
    45 -1.019399 0.526195 0.000000 0.000000 0.000000 0.672587
    46 30.048846 16.277931 3.839779 2.912766 0.092745 0.659054
    47 8.423338 -1.074370 9.097933 1.655738 1.354363 -0.685587
    48 21.285101 34.265373 -4.807539 2.336966 1.570796 0.000000
  time 19
    0 2.305912 -2.501341 -15.171719 -0.153766 0.132562 -0.018676
    1 12.036749 2.149832 1.274495 0.937615 -2.029550 -1.288375
    2 1.257180 8.762585 -0.153713 -1.570562 0.002683 -1.566807
    3 -0.071921 -8.498736 -0.104134 0.060943 0.269089 -0.433241
    4 -0.488518 -2.755602 -0.228260 -0.975764 -0.012654 -0.479338
    5 0.039887 -1.479790 0.029854 -1.633593 0.000000 0.000001
    6 0.028786 -1.075731 -0.023109 -1.079768 0.000000 0.000000
    7 0.250027 -2.902699 -0.238396 -0.786122 -0.041775 -0.449047
    8 -0.049759 -1.680544 0.100479 -1.700938 0.000000 -0.000002
    9 -0.034142 -1.148312 0.084782 -1.417600 0.000000 0.000000
    10 1.207774 -3.121791 -0.090302 0.071211 -0.020967 -0.223811
    11 -0.033420 -1.397129 -0.011257 -1.086866 -0.058629 -0.003740
    12 -0.022360 -0.957436 0.018784 -0.906350 0.000000 0.000000
    13 -1.180681 -2.456434 -0.021979 -1.018798 0.181450 -0.662478
    14 -0.024967 -1.123934 0.017597 -1.658884 0.000000 0.000001
    15 -0.020057 -0.890968 0.010090 -0.829947 0.000000 0.000000
    16 0.583510 -1.197277 0.509608 0.061046 -0.873305 -0.553179
    17 1.535927 0.010246 0.005009 0.009716 -0.009096 -1.042668
    18 1.100771 0.004527 -0.010679 -0.014421 0.007404 -0.920566
    19 -0.059540 -0.081521 -0.101365 3.404069 6.051553 -1.412612
    20 -0.364522 -8.477453 -2.044314 -1.997582 -5.467784 -1.226165
    21 0.096944 -8.450418 -0.009365 0.527142 -0.315072 0.567466
    22 0.447953 -2.798986 -0.200443 -1.112446 -0.066171 0.229069
    23 -0.032909 -1.480204 0.004940 -1.347419 0.000000 0.000002
    24 -0.027022 -1.076920 -0.020210 -0.400303 0.000000 0.000000
    25 -0.249534 -2.846964 -0.174213 -0.394285 -0.072967 0.301114
    26 0.043235 -1.683941 0.096012 -1.779835 0.002823 -0.000167
    27 0.031729 -1.160830 0.058838 -0.380122 0.000642 0.008372
    28 -0.963866 -2.785145 -0.085350 0.051258 -0.124848 0.206177
    29 0.028479 -1.403067 0.006271 -1.421551 0.000000 0.000000
    30 0.021413 -0.957781 0.020046 -0.392787 0.000000 0.000000
    31 1.164475 -2.543940 -0.170330 -0.861563 -0.248888 0.129694
    32 0.024032 -1.129042 0.017807 -1.147963 0.000000 0.000001
    33 0.014898 -0.883989 -0.019848 -0.637535 0.000000 0.000000
    34 -0.586770 -1.131660 0.329071 -0.261231 -0.063290 -2.775955
    35 1.468146 0.148527 0.012942 -0.037254 0.026279 0.654274
    36 1.117947 0.048424 -0.005766 0.018273 0.030590 0.216814
    37 -0.041740 -0.217170 -0.180921 0.410722 0.347940 1.237494
    38 -1.393470 8.839177 -0.239433 1.580804 -0.005023 -1.566847
    39 1.054939 -3.636106 0.874731 -0.016071 -0.000409 -3.923814
    40 -5.456142 2.769706 0.000000 0.000001 0.000000 0.804627
    41 -1.107399 -0.076477 0.744081 0.000000 0.000001 1.570796
    42 8.425154 -1.073555 9.097933 1.655723 1.354403 -0.685587
    43 -6.622900 1.902025 0.830027 0.000001 -0.188316 0.804626
    44 -7.386365 6.898025 -0.000001 0.000000 0.000000 2.377264
    45 -1.019399 0.526195 0.000000 0.000000 0.000000 0.672587
    46 30.255883 16.121676 4.066348 2.913244 0.086060 0.656801
    47 8.423338 -1.074370 9.097933 1.655738 1.354363 -0.685587
    48 21.285101 34.265373 -4.807539 2.336966 1.570796 0.000000
  time 20
    0 2.305912 -2.712285 -15.160000 -0.163502 0.123933 -0.018823
    1 12.036749 2.149832 1.274495 0.937615 -2.029550 -1.288375
    2 1.257180 8.762585 -0.153713 -1.570562 0.002683 -1.566807
    3 -0.071921 -8.498736 -0.104134 0.060596 0.269638 -0.435199
    4 -0.488518 -2.755602 -0.228260 -0.975764 -0.012654 -0.479338
    5 0.039887 -1.479790 0.029854 -1.633593 0.000000 0.000001
    6 0.028786 -1.075731 -0.023109 -1.079768 0.000000 0.000000
    7 0.250027 -2.902699 -0.238396 -0.786122 -0.041775 -0.449047
    8 -0.049759 -1.680544 0.100479 -1.700938 0.000000 -0.000002
    9 -0.034142 -1.148312 0.084782 -1.417600 0.000000 0.000000
    10 1.207774 -3.121791 -0.090302 0.071211 -0.020967 -0.223811
    11 -0.033420 -1.397129 -0.011257 -1.086866 -0.058629 -0.003740
    12 -0.022360 -0.957436 0.018784 -0.906350 0.000000 0.000000
    13 -1.180681 -2.456434 -0.021979 -1.018798 0.181450 -0.662478
    14 -0.024967 -1.123934 0.017597 -1.658884 0.000000 0.000001
    15 -0.020057 -0.890968 0.010090 -0.829947 0.000000 0.000000
    16 0.583510 -1.197277 0.509608 0.061046 -0.873305 -0.553179
    17 1.535927 0.010246 0.005009 0.009716 -0.009096 -1.042668
    18 1.100771 0.004527 -0.010679 -0.014421 0.007404 -0.920566
    19 -0.059540 -0.081521 -0.101365 3.404069 6.051553 -1.412612
    20 -0.364522 -8.473546 -2.056033 -1.997582 -5.467784 -1.226165
    21 0.096944 -8.450418 -0.009365 0.526692 -0.316355 0.569019
    22 0.447953 -2.798986 -0.200443 -1.112446 -0.066171 0.229069
    23 -0.032909 -1.480204 0.004940 -1.347419 0.000000 0.000002
    24 -0.027022 -1.076920 -0.020210 -0.400303 0.000000 0.000000
    25 -0.249534 -2.846964 -0.174213 -0.394285 -0.072967 0.301114
    26 0.043235 -1.683941 0.096012 -1.779835 0.002823 -0.000167
    27 0.031729 -1.160830 0.058838 -0.380122 0.000642 0.008372
    28 -0.963866 -2.785145 -0.085350 0.051258 -0.124848 0.206177
    29 0.028479 -1.403067 0.006271 -1.421551 0.000000 0.000000
    30 0.021413 -0.957781 0.020046 -0.392787 0.000000 0.000000
    31 1.164475 -2.543940 -0.170330 -0.861563 -0.248888 0.129694
    32 0.024032 -1.129042 0.017807 -1.147963 0.000000 0.000001
    33 0.014898 -0.883989 -0.019848 -0.637535 0.000000 0.000000
    34 -0.586770 -1.131660 0.329071 -0.261231 -0.063290 -2.775955
    35 1.468146 0.148527 0.012942 -0.037512 0.029023 0.638198
    36 1.117947 0.048424 -0.005766 0.018273 0.030590 0.216814
    37 -0.041740 -0.217170 -0.180921 0.410722 0.347940 1.237494
    38 -1.393470 8.839177 -0.239433 1.580804 -0.005023 -1.566847
    39 1.054939 -3.636106 0.874731 -0.016071 -0.000424 -3.923814
    40 -5.456142 2.769706 0.000000 0.000001 0.000000 0.804627
    41 -1.107399 -0.076477 0.744081 0.000000 0.000001 1.570796
    42 8.425154 -1.073555 9.097933 1.655723 1.354403 -0.685587
    43 -6.622900 1.902025 0.830027 0.000001 -0.188316 0.804626
    44 -7.386365 6.898025 -0.000001 0.000000 0.000000 2.377264
    45 -1.019399 0.526195 0.000000 0.000000 0.000000 0.672587
    46 30.529329 15.883387 4.390577 2.913819 0.076080 0.651029
    47 8.423338 -1.074370 9.097933 1.655738 1.354363 -0.685587
    48 21.285101 34.265373 -4.807539 2.336966 1.570796 0.000000
  time 21
    0 2.305912 -2.927136 -15.152187 -0.175360 0.114033 -0.018969
    1 12.036749 2.149832 1.274495 0.937615 -2.029550 -1.288375
    2 1.257180 8.762585 -0.153713 -1.570562 0.002683 -1.566807
    3 -0.071921 -8.498736 -0.104134 0.060464 0.269826 -0.435902
    4 -0.488518 -2.755602 -0.228260 -0.975764 -0.012654 -0.479338
    5 0.039887 -1.479790 0.029854 -1.633593 0.000000 0.000001
    6 0.028786 -1.075731 -0.023109 -1.079768 0.000000 0.000000
    7 0.250027 -2.902699 -0.238396 -0.786122 -0.041775 -0.449047
    8 -0.049759 -1.680544 0.100479 -1.700938 0.000000 -0.000002
    9 -0.034142 -1.148312 0.084782 -1.417600 0.000000 0.000000
    10 1.207774 -3.121791 -0.090302 0.071211 -0.020967 -0.223811
    11 -0.033420 -1.397129 -0.011257 -1.086866 -0.058629 -0.003740
    12 -0.022360 -0.957436 0.018784 -0.906350 0.000000 0.000000
    13 -1.180681 -2.456434 -0.021979 -1.018798 0.181450 -0.662478
    14 -0.024967 -1.123934 0.017597 -1.658884 0.000000 0.000001
    15 -0.020057 -0.890968 0.010090 -0.829947 0.000000 0.000000
    16 0.583510 -1.197277 0.509608 0.061046 -0.873305 -0.553179
    17 1.535927 0.010246 0.005009 0.009716 -0.009096 -1.042668
    18 1.100771 0.004527 -0.010679 -0.014421 0.007404 -0.920566
    19 -0.059540 -0.081521 -0.101365 3.404069 6.051553 -1.412612
    20 -0.364522 -8.473546 -2.059940 -1.997582 -5.467784 -1.226165
    21 0.096944 -8.450418 -0.009365 0.526528 -0.316798 0.569589
    22 0.447953 -2.798986 -0.200443 -1.112446 -0.066171 0.229069
    23 -0.032909 -1.480204 0.004940 -1.347419 0.000000 0.000002
    24 -0.027022 -1.076920 -0.020210 -0.400303 0.000000 0.000000
    25 -0.249534 -2.846964 -0.174213 -0.394285 -0.072967 0.301114
    26 0.043235 -1.683941 0.096012 -1.779835 0.002823 -0.000167
    27 0.031729 -1.160830 0.058838 -0.380122 0.000642 0.008372
    28 -0.963866 -2.785145 -0.085350 0.051258 -0.124848 0.206177
    29 0.028479 -1.403067 0.006271 -1.421551 0.000000 0.000000
    30 0.021413 -0.957781 0.020046 -0.392787 0.000000 0.000000
    31 1.164475 -2.543940 -0.170330 -0.861563 -0.248888 0.129694
    32 0.024032 -1.129042 0.017807 -1.147963 0.000000 0.000001
    33 0.014898 -0.883989 -0.019848 -0.637535 0.000000 0.000000
    34 -0.586770 -1.131660 0.329071 -0.261231 -0.063290 -2.775955
    35 1.468146 0.148527 0.012942 -0.037741 0.031624 0.623087
    36 1.117947 0.048424 -0.005766 0.018273 0.030590 0.216814
    37 -0.041740 -0.217170 -0.180921 0.410722 0.347940 1.237494
    38 -1.393470 8.839177 -0.239433 1.580804 -0.005023 -1.566847
    39 1.054939 -3.636106 0.874731 -0.016071 -0.000409 -3.923814
    40 -5.456142 2.769706 0.000000 0.000001 0.000000 0.804627
    41 -1.107399 -0.076477 0.744081 0.000000 0.000001 1.570796
    42 8.425154 -1.073555 9.097933 1.655723 1.354403 -0.685587
    43 -6.622900 1.902025 0.830027 0.000001 -0.188316 0.804626
    44 -7.386365 6.898025 -0.000001 0.000000 0.000000 2.377264
    45 -1.019399 0.526195 0.000000 0.000000 0.000000 0.672587
    46 30.857464 15.566972 4.769495 2.914489 0.064121 0.642230
    47 8.423338 -1.074370 9.097933 1.655738 1.354363 -0.685587
    48 21.285101 34.265373 -4.807539 2.336966 1.570796 0.000000
  time 22
    0 2.305912 -3.141986 -15.144374 -0.188287 0.104122 -0.019116
    1 12.036749 2.149832 1.274495 0.937615 -2.029550 -1.288375
    2 1.257180 8.762585 -0.153713 -1.570562 0.002683 -1.566807
    3 -0.071921 -8.498736 -0.104134 0.060692 0.269481 -0.434672
    4 -0.488518 -2.755602 -0.228260 -0.975764 -0.012654 -0.479338
    5 0.039887 -1.479790 0.029854 -1.633593 0.000000 0.000001
    6 0.028786 -1.075731 -0.023109 -1.079768 0.000000 0.000000
    7 0.250027 -2.902699 -0.238396 -0.786122 -0.041775 -0.449047
    8 -0.049759 -1.680544 0.100479 -1.700938 0.000000 -0.000002
    9 -0.034142 -1.148312 0.084782 -1.417600 0.000000 0.000000
    10 1.207774 -3.121791 -0.090302 0.071211 -0.020967 -0.223811
    11 -0.033420 -1.397129 -0.011257 -1.086866 -0.058629 -0.003740
    12 -0.022360 -0.957436 0.018784 -0.906350 0.000000 0.000000
    13 -1.180681 -2.456434 -0.021979 -1.018798 0.181450 -0.662478
    14 -0.024967 -1.123934 0.017597 -1.658884 0.000000 0.000001
    15 -0.020057 -0.890968 0.010090 -0.829947 0.000000 0.000000
    16 0.583510 -1.197277 0.509608 0.061046 -0.873305 -0.553179
    17 1.535927 0.010246 0.005009 0.009716 -0.009096 -1.042668
    18 1.100771 0.004527 -0.010679 -0.014421 0.007404 -0.920566
    19 -0.059540 -0.081521 -0.101365 3.404069 6.051553 -1.412612
    20 -0.364522 -8.473546 -2.056033 -1.997582 -5.467784 -1.226165
    21 0.096944 -8.450418 -0.009365 0.526815 -0.316001 0.568605
    22 0.447953 -2.798986 -0.200443 -1.112446 -0.066171 0.229069
    23 -0.032909 -1.480204 0.004940 -1.347419 0.000000 0.000002
    24 -0.027022 -1.076920 -0.020210 -0.400303 0.000000 0.000000
    25 -0.249534 -2.846964 -0.174213 -0.394285 -0.072967 0.301114
    26 0.043235 -1.683941 0.096012 -1.779835 0.002823 -0.000167
    27 0.031729 -1.160830 0.058838 -0.380122 0.000642 0.008372
    28 -0.963866 -2.785145 -0.085350 0.051258 -0.124848 0.206177
    29 0.028479 -1.403067 0.006271 -1.421551 0.000000 0.000000
    30 0.021413 -0.957781 0.020046 -0.392787 0.000000 0.000000
    31 1.164475 -2.543940 -0.170330 -0.861563 -0.248888 0.129694
    32 0.024032 -1.129042 0.017807 -1.147963 0.000000 0.000001
    33 0.014898 -0.883989 -0.019848 -0.637535 0.000000 0.000000
    34 -0.586770 -1.131660 0.329071 -0.261231 -0.063290 -2.775955
    35 1.468146 0.148527 0.012942 -0.037970 0.034045 0.609061
    36 1.117947 0.048424 -0.005766 0.018273 0.030590 0.216814
    37 -0.041740 -0.217170 -0.180921 0.410722 0.347940 1.237494
    38 -1.393470 8.839177 -0.239433 1.580804 -0.005023 -1.566847
    39 1.054939 -3.636106 0.874731 -0.016071 -0.000409 -3.923814
    40 -5.456142 2.769706 0.000000 0.000001 0.000000 0.804627
    41 -1.107399 -0.076477 0.744081 0.000000 0.000001 1.570796
    42 8.425154 -1.073555 9.097933 1.655723 1.354403 -0.685587
    43 -6.622900 1.902025 0.830027 0.000001 -0.188316 0.804626
    44 -7.386365 6.898025 -0.000001 0.000000 0.000000 2.377264
    45 -1.019399 0.526195 0.000000 0.000000 0.000000 0.672587
    46 31.216850 15.164616 5.164038 2.915063 0.051504 0.630474
    47 8.423338 -1.074370 9.097933 1.655738 1.354363 -0.685587
    48 21.285101 34.265373 -4.807539 2.336966 1.570796 0.000000
  time 23
    0 2.305912 -3.345117 -15.140468 -0.201269 0.095493 -0.019263
    1 12.036749 2.149832 1.274495 0.937615 -2.029550 -1.288375
    2 1.257180 8.762585 -0.153713 -1.570562 0.002683 -1.566807
    3 -0.071921 -8.498736 -0.104134 0.061291 0.268557 -0.431384
    4 -0.488518 -2.755602 -0.228260 -0.975731 -0.012654 -0.479338
    5 0.039887 -1.479790 0.029854 -1.633593 0.000000 0.000001
    6 0.028786 -1.075731 -0.023109 -1.079768 0.000000 0.000000
    7 0.250027 -2.902699 -0.238396 -0.786122 -0.041775 -0.449047
    8 -0.049759 -1.680544 0.100479 -1.700938 0.000000 -0.000002
    9 -0.034142 -1.148312 0.084782 -1.417600 0.000000 0.000000
    10 1.207774 -3.121791 -0.090302 0.071211 -0.020967 -0.223811
    11 -0.033420 -1.397129 -0.011257 -1.086866 -0.058629 -0.003740
    12 -0.022360 -0.957436 0.018784 -0.906350 0.000000 0.000000
    13 -1.180681 -2.456434 -0.021979 -1.018798 0.181450 -0.662478
    14 -0.024967 -1.123934 0.017597 -1.658884 0.000000 0.000001
    15 -0.020057 -0.890968 0.010090 -0.829947 0.000000 0.000000
    16 0.583510 -1.197277 0.509608 0.061046 -0.873305 -0.553179
    17 1.535927 0.010246 0.005009 0.009716 -0.009096 -1.042668
    18 1.100771 0.004527 -0.010679 -0.014421 0.007404 -0.920566
    19 -0.059540 -0.081521 -0.101365 3.404069 6.051553 -1.412612
    20 -0.364522 -8.481359 -2.036502 -1.997582 -5.467784 -1.226165
    21 0.096944 -8.450418 -0.009365 0.527551 -0.313833 0.566015
    22 0.447953 -2.798986 -0.200443 -1.112446 -0.066171 0.229069
    23 -0.032909 -1.480204 0.004940 -1.347419 0.000000 0.000002
    24 -0.027022 -1.076920 -0.020210 -0.400303 0.000000 0.000000
    25 -0.249534 -2.846964 -0.174213 -0.394285 -0.072967 0.301114
    26 0.043235 -1.683941 0.096012 -1.779835 0.002823 -0.000167
    27 0.031729 -1.160830 0.058838 -0.380122 0.000642 0.008372
    28 -0.963866 -2.785145 -0.085350 0.051258 -0.124848 0.206177
    29 0.028479 -1.403067 0.006271 -1.421551 0.000000 0.000000
    30 0.021413 -0.957781 0.020046 -0.392787 0.000000 0.000000
    31 1.164475 -2.543940 -0.170330 -0.861563 -0.248888 0.129694
    32 0.024032 -1.129042 0.017807 -1.147963 0.000000 0.000001
    33 0.014898 -0.883989 -0.019848 -0.637535 0.000000 0.000000
    34 -0.586770 -1.131660 0.329071 -0.261231 -0.063290 -2.775955
    35 1.468146 0.148527 0.012942 -0.038171 0.036298 0.596280
    36 1.117947 0.048424 -0.005766 0.018273 0.030590 0.216814
    37 -0.041740 -0.217170 -0.180921 0.410722 0.347940 1.237494
    38 -1.393470 8.839177 -0.239433 1.580804 -0.005023 -1.566847
    39 1.054939 -3.636106 0.874731 -0.016071 -0.000409 -3.923814
    40 -5.456142 2.769706 0.000000 0.000001 0.000000 0.804627
    41 -1.107399 -0.076477 0.744081 0.000000 0.000001 1.570796
    42 8.425154 -1.073555 9.097933 1.655723 1.354403 -0.685587
    43 -6.622900 1.902025 0.830027 0.000001 -0.188316 0.804626
    44 -7.386365 6.898025 -0.000001 0.000000 0.000000 2.377264
    45 -1.019399 0.526195 0.000000 0.000000 0.000000 0.672587
    46 31.591862 14.688038 5.542956 2.915638 0.039640 0.616396
    47 8.423338 -1.074370 9.097933 1.655738 1.354363 -0.685587
    48 21.285101 34.265373 -4.807539 2.336966 1.570796 0.000000
  time 24
    0 2.305912 -3.536529 -15.140468 -0.213289 0.089381 -0.019360
    1 12.036749 2.149832 1.274495 0.937615 -2.029550 -1.288375
    2 1.257180 8.762585 -0.153713 -1.570562 0.002683 -1.566807
    3 -0.071921 -8.498736 -0.104134 0.062154 0.267210 -0.426640
    4 -0.488518 -2.755602 -0.228260 -0.975764 -0.012654 -0.479338
    5 0.039887 -1.479790 0.029854 -1.633593 0.000000 0.000001
    6 0.028786 -1.075731 -0.023109 -1.079768 0.000000 0.000000
    7 0.250027 -2.902699 -0.238396 -0.786122 -0.041775 -0.449047
    8 -0.049759 -1.680544 0.100479 -1.700938 0.000000 -0.000002
    9 -0.034142 -1.148312 0.084782 -1.417600 0.000000 0.000000
    10 1.207774 -3.121791 -0.090302 0.071211 -0.020967 -0.223811
    11 -0.033420 -1.397129 -0.011257 -1.086866 -0.058629 -0.003740
    12 -0.022360 -0.957436 0.018784 -0.906350 0.000000 0.000000
    13 -1.180681 -2.456434 -0.021979 -1.018798 0.181450 -0.662478
    14 -0.024967 -1.123934 0.017597 -1.658884 0.000000 0.000001
    15 -0.020057 -0.890968 0.010090 -0.829947 0.000000 0.000000
    16 0.583510 -1.197277 0.509608 0.061046 -0.873305 -0.553179
    17 1.535927 0.010246 0.005009 0.009716 -0.009096 -1.042668
    18 1.100771 0.004527 -0.010679 -0.014421 0.007404 -0.920566
    19 -0.059540 -0.081521 -0.101365 3.404069 6.051553 -1.412521
    20 -0.368428 -8.489172 -2.005251 -1.997582 -5.467784 -1.226165
    21 0.096944 -8.450418 -0.009365 0.528614 -0.310692 0.562183
    22 0.447953 -2.798986 -0.200443 -1.112446 -0.066171 0.229069
    23 -0.032909 -1.480204 0.004940 -1.347419 0.000000 0.000002
    24 -0.027022 -1.076920 -0.020210 -0.400303 0.000000 0.000000
    25 -0.249534 -2.846964 -0.174213 -0.394285 -0.072967 0.301114
    26 0.043235 -1.683941 0.096012 -1.779835 0.002823 -0.000167
    27 0.031729 -1.160830 0.058838 -0.380122 0.000642 0.008372
    28 -0.963866 -2.785145 -0.085350 0.051258 -0.124848 0.206177
    29 0.028479 -1.403067 0.006271 -1.421551 0.000000 0.000000
    30 0.021413 -0.957781 0.020046 -0.392787 0.000000 0.000000
    31 1.164475 -2.543940 -0.170330 -0.861563 -0.248888 0.129694
    32 0.024032 -1.129042 0.017807 -1.147963 0.000000 0.000001
    33 0.014898 -0.883989 -0.019848 -0.637535 0.000000 0.000000
    34 -0.586770 -1.131660 0.329071 -0.261231 -0.063290 -2.775955
    35 1.468146 0.148527 0.012942 -0.038342 0.038311 0.584826
    36 1.117947 0.048424 -0.005766 0.018273 0.030590 0.216814
    37 -0.041740 -0.217170 -0.180921 0.410722 0.347940 1.237494
    38 -1.393470 8.839177 -0.239433 1.580804 -0.005023 -1.566847
    39 1.054939 -3.636106 0.874731 -0.016071 -0.000424 -3.923814
    40 -5.456142 2.769706 0.000000 0.000001 0.000000 0.804627
    41 -1.107399 -0.076477 0.744081 0.000000 0.000001 1.570796
    42 8.425154 -1.073555 9.097933 1.655723 1.354403 -0.685587
    43 -6.622900 1.902025 0.830027 0.000001 -0.188316 0.804626
    44 -7.386365 6.898025 -0.000001 0.000000 0.000000 2.377264
    45 -1.019399 0.526195 0.000000 0.000000 0.000000 0.672587
    46 31.951248 14.176304 5.855465 2.916117 0.030130 0.601261
    47 8.423338 -1.074370 9.097933 1.655738 1.354363 -0.685587
    48 21.285101 34.265373 -4.807539 2.336966 1.570796 0.000000
  time 25
    0 2.305912 -3.708409 -15.140468 -0.223297 0.087068 -0.019360
    1 12.036749 2.149832 1.274495 0.937615 -2.029550 -1.288375
    2 1.257180 8.762585 -0.153713 -1.570562 0.002683 -1.566807
    3 -0.071921 -8.498736 -0.104134 0.063173 0.265612 -0.421018
    4 -0.488518 -2.755602 -0.228260 -0.975764 -0.012654 -0.479338
    5 0.039887 -1.479790 0.029854 -1.633593 0.000000 0.000001
    6 0.028786 -1.075731 -0.023109 -1.079768 0.000000 0.000000
    7 0.250027 -2.902699 -0.238396 -0.786122 -0.041775 -0.449047
    8 -0.049759 -1.680544 0.100479 -1.700938 0.000000 -0.000002
    9 -0.034142 -1.148312 0.084782 -1.417600 0.000000 0.000000
    10 1.207774 -3.121791 -0.090302 0.071211 -0.020967 -0.223811
    11 -0.033420 -1.397129 -0.011257 -1.086866 -0.058629 -0.003740
    12 -0.022360 -0.957436 0.018784 -0.906322 0.000000 0.000000
    13 -1.180681 -2.456434 -0.021979 -1.018798 0.181450 -0.662478
    14 -0.024967 -1.123934 0.017597 -1.658884 0.000000 0.000001
    15 -0.020057 -0.890968 0.010090 -0.829947 0.000000 0.000000
    16 0.583510 -1.197277 0.509608 0.061046 -0.873305 -0.553179
    17 1.535927 0.010246 0.005009 0.009716 -0.009096 -1.042668
    18 1.100771 0.004527 -0.010679 -0.014421 0.007404 -0.920566
    19 -0.059540 -0.081521 -0.101365 3.404069 6.051553 -1.412612
    20 -0.372334 -8.496984 -1.974000 -1.997582 -5.467784 -1.226165
    21 0.096944 -8.450418 -0.009365 0.529840 -0.306976 0.557677
    22 0.447953 -2.798986 -0.200443 -1.112446 -0.066171 0.229069
    23 -0.032909 -1.480204 0.004940 -1.347419 0.000000 0.000002
    24 -0.027022 -1.076920 -0.020210 -0.400303 0.000000 0.000000
    25 -0.249534 -2.846964 -0.174213 -0.394285 -0.072967 0.301114
    26 0.043235 -1.683941 0.096012 -1.779835 0.002823 -0.000167
    27 0.031729 -1.160830 0.058838 -0.380122 0.000642 0.008372
    28 -0.963866 -2.785145 -0.085350 0.051258 -0.124848 0.206177
    29 0.028479 -1.403067 0.006271 -1.421551 0.000000 0.000000
    30 0.021413 -0.957781 0.020046 -0.392787 0.000000 0.000000
    31 1.164475 -2.543940 -0.170330 -0.861563 -0.248888 0.129694
    32 0.024032 -1.129042 0.017807 -1.147963 0.000000 0.000001
    33 0.014898 -0.883989 -0.019848 -0.637535 0.000000 0.000000
    34 -0.586770 -1.131660 0.329071 -0.261231 -0.063290 -2.775955
    35 1.468146 0.148527 0.012942 -0.038514 0.040097 0.574819
    36 1.117947 0.048424 -0.005766 0.018273 0.030590 0.216814
    37 -0.041740 -0.217170 -0.180921 0.410722 0.347940 1.237494
    38 -1.393470 8.839177 -0.239433 1.580804 -0.005023 -1.566847
    39 1.054939 -3.636106 0.874731 -0.016071 -0.000424 -3.923814
    40 -5.456142 2.769706 0.000000 0.000001 0.000000 0.804627
    41 -1.107399 -0.076477 0.744081 0.000000 0.000001 1.570796
    42 8.425154 -1.073555 9.097933 1.655723 1.354403 -0.685587
    43 -6.622900 1.902025 0.830027 0.000001 -0.188316 0.804626
    44 -7.386365 6.898025 -0.000001 0.000000 0.000000 2.377264
    45 -1.019399 0.526195 0.000000 0.000000 0.000000 0.672587
    46 32.275476 13.660663 6.054690 2.916499 0.024575 0.586408
    47 8.423338 -1.074370 9.097933 1.655738 1.354363 -0.685587
    48 21.285101 34.265373 -4.807539 2.336966 1.570796 0.000000
  time 26
    0 2.305912 -3.864664 -15.148281 -0.232381 0.087068 -0.019360
    1 12.036749 2.149832 1.274495 0.937615 -2.029550 -1.288375
    2 1.257180 8.762585 -0.153713 -1.570562 0.002683 -1.566807
    3 -0.071921 -8.498736 -0.104134 0.064263 0.263904 -0.415095
    4 -0.488518 -2.755602 -0.228260 -0.975764 -0.012654 -0.479338
    5 0.039887 -1.479790 0.029854 -1.633593 0.000000 0.000001
    6 0.028786 -1.075731 -0.023109 -1.079768 0.000000 0.000000
    7 0.250027 -2.902699 -0.238396 -0.786122 -0.041775 -0.449047
    8 -0.049759 -1.680544 0.100479 -1.700938 0.000000 -0.000002
    9 -0.034142 -1.148312 0.084782 -1.417600 0.000000 0.000000
    10 1.207774 -3.121791 -0.090302 0.071211 -0.020967 -0.223811
    11 -0.033420 -1.397129 -0.011257 -1.086866 -0.058629 -0.003740
    12 -0.022360 -0.957436 0.018784 -0.906350 0.000000 0.000000
    13 -1.180681 -2.456434 -0.021979 -1.018798 0.181450 -0.662478
    14 -0.024967 -1.123934 0.017597 -1.658884 0.000000 0.000001
    15 -0.020057 -0.890968 0.010090 -0.829947 0.000000 0.000000
    16 0.583510 -1.197277 0.509608 0.061046 -0.873305 -0.553179
    17 1.535927 0.010246 0.005009 0.009716 -0.009096 -1.042668
    18 1.100771 0.004527 -0.010679 -0.014421 0.007404 -0.920566
    19 -0.059540 -0.081521 -0.101365 3.404069 6.051553 -1.412612
    20 -0.372334 -8.504797 -1.938842 -1.997582 -5.467784 -1.226165
    21 0.096944 -8.450418 -0.009365 0.531148 -0.303039 0.552964
    22 0.447953 -2.798986 -0.200443 -1.112446 -0.066171 0.229069
    23 -0.032909 -1.480204 0.004940 -1.347419 0.000000 0.000002
    24 -0.027022 -1.076920 -0.020210 -0.400303 0.000000 0.000000
    25 -0.249534 -2.846964 -0.174213 -0.394285 -0.072967 0.301114
    26 0.043235 -1.683941 0.096012 -1.779835 0.002823 -0.000167
    27 0.031729 -1.160830 0.058838 -0.380122 0.000642 0.008372
    28 -0.963866 -2.785145 -0.085350 0.051258 -0.124848 0.206177
    29 0.028479 -1.403067 0.006271 -1.421551 0.000000 0.000000
    30 0.021413 -0.957781 0.020046 -0.392787 0.000000 0.000000
    31 1.164475 -2.543940 -0.170330 -0.861563 -0.248888 0.129694
    32 0.024032 -1.129042 0.017807 -1.147963 0.000000 0.000001
    33 0.014898 -0.883989 -0.019848 -0.637535 0.000000 0.000000
    34 -0.586770 -1.131660 0.329071 -0.261231 -0.063290 -2.775955
    35 1.468146 0.148527 0.012942 -0.038658 0.041619 0.566379
    36 1.117947 0.048424 -0.005766 0.018273 0.030590 0.216814
    37 -0.041740 -0.217170 -0.180921 0.410722 0.347940 1.237494
    38 -1.393470 8.839177 -0.239433 1.580804 -0.005023 -1.566847
    39 1.054939 -3.636106 0.874731 -0.016071 -0.000409 -3.923814
    40 -5.456142 2.769706 0.000000 0.000001 0.000000 0.804627
    41 -1.107399 -0.076477 0.744081 0.000000 0.000001 1.570796
    42 8.425154 -1.073555 9.097933 1.655723 1.354403 -0.685587
    43 -6.622900 1.902025 0.830027 0.000001 -0.188316 0.804626
    44 -7.386365 6.898025 -0.000001 0.000000 0.000000 2.377264
    45 -1.019399 0.526195 0.000000 0.000000 0.000000 0.672587
    46 32.564548 13.148929 6.183600 2.916978 0.021468 0.571696
    47 8.423338 -1.074370 9.097933 1.655738 1.354363 -0.685587
    48 21.285101 34.265373 -4.807539 2.336966 1.570796 0.000000
  time 27
    0 2.305912 -4.001387 -15.167812 -0.241537 0.087068 -0.019360
    1 12.036749 2.149832 1.274495 0.937615 -2.029550 -1.288375
    2 1.257180 8.762585 -0.153713 -1.570562 0.002683 -1.566807
    3 -0.071921 -8.498736 -0.104134 0.065294 0.262290 -0.409498
    4 -0.488518 -2.755602 -0.228260 -0.975764 -0.012654 -0.479338
    5 0.039887 -1.479790 0.029854 -1.633593 0.000000 0.000001
    6 0.028786 -1.075731 -0.023109 -1.079768 0.000000 0.000000
    7 0.250027 -2.902699 -0.238396 -0.786122 -0.041775 -0.449047
    8 -0.049759 -1.680544 0.100479 -1.700938 0.000000 -0.000002
    9 -0.034142 -1.148312 0.084782 -1.417600 0.000000 0.000000
    10 1.207774 -3.121791 -0.090302 0.071211 -0.020967 -0.223811
    11 -0.033420 -1.397129 -0.011257 -1.086866 -0.058629 -0.003740
    12 -0.022360 -0.957436 0.018784 -0.906322 0.000000 0.000000
    13 -1.180681 -2.456434 -0.021979 -1.018798 0.181450 -0.662478
    14 -0.024967 -1.123934 0.017597 -1.658884 0.000000 0.000001
    15 -0.020057 -0.890968 0.010090 -0.829947 0.000000 0.000000
    16 0.583510 -1.197277 0.509608 0.061046 -0.873305 -0.553179
    17 1.535927 0.010246 0.005009 0.009716 -0.009096 -1.042668
    18 1.100771 0.004527 -0.010679 -0.014421 0.007404 -0.920566
    19 -0.059540 -0.081521 -0.101365 3.404069 6.051463 -1.412521
    20 -0.376241 -8.512610 -1.903685 -1.997582 -5.467784 -1.226165
    21 0.096944 -8.450418 -0.009365 0.532416 -0.299323 0.548510
    22 0.447953 -2.798986 -0.200443 -1.112446 -0.066171 0.229069
    23 -0.032909 -1.480204 0.004940 -1.347419 0.000000 0.000002
    24 -0.027022 -1.076920 -0.020210 -0.400303 0.000000 0.000000
    25 -0.249534 -2.846964 -0.174213 -0.394285 -0.072967 0.301114
    26 0.043235 -1.683941 0.096012 -1.779835 0.002823 -0.000167
    27 0.031729 -1.160830 0.058838 -0.380122 0.000642 0.008372
    28 -0.963866 -2.785145 -0.085350 0.051258 -0.124848 0.206177
    29 0.028479 -1.403067 0.006271 -1.421551 0.000000 0.000000
    30 0.021413 -0.957781 0.020046 -0.392787 0.000000 0.000000
    31 1.164475 -2.543940 -0.170330 -0.861563 -0.248888 0.129694
    32 0.024032 -1.129042 0.017807 -1.147963 0.000000 0.000001
    33 0.014898 -0.883989 -0.019848 -0.637535 0.000000 0.000000
    34 -0.586770 -1.131660 0.329071 -0.261231 -0.063290 -2.775955
    35 1.468146 0.148527 0.012942 -0.038772 0.042841 0.559627
    36 1.117947 0.048424 -0.005766 0.018273 0.030590 0.216814
    37 -0.041740 -0.217170 -0.180921 0.410722 0.347940 1.237494
    38 -1.393470 8.839177 -0.239433 1.580804 -0.005023 -1.566847
    39 1.054939 -3.636106 0.874731 -0.016071 -0.000409 -3.923814
    40 -5.456142 2.769706 0.000000 0.000001 0.000000 0.804627
    41 -1.107399 -0.076477 0.744081 0.000000 0.000001 1.570796
    42 8.425154 -1.073555 9.097933 1.655723 1.354403 -0.685587
    43 -6.622900 1.902025 0.830027 0.000001 -0.188316 0.804626
    44 -7.386365 6.898025 -0.000001 0.000000 0.000000 2.377264
    45 -1.019399 0.526195 0.000000 0.000000 0.000000 0.672587
    46 32.822368 12.645007 6.304698 2.917457 0.018361 0.557265
    47 8.423338 -1.074370 9.097933 1.655738 1.354363 -0.685587
    48 21.285101 34.265373 -4.807539 2.336966 1.570796 0.000000
  time 28
    0 2.305912 -4.110765 -15.187344 -0.249533 0.087068 -0.019360
    1 12.036749 2.149832 1.274495 0.937615 -2.029550 -1.288375
    2 1.257180 8.762585 -0.153713 -1.570562 0.002683 -1.566807
    3 -0.071921 -8.498736 -0.104134 0.066169 0.260912 -0.404754
    4 -0.488518 -2.755602 -0.228260 -0.975731 -0.012654 -0.479338
    5 0.039887 -1.479790 0.029854 -1.633593 0.000000 0.000001
    6 0.028786 -1.075731 -0.023109 -1.079768 0.000000 0.000000
    7 0.250027 -2.902699 -0.238396 -0.786122 -0.041775 -0.449047
    8 -0.049759 -1.680544 0.100479 -1.700938 0.000000 -0.000002
    9 -0.034142 -1.148312 0.084782 -1.417600 0.000000 0.000000
    10 1.207774 -3.121791 -0.090302 0.071211 -0.020967 -0.223811
    11 -0.033420 -1.397129 -0.011257 -1.086866 -0.058629 -0.003740
    12 -0.022360 -0.957436 0.018784 -0.906350 0.000000 0.000000
    13 -1.180681 -2.456434 -0.021979 -1.018798 0.181450 -0.662478
    14 -0.024967 -1.123934 0.017597 -1.658884 0.000000 0.000001
    15 -0.020057 -0.890968 0.010090 -0.829947 0.000000 0.000000
    16 0.583510 -1.197277 0.509608 0.061046 -0.873305 -0.553179
    17 1.535927 0.010246 0.005009 0.009716 -0.009096 -1.042668
    18 1.100771 0.004527 -0.010679 -0.014421 0.007404 -0.920566
    19 -0.059540 -0.081521 -0.101365 3.404069 6.051553 -1.412612
    20 -0.380147 -8.520423 -1.876341 -1.997582 -5.467784 -1.226165
    21 0.096944 -8.450418 -0.009365 0.533438 -0.296226 0.544730
    22 0.447953 -2.798986 -0.200443 -1.112446 -0.066171 0.229069
    23 -0.032909 -1.480204 0.004940 -1.347419 0.000000 0.000002
    24 -0.027022 -1.076920 -0.020210 -0.400303 0.000000 0.000000
    25 -0.249534 -2.846964 -0.174213 -0.394285 -0.072967 0.301114
    26 0.043235 -1.683941 0.096012 -1.779835 0.002823 -0.000167
    27 0.031729 -1.160830 0.058838 -0.380122 0.000642 0.008372
    28 -0.963866 -2.785145 -0.085350 0.051258 -0.124848 0.206177
    29 0.028479 -1.403067 0.006271 -1.421551 0.000000 0.000000
    30 0.021413 -0.957781 0.020046 -0.392787 0.000000 0.000000
    31 1.164475 -2.543940 -0.170330 -0.861563 -0.248888 0.129694
    32 0.024032 -1.129042 0.017807 -1.147963 0.000000 0.000001
    33 0.014898 -0.883989 -0.019848 -0.637535 0.000000 0.000000
    34 -0.586770 -1.131660 0.329071 -0.261231 -0.063290 -2.775955
    35 1.468146 0.148527 0.012942 -0.038858 0.043740 0.554643
    36 1.117947 0.048424 -0.005766 0.018273 0.030590 0.216814
    37 -0.041740 -0.217170 -0.180921 0.410722 0.347940 1.237494
    38 -1.393470 8.839177 -0.239433 1.580804 -0.005023 -1.566847
    39 1.054939 -3.636106 0.874731 -0.016071 -0.000424 -3.923814
    40 -5.456142 2.769706 0.000000 0.000001 0.000000 0.804627
    41 -1.107399 -0.076477 0.744081 0.000000 0.000001 1.570796
    42 8.452499 -1.206371 9.129184 1.668290 1.353957 -0.685779
    43 -6.622900 1.902025 0.830027 0.000001 -0.188316 0.804626
    44 -7.386365 6.898025 -0.000001 0.000000 0.000000 2.377264
    45 -1.019399 0.526195 0.000000 0.000000 0.000000 0.672587
    46 33.029406 12.215307 6.410170 2.918031 0.015630 0.544806
    47 8.454589 -1.203280 9.129184 1.668274 1.353991 -0.685779
    48 21.285101 34.265373 -4.807539 2.336966 1.570796 0.000000
  time 29
    0 2.305912 -4.184986 -15.206876 -0.255207 0.087068 -0.019360
    1 12.036749 2.149832 1.274495 0.937615 -2.029550 -1.288375
    2 1.257180 8.762585 -0.153713 -1.570562 0.002683 -1.566807
    3 -0.071921 -8.498736 -0.104134 0.066768 0.259972 -0.401491
    4 -0.488518 -2.755602 -0.228260 -0.975764 -0.012654 -0.479338
    5 0.039887 -1.479790 0.029854 -1.633593 0.000000 0.000001
    6 0.028786 -1.075731 -0.023109 -1.079768 0.000000 0.000000
    7 0.250027 -2.902699 -0.238396 -0.786122 -0.041775 -0.449047
    8 -0.049759 -1.680544 0.100479 -1.700938 0.000000 -0.000002
    9 -0.034142 -1.148312 0.084782 -1.417600 0.000000 0.000000
    10 1.207774 -3.121791 -0.090302 0.071211 -0.020967 -0.223811
    11 -0.033420 -1.397129 -0.011257 -1.086866 -0.058629 -0.003740
    12 -0.022360 -0.957436 0.018784 -0.906350 0.000000 0.000000
    13 -1.180681 -2.456434 -0.021979 -1.018798 0.181450 -0.662478
    14 -0.024967 -1.123934 0.017597 -1.658884 0.000000 0.000001
    15 -0.020057 -0.890968 0.010090 -0.829947 0.000000 0.000000
    16 0.583510 -1.197277 0.509608 0.061046 -0.873305 -0.553179
    17 1.535927 0.010246 0.005009 0.009716 -0.009096 -1.042668
    18 1.100771 0.004527 -0.010679 -0.014421 0.007404 -0.920566
    19 -0.059540 -0.081521 -0.101365 3.404069 6.051553 -1.412612
    20 -0.380147 -8.528235 -1.856809 -1.997582 -5.467784 -1.226165
    21 0.096944 -8.450418 -0.009365 0.534174 -0.294058 0.542140
    22 0.447953 -2.798986 -0.200443 -1.112446 -0.066171 0.229069
    23 -0.032909 -1.480204 0.004940 -1.347419 0.000000 0.000002
    24 -0.027022 -1.076920 -0.020210 -0.400303 0.000000 0.000000
    25 -0.249534 -2.846964 -0.174213 -0.394285 -0.072967 0.301114
    26 0.043235 -1.683941 0.096012 -1.779835 0.002823 -0.000167
    27 0.031729 -1.160830 0.058838 -0.380122 0.000642 0.008372
    28 -0.963866 -2.785145 -0.085350 0.051258 -0.124848 0.206177
    29 0.028479 -1.403067 0.006271 -1.421551 0.000000 0.000000
    30 0.021413 -0.957781 0.020046 -0.392787 0.000000 0.000000
    31 1.164475 -2.543940 -0.170330 -0.861563 -0.248888 0.129694
    32 0.024032 -1.129042 0.017807 -1.147963 0.000000 0.000001
    33 0.014898 -0.883989 -0.019848 -0.637535 0.000000 0.000000
    34 -0.586770 -1.131660 0.329071 -0.261231 -0.063290 -2.775955
    35 1.468146 0.148527 0.012942 -0.038887 0.044304 0.551589
    36 1.117947 0.048424 -0.005766 0.018273 0.030590 0.216814
    37 -0.041740 -0.217170 -0.180921 0.410722 0.347940 1.237494
    38 -1.393470 8.839177 -0.239433 1.580804 -0.005023 -1.566847
    39 1.054939 -3.636106 0.874731 -0.016071 -0.000409 -3.923814
    40 -5.456142 2.769706 0.000000 0.000001 0.000000 0.804627
    41 -1.107399 -0.076477 0.744081 0.000000 0.000001 1.570796
    42 8.468124 -1.296218 9.148716 1.677049 1.353689 -0.685971
    43 -6.622900 1.902025 0.830027 0.000001 -0.188316 0.804626
    44 -7.386365 6.898025 -0.000001 0.000000 0.000000 2.377264
    45 -1.019399 0.526195 0.000000 0.000000 0.000000 0.672587
    46 33.162222 11.910610 6.480484 2.918414 0.013747 0.536006
    47 8.466308 -1.293127 9.148716 1.677107 1.353701 -0.685971
    48 21.285101 34.265373 -4.807539 2.336966 1.570796 0.000000
  time 30
    0 2.305912 -4.208425 -15.214689 -0.257365 0.087068 -0.019360
    1 12.036749 2.149832 1.274495 0.937615 -2.029550 -1.288375
    2 1.257180 8.762585 -0.153713 -1.570562 0.002683 -1.566807
    3 -0.071921 -8.498736 -0.104134 0.066996 0.259612 -0.400262
    4 -0.488518 -2.755602 -0.228260 -0.975764 -0.012654 -0.479338
    5 0.039887 -1.479790 0.029854 -1.633593 0.000000 0.000001
    6 0.028786 -1.075731 -0.023109 -1.079768 0.000000 0.000000
    7 0.250027 -2.902699 -0.238396 -0.786122 -0.041775 -0.449047
    8 -0.049759 -1.680544 0.100479 -1.700938 0.000000 -0.000002
    9 -0.034142 -1.148312 0.084782 -1.417600 0.000000 0.000000
    10 1.207774 -3.121791 -0.090302 0.071211 -0.020967 -0.223811
    11 -0.033420 -1.397129 -0.011257 -1.086866 -0.058629 -0.003740
    12 -0.022360 -0.957436 0.018784 -0.906350 0.000000 0.000000
    13 -1.180681 -2.456434 -0.021979 -1.018798 0.181450 -0.662478
    14 -0.024967 -1.123934 0.017597 -1.658884 0.000000 0.000001
    15 -0.020057 -0.890968 0.010090 -0.829947 0.000000 0.000000
    16 0.583510 -1.197277 0.509608 0.061046 -0.873305 -0.553179
    17 1.535927 0.010246 0.005009 0.009716 -0.009096 -1.042668
    18 1.100771 0.004527 -0.010679 -0.014421 0.007404 -0.920566
    19 -0.059540 -0.081521 -0.101365 3.404069 6.051463 -1.412521
    20 -0.380147 -8.528235 -1.848996 -1.997582 -5.467784 -1.226165
    21 0.096944 -8.450418 -0.009365 0.534460 -0.293218 0.541156
    22 0.447953 -2.798986 -0.200443 -1.112446 -0.066171 0.229069
    23 -0.032909 -1.480204 0.004940 -1.347419 0.000000 0.000002
    24 -0.027022 -1.076920 -0.020210 -0.400303 0.000000 0.000000
    25 -0.249534 -2.846964 -0.174213 -0.394285 -0.072967 0.301114
    26 0.043235 -1.683941 0.096012 -1.779835 0.002823 -0.000167
    27 0.031729 -1.160830 0.058838 -0.380122 0.000642 0.008372
    28 -0.963866 -2.785145 -0.085350 0.051258 -0.124848 0.206177
    29 0.028479 -1.403067 0.006271 -1.421551 0.000000 0.000000
    30 0.021413 -0.957781 0.020046 -0.392787 0.000000 0.000000
    31 1.164475 -2.543940 -0.170330 -0.861563 -0.248888 0.129694
    32 0.024032 -1.129042 0.017807 -1.147963 0.000000 0.000001
    33 0.014898 -0.883989 -0.019848 -0.637535 0.000000 0.000000
    34 -0.586770 -1.131660 0.329071 -0.261231 -0.063290 -2.775955
    35 1.468146 0.148527 0.012942 -0.038915 0.044495 0.550544
    36 1.117947 0.048424 -0.005766 0.018273 0.030590 0.216814
    37 -0.041740 -0.217170 -0.180921 0.410722 0.347940 1.237494
    38 -1.393470 8.839177 -0.239433 1.580804 -0.005023 -1.566847
    39 1.054939 -3.636106 0.874731 -0.016071 -0.000409 -3.923814
    40 -5.456142 2.769706 0.000000 0.000001 0.000000 0.804627
    41 -1.107399 -0.076477 0.744081 0.000000 0.000001 1.570796
    42 8.472031 -1.327469 9.156528 1.680382 1.353599 -0.686067
    43 -6.622900 1.902025 0.830027 0.000001 -0.188316 0.804626
    44 -7.386365 6.898025 -0.000001 0.000000 0.000000 2.377264
    45 -1.019399 0.526195 0.000000 0.000000 0.000000 0.672587
    46 33.213005 11.797325 6.507829 2.918510 0.013088 0.532698
    47 8.470214 -1.328284 9.156528 1.680412 1.353619 -0.686067
    48 21.285101 34.265373 -4.807539 2.336966 1.570796 0.000000
end
