// Created by Crowbar 0.49.0.0

$modelname "weapons/tfa_cso/w_awpcamo.mdl"

$bodygroup "studio"
{
	studio "w_awpcamo_w_reference_awpcamo"
}

$collisionmodel "w_awpcamo_w_reference_awpcamo.smd"
{
	$mass 9
}

$CDMaterials "models\weapons\tfa_cso\awp"

$attachment "0" "AWP_PW" -0.00 26.90 -0.80 rotate -0 0 0

$sequence "idle" {
	"w_awpcamo_anims\idle"
	fps 30
}
