// Created by Crowbar 0.34.0.0

$ModelName "weapons/tfa_cso/w_tomahawk.mdl"

$BodyGroup "studio"
{
	studio "v_tomahawk_v_ref"
}

$collisionmodel "v_tomahawk_v_ref.smd"
{
	$mass 9
}

$CDMaterials "models\weapons\tfa_cso\tomahawk"

$Sequence "idle" {
	"anims\idle.smd"
	fps 30
}