version 1
nodes
  0 "Cylinder01" -1
end
skeleton
  time 0
    0 6.539336 -6.541412 4.098467 1.570796 0.000000 -1.570800
  time 1
    0 6.539336 -6.541412 4.098467 1.377706 -0.024578 -1.814565
  time 2
    0 6.539336 -6.541412 4.098467 1.195834 -0.094251 -2.049999
  time 3
    0 6.539336 -6.541412 4.098467 1.032656 -0.203590 -2.271612
  time 4
    0 6.539336 -6.541412 4.098467 0.893256 -0.344638 -2.479877
  time 5
    0 6.539336 -6.541412 4.098467 0.780317 -0.510044 -2.678865
  time 6
    0 6.539336 -6.541412 4.098467 0.697482 -0.692292 -2.878042
  time 7
    0 6.539336 -6.541412 4.098467 0.655968 -0.884855 -3.094543
  time 8
    0 6.539336 -6.541412 4.098467 0.688565 -1.078569 -3.367844
  time 9
    0 6.539336 -6.541412 4.098467 0.905815 -1.254619 -3.814573
  time 10
    0 6.539336 -6.541412 4.098467 -1.570796 -1.797689 -1.562280
  time 11
    0 6.539336 -6.541412 4.098467 2.241145 -1.255113 -5.599026
  time 12
    0 6.539336 -6.541412 4.098467 2.459834 -1.078569 -6.048216
  time 13
    0 6.539336 -6.541412 4.098467 2.492527 -0.883813 -0.039673
  time 14
    0 6.539336 -6.541412 4.098467 2.450630 -0.690647 -0.256931
  time 15
    0 6.539336 -6.541412 4.098467 2.367028 -0.507630 -0.456771
  time 16
    0 6.539336 -6.541412 4.098467 2.253034 -0.341840 -0.656800
  time 17
    0 6.539336 -6.541412 4.098467 2.112483 -0.200737 -0.866201
  time 18
    0 6.539336 -6.541412 4.098467 1.948059 -0.091838 -1.089329
  time 19
    0 6.539336 -6.541412 4.098467 1.764845 -0.023097 -1.325899
  time 20
    0 6.539336 -6.541412 4.098467 1.570796 0.000000 -1.570800
end
