"UnlitGeneric"
{
	"$baseTexture" "sprites/claymore_explosion1"
	"$translucent" 1
	"$additive" 1
	"Proxies"
	{
	"AnimatedTexture"
		{
		"animatedTextureVar" "$basetexture"
		"animatedTextureFrameNumVar" "$frame"
		"animatedTextureFrameRate" "44"
		}
	}
}