"UnlitGeneric"
{
	"$baseTexture" "sprites/ef_gungnir_missileex"
	"$translucent" 1
	"$additive" 1
	"Proxies"
	{
	"AnimatedTexture"
		{
		"animatedTextureVar" "$basetexture"
		"animatedTextureFrameNumVar" "$frame"
		"animatedTextureFrameRate" "9"
		}
	}
}