"UnlitGeneric"
{
	"$basetexture" "sprites/ef_gungnir_bexplo"
	"$translucent" 1
	"$vertexcolor" 1
	"$additive" 1
	"Proxies"
	{
	"AnimatedTexture"
		{
		"animatedTextureVar" "$basetexture"
		"animatedTextureFrameNumVar" "$frame"
		"animatedTextureFrameRate" "14"
		}
	}
}
