"VertexLitGeneric"
{
	$basetexture	"models\weapons\tfa_cso\tyrantmace\$20@004y23s2tyrantmace_v01"
	$bumpmap "models\weapons\tfa_cso\tyrantmace\$20@004y23s2tyrantmace_v01_n"
	$phongexponenttexture "models\weapons\v_models\Request CSO\Dragon TMP S"
	
	$phong "1"
	$phongexponent "20"
	$phongfresnelranges "[0.15 0.65 1.00]"
	$phongalbedotint "1"
	$phongboost "32"
	
	$alphatest "1"
	$ambientocclusion "0"
}