// Created by Crowbar 0.58

$modelname "weapons/tfa_cso/c_janus1b.mdl"

$Include "csonline_gmod.qci"

$bodygroup "weapon"
{
	studio "v_janus1_v_refA"
}
$bodygroup "weapon"
{
	studio "v_janus1_v_refB"
}

$CDMaterials "models\weapons\tfa_cso\janus1\"

$attachment 0 "janus1_gunbody01" 1.5 0 0

$definebone "root" "" 0.000000 0.000000 -15.471057 0.000000 0.000000 0.000000 0.000000 0.000000 0.000000 -0.000000 0.000000 0.000000
$definebone "Bone01" "root" 0.496437 0.183051 -0.013821 -0.012834 -89.771431 179.847612 0.000000 0.000000 0.000000 0.000000 0.000000 -0.000000
$definebone "Bone_Lefthand" "Bone01" -0.071919 -8.498732 -0.104137 16.477755 0.853593 -1.435030 0.000000 0.000000 0.000000 0.000005 0.000000 -0.000000
$definebone "janus1_root" "Bone_Lefthand" 3.358088 9.391057 -13.809402 -16.453053 -1.075843 -88.166576 0.000000 0.000000 0.000000 0.000000 0.000003 0.000000
$definebone "janus1_handle01" "janus1_root" -2.914634 0.679474 0.000000 0.000000 -90.249285 -0.004985 0.000000 0.000000 0.000000 0.000000 -0.000003 -0.000000
$definebone "janus1_body_root" "janus1_handle01" -0.121541 6.507638 0.000571 -0.000000 -179.779146 -0.005042 0.000000 0.000000 0.000000 -0.000000 -0.000003 0.000000
$definebone "janus1_gunbody01" "janus1_body_root" 1.123442 -2.666878 -0.000001 0.000000 -89.987142 0.000000 0.000000 0.000000 0.000000 0.000000 0.000003 0.000000
$definebone "janus1_body_bottom01" "janus1_handle01" 0.080090 2.877381 0.000253 -0.005042 90.177950 0.000000 0.000000 0.000000 0.000000 0.000000 0.000003 0.000000
$definebone "janus1_spark_bottom02" "janus1_body_bottom01" 2.094329 -0.195975 0.502426 -15.517471 -109.799411 0.000057 0.000000 0.000000 0.000000 -0.000000 0.000000 0.000000
$definebone "janus1_spark_side12" "janus1_body_bottom01" 2.944059 0.804382 -1.047167 45.458642 53.185956 179.999966 0.000000 0.000000 -0.000000 0.000007 -0.000002 0.000000
$definebone "janus1_spark_bottom01" "janus1_body_bottom01" 2.094329 -0.195975 -0.492062 15.517447 -109.799431 179.999939 0.000000 0.000000 -0.000000 0.000002 -0.000000 0.000000
$definebone "janu1_key01" "janus1_handle01" -0.874935 2.164593 0.663205 -89.884648 -89.772381 -179.996674 0.000000 0.000000 0.000000 -0.000000 0.000000 -0.000003
$definebone "janu1_key02" "janu1_key01" 0.189546 -0.000707 0.041175 -89.888084 0.000057 -90.005256 0.000000 0.000000 0.000000 0.000003 0.000000 0.000000
$definebone "janus1_trigger" "janus1_handle01" 0.148912 1.782521 0.000156 -0.000115 1.928401 0.005157 0.000000 0.000000 -0.000000 0.000000 -0.000003 -0.000000
$definebone "janus1_spark_side11" "janus1_body_bottom01" 2.944060 0.804383 1.057531 -45.458584 53.185960 0.000000 0.000000 0.000000 0.000000 0.000007 0.000001 -0.000002
$definebone "janus1_body_top" "janus1_body_root" 1.916277 3.116313 0.000000 0.000000 -89.959070 0.000000 0.000000 0.000000 0.000000 0.000000 0.000003 0.000000
$definebone "janus1_face_root02" "janus1_body_top" 2.685215 0.363636 -0.000000 -0.000000 89.971904 0.000000 0.000000 0.000000 -0.000000 -0.000000 -0.000003 0.000000
$definebone "janus1_face_root01" "janus1_face_root02" 0.009843 0.558818 0.000000 0.000057 89.990762 -0.000000 0.000000 0.000000 0.000000 -0.000000 0.000003 -0.000000
$definebone "janus1_face" "janus1_face_root01" 1.720444 -0.636467 0.000000 -0.000000 -95.468233 0.000057 0.000000 0.000000 0.000000 -0.000000 -0.000002 0.000000
$definebone "janus1_spark_top01" "janus1_body_top" 6.089385 0.390219 0.647105 -12.630682 76.094414 0.000000 0.000000 0.000000 0.000000 0.000003 -0.000001 0.000000
$definebone "janus1_spark_top02" "janus1_body_top" 5.205439 0.127231 -0.773134 25.587074 109.797027 -179.999898 -0.000000 0.000000 0.000000 -0.000000 0.000005 -0.000003
$definebone "janus1_spark_top04" "janus1_body_top" 6.089385 0.390218 -0.636743 12.630796 76.094414 179.999966 0.000000 0.000000 0.000000 0.000002 0.000003 0.000000
$definebone "janus1_spark_top05" "janus1_body_top" 5.752405 0.092806 0.694621 -7.994194 -58.383488 -0.000000 0.000000 0.000000 0.000000 -0.000001 -0.000005 0.000000
$definebone "janus1_spark_top08" "janus1_body_top" 6.701536 -0.215519 0.916581 -21.681123 124.917755 -0.000057 0.000000 0.000000 -0.000000 -0.000000 -0.000000 0.000001
$definebone "janus1_spark_side03" "janus1_body_top" 4.930563 -0.301526 0.993266 -15.739435 -63.765397 -0.000000 0.000000 0.000000 0.000000 -0.000000 -0.000004 0.000001
$definebone "janus1_spark_side05" "janus1_body_top" 4.337999 -0.496789 1.111214 -87.036876 107.795700 -0.005212 0.000000 0.000000 -0.000000 0.000000 -0.000000 0.000005
$definebone "janus1_spark_top07" "janus1_body_top" 6.701536 -0.215519 -0.906219 21.681162 124.917727 -179.999898 -0.000000 0.000000 0.000000 -0.000000 0.000002 -0.000002
$definebone "janus1_spark_side04" "janus1_body_top" 4.930563 -0.301526 -0.982904 15.739439 -63.765390 179.999966 0.000000 0.000000 0.000000 -0.000000 0.000002 -0.000001
$definebone "janus1_spark_side06" "janus1_body_top" 4.337997 -0.496790 -1.100851 87.036794 107.797633 -179.992945 0.000000 0.000000 0.000000 0.000000 0.000000 -0.000005
$definebone "janus1_body_L" "janus1_body_root" 1.147804 1.496010 -0.847732 89.937453 -90.296297 -90.308503 0.000000 0.000000 -0.000000 0.000000 -0.000000 -0.000003
$definebone "janus1_spark_side02" "janus1_body_L" 0.290424 -4.879862 -0.018054 24.233341 -93.460915 -91.447771 0.000000 0.000000 0.000000 -0.000000 -0.000002 -0.000000
$definebone "janus1_spark_side08" "janus1_body_L" 0.304245 -1.950889 0.100802 -49.670513 72.884587 103.260918 0.000000 0.000000 0.000000 -0.000000 -0.000002 -0.000001
$definebone "janus1_spark_side10" "janus1_body_L" 0.224187 -1.943797 0.058185 71.567679 106.299465 105.443758 -0.000000 0.000000 0.000000 -0.000000 0.000004 -0.000000
$definebone "janus1_spark_side002" "janus1_body_L" 0.236155 -5.008121 0.266270 0.052426 -3.473844 -89.147077 0.000000 0.000000 0.000000 -0.000000 -0.000000 0.000003
$definebone "janus1_body_R" "janus1_body_root" 1.147804 1.496009 0.849409 -89.937473 -90.295969 -89.688520 0.000000 0.000000 0.000000 -0.000000 -0.000000 0.000003
$definebone "janus1_spark_side07" "janus1_body_R" 0.312933 1.950890 0.100593 -49.676417 -72.882470 -103.263671 0.000000 0.000000 0.000000 -0.000000 -0.000005 0.000000
$definebone "janus1_spark_side09" "janus1_body_R" 0.232875 1.943794 0.057976 71.561730 -106.294260 -105.438253 0.000000 0.000000 0.000000 -0.000000 -0.000003 -0.000000
$definebone "janus1_spark_side01" "janus1_body_R" 0.299114 4.879849 -0.018580 24.239476 93.461086 91.448168 0.000000 0.000000 0.000000 0.000000 0.000001 -0.000000
$definebone "janus1_spark_side001" "janus1_body_R" 0.228919 5.004997 0.265779 0.052826 3.473958 89.140902 0.000000 0.000000 0.000000 -0.000000 0.000000 -0.000003
$definebone "janus1_body_bottom02" "janus1_body_root" -0.165447 -0.381364 -0.000000 0.000000 -89.934372 0.000000 0.000000 0.000000 0.000000 0.000000 0.000003 0.000000
$definebone "janus1_spark_bottom04" "janus1_body_bottom02" 2.449982 -0.182583 0.516023 -22.932009 -58.816706 -0.000000 0.000000 0.000000 0.000000 -0.000003 -0.000004 0.000002
$definebone "janus1_spark_bottom03" "janus1_body_bottom02" 2.449983 -0.182584 -0.505661 22.932009 -58.816754 179.999966 0.000000 0.000000 0.000000 -0.000002 0.000005 -0.000001
$definebone "janus1_spark_top03" "janus1_body_top" 5.205439 0.127231 0.783495 -25.586978 109.796993 -0.000057 0.000000 0.000000 -0.000000 -0.000000 -0.000004 0.000001
$definebone "janus1_handle02" "janus1_handle01" -2.104451 2.877258 0.000252 0.005042 -89.766274 -0.000000 0.000000 0.000000 0.000000 -0.000000 0.000003 -0.000000
$definebone "Dummy10" "janus1_face" 0.000000 0.000000 0.000000 0.000057 94.999955 0.000057 0.000000 0.000000 0.000000 -0.000000 0.000003 -0.000000
$definebone "Bone49" "Dummy10" -0.069316 -0.033319 -0.188284 -47.697807 -89.999928 -90.000099 0.000000 -0.000000 0.000000 0.000002 0.000012 -0.000002
$definebone "Bone46" "Dummy10" -0.132158 0.009151 -0.190273 53.080034 -90.000024 -90.000079 -0.000000 0.000000 -0.000000 0.000002 -0.000010 0.000002
$definebone "Bone53" "Dummy10" -0.113889 0.026625 -0.166067 41.284614 90.000072 90.000079 -0.000000 0.000000 0.000000 -0.000002 0.000009 0.000002
$definebone "Bone51" "Dummy10" -0.053432 0.015422 -0.173360 -60.744520 89.999922 90.000154 0.000000 -0.000000 0.000000 -0.000002 -0.000007 -0.000003
$definebone "Bone46(mirrored)" "Dummy10" -0.141174 -0.000506 0.179737 -53.080058 -89.999881 -90.000154 0.000000 0.000000 0.000000 0.000002 0.000009 -0.000002
$definebone "Bone53(mirrored)" "Dummy10" -0.127294 0.024481 0.148436 -41.284522 89.999922 90.000099 0.000000 -0.000000 0.000000 -0.000002 -0.000009 -0.000002
$definebone "Bone51(mirrored)" "Dummy10" -0.043554 0.012160 0.176427 60.744561 90.000120 90.000133 0.000000 0.000000 0.000000 -0.000001 0.000010 0.000003
$definebone "Bone49(mirrored)" "Dummy10" -0.072322 -0.028736 0.195275 47.697725 -90.000024 -90.000079 -0.000000 -0.000000 -0.000000 0.000002 -0.000012 0.000002
$definebone "janus1_S_root" "janus1_gunbody01" 0.000000 0.000000 0.000000 -0.000057 0.000003 0.000000 0.000000 0.000000 0.000000 0.000000 0.000003 0.000000
$definebone "janus1_S01" "janus1_S_root" 1.006889 -0.121316 0.037376 -44.048423 89.999976 -179.999966 0.000000 0.000000 0.000000 -0.000000 0.000002 0.000002
$definebone "janus1_S10" "janus1_S01" 0.421125 0.000000 0.000000 -0.000000 0.000002 0.000002 0.000000 0.000000 0.000000 -0.000000 0.000002 0.000002
$definebone "janus1_S02" "janus1_S_root" 1.134284 0.249041 -0.050440 -74.909937 -89.999983 0.000057 0.000000 0.000000 0.000000 -0.000000 -0.000001 0.000003
$definebone "janus1_S06" "janus1_S02" 0.421125 0.000000 0.000000 -0.000000 -0.000001 0.000003 0.000000 0.000000 0.000000 -0.000000 -0.000001 0.000003
$definebone "janus1_S03" "janus1_S_root" 0.280565 -0.632223 -0.127140 -66.171003 -89.999983 0.000057 0.000000 0.000000 0.000000 -0.000000 -0.000001 0.000003
$definebone "janus1_S07" "janus1_S03" 0.421125 0.000000 0.000000 -0.000000 -0.000001 0.000003 0.000000 0.000000 0.000000 -0.000000 -0.000001 0.000003
$definebone "janus1_S04" "janus1_S_root" 0.304318 -0.255167 -0.042492 -70.792487 89.999976 -179.999966 0.000000 0.000000 0.000000 -0.000000 0.000001 0.000003
$definebone "janus1_S08" "janus1_S04" 0.421125 -0.000000 -0.000001 -0.000000 0.000001 0.000003 0.000000 0.000000 0.000000 -0.000000 0.000001 0.000003
$definebone "janus1_S05" "janus1_S_root" 1.024069 0.009359 -0.029211 -36.990444 -89.999983 0.000057 0.000000 0.000000 -0.000000 -0.000000 -0.000003 0.000002
$definebone "janus1_S09" "janus1_S05" 0.421125 0.000000 0.000000 -0.000000 -0.000003 0.000002 0.000000 0.000000 0.000000 -0.000000 -0.000003 0.000002
$definebone "janus1_S11" "janus1_S_root" 0.261680 -0.537455 0.105631 60.111696 -90.000038 0.000057 0.000000 0.000000 -0.000000 -0.000000 -0.000002 -0.000003
$definebone "janus1_S17" "janus1_S11" 0.421125 0.000000 -0.000000 -0.000000 -0.000002 -0.000003 0.000000 0.000000 0.000000 -0.000000 -0.000002 -0.000003
$definebone "janus1_S12" "janus1_S_root" 0.984310 -0.052468 0.049011 42.381116 -89.999983 0.000057 0.000000 0.000000 0.000000 -0.000000 -0.000002 -0.000002
$definebone "janus1_S18" "janus1_S12" 0.421125 0.000000 -0.000000 -0.000000 -0.000002 -0.000002 0.000000 0.000000 -0.000000 -0.000000 -0.000002 -0.000002
$definebone "janus1_S13" "janus1_S_root" 0.260684 0.246704 0.031580 74.964080 -89.999983 0.000057 0.000000 0.000000 0.000000 -0.000000 -0.000001 -0.000003
$definebone "janus1_S19" "janus1_S13" 0.421125 0.000000 -0.000001 -0.000000 -0.000001 -0.000003 0.000000 0.000000 0.000000 -0.000000 -0.000001 -0.000003
$definebone "janus1_S14" "janus1_S_root" 1.091213 -0.090658 -0.110405 44.019088 89.999976 -179.999966 0.000000 0.000000 -0.000000 -0.000000 0.000003 -0.000002
$definebone "janus1_S20" "janus1_S14" 0.421125 0.000000 -0.000000 -0.000000 0.000003 -0.000002 0.000000 0.000000 -0.000000 -0.000000 0.000003 -0.000002
$definebone "janus1_S15" "janus1_S_root" 1.131269 -0.071420 0.045394 84.264557 89.999976 -179.999966 0.000000 0.000000 0.000000 -0.000000 0.000000 -0.000003
$definebone "janus1_S16" "janus1_S15" 0.421125 0.000000 0.000000 -0.000000 0.000000 -0.000003 0.000000 0.000000 0.000000 -0.000000 0.000000 -0.000003
$definebone "janus1_bullet01" "janus1_body_root" 1.061765 3.148856 -0.000003 0.000057 -90.019401 0.000000 0.000000 0.000000 0.000000 0.000000 0.000003 0.000000
$definebone "janus1_bullet" "janus1_root" 1.149204 -14.507889 0.000002 0.000000 -0.015524 -89.999983 0.000000 0.000000 0.000000 -0.000003 0.000000 -0.000000

$sequence "idle1" {
	"v_janus1_anims\idle1"
	fps 30
	loop
}
$sequence "draw1" {
	"v_janus1_anims\draw1"
	{ event 5004 1 "Janus1.Draw" }
	fps 30
}
$sequence "shoot1_1" {
	"v_janus1_anims\shoot1_1"
	{ event 5001 0 "#I2 S0.15 R2 F0 P30 T0.01 A1 L0 O0" }
	fps 30
}
$sequence "shoot1_2" {
	"v_janus1_anims\shoot1_2"
	{ event 5001 0 "#I2 S0.15 R2 F0 P30 T0.01 A1 L0 O0" }
	fps 30
}
$sequence "shoot1_signal" {
	"v_janus1_anims\shoot1_signal"
	{ event 5001 0 "#I2 S0.15 R2 F0 P30 T0.01 A1 L0 O0" }
	fps 30
}
$sequence "change1" {
	"v_janus1_anims\change1"
	{ event 5004 18 "Janus1.Change1" }
	fps 30
	activity "ACT_VM_DRAW" 1
	snap
}
$sequence "idle2" {
	"v_janus1_anims\idle2"
	fps 30
	loop
	activity "ACT_VM_IDLE" 1
	snap
}
$sequence "draw2" {
	"v_janus1_anims\draw2"
	{ event 5004 1 "Janus1.Draw" }
	fps 30
}
$sequence "shoot2_1" {
	"v_janus1_anims\shoot2_1"
	{ event 5001 0 "#I2 S0.15 R2 F0 P30 T0.01 A1 L0 O0" }
	fps 30
}
$sequence "shoot2_2" {
	"v_janus1_anims\shoot2_2"
	{ event 5001 0 "#I2 S0.15 R2 F0 P30 T0.01 A1 L0 O0" }
	fps 30
	activity "ACT_VM_PRIMARYATTACK" 1
	snap
}
$sequence "change2" {
	"v_janus1_anims\change2"
	{ event 5004 9 "Janus1.Change2" }
	fps 30
}
$sequence "signal" {
	"v_janus1_anims\signal"
	fps 30
	loop
}
$sequence "draw_signal" {
	"v_janus1_anims\draw_signal"
	{ event 5004 1 "Janus1.Draw" }
	fps 30
}
$sequence "shoot1_2_signal" {
	"v_janus1_anims\shoot1_2_signal"
	{ event 5001 0 "#I2 S0.2 R2 F0 P30 T0.01 A1 L0 O0" }
	fps 30
}
