version 1
nodes
  0 "Bone62" -1
  1 "Bone77" 0
  2 "Bone78" 0
  3 "Bone79" 0
  4 "Bone80" 0
  5 "Bone81" 0
  6 "Bone82" 0
  7 "Bone83" 0
  8 "Bone84" 0
  9 "Bone85" 0
  10 "Bone86" 0
  11 "Bone87" 0
  12 "Bone63" 0
  13 "Bone64" 12
  14 "Bone65" 13
  15 "Bone66" 0
  16 "Bone67" 15
  17 "Bone68" 16
  18 "Bone69" 0
  19 "Bone70" 18
  20 "Bone71" 19
  21 "Bone72" 0
  22 "Bone73" 21
  23 "Bone74" 22
  24 "Bone75" 0
  25 "Bone76" 24
  26 "Bone02" -1
  27 "Bone58" 26
  28 "Bone59" 26
  29 "Bone60" 26
  30 "Bone61" 26
  31 "Bone55" 26
  32 "Bone56" 26
  33 "Bone57" 26
  34 "Bone24" 26
  35 "Bone30" 26
  36 "Bone26" 26
  37 "Bone25" 26
  38 "Bone46" 26
  39 "Bone47" 38
  40 "Bone48" 39
  41 "Bone49" 26
  42 "Bone50" 41
  43 "Bone51" 42
  44 "Bone52" 26
  45 "Bone53" 44
  46 "Bone54" 45
  47 "Bone03" 26
  48 "Bone08" 47
  49 "Bone12" 48
  50 "Bone16" 26
  51 "Bone20" 50
  52 "fxBone2" -1
  53 "fxBone1" 52
  54 "fxBone3" 52
  55 "fxBone04" -1
  56 "fxBone05" 55
  57 "fxBone06" 55
  58 "root" -1
  59 "Bone01" 58
  60 "Bone_L_Upper" 59
  61 "Bone_Lefthand" 59
  62 "Bone13" 61
  63 "Bone14" 62
  64 "Bone15" 63
  65 "Bone17" 61
  66 "Bone18" 65
  67 "Bone19" 66
  68 "Bone21" 61
  69 "Bone22" 68
  70 "Bone23" 69
  71 "Bone09" 61
  72 "Bone10" 71
  73 "Bone11" 72
  74 "Bone05" 61
  75 "Bone06" 74
  76 "Bone07" 75
  77 "Bone_Se_Hand-L" 61
  78 "Bone04" 58
  79 "Bone_Righthand" 78
  80 "Bone39" 79
  81 "Bone40" 80
  82 "Bone41" 81
  83 "Bone35" 79
  84 "Bone36" 83
  85 "Bone37" 84
  86 "Bone31" 79
  87 "Bone32" 86
  88 "Bone33" 87
  89 "Bone43" 79
  90 "Bone44" 89
  91 "Bone45" 90
  92 "Bone27" 79
  93 "Bone28" 92
  94 "Bone29" 93
  95 "Bone_Se_Hand-R" 79
  96 "Bone_R_Upper" 78
end
skeleton
  time 0
    0 12.593791 -9.815600 -15.613934 3.967406 -0.627535 0.421008
    1 -7.809490 -1.757525 -2.289198 -3.141592 -1.570796 0.000000
    2 -8.865441 -1.757526 -2.320449 -3.141592 -1.570796 0.000000
    3 -9.921391 -1.757527 -1.924490 -3.141592 -1.570796 0.000000
    4 -6.753541 -1.757525 -1.947928 -3.141592 -1.570796 0.000000
    5 -7.809490 1.734272 -1.998357 -3.141592 -1.570451 0.000000
    6 -8.865444 1.734271 -2.435513 -3.141592 -1.570796 0.000000
    7 -9.921392 1.734272 -1.740893 -3.141592 -1.570460 0.000000
    8 -6.753543 1.734273 -2.178050 -3.141592 -1.570796 0.000000
    9 -14.802030 1.794155 -1.771623 -0.000009 0.026443 -0.087419
    10 -14.902704 0.016490 -2.152696 0.000000 0.027495 0.000000
    11 -15.099397 -1.810075 -1.878880 0.000484 0.036128 0.087180
    12 -10.522499 0.651438 -0.485178 -0.294946 1.392417 -0.379216
    13 -1.703453 0.000000 -0.000001 -3.115206 0.560580 -0.031182
    14 -1.340013 -0.000003 -0.000002 -0.043426 -0.278857 -0.000229
    15 -10.624813 -0.522614 -0.513186 0.103686 1.205224 0.170095
    16 -1.860502 -0.000001 0.000001 3.134517 0.340469 -0.034281
    17 -1.426042 -0.000004 0.000001 -0.024453 -0.095942 -0.003881
    18 -10.205732 -1.718646 -0.278646 0.185619 0.712458 0.307309
    19 -1.858057 0.000000 0.000000 3.125226 0.757978 -0.044750
    20 -1.373753 -0.000002 -0.000002 -0.016514 0.116601 -0.034904
    21 -10.223785 1.706234 -0.389283 -1.026818 1.344538 -1.211256
    22 -1.560371 -0.000001 0.000002 -3.055761 0.726443 0.003969
    23 -1.224832 -0.000003 0.000002 -0.063603 -0.699688 -0.007521
    24 -7.228352 -2.509135 0.913229 0.291332 1.001915 0.970707
    25 -1.951663 0.000000 0.000000 0.037563 0.035770 -0.385717
    26 -12.648646 -5.310469 -8.583170 0.002025 -0.083764 -1.498916
    27 7.356795 1.757692 2.133807 -3.141592 -1.570796 0.000000
    28 8.351534 1.757692 2.422877 -3.141592 -1.570796 0.000000
    29 9.346272 1.757692 2.071136 -3.141592 -1.570796 0.000000
    30 6.362056 1.757692 2.331808 -3.141592 -1.570796 0.000000
    31 7.356794 -1.734436 2.088575 -3.141592 -1.570796 0.000000
    32 8.351538 -1.734434 2.424258 -3.141592 -1.570787 0.000000
    33 9.346275 -1.734434 2.048385 -3.141592 -1.570451 0.000000
    34 6.362056 -1.734434 2.384068 -3.141592 -1.570796 0.000000
    35 15.512798 -1.933004 1.901297 0.000000 0.026231 -0.087266
    36 15.613674 -0.016489 2.307572 0.000000 0.027274 0.000000
    37 15.793165 1.947556 1.997180 0.000471 0.035840 0.087028
    38 9.912537 -0.651499 0.519172 -0.046976 1.573852 -0.125439
    39 1.809620 0.000001 0.000000 -3.101414 0.922429 -0.012766
    40 1.397991 0.000004 -0.000001 0.087898 -1.550598 -0.101366
    41 10.008919 0.522663 0.549143 -0.527885 1.494541 -0.457949
    42 1.952822 0.000000 0.000000 3.134589 1.053923 -0.034150
    43 1.519086 0.000004 -0.000001 0.062507 -1.610650 -0.068792
    44 9.614133 1.718808 0.298168 0.114516 1.243367 0.289189
    45 1.836339 0.000000 0.000001 3.086000 1.271768 -0.087300
    46 1.460696 0.000003 -0.000001 0.032136 -1.676564 -0.064375
    47 9.631138 -1.706394 0.416558 0.015997 1.650616 -0.070539
    48 1.655844 0.000000 0.000000 -2.953212 1.202672 0.123186
    49 1.248022 0.000003 -0.000001 0.112682 -1.561541 -0.162409
    50 6.809342 2.509372 -0.977215 0.002309 1.029188 0.111525
    51 2.030345 0.000000 0.000000 0.018794 0.048185 -0.823871
    52 33.779381 0.176438 87.257599 0.851007 2.933696 -3.052625
    53 3.527313 -6.710968 6.526821 0.545479 0.112379 0.080744
    54 4.697630 2.065727 0.557423 0.284446 0.013779 -0.047092
    55 32.213318 -5.260166 86.515594 1.732938 0.175478 -0.013561
    56 7.701118 1.002495 3.476966 0.522406 0.085813 -0.083577
    57 4.721035 0.884865 -3.720435 0.338608 -0.074897 -0.038818
    58 3.876272 -4.368586 -9.628581 -0.240459 -0.102768 -0.189265
    59 11.552359 -0.479154 -5.612434 5.090998 -2.273927 -0.041562
    60 6.483902 5.574987 -0.278717 1.565025 -3.129021 0.803701
    61 -0.071921 -8.549519 -0.104134 0.329494 0.246771 0.241119
    62 -0.488518 -2.755602 -0.228260 -2.984776 0.029867 -0.214526
    63 0.039887 -1.554011 0.049386 -2.627524 0.011230 0.050240
    64 0.028786 -1.329645 -0.062173 -2.430617 0.004758 0.050096
    65 0.250027 -2.820665 -0.238396 -2.356696 -0.022384 -0.042815
    66 -0.049759 -1.618042 -0.024525 -2.331130 -0.020170 -0.050409
    67 -0.034142 -1.222533 0.057437 -2.417134 -0.021956 -0.050012
    68 0.957766 -2.746780 -0.090302 -2.572482 -0.225424 0.116654
    69 -0.033420 -1.416661 -0.038602 -2.571948 -0.063183 -0.073826
    70 -0.022360 -1.004312 -0.008561 -2.563615 -0.063351 -0.073358
    71 -1.180681 -2.507217 -0.193859 -2.930635 -0.054587 -0.538617
    72 -0.024967 -1.123934 0.017597 -2.465460 -0.051342 -0.068803
    73 -0.020057 -0.890968 0.060873 -2.419788 -0.046165 -0.070625
    74 0.583510 -1.146494 0.177566 0.614395 -0.342581 -1.638450
    75 1.157009 -0.325702 0.110481 0.339663 -0.313121 -1.969017
    76 0.870295 -0.214230 0.059636 0.259463 -0.306712 -1.729442
    77 0.120153 -0.050270 -0.054489 -5.995616 3.110905 -4.722100
    78 -17.154097 -1.195980 2.072999 -0.168248 -2.835859 0.347157
    79 0.096944 -8.540265 -0.009365 0.347737 -0.262109 -0.228967
    80 0.447953 -2.798986 -0.200443 -2.984914 -0.013188 0.208203
    81 -0.032909 -1.480204 0.055723 -2.611575 0.006052 -0.054192
    82 -0.027022 -1.147235 0.018854 -2.351948 0.013914 -0.050743
    83 -0.249534 -2.846964 -0.174213 -2.357742 -0.022476 0.018186
    84 0.043235 -1.676128 0.045229 -2.429657 -0.023028 0.026607
    85 0.031729 -1.141298 0.031493 -2.342119 -0.020655 0.018523
    86 -0.963866 -2.785145 -0.085350 -2.588320 0.076191 -0.202043
    87 0.028479 -1.446037 -0.024980 -2.601102 -0.086709 -0.010055
    88 0.021413 -0.949968 -0.011205 -2.577638 -0.086265 -0.010283
    89 1.164475 -2.543940 -0.170330 -2.929876 0.088767 0.524379
    90 0.024032 -1.179825 0.009994 -2.496092 0.087008 0.061062
    91 0.014898 -0.903521 0.011403 -2.295674 0.073861 0.069019
    92 -0.586770 -1.264477 0.200161 -0.492910 -0.107135 -1.627252
    93 1.616588 0.058681 0.016848 -0.044982 0.001387 1.901043
    94 1.117947 0.040611 -0.005766 -0.049068 -0.021770 1.797547
    95 -0.139399 -0.111698 0.014397 0.285382 -0.030687 1.580508
    96 -7.995234 -1.266600 -0.481628 1.560385 -0.038153 0.078243
  time 1
    0 11.644544 -10.217956 -15.016259 3.930573 -0.509871 0.372371
    1 -7.809490 -1.757525 -2.297011 -3.141592 -1.570460 0.000000
    2 -8.865441 -1.757526 -2.320449 -3.141592 -1.570460 0.000000
    3 -9.921391 -1.757527 -1.924490 -3.141592 -1.570460 0.000000
    4 -6.753541 -1.757525 -1.947928 -3.141592 -1.570460 0.000000
    5 -7.809490 1.734272 -1.998357 -3.141592 -1.570451 0.000000
    6 -8.865444 1.734271 -2.435513 -3.141592 -1.570796 0.000000
    7 -9.921392 1.734272 -1.736987 -3.141592 -1.570460 0.000000
    8 -6.753543 1.734273 -2.174144 -3.141592 -1.570460 0.000000
    9 -14.930940 1.805874 -1.771623 -0.000009 0.026443 -0.087419
    10 -15.039427 0.016490 -2.156602 0.000000 0.027495 0.000000
    11 -15.228307 -1.821794 -1.878880 0.000484 0.036128 0.087180
    12 -10.522499 0.651438 -0.485178 -0.301657 1.412194 -0.386167
    13 -1.703453 0.000000 -0.000001 -3.115098 0.565499 -0.031050
    14 -1.340013 -0.000003 -0.000002 -0.043438 -0.282670 -0.000061
    15 -10.624813 -0.522614 -0.513186 0.105519 1.225164 0.172264
    16 -1.860502 -0.000001 0.000001 3.134517 0.338422 -0.034281
    17 -1.426042 -0.000004 0.000001 -0.024465 -0.101960 -0.003737
    18 -10.205732 -1.718646 -0.278646 0.186841 0.727689 0.310005
    19 -1.846338 0.000000 0.000000 3.125154 0.765521 -0.044869
    20 -1.373753 -0.000002 -0.000002 -0.016514 0.117055 -0.034945
    21 -10.223785 1.706234 -0.389283 -1.047097 1.356741 -1.232602
    22 -1.560371 -0.000001 0.000002 -3.055138 0.738922 0.005047
    23 -1.232645 -0.000003 0.000002 -0.063831 -0.708103 -0.006993
    24 -7.228352 -2.509135 0.913229 0.289836 1.007751 0.965105
    25 -1.951663 0.000000 0.000000 0.037431 0.035938 -0.389858
    26 -13.054909 -6.247997 -10.512916 0.248378 -0.246521 -1.413986
    27 7.356795 1.757692 2.188496 -3.141592 -1.570796 0.000000
    28 8.351534 1.757692 2.442409 -3.141592 -1.570796 0.000000
    29 9.346272 1.757692 2.071136 -3.141592 -1.570796 0.000000
    30 6.362056 1.757692 2.300557 -3.141592 -1.570796 0.000000
    31 7.356794 -1.734436 2.092481 -3.141592 -1.570796 0.000000
    32 8.351538 -1.734434 2.443790 -3.141592 -1.570787 0.000000
    33 9.346275 -1.734434 2.028853 -3.141592 -1.570451 0.000000
    34 6.362056 -1.734434 2.372349 -3.141592 -1.570796 0.000000
    35 15.512798 -1.933004 1.901297 0.000000 0.026231 -0.087266
    36 15.613674 -0.016489 2.307572 0.000000 0.027274 0.000000
    37 15.793165 1.947556 1.997180 0.000471 0.035840 0.087028
    38 9.912537 -0.651499 0.519172 -0.038707 1.514836 -0.117421
    39 1.809620 0.000001 0.000000 -3.103332 0.866411 -0.015378
    40 1.397991 0.000004 -0.000001 0.071742 -1.400089 -0.088746
    41 10.008919 0.522663 0.549143 -0.471054 1.433817 -0.401893
    42 1.952822 0.000000 0.000000 3.134589 0.981409 -0.034150
    43 1.519086 0.000004 -0.000001 0.053782 -1.473964 -0.061912
    44 9.614133 1.718808 0.298168 0.111759 1.149034 0.287822
    45 1.836339 0.000000 0.000001 3.090087 1.211770 -0.082805
    46 1.460696 0.000003 -0.000001 0.027270 -1.524294 -0.060959
    47 9.631138 -1.706394 0.416558 -0.004010 1.593290 -0.098274
    48 1.655844 0.000000 0.000000 -2.964538 1.165999 0.110710
    49 1.248022 0.000003 -0.000001 0.092296 -1.431723 -0.145319
    50 6.809342 2.509372 -0.977215 0.014309 1.024610 0.188963
    51 2.030345 0.000000 0.000000 0.020101 0.047489 -0.796008
    52 33.779381 0.176438 87.257599 0.851007 2.933696 -3.052625
    53 3.527313 -6.710968 6.526821 0.545479 0.112379 0.080744
    54 4.697630 2.065727 0.557423 0.284446 0.013779 -0.047092
    55 32.213318 -5.260166 86.515594 1.732938 0.175478 -0.013561
    56 7.701118 1.002495 3.476966 0.522406 0.085813 -0.083577
    57 4.721035 0.884865 -3.720435 0.338608 -0.074897 -0.038818
    58 3.524699 -4.368586 -9.628581 -0.240746 -0.094810 -0.179758
    59 11.341415 -1.186207 -5.444460 5.273253 -2.203404 -0.237532
    60 6.718284 5.231227 -0.290436 1.565025 -3.128159 0.752924
    61 -0.071921 -8.549519 -0.104134 0.329494 0.246771 0.241119
    62 -0.488518 -2.755602 -0.228260 -2.984776 0.029867 -0.214526
    63 0.039887 -1.554011 0.049386 -2.627524 0.011230 0.050240
    64 0.028786 -1.329645 -0.062173 -2.430617 0.004758 0.050096
    65 0.250027 -2.820665 -0.238396 -2.356696 -0.022384 -0.042815
    66 -0.049759 -1.618042 -0.024525 -2.331130 -0.020170 -0.050409
    67 -0.034142 -1.222533 0.057437 -2.417134 -0.021956 -0.050012
    68 0.957766 -2.746780 -0.090302 -2.572482 -0.225424 0.116654
    69 -0.033420 -1.416661 -0.038602 -2.571948 -0.063183 -0.073826
    70 -0.022360 -1.004312 -0.008561 -2.563615 -0.063351 -0.073358
    71 -1.180681 -2.507217 -0.193859 -2.930635 -0.054587 -0.538617
    72 -0.024967 -1.123934 0.017597 -2.465460 -0.051342 -0.068803
    73 -0.020057 -0.890968 0.060873 -2.419788 -0.046165 -0.070625
    74 0.583510 -1.146494 0.177566 0.614395 -0.342581 -1.638450
    75 1.157009 -0.325702 0.110481 0.339663 -0.313121 -1.969017
    76 0.870295 -0.214230 0.059636 0.259463 -0.306712 -1.729442
    77 0.120153 -0.050270 -0.054489 -5.995616 3.110905 -4.722100
    78 -17.470513 -1.531928 -0.794276 -6.273598 -3.143592 0.367230
    79 0.096944 -8.540265 -0.009365 0.347700 -0.262121 -0.228919
    80 0.447953 -2.798986 -0.200443 -2.984914 -0.013188 0.208203
    81 -0.032909 -1.480204 0.055723 -2.611575 0.006052 -0.054192
    82 -0.027022 -1.147235 0.018854 -2.351948 0.013914 -0.050743
    83 -0.249534 -2.846964 -0.174213 -2.357742 -0.022476 0.018186
    84 0.043235 -1.676128 0.045229 -2.429657 -0.023028 0.026607
    85 0.031729 -1.141298 0.031493 -2.342119 -0.020655 0.018523
    86 -0.963866 -2.785145 -0.085350 -2.588320 0.076191 -0.202043
    87 0.028479 -1.446037 -0.024980 -2.601102 -0.086709 -0.010055
    88 0.021413 -0.949968 -0.011205 -2.577638 -0.086265 -0.010283
    89 1.164475 -2.543940 -0.170330 -2.929876 0.088767 0.524379
    90 0.024032 -1.179825 0.009994 -2.496243 0.087008 0.061062
    91 0.014898 -0.903521 0.011403 -2.295674 0.073861 0.069019
    92 -0.586770 -1.264477 0.200161 -0.492910 -0.107135 -1.627252
    93 1.616588 0.058681 0.016848 -0.044994 0.001387 1.901043
    94 1.117947 0.040611 -0.005766 -0.049068 -0.021770 1.797547
    95 -0.139399 -0.111698 0.014397 0.285382 -0.030687 1.580508
    96 -7.729601 -2.122095 -0.481628 1.557413 -0.038536 0.187285
  time 2
    0 11.453132 -11.061732 -14.203734 3.869121 -0.381459 0.429417
    1 -7.809490 -1.757525 -2.308730 -3.141592 -1.570796 0.000000
    2 -8.865441 -1.757526 -2.320449 -3.141592 -1.570796 0.000000
    3 -9.921391 -1.757527 -1.924490 -3.141592 -1.570796 0.000000
    4 -6.753541 -1.757525 -1.944022 -3.141592 -1.570796 0.000000
    5 -7.809490 1.734272 -2.010076 -3.141592 -1.570451 0.000000
    6 -8.865444 1.734271 -2.447232 -3.141592 -1.570460 0.000000
    7 -9.921392 1.734272 -1.729174 -3.141592 -1.570460 0.000000
    8 -6.753543 1.734273 -2.174144 -3.141592 -1.570796 0.000000
    9 -15.071569 1.817593 -1.771623 -0.000009 0.026443 -0.087419
    10 -15.168337 0.016490 -2.156602 0.000000 0.027495 0.000000
    11 -15.368936 -1.829607 -1.878880 0.000484 0.036128 0.087180
    12 -10.522499 0.651438 -0.485178 -0.308332 1.432031 -0.393106
    13 -1.695640 0.000000 -0.000001 -3.115026 0.570378 -0.030906
    14 -1.347826 -0.000003 -0.000002 -0.043462 -0.286303 0.000070
    15 -10.624813 -0.522614 -0.513186 0.107401 1.245103 0.174446
    16 -1.860502 -0.000001 0.000001 3.134505 0.336374 -0.034281
    17 -1.426042 -0.000004 0.000001 -0.024465 -0.107951 -0.003618
    18 -10.205732 -1.718646 -0.278646 0.188112 0.742938 0.312762
    19 -1.846338 0.000000 0.000000 3.125070 0.773064 -0.045013
    20 -1.373753 -0.000002 -0.000002 -0.016514 0.117408 -0.034945
    21 -10.223785 1.706234 -0.389283 -1.067358 1.368918 -1.253930
    22 -1.552558 -0.000001 0.000002 -3.054527 0.751346 0.006162
    23 -1.232645 -0.000003 0.000002 -0.064071 -0.716186 -0.006526
    24 -7.228352 -2.509135 0.913229 0.288323 1.013635 0.959484
    25 -1.947757 0.000000 0.000000 0.037287 0.036130 -0.393998
    26 -12.640834 -7.759762 -12.290314 0.521964 -0.468022 -1.369270
    27 7.356795 1.757692 2.239279 -3.141592 -1.570796 0.000000
    28 8.351534 1.757692 2.461941 -3.141592 -1.570460 0.000000
    29 9.346272 1.757692 2.071136 -3.141592 -1.570460 0.000000
    30 6.362056 1.757692 2.269306 -3.141592 -1.570460 0.000000
    31 7.356794 -1.734436 2.100294 -3.141592 -1.570460 0.000000
    32 8.351538 -1.734434 2.463322 -3.141592 -1.570451 0.000000
    33 9.346275 -1.734434 2.017134 -3.141592 -1.570451 0.000000
    34 6.362056 -1.734434 2.360630 -3.141592 -1.570460 0.000000
    35 15.512798 -1.933004 1.901297 0.000000 0.026231 -0.087266
    36 15.613674 -0.016489 2.307572 0.000000 0.027274 0.000000
    37 15.793165 1.947556 1.997180 0.000471 0.035840 0.087028
    38 9.912537 -0.651499 0.519172 -0.030761 1.458168 -0.109751
    39 1.809620 0.000001 0.000000 -3.105141 0.812708 -0.017943
    40 1.397991 0.000004 -0.000001 0.056270 -1.255555 -0.076666
    41 10.008919 0.522663 0.549143 -0.414222 1.373119 -0.345924
    42 1.952822 0.000000 0.000000 3.134577 0.908895 -0.034150
    43 1.519086 0.000004 -0.000001 0.045021 -1.337279 -0.055069
    44 9.614133 1.718808 0.298168 0.109039 1.054786 0.286492
    45 1.836339 0.000000 0.000001 3.094210 1.151772 -0.078335
    46 1.460696 0.000003 -0.000001 0.022380 -1.372023 -0.057556
    47 9.631138 -1.706394 0.416558 -0.023196 1.538266 -0.124916
    48 1.655844 0.000000 0.000000 -2.975396 1.130926 0.098762
    49 1.248022 0.000003 -0.000001 0.072749 -1.307497 -0.128936
    50 6.809342 2.509372 -0.977215 0.026260 1.020008 0.266364
    51 2.030345 0.000000 0.000000 0.021383 0.046806 -0.768145
    52 33.779381 0.176438 87.257599 0.851007 2.933696 -3.052625
    53 3.527313 -6.710968 6.526821 0.545479 0.112379 0.080744
    54 4.697630 2.065727 0.557423 0.284446 0.013779 -0.047092
    55 32.213318 -5.260166 86.515594 1.732938 0.175478 -0.013561
    56 7.701118 1.002495 3.476966 0.522406 0.085813 -0.083577
    57 4.721035 0.884865 -3.720435 0.338608 -0.074897 -0.038818
    58 3.188751 -4.368586 -9.628581 -0.241046 -0.086888 -0.170250
    59 11.716427 -1.967481 -5.190546 5.497043 -2.183772 -0.374977
    60 7.093296 4.610114 -0.298249 1.565217 -3.126146 0.663853
    61 -0.071921 -8.549519 -0.104134 0.329494 0.246771 0.241119
    62 -0.488518 -2.755602 -0.228260 -2.984776 0.029867 -0.214526
    63 0.039887 -1.554011 0.049386 -2.627524 0.011230 0.050240
    64 0.028786 -1.329645 -0.062173 -2.430617 0.004758 0.050096
    65 0.250027 -2.820665 -0.238396 -2.356696 -0.022384 -0.042815
    66 -0.049759 -1.618042 -0.024525 -2.331130 -0.020170 -0.050409
    67 -0.034142 -1.222533 0.057437 -2.417134 -0.021956 -0.050012
    68 0.957766 -2.746780 -0.090302 -2.572482 -0.225424 0.116654
    69 -0.033420 -1.416661 -0.038602 -2.571948 -0.063183 -0.073826
    70 -0.022360 -1.004312 -0.008561 -2.563615 -0.063351 -0.073358
    71 -1.180681 -2.507217 -0.193859 -2.930635 -0.054587 -0.538617
    72 -0.024967 -1.123934 0.017597 -2.465460 -0.051342 -0.068803
    73 -0.020057 -0.890968 0.060873 -2.419788 -0.046165 -0.070625
    74 0.583510 -1.146494 0.177566 0.614395 -0.342581 -1.638450
    75 1.157009 -0.325702 0.110481 0.339663 -0.313121 -1.969017
    76 0.870295 -0.214230 0.059636 0.259463 -0.306712 -1.729442
    77 0.120153 -0.050270 -0.054489 -5.995616 3.110905 -4.722100
    78 -16.607205 -2.379610 -3.872495 -6.032100 2.820967 0.470497
    79 0.096944 -8.540265 -0.009365 0.347749 -0.262109 -0.229050
    80 0.447953 -2.798986 -0.200443 -2.984914 -0.013188 0.208203
    81 -0.032909 -1.480204 0.055723 -2.611575 0.006052 -0.054192
    82 -0.027022 -1.147235 0.018854 -2.351948 0.013914 -0.050743
    83 -0.249534 -2.846964 -0.174213 -2.357742 -0.022476 0.018186
    84 0.043235 -1.676128 0.045229 -2.429657 -0.023028 0.026607
    85 0.031729 -1.141298 0.031493 -2.342119 -0.020655 0.018523
    86 -0.963866 -2.785145 -0.085350 -2.588320 0.076191 -0.202043
    87 0.028479 -1.446037 -0.024980 -2.601102 -0.086709 -0.010055
    88 0.021413 -0.949968 -0.011205 -2.577402 -0.086265 -0.010283
    89 1.164475 -2.543940 -0.170330 -2.929876 0.088767 0.524379
    90 0.024032 -1.179825 0.009994 -2.496243 0.087008 0.061062
    91 0.014898 -0.903521 0.011403 -2.295674 0.073861 0.069019
    92 -0.586770 -1.264477 0.200161 -0.492910 -0.107135 -1.627252
    93 1.616588 0.058681 0.016848 -0.044994 0.001387 1.901043
    94 1.117947 0.040611 -0.005766 -0.049068 -0.021770 1.797653
    95 -0.139399 -0.111698 0.014397 0.285382 -0.030687 1.580508
    96 -7.510844 -2.668987 -0.477722 1.555592 -0.038823 0.258654
  time 3
    0 11.855488 -12.042231 -13.281831 3.800131 -0.247579 0.540737
    1 -7.809490 -1.757525 -2.308730 -3.141592 -1.570460 0.000000
    2 -8.865441 -1.757526 -2.320449 -3.141592 -1.570460 0.000000
    3 -9.921391 -1.757527 -1.924490 -3.141592 -1.570460 0.000000
    4 -6.753541 -1.757525 -1.936209 -3.141592 -1.570460 0.000000
    5 -7.809490 1.734272 -2.010076 -3.141592 -1.570787 0.000000
    6 -8.865444 1.734271 -2.447232 -3.141592 -1.570460 0.000000
    7 -9.921392 1.734272 -1.729174 -3.141592 -1.570460 0.000000
    8 -6.753543 1.734273 -2.174144 -3.141592 -1.570460 0.000000
    9 -15.204386 1.825406 -1.779436 -0.000009 0.026443 -0.087419
    10 -15.297247 0.016490 -2.156602 0.000000 0.027495 0.000000
    11 -15.501753 -1.841326 -1.878880 0.000484 0.036128 0.087180
    12 -10.522499 0.651438 -0.485178 -0.315056 1.451869 -0.400057
    13 -1.695640 0.000000 -0.000001 -3.114942 0.575277 -0.030787
    14 -1.347826 -0.000003 -0.000002 -0.043474 -0.289816 0.000226
    15 -10.624813 -0.522614 -0.513186 0.109271 1.265063 0.176639
    16 -1.848783 -0.000001 0.000001 3.134505 0.334327 -0.034293
    17 -1.426042 -0.000004 0.000001 -0.024465 -0.113942 -0.003474
    18 -10.205732 -1.718646 -0.278646 0.189358 0.758169 0.315458
    19 -1.838525 0.000000 0.000000 3.124974 0.780607 -0.045145
    20 -1.373753 -0.000002 -0.000002 -0.016514 0.117862 -0.034945
    21 -10.223785 1.706234 -0.389283 -1.087672 1.381071 -1.275258
    22 -1.552558 -0.000001 0.000002 -3.053940 0.763742 0.007289
    23 -1.236551 -0.000003 0.000002 -0.064287 -0.723958 -0.006035
    24 -7.228352 -2.509135 0.913229 0.286842 1.019508 0.953882
    25 -1.947757 0.000000 0.000000 0.037119 0.036298 -0.398139
    26 -11.648616 -9.091834 -13.458319 0.787729 -0.676785 -1.392249
    27 7.356795 1.757692 2.286155 -3.141592 -1.570796 0.000000
    28 8.351534 1.757692 2.473660 -3.141592 -1.570796 0.000000
    29 9.346272 1.757692 2.071136 -3.141592 -1.570796 0.000000
    30 6.362056 1.757692 2.238055 -3.141592 -1.570796 0.000000
    31 7.356794 -1.734436 2.112013 -3.141592 -1.570796 0.000000
    32 8.351538 -1.734434 2.475041 -3.141592 -1.570787 0.000000
    33 9.346275 -1.734434 1.997602 -3.141592 -1.570451 0.000000
    34 6.362056 -1.734434 2.352817 -3.141592 -1.570796 0.000000
    35 15.512798 -1.933004 1.901297 0.000000 0.026231 -0.087266
    36 15.613674 -0.016489 2.307572 0.000000 0.027274 0.000000
    37 15.793165 1.947556 1.997180 0.000471 0.035840 0.087028
    38 9.912537 -0.651499 0.519172 -0.023163 1.403926 -0.102441
    39 1.809620 0.000001 0.000000 -3.106879 0.761274 -0.020364
    40 1.397991 0.000004 -0.000001 0.041457 -1.117414 -0.065077
    41 10.008919 0.522663 0.549143 -0.357457 1.312448 -0.289890
    42 1.952822 0.000000 0.000000 3.134589 0.836381 -0.034150
    43 1.519086 0.000004 -0.000001 0.036296 -1.200652 -0.048250
    44 9.614133 1.718808 0.298168 0.106282 0.960580 0.285174
    45 1.836339 0.000000 0.000001 3.098285 1.091750 -0.073889
    46 1.460696 0.000003 -0.000001 0.017502 -1.219752 -0.054116
    47 9.631138 -1.706394 0.416558 -0.041561 1.485641 -0.150407
    48 1.655844 0.000000 0.000000 -2.985787 1.097301 0.087268
    49 1.248022 0.000003 -0.000001 0.054029 -1.188390 -0.113248
    50 6.809342 2.509372 -0.977215 0.038227 1.015406 0.343820
    51 2.030345 0.000000 0.000000 0.022629 0.046135 -0.740312
    52 33.779381 0.176438 87.257599 0.851007 2.933696 -3.052625
    53 3.527313 -6.710968 6.526821 0.545479 0.112379 0.080744
    54 4.697630 2.065727 0.557423 0.284446 0.013779 -0.047092
    55 32.213318 -5.260166 86.515594 1.732938 0.175478 -0.013561
    56 7.701118 1.002495 3.476966 0.522406 0.085813 -0.083577
    57 4.721035 0.884865 -3.720435 0.338608 -0.074897 -0.038818
    58 2.848897 -4.368586 -9.628581 -0.241382 -0.078954 -0.160796
    59 12.501607 -2.666721 -4.870224 5.723297 -2.206835 -0.458379
    60 7.476120 3.785870 -0.321687 1.565792 -3.123845 0.551805
    61 -0.071921 -8.549519 -0.104134 0.329494 0.246771 0.241119
    62 -0.488518 -2.755602 -0.228260 -2.984776 0.029867 -0.214526
    63 0.039887 -1.554011 0.049386 -2.627524 0.011230 0.050240
    64 0.028786 -1.329645 -0.062173 -2.430617 0.004758 0.050096
    65 0.250027 -2.820665 -0.238396 -2.356696 -0.022384 -0.042815
    66 -0.049759 -1.618042 -0.024525 -2.331130 -0.020170 -0.050409
    67 -0.034142 -1.222533 0.057437 -2.417279 -0.021956 -0.050012
    68 0.957766 -2.746780 -0.090302 -2.572482 -0.225424 0.116654
    69 -0.033420 -1.416661 -0.038602 -2.571948 -0.063183 -0.073826
    70 -0.022360 -1.004312 -0.008561 -2.563615 -0.063351 -0.073358
    71 -1.180681 -2.507217 -0.193859 -2.930635 -0.054587 -0.538617
    72 -0.024967 -1.123934 0.017597 -2.465460 -0.051342 -0.068803
    73 -0.020057 -0.890968 0.060873 -2.419788 -0.046165 -0.070625
    74 0.583510 -1.146494 0.177566 0.614395 -0.342581 -1.638450
    75 1.157009 -0.325702 0.110481 0.339663 -0.313121 -1.969017
    76 0.870295 -0.214230 0.059636 0.259463 -0.306712 -1.729442
    77 0.120153 -0.050270 -0.054489 -5.995616 3.110905 -4.722100
    78 -14.896215 -3.184322 -6.181159 -5.741478 2.577496 0.657843
    79 0.096944 -8.540265 -0.009365 0.347785 -0.262097 -0.229254
    80 0.447953 -2.798986 -0.200443 -2.984914 -0.013188 0.208203
    81 -0.032909 -1.480204 0.055723 -2.611575 0.006052 -0.054192
    82 -0.027022 -1.147235 0.018854 -2.351948 0.013914 -0.050743
    83 -0.249534 -2.846964 -0.174213 -2.357742 -0.022476 0.018186
    84 0.043235 -1.676128 0.045229 -2.429657 -0.023028 0.026607
    85 0.031729 -1.141298 0.031493 -2.342119 -0.020655 0.018523
    86 -0.963866 -2.785145 -0.085350 -2.588320 0.076191 -0.202043
    87 0.028479 -1.446037 -0.024980 -2.601102 -0.086709 -0.010055
    88 0.021413 -0.949968 -0.011205 -2.577638 -0.086265 -0.010283
    89 1.164475 -2.543940 -0.170330 -2.929876 0.088767 0.524379
    90 0.024032 -1.179825 0.009994 -2.496243 0.087008 0.061062
    91 0.014898 -0.903521 0.011403 -2.295606 0.073861 0.069019
    92 -0.586770 -1.264477 0.200161 -0.492910 -0.107135 -1.627252
    93 1.616588 0.058681 0.016848 -0.044994 0.001387 1.901043
    94 1.117947 0.040611 -0.005766 -0.049068 -0.021770 1.797653
    95 -0.139399 -0.111698 0.014397 0.285382 -0.030687 1.580508
    96 -7.335058 -3.032279 -0.477722 1.554250 -0.038823 0.307969
  time 4
    0 12.617230 -12.807879 -12.328677 3.730282 -0.116810 0.666009
    1 -7.809490 -1.757525 -2.308730 -3.141592 -1.570796 0.000000
    2 -8.865441 -1.757526 -2.328262 -3.141592 -1.570796 0.000000
    3 -9.921391 -1.757527 -1.924490 -3.141592 -1.570796 0.000000
    4 -6.753541 -1.757525 -1.936209 -3.141592 -1.570796 0.000000
    5 -7.809490 1.734272 -2.010076 -3.141592 -1.570787 0.000000
    6 -8.865444 1.734271 -2.455045 -3.141592 -1.570460 0.000000
    7 -9.921392 1.734272 -1.729174 -3.141592 -1.570460 0.000000
    8 -6.753543 1.734273 -2.174144 -3.141592 -1.570796 0.000000
    9 -15.333296 1.837125 -1.779436 -0.000009 0.026443 -0.087419
    10 -15.437876 0.016490 -2.156602 0.000000 0.027495 0.000000
    11 -15.630663 -1.853045 -1.878880 0.000484 0.036128 0.087180
    12 -10.522499 0.651438 -0.485178 -0.321731 1.471646 -0.406996
    13 -1.695640 0.000000 -0.000001 -3.114870 0.580176 -0.030655
    14 -1.347826 -0.000003 -0.000002 -0.043498 -0.293148 0.000406
    15 -10.624813 -0.522614 -0.513186 0.111104 1.285042 0.178808
    16 -1.848783 -0.000001 0.000001 3.134505 0.332262 -0.034293
    17 -1.426042 -0.000004 0.000001 -0.024465 -0.119960 -0.003330
    18 -10.205732 -1.718646 -0.278646 0.190580 0.773382 0.318203
    19 -1.834619 0.000000 0.000000 3.124890 0.788150 -0.045313
    20 -1.373753 -0.000002 -0.000002 -0.016514 0.118215 -0.034945
    21 -10.223785 1.706234 -0.389283 -1.107986 1.393274 -1.296659
    22 -1.552558 -0.000001 0.000002 -3.053317 0.776166 0.008367
    23 -1.236551 -0.000003 0.000002 -0.064454 -0.731378 -0.005579
    24 -7.228352 -2.509135 0.913229 0.285361 1.025344 0.948298
    25 -1.947757 0.000000 0.000000 0.036987 0.036441 -0.402297
    26 -10.918125 -9.779355 -13.899738 0.977072 -0.810369 -1.451405
    27 7.356795 1.757692 2.333032 -3.141592 -1.570460 0.000000
    28 8.351534 1.757692 2.493192 -3.141592 -1.570460 0.000000
    29 9.346272 1.757692 2.071136 -3.141592 -1.570460 0.000000
    30 6.362056 1.757692 2.206804 -3.141592 -1.570460 0.000000
    31 7.356794 -1.734436 2.123732 -3.141592 -1.570796 0.000000
    32 8.351538 -1.734434 2.498479 -3.141592 -1.570787 0.000000
    33 9.346275 -1.734434 1.974164 -3.141592 -1.570451 0.000000
    34 6.362056 -1.734434 2.348911 -3.141592 -1.570460 0.000000
    35 15.512798 -1.933004 1.901297 0.000000 0.026231 -0.087266
    36 15.613674 -0.016489 2.307572 0.000000 0.027274 0.000000
    37 15.793165 1.947556 1.997180 0.000471 0.035840 0.087028
    38 9.912537 -0.651499 0.519172 -0.015912 1.352111 -0.095430
    39 1.809620 0.000001 0.000000 -3.108557 0.712132 -0.022677
    40 1.397991 0.000004 -0.000001 0.027315 -0.985308 -0.053991
    41 10.008919 0.522663 0.549143 -0.300626 1.251750 -0.233856
    42 1.952822 0.000000 0.000000 3.134589 0.763867 -0.034150
    43 1.519086 0.000004 -0.000001 0.027560 -1.063967 -0.041395
    44 9.614133 1.718808 0.298168 0.103574 0.866204 0.283832
    45 1.836339 0.000000 0.000001 3.102371 1.031752 -0.069407
    46 1.460696 0.000003 -0.000001 0.012649 -1.067418 -0.050725
    47 9.631138 -1.706394 0.416558 -0.059105 1.435338 -0.174766
    48 1.655844 0.000000 0.000000 -2.995722 1.065175 0.076314
    49 1.248022 0.000003 -0.000001 0.036148 -1.074461 -0.098243
    50 6.809342 2.509372 -0.977215 0.050227 1.010816 0.421276
    51 2.030345 0.000000 0.000000 0.023936 0.045488 -0.712449
    52 33.779381 0.176438 87.257599 0.851007 2.933696 -3.052625
    53 3.527313 -6.710968 6.526821 0.545479 0.112379 0.080744
    54 4.697630 2.065727 0.557423 0.284446 0.013779 -0.047092
    55 32.213318 -5.260166 86.515594 1.732938 0.175478 -0.013561
    56 7.701118 1.002495 3.476966 0.522406 0.085813 -0.083577
    57 4.721035 0.884865 -3.720435 0.338608 -0.074897 -0.038818
    58 2.501230 -4.368586 -9.628581 -0.241669 -0.071045 -0.151235
    59 13.470387 -3.143298 -4.467868 5.924329 -2.262205 -0.499079
    60 7.796442 2.863967 -0.341219 1.566559 -3.121256 0.432287
    61 -0.071921 -8.549519 -0.104134 0.329494 0.246771 0.241119
    62 -0.488518 -2.755602 -0.228260 -2.984776 0.029867 -0.214526
    63 0.039887 -1.554011 0.049386 -2.627524 0.011230 0.050240
    64 0.028786 -1.329645 -0.062173 -2.430617 0.004758 0.050096
    65 0.250027 -2.820665 -0.238396 -2.356696 -0.022384 -0.042815
    66 -0.049759 -1.618042 -0.024525 -2.331130 -0.020170 -0.050409
    67 -0.034142 -1.222533 0.057437 -2.417134 -0.021956 -0.050012
    68 0.957766 -2.746780 -0.090302 -2.572482 -0.225424 0.116654
    69 -0.033420 -1.416661 -0.038602 -2.571948 -0.063183 -0.073826
    70 -0.022360 -1.004312 -0.008561 -2.563615 -0.063351 -0.073358
    71 -1.180681 -2.507217 -0.193859 -2.930635 -0.054587 -0.538617
    72 -0.024967 -1.123934 0.017597 -2.465460 -0.051342 -0.068803
    73 -0.020057 -0.890968 0.060873 -2.419788 -0.046165 -0.070625
    74 0.583510 -1.146494 0.177566 0.614395 -0.342581 -1.638450
    75 1.157009 -0.325702 0.110481 0.339663 -0.313121 -1.969017
    76 0.870295 -0.214230 0.059636 0.259463 -0.306712 -1.729442
    77 0.120153 -0.050270 -0.054489 -5.995616 3.110905 -4.722100
    78 -13.462578 -3.594491 -7.298381 -5.491841 2.461594 0.842610
    79 0.096944 -8.540265 -0.009365 0.347797 -0.262085 -0.229362
    80 0.447953 -2.798986 -0.200443 -2.984914 -0.013188 0.208203
    81 -0.032909 -1.480204 0.055723 -2.611575 0.006052 -0.054192
    82 -0.027022 -1.147235 0.018854 -2.351948 0.013914 -0.050743
    83 -0.249534 -2.846964 -0.174213 -2.357742 -0.022476 0.018186
    84 0.043235 -1.676128 0.045229 -2.429657 -0.023028 0.026607
    85 0.031729 -1.141298 0.031493 -2.342119 -0.020655 0.018523
    86 -0.963866 -2.785145 -0.085350 -2.588320 0.076191 -0.202043
    87 0.028479 -1.446037 -0.024980 -2.601102 -0.086709 -0.010055
    88 0.021413 -0.949968 -0.011205 -2.577638 -0.086265 -0.010283
    89 1.164475 -2.543940 -0.170330 -2.929876 0.088767 0.524379
    90 0.024032 -1.179825 0.009994 -2.496243 0.087008 0.061062
    91 0.014898 -0.903521 0.011403 -2.295674 0.073861 0.069019
    92 -0.586770 -1.264477 0.200161 -0.492910 -0.107135 -1.627252
    93 1.616588 0.058681 0.016848 -0.044994 0.001387 1.901043
    94 1.117947 0.040611 -0.005766 -0.049068 -0.021770 1.797547
    95 -0.139399 -0.111698 0.014397 0.285382 -0.030687 1.580508
    96 -7.167084 -3.340882 -0.469909 1.553003 -0.038823 0.350090
  time 5
    0 13.382878 -13.167265 -11.508340 3.664059 -0.001692 0.771692
    1 -7.809490 -1.757525 -2.320449 -3.141592 -1.570460 0.000000
    2 -8.865441 -1.757526 -2.328262 -3.141592 -1.570460 0.000000
    3 -9.921391 -1.757527 -1.924490 -3.141592 -1.570460 0.000000
    4 -6.753541 -1.757525 -1.936209 -3.141592 -1.570460 0.000000
    5 -7.809490 1.734272 -2.010076 -3.141592 -1.570451 0.000000
    6 -8.865444 1.734271 -2.455045 -3.141592 -1.570460 0.000000
    7 -9.921392 1.734272 -1.717455 -3.141592 -1.570460 0.000000
    8 -6.753543 1.734273 -2.174144 -3.141592 -1.570460 0.000000
    9 -15.462206 1.848844 -1.783342 -0.000009 0.026443 -0.087419
    10 -15.570693 0.016490 -2.164415 0.000000 0.027495 0.000000
    11 -15.759573 -1.864764 -1.878880 0.000484 0.036128 0.087180
    12 -10.522499 0.651438 -0.485178 -0.328430 1.491483 -0.413947
    13 -1.695640 0.000000 -0.000001 -3.114799 0.584994 -0.030487
    14 -1.351732 -0.000003 -0.000002 -0.043510 -0.296331 0.000538
    15 -10.624813 -0.522614 -0.513186 0.112986 1.305022 0.180965
    16 -1.848783 -0.000001 0.000001 3.134505 0.330179 -0.034293
    17 -1.426042 -0.000004 0.000001 -0.024465 -0.125952 -0.003162
    18 -10.205732 -1.718646 -0.278646 0.191851 0.788595 0.320911
    19 -1.834619 0.000000 0.000000 3.124782 0.795616 -0.045457
    20 -1.373753 -0.000002 -0.000002 -0.016514 0.118619 -0.034945
    21 -10.223785 1.706234 -0.389283 -1.128300 1.405452 -1.318023
    22 -1.552558 -0.000001 0.000002 -3.052681 0.788590 0.009506
    23 -1.244364 -0.000003 0.000002 -0.064646 -0.738487 -0.005172
    24 -7.228352 -2.509135 0.913229 0.283880 1.031241 0.942714
    25 -1.947757 0.000000 0.000000 0.036843 0.036609 -0.406438
    26 -10.836091 -10.048895 -13.864581 1.037506 -0.867407 -1.470192
    27 7.356795 1.757692 2.379908 -3.141592 -1.570460 0.000000
    28 8.351534 1.757692 2.504911 -3.141592 -1.570460 0.000000
    29 9.346272 1.757692 2.071136 -3.141592 -1.570460 0.000000
    30 6.362056 1.757692 2.179459 -3.141592 -1.570460 0.000000
    31 7.356794 -1.734436 2.123732 -3.141592 -1.570460 0.000000
    32 8.351538 -1.734434 2.506292 -3.141592 -1.570451 0.000000
    33 9.346275 -1.734434 1.962445 -3.141592 -1.570451 0.000000
    34 6.362056 -1.734434 2.341098 -3.141592 -1.570460 0.000000
    35 15.512798 -1.933004 1.901297 0.000000 0.026231 -0.087266
    36 15.613674 -0.016489 2.307572 0.000000 0.027274 0.000000
    37 15.793165 1.947556 1.997180 0.000471 0.035840 0.087028
    38 9.912537 -0.651499 0.519172 -0.008985 1.302722 -0.088718
    39 1.809620 0.000001 0.000000 -3.110175 0.665281 -0.024894
    40 1.397991 0.000004 -0.000001 0.013845 -0.859356 -0.043433
    41 10.008919 0.522663 0.549143 -0.243794 1.191052 -0.177865
    42 1.952822 0.000000 0.000000 3.134589 0.691352 -0.034150
    43 1.519086 0.000004 -0.000001 0.018859 -0.927340 -0.034552
    44 9.614133 1.718808 0.298168 0.100817 0.771956 0.282489
    45 1.836339 0.000000 0.000001 3.106494 0.971754 -0.064924
    46 1.460696 0.000003 -0.000001 0.007783 -0.915147 -0.047285
    47 9.631138 -1.706394 0.416558 -0.075848 1.387337 -0.197973
    48 1.655844 0.000000 0.000000 -3.005190 1.034522 0.065900
    49 1.248022 0.000003 -0.000001 0.019094 -0.966065 -0.083970
    50 6.809342 2.509372 -0.977215 0.062162 1.006214 0.498696
    51 2.030345 0.000000 0.000000 0.025218 0.044817 -0.684616
    52 33.779381 0.176438 87.257599 0.851007 2.933696 -3.052625
    53 3.527313 -6.710968 6.526821 0.545479 0.112379 0.080744
    54 4.697630 2.065727 0.557423 0.284446 0.013779 -0.047092
    55 32.213318 -5.260166 86.515594 1.732938 0.175478 -0.013561
    56 7.701118 1.002495 3.476966 0.522406 0.085813 -0.083577
    57 4.721035 0.884865 -3.720435 0.338608 -0.074897 -0.038818
    58 2.161376 -4.368586 -9.628581 -0.241993 -0.063123 -0.141781
    59 14.345413 -3.365961 -4.057699 6.082404 -2.334634 -0.516521
    60 7.983948 1.973315 -0.352938 1.567517 -3.119052 0.320616
    61 -0.071921 -8.549519 -0.104134 0.329494 0.246771 0.241119
    62 -0.488518 -2.755602 -0.228260 -2.984776 0.029867 -0.214526
    63 0.039887 -1.554011 0.049386 -2.627524 0.011230 0.050240
    64 0.028786 -1.329645 -0.062173 -2.430617 0.004758 0.050096
    65 0.250027 -2.820665 -0.238396 -2.356696 -0.022384 -0.042815
    66 -0.049759 -1.618042 -0.024525 -2.331130 -0.020170 -0.050409
    67 -0.034142 -1.222533 0.057437 -2.417134 -0.021956 -0.050012
    68 0.957766 -2.746780 -0.090302 -2.572482 -0.225424 0.116654
    69 -0.033420 -1.416661 -0.038602 -2.571948 -0.063183 -0.073826
    70 -0.022360 -1.004312 -0.008561 -2.563615 -0.063351 -0.073358
    71 -1.180681 -2.507217 -0.193859 -2.930635 -0.054587 -0.538617
    72 -0.024967 -1.123934 0.017597 -2.465460 -0.051342 -0.068803
    73 -0.020057 -0.890968 0.060873 -2.419788 -0.046165 -0.070625
    74 0.583510 -1.146494 0.177566 0.614395 -0.342581 -1.638450
    75 1.157009 -0.325702 0.110481 0.339663 -0.313121 -1.969017
    76 0.870295 -0.214230 0.059636 0.259463 -0.306712 -1.729442
    77 0.120153 -0.050270 -0.054489 -5.995616 3.110905 -4.722100
    78 -12.896154 -3.754652 -7.564014 -5.368506 2.431184 0.945635
    79 0.096944 -8.540265 -0.009365 0.347797 -0.262085 -0.229362
    80 0.447953 -2.798986 -0.200443 -2.984914 -0.013188 0.208203
    81 -0.032909 -1.480204 0.055723 -2.611575 0.006052 -0.054192
    82 -0.027022 -1.147235 0.018854 -2.351948 0.013914 -0.050743
    83 -0.249534 -2.846964 -0.174213 -2.357742 -0.022476 0.018186
    84 0.043235 -1.676128 0.045229 -2.429657 -0.023028 0.026607
    85 0.031729 -1.141298 0.031493 -2.342119 -0.020655 0.018523
    86 -0.963866 -2.785145 -0.085350 -2.588320 0.076191 -0.202043
    87 0.028479 -1.446037 -0.024980 -2.601102 -0.086709 -0.010055
    88 0.021413 -0.949968 -0.011205 -2.577638 -0.086265 -0.010283
    89 1.164475 -2.543940 -0.170330 -2.929876 0.088767 0.524379
    90 0.024032 -1.179825 0.009994 -2.496092 0.087008 0.061062
    91 0.014898 -0.903521 0.011403 -2.295674 0.073861 0.069019
    92 -0.586770 -1.264477 0.200161 -0.492910 -0.107135 -1.627252
    93 1.616588 0.058681 0.016848 -0.044994 0.001387 1.901043
    94 1.117947 0.040611 -0.005766 -0.049068 -0.021770 1.797547
    95 -0.139399 -0.111698 0.014397 0.285382 -0.030687 1.580508
    96 -7.030361 -3.579171 -0.469909 1.552141 -0.038536 0.383976
  time 6
    0 13.796953 -13.221954 -10.906759 3.606710 0.082596 0.828355
    1 -7.809490 -1.757525 -2.320449 -3.141592 -1.570460 0.000000
    2 -8.865441 -1.757526 -2.328262 -3.141592 -1.570460 0.000000
    3 -9.921391 -1.757527 -1.924490 -3.141592 -1.570460 0.000000
    4 -6.753541 -1.757525 -1.924490 -3.141592 -1.570460 0.000000
    5 -7.809490 1.734272 -2.010076 -3.141592 -1.570451 0.000000
    6 -8.865444 1.734271 -2.466764 -3.141592 -1.570460 0.000000
    7 -9.921392 1.734272 -1.717455 -3.141592 -1.570460 0.000000
    8 -6.753543 1.734273 -2.174144 -3.141592 -1.570460 0.000000
    9 -15.602835 1.860563 -1.783342 -0.000009 0.026443 -0.087419
    10 -15.699603 0.016490 -2.164415 0.000000 0.027495 0.000000
    11 -15.900202 -1.872577 -1.878880 0.000484 0.036128 0.087180
    12 -10.522499 0.651438 -0.485178 -0.247630 1.391162 -0.331601
    13 -1.703453 0.000000 -0.000001 -3.112821 0.656886 -0.027563
    14 -1.347826 -0.000003 -0.000002 -0.043534 -0.299483 0.000682
    15 -10.624813 -0.522614 -0.513186 0.092205 1.193096 0.158470
    16 -1.860502 -0.000001 0.000001 3.134505 0.394292 -0.034281
    17 -1.426042 -0.000004 0.000001 -0.024465 -0.131996 -0.003018
    18 -10.205732 -1.718646 -0.278646 0.177853 0.671806 0.296666
    19 -1.858057 0.000000 0.000000 3.125226 0.752057 -0.044678
    20 -1.373753 -0.000002 -0.000002 -0.016514 0.118871 -0.034945
    21 -10.223785 1.706234 -0.389283 -0.998492 1.380490 -1.185474
    22 -1.552558 -0.000001 0.000002 -3.041823 0.863078 0.022976
    23 -1.256083 -0.000003 0.000002 -0.064862 -0.745430 -0.004728
    24 -7.228352 -2.509135 0.913229 0.282416 1.037077 0.937112
    25 -1.947757 0.000000 0.000000 0.036736 0.036765 -0.410614
    26 -11.117350 -10.232494 -13.571603 1.010744 -0.882875 -1.429435
    27 7.356795 1.757692 2.418972 -3.141592 -1.570460 0.000000
    28 8.351534 1.757692 2.524443 -3.141592 -1.570460 0.000000
    29 9.346272 1.757692 2.071136 -3.141592 -1.570460 0.000000
    30 6.362056 1.757692 2.152115 -3.141592 -1.570460 0.000000
    31 7.356794 -1.734436 2.131545 -3.141592 -1.570460 0.000000
    32 8.351538 -1.734434 2.518011 -3.141592 -1.570451 0.000000
    33 9.346275 -1.734434 1.942913 -3.141592 -1.570451 0.000000
    34 6.362056 -1.734434 2.329379 -3.141592 -1.570460 0.000000
    35 15.512798 -1.933004 1.901297 0.000000 0.026231 -0.087266
    36 15.613674 -0.016489 2.307572 0.000000 0.027274 0.000000
    37 15.793165 1.947556 1.997180 0.000471 0.035840 0.087028
    38 9.912537 -0.651499 0.519172 -0.002369 1.255720 -0.082366
    39 1.809620 0.000001 0.000000 -3.111661 0.620698 -0.026967
    40 1.397991 0.000004 -0.000001 0.000985 -0.739439 -0.033365
    41 10.008919 0.522663 0.549143 -0.187029 1.130407 -0.121831
    42 1.952822 0.000000 0.000000 3.134589 0.618838 -0.034150
    43 1.519086 0.000004 -0.000001 0.010122 -0.790655 -0.027672
    44 9.614133 1.718808 0.298168 0.098109 0.677623 0.281171
    45 1.836339 0.000000 0.000001 3.110581 0.911756 -0.060478
    46 1.460696 0.000003 -0.000001 0.002881 -0.762876 -0.043869
    47 9.631138 -1.706394 0.416558 -0.091749 1.341716 -0.220069
    48 1.655844 0.000000 0.000000 -3.014178 1.005344 0.055965
    49 1.248022 0.000003 -0.000001 0.002867 -0.862788 -0.070379
    50 6.809342 2.509372 -0.977215 0.074162 1.001612 0.576097
    51 2.030345 0.000000 0.000000 0.026464 0.044146 -0.656754
    52 33.779381 0.176438 87.257599 0.851007 2.933696 -3.052625
    53 3.527313 -6.710968 6.526821 0.545479 0.112379 0.080744
    54 4.697630 2.065727 0.557423 0.284446 0.013779 -0.047092
    55 32.213318 -5.260166 86.515594 1.732938 0.175478 -0.013561
    56 7.701118 1.002495 3.476966 0.522406 0.085813 -0.083577
    57 4.721035 0.884865 -3.720435 0.338608 -0.074897 -0.038818
    58 1.821522 -4.368586 -9.628581 -0.242280 -0.055165 -0.132220
    59 14.935275 -3.463620 -3.686594 6.189747 -2.404109 -0.539207
    60 8.054262 1.258449 -0.364657 1.568380 -3.117614 0.232207
    61 -0.071921 -8.549519 -0.104134 0.329494 0.246771 0.241119
    62 -0.488518 -2.755602 -0.228260 -2.984776 0.029867 -0.214526
    63 0.039887 -1.554011 0.049386 -2.627524 0.011230 0.050240
    64 0.028786 -1.329645 -0.062173 -2.430617 0.004758 0.050096
    65 0.250027 -2.820665 -0.238396 -2.356696 -0.022384 -0.042815
    66 -0.049759 -1.618042 -0.024525 -2.331130 -0.020170 -0.050409
    67 -0.034142 -1.222533 0.057437 -2.417134 -0.021956 -0.050012
    68 0.957766 -2.746780 -0.090302 -2.572482 -0.225424 0.116654
    69 -0.033420 -1.416661 -0.038602 -2.571948 -0.063183 -0.073826
    70 -0.022360 -1.004312 -0.008561 -2.563615 -0.063351 -0.073358
    71 -1.180681 -2.507217 -0.193859 -2.930635 -0.054587 -0.538617
    72 -0.024967 -1.123934 0.017597 -2.465460 -0.051342 -0.068803
    73 -0.020057 -0.890968 0.060873 -2.419788 -0.046165 -0.070625
    74 0.583510 -1.146494 0.177566 0.614395 -0.342581 -1.638450
    75 1.157009 -0.325702 0.110481 0.339663 -0.313121 -1.969017
    76 0.870295 -0.214230 0.059636 0.259463 -0.306712 -1.729442
    77 0.120153 -0.050270 -0.054489 -5.995616 3.110905 -4.722100
    78 -12.864903 -3.903094 -7.427291 -5.333268 2.426880 1.000936
    79 0.096944 -8.540265 -0.009365 0.347797 -0.262085 -0.229362
    80 0.447953 -2.798986 -0.200443 -2.984914 -0.013188 0.208203
    81 -0.032909 -1.480204 0.055723 -2.611575 0.006052 -0.054192
    82 -0.027022 -1.147235 0.018854 -2.351948 0.013914 -0.050743
    83 -0.249534 -2.846964 -0.174213 -2.357742 -0.022476 0.018186
    84 0.043235 -1.676128 0.045229 -2.429657 -0.023028 0.026607
    85 0.031729 -1.141298 0.031493 -2.342119 -0.020655 0.018523
    86 -0.963866 -2.785145 -0.085350 -2.588320 0.076191 -0.202043
    87 0.028479 -1.446037 -0.024980 -2.601102 -0.086709 -0.010055
    88 0.021413 -0.949968 -0.011205 -2.577638 -0.086265 -0.010283
    89 1.164475 -2.543940 -0.170330 -2.929876 0.088767 0.524379
    90 0.024032 -1.179825 0.009994 -2.496243 0.087008 0.061062
    91 0.014898 -0.903521 0.011403 -2.295606 0.073861 0.069019
    92 -0.586770 -1.264477 0.200161 -0.492910 -0.107135 -1.627252
    93 1.616588 0.058681 0.016848 -0.044994 0.001387 1.901043
    94 1.117947 0.040611 -0.005766 -0.049068 -0.021770 1.797653
    95 -0.139399 -0.111698 0.014397 0.285382 -0.030687 1.580508
    96 -6.956140 -3.700268 -0.469909 1.551661 -0.038536 0.401014
  time 7
    0 13.886800 -13.042261 -10.664564 3.564438 0.112389 0.843453
    1 -7.809490 -1.757525 -2.320449 -3.141592 -1.570796 0.000000
    2 -8.865441 -1.757526 -2.328262 -3.141592 -1.570796 0.000000
    3 -9.921391 -1.757527 -1.924490 -3.141592 -1.570796 0.000000
    4 -6.753541 -1.757525 -1.924490 -3.141592 -1.570796 0.000000
    5 -7.809490 1.734272 -2.010076 -3.141592 -1.570787 0.000000
    6 -8.865444 1.734271 -2.466764 -3.141592 -1.570460 0.000000
    7 -9.921392 1.734272 -1.705736 -3.141592 -1.570460 0.000000
    8 -6.753543 1.734273 -2.174144 -3.141592 -1.570796 0.000000
    9 -15.735652 1.868376 -1.783342 -0.000009 0.026443 -0.087419
    10 -15.840232 0.016490 -2.164415 0.000000 0.027495 0.000000
    11 -16.025206 -1.884296 -1.878880 0.000484 0.036128 0.087180
    12 -10.522499 0.651438 -0.485178 -0.166878 1.291020 -0.249291
    13 -1.703453 0.000000 -0.000001 -3.110939 0.724947 -0.024734
    14 -1.347826 -0.000003 -0.000002 -0.043558 -0.302546 0.000777
    15 -10.624813 -0.522614 -0.513186 0.071399 1.081571 0.135987
    16 -1.883940 -0.000001 0.000001 3.134517 0.458116 -0.034269
    17 -1.426042 -0.000004 0.000001 -0.024465 -0.138041 -0.002887
    18 -10.205732 -1.718646 -0.278646 0.163807 0.554928 0.272422
    19 -1.873683 0.000000 0.000000 3.125657 0.708704 -0.043911
    20 -1.381566 -0.000002 -0.000002 -0.016514 0.118972 -0.034945
    21 -10.223785 1.706234 -0.389283 -0.875526 1.356741 -1.059895
    22 -1.560371 -0.000001 0.000002 -3.031553 0.933828 0.035788
    23 -1.256083 -0.000003 0.000002 -0.065042 -0.751938 -0.004369
    24 -7.228352 -2.509135 0.913229 0.280935 1.042974 0.931491
    25 -1.947757 0.000000 0.000000 0.036592 0.036921 -0.414736
    26 -11.609552 -10.357498 -13.110652 0.924899 -0.868943 -1.348154
    27 7.356795 1.757692 2.461942 -3.141592 -1.570796 0.000000
    28 8.351534 1.757692 2.536162 -3.141592 -1.570796 0.000000
    29 9.346272 1.757692 2.071136 -3.141592 -1.570796 0.000000
    30 6.362056 1.757692 2.120864 -3.141592 -1.570796 0.000000
    31 7.356794 -1.734436 2.143264 -3.141592 -1.570796 0.000000
    32 8.351538 -1.734434 2.537543 -3.141592 -1.570451 0.000000
    33 9.346275 -1.734434 1.931194 -3.141592 -1.570451 0.000000
    34 6.362056 -1.734434 2.321566 -3.141592 -1.570796 0.000000
    35 15.512798 -1.933004 1.901297 0.000000 0.026231 -0.087266
    36 15.613674 -0.016489 2.307572 0.000000 0.027274 0.000000
    37 15.793165 1.947556 1.997180 0.000471 0.035840 0.087028
    38 9.912537 -0.651499 0.519172 0.003875 1.211164 -0.076326
    39 1.809620 0.000001 0.000000 -3.113099 0.578431 -0.028993
    40 1.397991 0.000004 -0.000001 -0.011179 -0.625855 -0.023850
    41 10.008919 0.522663 0.549143 -0.130198 1.069683 -0.065797
    42 1.952822 0.000000 0.000000 3.134589 0.546324 -0.034150
    43 1.519086 0.000004 -0.000001 0.001373 -0.654029 -0.020829
    44 9.614133 1.718808 0.298168 0.095340 0.583375 0.279841
    45 1.836339 0.000000 0.000001 3.114656 0.851758 -0.056008
    46 1.460696 0.000003 -0.000001 -0.001985 -0.610542 -0.040466
    47 9.631138 -1.706394 0.416558 -0.106850 1.298455 -0.241054
    48 1.655844 0.000000 0.000000 -3.022723 0.977765 0.046545
    49 1.248022 0.000003 -0.000001 -0.012521 -0.764866 -0.057484
    50 6.809342 2.509372 -0.977215 0.086097 0.997010 0.653553
    51 2.030345 0.000000 0.000000 0.027771 0.043475 -0.628891
    52 33.779381 0.176438 87.257599 0.851007 2.933696 -3.052625
    53 3.527313 -6.710968 6.526821 0.545479 0.112379 0.080744
    54 4.697630 2.065727 0.557423 0.284446 0.013779 -0.047092
    55 32.213318 -5.260166 86.515594 1.732938 0.175478 -0.013561
    56 7.701118 1.002495 3.476966 0.522406 0.085813 -0.083577
    57 4.721035 0.884865 -3.720435 0.338608 -0.074897 -0.038818
    58 1.473855 -4.368586 -9.628581 -0.242580 -0.047231 -0.122766
    59 15.279036 -3.440182 -3.432680 6.224643 -2.456906 -0.556649
    60 8.077701 0.758434 -0.372470 1.569339 -3.116367 0.170273
    61 -0.071921 -8.549519 -0.104134 0.329494 0.246771 0.241119
    62 -0.488518 -2.755602 -0.228260 -2.984776 0.029867 -0.214526
    63 0.039887 -1.554011 0.049386 -2.627524 0.011230 0.050240
    64 0.028786 -1.329645 -0.062173 -2.430617 0.004758 0.050096
    65 0.250027 -2.820665 -0.238396 -2.356696 -0.022384 -0.042815
    66 -0.049759 -1.618042 -0.024525 -2.331130 -0.020170 -0.050409
    67 -0.034142 -1.222533 0.057437 -2.417279 -0.021956 -0.050012
    68 0.957766 -2.746780 -0.090302 -2.572482 -0.225424 0.116654
    69 -0.033420 -1.416661 -0.038602 -2.571948 -0.063183 -0.073826
    70 -0.022360 -1.004312 -0.008561 -2.563615 -0.063351 -0.073358
    71 -1.180681 -2.507217 -0.193859 -2.930635 -0.054587 -0.538617
    72 -0.024967 -1.123934 0.017597 -2.465460 -0.051342 -0.068803
    73 -0.020057 -0.890968 0.060873 -2.419788 -0.046165 -0.070625
    74 0.583510 -1.146494 0.177566 0.614395 -0.342581 -1.638450
    75 1.157009 -0.325702 0.110481 0.339663 -0.313121 -1.969017
    76 0.870295 -0.214230 0.059636 0.259463 -0.306712 -1.729442
    77 0.120153 -0.050270 -0.054489 -5.995616 3.110905 -4.722100
    78 -13.157881 -4.028098 -7.052280 -5.360175 2.434148 1.019800
    79 0.096944 -8.540265 -0.009365 0.347797 -0.262085 -0.229362
    80 0.447953 -2.798986 -0.200443 -2.984914 -0.013188 0.208203
    81 -0.032909 -1.480204 0.055723 -2.611575 0.006052 -0.054192
    82 -0.027022 -1.147235 0.018854 -2.351948 0.013914 -0.050743
    83 -0.249534 -2.846964 -0.174213 -2.357742 -0.022476 0.018186
    84 0.043235 -1.676128 0.045229 -2.429657 -0.023028 0.026607
    85 0.031729 -1.141298 0.031493 -2.342119 -0.020655 0.018523
    86 -0.963866 -2.785145 -0.085350 -2.588320 0.076191 -0.202043
    87 0.028479 -1.446037 -0.024980 -2.601102 -0.086709 -0.010055
    88 0.021413 -0.949968 -0.011205 -2.577638 -0.086265 -0.010283
    89 1.164475 -2.543940 -0.170330 -2.929876 0.088767 0.524379
    90 0.024032 -1.179825 0.009994 -2.496243 0.087008 0.061062
    91 0.014898 -0.903521 0.011403 -2.295674 0.073861 0.069019
    92 -0.586770 -1.264477 0.200161 -0.492910 -0.107135 -1.627252
    93 1.616588 0.058681 0.016848 -0.044994 0.001387 1.901043
    94 1.117947 0.040611 -0.005766 -0.049068 -0.021770 1.797653
    95 -0.139399 -0.111698 0.014397 0.285382 -0.030687 1.580508
    96 -6.932702 -3.731519 -0.469909 1.551565 -0.038536 0.406220
  time 8
    0 13.859455 -12.741471 -10.723159 3.539533 0.094664 0.849664
    1 -7.809490 -1.757525 -2.328262 -3.141592 -1.570796 0.000000
    2 -8.865441 -1.757526 -2.328262 -3.141592 -1.570796 0.000000
    3 -9.921391 -1.757527 -1.924490 -3.141592 -1.570796 0.000000
    4 -6.753541 -1.757525 -1.924490 -3.141592 -1.570796 0.000000
    5 -7.809490 1.734272 -2.010076 -3.141592 -1.570787 0.000000
    6 -8.865444 1.734271 -2.478483 -3.141592 -1.570460 0.000000
    7 -9.921392 1.734272 -1.705736 -3.141592 -1.570460 0.000000
    8 -6.753543 1.734273 -2.166331 -3.141592 -1.570796 0.000000
    9 -15.864562 1.880095 -1.791155 -0.000009 0.026443 -0.087419
    10 -15.973049 0.016490 -2.164415 0.000000 0.027495 0.000000
    11 -16.165835 -1.896015 -1.878880 0.000484 0.036128 0.087180
    12 -10.522499 0.651438 -0.485178 -0.086126 1.191117 -0.166956
    13 -1.722985 0.000000 -0.000001 -3.109166 0.789198 -0.022110
    14 -1.340013 -0.000003 -0.000002 -0.043570 -0.305428 0.000909
    15 -10.624813 -0.522614 -0.513186 0.050606 0.970388 0.113480
    16 -1.911285 -0.000001 0.000001 3.134529 0.521686 -0.034245
    17 -1.426042 -0.000004 0.000001 -0.024465 -0.144085 -0.002743
    18 -10.205732 -1.718646 -0.278646 0.149605 0.437710 0.248045
    19 -1.897121 0.000000 0.000000 3.126064 0.665866 -0.043168
    20 -1.401098 -0.000002 -0.000002 -0.016514 0.118972 -0.034904
    21 -10.223785 1.706234 -0.389283 -0.759420 1.334331 -0.941232
    22 -1.560371 -0.000001 0.000002 -3.021809 1.000812 0.047856
    23 -1.256083 -0.000003 0.000002 -0.065185 -0.758135 -0.003961
    24 -7.228352 -2.509135 0.913229 0.279422 1.048810 0.925889
    25 -1.947757 0.000000 0.000000 0.036460 0.037089 -0.418842
    26 -12.148631 -10.423906 -12.583292 0.818009 -0.836187 -1.257479
    27 7.356795 1.757692 2.497099 -3.141592 -1.570796 0.000000
    28 8.351534 1.757692 2.547881 -3.141592 -1.570460 0.000000
    29 9.346272 1.757692 2.071136 -3.141592 -1.570460 0.000000
    30 6.362056 1.757692 2.097426 -3.141592 -1.570460 0.000000
    31 7.356794 -1.734436 2.154983 -3.141592 -1.570460 0.000000
    32 8.351538 -1.734434 2.549262 -3.141592 -1.570451 0.000000
    33 9.346275 -1.734434 1.911662 -3.141592 -1.570451 0.000000
    34 6.362056 -1.734434 2.309847 -3.141592 -1.570460 0.000000
    35 15.512798 -1.933004 1.901297 0.000000 0.026231 -0.087266
    36 15.613674 -0.016489 2.307572 0.000000 0.027274 0.000000
    37 15.793165 1.947556 1.997180 0.000471 0.035840 0.087028
    38 9.912537 -0.651499 0.519172 0.009759 1.168976 -0.070621
    39 1.809620 0.000001 0.000000 -3.114453 0.538432 -0.030850
    40 1.397991 0.000004 -0.000001 -0.022696 -0.518366 -0.014813
    41 10.008919 0.522663 0.549143 -0.073432 1.008959 -0.009828
    42 1.952822 0.000000 0.000000 3.134589 0.473810 -0.034150
    43 1.519086 0.000004 -0.000001 -0.007364 -0.517343 -0.013974
    44 9.614133 1.718808 0.298168 0.092632 0.489085 0.278474
    45 1.836339 0.000000 0.000001 3.118742 0.791760 -0.051526
    46 1.460696 0.000003 -0.000001 -0.006838 -0.458271 -0.037026
    47 9.631138 -1.706394 0.416558 -0.121149 1.257497 -0.260867
    48 1.655844 0.000000 0.000000 -3.030825 0.951559 0.037604
    49 1.248022 0.000003 -0.000001 -0.027107 -0.672358 -0.045295
    50 6.809342 2.509372 -0.977215 0.098113 0.992395 0.731009
    51 2.030345 0.000000 0.000000 0.029017 0.042779 -0.601058
    52 33.779381 0.176438 87.257599 0.851007 2.933696 -3.052625
    53 3.527313 -6.710968 6.526821 0.545479 0.112379 0.080744
    54 4.697630 2.065727 0.557423 0.284446 0.013779 -0.047092
    55 32.213318 -5.260166 86.515594 1.732938 0.175478 -0.013561
    56 7.701118 1.002495 3.476966 0.522406 0.085813 -0.083577
    57 4.721035 0.884865 -3.720435 0.338608 -0.074897 -0.038818
    58 1.134001 -4.368586 -9.628581 -0.242916 -0.039309 -0.113312
    59 15.532950 -3.260489 -3.276425 6.199324 -2.492358 -0.551216
    60 8.073794 0.399048 -0.372470 1.569722 -3.115600 0.126588
    61 -0.071921 -8.549519 -0.104134 0.329494 0.246771 0.241119
    62 -0.488518 -2.755602 -0.228260 -2.984776 0.029867 -0.214526
    63 0.039887 -1.554011 0.049386 -2.627524 0.011230 0.050240
    64 0.028786 -1.329645 -0.062173 -2.430617 0.004758 0.050096
    65 0.250027 -2.820665 -0.238396 -2.356696 -0.022384 -0.042815
    66 -0.049759 -1.618042 -0.024525 -2.331130 -0.020170 -0.050409
    67 -0.034142 -1.222533 0.057437 -2.417134 -0.021956 -0.050012
    68 0.957766 -2.746780 -0.090302 -2.572482 -0.225424 0.116654
    69 -0.033420 -1.416661 -0.038602 -2.571948 -0.063183 -0.073826
    70 -0.022360 -1.004312 -0.008561 -2.563615 -0.063351 -0.073358
    71 -1.180681 -2.507217 -0.193859 -2.930635 -0.054587 -0.538617
    72 -0.024967 -1.123934 0.017597 -2.465460 -0.051342 -0.068803
    73 -0.020057 -0.890968 0.060873 -2.419788 -0.046165 -0.070625
    74 0.583510 -1.146494 0.177566 0.614395 -0.342581 -1.638450
    75 1.157009 -0.325702 0.110481 0.339663 -0.313121 -1.969017
    76 0.870295 -0.214230 0.059636 0.259463 -0.306712 -1.729442
    77 0.120153 -0.050270 -0.054489 -5.995616 3.110905 -4.722100
    78 -13.583675 -4.102319 -6.552264 -5.418012 2.446484 1.016898
    79 0.096944 -8.540265 -0.009365 0.347797 -0.262085 -0.229362
    80 0.447953 -2.798986 -0.200443 -2.984914 -0.013188 0.208203
    81 -0.032909 -1.480204 0.055723 -2.611575 0.006052 -0.054192
    82 -0.027022 -1.147235 0.018854 -2.351948 0.013914 -0.050743
    83 -0.249534 -2.846964 -0.174213 -2.357742 -0.022476 0.018186
    84 0.043235 -1.676128 0.045229 -2.429657 -0.023028 0.026607
    85 0.031729 -1.141298 0.031493 -2.342119 -0.020655 0.018523
    86 -0.963866 -2.785145 -0.085350 -2.588320 0.076191 -0.202043
    87 0.028479 -1.446037 -0.024980 -2.601102 -0.086709 -0.010055
    88 0.021413 -0.949968 -0.011205 -2.577638 -0.086265 -0.010283
    89 1.164475 -2.543940 -0.170330 -2.929876 0.088767 0.524379
    90 0.024032 -1.179825 0.009994 -2.496243 0.087008 0.061062
    91 0.014898 -0.903521 0.011403 -2.295606 0.073861 0.069019
    92 -0.586770 -1.264477 0.200161 -0.492910 -0.107135 -1.627252
    93 1.616588 0.058681 0.016848 -0.044994 0.001387 1.901043
    94 1.117947 0.040611 -0.005766 -0.049068 -0.021770 1.797547
    95 -0.139399 -0.111698 0.014397 0.285382 -0.030687 1.580508
    96 -6.940514 -3.719800 -0.469909 1.551565 -0.038536 0.404232
  time 9
    0 13.730545 -12.409430 -10.910665 3.530849 0.061948 0.853773
    1 -7.809490 -1.757525 -2.328262 -3.141592 -1.570460 0.000000
    2 -8.865441 -1.757526 -2.328262 -3.141592 -1.570460 0.000000
    3 -9.921391 -1.757527 -1.924490 -3.141592 -1.570460 0.000000
    4 -6.753541 -1.757525 -1.924490 -3.141592 -1.570460 0.000000
    5 -7.809490 1.734272 -2.021795 -3.141592 -1.570451 0.000000
    6 -8.865444 1.734271 -2.486296 -3.141592 -1.570796 0.000000
    7 -9.921392 1.734272 -1.697923 -3.141592 -1.570460 0.000000
    8 -6.753543 1.734273 -2.166331 -3.141592 -1.570460 0.000000
    9 -16.001285 1.891814 -1.791155 -0.000009 0.026443 -0.087419
    10 -16.105865 0.016490 -2.164415 0.000000 0.027495 0.000000
    11 -16.298652 -1.907734 -1.886693 0.000484 0.036128 0.087180
    12 -10.522499 0.651438 -0.485178 -0.094168 1.268255 -0.176352
    13 -1.711266 0.000000 -0.000001 -3.107488 0.849417 -0.019593
    14 -1.359545 -0.000003 -0.000002 -0.043570 -0.307710 0.001017
    15 -10.624813 -0.522614 -0.513186 0.061452 1.084824 0.126088
    16 -1.883940 -0.000001 0.000001 3.134505 0.586634 -0.034269
    17 -1.426042 -0.000004 0.000001 -0.024465 -0.149916 -0.002599
    18 -10.205732 -1.718646 -0.278646 0.158078 0.537545 0.265686
    19 -1.885402 0.000000 0.000000 3.120635 0.900265 -0.050227
    20 -1.373753 -0.000002 -0.000002 -0.016514 0.119779 -0.034959
    21 -10.223785 1.706234 -0.389283 -0.650050 1.313083 -0.829558
    22 -1.560371 -0.000001 0.000002 -3.012641 1.064003 0.059278
    23 -1.263896 -0.000003 0.000002 -0.065341 -0.763959 -0.003638
    24 -7.228352 -2.509135 0.913229 0.277941 1.054707 0.920305
    25 -1.947757 0.000000 0.000000 0.036328 0.037232 -0.422964
    26 -12.648646 -10.466876 -12.114528 0.722521 -0.800132 -1.183340
    27 7.356795 1.757692 2.536163 -3.141592 -1.570460 0.000000
    28 8.351534 1.757692 2.559600 -3.141592 -1.570460 0.000000
    29 9.346272 1.757692 2.071136 -3.141592 -1.570460 0.000000
    30 6.362056 1.757692 2.077894 -3.141592 -1.570460 0.000000
    31 7.356794 -1.734436 2.154983 -3.141592 -1.570460 0.000000
    32 8.351538 -1.734434 2.560981 -3.141592 -1.570787 0.000000
    33 9.346275 -1.734434 1.899943 -3.141592 -1.570451 0.000000
    34 6.362056 -1.734434 2.305941 -3.141592 -1.570460 0.000000
    35 15.512798 -1.933004 1.901297 0.000000 0.026231 -0.087266
    36 15.613674 -0.016489 2.307572 0.000000 0.027274 0.000000
    37 15.793165 1.947556 1.997180 0.000471 0.035840 0.087028
    38 9.912537 -0.651499 0.519172 0.015356 1.129195 -0.065240
    39 1.809620 0.000001 0.000000 -3.115760 0.500701 -0.032660
    40 1.397991 0.000004 -0.000001 -0.033554 -0.416971 -0.006340
    41 10.008919 0.522663 0.549143 -0.016601 0.948235 0.046206
    42 1.952822 0.000000 0.000000 3.134589 0.401319 -0.034150
    43 1.519086 0.000004 -0.000001 -0.016064 -0.380717 -0.007191
    44 9.614133 1.718808 0.298168 0.089875 0.394751 0.277144
    45 1.836339 0.000000 0.000001 3.122841 0.731762 -0.047055
    46 1.460696 0.000003 -0.000001 -0.011704 -0.306000 -0.033671
    47 9.631138 -1.706394 0.416558 -0.134607 1.218841 -0.279588
    48 1.655844 0.000000 0.000000 -3.038447 0.926953 0.029191
    49 1.248022 0.000003 -0.000001 -0.040805 -0.584911 -0.033790
    50 6.809342 2.509372 -0.977215 0.110064 0.987793 0.808465
    51 2.030345 0.000000 0.000000 0.030299 0.042108 -0.573195
    52 33.779381 0.176438 87.257599 0.851007 2.933696 -3.052625
    53 3.527313 -6.710968 6.526821 0.545479 0.112379 0.080744
    54 4.697630 2.065727 0.557423 0.284446 0.013779 -0.047092
    55 32.213318 -5.260166 86.515594 1.732938 0.175478 -0.013561
    56 7.701118 1.002495 3.476966 0.522406 0.085813 -0.083577
    57 4.721035 0.884865 -3.720435 0.338608 -0.074897 -0.038818
    58 0.794147 -4.368586 -9.628581 -0.243191 -0.031400 -0.103751
    59 15.700923 -3.057358 -3.170953 6.155989 -2.511990 -0.539302
    60 8.054262 0.188104 -0.384189 1.570202 -3.115313 0.099640
    61 -0.071921 -8.549519 -0.104134 0.329494 0.246771 0.241119
    62 -0.488518 -2.755602 -0.228260 -2.984776 0.029867 -0.214526
    63 0.039887 -1.554011 0.049386 -2.627524 0.011230 0.050240
    64 0.028786 -1.329645 -0.062173 -2.430617 0.004758 0.050096
    65 0.250027 -2.820665 -0.238396 -2.356696 -0.022384 -0.042815
    66 -0.049759 -1.618042 -0.024525 -2.331130 -0.020170 -0.050409
    67 -0.034142 -1.222533 0.057437 -2.417134 -0.021956 -0.050012
    68 0.957766 -2.746780 -0.090302 -2.572482 -0.225424 0.116654
    69 -0.033420 -1.416661 -0.038602 -2.571948 -0.063183 -0.073826
    70 -0.022360 -1.004312 -0.008561 -2.563615 -0.063351 -0.073358
    71 -1.180681 -2.507217 -0.193859 -2.930635 -0.054587 -0.538617
    72 -0.024967 -1.123934 0.017597 -2.465460 -0.051342 -0.068803
    73 -0.020057 -0.890968 0.060873 -2.419788 -0.046165 -0.070625
    74 0.583510 -1.146494 0.177566 0.614395 -0.342581 -1.638450
    75 1.157009 -0.325702 0.110481 0.339663 -0.313121 -1.969017
    76 0.870295 -0.214230 0.059636 0.259463 -0.306712 -1.729442
    77 0.120153 -0.050270 -0.054489 -5.995616 3.110905 -4.722100
    78 -13.935248 -4.137476 -6.095219 -5.475083 2.459012 1.007385
    79 0.096944 -8.540265 -0.009365 0.347797 -0.262085 -0.229362
    80 0.447953 -2.798986 -0.200443 -2.984914 -0.013188 0.208203
    81 -0.032909 -1.480204 0.055723 -2.611575 0.006052 -0.054192
    82 -0.027022 -1.147235 0.018854 -2.351948 0.013914 -0.050743
    83 -0.249534 -2.846964 -0.174213 -2.357742 -0.022476 0.018186
    84 0.043235 -1.676128 0.045229 -2.429657 -0.023028 0.026607
    85 0.031729 -1.141298 0.031493 -2.342119 -0.020655 0.018523
    86 -0.963866 -2.785145 -0.085350 -2.588320 0.076191 -0.202043
    87 0.028479 -1.446037 -0.024980 -2.601102 -0.086709 -0.010055
    88 0.021413 -0.949968 -0.011205 -2.577638 -0.086265 -0.010283
    89 1.164475 -2.543940 -0.170330 -2.929876 0.088767 0.524379
    90 0.024032 -1.179825 0.009994 -2.496243 0.087008 0.061062
    91 0.014898 -0.903521 0.011403 -2.295606 0.073861 0.069019
    92 -0.586770 -1.264477 0.200161 -0.492910 -0.107135 -1.627216
    93 1.616588 0.058681 0.016848 -0.044994 0.001387 1.901043
    94 1.117947 0.040611 -0.005766 -0.049068 -0.021770 1.797547
    95 -0.139399 -0.111698 0.014397 0.285382 -0.030687 1.580508
    96 -6.956140 -3.688549 -0.469909 1.551757 -0.038536 0.399878
  time 10
    0 13.515695 -12.190673 -11.070826 3.533712 0.046109 0.860366
    1 -7.809490 -1.757525 -2.328262 -3.141592 -1.570796 0.000000
    2 -8.865441 -1.757526 -2.328262 -3.141592 -1.570796 0.000000
    3 -9.921391 -1.757527 -1.924490 -3.141592 -1.570796 0.000000
    4 -6.753541 -1.757525 -1.924490 -3.141592 -1.570796 0.000000
    5 -7.809490 1.734272 -2.021795 -3.141592 -1.570787 0.000000
    6 -8.865444 1.734271 -2.486296 -3.141592 -1.570460 0.000000
    7 -9.921392 1.734272 -1.697923 -3.141592 -1.570460 0.000000
    8 -6.753543 1.734273 -2.166331 -3.141592 -1.570796 0.000000
    9 -16.134102 1.899627 -1.791155 -0.000009 0.026443 -0.087419
    10 -16.230869 0.016490 -2.176134 0.000000 0.027495 0.000000
    11 -16.431469 -1.915547 -1.886693 0.000484 0.036128 0.087180
    12 -10.522499 0.651438 -0.485178 -0.101682 1.340822 -0.185173
    13 -1.703453 0.000000 -0.000001 -3.105918 0.905624 -0.017292
    14 -1.379077 -0.000003 -0.000002 -0.043582 -0.310082 0.001113
    15 -10.624813 -0.522614 -0.513186 0.072322 1.199662 0.138695
    16 -1.860502 -0.000001 0.000001 3.134493 0.651128 -0.034281
    17 -1.437761 -0.000004 0.000001 -0.024453 -0.155559 -0.002431
    18 -10.205732 -1.718646 -0.278646 0.165988 0.631047 0.282237
    19 -1.865870 0.000000 0.000000 3.115494 1.121535 -0.056866
    20 -1.373753 -0.000002 -0.000002 -0.016514 0.120082 -0.034959
    21 -10.223785 1.706234 -0.389283 -0.547451 1.293250 -0.724746
    22 -1.560371 -0.000001 0.000002 -3.004036 1.123319 0.069956
    23 -1.263896 -0.000003 0.000002 -0.065485 -0.769348 -0.003314
    24 -7.228352 -2.509135 0.913229 0.276460 1.060543 0.914703
    25 -1.947757 0.000000 0.000000 0.036196 0.037400 -0.427123
    26 -13.023658 -10.552816 -11.833269 0.661427 -0.780854 -1.141186
    27 7.356795 1.757692 2.567414 -3.141592 -1.570460 0.000000
    28 8.351534 1.757692 2.567413 -3.141592 -1.570796 0.000000
    29 9.346272 1.757692 2.071136 -3.141592 -1.570796 0.000000
    30 6.362056 1.757692 2.058362 -3.141592 -1.570796 0.000000
    31 7.356794 -1.734436 2.162796 -3.141592 -1.570796 0.000000
    32 8.351538 -1.734434 2.568794 -3.141592 -1.570451 0.000000
    33 9.346275 -1.734434 1.892130 -3.141592 -1.570451 0.000000
    34 6.362056 -1.734434 2.298128 -3.141592 -1.570796 0.000000
    35 15.512798 -1.933004 1.901297 0.000000 0.026231 -0.087266
    36 15.613674 -0.016489 2.307572 0.000000 0.027274 0.000000
    37 15.793165 1.947556 1.997180 0.000471 0.035840 0.087028
    38 9.912537 -0.651499 0.519172 0.020569 1.091840 -0.060207
    39 1.809620 0.000001 0.000000 -3.116946 0.465285 -0.034326
    40 1.397991 0.000004 -0.000001 -0.043717 -0.321611 0.001630
    41 10.008919 0.522663 0.549143 0.040230 0.887537 0.102262
    42 1.952822 0.000000 0.000000 3.134589 0.328805 -0.034150
    43 1.519086 0.000004 -0.000001 -0.024765 -0.244031 -0.000348
    44 9.614133 1.718808 0.298168 0.087167 0.300418 0.275826
    45 1.836339 0.000000 0.000001 3.126952 0.671764 -0.042609
    46 1.460696 0.000003 -0.000001 -0.016570 -0.153666 -0.030255
    47 9.631138 -1.706394 0.416558 -0.147265 1.182584 -0.297117
    48 1.655844 0.000000 0.000000 -3.045614 0.903745 0.021293
    49 1.248022 0.000003 -0.000001 -0.053689 -0.502877 -0.023004
    50 6.809342 2.509372 -0.977215 0.122015 0.983203 0.885866
    51 2.030345 0.000000 0.000000 0.031570 0.041473 -0.545392
    52 33.779381 0.176438 87.257599 0.851007 2.933696 -3.052625
    53 3.527313 -6.710968 6.526821 0.545479 0.112379 0.080744
    54 4.697630 2.065727 0.557423 0.284446 0.013779 -0.047092
    55 32.213318 -5.260166 86.515594 1.732938 0.175478 -0.013561
    56 7.701118 1.002495 3.476966 0.522406 0.085813 -0.083577
    57 4.721035 0.884865 -3.720435 0.338608 -0.074897 -0.038818
    58 0.446480 -4.368586 -9.628581 -0.243527 -0.023466 -0.094350
    59 15.771238 -2.951886 -3.127983 6.132092 -2.519900 -0.532725
    60 8.046450 0.090445 -0.384189 1.570394 -3.114929 0.088199
    61 -0.071921 -8.549519 -0.104134 0.329494 0.246771 0.241119
    62 -0.488518 -2.755602 -0.228260 -2.984776 0.029867 -0.214526
    63 0.039887 -1.554011 0.049386 -2.627524 0.011230 0.050240
    64 0.028786 -1.329645 -0.062173 -2.430617 0.004758 0.050096
    65 0.250027 -2.820665 -0.238396 -2.356696 -0.022384 -0.042815
    66 -0.049759 -1.618042 -0.024525 -2.331130 -0.020170 -0.050409
    67 -0.034142 -1.222533 0.057437 -2.417279 -0.021956 -0.050012
    68 0.957766 -2.746780 -0.090302 -2.572482 -0.225424 0.116654
    69 -0.033420 -1.416661 -0.038602 -2.571948 -0.063183 -0.073826
    70 -0.022360 -1.004312 -0.008561 -2.563615 -0.063351 -0.073358
    71 -1.180681 -2.507217 -0.193859 -2.930635 -0.054587 -0.538617
    72 -0.024967 -1.123934 0.017597 -2.465460 -0.051342 -0.068803
    73 -0.020057 -0.890968 0.060873 -2.419788 -0.046165 -0.070625
    74 0.583510 -1.146494 0.177566 0.614395 -0.342581 -1.638450
    75 1.157009 -0.325702 0.110481 0.339663 -0.313121 -1.969017
    76 0.870295 -0.214230 0.059636 0.259463 -0.306712 -1.729442
    77 0.120153 -0.050270 -0.054489 -5.995616 3.110905 -4.722100
    78 -14.091503 -4.145289 -5.872556 -5.500842 2.464845 1.004322
    79 0.096944 -8.540265 -0.009365 0.347797 -0.262085 -0.229362
    80 0.447953 -2.798986 -0.200443 -2.984914 -0.013188 0.208203
    81 -0.032909 -1.480204 0.055723 -2.611575 0.006052 -0.054192
    82 -0.027022 -1.147235 0.018854 -2.351948 0.013914 -0.050743
    83 -0.249534 -2.846964 -0.174213 -2.357742 -0.022476 0.018186
    84 0.043235 -1.676128 0.045229 -2.429657 -0.023028 0.026607
    85 0.031729 -1.141298 0.031493 -2.342119 -0.020655 0.018523
    86 -0.963866 -2.785145 -0.085350 -2.588320 0.076191 -0.202043
    87 0.028479 -1.446037 -0.024980 -2.601102 -0.086709 -0.010055
    88 0.021413 -0.949968 -0.011205 -2.577638 -0.086265 -0.010283
    89 1.164475 -2.543940 -0.170330 -2.929876 0.088767 0.524379
    90 0.024032 -1.179825 0.009994 -2.496243 0.087008 0.061062
    91 0.014898 -0.903521 0.011403 -2.295606 0.073861 0.069019
    92 -0.586770 -1.264477 0.200161 -0.492910 -0.107135 -1.627252
    93 1.616588 0.058681 0.016848 -0.044994 0.001387 1.901043
    94 1.117947 0.040611 -0.005766 -0.049068 -0.021770 1.797653
    95 -0.139399 -0.111698 0.014397 0.285382 -0.030687 1.580508
    96 -6.963953 -3.676830 -0.469909 1.551757 -0.038536 0.398269
end
