version 1
nodes
  0 "Bone01" -1
  1 "Bone_Lefthand" 0
  2 "Bone02" 1
  3 "Bone03" 2
  4 "Bone52" 3
  5 "Bone25" 3
  6 "Bone54" 3
  7 "Bone56" 3
  8 "Bone58" 3
  9 "Bone 04" 1
  10 "Bone13" 9
  11 "Bone14" 10
  12 "Bone15" 11
  13 "Bone17" 9
  14 "Bone18" 13
  15 "Bone19" 14
  16 "Bone21" 9
  17 "Bone22" 16
  18 "Bone23" 17
  19 "Bone05" 9
  20 "Bone06" 19
  21 "Bone07" 20
  22 "Bone09" 9
  23 "Bone10" 22
  24 "Bone11" 23
  25 "Bone04" -1
  26 "Bone_Righthand" 25
  27 "Bone26" 26
  28 "Bone35" 27
  29 "Bone36" 28
  30 "Bone37" 29
  31 "Bone31" 27
  32 "Bone32" 31
  33 "Bone33" 32
  34 "Bone39" 27
  35 "Bone40" 34
  36 "Bone41" 35
  37 "Bone43" 27
  38 "Bone44" 37
  39 "Bone45" 38
  40 "Bone27" 27
  41 "Bone28" 40
  42 "Bone29" 41
end
skeleton
  time 0
    0 6.606519 0.165564 -6.694013 -0.774287 -1.331381 0.567232
    1 0.000000 -8.563284 0.000000 0.347157 -0.117018 -0.166597
    2 -0.251103 -3.675759 0.760352 -1.186398 1.434476 -1.173754
    3 -0.000001 2.696691 0.690915 0.000000 0.000000 0.000000
    4 0.000922 -0.883960 1.569312 0.000000 0.000000 0.000000
    5 0.000922 -3.415222 1.347102 0.403170 0.000000 0.000000
    6 0.000922 -2.222973 2.023393 0.000000 0.000000 0.000000
    7 -0.001984 15.309657 -1.919241 0.000000 0.000000 0.000000
    8 -0.002861 -1.798472 1.044055 0.000000 0.000000 0.000000
    9 -0.003480 -0.404829 0.000000 0.000000 0.000000 0.000000
    10 -0.519309 -2.501156 -0.278958 -1.003564 0.000000 -0.122173
    11 -0.010598 -1.208185 0.000000 -1.090831 0.000000 0.000000
    12 0.000000 -0.763066 0.000000 -1.223482 0.000000 0.000000
    13 0.105980 -2.607134 -0.278958 -0.890118 0.000000 -0.148353
    14 0.000000 -1.250578 0.000000 -1.213004 0.000000 0.000000
    15 0.000000 -0.932634 -0.000001 -1.279337 0.000000 0.000000
    16 0.763063 -2.490557 -0.278958 -0.349065 0.000000 0.130900
    17 -0.012322 -1.280917 0.000000 -0.799347 0.000000 0.000000
    18 -0.001697 -0.749371 0.000000 -1.096046 0.000000 0.000000
    19 0.354567 0.016266 0.318133 0.505409 -0.466262 -1.212439
    20 1.887165 0.012878 0.000000 -0.304966 -0.017306 -0.456358
    21 1.001874 -0.000270 0.000000 0.000000 0.000000 -0.572452
    22 -1.123359 -2.195094 -0.278958 -0.788809 0.052708 -0.017695
    23 0.010772 -0.963791 0.000001 -0.932004 0.000000 0.000000
    24 -0.010412 -0.631916 -0.000001 -1.061165 0.000000 0.000000
    25 -1.214393 -2.716641 -10.975239 -0.375302 0.000015 0.602068
    26 0.089929 -8.543163 0.000001 0.079772 -0.284688 0.455193
    27 0.000000 -0.359713 0.000000 0.000000 0.000000 0.000000
    28 -0.170479 -2.636147 -0.277655 -0.820322 0.000000 0.000000
    29 0.010599 -1.261177 0.000000 -0.584649 0.000000 0.000000
    30 -0.000001 -0.943233 -0.000001 -0.532326 0.000000 0.000000
    31 -0.827563 -2.508974 -0.277656 -0.942479 0.000000 0.000000
    32 -0.000001 -1.292971 0.000000 -0.287992 0.000000 0.000000
    33 0.000000 -0.752465 0.000000 -0.445059 0.000000 0.000000
    34 0.444213 -2.561960 -0.277656 -1.081577 -0.046226 -0.024599
    35 0.021022 -1.208186 0.000000 -0.427606 0.000000 0.000000
    36 0.010597 -0.741867 -0.000002 -0.453786 0.000000 0.000000
    37 1.047445 -2.222821 -0.277656 -1.019688 -0.066950 -0.041090
    38 0.000000 -0.996223 -0.000002 -0.584712 0.000000 0.000000
    39 -0.000001 -0.614690 0.000001 -0.523599 0.000000 0.000000
    40 -0.308254 -0.007814 0.307166 -0.318043 -0.539818 -2.424628
    41 1.978378 0.019543 0.000000 -0.000002 -0.000010 0.549778
    42 0.982426 0.003186 0.000000 0.000000 0.000000 0.593409
  time 1
    0 6.606519 0.165564 -6.694013 -0.774287 -1.331381 0.567232
    1 0.000000 -8.563284 0.000000 0.344176 -0.089986 0.099424
    2 -0.251103 -3.675759 0.760352 -1.186398 1.434476 -1.173754
    3 -0.000001 2.696691 0.690915 0.000000 0.000000 0.000000
    4 0.000922 -0.883960 1.569312 0.701622 0.000000 0.000000
    5 0.000922 -3.415222 1.347102 0.408250 0.000000 0.000000
    6 0.000922 -1.972965 2.023393 0.000000 0.000000 0.000000
    7 -0.001984 15.309657 -1.919241 0.000000 0.000000 0.000000
    8 -0.002861 -1.798472 1.044055 0.000000 0.000000 0.000000
    9 -0.003480 -0.404829 0.000000 0.000000 0.000000 0.000000
    10 -0.519309 -2.501156 -0.278958 -1.003564 0.000000 -0.122173
    11 -0.010598 -1.208185 0.000000 -1.090831 0.000000 0.000000
    12 0.000000 -0.763066 0.000000 -1.223482 0.000000 0.000000
    13 0.105980 -2.607134 -0.278958 -0.890118 0.000000 -0.148353
    14 0.000000 -1.250578 0.000000 -1.213004 0.000000 0.000000
    15 0.000000 -0.932634 -0.000001 -1.279337 0.000000 0.000000
    16 0.763063 -2.490557 -0.278958 -0.349065 0.000000 0.130900
    17 -0.012322 -1.280917 0.000000 -0.799347 0.000000 0.000000
    18 -0.001697 -0.749371 0.000000 -1.096046 0.000000 0.000000
    19 0.354567 0.016266 0.318133 0.505409 -0.466262 -1.212439
    20 1.887165 0.012878 0.000000 -0.304966 -0.017306 -0.456358
    21 1.001874 -0.000270 0.000000 0.000000 0.000000 -0.572452
    22 -1.123359 -2.195094 -0.278958 -0.788809 0.052708 -0.017695
    23 0.010772 -0.963791 0.000001 -0.932004 0.000000 0.000000
    24 -0.010412 -0.631916 -0.000001 -1.061165 0.000000 0.000000
    25 -1.015168 -2.927585 -10.764295 -0.429664 0.001443 0.601238
    26 0.089929 -8.543163 0.000001 0.125009 -0.199236 0.471855
    27 0.000000 -0.359713 0.000000 0.000000 0.000000 0.000000
    28 -0.170479 -2.636147 -0.277655 -0.820322 0.000000 0.000000
    29 0.010599 -1.261177 0.000000 -0.584649 0.000000 0.000000
    30 -0.000001 -0.943233 -0.000001 -0.532326 0.000000 0.000000
    31 -0.827563 -2.508974 -0.277656 -0.942479 0.000000 0.000000
    32 -0.000001 -1.292971 0.000000 -0.287992 0.000000 0.000000
    33 0.000000 -0.752465 0.000000 -0.445059 0.000000 0.000000
    34 0.444213 -2.561960 -0.277656 -1.081577 -0.046226 -0.024599
    35 0.021022 -1.208186 0.000000 -0.427606 0.000000 0.000000
    36 0.010597 -0.741867 -0.000002 -0.453786 0.000000 0.000000
    37 1.047445 -2.222821 -0.277656 -1.019688 -0.066950 -0.041090
    38 0.000000 -0.996223 -0.000002 -0.584712 0.000000 0.000000
    39 -0.000001 -0.614690 0.000001 -0.523599 0.000000 0.000000
    40 -0.308254 -0.007814 0.307166 -0.318043 -0.539818 -2.424628
    41 1.978378 0.019543 0.000000 -0.000002 -0.000010 0.549778
    42 0.982426 0.003186 0.000000 0.000000 0.000000 0.593409
  time 2
    0 6.782306 0.349164 -6.694013 -0.908438 -1.304046 0.669481
    1 0.000000 -8.563284 0.000000 0.346453 -0.089930 0.212855
    2 -0.251103 -3.675759 0.760352 -1.186398 1.434476 -1.173754
    3 -0.000001 2.696691 0.690915 0.000000 0.000000 0.000000
    4 0.000922 -0.883960 1.569312 0.571670 0.000000 0.000000
    5 0.000922 -3.415222 1.347102 0.419447 0.000000 0.000000
    6 0.000922 -1.207317 2.023393 0.000000 0.000000 0.000000
    7 -0.001984 15.309657 -1.919241 0.000000 0.000000 0.000000
    8 -0.002861 -1.798472 1.044055 0.000000 0.000000 0.000000
    9 -0.003480 -0.404829 0.000000 0.000000 0.000000 0.000000
    10 -0.519309 -2.501156 -0.278958 -1.003564 0.000000 -0.122173
    11 -0.010598 -1.208185 0.000000 -1.090831 0.000000 0.000000
    12 0.000000 -0.763066 0.000000 -1.223482 0.000000 0.000000
    13 0.105980 -2.607134 -0.278958 -0.890118 0.000000 -0.148353
    14 0.000000 -1.250578 0.000000 -1.213004 0.000000 0.000000
    15 0.000000 -0.932634 -0.000001 -1.279337 0.000000 0.000000
    16 0.763063 -2.490557 -0.278958 -0.349065 0.000000 0.130900
    17 -0.012322 -1.280917 0.000000 -0.808270 0.000000 0.000000
    18 -0.001697 -0.749371 0.000000 -1.104608 0.000000 0.000000
    19 0.354567 0.016266 0.318133 0.505409 -0.466262 -1.212439
    20 1.887165 0.012878 0.000000 -0.304966 -0.017306 -0.456358
    21 1.001874 -0.000270 0.000000 0.000000 0.000000 -0.572452
    22 -1.123359 -2.195094 -0.278958 -0.788809 0.052708 -0.017695
    23 0.010772 -0.963791 0.000001 -0.932004 0.000000 0.000000
    24 -0.010412 -0.631916 -0.000001 -1.061165 0.000000 0.000000
    25 -0.917509 -3.076027 -10.690074 -0.484128 0.002872 0.600257
    26 0.089929 -8.543163 0.000001 0.171095 -0.114577 0.492184
    27 0.000000 -0.359713 0.000000 0.000000 0.000000 0.000000
    28 -0.170479 -2.636147 -0.277655 -0.820322 0.000000 0.000000
    29 0.010599 -1.261177 0.000000 -0.584649 0.000000 0.000000
    30 -0.000001 -0.943233 -0.000001 -0.532326 0.000000 0.000000
    31 -0.827563 -2.508974 -0.277656 -0.942479 0.000000 0.000000
    32 -0.000001 -1.292971 0.000000 -0.287992 0.000000 0.000000
    33 0.000000 -0.752465 0.000000 -0.445059 0.000000 0.000000
    34 0.444213 -2.561960 -0.277656 -1.081577 -0.046226 -0.024599
    35 0.021022 -1.208186 0.000000 -0.427606 0.000000 0.000000
    36 0.010597 -0.741867 -0.000002 -0.453786 0.000000 0.000000
    37 1.047445 -2.222821 -0.277656 -1.019688 -0.066950 -0.041090
    38 0.000000 -0.996223 -0.000002 -0.584712 0.000000 0.000000
    39 -0.000001 -0.614690 0.000001 -0.523599 0.000000 0.000000
    40 -0.308254 -0.007814 0.307166 -0.318043 -0.539818 -2.424628
    41 1.978378 0.019543 0.000000 -0.000002 -0.000010 0.549778
    42 0.982426 0.003186 0.000000 0.000000 0.000000 0.593409
  time 3
    0 6.973718 0.560108 -6.701826 -0.953305 -1.292299 0.703717
    1 0.000000 -8.563284 0.000000 0.353471 -0.131054 0.127366
    2 -0.251103 -3.675759 0.760352 -1.186398 1.434476 -1.173754
    3 -0.000001 2.696691 0.690915 0.000000 0.000000 0.000000
    4 0.000922 -0.883960 1.569312 0.285835 0.000000 0.000000
    5 0.000922 -3.415222 1.347102 0.430658 0.000000 0.000000
    6 0.000922 -1.316695 2.023393 0.000000 0.000000 0.000000
    7 -0.001984 15.309657 -1.919241 0.000000 0.000000 0.000000
    8 -0.002861 -1.798472 1.044055 0.000000 0.000000 0.000000
    9 -0.003480 -0.404829 0.000000 0.000000 0.000000 0.000000
    10 -0.519309 -2.501156 -0.278958 -1.003564 0.000000 -0.122173
    11 -0.010598 -1.208185 0.000000 -1.090831 0.000000 0.000000
    12 0.000000 -0.763066 0.000000 -1.223482 0.000000 0.000000
    13 0.105980 -2.607134 -0.278958 -0.890118 0.000000 -0.148353
    14 0.000000 -1.250578 0.000000 -1.213004 0.000000 0.000000
    15 0.000000 -0.932634 -0.000001 -1.279337 0.000000 0.000000
    16 0.763063 -2.490557 -0.278958 -0.349065 0.000000 0.130900
    17 -0.012322 -1.280917 0.000000 -0.823168 0.000000 0.000000
    18 -0.001697 -0.749371 0.000000 -1.118890 0.000000 0.000000
    19 0.354567 0.016266 0.318133 0.505409 -0.466262 -1.212439
    20 1.887165 0.012878 0.000000 -0.304966 -0.017306 -0.456358
    21 1.001874 -0.000270 0.000000 0.000000 0.000000 -0.572452
    22 -1.123359 -2.195094 -0.278958 -0.788809 0.052708 -0.017695
    23 0.010772 -0.963791 0.000001 -0.932004 0.000000 0.000000
    24 -0.010412 -0.631916 -0.000001 -1.061165 0.000000 0.000000
    25 -0.913602 -3.158061 -10.744763 -0.511335 0.000015 0.602068
    26 0.089929 -8.543163 0.000001 0.217667 -0.070132 0.504268
    27 0.000000 -0.359713 0.000000 0.000000 0.000000 0.000000
    28 -0.170479 -2.636147 -0.277655 -0.820322 0.000000 0.000000
    29 0.010599 -1.261177 0.000000 -0.584649 0.000000 0.000000
    30 -0.000001 -0.943233 -0.000001 -0.532326 0.000000 0.000000
    31 -0.827563 -2.508974 -0.277656 -0.942479 0.000000 0.000000
    32 -0.000001 -1.292971 0.000000 -0.287992 0.000000 0.000000
    33 0.000000 -0.752465 0.000000 -0.445059 0.000000 0.000000
    34 0.444213 -2.561960 -0.277656 -1.081577 -0.046226 -0.024599
    35 0.021022 -1.208186 0.000000 -0.427606 0.000000 0.000000
    36 0.010597 -0.741867 -0.000002 -0.453786 0.000000 0.000000
    37 1.047445 -2.222821 -0.277656 -1.019688 -0.066950 -0.041090
    38 0.000000 -0.996223 -0.000002 -0.584712 0.000000 0.000000
    39 -0.000001 -0.614690 0.000001 -0.523599 0.000000 0.000000
    40 -0.308254 -0.007814 0.307166 -0.318043 -0.539818 -2.424628
    41 1.978378 0.019543 0.000000 -0.000002 -0.000010 0.549778
    42 0.982426 0.003186 0.000000 0.000000 0.000000 0.593409
  time 4
    0 6.688553 0.298381 -6.756515 -0.917205 -1.300649 0.680995
    1 0.000000 -8.563284 0.000000 0.366452 -0.172938 -0.043556
    2 -0.251103 -3.675759 0.760352 -1.186398 1.434476 -1.173754
    3 -0.000001 2.696691 0.690915 0.000000 0.000000 0.000000
    4 0.000922 -0.883960 1.569312 0.000000 0.000000 0.000000
    5 0.000922 -3.415222 1.347102 0.435751 0.000000 0.000000
    6 0.000922 -1.656549 2.023393 0.000000 0.000000 0.000000
    7 -0.001984 15.309657 -1.919241 0.000000 0.000000 0.000000
    8 -0.002861 -1.798472 1.044055 0.000000 0.000000 0.000000
    9 -0.003480 -0.404829 0.000000 0.000000 0.000000 0.000000
    10 -0.519309 -2.501156 -0.278958 -1.003564 0.000000 -0.122173
    11 -0.010598 -1.208185 0.000000 -1.090831 0.000000 0.000000
    12 0.000000 -0.763066 0.000000 -1.223482 0.000000 0.000000
    13 0.105980 -2.607134 -0.278958 -0.890118 0.000000 -0.148353
    14 0.000000 -1.250578 0.000000 -1.213004 0.000000 0.000000
    15 0.000000 -0.932634 -0.000001 -1.279337 0.000000 0.000000
    16 0.763063 -2.490557 -0.278958 -0.349065 0.000000 0.130900
    17 -0.012322 -1.280917 0.000000 -0.826163 0.000000 0.000000
    18 -0.001697 -0.749371 0.000000 -1.121750 0.000000 0.000000
    19 0.354567 0.016266 0.318133 0.505409 -0.466262 -1.212439
    20 1.887165 0.012878 0.000000 -0.304966 -0.017306 -0.456358
    21 1.001874 -0.000270 0.000000 0.000000 0.000000 -0.572452
    22 -1.123359 -2.195094 -0.278958 -0.788809 0.052708 -0.017695
    23 0.010772 -0.963791 0.000001 -0.932004 0.000000 0.000000
    24 -0.010412 -0.631916 -0.000001 -1.061165 0.000000 0.000000
    25 -1.046419 -3.173687 -11.002583 -0.498272 -0.008842 0.607803
    26 0.089929 -8.543163 0.000001 0.269761 -0.082357 0.499833
    27 0.000000 -0.359713 0.000000 0.000000 0.000000 0.000000
    28 -0.170479 -2.636147 -0.277655 -0.820322 0.000000 0.000000
    29 0.010599 -1.261177 0.000000 -0.584649 0.000000 0.000000
    30 -0.000001 -0.943233 -0.000001 -0.532326 0.000000 0.000000
    31 -0.827563 -2.508974 -0.277656 -0.942479 0.000000 0.000000
    32 -0.000001 -1.292971 0.000000 -0.287992 0.000000 0.000000
    33 0.000000 -0.752465 0.000000 -0.445059 0.000000 0.000000
    34 0.444213 -2.561960 -0.277656 -1.081577 -0.046226 -0.024599
    35 0.021022 -1.208186 0.000000 -0.427606 0.000000 0.000000
    36 0.010597 -0.741867 -0.000002 -0.453786 0.000000 0.000000
    37 1.047445 -2.222821 -0.277656 -1.019688 -0.066950 -0.041090
    38 0.000000 -0.996223 -0.000002 -0.584712 0.000000 0.000000
    39 -0.000001 -0.614690 0.000001 -0.523599 0.000000 0.000000
    40 -0.308254 -0.007814 0.307166 -0.318043 -0.539818 -2.424628
    41 1.978378 0.019543 0.000000 -0.000002 -0.000010 0.549778
    42 0.982426 0.003186 0.000000 0.000000 0.000000 0.593409
  time 5
    0 6.524486 0.149939 -6.787766 -0.839203 -1.317571 0.625342
    1 0.000000 -8.563284 0.000000 0.371874 -0.194034 -0.172191
    2 -0.251103 -3.675759 0.760352 -1.186398 1.434476 -1.173754
    3 -0.000001 2.696691 0.690915 0.000000 0.000000 0.000000
    4 0.000922 -0.883960 1.569312 0.000000 0.000000 0.000000
    5 0.000922 -3.415222 1.347102 0.428610 0.000000 0.000000
    6 0.000922 -2.222973 2.023393 0.000000 0.000000 0.000000
    7 -0.001984 15.309657 -1.919241 0.000000 0.000000 0.000000
    8 -0.002861 -1.798472 1.044055 0.000000 0.000000 0.000000
    9 -0.003480 -0.404829 0.000000 0.000000 0.000000 0.000000
    10 -0.519309 -2.501156 -0.278958 -1.003564 0.000000 -0.122173
    11 -0.010598 -1.208185 0.000000 -1.090831 0.000000 0.000000
    12 0.000000 -0.763066 0.000000 -1.223482 0.000000 0.000000
    13 0.105980 -2.607134 -0.278958 -0.890118 0.000000 -0.148353
    14 0.000000 -1.250578 0.000000 -1.213004 0.000000 0.000000
    15 0.000000 -0.932634 -0.000001 -1.279337 0.000000 0.000000
    16 0.763063 -2.490557 -0.278958 -0.349065 0.000000 0.130900
    17 -0.012322 -1.280917 0.000000 -0.799347 0.000000 0.000000
    18 -0.001697 -0.749371 0.000000 -1.096046 0.000000 0.000000
    19 0.354567 0.016266 0.318133 0.505409 -0.466262 -1.212439
    20 1.887165 0.012878 0.000000 -0.304966 -0.017306 -0.456358
    21 1.001874 -0.000270 0.000000 0.000000 0.000000 -0.572452
    22 -1.123359 -2.195094 -0.278958 -0.788809 0.052708 -0.017695
    23 0.010772 -0.963791 0.000001 -0.932004 0.000000 0.000000
    24 -0.010412 -0.631916 -0.000001 -1.061165 0.000000 0.000000
    25 -1.210486 -3.138529 -11.248685 -0.463299 -0.021317 0.615348
    26 0.089929 -8.543163 0.000001 0.326254 -0.124442 0.483654
    27 0.000000 -0.359713 0.000000 0.000000 0.000000 0.000000
    28 -0.170479 -2.636147 -0.277655 -0.820322 0.000000 0.000000
    29 0.010599 -1.261177 0.000000 -0.584649 0.000000 0.000000
    30 -0.000001 -0.943233 -0.000001 -0.532326 0.000000 0.000000
    31 -0.827563 -2.508974 -0.277656 -0.942479 0.000000 0.000000
    32 -0.000001 -1.292971 0.000000 -0.287992 0.000000 0.000000
    33 0.000000 -0.752465 0.000000 -0.445059 0.000000 0.000000
    34 0.444213 -2.561960 -0.277656 -1.081577 -0.046226 -0.024599
    35 0.021022 -1.208186 0.000000 -0.427606 0.000000 0.000000
    36 0.010597 -0.741867 -0.000002 -0.453786 0.000000 0.000000
    37 1.047445 -2.222821 -0.277656 -1.019688 -0.066950 -0.041090
    38 0.000000 -0.996223 -0.000002 -0.584712 0.000000 0.000000
    39 -0.000001 -0.614690 0.000001 -0.523599 0.000000 0.000000
    40 -0.308254 -0.007814 0.307166 -0.318043 -0.539818 -2.424628
    41 1.978378 0.019543 0.000000 -0.000002 -0.000010 0.549778
    42 0.982426 0.003186 0.000000 0.000000 0.000000 0.593409
  time 6
    0 6.411201 0.044467 -6.807298 -0.779509 -1.327889 0.583429
    1 0.000000 -8.563284 0.000000 0.362391 -0.193697 -0.212263
    2 -0.251103 -3.675759 0.760352 -1.186398 1.434476 -1.173754
    3 -0.000001 2.696691 0.690915 0.000000 0.000000 0.000000
    4 0.000922 -0.883960 1.569312 0.000000 0.000000 0.000000
    5 0.000922 -3.415222 1.347102 0.403170 0.000000 0.000000
    6 0.000922 -2.222973 2.023393 0.000000 0.000000 0.000000
    7 -0.001984 15.309657 -1.919241 0.000000 0.000000 0.000000
    8 -0.002861 -1.798472 1.044055 0.000000 0.000000 0.000000
    9 -0.003480 -0.404829 0.000000 0.000000 0.000000 0.000000
    10 -0.519309 -2.501156 -0.278958 -1.003564 0.000000 -0.122173
    11 -0.010598 -1.208185 0.000000 -1.090831 0.000000 0.000000
    12 0.000000 -0.763066 0.000000 -1.223482 0.000000 0.000000
    13 0.105980 -2.607134 -0.278958 -0.890118 0.000000 -0.148353
    14 0.000000 -1.250578 0.000000 -1.213004 0.000000 0.000000
    15 0.000000 -0.932634 -0.000001 -1.279337 0.000000 0.000000
    16 0.763063 -2.490557 -0.278958 -0.349065 0.000000 0.130900
    17 -0.012322 -1.280917 0.000000 -0.741982 0.000000 0.000000
    18 -0.001697 -0.749371 0.000000 -1.043424 0.000000 0.000000
    19 0.354567 0.016266 0.318133 0.505409 -0.466262 -1.212439
    20 1.887165 0.012878 0.000000 -0.304966 -0.017306 -0.456358
    21 1.001874 -0.000270 0.000000 0.000000 0.000000 -0.572452
    22 -1.123359 -2.195094 -0.278958 -0.788809 0.052708 -0.017695
    23 0.010772 -0.963791 0.000001 -0.932004 0.000000 0.000000
    24 -0.010412 -0.631916 -0.000001 -1.061165 0.000000 0.000000
    25 -1.323771 -3.060402 -11.240872 -0.426372 -0.034649 0.622517
    26 0.089929 -8.543163 0.000001 0.375222 -0.170372 0.463524
    27 0.000000 -0.359713 0.000000 0.000000 0.000000 0.000000
    28 -0.170479 -2.636147 -0.277655 -0.820322 0.000000 0.000000
    29 0.010599 -1.261177 0.000000 -0.584649 0.000000 0.000000
    30 -0.000001 -0.943233 -0.000001 -0.532326 0.000000 0.000000
    31 -0.827563 -2.508974 -0.277656 -0.942479 0.000000 0.000000
    32 -0.000001 -1.292971 0.000000 -0.287992 0.000000 0.000000
    33 0.000000 -0.752465 0.000000 -0.445059 0.000000 0.000000
    34 0.444213 -2.561960 -0.277656 -1.081577 -0.046226 -0.024599
    35 0.021022 -1.208186 0.000000 -0.427606 0.000000 0.000000
    36 0.010597 -0.741867 -0.000002 -0.453786 0.000000 0.000000
    37 1.047445 -2.222821 -0.277656 -1.019688 -0.066950 -0.041090
    38 0.000000 -0.996223 -0.000002 -0.584712 0.000000 0.000000
    39 -0.000001 -0.614690 0.000001 -0.523599 0.000000 0.000000
    40 -0.308254 -0.007814 0.307166 -0.318043 -0.539818 -2.424628
    41 1.978378 0.019543 0.000000 -0.000002 -0.000010 0.549778
    42 0.982426 0.003186 0.000000 0.000000 0.000000 0.593409
  time 7
    0 6.344793 -0.033661 -6.811204 -0.766809 -1.328524 0.578669
    1 0.000000 -8.563284 0.000000 0.347932 -0.184133 -0.213537
    2 -0.251103 -3.675759 0.760352 -1.186398 1.434476 -1.173754
    3 -0.000001 2.696691 0.690915 0.000000 0.000000 0.000000
    4 0.000922 -0.883960 1.569312 0.000000 0.000000 0.000000
    5 0.000922 -3.415222 1.347102 0.350681 0.000000 0.000000
    6 0.000922 -2.222973 2.023393 0.000000 0.000000 0.000000
    7 -0.001984 15.309657 -1.919241 0.000000 0.000000 0.000000
    8 -0.002861 -1.798472 1.044055 0.000000 0.000000 0.000000
    9 -0.003480 -0.404829 0.000000 0.000000 0.000000 0.000000
    10 -0.519309 -2.501156 -0.278958 -1.003564 0.000000 -0.122173
    11 -0.010598 -1.208185 0.000000 -1.090831 0.000000 0.000000
    12 0.000000 -0.763066 0.000000 -1.223482 0.000000 0.000000
    13 0.105980 -2.607134 -0.278958 -0.890118 0.000000 -0.148353
    14 0.000000 -1.250578 0.000000 -1.213004 0.000000 0.000000
    15 0.000000 -0.932634 -0.000001 -1.279337 0.000000 0.000000
    16 0.763063 -2.490557 -0.278958 -0.349065 0.000000 0.130900
    17 -0.012322 -1.280917 0.000000 -0.668766 0.000000 0.000000
    18 -0.001697 -0.749371 0.000000 -0.979072 0.000000 0.000000
    19 0.354567 0.016266 0.318133 0.505409 -0.466262 -1.212439
    20 1.887165 0.012878 0.000000 -0.304966 -0.017306 -0.456358
    21 1.001874 -0.000270 0.000000 0.000000 0.000000 -0.572452
    22 -1.123359 -2.195094 -0.278958 -0.788809 0.052708 -0.017695
    23 0.010772 -0.963791 0.000001 -0.932004 0.000000 0.000000
    24 -0.010412 -0.631916 -0.000001 -1.061165 0.000000 0.000000
    25 -1.390179 -2.982275 -11.139306 -0.407240 -0.045506 0.627648
    26 0.089929 -8.543163 0.000001 0.402771 -0.195595 0.450957
    27 0.000000 -0.359713 0.000000 0.000000 0.000000 0.000000
    28 -0.170479 -2.636147 -0.277655 -0.820322 0.000000 0.000000
    29 0.010599 -1.261177 0.000000 -0.584649 0.000000 0.000000
    30 -0.000001 -0.943233 -0.000001 -0.532326 0.000000 0.000000
    31 -0.827563 -2.508974 -0.277656 -0.942479 0.000000 0.000000
    32 -0.000001 -1.292971 0.000000 -0.287992 0.000000 0.000000
    33 0.000000 -0.752465 0.000000 -0.445059 0.000000 0.000000
    34 0.444213 -2.561960 -0.277656 -1.081577 -0.046226 -0.024599
    35 0.021022 -1.208186 0.000000 -0.427606 0.000000 0.000000
    36 0.010597 -0.741867 -0.000002 -0.453786 0.000000 0.000000
    37 1.047445 -2.222821 -0.277656 -1.019688 -0.066950 -0.041090
    38 0.000000 -0.996223 -0.000002 -0.584712 0.000000 0.000000
    39 -0.000001 -0.614690 0.000001 -0.523599 0.000000 0.000000
    40 -0.308254 -0.007814 0.307166 -0.318043 -0.539818 -2.424628
    41 1.978378 0.019543 0.000000 -0.000002 -0.000010 0.549778
    42 0.982426 0.003186 0.000000 0.000000 0.000000 0.593409
  time 8
    0 6.360418 -0.045380 -6.799485 -0.773320 -1.325889 0.588035
    1 0.000000 -8.563284 0.000000 0.331618 -0.168437 -0.189859
    2 -0.251103 -3.675759 0.760352 -1.186398 1.434476 -1.173754
    3 -0.000001 2.696691 0.690915 0.000000 0.000000 0.000000
    4 0.000922 -0.883960 1.569312 0.000000 0.000000 0.000000
    5 0.000922 -3.415222 1.347102 0.273563 0.000000 0.000000
    6 0.000922 -2.222973 2.023393 0.000000 0.000000 0.000000
    7 -0.001984 15.309657 -1.919241 0.000000 0.000000 0.000000
    8 -0.002861 -1.798472 1.044055 0.000000 0.000000 0.000000
    9 -0.003480 -0.404829 0.000000 0.000000 0.000000 0.000000
    10 -0.519309 -2.501156 -0.278958 -1.003564 0.000000 -0.122173
    11 -0.010598 -1.208185 0.000000 -1.090831 0.000000 0.000000
    12 0.000000 -0.763066 0.000000 -1.223482 0.000000 0.000000
    13 0.105980 -2.607134 -0.278958 -0.890118 0.000000 -0.148353
    14 0.000000 -1.250578 0.000000 -1.213004 0.000000 0.000000
    15 0.000000 -0.932634 -0.000001 -1.279337 0.000000 0.000000
    16 0.763063 -2.490557 -0.278958 -0.349065 0.000000 0.130900
    17 -0.012322 -1.280917 0.000000 -0.584923 0.000000 0.000000
    18 -0.001697 -0.749371 0.000000 -0.906212 0.000000 0.000000
    19 0.354567 0.016266 0.318133 0.505409 -0.466262 -1.212439
    20 1.887165 0.012878 0.000000 -0.304966 -0.017306 -0.456358
    21 1.001874 -0.000270 0.000000 0.000000 0.000000 -0.572452
    22 -1.123359 -2.195094 -0.278958 -0.788809 0.052708 -0.017695
    23 0.010772 -0.963791 0.000001 -0.932004 0.000000 0.000000
    24 -0.010412 -0.631916 -0.000001 -1.061165 0.000000 0.000000
    25 -1.362835 -2.982275 -11.037741 -0.408269 -0.054934 0.631722
    26 0.089929 -8.543163 0.000001 0.409719 -0.197771 0.448767
    27 0.000000 -0.359713 0.000000 0.000000 0.000000 0.000000
    28 -0.170479 -2.636147 -0.277655 -0.820322 0.000000 0.000000
    29 0.010599 -1.261177 0.000000 -0.584649 0.000000 0.000000
    30 -0.000001 -0.943233 -0.000001 -0.532326 0.000000 0.000000
    31 -0.827563 -2.508974 -0.277656 -0.942479 0.000000 0.000000
    32 -0.000001 -1.292971 0.000000 -0.287992 0.000000 0.000000
    33 0.000000 -0.752465 0.000000 -0.445059 0.000000 0.000000
    34 0.444213 -2.561960 -0.277656 -1.081577 -0.046226 -0.024599
    35 0.021022 -1.208186 0.000000 -0.427606 0.000000 0.000000
    36 0.010597 -0.741867 -0.000002 -0.453786 0.000000 0.000000
    37 1.047445 -2.222821 -0.277656 -1.019688 -0.066950 -0.041090
    38 0.000000 -0.996223 -0.000002 -0.584712 0.000000 0.000000
    39 -0.000001 -0.614690 0.000001 -0.523599 0.000000 0.000000
    40 -0.308254 -0.007814 0.307166 -0.318043 -0.539818 -2.424628
    41 1.978378 0.019543 0.000000 -0.000002 -0.000010 0.549778
    42 0.982426 0.003186 0.000000 0.000000 0.000000 0.593409
  time 9
    0 6.422920 -0.021941 -6.768234 -0.791306 -1.321253 0.605537
    1 0.000000 -8.563284 0.000000 0.316337 -0.149872 -0.155160
    2 -0.251103 -3.675759 0.760352 -1.186398 1.434476 -1.173754
    3 -0.000001 2.696691 0.690915 0.000000 0.000000 0.000000
    4 0.000922 -0.883960 1.569312 0.000000 0.000000 0.000000
    5 0.000922 -3.415222 1.347102 0.182362 0.000000 0.000000
    6 0.000922 -2.222973 2.023393 0.000000 0.000000 0.000000
    7 -0.001984 15.309657 -1.919241 0.000000 0.000000 0.000000
    8 -0.002861 -1.798472 1.044055 0.000000 0.000000 0.000000
    9 -0.003480 -0.404829 0.000000 0.000000 0.000000 0.000000
    10 -0.519309 -2.501156 -0.278958 -1.003564 0.000000 -0.122173
    11 -0.010598 -1.208185 0.000000 -1.090831 0.000000 0.000000
    12 0.000000 -0.763066 0.000000 -1.223482 0.000000 0.000000
    13 0.105980 -2.607134 -0.278958 -0.890118 0.000000 -0.148353
    14 0.000000 -1.250578 0.000000 -1.213004 0.000000 0.000000
    15 0.000000 -0.932634 -0.000001 -1.279337 0.000000 0.000000
    16 0.763063 -2.490557 -0.278958 -0.349065 0.000000 0.130900
    17 -0.012322 -1.280917 0.000000 -0.495811 0.000000 0.000000
    18 -0.001697 -0.749371 0.000000 -0.828012 0.000000 0.000000
    19 0.354567 0.016266 0.318133 0.505409 -0.466262 -1.212439
    20 1.887165 0.012878 0.000000 -0.304966 -0.017306 -0.456358
    21 1.001874 -0.000270 0.000000 0.000000 0.000000 -0.572452
    22 -1.123359 -2.195094 -0.278958 -0.788809 0.052708 -0.017695
    23 0.010772 -0.963791 0.000001 -0.932004 0.000000 0.000000
    24 -0.010412 -0.631916 -0.000001 -1.061165 0.000000 0.000000
    25 -1.292520 -3.013525 -10.951801 -0.416806 -0.064838 0.636023
    26 0.089929 -8.543163 0.000001 0.408384 -0.192401 0.450189
    27 0.000000 -0.359713 0.000000 0.000000 0.000000 0.000000
    28 -0.170479 -2.636147 -0.277655 -0.820322 0.000000 0.000000
    29 0.010599 -1.261177 0.000000 -0.584649 0.000000 0.000000
    30 -0.000001 -0.943233 -0.000001 -0.532326 0.000000 0.000000
    31 -0.827563 -2.508974 -0.277656 -0.942479 0.000000 0.000000
    32 -0.000001 -1.292971 0.000000 -0.287992 0.000000 0.000000
    33 0.000000 -0.752465 0.000000 -0.445059 0.000000 0.000000
    34 0.444213 -2.561960 -0.277656 -1.081577 -0.046226 -0.024599
    35 0.021022 -1.208186 0.000000 -0.427606 0.000000 0.000000
    36 0.010597 -0.741867 -0.000002 -0.453786 0.000000 0.000000
    37 1.047445 -2.222821 -0.277656 -1.019688 -0.066950 -0.041090
    38 0.000000 -0.996223 -0.000002 -0.584712 0.000000 0.000000
    39 -0.000001 -0.614690 0.000001 -0.523599 0.000000 0.000000
    40 -0.308254 -0.007814 0.307166 -0.318043 -0.539818 -2.424628
    41 1.978378 0.019543 0.000000 -0.000002 -0.000010 0.549778
    42 0.982426 0.003186 0.000000 0.000000 0.000000 0.593409
  time 10
    0 6.504954 0.024935 -6.736983 -0.813675 -1.315824 0.625265
    1 0.000000 -8.563284 0.000000 0.304648 -0.132292 -0.122731
    2 -0.251103 -3.675759 0.760352 -1.186398 1.434476 -1.173754
    3 -0.000001 2.696691 0.690915 0.000000 0.000000 0.000000
    4 0.000922 -0.883960 1.569312 0.000000 0.000000 0.000000
    5 0.000922 -3.415222 1.347102 0.087664 0.000000 0.000000
    6 0.000922 -2.222973 2.023393 0.000000 0.000000 0.000000
    7 -0.001984 15.309657 -1.919241 0.000000 0.000000 0.000000
    8 -0.002861 -1.798472 1.044055 0.000000 0.000000 0.000000
    9 -0.003480 -0.404829 0.000000 0.000000 0.000000 0.000000
    10 -0.519309 -2.501156 -0.278958 -1.003564 0.000000 -0.122173
    11 -0.010598 -1.208185 0.000000 -1.090831 0.000000 0.000000
    12 0.000000 -0.763066 0.000000 -1.223482 0.000000 0.000000
    13 0.105980 -2.607134 -0.278958 -0.890118 0.000000 -0.148353
    14 0.000000 -1.250578 0.000000 -1.213004 0.000000 0.000000
    15 0.000000 -0.932634 -0.000001 -1.279337 0.000000 0.000000
    16 0.763063 -2.490557 -0.278958 -0.349065 0.000000 0.130900
    17 -0.012322 -1.280917 0.000000 -0.406700 0.000000 0.000000
    18 -0.001697 -0.749371 0.000000 -0.747676 0.000000 0.000000
    19 0.354567 0.016266 0.318133 0.505409 -0.466262 -1.212439
    20 1.887165 0.012878 0.000000 -0.304966 -0.017306 -0.456358
    21 1.001874 -0.000270 0.000000 0.000000 0.000000 -0.572452
    22 -1.123359 -2.195094 -0.278958 -0.788809 0.052708 -0.017695
    23 0.010772 -0.963791 0.000001 -0.932004 0.000000 0.000000
    24 -0.010412 -0.631916 -0.000001 -1.061165 0.000000 0.000000
    25 -1.210486 -3.087747 -10.912737 -0.430024 -0.074552 0.640249
    26 0.089929 -8.543163 0.000001 0.400526 -0.182271 0.453885
    27 0.000000 -0.359713 0.000000 0.000000 0.000000 0.000000
    28 -0.170479 -2.636147 -0.277655 -0.820322 0.000000 0.000000
    29 0.010599 -1.261177 0.000000 -0.584649 0.000000 0.000000
    30 -0.000001 -0.943233 -0.000001 -0.532326 0.000000 0.000000
    31 -0.827563 -2.508974 -0.277656 -0.942479 0.000000 0.000000
    32 -0.000001 -1.292971 0.000000 -0.287992 0.000000 0.000000
    33 0.000000 -0.752465 0.000000 -0.445059 0.000000 0.000000
    34 0.444213 -2.561960 -0.277656 -1.081577 -0.046226 -0.024599
    35 0.021022 -1.208186 0.000000 -0.427606 0.000000 0.000000
    36 0.010597 -0.741867 -0.000002 -0.453786 0.000000 0.000000
    37 1.047445 -2.222821 -0.277656 -1.019688 -0.066950 -0.041090
    38 0.000000 -0.996223 -0.000002 -0.584712 0.000000 0.000000
    39 -0.000001 -0.614690 0.000001 -0.523599 0.000000 0.000000
    40 -0.308254 -0.007814 0.307166 -0.318043 -0.539818 -2.424628
    41 1.978378 0.019543 0.000000 -0.000002 -0.000010 0.549778
    42 0.982426 0.003186 0.000000 0.000000 0.000000 0.593409
  time 11
    0 6.583081 0.071811 -6.705732 -0.833659 -1.310935 0.641923
    1 0.000000 -8.563284 0.000000 0.298286 -0.120000 -0.105949
    2 -0.251103 -3.675759 0.760352 -1.186398 1.434476 -1.173754
    3 -0.000001 2.696691 0.690915 0.000000 0.000000 0.000000
    4 0.000922 -0.883960 1.569312 0.000000 0.000000 0.000000
    5 0.000922 -3.415222 1.347102 0.000000 0.000000 0.000000
    6 0.000922 -2.222973 2.023393 0.000000 0.000000 0.000000
    7 -0.001984 15.309657 -1.919241 0.000000 0.000000 0.000000
    8 -0.002861 -1.798472 1.044055 0.000000 0.000000 0.000000
    9 -0.003480 -0.404829 0.000000 0.000000 0.000000 0.000000
    10 -0.519309 -2.501156 -0.278958 -1.003564 0.000000 -0.122173
    11 -0.010598 -1.208185 0.000000 -1.090831 0.000000 0.000000
    12 0.000000 -0.763066 0.000000 -1.223482 0.000000 0.000000
    13 0.105980 -2.607134 -0.278958 -0.890118 0.000000 -0.148353
    14 0.000000 -1.250578 0.000000 -1.213004 0.000000 0.000000
    15 0.000000 -0.932634 -0.000001 -1.279337 0.000000 0.000000
    16 0.763063 -2.490557 -0.278958 -0.349065 0.000000 0.130900
    17 -0.012322 -1.280917 0.000000 -0.322887 0.000000 0.000000
    18 -0.001697 -0.749371 0.000000 -0.668408 0.000000 0.000000
    19 0.354567 0.016266 0.318133 0.505409 -0.466262 -1.212439
    20 1.887165 0.012878 0.000000 -0.304966 -0.017306 -0.456358
    21 1.001874 -0.000270 0.000000 0.000000 0.000000 -0.572452
    22 -1.123359 -2.195094 -0.278958 -0.788809 0.052708 -0.017695
    23 0.010772 -0.963791 0.000001 -0.932004 0.000000 0.000000
    24 -0.010412 -0.631916 -0.000001 -1.061165 0.000000 0.000000
    25 -1.128453 -3.158061 -10.908831 -0.444939 -0.083122 0.644022
    26 0.089929 -8.543163 0.000001 0.388208 -0.170250 0.458605
    27 0.000000 -0.359713 0.000000 0.000000 0.000000 0.000000
    28 -0.170479 -2.636147 -0.277655 -0.820322 0.000000 0.000000
    29 0.010599 -1.261177 0.000000 -0.584649 0.000000 0.000000
    30 -0.000001 -0.943233 -0.000001 -0.532326 0.000000 0.000000
    31 -0.827563 -2.508974 -0.277656 -0.942479 0.000000 0.000000
    32 -0.000001 -1.292971 0.000000 -0.287992 0.000000 0.000000
    33 0.000000 -0.752465 0.000000 -0.445059 0.000000 0.000000
    34 0.444213 -2.561960 -0.277656 -1.081577 -0.046226 -0.024599
    35 0.021022 -1.208186 0.000000 -0.427606 0.000000 0.000000
    36 0.010597 -0.741867 -0.000002 -0.453786 0.000000 0.000000
    37 1.047445 -2.222821 -0.277656 -1.019688 -0.066950 -0.041090
    38 0.000000 -0.996223 -0.000002 -0.584712 0.000000 0.000000
    39 -0.000001 -0.614690 0.000001 -0.523599 0.000000 0.000000
    40 -0.308254 -0.007814 0.307166 -0.318043 -0.539818 -2.424628
    41 1.978378 0.019543 0.000000 -0.000002 -0.000010 0.549778
    42 0.982426 0.003186 0.000000 0.000000 0.000000 0.593409
  time 12
    0 6.629958 0.095250 -6.690107 -0.845198 -1.307919 0.651364
    1 0.000000 -8.563284 0.000000 0.297934 -0.114627 -0.103429
    2 -0.251103 -3.675759 0.760352 -1.186398 1.434476 -1.173754
    3 -0.000001 2.696691 0.690915 0.000000 0.000000 0.000000
    4 0.000922 -0.883960 1.569312 0.000000 0.000000 0.000000
    5 0.000922 -3.415222 1.347102 0.000000 0.000000 0.000000
    6 0.000922 -2.222973 2.023393 0.000000 0.000000 0.000000
    7 -0.001984 15.309657 -1.919241 0.000000 0.000000 0.000000
    8 -0.002861 -1.798472 1.044055 0.000000 0.000000 0.000000
    9 -0.003480 -0.404829 0.000000 0.000000 0.000000 0.000000
    10 -0.519309 -2.501156 -0.278958 -1.003564 0.000000 -0.122173
    11 -0.010598 -1.208185 0.000000 -1.090831 0.000000 0.000000
    12 0.000000 -0.763066 0.000000 -1.223482 0.000000 0.000000
    13 0.105980 -2.607134 -0.278958 -0.890118 0.000000 -0.148353
    14 0.000000 -1.250578 0.000000 -1.213004 0.000000 0.000000
    15 0.000000 -0.932634 -0.000001 -1.279337 0.000000 0.000000
    16 0.763063 -2.490557 -0.278958 -0.349065 0.000000 0.130900
    17 -0.012322 -1.280917 0.000000 -0.322887 0.000000 0.000000
    18 -0.001697 -0.749371 0.000000 -0.593412 0.000000 0.000000
    19 0.354567 0.016266 0.318133 0.505409 -0.466262 -1.212439
    20 1.887165 0.012878 0.000000 -0.304966 -0.017306 -0.456358
    21 1.001874 -0.000270 0.000000 0.000000 0.000000 -0.572452
    22 -1.123359 -2.195094 -0.278958 -0.788809 0.052708 -0.017695
    23 0.010772 -0.963791 0.000001 -0.932004 0.000000 0.000000
    24 -0.010412 -0.631916 -0.000001 -1.061165 0.000000 0.000000
    25 -1.093295 -3.181499 -10.963520 -0.458773 -0.089693 0.647115
    26 0.089929 -8.543163 0.000001 0.373190 -0.159144 0.463069
    27 0.000000 -0.359713 0.000000 0.000000 0.000000 0.000000
    28 -0.170479 -2.636147 -0.277655 -0.820322 0.000000 0.000000
    29 0.010599 -1.261177 0.000000 -0.584649 0.000000 0.000000
    30 -0.000001 -0.943233 -0.000001 -0.532326 0.000000 0.000000
    31 -0.827563 -2.508974 -0.277656 -0.942479 0.000000 0.000000
    32 -0.000001 -1.292971 0.000000 -0.287992 0.000000 0.000000
    33 0.000000 -0.752465 0.000000 -0.445059 0.000000 0.000000
    34 0.444213 -2.561960 -0.277656 -1.081577 -0.046226 -0.024599
    35 0.021022 -1.208186 0.000000 -0.427606 0.000000 0.000000
    36 0.010597 -0.741867 -0.000002 -0.453786 0.000000 0.000000
    37 1.047445 -2.222821 -0.277656 -1.019688 -0.066950 -0.041090
    38 0.000000 -0.996223 -0.000002 -0.584712 0.000000 0.000000
    39 -0.000001 -0.614690 0.000001 -0.523599 0.000000 0.000000
    40 -0.308254 -0.007814 0.307166 -0.318043 -0.539818 -2.424628
    41 1.978378 0.019543 0.000000 -0.000002 -0.000010 0.549778
    42 0.982426 0.003186 0.000000 0.000000 0.000000 0.593409
  time 13
    0 6.641677 0.106969 -6.686200 -0.849066 -1.306967 0.653821
    1 0.000000 -8.563284 0.000000 0.302324 -0.113755 -0.104481
    2 -0.251103 -3.675759 0.760352 -1.186398 1.434476 -1.173754
    3 -0.000001 2.696691 0.690915 0.000000 0.000000 0.000000
    4 0.000922 -0.883960 1.569312 0.000000 0.000000 0.000000
    5 0.000922 -3.415222 1.347102 0.000000 0.000000 0.000000
    6 0.000922 -2.222973 2.023393 0.000000 0.000000 0.000000
    7 -0.001984 15.309657 -1.919241 0.000000 0.000000 0.000000
    8 -0.002861 -1.798472 1.044055 0.000000 0.000000 0.000000
    9 -0.003480 -0.404829 0.000000 0.000000 0.000000 0.000000
    10 -0.519309 -2.501156 -0.278958 -1.003564 0.000000 -0.122173
    11 -0.010598 -1.208185 0.000000 -1.090831 0.000000 0.000000
    12 0.000000 -0.763066 0.000000 -1.223482 0.000000 0.000000
    13 0.105980 -2.607134 -0.278958 -0.890118 0.000000 -0.148353
    14 0.000000 -1.250578 0.000000 -1.213004 0.000000 0.000000
    15 0.000000 -0.932634 -0.000001 -1.279337 0.000000 0.000000
    16 0.763063 -2.490557 -0.278958 -0.349065 0.000000 0.130900
    17 -0.012322 -1.280917 0.000000 -0.322887 0.000000 0.000000
    18 -0.001697 -0.749371 0.000000 -0.593412 0.000000 0.000000
    19 0.354567 0.016266 0.318133 0.505409 -0.466262 -1.212439
    20 1.887165 0.012878 0.000000 -0.304966 -0.017306 -0.456358
    21 1.001874 -0.000270 0.000000 0.000000 0.000000 -0.572452
    22 -1.123359 -2.195094 -0.278958 -0.788809 0.052708 -0.017695
    23 0.010772 -0.963791 0.000001 -0.932004 0.000000 0.000000
    24 -0.010412 -0.631916 -0.000001 -1.061165 0.000000 0.000000
    25 -1.077670 -3.177593 -11.026022 -0.468596 -0.093503 0.648700
    26 0.089929 -8.543163 0.000001 0.357322 -0.151821 0.466225
    27 0.000000 -0.359713 0.000000 0.000000 0.000000 0.000000
    28 -0.170479 -2.636147 -0.277655 -0.820322 0.000000 0.000000
    29 0.010599 -1.261177 0.000000 -0.584649 0.000000 0.000000
    30 -0.000001 -0.943233 -0.000001 -0.532326 0.000000 0.000000
    31 -0.827563 -2.508974 -0.277656 -0.942479 0.000000 0.000000
    32 -0.000001 -1.292971 0.000000 -0.287992 0.000000 0.000000
    33 0.000000 -0.752465 0.000000 -0.445059 0.000000 0.000000
    34 0.444213 -2.561960 -0.277656 -1.081577 -0.046226 -0.024599
    35 0.021022 -1.208186 0.000000 -0.427606 0.000000 0.000000
    36 0.010597 -0.741867 -0.000002 -0.453786 0.000000 0.000000
    37 1.047445 -2.222821 -0.277656 -1.019688 -0.066950 -0.041090
    38 0.000000 -0.996223 -0.000002 -0.584712 0.000000 0.000000
    39 -0.000001 -0.614690 0.000001 -0.523599 0.000000 0.000000
    40 -0.308254 -0.007814 0.307166 -0.318043 -0.539818 -2.424628
    41 1.978378 0.019543 0.000000 -0.000002 -0.000010 0.549778
    42 0.982426 0.003186 0.000000 0.000000 0.000000 0.593409
  time 14
    0 6.645583 0.118688 -6.682294 -0.849775 -1.307126 0.652900
    1 0.000000 -8.563284 0.000000 0.309952 -0.116033 -0.108220
    2 -0.251103 -3.675759 0.760352 -1.186398 1.434476 -1.173754
    3 -0.000001 2.696691 0.690915 0.000000 0.000000 0.000000
    4 0.000922 -0.883960 1.569312 0.000000 0.000000 0.000000
    5 0.000922 -3.415222 1.347102 0.000000 0.000000 0.000000
    6 0.000922 -2.222973 2.023393 0.000000 0.000000 0.000000
    7 -0.001984 15.309657 -1.919241 0.000000 0.000000 0.000000
    8 -0.002861 -1.798472 1.044055 0.000000 0.000000 0.000000
    9 -0.003480 -0.404829 0.000000 0.000000 0.000000 0.000000
    10 -0.519309 -2.501156 -0.278958 -1.003564 0.000000 -0.122173
    11 -0.010598 -1.208185 0.000000 -1.090831 0.000000 0.000000
    12 0.000000 -0.763066 0.000000 -1.223482 0.000000 0.000000
    13 0.105980 -2.607134 -0.278958 -0.890118 0.000000 -0.148353
    14 0.000000 -1.250578 0.000000 -1.213004 0.000000 0.000000
    15 0.000000 -0.932634 -0.000001 -1.279337 0.000000 0.000000
    16 0.763063 -2.490557 -0.278958 -0.349065 0.000000 0.130900
    17 -0.012322 -1.280917 0.000000 -0.322887 0.000000 0.000000
    18 -0.001697 -0.749371 0.000000 -0.593412 0.000000 0.000000
    19 0.354567 0.016266 0.318133 0.505409 -0.466262 -1.212439
    20 1.887165 0.012878 0.000000 -0.304966 -0.017306 -0.456358
    21 1.001874 -0.000270 0.000000 0.000000 0.000000 -0.572452
    22 -1.123359 -2.195094 -0.278958 -0.788809 0.052708 -0.017695
    23 0.010772 -0.963791 0.000001 -0.932004 0.000000 0.000000
    24 -0.010412 -0.631916 -0.000001 -1.061165 0.000000 0.000000
    25 -1.058138 -3.161968 -11.057273 -0.471528 -0.093598 0.648549
    26 0.089929 -8.543163 0.000001 0.342394 -0.151231 0.467050
    27 0.000000 -0.359713 0.000000 0.000000 0.000000 0.000000
    28 -0.170479 -2.636147 -0.277655 -0.820322 0.000000 0.000000
    29 0.010599 -1.261177 0.000000 -0.584649 0.000000 0.000000
    30 -0.000001 -0.943233 -0.000001 -0.532326 0.000000 0.000000
    31 -0.827563 -2.508974 -0.277656 -0.942479 0.000000 0.000000
    32 -0.000001 -1.292971 0.000000 -0.287992 0.000000 0.000000
    33 0.000000 -0.752465 0.000000 -0.445059 0.000000 0.000000
    34 0.444213 -2.561960 -0.277656 -1.081577 -0.046226 -0.024599
    35 0.021022 -1.208186 0.000000 -0.427606 0.000000 0.000000
    36 0.010597 -0.741867 -0.000002 -0.453786 0.000000 0.000000
    37 1.047445 -2.222821 -0.277656 -1.019688 -0.066950 -0.041090
    38 0.000000 -0.996223 -0.000002 -0.584712 0.000000 0.000000
    39 -0.000001 -0.614690 0.000001 -0.523599 0.000000 0.000000
    40 -0.308254 -0.007814 0.307166 -0.318043 -0.539818 -2.424628
    41 1.978378 0.019543 0.000000 -0.000002 -0.000010 0.549778
    42 0.982426 0.003186 0.000000 0.000000 0.000000 0.593409
  time 15
    0 6.637770 0.126501 -6.682294 -0.848099 -1.308110 0.649369
    1 0.000000 -8.563284 0.000000 0.319342 -0.120084 -0.113731
    2 -0.251103 -3.675759 0.760352 -1.186398 1.434476 -1.173754
    3 -0.000001 2.696691 0.690915 0.000000 0.000000 0.000000
    4 0.000922 -0.883960 1.569312 0.000000 0.000000 0.000000
    5 0.000922 -3.415222 1.347102 0.000000 0.000000 0.000000
    6 0.000922 -2.222973 2.023393 0.000000 0.000000 0.000000
    7 -0.001984 15.309657 -1.919241 0.000000 0.000000 0.000000
    8 -0.002861 -1.798472 1.044055 0.000000 0.000000 0.000000
    9 -0.003480 -0.404829 0.000000 0.000000 0.000000 0.000000
    10 -0.519309 -2.501156 -0.278958 -1.003564 0.000000 -0.122173
    11 -0.010598 -1.208185 0.000000 -1.090831 0.000000 0.000000
    12 0.000000 -0.763066 0.000000 -1.223482 0.000000 0.000000
    13 0.105980 -2.607134 -0.278958 -0.890118 0.000000 -0.148353
    14 0.000000 -1.250578 0.000000 -1.213004 0.000000 0.000000
    15 0.000000 -0.932634 -0.000001 -1.279337 0.000000 0.000000
    16 0.763063 -2.490557 -0.278958 -0.349065 0.000000 0.130900
    17 -0.012322 -1.280917 0.000000 -0.322887 0.000000 0.000000
    18 -0.001697 -0.749371 0.000000 -0.593412 0.000000 0.000000
    19 0.354567 0.016266 0.318133 0.505409 -0.466262 -1.212439
    20 1.887165 0.012878 0.000000 -0.304966 -0.017306 -0.456358
    21 1.001874 -0.000270 0.000000 0.000000 0.000000 -0.572452
    22 -1.123359 -2.195094 -0.278958 -0.788809 0.052708 -0.017695
    23 0.010772 -0.963791 0.000001 -0.932004 0.000000 0.000000
    24 -0.010412 -0.631916 -0.000001 -1.061165 0.000000 0.000000
    25 -1.046419 -3.130717 -11.068992 -0.469471 -0.091217 0.647115
    26 0.089929 -8.543163 0.000001 0.328195 -0.155523 0.466282
    27 0.000000 -0.359713 0.000000 0.000000 0.000000 0.000000
    28 -0.170479 -2.636147 -0.277655 -0.820322 0.000000 0.000000
    29 0.010599 -1.261177 0.000000 -0.584649 0.000000 0.000000
    30 -0.000001 -0.943233 -0.000001 -0.532326 0.000000 0.000000
    31 -0.827563 -2.508974 -0.277656 -0.942479 0.000000 0.000000
    32 -0.000001 -1.292971 0.000000 -0.287992 0.000000 0.000000
    33 0.000000 -0.752465 0.000000 -0.445059 0.000000 0.000000
    34 0.444213 -2.561960 -0.277656 -1.081577 -0.046226 -0.024599
    35 0.021022 -1.208186 0.000000 -0.427606 0.000000 0.000000
    36 0.010597 -0.741867 -0.000002 -0.453786 0.000000 0.000000
    37 1.047445 -2.222821 -0.277656 -1.019688 -0.066950 -0.041090
    38 0.000000 -0.996223 -0.000002 -0.584712 0.000000 0.000000
    39 -0.000001 -0.614690 0.000001 -0.523599 0.000000 0.000000
    40 -0.308254 -0.007814 0.307166 -0.318043 -0.539818 -2.424628
    41 1.978378 0.019543 0.000000 -0.000002 -0.000010 0.549778
    42 0.982426 0.003186 0.000000 0.000000 0.000000 0.593409
  time 16
    0 6.629958 0.138220 -6.686200 -0.844618 -1.309729 0.643995
    1 0.000000 -8.563284 0.000000 0.328965 -0.124585 -0.120156
    2 -0.251103 -3.675759 0.760352 -1.186398 1.434476 -1.173754
    3 -0.000001 2.696691 0.690915 0.000000 0.000000 0.000000
    4 0.000922 -0.883960 1.569312 0.000000 0.000000 0.000000
    5 0.000922 -3.415222 1.347102 0.000000 0.000000 0.000000
    6 0.000922 -2.222973 2.023393 0.000000 0.000000 0.000000
    7 -0.001984 15.309657 -1.919241 0.000000 0.000000 0.000000
    8 -0.002861 -1.798472 1.044055 0.000000 0.000000 0.000000
    9 -0.003480 -0.404829 0.000000 0.000000 0.000000 0.000000
    10 -0.519309 -2.501156 -0.278958 -1.003564 0.000000 -0.122173
    11 -0.010598 -1.208185 0.000000 -1.090831 0.000000 0.000000
    12 0.000000 -0.763066 0.000000 -1.223482 0.000000 0.000000
    13 0.105980 -2.607134 -0.278958 -0.890118 0.000000 -0.148353
    14 0.000000 -1.250578 0.000000 -1.213004 0.000000 0.000000
    15 0.000000 -0.932634 -0.000001 -1.279337 0.000000 0.000000
    16 0.763063 -2.490557 -0.278958 -0.349065 0.000000 0.130900
    17 -0.012322 -1.280917 0.000000 -0.322887 0.000000 0.000000
    18 -0.001697 -0.749371 0.000000 -0.593412 0.000000 0.000000
    19 0.354567 0.016266 0.318133 0.505409 -0.466262 -1.212439
    20 1.887165 0.012878 0.000000 -0.304966 -0.017306 -0.456358
    21 1.001874 -0.000270 0.000000 0.000000 0.000000 -0.572452
    22 -1.123359 -2.195094 -0.278958 -0.788809 0.052708 -0.017695
    23 0.010772 -0.963791 0.000001 -0.932004 0.000000 0.000000
    24 -0.010412 -0.631916 -0.000001 -1.061165 0.000000 0.000000
    25 -1.042513 -3.095559 -11.084617 -0.466385 -0.087979 0.645153
    26 0.089929 -8.543163 0.000001 0.313420 -0.160832 0.465344
    27 0.000000 -0.359713 0.000000 0.000000 0.000000 0.000000
    28 -0.170479 -2.636147 -0.277655 -0.820322 0.000000 0.000000
    29 0.010599 -1.261177 0.000000 -0.584649 0.000000 0.000000
    30 -0.000001 -0.943233 -0.000001 -0.532326 0.000000 0.000000
    31 -0.827563 -2.508974 -0.277656 -0.942479 0.000000 0.000000
    32 -0.000001 -1.292971 0.000000 -0.287992 0.000000 0.000000
    33 0.000000 -0.752465 0.000000 -0.445059 0.000000 0.000000
    34 0.444213 -2.561960 -0.277656 -1.081577 -0.046226 -0.024599
    35 0.021022 -1.208186 0.000000 -0.427606 0.000000 0.000000
    36 0.010597 -0.741867 -0.000002 -0.453786 0.000000 0.000000
    37 1.047445 -2.222821 -0.277656 -1.019688 -0.066950 -0.041090
    38 0.000000 -0.996223 -0.000002 -0.584712 0.000000 0.000000
    39 -0.000001 -0.614690 0.000001 -0.523599 0.000000 0.000000
    40 -0.308254 -0.007814 0.307166 -0.318043 -0.539818 -2.424628
    41 1.978378 0.019543 0.000000 -0.000002 -0.000010 0.549778
    42 0.982426 0.003186 0.000000 0.000000 0.000000 0.593409
  time 17
    0 6.618239 0.149939 -6.690107 -0.839783 -1.311665 0.637393
    1 0.000000 -8.563284 0.000000 0.337345 -0.128101 -0.126525
    2 -0.251103 -3.675759 0.760352 -1.186398 1.434476 -1.173754
    3 -0.000001 2.696691 0.690915 0.000000 0.000000 0.000000
    4 0.000922 -0.883960 1.569312 0.000000 0.000000 0.000000
    5 0.000922 -3.415222 1.347102 0.000000 0.000000 0.000000
    6 0.000922 -2.222973 2.023393 0.000000 0.000000 0.000000
    7 -0.001984 15.309657 -1.919241 0.000000 0.000000 0.000000
    8 -0.002861 -1.798472 1.044055 0.000000 0.000000 0.000000
    9 -0.003480 -0.404829 0.000000 0.000000 0.000000 0.000000
    10 -0.519309 -2.501156 -0.278958 -1.003564 0.000000 -0.122173
    11 -0.010598 -1.208185 0.000000 -1.090831 0.000000 0.000000
    12 0.000000 -0.763066 0.000000 -1.223482 0.000000 0.000000
    13 0.105980 -2.607134 -0.278958 -0.890118 0.000000 -0.148353
    14 0.000000 -1.250578 0.000000 -1.213004 0.000000 0.000000
    15 0.000000 -0.932634 -0.000001 -1.279337 0.000000 0.000000
    16 0.763063 -2.490557 -0.278958 -0.349065 0.000000 0.130900
    17 -0.012322 -1.280917 0.000000 -0.322887 0.000000 0.000000
    18 -0.001697 -0.749371 0.000000 -0.593412 0.000000 0.000000
    19 0.354567 0.016266 0.318133 0.505409 -0.466262 -1.212439
    20 1.887165 0.012878 0.000000 -0.304966 -0.017306 -0.456358
    21 1.001874 -0.000270 0.000000 0.000000 0.000000 -0.572452
    22 -1.123359 -2.195094 -0.278958 -0.788809 0.052708 -0.017695
    23 0.010772 -0.963791 0.000001 -0.932004 0.000000 0.000000
    24 -0.010412 -0.631916 -0.000001 -1.061165 0.000000 0.000000
    25 -1.054232 -3.072121 -11.108055 -0.462373 -0.083979 0.642890
    26 0.089929 -8.543163 0.000001 0.298159 -0.167077 0.464263
    27 0.000000 -0.359713 0.000000 0.000000 0.000000 0.000000
    28 -0.170479 -2.636147 -0.277655 -0.820322 0.000000 0.000000
    29 0.010599 -1.261177 0.000000 -0.584649 0.000000 0.000000
    30 -0.000001 -0.943233 -0.000001 -0.532326 0.000000 0.000000
    31 -0.827563 -2.508974 -0.277656 -0.942479 0.000000 0.000000
    32 -0.000001 -1.292971 0.000000 -0.287992 0.000000 0.000000
    33 0.000000 -0.752465 0.000000 -0.445059 0.000000 0.000000
    34 0.444213 -2.561960 -0.277656 -1.081577 -0.046226 -0.024599
    35 0.021022 -1.208186 0.000000 -0.427606 0.000000 0.000000
    36 0.010597 -0.741867 -0.000002 -0.453786 0.000000 0.000000
    37 1.047445 -2.222821 -0.277656 -1.019688 -0.066950 -0.041090
    38 0.000000 -0.996223 -0.000002 -0.584712 0.000000 0.000000
    39 -0.000001 -0.614690 0.000001 -0.523599 0.000000 0.000000
    40 -0.308254 -0.007814 0.307166 -0.318043 -0.539818 -2.424628
    41 1.978378 0.019543 0.000000 -0.000002 -0.000010 0.549778
    42 0.982426 0.003186 0.000000 0.000000 0.000000 0.593409
  time 18
    0 6.610426 0.157752 -6.694013 -0.834368 -1.313697 0.630254
    1 0.000000 -8.563284 0.000000 0.342908 -0.129366 -0.131842
    2 -0.251103 -3.675759 0.760352 -1.186398 1.434476 -1.173754
    3 -0.000001 2.696691 0.690915 0.000000 0.000000 0.000000
    4 0.000922 -0.883960 1.569312 0.000000 0.000000 0.000000
    5 0.000922 -3.415222 1.347102 0.000000 0.000000 0.000000
    6 0.000922 -2.222973 2.023393 0.000000 0.000000 0.000000
    7 -0.001984 15.309657 -1.919241 0.000000 0.000000 0.000000
    8 -0.002861 -1.798472 1.044055 0.000000 0.000000 0.000000
    9 -0.003480 -0.404829 0.000000 0.000000 0.000000 0.000000
    10 -0.519309 -2.501156 -0.278958 -1.003564 0.000000 -0.122173
    11 -0.010598 -1.208185 0.000000 -1.090831 0.000000 0.000000
    12 0.000000 -0.763066 0.000000 -1.223482 0.000000 0.000000
    13 0.105980 -2.607134 -0.278958 -0.890118 0.000000 -0.148353
    14 0.000000 -1.250578 0.000000 -1.213004 0.000000 0.000000
    15 0.000000 -0.932634 -0.000001 -1.279337 0.000000 0.000000
    16 0.763063 -2.490557 -0.278958 -0.349065 0.000000 0.130900
    17 -0.012322 -1.280917 0.000000 -0.322887 0.000000 0.000000
    18 -0.001697 -0.749371 0.000000 -0.593412 0.000000 0.000000
    19 0.354567 0.016266 0.318133 0.505409 -0.466262 -1.212439
    20 1.887165 0.012878 0.000000 -0.304966 -0.017306 -0.456358
    21 1.001874 -0.000270 0.000000 0.000000 0.000000 -0.572452
    22 -1.123359 -2.195094 -0.278958 -0.788809 0.052708 -0.017695
    23 0.010772 -0.963791 0.000001 -0.932004 0.000000 0.000000
    24 -0.010412 -0.631916 -0.000001 -1.061165 0.000000 0.000000
    25 -1.077670 -3.044776 -11.135400 -0.457436 -0.079313 0.640249
    26 0.089929 -8.543163 0.000001 0.282534 -0.174155 0.463069
    27 0.000000 -0.359713 0.000000 0.000000 0.000000 0.000000
    28 -0.170479 -2.636147 -0.277655 -0.820322 0.000000 0.000000
    29 0.010599 -1.261177 0.000000 -0.584649 0.000000 0.000000
    30 -0.000001 -0.943233 -0.000001 -0.532326 0.000000 0.000000
    31 -0.827563 -2.508974 -0.277656 -0.942479 0.000000 0.000000
    32 -0.000001 -1.292971 0.000000 -0.287992 0.000000 0.000000
    33 0.000000 -0.752465 0.000000 -0.445059 0.000000 0.000000
    34 0.444213 -2.561960 -0.277656 -1.081577 -0.046226 -0.024599
    35 0.021022 -1.208186 0.000000 -0.427606 0.000000 0.000000
    36 0.010597 -0.741867 -0.000002 -0.453786 0.000000 0.000000
    37 1.047445 -2.222821 -0.277656 -1.019688 -0.066950 -0.041090
    38 0.000000 -0.996223 -0.000002 -0.584712 0.000000 0.000000
    39 -0.000001 -0.614690 0.000001 -0.523599 0.000000 0.000000
    40 -0.308254 -0.007814 0.307166 -0.318043 -0.539818 -2.424628
    41 1.978378 0.019543 0.000000 -0.000002 -0.000010 0.549778
    42 0.982426 0.003186 0.000000 0.000000 0.000000 0.593409
  time 19
    0 6.606519 0.165564 -6.694013 -0.828695 -1.315602 0.623499
    1 0.000000 -8.563284 0.000000 0.346007 -0.129001 -0.136051
    2 -0.251103 -3.675759 0.760352 -1.186398 1.434476 -1.173754
    3 -0.000001 2.696691 0.690915 0.000000 0.000000 0.000000
    4 0.000922 -0.883960 1.569312 0.000000 0.000000 0.000000
    5 0.000922 -3.415222 1.347102 0.000000 0.000000 0.000000
    6 0.000922 -2.222973 2.023393 0.000000 0.000000 0.000000
    7 -0.001984 15.309657 -1.919241 0.000000 0.000000 0.000000
    8 -0.002861 -1.798472 1.044055 0.000000 0.000000 0.000000
    9 -0.003480 -0.404829 0.000000 0.000000 0.000000 0.000000
    10 -0.519309 -2.501156 -0.278958 -1.003564 0.000000 -0.122173
    11 -0.010598 -1.208185 0.000000 -1.090831 0.000000 0.000000
    12 0.000000 -0.763066 0.000000 -1.223482 0.000000 0.000000
    13 0.105980 -2.607134 -0.278958 -0.890118 0.000000 -0.148353
    14 0.000000 -1.250578 0.000000 -1.213004 0.000000 0.000000
    15 0.000000 -0.932634 -0.000001 -1.279337 0.000000 0.000000
    16 0.763063 -2.490557 -0.278958 -0.349065 0.000000 0.130900
    17 -0.012322 -1.280917 0.000000 -0.322887 0.000000 0.000000
    18 -0.001697 -0.749371 0.000000 -0.593412 0.000000 0.000000
    19 0.354567 0.016266 0.318133 0.505409 -0.466262 -1.212439
    20 1.887165 0.012878 0.000000 -0.304966 -0.017306 -0.456358
    21 1.001874 -0.000270 0.000000 0.000000 0.000000 -0.572452
    22 -1.123359 -2.195094 -0.278958 -0.788809 0.052708 -0.017695
    23 0.010772 -0.963791 0.000001 -0.932004 0.000000 0.000000
    24 -0.010412 -0.631916 -0.000001 -1.061165 0.000000 0.000000
    25 -1.097202 -3.017432 -11.162745 -0.451882 -0.073885 0.637381
    26 0.089929 -8.543163 0.000001 0.266454 -0.181926 0.461846
    27 0.000000 -0.359713 0.000000 0.000000 0.000000 0.000000
    28 -0.170479 -2.636147 -0.277655 -0.820322 0.000000 0.000000
    29 0.010599 -1.261177 0.000000 -0.584649 0.000000 0.000000
    30 -0.000001 -0.943233 -0.000001 -0.532326 0.000000 0.000000
    31 -0.827563 -2.508974 -0.277656 -0.942479 0.000000 0.000000
    32 -0.000001 -1.292971 0.000000 -0.287992 0.000000 0.000000
    33 0.000000 -0.752465 0.000000 -0.445059 0.000000 0.000000
    34 0.444213 -2.561960 -0.277656 -1.081577 -0.046226 -0.024599
    35 0.021022 -1.208186 0.000000 -0.427606 0.000000 0.000000
    36 0.010597 -0.741867 -0.000002 -0.453786 0.000000 0.000000
    37 1.047445 -2.222821 -0.277656 -1.019688 -0.066950 -0.041090
    38 0.000000 -0.996223 -0.000002 -0.584712 0.000000 0.000000
    39 -0.000001 -0.614690 0.000001 -0.523599 0.000000 0.000000
    40 -0.308254 -0.007814 0.307166 -0.318043 -0.539818 -2.424628
    41 1.978378 0.019543 0.000000 -0.000002 -0.000010 0.549778
    42 0.982426 0.003186 0.000000 0.000000 0.000000 0.593409
  time 20
    0 6.602613 0.169471 -6.694013 -0.823409 -1.317253 0.617358
    1 0.000000 -8.563284 0.000000 0.348096 -0.128438 -0.139679
    2 -0.251103 -3.675759 0.760352 -1.186398 1.434476 -1.173754
    3 -0.000001 2.696691 0.690915 0.000000 0.000000 0.000000
    4 0.000922 -0.883960 1.569312 0.000000 0.000000 0.000000
    5 0.000922 -3.415222 1.347102 0.000000 0.000000 0.000000
    6 0.000922 -2.222973 2.023393 0.000000 0.000000 0.000000
    7 -0.001984 15.309657 -1.919241 0.000000 0.000000 0.000000
    8 -0.002861 -1.798472 1.044055 0.000000 0.000000 0.000000
    9 -0.003480 -0.404829 0.000000 0.000000 0.000000 0.000000
    10 -0.519309 -2.501156 -0.278958 -1.003564 0.000000 -0.122173
    11 -0.010598 -1.208185 0.000000 -1.090831 0.000000 0.000000
    12 0.000000 -0.763066 0.000000 -1.223482 0.000000 0.000000
    13 0.105980 -2.607134 -0.278958 -0.890118 0.000000 -0.148353
    14 0.000000 -1.250578 0.000000 -1.213004 0.000000 0.000000
    15 0.000000 -0.932634 -0.000001 -1.279337 0.000000 0.000000
    16 0.763063 -2.490557 -0.278958 -0.349065 0.000000 0.130900
    17 -0.012322 -1.280917 0.000000 -0.322887 0.000000 0.000000
    18 -0.001697 -0.749371 0.000000 -0.593412 0.000000 0.000000
    19 0.354567 0.016266 0.318133 0.505409 -0.466262 -1.212439
    20 1.887165 0.012878 0.000000 -0.304966 -0.017306 -0.456358
    21 1.001874 -0.000270 0.000000 0.000000 0.000000 -0.572452
    22 -1.123359 -2.195094 -0.278958 -0.788809 0.052708 -0.017695
    23 0.010772 -0.963791 0.000001 -0.932004 0.000000 0.000000
    24 -0.010412 -0.631916 -0.000001 -1.061165 0.000000 0.000000
    25 -1.108921 -2.990087 -11.170557 -0.445761 -0.068076 0.634288
    26 0.089929 -8.543163 0.000001 0.250070 -0.190306 0.460652
    27 0.000000 -0.359713 0.000000 0.000000 0.000000 0.000000
    28 -0.170479 -2.636147 -0.277655 -0.820322 0.000000 0.000000
    29 0.010599 -1.261177 0.000000 -0.584649 0.000000 0.000000
    30 -0.000001 -0.943233 -0.000001 -0.532326 0.000000 0.000000
    31 -0.827563 -2.508974 -0.277656 -0.942479 0.000000 0.000000
    32 -0.000001 -1.292971 0.000000 -0.287992 0.000000 0.000000
    33 0.000000 -0.752465 0.000000 -0.445059 0.000000 0.000000
    34 0.444213 -2.561960 -0.277656 -1.081577 -0.046226 -0.024599
    35 0.021022 -1.208186 0.000000 -0.427606 0.000000 0.000000
    36 0.010597 -0.741867 -0.000002 -0.453786 0.000000 0.000000
    37 1.047445 -2.222821 -0.277656 -1.019688 -0.066950 -0.041090
    38 0.000000 -0.996223 -0.000002 -0.584712 0.000000 0.000000
    39 -0.000001 -0.614690 0.000001 -0.523599 0.000000 0.000000
    40 -0.308254 -0.007814 0.307166 -0.318043 -0.539818 -2.424628
    41 1.978378 0.019543 0.000000 -0.000002 -0.000010 0.549778
    42 0.982426 0.003186 0.000000 0.000000 0.000000 0.593409
  time 21
    0 6.602613 0.173377 -6.694013 -0.818381 -1.318745 0.611754
    1 0.000000 -8.563284 0.000000 0.349410 -0.127679 -0.142919
    2 -0.251103 -3.675759 0.760352 -1.186398 1.434476 -1.173754
    3 -0.000001 2.696691 0.690915 0.000000 0.000000 0.000000
    4 0.000922 -0.883960 1.569312 0.000000 0.000000 0.000000
    5 0.000922 -3.415222 1.347102 0.000000 0.000000 0.000000
    6 0.000922 -2.222973 2.023393 0.000000 0.000000 0.000000
    7 -0.001984 15.309657 -1.919241 0.000000 0.000000 0.000000
    8 -0.002861 -1.798472 1.044055 0.000000 0.000000 0.000000
    9 -0.003480 -0.404829 0.000000 0.000000 0.000000 0.000000
    10 -0.519309 -2.501156 -0.278958 -1.003564 0.000000 -0.122173
    11 -0.010598 -1.208185 0.000000 -1.090831 0.000000 0.000000
    12 0.000000 -0.763066 0.000000 -1.223482 0.000000 0.000000
    13 0.105980 -2.607134 -0.278958 -0.890118 0.000000 -0.148353
    14 0.000000 -1.250578 0.000000 -1.213004 0.000000 0.000000
    15 0.000000 -0.932634 -0.000001 -1.279337 0.000000 0.000000
    16 0.763063 -2.490557 -0.278958 -0.349065 0.000000 0.130900
    17 -0.012322 -1.280917 0.000000 -0.322887 0.000000 0.000000
    18 -0.001697 -0.749371 0.000000 -0.593412 0.000000 0.000000
    19 0.354567 0.016266 0.318133 0.505409 -0.466262 -1.212439
    20 1.887165 0.012878 0.000000 -0.304966 -0.017306 -0.456358
    21 1.001874 -0.000270 0.000000 0.000000 0.000000 -0.572452
    22 -1.123359 -2.195094 -0.278958 -0.788809 0.052708 -0.017695
    23 0.010772 -0.963791 0.000001 -0.932004 0.000000 0.000000
    24 -0.010412 -0.631916 -0.000001 -1.061165 0.000000 0.000000
    25 -1.124546 -2.962743 -11.182276 -0.439024 -0.061790 0.631043
    26 0.089929 -8.543163 0.000001 0.233444 -0.199215 0.459458
    27 0.000000 -0.359713 0.000000 0.000000 0.000000 0.000000
    28 -0.170479 -2.636147 -0.277655 -0.820322 0.000000 0.000000
    29 0.010599 -1.261177 0.000000 -0.584649 0.000000 0.000000
    30 -0.000001 -0.943233 -0.000001 -0.532326 0.000000 0.000000
    31 -0.827563 -2.508974 -0.277656 -0.942479 0.000000 0.000000
    32 -0.000001 -1.292971 0.000000 -0.287992 0.000000 0.000000
    33 0.000000 -0.752465 0.000000 -0.445059 0.000000 0.000000
    34 0.444213 -2.561960 -0.277656 -1.081577 -0.046226 -0.024599
    35 0.021022 -1.208186 0.000000 -0.427606 0.000000 0.000000
    36 0.010597 -0.741867 -0.000002 -0.453786 0.000000 0.000000
    37 1.047445 -2.222821 -0.277656 -1.019688 -0.066950 -0.041090
    38 0.000000 -0.996223 -0.000002 -0.584712 0.000000 0.000000
    39 -0.000001 -0.614690 0.000001 -0.523599 0.000000 0.000000
    40 -0.308254 -0.007814 0.307166 -0.318043 -0.539818 -2.424628
    41 1.978378 0.019543 0.000000 -0.000002 -0.000010 0.549778
    42 0.982426 0.003186 0.000000 0.000000 0.000000 0.593409
  time 22
    0 6.598707 0.177283 -6.694013 -0.813546 -1.320142 0.606458
    1 0.000000 -8.563284 0.000000 0.350044 -0.126779 -0.145744
    2 -0.251103 -3.675759 0.760352 -1.186398 1.434476 -1.173754
    3 -0.000001 2.696691 0.690915 0.000000 0.000000 0.000000
    4 0.000922 -0.883960 1.569312 0.000000 0.000000 0.000000
    5 0.000922 -3.415222 1.347102 0.000000 0.000000 0.000000
    6 0.000922 -2.222973 2.023393 0.000000 0.000000 0.000000
    7 -0.001984 15.309657 -1.919241 0.000000 0.000000 0.000000
    8 -0.002861 -1.798472 1.044055 0.000000 0.000000 0.000000
    9 -0.003480 -0.404829 0.000000 0.000000 0.000000 0.000000
    10 -0.519309 -2.501156 -0.278958 -1.003564 0.000000 -0.122173
    11 -0.010598 -1.208185 0.000000 -1.090831 0.000000 0.000000
    12 0.000000 -0.763066 0.000000 -1.223482 0.000000 0.000000
    13 0.105980 -2.607134 -0.278958 -0.890118 0.000000 -0.148353
    14 0.000000 -1.250578 0.000000 -1.213004 0.000000 0.000000
    15 0.000000 -0.932634 -0.000001 -1.279337 0.000000 0.000000
    16 0.763063 -2.490557 -0.278958 -0.349065 0.000000 0.130900
    17 -0.012322 -1.280917 0.000000 -0.322887 0.000000 0.000000
    18 -0.001697 -0.749371 0.000000 -0.593412 0.000000 0.000000
    19 0.354567 0.016266 0.318133 0.505409 -0.466262 -1.212439
    20 1.887165 0.012878 0.000000 -0.304966 -0.017306 -0.456358
    21 1.001874 -0.000270 0.000000 0.000000 0.000000 -0.572452
    22 -1.123359 -2.195094 -0.278958 -0.788809 0.052708 -0.017695
    23 0.010772 -0.963791 0.000001 -0.932004 0.000000 0.000000
    24 -0.010412 -0.631916 -0.000001 -1.061165 0.000000 0.000000
    25 -1.140172 -2.939304 -11.186183 -0.432030 -0.055124 0.627648
    26 0.089929 -8.543163 0.000001 0.216544 -0.208531 0.458349
    27 0.000000 -0.359713 0.000000 0.000000 0.000000 0.000000
    28 -0.170479 -2.636147 -0.277655 -0.820322 0.000000 0.000000
    29 0.010599 -1.261177 0.000000 -0.584649 0.000000 0.000000
    30 -0.000001 -0.943233 -0.000001 -0.532326 0.000000 0.000000
    31 -0.827563 -2.508974 -0.277656 -0.942479 0.000000 0.000000
    32 -0.000001 -1.292971 0.000000 -0.287992 0.000000 0.000000
    33 0.000000 -0.752465 0.000000 -0.445059 0.000000 0.000000
    34 0.444213 -2.561960 -0.277656 -1.081577 -0.046226 -0.024599
    35 0.021022 -1.208186 0.000000 -0.427606 0.000000 0.000000
    36 0.010597 -0.741867 -0.000002 -0.453786 0.000000 0.000000
    37 1.047445 -2.222821 -0.277656 -1.019688 -0.066950 -0.041090
    38 0.000000 -0.996223 -0.000002 -0.584712 0.000000 0.000000
    39 -0.000001 -0.614690 0.000001 -0.523599 0.000000 0.000000
    40 -0.308254 -0.007814 0.307166 -0.318043 -0.539818 -2.424628
    41 1.978378 0.019543 0.000000 -0.000002 -0.000010 0.549778
    42 0.982426 0.003186 0.000000 0.000000 0.000000 0.593409
  time 23
    0 6.598707 0.181190 -6.694013 -0.808647 -1.321476 0.601468
    1 0.000000 -8.563284 0.000000 0.350115 -0.125738 -0.148320
    2 -0.251103 -3.675759 0.760352 -1.186398 1.434476 -1.173754
    3 -0.000001 2.696691 0.690915 0.000000 0.000000 0.000000
    4 0.000922 -0.883960 1.569312 0.000000 0.000000 0.000000
    5 0.000922 -3.415222 1.347102 0.000000 0.000000 0.000000
    6 0.000922 -2.222973 2.023393 0.000000 0.000000 0.000000
    7 -0.001984 15.309657 -1.919241 0.000000 0.000000 0.000000
    8 -0.002861 -1.798472 1.044055 0.000000 0.000000 0.000000
    9 -0.003480 -0.404829 0.000000 0.000000 0.000000 0.000000
    10 -0.519309 -2.501156 -0.278958 -1.003564 0.000000 -0.122173
    11 -0.010598 -1.208185 0.000000 -1.090831 0.000000 0.000000
    12 0.000000 -0.763066 0.000000 -1.223482 0.000000 0.000000
    13 0.105980 -2.607134 -0.278958 -0.890118 0.000000 -0.148353
    14 0.000000 -1.250578 0.000000 -1.213004 0.000000 0.000000
    15 0.000000 -0.932634 -0.000001 -1.279337 0.000000 0.000000
    16 0.763063 -2.490557 -0.278958 -0.349065 0.000000 0.130900
    17 -0.012322 -1.280917 0.000000 -0.322887 0.000000 0.000000
    18 -0.001697 -0.749371 0.000000 -0.593412 0.000000 0.000000
    19 0.354567 0.016266 0.318133 0.505409 -0.466262 -1.212439
    20 1.887165 0.012878 0.000000 -0.304966 -0.017306 -0.456358
    21 1.001874 -0.000270 0.000000 0.000000 0.000000 -0.572452
    22 -1.123359 -2.195094 -0.278958 -0.788809 0.052708 -0.017695
    23 0.010772 -0.963791 0.000001 -0.932004 0.000000 0.000000
    24 -0.010412 -0.631916 -0.000001 -1.061165 0.000000 0.000000
    25 -1.151891 -2.911960 -11.178370 -0.424675 -0.048172 0.624177
    26 0.089929 -8.543163 0.000001 0.199493 -0.218132 0.457354
    27 0.000000 -0.359713 0.000000 0.000000 0.000000 0.000000
    28 -0.170479 -2.636147 -0.277655 -0.820322 0.000000 0.000000
    29 0.010599 -1.261177 0.000000 -0.584649 0.000000 0.000000
    30 -0.000001 -0.943233 -0.000001 -0.532326 0.000000 0.000000
    31 -0.827563 -2.508974 -0.277656 -0.942479 0.000000 0.000000
    32 -0.000001 -1.292971 0.000000 -0.287992 0.000000 0.000000
    33 0.000000 -0.752465 0.000000 -0.445059 0.000000 0.000000
    34 0.444213 -2.561960 -0.277656 -1.081577 -0.046226 -0.024599
    35 0.021022 -1.208186 0.000000 -0.427606 0.000000 0.000000
    36 0.010597 -0.741867 -0.000002 -0.453786 0.000000 0.000000
    37 1.047445 -2.222821 -0.277656 -1.019688 -0.066950 -0.041090
    38 0.000000 -0.996223 -0.000002 -0.584712 0.000000 0.000000
    39 -0.000001 -0.614690 0.000001 -0.523599 0.000000 0.000000
    40 -0.308254 -0.007814 0.307166 -0.318043 -0.539818 -2.424628
    41 1.978378 0.019543 0.000000 -0.000002 -0.000010 0.549778
    42 0.982426 0.003186 0.000000 0.000000 0.000000 0.593409
  time 24
    0 6.598707 0.181190 -6.694013 -0.803941 -1.322714 0.596632
    1 0.000000 -8.563284 0.000000 0.349809 -0.124641 -0.150757
    2 -0.251103 -3.675759 0.760352 -1.186398 1.434476 -1.173754
    3 -0.000001 2.696691 0.690915 0.000000 0.000000 0.000000
    4 0.000922 -0.883960 1.569312 0.000000 0.000000 0.000000
    5 0.000922 -3.415222 1.347102 0.000000 0.000000 0.000000
    6 0.000922 -2.222973 2.023393 0.000000 0.000000 0.000000
    7 -0.001984 15.309657 -1.919241 0.000000 0.000000 0.000000
    8 -0.002861 -1.798472 1.044055 0.000000 0.000000 0.000000
    9 -0.003480 -0.404829 0.000000 0.000000 0.000000 0.000000
    10 -0.519309 -2.501156 -0.278958 -1.003564 0.000000 -0.122173
    11 -0.010598 -1.208185 0.000000 -1.090831 0.000000 0.000000
    12 0.000000 -0.763066 0.000000 -1.223482 0.000000 0.000000
    13 0.105980 -2.607134 -0.278958 -0.890118 0.000000 -0.148353
    14 0.000000 -1.250578 0.000000 -1.213004 0.000000 0.000000
    15 0.000000 -0.932634 -0.000001 -1.279337 0.000000 0.000000
    16 0.763063 -2.490557 -0.278958 -0.349065 0.000000 0.130900
    17 -0.012322 -1.280917 0.000000 -0.322887 0.000000 0.000000
    18 -0.001697 -0.749371 0.000000 -0.593412 0.000000 0.000000
    19 0.354567 0.016266 0.318133 0.505409 -0.466262 -1.212439
    20 1.887165 0.012878 0.000000 -0.304966 -0.017306 -0.456358
    21 1.001874 -0.000270 0.000000 0.000000 0.000000 -0.572452
    22 -1.123359 -2.195094 -0.278958 -0.788809 0.052708 -0.017695
    23 0.010772 -0.963791 0.000001 -0.932004 0.000000 0.000000
    24 -0.010412 -0.631916 -0.000001 -1.061165 0.000000 0.000000
    25 -1.163610 -2.884615 -11.166651 -0.417218 -0.041030 0.620781
    26 0.089929 -8.543163 0.000001 0.182351 -0.227937 0.456501
    27 0.000000 -0.359713 0.000000 0.000000 0.000000 0.000000
    28 -0.170479 -2.636147 -0.277655 -0.820322 0.000000 0.000000
    29 0.010599 -1.261177 0.000000 -0.584649 0.000000 0.000000
    30 -0.000001 -0.943233 -0.000001 -0.532326 0.000000 0.000000
    31 -0.827563 -2.508974 -0.277656 -0.942479 0.000000 0.000000
    32 -0.000001 -1.292971 0.000000 -0.287992 0.000000 0.000000
    33 0.000000 -0.752465 0.000000 -0.445059 0.000000 0.000000
    34 0.444213 -2.561960 -0.277656 -1.081577 -0.046226 -0.024599
    35 0.021022 -1.208186 0.000000 -0.427606 0.000000 0.000000
    36 0.010597 -0.741867 -0.000002 -0.453786 0.000000 0.000000
    37 1.047445 -2.222821 -0.277656 -1.019688 -0.066950 -0.041090
    38 0.000000 -0.996223 -0.000002 -0.584712 0.000000 0.000000
    39 -0.000001 -0.614690 0.000001 -0.523599 0.000000 0.000000
    40 -0.308254 -0.007814 0.307166 -0.318043 -0.539818 -2.424628
    41 1.978378 0.019543 0.000000 -0.000002 -0.000010 0.549778
    42 0.982426 0.003186 0.000000 0.000000 0.000000 0.593409
  time 25
    0 6.598707 0.181190 -6.694013 -0.798977 -1.323888 0.591796
    1 0.000000 -8.563284 0.000000 0.349223 -0.123459 -0.153083
    2 -0.251103 -3.675759 0.760352 -1.186398 1.434476 -1.173754
    3 -0.000001 2.696691 0.690915 0.000000 0.000000 0.000000
    4 0.000922 -0.883960 1.569312 0.000000 0.000000 0.000000
    5 0.000922 -3.415222 1.347102 0.000000 0.000000 0.000000
    6 0.000922 -2.222973 2.023393 0.000000 0.000000 0.000000
    7 -0.001984 15.309657 -1.919241 0.000000 0.000000 0.000000
    8 -0.002861 -1.798472 1.044055 0.000000 0.000000 0.000000
    9 -0.003480 -0.404829 0.000000 0.000000 0.000000 0.000000
    10 -0.519309 -2.501156 -0.278958 -1.003564 0.000000 -0.122173
    11 -0.010598 -1.208185 0.000000 -1.090831 0.000000 0.000000
    12 0.000000 -0.763066 0.000000 -1.223482 0.000000 0.000000
    13 0.105980 -2.607134 -0.278958 -0.890118 0.000000 -0.148353
    14 0.000000 -1.250578 0.000000 -1.213004 0.000000 0.000000
    15 0.000000 -0.932634 -0.000001 -1.279337 0.000000 0.000000
    16 0.763063 -2.490557 -0.278958 -0.349065 0.000000 0.130900
    17 -0.012322 -1.280917 0.000000 -0.322887 0.000000 0.000000
    18 -0.001697 -0.749371 0.000000 -0.593412 0.000000 0.000000
    19 0.354567 0.016266 0.318133 0.505409 -0.466262 -1.212439
    20 1.887165 0.012878 0.000000 -0.304966 -0.017306 -0.456358
    21 1.001874 -0.000270 0.000000 0.000000 0.000000 -0.572452
    22 -1.123359 -2.195094 -0.278958 -0.788809 0.052708 -0.017695
    23 0.010772 -0.963791 0.000001 -0.932004 0.000000 0.000000
    24 -0.010412 -0.631916 -0.000001 -1.061165 0.000000 0.000000
    25 -1.171423 -2.857271 -11.151025 -0.409760 -0.033888 0.617386
    26 0.089929 -8.543163 0.000001 0.165088 -0.237822 0.455790
    27 0.000000 -0.359713 0.000000 0.000000 0.000000 0.000000
    28 -0.170479 -2.636147 -0.277655 -0.820322 0.000000 0.000000
    29 0.010599 -1.261177 0.000000 -0.584649 0.000000 0.000000
    30 -0.000001 -0.943233 -0.000001 -0.532326 0.000000 0.000000
    31 -0.827563 -2.508974 -0.277656 -0.942479 0.000000 0.000000
    32 -0.000001 -1.292971 0.000000 -0.287992 0.000000 0.000000
    33 0.000000 -0.752465 0.000000 -0.445059 0.000000 0.000000
    34 0.444213 -2.561960 -0.277656 -1.081577 -0.046226 -0.024599
    35 0.021022 -1.208186 0.000000 -0.427606 0.000000 0.000000
    36 0.010597 -0.741867 -0.000002 -0.453786 0.000000 0.000000
    37 1.047445 -2.222821 -0.277656 -1.019688 -0.066950 -0.041090
    38 0.000000 -0.996223 -0.000002 -0.584712 0.000000 0.000000
    39 -0.000001 -0.614690 0.000001 -0.523599 0.000000 0.000000
    40 -0.308254 -0.007814 0.307166 -0.318043 -0.539818 -2.424628
    41 1.978378 0.019543 0.000000 -0.000002 -0.000010 0.549778
    42 0.982426 0.003186 0.000000 0.000000 0.000000 0.593409
  time 26
    0 6.598707 0.181190 -6.694013 -0.794078 -1.325127 0.586960
    1 0.000000 -8.563284 0.000000 0.348495 -0.122166 -0.155409
    2 -0.251103 -3.675759 0.760352 -1.186398 1.434476 -1.173754
    3 -0.000001 2.696691 0.690915 0.000000 0.000000 0.000000
    4 0.000922 -0.883960 1.569312 0.000000 0.000000 0.000000
    5 0.000922 -3.415222 1.347102 0.000000 0.000000 0.000000
    6 0.000922 -2.222973 2.023393 0.000000 0.000000 0.000000
    7 -0.001984 15.309657 -1.919241 0.000000 0.000000 0.000000
    8 -0.002861 -1.798472 1.044055 0.000000 0.000000 0.000000
    9 -0.003480 -0.404829 0.000000 0.000000 0.000000 0.000000
    10 -0.519309 -2.501156 -0.278958 -1.003564 0.000000 -0.122173
    11 -0.010598 -1.208185 0.000000 -1.090831 0.000000 0.000000
    12 0.000000 -0.763066 0.000000 -1.223482 0.000000 0.000000
    13 0.105980 -2.607134 -0.278958 -0.890118 0.000000 -0.148353
    14 0.000000 -1.250578 0.000000 -1.213004 0.000000 0.000000
    15 0.000000 -0.932634 -0.000001 -1.279337 0.000000 0.000000
    16 0.763063 -2.490557 -0.278958 -0.349065 0.000000 0.130900
    17 -0.012322 -1.280917 0.000000 -0.322887 0.000000 0.000000
    18 -0.001697 -0.749371 0.000000 -0.593412 0.000000 0.000000
    19 0.354567 0.016266 0.318133 0.505409 -0.466262 -1.212439
    20 1.887165 0.012878 0.000000 -0.304966 -0.017306 -0.456358
    21 1.001874 -0.000270 0.000000 0.000000 0.000000 -0.572452
    22 -1.123359 -2.195094 -0.278958 -0.788809 0.052708 -0.017695
    23 0.010772 -0.963791 0.000001 -0.932004 0.000000 0.000000
    24 -0.010412 -0.631916 -0.000001 -1.061165 0.000000 0.000000
    25 -1.183142 -2.829926 -11.127587 -0.402303 -0.026745 0.614066
    26 0.089929 -8.543163 0.000001 0.147855 -0.247708 0.455278
    27 0.000000 -0.359713 0.000000 0.000000 0.000000 0.000000
    28 -0.170479 -2.636147 -0.277655 -0.820322 0.000000 0.000000
    29 0.010599 -1.261177 0.000000 -0.584649 0.000000 0.000000
    30 -0.000001 -0.943233 -0.000001 -0.532326 0.000000 0.000000
    31 -0.827563 -2.508974 -0.277656 -0.942479 0.000000 0.000000
    32 -0.000001 -1.292971 0.000000 -0.287992 0.000000 0.000000
    33 0.000000 -0.752465 0.000000 -0.445059 0.000000 0.000000
    34 0.444213 -2.561960 -0.277656 -1.081577 -0.046226 -0.024599
    35 0.021022 -1.208186 0.000000 -0.427606 0.000000 0.000000
    36 0.010597 -0.741867 -0.000002 -0.453786 0.000000 0.000000
    37 1.047445 -2.222821 -0.277656 -1.019688 -0.066950 -0.041090
    38 0.000000 -0.996223 -0.000002 -0.584712 0.000000 0.000000
    39 -0.000001 -0.614690 0.000001 -0.523599 0.000000 0.000000
    40 -0.308254 -0.007814 0.307166 -0.318043 -0.539818 -2.424628
    41 1.978378 0.019543 0.000000 -0.000002 -0.000010 0.549778
    42 0.982426 0.003186 0.000000 0.000000 0.000000 0.593409
  time 27
    0 6.598707 0.177283 -6.694013 -0.788856 -1.326397 0.581817
    1 0.000000 -8.563284 0.000000 0.347791 -0.120900 -0.157818
    2 -0.251103 -3.675759 0.760352 -1.186398 1.434476 -1.173754
    3 -0.000001 2.696691 0.690915 0.000000 0.000000 0.000000
    4 0.000922 -0.883960 1.569312 0.000000 0.000000 0.000000
    5 0.000922 -3.415222 1.347102 0.000000 0.000000 0.000000
    6 0.000922 -2.222973 2.023393 0.000000 0.000000 0.000000
    7 -0.001984 15.309657 -1.919241 0.000000 0.000000 0.000000
    8 -0.002861 -1.798472 1.044055 0.000000 0.000000 0.000000
    9 -0.003480 -0.404829 0.000000 0.000000 0.000000 0.000000
    10 -0.519309 -2.501156 -0.278958 -1.003564 0.000000 -0.122173
    11 -0.010598 -1.208185 0.000000 -1.090831 0.000000 0.000000
    12 0.000000 -0.763066 0.000000 -1.223482 0.000000 0.000000
    13 0.105980 -2.607134 -0.278958 -0.890118 0.000000 -0.148353
    14 0.000000 -1.250578 0.000000 -1.213004 0.000000 0.000000
    15 0.000000 -0.932634 -0.000001 -1.279337 0.000000 0.000000
    16 0.763063 -2.490557 -0.278958 -0.349065 0.000000 0.130900
    17 -0.012322 -1.280917 0.000000 -0.322887 0.000000 0.000000
    18 -0.001697 -0.749371 0.000000 -0.593412 0.000000 0.000000
    19 0.354567 0.016266 0.318133 0.505409 -0.466262 -1.212439
    20 1.887165 0.012878 0.000000 -0.304966 -0.017306 -0.456358
    21 1.001874 -0.000270 0.000000 0.000000 0.000000 -0.572452
    22 -1.123359 -2.195094 -0.278958 -0.788809 0.052708 -0.017695
    23 0.010772 -0.963791 0.000001 -0.932004 0.000000 0.000000
    24 -0.010412 -0.631916 -0.000001 -1.061165 0.000000 0.000000
    25 -1.190955 -2.798675 -11.100243 -0.395000 -0.019603 0.610821
    26 0.089929 -8.543163 0.000001 0.130622 -0.257431 0.454966
    27 0.000000 -0.359713 0.000000 0.000000 0.000000 0.000000
    28 -0.170479 -2.636147 -0.277655 -0.820322 0.000000 0.000000
    29 0.010599 -1.261177 0.000000 -0.584649 0.000000 0.000000
    30 -0.000001 -0.943233 -0.000001 -0.532326 0.000000 0.000000
    31 -0.827563 -2.508974 -0.277656 -0.942479 0.000000 0.000000
    32 -0.000001 -1.292971 0.000000 -0.287992 0.000000 0.000000
    33 0.000000 -0.752465 0.000000 -0.445059 0.000000 0.000000
    34 0.444213 -2.561960 -0.277656 -1.081577 -0.046226 -0.024599
    35 0.021022 -1.208186 0.000000 -0.427606 0.000000 0.000000
    36 0.010597 -0.741867 -0.000002 -0.453786 0.000000 0.000000
    37 1.047445 -2.222821 -0.277656 -1.019688 -0.066950 -0.041090
    38 0.000000 -0.996223 -0.000002 -0.584712 0.000000 0.000000
    39 -0.000001 -0.614690 0.000001 -0.523599 0.000000 0.000000
    40 -0.308254 -0.007814 0.307166 -0.318043 -0.539818 -2.424628
    41 1.978378 0.019543 0.000000 -0.000002 -0.000010 0.549778
    42 0.982426 0.003186 0.000000 0.000000 0.000000 0.593409
  time 28
    0 6.602613 0.173377 -6.694013 -0.783312 -1.327698 0.576367
    1 0.000000 -8.563284 0.000000 0.347251 -0.119578 -0.160449
    2 -0.251103 -3.675759 0.760352 -1.186398 1.434476 -1.173754
    3 -0.000001 2.696691 0.690915 0.000000 0.000000 0.000000
    4 0.000922 -0.883960 1.569312 0.000000 0.000000 0.000000
    5 0.000922 -3.415222 1.347102 0.000000 0.000000 0.000000
    6 0.000922 -2.222973 2.023393 0.000000 0.000000 0.000000
    7 -0.001984 15.309657 -1.919241 0.000000 0.000000 0.000000
    8 -0.002861 -1.798472 1.044055 0.000000 0.000000 0.000000
    9 -0.003480 -0.404829 0.000000 0.000000 0.000000 0.000000
    10 -0.519309 -2.501156 -0.278958 -1.003564 0.000000 -0.122173
    11 -0.010598 -1.208185 0.000000 -1.090831 0.000000 0.000000
    12 0.000000 -0.763066 0.000000 -1.223482 0.000000 0.000000
    13 0.105980 -2.607134 -0.278958 -0.890118 0.000000 -0.148353
    14 0.000000 -1.250578 0.000000 -1.213004 0.000000 0.000000
    15 0.000000 -0.932634 -0.000001 -1.279337 0.000000 0.000000
    16 0.763063 -2.490557 -0.278958 -0.349065 0.000000 0.130900
    17 -0.012322 -1.280917 0.000000 -0.322887 0.000000 0.000000
    18 -0.001697 -0.749371 0.000000 -0.593412 0.000000 0.000000
    19 0.354567 0.016266 0.318133 0.505409 -0.466262 -1.212439
    20 1.887165 0.012878 0.000000 -0.304966 -0.017306 -0.456358
    21 1.001874 -0.000270 0.000000 0.000000 0.000000 -0.572452
    22 -1.123359 -2.195094 -0.278958 -0.788809 0.052708 -0.017695
    23 0.010772 -0.963791 0.000001 -0.932004 0.000000 0.000000
    24 -0.010412 -0.631916 -0.000001 -1.061165 0.000000 0.000000
    25 -1.198767 -2.771331 -11.065085 -0.388005 -0.012746 0.607727
    26 0.089929 -8.543163 0.000001 0.113510 -0.266910 0.454823
    27 0.000000 -0.359713 0.000000 0.000000 0.000000 0.000000
    28 -0.170479 -2.636147 -0.277655 -0.820322 0.000000 0.000000
    29 0.010599 -1.261177 0.000000 -0.584649 0.000000 0.000000
    30 -0.000001 -0.943233 -0.000001 -0.532326 0.000000 0.000000
    31 -0.827563 -2.508974 -0.277656 -0.942479 0.000000 0.000000
    32 -0.000001 -1.292971 0.000000 -0.287992 0.000000 0.000000
    33 0.000000 -0.752465 0.000000 -0.445059 0.000000 0.000000
    34 0.444213 -2.561960 -0.277656 -1.081577 -0.046226 -0.024599
    35 0.021022 -1.208186 0.000000 -0.427606 0.000000 0.000000
    36 0.010597 -0.741867 -0.000002 -0.453786 0.000000 0.000000
    37 1.047445 -2.222821 -0.277656 -1.019688 -0.066950 -0.041090
    38 0.000000 -0.996223 -0.000002 -0.584712 0.000000 0.000000
    39 -0.000001 -0.614690 0.000001 -0.523599 0.000000 0.000000
    40 -0.308254 -0.007814 0.307166 -0.318043 -0.539818 -2.424628
    41 1.978378 0.019543 0.000000 -0.000002 -0.000010 0.549778
    42 0.982426 0.003186 0.000000 0.000000 0.000000 0.593409
  time 29
    0 6.602613 0.169471 -6.694013 -0.777446 -1.329095 0.570456
    1 0.000000 -8.563284 0.000000 0.347016 -0.118284 -0.163329
    2 -0.251103 -3.675759 0.760352 -1.186398 1.434476 -1.173754
    3 -0.000001 2.696691 0.690915 0.000000 0.000000 0.000000
    4 0.000922 -0.883960 1.569312 0.000000 0.000000 0.000000
    5 0.000922 -3.415222 1.347102 0.000000 0.000000 0.000000
    6 0.000922 -2.222973 2.023393 0.000000 0.000000 0.000000
    7 -0.001984 15.309657 -1.919241 0.000000 0.000000 0.000000
    8 -0.002861 -1.798472 1.044055 0.000000 0.000000 0.000000
    9 -0.003480 -0.404829 0.000000 0.000000 0.000000 0.000000
    10 -0.519309 -2.501156 -0.278958 -1.003564 0.000000 -0.122173
    11 -0.010598 -1.208185 0.000000 -1.090831 0.000000 0.000000
    12 0.000000 -0.763066 0.000000 -1.223482 0.000000 0.000000
    13 0.105980 -2.607134 -0.278958 -0.890118 0.000000 -0.148353
    14 0.000000 -1.250578 0.000000 -1.213004 0.000000 0.000000
    15 0.000000 -0.932634 -0.000001 -1.279337 0.000000 0.000000
    16 0.763063 -2.490557 -0.278958 -0.349065 0.000000 0.130900
    17 -0.012322 -1.280917 0.000000 -0.322887 0.000000 0.000000
    18 -0.001697 -0.749371 0.000000 -0.593412 0.000000 0.000000
    19 0.354567 0.016266 0.318133 0.505409 -0.466262 -1.212439
    20 1.887165 0.012878 0.000000 -0.304966 -0.017306 -0.456358
    21 1.001874 -0.000270 0.000000 0.000000 0.000000 -0.572452
    22 -1.123359 -2.195094 -0.278958 -0.788809 0.052708 -0.017695
    23 0.010772 -0.963791 0.000001 -0.932004 0.000000 0.000000
    24 -0.010412 -0.631916 -0.000001 -1.061165 0.000000 0.000000
    25 -1.206580 -2.743986 -11.022115 -0.381422 -0.006175 0.604785
    26 0.089929 -8.543163 0.000001 0.096520 -0.276023 0.454937
    27 0.000000 -0.359713 0.000000 0.000000 0.000000 0.000000
    28 -0.170479 -2.636147 -0.277655 -0.820322 0.000000 0.000000
    29 0.010599 -1.261177 0.000000 -0.584649 0.000000 0.000000
    30 -0.000001 -0.943233 -0.000001 -0.532326 0.000000 0.000000
    31 -0.827563 -2.508974 -0.277656 -0.942479 0.000000 0.000000
    32 -0.000001 -1.292971 0.000000 -0.287992 0.000000 0.000000
    33 0.000000 -0.752465 0.000000 -0.445059 0.000000 0.000000
    34 0.444213 -2.561960 -0.277656 -1.081577 -0.046226 -0.024599
    35 0.021022 -1.208186 0.000000 -0.427606 0.000000 0.000000
    36 0.010597 -0.741867 -0.000002 -0.453786 0.000000 0.000000
    37 1.047445 -2.222821 -0.277656 -1.019688 -0.066950 -0.041090
    38 0.000000 -0.996223 -0.000002 -0.584712 0.000000 0.000000
    39 -0.000001 -0.614690 0.000001 -0.523599 0.000000 0.000000
    40 -0.308254 -0.007814 0.307166 -0.318043 -0.539818 -2.424628
    41 1.978378 0.019543 0.000000 -0.000002 -0.000010 0.549778
    42 0.982426 0.003186 0.000000 0.000000 0.000000 0.593409
  time 30
    0 6.606519 0.165564 -6.694013 -0.771128 -1.330619 0.563931
    1 0.000000 -8.563284 0.000000 0.347157 -0.117018 -0.166597
    2 -0.251103 -3.675759 0.760352 -1.186398 1.434476 -1.173754
    3 -0.000001 2.696691 0.690915 0.000000 0.000000 0.000000
    4 0.000922 -0.883960 1.569312 0.000000 0.000000 0.000000
    5 0.000922 -3.415222 1.347102 0.000000 0.000000 0.000000
    6 0.000922 -2.222973 2.023393 0.000000 0.000000 0.000000
    7 -0.001984 15.309657 -1.919241 0.000000 0.000000 0.000000
    8 -0.002861 -1.798472 1.044055 0.000000 0.000000 0.000000
    9 -0.003480 -0.404829 0.000000 0.000000 0.000000 0.000000
    10 -0.519309 -2.501156 -0.278958 -1.003564 0.000000 -0.122173
    11 -0.010598 -1.208185 0.000000 -1.090831 0.000000 0.000000
    12 0.000000 -0.763066 0.000000 -1.223482 0.000000 0.000000
    13 0.105980 -2.607134 -0.278958 -0.890118 0.000000 -0.148353
    14 0.000000 -1.250578 0.000000 -1.213004 0.000000 0.000000
    15 0.000000 -0.932634 -0.000001 -1.279337 0.000000 0.000000
    16 0.763063 -2.490557 -0.278958 -0.349065 0.000000 0.130900
    17 -0.012322 -1.280917 0.000000 -0.322887 0.000000 0.000000
    18 -0.001697 -0.749371 0.000000 -0.593412 0.000000 0.000000
    19 0.354567 0.016266 0.318133 0.505409 -0.466262 -1.212439
    20 1.887165 0.012878 0.000000 -0.304966 -0.017306 -0.456358
    21 1.001874 -0.000270 0.000000 0.000000 0.000000 -0.572452
    22 -1.123359 -2.195094 -0.278958 -0.788809 0.052708 -0.017695
    23 0.010772 -0.963791 0.000001 -0.932004 0.000000 0.000000
    24 -0.010412 -0.631916 -0.000001 -1.061165 0.000000 0.000000
    25 -1.214393 -2.716641 -10.975239 -0.375302 0.000015 0.602068
    26 0.089929 -8.543163 0.000001 0.079772 -0.284688 0.455193
    27 0.000000 -0.359713 0.000000 0.000000 0.000000 0.000000
    28 -0.170479 -2.636147 -0.277655 -0.820322 0.000000 0.000000
    29 0.010599 -1.261177 0.000000 -0.584649 0.000000 0.000000
    30 -0.000001 -0.943233 -0.000001 -0.532326 0.000000 0.000000
    31 -0.827563 -2.508974 -0.277656 -0.942479 0.000000 0.000000
    32 -0.000001 -1.292971 0.000000 -0.287992 0.000000 0.000000
    33 0.000000 -0.752465 0.000000 -0.445059 0.000000 0.000000
    34 0.444213 -2.561960 -0.277656 -1.081577 -0.046226 -0.024599
    35 0.021022 -1.208186 0.000000 -0.427606 0.000000 0.000000
    36 0.010597 -0.741867 -0.000002 -0.453786 0.000000 0.000000
    37 1.047445 -2.222821 -0.277656 -1.019688 -0.066950 -0.041090
    38 0.000000 -0.996223 -0.000002 -0.584712 0.000000 0.000000
    39 -0.000001 -0.614690 0.000001 -0.523599 0.000000 0.000000
    40 -0.308254 -0.007814 0.307166 -0.318043 -0.539818 -2.424628
    41 1.978378 0.019543 0.000000 -0.000002 -0.000010 0.549778
    42 0.982426 0.003186 0.000000 0.000000 0.000000 0.593409
end
