// Created by Crowbar 0.71

$modelname "weapons/tfa_cso/c_cannonex.mdl"

$include "csonline_gmod.qci"

$bodygroup "weapon"
{
	studio "v_cannonex_head"
}
$bodygroup "weapon"
{
	studio "v_cannonex_body"
}
$bodygroup "weapon"
{
	studio "v_cannonex_dragonA"
}
$bodygroup "weapon"
{
	studio "v_cannonex_dragonB"
}

$cdmaterials "models\weapons\tfa_cso\cannonex\"

$attachment 0 "Droot" -2 0 20
//$attachment 1 "Droot" 0 0 0

$sequence "idle" {
	"v_cannonex_anims\idle"
	activity "ACT_VM_IDLE" 1
	fps 30
	loop
	snap
}
$sequence "idleB" {
	"v_cannonex_anims\idleB"
	activity "ACT_VM_IDLE_SILENCED" 1
	fps 30
	snap
}
$sequence "draw" {
	"v_cannonex_anims\draw"
	activity "ACT_VM_DRAW" 1
	fps 30
	snap
}
$sequence "drawB" {
	"v_cannonex_anims\drawB"
	activity "ACT_VM_DRAW_SILENCED" 1
	fps 30
	snap
}
$sequence "shootA" {
	"v_cannonex_anims\shootA"
	activity "ACT_VM_PRIMARYATTACK" 1
	{ event 5001 0 "#I12 S0.12 R2 F0 P30 T0.12 A1 L0 O0" }
	fps 30
	snap
}
$sequence "shootB" {
	"v_cannonex_anims\shootB"
	activity "ACT_VM_PRIMARYATTACK_SILENCED" 1
	{ event 5001 0 "#I12 S0.12 R2 F0 P30 T0.12 A1 L0 O0" }
	fps 30
	snap
}
$sequence "D_transform" {
	"v_cannonex_anims\D_transform"
	activity "ACT_VM_ATTACH_SILENCER" 1
	{ event 5004 1 "Cannonex.Transform" }
	fps 30
	snap
}
$sequence "D_reload1" {
	"v_cannonex_anims\D_reload1"
	{ event 5001 0 "#I12 S0.12 R2 F0 P30 T0.12 A1 L0 O0" }
	fps 30
	snap
}
$sequence "D_reload2" {
	"v_cannonex_anims\D_reload2"
	activity "ACT_VM_DETACH_SILENCER" 1
	{ event 5004 15 "Cannonex.Reload2" }
	fps 30
	snap
}
