version 1
nodes
  0 "buff_m249" -1
  1 "Dummy001" 0
  2 "lever" 1
  3 "Dummy003" 0
  4 "trigger" 3
  5 "wing1" 1
  6 "wing2" 1
  7 "wing003" 1
  8 "wing004" 1
  9 "wing005" 1
  10 "wing006" 1
  11 "wing007" 1
  12 "wing008" 1
  13 "wing009" 1
  14 "wing010" 1
  15 "wing011" 1
  16 "wing012" 1
  17 "wing013" 1
  18 "wing014" 1
  19 "cover" 0
  20 "Object028" 19
  21 "Point006" 19
  22 "????????" 21
  23 "magazine" 1
  24 "Dummy002" 23
  25 "bullet1" 24
  26 "bullet2" 25
  27 "bullet3" 26
  28 "bullet4" 27
  29 "bullet5" 28
  30 "bullet6" 29
  31 "bullet7" 30
  32 "bullet8" 31
  33 "Point001" 19
  34 "orange" 33
  35 "Point002" 2
  36 "leverlight1" 35
  37 "Point003" 2
  38 "leverlight2" 37
  39 "Point004" 1
  40 "GeoSphere001" 39
  41 "Point005" 1
  42 "GeoSphere002" 41
  43 "black1" 1
  44 "black2" 1
  45 "black3" 1
  46 "black4" 1
  47 "black5" 1
  48 "black6" 1
  49 "root" -1
  50 "Bone01" 49
  51 "Bone_L_Upper" 50
  52 "Bone_Lefthand" 50
  53 "Bone13" 52
  54 "Bone14" 53
  55 "Bone15" 54
  56 "Bone17" 52
  57 "Bone18" 56
  58 "Bone19" 57
  59 "Bone21" 52
  60 "Bone22" 59
  61 "Bone23" 60
  62 "Bone09" 52
  63 "Bone10" 62
  64 "Bone11" 63
  65 "Bone05" 52
  66 "Bone06" 65
  67 "Bone07" 66
  68 "Bone_Se_Hand-L" 52
  69 "Bone04" 49
  70 "Bone_Righthand" 69
  71 "Bone39" 70
  72 "Bone40" 71
  73 "Bone41" 72
  74 "Bone35" 70
  75 "Bone36" 74
  76 "Bone37" 75
  77 "Bone31" 70
  78 "Bone32" 77
  79 "Bone33" 78
  80 "Bone43" 70
  81 "Bone44" 80
  82 "Bone45" 81
  83 "Bone27" 70
  84 "Bone28" 83
  85 "Bone29" 84
  86 "Bone_Se_Hand-R" 70
  87 "Bone_R_Upper" 69
end
skeleton
  time 0
    0 7.216372 -8.312578 -3.381669 -1.521021 -3.131799 1.467669
    1 6.185434 0.379124 -0.000001 0.000000 0.000000 0.000000
    2 -3.563981 1.256647 -1.087708 0.000000 0.000000 0.021642
    3 -1.464251 -1.398945 0.000000 0.000000 0.000000 0.000000
    4 0.103153 0.068699 0.000000 0.000000 0.000000 -1.424330
    5 -1.646002 -1.588399 1.593848 -0.278216 -0.494126 -2.868259
    6 -0.998352 -1.580052 1.698083 -0.507848 -0.678035 -2.570251
    7 -0.165947 -1.834276 1.705774 -0.771421 -0.937955 -2.095339
    8 0.720433 -1.619241 1.641268 -1.057063 -1.015006 -1.580642
    9 1.291739 -1.362477 1.639532 -1.256646 -0.974371 -1.192860
    10 1.881563 -1.154258 1.658113 -1.556168 -0.918465 -0.701604
    11 2.533382 -0.880921 1.417083 -1.844576 -0.648490 -0.583211
    12 -0.114986 -1.811761 -2.226530 -0.927015 -0.513583 1.249772
    13 0.774039 -1.595395 -2.187590 -1.128328 -0.637551 1.565415
    14 1.346209 -1.338449 -2.194060 -1.305643 -0.661252 1.905686
    15 1.910635 -1.038882 -1.951995 1.514354 -2.466979 -0.724089
    16 2.590990 -0.855057 -2.002131 1.297019 -2.493108 -0.583215
    17 -0.949288 -1.766195 -2.232661 -0.891381 -0.346632 0.997588
    18 -1.589159 -1.561627 -2.172420 -0.758947 -0.143850 0.619577
    19 1.343212 0.759871 -0.659468 -1.570801 -1.547537 0.000008
    20 0.616271 -0.042046 0.018120 0.000000 0.000000 0.000000
    21 0.616272 -0.042044 0.191434 0.000000 0.000000 0.000000
    22 -0.000007 10.649727 -2.184227 0.000000 0.000000 0.000000
    23 -4.723832 -1.475883 0.721802 0.000001 0.000000 -1.570796
    24 0.579225 -0.112310 0.643977 -3.141592 1.570796 0.000000
    25 -0.183390 0.009382 0.270586 -1.570794 -0.677250 -0.000001
    26 0.298495 0.000000 -0.000001 0.000000 0.000000 -0.214661
    27 0.271157 0.000001 -0.000001 0.000000 0.000000 -0.272137
    28 0.339450 0.000000 -0.000001 -0.000297 0.000312 -0.185631
    29 0.339187 0.000000 -0.000001 0.000254 -0.000187 0.128251
    30 0.385388 0.000000 -0.000001 -0.000063 -0.000261 0.401172
    31 0.341048 0.000000 -0.000001 -0.000161 -0.000026 0.590021
    32 0.315277 0.000000 -0.000001 0.000247 -0.000021 0.243588
    33 0.617627 -0.042344 -0.213050 0.000008 0.000032 0.000001
    34 0.000054 0.000001 0.000000 -0.000002 0.000000 -0.000001
    35 -0.027699 2.056633 0.190775 0.141025 1.159637 3.136647
    36 0.000000 0.000000 0.000002 0.000000 0.000000 0.000000
    37 -0.108783 -0.003680 0.135396 0.141025 1.159637 3.136647
    38 0.000000 0.000000 0.000000 0.000000 0.000000 0.000000
    39 -1.639297 -0.733058 1.473499 -0.210880 2.081601 1.371256
    40 0.000000 0.000000 0.000000 0.000000 0.000000 0.000000
    41 -0.512197 -1.035055 1.997663 -0.210879 2.081601 1.371256
    42 0.000000 0.000000 0.000000 0.000000 0.000000 0.000000
    43 -8.459149 -0.575940 0.000001 0.000000 0.000000 1.562439
    44 -7.376782 -0.561701 -0.000804 0.000000 0.000000 1.562440
    45 -6.265542 -0.528891 -0.002659 0.000000 0.000000 1.562440
    46 -2.220867 -0.492363 -0.004725 0.000000 0.000000 1.562440
    47 -1.138244 -0.466984 -0.006159 0.000000 0.000000 1.562439
    48 -0.027756 -0.466983 -0.006160 0.000000 0.000000 1.562439
    49 0.001265 -0.569176 -20.601572 0.000000 0.000000 0.000000
    50 9.310103 -5.299614 -12.557959 3.138909 -0.000224 -1.566807
    51 1.257180 8.762585 -0.153713 -1.570562 0.002683 -1.566807
    52 -0.071921 -8.498736 -0.104134 -0.025046 0.287591 0.014898
    53 -0.488518 -2.755602 -0.228260 0.106454 0.010332 -0.264490
    54 0.039887 -1.479790 0.029854 -0.055395 0.000000 0.000001
    55 0.028786 -1.075731 -0.023109 0.002099 0.000000 0.000000
    56 0.250027 -2.820665 -0.238396 0.041826 -0.002921 0.008443
    57 -0.049759 -1.680544 0.100479 0.019826 0.000000 -0.000002
    58 -0.034142 -1.148312 0.084782 -0.040115 0.000000 0.000000
    59 0.957766 -2.746780 -0.090302 -0.017221 -0.162277 0.191558
    60 -0.033420 -1.397129 -0.011257 0.013931 0.000000 -0.000001
    61 -0.022360 -0.957436 0.018784 0.003845 0.000000 0.000000
    62 -1.180681 -2.507217 -0.193859 0.082999 0.013294 -0.477915
    63 -0.024967 -1.123934 0.017597 -0.018065 0.000000 0.000001
    64 -0.020057 -0.890968 0.010090 -0.060797 0.000000 0.000000
    65 0.583510 -1.197277 0.185379 0.158049 -0.404973 -0.364290
    66 1.535927 0.010246 0.005009 -0.002964 -0.012979 0.000887
    67 1.100771 0.004527 -0.010679 -0.002796 0.015973 0.003458
    68 0.120153 -0.050270 -0.054489 0.287569 3.110905 1.561085
    69 -9.310107 -5.231260 -12.513384 0.004984 -3.131565 -1.566847
    70 0.096944 -8.450418 -0.009365 -0.032965 -0.297907 -0.004663
    71 0.447953 -2.798986 -0.200443 0.106456 -0.010396 0.265094
    72 -0.032909 -1.480204 0.004940 -0.055403 0.000000 0.000002
    73 -0.027022 -1.076920 -0.020210 0.002094 0.000000 0.000000
    74 -0.249534 -2.846964 -0.174213 0.041903 -0.000125 -0.008396
    75 0.043235 -1.683941 0.096012 0.019757 0.002823 -0.000167
    76 0.031729 -1.160830 0.058838 -0.040181 0.000642 0.008372
    77 -0.963866 -2.785145 -0.085350 -0.017227 0.162276 -0.191556
    78 0.028479 -1.403067 0.006271 0.013941 0.000000 0.000000
    79 0.021413 -0.957781 0.020046 0.003851 0.000000 0.000000
    80 1.164475 -2.543940 -0.170330 0.083003 -0.013294 0.477915
    81 0.024032 -1.129042 0.017807 -0.018074 0.000000 0.000001
    82 0.014898 -0.883989 -0.019848 -0.060801 0.000000 0.000000
    83 -0.586770 -1.264477 0.200161 -0.152092 -0.410513 -2.814816
    84 1.522835 0.058681 0.016848 0.001410 0.008985 -0.046880
    85 1.117947 0.048424 -0.005766 -0.000243 -0.025198 0.065422
    86 -0.139399 -0.111698 0.014397 0.285382 -0.030687 1.580508
    87 -1.393470 8.839177 -0.239433 1.580804 -0.005023 -1.566847
end
triangles
$0b_buff_m249_2_glow.bmp
  0 6.795527 -5.743312 -3.159945 -0.925048 0.099347 0.366629 0.716243 0.726027
  0 6.954964 -5.755792 -2.751504 -0.850786 0.077500 0.519766 0.716243 0.798434
  0 6.880967 -4.917762 -3.168074 -0.942416 0.078577 0.325080 0.577299 0.724070
$0b_buff_m249_2_glow.bmp
  0 6.880967 -4.917762 -3.168074 -0.942416 0.078577 0.325080 0.577299 0.724070
  0 6.954964 -5.755792 -2.751504 -0.850786 0.077500 0.519766 0.716243 0.798434
  0 7.020534 -4.928194 -2.760628 -0.909623 0.019836 0.414961 0.577299 0.798434
$0b_buff_m249_2_glow.bmp
  0 6.954964 -5.755792 -2.751504 -0.850786 0.077500 0.519766 0.716243 0.798434
  0 7.125068 -5.771538 -2.562780 -0.588239 -0.003541 0.808680 0.718200 0.839530
  0 7.020534 -4.928194 -2.760628 -0.909623 0.019836 0.414961 0.577299 0.798434
$0b_buff_m249_2_glow.bmp
  0 7.020534 -4.928194 -2.760628 -0.909623 0.019836 0.414961 0.577299 0.798434
  0 7.125068 -5.771538 -2.562780 -0.588239 -0.003541 0.808680 0.718200 0.839530
  0 7.173629 -5.273327 -2.507754 -0.691860 -0.055106 0.719925 0.636008 0.849315
$0b_buff_m249_2_glow.bmp
  0 7.125068 -5.771538 -2.562780 -0.588239 -0.003541 0.808680 0.718200 0.839530
  0 7.428206 -5.801776 -2.447486 -0.064732 -0.148715 0.986759 0.724070 0.892368
  0 7.173629 -5.273327 -2.507754 -0.691860 -0.055106 0.719925 0.636008 0.849315
$0b_buff_m249_2_glow.bmp
  0 7.173629 -5.273327 -2.507754 -0.691860 -0.055106 0.719925 0.636008 0.849315
  0 7.428206 -5.801776 -2.447486 -0.064732 -0.148715 0.986759 0.724070 0.892368
  0 7.470770 -5.332513 -2.332243 -0.070687 -0.212431 0.974616 0.653620 0.908023
$0b_buff_m249_2_glow.bmp
  0 7.428206 -5.801776 -2.447486 -0.064732 -0.148715 0.986759 0.724070 0.892368
  0 7.789602 -5.336773 -2.476908 0.591570 -0.187300 0.784196 0.636008 0.849315
  0 7.470770 -5.332513 -2.332243 -0.070687 -0.212431 0.974616 0.653620 0.908023
$0b_buff_m249_2_glow.bmp
  0 7.470770 -5.332513 -2.332243 -0.070687 -0.212431 0.974616 0.653620 0.908023
  0 7.789602 -5.336773 -2.476908 0.591570 -0.187300 0.784196 0.636008 0.849315
  0 7.856997 -4.729433 -2.372526 0.744498 -0.166722 0.646473 0.532290 0.868885
$0b_buff_m249_2_glow.bmp
  0 7.789602 -5.336773 -2.476908 0.591570 -0.187300 0.784196 0.636008 0.849315
  0 8.033909 -5.032573 -2.709880 0.849080 -0.161312 0.503033 0.577299 0.798434
  0 7.856997 -4.729433 -2.372526 0.744498 -0.166722 0.646473 0.532290 0.868885
$0b_buff_m249_2_glow.bmp
  0 7.856997 -4.729433 -2.372526 0.744498 -0.166722 0.646473 0.532290 0.868885
  0 8.033909 -5.032573 -2.709880 0.849080 -0.161312 0.503033 0.577299 0.798434
  0 8.013290 -4.586861 -2.587342 0.492342 -0.114841 0.862792 0.504892 0.829746
$0b_buff_m249_2_glow.bmp
  0 8.033909 -5.032573 -2.709880 0.849080 -0.161312 0.503033 0.577299 0.798434
  0 8.185095 -4.605149 -2.638807 0.885051 -0.087096 0.457273 0.504892 0.802348
  0 8.013290 -4.586861 -2.587342 0.492342 -0.114841 0.862792 0.504892 0.829746
$0b_buff_m249_2_glow.bmp
  0 8.013290 -4.586861 -2.587342 0.492342 -0.114841 0.862792 0.504892 0.829746
  0 8.185095 -4.605149 -2.638807 0.885051 -0.087096 0.457273 0.504892 0.802348
  0 8.100143 -4.174394 -2.669362 0.859428 0.219263 0.461852 0.432485 0.810176
$0b_buff_m249_2_glow.bmp
  0 8.185095 -4.605149 -2.638807 0.885051 -0.087096 0.457273 0.504892 0.802348
  0 8.144631 -4.602854 -2.831050 0.993505 -0.102331 0.049753 0.502935 0.772994
  0 8.100143 -4.174394 -2.669362 0.859428 0.219263 0.461852 0.432485 0.810176
$0b_buff_m249_2_glow.bmp
  0 6.929301 -4.741796 -3.168344 -0.925048 0.099347 0.366629 0.962818 0.737769
  0 7.078803 -4.753252 -2.760401 -0.850786 0.077500 0.519766 0.962818 0.810176
  0 7.014741 -3.916246 -3.176473 -0.942416 0.078577 0.325080 0.825832 0.735812
$0b_buff_m249_2_glow.bmp
  0 7.014741 -3.916246 -3.176473 -0.942416 0.078577 0.325080 0.825832 0.735812
  0 7.078803 -4.753252 -2.760401 -0.850786 0.077500 0.519766 0.962818 0.810176
  0 7.144373 -3.925655 -2.769524 -0.909623 0.019836 0.414961 0.823875 0.810176
$0b_buff_m249_2_glow.bmp
  0 7.078803 -4.753252 -2.760401 -0.850786 0.077500 0.519766 0.962818 0.810176
  0 7.248907 -4.768999 -2.571677 -0.588239 -0.003541 0.808680 0.964775 0.851272
  0 7.144373 -3.925655 -2.769524 -0.909623 0.019836 0.414961 0.823875 0.810176
$0b_buff_m249_2_glow.bmp
  0 7.144373 -3.925655 -2.769524 -0.909623 0.019836 0.414961 0.823875 0.810176
  0 7.248907 -4.768999 -2.571677 -0.588239 -0.003541 0.808680 0.964775 0.851272
  0 7.303645 -4.211110 -2.517238 -0.691860 -0.055106 0.719925 0.882583 0.863014
$0b_buff_m249_2_glow.bmp
  0 7.248907 -4.768999 -2.571677 -0.588239 -0.003541 0.808680 0.964775 0.851272
  0 7.532176 -4.797190 -2.457377 -0.064732 -0.148715 0.986759 0.970646 0.904110
  0 7.303645 -4.211110 -2.517238 -0.691860 -0.055106 0.719925 0.882583 0.863014
$0b_buff_m249_2_glow.bmp
  0 7.303645 -4.211110 -2.517238 -0.691860 -0.055106 0.719925 0.882583 0.863014
  0 7.532176 -4.797190 -2.457377 -0.064732 -0.148715 0.986759 0.970646 0.904110
  0 7.576798 -4.308035 -2.342330 -0.070687 -0.212431 0.974616 0.900196 0.919765
$0b_buff_m249_2_glow.bmp
  0 7.532176 -4.797190 -2.457377 -0.064732 -0.148715 0.986759 0.970646 0.904110
  0 7.879878 -4.270463 -2.488382 0.591570 -0.187300 0.784196 0.882583 0.863014
  0 7.576798 -4.308035 -2.342330 -0.070687 -0.212431 0.974616 0.900196 0.919765
$0b_buff_m249_2_glow.bmp
  0 7.576798 -4.308035 -2.342330 -0.070687 -0.212431 0.974616 0.900196 0.919765
  0 7.879878 -4.270463 -2.488382 0.591570 -0.187300 0.784196 0.882583 0.863014
  0 7.941096 -3.722801 -2.383412 0.744498 -0.166722 0.646473 0.780822 0.880626
$0b_buff_m249_2_glow.bmp
  0 7.879878 -4.270463 -2.488382 0.591570 -0.187300 0.784196 0.882583 0.863014
  0 8.118008 -4.025941 -2.720767 0.849080 -0.161312 0.503033 0.823875 0.810176
  0 7.941096 -3.722801 -2.383412 0.744498 -0.166722 0.646473 0.780822 0.880626
$0b_buff_m249_2_glow.bmp
  0 7.941096 -3.722801 -2.383412 0.744498 -0.166722 0.646473 0.780822 0.880626
  0 8.118008 -4.025941 -2.720767 0.849080 -0.161312 0.503033 0.823875 0.810176
  0 8.107324 -3.581252 -2.597731 0.506612 -0.080982 0.858363 0.751468 0.841487
$0b_buff_m249_2_glow.bmp
  0 8.118008 -4.025941 -2.720767 0.849080 -0.161312 0.503033 0.823875 0.810176
  0 8.269194 -3.598516 -2.649693 0.885051 -0.087096 0.457273 0.751468 0.814090
  0 8.107324 -3.581252 -2.597731 0.506612 -0.080982 0.858363 0.751468 0.841487
$0b_buff_m249_2_glow.bmp
  0 8.107324 -3.581252 -2.597731 0.506612 -0.080982 0.858363 0.751468 0.841487
  0 8.269194 -3.598516 -2.649693 0.885051 -0.087096 0.457273 0.751468 0.814090
  0 8.184242 -3.167762 -2.680249 0.859428 0.219263 0.461852 0.681018 0.821918
$0b_buff_m249_2_glow.bmp
  0 8.269194 -3.598516 -2.649693 0.885051 -0.087096 0.457273 0.751468 0.814090
  0 8.228730 -3.596222 -2.841937 0.993505 -0.102331 0.049753 0.751468 0.784736
  0 8.184242 -3.167762 -2.680249 0.859428 0.219263 0.461852 0.681018 0.821918
$0b_buff_m249_2_glow.bmp
  43 6.876766 -5.932319 -2.759028 -0.898588 0.015047 0.438535 0.823875 0.810176
  43 6.822003 -6.751001 -2.746362 -0.835868 0.075523 0.543710 0.962818 0.810176
  43 7.001887 -6.769268 -2.557132 -0.567825 -0.006558 0.823123 0.964775 0.851272
$0b_buff_m249_2_glow.bmp
  43 6.876766 -5.932319 -2.759028 -0.898588 0.015047 0.438535 0.823875 0.810176
  43 6.737542 -5.918561 -3.166493 -0.934876 0.076801 0.346566 0.825832 0.735812
  43 6.822003 -6.751001 -2.746362 -0.835868 0.075523 0.543710 0.962818 0.810176
$0b_buff_m249_2_glow.bmp
  43 6.876766 -5.932319 -2.759028 -0.898588 0.015047 0.438535 0.823875 0.810176
  43 6.815488 -5.484059 -3.025313 -0.934876 0.076801 0.346566 0.751468 0.761252
  43 6.737542 -5.918561 -3.166493 -0.934876 0.076801 0.346566 0.825832 0.735812
$0b_buff_m249_2_glow.bmp
  43 6.876766 -5.932319 -2.759028 -0.898588 0.015047 0.438535 0.823875 0.810176
  43 6.868191 -5.489283 -2.882501 -0.993505 0.102332 -0.049752 0.751468 0.784736
  43 6.815488 -5.484059 -3.025313 -0.934876 0.076801 0.346566 0.751468 0.761252
$0b_buff_m249_2_glow.bmp
  43 6.876766 -5.932319 -2.759028 -0.898588 0.015047 0.438535 0.823875 0.810176
  43 6.799205 -5.481901 -2.695722 -0.915733 0.098608 0.389500 0.751468 0.814090
  43 6.868191 -5.489283 -2.882501 -0.993505 0.102332 -0.049752 0.751468 0.784736
$0b_buff_m249_2_glow.bmp
  43 6.876766 -5.932319 -2.759028 -0.898588 0.015047 0.438535 0.823875 0.810176
  43 6.984517 -5.500886 -2.616356 -0.564546 0.035395 0.824643 0.751468 0.841487
  43 6.799205 -5.481901 -2.695722 -0.915733 0.098608 0.389500 0.751468 0.814090
$0b_buff_m249_2_glow.bmp
  43 6.876766 -5.932319 -2.759028 -0.898588 0.015047 0.438535 0.823875 0.810176
  43 7.096348 -5.672931 -2.389432 -0.817461 -0.004492 0.575966 0.780822 0.880626
  43 6.984517 -5.500886 -2.616356 -0.564546 0.035395 0.824643 0.751468 0.841487
$0b_buff_m249_2_glow.bmp
  43 6.876766 -5.932319 -2.759028 -0.898588 0.015047 0.438535 0.823875 0.810176
  43 7.050192 -6.271511 -2.497930 -0.708103 -0.045914 0.704615 0.882583 0.863014
  43 7.096348 -5.672931 -2.389432 -0.817461 -0.004492 0.575966 0.780822 0.880626
$0b_buff_m249_2_glow.bmp
  43 6.876766 -5.932319 -2.759028 -0.898588 0.015047 0.438535 0.823875 0.810176
  43 7.001887 -6.769268 -2.557132 -0.567825 -0.006558 0.823123 0.964775 0.851272
  43 7.050192 -6.271511 -2.497930 -0.708103 -0.045914 0.704615 0.882583 0.863014
$0b_buff_m249_2_glow.bmp
  43 7.969622 -6.044885 -2.704301 0.835027 -0.163518 0.525349 0.823875 0.810176
  43 7.705905 -6.339050 -2.465093 0.610774 -0.181760 0.770661 0.882583 0.863014
  43 7.657601 -6.836807 -2.524296 0.470414 -0.113498 0.875117 0.964775 0.851272
$0b_buff_m249_2_glow.bmp
  43 7.969622 -6.044885 -2.704301 0.835027 -0.163518 0.525349 0.823875 0.810176
  43 7.771931 -5.742517 -2.355600 0.738441 -0.164752 0.653882 0.780822 0.880626
  43 7.705905 -6.339050 -2.465093 0.610774 -0.181760 0.770661 0.882583 0.863014
$0b_buff_m249_2_glow.bmp
  43 7.969622 -6.044885 -2.704301 0.835027 -0.163518 0.525349 0.823875 0.810176
  43 7.938282 -5.599126 -2.568594 0.475604 -0.071738 0.876729 0.751468 0.841487
  43 7.771931 -5.742517 -2.355600 0.738441 -0.164752 0.653882 0.780822 0.880626
$0b_buff_m249_2_glow.bmp
  43 7.969622 -6.044885 -2.704301 0.835027 -0.163518 0.525349 0.823875 0.810176
  43 8.130502 -5.619026 -2.629054 0.873567 -0.085691 0.479101 0.751468 0.814090
  43 7.938282 -5.599126 -2.568594 0.475604 -0.071738 0.876729 0.751468 0.841487
$0b_buff_m249_2_glow.bmp
  43 7.969622 -6.044885 -2.704301 0.835027 -0.163518 0.525349 0.823875 0.810176
  43 8.080267 -5.614129 -2.821804 0.993506 -0.102331 0.049751 0.751468 0.784736
  43 8.130502 -5.619026 -2.629054 0.873567 -0.085691 0.479101 0.751468 0.814090
$0b_buff_m249_2_glow.bmp
  43 7.969622 -6.044885 -2.704301 0.835027 -0.163518 0.525349 0.823875 0.810176
  43 8.146785 -5.621184 -2.958645 0.892025 -0.111373 0.438049 0.751468 0.761252
  43 8.080267 -5.614129 -2.821804 0.993506 -0.102331 0.049751 0.751468 0.784736
$0b_buff_m249_2_glow.bmp
  43 7.969622 -6.044885 -2.704301 0.835027 -0.163518 0.525349 0.823875 0.810176
  43 8.148320 -6.063873 -3.095845 0.892025 -0.111373 0.438049 0.825832 0.735812
  43 8.146785 -5.621184 -2.958645 0.892025 -0.111373 0.438049 0.751468 0.761252
$0b_buff_m249_2_glow.bmp
  43 7.969622 -6.044885 -2.704301 0.835027 -0.163518 0.525349 0.823875 0.810176
  43 7.855248 -6.857427 -2.694620 0.775829 -0.090484 0.624422 0.962818 0.810176
  43 8.148320 -6.063873 -3.095845 0.892025 -0.111373 0.438049 0.825832 0.735812
$0b_buff_m249_2_glow.bmp
  43 7.969622 -6.044885 -2.704301 0.835027 -0.163518 0.525349 0.823875 0.810176
  43 7.657601 -6.836807 -2.524296 0.470414 -0.113498 0.875117 0.964775 0.851272
  43 7.855248 -6.857427 -2.694620 0.775829 -0.090484 0.624422 0.962818 0.810176
$0b_buff_m249_2_glow.bmp
  43 7.384475 -6.820373 -3.669299 -0.102935 -0.994640 0.009794 0.741683 0.293542
  43 6.652973 -6.734174 -3.155319 -0.102935 -0.994640 0.009794 0.702544 0.326810
  43 6.679086 -6.747717 -3.704623 -0.102935 -0.994640 0.009794 0.702544 0.293542
$0b_buff_m249_2_glow.bmp
  43 7.384475 -6.820373 -3.669299 -0.102935 -0.994640 0.009794 0.741683 0.293542
  43 6.822003 -6.751001 -2.746362 -0.102935 -0.994640 0.009794 0.714286 0.350294
  43 6.652973 -6.734174 -3.155319 -0.102935 -0.994640 0.009794 0.702544 0.326810
$0b_buff_m249_2_glow.bmp
  43 7.384475 -6.820373 -3.669299 -0.102935 -0.994640 0.009794 0.741683 0.293542
  43 7.001887 -6.769268 -2.557132 -0.102935 -0.994640 0.009794 0.724070 0.360078
  43 6.822003 -6.751001 -2.746362 -0.102935 -0.994640 0.009794 0.714286 0.350294
$0b_buff_m249_2_glow.bmp
  43 7.384475 -6.820373 -3.669299 -0.102935 -0.994640 0.009794 0.741683 0.293542
  43 7.325835 -6.792436 -2.440852 -0.102935 -0.994640 0.009794 0.741683 0.365949
  43 7.001887 -6.769268 -2.557132 -0.102935 -0.994640 0.009794 0.724070 0.360078
$0b_buff_m249_2_glow.bmp
  43 7.384475 -6.820373 -3.669299 -0.102935 -0.994640 0.009794 0.741683 0.293542
  43 7.657601 -6.836807 -2.524296 -0.102935 -0.994640 0.009794 0.724070 0.360078
  43 7.325835 -6.792436 -2.440852 -0.102935 -0.994640 0.009794 0.741683 0.365949
$0b_buff_m249_2_glow.bmp
  43 7.384475 -6.820373 -3.669299 -0.102935 -0.994640 0.009794 0.741683 0.293542
  43 7.855248 -6.857427 -2.694620 -0.102935 -0.994640 0.009794 0.714286 0.350294
  43 7.657601 -6.836807 -2.524296 -0.102935 -0.994640 0.009794 0.724070 0.360078
$0b_buff_m249_2_glow.bmp
  43 7.384475 -6.820373 -3.669299 -0.102935 -0.994640 0.009794 0.741683 0.293542
  43 8.063751 -6.879486 -3.084671 -0.102935 -0.994640 0.009794 0.702544 0.326810
  43 7.855248 -6.857427 -2.694620 -0.102935 -0.994640 0.009794 0.714286 0.350294
$0b_buff_m249_2_glow.bmp
  43 7.384475 -6.820373 -3.669299 -0.102935 -0.994640 0.009794 0.741683 0.293542
  43 8.089864 -6.893029 -3.633975 -0.102935 -0.994640 0.009794 0.702544 0.293542
  43 8.063751 -6.879486 -3.084671 -0.102935 -0.994640 0.009794 0.702544 0.326810
$0b_buff_m249_2_glow.bmp
  0 7.487356 -5.819895 -3.665916 -0.102940 -0.994639 0.009793 0.741683 0.293542
  0 6.795527 -5.743312 -3.159945 -0.102940 -0.994639 0.009793 0.702544 0.326810
  0 6.821708 -5.751332 -3.699250 -0.102940 -0.994639 0.009793 0.702544 0.293542
$0b_buff_m249_2_glow.bmp
  0 7.487356 -5.819895 -3.665916 -0.102940 -0.994639 0.009793 0.741683 0.293542
  0 6.954964 -5.755792 -2.751504 -0.102940 -0.994639 0.009793 0.714286 0.350294
  0 6.795527 -5.743312 -3.159945 -0.102940 -0.994639 0.009793 0.702544 0.326810
$0b_buff_m249_2_glow.bmp
  0 7.487356 -5.819895 -3.665916 -0.102940 -0.994639 0.009793 0.741683 0.293542
  0 7.125068 -5.771538 -2.562780 -0.102940 -0.994639 0.009793 0.724070 0.360078
  0 6.954964 -5.755792 -2.751504 -0.102940 -0.994639 0.009793 0.714286 0.350294
$0b_buff_m249_2_glow.bmp
  0 7.487356 -5.819895 -3.665916 -0.102940 -0.994639 0.009793 0.741683 0.293542
  0 7.428206 -5.801776 -2.447486 -0.102940 -0.994639 0.009793 0.741683 0.365949
  0 7.125068 -5.771538 -2.562780 -0.102940 -0.994639 0.009793 0.724070 0.360078
$0b_buff_m249_2_glow.bmp
  0 7.487356 -5.819895 -3.665916 -0.102940 -0.994639 0.009793 0.741683 0.293542
  0 7.741041 -5.834984 -2.531934 -0.102940 -0.994639 0.009793 0.724070 0.360078
  0 7.428206 -5.801776 -2.447486 -0.102940 -0.994639 0.009793 0.741683 0.365949
$0b_buff_m249_2_glow.bmp
  0 7.487356 -5.819895 -3.665916 -0.102940 -0.994639 0.009793 0.741683 0.293542
  0 7.928599 -5.856077 -2.702747 -0.102940 -0.994639 0.009793 0.714286 0.350294
  0 7.741041 -5.834984 -2.531934 -0.102940 -0.994639 0.009793 0.724070 0.360078
$0b_buff_m249_2_glow.bmp
  0 7.487356 -5.819895 -3.665916 -0.102940 -0.994639 0.009793 0.741683 0.293542
  0 8.126824 -5.880438 -3.093277 -0.102940 -0.994639 0.009793 0.702544 0.326810
  0 7.928599 -5.856077 -2.702747 -0.102940 -0.994639 0.009793 0.714286 0.350294
$0b_buff_m249_2_glow.bmp
  0 7.487356 -5.819895 -3.665916 -0.102940 -0.994639 0.009793 0.741683 0.293542
  0 8.153005 -5.888457 -3.632582 -0.102940 -0.994639 0.009793 0.702544 0.293542
  0 8.126824 -5.880438 -3.093277 -0.102940 -0.994639 0.009793 0.702544 0.326810
$0b_buff_m249_2_glow.bmp
  0 7.591325 -4.815309 -3.675808 -0.102940 -0.994639 0.009793 0.741683 0.293542
  0 6.929301 -4.741796 -3.168344 -0.102940 -0.994639 0.009793 0.702544 0.326810
  0 6.955482 -4.749816 -3.707649 -0.102940 -0.994639 0.009793 0.702544 0.293542
$0b_buff_m249_2_glow.bmp
  0 7.591325 -4.815309 -3.675808 -0.102940 -0.994639 0.009793 0.741683 0.293542
  0 7.078803 -4.753252 -2.760401 -0.102940 -0.994639 0.009793 0.714286 0.350294
  0 6.929301 -4.741796 -3.168344 -0.102940 -0.994639 0.009793 0.702544 0.326810
$0b_buff_m249_2_glow.bmp
  0 7.591325 -4.815309 -3.675808 -0.102940 -0.994639 0.009793 0.741683 0.293542
  0 7.248907 -4.768999 -2.571677 -0.102940 -0.994639 0.009793 0.724070 0.360078
  0 7.078803 -4.753252 -2.760401 -0.102940 -0.994639 0.009793 0.714286 0.350294
$0b_buff_m249_2_glow.bmp
  0 7.591325 -4.815309 -3.675808 -0.102940 -0.994639 0.009793 0.741683 0.293542
  0 7.532176 -4.797190 -2.457377 -0.102940 -0.994639 0.009793 0.741683 0.365949
  0 7.248907 -4.768999 -2.571677 -0.102940 -0.994639 0.009793 0.724070 0.360078
$0b_buff_m249_2_glow.bmp
  0 7.591325 -4.815309 -3.675808 -0.102940 -0.994639 0.009793 0.741683 0.293542
  0 7.825140 -4.828352 -2.542820 -0.102940 -0.994639 0.009793 0.724070 0.360078
  0 7.532176 -4.797190 -2.457377 -0.102940 -0.994639 0.009793 0.741683 0.365949
$0b_buff_m249_2_glow.bmp
  0 7.591325 -4.815309 -3.675808 -0.102940 -0.994639 0.009793 0.741683 0.293542
  0 8.012698 -4.849445 -2.713633 -0.102940 -0.994639 0.009793 0.714286 0.350294
  0 7.825140 -4.828352 -2.542820 -0.102940 -0.994639 0.009793 0.724070 0.360078
$0b_buff_m249_2_glow.bmp
  0 7.591325 -4.815309 -3.675808 -0.102940 -0.994639 0.009793 0.741683 0.293542
  0 8.200988 -4.872782 -3.104661 -0.102940 -0.994639 0.009793 0.702544 0.326810
  0 8.012698 -4.849445 -2.713633 -0.102940 -0.994639 0.009793 0.714286 0.350294
$0b_buff_m249_2_glow.bmp
  0 7.591325 -4.815309 -3.675808 -0.102940 -0.994639 0.009793 0.741683 0.293542
  0 8.227169 -4.880802 -3.643966 -0.102940 -0.994639 0.009793 0.702544 0.293542
  0 8.200988 -4.872782 -3.104661 -0.102940 -0.994639 0.009793 0.702544 0.326810
$0b_buff_m249_2_glow.bmp
  43 7.096348 -5.672931 -2.389432 -0.842648 -0.180454 0.507327 0.780822 0.880626
  43 7.269011 -6.082604 -2.258071 -0.748202 -0.306963 0.588190 0.851272 0.923679
  43 7.222949 -5.725935 -2.212619 -0.743593 -0.185897 0.642271 0.784736 0.929550
$0b_buff_m249_2_glow.bmp
  43 7.222949 -5.725935 -2.212619 -0.743593 -0.185897 0.642271 0.784736 0.929550
  43 7.269011 -6.082604 -2.258071 -0.748202 -0.306963 0.588190 0.851272 0.923679
  43 7.383752 -6.104373 -2.182173 -0.085495 -0.382825 0.919856 0.857143 0.939335
$0b_buff_m249_2_glow.bmp
  43 7.269011 -6.082604 -2.258071 -0.748202 -0.306963 0.588190 0.851272 0.923679
  43 7.365027 -6.353971 -2.321638 -0.102661 -0.617583 0.779777 0.900196 0.919765
  43 7.383752 -6.104373 -2.182173 -0.085495 -0.382825 0.919856 0.857143 0.939335
$0b_buff_m249_2_glow.bmp
  43 7.383752 -6.104373 -2.182173 -0.085495 -0.382825 0.919856 0.857143 0.939335
  43 7.365027 -6.353971 -2.321638 -0.102661 -0.617583 0.779777 0.900196 0.919765
  43 7.507452 -6.107164 -2.246130 0.608267 -0.446684 0.656114 0.851272 0.923679
$0b_buff_m249_2_glow.bmp
  43 7.365027 -6.353971 -2.321638 -0.102661 -0.617583 0.779777 0.900196 0.919765
  43 7.620394 -6.048616 -2.371095 0.767619 -0.437105 0.468722 0.839530 0.890411
  43 7.507452 -6.107164 -2.246130 0.608267 -0.446684 0.656114 0.851272 0.923679
$0b_buff_m249_2_glow.bmp
  43 7.507452 -6.107164 -2.246130 0.608267 -0.446684 0.656114 0.851272 0.923679
  43 7.620394 -6.048616 -2.371095 0.767619 -0.437105 0.468722 0.839530 0.890411
  43 7.771931 -5.742517 -2.355600 0.733983 -0.342851 0.586278 0.780822 0.880626
$0b_buff_m249_2_glow.bmp
  0 7.012035 -4.486195 -2.887768 -0.993505 0.102332 -0.049751 0.502935 0.772994
  0 6.953148 -4.478257 -2.700500 -0.925048 0.099347 0.366629 0.504892 0.802348
  0 7.126508 -4.074109 -2.718120 -0.838248 0.394126 0.376835 0.432485 0.810176
$0b_buff_m249_2_glow.bmp
  0 7.126508 -4.074109 -2.718120 -0.838248 0.394126 0.376835 0.432485 0.810176
  0 6.953148 -4.478257 -2.700500 -0.925048 0.099347 0.366629 0.504892 0.802348
  0 7.119135 -4.494762 -2.632119 -0.588239 -0.003541 0.808680 0.504892 0.829746
$0b_buff_m249_2_glow.bmp
  0 6.953148 -4.478257 -2.700500 -0.925048 0.099347 0.366629 0.504892 0.802348
  0 7.020534 -4.928194 -2.760628 -0.909623 0.019836 0.414961 0.577299 0.798434
  0 7.119135 -4.494762 -2.632119 -0.588239 -0.003541 0.808680 0.504892 0.829746
$0b_buff_m249_2_glow.bmp
  0 7.119135 -4.494762 -2.632119 -0.588239 -0.003541 0.808680 0.504892 0.829746
  0 7.020534 -4.928194 -2.760628 -0.909623 0.019836 0.414961 0.577299 0.798434
  0 7.221154 -4.663940 -2.404367 -0.823029 -0.005265 0.567975 0.532290 0.868885
$0b_buff_m249_2_glow.bmp
  0 7.020534 -4.928194 -2.760628 -0.909623 0.019836 0.414961 0.577299 0.798434
  0 7.173629 -5.273327 -2.507754 -0.691860 -0.055106 0.719925 0.636008 0.849315
  0 7.221154 -4.663940 -2.404367 -0.823029 -0.005265 0.567975 0.532290 0.868885
$0b_buff_m249_2_glow.bmp
  0 7.221154 -4.663940 -2.404367 -0.823029 -0.005265 0.567975 0.532290 0.868885
  0 7.173629 -5.273327 -2.507754 -0.691860 -0.055106 0.719925 0.636008 0.849315
  0 7.470770 -5.332513 -2.332243 -0.070687 -0.212431 0.974616 0.653620 0.908023
$0b_buff_m249_2_glow.bmp
  0 7.135874 -3.483656 -2.896664 -0.993505 0.102332 -0.049751 0.751468 0.784736
  0 7.076987 -3.475718 -2.709396 -0.925048 0.099347 0.366629 0.751468 0.814090
  0 7.250347 -3.071569 -2.727016 -0.838248 0.394126 0.376835 0.681018 0.821918
$0b_buff_m249_2_glow.bmp
  0 7.250347 -3.071569 -2.727016 -0.838248 0.394126 0.376835 0.681018 0.821918
  0 7.076987 -3.475718 -2.709396 -0.925048 0.099347 0.366629 0.751468 0.814090
  0 7.233039 -3.491200 -2.641513 -0.594816 0.032467 0.803206 0.751468 0.841487
$0b_buff_m249_2_glow.bmp
  0 7.076987 -3.475718 -2.709396 -0.925048 0.099347 0.366629 0.751468 0.814090
  0 7.144373 -3.925655 -2.769524 -0.909623 0.019836 0.414961 0.823875 0.810176
  0 7.233039 -3.491200 -2.641513 -0.594816 0.032467 0.803206 0.751468 0.841487
$0b_buff_m249_2_glow.bmp
  0 7.233039 -3.491200 -2.641513 -0.594816 0.032467 0.803206 0.751468 0.841487
  0 7.144373 -3.925655 -2.769524 -0.909623 0.019836 0.414961 0.823875 0.810176
  0 7.344993 -3.661401 -2.413264 -0.823029 -0.005265 0.567975 0.780822 0.880626
$0b_buff_m249_2_glow.bmp
  0 7.144373 -3.925655 -2.769524 -0.909623 0.019836 0.414961 0.823875 0.810176
  0 7.303645 -4.211110 -2.517238 -0.691860 -0.055106 0.719925 0.882583 0.863014
  0 7.344993 -3.661401 -2.413264 -0.823029 -0.005265 0.567975 0.780822 0.880626
$0b_buff_m249_2_glow.bmp
  0 7.344993 -3.661401 -2.413264 -0.823029 -0.005265 0.567975 0.780822 0.880626
  0 7.303645 -4.211110 -2.517238 -0.691860 -0.055106 0.719925 0.882583 0.863014
  0 7.576798 -4.308035 -2.342330 -0.070687 -0.212431 0.974616 0.900196 0.919765
$0b_buff_m249_2_glow.bmp
  0 8.033909 -5.032573 -2.709880 0.849080 -0.161312 0.503033 0.577299 0.798434
  0 8.144631 -4.602854 -2.831050 0.993505 -0.102331 0.049753 0.502935 0.772994
  0 8.185095 -4.605149 -2.638807 0.885051 -0.087096 0.457273 0.504892 0.802348
$0b_buff_m249_2_glow.bmp
  0 8.033909 -5.032573 -2.709880 0.849080 -0.161312 0.503033 0.577299 0.798434
  0 8.211029 -4.611073 -2.967885 0.901853 -0.111383 0.417438 0.502935 0.749511
  0 8.144631 -4.602854 -2.831050 0.993505 -0.102331 0.049753 0.502935 0.772994
$0b_buff_m249_2_glow.bmp
  0 8.033909 -5.032573 -2.709880 0.849080 -0.161312 0.503033 0.577299 0.798434
  0 8.212264 -5.054887 -3.101405 0.901853 -0.111383 0.417438 0.577299 0.724070
  0 8.211029 -4.611073 -2.967885 0.901853 -0.111383 0.417438 0.502935 0.749511
$0b_buff_m249_2_glow.bmp
  0 8.033909 -5.032573 -2.709880 0.849080 -0.161312 0.503033 0.577299 0.798434
  0 7.928599 -5.856077 -2.702747 0.793131 -0.091824 0.602089 0.716243 0.798434
  0 8.212264 -5.054887 -3.101405 0.901853 -0.111383 0.417438 0.577299 0.724070
$0b_buff_m249_2_glow.bmp
  0 8.033909 -5.032573 -2.709880 0.849080 -0.161312 0.503033 0.577299 0.798434
  0 7.741041 -5.834984 -2.531934 0.492342 -0.114841 0.862792 0.718200 0.839530
  0 7.928599 -5.856077 -2.702747 0.793131 -0.091824 0.602089 0.716243 0.798434
$0b_buff_m249_2_glow.bmp
  0 8.033909 -5.032573 -2.709880 0.849080 -0.161312 0.503033 0.577299 0.798434
  0 7.789602 -5.336773 -2.476908 0.591570 -0.187300 0.784196 0.636008 0.849315
  0 7.741041 -5.834984 -2.531934 0.492342 -0.114841 0.862792 0.718200 0.839530
$0b_buff_m249_2_glow.bmp
  0 8.118008 -4.025941 -2.720767 0.849080 -0.161312 0.503033 0.823875 0.810176
  0 8.228730 -3.596222 -2.841937 0.993505 -0.102331 0.049753 0.751468 0.784736
  0 8.269194 -3.598516 -2.649693 0.885051 -0.087096 0.457273 0.751468 0.814090
$0b_buff_m249_2_glow.bmp
  0 8.118008 -4.025941 -2.720767 0.849080 -0.161312 0.503033 0.823875 0.810176
  0 8.285193 -3.603417 -2.979269 0.901853 -0.111383 0.417438 0.751468 0.761252
  0 8.228730 -3.596222 -2.841937 0.993505 -0.102331 0.049753 0.751468 0.784736
$0b_buff_m249_2_glow.bmp
  0 8.118008 -4.025941 -2.720767 0.849080 -0.161312 0.503033 0.823875 0.810176
  0 8.286428 -4.047231 -3.112790 0.901853 -0.111383 0.417438 0.825832 0.735812
  0 8.285193 -3.603417 -2.979269 0.901853 -0.111383 0.417438 0.751468 0.761252
$0b_buff_m249_2_glow.bmp
  0 8.118008 -4.025941 -2.720767 0.849080 -0.161312 0.503033 0.823875 0.810176
  0 8.012698 -4.849445 -2.713633 0.793131 -0.091824 0.602089 0.962818 0.810176
  0 8.286428 -4.047231 -3.112790 0.901853 -0.111383 0.417438 0.825832 0.735812
$0b_buff_m249_2_glow.bmp
  0 8.118008 -4.025941 -2.720767 0.849080 -0.161312 0.503033 0.823875 0.810176
  0 7.825140 -4.828352 -2.542820 0.492342 -0.114841 0.862792 0.964775 0.851272
  0 8.012698 -4.849445 -2.713633 0.793131 -0.091824 0.602089 0.962818 0.810176
$0b_buff_m249_2_glow.bmp
  0 8.118008 -4.025941 -2.720767 0.849080 -0.161312 0.503033 0.823875 0.810176
  0 7.879878 -4.270463 -2.488382 0.591570 -0.187300 0.784196 0.882583 0.863014
  0 7.825140 -4.828352 -2.542820 0.492342 -0.114841 0.862792 0.964775 0.851272
$0b_buff_m249_2_glow.bmp
  43 6.652973 -6.734174 -3.155319 -0.993505 0.102332 -0.049752 0.962818 0.737769
  43 6.737542 -5.918561 -3.166493 -0.993505 0.102332 -0.049752 0.825832 0.735812
  43 6.679086 -6.747717 -3.704623 -0.993505 0.102332 -0.049752 0.966732 0.637965
$0b_buff_m249_2_glow.bmp
  43 6.679086 -6.747717 -3.704623 -0.993505 0.102332 -0.049752 0.966732 0.637965
  43 6.737542 -5.918561 -3.166493 -0.993505 0.102332 -0.049752 0.825832 0.735812
  43 6.765629 -5.932366 -3.755747 -0.993505 0.102332 -0.049752 0.827789 0.636008
$0b_buff_m249_2_glow.bmp
  43 6.737542 -5.918561 -3.166493 -0.993505 0.102332 -0.049752 0.825832 0.735812
  43 6.789032 -5.491809 -3.316929 -0.993505 0.102332 -0.049752 0.751468 0.706458
  43 6.765629 -5.932366 -3.755747 -0.993505 0.102332 -0.049752 0.827789 0.636008
$0b_buff_m249_2_glow.bmp
  43 6.765629 -5.932366 -3.755747 -0.993505 0.102332 -0.049752 0.827789 0.636008
  43 6.789032 -5.491809 -3.316929 -0.993505 0.102332 -0.049752 0.751468 0.706458
  43 6.804328 -5.493836 -3.626545 -0.993505 0.102332 -0.049752 0.755382 0.655577
$0b_buff_m249_2_glow.bmp
  43 7.325835 -6.792436 -2.440852 -0.065304 -0.154743 0.985794 0.970646 0.904110
  43 7.050192 -6.271511 -2.497930 -0.708103 -0.045914 0.704615 0.882583 0.863014
  43 7.001887 -6.769268 -2.557132 -0.567825 -0.006558 0.823123 0.964775 0.851272
$0b_buff_m249_2_glow.bmp
  43 7.325835 -6.792436 -2.440852 -0.065304 -0.154743 0.985794 0.970646 0.904110
  43 7.365027 -6.353971 -2.321638 -0.073458 -0.242917 0.967262 0.900196 0.919765
  43 7.050192 -6.271511 -2.497930 -0.708103 -0.045914 0.704615 0.882583 0.863014
$0b_buff_m249_2_glow.bmp
  43 7.325835 -6.792436 -2.440852 -0.065304 -0.154743 0.985794 0.970646 0.904110
  43 7.705905 -6.339050 -2.465093 0.610774 -0.181760 0.770661 0.882583 0.863014
  43 7.365027 -6.353971 -2.321638 -0.073458 -0.242917 0.967262 0.900196 0.919765
$0b_buff_m249_2_glow.bmp
  43 7.325835 -6.792436 -2.440852 -0.065304 -0.154743 0.985794 0.970646 0.904110
  43 7.657601 -6.836807 -2.524296 0.470414 -0.113498 0.875117 0.964775 0.851272
  43 7.705905 -6.339050 -2.465093 0.610774 -0.181760 0.770661 0.882583 0.863014
$0b_buff_m249_2_glow.bmp
  43 7.222949 -5.725935 -2.212619 -0.743593 -0.185897 0.642271 0.784736 0.929550
  43 7.383752 -6.104373 -2.182173 -0.085495 -0.382825 0.919856 0.857143 0.939335
  43 7.415313 -5.725396 -2.032908 -0.082499 -0.346656 0.934357 0.772994 0.976517
$0b_buff_m249_2_glow.bmp
  43 7.415313 -5.725396 -2.032908 -0.082499 -0.346656 0.934357 0.772994 0.976517
  43 7.383752 -6.104373 -2.182173 -0.085495 -0.382825 0.919856 0.857143 0.939335
  43 7.620351 -5.766868 -2.192718 0.623044 -0.326664 0.710709 0.784736 0.929550
$0b_buff_m249_2_glow.bmp
  43 7.383752 -6.104373 -2.182173 -0.085495 -0.382825 0.919856 0.857143 0.939335
  43 7.507452 -6.107164 -2.246130 0.608267 -0.446684 0.656114 0.851272 0.923679
  43 7.620351 -5.766868 -2.192718 0.623044 -0.326664 0.710709 0.784736 0.929550
$0b_buff_m249_2_glow.bmp
  43 7.620351 -5.766868 -2.192718 0.623044 -0.326664 0.710709 0.784736 0.929550
  43 7.507452 -6.107164 -2.246130 0.608267 -0.446684 0.656114 0.851272 0.923679
  43 7.771931 -5.742517 -2.355600 0.733983 -0.342851 0.586278 0.780822 0.880626
$0b_buff_m249_2_glow.bmp
  0 6.795527 -5.743312 -3.159945 -0.993505 0.102332 -0.049751 0.716243 0.726027
  0 6.880967 -4.917762 -3.168074 -0.993505 0.102332 -0.049751 0.577299 0.724070
  0 6.821708 -5.751332 -3.699250 -0.993505 0.102332 -0.049751 0.718200 0.626223
$0b_buff_m249_2_glow.bmp
  0 6.821708 -5.751332 -3.699250 -0.993505 0.102332 -0.049751 0.718200 0.626223
  0 6.880967 -4.917762 -3.168074 -0.993505 0.102332 -0.049751 0.577299 0.724070
  0 6.909572 -4.926524 -3.757315 -0.993505 0.102332 -0.049751 0.581213 0.622309
$0b_buff_m249_2_glow.bmp
  0 6.880967 -4.917762 -3.168074 -0.993505 0.102332 -0.049751 0.577299 0.724070
  0 6.933533 -4.482348 -3.322190 -0.993505 0.102332 -0.049751 0.504892 0.694716
  0 6.909572 -4.926524 -3.757315 -0.993505 0.102332 -0.049751 0.581213 0.622309
$0b_buff_m249_2_glow.bmp
  0 6.909572 -4.926524 -3.757315 -0.993505 0.102332 -0.049751 0.581213 0.622309
  0 6.933533 -4.482348 -3.322190 -0.993505 0.102332 -0.049751 0.504892 0.694716
  0 6.948078 -4.486803 -3.621804 -0.993505 0.102332 -0.049751 0.506849 0.643836
$0b_buff_m249_2_glow.bmp
  0 7.470770 -5.332513 -2.332243 -0.082652 -0.348550 0.933639 0.653620 0.908023
  0 7.349339 -4.715973 -2.257190 -0.672722 -0.232454 0.702432 0.538160 0.915851
  0 7.221154 -4.663940 -2.404367 -0.789661 -0.239629 0.564813 0.532290 0.868885
$0b_buff_m249_2_glow.bmp
  0 7.470770 -5.332513 -2.332243 -0.082652 -0.348550 0.933639 0.653620 0.908023
  0 7.523322 -4.732908 -2.148364 -0.076618 -0.278398 0.957405 0.526419 0.964775
  0 7.349339 -4.715973 -2.257190 -0.672722 -0.232454 0.702432 0.538160 0.915851
$0b_buff_m249_2_glow.bmp
  0 7.470770 -5.332513 -2.332243 -0.082652 -0.348550 0.933639 0.653620 0.908023
  0 7.707001 -4.752813 -2.239280 0.538596 -0.357220 0.763091 0.538160 0.915851
  0 7.523322 -4.732908 -2.148364 -0.076618 -0.278398 0.957405 0.526419 0.964775
$0b_buff_m249_2_glow.bmp
  0 7.470770 -5.332513 -2.332243 -0.082652 -0.348550 0.933639 0.653620 0.908023
  0 7.856997 -4.729433 -2.372526 0.664653 -0.389424 0.637641 0.532290 0.868885
  0 7.707001 -4.752813 -2.239280 0.538596 -0.357220 0.763091 0.538160 0.915851
$0b_buff_m249_2_glow.bmp
  0 6.929301 -4.741796 -3.168344 -0.993505 0.102332 -0.049751 0.962818 0.737769
  0 7.014741 -3.916246 -3.176473 -0.993505 0.102332 -0.049751 0.825832 0.735812
  0 6.955482 -4.749816 -3.707649 -0.993505 0.102332 -0.049751 0.966732 0.637965
$0b_buff_m249_2_glow.bmp
  0 6.955482 -4.749816 -3.707649 -0.993505 0.102332 -0.049751 0.966732 0.637965
  0 7.014741 -3.916246 -3.176473 -0.993505 0.102332 -0.049751 0.825832 0.735812
  0 7.043346 -3.925008 -3.765714 -0.993505 0.102332 -0.049751 0.827789 0.636008
$0b_buff_m249_2_glow.bmp
  0 7.014741 -3.916246 -3.176473 -0.993505 0.102332 -0.049751 0.825832 0.735812
  0 7.067307 -3.480832 -3.330589 -0.993505 0.102332 -0.049751 0.751468 0.706458
  0 7.043346 -3.925008 -3.765714 -0.993505 0.102332 -0.049751 0.827789 0.636008
$0b_buff_m249_2_glow.bmp
  0 7.043346 -3.925008 -3.765714 -0.993505 0.102332 -0.049751 0.827789 0.636008
  0 7.067307 -3.480832 -3.330589 -0.993505 0.102332 -0.049751 0.751468 0.706458
  0 7.081852 -3.485288 -3.630203 -0.993505 0.102332 -0.049751 0.755382 0.655577
$0b_buff_m249_2_glow.bmp
  0 7.576798 -4.308035 -2.342330 -0.082652 -0.348550 0.933639 0.900196 0.919765
  0 7.450705 -3.741375 -2.276775 -0.672722 -0.232454 0.702432 0.784736 0.929550
  0 7.344993 -3.661401 -2.413264 -0.789661 -0.239629 0.564813 0.780822 0.880626
$0b_buff_m249_2_glow.bmp
  0 7.576798 -4.308035 -2.342330 -0.082652 -0.348550 0.933639 0.900196 0.919765
  0 7.623599 -3.778500 -2.187727 -0.076618 -0.278398 0.957405 0.772994 0.976517
  0 7.450705 -3.741375 -2.276775 -0.672722 -0.232454 0.702432 0.784736 0.929550
$0b_buff_m249_2_glow.bmp
  0 7.576798 -4.308035 -2.342330 -0.082652 -0.348550 0.933639 0.900196 0.919765
  0 7.808367 -3.778215 -2.258864 0.538596 -0.357220 0.763091 0.784736 0.929550
  0 7.623599 -3.778500 -2.187727 -0.076618 -0.278398 0.957405 0.772994 0.976517
$0b_buff_m249_2_glow.bmp
  0 7.576798 -4.308035 -2.342330 -0.082652 -0.348550 0.933639 0.900196 0.919765
  0 7.941096 -3.722801 -2.383412 0.664653 -0.389424 0.637641 0.780822 0.880626
  0 7.808367 -3.778215 -2.258864 0.538596 -0.357220 0.763091 0.784736 0.929550
$0b_buff_m249_2_glow.bmp
  43 6.894039 -5.081058 -3.764989 0.043852 -0.015221 -0.998922 0.757339 0.299413
  43 6.810742 -5.494686 -3.756384 0.043852 -0.015221 -0.998922 0.769080 0.301370
  43 6.731262 -5.486499 -3.760364 0.043852 -0.015221 -0.998922 0.769080 0.303327
$0b_buff_m249_2_glow.bmp
  43 6.731262 -5.486499 -3.760364 0.043852 -0.015221 -0.998922 0.769080 0.303327
  43 6.810742 -5.494686 -3.756384 0.043852 -0.015221 -0.998922 0.769080 0.301370
  43 6.765629 -5.932366 -3.755747 0.043852 -0.015221 -0.998922 0.780822 0.301370
$0b_buff_m249_2_glow.bmp
  43 6.810742 -5.494686 -3.756384 0.043852 -0.015221 -0.998922 0.769080 0.301370
  43 7.506903 -5.656867 -3.720929 0.043852 -0.015221 -0.998922 0.772994 0.281800
  43 6.765629 -5.932366 -3.755747 0.043852 -0.015221 -0.998922 0.780822 0.301370
$0b_buff_m249_2_glow.bmp
  43 6.789032 -5.491809 -3.316929 0.224299 0.974514 -0.003604 0.538160 0.234834
  43 7.481284 -5.643389 -3.181613 0.224299 0.974514 -0.003604 0.620352 0.326810
  43 6.804328 -5.493836 -3.626545 0.224299 0.974514 -0.003604 0.555773 0.211350
$0b_buff_m249_2_glow.bmp
  43 6.804328 -5.493836 -3.626545 0.224299 0.974514 -0.003604 0.555773 0.211350
  43 7.481284 -5.643389 -3.181613 0.224299 0.974514 -0.003604 0.620352 0.326810
  43 6.810742 -5.494686 -3.756384 0.224299 0.974514 -0.003604 0.565558 0.199609
$0b_buff_m249_2_glow.bmp
  43 7.481284 -5.643389 -3.181613 0.224299 0.974514 -0.003604 0.620352 0.326810
  43 7.506903 -5.656867 -3.720929 0.224299 0.974514 -0.003604 0.659491 0.279843
  43 6.810742 -5.494686 -3.756384 0.224299 0.974514 -0.003604 0.565558 0.199609
$0b_buff_m249_2_glow.bmp
  43 6.765629 -5.932366 -3.755747 0.067921 -0.070037 -0.995229 0.780822 0.301370
  43 7.506903 -5.656867 -3.720929 0.067921 -0.070037 -0.995229 0.772994 0.281800
  43 6.679086 -6.747717 -3.704623 0.067921 -0.070037 -0.995229 0.806262 0.303327
$0b_buff_m249_2_glow.bmp
  43 6.679086 -6.747717 -3.704623 0.067921 -0.070037 -0.995229 0.806262 0.303327
  43 7.506903 -5.656867 -3.720929 0.067921 -0.070037 -0.995229 0.772994 0.281800
  43 7.384475 -6.820373 -3.669299 0.067921 -0.070037 -0.995229 0.806262 0.283757
$0b_buff_m249_2_glow.bmp
  43 7.506903 -5.656867 -3.720929 0.067921 -0.070037 -0.995229 0.772994 0.281800
  43 8.089864 -6.893029 -3.633975 0.067921 -0.070037 -0.995229 0.806262 0.303327
  43 7.384475 -6.820373 -3.669299 0.067921 -0.070037 -0.995229 0.806262 0.283757
$0b_buff_m249_2_glow.bmp
  0 6.880967 -4.917762 -3.168074 -0.942416 0.078577 0.325080 0.577299 0.724070
  0 7.020534 -4.928194 -2.760628 -0.909623 0.019836 0.414961 0.577299 0.798434
  0 6.959213 -4.482134 -3.030573 -0.942416 0.078577 0.325080 0.502935 0.749511
$0b_buff_m249_2_glow.bmp
  0 6.959213 -4.482134 -3.030573 -0.942416 0.078577 0.325080 0.502935 0.749511
  0 7.020534 -4.928194 -2.760628 -0.909623 0.019836 0.414961 0.577299 0.798434
  0 7.012035 -4.486195 -2.887768 -0.993505 0.102332 -0.049751 0.502935 0.772994
$0b_buff_m249_2_glow.bmp
  0 7.020534 -4.928194 -2.760628 -0.909623 0.019836 0.414961 0.577299 0.798434
  0 6.953148 -4.478257 -2.700500 -0.925048 0.099347 0.366629 0.504892 0.802348
  0 7.012035 -4.486195 -2.887768 -0.993505 0.102332 -0.049751 0.502935 0.772994
$0b_buff_m249_2_glow.bmp
  0 7.016941 -4.083127 -3.764644 0.043522 -0.015187 -0.998937 0.757339 0.299413
  0 6.954865 -4.488883 -3.761624 0.043522 -0.015187 -0.998937 0.769080 0.301370
  0 6.885320 -4.481719 -3.765106 0.043522 -0.015187 -0.998937 0.769080 0.303327
$0b_buff_m249_2_glow.bmp
  0 6.885320 -4.481719 -3.765106 0.043522 -0.015187 -0.998937 0.769080 0.303327
  0 6.954865 -4.488883 -3.761624 0.043522 -0.015187 -0.998937 0.769080 0.301370
  0 6.909572 -4.926524 -3.757315 0.043522 -0.015187 -0.998937 0.780822 0.301370
$0b_buff_m249_2_glow.bmp
  0 6.954865 -4.488883 -3.761624 0.043522 -0.015187 -0.998937 0.769080 0.301370
  0 7.611249 -4.646963 -3.727408 0.043522 -0.015187 -0.998937 0.772994 0.281800
  0 6.909572 -4.926524 -3.757315 0.043522 -0.015187 -0.998937 0.780822 0.301370
$0b_buff_m249_2_glow.bmp
  0 6.933533 -4.482348 -3.322190 0.232182 0.972667 -0.003194 0.551859 0.056751
  0 7.585068 -4.638943 -3.188103 0.232182 0.972667 -0.003194 0.675147 0.074364
  0 6.948078 -4.486803 -3.621804 0.232182 0.972667 -0.003194 0.551859 0.025440
$0b_buff_m249_2_glow.bmp
  0 6.948078 -4.486803 -3.621804 0.232182 0.972667 -0.003194 0.551859 0.025440
  0 7.585068 -4.638943 -3.188103 0.232182 0.972667 -0.003194 0.675147 0.074364
  0 6.954865 -4.488883 -3.761624 0.232182 0.972667 -0.003194 0.551859 0.011742
$0b_buff_m249_2_glow.bmp
  0 7.585068 -4.638943 -3.188103 0.232182 0.972667 -0.003194 0.675147 0.074364
  0 7.611249 -4.646963 -3.727408 0.232182 0.972667 -0.003194 0.675147 0.011742
  0 6.954865 -4.488883 -3.761624 0.232182 0.972667 -0.003194 0.551859 0.011742
$0b_buff_m249_2_glow.bmp
  0 7.014741 -3.916246 -3.176473 -0.942416 0.078577 0.325080 0.825832 0.735812
  0 7.144373 -3.925655 -2.769524 -0.909623 0.019836 0.414961 0.823875 0.810176
  0 7.092987 -3.480619 -3.038972 -0.942416 0.078577 0.325080 0.751468 0.761252
$0b_buff_m249_2_glow.bmp
  0 7.092987 -3.480619 -3.038972 -0.942416 0.078577 0.325080 0.751468 0.761252
  0 7.144373 -3.925655 -2.769524 -0.909623 0.019836 0.414961 0.823875 0.810176
  0 7.135874 -3.483656 -2.896664 -0.993505 0.102332 -0.049751 0.751468 0.784736
$0b_buff_m249_2_glow.bmp
  0 7.144373 -3.925655 -2.769524 -0.909623 0.019836 0.414961 0.823875 0.810176
  0 7.076987 -3.475718 -2.709396 -0.925048 0.099347 0.366629 0.751468 0.814090
  0 7.135874 -3.483656 -2.896664 -0.993505 0.102332 -0.049751 0.751468 0.784736
$0b_buff_m249_2_glow.bmp
  0 7.131874 -3.069618 -3.774136 0.043522 -0.015187 -0.998937 0.757339 0.299413
  0 7.088640 -3.487367 -3.770023 0.043522 -0.015187 -0.998937 0.769080 0.301370
  0 7.019094 -3.480203 -3.773505 0.043522 -0.015187 -0.998937 0.769080 0.303327
$0b_buff_m249_2_glow.bmp
  0 7.019094 -3.480203 -3.773505 0.043522 -0.015187 -0.998937 0.769080 0.303327
  0 7.088640 -3.487367 -3.770023 0.043522 -0.015187 -0.998937 0.769080 0.301370
  0 7.043346 -3.925008 -3.765714 0.043522 -0.015187 -0.998937 0.780822 0.301370
$0b_buff_m249_2_glow.bmp
  0 7.088640 -3.487367 -3.770023 0.043522 -0.015187 -0.998937 0.769080 0.301370
  0 7.715218 -3.642377 -3.737300 0.043522 -0.015187 -0.998937 0.772994 0.281800
  0 7.043346 -3.925008 -3.765714 0.043522 -0.015187 -0.998937 0.780822 0.301370
$0b_buff_m249_2_glow.bmp
  0 7.067307 -3.480832 -3.330589 0.232182 0.972667 -0.003194 0.039139 0.080235
  0 7.689037 -3.634357 -3.197994 0.232182 0.972667 -0.003194 0.162427 0.105675
  0 7.081852 -3.485288 -3.630203 0.232182 0.972667 -0.003194 0.039139 0.039139
$0b_buff_m249_2_glow.bmp
  0 7.081852 -3.485288 -3.630203 0.232182 0.972667 -0.003194 0.039139 0.039139
  0 7.689037 -3.634357 -3.197994 0.232182 0.972667 -0.003194 0.162427 0.105675
  0 7.088640 -3.487367 -3.770023 0.232182 0.972667 -0.003194 0.039139 0.017613
$0b_buff_m249_2_glow.bmp
  0 7.689037 -3.634357 -3.197994 0.232182 0.972667 -0.003194 0.162427 0.105675
  0 7.715218 -3.642377 -3.737300 0.232182 0.972667 -0.003194 0.162427 0.017613
  0 7.088640 -3.487367 -3.770023 0.232182 0.972667 -0.003194 0.039139 0.017613
$0b_buff_m249_2_glow.bmp
  43 8.089864 -6.893029 -3.633975 0.993506 -0.102331 0.049751 0.966732 0.637965
  43 8.176406 -6.077678 -3.685099 0.993506 -0.102331 0.049751 0.827789 0.636008
  43 8.148320 -6.063873 -3.095845 0.993506 -0.102331 0.049751 0.825832 0.735812
$0b_buff_m249_2_glow.bmp
  43 8.148320 -6.063873 -3.095845 0.993506 -0.102331 0.049751 0.825832 0.735812
  43 8.176406 -6.077678 -3.685099 0.993506 -0.102331 0.049751 0.827789 0.636008
  43 8.199809 -5.637121 -3.246281 0.993506 -0.102331 0.049751 0.751468 0.706458
$0b_buff_m249_2_glow.bmp
  43 8.176406 -6.077678 -3.685099 0.993506 -0.102331 0.049751 0.827789 0.636008
  43 8.215105 -5.639148 -3.555897 0.993506 -0.102331 0.049751 0.755382 0.655577
  43 8.199809 -5.637121 -3.246281 0.993506 -0.102331 0.049751 0.751468 0.706458
$0b_buff_m249_2_glow.bmp
  43 7.506903 -5.656867 -3.720929 -0.019982 0.999675 -0.015837 0.659491 0.277886
  43 7.481284 -5.643389 -3.181613 -0.019982 0.999675 -0.015837 0.620352 0.326810
  43 8.221520 -5.639998 -3.685735 -0.019982 0.999675 -0.015837 0.753425 0.358121
$0b_buff_m249_2_glow.bmp
  43 8.221520 -5.639998 -3.685735 -0.019982 0.999675 -0.015837 0.753425 0.358121
  43 7.481284 -5.643389 -3.181613 -0.019982 0.999675 -0.015837 0.620352 0.326810
  43 8.215105 -5.639148 -3.555897 -0.019982 0.999675 -0.015837 0.743640 0.369863
$0b_buff_m249_2_glow.bmp
  43 7.481284 -5.643389 -3.181613 -0.019982 0.999675 -0.015837 0.620352 0.326810
  43 8.199809 -5.637121 -3.246281 -0.019982 0.999675 -0.015837 0.724070 0.391389
  43 8.215105 -5.639148 -3.555897 -0.019982 0.999675 -0.015837 0.743640 0.369863
$0b_buff_m249_2_glow.bmp
  43 7.506903 -5.656867 -3.720929 0.043852 -0.015221 -0.998922 0.772994 0.281800
  43 8.221520 -5.639998 -3.685735 0.043852 -0.015221 -0.998922 0.769080 0.301370
  43 8.176406 -6.077678 -3.685099 0.043852 -0.015221 -0.998922 0.780822 0.301370
$0b_buff_m249_2_glow.bmp
  43 8.176406 -6.077678 -3.685099 0.043852 -0.015221 -0.998922 0.780822 0.301370
  43 8.221520 -5.639998 -3.685735 0.043852 -0.015221 -0.998922 0.769080 0.301370
  43 8.301000 -5.648184 -3.681755 0.043852 -0.015221 -0.998922 0.769080 0.303327
$0b_buff_m249_2_glow.bmp
  43 8.221520 -5.639998 -3.685735 0.043852 -0.015221 -0.998922 0.769080 0.301370
  43 8.225336 -5.218184 -3.698321 0.043852 -0.015221 -0.998922 0.757339 0.299413
  43 8.301000 -5.648184 -3.681755 0.043852 -0.015221 -0.998922 0.769080 0.303327
$0b_buff_m249_2_glow.bmp
  0 8.153005 -5.888457 -3.632582 0.993505 -0.102331 0.049753 0.718200 0.626223
  0 8.240869 -5.063649 -3.690646 0.993505 -0.102331 0.049753 0.581213 0.622309
  0 8.212264 -5.054887 -3.101405 0.993505 -0.102331 0.049753 0.577299 0.724070
$0b_buff_m249_2_glow.bmp
  0 8.212264 -5.054887 -3.101405 0.993505 -0.102331 0.049753 0.577299 0.724070
  0 8.240869 -5.063649 -3.690646 0.993505 -0.102331 0.049753 0.581213 0.622309
  0 8.264830 -4.619473 -3.255522 0.993505 -0.102331 0.049753 0.504892 0.694716
$0b_buff_m249_2_glow.bmp
  0 8.240869 -5.063649 -3.690646 0.993505 -0.102331 0.049753 0.581213 0.622309
  0 8.279375 -4.623929 -3.555136 0.993505 -0.102331 0.049753 0.506849 0.643836
  0 8.264830 -4.619473 -3.255522 0.993505 -0.102331 0.049753 0.504892 0.694716
$0b_buff_m249_2_glow.bmp
  0 7.611249 -4.646963 -3.727408 -0.028074 0.999474 -0.016221 0.675147 0.011742
  0 7.585068 -4.638943 -3.188103 -0.028074 0.999474 -0.016221 0.675147 0.074364
  0 8.286162 -4.626008 -3.694956 -0.028074 0.999474 -0.016221 0.796477 0.011742
$0b_buff_m249_2_glow.bmp
  0 8.286162 -4.626008 -3.694956 -0.028074 0.999474 -0.016221 0.796477 0.011742
  0 7.585068 -4.638943 -3.188103 -0.028074 0.999474 -0.016221 0.675147 0.074364
  0 8.279375 -4.623929 -3.555136 -0.028074 0.999474 -0.016221 0.796477 0.025440
$0b_buff_m249_2_glow.bmp
  0 7.585068 -4.638943 -3.188103 -0.028074 0.999474 -0.016221 0.675147 0.074364
  0 8.264830 -4.619473 -3.255522 -0.028074 0.999474 -0.016221 0.796477 0.056751
  0 8.279375 -4.623929 -3.555136 -0.028074 0.999474 -0.016221 0.796477 0.025440
$0b_buff_m249_2_glow.bmp
  0 7.611249 -4.646963 -3.727408 0.043522 -0.015187 -0.998937 0.772994 0.281800
  0 8.286162 -4.626008 -3.694956 0.043522 -0.015187 -0.998937 0.769080 0.301370
  0 8.240869 -5.063649 -3.690646 0.043522 -0.015187 -0.998937 0.780822 0.301370
$0b_buff_m249_2_glow.bmp
  0 8.240869 -5.063649 -3.690646 0.043522 -0.015187 -0.998937 0.780822 0.301370
  0 8.286162 -4.626008 -3.694956 0.043522 -0.015187 -0.998937 0.769080 0.301370
  0 8.355708 -4.633171 -3.691473 0.043522 -0.015187 -0.998937 0.769080 0.303327
$0b_buff_m249_2_glow.bmp
  0 8.286162 -4.626008 -3.694956 0.043522 -0.015187 -0.998937 0.769080 0.301370
  0 8.308498 -4.216159 -3.699966 0.043522 -0.015187 -0.998937 0.757339 0.299413
  0 8.355708 -4.633171 -3.691473 0.043522 -0.015187 -0.998937 0.769080 0.303327
$0b_buff_m249_2_glow.bmp
  0 8.227169 -4.880802 -3.643966 0.993505 -0.102331 0.049753 0.966732 0.637965
  0 8.315033 -4.055994 -3.702031 0.993505 -0.102331 0.049753 0.827789 0.636008
  0 8.286428 -4.047231 -3.112790 0.993505 -0.102331 0.049753 0.825832 0.735812
$0b_buff_m249_2_glow.bmp
  0 8.286428 -4.047231 -3.112790 0.993505 -0.102331 0.049753 0.825832 0.735812
  0 8.315033 -4.055994 -3.702031 0.993505 -0.102331 0.049753 0.827789 0.636008
  0 8.338994 -3.611818 -3.266906 0.993505 -0.102331 0.049753 0.751468 0.706458
$0b_buff_m249_2_glow.bmp
  0 8.315033 -4.055994 -3.702031 0.993505 -0.102331 0.049753 0.827789 0.636008
  0 8.353539 -3.616273 -3.566520 0.993505 -0.102331 0.049753 0.755382 0.655577
  0 8.338994 -3.611818 -3.266906 0.993505 -0.102331 0.049753 0.751468 0.706458
$0b_buff_m249_2_glow.bmp
  0 7.715218 -3.642377 -3.737300 -0.028074 0.999474 -0.016221 0.162427 0.017613
  0 7.689037 -3.634357 -3.197994 -0.028074 0.999474 -0.016221 0.162427 0.105675
  0 8.360326 -3.618352 -3.706340 -0.028074 0.999474 -0.016221 0.285714 0.017613
$0b_buff_m249_2_glow.bmp
  0 8.360326 -3.618352 -3.706340 -0.028074 0.999474 -0.016221 0.285714 0.017613
  0 7.689037 -3.634357 -3.197994 -0.028074 0.999474 -0.016221 0.162427 0.105675
  0 8.353539 -3.616273 -3.566520 -0.028074 0.999474 -0.016221 0.285714 0.039139
$0b_buff_m249_2_glow.bmp
  0 7.689037 -3.634357 -3.197994 -0.028074 0.999474 -0.016221 0.162427 0.105675
  0 8.338994 -3.611818 -3.266906 -0.028074 0.999474 -0.016221 0.285714 0.080235
  0 8.353539 -3.616273 -3.566520 -0.028074 0.999474 -0.016221 0.285714 0.039139
$0b_buff_m249_2_glow.bmp
  0 7.715218 -3.642377 -3.737300 0.043522 -0.015187 -0.998937 0.772994 0.281800
  0 8.360326 -3.618352 -3.706340 0.043522 -0.015187 -0.998937 0.769080 0.301370
  0 8.315033 -4.055994 -3.702031 0.043522 -0.015187 -0.998937 0.780822 0.301370
$0b_buff_m249_2_glow.bmp
  0 8.315033 -4.055994 -3.702031 0.043522 -0.015187 -0.998937 0.780822 0.301370
  0 8.360326 -3.618352 -3.706340 0.043522 -0.015187 -0.998937 0.769080 0.301370
  0 8.429872 -3.625516 -3.702857 0.043522 -0.015187 -0.998937 0.769080 0.303327
$0b_buff_m249_2_glow.bmp
  0 8.360326 -3.618352 -3.706340 0.043522 -0.015187 -0.998937 0.769080 0.301370
  0 8.403561 -3.200604 -3.710453 0.043522 -0.015187 -0.998937 0.757339 0.299413
  0 8.429872 -3.625516 -3.702857 0.043522 -0.015187 -0.998937 0.769080 0.303327
$0b_buff_m249_2_glow.bmp
  43 6.984517 -5.500886 -2.616356 -0.564546 0.035395 0.824643 0.751468 0.841487
  43 7.012151 -5.081642 -2.707847 -0.806417 0.436438 0.399016 0.681018 0.821918
  43 6.799205 -5.481901 -2.695722 -0.915733 0.098608 0.389500 0.751468 0.814090
$0b_buff_m249_2_glow.bmp
  43 6.799205 -5.481901 -2.695722 -0.915733 0.098608 0.389500 0.751468 0.814090
  43 7.012151 -5.081642 -2.707847 -0.806417 0.436438 0.399016 0.681018 0.821918
  43 6.868191 -5.489283 -2.882501 -0.993505 0.102332 -0.049752 0.751468 0.784736
$0b_buff_m249_2_glow.bmp
  43 7.365027 -6.353971 -2.321638 -0.102661 -0.617583 0.779777 0.900196 0.919765
  43 7.269011 -6.082604 -2.258071 -0.748202 -0.306963 0.588190 0.851272 0.923679
  43 7.183252 -6.003590 -2.392986 -0.882956 -0.267093 0.386069 0.839530 0.890411
$0b_buff_m249_2_glow.bmp
  43 7.183252 -6.003590 -2.392986 -0.882956 -0.267093 0.386069 0.839530 0.890411
  43 7.269011 -6.082604 -2.258071 -0.748202 -0.306963 0.588190 0.851272 0.923679
  43 7.096348 -5.672931 -2.389432 -0.842648 -0.180454 0.507327 0.780822 0.880626
$0b_buff_m249_2_glow.bmp
  43 6.868191 -5.489283 -2.882501 0.221387 0.973742 -0.053055 0.502935 0.303327
  43 7.481284 -5.643389 -3.181613 0.221387 0.973742 -0.053055 0.620352 0.326810
  43 6.815488 -5.484059 -3.025313 0.221387 0.973742 -0.053055 0.510763 0.275930
$0b_buff_m249_2_glow.bmp
  43 6.815488 -5.484059 -3.025313 0.221387 0.973742 -0.053055 0.510763 0.275930
  43 7.481284 -5.643389 -3.181613 0.221387 0.973742 -0.053055 0.620352 0.326810
  43 6.789032 -5.491809 -3.316929 0.221387 0.973742 -0.053055 0.538160 0.234834
$0b_buff_m249_2_glow.bmp
  0 7.012035 -4.486195 -2.887768 0.228950 0.972016 -0.052598 0.569472 0.131115
  0 7.585068 -4.638943 -3.188103 0.228950 0.972016 -0.052598 0.675147 0.074364
  0 6.959213 -4.482134 -3.030573 0.228950 0.972016 -0.052598 0.559687 0.105675
$0b_buff_m249_2_glow.bmp
  0 6.959213 -4.482134 -3.030573 0.228950 0.972016 -0.052598 0.559687 0.105675
  0 7.585068 -4.638943 -3.188103 0.228950 0.972016 -0.052598 0.675147 0.074364
  0 6.933533 -4.482348 -3.322190 0.228950 0.972016 -0.052598 0.551859 0.056751
$0b_buff_m249_2_glow.bmp
  0 6.821708 -5.751332 -3.699250 0.043958 -0.058122 -0.997341 0.806262 0.303327
  0 7.611249 -4.646963 -3.727408 0.043958 -0.058122 -0.997341 0.772994 0.281800
  0 7.487356 -5.819895 -3.665916 0.043958 -0.058122 -0.997341 0.806262 0.283757
$0b_buff_m249_2_glow.bmp
  0 7.487356 -5.819895 -3.665916 0.043958 -0.058122 -0.997341 0.806262 0.283757
  0 7.611249 -4.646963 -3.727408 0.043958 -0.058122 -0.997341 0.772994 0.281800
  0 8.153005 -5.888457 -3.632582 0.043958 -0.058122 -0.997341 0.806262 0.303327
$0b_buff_m249_2_glow.bmp
  0 7.135874 -3.483656 -2.896664 0.228950 0.972016 -0.052598 0.056751 0.187867
  0 7.689037 -3.634357 -3.197994 0.228950 0.972016 -0.052598 0.162427 0.105675
  0 7.092987 -3.480619 -3.038972 0.228950 0.972016 -0.052598 0.046967 0.150685
$0b_buff_m249_2_glow.bmp
  0 7.092987 -3.480619 -3.038972 0.228950 0.972016 -0.052598 0.046967 0.150685
  0 7.689037 -3.634357 -3.197994 0.228950 0.972016 -0.052598 0.162427 0.105675
  0 7.067307 -3.480832 -3.330589 0.228950 0.972016 -0.052598 0.039139 0.080235
$0b_buff_m249_2_glow.bmp
  0 6.955482 -4.749816 -3.707649 0.043958 -0.058122 -0.997341 0.806262 0.303327
  0 7.715218 -3.642377 -3.737300 0.043958 -0.058122 -0.997341 0.772994 0.281800
  0 7.591325 -4.815309 -3.675808 0.043958 -0.058122 -0.997341 0.806262 0.283757
$0b_buff_m249_2_glow.bmp
  0 7.591325 -4.815309 -3.675808 0.043958 -0.058122 -0.997341 0.806262 0.283757
  0 7.715218 -3.642377 -3.737300 0.043958 -0.058122 -0.997341 0.772994 0.281800
  0 8.227169 -4.880802 -3.643966 0.043958 -0.058122 -0.997341 0.806262 0.303327
$0b_buff_m249_2_glow.bmp
  43 7.938282 -5.599126 -2.568594 0.475604 -0.071738 0.876729 0.751468 0.841487
  43 8.130502 -5.619026 -2.629054 0.873567 -0.085691 0.479101 0.751468 0.814090
  43 8.005656 -5.183975 -2.658095 0.834832 0.267388 0.481205 0.681018 0.821918
$0b_buff_m249_2_glow.bmp
  43 8.005656 -5.183975 -2.658095 0.834832 0.267388 0.481205 0.681018 0.821918
  43 8.130502 -5.619026 -2.629054 0.873567 -0.085691 0.479101 0.751468 0.814090
  43 8.080267 -5.614129 -2.821804 0.993506 -0.102331 0.049751 0.751468 0.784736
$0b_buff_m249_2_glow.bmp
  43 8.080267 -5.614129 -2.821804 -0.012421 0.997824 -0.064747 0.663405 0.438356
  43 8.146785 -5.621184 -2.958645 -0.012421 0.997824 -0.064747 0.686888 0.424658
  43 7.481284 -5.643389 -3.181613 -0.012421 0.997824 -0.064747 0.620352 0.326810
$0b_buff_m249_2_glow.bmp
  43 7.481284 -5.643389 -3.181613 -0.012421 0.997824 -0.064747 0.620352 0.326810
  43 8.146785 -5.621184 -2.958645 -0.012421 0.997824 -0.064747 0.686888 0.424658
  43 8.199809 -5.637121 -3.246281 -0.012421 0.997824 -0.064747 0.724070 0.391389
$0b_buff_m249_2_glow.bmp
  0 8.144631 -4.602854 -2.831050 -0.020173 0.997676 -0.065081 0.780822 0.131115
  0 8.211029 -4.611073 -2.967885 -0.020173 0.997676 -0.065081 0.790607 0.105675
  0 7.585068 -4.638943 -3.188103 -0.020173 0.997676 -0.065081 0.675147 0.074364
$0b_buff_m249_2_glow.bmp
  0 7.585068 -4.638943 -3.188103 -0.020173 0.997676 -0.065081 0.675147 0.074364
  0 8.211029 -4.611073 -2.967885 -0.020173 0.997676 -0.065081 0.790607 0.105675
  0 8.264830 -4.619473 -3.255522 -0.020173 0.997676 -0.065081 0.796477 0.056751
$0b_buff_m249_2_glow.bmp
  0 8.228730 -3.596222 -2.841937 -0.020173 0.997676 -0.065081 0.268102 0.187867
  0 8.285193 -3.603417 -2.979269 -0.020173 0.997676 -0.065081 0.277886 0.150685
  0 7.689037 -3.634357 -3.197994 -0.020173 0.997676 -0.065081 0.162427 0.105675
$0b_buff_m249_2_glow.bmp
  0 7.689037 -3.634357 -3.197994 -0.020173 0.997676 -0.065081 0.162427 0.105675
  0 8.285193 -3.603417 -2.979269 -0.020173 0.997676 -0.065081 0.277886 0.150685
  0 8.338994 -3.611818 -3.266906 -0.020173 0.997676 -0.065081 0.285714 0.080235
$0b_buff_m249_2_glow.bmp
  43 6.822003 -6.751001 -2.746362 -0.835868 0.075523 0.543710 0.962818 0.810176
  43 6.737542 -5.918561 -3.166493 -0.934876 0.076801 0.346566 0.825832 0.735812
  43 6.652973 -6.734174 -3.155319 -0.915733 0.098608 0.389500 0.962818 0.737769
$0b_buff_m249_2_glow.bmp
  43 6.765629 -5.932366 -3.755747 -0.895449 -0.062391 0.440770 0.827789 0.636008
  43 6.804328 -5.493836 -3.626545 -0.895449 -0.062391 0.440770 0.755382 0.655577
  43 6.731262 -5.486499 -3.760364 -0.895449 -0.062391 0.440770 0.755382 0.628180
$0b_buff_m249_2_glow.bmp
  43 6.815488 -5.484059 -3.025313 -0.707297 0.303625 0.638391 0.751468 0.761252
  43 6.864434 -5.077135 -3.165733 -0.707297 0.303625 0.638391 0.681018 0.733855
  43 6.693240 -5.471671 -3.171607 -0.707297 0.303625 0.638391 0.751468 0.731898
$0b_buff_m249_2_glow.bmp
  43 6.693240 -5.471671 -3.171607 -0.768872 0.337780 -0.542900 0.751468 0.731898
  43 6.864434 -5.077135 -3.165733 -0.768872 0.337780 -0.542900 0.681018 0.733855
  43 6.789032 -5.491809 -3.316929 -0.768872 0.337780 -0.542900 0.751468 0.706458
$0b_buff_m249_2_glow.bmp
  43 6.815488 -5.484059 -3.025313 -0.756115 -0.060663 0.651622 0.751468 0.761252
  43 6.693240 -5.471671 -3.171607 -0.756115 -0.060663 0.651622 0.751468 0.731898
  43 6.737542 -5.918561 -3.166493 -0.756115 -0.060663 0.651622 0.825832 0.735812
$0b_buff_m249_2_glow.bmp
  43 6.693240 -5.471671 -3.171607 -0.830154 -0.091388 -0.549993 0.751468 0.731898
  43 6.789032 -5.491809 -3.316929 -0.830154 -0.091388 -0.549993 0.751468 0.706458
  43 6.737542 -5.918561 -3.166493 -0.830154 -0.091388 -0.549993 0.825832 0.735812
$0b_buff_m249_2_glow.bmp
  43 7.420811 -5.837039 -2.372328 0.251087 0.922861 -0.292031 0.524462 0.440313
  43 7.222949 -5.725935 -2.212619 0.251087 0.922861 -0.292031 0.467710 0.450098
  43 7.415313 -5.725396 -2.032908 0.251087 0.922861 -0.292031 0.469667 0.504892
$0b_buff_m249_2_glow.bmp
  43 7.420811 -5.837039 -2.372328 0.448686 0.893362 -0.024189 0.524462 0.440313
  43 7.096348 -5.672931 -2.389432 0.448686 0.893362 -0.024189 0.479452 0.399217
  43 7.222949 -5.725935 -2.212619 0.448686 0.893362 -0.024189 0.467710 0.450098
$0b_buff_m249_2_glow.bmp
  43 7.183252 -6.003590 -2.392986 -0.505693 -0.090119 0.857994 0.839530 0.890411
  43 7.050192 -6.271511 -2.497930 -0.505693 -0.090119 0.857994 0.882583 0.863014
  43 7.365027 -6.353971 -2.321638 -0.505693 -0.090119 0.857994 0.900196 0.919765
$0b_buff_m249_2_glow.bmp
  43 7.096348 -5.672931 -2.389432 -0.817461 -0.004492 0.575966 0.780822 0.880626
  43 7.050192 -6.271511 -2.497930 -0.708103 -0.045914 0.704615 0.882583 0.863014
  43 7.183252 -6.003590 -2.392986 -0.451107 -0.124737 0.883710 0.839530 0.890411
$0b_buff_m249_2_glow.bmp
  43 6.894039 -5.081058 -3.764989 -0.839281 0.333563 0.429352 0.684932 0.634051
  43 6.731262 -5.486499 -3.760364 -0.839281 0.333563 0.429352 0.755382 0.628180
  43 6.804328 -5.493836 -3.626545 -0.839281 0.333563 0.429352 0.755382 0.655577
$0b_buff_m249_2_glow.bmp
  43 6.868191 -5.489283 -2.882501 0.907039 -0.150247 -0.393327 0.502935 0.303327
  43 7.012151 -5.081642 -2.707847 0.907039 -0.150247 -0.393327 0.422701 0.313112
  43 6.984517 -5.500886 -2.616356 0.907039 -0.150247 -0.393327 0.489237 0.350294
$0b_buff_m249_2_glow.bmp
  43 6.789032 -5.491809 -3.316929 0.982538 -0.152559 -0.106513 0.538160 0.234834
  43 6.864434 -5.077135 -3.165733 0.982538 -0.152559 -0.106513 0.461840 0.217221
  43 6.815488 -5.484059 -3.025313 0.982538 -0.152559 -0.106513 0.510763 0.275930
$0b_buff_m249_2_glow.bmp
  43 6.810742 -5.494686 -3.756384 0.979697 -0.194032 0.050444 0.565558 0.199609
  43 6.894039 -5.081058 -3.764989 0.979697 -0.194032 0.050444 0.510763 0.152642
  43 6.804328 -5.493836 -3.626545 0.979697 -0.194032 0.050444 0.555773 0.211350
$0b_buff_m249_2_glow.bmp
  43 7.420811 -5.837039 -2.372328 0.388184 0.821861 0.416963 0.524462 0.440313
  43 6.984517 -5.500886 -2.616356 0.388184 0.821861 0.416963 0.489237 0.350294
  43 7.096348 -5.672931 -2.389432 0.388184 0.821861 0.416963 0.479452 0.399217
$0b_buff_m249_2_glow.bmp
  43 6.984517 -5.500886 -2.616356 0.174967 0.723411 0.667880 0.489237 0.350294
  43 7.420811 -5.837039 -2.372328 0.174967 0.723411 0.667880 0.524462 0.440313
  43 7.452172 -5.639532 -2.592345 0.174967 0.723411 0.667880 0.555773 0.403131
$0b_buff_m249_2_glow.bmp
  43 7.481284 -5.643389 -3.181613 0.224299 0.974514 -0.003604 0.620352 0.326810
  43 6.868191 -5.489283 -2.882501 0.224299 0.974514 -0.003604 0.502935 0.303327
  43 7.452172 -5.639532 -2.592345 0.224299 0.974514 -0.003604 0.555773 0.403131
$0b_buff_m249_2_glow.bmp
  0 6.909572 -4.926524 -3.757315 -0.907230 -0.053851 0.417173 0.581213 0.622309
  0 6.948078 -4.486803 -3.621804 -0.907230 -0.053851 0.417173 0.506849 0.643836
  0 6.885320 -4.481719 -3.765106 -0.907230 -0.053851 0.417173 0.508806 0.616438
$0b_buff_m249_2_glow.bmp
  0 6.959213 -4.482134 -3.030573 -0.736527 0.271826 0.619385 0.502935 0.749511
  0 6.999300 -4.065442 -3.175004 -0.736527 0.271826 0.619385 0.434442 0.720157
  0 6.846780 -4.471934 -3.176363 -0.736527 0.271826 0.619385 0.504892 0.720157
$0b_buff_m249_2_glow.bmp
  0 6.846780 -4.471934 -3.176363 -0.796932 0.297916 -0.525495 0.504892 0.720157
  0 6.999300 -4.065442 -3.175004 -0.796932 0.297916 -0.525495 0.434442 0.720157
  0 6.933533 -4.482348 -3.322190 -0.796932 0.297916 -0.525495 0.504892 0.694716
$0b_buff_m249_2_glow.bmp
  0 6.959213 -4.482134 -3.030573 -0.776559 -0.053964 0.627729 0.502935 0.749511
  0 6.846780 -4.471934 -3.176363 -0.776559 -0.053964 0.627729 0.504892 0.720157
  0 6.880967 -4.917762 -3.168074 -0.776559 -0.053964 0.627729 0.577299 0.724070
$0b_buff_m249_2_glow.bmp
  0 6.846780 -4.471934 -3.176363 -0.845530 -0.081755 -0.527631 0.504892 0.720157
  0 6.933533 -4.482348 -3.322190 -0.845530 -0.081755 -0.527631 0.504892 0.694716
  0 6.880967 -4.917762 -3.168074 -0.845530 -0.081755 -0.527631 0.577299 0.724070
$0b_buff_m249_2_glow.bmp
  0 7.525694 -4.825990 -2.387173 0.260325 0.890300 -0.373627 0.675147 0.221135
  0 7.349339 -4.715973 -2.257190 0.260325 0.890300 -0.373627 0.637965 0.264188
  0 7.523322 -4.732908 -2.148364 0.260325 0.890300 -0.373627 0.675147 0.307241
$0b_buff_m249_2_glow.bmp
  0 7.525694 -4.825990 -2.387173 0.469045 0.880651 -0.066714 0.675147 0.221135
  0 7.221154 -4.663940 -2.404367 0.469045 0.880651 -0.066714 0.614481 0.221135
  0 7.349339 -4.715973 -2.257190 0.469045 0.880651 -0.066714 0.637965 0.264188
$0b_buff_m249_2_glow.bmp
  0 7.016941 -4.083127 -3.764644 -0.862634 0.296433 0.409866 0.436399 0.622309
  0 6.885320 -4.481719 -3.765106 -0.862634 0.296433 0.409866 0.508806 0.616438
  0 6.948078 -4.486803 -3.621804 -0.862634 0.296433 0.409866 0.506849 0.643836
$0b_buff_m249_2_glow.bmp
  0 7.012035 -4.486195 -2.887768 0.921741 -0.112289 -0.371195 0.569472 0.131115
  0 7.126508 -4.074109 -2.718120 0.921741 -0.112289 -0.371195 0.514677 0.189824
  0 7.119135 -4.494762 -2.632119 0.921741 -0.112289 -0.371195 0.589041 0.176125
$0b_buff_m249_2_glow.bmp
  0 6.933533 -4.482348 -3.322190 0.989003 -0.111252 -0.097449 0.551859 0.056751
  0 6.999300 -4.065442 -3.175004 0.989003 -0.111252 -0.097449 0.483366 0.091977
  0 6.959213 -4.482134 -3.030573 0.989003 -0.111252 -0.097449 0.559687 0.105675
$0b_buff_m249_2_glow.bmp
  0 6.954865 -4.488883 -3.761624 0.986894 -0.153368 0.050189 0.551859 0.011742
  0 7.016941 -4.083127 -3.764644 0.986894 -0.153368 0.050189 0.479452 0.011742
  0 6.948078 -4.486803 -3.621804 0.986894 -0.153368 0.050189 0.551859 0.025440
$0b_buff_m249_2_glow.bmp
  0 7.525694 -4.825990 -2.387173 0.406590 0.813876 0.415079 0.675147 0.221135
  0 7.119135 -4.494762 -2.632119 0.406590 0.813876 0.415079 0.589041 0.176125
  0 7.221154 -4.663940 -2.404367 0.406590 0.813876 0.415079 0.614481 0.221135
$0b_buff_m249_2_glow.bmp
  0 7.119135 -4.494762 -2.632119 0.183541 0.721630 0.667505 0.589041 0.176125
  0 7.525694 -4.825990 -2.387173 0.183541 0.721630 0.667505 0.675147 0.221135
  0 7.556948 -4.630329 -2.608849 0.183541 0.721630 0.667505 0.675147 0.174168
$0b_buff_m249_2_glow.bmp
  0 7.585068 -4.638943 -3.188103 0.232182 0.972667 -0.003194 0.675147 0.074364
  0 7.012035 -4.486195 -2.887768 0.232182 0.972667 -0.003194 0.569472 0.131115
  0 7.556948 -4.630329 -2.608849 0.232182 0.972667 -0.003194 0.675147 0.174168
$0b_buff_m249_2_glow.bmp
  0 7.611249 -4.646963 -3.727408 0.072975 -0.078933 -0.994205 0.772994 0.281800
  0 6.821708 -5.751332 -3.699250 0.072975 -0.078933 -0.994205 0.806262 0.303327
  0 6.909572 -4.926524 -3.757315 0.072975 -0.078933 -0.994205 0.780822 0.301370
$0b_buff_m249_2_glow.bmp
  0 7.043346 -3.925008 -3.765714 -0.907230 -0.053851 0.417173 0.827789 0.636008
  0 7.081852 -3.485288 -3.630203 -0.907230 -0.053851 0.417173 0.755382 0.655577
  0 7.019094 -3.480203 -3.773505 -0.907230 -0.053851 0.417173 0.755382 0.628180
$0b_buff_m249_2_glow.bmp
  0 7.092987 -3.480619 -3.038972 -0.736527 0.271826 0.619385 0.751468 0.761252
  0 7.123139 -3.062902 -3.183900 -0.736527 0.271826 0.619385 0.681018 0.733855
  0 6.980554 -3.470418 -3.184762 -0.736527 0.271826 0.619385 0.751468 0.731898
$0b_buff_m249_2_glow.bmp
  0 6.980554 -3.470418 -3.184762 -0.796932 0.297916 -0.525495 0.751468 0.731898
  0 7.123139 -3.062902 -3.183900 -0.796932 0.297916 -0.525495 0.681018 0.733855
  0 7.067307 -3.480832 -3.330589 -0.796932 0.297916 -0.525495 0.751468 0.706458
$0b_buff_m249_2_glow.bmp
  0 7.092987 -3.480619 -3.038972 -0.776559 -0.053964 0.627729 0.751468 0.761252
  0 6.980554 -3.470418 -3.184762 -0.776559 -0.053964 0.627729 0.751468 0.731898
  0 7.014741 -3.916246 -3.176473 -0.776559 -0.053964 0.627729 0.825832 0.735812
$0b_buff_m249_2_glow.bmp
  0 6.980554 -3.470418 -3.184762 -0.845530 -0.081755 -0.527631 0.751468 0.731898
  0 7.067307 -3.480832 -3.330589 -0.845530 -0.081755 -0.527631 0.751468 0.706458
  0 7.014741 -3.916246 -3.176473 -0.845530 -0.081755 -0.527631 0.825832 0.735812
$0b_buff_m249_2_glow.bmp
  0 7.629663 -3.821404 -2.397065 0.296224 0.934750 -0.196199 0.162427 0.317025
  0 7.450705 -3.741375 -2.276775 0.296224 0.934750 -0.196199 0.125245 0.377691
  0 7.623599 -3.778500 -2.187727 0.296224 0.934750 -0.196199 0.162427 0.436399
$0b_buff_m249_2_glow.bmp
  0 7.629663 -3.821404 -2.397065 0.470983 0.874070 0.119067 0.162427 0.317025
  0 7.344993 -3.661401 -2.413264 0.470983 0.874070 0.119067 0.101761 0.315068
  0 7.450705 -3.741375 -2.276775 0.470983 0.874070 0.119067 0.125245 0.377691
$0b_buff_m249_2_glow.bmp
  0 7.131874 -3.069618 -3.774136 -0.882446 0.248536 0.399398 0.684932 0.634051
  0 7.019094 -3.480203 -3.773505 -0.882446 0.248536 0.399398 0.755382 0.628180
  0 7.081852 -3.485288 -3.630203 -0.882446 0.248536 0.399398 0.755382 0.655577
$0b_buff_m249_2_glow.bmp
  0 7.135874 -3.483656 -2.896664 0.921741 -0.112289 -0.371195 0.056751 0.187867
  0 7.250347 -3.071569 -2.727016 0.921741 -0.112289 -0.371195 0.003914 0.272016
  0 7.233039 -3.491200 -2.641513 0.921741 -0.112289 -0.371195 0.076321 0.250489
$0b_buff_m249_2_glow.bmp
  0 7.067307 -3.480832 -3.330589 0.989003 -0.111252 -0.097449 0.039139 0.080235
  0 7.123139 -3.062902 -3.183900 0.989003 -0.111252 -0.097449 0.005871 0.133072
  0 7.092987 -3.480619 -3.038972 0.989003 -0.111252 -0.097449 0.046967 0.150685
$0b_buff_m249_2_glow.bmp
  0 7.088640 -3.487367 -3.770023 0.993505 -0.102331 0.049753 0.039139 0.017613
  0 7.131874 -3.069618 -3.774136 0.993505 -0.102331 0.049753 0.000000 0.017613
  0 7.081852 -3.485288 -3.630203 0.993505 -0.102331 0.049753 0.039139 0.039139
$0b_buff_m249_2_glow.bmp
  0 7.629663 -3.821404 -2.397065 0.406590 0.813876 0.415079 0.162427 0.317025
  0 7.233039 -3.491200 -2.641513 0.406590 0.813876 0.415079 0.076321 0.250489
  0 7.344993 -3.661401 -2.413264 0.406590 0.813876 0.415079 0.101761 0.315068
$0b_buff_m249_2_glow.bmp
  0 7.233039 -3.491200 -2.641513 0.183541 0.721630 0.667505 0.076321 0.250489
  0 7.629663 -3.821404 -2.397065 0.183541 0.721630 0.667505 0.162427 0.317025
  0 7.660917 -3.625744 -2.618741 0.183541 0.721630 0.667505 0.162427 0.248532
$0b_buff_m249_2_glow.bmp
  0 7.689037 -3.634357 -3.197994 0.232182 0.972667 -0.003194 0.162427 0.105675
  0 7.135874 -3.483656 -2.896664 0.232182 0.972667 -0.003194 0.056751 0.187867
  0 7.660917 -3.625744 -2.618741 0.232182 0.972667 -0.003194 0.162427 0.248532
$0b_buff_m249_2_glow.bmp
  0 7.715218 -3.642377 -3.737300 0.072975 -0.078933 -0.994205 0.772994 0.281800
  0 6.955482 -4.749816 -3.707649 0.072975 -0.078933 -0.994205 0.806262 0.303327
  0 7.043346 -3.925008 -3.765714 0.072975 -0.078933 -0.994205 0.780822 0.301370
$0b_buff_m249_2_glow.bmp
  43 8.089864 -6.893029 -3.633975 0.993506 -0.102331 0.049751 0.966732 0.637965
  43 8.148320 -6.063873 -3.095845 0.993506 -0.102331 0.049751 0.825832 0.735812
  43 8.063751 -6.879486 -3.084671 0.993506 -0.102331 0.049751 0.962818 0.737769
$0b_buff_m249_2_glow.bmp
  43 8.148320 -6.063873 -3.095845 0.892025 -0.111373 0.438049 0.825832 0.735812
  43 7.855248 -6.857427 -2.694620 0.775829 -0.090484 0.624422 0.962818 0.810176
  43 8.063751 -6.879486 -3.084671 0.873567 -0.085691 0.479101 0.962818 0.737769
$0b_buff_m249_2_glow.bmp
  43 8.301000 -5.648184 -3.681755 0.816001 -0.238670 0.526477 0.755382 0.628180
  43 8.215105 -5.639148 -3.555897 0.816001 -0.238670 0.526477 0.755382 0.655577
  43 8.176406 -6.077678 -3.685099 0.816001 -0.238670 0.526477 0.827789 0.636008
$0b_buff_m249_2_glow.bmp
  43 8.282849 -5.635403 -3.092004 0.687614 0.159945 0.708241 0.751468 0.731898
  43 8.195731 -5.214261 -3.099064 0.687614 0.159945 0.708241 0.681018 0.733855
  43 8.146785 -5.621184 -2.958645 0.687614 0.159945 0.708241 0.751468 0.761252
$0b_buff_m249_2_glow.bmp
  43 8.199809 -5.637121 -3.246281 0.871317 0.168837 -0.460760 0.751468 0.706458
  43 8.195731 -5.214261 -3.099064 0.871317 0.168837 -0.460760 0.681018 0.733855
  43 8.282849 -5.635403 -3.092004 0.871317 0.168837 -0.460760 0.751468 0.731898
$0b_buff_m249_2_glow.bmp
  43 8.148320 -6.063873 -3.095845 0.659781 -0.206504 0.722527 0.825832 0.735812
  43 8.282849 -5.635403 -3.092004 0.659781 -0.206504 0.722527 0.751468 0.731898
  43 8.146785 -5.621184 -2.958645 0.659781 -0.206504 0.722527 0.751468 0.761252
$0b_buff_m249_2_glow.bmp
  43 8.148320 -6.063873 -3.095845 0.844446 -0.263874 -0.466134 0.825832 0.735812
  43 8.199809 -5.637121 -3.246281 0.844446 -0.263874 -0.466134 0.751468 0.706458
  43 8.282849 -5.635403 -3.092004 0.844446 -0.263874 -0.466134 0.751468 0.731898
$0b_buff_m249_2_glow.bmp
  43 7.415313 -5.725396 -2.032908 -0.028060 0.951615 -0.306010 0.469667 0.504892
  43 7.620351 -5.766868 -2.192718 -0.028060 0.951615 -0.306010 0.524462 0.497065
  43 7.420811 -5.837039 -2.372328 -0.028060 0.951615 -0.306010 0.524462 0.440313
$0b_buff_m249_2_glow.bmp
  43 7.620351 -5.766868 -2.192718 -0.253028 0.965639 -0.059320 0.524462 0.497065
  43 7.771931 -5.742517 -2.355600 -0.253028 0.965639 -0.059320 0.571429 0.477495
  43 7.420811 -5.837039 -2.372328 -0.253028 0.965639 -0.059320 0.524462 0.440313
$0b_buff_m249_2_glow.bmp
  43 7.365027 -6.353971 -2.321638 0.389455 -0.182321 0.902820 0.900196 0.919765
  43 7.705905 -6.339050 -2.465093 0.389455 -0.182321 0.902820 0.882583 0.863014
  43 7.620394 -6.048616 -2.371095 0.389455 -0.182321 0.902820 0.839530 0.890411
$0b_buff_m249_2_glow.bmp
  43 7.620394 -6.048616 -2.371095 0.326697 -0.204854 0.922661 0.839530 0.890411
  43 7.705905 -6.339050 -2.465093 0.610774 -0.181760 0.770661 0.882583 0.863014
  43 7.771931 -5.742517 -2.355600 0.738441 -0.164752 0.653882 0.780822 0.880626
$0b_buff_m249_2_glow.bmp
  43 8.215105 -5.639148 -3.555897 0.842927 0.160293 0.513596 0.755382 0.655577
  43 8.301000 -5.648184 -3.681755 0.842927 0.160293 0.513596 0.755382 0.628180
  43 8.225336 -5.218184 -3.698321 0.842927 0.160293 0.513596 0.684932 0.634051
$0b_buff_m249_2_glow.bmp
  43 7.938282 -5.599126 -2.568594 -0.875219 0.033327 -0.482578 0.589041 0.176125
  43 8.005656 -5.183975 -2.658095 -0.875219 0.033327 -0.482578 0.514677 0.189824
  43 8.080267 -5.614129 -2.821804 -0.875219 0.033327 -0.482578 0.569472 0.131115
$0b_buff_m249_2_glow.bmp
  43 8.146785 -5.621184 -2.958645 -0.977586 0.049336 -0.204673 0.559687 0.105675
  43 8.195731 -5.214261 -3.099064 -0.977586 0.049336 -0.204673 0.483366 0.091977
  43 8.199809 -5.637121 -3.246281 -0.977586 0.049336 -0.204673 0.551859 0.056751
$0b_buff_m249_2_glow.bmp
  43 8.215105 -5.639148 -3.555897 -0.998769 0.009753 -0.048634 0.551859 0.025440
  43 8.225336 -5.218184 -3.698321 -0.998769 0.009753 -0.048634 0.479452 0.011742
  43 8.221520 -5.639998 -3.685735 -0.998769 0.009753 -0.048634 0.551859 0.011742
$0b_buff_m249_2_glow.bmp
  43 7.420811 -5.837039 -2.372328 -0.089369 0.750638 0.654642 0.524462 0.440313
  43 7.938282 -5.599126 -2.568594 -0.089369 0.750638 0.654642 0.620352 0.459883
  43 7.452172 -5.639532 -2.592345 -0.089369 0.750638 0.654642 0.555773 0.403131
$0b_buff_m249_2_glow.bmp
  43 7.938282 -5.599126 -2.568594 -0.252244 0.887826 0.384888 0.620352 0.459883
  43 7.420811 -5.837039 -2.372328 -0.252244 0.887826 0.384888 0.524462 0.440313
  43 7.771931 -5.742517 -2.355600 -0.252244 0.887826 0.384888 0.571429 0.477495
$0b_buff_m249_2_glow.bmp
  43 7.938282 -5.599126 -2.568594 -0.072082 0.991786 -0.105663 0.620352 0.459883
  43 8.080267 -5.614129 -2.821804 -0.072082 0.991786 -0.105663 0.663405 0.438356
  43 7.452172 -5.639532 -2.592345 -0.072082 0.991786 -0.105663 0.555773 0.403131
$0b_buff_m249_2_glow.bmp
  43 8.089864 -6.893029 -3.633975 0.017986 -0.064891 -0.997730 0.806262 0.303327
  43 7.506903 -5.656867 -3.720929 0.017986 -0.064891 -0.997730 0.772994 0.281800
  43 8.176406 -6.077678 -3.685099 0.017986 -0.064891 -0.997730 0.780822 0.301370
$0b_buff_m249_2_glow.bmp
  0 8.153005 -5.888457 -3.632582 0.993505 -0.102331 0.049753 0.718200 0.626223
  0 8.212264 -5.054887 -3.101405 0.993505 -0.102331 0.049753 0.577299 0.724070
  0 8.126824 -5.880438 -3.093277 0.993505 -0.102331 0.049753 0.716243 0.726027
$0b_buff_m249_2_glow.bmp
  0 7.789602 -5.336773 -2.476908 0.591570 -0.187300 0.784196 0.636008 0.849315
  0 7.428206 -5.801776 -2.447486 -0.064732 -0.148715 0.986759 0.724070 0.892368
  0 7.741041 -5.834984 -2.531934 0.492342 -0.114841 0.862792 0.718200 0.839530
$0b_buff_m249_2_glow.bmp
  0 8.212264 -5.054887 -3.101405 0.901853 -0.111383 0.417438 0.577299 0.724070
  0 7.928599 -5.856077 -2.702747 0.793131 -0.091824 0.602089 0.716243 0.798434
  0 8.126824 -5.880438 -3.093277 0.885051 -0.087096 0.457273 0.716243 0.726027
$0b_buff_m249_2_glow.bmp
  0 8.355708 -4.633171 -3.691473 0.831548 -0.232947 0.504246 0.508806 0.616438
  0 8.279375 -4.623929 -3.555136 0.831548 -0.232947 0.504246 0.506849 0.643836
  0 8.240869 -5.063649 -3.690646 0.831548 -0.232947 0.504246 0.581213 0.622309
$0b_buff_m249_2_glow.bmp
  0 8.337038 -4.625432 -3.101734 0.711494 0.122677 0.691901 0.504892 0.720157
  0 8.270987 -4.196427 -3.111320 0.711494 0.122677 0.691901 0.434442 0.720157
  0 8.211029 -4.611073 -2.967885 0.711494 0.122677 0.691901 0.502935 0.749511
$0b_buff_m249_2_glow.bmp
  0 8.264830 -4.619473 -3.255522 0.888825 0.124280 -0.441073 0.504892 0.694716
  0 8.270987 -4.196427 -3.111320 0.888825 0.124280 -0.441073 0.434442 0.720157
  0 8.337038 -4.625432 -3.101734 0.888825 0.124280 -0.441073 0.504892 0.720157
$0b_buff_m249_2_glow.bmp
  0 8.212264 -5.054887 -3.101405 0.683421 -0.204341 0.700843 0.577299 0.724070
  0 8.337038 -4.625432 -3.101734 0.683421 -0.204341 0.700843 0.504892 0.720157
  0 8.211029 -4.611073 -2.967885 0.683421 -0.204341 0.700843 0.502935 0.749511
$0b_buff_m249_2_glow.bmp
  0 8.212264 -5.054887 -3.101405 0.859175 -0.257341 -0.442259 0.577299 0.724070
  0 8.264830 -4.619473 -3.255522 0.859175 -0.257341 -0.442259 0.504892 0.694716
  0 8.337038 -4.625432 -3.101734 0.859175 -0.257341 -0.442259 0.504892 0.720157
$0b_buff_m249_2_glow.bmp
  0 7.523322 -4.732908 -2.148364 -0.035621 0.920783 -0.388446 0.675147 0.307241
  0 7.707001 -4.752813 -2.239280 -0.035621 0.920783 -0.388446 0.712329 0.264188
  0 7.525694 -4.825990 -2.387173 -0.035621 0.920783 -0.388446 0.675147 0.221135
$0b_buff_m249_2_glow.bmp
  0 7.707001 -4.752813 -2.239280 -0.271238 0.956900 -0.103789 0.712329 0.264188
  0 7.856997 -4.729433 -2.372526 -0.271238 0.956900 -0.103789 0.735812 0.221135
  0 7.525694 -4.825990 -2.387173 -0.271238 0.956900 -0.103789 0.675147 0.221135
$0b_buff_m249_2_glow.bmp
  0 8.279375 -4.623929 -3.555136 0.860054 0.118994 0.496132 0.506849 0.643836
  0 8.355708 -4.633171 -3.691473 0.860054 0.118994 0.496132 0.508806 0.616438
  0 8.308498 -4.216159 -3.699966 0.860054 0.118994 0.496132 0.436399 0.622309
$0b_buff_m249_2_glow.bmp
  0 8.013290 -4.586861 -2.587342 -0.884009 0.073705 -0.461622 0.589041 0.176125
  0 8.100143 -4.174394 -2.669362 -0.884009 0.073705 -0.461622 0.514677 0.189824
  0 8.144631 -4.602854 -2.831050 -0.884009 0.073705 -0.461622 0.569472 0.131115
$0b_buff_m249_2_glow.bmp
  0 8.211029 -4.611073 -2.967885 -0.976381 0.091185 -0.195870 0.559687 0.105675
  0 8.270987 -4.196427 -3.111320 -0.976381 0.091185 -0.195870 0.483366 0.091977
  0 8.264830 -4.619473 -3.255522 -0.976381 0.091185 -0.195870 0.551859 0.056751
$0b_buff_m249_2_glow.bmp
  0 8.279375 -4.623929 -3.555136 -0.997486 0.051026 -0.049179 0.551859 0.025440
  0 8.308498 -4.216159 -3.699966 -0.997486 0.051026 -0.049179 0.479452 0.011742
  0 8.286162 -4.626008 -3.694956 -0.997486 0.051026 -0.049179 0.551859 0.011742
$0b_buff_m249_2_glow.bmp
  0 7.525694 -4.825990 -2.387173 -0.098044 0.750633 0.653404 0.675147 0.221135
  0 8.013290 -4.586861 -2.587342 -0.098044 0.750633 0.653404 0.761252 0.176125
  0 7.556948 -4.630329 -2.608849 -0.098044 0.750633 0.653404 0.675147 0.174168
$0b_buff_m249_2_glow.bmp
  0 8.013290 -4.586861 -2.587342 -0.271605 0.883731 0.381118 0.761252 0.176125
  0 7.525694 -4.825990 -2.387173 -0.271605 0.883731 0.381118 0.675147 0.221135
  0 7.856997 -4.729433 -2.372526 -0.271605 0.883731 0.381118 0.735812 0.221135
$0b_buff_m249_2_glow.bmp
  0 8.013290 -4.586861 -2.587342 -0.083688 0.990836 -0.106024 0.761252 0.176125
  0 8.144631 -4.602854 -2.831050 -0.083688 0.990836 -0.106024 0.780822 0.131115
  0 7.556948 -4.630329 -2.608849 -0.083688 0.990836 -0.106024 0.675147 0.174168
$0b_buff_m249_2_glow.bmp
  0 8.153005 -5.888457 -3.632582 0.011151 -0.072566 -0.997301 0.806262 0.303327
  0 7.611249 -4.646963 -3.727408 0.011151 -0.072566 -0.997301 0.772994 0.281800
  0 8.240869 -5.063649 -3.690646 0.011151 -0.072566 -0.997301 0.780822 0.301370
$0b_buff_m249_2_glow.bmp
  0 8.227169 -4.880802 -3.643966 0.993505 -0.102331 0.049753 0.966732 0.637965
  0 8.286428 -4.047231 -3.112790 0.993505 -0.102331 0.049753 0.825832 0.735812
  0 8.200988 -4.872782 -3.104661 0.993505 -0.102331 0.049753 0.962818 0.737769
$0b_buff_m249_2_glow.bmp
  0 7.879878 -4.270463 -2.488382 0.591570 -0.187300 0.784196 0.882583 0.863014
  0 7.532176 -4.797190 -2.457377 -0.064732 -0.148715 0.986759 0.970646 0.904110
  0 7.825140 -4.828352 -2.542820 0.492342 -0.114841 0.862792 0.964775 0.851272
$0b_buff_m249_2_glow.bmp
  0 8.286428 -4.047231 -3.112790 0.901853 -0.111383 0.417438 0.825832 0.735812
  0 8.012698 -4.849445 -2.713633 0.793131 -0.091824 0.602089 0.962818 0.810176
  0 8.200988 -4.872782 -3.104661 0.885051 -0.087096 0.457273 0.962818 0.737769
$0b_buff_m249_2_glow.bmp
  0 8.429872 -3.625516 -3.702857 0.831548 -0.232947 0.504246 0.755382 0.628180
  0 8.353539 -3.616273 -3.566520 0.831548 -0.232947 0.504246 0.755382 0.655577
  0 8.315033 -4.055994 -3.702031 0.831548 -0.232947 0.504246 0.827789 0.636008
$0b_buff_m249_2_glow.bmp
  0 8.411202 -3.617777 -3.113118 0.711494 0.122677 0.691901 0.751468 0.731898
  0 8.355086 -3.189795 -3.122207 0.711494 0.122677 0.691901 0.681018 0.733855
  0 8.285193 -3.603417 -2.979269 0.711494 0.122677 0.691901 0.751468 0.761252
$0b_buff_m249_2_glow.bmp
  0 8.338994 -3.611818 -3.266906 0.888825 0.124280 -0.441073 0.751468 0.706458
  0 8.355086 -3.189795 -3.122207 0.888825 0.124280 -0.441073 0.681018 0.733855
  0 8.411202 -3.617777 -3.113118 0.888825 0.124280 -0.441073 0.751468 0.731898
$0b_buff_m249_2_glow.bmp
  0 8.286428 -4.047231 -3.112790 0.683421 -0.204341 0.700843 0.825832 0.735812
  0 8.411202 -3.617777 -3.113118 0.683421 -0.204341 0.700843 0.751468 0.731898
  0 8.285193 -3.603417 -2.979269 0.683421 -0.204341 0.700843 0.751468 0.761252
$0b_buff_m249_2_glow.bmp
  0 8.286428 -4.047231 -3.112790 0.859175 -0.257341 -0.442259 0.825832 0.735812
  0 8.338994 -3.611818 -3.266906 0.859175 -0.257341 -0.442259 0.751468 0.706458
  0 8.411202 -3.617777 -3.113118 0.859175 -0.257341 -0.442259 0.751468 0.731898
$0b_buff_m249_2_glow.bmp
  0 7.623599 -3.778500 -2.187727 -0.079092 0.973407 -0.214994 0.162427 0.436399
  0 7.808367 -3.778215 -2.258864 -0.079092 0.973407 -0.214994 0.199609 0.377691
  0 7.629663 -3.821404 -2.397065 -0.079092 0.973407 -0.214994 0.162427 0.317025
$0b_buff_m249_2_glow.bmp
  0 7.808367 -3.778215 -2.258864 -0.292827 0.952744 0.080813 0.199609 0.377691
  0 7.941096 -3.722801 -2.383412 -0.292827 0.952744 0.080813 0.223092 0.315068
  0 7.629663 -3.821404 -2.397065 -0.292827 0.952744 0.080813 0.162427 0.317025
$0b_buff_m249_2_glow.bmp
  0 8.353539 -3.616273 -3.566520 0.870647 0.067967 0.487191 0.755382 0.655577
  0 8.429872 -3.625516 -3.702857 0.870647 0.067967 0.487191 0.755382 0.628180
  0 8.403561 -3.200604 -3.710453 0.870647 0.067967 0.487191 0.684932 0.634051
$0b_buff_m249_2_glow.bmp
  0 8.107324 -3.581252 -2.597731 -0.884009 0.073705 -0.461622 0.589041 0.176125
  0 8.184242 -3.167762 -2.680249 -0.884009 0.073705 -0.461622 0.514677 0.189824
  0 8.228730 -3.596222 -2.841937 -0.884009 0.073705 -0.461622 0.569472 0.131115
$0b_buff_m249_2_glow.bmp
  0 8.285193 -3.603417 -2.979269 -0.976381 0.091185 -0.195870 0.559687 0.105675
  0 8.355086 -3.189795 -3.122207 -0.976381 0.091185 -0.195870 0.483366 0.091977
  0 8.338994 -3.611818 -3.266906 -0.976381 0.091185 -0.195870 0.551859 0.056751
$0b_buff_m249_2_glow.bmp
  0 8.353539 -3.616273 -3.566520 -0.993505 0.102332 -0.049751 0.551859 0.025440
  0 8.403561 -3.200604 -3.710453 -0.993505 0.102332 -0.049751 0.479452 0.011742
  0 8.360326 -3.618352 -3.706340 -0.993505 0.102332 -0.049751 0.551859 0.011742
$0b_buff_m249_2_glow.bmp
  0 7.629663 -3.821404 -2.397065 -0.098044 0.750633 0.653404 0.162427 0.317025
  0 8.107324 -3.581252 -2.597731 -0.098044 0.750633 0.653404 0.248532 0.250489
  0 7.660917 -3.625744 -2.618741 -0.098044 0.750633 0.653404 0.162427 0.248532
$0b_buff_m249_2_glow.bmp
  0 8.107324 -3.581252 -2.597731 -0.271605 0.883731 0.381118 0.248532 0.250489
  0 7.629663 -3.821404 -2.397065 -0.271605 0.883731 0.381118 0.162427 0.317025
  0 7.941096 -3.722801 -2.383412 -0.271605 0.883731 0.381118 0.223092 0.315068
$0b_buff_m249_2_glow.bmp
  0 8.107324 -3.581252 -2.597731 -0.083688 0.990836 -0.106024 0.248532 0.250489
  0 8.228730 -3.596222 -2.841937 -0.083688 0.990836 -0.106024 0.268102 0.187867
  0 7.660917 -3.625744 -2.618741 -0.083688 0.990836 -0.106024 0.162427 0.248532
$0b_buff_m249_2_glow.bmp
  0 8.227169 -4.880802 -3.643966 0.011151 -0.072566 -0.997301 0.806262 0.303327
  0 7.715218 -3.642377 -3.737300 0.011151 -0.072566 -0.997301 0.772994 0.281800
  0 8.315033 -4.055994 -3.702031 0.011151 -0.072566 -0.997301 0.780822 0.301370
$0b_buff_m249_2_glow.bmp
  0 7.660917 -3.625744 -2.618741 0.300742 0.949764 -0.086617 0.162427 0.248532
  0 7.135874 -3.483656 -2.896664 0.300742 0.949764 -0.086617 0.056751 0.187867
  0 7.233039 -3.491200 -2.641513 0.300742 0.949764 -0.086617 0.076321 0.250489
$0b_buff_m249_2_glow.bmp
  0 7.660917 -3.625744 -2.618741 -0.028074 0.999474 -0.016221 0.162427 0.248532
  0 8.228730 -3.596222 -2.841937 -0.028074 0.999474 -0.016221 0.268102 0.187867
  0 7.689037 -3.634357 -3.197994 -0.028074 0.999474 -0.016221 0.162427 0.105675
$0b_buff_m249_2_glow.bmp
  0 7.556948 -4.630329 -2.608849 0.300742 0.949764 -0.086617 0.675147 0.174168
  0 7.012035 -4.486195 -2.887768 0.300742 0.949764 -0.086617 0.569472 0.131115
  0 7.119135 -4.494762 -2.632119 0.300742 0.949764 -0.086617 0.589041 0.176125
$0b_buff_m249_2_glow.bmp
  0 7.556948 -4.630329 -2.608849 -0.028074 0.999474 -0.016221 0.675147 0.174168
  0 8.144631 -4.602854 -2.831050 -0.028074 0.999474 -0.016221 0.780822 0.131115
  0 7.585068 -4.638943 -3.188103 -0.028074 0.999474 -0.016221 0.675147 0.074364
$0b_buff_m249_2_glow.bmp
  43 7.452172 -5.639532 -2.592345 0.282323 0.955283 -0.087904 0.555773 0.403131
  43 6.868191 -5.489283 -2.882501 0.282323 0.955283 -0.087904 0.502935 0.303327
  43 6.984517 -5.500886 -2.616356 0.282323 0.955283 -0.087904 0.489237 0.350294
$0b_buff_m249_2_glow.bmp
  43 7.452172 -5.639532 -2.592345 -0.019982 0.999675 -0.015837 0.555773 0.403131
  43 8.080267 -5.614129 -2.821804 -0.019982 0.999675 -0.015837 0.663405 0.438356
  43 7.481284 -5.643389 -3.181613 -0.019982 0.999675 -0.015837 0.620352 0.326810
end
