version 1
nodes
  0 "buff_m249" -1
  1 "Dummy001" 0
  2 "lever" 1
  3 "Dummy003" 0
  4 "trigger" 3
  5 "wing1" 1
  6 "wing2" 1
  7 "wing003" 1
  8 "wing004" 1
  9 "wing005" 1
  10 "wing006" 1
  11 "wing007" 1
  12 "wing008" 1
  13 "wing009" 1
  14 "wing010" 1
  15 "wing011" 1
  16 "wing012" 1
  17 "wing013" 1
  18 "wing014" 1
  19 "cover" 0
  20 "Object028" 19
  21 "Point006" 19
  22 "????????" 21
  23 "magazine" 1
  24 "Dummy002" 23
  25 "bullet1" 24
  26 "bullet2" 25
  27 "bullet3" 26
  28 "bullet4" 27
  29 "bullet5" 28
  30 "bullet6" 29
  31 "bullet7" 30
  32 "bullet8" 31
  33 "Point001" 19
  34 "orange" 33
  35 "Point002" 2
  36 "leverlight1" 35
  37 "Point003" 2
  38 "leverlight2" 37
  39 "Point004" 1
  40 "GeoSphere001" 39
  41 "Point005" 1
  42 "GeoSphere002" 41
  43 "black1" 1
  44 "black2" 1
  45 "black3" 1
  46 "black4" 1
  47 "black5" 1
  48 "black6" 1
  49 "root" -1
  50 "Bone01" 49
  51 "Bone_L_Upper" 50
  52 "Bone_Lefthand" 50
  53 "Bone13" 52
  54 "Bone14" 53
  55 "Bone15" 54
  56 "Bone17" 52
  57 "Bone18" 56
  58 "Bone19" 57
  59 "Bone21" 52
  60 "Bone22" 59
  61 "Bone23" 60
  62 "Bone09" 52
  63 "Bone10" 62
  64 "Bone11" 63
  65 "Bone05" 52
  66 "Bone06" 65
  67 "Bone07" 66
  68 "Bone_Se_Hand-L" 52
  69 "Bone04" 49
  70 "Bone_Righthand" 69
  71 "Bone39" 70
  72 "Bone40" 71
  73 "Bone41" 72
  74 "Bone35" 70
  75 "Bone36" 74
  76 "Bone37" 75
  77 "Bone31" 70
  78 "Bone32" 77
  79 "Bone33" 78
  80 "Bone43" 70
  81 "Bone44" 80
  82 "Bone45" 81
  83 "Bone27" 70
  84 "Bone28" 83
  85 "Bone29" 84
  86 "Bone_Se_Hand-R" 70
  87 "Bone_R_Upper" 69
end
skeleton
  time 0
    0 7.216372 -8.312578 -3.381669 -1.521021 -3.131799 1.467669
    1 6.185434 0.379124 -0.000001 0.000000 0.000000 0.000000
    2 -3.563981 1.256647 -1.087708 0.000000 0.000000 0.021642
    3 -1.464251 -1.398945 0.000000 0.000000 0.000000 0.000000
    4 0.103153 0.068699 0.000000 0.000000 0.000000 -1.424330
    5 -1.646002 -1.588399 1.593848 -0.278216 -0.494126 -2.868259
    6 -0.998352 -1.580052 1.698083 -0.507848 -0.678035 -2.570251
    7 -0.165947 -1.834276 1.705774 -0.771421 -0.937955 -2.095339
    8 0.720433 -1.619241 1.641268 -1.057063 -1.015006 -1.580642
    9 1.291739 -1.362477 1.639532 -1.256646 -0.974371 -1.192860
    10 1.881563 -1.154258 1.658113 -1.556168 -0.918465 -0.701604
    11 2.533382 -0.880921 1.417083 -1.844576 -0.648490 -0.583211
    12 -0.114986 -1.811761 -2.226530 -0.927015 -0.513583 1.249772
    13 0.774039 -1.595395 -2.187590 -1.128328 -0.637551 1.565415
    14 1.346209 -1.338449 -2.194060 -1.305643 -0.661252 1.905686
    15 1.910635 -1.038882 -1.951995 1.514354 -2.466979 -0.724089
    16 2.590990 -0.855057 -2.002131 1.297019 -2.493108 -0.583215
    17 -0.949288 -1.766195 -2.232661 -0.891381 -0.346632 0.997588
    18 -1.589159 -1.561627 -2.172420 -0.758947 -0.143850 0.619577
    19 1.343212 0.759871 -0.659468 -1.570801 -1.547537 0.000008
    20 0.616271 -0.042046 0.018120 0.000000 0.000000 0.000000
    21 0.616272 -0.042044 0.191434 0.000000 0.000000 0.000000
    22 -0.000007 10.649727 -2.184227 0.000000 0.000000 0.000000
    23 -4.723832 -1.475883 0.721802 0.000001 0.000000 -1.570796
    24 0.579225 -0.112310 0.643977 -3.141592 1.570796 0.000000
    25 -0.183390 0.009382 0.270586 -1.570794 -0.677250 -0.000001
    26 0.298495 0.000000 -0.000001 0.000000 0.000000 -0.214661
    27 0.271157 0.000001 -0.000001 0.000000 0.000000 -0.272137
    28 0.339450 0.000000 -0.000001 -0.000297 0.000312 -0.185631
    29 0.339187 0.000000 -0.000001 0.000254 -0.000187 0.128251
    30 0.385388 0.000000 -0.000001 -0.000063 -0.000261 0.401172
    31 0.341048 0.000000 -0.000001 -0.000161 -0.000026 0.590021
    32 0.315277 0.000000 -0.000001 0.000247 -0.000021 0.243588
    33 0.617627 -0.042344 -0.213050 0.000008 0.000032 0.000001
    34 0.000054 0.000001 0.000000 -0.000002 0.000000 -0.000001
    35 -0.027699 2.056633 0.190775 0.141025 1.159637 3.136647
    36 0.000000 0.000000 0.000002 0.000000 0.000000 0.000000
    37 -0.108783 -0.003680 0.135396 0.141025 1.159637 3.136647
    38 0.000000 0.000000 0.000000 0.000000 0.000000 0.000000
    39 -1.639297 -0.733058 1.473499 -0.210880 2.081601 1.371256
    40 0.000000 0.000000 0.000000 0.000000 0.000000 0.000000
    41 -0.512197 -1.035055 1.997663 -0.210879 2.081601 1.371256
    42 0.000000 0.000000 0.000000 0.000000 0.000000 0.000000
    43 -8.459149 -0.575940 0.000001 0.000000 0.000000 1.562439
    44 -7.376782 -0.561701 -0.000804 0.000000 0.000000 1.562440
    45 -6.265542 -0.528891 -0.002659 0.000000 0.000000 1.562440
    46 -2.220867 -0.492363 -0.004725 0.000000 0.000000 1.562440
    47 -1.138244 -0.466984 -0.006159 0.000000 0.000000 1.562439
    48 -0.027756 -0.466983 -0.006160 0.000000 0.000000 1.562439
    49 0.001265 -0.569176 -20.601572 0.000000 0.000000 0.000000
    50 9.310103 -5.299614 -12.557959 3.138909 -0.000224 -1.566807
    51 1.257180 8.762585 -0.153713 -1.570562 0.002683 -1.566807
    52 -0.071921 -8.498736 -0.104134 -0.025046 0.287591 0.014898
    53 -0.488518 -2.755602 -0.228260 0.106454 0.010332 -0.264490
    54 0.039887 -1.479790 0.029854 -0.055395 0.000000 0.000001
    55 0.028786 -1.075731 -0.023109 0.002099 0.000000 0.000000
    56 0.250027 -2.820665 -0.238396 0.041826 -0.002921 0.008443
    57 -0.049759 -1.680544 0.100479 0.019826 0.000000 -0.000002
    58 -0.034142 -1.148312 0.084782 -0.040115 0.000000 0.000000
    59 0.957766 -2.746780 -0.090302 -0.017221 -0.162277 0.191558
    60 -0.033420 -1.397129 -0.011257 0.013931 0.000000 -0.000001
    61 -0.022360 -0.957436 0.018784 0.003845 0.000000 0.000000
    62 -1.180681 -2.507217 -0.193859 0.082999 0.013294 -0.477915
    63 -0.024967 -1.123934 0.017597 -0.018065 0.000000 0.000001
    64 -0.020057 -0.890968 0.010090 -0.060797 0.000000 0.000000
    65 0.583510 -1.197277 0.185379 0.158049 -0.404973 -0.364290
    66 1.535927 0.010246 0.005009 -0.002964 -0.012979 0.000887
    67 1.100771 0.004527 -0.010679 -0.002796 0.015973 0.003458
    68 0.120153 -0.050270 -0.054489 0.287569 3.110905 1.561085
    69 -9.310107 -5.231260 -12.513384 0.004984 -3.131565 -1.566847
    70 0.096944 -8.450418 -0.009365 -0.032965 -0.297907 -0.004663
    71 0.447953 -2.798986 -0.200443 0.106456 -0.010396 0.265094
    72 -0.032909 -1.480204 0.004940 -0.055403 0.000000 0.000002
    73 -0.027022 -1.076920 -0.020210 0.002094 0.000000 0.000000
    74 -0.249534 -2.846964 -0.174213 0.041903 -0.000125 -0.008396
    75 0.043235 -1.683941 0.096012 0.019757 0.002823 -0.000167
    76 0.031729 -1.160830 0.058838 -0.040181 0.000642 0.008372
    77 -0.963866 -2.785145 -0.085350 -0.017227 0.162276 -0.191556
    78 0.028479 -1.403067 0.006271 0.013941 0.000000 0.000000
    79 0.021413 -0.957781 0.020046 0.003851 0.000000 0.000000
    80 1.164475 -2.543940 -0.170330 0.083003 -0.013294 0.477915
    81 0.024032 -1.129042 0.017807 -0.018074 0.000000 0.000001
    82 0.014898 -0.883989 -0.019848 -0.060801 0.000000 0.000000
    83 -0.586770 -1.264477 0.200161 -0.152092 -0.410513 -2.814816
    84 1.522835 0.058681 0.016848 0.001410 0.008985 -0.046880
    85 1.117947 0.048424 -0.005766 -0.000243 -0.025198 0.065422
    86 -0.139399 -0.111698 0.014397 0.285382 -0.030687 1.580508
    87 -1.393470 8.839177 -0.239433 1.580804 -0.005023 -1.566847
end
triangles
buff_m249_2_v.bmp
  47 5.933849 -13.605896 -2.805303 -0.848251 0.092922 0.521378 0.943249 0.763209
  47 6.109331 -13.613496 -2.506224 -0.879323 0.069396 0.471142 0.931507 0.831703
  47 5.995367 -13.009059 -2.806171 -0.879323 0.069396 0.471142 0.812133 0.739726
buff_m249_2_v.bmp
  47 5.995367 -13.009059 -2.806171 -0.879323 0.069396 0.471142 0.812133 0.739726
  47 6.109331 -13.613496 -2.506224 -0.879323 0.069396 0.471142 0.931507 0.831703
  47 6.141538 -13.013654 -2.518572 -0.903126 0.035142 0.427935 0.800391 0.810176
buff_m249_2_v.bmp
  47 6.109331 -13.613496 -2.506224 -0.879323 0.069396 0.471142 0.931507 0.831703
  47 6.277219 -13.670505 -2.157135 -0.725172 -0.016258 0.688375 0.927593 0.872798
  47 6.141538 -13.013654 -2.518572 -0.903126 0.035142 0.427935 0.800391 0.810176
buff_m249_2_v.bmp
  47 6.141538 -13.013654 -2.518572 -0.903126 0.035142 0.427935 0.800391 0.810176
  47 6.277219 -13.670505 -2.157135 -0.725172 -0.016258 0.688375 0.927593 0.872798
  47 6.283377 -13.299124 -2.119212 -0.766375 -0.027819 0.641790 0.847358 0.868885
buff_m249_2_v.bmp
  47 6.277219 -13.670505 -2.157135 -0.725172 -0.016258 0.688375 0.927593 0.872798
  47 6.597181 -13.703229 -1.980915 -0.063466 -0.135455 0.988749 0.923679 0.923679
  47 6.283377 -13.299124 -2.119212 -0.766375 -0.027819 0.641790 0.847358 0.868885
buff_m249_2_v.bmp
  47 6.283377 -13.299124 -2.119212 -0.766375 -0.027819 0.641790 0.847358 0.868885
  47 6.597181 -13.703229 -1.980915 -0.063466 -0.135455 0.988749 0.923679 0.923679
  47 6.625473 -13.404483 -1.931411 -0.063466 -0.135455 0.988749 0.855186 0.925636
buff_m249_2_v.bmp
  47 6.597181 -13.703229 -1.980915 -0.063466 -0.135455 0.988749 0.923679 0.923679
  47 6.998701 -13.372803 -2.083391 0.677428 -0.176532 0.714093 0.847358 0.868885
  47 6.625473 -13.404483 -1.931411 -0.063466 -0.135455 0.988749 0.855186 0.925636
buff_m249_2_v.bmp
  47 6.625473 -13.404483 -1.931411 -0.063466 -0.135455 0.988749 0.855186 0.925636
  47 6.998701 -13.372803 -2.083391 0.677428 -0.176532 0.714093 0.847358 0.868885
  47 7.023566 -12.902777 -2.015152 0.789568 -0.124334 0.600935 0.757339 0.872798
buff_m249_2_v.bmp
  47 6.998701 -13.372803 -2.083391 0.677428 -0.176532 0.714093 0.847358 0.868885
  47 7.234393 -13.126220 -2.463845 0.844581 -0.144873 0.515456 0.800391 0.810176
  47 7.023566 -12.902777 -2.015152 0.789568 -0.124334 0.600935 0.757339 0.872798
buff_m249_2_v.bmp
  47 7.023566 -12.902777 -2.015152 0.789568 -0.124334 0.600935 0.757339 0.872798
  47 7.234393 -13.126220 -2.463845 0.844581 -0.144873 0.515456 0.800391 0.810176
  47 7.203054 -12.680461 -2.328138 0.509431 -0.053012 0.858877 0.726027 0.827789
buff_m249_2_v.bmp
  47 7.234393 -13.126220 -2.463845 0.844581 -0.144873 0.515456 0.800391 0.810176
  47 7.394248 -12.710309 -2.388583 0.875720 -0.044788 0.480738 0.729941 0.802348
  47 7.203054 -12.680461 -2.328138 0.509431 -0.053012 0.858877 0.726027 0.827789
buff_m249_2_v.bmp
  47 7.203054 -12.680461 -2.328138 0.509431 -0.053012 0.858877 0.726027 0.827789
  47 7.394248 -12.710309 -2.388583 0.875720 -0.044788 0.480738 0.729941 0.802348
  47 7.265301 -12.315046 -2.417566 0.823000 0.302852 0.480575 0.661448 0.798434
buff_m249_2_v.bmp
  47 7.394248 -12.710309 -2.388583 0.875720 -0.044788 0.480738 0.729941 0.802348
  47 7.344013 -12.705411 -2.581333 0.971852 0.015686 0.235069 0.733855 0.772994
  47 7.265301 -12.315046 -2.417566 0.823000 0.302852 0.480575 0.661448 0.798434
buff_m249_2_v.bmp
  48 5.962728 -14.684969 -2.787519 -0.913439 -0.097736 0.395066 0.667319 0.780822
  48 6.102253 -14.749182 -2.489846 -0.859782 -0.069904 0.505855 0.643836 0.847358
  48 5.863164 -13.800112 -2.798231 -0.867826 -0.023811 0.496297 0.542074 0.735812
buff_m249_2_v.bmp
  48 5.863164 -13.800112 -2.798231 -0.867826 -0.023811 0.496297 0.542074 0.735812
  48 6.102253 -14.749182 -2.489846 -0.859782 -0.069904 0.505855 0.643836 0.847358
  48 6.028179 -13.816701 -2.509622 -0.867826 -0.023811 0.496297 0.518591 0.802348
buff_m249_2_v.bmp
  48 6.102253 -14.749182 -2.489846 -0.859782 -0.069904 0.505855 0.643836 0.847358
  48 6.246537 -14.713488 -2.282703 -0.702768 -0.102175 0.704043 0.634051 0.884540
  48 6.028179 -13.816701 -2.509622 -0.867826 -0.023811 0.496297 0.518591 0.802348
buff_m249_2_v.bmp
  48 6.028179 -13.816701 -2.509622 -0.867826 -0.023811 0.496297 0.518591 0.802348
  48 6.246537 -14.713488 -2.282703 -0.702768 -0.102175 0.704043 0.634051 0.884540
  48 6.257663 -14.040857 -2.126359 -0.702768 -0.102175 0.704043 0.553816 0.868885
buff_m249_2_v.bmp
  48 6.246537 -14.713488 -2.282703 -0.702768 -0.102175 0.704043 0.634051 0.884540
  48 6.496954 -14.739048 -2.109966 -0.072792 -0.235537 0.969136 0.622309 0.935421
  48 6.257663 -14.040857 -2.126359 -0.702768 -0.102175 0.704043 0.553816 0.868885
buff_m249_2_v.bmp
  48 6.257663 -14.040857 -2.126359 -0.702768 -0.102175 0.704043 0.553816 0.868885
  48 6.496954 -14.739048 -2.109966 -0.072792 -0.235537 0.969136 0.622309 0.935421
  48 6.562882 -14.021798 -1.951206 -0.068566 -0.189486 0.979486 0.551859 0.927593
buff_m249_2_v.bmp
  48 6.496954 -14.739048 -2.109966 -0.072792 -0.235537 0.969136 0.622309 0.935421
  48 6.873636 -14.104303 -2.095512 0.594195 -0.235765 0.768991 0.553816 0.868885
  48 6.562882 -14.021798 -1.951206 -0.068566 -0.189486 0.979486 0.551859 0.927593
buff_m249_2_v.bmp
  48 6.562882 -14.021798 -1.951206 -0.068566 -0.189486 0.979486 0.551859 0.927593
  48 6.873636 -14.104303 -2.095512 0.594195 -0.235765 0.768991 0.553816 0.868885
  48 6.924206 -13.677135 -2.025723 0.695481 -0.176831 0.696446 0.465753 0.857143
buff_m249_2_v.bmp
  48 6.873636 -14.104303 -2.095512 0.594195 -0.235765 0.768991 0.553816 0.868885
  48 7.180646 -13.935406 -2.451910 0.791450 -0.194719 0.579389 0.518591 0.802348
  48 6.924206 -13.677135 -2.025723 0.695481 -0.176831 0.696446 0.465753 0.857143
buff_m249_2_v.bmp
  48 6.924206 -13.677135 -2.025723 0.695481 -0.176831 0.696446 0.465753 0.857143
  48 7.180646 -13.935406 -2.451910 0.791450 -0.194719 0.579389 0.518591 0.802348
  48 7.159734 -13.490736 -2.325693 0.587690 -0.050947 0.807481 0.442270 0.808219
buff_m249_2_v.bmp
  48 7.180646 -13.935406 -2.451910 0.791450 -0.194719 0.579389 0.518591 0.802348
  48 7.302772 -13.505585 -2.398628 0.860208 -0.028127 0.509168 0.450098 0.784736
  48 7.159734 -13.490736 -2.325693 0.587690 -0.050947 0.807481 0.442270 0.808219
buff_m249_2_v.bmp
  48 7.159734 -13.490736 -2.325693 0.587690 -0.050947 0.807481 0.442270 0.808219
  48 7.302772 -13.505585 -2.398628 0.860208 -0.028127 0.509168 0.450098 0.784736
  48 7.227284 -13.176146 -2.424539 0.832380 0.243640 0.497778 0.383562 0.769080
buff_m249_2_v.bmp
  48 7.302772 -13.505585 -2.398628 0.860208 -0.028127 0.509168 0.450098 0.784736
  48 7.301226 -13.505674 -2.568915 0.922068 0.013287 0.386800 0.457926 0.757339
  48 7.227284 -13.176146 -2.424539 0.832380 0.243640 0.497778 0.383562 0.769080
buff_m249_2_v.bmp
  47 6.131937 -12.580565 -2.642031 -0.966735 0.215365 0.137988 0.733855 0.772994
  47 6.062951 -12.573183 -2.455252 -0.909677 0.139110 0.391327 0.729941 0.802348
  47 6.271796 -12.212714 -2.467319 -0.787617 0.468748 0.399918 0.661448 0.798434
buff_m249_2_v.bmp
  47 6.271796 -12.212714 -2.467319 -0.787617 0.468748 0.399918 0.661448 0.798434
  47 6.062951 -12.573183 -2.455252 -0.909677 0.139110 0.391327 0.729941 0.802348
  47 6.249289 -12.582221 -2.375900 -0.591927 0.060431 0.803723 0.726027 0.827789
buff_m249_2_v.bmp
  47 6.062951 -12.573183 -2.455252 -0.909677 0.139110 0.391327 0.729941 0.802348
  47 6.141538 -13.013654 -2.518572 -0.903126 0.035142 0.427935 0.800391 0.810176
  47 6.249289 -12.582221 -2.375900 -0.591927 0.060431 0.803723 0.726027 0.827789
buff_m249_2_v.bmp
  47 6.249289 -12.582221 -2.375900 -0.591927 0.060431 0.803723 0.726027 0.827789
  47 6.141538 -13.013654 -2.518572 -0.903126 0.035142 0.427935 0.800391 0.810176
  47 6.347983 -12.833191 -2.048984 -0.853811 0.044937 0.518640 0.757339 0.872798
buff_m249_2_v.bmp
  47 6.141538 -13.013654 -2.518572 -0.903126 0.035142 0.427935 0.800391 0.810176
  47 6.283377 -13.299124 -2.119212 -0.766375 -0.027819 0.641790 0.847358 0.868885
  47 6.347983 -12.833191 -2.048984 -0.853811 0.044937 0.518640 0.757339 0.872798
buff_m249_2_v.bmp
  47 6.347983 -12.833191 -2.048984 -0.853811 0.044937 0.518640 0.757339 0.872798
  47 6.283377 -13.299124 -2.119212 -0.766375 -0.027819 0.641790 0.847358 0.868885
  47 6.625473 -13.404483 -1.931411 -0.063466 -0.135455 0.988749 0.855186 0.925636
buff_m249_2_v.bmp
  48 6.009669 -13.372641 -2.633593 -0.933727 0.204437 0.293870 0.457926 0.757339
  48 5.991345 -13.370507 -2.464301 -0.893987 0.152558 0.421323 0.450098 0.784736
  48 6.134428 -13.063581 -2.479267 -0.810495 0.412858 0.415506 0.383562 0.769080
buff_m249_2_v.bmp
  48 6.134428 -13.063581 -2.479267 -0.810495 0.412858 0.415506 0.383562 0.769080
  48 5.991345 -13.370507 -2.464301 -0.893987 0.152558 0.421323 0.450098 0.784736
  48 6.126489 -13.384310 -2.377435 -0.662658 0.077841 0.744866 0.442270 0.808219
buff_m249_2_v.bmp
  48 5.991345 -13.370507 -2.464301 -0.893987 0.152558 0.421323 0.450098 0.784736
  48 6.028179 -13.816701 -2.509622 -0.867826 -0.023811 0.496297 0.518591 0.802348
  48 6.126489 -13.384310 -2.377435 -0.662658 0.077841 0.744866 0.442270 0.808219
buff_m249_2_v.bmp
  48 6.126489 -13.384310 -2.377435 -0.662658 0.077841 0.744866 0.442270 0.808219
  48 6.028179 -13.816701 -2.509622 -0.867826 -0.023811 0.496297 0.518591 0.802348
  48 6.288362 -13.611643 -2.057565 -0.782276 -0.024619 0.622445 0.465753 0.857143
buff_m249_2_v.bmp
  48 6.028179 -13.816701 -2.509622 -0.867826 -0.023811 0.496297 0.518591 0.802348
  48 6.257663 -14.040857 -2.126359 -0.702768 -0.102175 0.704043 0.553816 0.868885
  48 6.288362 -13.611643 -2.057565 -0.782276 -0.024619 0.622445 0.465753 0.857143
buff_m249_2_v.bmp
  48 6.288362 -13.611643 -2.057565 -0.782276 -0.024619 0.622445 0.465753 0.857143
  48 6.257663 -14.040857 -2.126359 -0.702768 -0.102175 0.704043 0.553816 0.868885
  48 6.562882 -14.021798 -1.951206 -0.068566 -0.189486 0.979486 0.551859 0.927593
buff_m249_2_v.bmp
  47 7.234393 -13.126220 -2.463845 0.844581 -0.144873 0.515456 0.800391 0.810176
  47 7.344013 -12.705411 -2.581333 0.971852 0.015686 0.235069 0.733855 0.772994
  47 7.394248 -12.710309 -2.388583 0.875720 -0.044788 0.480738 0.729941 0.802348
buff_m249_2_v.bmp
  47 7.234393 -13.126220 -2.463845 0.844581 -0.144873 0.515456 0.800391 0.810176
  47 7.405597 -12.711813 -2.618298 0.693513 -0.008307 0.720396 0.737769 0.751468
  47 7.344013 -12.705411 -2.581333 0.971852 0.015686 0.235069 0.733855 0.772994
buff_m249_2_v.bmp
  47 7.234393 -13.126220 -2.463845 0.844581 -0.144873 0.515456 0.800391 0.810176
  47 7.406145 -13.154371 -2.735523 0.824089 -0.106056 0.556444 0.812133 0.739726
  47 7.405597 -12.711813 -2.618298 0.693513 -0.008307 0.720396 0.737769 0.751468
buff_m249_2_v.bmp
  47 7.234393 -13.126220 -2.463845 0.844581 -0.144873 0.515456 0.800391 0.810176
  47 7.142576 -13.719922 -2.454482 0.824089 -0.106056 0.556444 0.931507 0.831703
  47 7.406145 -13.154371 -2.735523 0.824089 -0.106056 0.556444 0.812133 0.739726
buff_m249_2_v.bmp
  47 7.234393 -13.126220 -2.463845 0.844581 -0.144873 0.515456 0.800391 0.810176
  47 6.932933 -13.738045 -2.124298 0.635037 -0.156360 0.756492 0.927593 0.872798
  47 7.142576 -13.719922 -2.454482 0.824089 -0.106056 0.556444 0.931507 0.831703
buff_m249_2_v.bmp
  47 7.234393 -13.126220 -2.463845 0.844581 -0.144873 0.515456 0.800391 0.810176
  47 6.998701 -13.372803 -2.083391 0.677428 -0.176532 0.714093 0.847358 0.868885
  47 6.932933 -13.738045 -2.124298 0.635037 -0.156360 0.756492 0.927593 0.872798
buff_m249_2_v.bmp
  48 7.180646 -13.935406 -2.451910 0.791450 -0.194719 0.579389 0.518591 0.802348
  48 7.301226 -13.505674 -2.568915 0.922068 0.013287 0.386800 0.457926 0.757339
  48 7.302772 -13.505585 -2.398628 0.860208 -0.028127 0.509168 0.450098 0.784736
buff_m249_2_v.bmp
  48 7.180646 -13.935406 -2.451910 0.791450 -0.194719 0.579389 0.518591 0.802348
  48 7.363303 -13.512140 -2.615868 0.672758 -0.006015 0.739839 0.465753 0.735812
  48 7.301226 -13.505674 -2.568915 0.922068 0.013287 0.386800 0.457926 0.757339
buff_m249_2_v.bmp
  48 7.180646 -13.935406 -2.451910 0.791450 -0.194719 0.579389 0.518591 0.802348
  48 7.373292 -13.955657 -2.722607 0.791450 -0.194719 0.579389 0.542074 0.735812
  48 7.363303 -13.512140 -2.615868 0.672758 -0.006015 0.739839 0.465753 0.735812
buff_m249_2_v.bmp
  48 7.180646 -13.935406 -2.451910 0.791450 -0.194719 0.579389 0.518591 0.802348
  48 6.916928 -14.833095 -2.449049 0.773296 -0.238112 0.587635 0.643836 0.847358
  48 7.373292 -13.955657 -2.722607 0.791450 -0.194719 0.579389 0.542074 0.735812
buff_m249_2_v.bmp
  48 7.180646 -13.935406 -2.451910 0.791450 -0.194719 0.579389 0.518591 0.802348
  48 6.763160 -14.766701 -2.256832 0.594195 -0.235765 0.768991 0.634051 0.884540
  48 6.916928 -14.833095 -2.449049 0.773296 -0.238112 0.587635 0.643836 0.847358
buff_m249_2_v.bmp
  48 7.180646 -13.935406 -2.451910 0.791450 -0.194719 0.579389 0.518591 0.802348
  48 6.873636 -14.104303 -2.095512 0.594195 -0.235765 0.768991 0.553816 0.868885
  48 6.763160 -14.766701 -2.256832 0.594195 -0.235765 0.768991 0.634051 0.884540
buff_m249_2_v.bmp
  0 5.927684 -14.255446 -2.735057 -0.966054 0.012242 0.258050 0.448141 0.778865
  0 5.948762 -14.255843 -2.553796 -0.868712 0.055163 0.492236 0.448141 0.808219
  0 6.022897 -13.942097 -2.584902 -0.854624 0.257208 0.451067 0.381605 0.814090
buff_m249_2_v.bmp
  0 6.022897 -13.942097 -2.584902 -0.854624 0.257208 0.451067 0.381605 0.814090
  0 5.948762 -14.255843 -2.553796 -0.868712 0.055163 0.492236 0.448141 0.808219
  0 6.054169 -14.265911 -2.468427 -0.675583 -0.007203 0.737248 0.450098 0.833659
buff_m249_2_v.bmp
  0 5.948762 -14.255843 -2.553796 -0.868712 0.055163 0.492236 0.448141 0.808219
  0 6.009487 -14.765310 -2.603350 -0.872691 -0.098988 0.478134 0.520548 0.802348
  0 6.054169 -14.265911 -2.468427 -0.675583 -0.007203 0.737248 0.450098 0.833659
buff_m249_2_v.bmp
  0 6.054169 -14.265911 -2.468427 -0.675583 -0.007203 0.737248 0.450098 0.833659
  0 6.009487 -14.765310 -2.603350 -0.872691 -0.098988 0.478134 0.520548 0.802348
  0 6.239427 -14.503978 -2.235609 -0.760552 -0.103000 0.641055 0.489237 0.870841
buff_m249_2_v.bmp
  0 6.009487 -14.765310 -2.603350 -0.872691 -0.098988 0.478134 0.520548 0.802348
  0 6.240296 -14.927156 -2.319390 -0.638933 -0.144620 0.755546 0.575342 0.853229
  0 6.239427 -14.503978 -2.235609 -0.760552 -0.103000 0.641055 0.489237 0.870841
buff_m249_2_v.bmp
  0 6.239427 -14.503978 -2.235609 -0.760552 -0.103000 0.641055 0.489237 0.870841
  0 6.240296 -14.927156 -2.319390 -0.638933 -0.144620 0.755546 0.575342 0.853229
  0 6.468257 -14.999814 -2.197102 -0.071819 -0.224790 0.971757 0.592955 0.908023
buff_m249_2_v.bmp
  0 7.002992 -14.867643 -2.553597 0.782699 -0.269494 0.561031 0.520548 0.802348
  0 6.795790 -14.561284 -2.207748 0.656541 -0.248962 0.712020 0.489237 0.870841
  0 6.717178 -14.976276 -2.295509 0.518289 -0.263816 0.813497 0.575342 0.853229
buff_m249_2_v.bmp
  0 7.002992 -14.867643 -2.553597 0.782699 -0.269494 0.561031 0.520548 0.802348
  0 7.047674 -14.368244 -2.418674 0.583744 -0.136914 0.800311 0.450098 0.833659
  0 6.795790 -14.561284 -2.207748 0.656541 -0.248962 0.712020 0.489237 0.870841
buff_m249_2_v.bmp
  0 7.002992 -14.867643 -2.553597 0.782699 -0.269494 0.561031 0.520548 0.802348
  0 7.160838 -14.380688 -2.493098 0.808773 -0.117619 0.576240 0.448141 0.808219
  0 7.047674 -14.368244 -2.418674 0.583744 -0.136914 0.800311 0.450098 0.833659
buff_m249_2_v.bmp
  0 7.002992 -14.867643 -2.553597 0.782699 -0.269494 0.561031 0.520548 0.802348
  0 7.199371 -14.386432 -2.671374 0.918016 -0.181818 0.352403 0.448141 0.778865
  0 7.160838 -14.380688 -2.493098 0.808773 -0.117619 0.576240 0.448141 0.808219
buff_m249_2_v.bmp
  0 7.002992 -14.867643 -2.553597 0.782699 -0.269494 0.561031 0.520548 0.802348
  0 7.231115 -14.390096 -2.709830 0.843279 -0.233173 0.484264 0.448141 0.755382
  0 7.199371 -14.386432 -2.671374 0.918016 -0.181818 0.352403 0.448141 0.778865
buff_m249_2_v.bmp
  0 7.002992 -14.867643 -2.553597 0.782699 -0.269494 0.561031 0.520548 0.802348
  0 7.141964 -14.824402 -2.827854 0.872919 -0.274750 0.403143 0.520548 0.731898
  0 7.231115 -14.390096 -2.709830 0.843279 -0.233173 0.484264 0.448141 0.755382
buff_m249_2_v.bmp
  47 5.933849 -13.605896 -2.805303 -0.993505 0.102332 -0.049752 0.943249 0.763209
  47 5.995367 -13.009059 -2.806171 -0.993505 0.102332 -0.049752 0.812133 0.739726
  47 5.960493 -13.609427 -3.344634 -0.993505 0.102332 -0.049752 0.962818 0.669276
buff_m249_2_v.bmp
  47 5.960493 -13.609427 -3.344634 -0.993505 0.102332 -0.049752 0.962818 0.669276
  47 5.995367 -13.009059 -2.806171 -0.993505 0.102332 -0.049752 0.812133 0.739726
  47 6.024479 -13.012917 -3.395440 -0.993505 0.102332 -0.049752 0.831703 0.643836
buff_m249_2_v.bmp
  47 5.995367 -13.009059 -2.806171 -0.993505 0.102332 -0.049752 0.812133 0.739726
  47 6.046895 -12.572228 -2.936647 -0.993505 0.102332 -0.049752 0.747554 0.698630
  47 6.024479 -13.012917 -3.395440 -0.993505 0.102332 -0.049752 0.831703 0.643836
buff_m249_2_v.bmp
  47 6.024479 -13.012917 -3.395440 -0.993505 0.102332 -0.049752 0.831703 0.643836
  47 6.046895 -12.572228 -2.936647 -0.993505 0.102332 -0.049752 0.747554 0.698630
  47 6.063672 -12.574451 -3.276225 -0.993505 0.102332 -0.049752 0.759295 0.651663
buff_m249_2_v.bmp
  47 6.625473 -13.404483 -1.931411 -0.080736 -0.325862 0.941964 0.855186 0.925636
  47 6.525739 -12.891507 -1.899647 -0.688531 -0.187136 0.700646 0.765166 0.911937
  47 6.347983 -12.833191 -2.048984 -0.688531 -0.187136 0.700646 0.757339 0.872798
buff_m249_2_v.bmp
  47 6.625473 -13.404483 -1.931411 -0.080736 -0.325862 0.941964 0.855186 0.925636
  47 6.669415 -12.885982 -1.742399 -0.080736 -0.325862 0.941964 0.753425 0.960861
  47 6.525739 -12.891507 -1.899647 -0.688531 -0.187136 0.700646 0.765166 0.911937
buff_m249_2_v.bmp
  47 6.625473 -13.404483 -1.931411 -0.080736 -0.325862 0.941964 0.855186 0.925636
  47 6.823791 -12.922207 -1.884721 0.548441 -0.311269 0.776095 0.765166 0.911937
  47 6.669415 -12.885982 -1.742399 -0.080736 -0.325862 0.941964 0.753425 0.960861
buff_m249_2_v.bmp
  47 6.625473 -13.404483 -1.931411 -0.080736 -0.325862 0.941964 0.855186 0.925636
  47 7.023566 -12.902777 -2.015152 0.548441 -0.311269 0.776095 0.757339 0.872798
  47 6.823791 -12.922207 -1.884721 0.548441 -0.311269 0.776095 0.765166 0.911937
buff_m249_2_v.bmp
  47 6.738616 -12.733821 -2.811304 0.224274 0.974519 -0.003602 0.275930 0.191781
  47 6.046895 -12.572228 -2.936647 0.224274 0.974519 -0.003602 0.107632 0.176125
  47 6.074300 -12.574687 -2.684967 0.224274 0.974519 -0.003602 0.117417 0.219178
buff_m249_2_v.bmp
  47 6.738616 -12.733821 -2.811304 0.224274 0.974519 -0.003602 0.275930 0.191781
  47 6.063672 -12.574451 -3.276225 0.224274 0.974519 -0.003602 0.107632 0.131115
  47 6.046895 -12.572228 -2.936647 0.224274 0.974519 -0.003602 0.107632 0.176125
buff_m249_2_v.bmp
  47 6.738616 -12.733821 -2.811304 0.224274 0.974519 -0.003602 0.275930 0.191781
  47 6.069593 -12.575236 -3.396077 0.224274 0.974519 -0.003602 0.107632 0.109589
  47 6.063672 -12.574451 -3.276225 0.224274 0.974519 -0.003602 0.107632 0.131115
buff_m249_2_v.bmp
  47 6.738616 -12.733821 -2.811304 0.224274 0.974519 -0.003602 0.275930 0.191781
  47 6.765754 -12.737418 -3.360622 0.224274 0.974519 -0.003602 0.275930 0.109589
  47 6.069593 -12.575236 -3.396077 0.224274 0.974519 -0.003602 0.107632 0.109589
buff_m249_2_v.bmp
  48 6.562882 -14.021798 -1.951206 -0.072792 -0.235537 0.969136 0.551859 0.927593
  48 6.418911 -13.665170 -1.960653 -0.548389 -0.212090 0.808880 0.467710 0.898239
  48 6.288362 -13.611643 -2.057565 -0.632300 -0.249718 0.733374 0.465753 0.857143
buff_m249_2_v.bmp
  48 6.562882 -14.021798 -1.951206 -0.072792 -0.235537 0.969136 0.551859 0.927593
  48 6.595807 -13.673250 -1.891787 -0.068566 -0.189486 0.979486 0.446184 0.943249
  48 6.418911 -13.665170 -1.960653 -0.548389 -0.212090 0.808880 0.467710 0.898239
buff_m249_2_v.bmp
  48 6.562882 -14.021798 -1.951206 -0.072792 -0.235537 0.969136 0.551859 0.927593
  48 6.776573 -13.702010 -1.942742 0.411097 -0.310915 0.856931 0.467710 0.898239
  48 6.595807 -13.673250 -1.891787 -0.068566 -0.189486 0.979486 0.446184 0.943249
buff_m249_2_v.bmp
  48 6.562882 -14.021798 -1.951206 -0.072792 -0.235537 0.969136 0.551859 0.927593
  48 6.924206 -13.677135 -2.025723 0.492647 -0.365585 0.789713 0.465753 0.857143
  48 6.776573 -13.702010 -1.942742 0.411097 -0.310915 0.856931 0.467710 0.898239
buff_m249_2_v.bmp
  48 6.656088 -13.529991 -2.800876 0.216741 0.976221 -0.003999 0.234834 0.097847
  48 5.914692 -13.363281 -2.928706 0.216741 0.976221 -0.003999 0.066536 0.082192
  48 5.952525 -13.366828 -2.686516 0.216741 0.976221 -0.003999 0.076321 0.125245
buff_m249_2_v.bmp
  48 6.656088 -13.529991 -2.800876 0.216741 0.976221 -0.003999 0.234834 0.097847
  48 5.930443 -13.375451 -3.268270 0.216741 0.976221 -0.003999 0.066536 0.037182
  48 5.914692 -13.363281 -2.928706 0.216741 0.976221 -0.003999 0.066536 0.082192
buff_m249_2_v.bmp
  48 6.656088 -13.529991 -2.800876 0.216741 0.976221 -0.003999 0.234834 0.097847
  48 5.936364 -13.376236 -3.388122 0.216741 0.976221 -0.003999 0.066536 0.015656
  48 5.930443 -13.375451 -3.268270 0.216741 0.976221 -0.003999 0.066536 0.037182
buff_m249_2_v.bmp
  48 6.656088 -13.529991 -2.800876 0.216741 0.976221 -0.003999 0.234834 0.097847
  48 6.682201 -13.543534 -3.350180 0.216741 0.976221 -0.003999 0.234834 0.015656
  48 5.936364 -13.376236 -3.388122 0.216741 0.976221 -0.003999 0.066536 0.015656
buff_m249_2_v.bmp
  47 6.738616 -12.733821 -2.811304 -0.019957 0.999675 -0.015833 0.277886 0.191781
  47 7.480370 -12.720548 -3.325428 -0.019957 0.999675 -0.015833 0.446184 0.109589
  47 6.765754 -12.737418 -3.360622 -0.019957 0.999675 -0.015833 0.277886 0.109589
buff_m249_2_v.bmp
  47 6.738616 -12.733821 -2.811304 -0.019957 0.999675 -0.015833 0.277886 0.191781
  47 7.474449 -12.719763 -3.205577 -0.019957 0.999675 -0.015833 0.446184 0.131115
  47 7.480370 -12.720548 -3.325428 -0.019957 0.999675 -0.015833 0.446184 0.109589
buff_m249_2_v.bmp
  47 6.738616 -12.733821 -2.811304 -0.019957 0.999675 -0.015833 0.277886 0.191781
  47 7.457673 -12.717540 -2.865998 -0.019957 0.999675 -0.015833 0.446184 0.176125
  47 7.474449 -12.719763 -3.205577 -0.019957 0.999675 -0.015833 0.446184 0.131115
buff_m249_2_v.bmp
  47 6.738616 -12.733821 -2.811304 -0.019957 0.999675 -0.015833 0.277886 0.191781
  47 7.405597 -12.711813 -2.618298 -0.019957 0.999675 -0.015833 0.436399 0.219178
  47 7.457673 -12.717540 -2.865998 -0.019957 0.999675 -0.015833 0.446184 0.176125
buff_m249_2_v.bmp
  48 6.656088 -13.529991 -2.800876 -0.012234 0.999806 -0.015466 0.234834 0.097847
  48 7.446492 -13.531781 -3.312498 -0.012234 0.999806 -0.015466 0.403131 0.015656
  48 6.682201 -13.543534 -3.350180 -0.012234 0.999806 -0.015466 0.234834 0.015656
buff_m249_2_v.bmp
  48 6.656088 -13.529991 -2.800876 -0.012234 0.999806 -0.015466 0.234834 0.097847
  48 7.440571 -13.530997 -3.192647 -0.012234 0.999806 -0.015466 0.403131 0.037182
  48 7.446492 -13.531781 -3.312498 -0.012234 0.999806 -0.015466 0.403131 0.015656
buff_m249_2_v.bmp
  48 6.656088 -13.529991 -2.800876 -0.012234 0.999806 -0.015466 0.234834 0.097847
  48 7.424820 -13.518826 -2.853083 -0.012234 0.999806 -0.015466 0.403131 0.082192
  48 7.440571 -13.530997 -3.192647 -0.012234 0.999806 -0.015466 0.403131 0.037182
buff_m249_2_v.bmp
  48 6.656088 -13.529991 -2.800876 -0.012234 0.999806 -0.015466 0.234834 0.097847
  48 7.363303 -13.512140 -2.615868 -0.012234 0.999806 -0.015466 0.393346 0.125245
  48 7.424820 -13.518826 -2.853083 -0.012234 0.999806 -0.015466 0.403131 0.082192
buff_m249_2_v.bmp
  0 6.590140 -14.421446 -3.441382 0.044932 -0.015432 -0.998871 0.767123 0.313112
  0 5.928203 -14.705100 -3.469299 0.044932 -0.015432 -0.998871 0.804305 0.334638
  0 5.943691 -14.264389 -3.475100 0.044932 -0.015432 -0.998871 0.776908 0.334638
buff_m249_2_v.bmp
  0 6.590140 -14.421446 -3.441382 0.044932 -0.015432 -0.998871 0.767123 0.313112
  0 6.546906 -14.839195 -3.437269 0.044932 -0.015432 -0.998871 0.804305 0.313112
  0 5.928203 -14.705100 -3.469299 0.044932 -0.015432 -0.998871 0.804305 0.334638
buff_m249_2_v.bmp
  0 6.590140 -14.421446 -3.441382 0.044932 -0.015432 -0.998871 0.767123 0.313112
  0 7.180020 -14.834039 -3.406611 0.044932 -0.015432 -0.998871 0.804305 0.334638
  0 6.546906 -14.839195 -3.437269 0.044932 -0.015432 -0.998871 0.804305 0.313112
buff_m249_2_v.bmp
  0 6.590140 -14.421446 -3.441382 0.044932 -0.015432 -0.998871 0.767123 0.313112
  0 7.255118 -14.399468 -3.409427 0.044932 -0.015432 -0.998871 0.776908 0.334638
  0 7.180020 -14.834039 -3.406611 0.044932 -0.015432 -0.998871 0.804305 0.334638
buff_m249_2_v.bmp
  47 5.995367 -13.009059 -2.806171 -0.879323 0.069396 0.471142 0.812133 0.739726
  47 6.141538 -13.013654 -2.518572 -0.903126 0.035142 0.427935 0.800391 0.810176
  47 6.074300 -12.574687 -2.684967 -0.748457 0.140219 0.648190 0.737769 0.751468
buff_m249_2_v.bmp
  47 6.074300 -12.574687 -2.684967 -0.748457 0.140219 0.648190 0.737769 0.751468
  47 6.141538 -13.013654 -2.518572 -0.903126 0.035142 0.427935 0.800391 0.810176
  47 6.131937 -12.580565 -2.642031 -0.966735 0.215365 0.137988 0.733855 0.772994
buff_m249_2_v.bmp
  47 6.141538 -13.013654 -2.518572 -0.903126 0.035142 0.427935 0.800391 0.810176
  47 6.062951 -12.573183 -2.455252 -0.909677 0.139110 0.391327 0.729941 0.802348
  47 6.131937 -12.580565 -2.642031 -0.966735 0.215365 0.137988 0.733855 0.772994
buff_m249_2_v.bmp
  47 6.128425 -12.199286 -3.395631 0.044482 -0.015169 -0.998895 0.749511 0.334638
  47 6.069593 -12.575236 -3.396077 0.044482 -0.015169 -0.998895 0.763209 0.334638
  47 5.990112 -12.567049 -3.400057 0.044482 -0.015169 -0.998895 0.763209 0.336595
buff_m249_2_v.bmp
  47 5.990112 -12.567049 -3.400057 0.044482 -0.015169 -0.998895 0.763209 0.336595
  47 6.069593 -12.575236 -3.396077 0.044482 -0.015169 -0.998895 0.763209 0.334638
  47 6.024479 -13.012917 -3.395440 0.044482 -0.015169 -0.998895 0.776908 0.334638
buff_m249_2_v.bmp
  47 6.069593 -12.575236 -3.396077 0.044482 -0.015169 -0.998895 0.763209 0.334638
  47 6.765754 -12.737418 -3.360622 0.044482 -0.015169 -0.998895 0.767123 0.313112
  47 6.024479 -13.012917 -3.395440 0.044482 -0.015169 -0.998895 0.776908 0.334638
buff_m249_2_v.bmp
  48 5.863164 -13.800112 -2.798231 -0.867826 -0.023811 0.496297 0.542074 0.735812
  48 6.028179 -13.816701 -2.509622 -0.867826 -0.023811 0.496297 0.518591 0.802348
  48 5.952525 -13.366828 -2.686516 -0.729699 0.138441 0.669607 0.465753 0.735812
buff_m249_2_v.bmp
  48 5.952525 -13.366828 -2.686516 -0.729699 0.138441 0.669607 0.465753 0.735812
  48 6.028179 -13.816701 -2.509622 -0.867826 -0.023811 0.496297 0.518591 0.802348
  48 6.009669 -13.372641 -2.633593 -0.933727 0.204437 0.293870 0.457926 0.757339
buff_m249_2_v.bmp
  48 6.028179 -13.816701 -2.509622 -0.867826 -0.023811 0.496297 0.518591 0.802348
  48 5.991345 -13.370507 -2.464301 -0.893987 0.152558 0.421323 0.450098 0.784736
  48 6.009669 -13.372641 -2.633593 -0.933727 0.204437 0.293870 0.457926 0.757339
buff_m249_2_v.bmp
  48 5.998447 -13.071005 -3.397065 0.044741 -0.015196 -0.998883 0.749511 0.334638
  48 5.936364 -13.376236 -3.388122 0.044741 -0.015196 -0.998883 0.763209 0.334638
  48 5.846949 -13.367026 -3.392599 0.044741 -0.015196 -0.998883 0.763209 0.336595
buff_m249_2_v.bmp
  48 5.846949 -13.367026 -3.392599 0.044741 -0.015196 -0.998883 0.763209 0.336595
  48 5.936364 -13.376236 -3.388122 0.044741 -0.015196 -0.998883 0.763209 0.334638
  48 5.892276 -13.803969 -3.387500 0.044741 -0.015196 -0.998883 0.776908 0.334638
buff_m249_2_v.bmp
  48 5.936364 -13.376236 -3.388122 0.044741 -0.015196 -0.998883 0.763209 0.334638
  48 6.682201 -13.543534 -3.350180 0.044741 -0.015196 -0.998883 0.767123 0.313112
  48 5.892276 -13.803969 -3.387500 0.044741 -0.015196 -0.998883 0.776908 0.334638
buff_m249_2_v.bmp
  48 5.892276 -13.803969 -3.387500 0.068559 -0.076391 -0.994718 0.776908 0.334638
  48 6.682201 -13.543534 -3.350180 0.068559 -0.076391 -0.994718 0.767123 0.313112
  48 5.987361 -14.698316 -3.306860 0.068559 -0.076391 -0.994718 0.804305 0.334638
buff_m249_2_v.bmp
  48 5.987361 -14.698316 -3.306860 0.068559 -0.076391 -0.994718 0.804305 0.334638
  48 6.682201 -13.543534 -3.350180 0.068559 -0.076391 -0.994718 0.767123 0.313112
  48 6.553659 -14.756646 -3.278501 0.068559 -0.076391 -0.994718 0.804305 0.313112
buff_m249_2_v.bmp
  48 6.682201 -13.543534 -3.350180 0.068559 -0.076391 -0.994718 0.767123 0.313112
  48 7.119957 -14.814975 -3.250143 0.068559 -0.076391 -0.994718 0.804305 0.334638
  48 6.553659 -14.756646 -3.278501 0.068559 -0.076391 -0.994718 0.804305 0.313112
buff_m249_2_v.bmp
  47 7.371271 -13.754739 -3.273986 0.993505 -0.102332 0.049753 0.962818 0.669276
  47 7.435257 -13.158229 -3.324792 0.993505 -0.102332 0.049753 0.831703 0.643836
  47 7.406145 -13.154371 -2.735523 0.993505 -0.102332 0.049753 0.812133 0.739726
buff_m249_2_v.bmp
  47 7.406145 -13.154371 -2.735523 0.993505 -0.102332 0.049753 0.812133 0.739726
  47 7.435257 -13.158229 -3.324792 0.993505 -0.102332 0.049753 0.831703 0.643836
  47 7.457673 -12.717540 -2.865998 0.993505 -0.102332 0.049753 0.747554 0.698630
buff_m249_2_v.bmp
  47 7.435257 -13.158229 -3.324792 0.993505 -0.102332 0.049753 0.831703 0.643836
  47 7.474449 -12.719763 -3.205577 0.993505 -0.102332 0.049753 0.759295 0.651663
  47 7.457673 -12.717540 -2.865998 0.993505 -0.102332 0.049753 0.747554 0.698630
buff_m249_2_v.bmp
  47 6.765754 -12.737418 -3.360622 0.044482 -0.015169 -0.998895 0.767123 0.313112
  47 7.480370 -12.720548 -3.325428 0.044482 -0.015169 -0.998895 0.763209 0.334638
  47 7.435257 -13.158229 -3.324792 0.044482 -0.015169 -0.998895 0.776908 0.334638
buff_m249_2_v.bmp
  47 7.435257 -13.158229 -3.324792 0.044482 -0.015169 -0.998895 0.776908 0.334638
  47 7.480370 -12.720548 -3.325428 0.044482 -0.015169 -0.998895 0.763209 0.334638
  47 7.559851 -12.728735 -3.321448 0.044482 -0.015169 -0.998895 0.763209 0.336595
buff_m249_2_v.bmp
  47 7.480370 -12.720548 -3.325428 0.044482 -0.015169 -0.998895 0.763209 0.334638
  47 7.499462 -12.340504 -3.326973 0.044482 -0.015169 -0.998895 0.749511 0.334638
  47 7.559851 -12.728735 -3.321448 0.044482 -0.015169 -0.998895 0.763209 0.336595
buff_m249_2_v.bmp
  48 6.682201 -13.543534 -3.350180 0.044741 -0.015196 -0.998883 0.767123 0.313112
  48 7.446492 -13.531781 -3.312498 0.044741 -0.015196 -0.998883 0.763209 0.334638
  48 7.402404 -13.959515 -3.311876 0.044741 -0.015196 -0.998883 0.776908 0.334638
buff_m249_2_v.bmp
  48 7.402404 -13.959515 -3.311876 0.044741 -0.015196 -0.998883 0.776908 0.334638
  48 7.446492 -13.531781 -3.312498 0.044741 -0.015196 -0.998883 0.763209 0.334638
  48 7.535908 -13.540991 -3.308020 0.044741 -0.015196 -0.998883 0.763209 0.336595
buff_m249_2_v.bmp
  48 7.446492 -13.531781 -3.312498 0.044741 -0.015196 -0.998883 0.763209 0.334638
  48 7.448965 -13.220411 -3.324427 0.044741 -0.015196 -0.998883 0.749511 0.334638
  48 7.535908 -13.540991 -3.308020 0.044741 -0.015196 -0.998883 0.763209 0.336595
buff_m249_2_v.bmp
  0 5.910018 -14.697510 -2.889547 -0.946036 -0.087395 0.312056 0.520548 0.731898
  0 6.009487 -14.765310 -2.603350 -0.872691 -0.098988 0.478134 0.520548 0.802348
  0 5.899818 -14.252970 -2.776499 -0.916729 -0.051892 0.396126 0.448141 0.755382
buff_m249_2_v.bmp
  0 5.899818 -14.252970 -2.776499 -0.916729 -0.051892 0.396126 0.448141 0.755382
  0 6.009487 -14.765310 -2.603350 -0.872691 -0.098988 0.478134 0.520548 0.802348
  0 5.927684 -14.255446 -2.735057 -0.966054 0.012242 0.258050 0.448141 0.778865
buff_m249_2_v.bmp
  0 6.009487 -14.765310 -2.603350 -0.872691 -0.098988 0.478134 0.520548 0.802348
  0 5.948762 -14.255843 -2.553796 -0.868712 0.055163 0.492236 0.448141 0.808219
  0 5.927684 -14.255446 -2.735057 -0.966054 0.012242 0.258050 0.448141 0.778865
buff_m249_2_v.bmp
  47 6.277219 -13.670505 -2.157135 -0.087222 -0.995974 -0.020667 0.724070 0.360078
  47 6.665882 -13.682083 -3.309310 -0.087222 -0.995974 -0.020667 0.741683 0.293542
  47 6.597181 -13.703229 -1.980915 -0.087222 -0.995974 -0.020667 0.741683 0.365949
buff_m249_2_v.bmp
  47 6.597181 -13.703229 -1.980915 -0.087222 -0.995974 -0.020667 0.741683 0.365949
  47 6.665882 -13.682083 -3.309310 -0.087222 -0.995974 -0.020667 0.741683 0.293542
  47 6.932933 -13.738045 -2.124298 -0.087222 -0.995974 -0.020667 0.724070 0.360078
buff_m249_2_v.bmp
  47 6.109331 -13.613496 -2.506224 -0.087222 -0.995974 -0.020667 0.714286 0.350294
  47 5.933849 -13.605896 -2.805303 -0.087222 -0.995974 -0.020667 0.702544 0.326810
  47 6.665882 -13.682083 -3.309310 -0.087222 -0.995974 -0.020667 0.741683 0.293542
buff_m249_2_v.bmp
  47 6.665882 -13.682083 -3.309310 -0.087222 -0.995974 -0.020667 0.741683 0.293542
  47 5.933849 -13.605896 -2.805303 -0.087222 -0.995974 -0.020667 0.702544 0.326810
  47 5.960493 -13.609427 -3.344634 -0.087222 -0.995974 -0.020667 0.702544 0.293542
buff_m249_2_v.bmp
  47 5.960493 -13.609427 -3.344634 0.044243 -0.055406 -0.997483 0.804305 0.334638
  47 6.765754 -12.737418 -3.360622 0.044243 -0.055406 -0.997483 0.767123 0.313112
  47 6.665882 -13.682083 -3.309310 0.044243 -0.055406 -0.997483 0.804305 0.313112
buff_m249_2_v.bmp
  47 6.665882 -13.682083 -3.309310 0.044243 -0.055406 -0.997483 0.804305 0.313112
  47 6.765754 -12.737418 -3.360622 0.044243 -0.055406 -0.997483 0.767123 0.313112
  47 7.371271 -13.754739 -3.273986 0.044243 -0.055406 -0.997483 0.804305 0.334638
buff_m249_2_v.bmp
  48 5.892276 -13.803969 -3.387500 -0.992181 -0.115697 -0.046816 0.577299 0.645793
  48 5.987361 -14.698316 -3.306860 -0.992181 -0.115697 -0.046816 0.700587 0.690802
  48 5.863164 -13.800112 -2.798231 -0.992181 -0.115697 -0.046816 0.542074 0.735812
buff_m249_2_v.bmp
  48 5.863164 -13.800112 -2.798231 -0.992181 -0.115697 -0.046816 0.542074 0.735812
  48 5.987361 -14.698316 -3.306860 -0.992181 -0.115697 -0.046816 0.700587 0.690802
  48 5.962728 -14.684969 -2.787519 -0.992181 -0.115697 -0.046816 0.667319 0.780822
buff_m249_2_v.bmp
  48 6.418911 -13.665170 -1.960653 0.116029 0.992295 -0.043446 0.191781 0.395303
  48 6.595807 -13.673250 -1.891787 0.116029 0.992295 -0.043446 0.234834 0.469667
  48 6.602183 -13.684178 -2.041586 0.116029 0.992295 -0.043446 0.234834 0.320939
buff_m249_2_v.bmp
  48 6.602183 -13.684178 -2.041586 0.116029 0.992295 -0.043446 0.234834 0.320939
  48 6.595807 -13.673250 -1.891787 0.116029 0.992295 -0.043446 0.234834 0.469667
  48 6.776573 -13.702010 -1.942742 0.116029 0.992295 -0.043446 0.191781 0.395303
buff_m249_2_v.bmp
  48 5.930443 -13.375451 -3.268270 -0.993505 0.102331 -0.049752 0.502935 0.639922
  48 5.892276 -13.803969 -3.387500 -0.993505 0.102331 -0.049752 0.577299 0.645793
  48 5.914692 -13.363281 -2.928706 -0.993505 0.102331 -0.049752 0.485323 0.684932
buff_m249_2_v.bmp
  48 5.914692 -13.363281 -2.928706 -0.993505 0.102331 -0.049752 0.485323 0.684932
  48 5.892276 -13.803969 -3.387500 -0.993505 0.102331 -0.049752 0.577299 0.645793
  48 5.863164 -13.800112 -2.798231 -0.993505 0.102331 -0.049752 0.542074 0.735812
buff_m249_2_v.bmp
  48 6.246537 -14.713488 -2.282703 -0.102938 -0.994640 0.009793 0.724070 0.360078
  48 6.553659 -14.756646 -3.278501 -0.102938 -0.994640 0.009793 0.741683 0.293542
  48 6.496954 -14.739048 -2.109966 -0.102938 -0.994640 0.009793 0.741683 0.365949
buff_m249_2_v.bmp
  48 6.496954 -14.739048 -2.109966 -0.102938 -0.994640 0.009793 0.741683 0.365949
  48 6.553659 -14.756646 -3.278501 -0.102938 -0.994640 0.009793 0.741683 0.293542
  48 6.763160 -14.766701 -2.256832 -0.102938 -0.994640 0.009793 0.724070 0.360078
buff_m249_2_v.bmp
  47 7.142576 -13.719922 -2.454482 -0.087222 -0.995974 -0.020667 0.714286 0.350294
  47 6.665882 -13.682083 -3.309310 -0.087222 -0.995974 -0.020667 0.741683 0.293542
  47 7.344626 -13.751208 -2.734655 -0.087222 -0.995974 -0.020667 0.702544 0.326810
buff_m249_2_v.bmp
  47 7.344626 -13.751208 -2.734655 -0.087222 -0.995974 -0.020667 0.702544 0.326810
  47 6.665882 -13.682083 -3.309310 -0.087222 -0.995974 -0.020667 0.741683 0.293542
  47 7.371271 -13.754739 -3.273986 -0.087222 -0.995974 -0.020667 0.702544 0.293542
buff_m249_2_v.bmp
  48 7.095324 -14.801628 -2.730802 0.947505 -0.315696 0.050691 0.667319 0.780822
  48 7.119957 -14.814975 -3.250143 0.947505 -0.315696 0.050691 0.700587 0.690802
  48 7.373292 -13.955657 -2.722607 0.947505 -0.315696 0.050691 0.542074 0.735812
buff_m249_2_v.bmp
  48 7.373292 -13.955657 -2.722607 0.947505 -0.315696 0.050691 0.542074 0.735812
  48 7.119957 -14.814975 -3.250143 0.947505 -0.315696 0.050691 0.700587 0.690802
  48 7.402404 -13.959515 -3.311876 0.947505 -0.315696 0.050691 0.577299 0.645793
buff_m249_2_v.bmp
  48 7.373292 -13.955657 -2.722607 0.993505 -0.102332 0.049752 0.542074 0.735812
  48 7.402404 -13.959515 -3.311876 0.993505 -0.102332 0.049752 0.577299 0.645793
  48 7.424820 -13.518826 -2.853083 0.993505 -0.102332 0.049752 0.485323 0.684932
buff_m249_2_v.bmp
  48 7.424820 -13.518826 -2.853083 0.993505 -0.102332 0.049752 0.485323 0.684932
  48 7.402404 -13.959515 -3.311876 0.993505 -0.102332 0.049752 0.577299 0.645793
  48 7.440571 -13.530997 -3.192647 0.993505 -0.102332 0.049752 0.502935 0.639922
buff_m249_2_v.bmp
  0 6.239427 -14.503978 -2.235609 -0.480986 -0.161337 0.861756 0.489237 0.870841
  0 6.468257 -14.999814 -2.197102 -0.071819 -0.224790 0.971757 0.592955 0.908023
  0 6.505614 -14.590527 -2.101246 -0.071819 -0.224790 0.971757 0.499022 0.958904
buff_m249_2_v.bmp
  0 6.505614 -14.590527 -2.101246 -0.071819 -0.224790 0.971757 0.499022 0.958904
  0 6.468257 -14.999814 -2.197102 -0.071819 -0.224790 0.971757 0.592955 0.908023
  0 6.795790 -14.561284 -2.207748 0.350530 -0.246984 0.903398 0.489237 0.870841
buff_m249_2_v.bmp
  0 5.898133 -14.258514 -3.357245 -0.998265 -0.053954 -0.023596 0.452055 0.653620
  0 5.928203 -14.705100 -3.469299 -0.998265 -0.053954 -0.023596 0.524462 0.634051
  0 5.892069 -14.254636 -3.027172 -0.998265 -0.053954 -0.023596 0.450098 0.702544
buff_m249_2_v.bmp
  0 5.892069 -14.254636 -3.027172 -0.998265 -0.053954 -0.023596 0.450098 0.702544
  0 5.928203 -14.705100 -3.469299 -0.998265 -0.053954 -0.023596 0.524462 0.634051
  0 5.910018 -14.697510 -2.889547 -0.998265 -0.053954 -0.023596 0.520548 0.731898
buff_m249_2_v.bmp
  0 5.928203 -14.705100 -3.469299 0.044932 -0.015432 -0.998871 0.776908 0.334638
  0 5.854276 -14.255180 -3.479578 0.044932 -0.015432 -0.998871 0.763209 0.336595
  0 5.943691 -14.264389 -3.475100 0.044932 -0.015432 -0.998871 0.763209 0.334638
buff_m249_2_v.bmp
  0 5.943691 -14.264389 -3.475100 0.044932 -0.015432 -0.998871 0.763209 0.334638
  0 5.854276 -14.255180 -3.479578 0.044932 -0.015432 -0.998871 0.763209 0.336595
  0 5.887576 -13.836408 -3.484189 0.044932 -0.015432 -0.998871 0.749511 0.334638
buff_m249_2_v.bmp
  0 5.898133 -14.258514 -3.357245 0.228425 0.973540 -0.006485 0.052838 0.549902
  0 5.892069 -14.254636 -3.027172 0.228425 0.973540 -0.006485 0.052838 0.495108
  0 6.563959 -14.413426 -2.902077 0.228425 0.973540 -0.006485 0.256360 0.477495
buff_m249_2_v.bmp
  0 6.563959 -14.413426 -2.902077 0.228425 0.973540 -0.006485 0.256360 0.477495
  0 5.892069 -14.254636 -3.027172 0.228425 0.973540 -0.006485 0.052838 0.495108
  0 5.899818 -14.252970 -2.776499 0.228425 0.973540 -0.006485 0.064579 0.444227
buff_m249_2_v.bmp
  0 7.047674 -14.368244 -2.418674 0.583744 -0.136914 0.800311 0.450098 0.833659
  0 7.160838 -14.380688 -2.493098 0.808773 -0.117619 0.576240 0.448141 0.808219
  0 7.155493 -14.058756 -2.528184 0.840202 0.082637 0.535939 0.381605 0.814090
buff_m249_2_v.bmp
  0 7.155493 -14.058756 -2.528184 0.840202 0.082637 0.535939 0.381605 0.814090
  0 7.160838 -14.380688 -2.493098 0.808773 -0.117619 0.576240 0.448141 0.808219
  0 7.199371 -14.386432 -2.671374 0.918016 -0.181818 0.352403 0.448141 0.778865
buff_m249_2_v.bmp
  0 7.141964 -14.824402 -2.827854 0.965983 -0.249495 0.068039 0.520548 0.731898
  0 7.180020 -14.834039 -3.406611 0.965983 -0.249495 0.068039 0.524462 0.634051
  0 7.263106 -14.395855 -2.958514 0.965983 -0.249495 0.068039 0.450098 0.702544
buff_m249_2_v.bmp
  0 7.263106 -14.395855 -2.958514 0.965983 -0.249495 0.068039 0.450098 0.702544
  0 7.180020 -14.834039 -3.406611 0.965983 -0.249495 0.068039 0.524462 0.634051
  0 7.289041 -14.401779 -3.287592 0.965983 -0.249495 0.068039 0.452055 0.653620
buff_m249_2_v.bmp
  0 7.180020 -14.834039 -3.406611 0.044932 -0.015432 -0.998871 0.776908 0.334638
  0 7.255118 -14.399468 -3.409427 0.044932 -0.015432 -0.998871 0.763209 0.334638
  0 7.344534 -14.408678 -3.404950 0.044932 -0.015432 -0.998871 0.763209 0.336595
buff_m249_2_v.bmp
  0 7.344534 -14.408678 -3.404950 0.044932 -0.015432 -0.998871 0.763209 0.336595
  0 7.255118 -14.399468 -3.409427 0.044932 -0.015432 -0.998871 0.763209 0.334638
  0 7.397704 -13.991953 -3.408565 0.044932 -0.015432 -0.998871 0.749511 0.334638
buff_m249_2_v.bmp
  0 7.289041 -14.401779 -3.287592 -0.023914 0.999531 -0.019122 0.459883 0.549902
  0 6.563959 -14.413426 -2.902077 -0.023914 0.999531 -0.019122 0.256360 0.477495
  0 7.263106 -14.395855 -2.958514 -0.023914 0.999531 -0.019122 0.459883 0.495108
buff_m249_2_v.bmp
  0 7.263106 -14.395855 -2.958514 -0.023914 0.999531 -0.019122 0.459883 0.495108
  0 6.563959 -14.413426 -2.902077 -0.023914 0.999531 -0.019122 0.256360 0.477495
  0 7.231115 -14.390096 -2.709830 -0.023914 0.999531 -0.019122 0.446184 0.444227
buff_m249_2_v.bmp
  47 6.024479 -13.012917 -3.395440 -0.864710 -0.058907 0.498805 0.831703 0.643836
  47 6.063672 -12.574451 -3.276225 -0.864710 -0.058907 0.498805 0.759295 0.651663
  47 5.990112 -12.567049 -3.400057 -0.864710 -0.058907 0.498805 0.763209 0.626223
buff_m249_2_v.bmp
  47 6.074300 -12.574687 -2.684967 -0.655533 0.306511 0.690165 0.737769 0.751468
  47 6.119676 -12.197540 -2.815355 -0.655533 0.306511 0.690165 0.677104 0.712329
  47 5.951065 -12.562168 -2.811286 -0.655533 0.306511 0.690165 0.743640 0.724070
buff_m249_2_v.bmp
  47 5.951065 -12.562168 -2.811286 -0.724665 0.350028 -0.593584 0.743640 0.724070
  47 6.119676 -12.197540 -2.815355 -0.724665 0.350028 -0.593584 0.677104 0.712329
  47 6.046895 -12.572228 -2.936647 -0.724665 0.350028 -0.593584 0.747554 0.698630
buff_m249_2_v.bmp
  47 6.074300 -12.574687 -2.684967 -0.705592 -0.054706 0.706503 0.737769 0.751468
  47 5.951065 -12.562168 -2.811286 -0.705592 -0.054706 0.706503 0.743640 0.724070
  47 5.995367 -13.009059 -2.806171 -0.705592 -0.054706 0.706503 0.812133 0.739726
buff_m249_2_v.bmp
  47 5.951065 -12.562168 -2.811286 -0.790932 -0.088693 -0.605442 0.743640 0.724070
  47 6.046895 -12.572228 -2.936647 -0.790932 -0.088693 -0.605442 0.747554 0.698630
  47 5.995367 -13.009059 -2.806171 -0.790932 -0.088693 -0.605442 0.812133 0.739726
buff_m249_2_v.bmp
  47 6.672939 -12.997364 -2.041868 0.295220 0.900734 -0.318628 0.275930 0.412916
  47 6.525739 -12.891507 -1.899647 0.295220 0.900734 -0.318628 0.234834 0.487280
  47 6.669415 -12.885982 -1.742399 0.295220 0.900734 -0.318628 0.275930 0.563601
buff_m249_2_v.bmp
  47 6.672939 -12.997364 -2.041868 0.446005 0.883229 -0.144863 0.275930 0.412916
  47 6.347983 -12.833191 -2.048984 0.446005 0.883229 -0.144863 0.195695 0.410959
  47 6.525739 -12.891507 -1.899647 0.446005 0.883229 -0.144863 0.234834 0.487280
buff_m249_2_v.bmp
  47 6.128425 -12.199286 -3.395631 -0.816598 0.306313 0.489225 0.694716 0.618395
  47 5.990112 -12.567049 -3.400057 -0.816598 0.306313 0.489225 0.763209 0.626223
  47 6.063672 -12.574451 -3.276225 -0.816598 0.306313 0.489225 0.759295 0.651663
buff_m249_2_v.bmp
  47 6.131937 -12.580565 -2.642031 0.905641 -0.159015 -0.393102 0.131115 0.240705
  47 6.271796 -12.212714 -2.467319 0.905641 -0.159015 -0.393102 0.105675 0.272016
  47 6.249289 -12.582221 -2.375900 0.905641 -0.159015 -0.393102 0.158513 0.266145
buff_m249_2_v.bmp
  47 6.046895 -12.572228 -2.936647 0.978208 -0.161050 -0.131040 0.107632 0.176125
  47 6.119676 -12.197540 -2.815355 0.978208 -0.161050 -0.131040 0.074364 0.207436
  47 6.074300 -12.574687 -2.684967 0.978208 -0.161050 -0.131040 0.117417 0.219178
buff_m249_2_v.bmp
  47 6.069593 -12.575236 -3.396077 0.986972 -0.152863 0.050186 0.107632 0.109589
  47 6.128425 -12.199286 -3.395631 0.986972 -0.152863 0.050186 0.058708 0.109589
  47 6.063672 -12.574451 -3.276225 0.986972 -0.152863 0.050186 0.107632 0.131115
buff_m249_2_v.bmp
  47 6.716943 -12.720867 -2.351888 0.179086 0.735109 0.653867 0.275930 0.264188
  47 6.249289 -12.582221 -2.375900 0.179086 0.735109 0.653867 0.158513 0.266145
  47 6.672939 -12.997364 -2.041868 0.179086 0.735109 0.653867 0.275930 0.412916
buff_m249_2_v.bmp
  47 6.738616 -12.733821 -2.811304 0.207766 0.969386 -0.130857 0.275930 0.191781
  47 6.074300 -12.574687 -2.684967 0.207766 0.969386 -0.130857 0.117417 0.219178
  47 6.131937 -12.580565 -2.642031 0.207766 0.969386 -0.130857 0.131115 0.240705
buff_m249_2_v.bmp
  47 6.716943 -12.720867 -2.351888 0.282297 0.955290 -0.087915 0.275930 0.264188
  47 6.131937 -12.580565 -2.642031 0.282297 0.955290 -0.087915 0.131115 0.240705
  47 6.249289 -12.582221 -2.375900 0.282297 0.955290 -0.087915 0.158513 0.266145
buff_m249_2_v.bmp
  47 6.131937 -12.580565 -2.642031 0.224274 0.974519 -0.003602 0.131115 0.240705
  47 6.716943 -12.720867 -2.351888 0.224274 0.974519 -0.003602 0.275930 0.264188
  47 6.738616 -12.733821 -2.811304 0.224274 0.974519 -0.003602 0.275930 0.191781
buff_m249_2_v.bmp
  47 6.665882 -13.682083 -3.309310 -0.198661 -0.978326 -0.058409 0.741683 0.293542
  47 6.277219 -13.670505 -2.157135 -0.198661 -0.978326 -0.058409 0.724070 0.360078
  47 6.109331 -13.613496 -2.506224 -0.198661 -0.978326 -0.058409 0.714286 0.350294
buff_m249_2_v.bmp
  47 6.765754 -12.737418 -3.360622 0.071931 -0.081015 -0.994114 0.767123 0.313112
  47 5.960493 -13.609427 -3.344634 0.071931 -0.081015 -0.994114 0.804305 0.334638
  47 6.024479 -13.012917 -3.395440 0.071931 -0.081015 -0.994114 0.776908 0.334638
buff_m249_2_v.bmp
  48 5.892276 -13.803969 -3.387500 -0.859782 -0.069904 0.505855 0.577299 0.645793
  48 5.930443 -13.375451 -3.268270 -0.859782 -0.069904 0.505855 0.502935 0.639922
  48 5.846949 -13.367026 -3.392599 -0.859782 -0.069904 0.505855 0.512720 0.614481
buff_m249_2_v.bmp
  48 5.952525 -13.366828 -2.686516 -0.769464 0.279714 0.574182 0.465753 0.735812
  48 5.990270 -13.049169 -2.786855 -0.769464 0.279714 0.574182 0.412916 0.686888
  48 5.859096 -13.357380 -2.811343 -0.769464 0.279714 0.574182 0.477495 0.708415
buff_m249_2_v.bmp
  48 5.859096 -13.357380 -2.811343 -0.837471 0.387160 -0.385681 0.477495 0.708415
  48 5.990270 -13.049169 -2.786855 -0.837471 0.387160 -0.385681 0.412916 0.686888
  48 5.914692 -13.363281 -2.928706 -0.837471 0.387160 -0.385681 0.485323 0.684932
buff_m249_2_v.bmp
  48 5.952525 -13.366828 -2.686516 -0.810402 0.004015 0.585860 0.465753 0.735812
  48 5.859096 -13.357380 -2.811343 -0.810402 0.004015 0.585860 0.477495 0.708415
  48 5.863164 -13.800112 -2.798231 -0.810402 0.004015 0.585860 0.542074 0.735812
buff_m249_2_v.bmp
  48 5.859096 -13.357380 -2.811343 -0.917114 -0.011551 -0.398457 0.477495 0.708415
  48 5.914692 -13.363281 -2.928706 -0.917114 -0.011551 -0.398457 0.485323 0.684932
  48 5.863164 -13.800112 -2.798231 -0.917114 -0.011551 -0.398457 0.542074 0.735812
buff_m249_2_v.bmp
  48 6.602183 -13.684178 -2.041586 0.203646 0.960956 0.187327 0.234834 0.320939
  48 6.288362 -13.611643 -2.057565 0.203646 0.960956 0.187327 0.154599 0.317025
  48 6.418911 -13.665170 -1.960653 0.203646 0.960956 0.187327 0.191781 0.395303
buff_m249_2_v.bmp
  48 5.998447 -13.071005 -3.397065 -0.776175 0.380177 0.503008 0.446184 0.596869
  48 5.846949 -13.367026 -3.392599 -0.776175 0.380177 0.503008 0.512720 0.614481
  48 5.930443 -13.375451 -3.268270 -0.776175 0.380177 0.503008 0.502935 0.639922
buff_m249_2_v.bmp
  48 6.009669 -13.372641 -2.633593 0.895060 -0.157612 -0.417165 0.090020 0.146771
  48 6.134428 -13.063581 -2.479267 0.895060 -0.157612 -0.417165 0.062622 0.180039
  48 6.126489 -13.384310 -2.377435 0.895060 -0.157612 -0.417165 0.115460 0.174168
buff_m249_2_v.bmp
  48 5.914692 -13.363281 -2.928706 0.974987 -0.170372 -0.142740 0.066536 0.082192
  48 5.990270 -13.049169 -2.786855 0.974987 -0.170372 -0.142740 0.033268 0.113503
  48 5.952525 -13.366828 -2.686516 0.974987 -0.170372 -0.142740 0.076321 0.125245
buff_m249_2_v.bmp
  48 5.936364 -13.376236 -3.388122 0.979835 -0.193336 0.050440 0.066536 0.015656
  48 5.998447 -13.071005 -3.397065 0.979835 -0.193336 0.050440 0.017613 0.015656
  48 5.930443 -13.375451 -3.268270 0.979835 -0.193336 0.050440 0.066536 0.037182
buff_m249_2_v.bmp
  48 6.633884 -13.527049 -2.351434 0.213741 0.856299 0.470177 0.234834 0.170254
  48 6.126489 -13.384310 -2.377435 0.213741 0.856299 0.470177 0.115460 0.174168
  48 6.602183 -13.684178 -2.041586 0.213741 0.856299 0.470177 0.234834 0.320939
buff_m249_2_v.bmp
  48 6.656088 -13.529991 -2.800876 0.201560 0.970645 -0.131230 0.234834 0.097847
  48 5.952525 -13.366828 -2.686516 0.201560 0.970645 -0.131230 0.076321 0.125245
  48 6.009669 -13.372641 -2.633593 0.201560 0.970645 -0.131230 0.090020 0.146771
buff_m249_2_v.bmp
  48 6.633884 -13.527049 -2.351434 0.271600 0.958319 -0.088648 0.234834 0.170254
  48 6.009669 -13.372641 -2.633593 0.271600 0.958319 -0.088648 0.090020 0.146771
  48 6.126489 -13.384310 -2.377435 0.271600 0.958319 -0.088648 0.115460 0.174168
buff_m249_2_v.bmp
  48 6.009669 -13.372641 -2.633593 0.216741 0.976221 -0.003999 0.090020 0.146771
  48 6.633884 -13.527049 -2.351434 0.216741 0.976221 -0.003999 0.234834 0.170254
  48 6.656088 -13.529991 -2.800876 0.216741 0.976221 -0.003999 0.234834 0.097847
buff_m249_2_v.bmp
  48 6.553659 -14.756646 -3.278501 0.156063 -0.983665 0.089712 0.741683 0.293542
  48 6.246537 -14.713488 -2.282703 0.156063 -0.983665 0.089712 0.724070 0.360078
  48 6.102253 -14.749182 -2.489846 0.156063 -0.983665 0.089712 0.714286 0.350294
buff_m249_2_v.bmp
  48 6.553659 -14.756646 -3.278501 -0.213655 -0.968872 -0.125053 0.741683 0.293542
  48 6.102253 -14.749182 -2.489846 -0.213655 -0.968872 -0.125053 0.714286 0.350294
  48 5.962728 -14.684969 -2.787519 -0.213655 -0.968872 -0.125053 0.702544 0.326810
buff_m249_2_v.bmp
  48 6.553659 -14.756646 -3.278501 -0.102938 -0.994640 0.009793 0.741683 0.293542
  48 5.962728 -14.684969 -2.787519 -0.102938 -0.994640 0.009793 0.702544 0.326810
  48 5.987361 -14.698316 -3.306860 -0.102938 -0.994640 0.009793 0.702544 0.293542
buff_m249_2_v.bmp
  47 7.371271 -13.754739 -3.273986 0.993505 -0.102332 0.049753 0.962818 0.669276
  47 7.406145 -13.154371 -2.735523 0.993505 -0.102332 0.049753 0.812133 0.739726
  47 7.344626 -13.751208 -2.734655 0.993505 -0.102332 0.049753 0.943249 0.763209
buff_m249_2_v.bmp
  47 6.998701 -13.372803 -2.083391 0.677428 -0.176532 0.714093 0.847358 0.868885
  47 6.597181 -13.703229 -1.980915 -0.063466 -0.135455 0.988749 0.923679 0.923679
  47 6.932933 -13.738045 -2.124298 0.635037 -0.156360 0.756492 0.927593 0.872798
buff_m249_2_v.bmp
  47 7.406145 -13.154371 -2.735523 0.824089 -0.106056 0.556444 0.812133 0.739726
  47 7.142576 -13.719922 -2.454482 0.824089 -0.106056 0.556444 0.931507 0.831703
  47 7.344626 -13.751208 -2.734655 0.793640 -0.076195 0.603597 0.943249 0.763209
buff_m249_2_v.bmp
  47 7.559851 -12.728735 -3.321448 0.781033 -0.228420 0.581215 0.763209 0.626223
  47 7.474449 -12.719763 -3.205577 0.781033 -0.228420 0.581215 0.759295 0.651663
  47 7.435257 -13.158229 -3.324792 0.781033 -0.228420 0.581215 0.831703 0.643836
buff_m249_2_v.bmp
  47 7.540674 -12.725900 -2.731682 0.632652 0.173825 0.754677 0.743640 0.724070
  47 7.450973 -12.334666 -2.748687 0.632652 0.173825 0.754677 0.677104 0.712329
  47 7.405597 -12.711813 -2.618298 0.632652 0.173825 0.754677 0.737769 0.751468
buff_m249_2_v.bmp
  47 7.457673 -12.717540 -2.865998 0.835754 0.189302 -0.515442 0.747554 0.698630
  47 7.450973 -12.334666 -2.748687 0.835754 0.189302 -0.515442 0.677104 0.712329
  47 7.540674 -12.725900 -2.731682 0.835754 0.189302 -0.515442 0.743640 0.724070
buff_m249_2_v.bmp
  47 7.406145 -13.154371 -2.735523 0.606350 -0.189836 0.772206 0.812133 0.739726
  47 7.540674 -12.725900 -2.731682 0.606350 -0.189836 0.772206 0.743640 0.724070
  47 7.405597 -12.711813 -2.618298 0.606350 -0.189836 0.772206 0.737769 0.751468
buff_m249_2_v.bmp
  47 7.406145 -13.154371 -2.735523 0.812269 -0.253825 -0.525159 0.812133 0.739726
  47 7.457673 -12.717540 -2.865998 0.812269 -0.253825 -0.525159 0.747554 0.698630
  47 7.540674 -12.725900 -2.731682 0.812269 -0.253825 -0.525159 0.743640 0.724070
buff_m249_2_v.bmp
  47 6.669415 -12.885982 -1.742399 -0.072919 0.938653 -0.337065 0.275930 0.563601
  47 6.823791 -12.922207 -1.884721 -0.072919 0.938653 -0.337065 0.234834 0.487280
  47 6.672939 -12.997364 -2.041868 -0.072919 0.938653 -0.337065 0.275930 0.412916
buff_m249_2_v.bmp
  47 6.823791 -12.922207 -1.884721 -0.240547 0.953945 -0.179236 0.318982 0.487280
  47 7.023566 -12.902777 -2.015152 -0.240547 0.953945 -0.179236 0.358121 0.410959
  47 6.672939 -12.997364 -2.041868 -0.240547 0.953945 -0.179236 0.277886 0.412916
buff_m249_2_v.bmp
  47 7.474449 -12.719763 -3.205577 0.809375 0.138838 0.570645 0.759295 0.651663
  47 7.559851 -12.728735 -3.321448 0.809375 0.138838 0.570645 0.763209 0.626223
  47 7.499462 -12.340504 -3.326973 0.809375 0.138838 0.570645 0.694716 0.618395
buff_m249_2_v.bmp
  47 7.203054 -12.680461 -2.328138 -0.875661 0.024462 -0.482306 0.115460 0.174168
  47 7.265301 -12.315046 -2.417566 -0.875661 0.024462 -0.482306 0.062622 0.180039
  47 7.344013 -12.705411 -2.581333 -0.875661 0.024462 -0.482306 0.090020 0.146771
buff_m249_2_v.bmp
  47 7.405597 -12.711813 -2.618298 -0.972671 0.039893 -0.228735 0.076321 0.125245
  47 7.450973 -12.334666 -2.748687 -0.972671 0.039893 -0.228735 0.033268 0.113503
  47 7.457673 -12.717540 -2.865998 -0.972671 0.039893 -0.228735 0.066536 0.082192
buff_m249_2_v.bmp
  47 7.474449 -12.719763 -3.205577 -0.997459 0.051533 -0.049188 0.066536 0.037182
  47 7.499462 -12.340504 -3.326973 -0.997459 0.051533 -0.049188 0.017613 0.015656
  47 7.480370 -12.720548 -3.325428 -0.997459 0.051533 -0.049188 0.066536 0.015656
buff_m249_2_v.bmp
  47 7.023566 -12.902777 -2.015152 -0.259741 0.863418 0.432485 0.358121 0.410959
  47 7.203054 -12.680461 -2.328138 -0.259741 0.863418 0.432485 0.395303 0.266145
  47 6.672939 -12.997364 -2.041868 -0.259741 0.863418 0.432485 0.277886 0.412916
buff_m249_2_v.bmp
  47 7.344013 -12.705411 -2.581333 0.007654 0.990000 -0.140858 0.422701 0.240705
  47 7.405597 -12.711813 -2.618298 0.007654 0.990000 -0.140858 0.436399 0.219178
  47 6.738616 -12.733821 -2.811304 0.007654 0.990000 -0.140858 0.277886 0.191781
buff_m249_2_v.bmp
  47 6.716943 -12.720867 -2.351888 -0.019957 0.999675 -0.015833 0.277886 0.264188
  47 7.344013 -12.705411 -2.581333 -0.019957 0.999675 -0.015833 0.422701 0.240705
  47 6.738616 -12.733821 -2.811304 -0.019957 0.999675 -0.015833 0.277886 0.191781
buff_m249_2_v.bmp
  47 7.344013 -12.705411 -2.581333 -0.072051 0.991789 -0.105660 0.422701 0.240705
  47 6.716943 -12.720867 -2.351888 -0.072051 0.991789 -0.105660 0.277886 0.264188
  47 7.203054 -12.680461 -2.328138 -0.072051 0.991789 -0.105660 0.395303 0.266145
buff_m249_2_v.bmp
  47 6.932933 -13.738045 -2.124298 0.000362 -0.998826 -0.048442 0.724070 0.360078
  47 6.665882 -13.682083 -3.309310 0.000362 -0.998826 -0.048442 0.741683 0.293542
  47 7.142576 -13.719922 -2.454482 0.000362 -0.998826 -0.048442 0.714286 0.350294
buff_m249_2_v.bmp
  47 7.371271 -13.754739 -3.273986 0.011736 -0.074813 -0.997129 0.804305 0.334638
  47 6.765754 -12.737418 -3.360622 0.011736 -0.074813 -0.997129 0.767123 0.313112
  47 7.435257 -13.158229 -3.324792 0.011736 -0.074813 -0.997129 0.776908 0.334638
buff_m249_2_v.bmp
  48 6.873636 -14.104303 -2.095512 0.594195 -0.235765 0.768991 0.553816 0.868885
  48 6.496954 -14.739048 -2.109966 -0.072792 -0.235537 0.969136 0.622309 0.935421
  48 6.763160 -14.766701 -2.256832 0.594195 -0.235765 0.768991 0.634051 0.884540
buff_m249_2_v.bmp
  48 7.373292 -13.955657 -2.722607 0.791450 -0.194719 0.579389 0.542074 0.735812
  48 6.916928 -14.833095 -2.449049 0.773296 -0.238112 0.587635 0.643836 0.847358
  48 7.095324 -14.801628 -2.730802 0.830856 -0.277400 0.482418 0.667319 0.780822
buff_m249_2_v.bmp
  48 7.535908 -13.540991 -3.308020 0.773296 -0.238112 0.587635 0.512720 0.614481
  48 7.440571 -13.530997 -3.192647 0.773296 -0.238112 0.587635 0.502935 0.639922
  48 7.402404 -13.959515 -3.311876 0.773296 -0.238112 0.587635 0.577299 0.645793
buff_m249_2_v.bmp
  48 7.468575 -13.523158 -2.730744 0.749653 0.123245 0.650255 0.477495 0.708415
  48 7.401047 -13.194481 -2.716207 0.749653 0.123245 0.650255 0.412916 0.686888
  48 7.363303 -13.512140 -2.615868 0.749653 0.123245 0.650255 0.465753 0.735812
buff_m249_2_v.bmp
  48 7.424820 -13.518826 -2.853083 0.932635 0.204837 -0.297042 0.485323 0.684932
  48 7.401047 -13.194481 -2.716207 0.932635 0.204837 -0.297042 0.412916 0.686888
  48 7.468575 -13.523158 -2.730744 0.932635 0.204837 -0.297042 0.477495 0.708415
buff_m249_2_v.bmp
  48 7.373292 -13.955657 -2.722607 0.732317 -0.154889 0.663114 0.542074 0.735812
  48 7.468575 -13.523158 -2.730744 0.732317 -0.154889 0.663114 0.477495 0.708415
  48 7.363303 -13.512140 -2.615868 0.732317 -0.154889 0.663114 0.465753 0.735812
buff_m249_2_v.bmp
  48 7.373292 -13.955657 -2.722607 0.930408 -0.201845 -0.305941 0.542074 0.735812
  48 7.424820 -13.518826 -2.853083 0.930408 -0.201845 -0.305941 0.485323 0.684932
  48 7.468575 -13.523158 -2.730744 0.930408 -0.201845 -0.305941 0.477495 0.708415
buff_m249_2_v.bmp
  48 6.776573 -13.702010 -1.942742 -0.021495 0.984145 0.176058 0.277886 0.395303
  48 6.924206 -13.677135 -2.025723 -0.021495 0.984145 0.176058 0.315068 0.317025
  48 6.602183 -13.684178 -2.041586 -0.021495 0.984145 0.176058 0.234834 0.320939
buff_m249_2_v.bmp
  48 7.440571 -13.530997 -3.192647 0.783655 0.219512 0.581119 0.502935 0.639922
  48 7.535908 -13.540991 -3.308020 0.783655 0.219512 0.581119 0.512720 0.614481
  48 7.448965 -13.220411 -3.324427 0.783655 0.219512 0.581119 0.446184 0.596869
buff_m249_2_v.bmp
  48 7.159734 -13.490736 -2.325693 -0.862690 0.023440 -0.505189 0.115460 0.174168
  48 7.227284 -13.176146 -2.424539 -0.862690 0.023440 -0.505189 0.062622 0.180039
  48 7.301226 -13.505674 -2.568915 -0.862690 0.023440 -0.505189 0.090020 0.146771
buff_m249_2_v.bmp
  48 7.363303 -13.512140 -2.615868 -0.970272 0.029992 -0.240151 0.076321 0.125245
  48 7.401047 -13.194481 -2.716207 -0.970272 0.029992 -0.240151 0.033268 0.113503
  48 7.424820 -13.518826 -2.853083 -0.970272 0.029992 -0.240151 0.066536 0.082192
buff_m249_2_v.bmp
  48 7.440571 -13.530997 -3.192647 -0.998761 0.010462 -0.048644 0.066536 0.037182
  48 7.448965 -13.220411 -3.324427 -0.998761 0.010462 -0.048644 0.017613 0.015656
  48 7.446492 -13.531781 -3.312498 -0.998761 0.010462 -0.048644 0.066536 0.015656
buff_m249_2_v.bmp
  48 6.924206 -13.677135 -2.025723 -0.036406 0.853298 0.520151 0.315068 0.317025
  48 7.159734 -13.490736 -2.325693 -0.036406 0.853298 0.520151 0.354207 0.174168
  48 6.602183 -13.684178 -2.041586 -0.036406 0.853298 0.520151 0.234834 0.320939
buff_m249_2_v.bmp
  48 7.301226 -13.505674 -2.568915 0.014001 0.989963 -0.140629 0.379648 0.146771
  48 7.363303 -13.512140 -2.615868 0.014001 0.989963 -0.140629 0.393346 0.125245
  48 6.656088 -13.529991 -2.800876 0.014001 0.989963 -0.140629 0.234834 0.097847
buff_m249_2_v.bmp
  48 6.633884 -13.527049 -2.351434 -0.012234 0.999806 -0.015466 0.234834 0.170254
  48 7.301226 -13.505674 -2.568915 -0.012234 0.999806 -0.015466 0.379648 0.146771
  48 6.656088 -13.529991 -2.800876 -0.012234 0.999806 -0.015466 0.234834 0.097847
buff_m249_2_v.bmp
  48 7.301226 -13.505674 -2.568915 -0.060945 0.992571 -0.105303 0.379648 0.146771
  48 6.633884 -13.527049 -2.351434 -0.060945 0.992571 -0.105303 0.234834 0.170254
  48 7.159734 -13.490736 -2.325693 -0.060945 0.992571 -0.105303 0.354207 0.174168
buff_m249_2_v.bmp
  48 6.763160 -14.766701 -2.256832 -0.360904 -0.930416 0.063824 0.724070 0.360078
  48 6.553659 -14.756646 -3.278501 -0.360904 -0.930416 0.063824 0.741683 0.293542
  48 6.916928 -14.833095 -2.449049 -0.360904 -0.930416 0.063824 0.714286 0.350294
buff_m249_2_v.bmp
  48 7.095324 -14.801628 -2.730802 0.023478 -0.993297 -0.113177 0.702544 0.326810
  48 6.916928 -14.833095 -2.449049 0.023478 -0.993297 -0.113177 0.714286 0.350294
  48 6.553659 -14.756646 -3.278501 0.023478 -0.993297 -0.113177 0.741683 0.293542
buff_m249_2_v.bmp
  48 7.119957 -14.814975 -3.250143 -0.102938 -0.994640 0.009793 0.702544 0.293542
  48 7.095324 -14.801628 -2.730802 -0.102938 -0.994640 0.009793 0.702544 0.326810
  48 6.553659 -14.756646 -3.278501 -0.102938 -0.994640 0.009793 0.741683 0.293542
buff_m249_2_v.bmp
  48 7.119957 -14.814975 -3.250143 0.016018 -0.070980 -0.997349 0.804305 0.334638
  48 6.682201 -13.543534 -3.350180 0.016018 -0.070980 -0.997349 0.767123 0.313112
  48 7.402404 -13.959515 -3.311876 0.016018 -0.070980 -0.997349 0.776908 0.334638
buff_m249_2_v.bmp
  0 5.928203 -14.705100 -3.469299 -0.930932 -0.143805 0.335687 0.524462 0.634051
  0 5.898133 -14.258514 -3.357245 -0.930932 -0.143805 0.335687 0.452055 0.653620
  0 5.854276 -14.255180 -3.479578 -0.930932 -0.143805 0.335687 0.452055 0.626223
buff_m249_2_v.bmp
  0 5.899818 -14.252970 -2.776499 -0.759153 0.149180 0.633586 0.448141 0.755382
  0 5.869031 -13.929304 -2.902961 -0.759153 0.149180 0.633586 0.381605 0.727984
  0 5.815736 -14.245394 -2.890835 -0.759153 0.149180 0.633586 0.450098 0.727984
buff_m249_2_v.bmp
  0 5.815736 -14.245394 -2.890835 -0.868782 0.120436 -0.480327 0.450098 0.727984
  0 5.869031 -13.929304 -2.902961 -0.868782 0.120436 -0.480327 0.381605 0.727984
  0 5.892069 -14.254636 -3.027172 -0.868782 0.120436 -0.480327 0.450098 0.702544
buff_m249_2_v.bmp
  0 5.899818 -14.252970 -2.776499 -0.768805 -0.164461 0.617974 0.448141 0.755382
  0 5.815736 -14.245394 -2.890835 -0.768805 -0.164461 0.617974 0.450098 0.727984
  0 5.910018 -14.697510 -2.889547 -0.768805 -0.164461 0.617974 0.520548 0.731898
buff_m249_2_v.bmp
  0 5.815736 -14.245394 -2.890835 -0.870018 -0.173231 -0.461583 0.450098 0.727984
  0 5.892069 -14.254636 -3.027172 -0.870018 -0.173231 -0.461583 0.450098 0.702544
  0 5.910018 -14.697510 -2.889547 -0.870018 -0.173231 -0.461583 0.520548 0.731898
buff_m249_2_v.bmp
  0 5.887576 -13.836408 -3.484189 -0.935191 0.085594 0.343646 0.383562 0.632094
  0 5.854276 -14.255180 -3.479578 -0.935191 0.085594 0.343646 0.452055 0.626223
  0 5.898133 -14.258514 -3.357245 -0.935191 0.085594 0.343646 0.452055 0.653620
buff_m249_2_v.bmp
  0 5.927684 -14.255446 -2.735057 0.889189 -0.066884 -0.452626 0.082192 0.418787
  0 6.022897 -13.942097 -2.584902 0.889189 -0.066884 -0.452626 0.050881 0.379648
  0 6.054169 -14.265911 -2.468427 0.889189 -0.066884 -0.452626 0.113503 0.387476
buff_m249_2_v.bmp
  0 5.892069 -14.254636 -3.027172 0.993934 0.095850 -0.053929 0.052838 0.495108
  0 5.869031 -13.929304 -2.902961 0.993934 0.095850 -0.053929 0.013699 0.457926
  0 5.899818 -14.252970 -2.776499 0.993934 0.095850 -0.053929 0.064579 0.444227
buff_m249_2_v.bmp
  0 5.943691 -14.264389 -3.475100 0.932562 0.125591 0.338461 0.052838 0.575342
  0 5.887576 -13.836408 -3.484189 0.932562 0.125591 0.338461 0.000000 0.575342
  0 5.898133 -14.258514 -3.357245 0.932562 0.125591 0.338461 0.052838 0.549902
buff_m249_2_v.bmp
  0 6.541657 -14.406595 -2.442669 0.060564 0.877335 0.476042 0.256360 0.391389
  0 6.239427 -14.503978 -2.235609 0.060564 0.877335 0.476042 0.158513 0.215264
  0 6.505614 -14.590527 -2.101246 0.060564 0.877335 0.476042 0.256360 0.033268
buff_m249_2_v.bmp
  0 6.239427 -14.503978 -2.235609 0.188246 0.770491 0.609022 0.158513 0.215264
  0 6.541657 -14.406595 -2.442669 0.188246 0.770491 0.609022 0.256360 0.391389
  0 6.054169 -14.265911 -2.468427 0.188246 0.770491 0.609022 0.113503 0.387476
buff_m249_2_v.bmp
  0 6.563959 -14.413426 -2.902077 0.220469 0.972992 -0.068406 0.256360 0.477495
  0 5.899818 -14.252970 -2.776499 0.220469 0.972992 -0.068406 0.064579 0.444227
  0 5.927684 -14.255446 -2.735057 0.220469 0.972992 -0.068406 0.082192 0.418787
buff_m249_2_v.bmp
  0 6.541657 -14.406595 -2.442669 0.278528 0.955178 -0.100283 0.256360 0.391389
  0 5.927684 -14.255446 -2.735057 0.278528 0.955178 -0.100283 0.082192 0.418787
  0 6.054169 -14.265911 -2.468427 0.278528 0.955178 -0.100283 0.113503 0.387476
buff_m249_2_v.bmp
  0 5.927684 -14.255446 -2.735057 0.228425 0.973540 -0.006485 0.082192 0.418787
  0 6.541657 -14.406595 -2.442669 0.228425 0.973540 -0.006485 0.256360 0.391389
  0 6.563959 -14.413426 -2.902077 0.228425 0.973540 -0.006485 0.256360 0.477495
buff_m249_2_v.bmp
  0 6.563959 -14.413426 -2.902077 0.205334 0.978268 0.028820 0.256360 0.477495
  0 5.943691 -14.264389 -3.475100 0.205334 0.978268 0.028820 0.052838 0.575342
  0 5.898133 -14.258514 -3.357245 0.205334 0.978268 0.028820 0.052838 0.549902
buff_m249_2_v.bmp
  0 5.943691 -14.264389 -3.475100 0.228425 0.973540 -0.006485 0.052838 0.575342
  0 6.563959 -14.413426 -2.902077 0.228425 0.973540 -0.006485 0.256360 0.477495
  0 6.590140 -14.421446 -3.441382 0.228425 0.973540 -0.006485 0.256360 0.575342
buff_m249_2_v.bmp
  0 6.546906 -14.839195 -3.437269 -0.421506 -0.888018 -0.183731 0.741683 0.293542
  0 6.240296 -14.927156 -2.319390 -0.421506 -0.888018 -0.183731 0.724070 0.360078
  0 6.009487 -14.765310 -2.603350 -0.421506 -0.888018 -0.183731 0.714286 0.350294
buff_m249_2_v.bmp
  0 6.240296 -14.927156 -2.319390 -0.206029 -0.969815 -0.130425 0.724070 0.360078
  0 6.546906 -14.839195 -3.437269 -0.206029 -0.969815 -0.130425 0.741683 0.293542
  0 6.468257 -14.999814 -2.197102 -0.206029 -0.969815 -0.130425 0.741683 0.365949
buff_m249_2_v.bmp
  0 6.546906 -14.839195 -3.437269 -0.303440 -0.947402 -0.101757 0.741683 0.293542
  0 6.009487 -14.765310 -2.603350 -0.303440 -0.947402 -0.101757 0.714286 0.350294
  0 5.910018 -14.697510 -2.889547 -0.303440 -0.947402 -0.101757 0.702544 0.326810
buff_m249_2_v.bmp
  0 6.546906 -14.839195 -3.437269 -0.218952 -0.975726 0.004287 0.741683 0.293542
  0 5.910018 -14.697510 -2.889547 -0.218952 -0.975726 0.004287 0.702544 0.326810
  0 5.928203 -14.705100 -3.469299 -0.218952 -0.975726 0.004287 0.702544 0.293542
buff_m249_2_v.bmp
  0 7.344534 -14.408678 -3.404950 0.844399 -0.326666 0.424594 0.452055 0.626223
  0 7.289041 -14.401779 -3.287592 0.844399 -0.326666 0.424594 0.452055 0.653620
  0 7.180020 -14.834039 -3.406611 0.844399 -0.326666 0.424594 0.524462 0.634051
buff_m249_2_v.bmp
  0 7.325864 -14.400939 -2.815211 0.707190 -0.001852 0.707021 0.450098 0.727984
  0 7.339419 -14.080756 -2.829327 0.707190 -0.001852 0.707021 0.381605 0.727984
  0 7.231115 -14.390096 -2.709830 0.707190 -0.001852 0.707021 0.448141 0.755382
buff_m249_2_v.bmp
  0 7.263106 -14.395855 -2.958514 0.918261 -0.063634 -0.390829 0.450098 0.702544
  0 7.339419 -14.080756 -2.829327 0.918261 -0.063634 -0.390829 0.381605 0.727984
  0 7.325864 -14.400939 -2.815211 0.918261 -0.063634 -0.390829 0.450098 0.727984
buff_m249_2_v.bmp
  0 7.141964 -14.824402 -2.827854 0.654359 -0.311049 0.689248 0.520548 0.731898
  0 7.325864 -14.400939 -2.815211 0.654359 -0.311049 0.689248 0.450098 0.727984
  0 7.231115 -14.390096 -2.709830 0.654359 -0.311049 0.689248 0.448141 0.755382
buff_m249_2_v.bmp
  0 7.141964 -14.824402 -2.827854 0.857900 -0.351209 -0.375047 0.520548 0.731898
  0 7.263106 -14.395855 -2.958514 0.857900 -0.351209 -0.375047 0.450098 0.702544
  0 7.325864 -14.400939 -2.815211 0.857900 -0.351209 -0.375047 0.450098 0.727984
buff_m249_2_v.bmp
  0 6.468257 -14.999814 -2.197102 -0.071819 -0.224790 0.971757 0.592955 0.908023
  0 6.717178 -14.976276 -2.295509 0.518289 -0.263816 0.813497 0.575342 0.853229
  0 6.795790 -14.561284 -2.207748 0.656541 -0.248962 0.712020 0.489237 0.870841
buff_m249_2_v.bmp
  0 7.289041 -14.401779 -3.287592 0.894405 -0.102855 0.435271 0.452055 0.653620
  0 7.344534 -14.408678 -3.404950 0.894405 -0.102855 0.435271 0.452055 0.626223
  0 7.397704 -13.991953 -3.408565 0.894405 -0.102855 0.435271 0.383562 0.632094
buff_m249_2_v.bmp
  0 7.047674 -14.368244 -2.418674 -0.835018 0.110712 -0.538969 0.115460 0.174168
  0 7.155493 -14.058756 -2.528184 -0.835018 0.110712 -0.538969 0.062622 0.180039
  0 7.199371 -14.386432 -2.671374 -0.835018 0.110712 -0.538969 0.090020 0.146771
buff_m249_2_v.bmp
  0 7.231115 -14.390096 -2.709830 -0.943375 0.295395 -0.150946 0.446184 0.444227
  0 7.339419 -14.080756 -2.829327 -0.943375 0.295395 -0.150946 0.499022 0.457926
  0 7.263106 -14.395855 -2.958514 -0.943375 0.295395 -0.150946 0.459883 0.495108
buff_m249_2_v.bmp
  0 7.289041 -14.401779 -3.287592 -0.916336 0.316029 0.245875 0.459883 0.549902
  0 7.397704 -13.991953 -3.408565 -0.916336 0.316029 0.245875 0.518591 0.575342
  0 7.255118 -14.399468 -3.409427 -0.916336 0.316029 0.245875 0.459883 0.575342
buff_m249_2_v.bmp
  0 6.541657 -14.406595 -2.442669 -0.086912 0.798833 0.595241 0.256360 0.391389
  0 6.795790 -14.561284 -2.207748 -0.086912 0.798833 0.595241 0.354207 0.215264
  0 7.047674 -14.368244 -2.418674 -0.086912 0.798833 0.595241 0.399217 0.387476
buff_m249_2_v.bmp
  0 6.795790 -14.561284 -2.207748 0.060564 0.877335 0.476042 0.354207 0.215264
  0 6.541657 -14.406595 -2.442669 0.060564 0.877335 0.476042 0.256360 0.391389
  0 6.505614 -14.590527 -2.101246 0.060564 0.877335 0.476042 0.256360 0.033268
buff_m249_2_v.bmp
  0 7.199371 -14.386432 -2.671374 -0.010160 0.996748 -0.079939 0.430528 0.418787
  0 7.231115 -14.390096 -2.709830 -0.010160 0.996748 -0.079939 0.446184 0.444227
  0 6.563959 -14.413426 -2.902077 -0.010160 0.996748 -0.079939 0.256360 0.477495
buff_m249_2_v.bmp
  0 6.541657 -14.406595 -2.442669 -0.023914 0.999531 -0.019122 0.256360 0.391389
  0 7.199371 -14.386432 -2.671374 -0.023914 0.999531 -0.019122 0.430528 0.418787
  0 6.563959 -14.413426 -2.902077 -0.023914 0.999531 -0.019122 0.256360 0.477495
buff_m249_2_v.bmp
  0 7.199371 -14.386432 -2.671374 -0.067182 0.990786 -0.117601 0.430528 0.418787
  0 6.541657 -14.406595 -2.442669 -0.067182 0.990786 -0.117601 0.256360 0.391389
  0 7.047674 -14.368244 -2.418674 -0.067182 0.990786 -0.117601 0.399217 0.387476
buff_m249_2_v.bmp
  0 6.563959 -14.413426 -2.902077 -0.023914 0.999531 -0.019122 0.256360 0.477495
  0 7.255118 -14.399468 -3.409427 -0.023914 0.999531 -0.019122 0.459883 0.575342
  0 6.590140 -14.421446 -3.441382 -0.023914 0.999531 -0.019122 0.256360 0.575342
buff_m249_2_v.bmp
  0 7.255118 -14.399468 -3.409427 -0.003948 0.999824 0.018344 0.459883 0.575342
  0 6.563959 -14.413426 -2.902077 -0.003948 0.999824 0.018344 0.256360 0.477495
  0 7.289041 -14.401779 -3.287592 -0.003948 0.999824 0.018344 0.459883 0.549902
buff_m249_2_v.bmp
  0 6.546906 -14.839195 -3.437269 0.016389 -0.992725 -0.119287 0.741683 0.293542
  0 6.717178 -14.976276 -2.295509 0.016389 -0.992725 -0.119287 0.724070 0.360078
  0 6.468257 -14.999814 -2.197102 0.016389 -0.992725 -0.119287 0.741683 0.365949
buff_m249_2_v.bmp
  0 6.717178 -14.976276 -2.295509 0.248189 -0.956997 -0.150194 0.724070 0.360078
  0 6.546906 -14.839195 -3.437269 0.248189 -0.956997 -0.150194 0.741683 0.293542
  0 7.002992 -14.867643 -2.553597 0.248189 -0.956997 -0.150194 0.714286 0.350294
buff_m249_2_v.bmp
  0 7.141964 -14.824402 -2.827854 0.113004 -0.990295 -0.080905 0.702544 0.326810
  0 7.002992 -14.867643 -2.553597 0.113004 -0.990295 -0.080905 0.714286 0.350294
  0 6.546906 -14.839195 -3.437269 0.113004 -0.990295 -0.080905 0.741683 0.293542
buff_m249_2_v.bmp
  0 7.180020 -14.834039 -3.406611 0.014461 -0.999768 0.015975 0.702544 0.293542
  0 7.141964 -14.824402 -2.827854 0.014461 -0.999768 0.015975 0.702544 0.326810
  0 6.546906 -14.839195 -3.437269 0.014461 -0.999768 0.015975 0.741683 0.293542
buff_m249_2_v.bmp
  47 6.672939 -12.997364 -2.041868 0.385820 0.796923 0.464818 0.275930 0.412916
  47 6.249289 -12.582221 -2.375900 0.385820 0.796923 0.464818 0.158513 0.266145
  47 6.347983 -12.833191 -2.048984 0.385820 0.796923 0.464818 0.195695 0.410959
buff_m249_2_v.bmp
  47 6.672939 -12.997364 -2.041868 -0.089614 0.762786 0.640412 0.277886 0.412916
  47 7.203054 -12.680461 -2.328138 -0.089614 0.762786 0.640412 0.395303 0.266145
  47 6.716943 -12.720867 -2.351888 -0.089614 0.762786 0.640412 0.277886 0.264188
buff_m249_2_v.bmp
  48 6.602183 -13.684178 -2.041586 0.157546 0.833321 0.529863 0.234834 0.320939
  48 6.126489 -13.384310 -2.377435 0.157546 0.833321 0.529863 0.115460 0.174168
  48 6.288362 -13.611643 -2.057565 0.157546 0.833321 0.529863 0.154599 0.317025
buff_m249_2_v.bmp
  48 6.602183 -13.684178 -2.041586 -0.080572 0.886613 0.455439 0.234834 0.320939
  48 7.159734 -13.490736 -2.325693 -0.080572 0.886613 0.455439 0.354207 0.174168
  48 6.633884 -13.527049 -2.351434 -0.080572 0.886613 0.455439 0.234834 0.170254
end
