version 1
nodes
  0 "Bone01" -1
  1 "Bone_Lefthand" 0
  2 "Bone02" 1
  3 "Bone03" 2
  4 "Bone25" 3
  5 "Bone54" 3
  6 "Bone50" 3
  7 "Bone52" 3
  8 "Bone56" 3
  9 "Bone48" 3
  10 "NEXON_CSO_BOZO" 2
  11 "Bone04" -1
  12 "Bone_Righthand" 11
  13 "Bone27" 12
  14 "Bone28" 13
  15 "Bone29" 14
  16 "Bone31" 12
  17 "Bone32" 16
  18 "Bone33" 17
  19 "Bone35" 12
  20 "Bone36" 19
  21 "Bone37" 20
  22 "Bone39" 12
  23 "Bone40" 22
  24 "Bone41" 23
  25 "Bone43" 12
  26 "Bone44" 25
  27 "Bone45" 26
  28 "Bone_Se_Hand-R" 12
  29 "Bone05" 1
  30 "Bone06" 29
  31 "Bone07" 30
  32 "Bone21" 1
  33 "Bone22" 32
  34 "Bone23" 33
  35 "Bone17" 1
  36 "Bone18" 35
  37 "Bone19" 36
  38 "Bone13" 1
  39 "Bone14" 38
  40 "Bone15" 39
  41 "Bone09" 1
  42 "Bone10" 41
  43 "Bone11" 42
  44 "Bone_Se_Hand-L" 1
end
skeleton
  time 0
    0 8.593570 3.427503 -7.079144 -0.800893 -1.384605 0.565112
    1 -0.071918 -8.498730 -0.104136 0.347501 -0.147564 -0.160936
    2 -0.549374 -3.389827 1.033063 0.764851 1.739163 0.793994
    3 0.013587 1.872281 1.004921 0.016326 -0.000097 -0.007310
    4 -0.013948 -2.720515 1.100493 0.000000 0.000000 0.000000
    5 -0.013949 -4.784638 0.650335 0.000000 0.000000 0.000000
    6 -0.013948 -3.609847 2.626636 0.000000 0.000000 0.000000
    7 -0.642551 -1.684088 2.571740 0.000000 0.000000 0.223896
    8 -0.666019 -4.704160 1.993689 0.000000 0.251327 0.000000
    9 0.106011 18.212662 2.767869 -0.000008 0.000013 0.000020
    10 -0.089387 1.323563 4.001439 0.016991 -0.000100 -0.008081
    11 0.059083 -5.977408 -8.676857 0.426378 2.485787 0.867284
    12 0.096946 -8.450419 -0.009363 0.203570 -0.700812 0.320549
    13 -0.586769 -1.264477 0.200164 -0.672293 -0.842564 -2.426361
    14 1.522835 0.058680 0.016850 0.170172 -0.386603 0.631215
    15 1.117947 0.048424 -0.005765 0.000000 0.000000 1.251526
    16 -0.963867 -2.785143 -0.085346 -0.760154 0.213016 -0.062165
    17 0.028478 -1.403067 0.006272 -1.198053 -0.091474 0.022976
    18 0.021412 -0.957782 0.020047 -0.901427 -0.040655 -0.015084
    19 -0.249534 -2.846963 -0.174215 -0.933606 0.027109 0.137173
    20 0.043235 -1.683940 0.096015 -1.478176 0.000001 0.000000
    21 0.031729 -1.160830 0.058836 -1.559706 0.000000 0.000000
    22 0.447951 -2.798983 -0.200441 -0.918054 0.001281 0.122837
    23 -0.032909 -1.480207 0.004935 -1.377964 0.000000 0.000000
    24 -0.027023 -1.076921 -0.020212 -1.240364 0.000000 0.000000
    25 1.164474 -2.543939 -0.170327 -0.628102 0.011541 0.038073
    26 0.024033 -1.129040 0.017807 -1.196241 0.000000 -0.000001
    27 0.014896 -0.883992 -0.019846 -1.031490 0.000000 0.000000
    28 0.009601 -0.128692 -0.103533 0.496656 0.098214 1.447661
    29 0.583509 -1.197274 0.185379 0.377232 -0.745798 -1.043320
    30 1.535926 0.010247 0.005009 -0.290357 -0.063207 -0.837499
    31 1.100770 0.004528 -0.010675 0.000000 0.000000 -0.577704
    32 0.957766 -2.746777 -0.090301 -0.311663 0.016530 0.045802
    33 -0.033419 -1.397128 -0.011255 -1.192059 0.000000 0.000000
    34 -0.022361 -0.957433 0.018783 -0.593413 0.000000 0.000000
    35 0.250029 -2.820664 -0.238396 -0.872208 -0.049326 -0.238818
    36 -0.049759 -1.680544 0.100479 -1.454738 0.000000 0.000000
    37 -0.034141 -1.148311 0.084779 -1.567306 0.000000 0.000000
    38 -0.488517 -2.755600 -0.228261 -1.098181 -0.096000 -0.264903
    39 0.039889 -1.479791 0.029854 -1.354100 0.000000 0.000000
    40 0.028785 -1.075733 -0.023110 -1.435200 0.000000 0.000000
    41 -1.180679 -2.507216 -0.193861 -1.163678 -0.049451 -0.281014
    42 -0.024967 -1.123934 0.017595 -0.883852 0.000000 0.000000
    43 -0.020058 -0.890965 0.010091 -1.435318 0.000000 0.000000
    44 0.120180 -0.051600 -0.063059 0.012085 -2.987703 1.512552
  time 1
    0 9.070147 3.665791 -8.801853 -1.250768 -1.216888 0.948575
    1 -0.071918 -8.498730 -0.104136 0.422273 -0.055325 -0.310684
    2 -0.549374 -3.389827 1.033063 0.764851 1.739163 0.793994
    3 0.013587 1.872281 1.004921 0.016326 -0.000097 -0.007310
    4 -0.013948 -2.720515 1.100493 0.003344 0.000000 0.000000
    5 -0.013949 -4.784638 0.650335 0.000000 0.000000 0.000000
    6 -0.010042 -1.262119 2.630542 0.000000 0.000000 0.000000
    7 -0.642551 -1.684088 2.571740 0.000000 0.000000 0.223896
    8 -0.666019 -4.704160 1.993689 0.000000 -0.974469 0.000000
    9 0.106011 18.212662 2.767869 -0.000008 0.000013 0.000020
    10 -0.089387 1.323563 4.001439 0.016991 -0.000100 -0.008081
    11 0.051270 -5.578958 -8.618262 0.469641 2.510668 0.931594
    12 0.096946 -8.450419 -0.009363 0.183357 -0.611880 0.379685
    13 -0.586769 -1.264477 0.200164 -0.634198 -0.842745 -2.428407
    14 1.522835 0.058680 0.016850 0.145362 -0.396707 0.696195
    15 1.117947 0.048424 -0.005765 0.000000 0.000000 1.200320
    16 -0.963867 -2.785143 -0.085346 -0.760154 0.213016 -0.062165
    17 0.028478 -1.403067 0.006272 -1.198053 -0.091474 0.022976
    18 0.021412 -0.957782 0.020047 -0.901427 -0.040655 -0.015084
    19 -0.249534 -2.846963 -0.174215 -0.940809 0.026202 0.136478
    20 0.043235 -1.683940 0.096015 -1.478176 0.000001 0.000000
    21 0.031729 -1.160830 0.058836 -1.560454 0.000000 0.000000
    22 0.447951 -2.798983 -0.200441 -0.915092 -0.009385 0.114712
    23 -0.032909 -1.480207 0.004935 -1.378569 0.000000 0.000000
    24 -0.027023 -1.076921 -0.020212 -1.240364 0.000000 0.000000
    25 1.164474 -2.543939 -0.170327 -0.628102 0.011541 0.038073
    26 0.024033 -1.129040 0.017807 -1.196241 0.000000 -0.000001
    27 0.014896 -0.883992 -0.019846 -1.031490 0.000000 0.000000
    28 0.009601 -0.128692 -0.103533 0.496656 0.098214 1.447661
    29 0.583509 -1.197274 0.185379 0.377232 -0.745798 -1.043320
    30 1.535926 0.010247 0.005009 -0.290357 -0.063207 -0.837499
    31 1.100770 0.004528 -0.010675 0.000000 0.000000 -0.577704
    32 0.957766 -2.746777 -0.090301 -0.311663 0.016530 0.045802
    33 -0.033419 -1.397128 -0.011255 -1.192059 0.000000 0.000000
    34 -0.022361 -0.957433 0.018783 -0.755725 0.000000 0.000000
    35 0.250029 -2.820664 -0.238396 -0.872208 -0.049326 -0.238818
    36 -0.049759 -1.680544 0.100479 -1.454738 0.000000 0.000000
    37 -0.034141 -1.148311 0.084779 -1.567306 0.000000 0.000000
    38 -0.488517 -2.755600 -0.228261 -1.098181 -0.096000 -0.264903
    39 0.039889 -1.479791 0.029854 -1.354100 0.000000 0.000000
    40 0.028785 -1.075733 -0.023110 -1.435200 0.000000 0.000000
    41 -1.180679 -2.507216 -0.193861 -1.163678 -0.049451 -0.281014
    42 -0.024967 -1.123934 0.017595 -0.883852 0.000000 0.000000
    43 -0.020058 -0.890965 0.010091 -1.435318 0.000000 0.000000
    44 0.120180 -0.051600 -0.063059 0.012085 -2.987703 1.512552
  time 2
    0 8.913892 3.197027 -8.211991 -1.246585 -1.224295 0.939314
    1 -0.071918 -8.498730 -0.104136 0.423122 -0.050563 -0.315657
    2 -0.549374 -3.389827 1.033063 0.764851 1.739163 0.793994
    3 0.013587 1.872281 1.004921 0.016326 -0.000097 -0.007310
    4 -0.013948 -2.720515 1.100493 0.010043 0.000000 0.000000
    5 -0.013949 -4.784638 0.650335 0.000000 0.000000 0.000000
    6 0.001677 -1.176179 2.650074 0.000000 0.000000 0.000000
    7 -0.642551 -1.684088 2.571740 0.000000 0.000000 0.223896
    8 -0.666019 -4.704160 1.993689 0.000000 3.276501 0.000000
    9 0.106011 18.212662 2.767869 -0.000008 0.000013 0.000020
    10 -0.089387 1.323563 4.001439 0.016991 -0.000100 -0.008081
    11 0.082521 -6.004752 -8.583104 0.530381 2.516539 0.939164
    12 0.096946 -8.450419 -0.009363 0.134940 -0.604560 0.421029
    13 -0.586769 -1.264477 0.200164 -0.592699 -0.843008 -2.432498
    14 1.522835 0.058680 0.016850 0.118168 -0.406284 0.765797
    15 1.117947 0.048424 -0.005765 0.000000 0.000000 1.146100
    16 -0.963867 -2.785143 -0.085346 -0.760154 0.213016 -0.062165
    17 0.028478 -1.403067 0.006272 -1.198053 -0.091474 0.022976
    18 0.021412 -0.957782 0.020047 -0.901427 -0.040655 -0.015084
    19 -0.249534 -2.846963 -0.174215 -0.948423 0.024388 0.135112
    20 0.043235 -1.683940 0.096015 -1.478176 0.000001 0.000000
    21 0.031729 -1.160830 0.058836 -1.562248 0.000000 0.000000
    22 0.447951 -2.798983 -0.200441 -0.912036 -0.020015 0.106550
    23 -0.032909 -1.480207 0.004935 -1.379982 0.000000 0.000000
    24 -0.027023 -1.076921 -0.020212 -1.240364 0.000000 0.000000
    25 1.164474 -2.543939 -0.170327 -0.628102 0.011541 0.038073
    26 0.024033 -1.129040 0.017807 -1.196241 0.000000 -0.000001
    27 0.014896 -0.883992 -0.019846 -1.031490 0.000000 0.000000
    28 0.009601 -0.128692 -0.103533 0.496656 0.098214 1.447661
    29 0.583509 -1.197274 0.185379 0.377232 -0.745798 -1.043320
    30 1.535926 0.010247 0.005009 -0.290357 -0.063207 -0.837499
    31 1.100770 0.004528 -0.010675 0.000000 0.000000 -0.577704
    32 0.957766 -2.746777 -0.090301 -0.314383 0.016530 0.045802
    33 -0.033419 -1.397128 -0.011255 -1.203100 0.000000 0.000000
    34 -0.022361 -0.957433 0.018783 -0.777760 0.000000 0.000000
    35 0.250029 -2.820664 -0.238396 -0.872208 -0.049326 -0.238818
    36 -0.049759 -1.680544 0.100479 -1.454738 0.000000 0.000000
    37 -0.034141 -1.148311 0.084779 -1.567306 0.000000 0.000000
    38 -0.488517 -2.755600 -0.228261 -1.098181 -0.096000 -0.264903
    39 0.039889 -1.479791 0.029854 -1.354100 0.000000 0.000000
    40 0.028785 -1.075733 -0.023110 -1.435200 0.000000 0.000000
    41 -1.180679 -2.507216 -0.193861 -1.163678 -0.049451 -0.281014
    42 -0.024967 -1.123934 0.017595 -0.883852 0.000000 0.000000
    43 -0.020058 -0.890965 0.010091 -1.435318 0.000000 0.000000
    44 0.120180 -0.051600 -0.063059 0.012085 -2.987703 1.512552
  time 3
    0 8.804514 2.864986 -7.794010 -1.189455 -1.264545 0.889431
    1 -0.071918 -8.498730 -0.104136 0.414008 -0.060701 -0.297970
    2 -0.549374 -3.389827 1.033063 0.764851 1.739163 0.793994
    3 0.013587 1.872281 1.004921 0.016326 -0.000097 -0.007310
    4 -0.013948 -2.720515 1.100493 0.015077 0.000000 0.000000
    5 -0.013949 -4.784638 0.650335 0.000000 0.000000 0.000000
    6 0.001677 -1.719164 2.646168 0.000000 0.000000 0.000000
    7 -0.642551 -1.684088 2.571740 0.000000 0.000000 0.223896
    8 -0.666019 -4.704160 1.993689 0.000000 -1.786311 0.000000
    9 0.106011 18.212662 2.767869 -0.000008 0.000013 0.000020
    10 -0.089387 1.323563 4.001439 0.016991 -0.000100 -0.008081
    11 0.117679 -6.430546 -8.567479 0.515888 2.505729 0.914173
    12 0.096946 -8.450419 -0.009363 0.101699 -0.614519 0.440624
    13 -0.586769 -1.264477 0.200164 -0.552889 -0.843107 -2.435615
    14 1.522835 0.058680 0.016850 0.091055 -0.413643 0.833858
    15 1.117947 0.048424 -0.005765 0.000000 0.000000 1.093374
    16 -0.963867 -2.785143 -0.085346 -0.760154 0.213016 -0.062165
    17 0.028478 -1.403067 0.006272 -1.198053 -0.091474 0.022976
    18 0.021412 -0.957782 0.020047 -0.901427 -0.040655 -0.015084
    19 -0.249534 -2.846963 -0.174215 -0.955808 0.023008 0.134093
    20 0.043235 -1.683940 0.096015 -1.478176 0.000001 0.000000
    21 0.031729 -1.160830 0.058836 -1.564492 0.000000 0.000000
    22 0.447951 -2.798983 -0.200441 -0.910842 -0.027841 0.101109
    23 -0.032909 -1.480207 0.004935 -1.381748 0.000000 0.000000
    24 -0.027023 -1.076921 -0.020212 -1.240364 0.000000 0.000000
    25 1.164474 -2.543939 -0.170327 -0.628102 0.011541 0.038073
    26 0.024033 -1.129040 0.017807 -1.196241 0.000000 -0.000001
    27 0.014896 -0.883992 -0.019846 -1.031490 0.000000 0.000000
    28 0.009601 -0.128692 -0.103533 0.496656 0.098214 1.447661
    29 0.583509 -1.197274 0.185379 0.377232 -0.745798 -1.043320
    30 1.535926 0.010247 0.005009 -0.290357 -0.063207 -0.837499
    31 1.100770 0.004528 -0.010675 0.000000 0.000000 -0.577704
    32 0.957766 -2.746777 -0.090301 -0.317092 0.016530 0.045802
    33 -0.033419 -1.397128 -0.011255 -1.214170 0.000000 0.000000
    34 -0.022361 -0.957433 0.018783 -0.772746 0.000000 0.000000
    35 0.250029 -2.820664 -0.238396 -0.872208 -0.049326 -0.238818
    36 -0.049759 -1.680544 0.100479 -1.454738 0.000000 0.000000
    37 -0.034141 -1.148311 0.084779 -1.567306 0.000000 0.000000
    38 -0.488517 -2.755600 -0.228261 -1.098181 -0.096000 -0.264903
    39 0.039889 -1.479791 0.029854 -1.354100 0.000000 0.000000
    40 0.028785 -1.075733 -0.023110 -1.435200 0.000000 0.000000
    41 -1.180679 -2.507216 -0.193861 -1.163678 -0.049451 -0.281014
    42 -0.024967 -1.123934 0.017595 -0.883852 0.000000 0.000000
    43 -0.020058 -0.890965 0.010091 -1.435318 0.000000 0.000000
    44 0.120180 -0.051600 -0.063059 0.012085 -2.987703 1.512552
  time 4
    0 8.738106 2.665761 -7.544002 -1.099664 -1.310091 0.811114
    1 -0.071918 -8.498730 -0.104136 0.399518 -0.078209 -0.269029
    2 -0.549374 -3.389827 1.033063 0.764851 1.739163 0.793994
    3 0.013587 1.872281 1.004921 0.016326 -0.000097 -0.007310
    4 -0.013948 -2.720515 1.100493 0.013399 0.000000 0.000000
    5 -0.013949 -4.784638 0.650335 0.000000 0.000000 0.000000
    6 -0.006135 -2.664506 2.638355 0.000000 0.000000 0.000000
    7 -0.642551 -1.684088 2.571740 0.000000 0.000000 0.223896
    8 -0.666019 -4.704160 1.993689 0.000000 -0.331233 0.000000
    9 0.106011 18.212662 2.767869 -0.000008 0.000013 0.000020
    10 -0.089387 1.323563 4.001439 0.016991 -0.000100 -0.008081
    11 0.113772 -6.411015 -8.571385 0.459767 2.481593 0.854829
    12 0.096946 -8.450419 -0.009363 0.106299 -0.623705 0.428520
    13 -0.586769 -1.264477 0.200164 -0.519913 -0.842959 -2.434576
    14 1.522835 0.058680 0.016850 0.066880 -0.417730 0.893933
    15 1.117947 0.048424 -0.005765 0.000000 0.000000 1.046702
    16 -0.963867 -2.785143 -0.085346 -0.760154 0.213016 -0.062165
    17 0.028478 -1.403067 0.006272 -1.198053 -0.091474 0.022976
    18 0.021412 -0.957782 0.020047 -0.901427 -0.040655 -0.015084
    19 -0.249534 -2.846963 -0.174215 -0.962419 0.023455 0.134453
    20 0.043235 -1.683940 0.096015 -1.478176 0.000001 0.000000
    21 0.031729 -1.160830 0.058836 -1.566548 0.000000 0.000000
    22 0.447951 -2.798983 -0.200441 -0.910460 -0.034996 0.098676
    23 -0.032909 -1.480207 0.004935 -1.383363 0.000000 0.000000
    24 -0.027023 -1.076921 -0.020212 -1.240364 0.000000 0.000000
    25 1.164474 -2.543939 -0.170327 -0.628102 0.011541 0.038073
    26 0.024033 -1.129040 0.017807 -1.196241 0.000000 -0.000001
    27 0.014896 -0.883992 -0.019846 -1.031490 0.000000 0.000000
    28 0.009601 -0.128692 -0.103533 0.496656 0.098214 1.447661
    29 0.583509 -1.197274 0.185379 0.377232 -0.745798 -1.043320
    30 1.535926 0.010247 0.005009 -0.290357 -0.063207 -0.837499
    31 1.100770 0.004528 -0.010675 0.000000 0.000000 -0.577704
    32 0.957766 -2.746777 -0.090301 -0.311663 0.016530 0.045802
    33 -0.033419 -1.397128 -0.011255 -1.192059 0.000000 0.000000
    34 -0.022361 -0.957433 0.018783 -0.755725 0.000000 0.000000
    35 0.250029 -2.820664 -0.238396 -0.872208 -0.049326 -0.238818
    36 -0.049759 -1.680544 0.100479 -1.454738 0.000000 0.000000
    37 -0.034141 -1.148311 0.084779 -1.567306 0.000000 0.000000
    38 -0.488517 -2.755600 -0.228261 -1.098181 -0.096000 -0.264903
    39 0.039889 -1.479791 0.029854 -1.354100 0.000000 0.000000
    40 0.028785 -1.075733 -0.023110 -1.435200 0.000000 0.000000
    41 -1.180679 -2.507216 -0.193861 -1.163678 -0.049451 -0.281014
    42 -0.024967 -1.123934 0.017595 -0.883852 0.000000 0.000000
    43 -0.020058 -0.890965 0.010091 -1.435318 0.000000 0.000000
    44 0.120180 -0.051600 -0.063059 0.012085 -2.987703 1.512552
  time 5
    0 8.718574 2.599353 -7.458062 -1.030844 -1.335840 0.750020
    1 -0.071918 -8.498730 -0.104136 0.384645 -0.095892 -0.240393
    2 -0.549374 -3.389827 1.033063 0.764851 1.739163 0.793994
    3 0.013587 1.872281 1.004921 0.016326 -0.000097 -0.007310
    4 -0.013948 -2.720515 1.100493 0.000000 0.000000 0.000000
    5 -0.013949 -4.784638 0.650335 0.000000 0.000000 0.000000
    6 -0.013948 -3.609847 2.626636 0.000000 0.000000 0.000000
    7 -0.642551 -1.684088 2.571740 0.000000 0.000000 0.223896
    8 -0.666019 -4.704160 1.993689 0.000000 0.251327 0.000000
    9 0.106011 18.212662 2.767869 -0.000008 0.000013 0.000020
    10 -0.089387 1.323563 4.001439 0.016991 -0.000100 -0.008081
    11 0.105960 -6.356325 -8.587011 0.431848 2.470784 0.824710
    12 0.096946 -8.450419 -0.009363 0.119696 -0.635107 0.406982
    13 -0.586769 -1.264477 0.200164 -0.498864 -0.842564 -2.426361
    14 1.522835 0.058680 0.016850 0.048610 -0.418017 0.939516
    15 1.117947 0.048424 -0.005765 0.000000 0.000000 1.010591
    16 -0.963867 -2.785143 -0.085346 -0.760154 0.213016 -0.062165
    17 0.028478 -1.403067 0.006272 -1.198053 -0.091474 0.022976
    18 0.021412 -0.957782 0.020047 -0.901427 -0.040655 -0.015084
    19 -0.249534 -2.846963 -0.174215 -0.967707 0.027109 0.137173
    20 0.043235 -1.683940 0.096015 -1.478176 0.000001 0.000000
    21 0.031729 -1.160830 0.058836 -1.567707 0.000000 0.000000
    22 0.447951 -2.798983 -0.200441 -0.912084 -0.039359 0.099024
    23 -0.032909 -1.480207 0.004935 -1.384322 0.000000 0.000000
    24 -0.027023 -1.076921 -0.020212 -1.240364 0.000000 0.000000
    25 1.164474 -2.543939 -0.170327 -0.628102 0.011541 0.038073
    26 0.024033 -1.129040 0.017807 -1.196241 0.000000 -0.000001
    27 0.014896 -0.883992 -0.019846 -1.031490 0.000000 0.000000
    28 0.009601 -0.128692 -0.103533 0.496656 0.098214 1.447661
    29 0.583509 -1.197274 0.185379 0.377232 -0.745798 -1.043320
    30 1.535926 0.010247 0.005009 -0.290357 -0.063207 -0.837499
    31 1.100770 0.004528 -0.010675 0.000000 0.000000 -0.577704
    32 0.957766 -2.746777 -0.090301 -0.295627 0.016530 0.045802
    33 -0.033419 -1.397128 -0.011255 -1.126560 0.000000 0.000000
    34 -0.022361 -0.957433 0.018783 -0.732034 0.000000 0.000000
    35 0.250029 -2.820664 -0.238396 -0.872208 -0.049326 -0.238818
    36 -0.049759 -1.680544 0.100479 -1.454738 0.000000 0.000000
    37 -0.034141 -1.148311 0.084779 -1.567306 0.000000 0.000000
    38 -0.488517 -2.755600 -0.228261 -1.098181 -0.096000 -0.264903
    39 0.039889 -1.479791 0.029854 -1.354100 0.000000 0.000000
    40 0.028785 -1.075733 -0.023110 -1.435200 0.000000 0.000000
    41 -1.180679 -2.507216 -0.193861 -1.163678 -0.049451 -0.281014
    42 -0.024967 -1.123934 0.017595 -0.883852 0.000000 0.000000
    43 -0.020058 -0.890965 0.010091 -1.435318 0.000000 0.000000
    44 0.120180 -0.051600 -0.063059 0.012085 -2.987703 1.512552
  time 6
    0 8.730293 2.708731 -7.512751 -1.010961 -1.342001 0.732877
    1 -0.071918 -8.498730 -0.104136 0.375066 -0.107070 -0.224081
    2 -0.549374 -3.389827 1.033063 0.764851 1.739163 0.793994
    3 0.013587 1.872281 1.004921 0.016326 -0.000097 -0.007310
    4 -0.013948 -2.732234 1.100493 -0.035175 0.000000 0.000000
    5 -0.013949 -4.784638 0.650335 0.000000 0.000000 0.000000
    6 -0.013948 -3.609847 2.626636 0.000000 0.000000 0.000000
    7 -0.642551 -1.684088 2.571740 0.000000 0.000000 0.223896
    8 -0.666019 -4.704160 1.993689 0.000000 0.251327 0.000000
    9 0.106011 18.212662 2.767869 -0.000008 0.000013 0.000020
    10 -0.089387 1.323563 4.001439 0.016991 -0.000100 -0.008081
    11 0.094240 -6.286011 -8.606543 0.429362 2.470690 0.824465
    12 0.096946 -8.450419 -0.009363 0.138096 -0.646932 0.380879
    13 -0.586769 -1.264477 0.200164 -0.506897 -0.839508 -2.394899
    14 1.522835 0.058680 0.016850 0.044373 -0.409330 0.952666
    15 1.117947 0.048424 -0.005765 0.000000 0.000000 0.997122
    16 -0.963867 -2.785143 -0.085346 -0.760154 0.213016 -0.062165
    17 0.028478 -1.403067 0.006272 -1.198053 -0.091474 0.022976
    18 0.021412 -0.957782 0.020047 -0.901427 -0.040655 -0.015084
    19 -0.249534 -2.846963 -0.174215 -0.969576 0.041516 0.147816
    20 0.043235 -1.683940 0.096015 -1.478176 0.000001 0.000000
    21 0.031729 -1.160830 0.058836 -1.567371 0.000000 0.000000
    22 0.447951 -2.798983 -0.200441 -0.921062 -0.031784 0.104165
    23 -0.032909 -1.480207 0.004935 -1.384069 0.000000 0.000000
    24 -0.027023 -1.076921 -0.020212 -1.240364 0.000000 0.000000
    25 1.164474 -2.543939 -0.170327 -0.628102 0.011541 0.038073
    26 0.024033 -1.129040 0.017807 -1.196241 0.000000 -0.000001
    27 0.014896 -0.883992 -0.019846 -1.031490 0.000000 0.000000
    28 0.009601 -0.128692 -0.103533 0.496656 0.098214 1.447661
    29 0.583509 -1.197274 0.185379 0.377232 -0.745798 -1.043320
    30 1.535926 0.010247 0.005009 -0.290357 -0.063207 -0.837499
    31 1.100770 0.004528 -0.010675 0.000000 0.000000 -0.577704
    32 0.957766 -2.746777 -0.090301 -0.274175 0.016530 0.045802
    33 -0.033419 -1.397128 -0.011255 -1.038919 0.000000 0.000000
    34 -0.022361 -0.957433 0.018783 -0.700369 0.000000 0.000000
    35 0.250029 -2.820664 -0.238396 -0.872208 -0.049326 -0.238818
    36 -0.049759 -1.680544 0.100479 -1.454738 0.000000 0.000000
    37 -0.034141 -1.148311 0.084779 -1.567306 0.000000 0.000000
    38 -0.488517 -2.755600 -0.228261 -1.098181 -0.096000 -0.264903
    39 0.039889 -1.479791 0.029854 -1.354100 0.000000 0.000000
    40 0.028785 -1.075733 -0.023110 -1.435200 0.000000 0.000000
    41 -1.180679 -2.507216 -0.193861 -1.163678 -0.049451 -0.281014
    42 -0.024967 -1.123934 0.017595 -0.883852 0.000000 0.000000
    43 -0.020058 -0.890965 0.010091 -1.435318 0.000000 0.000000
    44 0.120180 -0.051600 -0.063059 0.012085 -2.987703 1.512552
  time 7
    0 8.742012 2.806390 -7.563534 -1.003397 -1.344043 0.726947
    1 -0.071918 -8.498730 -0.104136 0.371165 -0.111831 -0.219905
    2 -0.549374 -3.389827 1.033063 0.764851 1.739163 0.793994
    3 0.013587 1.872281 1.004921 0.016326 -0.000097 -0.007310
    4 -0.013948 -2.759579 1.100493 -0.088794 0.000000 0.000000
    5 -0.013949 -4.784638 0.650335 0.000000 0.000000 0.000000
    6 -0.013948 -3.609847 2.626636 0.000000 0.000000 0.000000
    7 -0.642551 -1.684088 2.571740 0.000000 0.000000 0.223896
    8 -0.666019 -4.704160 1.993689 0.000000 0.251327 0.000000
    9 0.106011 18.212662 2.767869 -0.000008 0.000013 0.000020
    10 -0.089387 1.323563 4.001439 0.016991 -0.000100 -0.008081
    11 0.082521 -6.207883 -8.626074 0.424247 2.470597 0.824140
    12 0.096946 -8.450419 -0.009363 0.157436 -0.657525 0.355361
    13 -0.586769 -1.264477 0.200164 -0.538184 -0.835005 -2.349540
    14 1.522835 0.058680 0.016850 0.052184 -0.395712 0.936863
    15 1.117947 0.048424 -0.005765 0.000000 0.000000 1.004643
    16 -0.963867 -2.785143 -0.085346 -0.760154 0.213016 -0.062165
    17 0.028478 -1.403067 0.006272 -1.198053 -0.091474 0.022976
    18 0.021412 -0.957782 0.020047 -0.901427 -0.040655 -0.015084
    19 -0.249534 -2.846963 -0.174215 -0.968482 0.062257 0.163204
    20 0.043235 -1.683940 0.096015 -1.478176 0.000001 0.000000
    21 0.031729 -1.160830 0.058836 -1.564940 0.000000 0.000000
    22 0.447951 -2.798983 -0.200441 -0.954876 0.014033 0.123257
    23 -0.032909 -1.480207 0.004935 -1.382101 0.000000 0.000000
    24 -0.027023 -1.076921 -0.020212 -1.240364 0.000000 0.000000
    25 1.164474 -2.543939 -0.170327 -0.628102 0.011541 0.038073
    26 0.024033 -1.129040 0.017807 -1.196241 0.000000 -0.000001
    27 0.014896 -0.883992 -0.019846 -1.031490 0.000000 0.000000
    28 0.009601 -0.128692 -0.103533 0.496656 0.098214 1.447661
    29 0.583509 -1.197274 0.185379 0.377232 -0.745798 -1.043320
    30 1.535926 0.010247 0.005009 -0.290357 -0.063207 -0.837499
    31 1.100770 0.004528 -0.010675 0.000000 0.000000 -0.577704
    32 0.957766 -2.746777 -0.090301 -0.250697 0.016530 0.045802
    33 -0.033419 -1.397128 -0.011255 -0.943013 0.000000 0.000000
    34 -0.022361 -0.957433 0.018783 -0.665720 0.000000 0.000000
    35 0.250029 -2.820664 -0.238396 -0.872208 -0.049326 -0.238818
    36 -0.049759 -1.680544 0.100479 -1.454738 0.000000 0.000000
    37 -0.034141 -1.148311 0.084779 -1.567306 0.000000 0.000000
    38 -0.488517 -2.755600 -0.228261 -1.098181 -0.096000 -0.264903
    39 0.039889 -1.479791 0.029854 -1.354100 0.000000 0.000000
    40 0.028785 -1.075733 -0.023110 -1.435200 0.000000 0.000000
    41 -1.180679 -2.507216 -0.193861 -1.163678 -0.049451 -0.281014
    42 -0.024967 -1.123934 0.017595 -0.883852 0.000000 0.000000
    43 -0.020058 -0.890965 0.010091 -1.435318 0.000000 0.000000
    44 0.120180 -0.051600 -0.063059 0.012085 -2.987703 1.512552
  time 8
    0 8.749825 2.900143 -7.606504 -1.006606 -1.342728 0.730928
    1 -0.071918 -8.498730 -0.104136 0.369064 -0.114688 -0.219141
    2 -0.549374 -3.389827 1.033063 0.764851 1.739163 0.793994
    3 0.013587 1.872281 1.004921 0.016326 -0.000097 -0.007310
    4 -0.013948 -2.794736 1.100493 -0.145769 0.000000 0.000000
    5 -0.013949 -4.784638 0.650335 0.000000 0.000000 0.000000
    6 -0.013948 -3.609847 2.626636 0.000000 0.000000 0.000000
    7 -0.642551 -1.684088 2.571740 0.000000 0.000000 0.223896
    8 -0.666019 -4.704160 1.993689 0.000000 0.251327 0.000000
    9 0.106011 18.212662 2.767869 -0.000008 0.000013 0.000020
    10 -0.089387 1.323563 4.001439 0.016991 -0.000100 -0.008081
    11 0.070802 -6.137569 -8.649513 0.425525 2.472088 0.828291
    12 0.096946 -8.450419 -0.009363 0.173251 -0.665549 0.335930
    13 -0.586769 -1.264477 0.200164 -0.564625 -0.836041 -2.324312
    14 1.522835 0.058680 0.016850 0.060340 -0.390403 0.917380
    15 1.117947 0.048424 -0.005765 0.000000 0.000000 1.017125
    16 -0.963867 -2.785143 -0.085346 -0.760154 0.213016 -0.062165
    17 0.028478 -1.403067 0.006272 -1.198053 -0.091474 0.022976
    18 0.021412 -0.957782 0.020047 -0.901427 -0.040655 -0.015084
    19 -0.249534 -2.846963 -0.174215 -0.968208 0.072826 0.171078
    20 0.043235 -1.683940 0.096015 -1.478176 0.000001 0.000000
    21 0.031729 -1.160830 0.058836 -1.559706 0.000000 0.000000
    22 0.447951 -2.798983 -0.200441 -0.981478 0.056290 0.139208
    23 -0.032909 -1.480207 0.004935 -1.377964 0.000000 0.000000
    24 -0.027023 -1.076921 -0.020212 -1.240364 0.000000 0.000000
    25 1.164474 -2.543939 -0.170327 -0.628102 0.011541 0.038073
    26 0.024033 -1.129040 0.017807 -1.196241 0.000000 -0.000001
    27 0.014896 -0.883992 -0.019846 -1.031490 0.000000 0.000000
    28 0.009601 -0.128692 -0.103533 0.496656 0.098214 1.447661
    29 0.583509 -1.197274 0.185379 0.377232 -0.745798 -1.043320
    30 1.535926 0.010247 0.005009 -0.290357 -0.063207 -0.837499
    31 1.100770 0.004528 -0.010675 0.000000 0.000000 -0.577704
    32 0.957766 -2.746777 -0.090301 -0.228550 0.016530 0.045802
    33 -0.033419 -1.397128 -0.011255 -0.852627 0.000000 0.000000
    34 -0.022361 -0.957433 0.018783 -0.633006 0.000000 0.000000
    35 0.250029 -2.820664 -0.238396 -0.872208 -0.049326 -0.238818
    36 -0.049759 -1.680544 0.100479 -1.454738 0.000000 0.000000
    37 -0.034141 -1.148311 0.084779 -1.567306 0.000000 0.000000
    38 -0.488517 -2.755600 -0.228261 -1.098181 -0.096000 -0.264903
    39 0.039889 -1.479791 0.029854 -1.354100 0.000000 0.000000
    40 0.028785 -1.075733 -0.023110 -1.435200 0.000000 0.000000
    41 -1.180679 -2.507216 -0.193861 -1.163678 -0.049451 -0.281014
    42 -0.024967 -1.123934 0.017595 -0.883852 0.000000 0.000000
    43 -0.020058 -0.890965 0.010091 -1.435318 0.000000 0.000000
    44 0.120180 -0.051600 -0.063059 0.012085 -2.987703 1.512552
  time 9
    0 8.757638 2.982177 -7.649474 -1.017894 -1.338782 0.742383
    1 -0.071918 -8.498730 -0.104136 0.368457 -0.116007 -0.221144
    2 -0.549374 -3.389827 1.033063 0.764851 1.739163 0.793994
    3 0.013587 1.872281 1.004921 0.016326 -0.000097 -0.007310
    4 -0.013948 -2.825987 1.100493 -0.190998 0.000000 0.000000
    5 -0.013949 -4.784638 0.650335 0.000000 0.000000 0.000000
    6 -0.013948 -3.609847 2.626636 0.000000 0.000000 0.000000
    7 -0.642551 -1.684088 2.571740 0.000000 0.000000 0.223896
    8 -0.666019 -4.704160 1.993689 0.000000 0.251327 0.000000
    9 0.106011 18.212662 2.767869 -0.000008 0.000013 0.000020
    10 -0.089387 1.323563 4.001439 0.016991 -0.000100 -0.008081
    11 0.062989 -6.090692 -8.669044 0.431848 2.474977 0.836513
    12 0.096946 -8.450419 -0.009363 0.180906 -0.669948 0.328322
    13 -0.586769 -1.264477 0.200164 -0.579983 -0.844158 -2.321779
    14 1.522835 0.058680 0.016850 0.065212 -0.394551 0.903717
    15 1.117947 0.048424 -0.005765 0.000000 0.000000 1.026859
    16 -0.963867 -2.785143 -0.085346 -0.760154 0.213016 -0.062165
    17 0.028478 -1.403067 0.006272 -1.198053 -0.091474 0.022976
    18 0.021412 -0.957782 0.020047 -0.901427 -0.040655 -0.015084
    19 -0.249534 -2.846963 -0.174215 -0.969941 0.071353 0.170011
    20 0.043235 -1.683940 0.096015 -1.478176 0.000001 0.000000
    21 0.031729 -1.160830 0.058836 -1.545236 0.000360 0.000024
    22 0.447951 -2.798983 -0.200441 -0.979949 0.062462 0.142204
    23 -0.032909 -1.480207 0.004935 -1.370597 0.000899 0.000216
    24 -0.027023 -1.076921 -0.020212 -1.240364 0.000000 0.000000
    25 1.164474 -2.543939 -0.170327 -0.628102 0.011541 0.038073
    26 0.024033 -1.129040 0.017807 -1.196241 0.000000 -0.000001
    27 0.014896 -0.883992 -0.019846 -1.031490 0.000000 0.000000
    28 0.009601 -0.128692 -0.103533 0.496656 0.098214 1.447661
    29 0.583509 -1.197274 0.185379 0.377232 -0.745798 -1.043320
    30 1.535926 0.010247 0.005009 -0.290357 -0.063207 -0.837499
    31 1.100770 0.004528 -0.010675 0.000000 0.000000 -0.577704
    32 0.957766 -2.746777 -0.090301 -0.211088 0.016530 0.045802
    33 -0.033419 -1.397128 -0.011255 -0.781637 0.000000 0.000000
    34 -0.022361 -0.957433 0.018783 -0.607263 0.000000 0.000000
    35 0.250029 -2.820664 -0.238396 -0.872208 -0.049326 -0.238818
    36 -0.049759 -1.680544 0.100479 -1.454738 0.000000 0.000000
    37 -0.034141 -1.148311 0.084779 -1.567306 0.000000 0.000000
    38 -0.488517 -2.755600 -0.228261 -1.098181 -0.096000 -0.264903
    39 0.039889 -1.479791 0.029854 -1.354100 0.000000 0.000000
    40 0.028785 -1.075733 -0.023110 -1.435200 0.000000 0.000000
    41 -1.180679 -2.507216 -0.193861 -1.163678 -0.049451 -0.281014
    42 -0.024967 -1.123934 0.017595 -0.883852 0.000000 0.000000
    43 -0.020058 -0.890965 0.010091 -1.435318 0.000000 0.000000
    44 0.120180 -0.051600 -0.063059 0.012085 -2.987703 1.512552
  time 10
    0 8.765450 3.052491 -7.684632 -1.034340 -1.332933 0.758550
    1 -0.071918 -8.498730 -0.104136 0.369043 -0.116080 -0.225252
    2 -0.549374 -3.389827 1.033063 0.764851 1.739163 0.793994
    3 0.013587 1.872281 1.004921 0.016326 -0.000097 -0.007310
    4 -0.013948 -2.837706 1.100493 -0.209431 0.000000 0.000000
    5 -0.013949 -4.784638 0.650335 0.000000 0.000000 0.000000
    6 -0.013948 -3.609847 2.626636 0.000000 0.000000 0.000000
    7 -0.642551 -1.684088 2.571740 0.000000 0.000000 0.223896
    8 -0.666019 -4.704160 1.993689 0.000000 0.251327 0.000000
    9 0.106011 18.212662 2.767869 -0.000008 0.000013 0.000020
    10 -0.089387 1.323563 4.001439 0.016991 -0.000100 -0.008081
    11 0.055177 -6.067254 -8.688576 0.442291 2.479171 0.848480
    12 0.096946 -8.450419 -0.009363 0.181544 -0.671532 0.330873
    13 -0.586769 -1.264477 0.200164 -0.595967 -0.854593 -2.322039
    14 1.522835 0.058680 0.016850 0.070428 -0.400025 0.889140
    15 1.117947 0.048424 -0.005765 0.000000 0.000000 1.036754
    16 -0.963867 -2.785143 -0.085346 -0.760154 0.213016 -0.062165
    17 0.028478 -1.403067 0.006272 -1.198053 -0.091474 0.022976
    18 0.021412 -0.957782 0.020047 -0.901427 -0.040655 -0.015084
    19 -0.249534 -2.846963 -0.174215 -0.971947 0.067371 0.167087
    20 0.043235 -1.683940 0.096015 -1.478176 0.000001 0.000000
    21 0.031729 -1.160830 0.058836 -1.521157 0.000971 0.000072
    22 0.447951 -2.798983 -0.200441 -0.974075 0.064224 0.143786
    23 -0.032909 -1.480207 0.004935 -1.359951 0.003020 0.000731
    24 -0.027023 -1.076921 -0.020212 -1.240364 0.000000 0.000000
    25 1.164474 -2.543939 -0.170327 -0.628102 0.011541 0.038073
    26 0.024033 -1.129040 0.017807 -1.196241 0.000000 -0.000001
    27 0.014896 -0.883992 -0.019846 -1.031490 0.000000 0.000000
    28 0.009601 -0.128692 -0.103533 0.496656 0.098214 1.447661
    29 0.583509 -1.197274 0.185379 0.377232 -0.745798 -1.043320
    30 1.535926 0.010247 0.005009 -0.290357 -0.063207 -0.837499
    31 1.100770 0.004528 -0.010675 0.000000 0.000000 -0.577704
    32 0.957766 -2.746777 -0.090301 -0.201716 0.016530 0.045802
    33 -0.033419 -1.397128 -0.011255 -0.743949 0.000000 0.000000
    34 -0.022361 -0.957433 0.018783 -0.593413 0.000000 0.000000
    35 0.250029 -2.820664 -0.238396 -0.872208 -0.049326 -0.238818
    36 -0.049759 -1.680544 0.100479 -1.454738 0.000000 0.000000
    37 -0.034141 -1.148311 0.084779 -1.567306 0.000000 0.000000
    38 -0.488517 -2.755600 -0.228261 -1.098181 -0.096000 -0.264903
    39 0.039889 -1.479791 0.029854 -1.354100 0.000000 0.000000
    40 0.028785 -1.075733 -0.023110 -1.435200 0.000000 0.000000
    41 -1.180679 -2.507216 -0.193861 -1.163678 -0.049451 -0.281014
    42 -0.024967 -1.123934 0.017595 -0.883852 0.000000 0.000000
    43 -0.020058 -0.890965 0.010091 -1.435318 0.000000 0.000000
    44 0.120180 -0.051600 -0.063059 0.012085 -2.987703 1.512552
  time 11
    0 8.773263 3.114993 -7.715883 -1.053192 -1.325769 0.776829
    1 -0.071918 -8.498730 -0.104136 0.370478 -0.115274 -0.230819
    2 -0.549374 -3.389827 1.033063 0.764851 1.739163 0.793994
    3 0.013587 1.872281 1.004921 0.016326 -0.000097 -0.007310
    4 -0.013948 -2.837706 1.100493 -0.208412 0.000000 0.000000
    5 -0.013949 -4.784638 0.650335 0.000000 0.000000 0.000000
    6 -0.013948 -3.609847 2.626636 0.000000 0.000000 0.000000
    7 -0.642551 -1.684088 2.571740 0.000000 0.000000 0.223896
    8 -0.666019 -4.704160 1.993689 0.000000 0.251327 0.000000
    9 0.106011 18.212662 2.767869 -0.000008 0.000013 0.000020
    10 -0.089387 1.323563 4.001439 0.016991 -0.000100 -0.008081
    11 0.051270 -6.059441 -8.712015 0.455433 2.484575 0.862888
    12 0.096946 -8.450419 -0.009363 0.179765 -0.671848 0.337639
    13 -0.586769 -1.264477 0.200164 -0.612223 -0.866654 -2.324507
    14 1.522835 0.058680 0.016850 0.075909 -0.406525 0.873794
    15 1.117947 0.048424 -0.005765 0.000000 0.000000 1.046808
    16 -0.963867 -2.785143 -0.085346 -0.760154 0.213016 -0.062165
    17 0.028478 -1.403067 0.006272 -1.198053 -0.091474 0.022976
    18 0.021412 -0.957782 0.020047 -0.901427 -0.040655 -0.015084
    19 -0.249534 -2.846963 -0.174215 -0.974135 0.061508 0.162809
    20 0.043235 -1.683940 0.096015 -1.478176 0.000001 0.000000
    21 0.031729 -1.160830 0.058836 -1.495807 0.001091 0.000096
    22 0.447951 -2.798983 -0.200441 -0.965431 0.062678 0.144242
    23 -0.032909 -1.480207 0.004935 -1.347185 0.005429 0.001366
    24 -0.027023 -1.076921 -0.020212 -1.240364 0.000000 0.000000
    25 1.164474 -2.543939 -0.170327 -0.628102 0.011541 0.038073
    26 0.024033 -1.129040 0.017807 -1.196241 0.000000 -0.000001
    27 0.014896 -0.883992 -0.019846 -1.031490 0.000000 0.000000
    28 0.009601 -0.128692 -0.103533 0.496656 0.098214 1.447661
    29 0.583509 -1.197274 0.185379 0.377232 -0.745798 -1.043320
    30 1.535926 0.010247 0.005009 -0.290357 -0.063207 -0.837499
    31 1.100770 0.004528 -0.010675 0.000000 0.000000 -0.577704
    32 0.957766 -2.746777 -0.090301 -0.197905 0.016530 0.045802
    33 -0.033419 -1.397128 -0.011255 -0.729178 0.000000 0.000000
    34 -0.022361 -0.957433 0.018783 -0.587794 0.000000 0.000000
    35 0.250029 -2.820664 -0.238396 -0.872208 -0.049326 -0.238818
    36 -0.049759 -1.680544 0.100479 -1.454738 0.000000 0.000000
    37 -0.034141 -1.148311 0.084779 -1.567306 0.000000 0.000000
    38 -0.488517 -2.755600 -0.228261 -1.098181 -0.096000 -0.264903
    39 0.039889 -1.479791 0.029854 -1.354100 0.000000 0.000000
    40 0.028785 -1.075733 -0.023110 -1.435200 0.000000 0.000000
    41 -1.180679 -2.507216 -0.193861 -1.163678 -0.049451 -0.281014
    42 -0.024967 -1.123934 0.017595 -0.883852 0.000000 0.000000
    43 -0.020058 -0.890965 0.010091 -1.435318 0.000000 0.000000
    44 0.120180 -0.051600 -0.063059 0.012085 -2.987703 1.512552
  time 12
    0 8.781076 3.169683 -7.743227 -1.071987 -1.318120 0.795109
    1 -0.071918 -8.498730 -0.104136 0.372479 -0.113883 -0.237168
    2 -0.549374 -3.389827 1.033063 0.764851 1.739163 0.793994
    3 0.013587 1.872281 1.004921 0.016326 -0.000097 -0.007310
    4 -0.013948 -2.833800 1.100493 -0.205452 0.000000 0.000000
    5 -0.013949 -4.784638 0.650335 0.000000 0.000000 0.000000
    6 -0.013948 -3.609847 2.626636 0.000000 0.000000 0.000000
    7 -0.642551 -1.684088 2.571740 0.000000 0.000000 0.223896
    8 -0.666019 -4.704160 1.993689 0.000000 0.251327 0.000000
    9 0.106011 18.212662 2.767869 -0.000008 0.000013 0.000020
    10 -0.089387 1.323563 4.001439 0.016991 -0.000100 -0.008081
    11 0.047364 -6.071160 -8.739359 0.469712 2.490540 0.878437
    12 0.096946 -8.450419 -0.009363 0.176038 -0.671145 0.347729
    13 -0.586769 -1.264477 0.200164 -0.628344 -0.879603 -2.328663
    14 1.522835 0.058680 0.016850 0.081628 -0.413749 0.857905
    15 1.117947 0.048424 -0.005765 0.000000 0.000000 1.057023
    16 -0.963867 -2.785143 -0.085346 -0.760154 0.213016 -0.062165
    17 0.028478 -1.403067 0.006272 -1.198053 -0.091474 0.022976
    18 0.021412 -0.957782 0.020047 -0.901427 -0.040655 -0.015084
    19 -0.249534 -2.846963 -0.174215 -0.976415 0.054437 0.157655
    20 0.043235 -1.683940 0.096015 -1.478176 0.000001 0.000000
    21 0.031729 -1.160830 0.058836 -1.477523 0.000000 0.000000
    22 0.447951 -2.798983 -0.200441 -0.955449 0.058951 0.143858
    23 -0.032909 -1.480207 0.004935 -1.333410 0.007227 0.001870
    24 -0.027023 -1.076921 -0.020212 -1.240364 0.000000 0.000000
    25 1.164474 -2.543939 -0.170327 -0.628102 0.011541 0.038073
    26 0.024033 -1.129040 0.017807 -1.196241 0.000000 -0.000001
    27 0.014896 -0.883992 -0.019846 -1.031490 0.000000 0.000000
    28 0.009601 -0.128692 -0.103533 0.496656 0.098214 1.447661
    29 0.583509 -1.197274 0.185379 0.377232 -0.745798 -1.043320
    30 1.535926 0.010247 0.005009 -0.290357 -0.063207 -0.837499
    31 1.100770 0.004528 -0.010675 0.000000 0.000000 -0.577704
    32 0.957766 -2.746777 -0.090301 -0.194873 0.016530 0.045802
    33 -0.033419 -1.397128 -0.011255 -0.717630 0.000000 0.000000
    34 -0.022361 -0.957433 0.018783 -0.583317 0.000000 0.000000
    35 0.250029 -2.820664 -0.238396 -0.872208 -0.049326 -0.238818
    36 -0.049759 -1.680544 0.100479 -1.454738 0.000000 0.000000
    37 -0.034141 -1.148311 0.084779 -1.567306 0.000000 0.000000
    38 -0.488517 -2.755600 -0.228261 -1.098181 -0.096000 -0.264903
    39 0.039889 -1.479791 0.029854 -1.354100 0.000000 0.000000
    40 0.028785 -1.075733 -0.023110 -1.435200 0.000000 0.000000
    41 -1.180679 -2.507216 -0.193861 -1.163678 -0.049451 -0.281014
    42 -0.024967 -1.123934 0.017595 -0.883852 0.000000 0.000000
    43 -0.020058 -0.890965 0.010091 -1.435318 0.000000 0.000000
    44 0.120180 -0.051600 -0.063059 0.012085 -2.987703 1.512552
  time 13
    0 8.784982 3.212653 -7.762759 -1.088776 -1.310714 0.811520
    1 -0.071918 -8.498730 -0.104136 0.374682 -0.112256 -0.243618
    2 -0.549374 -3.389827 1.033063 0.764851 1.739163 0.793994
    3 0.013587 1.872281 1.004921 0.016326 -0.000097 -0.007310
    4 -0.013948 -2.829893 1.100493 -0.200718 0.000000 0.000000
    5 -0.013949 -4.784638 0.650335 0.000000 0.000000 0.000000
    6 -0.013948 -3.609847 2.626636 0.000000 0.000000 0.000000
    7 -0.642551 -1.684088 2.571740 0.000000 0.000000 0.223896
    8 -0.666019 -4.704160 1.993689 0.000000 0.251327 0.000000
    9 0.106011 18.212662 2.767869 -0.000008 0.000013 0.000020
    10 -0.089387 1.323563 4.001439 0.016991 -0.000100 -0.008081
    11 0.039551 -6.086786 -8.766704 0.483565 2.496690 0.893903
    12 0.096946 -8.450419 -0.009363 0.170900 -0.669631 0.360301
    13 -0.586769 -1.264477 0.200164 -0.643919 -0.892699 -2.334085
    14 1.522835 0.058680 0.016850 0.087533 -0.421410 0.841674
    15 1.117947 0.048424 -0.005765 0.000000 0.000000 1.067371
    16 -0.963867 -2.785143 -0.085346 -0.760154 0.213016 -0.062165
    17 0.028478 -1.403067 0.006272 -1.198053 -0.091474 0.022976
    18 0.021412 -0.957782 0.020047 -0.901427 -0.040655 -0.015084
    19 -0.249534 -2.846963 -0.174215 -0.978694 0.046760 0.152094
    20 0.043235 -1.683940 0.096015 -1.478176 0.000001 0.000000
    21 0.031729 -1.160830 0.058836 -1.467839 -0.003523 -0.000360
    22 0.447951 -2.798983 -0.200441 -0.945658 0.054181 0.142935
    23 -0.032909 -1.480207 0.004935 -1.319685 0.007514 0.002001
    24 -0.027023 -1.076921 -0.020212 -1.240364 0.000000 0.000000
    25 1.164474 -2.543939 -0.170327 -0.628102 0.011541 0.038073
    26 0.024033 -1.129040 0.017807 -1.196241 0.000000 -0.000001
    27 0.014896 -0.883992 -0.019846 -1.031490 0.000000 0.000000
    28 0.009601 -0.128692 -0.103533 0.496656 0.098214 1.447661
    29 0.583509 -1.197274 0.185379 0.377232 -0.745798 -1.043320
    30 1.535926 0.010247 0.005009 -0.290357 -0.063207 -0.837499
    31 1.100770 0.004528 -0.010675 0.000000 0.000000 -0.577704
    32 0.957766 -2.746777 -0.090301 -0.192560 0.016530 0.045802
    33 -0.033419 -1.397128 -0.011255 -0.709066 0.000000 0.000000
    34 -0.022361 -0.957433 0.018783 -0.579889 0.000000 0.000000
    35 0.250029 -2.820664 -0.238396 -0.872208 -0.049326 -0.238818
    36 -0.049759 -1.680544 0.100479 -1.454738 0.000000 0.000000
    37 -0.034141 -1.148311 0.084779 -1.567306 0.000000 0.000000
    38 -0.488517 -2.755600 -0.228261 -1.098181 -0.096000 -0.264903
    39 0.039889 -1.479791 0.029854 -1.354100 0.000000 0.000000
    40 0.028785 -1.075733 -0.023110 -1.435200 0.000000 0.000000
    41 -1.180679 -2.507216 -0.193861 -1.163678 -0.049451 -0.281014
    42 -0.024967 -1.123934 0.017595 -0.883852 0.000000 0.000000
    43 -0.020058 -0.890965 0.010091 -1.435318 0.000000 0.000000
    44 0.120180 -0.051600 -0.063059 0.012085 -2.987703 1.512552
  time 14
    0 8.788888 3.243904 -7.778384 -1.102128 -1.304346 0.824844
    1 -0.071918 -8.498730 -0.104136 0.376844 -0.110718 -0.249525
    2 -0.549374 -3.389827 1.033063 0.764851 1.739163 0.793994
    3 0.013587 1.872281 1.004921 0.016326 -0.000097 -0.007310
    4 -0.013948 -2.825987 1.100493 -0.194354 0.000000 0.000000
    5 -0.013949 -4.784638 0.650335 0.000000 0.000000 0.000000
    6 -0.013948 -3.609847 2.626636 0.000000 0.000000 0.000000
    7 -0.642551 -1.684088 2.571740 0.000000 0.000000 0.223896
    8 -0.666019 -4.704160 1.993689 0.000000 0.251327 0.000000
    9 0.106011 18.212662 2.767869 -0.000008 0.000013 0.000020
    10 -0.089387 1.323563 4.001439 0.016991 -0.000100 -0.008081
    11 0.035645 -6.118037 -8.790142 0.495358 2.502561 0.908068
    12 0.096946 -8.450419 -0.009363 0.164756 -0.667485 0.374441
    13 -0.586769 -1.264477 0.200164 -0.658488 -0.905221 -2.340254
    14 1.522835 0.058680 0.016850 0.093623 -0.429237 0.825358
    15 1.117947 0.048424 -0.005765 0.000000 0.000000 1.077825
    16 -0.963867 -2.785143 -0.085346 -0.760154 0.213016 -0.062165
    17 0.028478 -1.403067 0.006272 -1.198053 -0.091474 0.022976
    18 0.021412 -0.957782 0.020047 -0.901427 -0.040655 -0.015084
    19 -0.249534 -2.846963 -0.174215 -0.980928 0.039163 0.146605
    20 0.043235 -1.683940 0.096015 -1.478176 0.000001 0.000000
    21 0.031729 -1.160830 0.058836 -1.462567 -0.008737 -0.000935
    22 0.447951 -2.798983 -0.200441 -0.937539 0.049495 0.141809
    23 -0.032909 -1.480207 0.004935 -1.307172 0.005393 0.001474
    24 -0.027023 -1.076921 -0.020212 -1.240364 0.000000 0.000000
    25 1.164474 -2.543939 -0.170327 -0.628102 0.011541 0.038073
    26 0.024033 -1.129040 0.017807 -1.196241 0.000000 -0.000001
    27 0.014896 -0.883992 -0.019846 -1.031490 0.000000 0.000000
    28 0.009601 -0.128692 -0.103533 0.496656 0.098214 1.447661
    29 0.583509 -1.197274 0.185379 0.377232 -0.745798 -1.043320
    30 1.535926 0.010247 0.005009 -0.290357 -0.063207 -0.837499
    31 1.100770 0.004528 -0.010675 0.000000 0.000000 -0.577704
    32 0.957766 -2.746777 -0.090301 -0.190894 0.016530 0.045802
    33 -0.033419 -1.397128 -0.011255 -0.703188 0.000000 0.000000
    34 -0.022361 -0.957433 0.018783 -0.577441 0.000000 0.000000
    35 0.250029 -2.820664 -0.238396 -0.872208 -0.049326 -0.238818
    36 -0.049759 -1.680544 0.100479 -1.454738 0.000000 0.000000
    37 -0.034141 -1.148311 0.084779 -1.567306 0.000000 0.000000
    38 -0.488517 -2.755600 -0.228261 -1.098181 -0.096000 -0.264903
    39 0.039889 -1.479791 0.029854 -1.354100 0.000000 0.000000
    40 0.028785 -1.075733 -0.023110 -1.435200 0.000000 0.000000
    41 -1.180679 -2.507216 -0.193861 -1.163678 -0.049451 -0.281014
    42 -0.024967 -1.123934 0.017595 -0.883852 0.000000 0.000000
    43 -0.020058 -0.890965 0.010091 -1.435318 0.000000 0.000000
    44 0.120180 -0.051600 -0.063059 0.012085 -2.987703 1.512552
  time 15
    0 8.788888 3.267342 -7.790104 -1.110551 -1.299847 0.833943
    1 -0.071918 -8.498730 -0.104136 0.378602 -0.109634 -0.254227
    2 -0.549374 -3.389827 1.033063 0.764851 1.739163 0.793994
    3 0.013587 1.872281 1.004921 0.016326 -0.000097 -0.007310
    4 -0.013948 -2.818174 1.100493 -0.186528 0.000000 0.000000
    5 -0.013949 -4.784638 0.650335 0.000000 0.000000 0.000000
    6 -0.013948 -3.609847 2.626636 0.000000 0.000000 0.000000
    7 -0.642551 -1.684088 2.571740 0.000000 0.000000 0.223896
    8 -0.666019 -4.704160 1.993689 0.000000 0.251327 0.000000
    9 0.106011 18.212662 2.767869 -0.000008 0.000013 0.000020
    10 -0.089387 1.323563 4.001439 0.016991 -0.000100 -0.008081
    11 0.031739 -6.149288 -8.817487 0.503670 2.507500 0.919790
    12 0.096946 -8.450419 -0.009363 0.158175 -0.664986 0.389354
    13 -0.586769 -1.264477 0.200164 -0.671640 -0.916378 -2.346813
    14 1.522835 0.058680 0.016850 0.099739 -0.436928 0.809184
    15 1.117947 0.048424 -0.005765 0.000000 0.000000 1.088387
    16 -0.963867 -2.785143 -0.085346 -0.760154 0.213016 -0.062165
    17 0.028478 -1.403067 0.006272 -1.198053 -0.091474 0.022976
    18 0.021412 -0.957782 0.020047 -0.901427 -0.040655 -0.015084
    19 -0.249534 -2.846963 -0.174215 -0.983025 0.032262 0.141656
    20 0.043235 -1.683940 0.096015 -1.478176 0.000001 0.000000
    21 0.031729 -1.160830 0.058836 -1.461371 -0.013471 -0.001450
    22 0.447951 -2.798983 -0.200441 -0.932620 0.045984 0.140838
    23 -0.032909 -1.480207 0.004935 -1.296980 0.000000 0.000000
    24 -0.027023 -1.076921 -0.020212 -1.240364 0.000000 0.000000
    25 1.164474 -2.543939 -0.170327 -0.628102 0.011541 0.038073
    26 0.024033 -1.129040 0.017807 -1.196241 0.000000 -0.000001
    27 0.014896 -0.883992 -0.019846 -1.031490 0.000000 0.000000
    28 0.009601 -0.128692 -0.103533 0.496656 0.098214 1.447661
    29 0.583509 -1.197274 0.185379 0.377232 -0.745798 -1.043320
    30 1.535926 0.010247 0.005009 -0.290357 -0.063207 -0.837499
    31 1.100770 0.004528 -0.010675 0.000000 0.000000 -0.577704
    32 0.957766 -2.746777 -0.090301 -0.189827 0.016530 0.045802
    33 -0.033419 -1.397128 -0.011255 -0.699756 0.000000 0.000000
    34 -0.022361 -0.957433 0.018783 -0.575855 0.000000 0.000000
    35 0.250029 -2.820664 -0.238396 -0.872208 -0.049326 -0.238818
    36 -0.049759 -1.680544 0.100479 -1.454738 0.000000 0.000000
    37 -0.034141 -1.148311 0.084779 -1.567306 0.000000 0.000000
    38 -0.488517 -2.755600 -0.228261 -1.098181 -0.096000 -0.264903
    39 0.039889 -1.479791 0.029854 -1.354100 0.000000 0.000000
    40 0.028785 -1.075733 -0.023110 -1.435200 0.000000 0.000000
    41 -1.180679 -2.507216 -0.193861 -1.163678 -0.049451 -0.281014
    42 -0.024967 -1.123934 0.017595 -0.883852 0.000000 0.000000
    43 -0.020058 -0.890965 0.010091 -1.435318 0.000000 0.000000
    44 0.120180 -0.051600 -0.063059 0.012085 -2.987703 1.512552
  time 16
    0 8.792795 3.282967 -7.797916 -1.112900 -1.298047 0.837680
    1 -0.071918 -8.498730 -0.104136 0.379693 -0.109312 -0.257079
    2 -0.549374 -3.389827 1.033063 0.764851 1.739163 0.793994
    3 0.013587 1.872281 1.004921 0.016326 -0.000097 -0.007310
    4 -0.013948 -2.810362 1.100493 -0.177384 0.000000 0.000000
    5 -0.013949 -4.784638 0.650335 0.000000 0.000000 0.000000
    6 -0.013948 -3.609847 2.626636 0.000000 0.000000 0.000000
    7 -0.642551 -1.684088 2.571740 0.000000 0.000000 0.223896
    8 -0.666019 -4.704160 1.993689 0.000000 0.251327 0.000000
    9 0.106011 18.212662 2.767869 -0.000008 0.000013 0.000020
    10 -0.089387 1.323563 4.001439 0.016991 -0.000100 -0.008081
    11 0.031739 -6.184445 -8.840925 0.507008 2.510855 0.927849
    12 0.096946 -8.450419 -0.009363 0.151560 -0.662311 0.404173
    13 -0.586769 -1.264477 0.200164 -0.682913 -0.925433 -2.353306
    14 1.522835 0.058680 0.016850 0.105856 -0.444227 0.793353
    15 1.117947 0.048424 -0.005765 0.000000 0.000000 1.099055
    16 -0.963867 -2.785143 -0.085346 -0.760154 0.213016 -0.062165
    17 0.028478 -1.403067 0.006272 -1.198053 -0.091474 0.022976
    18 0.021412 -0.957782 0.020047 -0.901427 -0.040655 -0.015084
    19 -0.249534 -2.846963 -0.174215 -0.984940 0.026728 0.137701
    20 0.043235 -1.683940 0.096015 -1.478176 0.000001 0.000000
    21 0.031729 -1.160830 0.058836 -1.464063 -0.015544 -0.001654
    22 0.447951 -2.798983 -0.200441 -0.929993 0.043383 0.140011
    23 -0.032909 -1.480207 0.004935 -1.294608 -0.034887 -0.009791
    24 -0.027023 -1.076921 -0.020212 -1.240364 0.000000 0.000000
    25 1.164474 -2.543939 -0.170327 -0.628102 0.011541 0.038073
    26 0.024033 -1.129040 0.017807 -1.196241 0.000000 -0.000001
    27 0.014896 -0.883992 -0.019846 -1.031490 0.000000 0.000000
    28 0.009601 -0.128692 -0.103533 0.496656 0.098214 1.447661
    29 0.583509 -1.197274 0.185379 0.377232 -0.745798 -1.043320
    30 1.535926 0.010247 0.005009 -0.290357 -0.063207 -0.837499
    31 1.100770 0.004528 -0.010675 0.000000 0.000000 -0.577704
    32 0.957766 -2.746777 -0.090301 -0.189288 0.016530 0.045802
    33 -0.033419 -1.397128 -0.011255 -0.698503 0.000000 0.000000
    34 -0.022361 -0.957433 0.018783 -0.575062 0.000000 0.000000
    35 0.250029 -2.820664 -0.238396 -0.872208 -0.049326 -0.238818
    36 -0.049759 -1.680544 0.100479 -1.454738 0.000000 0.000000
    37 -0.034141 -1.148311 0.084779 -1.567306 0.000000 0.000000
    38 -0.488517 -2.755600 -0.228261 -1.098181 -0.096000 -0.264903
    39 0.039889 -1.479791 0.029854 -1.354100 0.000000 0.000000
    40 0.028785 -1.075733 -0.023110 -1.435200 0.000000 0.000000
    41 -1.180679 -2.507216 -0.193861 -1.163678 -0.049451 -0.281014
    42 -0.024967 -1.123934 0.017595 -0.883852 0.000000 0.000000
    43 -0.020058 -0.890965 0.010091 -1.435318 0.000000 0.000000
    44 0.120180 -0.051600 -0.063059 0.012085 -2.987703 1.512552
  time 17
    0 8.792795 3.286874 -7.801823 -1.107629 -1.299674 0.834755
    1 -0.071918 -8.498730 -0.104136 0.379794 -0.110132 -0.257401
    2 -0.549374 -3.389827 1.033063 0.764851 1.739163 0.793994
    3 0.013587 1.872281 1.004921 0.016326 -0.000097 -0.007310
    4 -0.013948 -2.802549 1.100493 -0.167101 0.000000 0.000000
    5 -0.013949 -4.784638 0.650335 0.000000 0.000000 0.000000
    6 -0.013948 -3.609847 2.626636 0.000000 0.000000 0.000000
    7 -0.642551 -1.684088 2.571740 0.000000 0.000000 0.223896
    8 -0.666019 -4.704160 1.993689 0.000000 0.251327 0.000000
    9 0.106011 18.212662 2.767869 -0.000008 0.000013 0.000020
    10 -0.089387 1.323563 4.001439 0.016991 -0.000100 -0.008081
    11 0.027832 -6.219603 -8.864363 0.503883 2.512066 0.931187
    12 0.096946 -8.450419 -0.009363 0.145382 -0.659777 0.418056
    13 -0.586769 -1.264477 0.200164 -0.691872 -0.931595 -2.359313
    14 1.522835 0.058680 0.016850 0.111814 -0.450848 0.778177
    15 1.117947 0.048424 -0.005765 0.000000 0.000000 1.109829
    16 -0.963867 -2.785143 -0.085346 -0.760154 0.213016 -0.062165
    17 0.028478 -1.403067 0.006272 -1.198053 -0.091474 0.022976
    18 0.021412 -0.957782 0.020047 -0.901427 -0.040655 -0.015084
    19 -0.249534 -2.846963 -0.174215 -0.987630 0.025571 0.136874
    20 0.043235 -1.683940 0.096015 -1.478176 0.000001 0.000000
    21 0.031729 -1.160830 0.058836 -1.468961 -0.015388 -0.001606
    22 0.447951 -2.798983 -0.200441 -0.927844 0.040663 0.139064
    23 -0.032909 -1.480207 0.004935 -1.299048 -0.066155 -0.018408
    24 -0.027023 -1.076921 -0.020212 -1.240364 0.000000 0.000000
    25 1.164474 -2.543939 -0.170327 -0.628102 0.011541 0.038073
    26 0.024033 -1.129040 0.017807 -1.196241 0.000000 -0.000001
    27 0.014896 -0.883992 -0.019846 -1.031490 0.000000 0.000000
    28 0.009601 -0.128692 -0.103533 0.496656 0.098214 1.447661
    29 0.583509 -1.197274 0.185379 0.377232 -0.745798 -1.043320
    30 1.535926 0.010247 0.005009 -0.290357 -0.063207 -0.837499
    31 1.100770 0.004528 -0.010675 0.000000 0.000000 -0.577704
    32 0.957766 -2.746777 -0.090301 -0.189216 0.016530 0.045802
    33 -0.033419 -1.397128 -0.011255 -0.699189 0.000000 0.000000
    34 -0.022361 -0.957433 0.018783 -0.574969 0.000000 0.000000
    35 0.250029 -2.820664 -0.238396 -0.872208 -0.049326 -0.238818
    36 -0.049759 -1.680544 0.100479 -1.454738 0.000000 0.000000
    37 -0.034141 -1.148311 0.084779 -1.567306 0.000000 0.000000
    38 -0.488517 -2.755600 -0.228261 -1.098181 -0.096000 -0.264903
    39 0.039889 -1.479791 0.029854 -1.354100 0.000000 0.000000
    40 0.028785 -1.075733 -0.023110 -1.435200 0.000000 0.000000
    41 -1.180679 -2.507216 -0.193861 -1.163678 -0.049451 -0.281014
    42 -0.024967 -1.123934 0.017595 -0.883852 0.000000 0.000000
    43 -0.020058 -0.890965 0.010091 -1.435318 0.000000 0.000000
    44 0.120180 -0.051600 -0.063059 0.012085 -2.987703 1.512552
  time 18
    0 8.761544 3.306405 -7.692444 -1.097716 -1.303446 0.827687
    1 -0.071918 -8.498730 -0.104136 0.378622 -0.112432 -0.254533
    2 -0.549374 -3.389827 1.033063 0.764851 1.739163 0.793994
    3 0.013587 1.872281 1.004921 0.016326 -0.000097 -0.007310
    4 -0.013948 -2.794736 1.100493 -0.155812 0.000000 0.000000
    5 -0.013949 -4.784638 0.650335 0.000000 0.000000 0.000000
    6 -0.013948 -3.609847 2.626636 0.000000 0.000000 0.000000
    7 -0.642551 -1.684088 2.571740 0.000000 0.000000 0.223896
    8 -0.666019 -4.704160 1.993689 0.000000 0.251327 0.000000
    9 0.106011 18.212662 2.767869 -0.000008 0.000013 0.000020
    10 -0.089387 1.323563 4.001439 0.016991 -0.000100 -0.008081
    11 0.027832 -6.254760 -8.883895 0.514539 2.516073 0.939978
    12 0.096946 -8.450419 -0.009363 0.140077 -0.657631 0.430206
    13 -0.586769 -1.264477 0.200164 -0.698135 -0.934060 -2.364476
    14 1.522835 0.058680 0.016850 0.117533 -0.456533 0.763914
    15 1.117947 0.048424 -0.005765 0.000000 0.000000 1.120631
    16 -0.963867 -2.785143 -0.085346 -0.760154 0.213016 -0.062165
    17 0.028478 -1.403067 0.006272 -1.198053 -0.091474 0.022976
    18 0.021412 -0.957782 0.020047 -0.901427 -0.040655 -0.015084
    19 -0.249534 -2.846963 -0.174215 -0.987584 0.026728 0.137701
    20 0.043235 -1.683940 0.096015 -1.478176 0.000001 0.000000
    21 0.031729 -1.160830 0.058836 -1.474420 -0.014969 -0.001522
    22 0.447951 -2.798983 -0.200441 -0.926077 0.037834 0.138034
    23 -0.032909 -1.480207 0.004935 -1.304548 -0.065448 -0.018025
    24 -0.027023 -1.076921 -0.020212 -1.240364 0.000000 0.000000
    25 1.164474 -2.543939 -0.170327 -0.628102 0.011541 0.038073
    26 0.024033 -1.129040 0.017807 -1.196241 0.000000 -0.000001
    27 0.014896 -0.883992 -0.019846 -1.031490 0.000000 0.000000
    28 0.009601 -0.128692 -0.103533 0.496656 0.098214 1.447661
    29 0.583509 -1.197274 0.185379 0.377232 -0.745798 -1.043320
    30 1.535926 0.010247 0.005009 -0.290357 -0.063207 -0.837499
    31 1.100770 0.004528 -0.010675 0.000000 0.000000 -0.577704
    32 0.957766 -2.746777 -0.090301 -0.189540 0.016530 0.045802
    33 -0.033419 -1.397128 -0.011255 -0.701517 0.000000 0.000000
    34 -0.022361 -0.957433 0.018783 -0.575435 0.000000 0.000000
    35 0.250029 -2.820664 -0.238396 -0.872208 -0.049326 -0.238818
    36 -0.049759 -1.680544 0.100479 -1.454738 0.000000 0.000000
    37 -0.034141 -1.148311 0.084779 -1.567306 0.000000 0.000000
    38 -0.488517 -2.755600 -0.228261 -1.098181 -0.096000 -0.264903
    39 0.039889 -1.479791 0.029854 -1.354100 0.000000 0.000000
    40 0.028785 -1.075733 -0.023110 -1.435200 0.000000 0.000000
    41 -1.180679 -2.507216 -0.193861 -1.163678 -0.049451 -0.281014
    42 -0.024967 -1.123934 0.017595 -0.883852 0.000000 0.000000
    43 -0.020058 -0.890965 0.010091 -1.435318 0.000000 0.000000
    44 0.120180 -0.051600 -0.063059 0.012085 -2.987703 1.512552
  time 19
    0 8.734199 3.325937 -7.594785 -1.087287 -1.307426 0.819725
    1 -0.071918 -8.498730 -0.104136 0.376703 -0.115406 -0.249746
    2 -0.549374 -3.389827 1.033063 0.764851 1.739163 0.793994
    3 0.013587 1.872281 1.004921 0.016326 -0.000097 -0.007310
    4 -0.013948 -2.786923 1.100493 -0.143695 0.000000 0.000000
    5 -0.013949 -4.784638 0.650335 0.000000 0.000000 0.000000
    6 -0.013948 -3.609847 2.626636 0.000000 0.000000 0.000000
    7 -0.642551 -1.684088 2.571740 0.000000 0.000000 0.223896
    8 -0.666019 -4.704160 1.993689 0.000000 0.251327 0.000000
    9 0.106011 18.212662 2.767869 -0.000008 0.000013 0.000020
    10 -0.089387 1.323563 4.001439 0.016991 -0.000100 -0.008081
    11 0.023926 -6.282104 -8.895614 0.525053 2.519801 0.947630
    12 0.096946 -8.450419 -0.009363 0.136014 -0.656152 0.439804
    13 -0.586769 -1.264477 0.200164 -0.701702 -0.933156 -2.369249
    14 1.522835 0.058680 0.016850 0.122855 -0.461027 0.750821
    15 1.117947 0.048424 -0.005765 0.000000 0.000000 1.131539
    16 -0.963867 -2.785143 -0.085346 -0.760154 0.213016 -0.062165
    17 0.028478 -1.403067 0.006272 -1.198053 -0.091474 0.022976
    18 0.021412 -0.957782 0.020047 -0.901427 -0.040655 -0.015084
    19 -0.249534 -2.846963 -0.174215 -0.983846 0.026728 0.137701
    20 0.043235 -1.683940 0.096015 -1.478176 0.000001 0.000000
    21 0.031729 -1.160830 0.058836 -1.480365 -0.014286 -0.001402
    22 0.447951 -2.798983 -0.200441 -0.924692 0.034922 0.136895
    23 -0.032909 -1.480207 0.004935 -1.310300 -0.063363 -0.017258
    24 -0.027023 -1.076921 -0.020212 -1.240364 0.000000 0.000000
    25 1.164474 -2.543939 -0.170327 -0.628102 0.011541 0.038073
    26 0.024033 -1.129040 0.017807 -1.196241 0.000000 -0.000001
    27 0.014896 -0.883992 -0.019846 -1.031490 0.000000 0.000000
    28 0.009601 -0.128692 -0.103533 0.496656 0.098214 1.447661
    29 0.583509 -1.197274 0.185379 0.377232 -0.745798 -1.043320
    30 1.535926 0.010247 0.005009 -0.290357 -0.063207 -0.837499
    31 1.100770 0.004528 -0.010675 0.000000 0.000000 -0.577704
    32 0.957766 -2.746777 -0.090301 -0.190211 0.016530 0.045802
    33 -0.033419 -1.397128 -0.011255 -0.705247 0.000000 0.000000
    34 -0.022361 -0.957433 0.018783 -0.576438 0.000000 0.000000
    35 0.250029 -2.820664 -0.238396 -0.872208 -0.049326 -0.238818
    36 -0.049759 -1.680544 0.100479 -1.454738 0.000000 0.000000
    37 -0.034141 -1.148311 0.084779 -1.567306 0.000000 0.000000
    38 -0.488517 -2.755600 -0.228261 -1.098181 -0.096000 -0.264903
    39 0.039889 -1.479791 0.029854 -1.354100 0.000000 0.000000
    40 0.028785 -1.075733 -0.023110 -1.435200 0.000000 0.000000
    41 -1.180679 -2.507216 -0.193861 -1.163678 -0.049451 -0.281014
    42 -0.024967 -1.123934 0.017595 -0.883852 0.000000 0.000000
    43 -0.020058 -0.890965 0.010091 -1.435318 0.000000 0.000000
    44 0.120180 -0.051600 -0.063059 0.012085 -2.987703 1.512552
  time 20
    0 8.710761 3.345469 -7.504939 -1.075998 -1.311752 0.810707
    1 -0.071918 -8.498730 -0.104136 0.374843 -0.118087 -0.244671
    2 -0.549374 -3.389827 1.033063 0.764851 1.739163 0.793994
    3 0.013587 1.872281 1.004921 0.016326 -0.000097 -0.007310
    4 -0.013948 -2.779111 1.100493 -0.130896 0.000000 0.000000
    5 -0.013949 -4.784638 0.650335 0.000000 0.000000 0.000000
    6 -0.013948 -3.609847 2.626636 0.000000 0.000000 0.000000
    7 -0.642551 -1.684088 2.571740 0.000000 0.000000 0.223896
    8 -0.666019 -4.704160 1.993689 0.000000 0.251327 0.000000
    9 0.106011 18.212662 2.767869 -0.000008 0.000013 0.000020
    10 -0.089387 1.323563 4.001439 0.016991 -0.000100 -0.008081
    11 0.023926 -6.297730 -8.907333 0.533009 2.522410 0.953003
    12 0.096946 -8.450419 -0.009363 0.133664 -0.655660 0.446055
    13 -0.586769 -1.264477 0.200164 -0.703064 -0.929919 -2.374314
    14 1.522835 0.058680 0.016850 0.126536 -0.463938 0.741864
    15 1.117947 0.048424 -0.005765 0.000000 0.000000 1.142447
    16 -0.963867 -2.785143 -0.085346 -0.760154 0.213016 -0.062165
    17 0.028478 -1.403067 0.006272 -1.198053 -0.091474 0.022976
    18 0.021412 -0.957782 0.020047 -0.901427 -0.040655 -0.015084
    19 -0.249534 -2.846963 -0.174215 -0.979834 0.026728 0.137701
    20 0.043235 -1.683940 0.096015 -1.478176 0.000001 0.000000
    21 0.031729 -1.160830 0.058836 -1.486759 -0.013387 -0.001270
    22 0.447951 -2.798983 -0.200441 -0.923594 0.031926 0.135697
    23 -0.032909 -1.480207 0.004935 -1.316153 -0.060067 -0.016167
    24 -0.027023 -1.076921 -0.020212 -1.240364 0.000000 0.000000
    25 1.164474 -2.543939 -0.170327 -0.628102 0.011541 0.038073
    26 0.024033 -1.129040 0.017807 -1.196241 0.000000 -0.000001
    27 0.014896 -0.883992 -0.019846 -1.031490 0.000000 0.000000
    28 0.009601 -0.128692 -0.103533 0.496656 0.098214 1.447661
    29 0.583509 -1.197274 0.185379 0.377232 -0.745798 -1.043320
    30 1.535926 0.010247 0.005009 -0.290357 -0.063207 -0.837499
    31 1.100770 0.004528 -0.010675 0.000000 0.000000 -0.577704
    32 0.957766 -2.746777 -0.090301 -0.191146 0.016530 0.045802
    33 -0.033419 -1.397128 -0.011255 -0.710110 0.000000 0.000000
    34 -0.022361 -0.957433 0.018783 -0.577814 0.000000 0.000000
    35 0.250029 -2.820664 -0.238396 -0.872208 -0.049326 -0.238818
    36 -0.049759 -1.680544 0.100479 -1.454738 0.000000 0.000000
    37 -0.034141 -1.148311 0.084779 -1.567306 0.000000 0.000000
    38 -0.488517 -2.755600 -0.228261 -1.098181 -0.096000 -0.264903
    39 0.039889 -1.479791 0.029854 -1.354100 0.000000 0.000000
    40 0.028785 -1.075733 -0.023110 -1.435200 0.000000 0.000000
    41 -1.180679 -2.507216 -0.193861 -1.163678 -0.049451 -0.281014
    42 -0.024967 -1.123934 0.017595 -0.883852 0.000000 0.000000
    43 -0.020058 -0.890965 0.010091 -1.435318 0.000000 0.000000
    44 0.120180 -0.051600 -0.063059 0.012085 -2.987703 1.512552
  time 21
    0 8.687323 3.361095 -7.426811 -1.063506 -1.316459 0.800308
    1 -0.071918 -8.498730 -0.104136 0.372964 -0.120592 -0.239239
    2 -0.549374 -3.389827 1.033063 0.764851 1.739163 0.793994
    3 0.013587 1.872281 1.004921 0.016326 -0.000097 -0.007310
    4 -0.013948 -2.767391 1.100493 -0.117569 0.000000 0.000000
    5 -0.013949 -4.784638 0.650335 0.000000 0.000000 0.000000
    6 -0.013948 -3.609847 2.626636 0.000000 0.000000 0.000000
    7 -0.642551 -1.684088 2.571740 0.000000 0.000000 0.223896
    8 -0.666019 -4.704160 1.993689 0.000000 0.251327 0.000000
    9 0.106011 18.212662 2.767869 -0.000008 0.000013 0.000020
    10 -0.089387 1.323563 4.001439 0.016991 -0.000100 -0.008081
    11 0.023926 -6.305543 -8.911239 0.537982 2.523901 0.955771
    12 0.096946 -8.450419 -0.009363 0.133395 -0.656469 0.448185
    13 -0.586769 -1.264477 0.200164 -0.702573 -0.924677 -2.379639
    14 1.522835 0.058680 0.016850 0.128230 -0.465039 0.737814
    15 1.117947 0.048424 -0.005765 0.000000 0.000000 1.153408
    16 -0.963867 -2.785143 -0.085346 -0.760154 0.213016 -0.062165
    17 0.028478 -1.403067 0.006272 -1.198053 -0.091474 0.022976
    18 0.021412 -0.957782 0.020047 -0.901427 -0.040655 -0.015084
    19 -0.249534 -2.846963 -0.174215 -0.975640 0.026728 0.137701
    20 0.043235 -1.683940 0.096015 -1.478176 0.000001 0.000000
    21 0.031729 -1.160830 0.058836 -1.493563 -0.012308 -0.001127
    22 0.447951 -2.798983 -0.200441 -0.922734 0.028858 0.134438
    23 -0.032909 -1.480207 0.004935 -1.322158 -0.055740 -0.014813
    24 -0.027023 -1.076921 -0.020212 -1.240364 0.000000 0.000000
    25 1.164474 -2.543939 -0.170327 -0.628102 0.011541 0.038073
    26 0.024033 -1.129040 0.017807 -1.196241 0.000000 -0.000001
    27 0.014896 -0.883992 -0.019846 -1.031490 0.000000 0.000000
    28 0.009601 -0.128692 -0.103533 0.496656 0.098214 1.447661
    29 0.583509 -1.197274 0.185379 0.377232 -0.745798 -1.043320
    30 1.535926 0.010247 0.005009 -0.290357 -0.063207 -0.837499
    31 1.100770 0.004528 -0.010675 0.000000 0.000000 -0.577704
    32 0.957766 -2.746777 -0.090301 -0.192296 0.016530 0.045802
    33 -0.033419 -1.397128 -0.011255 -0.715870 0.000000 0.000000
    34 -0.022361 -0.957433 0.018783 -0.579516 0.000000 0.000000
    35 0.250029 -2.820664 -0.238396 -0.872208 -0.049326 -0.238818
    36 -0.049759 -1.680544 0.100479 -1.454738 0.000000 0.000000
    37 -0.034141 -1.148311 0.084779 -1.567306 0.000000 0.000000
    38 -0.488517 -2.755600 -0.228261 -1.098181 -0.096000 -0.264903
    39 0.039889 -1.479791 0.029854 -1.354100 0.000000 0.000000
    40 0.028785 -1.075733 -0.023110 -1.435200 0.000000 0.000000
    41 -1.180679 -2.507216 -0.193861 -1.163678 -0.049451 -0.281014
    42 -0.024967 -1.123934 0.017595 -0.883852 0.000000 0.000000
    43 -0.020058 -0.890965 0.010091 -1.435318 0.000000 0.000000
    44 0.120180 -0.051600 -0.063059 0.012085 -2.987703 1.512552
  time 22
    0 8.667791 3.372814 -7.352590 -1.049410 -1.321650 0.788366
    1 -0.071918 -8.498730 -0.104136 0.371024 -0.122966 -0.233366
    2 -0.549374 -3.389827 1.033063 0.764851 1.739163 0.793994
    3 0.013587 1.872281 1.004921 0.016326 -0.000097 -0.007310
    4 -0.013948 -2.759579 1.100493 -0.103870 0.000000 0.000000
    5 -0.013949 -4.784638 0.650335 0.000000 0.000000 0.000000
    6 -0.013948 -3.609847 2.626636 0.000000 0.000000 0.000000
    7 -0.642551 -1.684088 2.571740 0.000000 0.000000 0.223896
    8 -0.666019 -4.704160 1.993689 0.000000 0.251327 0.000000
    9 0.106011 18.212662 2.767869 -0.000008 0.000013 0.000020
    10 -0.089387 1.323563 4.001439 0.016991 -0.000100 -0.008081
    11 0.023926 -6.301636 -8.907333 0.539829 2.523994 0.955771
    12 0.096946 -8.450419 -0.009363 0.135611 -0.658792 0.445142
    13 -0.586769 -1.264477 0.200164 -0.700586 -0.917775 -2.385126
    14 1.522835 0.058680 0.016850 0.129210 -0.464179 0.735532
    15 1.117947 0.048424 -0.005765 0.000000 0.000000 1.164396
    16 -0.963867 -2.785143 -0.085346 -0.760154 0.213016 -0.062165
    17 0.028478 -1.403067 0.006272 -1.198053 -0.091474 0.022976
    18 0.021412 -0.957782 0.020047 -0.901427 -0.040655 -0.015084
    19 -0.249534 -2.846963 -0.174215 -0.971309 0.026715 0.137689
    20 0.043235 -1.683940 0.096015 -1.478176 0.000001 0.000000
    21 0.031729 -1.160830 0.058836 -1.500630 -0.011074 -0.000971
    22 0.447951 -2.798983 -0.200441 -0.922113 0.025766 0.133120
    23 -0.032909 -1.480207 0.004935 -1.328263 -0.050551 -0.013279
    24 -0.027023 -1.076921 -0.020212 -1.240364 0.000000 0.000000
    25 1.164474 -2.543939 -0.170327 -0.628102 0.011541 0.038073
    26 0.024033 -1.129040 0.017807 -1.196241 0.000000 -0.000001
    27 0.014896 -0.883992 -0.019846 -1.031490 0.000000 0.000000
    28 0.009601 -0.128692 -0.103533 0.496656 0.098214 1.447661
    29 0.583509 -1.197274 0.185379 0.377232 -0.745798 -1.043320
    30 1.535926 0.010247 0.005009 -0.290357 -0.063207 -0.837499
    31 1.100770 0.004528 -0.010675 0.000000 0.000000 -0.577704
    32 0.957766 -2.746777 -0.090301 -0.193602 0.016530 0.045802
    33 -0.033419 -1.397128 -0.011255 -0.722226 0.000000 0.000000
    34 -0.022361 -0.957433 0.018783 -0.581428 0.000000 0.000000
    35 0.250029 -2.820664 -0.238396 -0.872208 -0.049326 -0.238818
    36 -0.049759 -1.680544 0.100479 -1.454738 0.000000 0.000000
    37 -0.034141 -1.148311 0.084779 -1.567306 0.000000 0.000000
    38 -0.488517 -2.755600 -0.228261 -1.098181 -0.096000 -0.264903
    39 0.039889 -1.479791 0.029854 -1.354100 0.000000 0.000000
    40 0.028785 -1.075733 -0.023110 -1.435200 0.000000 0.000000
    41 -1.180679 -2.507216 -0.193861 -1.163678 -0.049451 -0.281014
    42 -0.024967 -1.123934 0.017595 -0.883852 0.000000 0.000000
    43 -0.020058 -0.890965 0.010091 -1.435318 0.000000 0.000000
    44 0.120180 -0.051600 -0.063059 0.012085 -2.987703 1.512552
  time 23
    0 8.652166 3.388439 -7.290088 -1.033308 -1.327326 0.774392
    1 -0.071918 -8.498730 -0.104136 0.368963 -0.125325 -0.226983
    2 -0.549374 -3.389827 1.033063 0.764851 1.739163 0.793994
    3 0.013587 1.872281 1.004921 0.016326 -0.000097 -0.007310
    4 -0.013948 -2.751766 1.100493 -0.089968 0.000000 0.000000
    5 -0.013949 -4.784638 0.650335 0.000000 0.000000 0.000000
    6 -0.013948 -3.609847 2.626636 0.000000 0.000000 0.000000
    7 -0.642551 -1.684088 2.571740 0.000000 0.000000 0.223896
    8 -0.666019 -4.704160 1.993689 0.000000 0.251327 0.000000
    9 0.106011 18.212662 2.767869 -0.000008 0.000013 0.000020
    10 -0.089387 1.323563 4.001439 0.016991 -0.000100 -0.008081
    11 0.027832 -6.286011 -8.895614 0.538337 2.522876 0.953247
    12 0.096946 -8.450419 -0.009363 0.140279 -0.662487 0.437042
    13 -0.586769 -1.264477 0.200164 -0.697481 -0.909510 -2.390710
    14 1.522835 0.058680 0.016850 0.130799 -0.461239 0.731966
    15 1.117947 0.048424 -0.005765 0.000000 0.000000 1.175411
    16 -0.963867 -2.785143 -0.085346 -0.760154 0.213016 -0.062165
    17 0.028478 -1.403067 0.006272 -1.198053 -0.091474 0.022976
    18 0.021412 -0.957782 0.020047 -0.901427 -0.040655 -0.015084
    19 -0.249534 -2.846963 -0.174215 -0.966795 0.026715 0.137689
    20 0.043235 -1.683940 0.096015 -1.478176 0.000001 0.000000
    21 0.031729 -1.160830 0.058836 -1.507921 -0.009731 -0.000827
    22 0.447951 -2.798983 -0.200441 -0.921588 0.022614 0.131778
    23 -0.032909 -1.480207 0.004935 -1.334470 -0.044691 -0.011589
    24 -0.027023 -1.076921 -0.020212 -1.240364 0.000000 0.000000
    25 1.164474 -2.543939 -0.170327 -0.628102 0.011541 0.038073
    26 0.024033 -1.129040 0.017807 -1.196241 0.000000 -0.000001
    27 0.014896 -0.883992 -0.019846 -1.031490 0.000000 0.000000
    28 0.009601 -0.128692 -0.103533 0.496656 0.098214 1.447661
    29 0.583509 -1.197274 0.185379 0.377232 -0.745798 -1.043320
    30 1.535926 0.010247 0.005009 -0.290357 -0.063207 -0.837499
    31 1.100770 0.004528 -0.010675 0.000000 0.000000 -0.577704
    32 0.957766 -2.746777 -0.090301 -0.194981 0.016530 0.045802
    33 -0.033419 -1.397128 -0.011255 -0.728910 0.000000 0.000000
    34 -0.022361 -0.957433 0.018783 -0.583480 0.000000 0.000000
    35 0.250029 -2.820664 -0.238396 -0.872208 -0.049326 -0.238818
    36 -0.049759 -1.680544 0.100479 -1.454738 0.000000 0.000000
    37 -0.034141 -1.148311 0.084779 -1.567306 0.000000 0.000000
    38 -0.488517 -2.755600 -0.228261 -1.098181 -0.096000 -0.264903
    39 0.039889 -1.479791 0.029854 -1.354100 0.000000 0.000000
    40 0.028785 -1.075733 -0.023110 -1.435200 0.000000 0.000000
    41 -1.180679 -2.507216 -0.193861 -1.163678 -0.049451 -0.281014
    42 -0.024967 -1.123934 0.017595 -0.883852 0.000000 0.000000
    43 -0.020058 -0.890965 0.010091 -1.435318 0.000000 0.000000
    44 0.120180 -0.051600 -0.063059 0.012085 -2.987703 1.512552
  time 24
    0 8.636540 3.396252 -7.235399 -1.014685 -1.333591 0.757981
    1 -0.071918 -8.498730 -0.104136 0.366780 -0.127727 -0.220007
    2 -0.549374 -3.389827 1.033063 0.764851 1.739163 0.793994
    3 0.013587 1.872281 1.004921 0.016326 -0.000097 -0.007310
    4 -0.013948 -2.743953 1.100493 -0.076018 0.000000 0.000000
    5 -0.013949 -4.784638 0.650335 0.000000 0.000000 0.000000
    6 -0.013948 -3.609847 2.626636 0.000000 0.000000 0.000000
    7 -0.642551 -1.684088 2.571740 0.000000 0.000000 0.223896
    8 -0.666019 -4.704160 1.993689 0.000000 0.251327 0.000000
    9 0.106011 18.212662 2.767869 -0.000008 0.000013 0.000020
    10 -0.089387 1.323563 4.001439 0.016991 -0.000100 -0.008081
    11 0.027832 -6.258666 -8.879988 0.533506 2.520453 0.948200
    12 0.096946 -8.450419 -0.009363 0.146893 -0.667203 0.424868
    13 -0.586769 -1.264477 0.200164 -0.693560 -0.900242 -2.396263
    14 1.522835 0.058680 0.016850 0.134214 -0.456036 0.724008
    15 1.117947 0.048424 -0.005765 0.000000 0.000000 1.186399
    16 -0.963867 -2.785143 -0.085346 -0.760154 0.213016 -0.062165
    17 0.028478 -1.403067 0.006272 -1.198053 -0.091474 0.022976
    18 0.021412 -0.957782 0.020047 -0.901427 -0.040655 -0.015084
    19 -0.249534 -2.846963 -0.174215 -0.962191 0.026715 0.137689
    20 0.043235 -1.683940 0.096015 -1.478176 0.000001 0.000000
    21 0.031729 -1.160830 0.058836 -1.515399 -0.008317 -0.000671
    22 0.447951 -2.798983 -0.200441 -0.921206 0.019426 0.130412
    23 -0.032909 -1.480207 0.004935 -1.340726 -0.038339 -0.009815
    24 -0.027023 -1.076921 -0.020212 -1.240364 0.000000 0.000000
    25 1.164474 -2.543939 -0.170327 -0.628102 0.011541 0.038073
    26 0.024033 -1.129040 0.017807 -1.196241 0.000000 -0.000001
    27 0.014896 -0.883992 -0.019846 -1.031490 0.000000 0.000000
    28 0.009601 -0.128692 -0.103533 0.496656 0.098214 1.447661
    29 0.583509 -1.197274 0.185379 0.377232 -0.745798 -1.043320
    30 1.535926 0.010247 0.005009 -0.290357 -0.063207 -0.837499
    31 1.100770 0.004528 -0.010675 0.000000 0.000000 -0.577704
    32 0.957766 -2.746777 -0.090301 -0.196395 0.016530 0.045802
    33 -0.033419 -1.397128 -0.011255 -0.735713 0.000000 0.000000
    34 -0.022361 -0.957433 0.018783 -0.585555 0.000000 0.000000
    35 0.250029 -2.820664 -0.238396 -0.872208 -0.049326 -0.238818
    36 -0.049759 -1.680544 0.100479 -1.454738 0.000000 0.000000
    37 -0.034141 -1.148311 0.084779 -1.567306 0.000000 0.000000
    38 -0.488517 -2.755600 -0.228261 -1.098181 -0.096000 -0.264903
    39 0.039889 -1.479791 0.029854 -1.354100 0.000000 0.000000
    40 0.028785 -1.075733 -0.023110 -1.435200 0.000000 0.000000
    41 -1.180679 -2.507216 -0.193861 -1.163678 -0.049451 -0.281014
    42 -0.024967 -1.123934 0.017595 -0.883852 0.000000 0.000000
    43 -0.020058 -0.890965 0.010091 -1.435318 0.000000 0.000000
    44 0.120180 -0.051600 -0.063059 0.012085 -2.987703 1.512552
  time 25
    0 8.620915 3.407971 -7.188523 -0.992853 -1.340443 0.738646
    1 -0.071918 -8.498730 -0.104136 0.364375 -0.130262 -0.212334
    2 -0.549374 -3.389827 1.033063 0.764851 1.739163 0.793994
    3 0.013587 1.872281 1.004921 0.016326 -0.000097 -0.007310
    4 -0.013948 -2.736140 1.100493 -0.062176 0.000000 0.000000
    5 -0.013949 -4.784638 0.650335 0.000000 0.000000 0.000000
    6 -0.013948 -3.609847 2.626636 0.000000 0.000000 0.000000
    7 -0.642551 -1.684088 2.571740 0.000000 0.000000 0.223896
    8 -0.666019 -4.704160 1.993689 0.000000 0.251327 0.000000
    9 0.106011 18.212662 2.767869 -0.000008 0.000013 0.000020
    10 -0.089387 1.323563 4.001439 0.016991 -0.000100 -0.008081
    11 0.031739 -6.227415 -8.856550 0.525195 2.516912 0.940711
    12 0.096946 -8.450419 -0.009363 0.155086 -0.672693 0.409557
    13 -0.586769 -1.264477 0.200164 -0.689203 -0.890267 -2.401717
    14 1.522835 0.058680 0.016850 0.139510 -0.448254 0.711371
    15 1.117947 0.048424 -0.005765 0.000000 0.000000 1.197360
    16 -0.963867 -2.785143 -0.085346 -0.760154 0.213016 -0.062165
    17 0.028478 -1.403067 0.006272 -1.198053 -0.091474 0.022976
    18 0.021412 -0.957782 0.020047 -0.901427 -0.040655 -0.015084
    19 -0.249534 -2.846963 -0.174215 -0.957495 0.026715 0.137689
    20 0.043235 -1.683940 0.096015 -1.478176 0.000001 0.000000
    21 0.031729 -1.160830 0.058836 -1.522952 -0.006843 -0.000527
    22 0.447951 -2.798983 -0.200441 -0.920871 0.016238 0.129021
    23 -0.032909 -1.480207 0.004935 -1.346983 -0.031675 -0.007994
    24 -0.027023 -1.076921 -0.020212 -1.240364 0.000000 0.000000
    25 1.164474 -2.543939 -0.170327 -0.628102 0.011541 0.038073
    26 0.024033 -1.129040 0.017807 -1.196241 0.000000 -0.000001
    27 0.014896 -0.883992 -0.019846 -1.031490 0.000000 0.000000
    28 0.009601 -0.128692 -0.103533 0.496656 0.098214 1.447661
    29 0.583509 -1.197274 0.185379 0.377232 -0.745798 -1.043320
    30 1.535926 0.010247 0.005009 -0.290357 -0.063207 -0.837499
    31 1.100770 0.004528 -0.010675 0.000000 0.000000 -0.577704
    32 0.957766 -2.746777 -0.090301 -0.197761 0.016530 0.045802
    33 -0.033419 -1.397128 -0.011255 -0.742308 0.000000 0.000000
    34 -0.022361 -0.957433 0.018783 -0.587560 0.000000 0.000000
    35 0.250029 -2.820664 -0.238396 -0.872208 -0.049326 -0.238818
    36 -0.049759 -1.680544 0.100479 -1.454738 0.000000 0.000000
    37 -0.034141 -1.148311 0.084779 -1.567306 0.000000 0.000000
    38 -0.488517 -2.755600 -0.228261 -1.098181 -0.096000 -0.264903
    39 0.039889 -1.479791 0.029854 -1.354100 0.000000 0.000000
    40 0.028785 -1.075733 -0.023110 -1.435200 0.000000 0.000000
    41 -1.180679 -2.507216 -0.193861 -1.163678 -0.049451 -0.281014
    42 -0.024967 -1.123934 0.017595 -0.883852 0.000000 0.000000
    43 -0.020058 -0.890965 0.010091 -1.435318 0.000000 0.000000
    44 0.120180 -0.051600 -0.063059 0.012085 -2.987703 1.512552
  time 26
    0 8.613102 3.415784 -7.149459 -0.967068 -1.347988 0.715654
    1 -0.071918 -8.498730 -0.104136 0.361728 -0.133001 -0.203915
    2 -0.549374 -3.389827 1.033063 0.764851 1.739163 0.793994
    3 0.013587 1.872281 1.004921 0.016326 -0.000097 -0.007310
    4 -0.013948 -2.732234 1.100493 -0.048586 0.000000 0.000000
    5 -0.013949 -4.784638 0.650335 0.000000 0.000000 0.000000
    6 -0.013948 -3.609847 2.626636 0.000000 0.000000 0.000000
    7 -0.642551 -1.684088 2.571740 0.000000 0.000000 0.223896
    8 -0.666019 -4.704160 1.993689 0.000000 0.251327 0.000000
    9 0.106011 18.212662 2.767869 -0.000008 0.000013 0.000020
    10 -0.089387 1.323563 4.001439 0.016991 -0.000100 -0.008081
    11 0.035645 -6.188352 -8.829206 0.513189 2.512253 0.930780
    12 0.096946 -8.450419 -0.009363 0.164420 -0.678570 0.392046
    13 -0.586769 -1.264477 0.200164 -0.684683 -0.879948 -2.407107
    14 1.522835 0.058680 0.016850 0.145679 -0.438150 0.696481
    15 1.117947 0.048424 -0.005765 0.000000 0.000000 1.208295
    16 -0.963867 -2.785143 -0.085346 -0.760154 0.213016 -0.062165
    17 0.028478 -1.403067 0.006272 -1.198053 -0.091474 0.022976
    18 0.021412 -0.957782 0.020047 -0.901427 -0.040655 -0.015084
    19 -0.249534 -2.846963 -0.174215 -0.952799 0.026715 0.137689
    20 0.043235 -1.683940 0.096015 -1.478176 0.000001 0.000000
    21 0.031729 -1.160830 0.058836 -1.530542 -0.005357 -0.000384
    22 0.447951 -2.798983 -0.200441 -0.920489 0.013050 0.127643
    23 -0.032909 -1.480207 0.004935 -1.353290 -0.024868 -0.006196
    24 -0.027023 -1.076921 -0.020212 -1.240364 0.000000 0.000000
    25 1.164474 -2.543939 -0.170327 -0.628102 0.011541 0.038073
    26 0.024033 -1.129040 0.017807 -1.196241 0.000000 -0.000001
    27 0.014896 -0.883992 -0.019846 -1.031490 0.000000 0.000000
    28 0.009601 -0.128692 -0.103533 0.496656 0.098214 1.447661
    29 0.583509 -1.197274 0.185379 0.377232 -0.745798 -1.043320
    30 1.535926 0.010247 0.005009 -0.290357 -0.063207 -0.837499
    31 1.100770 0.004528 -0.010675 0.000000 0.000000 -0.577704
    32 0.957766 -2.746777 -0.090301 -0.199019 0.016530 0.045802
    33 -0.033419 -1.397128 -0.011255 -0.748485 0.000000 0.000000
    34 -0.022361 -0.957433 0.018783 -0.589426 0.000000 0.000000
    35 0.250029 -2.820664 -0.238396 -0.872208 -0.049326 -0.238818
    36 -0.049759 -1.680544 0.100479 -1.454738 0.000000 0.000000
    37 -0.034141 -1.148311 0.084779 -1.567306 0.000000 0.000000
    38 -0.488517 -2.755600 -0.228261 -1.098181 -0.096000 -0.264903
    39 0.039889 -1.479791 0.029854 -1.354100 0.000000 0.000000
    40 0.028785 -1.075733 -0.023110 -1.435200 0.000000 0.000000
    41 -1.180679 -2.507216 -0.193861 -1.163678 -0.049451 -0.281014
    42 -0.024967 -1.123934 0.017595 -0.883852 0.000000 0.000000
    43 -0.020058 -0.890965 0.010091 -1.435318 0.000000 0.000000
    44 0.120180 -0.051600 -0.063059 0.012085 -2.987703 1.512552
  time 27
    0 8.605289 3.419690 -7.118208 -0.936354 -1.356225 0.688113
    1 -0.071918 -8.498730 -0.104136 0.358777 -0.136034 -0.194647
    2 -0.549374 -3.389827 1.033063 0.764851 1.739163 0.793994
    3 0.013587 1.872281 1.004921 0.016326 -0.000097 -0.007310
    4 -0.013948 -2.724421 1.100493 -0.035414 0.000000 0.000000
    5 -0.013949 -4.784638 0.650335 0.000000 0.000000 0.000000
    6 -0.013948 -3.609847 2.626636 0.000000 0.000000 0.000000
    7 -0.642551 -1.684088 2.571740 0.000000 0.000000 0.223896
    8 -0.666019 -4.704160 1.993689 0.000000 0.251327 0.000000
    9 0.106011 18.212662 2.767869 -0.000008 0.000013 0.000020
    10 -0.089387 1.323563 4.001439 0.016991 -0.000100 -0.008081
    11 0.039551 -6.141475 -8.797955 0.497489 2.506754 0.918487
    12 0.096946 -8.450419 -0.009363 0.174459 -0.684588 0.373388
    13 -0.586769 -1.264477 0.200164 -0.680299 -0.869612 -2.412335
    14 1.522835 0.058680 0.016850 0.152272 -0.426447 0.680136
    15 1.117947 0.048424 -0.005765 0.000000 0.000000 1.219203
    16 -0.963867 -2.785143 -0.085346 -0.760154 0.213016 -0.062165
    17 0.028478 -1.403067 0.006272 -1.198053 -0.091474 0.022976
    18 0.021412 -0.957782 0.020047 -0.901427 -0.040655 -0.015084
    19 -0.249534 -2.846963 -0.174215 -0.948103 0.026702 0.137689
    20 0.043235 -1.683940 0.096015 -1.478176 0.000001 0.000000
    21 0.031729 -1.160830 0.058836 -1.538057 -0.003907 -0.000264
    22 0.447951 -2.798983 -0.200441 -0.920107 0.009874 0.126265
    23 -0.032909 -1.480207 0.004935 -1.359547 -0.018121 -0.004458
    24 -0.027023 -1.076921 -0.020212 -1.240364 0.000000 0.000000
    25 1.164474 -2.543939 -0.170327 -0.628102 0.011541 0.038073
    26 0.024033 -1.129040 0.017807 -1.196241 0.000000 -0.000001
    27 0.014896 -0.883992 -0.019846 -1.031490 0.000000 0.000000
    28 0.009601 -0.128692 -0.103533 0.496656 0.098214 1.447661
    29 0.583509 -1.197274 0.185379 0.377232 -0.745798 -1.043320
    30 1.535926 0.010247 0.005009 -0.290357 -0.063207 -0.837499
    31 1.100770 0.004528 -0.010675 0.000000 0.000000 -0.577704
    32 0.957766 -2.746777 -0.090301 -0.200098 0.016530 0.045802
    33 -0.033419 -1.397128 -0.011255 -0.753975 0.000000 0.000000
    34 -0.022361 -0.957433 0.018783 -0.591035 0.000000 0.000000
    35 0.250029 -2.820664 -0.238396 -0.872208 -0.049326 -0.238818
    36 -0.049759 -1.680544 0.100479 -1.454738 0.000000 0.000000
    37 -0.034141 -1.148311 0.084779 -1.567306 0.000000 0.000000
    38 -0.488517 -2.755600 -0.228261 -1.098181 -0.096000 -0.264903
    39 0.039889 -1.479791 0.029854 -1.354100 0.000000 0.000000
    40 0.028785 -1.075733 -0.023110 -1.435200 0.000000 0.000000
    41 -1.180679 -2.507216 -0.193861 -1.163678 -0.049451 -0.281014
    42 -0.024967 -1.123934 0.017595 -0.883852 0.000000 0.000000
    43 -0.020058 -0.890965 0.010091 -1.435318 0.000000 0.000000
    44 0.120180 -0.051600 -0.063059 0.012085 -2.987703 1.512552
  time 28
    0 8.597476 3.423597 -7.098676 -0.899566 -1.365085 0.654885
    1 -0.071918 -8.498730 -0.104136 0.355443 -0.139418 -0.184462
    2 -0.549374 -3.389827 1.033063 0.764851 1.739163 0.793994
    3 0.013587 1.872281 1.004921 0.016326 -0.000097 -0.007310
    4 -0.013948 -2.720515 1.100493 -0.022819 0.000000 0.000000
    5 -0.013949 -4.784638 0.650335 0.000000 0.000000 0.000000
    6 -0.013948 -3.609847 2.626636 0.000000 0.000000 0.000000
    7 -0.642551 -1.684088 2.571740 0.000000 0.000000 0.223896
    8 -0.666019 -4.704160 1.993689 0.000000 0.251327 0.000000
    9 0.106011 18.212662 2.767869 -0.000008 0.000013 0.000020
    10 -0.089387 1.323563 4.001439 0.016991 -0.000100 -0.008081
    11 0.047364 -6.090692 -8.758891 0.477882 2.500324 0.903753
    12 0.096946 -8.450419 -0.009363 0.184700 -0.690430 0.354518
    13 -0.586769 -1.264477 0.200164 -0.676323 -0.859605 -2.417432
    14 1.522835 0.058680 0.016850 0.158919 -0.413884 0.663192
    15 1.117947 0.048424 -0.005765 0.000000 0.000000 1.230057
    16 -0.963867 -2.785143 -0.085346 -0.760154 0.213016 -0.062165
    17 0.028478 -1.403067 0.006272 -1.198053 -0.091474 0.022976
    18 0.021412 -0.957782 0.020047 -0.901427 -0.040655 -0.015084
    19 -0.249534 -2.846963 -0.174215 -0.943453 0.026702 0.137689
    20 0.043235 -1.683940 0.096015 -1.478176 0.000001 0.000000
    21 0.031729 -1.160830 0.058836 -1.545460 -0.002493 -0.000156
    22 0.447951 -2.798983 -0.200441 -0.919582 0.006722 0.124911
    23 -0.032909 -1.480207 0.004935 -1.365753 -0.011601 -0.002816
    24 -0.027023 -1.076921 -0.020212 -1.240364 0.000000 0.000000
    25 1.164474 -2.543939 -0.170327 -0.628102 0.011541 0.038073
    26 0.024033 -1.129040 0.017807 -1.196241 0.000000 -0.000001
    27 0.014896 -0.883992 -0.019846 -1.031490 0.000000 0.000000
    28 0.009601 -0.128692 -0.103533 0.496656 0.098214 1.447661
    29 0.583509 -1.197274 0.185379 0.377232 -0.745798 -1.043320
    30 1.535926 0.010247 0.005009 -0.290357 -0.063207 -0.837499
    31 1.100770 0.004528 -0.010675 0.000000 0.000000 -0.577704
    32 0.957766 -2.746777 -0.090301 -0.200961 0.016530 0.045802
    33 -0.033419 -1.397128 -0.011255 -0.758481 0.000000 0.000000
    34 -0.022361 -0.957433 0.018783 -0.592294 0.000000 0.000000
    35 0.250029 -2.820664 -0.238396 -0.872208 -0.049326 -0.238818
    36 -0.049759 -1.680544 0.100479 -1.454738 0.000000 0.000000
    37 -0.034141 -1.148311 0.084779 -1.567306 0.000000 0.000000
    38 -0.488517 -2.755600 -0.228261 -1.098181 -0.096000 -0.264903
    39 0.039889 -1.479791 0.029854 -1.354100 0.000000 0.000000
    40 0.028785 -1.075733 -0.023110 -1.435200 0.000000 0.000000
    41 -1.180679 -2.507216 -0.193861 -1.163678 -0.049451 -0.281014
    42 -0.024967 -1.123934 0.017595 -0.883852 0.000000 0.000000
    43 -0.020058 -0.890965 0.010091 -1.435318 0.000000 0.000000
    44 0.120180 -0.051600 -0.063059 0.012085 -2.987703 1.512552
  time 29
    0 8.593570 3.427503 -7.083051 -0.855100 -1.374603 0.614508
    1 -0.071918 -8.498730 -0.104136 0.351704 -0.143242 -0.173242
    2 -0.549374 -3.389827 1.033063 0.764851 1.739163 0.793994
    3 0.013587 1.872281 1.004921 0.016326 -0.000097 -0.007310
    4 -0.013948 -2.720515 1.100493 -0.010966 0.000000 0.000000
    5 -0.013949 -4.784638 0.650335 0.000000 0.000000 0.000000
    6 -0.013948 -3.609847 2.626636 0.000000 0.000000 0.000000
    7 -0.642551 -1.684088 2.571740 0.000000 0.000000 0.223896
    8 -0.666019 -4.704160 1.993689 0.000000 0.251327 0.000000
    9 0.106011 18.212662 2.767869 -0.000008 0.000013 0.000020
    10 -0.089387 1.323563 4.001439 0.016991 -0.000100 -0.008081
    11 0.051270 -6.036003 -8.719827 0.454226 2.493242 0.886740
    12 0.096946 -8.450419 -0.009363 0.194572 -0.695920 0.336562
    13 -0.586769 -1.264477 0.200164 -0.673056 -0.850271 -2.422367
    14 1.522835 0.058680 0.016850 0.165273 -0.401216 0.646419
    15 1.117947 0.048424 -0.005765 0.000000 0.000000 1.240832
    16 -0.963867 -2.785143 -0.085346 -0.760154 0.213016 -0.062165
    17 0.028478 -1.403067 0.006272 -1.198053 -0.091474 0.022976
    18 0.021412 -0.957782 0.020047 -0.901427 -0.040655 -0.015084
    19 -0.249534 -2.846963 -0.174215 -0.938849 0.026702 0.137677
    20 0.043235 -1.683940 0.096015 -1.478176 0.000001 0.000000
    21 0.031729 -1.160830 0.058836 -1.552714 -0.001186 -0.000072
    22 0.447951 -2.798983 -0.200441 -0.918913 0.003618 0.123592
    23 -0.032909 -1.480207 0.004935 -1.371909 -0.005501 -0.001318
    24 -0.027023 -1.076921 -0.020212 -1.240364 0.000000 0.000000
    25 1.164474 -2.543939 -0.170327 -0.628102 0.011541 0.038073
    26 0.024033 -1.129040 0.017807 -1.196241 0.000000 -0.000001
    27 0.014896 -0.883992 -0.019846 -1.031490 0.000000 0.000000
    28 0.009601 -0.128692 -0.103533 0.496656 0.098214 1.447661
    29 0.583509 -1.197274 0.185379 0.377232 -0.745798 -1.043320
    30 1.535926 0.010247 0.005009 -0.290357 -0.063207 -0.837499
    31 1.100770 0.004528 -0.010675 0.000000 0.000000 -0.577704
    32 0.957766 -2.746777 -0.090301 -0.201524 0.016530 0.045802
    33 -0.033419 -1.397128 -0.011255 -0.761794 0.000000 0.000000
    34 -0.022361 -0.957433 0.018783 -0.593133 0.000000 0.000000
    35 0.250029 -2.820664 -0.238396 -0.872208 -0.049326 -0.238818
    36 -0.049759 -1.680544 0.100479 -1.454738 0.000000 0.000000
    37 -0.034141 -1.148311 0.084779 -1.567306 0.000000 0.000000
    38 -0.488517 -2.755600 -0.228261 -1.098181 -0.096000 -0.264903
    39 0.039889 -1.479791 0.029854 -1.354100 0.000000 0.000000
    40 0.028785 -1.075733 -0.023110 -1.435200 0.000000 0.000000
    41 -1.180679 -2.507216 -0.193861 -1.163678 -0.049451 -0.281014
    42 -0.024967 -1.123934 0.017595 -0.883852 0.000000 0.000000
    43 -0.020058 -0.890965 0.010091 -1.435318 0.000000 0.000000
    44 0.120180 -0.051600 -0.063059 0.012085 -2.987703 1.512552
  time 30
    0 8.593570 3.427503 -7.079144 -0.800893 -1.384605 0.565112
    1 -0.071918 -8.498730 -0.104136 0.347501 -0.147564 -0.160936
    2 -0.549374 -3.389827 1.033063 0.764851 1.739163 0.793994
    3 0.013587 1.872281 1.004921 0.016326 -0.000097 -0.007310
    4 -0.013948 -2.720515 1.100493 0.000000 0.000000 0.000000
    5 -0.013949 -4.784638 0.650335 0.000000 0.000000 0.000000
    6 -0.013948 -3.609847 2.626636 0.000000 0.000000 0.000000
    7 -0.642551 -1.684088 2.571740 0.000000 0.000000 0.223896
    8 -0.666019 -4.704160 1.993689 0.000000 0.251327 0.000000
    9 0.106011 18.212662 2.767869 -0.000008 0.000013 0.000020
    10 -0.089387 1.323563 4.001439 0.016991 -0.000100 -0.008081
    11 0.059083 -5.977408 -8.676857 0.426378 2.485787 0.867284
    12 0.096946 -8.450419 -0.009363 0.203570 -0.700812 0.320549
    13 -0.586769 -1.264477 0.200164 -0.670714 -0.841940 -2.427205
    14 1.522835 0.058680 0.016850 0.171125 -0.389242 0.630587
    15 1.117947 0.048424 -0.005765 0.000000 0.000000 1.251526
    16 -0.963867 -2.785143 -0.085346 -0.760154 0.213016 -0.062165
    17 0.028478 -1.403067 0.006272 -1.198053 -0.091474 0.022976
    18 0.021412 -0.957782 0.020047 -0.901427 -0.040655 -0.015084
    19 -0.249534 -2.846963 -0.174215 -0.934335 0.026702 0.137677
    20 0.043235 -1.683940 0.096015 -1.478176 0.000001 0.000000
    21 0.031729 -1.160830 0.058836 -1.559706 0.000000 0.000000
    22 0.447951 -2.798983 -0.200441 -0.918006 0.000562 0.122310
    23 -0.032909 -1.480207 0.004935 -1.377964 0.000000 0.000000
    24 -0.027023 -1.076921 -0.020212 -1.240364 0.000000 0.000000
    25 1.164474 -2.543939 -0.170327 -0.628102 0.011541 0.038073
    26 0.024033 -1.129040 0.017807 -1.196241 0.000000 -0.000001
    27 0.014896 -0.883992 -0.019846 -1.031490 0.000000 0.000000
    28 0.009601 -0.128692 -0.103533 0.496656 0.098214 1.447661
    29 0.583509 -1.197274 0.185379 0.377232 -0.745798 -1.043320
    30 1.535926 0.010247 0.005009 -0.290357 -0.063207 -0.837499
    31 1.100770 0.004528 -0.010675 0.000000 0.000000 -0.577704
    32 0.957766 -2.746777 -0.090301 -0.201716 0.016530 0.045802
    33 -0.033419 -1.397128 -0.011255 -0.763584 0.000000 0.000000
    34 -0.022361 -0.957433 0.018783 -0.593413 0.000000 0.000000
    35 0.250029 -2.820664 -0.238396 -0.872208 -0.049326 -0.238818
    36 -0.049759 -1.680544 0.100479 -1.454738 0.000000 0.000000
    37 -0.034141 -1.148311 0.084779 -1.567306 0.000000 0.000000
    38 -0.488517 -2.755600 -0.228261 -1.098181 -0.096000 -0.264903
    39 0.039889 -1.479791 0.029854 -1.354100 0.000000 0.000000
    40 0.028785 -1.075733 -0.023110 -1.435200 0.000000 0.000000
    41 -1.180679 -2.507216 -0.193861 -1.163678 -0.049451 -0.281014
    42 -0.024967 -1.123934 0.017595 -0.883852 0.000000 0.000000
    43 -0.020058 -0.890965 0.010091 -1.435318 0.000000 0.000000
    44 0.120180 -0.051600 -0.063059 0.012085 -2.987703 1.512552
end
