version 1
nodes
  0 "Bone_L_Upper" -1
  1 "Bone01" 0
  2 "Bone_Lefthand" 1
  3 "Pyramid01" 2
  4 "CSO_hammer" 3
  5 "Bone05" 2
  6 "Bone06" 5
  7 "Bone07" 6
  8 "Bone21" 2
  9 "Bone22" 8
  10 "Bone23" 9
  11 "Bone17" 2
  12 "Bone18" 11
  13 "Bone19" 12
  14 "Bone13" 2
  15 "Bone14" 14
  16 "Bone15" 15
  17 "Bone09" 2
  18 "Bone10" 17
  19 "Bone11" 18
  20 "Bone_Se_Hand-L" 2
  21 "Bone_R_Upper" -1
  22 "Bone04" 21
  23 "Bone_Righthand" 22
  24 "Bone27" 23
  25 "Bone28" 24
  26 "Bone29" 25
  27 "Bone31" 23
  28 "Bone32" 27
  29 "Bone33" 28
  30 "Bone35" 23
  31 "Bone36" 30
  32 "Bone37" 31
  33 "Bone39" 23
  34 "Bone40" 33
  35 "Bone41" 34
  36 "Bone43" 23
  37 "Bone44" 36
  38 "Bone45" 37
  39 "Bone_Se_Hand-R" 23
end
skeleton
  time 0
    0 10.818113 7.298691 -12.417654 -0.895706 0.833836 -2.741183
    1 0.135443 0.191468 8.898222 -1.660315 0.077309 -1.428025
    2 -0.071919 -8.498734 -0.104136 -0.415585 -0.214404 -0.018969
    3 0.316529 -2.192668 0.899432 -0.467501 3.140815 -0.336526
    4 -16.621069 0.213464 -1.018429 -1.570796 -0.518398 1.570797
    5 0.583509 -1.197273 0.185379 -0.016486 -0.404972 -0.364290
    6 1.535926 0.010246 0.005008 -0.002963 -0.012979 0.000887
    7 1.100770 0.004527 -0.010675 -0.002795 0.015973 0.003458
    8 0.957766 -2.746777 -0.090301 -0.017221 -0.162277 0.191558
    9 -0.033419 -1.397127 -0.011256 0.013931 0.000000 -0.000001
    10 -0.022361 -0.957433 0.018782 0.003845 0.000000 0.000000
    11 0.250029 -2.820664 -0.238396 0.041827 -0.002921 0.008442
    12 -0.049759 -1.680544 0.100480 0.019826 0.000000 -0.000002
    13 -0.034141 -1.148309 0.084778 -0.040115 0.000000 0.000000
    14 -0.488517 -2.755599 -0.228261 0.106455 0.010332 -0.264491
    15 0.039889 -1.479791 0.029853 -0.055395 0.000000 0.000001
    16 0.028786 -1.075732 -0.023111 0.002099 0.000000 0.000000
    17 -1.180679 -2.507216 -0.193861 0.083000 0.013294 -0.477916
    18 -0.024966 -1.123936 0.017594 -0.018064 0.000000 0.000001
    19 -0.020058 -0.890965 0.010091 -0.060797 0.000000 0.000000
    20 0.120152 -0.050267 -0.054488 0.287569 3.110905 1.561085
    21 -0.511378 -1.170994 0.000000 1.570795 -1.493205 1.440028
    22 -0.085749 -0.255579 -8.907138 1.577141 0.134712 -1.483086
    23 0.096946 -8.450419 -0.009364 -0.032965 -0.297906 -0.004663
    24 -0.591284 -1.257741 0.232708 0.017480 -0.427124 -2.802619
    25 1.522835 0.058680 0.016851 0.001411 0.008985 -0.046881
    26 1.117948 0.048424 -0.005765 -0.000243 -0.025197 0.065422
    27 -0.963867 -2.785143 -0.085346 -0.017227 0.162276 -0.191556
    28 0.028478 -1.403067 0.006271 0.013940 0.000000 0.000000
    29 0.021414 -0.957782 0.020047 0.003851 0.000000 0.000000
    30 -0.249534 -2.846964 -0.174215 0.041902 -0.000125 -0.008396
    31 0.043234 -1.683941 0.096014 0.019757 0.002823 -0.000167
    32 0.031729 -1.160830 0.058836 -0.040181 0.000642 0.008372
    33 0.447952 -2.798983 -0.200441 0.106455 -0.010397 0.265093
    34 -0.032910 -1.480208 0.004936 -0.055403 0.000000 0.000002
    35 -0.027022 -1.076920 -0.020212 0.002093 0.000000 0.000000
    36 1.164475 -2.543939 -0.170327 0.083003 -0.013294 0.477914
    37 0.024033 -1.129040 0.017806 -0.018074 0.000000 0.000000
    38 0.014896 -0.883991 -0.019845 -0.060801 0.000000 0.000000
    39 -0.139399 -0.111699 0.014397 0.285534 -0.040597 1.576226
end
triangles
CSO_Hammer_256.bmp
  4 -10.312892 -14.717714 -5.159029 -0.398282 -0.582374 -0.708669 1.000000 0.873016
  4 -9.132360 -14.685848 -5.371933 0.140796 -0.572284 -0.807878 1.000000 0.702381
  4 -9.169700 -14.852687 -5.265770 0.140796 -0.572284 -0.807878 0.980080 0.710317
CSO_Hammer_256.bmp
  4 -9.169700 -14.852687 -5.265770 0.140796 -0.572284 -0.807878 0.980080 0.710317
  4 -9.132360 -14.685848 -5.371933 0.140796 -0.572284 -0.807878 1.000000 0.702381
  4 -8.264222 -14.939587 -4.654331 0.619303 -0.612603 -0.491102 0.868526 0.603175
CSO_Hammer_256.bmp
  4 -9.132360 -14.685848 -5.371933 0.140796 -0.572284 -0.807878 1.000000 0.702381
  4 -8.145460 -14.780672 -4.704747 0.619303 -0.612603 -0.491102 0.876494 0.583333
  4 -8.264222 -14.939587 -4.654331 0.619303 -0.612603 -0.491102 0.868526 0.603175
CSO_Hammer_256.bmp
  4 -8.264222 -14.939587 -4.654331 0.619303 -0.612603 -0.491102 0.868526 0.603175
  4 -8.145460 -14.780672 -4.704747 0.619303 -0.612603 -0.491102 0.876494 0.583333
  4 -8.066890 -15.093319 -3.583151 0.720288 -0.691288 0.057499 0.713147 0.603175
CSO_Hammer_256.bmp
  4 -8.145460 -14.780672 -4.704747 0.619303 -0.612603 -0.491102 0.876494 0.583333
  4 -7.928395 -14.949777 -3.526449 0.720288 -0.691288 0.057499 0.705179 0.583333
  4 -8.066890 -15.093319 -3.583151 0.720288 -0.691288 0.057499 0.713147 0.603175
CSO_Hammer_256.bmp
  4 -8.066890 -15.093319 -3.583151 0.720288 -0.691288 0.057499 0.713147 0.603175
  4 -7.928395 -14.949777 -3.526449 0.720288 -0.691288 0.057499 0.705179 0.583333
  4 -8.694310 -15.223042 -2.685200 0.385311 -0.762721 0.519415 0.601594 0.710317
CSO_Hammer_256.bmp
  4 -7.928395 -14.949777 -3.526449 0.720288 -0.691288 0.057499 0.705179 0.583333
  4 -8.612121 -15.091142 -2.547913 0.385311 -0.762721 0.519415 0.585657 0.702381
  4 -8.694310 -15.223042 -2.685200 0.385311 -0.762721 0.519415 0.601594 0.710317
CSO_Hammer_256.bmp
  4 -8.694310 -15.223042 -2.685200 0.385311 -0.762721 0.519415 0.601594 0.710317
  4 -8.612121 -15.091142 -2.547913 0.385311 -0.762721 0.519415 0.585657 0.702381
  4 -9.766626 -15.251987 -2.491813 -0.154601 -0.772504 0.615903 0.601594 0.869048
CSO_Hammer_256.bmp
  4 -8.612121 -15.091142 -2.547913 0.385311 -0.762721 0.519415 0.585657 0.702381
  4 -9.792654 -15.123008 -2.335010 -0.154601 -0.772504 0.615903 0.585657 0.873016
  4 -9.766626 -15.251987 -2.491813 -0.154601 -0.772504 0.615903 0.601594 0.869048
CSO_Hammer_256.bmp
  4 -9.766626 -15.251987 -2.491813 -0.154601 -0.772504 0.615903 0.601594 0.869048
  4 -9.792654 -15.123008 -2.335010 -0.154601 -0.772504 0.615903 0.585657 0.873016
  4 -10.664061 -15.163424 -3.114763 -0.617896 -0.727395 0.298498 0.713147 0.976190
CSO_Hammer_256.bmp
  4 -9.792654 -15.123008 -2.335010 -0.154601 -0.772504 0.615903 0.585657 0.873016
  4 -10.781348 -15.026787 -3.011933 -0.617896 -0.727395 0.298498 0.705179 0.996032
  4 -10.664061 -15.163424 -3.114763 -0.617896 -0.727395 0.298498 0.713147 0.976190
CSO_Hammer_256.bmp
  4 -10.664061 -15.163424 -3.114763 -0.617896 -0.727395 0.298498 0.713147 0.976190
  4 -10.781348 -15.026787 -3.011933 -0.617896 -0.727395 0.298498 0.705179 0.996032
  4 -10.861393 -15.009692 -4.185943 -0.718834 -0.648631 -0.250112 0.868526 0.976190
CSO_Hammer_256.bmp
  4 -10.781348 -15.026787 -3.011933 -0.617896 -0.727395 0.298498 0.705179 0.996032
  4 -10.998413 -14.857681 -4.190231 -0.718834 -0.648631 -0.250112 0.876494 0.996032
  4 -10.861393 -15.009692 -4.185943 -0.718834 -0.648631 -0.250112 0.868526 0.976190
CSO_Hammer_256.bmp
  4 -10.861393 -15.009692 -4.185943 -0.718834 -0.648631 -0.250112 0.868526 0.976190
  4 -10.998413 -14.857681 -4.190231 -0.718834 -0.648631 -0.250112 0.876494 0.996032
  4 -10.242017 -14.881632 -5.072382 -0.398282 -0.582374 -0.708669 0.980080 0.869048
CSO_Hammer_256.bmp
  4 -10.998413 -14.857681 -4.190231 -0.718834 -0.648631 -0.250112 0.876494 0.996032
  4 -10.312892 -14.717714 -5.159029 -0.398282 -0.582374 -0.708669 1.000000 0.873016
  4 -10.242017 -14.881632 -5.072382 -0.398282 -0.582374 -0.708669 0.980080 0.869048
CSO_Hammer_256.bmp
  4 -10.242017 -14.881632 -5.072382 -0.398282 -0.582374 -0.708669 0.980080 0.869048
  4 -10.312892 -14.717714 -5.159029 -0.398282 -0.582374 -0.708669 1.000000 0.873016
  4 -9.169700 -14.852687 -5.265770 0.140796 -0.572284 -0.807878 0.980080 0.710317
CSO_Hammer_256.bmp
  4 -9.140380 -7.222532 -4.299345 0.139302 0.776910 -0.614008 1.000000 0.702381
  4 -10.320913 -7.254398 -4.086441 -0.399684 0.757571 -0.516080 1.000000 0.873016
  4 -10.250367 -7.111468 -3.955696 -0.399684 0.757571 -0.516080 0.980080 0.869048
CSO_Hammer_256.bmp
  4 -10.250367 -7.111468 -3.955696 -0.399684 0.757571 -0.516080 0.980080 0.869048
  4 -10.320913 -7.254398 -4.086441 -0.399684 0.757571 -0.516080 1.000000 0.873016
  4 -10.869743 -7.239528 -3.069257 -0.720288 0.691288 -0.057499 0.868526 0.976190
CSO_Hammer_256.bmp
  4 -10.320913 -7.254398 -4.086441 -0.399684 0.757571 -0.516080 1.000000 0.873016
  4 -11.006433 -7.394365 -3.117643 -0.720288 0.691288 -0.057499 0.876494 0.996032
  4 -10.869743 -7.239528 -3.069257 -0.720288 0.691288 -0.057499 0.868526 0.976190
CSO_Hammer_256.bmp
  4 -10.869743 -7.239528 -3.069257 -0.720288 0.691288 -0.057499 0.868526 0.976190
  4 -11.006433 -7.394365 -3.117643 -0.720288 0.691288 -0.057499 0.876494 0.996032
  4 -10.672411 -7.393260 -1.998077 -0.619303 0.612603 0.491102 0.713147 0.976190
CSO_Hammer_256.bmp
  4 -11.006433 -7.394365 -3.117643 -0.720288 0.691288 -0.057499 0.876494 0.996032
  4 -10.789368 -7.563471 -1.939345 -0.619303 0.612603 0.491102 0.705179 0.996032
  4 -10.672411 -7.393260 -1.998077 -0.619303 0.612603 0.491102 0.713147 0.976190
CSO_Hammer_256.bmp
  4 -10.672411 -7.393260 -1.998077 -0.619303 0.612603 0.491102 0.713147 0.976190
  4 -10.789368 -7.563471 -1.939345 -0.619303 0.612603 0.491102 0.705179 0.996032
  4 -9.774976 -7.481823 -1.375126 -0.155995 0.567482 0.808474 0.601594 0.869048
CSO_Hammer_256.bmp
  4 -10.789368 -7.563471 -1.939345 -0.619303 0.612603 0.491102 0.705179 0.996032
  4 -9.800674 -7.659692 -1.262422 -0.155995 0.567482 0.808474 0.585657 0.873016
  4 -9.774976 -7.481823 -1.375126 -0.155995 0.567482 0.808474 0.601594 0.869048
CSO_Hammer_256.bmp
  4 -9.774976 -7.481823 -1.375126 -0.155995 0.567482 0.808474 0.601594 0.869048
  4 -9.800674 -7.659692 -1.262422 -0.155995 0.567482 0.808474 0.585657 0.873016
  4 -8.702659 -7.452878 -1.568513 0.383807 0.586410 0.713313 0.601594 0.710317
CSO_Hammer_256.bmp
  4 -9.800674 -7.659692 -1.262422 -0.155995 0.567482 0.808474 0.585657 0.873016
  4 -8.620142 -7.627826 -1.475325 0.383807 0.586410 0.713313 0.585657 0.702381
  4 -8.702659 -7.452878 -1.568513 0.383807 0.586410 0.713313 0.601594 0.710317
CSO_Hammer_256.bmp
  4 -8.702659 -7.452878 -1.568513 0.383807 0.586410 0.713313 0.601594 0.710317
  4 -8.620142 -7.627826 -1.475325 0.383807 0.586410 0.713313 0.585657 0.702381
  4 -8.075240 -7.323155 -2.466464 0.718834 0.648631 0.250112 0.713147 0.603175
CSO_Hammer_256.bmp
  4 -8.620142 -7.627826 -1.475325 0.383807 0.586410 0.713313 0.585657 0.702381
  4 -7.936415 -7.486461 -2.453861 0.718834 0.648631 0.250112 0.705179 0.583333
  4 -8.075240 -7.323155 -2.466464 0.718834 0.648631 0.250112 0.713147 0.603175
CSO_Hammer_256.bmp
  4 -8.075240 -7.323155 -2.466464 0.718834 0.648631 0.250112 0.713147 0.603175
  4 -7.936415 -7.486461 -2.453861 0.718834 0.648631 0.250112 0.705179 0.583333
  4 -8.272571 -7.169423 -3.537644 0.617896 0.727395 -0.298498 0.868526 0.603175
CSO_Hammer_256.bmp
  4 -7.936415 -7.486461 -2.453861 0.718834 0.648631 0.250112 0.705179 0.583333
  4 -8.153480 -7.317356 -3.632159 0.617896 0.727395 -0.298498 0.876494 0.583333
  4 -8.272571 -7.169423 -3.537644 0.617896 0.727395 -0.298498 0.868526 0.603175
CSO_Hammer_256.bmp
  4 -8.272571 -7.169423 -3.537644 0.617896 0.727395 -0.298498 0.868526 0.603175
  4 -8.153480 -7.317356 -3.632159 0.617896 0.727395 -0.298498 0.876494 0.583333
  4 -9.178050 -7.082523 -4.149083 0.139302 0.776910 -0.614008 0.980080 0.710317
CSO_Hammer_256.bmp
  4 -8.153480 -7.317356 -3.632159 0.617896 0.727395 -0.298498 0.876494 0.583333
  4 -9.140380 -7.222532 -4.299345 0.139302 0.776910 -0.614008 1.000000 0.702381
  4 -9.178050 -7.082523 -4.149083 0.139302 0.776910 -0.614008 0.980080 0.710317
CSO_Hammer_256.bmp
  4 -9.178050 -7.082523 -4.149083 0.139302 0.776910 -0.614008 0.980080 0.710317
  4 -9.140380 -7.222532 -4.299345 0.139302 0.776910 -0.614008 1.000000 0.702381
  4 -10.250367 -7.111468 -3.955696 -0.399684 0.757571 -0.516080 0.980080 0.869048
CSO_Hammer_256.bmp
  4 -11.370977 -11.084809 -3.662280 0.320100 0.135100 -0.937701 0.095618 1.000000
  4 -11.337392 -10.646143 -3.410399 0.365406 0.711412 -0.600310 0.075697 1.000000
  4 -10.967817 -10.785093 -3.354657 0.139302 0.776910 -0.614008 0.075697 0.948413
CSO_Hammer_256.bmp
  4 -10.967817 -10.785093 -3.354657 0.139302 0.776910 -0.614008 0.075697 0.948413
  4 -11.337392 -10.646143 -3.410399 0.365406 0.711412 -0.600310 0.075697 1.000000
  4 -10.906972 -10.694034 -3.003649 0.261293 0.961074 0.089798 0.047809 0.948413
CSO_Hammer_256.bmp
  4 -11.337392 -10.646143 -3.410399 0.365406 0.711412 -0.600310 0.075697 1.000000
  4 -11.251496 -10.515260 -2.914524 0.476122 0.878540 0.038402 0.047809 1.000000
  4 -10.906972 -10.694034 -3.003649 0.261293 0.961074 0.089798 0.047809 0.948413
CSO_Hammer_256.bmp
  4 -10.906972 -10.694034 -3.003649 0.261293 0.961074 0.089798 0.047809 0.948413
  4 -11.251496 -10.515260 -2.914524 0.476122 0.878540 0.038402 0.047809 1.000000
  4 -10.847624 -10.878730 -2.702211 0.383807 0.586410 0.713313 0.023904 0.948413
CSO_Hammer_256.bmp
  4 -11.251496 -10.515260 -2.914524 0.476122 0.878540 0.038402 0.047809 1.000000
  4 -11.166969 -10.778912 -2.485289 0.587315 0.538614 0.604116 0.023904 1.000000
  4 -10.847624 -10.878730 -2.702211 0.383807 0.586410 0.713313 0.023904 0.948413
CSO_Hammer_256.bmp
  4 -10.847624 -10.878730 -2.702211 0.383807 0.586410 0.713313 0.023904 0.948413
  4 -11.166969 -10.778912 -2.485289 0.587315 0.538614 0.604116 0.023904 1.000000
  4 -10.822147 -11.234838 -2.614245 0.435218 -0.127605 0.891236 0.000000 0.948413
CSO_Hammer_256.bmp
  4 -11.166969 -10.778912 -2.485289 0.587315 0.538614 0.604116 0.023904 1.000000
  4 -11.130591 -11.272083 -2.357388 0.633926 -0.109304 0.765631 0.000000 1.000000
  4 -10.822147 -11.234838 -2.614245 0.435218 -0.127605 0.891236 0.000000 0.948413
CSO_Hammer_256.bmp
  4 -10.822147 -11.234838 -2.614245 0.435218 -0.127605 0.891236 0.000000 0.948413
  4 -11.130591 -11.272083 -2.357388 0.633926 -0.109304 0.765631 0.000000 1.000000
  4 -10.846911 -11.541916 -2.797520 0.385311 -0.762721 0.519415 0.023904 0.948413
CSO_Hammer_256.bmp
  4 -11.130591 -11.272083 -2.357388 0.633926 -0.109304 0.765631 0.000000 1.000000
  4 -11.165980 -11.699454 -2.617584 0.588603 -0.685704 0.428202 0.023904 1.000000
  4 -10.846911 -11.541916 -2.797520 0.385311 -0.762721 0.519415 0.023904 0.948413
CSO_Hammer_256.bmp
  4 -10.846911 -11.541916 -2.797520 0.385311 -0.762721 0.519415 0.023904 0.948413
  4 -11.165980 -11.699454 -2.617584 0.588603 -0.685704 0.428202 0.023904 1.000000
  4 -10.905962 -11.634372 -3.138790 0.263306 -0.946924 -0.184405 0.047809 0.948413
CSO_Hammer_256.bmp
  4 -11.165980 -11.699454 -2.617584 0.588603 -0.685704 0.428202 0.023904 1.000000
  4 -11.250082 -11.831734 -3.103721 0.477995 -0.852792 -0.210398 0.047809 1.000000
  4 -10.905962 -11.634372 -3.138790 0.263306 -0.946924 -0.184405 0.047809 0.948413
CSO_Hammer_256.bmp
  4 -10.905962 -11.634372 -3.138790 0.263306 -0.946924 -0.184405 0.047809 0.948413
  4 -11.250082 -11.831734 -3.103721 0.477995 -0.852792 -0.210398 0.047809 1.000000
  4 -10.967104 -11.448279 -3.449966 0.140796 -0.572284 -0.807878 0.075697 0.948413
CSO_Hammer_256.bmp
  4 -11.250082 -11.831734 -3.103721 0.477995 -0.852792 -0.210398 0.047809 1.000000
  4 -11.336403 -11.566685 -3.542694 0.366801 -0.512802 -0.776203 0.075697 1.000000
  4 -10.967104 -11.448279 -3.449966 0.140796 -0.572284 -0.807878 0.075697 0.948413
CSO_Hammer_256.bmp
  4 -10.967104 -11.448279 -3.449966 0.140796 -0.572284 -0.807878 0.075697 0.948413
  4 -11.336403 -11.566685 -3.542694 0.366801 -0.512802 -0.776203 0.075697 1.000000
  4 -10.992570 -11.102069 -3.539355 0.089396 0.141793 -0.985851 0.095618 0.948413
CSO_Hammer_256.bmp
  4 -11.336403 -11.566685 -3.542694 0.366801 -0.512802 -0.776203 0.075697 1.000000
  4 -11.370977 -11.084809 -3.662280 0.320100 0.135100 -0.937701 0.095618 1.000000
  4 -10.992570 -11.102069 -3.539355 0.089396 0.141793 -0.985851 0.095618 0.948413
CSO_Hammer_256.bmp
  4 -10.992570 -11.102069 -3.539355 0.089396 0.141793 -0.985851 0.095618 0.948413
  4 -10.967817 -10.785093 -3.354657 0.139302 0.776910 -0.614008 0.075697 0.948413
  4 4.506995 -10.367383 -6.145465 -0.127603 0.798721 -0.588015 0.075697 0.023810
CSO_Hammer_256.bmp
  4 4.506995 -10.367383 -6.145465 -0.127603 0.798721 -0.588015 0.075697 0.023810
  4 -10.967817 -10.785093 -3.354657 0.139302 0.776910 -0.614008 0.075697 0.948413
  4 4.567840 -10.276324 -5.794458 -0.001100 0.989823 0.142303 0.047809 0.023810
CSO_Hammer_256.bmp
  4 -10.967817 -10.785093 -3.354657 0.139302 0.776910 -0.614008 0.075697 0.948413
  4 -10.906972 -10.694034 -3.003649 0.261293 0.961074 0.089798 0.047809 0.948413
  4 4.567840 -10.276324 -5.794458 -0.001100 0.989823 0.142303 0.047809 0.023810
CSO_Hammer_256.bmp
  4 4.567840 -10.276324 -5.794458 -0.001100 0.989823 0.142303 0.047809 0.023810
  4 -10.906972 -10.694034 -3.003649 0.261293 0.961074 0.089798 0.047809 0.948413
  4 4.627189 -10.461020 -5.493019 0.126096 0.601082 0.789177 0.023904 0.023810
CSO_Hammer_256.bmp
  4 -10.906972 -10.694034 -3.003649 0.261293 0.961074 0.089798 0.047809 0.948413
  4 -10.847624 -10.878730 -2.702211 0.383807 0.586410 0.713313 0.023904 0.948413
  4 4.627189 -10.461020 -5.493019 0.126096 0.601082 0.789177 0.023904 0.023810
CSO_Hammer_256.bmp
  4 4.627189 -10.461020 -5.493019 0.126096 0.601082 0.789177 0.023904 0.023810
  4 -10.847624 -10.878730 -2.702211 0.383807 0.586410 0.713313 0.023904 0.948413
  4 4.652665 -10.817128 -5.405053 0.179399 -0.139799 0.973793 0.000000 0.023810
CSO_Hammer_256.bmp
  4 -10.847624 -10.878730 -2.702211 0.383807 0.586410 0.713313 0.023904 0.948413
  4 -10.822147 -11.234838 -2.614245 0.435218 -0.127605 0.891236 0.000000 0.948413
  4 4.652665 -10.817128 -5.405053 0.179399 -0.139799 0.973793 0.000000 0.023810
CSO_Hammer_256.bmp
  4 4.652665 -10.817128 -5.405053 0.179399 -0.139799 0.973793 0.000000 0.023810
  4 -10.822147 -11.234838 -2.614245 0.435218 -0.127605 0.891236 0.000000 0.948413
  4 4.627901 -11.124206 -5.588329 0.127603 -0.798721 0.588015 0.023904 0.023810
CSO_Hammer_256.bmp
  4 -10.822147 -11.234838 -2.614245 0.435218 -0.127605 0.891236 0.000000 0.948413
  4 -10.846911 -11.541916 -2.797520 0.385311 -0.762721 0.519415 0.023904 0.948413
  4 4.627901 -11.124206 -5.588329 0.127603 -0.798721 0.588015 0.023904 0.023810
CSO_Hammer_256.bmp
  4 4.627901 -11.124206 -5.588329 0.127603 -0.798721 0.588015 0.023904 0.023810
  4 -10.846911 -11.541916 -2.797520 0.385311 -0.762721 0.519415 0.023904 0.948413
  4 4.568851 -11.216662 -5.929598 0.001100 -0.989823 -0.142303 0.047809 0.023810
CSO_Hammer_256.bmp
  4 -10.846911 -11.541916 -2.797520 0.385311 -0.762721 0.519415 0.023904 0.948413
  4 -10.905962 -11.634372 -3.138790 0.263306 -0.946924 -0.184405 0.047809 0.948413
  4 4.568851 -11.216662 -5.929598 0.001100 -0.989823 -0.142303 0.047809 0.023810
CSO_Hammer_256.bmp
  4 4.568851 -11.216662 -5.929598 0.001100 -0.989823 -0.142303 0.047809 0.023810
  4 -10.905962 -11.634372 -3.138790 0.263306 -0.946924 -0.184405 0.047809 0.948413
  4 4.507708 -11.030569 -6.240775 -0.126096 -0.601082 -0.789177 0.075697 0.023810
CSO_Hammer_256.bmp
  4 -10.905962 -11.634372 -3.138790 0.263306 -0.946924 -0.184405 0.047809 0.948413
  4 -10.967104 -11.448279 -3.449966 0.140796 -0.572284 -0.807878 0.075697 0.948413
  4 4.507708 -11.030569 -6.240775 -0.126096 -0.601082 -0.789177 0.075697 0.023810
CSO_Hammer_256.bmp
  4 4.507708 -11.030569 -6.240775 -0.126096 -0.601082 -0.789177 0.075697 0.023810
  4 -10.967104 -11.448279 -3.449966 0.140796 -0.572284 -0.807878 0.075697 0.948413
  4 4.482242 -10.684359 -6.330163 -0.179399 0.139799 -0.973793 0.095618 0.023810
CSO_Hammer_256.bmp
  4 -10.967104 -11.448279 -3.449966 0.140796 -0.572284 -0.807878 0.075697 0.948413
  4 -10.992570 -11.102069 -3.539355 0.089396 0.141793 -0.985851 0.095618 0.948413
  4 4.482242 -10.684359 -6.330163 -0.179399 0.139799 -0.973793 0.095618 0.023810
CSO_Hammer_256.bmp
  4 -10.988714 -10.124356 -2.187999 -0.840366 -0.077997 0.536378 0.111554 0.750000
  4 -11.236276 -9.931492 -3.531843 -0.977486 0.029000 -0.208997 0.203187 0.750000
  4 -11.233734 -12.297185 -3.871828 -0.977486 0.029000 -0.208997 0.203187 0.539683
CSO_Hammer_256.bmp
  4 -11.233734 -12.297185 -3.871828 -0.977486 0.029000 -0.208997 0.203187 0.539683
  4 -11.236276 -9.931492 -3.531843 -0.977486 0.029000 -0.208997 0.203187 0.750000
  4 -10.443643 -12.135597 -4.990285 -0.542005 0.119001 -0.831907 0.298805 0.539683
CSO_Hammer_256.bmp
  4 -11.236276 -9.931492 -3.531843 -0.977486 0.029000 -0.208997 0.203187 0.750000
  4 -10.446185 -9.769904 -4.650300 -0.542005 0.119001 -0.831907 0.298805 0.750000
  4 -10.443643 -12.135597 -4.990285 -0.542005 0.119001 -0.831907 0.298805 0.539683
CSO_Hammer_256.bmp
  4 -10.443643 -12.135597 -4.990285 -0.542005 0.119001 -0.831907 0.298805 0.539683
  4 -10.446185 -9.769904 -4.650300 -0.542005 0.119001 -0.831907 0.298805 0.750000
  4 -9.086031 -12.098951 -5.235124 0.211002 0.139301 -0.967509 0.390438 0.539683
CSO_Hammer_256.bmp
  4 -10.446185 -9.769904 -4.650300 -0.542005 0.119001 -0.831907 0.298805 0.750000
  4 -9.088573 -9.733258 -4.895139 0.211002 0.139301 -0.967509 0.390438 0.750000
  4 -9.086031 -12.098951 -5.235124 0.211002 0.139301 -0.967509 0.390438 0.539683
CSO_Hammer_256.bmp
  4 -9.086031 -12.098951 -5.235124 0.211002 0.139301 -0.967509 0.390438 0.539683
  4 -9.088573 -9.733258 -4.895139 0.211002 0.139301 -0.967509 0.390438 0.750000
  4 -7.957756 -12.208757 -4.462635 0.840366 0.077997 -0.536378 0.482072 0.539683
CSO_Hammer_256.bmp
  4 -9.088573 -9.733258 -4.895139 0.211002 0.139301 -0.967509 0.390438 0.750000
  4 -7.960298 -9.843064 -4.122650 0.840366 0.077997 -0.536378 0.482072 0.750000
  4 -7.957756 -12.208757 -4.462635 0.840366 0.077997 -0.536378 0.482072 0.539683
CSO_Hammer_256.bmp
  4 -7.957756 -12.208757 -4.462635 0.840366 0.077997 -0.536378 0.482072 0.539683
  4 -7.960298 -9.843064 -4.122650 0.840366 0.077997 -0.536378 0.482072 0.750000
  4 -7.710194 -12.401621 -3.118791 0.977486 -0.029000 0.208997 0.573705 0.539683
CSO_Hammer_256.bmp
  4 -7.960298 -9.843064 -4.122650 0.840366 0.077997 -0.536378 0.482072 0.750000
  4 -7.712737 -10.035928 -2.778806 0.977486 -0.029000 0.208997 0.573705 0.750000
  4 -7.710194 -12.401621 -3.118791 0.977486 -0.029000 0.208997 0.573705 0.539683
CSO_Hammer_256.bmp
  4 -10.789368 -7.563471 -1.939345 -0.840366 -0.077997 0.536378 0.111554 1.000000
  4 -11.006433 -7.394365 -3.117643 -0.977486 0.029000 -0.208997 0.203187 1.000000
  4 -11.004040 -9.621482 -3.437712 -0.977486 0.029000 -0.208997 0.203187 0.789683
CSO_Hammer_256.bmp
  4 -11.004040 -9.621482 -3.437712 -0.977486 0.029000 -0.208997 0.203187 0.789683
  4 -11.006433 -7.394365 -3.117643 -0.977486 0.029000 -0.208997 0.203187 1.000000
  4 -10.318519 -9.481515 -4.406511 -0.542005 0.119001 -0.831907 0.298805 0.789683
CSO_Hammer_256.bmp
  4 -11.006433 -7.394365 -3.117643 -0.977486 0.029000 -0.208997 0.203187 1.000000
  4 -10.320913 -7.254398 -4.086441 -0.542005 0.119001 -0.831907 0.298805 1.000000
  4 -10.318519 -9.481515 -4.406511 -0.542005 0.119001 -0.831907 0.298805 0.789683
CSO_Hammer_256.bmp
  4 -10.318519 -9.481515 -4.406511 -0.542005 0.119001 -0.831907 0.298805 0.789683
  4 -10.320913 -7.254398 -4.086441 -0.542005 0.119001 -0.831907 0.298805 1.000000
  4 -9.137987 -9.449649 -4.619414 0.211002 0.139301 -0.967509 0.390438 0.789683
CSO_Hammer_256.bmp
  4 -10.320913 -7.254398 -4.086441 -0.542005 0.119001 -0.831907 0.298805 1.000000
  4 -9.140380 -7.222532 -4.299345 0.211002 0.139301 -0.967509 0.390438 1.000000
  4 -9.137987 -9.449649 -4.619414 0.211002 0.139301 -0.967509 0.390438 0.789683
CSO_Hammer_256.bmp
  4 -9.137987 -9.449649 -4.619414 0.211002 0.139301 -0.967509 0.390438 0.789683
  4 -9.140380 -7.222532 -4.299345 0.211002 0.139301 -0.967509 0.390438 1.000000
  4 -8.151087 -9.544473 -3.952229 0.840366 0.077997 -0.536378 0.482072 0.789683
CSO_Hammer_256.bmp
  4 -9.140380 -7.222532 -4.299345 0.211002 0.139301 -0.967509 0.390438 1.000000
  4 -8.153480 -7.317356 -3.632159 0.840366 0.077997 -0.536378 0.482072 1.000000
  4 -8.151087 -9.544473 -3.952229 0.840366 0.077997 -0.536378 0.482072 0.789683
CSO_Hammer_256.bmp
  4 -8.151087 -9.544473 -3.952229 0.840366 0.077997 -0.536378 0.482072 0.789683
  4 -8.153480 -7.317356 -3.632159 0.840366 0.077997 -0.536378 0.482072 1.000000
  4 -7.934022 -9.713578 -2.773931 0.977486 -0.029000 0.208997 0.573705 0.789683
CSO_Hammer_256.bmp
  4 -8.153480 -7.317356 -3.632159 0.840366 0.077997 -0.536378 0.482072 1.000000
  4 -7.936415 -7.486461 -2.453861 0.977486 -0.029000 0.208997 0.573705 1.000000
  4 -7.934022 -9.713578 -2.773931 0.977486 -0.029000 0.208997 0.573705 0.789683
CSO_Hammer_256.bmp
  4 -10.783752 -12.789772 -2.690441 -0.840366 -0.077997 0.536378 0.111554 0.503968
  4 -11.000817 -12.620666 -3.868739 -0.977486 0.029000 -0.208997 0.203187 0.503968
  4 -10.998413 -14.857681 -4.190231 -0.977486 0.029000 -0.208997 0.203187 0.297619
CSO_Hammer_256.bmp
  4 -10.998413 -14.857681 -4.190231 -0.977486 0.029000 -0.208997 0.203187 0.297619
  4 -11.000817 -12.620666 -3.868739 -0.977486 0.029000 -0.208997 0.203187 0.503968
  4 -10.312892 -14.717714 -5.159029 -0.542005 0.119001 -0.831907 0.298805 0.297619
CSO_Hammer_256.bmp
  4 -11.000817 -12.620666 -3.868739 -0.977486 0.029000 -0.208997 0.203187 0.503968
  4 -10.315296 -12.480699 -4.837538 -0.542005 0.119001 -0.831907 0.298805 0.503968
  4 -10.312892 -14.717714 -5.159029 -0.542005 0.119001 -0.831907 0.298805 0.297619
CSO_Hammer_256.bmp
  4 -10.312892 -14.717714 -5.159029 -0.542005 0.119001 -0.831907 0.298805 0.297619
  4 -10.315296 -12.480699 -4.837538 -0.542005 0.119001 -0.831907 0.298805 0.503968
  4 -9.132360 -14.685848 -5.371933 0.211002 0.139301 -0.967509 0.390438 0.297619
CSO_Hammer_256.bmp
  4 -10.315296 -12.480699 -4.837538 -0.542005 0.119001 -0.831907 0.298805 0.503968
  4 -9.134764 -12.448833 -5.050441 0.211002 0.139301 -0.967509 0.390438 0.503968
  4 -9.132360 -14.685848 -5.371933 0.211002 0.139301 -0.967509 0.390438 0.297619
CSO_Hammer_256.bmp
  4 -9.132360 -14.685848 -5.371933 0.211002 0.139301 -0.967509 0.390438 0.297619
  4 -9.134764 -12.448833 -5.050441 0.211002 0.139301 -0.967509 0.390438 0.503968
  4 -8.145460 -14.780672 -4.704747 0.840366 0.077997 -0.536378 0.482072 0.297619
CSO_Hammer_256.bmp
  4 -9.134764 -12.448833 -5.050441 0.211002 0.139301 -0.967509 0.390438 0.503968
  4 -8.147864 -12.543657 -4.383256 0.840366 0.077997 -0.536378 0.482072 0.503968
  4 -8.145460 -14.780672 -4.704747 0.840366 0.077997 -0.536378 0.482072 0.297619
CSO_Hammer_256.bmp
  4 -8.145460 -14.780672 -4.704747 0.840366 0.077997 -0.536378 0.482072 0.297619
  4 -8.147864 -12.543657 -4.383256 0.840366 0.077997 -0.536378 0.482072 0.503968
  4 -7.928395 -14.949777 -3.526449 0.977486 -0.029000 0.208997 0.573705 0.297619
CSO_Hammer_256.bmp
  4 -8.147864 -12.543657 -4.383256 0.840366 0.077997 -0.536378 0.482072 0.503968
  4 -7.930799 -12.712762 -3.204958 0.977486 -0.029000 0.208997 0.573705 0.503968
  4 -7.928395 -14.949777 -3.526449 0.977486 -0.029000 0.208997 0.573705 0.297619
CSO_Hammer_256.bmp
  4 -7.712737 -10.035928 -2.778806 0.790707 0.557605 0.252702 0.573705 0.750000
  4 -7.960298 -9.843064 -4.122650 0.679708 0.644208 -0.350704 0.482072 0.750000
  4 -8.151087 -9.544473 -3.952229 0.679708 0.644208 -0.350704 0.482072 0.789683
CSO_Hammer_256.bmp
  4 -8.151087 -9.544473 -3.952229 0.679708 0.644208 -0.350704 0.482072 0.789683
  4 -7.960298 -9.843064 -4.122650 0.679708 0.644208 -0.350704 0.482072 0.750000
  4 -9.137987 -9.449649 -4.619414 0.170208 0.693832 -0.699733 0.390438 0.789683
CSO_Hammer_256.bmp
  4 -7.960298 -9.843064 -4.122650 0.679708 0.644208 -0.350704 0.482072 0.750000
  4 -9.088573 -9.733258 -4.895139 0.170208 0.693832 -0.699733 0.390438 0.750000
  4 -9.137987 -9.449649 -4.619414 0.170208 0.693832 -0.699733 0.390438 0.789683
CSO_Hammer_256.bmp
  4 -9.137987 -9.449649 -4.619414 0.170208 0.693832 -0.699733 0.390438 0.789683
  4 -9.088573 -9.733258 -4.895139 0.170208 0.693832 -0.699733 0.390438 0.750000
  4 -10.318519 -9.481515 -4.406511 -0.439390 0.677385 -0.589987 0.298805 0.789683
CSO_Hammer_256.bmp
  4 -9.088573 -9.733258 -4.895139 0.170208 0.693832 -0.699733 0.390438 0.750000
  4 -10.446185 -9.769904 -4.650300 -0.439390 0.677385 -0.589987 0.298805 0.750000
  4 -10.318519 -9.481515 -4.406511 -0.439390 0.677385 -0.589987 0.298805 0.789683
CSO_Hammer_256.bmp
  4 -10.318519 -9.481515 -4.406511 -0.439390 0.677385 -0.589987 0.298805 0.789683
  4 -10.446185 -9.769904 -4.650300 -0.439390 0.677385 -0.589987 0.298805 0.750000
  4 -11.004040 -9.621482 -3.437712 -0.791903 0.604603 -0.085700 0.203187 0.789683
CSO_Hammer_256.bmp
  4 -10.446185 -9.769904 -4.650300 -0.439390 0.677385 -0.589987 0.298805 0.750000
  4 -11.236276 -9.931492 -3.531843 -0.791903 0.604603 -0.085700 0.203187 0.750000
  4 -11.004040 -9.621482 -3.437712 -0.791903 0.604603 -0.085700 0.203187 0.789683
CSO_Hammer_256.bmp
  4 -11.004040 -9.621482 -3.437712 -0.791903 0.604603 -0.085700 0.203187 0.789683
  4 -11.236276 -9.931492 -3.531843 -0.791903 0.604603 -0.085700 0.203187 0.750000
  4 -10.786975 -9.790587 -2.259414 -0.680913 0.518010 0.517710 0.111554 0.789683
CSO_Hammer_256.bmp
  4 -11.236276 -9.931492 -3.531843 -0.791903 0.604603 -0.085700 0.203187 0.750000
  4 -10.988714 -10.124356 -2.187999 -0.680913 0.518010 0.517710 0.111554 0.750000
  4 -10.786975 -9.790587 -2.259414 -0.680913 0.518010 0.517710 0.111554 0.789683
CSO_Hammer_256.bmp
  4 -10.986172 -12.490049 -2.527984 -0.680305 -0.643305 0.351203 0.111554 0.539683
  4 -11.233734 -12.297185 -3.871828 -0.791410 -0.556607 -0.252703 0.203187 0.539683
  4 -11.000817 -12.620666 -3.868739 -0.791410 -0.556607 -0.252703 0.203187 0.503968
CSO_Hammer_256.bmp
  4 -11.000817 -12.620666 -3.868739 -0.791410 -0.556607 -0.252703 0.203187 0.503968
  4 -11.233734 -12.297185 -3.871828 -0.791410 -0.556607 -0.252703 0.203187 0.539683
  4 -10.315296 -12.480699 -4.837538 -0.438521 -0.483724 -0.757437 0.298805 0.503968
CSO_Hammer_256.bmp
  4 -11.233734 -12.297185 -3.871828 -0.791410 -0.556607 -0.252703 0.203187 0.539683
  4 -10.443643 -12.135597 -4.990285 -0.438521 -0.483724 -0.757437 0.298805 0.539683
  4 -10.315296 -12.480699 -4.837538 -0.438521 -0.483724 -0.757437 0.298805 0.503968
CSO_Hammer_256.bmp
  4 -10.315296 -12.480699 -4.837538 -0.438521 -0.483724 -0.757437 0.298805 0.503968
  4 -10.443643 -12.135597 -4.990285 -0.438521 -0.483724 -0.757437 0.298805 0.539683
  4 -9.134764 -12.448833 -5.050441 0.171598 -0.467294 -0.867289 0.390438 0.503968
CSO_Hammer_256.bmp
  4 -10.443643 -12.135597 -4.990285 -0.438521 -0.483724 -0.757437 0.298805 0.539683
  4 -9.086031 -12.098951 -5.235124 0.171598 -0.467294 -0.867289 0.390438 0.539683
  4 -9.134764 -12.448833 -5.050441 0.171598 -0.467294 -0.867289 0.390438 0.503968
CSO_Hammer_256.bmp
  4 -9.134764 -12.448833 -5.050441 0.171598 -0.467294 -0.867289 0.390438 0.503968
  4 -9.086031 -12.098951 -5.235124 0.171598 -0.467294 -0.867289 0.390438 0.539683
  4 -8.147864 -12.543657 -4.383256 0.681516 -0.516913 -0.518012 0.482072 0.503968
CSO_Hammer_256.bmp
  4 -9.086031 -12.098951 -5.235124 0.171598 -0.467294 -0.867289 0.390438 0.539683
  4 -7.957756 -12.208757 -4.462635 0.681516 -0.516913 -0.518012 0.482072 0.539683
  4 -8.147864 -12.543657 -4.383256 0.681516 -0.516913 -0.518012 0.482072 0.503968
CSO_Hammer_256.bmp
  4 -8.147864 -12.543657 -4.383256 0.681516 -0.516913 -0.518012 0.482072 0.503968
  4 -7.957756 -12.208757 -4.462635 0.681516 -0.516913 -0.518012 0.482072 0.539683
  4 -7.930799 -12.712762 -3.204958 0.792629 -0.603622 0.085903 0.573705 0.503968
CSO_Hammer_256.bmp
  4 -7.957756 -12.208757 -4.462635 0.681516 -0.516913 -0.518012 0.482072 0.539683
  4 -7.710194 -12.401621 -3.118791 0.792629 -0.603622 0.085903 0.573705 0.539683
  4 -7.930799 -12.712762 -3.204958 0.792629 -0.603622 0.085903 0.573705 0.503968
CSO_Hammer_256.bmp
  4 4.482242 -10.684359 -6.330163 -0.179399 0.139799 -0.973793 0.095618 0.575397
  4 4.506995 -10.367383 -6.145465 -0.127603 0.798721 -0.588015 0.075697 0.575397
  4 12.372133 -10.471388 -7.753068 -0.179399 0.139799 -0.973793 0.095618 0.000000
CSO_Hammer_256.bmp
  4 12.372133 -10.471388 -7.753068 -0.179399 0.139799 -0.973793 0.095618 0.000000
  4 4.506995 -10.367383 -6.145465 -0.127603 0.798721 -0.588015 0.075697 0.575397
  4 12.396886 -10.154412 -7.568370 -0.127603 0.798721 -0.588015 0.075697 0.000000
CSO_Hammer_256.bmp
  4 4.506995 -10.367383 -6.145465 -0.127603 0.798721 -0.588015 0.075697 0.575397
  4 4.567840 -10.276324 -5.794458 -0.001100 0.989823 0.142303 0.047809 0.575397
  4 12.396886 -10.154412 -7.568370 -0.127603 0.798721 -0.588015 0.075697 0.000000
CSO_Hammer_256.bmp
  4 12.396886 -10.154412 -7.568370 -0.127603 0.798721 -0.588015 0.075697 0.000000
  4 4.567840 -10.276324 -5.794458 -0.001100 0.989823 0.142303 0.047809 0.575397
  4 12.457731 -10.063353 -7.217362 -0.001100 0.989823 0.142303 0.047809 0.000000
CSO_Hammer_256.bmp
  4 4.567840 -10.276324 -5.794458 -0.001100 0.989823 0.142303 0.047809 0.575397
  4 4.627189 -10.461020 -5.493019 0.126096 0.601082 0.789177 0.023904 0.575397
  4 12.457731 -10.063353 -7.217362 -0.001100 0.989823 0.142303 0.047809 0.000000
CSO_Hammer_256.bmp
  4 12.457731 -10.063353 -7.217362 -0.001100 0.989823 0.142303 0.047809 0.000000
  4 4.627189 -10.461020 -5.493019 0.126096 0.601082 0.789177 0.023904 0.575397
  4 12.517079 -10.248049 -6.915924 0.126096 0.601082 0.789177 0.023904 0.000000
CSO_Hammer_256.bmp
  4 4.627189 -10.461020 -5.493019 0.126096 0.601082 0.789177 0.023904 0.575397
  4 4.652665 -10.817128 -5.405053 0.179399 -0.139799 0.973793 0.000000 0.575397
  4 12.517079 -10.248049 -6.915924 0.126096 0.601082 0.789177 0.023904 0.000000
CSO_Hammer_256.bmp
  4 12.517079 -10.248049 -6.915924 0.126096 0.601082 0.789177 0.023904 0.000000
  4 4.652665 -10.817128 -5.405053 0.179399 -0.139799 0.973793 0.000000 0.575397
  4 12.542556 -10.604157 -6.827958 0.179399 -0.139799 0.973793 0.000000 0.000000
CSO_Hammer_256.bmp
  4 12.372133 -10.471388 -7.753068 -0.179399 0.139799 -0.973793 0.095618 0.000000
  4 12.397599 -10.817598 -7.663679 -0.126096 -0.601082 -0.789177 0.075697 0.000000
  4 4.482242 -10.684359 -6.330163 -0.179399 0.139799 -0.973793 0.095618 0.575397
CSO_Hammer_256.bmp
  4 4.482242 -10.684359 -6.330163 -0.179399 0.139799 -0.973793 0.095618 0.575397
  4 12.397599 -10.817598 -7.663679 -0.126096 -0.601082 -0.789177 0.075697 0.000000
  4 4.507708 -11.030569 -6.240775 -0.126096 -0.601082 -0.789177 0.075697 0.575397
CSO_Hammer_256.bmp
  4 12.397599 -10.817598 -7.663679 -0.126096 -0.601082 -0.789177 0.075697 0.000000
  4 12.458741 -11.003692 -7.352503 0.001100 -0.989823 -0.142303 0.047809 0.000000
  4 4.507708 -11.030569 -6.240775 -0.126096 -0.601082 -0.789177 0.075697 0.575397
CSO_Hammer_256.bmp
  4 4.507708 -11.030569 -6.240775 -0.126096 -0.601082 -0.789177 0.075697 0.575397
  4 12.458741 -11.003692 -7.352503 0.001100 -0.989823 -0.142303 0.047809 0.000000
  4 4.568851 -11.216662 -5.929598 0.001100 -0.989823 -0.142303 0.047809 0.575397
CSO_Hammer_256.bmp
  4 12.458741 -11.003692 -7.352503 0.001100 -0.989823 -0.142303 0.047809 0.000000
  4 12.517792 -10.911235 -7.011233 0.127603 -0.798721 0.588015 0.023904 0.000000
  4 4.568851 -11.216662 -5.929598 0.001100 -0.989823 -0.142303 0.047809 0.575397
CSO_Hammer_256.bmp
  4 4.568851 -11.216662 -5.929598 0.001100 -0.989823 -0.142303 0.047809 0.575397
  4 12.517792 -10.911235 -7.011233 0.127603 -0.798721 0.588015 0.023904 0.000000
  4 4.627901 -11.124206 -5.588329 0.127603 -0.798721 0.588015 0.023904 0.575397
CSO_Hammer_256.bmp
  4 12.517792 -10.911235 -7.011233 0.127603 -0.798721 0.588015 0.023904 0.000000
  4 12.542556 -10.604157 -6.827958 0.179399 -0.139799 0.973793 0.000000 0.000000
  4 4.627901 -11.124206 -5.588329 0.127603 -0.798721 0.588015 0.023904 0.575397
CSO_Hammer_256.bmp
  4 4.627901 -11.124206 -5.588329 0.127603 -0.798721 0.588015 0.023904 0.575397
  4 12.542556 -10.604157 -6.827958 0.179399 -0.139799 0.973793 0.000000 0.000000
  4 4.652665 -10.817128 -5.405053 0.179399 -0.139799 0.973793 0.000000 0.575397
CSO_Hammer_256.bmp
  4 -10.986172 -12.490049 -2.527984 -0.840366 -0.077997 0.536378 0.370518 0.003968
  4 -9.846266 -12.600986 -1.747531 -0.211002 -0.139301 0.967509 0.370518 0.095238
  4 -9.848808 -10.235293 -1.407546 -0.211002 -0.139301 0.967509 0.585657 0.095238
CSO_Hammer_256.bmp
  4 -9.848808 -10.235293 -1.407546 -0.211002 -0.139301 0.967509 0.585657 0.095238
  4 -9.846266 -12.600986 -1.747531 -0.211002 -0.139301 0.967509 0.370518 0.095238
  4 -8.491195 -10.198647 -1.652385 0.542005 -0.119001 0.831907 0.585657 0.190476
CSO_Hammer_256.bmp
  4 -9.846266 -12.600986 -1.747531 -0.211002 -0.139301 0.967509 0.370518 0.095238
  4 -8.488653 -12.564340 -1.992370 0.542005 -0.119001 0.831907 0.370518 0.190476
  4 -8.491195 -10.198647 -1.652385 0.542005 -0.119001 0.831907 0.585657 0.190476
CSO_Hammer_256.bmp
  4 -8.491195 -10.198647 -1.652385 0.542005 -0.119001 0.831907 0.585657 0.190476
  4 -8.488653 -12.564340 -1.992370 0.542005 -0.119001 0.831907 0.370518 0.190476
  4 -7.712737 -10.035928 -2.778806 0.977486 -0.029000 0.208997 0.585657 0.285714
CSO_Hammer_256.bmp
  4 -8.488653 -12.564340 -1.992370 0.542005 -0.119001 0.831907 0.370518 0.190476
  4 -7.710194 -12.401621 -3.118791 0.977486 -0.029000 0.208997 0.370518 0.285714
  4 -7.712737 -10.035928 -2.778806 0.977486 -0.029000 0.208997 0.585657 0.285714
CSO_Hammer_256.bmp
  4 -10.786975 -9.790587 -2.259414 -0.840366 -0.077997 0.536378 0.629482 0.003968
  4 -9.798281 -9.886809 -1.582491 -0.211002 -0.139301 0.967509 0.629482 0.095238
  4 -9.800674 -7.659692 -1.262422 -0.211002 -0.139301 0.967509 0.848606 0.095238
CSO_Hammer_256.bmp
  4 -9.800674 -7.659692 -1.262422 -0.211002 -0.139301 0.967509 0.848606 0.095238
  4 -9.798281 -9.886809 -1.582491 -0.211002 -0.139301 0.967509 0.629482 0.095238
  4 -8.620142 -7.627826 -1.475325 0.542005 -0.119001 0.831907 0.848606 0.190476
CSO_Hammer_256.bmp
  4 -9.798281 -9.886809 -1.582491 -0.211002 -0.139301 0.967509 0.629482 0.095238
  4 -8.617748 -9.854943 -1.795394 0.542005 -0.119001 0.831907 0.629482 0.190476
  4 -8.620142 -7.627826 -1.475325 0.542005 -0.119001 0.831907 0.848606 0.190476
CSO_Hammer_256.bmp
  4 -8.620142 -7.627826 -1.475325 0.542005 -0.119001 0.831907 0.848606 0.190476
  4 -8.617748 -9.854943 -1.795394 0.542005 -0.119001 0.831907 0.629482 0.190476
  4 -7.936415 -7.486461 -2.453861 0.977486 -0.029000 0.208997 0.848606 0.285714
CSO_Hammer_256.bmp
  4 -8.617748 -9.854943 -1.795394 0.542005 -0.119001 0.831907 0.629482 0.190476
  4 -7.934022 -9.713578 -2.773931 0.977486 -0.029000 0.208997 0.629482 0.285714
  4 -7.936415 -7.486461 -2.453861 0.977486 -0.029000 0.208997 0.848606 0.285714
CSO_Hammer_256.bmp
  4 -10.781348 -15.026787 -3.011933 -0.840366 -0.077997 0.536378 0.119522 0.003968
  4 -9.792654 -15.123008 -2.335010 -0.211002 -0.139301 0.967509 0.119522 0.095238
  4 -9.795058 -12.885993 -2.013518 -0.211002 -0.139301 0.967509 0.334661 0.095238
CSO_Hammer_256.bmp
  4 -9.795058 -12.885993 -2.013518 -0.211002 -0.139301 0.967509 0.334661 0.095238
  4 -9.792654 -15.123008 -2.335010 -0.211002 -0.139301 0.967509 0.119522 0.095238
  4 -8.614525 -12.854127 -2.226421 0.542005 -0.119001 0.831907 0.334661 0.190476
CSO_Hammer_256.bmp
  4 -9.792654 -15.123008 -2.335010 -0.211002 -0.139301 0.967509 0.119522 0.095238
  4 -8.612121 -15.091142 -2.547913 0.542005 -0.119001 0.831907 0.119522 0.190476
  4 -8.614525 -12.854127 -2.226421 0.542005 -0.119001 0.831907 0.334661 0.190476
CSO_Hammer_256.bmp
  4 -8.614525 -12.854127 -2.226421 0.542005 -0.119001 0.831907 0.334661 0.190476
  4 -8.612121 -15.091142 -2.547913 0.542005 -0.119001 0.831907 0.119522 0.190476
  4 -7.930799 -12.712762 -3.204958 0.977486 -0.029000 0.208997 0.334661 0.285714
CSO_Hammer_256.bmp
  4 -8.612121 -15.091142 -2.547913 0.542005 -0.119001 0.831907 0.119522 0.190476
  4 -7.928395 -14.949777 -3.526449 0.977486 -0.029000 0.208997 0.119522 0.285714
  4 -7.930799 -12.712762 -3.204958 0.977486 -0.029000 0.208997 0.334661 0.285714
CSO_Hammer_256.bmp
  4 -7.934022 -9.713578 -2.773931 0.790707 0.557605 0.252702 0.629482 0.285714
  4 -8.617748 -9.854943 -1.795394 0.438178 0.484776 0.756962 0.629482 0.190476
  4 -8.491195 -10.198647 -1.652385 0.438178 0.484776 0.756962 0.585657 0.190476
CSO_Hammer_256.bmp
  4 -8.491195 -10.198647 -1.652385 0.438178 0.484776 0.756962 0.585657 0.190476
  4 -8.617748 -9.854943 -1.795394 0.438178 0.484776 0.756962 0.629482 0.190476
  4 -9.848808 -10.235293 -1.407546 -0.171398 0.468294 0.866789 0.585657 0.095238
CSO_Hammer_256.bmp
  4 -8.617748 -9.854943 -1.795394 0.438178 0.484776 0.756962 0.629482 0.190476
  4 -9.798281 -9.886809 -1.582491 -0.171398 0.468294 0.866789 0.629482 0.095238
  4 -9.848808 -10.235293 -1.407546 -0.171398 0.468294 0.866789 0.585657 0.095238
CSO_Hammer_256.bmp
  4 -9.848808 -10.235293 -1.407546 -0.171398 0.468294 0.866789 0.585657 0.095238
  4 -9.798281 -9.886809 -1.582491 -0.171398 0.468294 0.866789 0.629482 0.095238
  4 -10.988714 -10.124356 -2.187999 -0.680913 0.518010 0.517710 0.585657 0.003968
CSO_Hammer_256.bmp
  4 -9.798281 -9.886809 -1.582491 -0.171398 0.468294 0.866789 0.629482 0.095238
  4 -10.786975 -9.790587 -2.259414 -0.680913 0.518010 0.517710 0.629482 0.003968
  4 -10.988714 -10.124356 -2.187999 -0.680913 0.518010 0.517710 0.585657 0.003968
CSO_Hammer_256.bmp
  4 -10.783752 -12.789772 -2.690441 -0.680305 -0.643305 0.351203 0.334661 0.003968
  4 -9.795058 -12.885993 -2.013518 -0.170292 -0.692968 0.700568 0.334661 0.095238
  4 -9.846266 -12.600986 -1.747531 -0.170292 -0.692968 0.700568 0.370518 0.095238
CSO_Hammer_256.bmp
  4 -9.846266 -12.600986 -1.747531 -0.170292 -0.692968 0.700568 0.370518 0.095238
  4 -9.795058 -12.885993 -2.013518 -0.170292 -0.692968 0.700568 0.334661 0.095238
  4 -8.488653 -12.564340 -1.992370 0.439799 -0.676499 0.590699 0.370518 0.190476
CSO_Hammer_256.bmp
  4 -9.795058 -12.885993 -2.013518 -0.170292 -0.692968 0.700568 0.334661 0.095238
  4 -8.614525 -12.854127 -2.226421 0.439799 -0.676499 0.590699 0.334661 0.190476
  4 -8.488653 -12.564340 -1.992370 0.439799 -0.676499 0.590699 0.370518 0.190476
CSO_Hammer_256.bmp
  4 -8.488653 -12.564340 -1.992370 0.439799 -0.676499 0.590699 0.370518 0.190476
  4 -8.614525 -12.854127 -2.226421 0.439799 -0.676499 0.590699 0.334661 0.190476
  4 -7.710194 -12.401621 -3.118791 0.792629 -0.603622 0.085903 0.370518 0.285714
CSO_Hammer_256.bmp
  4 -8.614525 -12.854127 -2.226421 0.439799 -0.676499 0.590699 0.334661 0.190476
  4 -7.930799 -12.712762 -3.204958 0.792629 -0.603622 0.085903 0.334661 0.285714
  4 -7.710194 -12.401621 -3.118791 0.792629 -0.603622 0.085903 0.370518 0.285714
CSO_Hammer_256.bmp
  4 12.517792 -10.911235 -7.011233 0.983780 0.026599 -0.177396 0.752988 0.321429
  4 12.458741 -11.003692 -7.352503 0.983780 0.026599 -0.177396 0.733068 0.365079
  4 12.542556 -10.604157 -6.827958 0.983780 0.026599 -0.177396 0.796813 0.305556
CSO_Hammer_256.bmp
  4 12.542556 -10.604157 -6.827958 0.983780 0.026599 -0.177396 0.796813 0.305556
  4 12.458741 -11.003692 -7.352503 0.983780 0.026599 -0.177396 0.733068 0.365079
  4 12.457731 -10.063353 -7.217362 0.983780 0.026599 -0.177396 0.856574 0.365079
CSO_Hammer_256.bmp
  4 12.458741 -11.003692 -7.352503 0.983780 0.026599 -0.177396 0.733068 0.365079
  4 12.372133 -10.471388 -7.753068 0.983780 0.026599 -0.177396 0.796813 0.424603
  4 12.457731 -10.063353 -7.217362 0.983780 0.026599 -0.177396 0.856574 0.365079
CSO_Hammer_256.bmp
  4 12.457731 -10.063353 -7.217362 0.983780 0.026599 -0.177396 0.856574 0.365079
  4 12.372133 -10.471388 -7.753068 0.983780 0.026599 -0.177396 0.796813 0.424603
  4 12.396886 -10.154412 -7.568370 0.983780 0.026599 -0.177396 0.840637 0.408730
CSO_Hammer_256.bmp
  4 -11.370977 -11.084809 -3.662280 -0.983780 -0.026599 0.177396 0.681275 0.571429
  4 -11.336403 -11.566685 -3.542694 -0.983780 -0.026599 0.177396 0.625498 0.547619
  4 -11.337392 -10.646143 -3.410399 -0.983780 -0.026599 0.177396 0.741036 0.547619
CSO_Hammer_256.bmp
  4 -11.337392 -10.646143 -3.410399 -0.983780 -0.026599 0.177396 0.741036 0.547619
  4 -11.336403 -11.566685 -3.542694 -0.983780 -0.026599 0.177396 0.625498 0.547619
  4 -11.166969 -10.778912 -2.485289 -0.983780 -0.026599 0.177396 0.741036 0.428571
CSO_Hammer_256.bmp
  4 -11.336403 -11.566685 -3.542694 -0.983780 -0.026599 0.177396 0.625498 0.547619
  4 -11.165980 -11.699454 -2.617584 -0.983780 -0.026599 0.177396 0.625498 0.428571
  4 -11.166969 -10.778912 -2.485289 -0.983780 -0.026599 0.177396 0.741036 0.428571
CSO_Hammer_256.bmp
  4 -11.166969 -10.778912 -2.485289 -0.983780 -0.026599 0.177396 0.741036 0.428571
  4 -11.165980 -11.699454 -2.617584 -0.983780 -0.026599 0.177396 0.625498 0.428571
  4 -11.130591 -11.272083 -2.357388 -0.983780 -0.026599 0.177396 0.681275 0.404762
CSO_Hammer_256.bmp
  4 -8.694310 -15.223042 -2.685200 0.001100 -0.989823 -0.142303 0.601594 0.710317
  4 -9.766626 -15.251987 -2.491813 0.001100 -0.989823 -0.142303 0.601594 0.869048
  4 -8.066890 -15.093319 -3.583151 0.001100 -0.989823 -0.142303 0.713147 0.603175
CSO_Hammer_256.bmp
  4 -8.066890 -15.093319 -3.583151 0.001100 -0.989823 -0.142303 0.713147 0.603175
  4 -9.766626 -15.251987 -2.491813 0.001100 -0.989823 -0.142303 0.601594 0.869048
  4 -9.169700 -14.852687 -5.265770 0.001100 -0.989823 -0.142303 0.980080 0.710317
CSO_Hammer_256.bmp
  4 -9.766626 -15.251987 -2.491813 0.001100 -0.989823 -0.142303 0.601594 0.869048
  4 -10.861393 -15.009692 -4.185943 0.001100 -0.989823 -0.142303 0.868526 0.976190
  4 -9.169700 -14.852687 -5.265770 0.001100 -0.989823 -0.142303 0.980080 0.710317
CSO_Hammer_256.bmp
  4 -9.169700 -14.852687 -5.265770 0.001100 -0.989823 -0.142303 0.980080 0.710317
  4 -10.861393 -15.009692 -4.185943 0.001100 -0.989823 -0.142303 0.868526 0.976190
  4 -10.242017 -14.881632 -5.072382 0.001100 -0.989823 -0.142303 0.980080 0.869048
CSO_Hammer_256.bmp
  4 -10.869743 -7.239528 -3.069257 -0.001100 0.989823 0.142303 0.868526 0.976190
  4 -10.672411 -7.393260 -1.998077 -0.001100 0.989823 0.142303 0.713147 0.976190
  4 -10.250367 -7.111468 -3.955696 -0.001100 0.989823 0.142303 0.980080 0.869048
CSO_Hammer_256.bmp
  4 -10.250367 -7.111468 -3.955696 -0.001100 0.989823 0.142303 0.980080 0.869048
  4 -10.672411 -7.393260 -1.998077 -0.001100 0.989823 0.142303 0.713147 0.976190
  4 -8.272571 -7.169423 -3.537644 -0.001100 0.989823 0.142303 0.868526 0.603175
CSO_Hammer_256.bmp
  4 -10.672411 -7.393260 -1.998077 -0.001100 0.989823 0.142303 0.713147 0.976190
  4 -8.702659 -7.452878 -1.568513 -0.001100 0.989823 0.142303 0.601594 0.710317
  4 -8.272571 -7.169423 -3.537644 -0.001100 0.989823 0.142303 0.868526 0.603175
CSO_Hammer_256.bmp
  4 -8.272571 -7.169423 -3.537644 -0.001100 0.989823 0.142303 0.868526 0.603175
  4 -8.702659 -7.452878 -1.568513 -0.001100 0.989823 0.142303 0.601594 0.710317
  4 -8.075240 -7.323155 -2.466464 -0.001100 0.989823 0.142303 0.713147 0.603175
CSO_Hammer_256.bmp
  4 12.372133 -10.471388 -7.753068 0.983780 0.026599 -0.177396 0.796813 0.424603
  4 12.458741 -11.003692 -7.352503 0.983780 0.026599 -0.177396 0.733068 0.365079
  4 12.397599 -10.817598 -7.663679 0.983780 0.026599 -0.177396 0.752988 0.408730
CSO_Hammer_256.bmp
  4 12.457731 -10.063353 -7.217362 0.983780 0.026599 -0.177396 0.856574 0.365079
  4 12.517079 -10.248049 -6.915924 0.983780 0.026599 -0.177396 0.840637 0.321429
  4 12.542556 -10.604157 -6.827958 0.983780 0.026599 -0.177396 0.796813 0.305556
CSO_Hammer_256.bmp
  4 -11.165980 -11.699454 -2.617584 -0.983780 -0.026599 0.177396 0.625498 0.428571
  4 -11.336403 -11.566685 -3.542694 -0.983780 -0.026599 0.177396 0.625498 0.547619
  4 -11.250082 -11.831734 -3.103721 -0.983780 -0.026599 0.177396 0.597610 0.488095
CSO_Hammer_256.bmp
  4 -11.166969 -10.778912 -2.485289 -0.983780 -0.026599 0.177396 0.741036 0.428571
  4 -11.251496 -10.515260 -2.914524 -0.983780 -0.026599 0.177396 0.764940 0.488095
  4 -11.337392 -10.646143 -3.410399 -0.983780 -0.026599 0.177396 0.741036 0.547619
CSO_Hammer_256.bmp
  4 -11.370977 -11.084809 -3.662280 0.320100 0.135100 -0.937701 0.095618 1.000000
  4 -10.967817 -10.785093 -3.354657 0.139302 0.776910 -0.614008 0.075697 0.948413
  4 -10.992570 -11.102069 -3.539355 0.089396 0.141793 -0.985851 0.095618 0.948413
CSO_Hammer_256.bmp
  4 -10.988714 -10.124356 -2.187999 -0.840366 -0.077997 0.536378 0.111554 0.750000
  4 -11.233734 -12.297185 -3.871828 -0.977486 0.029000 -0.208997 0.203187 0.539683
  4 -10.986172 -12.490049 -2.527984 -0.840366 -0.077997 0.536378 0.111554 0.539683
CSO_Hammer_256.bmp
  4 -10.986172 -12.490049 -2.527984 -0.840366 -0.077997 0.536378 0.370518 0.003968
  4 -9.848808 -10.235293 -1.407546 -0.211002 -0.139301 0.967509 0.585657 0.095238
  4 -10.988714 -10.124356 -2.187999 -0.840366 -0.077997 0.536378 0.585657 0.003968
CSO_Hammer_256.bmp
  4 -10.861393 -15.009692 -4.185943 0.001100 -0.989823 -0.142303 0.868526 0.976190
  4 -9.766626 -15.251987 -2.491813 0.001100 -0.989823 -0.142303 0.601594 0.869048
  4 -10.664061 -15.163424 -3.114763 0.001100 -0.989823 -0.142303 0.713147 0.976190
CSO_Hammer_256.bmp
  4 -9.169700 -14.852687 -5.265770 0.001100 -0.989823 -0.142303 0.980080 0.710317
  4 -8.264222 -14.939587 -4.654331 0.001100 -0.989823 -0.142303 0.868526 0.603175
  4 -8.066890 -15.093319 -3.583151 0.001100 -0.989823 -0.142303 0.713147 0.603175
CSO_Hammer_256.bmp
  4 -8.702659 -7.452878 -1.568513 -0.001100 0.989823 0.142303 0.601594 0.710317
  4 -10.672411 -7.393260 -1.998077 -0.001100 0.989823 0.142303 0.713147 0.976190
  4 -9.774976 -7.481823 -1.375126 -0.001100 0.989823 0.142303 0.601594 0.869048
CSO_Hammer_256.bmp
  4 -8.272571 -7.169423 -3.537644 -0.001100 0.989823 0.142303 0.868526 0.603175
  4 -9.178050 -7.082523 -4.149083 -0.001100 0.989823 0.142303 0.980080 0.710317
  4 -10.250367 -7.111468 -3.955696 -0.001100 0.989823 0.142303 0.980080 0.869048
CSO_Hammer_256.bmp
  4 -10.789368 -7.563471 -1.939345 -0.840366 -0.077997 0.536378 0.111554 1.000000
  4 -11.004040 -9.621482 -3.437712 -0.977486 0.029000 -0.208997 0.203187 0.789683
  4 -10.786975 -9.790587 -2.259414 -0.840366 -0.077997 0.536378 0.111554 0.789683
CSO_Hammer_256.bmp
  4 -10.783752 -12.789772 -2.690441 -0.840366 -0.077997 0.536378 0.111554 0.503968
  4 -10.998413 -14.857681 -4.190231 -0.977486 0.029000 -0.208997 0.203187 0.297619
  4 -10.781348 -15.026787 -3.011933 -0.840366 -0.077997 0.536378 0.111554 0.297619
CSO_Hammer_256.bmp
  4 -10.786975 -9.790587 -2.259414 -0.840366 -0.077997 0.536378 0.629482 0.003968
  4 -9.800674 -7.659692 -1.262422 -0.211002 -0.139301 0.967509 0.848606 0.095238
  4 -10.789368 -7.563471 -1.939345 -0.840366 -0.077997 0.536378 0.848606 0.003968
CSO_Hammer_256.bmp
  4 -10.781348 -15.026787 -3.011933 -0.840366 -0.077997 0.536378 0.119522 0.003968
  4 -9.795058 -12.885993 -2.013518 -0.211002 -0.139301 0.967509 0.334661 0.095238
  4 -10.783752 -12.789772 -2.690441 -0.840366 -0.077997 0.536378 0.334661 0.003968
CSO_Hammer_256.bmp
  4 -7.712737 -10.035928 -2.778806 0.790707 0.557605 0.252702 0.573705 0.750000
  4 -8.151087 -9.544473 -3.952229 0.679708 0.644208 -0.350704 0.482072 0.789683
  4 -7.934022 -9.713578 -2.773931 0.790707 0.557605 0.252702 0.573705 0.789683
CSO_Hammer_256.bmp
  4 -7.934022 -9.713578 -2.773931 0.790707 0.557605 0.252702 0.629482 0.285714
  4 -8.491195 -10.198647 -1.652385 0.438178 0.484776 0.756962 0.585657 0.190476
  4 -7.712737 -10.035928 -2.778806 0.790707 0.557605 0.252702 0.585657 0.285714
CSO_Hammer_256.bmp
  4 -10.986172 -12.490049 -2.527984 -0.680305 -0.643305 0.351203 0.111554 0.539683
  4 -11.000817 -12.620666 -3.868739 -0.791410 -0.556607 -0.252703 0.203187 0.503968
  4 -10.783752 -12.789772 -2.690441 -0.680305 -0.643305 0.351203 0.111554 0.503968
CSO_Hammer_256.bmp
  4 -10.783752 -12.789772 -2.690441 -0.680305 -0.643305 0.351203 0.334661 0.003968
  4 -9.846266 -12.600986 -1.747531 -0.170292 -0.692968 0.700568 0.370518 0.095238
  4 -10.986172 -12.490049 -2.527984 -0.680305 -0.643305 0.351203 0.370518 0.003968
CSO_Hammer_256.bmp
  4 -10.992570 -11.102069 -3.539355 0.089396 0.141793 -0.985851 0.095618 0.948413
  4 4.506995 -10.367383 -6.145465 -0.127603 0.798721 -0.588015 0.075697 0.023810
  4 4.482242 -10.684359 -6.330163 -0.179399 0.139799 -0.973793 0.095618 0.023810
end
