// Created by Crowbar 0.56
version 1
nodes
  0 "root" -1
  1 "Bone01" 0
  2 "Bone_Lefthand" 1
  3 "Bone13" 2
  4 "Bone14" 3
  5 "Bone15" 4
  6 "ValveBiped.Bip01_L_Finger32" 5
  7 "ValveBiped.Bip01_L_Finger31" 4
  8 "ValveBiped.Bip01_L_Finger3" 3
  9 "Bone17" 2
  10 "Bone18" 9
  11 "Bone19" 10
  12 "ValveBiped.Bip01_L_Finger22" 11
  13 "ValveBiped.Bip01_L_Finger21" 10
  14 "ValveBiped.Bip01_L_Finger2" 9
  15 "Bone21" 2
  16 "Bone22" 15
  17 "Bone23" 16
  18 "ValveBiped.Bip01_L_Finger12" 17
  19 "ValveBiped.Bip01_L_Finger11" 16
  20 "ValveBiped.Bip01_L_Finger1" 15
  21 "Bone09" 2
  22 "Bone10" 21
  23 "Bone11" 22
  24 "ValveBiped.Bip01_L_Finger42" 23
  25 "ValveBiped.Bip01_L_Finger41" 22
  26 "ValveBiped.Bip01_L_Finger4" 21
  27 "Bone05" 2
  28 "Bone06" 27
  29 "Bone07" 28
  30 "ValveBiped.Bip01_L_Finger02" 29
  31 "ValveBiped.Bip01_L_Finger01" 28
  32 "ValveBiped.Bip01_L_Finger0" 27
  33 "ValveBiped.Bip01_L_Hand" 2
  34 "Bone_L_Upper" 1
  35 "ValveBiped.Bip01_L_UpperArm" 34
  36 "ValveBiped.Bip01_L_Forearm" 1
  37 "Bone04" 0
  38 "Bone_Righthand" 37
  39 "Bone39" 38
  40 "Bone40" 39
  41 "Bone41" 40
  42 "ValveBiped.Bip01_R_Finger32" 41
  43 "ValveBiped.Bip01_R_Finger31" 40
  44 "ValveBiped.Bip01_R_Finger3" 39
  45 "Bone35" 38
  46 "Bone36" 45
  47 "Bone37" 46
  48 "ValveBiped.Bip01_R_Finger22" 47
  49 "ValveBiped.Bip01_R_Finger21" 46
  50 "ValveBiped.Bip01_R_Finger2" 45
  51 "Bone31" 38
  52 "Bone32" 51
  53 "Bone33" 52
  54 "ValveBiped.Bip01_R_Finger12" 53
  55 "ValveBiped.Bip01_R_Finger11" 52
  56 "ValveBiped.Bip01_R_Finger1" 51
  57 "Bone43" 38
  58 "Bone44" 57
  59 "Bone45" 58
  60 "ValveBiped.Bip01_R_Finger42" 59
  61 "ValveBiped.Bip01_R_Finger41" 58
  62 "ValveBiped.Bip01_R_Finger4" 57
  63 "Bone27" 38
  64 "Bone28" 63
  65 "Bone29" 64
  66 "ValveBiped.Bip01_R_Finger02" 65
  67 "ValveBiped.Bip01_R_Finger01" 64
  68 "ValveBiped.Bip01_R_Finger0" 63
  69 "ValveBiped.Bip01_R_Hand" 38
  70 "Bone_R_Upper" 37
  71 "ValveBiped.Bip01_R_UpperArm" 70
  72 "ValveBiped.Bip01_R_Forearm" 37
  73 "Bone_Se_Hand-L" 2
  74 "Bone_Se_Hand-R" 38
  75 "phantom_2" -1
  76 "phantom_1" -1
  77 "phantom_11" -1
  78 "phantfx" 76
  79 "phantom_22" -1
  80 "phantfx02" 75
  81 "stab_fx_bone" -1
  82 "ligh_root" -1
  83 "fxlightning_3" 82
  84 "fxlightning_1" 82
  85 "fxlightning_2" 82
  86 "fxlightning_4" 82
  87 "line_root" -1
  88 "line03" 87
  89 "line04" 87
  90 "line01" 87
  91 "line02" 87
  92 "exefx01" 76
  93 "exefx02" 76
  94 "eyephentom02fx01" 75
  95 "eyephentom02fx" 75
end
skeleton
  time 0
    0 0.000000 1.629157 0.541027 0.000000 0.000000 0.000000
    1 9.310103 0.168160 -0.149879 3.138909 -0.000224 -1.566807
    2 -0.071920 -8.498734 -0.104137 -0.025046 0.287591 0.014898
    3 -0.488518 -2.755608 -0.228260 0.106453 0.010332 -0.264490
    4 0.039887 -1.479792 0.029853 -0.055394 -0.000001 -0.000002
    5 0.028789 -1.075737 -0.023109 0.002099 0.000000 0.000000
    6 0.007988 0.172182 -0.118553 -1.598091 -0.216549 -1.570593
    7 0.080660 0.135929 -0.203919 -1.506824 -0.066185 -1.662786
    8 0.117288 -0.155554 -0.604544 -1.412988 -0.374558 -1.569222
    9 0.250027 -2.820667 -0.238396 0.041826 -0.002921 0.008443
    10 -0.049760 -1.680544 0.100479 0.019826 0.000000 -0.000003
    11 -0.034142 -1.148317 0.084782 -0.040115 0.000000 0.000000
    12 -0.018589 0.129955 -0.123721 -1.294580 0.001302 -1.635383
    13 -0.006160 0.170065 -0.110169 -1.280084 -0.068681 -1.597215
    14 0.047100 -0.104074 -0.352264 -1.243368 -0.257298 -1.694346
    15 0.957766 -2.746782 -0.090302 -0.017220 -0.162277 0.191557
    16 -0.033419 -1.397131 -0.011256 0.013930 0.000000 0.000000
    17 -0.022361 -0.957438 0.018784 0.003845 0.000000 -0.000001
    18 -0.022325 0.045420 -0.038284 -1.125544 -0.129230 -1.681412
    19 -0.042900 -0.061274 -0.071212 -1.124462 -0.060454 -1.586099
    20 0.063741 -0.109104 -0.248158 -1.142813 -0.125805 -1.693583
    21 -1.180682 -2.507221 -0.193859 0.082998 0.013295 -0.477912
    22 -0.024971 -1.123932 0.017596 -0.018064 -0.000003 -0.000007
    23 -0.020051 -0.890970 0.010091 -0.060798 0.000001 0.000004
    24 -0.011721 0.093266 0.017949 -1.687855 -0.079155 -1.575164
    25 0.048862 -0.085539 0.028626 -1.715605 -0.034569 -1.653190
    26 0.173919 -0.198418 -0.336163 -1.668104 -0.422317 -1.710956
    27 0.583510 -1.197279 0.185379 0.158050 -0.404973 -0.364292
    28 1.535928 0.010252 0.005009 -0.002964 -0.012980 0.000892
    29 1.100770 0.004524 -0.010680 -0.002796 0.015973 0.003459
    30 -0.267709 0.037512 -0.093907 2.913812 -0.143386 0.078467
    31 -0.029266 0.205408 -0.329287 2.788574 -0.255486 -0.188917
    32 0.204373 0.521055 -0.268577 2.886669 0.042206 -0.230367
    33 0.195697 -0.010059 -0.293538 -1.333586 0.150863 -1.672749
    34 1.257181 8.762590 -0.153713 -1.570562 0.002683 -1.566808
    35 -0.093500 -0.114213 -0.738866 -1.570842 0.061811 0.002096
    36 0.010843 0.093625 -0.081439 -3.141463 0.041719 -1.568236
    37 -9.310107 -5.231259 -12.513384 -3.136609 -0.010027 1.574745
    38 0.096935 -8.450418 -0.009359 -0.032963 -0.297909 -0.004665
    39 0.447956 -2.798988 -0.200437 0.106457 -0.010396 0.265098
    40 -0.032911 -1.480202 0.004945 -0.055405 0.000001 -0.000004
    41 -0.027019 -1.076921 -0.020208 0.002095 -0.000002 -0.000001
    42 0.006928 0.005329 -0.181358 -1.528500 -0.248579 -1.611362
    43 -0.052313 0.038591 -0.230756 -1.592493 -0.043415 -1.528515
    44 -0.232601 -0.209654 -0.420669 -1.713790 -0.167173 -1.438930
    45 -0.249531 -2.846966 -0.174203 0.041904 -0.000125 -0.008397
    46 0.043239 -1.683939 0.096018 0.019757 0.002824 -0.000165
    47 0.031729 -1.160828 0.058844 -0.040183 0.000644 0.008371
    48 -0.038065 0.069168 -0.159885 -1.816986 0.066178 -1.575392
    49 -0.025151 0.088764 -0.068836 -1.817843 0.044510 -1.568287
    50 -0.102916 -0.186983 -0.272247 -1.833683 -0.232962 -1.472375
    51 -0.963863 -2.785145 -0.085340 -0.017228 0.162278 -0.191553
    52 0.028477 -1.403069 0.006275 0.013937 0.000003 -0.000002
    53 0.021413 -0.957781 0.020044 0.003850 0.000001 0.000001
    54 -0.004241 0.043707 -0.080204 -2.014997 -0.186996 -1.460723
    55 0.015383 -0.089136 -0.030010 -2.006083 0.036346 -1.568629
    56 -0.022610 -0.212355 -0.177906 -1.933161 -0.118801 -1.518895
    57 1.164478 -2.543936 -0.170326 0.083001 -0.013289 0.477914
    58 0.024034 -1.129042 0.017804 -0.018074 0.000004 0.000009
    59 0.014894 -0.883987 -0.019848 -0.060797 -0.000006 -0.000004
    60 -0.067138 0.063251 -0.010962 -0.899214 -0.014515 -1.600326
    61 -0.151180 -0.007393 -0.070065 -0.913061 -0.118819 -1.408558
    62 -0.178164 -0.244682 -0.357068 -1.159916 -0.384260 -1.556110
    63 -0.586769 -1.264473 0.200167 -0.152090 -0.410515 -2.814812
    64 1.522834 0.058674 0.016850 0.001405 0.008981 -0.046880
    65 1.117947 0.048422 -0.005766 -0.000243 -0.025198 0.065418
    66 -0.263409 -0.117640 -0.015660 0.000036 -0.082210 -0.026800
    67 0.007707 -0.334358 -0.191575 0.070788 -0.181563 0.282364
    68 0.225562 -0.567923 -0.420715 0.119895 -0.183798 0.223460
    69 -0.203683 -0.095655 -0.328306 -1.745077 0.075142 -1.515382
    70 -1.393460 8.839182 -0.239438 1.580804 -0.005024 -1.566848
    71 0.036020 0.082816 -0.692656 -1.570769 0.065989 0.001276
    72 -0.088586 0.054021 -0.088593 0.010231 0.033800 -1.560851
    73 0.120153 -0.050270 -0.054489 -2.854024 0.030688 -1.580508
    74 -0.139399 -0.111696 0.014400 0.285395 -0.031353 1.580313
    75 -0.000001 -20.525276 48.828247 0.000000 1.570796 3.141592
    76 0.000000 -0.000002 48.828247 0.000000 1.570796 3.141592
    77 0.000000 -9.548562 37.551598 0.000000 1.570796 3.141592
    78 -6.746239 1.488021 0.000145 0.000000 1.570796 3.141592
    79 -0.000001 -30.405510 37.551598 0.000000 1.570796 3.141592
    80 -6.884506 0.045362 -0.000546 0.000000 1.570796 -3.141591
    81 -33.148422 39.600525 3.921634 0.000000 0.000000 0.000000
    82 -16.313324 12.403505 11.858739 1.504637 -0.696400 0.409610
    83 0.000000 0.000000 0.000000 0.000000 0.000000 0.000000
    84 0.000000 0.000000 0.000000 0.000000 0.000000 0.000000
    85 0.000000 0.000000 -0.000002 0.000000 0.000000 0.000000
    86 0.000000 -0.000002 -0.000004 0.000000 0.000000 0.000000
    87 -59.593906 10.219164 0.000000 0.000000 0.000000 0.000000
    88 -10.000088 10.000000 0.000000 0.000000 0.000000 0.000000
    89 10.000000 10.000000 0.000000 0.000000 0.000000 0.000000
    90 9.999908 -10.000000 0.000000 0.000000 0.000000 0.000000
    91 -9.999996 -10.000000 0.000000 0.000000 0.000000 0.000000
    92 8.297501 1.873835 -0.833016 1.566653 -0.564520 -2.759211
    93 8.360184 2.109215 0.930654 0.921809 -0.364005 0.384206
    94 8.130562 2.232922 0.862472 1.552574 -0.417441 0.661589
    95 8.262386 2.367609 -0.906657 0.679593 -0.758166 -2.316103
end
triangles
$0b_redsword
  78 -0.775137 -1.488016 54.211983 -0.511834 0.000001 -0.859084 0.247059 0.164706 1 78 1.000000
  78 -0.775138 -0.813016 54.399483 -0.514838 0.434054 -0.739283 0.133333 0.227451 1 78 1.000000
  78 -0.000137 -0.700517 54.224487 -0.001158 0.502073 -0.864824 0.000000 0.168627 1 78 1.000000
$0b_redsword
  78 -0.000137 -1.488017 54.011986 0.007205 0.000001 -0.999974 0.247059 0.000000 1 78 1.000000
  78 -0.775137 -1.488016 54.211983 -0.511834 0.000001 -0.859084 0.247059 0.164706 1 78 1.000000
  78 -0.000137 -0.700517 54.224487 -0.001158 0.502073 -0.864824 0.000000 0.168627 1 78 1.000000
$0b_redsword
  78 0.799862 -0.800517 54.411983 0.511475 0.427942 -0.745157 0.000000 0.235294 1 78 1.000000
  78 -0.000137 -1.488017 54.011986 0.007205 0.000001 -0.999974 0.247059 0.000000 1 78 1.000000
  78 -0.000137 -0.700517 54.224487 -0.001158 0.502073 -0.864824 0.000000 0.168627 1 78 1.000000
$0b_redsword
  78 0.799863 -1.488017 54.236988 0.515467 0.000001 -0.856909 0.749020 0.172549 1 78 1.000000
  78 -0.000137 -1.488017 54.011986 0.007205 0.000001 -0.999974 0.247059 0.000000 1 78 1.000000
  78 0.799862 -0.800517 54.411983 0.511475 0.427942 -0.745157 0.000000 0.235294 1 78 1.000000
$0b_redsword
  78 1.324861 -1.488017 54.836987 0.862587 0.000000 -0.505909 0.749020 0.333333 1 78 1.000000
  78 0.799863 -1.488017 54.236988 0.515467 0.000001 -0.856909 0.749020 0.172549 1 78 1.000000
  78 1.324861 -1.113018 54.936993 0.864631 0.249278 -0.436204 0.792157 0.360784 1 78 1.000000
$0b_redsword
  78 0.799863 -1.488017 54.236988 0.515467 0.000001 -0.856909 0.749020 0.172549 1 78 1.000000
  78 0.799862 -0.800517 54.411983 0.511475 0.427942 -0.745157 0.862745 0.235294 1 78 1.000000
  78 1.324861 -1.113018 54.936993 0.864631 0.249278 -0.436204 0.792157 0.360784 1 78 1.000000
$0b_redsword
  78 -0.775144 -2.175519 56.786983 -0.468528 -0.431599 0.770846 0.364706 0.772549 1 78 1.000000
  78 0.012356 -2.275519 56.924484 0.005766 -0.488494 0.872548 0.501961 0.831373 1 78 1.000000
  78 0.012355 -1.488021 57.136986 0.003691 -0.011140 0.999931 0.749020 0.996078 1 78 1.000000
$0b_redsword
  78 0.012356 -2.275519 56.924484 0.005766 -0.488494 0.872548 0.501961 0.831373 1 78 1.000000
  78 0.799856 -1.488021 56.949490 0.501155 -0.004335 0.865346 0.749020 0.831373 1 78 1.000000
  78 0.012355 -1.488021 57.136986 0.003691 -0.011140 0.999931 0.749020 0.996078 1 78 1.000000
$0b_redsword
  78 0.012355 -1.488021 57.136986 0.003691 -0.011140 0.999931 0.749020 0.996078 1 78 1.000000
  78 0.799856 -1.488021 56.949490 0.501155 -0.004335 0.865346 0.749020 0.831373 1 78 1.000000
  78 0.012356 -0.700519 56.949486 0.016722 0.517172 0.855718 0.996078 0.831373 1 78 1.000000
$0b_redsword
  78 0.799856 -1.488021 56.949490 0.501155 -0.004335 0.865346 0.749020 0.831373 1 78 1.000000
  78 0.799856 -0.813021 56.774487 0.502109 0.437988 0.745690 0.858824 0.768627 1 78 1.000000
  78 0.012356 -0.700519 56.949486 0.016722 0.517172 0.855718 0.996078 0.831373 1 78 1.000000
$0b_redsword
  78 0.012356 -0.700519 56.949486 0.016722 0.517172 0.855718 0.996078 0.831373 1 78 1.000000
  78 0.799856 -0.813021 56.774487 0.502109 0.437988 0.745690 0.858824 0.768627 1 78 1.000000
  78 0.012358 -0.200519 56.361984 0.005798 0.863530 0.504264 0.996078 0.674510 1 78 1.000000
$0b_redsword
  78 0.799856 -0.813021 56.774487 0.502109 0.437988 0.745690 0.858824 0.768627 1 78 1.000000
  78 0.799859 -0.300520 56.261990 0.484002 0.755227 0.442011 0.901961 0.639216 1 78 1.000000
  78 0.012358 -0.200519 56.361984 0.005798 0.863530 0.504264 0.996078 0.674510 1 78 1.000000
$0b_redsword
  78 0.012358 -0.200519 56.361984 0.005798 0.863530 0.504264 0.996078 0.674510 1 78 1.000000
  78 0.799859 -0.300520 56.261990 0.484002 0.755227 0.442011 0.901961 0.639216 1 78 1.000000
  78 0.012360 0.086982 55.574486 -0.009827 0.999557 0.028109 0.996078 0.498039 1 78 1.000000
$0b_redsword
  78 0.799859 -0.300520 56.261990 0.484002 0.755227 0.442011 0.901961 0.639216 1 78 1.000000
  78 0.799860 -0.125518 55.574490 0.509915 0.860216 -0.003843 0.913725 0.501961 1 78 1.000000
  78 0.012360 0.086982 55.574486 -0.009827 0.999557 0.028109 0.996078 0.498039 1 78 1.000000
$0b_redsword
  78 0.012360 0.086982 55.574486 -0.009827 0.999557 0.028109 0.996078 0.498039 1 78 1.000000
  78 0.799860 -0.125518 55.574490 0.509915 0.860216 -0.003843 0.913725 0.501961 1 78 1.000000
  78 0.012362 -0.125517 54.799484 -0.000426 0.864118 -0.503290 0.996078 0.333333 1 78 1.000000
$0b_redsword
  78 0.799860 -0.125518 55.574490 0.509915 0.860216 -0.003843 0.913725 0.501961 1 78 1.000000
  78 0.799862 -0.300518 54.911991 0.508763 0.746081 -0.429561 0.901961 0.356863 1 78 1.000000
  78 0.012362 -0.125517 54.799484 -0.000426 0.864118 -0.503290 0.996078 0.333333 1 78 1.000000
$0b_redsword
  78 0.012362 -0.125517 54.799484 -0.000426 0.864118 -0.503290 0.996078 0.333333 1 78 1.000000
  78 0.799862 -0.300518 54.911991 0.508763 0.746081 -0.429561 0.901961 0.356863 1 78 1.000000
  78 -0.000137 -0.700517 54.224487 -0.001158 0.502073 -0.864824 0.996078 0.168627 1 78 1.000000
$0b_redsword
  78 0.799862 -0.300518 54.911991 0.508763 0.746081 -0.429561 0.901961 0.356863 1 78 1.000000
  78 0.799862 -0.800517 54.411983 0.511475 0.427942 -0.745157 0.862745 0.235294 1 78 1.000000
  78 -0.000137 -0.700517 54.224487 -0.001158 0.502073 -0.864824 0.996078 0.168627 1 78 1.000000
$0b_redsword
  78 0.799862 -0.800517 54.411983 0.511475 0.427942 -0.745157 0.862745 0.235294 1 78 1.000000
  78 0.799862 -0.300518 54.911991 0.508763 0.746081 -0.429561 0.901961 0.356863 1 78 1.000000
  78 1.324860 -0.838019 55.211987 0.867554 0.425109 -0.258134 0.819608 0.419608 1 78 1.000000
$0b_redsword
  78 1.324861 -1.113018 54.936993 0.864631 0.249278 -0.436204 0.792157 0.360784 1 78 1.000000
  78 0.799862 -0.800517 54.411983 0.511475 0.427942 -0.745157 0.862745 0.235294 1 78 1.000000
  78 1.324860 -0.838019 55.211987 0.867554 0.425109 -0.258134 0.819608 0.419608 1 78 1.000000
$0b_redsword
  78 1.537359 -1.488019 55.574490 0.999990 0.000000 -0.004484 0.749020 0.501961 1 78 1.000000
  78 1.324861 -1.113018 54.936993 0.864631 0.249278 -0.436204 0.792157 0.360784 1 78 1.000000
  78 1.324860 -0.838019 55.211987 0.867554 0.425109 -0.258134 0.819608 0.419608 1 78 1.000000
$0b_redsword
  78 1.537359 -1.488019 55.574490 0.999990 0.000000 -0.004484 0.749020 0.501961 1 78 1.000000
  78 1.324861 -1.488017 54.836987 0.862587 0.000000 -0.505909 0.749020 0.333333 1 78 1.000000
  78 1.324861 -1.113018 54.936993 0.864631 0.249278 -0.436204 0.792157 0.360784 1 78 1.000000
$0b_redsword
  78 1.537359 -1.488019 55.574490 0.999990 0.000000 -0.004484 0.749020 0.501961 1 78 1.000000
  78 1.324861 -1.863018 54.936993 0.864631 -0.249277 -0.436204 0.701961 0.360784 1 78 1.000000
  78 1.324861 -1.488017 54.836987 0.862587 0.000000 -0.505909 0.749020 0.333333 1 78 1.000000
$0b_redsword
  78 1.324861 -1.863018 54.936993 0.864631 -0.249277 -0.436204 0.701961 0.360784 1 78 1.000000
  78 0.799863 -1.488017 54.236988 0.515467 0.000001 -0.856909 0.749020 0.172549 1 78 1.000000
  78 1.324861 -1.488017 54.836987 0.862587 0.000000 -0.505909 0.749020 0.333333 1 78 1.000000
$0b_redsword
  78 1.324858 -1.113020 56.236988 0.867780 0.248822 0.430169 0.792157 0.639216 1 78 1.000000
  78 0.799856 -0.813021 56.774487 0.502109 0.437988 0.745690 0.858824 0.768627 1 78 1.000000
  78 1.324857 -1.488020 56.336987 0.867904 0.000000 0.496733 0.749020 0.666667 1 78 1.000000
$0b_redsword
  78 0.799859 -0.300520 56.261990 0.484002 0.755227 0.442011 0.901961 0.639216 1 78 1.000000
  78 0.799856 -0.813021 56.774487 0.502109 0.437988 0.745690 0.858824 0.768627 1 78 1.000000
  78 1.324858 -1.113020 56.236988 0.867780 0.248822 0.430169 0.792157 0.639216 1 78 1.000000
$0b_redsword
  78 1.324858 -0.838020 55.961987 0.866617 0.430593 0.252120 0.819608 0.580392 1 78 1.000000
  78 0.799859 -0.300520 56.261990 0.484002 0.755227 0.442011 0.901961 0.639216 1 78 1.000000
  78 1.324858 -1.113020 56.236988 0.867780 0.248822 0.430169 0.792157 0.639216 1 78 1.000000
$0b_redsword
  78 0.799860 -0.125518 55.574490 0.509915 0.860216 -0.003843 0.913725 0.501961 1 78 1.000000
  78 0.799859 -0.300520 56.261990 0.484002 0.755227 0.442011 0.901961 0.639216 1 78 1.000000
  78 1.324858 -0.838020 55.961987 0.866617 0.430593 0.252120 0.819608 0.580392 1 78 1.000000
$0b_redsword
  78 1.324859 -0.725519 55.574490 0.864557 0.502535 -0.000333 0.831373 0.501961 1 78 1.000000
  78 0.799860 -0.125518 55.574490 0.509915 0.860216 -0.003843 0.913725 0.501961 1 78 1.000000
  78 1.324858 -0.838020 55.961987 0.866617 0.430593 0.252120 0.819608 0.580392 1 78 1.000000
$0b_redsword
  78 0.799862 -0.300518 54.911991 0.508763 0.746081 -0.429561 0.901961 0.356863 1 78 1.000000
  78 0.799860 -0.125518 55.574490 0.509915 0.860216 -0.003843 0.913725 0.501961 1 78 1.000000
  78 1.324859 -0.725519 55.574490 0.864557 0.502535 -0.000333 0.831373 0.501961 1 78 1.000000
$0b_redsword
  78 1.324860 -0.838019 55.211987 0.867554 0.425109 -0.258134 0.819608 0.419608 1 78 1.000000
  78 0.799862 -0.300518 54.911991 0.508763 0.746081 -0.429561 0.901961 0.356863 1 78 1.000000
  78 1.324859 -0.725519 55.574490 0.864557 0.502535 -0.000333 0.831373 0.501961 1 78 1.000000
$0b_redsword
  78 1.537359 -1.488019 55.574490 0.999990 0.000000 -0.004484 0.749020 0.501961 1 78 1.000000
  78 1.324860 -0.838019 55.211987 0.867554 0.425109 -0.258134 0.819608 0.419608 1 78 1.000000
  78 1.324859 -0.725519 55.574490 0.864557 0.502535 -0.000333 0.831373 0.501961 1 78 1.000000
$0b_redsword
  78 1.537359 -1.488019 55.574490 0.999990 0.000000 -0.004484 0.749020 0.501961 1 78 1.000000
  78 1.324859 -0.725519 55.574490 0.864557 0.502535 -0.000333 0.831373 0.501961 1 78 1.000000
  78 1.324858 -0.838020 55.961987 0.866617 0.430593 0.252120 0.819608 0.580392 1 78 1.000000
$0b_redsword
  78 1.537359 -1.488019 55.574490 0.999990 0.000000 -0.004484 0.749020 0.501961 1 78 1.000000
  78 1.324858 -0.838020 55.961987 0.866617 0.430593 0.252120 0.819608 0.580392 1 78 1.000000
  78 1.324858 -1.113020 56.236988 0.867780 0.248822 0.430169 0.792157 0.639216 1 78 1.000000
$0b_redsword
  78 1.537359 -1.488019 55.574490 0.999990 0.000000 -0.004484 0.749020 0.501961 1 78 1.000000
  78 1.324858 -1.113020 56.236988 0.867780 0.248822 0.430169 0.792157 0.639216 1 78 1.000000
  78 1.324857 -1.488020 56.336987 0.867904 0.000000 0.496733 0.749020 0.666667 1 78 1.000000
$0b_redsword
  78 1.537359 -1.488019 55.574490 0.999990 0.000000 -0.004484 0.749020 0.501961 1 78 1.000000
  78 1.324857 -1.488020 56.336987 0.867904 0.000000 0.496733 0.749020 0.666667 1 78 1.000000
  78 1.324858 -1.863020 56.236988 0.867780 -0.248823 0.430169 0.701961 0.639216 1 78 1.000000
$0b_redsword
  78 1.324857 -1.488020 56.336987 0.867904 0.000000 0.496733 0.749020 0.666667 1 78 1.000000
  78 0.799856 -2.163021 56.774483 0.503474 -0.420953 0.754528 0.635294 0.768627 1 78 1.000000
  78 1.324858 -1.863020 56.236988 0.867780 -0.248823 0.430169 0.701961 0.639216 1 78 1.000000
$0b_redsword
  78 0.799856 -2.675520 56.261986 0.518697 -0.744751 0.419879 0.592157 0.639216 1 78 1.000000
  78 1.324858 -1.863020 56.236988 0.867780 -0.248823 0.430169 0.701961 0.639216 1 78 1.000000
  78 0.799856 -2.163021 56.774483 0.503474 -0.420953 0.754528 0.635294 0.768627 1 78 1.000000
$0b_redsword
  78 0.799856 -2.675520 56.261986 0.518697 -0.744751 0.419879 0.592157 0.639216 1 78 1.000000
  78 0.799856 -2.163021 56.774483 0.503474 -0.420953 0.754528 0.635294 0.768627 1 78 1.000000
  78 0.012356 -2.863019 56.386986 0.002502 -0.862098 0.506735 0.498039 0.666667 1 78 1.000000
$0b_redsword
  78 0.799856 -2.675520 56.261986 0.518697 -0.744751 0.419879 0.592157 0.639216 1 78 1.000000
  78 0.012356 -2.863019 56.386986 0.002502 -0.862098 0.506735 0.498039 0.666667 1 78 1.000000
  78 0.012358 -3.063018 55.574486 0.001801 -0.999927 -0.011934 0.498039 0.498039 1 78 1.000000
$0b_redsword
  78 0.012356 -2.863019 56.386986 0.002502 -0.862098 0.506735 0.498039 0.666667 1 78 1.000000
  78 -0.775142 -2.850518 55.586979 -0.502583 -0.864475 -0.009676 0.415686 0.501961 1 78 1.000000
  78 0.012358 -3.063018 55.574486 0.001801 -0.999927 -0.011934 0.498039 0.498039 1 78 1.000000
$0b_redsword
  78 -0.775142 -2.850518 55.586979 -0.502583 -0.864475 -0.009676 0.415686 0.501961 1 78 1.000000
  78 -0.775140 -2.675516 54.924480 -0.513212 -0.746472 -0.423549 0.403922 0.360784 1 78 1.000000
  78 0.012358 -3.063018 55.574486 0.001801 -0.999927 -0.011934 0.498039 0.498039 1 78 1.000000
$0b_redsword
  78 1.537359 -1.488019 55.574490 0.999990 0.000000 -0.004484 0.749020 0.501961 1 78 1.000000
  78 1.324858 -1.863020 56.236988 0.867780 -0.248823 0.430169 0.701961 0.639216 1 78 1.000000
  78 1.324858 -2.138020 55.961987 0.866617 -0.430593 0.252119 0.674510 0.580392 1 78 1.000000
$0b_redsword
  78 0.799856 -2.675520 56.261986 0.518697 -0.744751 0.419879 0.592157 0.639216 1 78 1.000000
  78 1.324858 -2.138020 55.961987 0.866617 -0.430593 0.252119 0.674510 0.580392 1 78 1.000000
  78 1.324858 -1.863020 56.236988 0.867780 -0.248823 0.430169 0.701961 0.639216 1 78 1.000000
$0b_redsword
  78 -1.312640 -2.150517 55.261982 -0.863117 -0.438319 -0.250810 0.321569 0.431373 1 78 1.000000
  78 -0.775140 -2.675516 54.924480 -0.513212 -0.746472 -0.423549 0.403922 0.360784 1 78 1.000000
  78 -0.775142 -2.850518 55.586979 -0.502583 -0.864475 -0.009676 0.415686 0.501961 1 78 1.000000
$0b_redsword
  78 -1.312639 -1.863016 54.961979 -0.869619 -0.258834 -0.420438 0.294118 0.364706 1 78 1.000000
  78 -0.775140 -2.675516 54.924480 -0.513212 -0.746472 -0.423549 0.403922 0.360784 1 78 1.000000
  78 -1.312640 -2.150517 55.261982 -0.863117 -0.438319 -0.250810 0.321569 0.431373 1 78 1.000000
$0b_redsword
  78 -1.312639 -1.863016 54.961979 -0.869619 -0.258834 -0.420438 0.294118 0.364706 1 78 1.000000
  78 -0.775138 -2.163016 54.399479 -0.514838 -0.434052 -0.739284 0.364706 0.227451 1 78 1.000000
  78 -0.775140 -2.675516 54.924480 -0.513212 -0.746472 -0.423549 0.403922 0.360784 1 78 1.000000
$0b_redsword
  78 -0.775140 -2.675516 54.924480 -0.513212 -0.746472 -0.423549 0.403922 0.360784 1 78 1.000000
  78 -0.775138 -2.163016 54.399479 -0.514838 -0.434052 -0.739284 0.364706 0.227451 1 78 1.000000
  78 0.012360 -2.850517 54.799484 -0.000426 -0.864117 -0.503291 0.498039 0.333333 1 78 1.000000
$0b_redsword
  78 -0.775138 -2.163016 54.399479 -0.514838 -0.434052 -0.739284 0.364706 0.227451 1 78 1.000000
  78 -0.000137 -2.275517 54.224487 -0.001158 -0.502072 -0.864825 0.501961 0.168627 1 78 1.000000
  78 0.012360 -2.850517 54.799484 -0.000426 -0.864117 -0.503291 0.498039 0.333333 1 78 1.000000
$0b_redsword
  78 0.012360 -2.850517 54.799484 -0.000426 -0.864117 -0.503291 0.498039 0.333333 1 78 1.000000
  78 -0.000137 -2.275517 54.224487 -0.001158 -0.502072 -0.864825 0.501961 0.168627 1 78 1.000000
  78 0.799860 -2.675518 54.911987 0.508763 -0.746081 -0.429562 0.592157 0.356863 1 78 1.000000
$0b_redsword
  78 -0.000137 -2.275517 54.224487 -0.001158 -0.502072 -0.864825 0.501961 0.168627 1 78 1.000000
  78 0.799862 -2.175517 54.411980 0.511475 -0.427941 -0.745158 0.635294 0.235294 1 78 1.000000
  78 0.799860 -2.675518 54.911987 0.508763 -0.746081 -0.429562 0.592157 0.356863 1 78 1.000000
$0b_redsword
  78 0.799860 -2.675518 54.911987 0.508763 -0.746081 -0.429562 0.592157 0.356863 1 78 1.000000
  78 0.799862 -2.175517 54.411980 0.511475 -0.427941 -0.745158 0.635294 0.235294 1 78 1.000000
  78 1.324860 -2.138019 55.211987 0.867554 -0.425108 -0.258134 0.674510 0.419608 1 78 1.000000
$0b_redsword
  78 0.799862 -2.175517 54.411980 0.511475 -0.427941 -0.745158 0.635294 0.235294 1 78 1.000000
  78 1.324861 -1.863018 54.936993 0.864631 -0.249277 -0.436204 0.701961 0.360784 1 78 1.000000
  78 1.324860 -2.138019 55.211987 0.867554 -0.425108 -0.258134 0.674510 0.419608 1 78 1.000000
$0b_redsword
  78 1.324860 -2.138019 55.211987 0.867554 -0.425108 -0.258134 0.674510 0.419608 1 78 1.000000
  78 1.324861 -1.863018 54.936993 0.864631 -0.249277 -0.436204 0.701961 0.360784 1 78 1.000000
  78 1.537359 -1.488019 55.574490 0.999990 0.000000 -0.004484 0.749020 0.501961 1 78 1.000000
$0b_redsword
  78 1.324859 -2.250519 55.574490 0.864557 -0.502535 -0.000334 0.666667 0.501961 1 78 1.000000
  78 1.324860 -2.138019 55.211987 0.867554 -0.425108 -0.258134 0.674510 0.419608 1 78 1.000000
  78 1.537359 -1.488019 55.574490 0.999990 0.000000 -0.004484 0.749020 0.501961 1 78 1.000000
$0b_redsword
  78 1.537359 -1.488019 55.574490 0.999990 0.000000 -0.004484 0.749020 0.501961 1 78 1.000000
  78 1.324858 -2.138020 55.961987 0.866617 -0.430593 0.252119 0.674510 0.580392 1 78 1.000000
  78 1.324859 -2.250519 55.574490 0.864557 -0.502535 -0.000334 0.666667 0.501961 1 78 1.000000
$0b_redsword
  78 1.324858 -2.138020 55.961987 0.866617 -0.430593 0.252119 0.674510 0.580392 1 78 1.000000
  78 0.799858 -2.850518 55.574486 0.509915 -0.860216 -0.003845 0.584314 0.501961 1 78 1.000000
  78 1.324859 -2.250519 55.574490 0.864557 -0.502535 -0.000334 0.666667 0.501961 1 78 1.000000
$0b_redsword
  78 0.799856 -2.675520 56.261986 0.518697 -0.744751 0.419879 0.592157 0.639216 1 78 1.000000
  78 0.799858 -2.850518 55.574486 0.509915 -0.860216 -0.003845 0.584314 0.501961 1 78 1.000000
  78 1.324858 -2.138020 55.961987 0.866617 -0.430593 0.252119 0.674510 0.580392 1 78 1.000000
$0b_redsword
  78 0.799856 -2.675520 56.261986 0.518697 -0.744751 0.419879 0.592157 0.639216 1 78 1.000000
  78 0.012358 -3.063018 55.574486 0.001801 -0.999927 -0.011934 0.498039 0.498039 1 78 1.000000
  78 0.799858 -2.850518 55.574486 0.509915 -0.860216 -0.003845 0.584314 0.501961 1 78 1.000000
$0b_redsword
  78 0.012358 -3.063018 55.574486 0.001801 -0.999927 -0.011934 0.498039 0.498039 1 78 1.000000
  78 0.012360 -2.850517 54.799484 -0.000426 -0.864117 -0.503291 0.498039 0.333333 1 78 1.000000
  78 0.799858 -2.850518 55.574486 0.509915 -0.860216 -0.003845 0.584314 0.501961 1 78 1.000000
$0b_redsword
  78 -0.775140 -2.675516 54.924480 -0.513212 -0.746472 -0.423549 0.403922 0.360784 1 78 1.000000
  78 0.012360 -2.850517 54.799484 -0.000426 -0.864117 -0.503291 0.498039 0.333333 1 78 1.000000
  78 0.012358 -3.063018 55.574486 0.001801 -0.999927 -0.011934 0.498039 0.498039 1 78 1.000000
$0b_redsword
  78 0.012360 -2.850517 54.799484 -0.000426 -0.864117 -0.503291 0.498039 0.333333 1 78 1.000000
  78 0.799860 -2.675518 54.911987 0.508763 -0.746081 -0.429562 0.592157 0.356863 1 78 1.000000
  78 0.799858 -2.850518 55.574486 0.509915 -0.860216 -0.003845 0.584314 0.501961 1 78 1.000000
$0b_redsword
  78 0.799858 -2.850518 55.574486 0.509915 -0.860216 -0.003845 0.584314 0.501961 1 78 1.000000
  78 0.799860 -2.675518 54.911987 0.508763 -0.746081 -0.429562 0.592157 0.356863 1 78 1.000000
  78 1.324859 -2.250519 55.574490 0.864557 -0.502535 -0.000334 0.666667 0.501961 1 78 1.000000
$0b_redsword
  78 0.799860 -2.675518 54.911987 0.508763 -0.746081 -0.429562 0.592157 0.356863 1 78 1.000000
  78 1.324860 -2.138019 55.211987 0.867554 -0.425108 -0.258134 0.674510 0.419608 1 78 1.000000
  78 1.324859 -2.250519 55.574490 0.864557 -0.502535 -0.000334 0.666667 0.501961 1 78 1.000000
$0b_redsword
  78 0.799862 -2.175517 54.411980 0.511475 -0.427941 -0.745158 0.635294 0.235294 1 78 1.000000
  78 0.799863 -1.488017 54.236988 0.515467 0.000001 -0.856909 0.749020 0.172549 1 78 1.000000
  78 1.324861 -1.863018 54.936993 0.864631 -0.249277 -0.436204 0.701961 0.360784 1 78 1.000000
$0b_redsword
  78 -0.000137 -1.488017 54.011986 0.007205 0.000001 -0.999974 0.247059 0.000000 1 78 1.000000
  78 0.799863 -1.488017 54.236988 0.515467 0.000001 -0.856909 0.749020 0.172549 1 78 1.000000
  78 0.799862 -2.175517 54.411980 0.511475 -0.427941 -0.745158 0.635294 0.235294 1 78 1.000000
$0b_redsword
  78 -0.000137 -2.275517 54.224487 -0.001158 -0.502072 -0.864825 0.501961 0.168627 1 78 1.000000
  78 -0.000137 -1.488017 54.011986 0.007205 0.000001 -0.999974 0.247059 0.000000 1 78 1.000000
  78 0.799862 -2.175517 54.411980 0.511475 -0.427941 -0.745158 0.635294 0.235294 1 78 1.000000
$0b_redsword
  78 -0.775137 -1.488016 54.211983 -0.511834 0.000001 -0.859084 0.247059 0.164706 1 78 1.000000
  78 -0.000137 -1.488017 54.011986 0.007205 0.000001 -0.999974 0.247059 0.000000 1 78 1.000000
  78 -0.000137 -2.275517 54.224487 -0.001158 -0.502072 -0.864825 0.501961 0.168627 1 78 1.000000
$0b_redsword
  78 -0.775138 -2.163016 54.399479 -0.514838 -0.434052 -0.739284 0.364706 0.227451 1 78 1.000000
  78 -0.775137 -1.488016 54.211983 -0.511834 0.000001 -0.859084 0.247059 0.164706 1 78 1.000000
  78 -0.000137 -2.275517 54.224487 -0.001158 -0.502072 -0.864825 0.501961 0.168627 1 78 1.000000
$0b_redsword
  78 -1.312639 -1.488016 54.849483 -0.870748 0.000000 -0.491730 0.247059 0.337255 1 78 1.000000
  78 -0.775137 -1.488016 54.211983 -0.511834 0.000001 -0.859084 0.247059 0.164706 1 78 1.000000
  78 -0.775138 -2.163016 54.399479 -0.514838 -0.434052 -0.739284 0.364706 0.227451 1 78 1.000000
$0b_redsword
  78 -1.312639 -1.863016 54.961979 -0.869619 -0.258834 -0.420438 0.294118 0.364706 1 78 1.000000
  78 -1.312639 -1.488016 54.849483 -0.870748 0.000000 -0.491730 0.247059 0.337255 1 78 1.000000
  78 -0.775138 -2.163016 54.399479 -0.514838 -0.434052 -0.739284 0.364706 0.227451 1 78 1.000000
$0b_redsword
  78 -1.537641 -1.488017 55.674480 -0.999939 0.000000 0.011076 0.247059 0.521569 1 78 1.000000
  78 -1.312639 -1.488016 54.849483 -0.870748 0.000000 -0.491730 0.247059 0.337255 1 78 1.000000
  78 -1.312639 -1.863016 54.961979 -0.869619 -0.258834 -0.420438 0.294118 0.364706 1 78 1.000000
$0b_redsword
  78 -1.312640 -2.150517 55.261982 -0.863117 -0.438319 -0.250810 0.321569 0.431373 1 78 1.000000
  78 -1.537641 -1.488017 55.674480 -0.999939 0.000000 0.011076 0.247059 0.521569 1 78 1.000000
  78 -1.312639 -1.863016 54.961979 -0.869619 -0.258834 -0.420438 0.294118 0.364706 1 78 1.000000
$0b_redsword
  78 -1.325141 -2.250517 55.661976 -0.859564 -0.511008 -0.004611 0.333333 0.517647 1 78 1.000000
  78 -1.537641 -1.488017 55.674480 -0.999939 0.000000 0.011076 0.247059 0.521569 1 78 1.000000
  78 -1.312640 -2.150517 55.261982 -0.863117 -0.438319 -0.250810 0.321569 0.431373 1 78 1.000000
$0b_redsword
  78 -0.775142 -2.850518 55.586979 -0.502583 -0.864475 -0.009676 0.415686 0.501961 1 78 1.000000
  78 -1.325141 -2.250517 55.661976 -0.859564 -0.511008 -0.004611 0.333333 0.517647 1 78 1.000000
  78 -1.312640 -2.150517 55.261982 -0.863117 -0.438319 -0.250810 0.321569 0.431373 1 78 1.000000
$0b_redsword
  78 -0.775144 -2.675519 56.286976 -0.485654 -0.758587 0.434379 0.403922 0.647059 1 78 1.000000
  78 -1.325141 -2.250517 55.661976 -0.859564 -0.511008 -0.004611 0.333333 0.517647 1 78 1.000000
  78 -0.775142 -2.850518 55.586979 -0.502583 -0.864475 -0.009676 0.415686 0.501961 1 78 1.000000
$0b_redsword
  78 0.012356 -2.863019 56.386986 0.002502 -0.862098 0.506735 0.498039 0.666667 1 78 1.000000
  78 -0.775144 -2.675519 56.286976 -0.485654 -0.758587 0.434379 0.403922 0.647059 1 78 1.000000
  78 -0.775142 -2.850518 55.586979 -0.502583 -0.864475 -0.009676 0.415686 0.501961 1 78 1.000000
$0b_redsword
  78 0.012356 -2.275519 56.924484 0.005766 -0.488494 0.872548 0.501961 0.831373 1 78 1.000000
  78 -0.775144 -2.675519 56.286976 -0.485654 -0.758587 0.434379 0.403922 0.647059 1 78 1.000000
  78 0.012356 -2.863019 56.386986 0.002502 -0.862098 0.506735 0.498039 0.666667 1 78 1.000000
$0b_redsword
  78 0.799856 -2.163021 56.774483 0.503474 -0.420953 0.754528 0.635294 0.768627 1 78 1.000000
  78 0.012356 -2.275519 56.924484 0.005766 -0.488494 0.872548 0.501961 0.831373 1 78 1.000000
  78 0.012356 -2.863019 56.386986 0.002502 -0.862098 0.506735 0.498039 0.666667 1 78 1.000000
$0b_redsword
  78 0.799856 -1.488021 56.949490 0.501155 -0.004335 0.865346 0.749020 0.831373 1 78 1.000000
  78 0.012356 -2.275519 56.924484 0.005766 -0.488494 0.872548 0.501961 0.831373 1 78 1.000000
  78 0.799856 -2.163021 56.774483 0.503474 -0.420953 0.754528 0.635294 0.768627 1 78 1.000000
$0b_redsword
  78 1.324857 -1.488020 56.336987 0.867904 0.000000 0.496733 0.749020 0.666667 1 78 1.000000
  78 0.799856 -1.488021 56.949490 0.501155 -0.004335 0.865346 0.749020 0.831373 1 78 1.000000
  78 0.799856 -2.163021 56.774483 0.503474 -0.420953 0.754528 0.635294 0.768627 1 78 1.000000
$0b_redsword
  78 0.799856 -0.813021 56.774487 0.502109 0.437988 0.745690 0.858824 0.768627 1 78 1.000000
  78 0.799856 -1.488021 56.949490 0.501155 -0.004335 0.865346 0.749020 0.831373 1 78 1.000000
  78 1.324857 -1.488020 56.336987 0.867904 0.000000 0.496733 0.749020 0.666667 1 78 1.000000
$0b_redsword
  78 -1.325141 -2.250517 55.661976 -0.859564 -0.511008 -0.004611 0.333333 0.517647 1 78 1.000000
  78 -1.325142 -2.150517 56.049480 -0.853506 -0.440578 0.278242 0.321569 0.600000 1 78 1.000000
  78 -1.537641 -1.488017 55.674480 -0.999939 0.000000 0.011076 0.247059 0.521569 1 78 1.000000
$0b_redsword
  78 -0.775144 -2.675519 56.286976 -0.485654 -0.758587 0.434379 0.403922 0.647059 1 78 1.000000
  78 -1.325142 -2.150517 56.049480 -0.853506 -0.440578 0.278242 0.321569 0.600000 1 78 1.000000
  78 -1.325141 -2.250517 55.661976 -0.859564 -0.511008 -0.004611 0.333333 0.517647 1 78 1.000000
$0b_redsword
  78 -1.537641 -1.488017 55.674480 -0.999939 0.000000 0.011076 0.247059 0.521569 1 78 1.000000
  78 -1.312639 -1.113016 54.961979 -0.869619 0.258835 -0.420437 0.203922 0.364706 1 78 1.000000
  78 -1.312639 -1.488016 54.849483 -0.870748 0.000000 -0.491730 0.247059 0.337255 1 78 1.000000
$0b_redsword
  78 -1.537641 -1.488017 55.674480 -0.999939 0.000000 0.011076 0.247059 0.521569 1 78 1.000000
  78 -1.312640 -0.825517 55.261982 -0.863117 0.438319 -0.250810 0.172549 0.431373 1 78 1.000000
  78 -1.312639 -1.113016 54.961979 -0.869619 0.258835 -0.420437 0.203922 0.364706 1 78 1.000000
$0b_redsword
  78 -0.775141 -0.300519 56.286980 -0.450381 0.784723 0.425872 0.090196 0.647059 1 78 1.000000
  78 -0.775140 -0.125518 55.586983 -0.490253 0.871555 0.006592 0.078431 0.501961 1 78 1.000000
  78 -1.325141 -0.725517 55.661976 -0.859564 0.511008 -0.004610 0.164706 0.517647 1 78 1.000000
$0b_redsword
  78 -1.325142 -0.825519 56.049480 -0.853506 0.440577 0.278243 0.172549 0.600000 1 78 1.000000
  78 -0.775141 -0.300519 56.286980 -0.450381 0.784723 0.425872 0.090196 0.647059 1 78 1.000000
  78 -1.325141 -0.725517 55.661976 -0.859564 0.511008 -0.004610 0.164706 0.517647 1 78 1.000000
$0b_redsword
  78 -0.775144 -0.800519 56.786987 -0.477050 0.426843 0.768263 0.133333 0.772549 1 78 1.000000
  78 -0.775141 -0.300519 56.286980 -0.450381 0.784723 0.425872 0.090196 0.647059 1 78 1.000000
  78 -1.325142 -0.825519 56.049480 -0.853506 0.440577 0.278243 0.172549 0.600000 1 78 1.000000
$0b_redsword
  78 -1.312643 -1.113019 56.311977 -0.846616 0.232254 0.478851 0.203922 0.654902 1 78 1.000000
  78 -0.775144 -0.800519 56.786987 -0.477050 0.426843 0.768263 0.133333 0.772549 1 78 1.000000
  78 -1.325142 -0.825519 56.049480 -0.853506 0.440577 0.278243 0.172549 0.600000 1 78 1.000000
$0b_redsword
  78 -1.537641 -1.488017 55.674480 -0.999939 0.000000 0.011076 0.247059 0.521569 1 78 1.000000
  78 -1.312643 -1.113019 56.311977 -0.846616 0.232254 0.478851 0.203922 0.654902 1 78 1.000000
  78 -1.325142 -0.825519 56.049480 -0.853506 0.440577 0.278243 0.172549 0.600000 1 78 1.000000
$0b_redsword
  78 -1.537641 -1.488017 55.674480 -0.999939 0.000000 0.011076 0.247059 0.521569 1 78 1.000000
  78 -1.325142 -0.825519 56.049480 -0.853506 0.440577 0.278243 0.172549 0.600000 1 78 1.000000
  78 -1.325141 -0.725517 55.661976 -0.859564 0.511008 -0.004610 0.164706 0.517647 1 78 1.000000
$0b_redsword
  78 -1.537641 -1.488017 55.674480 -0.999939 0.000000 0.011076 0.247059 0.521569 1 78 1.000000
  78 -1.325141 -0.725517 55.661976 -0.859564 0.511008 -0.004610 0.164706 0.517647 1 78 1.000000
  78 -1.312640 -0.825517 55.261982 -0.863117 0.438319 -0.250810 0.172549 0.431373 1 78 1.000000
$0b_redsword
  78 -1.325141 -0.725517 55.661976 -0.859564 0.511008 -0.004610 0.164706 0.517647 1 78 1.000000
  78 -0.775140 -0.125518 55.586983 -0.490253 0.871555 0.006592 0.078431 0.501961 1 78 1.000000
  78 -1.312640 -0.825517 55.261982 -0.863117 0.438319 -0.250810 0.172549 0.431373 1 78 1.000000
$0b_redsword
  78 -0.775140 -0.125518 55.586983 -0.490253 0.871555 0.006592 0.078431 0.501961 1 78 1.000000
  78 -0.775138 -0.300516 54.924484 -0.513212 0.746472 -0.423548 0.090196 0.360784 1 78 1.000000
  78 -1.312640 -0.825517 55.261982 -0.863117 0.438319 -0.250810 0.172549 0.431373 1 78 1.000000
$0b_redsword
  78 -1.312640 -0.825517 55.261982 -0.863117 0.438319 -0.250810 0.172549 0.431373 1 78 1.000000
  78 -0.775138 -0.300516 54.924484 -0.513212 0.746472 -0.423548 0.090196 0.360784 1 78 1.000000
  78 -1.312639 -1.113016 54.961979 -0.869619 0.258835 -0.420437 0.203922 0.364706 1 78 1.000000
$0b_redsword
  78 -0.775138 -0.300516 54.924484 -0.513212 0.746472 -0.423548 0.090196 0.360784 1 78 1.000000
  78 -0.775138 -0.813016 54.399483 -0.514838 0.434054 -0.739283 0.133333 0.227451 1 78 1.000000
  78 -1.312639 -1.113016 54.961979 -0.869619 0.258835 -0.420437 0.203922 0.364706 1 78 1.000000
$0b_redsword
  78 -1.312639 -1.113016 54.961979 -0.869619 0.258835 -0.420437 0.203922 0.364706 1 78 1.000000
  78 -0.775138 -0.813016 54.399483 -0.514838 0.434054 -0.739283 0.133333 0.227451 1 78 1.000000
  78 -1.312639 -1.488016 54.849483 -0.870748 0.000000 -0.491730 0.247059 0.337255 1 78 1.000000
$0b_redsword
  78 -0.775138 -0.813016 54.399483 -0.514838 0.434054 -0.739283 0.133333 0.227451 1 78 1.000000
  78 -0.775137 -1.488016 54.211983 -0.511834 0.000001 -0.859084 0.247059 0.164706 1 78 1.000000
  78 -1.312639 -1.488016 54.849483 -0.870748 0.000000 -0.491730 0.247059 0.337255 1 78 1.000000
$0b_redsword
  78 -0.775144 -2.675519 56.286976 -0.485654 -0.758587 0.434379 0.403922 0.647059 1 78 1.000000
  78 0.012356 -2.275519 56.924484 0.005766 -0.488494 0.872548 0.501961 0.831373 1 78 1.000000
  78 -0.775144 -2.175519 56.786983 -0.468528 -0.431599 0.770846 0.364706 0.772549 1 78 1.000000
$0b_redsword
  78 -0.775144 -2.175519 56.786983 -0.468528 -0.431599 0.770846 0.364706 0.772549 1 78 1.000000
  78 -1.325142 -2.150517 56.049480 -0.853506 -0.440578 0.278242 0.321569 0.600000 1 78 1.000000
  78 -0.775144 -2.675519 56.286976 -0.485654 -0.758587 0.434379 0.403922 0.647059 1 78 1.000000
$0b_redsword
  78 -0.775144 -2.175519 56.786983 -0.468528 -0.431599 0.770846 0.364706 0.772549 1 78 1.000000
  78 -1.312643 -1.863019 56.311977 -0.846616 -0.232255 0.478851 0.294118 0.654902 1 78 1.000000
  78 -1.325142 -2.150517 56.049480 -0.853506 -0.440578 0.278242 0.321569 0.600000 1 78 1.000000
$0b_redsword
  78 -1.325142 -2.150517 56.049480 -0.853506 -0.440578 0.278242 0.321569 0.600000 1 78 1.000000
  78 -1.312643 -1.863019 56.311977 -0.846616 -0.232255 0.478851 0.294118 0.654902 1 78 1.000000
  78 -1.537641 -1.488017 55.674480 -0.999939 0.000000 0.011076 0.247059 0.521569 1 78 1.000000
$0b_redsword
  78 -1.537641 -1.488017 55.674480 -0.999939 0.000000 0.011076 0.247059 0.521569 1 78 1.000000
  78 -1.312643 -1.863019 56.311977 -0.846616 -0.232255 0.478851 0.294118 0.654902 1 78 1.000000
  78 -1.312643 -1.488019 56.399479 -0.844076 -0.000001 0.536224 0.247059 0.678431 1 78 1.000000
$0b_redsword
  78 -1.537641 -1.488017 55.674480 -0.999939 0.000000 0.011076 0.247059 0.521569 1 78 1.000000
  78 -1.312643 -1.488019 56.399479 -0.844076 -0.000001 0.536224 0.247059 0.678431 1 78 1.000000
  78 -1.312643 -1.113019 56.311977 -0.846616 0.232254 0.478851 0.203922 0.654902 1 78 1.000000
$0b_redsword
  78 -1.312643 -1.488019 56.399479 -0.844076 -0.000001 0.536224 0.247059 0.678431 1 78 1.000000
  78 -0.775144 -1.488019 56.949486 -0.475830 -0.000001 0.879537 0.247059 0.835294 1 78 1.000000
  78 -1.312643 -1.113019 56.311977 -0.846616 0.232254 0.478851 0.203922 0.654902 1 78 1.000000
$0b_redsword
  78 -0.775144 -1.488019 56.949486 -0.475830 -0.000001 0.879537 0.247059 0.835294 1 78 1.000000
  78 -0.775144 -0.800519 56.786987 -0.477050 0.426843 0.768263 0.133333 0.772549 1 78 1.000000
  78 -1.312643 -1.113019 56.311977 -0.846616 0.232254 0.478851 0.203922 0.654902 1 78 1.000000
$0b_redsword
  78 -0.775144 -0.800519 56.786987 -0.477050 0.426843 0.768263 0.133333 0.772549 1 78 1.000000
  78 -0.775144 -1.488019 56.949486 -0.475830 -0.000001 0.879537 0.247059 0.835294 1 78 1.000000
  78 0.012355 -1.488021 57.136986 0.003691 -0.011140 0.999931 0.000000 0.996078 1 78 1.000000
$0b_redsword
  78 0.012356 -0.700519 56.949486 0.016722 0.517172 0.855718 0.000000 0.831373 1 78 1.000000
  78 -0.775144 -0.800519 56.786987 -0.477050 0.426843 0.768263 0.133333 0.772549 1 78 1.000000
  78 0.012355 -1.488021 57.136986 0.003691 -0.011140 0.999931 0.000000 0.996078 1 78 1.000000
$0b_redsword
  78 -0.775141 -0.300519 56.286980 -0.450381 0.784723 0.425872 0.090196 0.647059 1 78 1.000000
  78 -0.775144 -0.800519 56.786987 -0.477050 0.426843 0.768263 0.133333 0.772549 1 78 1.000000
  78 0.012356 -0.700519 56.949486 0.016722 0.517172 0.855718 0.000000 0.831373 1 78 1.000000
$0b_redsword
  78 0.012358 -0.200519 56.361984 0.005798 0.863530 0.504264 0.000000 0.674510 1 78 1.000000
  78 -0.775141 -0.300519 56.286980 -0.450381 0.784723 0.425872 0.090196 0.647059 1 78 1.000000
  78 0.012356 -0.700519 56.949486 0.016722 0.517172 0.855718 0.000000 0.831373 1 78 1.000000
$0b_redsword
  78 -0.775140 -0.125518 55.586983 -0.490253 0.871555 0.006592 0.078431 0.501961 1 78 1.000000
  78 -0.775141 -0.300519 56.286980 -0.450381 0.784723 0.425872 0.090196 0.647059 1 78 1.000000
  78 0.012358 -0.200519 56.361984 0.005798 0.863530 0.504264 0.000000 0.674510 1 78 1.000000
$0b_redsword
  78 0.012360 0.086982 55.574486 -0.009827 0.999557 0.028109 0.000000 0.498039 1 78 1.000000
  78 -0.775140 -0.125518 55.586983 -0.490253 0.871555 0.006592 0.078431 0.501961 1 78 1.000000
  78 0.012358 -0.200519 56.361984 0.005798 0.863530 0.504264 0.000000 0.674510 1 78 1.000000
$0b_redsword
  78 -0.775138 -0.300516 54.924484 -0.513212 0.746472 -0.423548 0.090196 0.360784 1 78 1.000000
  78 -0.775140 -0.125518 55.586983 -0.490253 0.871555 0.006592 0.078431 0.501961 1 78 1.000000
  78 0.012360 0.086982 55.574486 -0.009827 0.999557 0.028109 0.000000 0.498039 1 78 1.000000
$0b_redsword
  78 0.012362 -0.125517 54.799484 -0.000426 0.864118 -0.503290 0.000000 0.333333 1 78 1.000000
  78 -0.775138 -0.300516 54.924484 -0.513212 0.746472 -0.423548 0.090196 0.360784 1 78 1.000000
  78 0.012360 0.086982 55.574486 -0.009827 0.999557 0.028109 0.000000 0.498039 1 78 1.000000
$0b_redsword
  78 -0.775138 -0.813016 54.399483 -0.514838 0.434054 -0.739283 0.133333 0.227451 1 78 1.000000
  78 -0.775138 -0.300516 54.924484 -0.513212 0.746472 -0.423548 0.090196 0.360784 1 78 1.000000
  78 0.012362 -0.125517 54.799484 -0.000426 0.864118 -0.503290 0.000000 0.333333 1 78 1.000000
$0b_redsword
  78 -0.000137 -0.700517 54.224487 -0.001158 0.502073 -0.864824 0.000000 0.168627 1 78 1.000000
  78 -0.775138 -0.813016 54.399483 -0.514838 0.434054 -0.739283 0.133333 0.227451 1 78 1.000000
  78 0.012362 -0.125517 54.799484 -0.000426 0.864118 -0.503290 0.000000 0.333333 1 78 1.000000
$0b_redsword
  78 -1.312643 -1.863019 56.311977 -0.846616 -0.232255 0.478851 0.294118 0.654902 1 78 1.000000
  78 -0.775144 -1.488019 56.949486 -0.475830 -0.000001 0.879537 0.247059 0.835294 1 78 1.000000
  78 -1.312643 -1.488019 56.399479 -0.844076 -0.000001 0.536224 0.247059 0.678431 1 78 1.000000
$0b_redsword
  78 -0.775144 -2.175519 56.786983 -0.468528 -0.431599 0.770846 0.364706 0.772549 1 78 1.000000
  78 -0.775144 -1.488019 56.949486 -0.475830 -0.000001 0.879537 0.247059 0.835294 1 78 1.000000
  78 -1.312643 -1.863019 56.311977 -0.846616 -0.232255 0.478851 0.294118 0.654902 1 78 1.000000
$0b_redsword
  78 -0.775144 -2.175519 56.786983 -0.468528 -0.431599 0.770846 0.364706 0.772549 1 78 1.000000
  78 0.012355 -1.488021 57.136986 0.003691 -0.011140 0.999931 0.749020 0.996078 1 78 1.000000
  78 -0.775144 -1.488019 56.949486 -0.475830 -0.000001 0.879537 0.247059 0.835294 1 78 1.000000
$0b_eyephantom01
  92 0.037739 -2.916344 40.407192 0.535007 -0.315236 -0.783833 0.000000 1.000000 1 92 1.000000
  92 0.044257 -1.186831 39.716068 0.535007 -0.315236 -0.783833 0.000000 0.000000 1 92 1.000000
  92 1.611250 -2.551695 41.334557 0.535007 -0.315236 -0.783833 1.000000 1.000000 1 92 1.000000
$0b_eyephantom01
  92 1.611250 -2.551695 41.334557 0.535007 -0.315236 -0.783833 1.000000 1.000000 1 92 1.000000
  92 0.044257 -1.186831 39.716068 0.535007 -0.315236 -0.783833 0.000000 0.000000 1 92 1.000000
  92 1.617768 -0.822182 40.643436 0.535007 -0.315236 -0.783833 1.000000 0.000000 1 92 1.000000
$0b_eyephantom01
  93 0.280417 -2.447093 40.106976 -0.356011 -0.350269 -0.866353 0.000000 1.000000 1 93 1.000000
  93 -1.106206 -3.292672 41.018665 -0.356011 -0.350269 -0.866353 1.000000 1.000000 1 93 1.000000
  93 -0.771483 -0.921209 39.922337 -0.356011 -0.350269 -0.866353 0.000000 0.000000 1 93 1.000000
$0b_eyephantom01
  93 -0.771483 -0.921209 39.922337 -0.356011 -0.350269 -0.866353 0.000000 0.000000 1 93 1.000000
  93 -1.106206 -3.292672 41.018665 -0.356011 -0.350269 -0.866353 1.000000 1.000000 1 93 1.000000
  93 -2.158105 -1.766789 40.834030 -0.356011 -0.350269 -0.866353 1.000000 0.000000 1 93 1.000000
end
