version 1
nodes
  0 "Bip01" -1
  1 "Bip01 Pelvis" 0
  2 "Bip01 Spine" 1
  3 "Bip01 Spine1" 2
  4 "Bip01 Spine2" 3
  5 "Bip01 Spine3" 4
  6 "Bip01 Neck" 5
  7 "Bip01 Head" 6
  8 "Bip01 L Clavicle" 6
  9 "Bip01 L UpperArm" 8
  10 "Bip01 L Forearm" 9
  11 "Bip01 L Hand" 10
  12 "Bip01 L Finger0" 11
  13 "Bip01 L Finger01" 12
  14 "Bip01 L Finger1" 11
  15 "Bip01 L Finger11" 14
  16 "lflash" 11
  17 "gunslinger_p00" 16
  18 "Plane002" 16
  19 "Bip01 R Clavicle" 6
  20 "Bip01 R UpperArm" 19
  21 "Bip01 R Forearm" 20
  22 "Bip01 R Hand" 21
  23 "Bip01 R Finger0" 22
  24 "Bip01 R Finger01" 23
  25 "Bip01 R Finger1" 22
  26 "Bip01 R Finger11" 25
  27 "rflash" 22
  28 "gunslinger_p" 27
  29 "Plane003" 27
  30 "Bip01 L Thigh" 1
  31 "Bip01 L Calf" 30
  32 "Bip01 L Foot" 31
  33 "Bip01 L Toe0" 32
  34 "Bip01 R Thigh" 31
  35 "Bip01 R Calf" 34
  36 "Bip01 R Foot" 35
  37 "Bip01 R Toe0" 36
end
skeleton
  time 0
    0 0.283220 -0.031251 -3.487452 0.113016 -0.173145 -1.617147
    1 -2.276896 0.000003 -1.238186 -1.570795 -1.570796 0.000000
    2 1.797775 0.711858 0.000057 0.211848 -0.055757 0.053474
    3 4.119244 -0.003217 0.000058 0.211853 -0.055757 0.052752
    4 4.119232 -0.003217 0.000058 0.211853 -0.055757 0.052754
    5 4.119236 -0.003218 0.000058 0.211853 -0.055757 0.052729
    6 4.119686 -0.003366 -0.000021 0.014137 -0.064227 0.183116
    7 4.443600 0.000000 0.000000 0.442760 -0.348419 0.038474
    8 0.113434 0.025212 1.728975 -2.669315 -1.367352 -0.654567
    9 5.849109 0.000000 0.000000 -1.505707 0.118607 -0.247568
    10 9.697663 0.000000 -0.000004 0.000000 0.000000 -0.243015
    11 10.762129 0.000001 0.000004 -1.525213 0.167698 -0.024713
    12 0.867323 -0.222958 -0.645012 1.880709 0.522696 0.904654
    13 2.270588 -0.000002 0.000004 0.000000 0.000000 0.307301
    14 3.240425 -0.290821 -0.028107 -0.000597 0.000527 0.723045
    15 2.011148 0.000000 -0.000001 0.000000 0.000000 1.745329
    16 14.442871 0.913799 -4.104937 0.000001 0.000000 0.000000
    17 -11.669996 0.000000 6.586209 0.000000 0.000000 -1.570796
    18 15.510132 -0.000004 0.000009 0.000000 0.000000 -1.570796
    19 -0.113422 -0.018135 -1.728975 3.108996 1.551777 -0.217700
    20 5.849108 0.000002 -0.000004 0.205581 0.080651 -1.277208
    21 9.697662 0.000004 0.000000 0.000000 0.000000 -0.205968
    22 10.762133 -0.000004 0.000000 1.537367 -0.057894 0.120064
    23 0.867320 -0.222958 0.645016 -1.880709 -0.522696 0.904654
    24 2.270591 -0.000004 -0.000004 0.000000 0.000000 0.307301
    25 3.240422 -0.290825 0.028111 0.000597 -0.000527 0.723045
    26 2.011154 0.000000 -0.000004 0.000000 0.000000 1.745329
    27 14.688067 1.140224 3.090294 0.000001 0.000000 0.000000
    28 -11.427858 -0.000004 -5.355434 0.000000 0.000001 1.570797
    29 16.527199 0.000011 -0.000008 0.000000 0.000000 -1.570796
    30 -0.000006 0.000007 3.619081 3.200384 -0.163103 1.388022
    31 16.573921 0.000002 0.000000 0.000000 0.000000 -1.920592
    32 15.128182 0.000001 0.000000 -0.231595 -0.111882 -0.020460
    33 5.758665 4.244732 -0.000001 0.000000 0.000000 1.570796
    34 5.688272 -16.816017 7.127065 -0.548299 -0.913977 1.005599
    35 16.573921 -0.000001 -0.000001 0.000000 0.000000 -2.368690
    36 15.128182 0.000000 0.000002 0.090290 0.807934 1.435311
    37 5.758665 4.244732 -0.000001 0.000000 0.000000 1.570796
end
