version 1
nodes
  0 "Bone24" -1
  1 "Bone25" 0
  2 "Bone47" 1
  3 "Bone48" 2
  4 "Bone49" 3
  5 "Bone51" 3
  6 "Bone53" 3
  7 "Bone55" 3
  8 "Bone01" -1
  9 "Bone02" 8
  10 "Bone03" 9
  11 "Bone04" 10
  12 "Bone05" 11
  13 "Bone06" 12
  14 "Bone07" 10
  15 "Bone08" 14
  16 "Bone09" 15
  17 "Bone11" 10
  18 "Bone12" 17
  19 "Bone13" 18
  20 "Bone15" 10
  21 "Bone16" 20
  22 "Bone17" 21
  23 "Bone19" 10
  24 "Bone20" 23
  25 "Bone21" 24
  26 "Bone26" 1
  27 "Bone27" 26
  28 "Bone28" 27
  29 "Bone29" 28
  30 "Bone31" 26
  31 "Bone32" 30
  32 "Bone33" 31
  33 "Bone35" 26
  34 "Bone36" 33
  35 "Bone37" 34
  36 "Bone39" 26
  37 "Bone40" 36
  38 "Bone41" 37
  39 "Bone43" 26
  40 "Bone44" 39
  41 "Bone45" 40
end
skeleton
  time 0
    0 9.807475 1.871420 -8.419559 4.471618 -1.424211 -4.712308
    1 -0.244754 -8.933563 -0.000002 0.287345 0.101425 -0.154905
    2 -0.348630 -3.225921 0.729345 -0.698952 1.492005 -0.669620
    3 0.000000 2.239340 0.542449 0.000000 0.000000 0.000000
    4 0.000000 -2.809610 1.905540 0.000000 0.000000 0.000000
    5 0.000000 -4.353502 1.237908 0.000000 0.000000 0.000000
    6 0.000001 -5.688763 2.350623 0.000000 0.000000 0.000000
    7 0.000000 -4.061414 3.950155 0.000000 0.000000 0.000000
    8 0.799252 -9.334779 -10.315580 -0.430759 0.066211 0.626523
    9 0.026865 -9.077092 0.000002 0.303291 0.080795 0.264480
    10 0.000000 -0.456721 0.000000 0.000000 0.000000 0.000000
    11 -0.421909 0.233314 0.477535 -0.030644 -0.235844 -2.406234
    12 1.827484 -0.104693 0.000001 0.000000 0.000000 0.078542
    13 1.069447 0.056463 0.000001 0.000000 0.000000 0.047139
    14 -1.090120 -1.829637 -0.122573 0.000000 0.000000 -1.696450
    15 1.390341 -0.000584 0.000000 0.000000 -0.931982 0.005236
    16 0.964939 -0.010943 0.000001 0.000000 -1.157136 0.000000
    17 -0.348493 -1.994084 -0.122573 -0.000077 -0.539274 -1.644072
    18 1.546315 0.004626 0.000000 0.000000 -1.445149 0.000000
    19 1.135736 0.008476 0.000000 0.000000 -0.455552 0.020944
    20 0.310262 -1.738958 -0.122573 -0.000005 -0.937235 -1.518430
    21 1.569654 0.049780 0.000001 0.000000 -1.340446 -0.010472
    22 1.096338 0.003407 0.000000 0.000000 -0.471267 0.005236
    23 0.956485 -1.335289 -0.122573 0.000000 -0.916292 -1.445133
    24 1.346260 0.018204 -0.000001 -0.005225 -1.570796 0.000000
    25 0.874448 -0.001050 0.000000 0.000000 -1.319501 0.000000
    26 -0.017482 -0.437063 0.000000 0.000000 0.000000 0.000000
    27 0.472028 0.192308 0.472822 0.141785 -0.374976 -0.852516
    28 1.857548 0.010603 0.000000 0.000000 0.000000 -0.848219
    29 0.996039 -0.010017 0.000000 0.000000 0.000000 -0.738292
    30 1.137759 -1.867486 -0.137080 0.002457 0.047057 -1.408428
    31 1.365644 0.014869 0.000000 0.000000 -0.764439 -0.005236
    32 0.938013 -0.005664 0.000001 0.000000 -0.947705 0.010472
    33 0.409682 -2.071859 -0.137080 0.016921 -0.606768 -1.731060
    34 1.470907 0.007359 -0.000001 0.000000 -1.549862 0.010472
    35 1.152099 0.010338 0.000000 0.000000 -1.235691 0.005236
    36 -0.292848 -1.816393 -0.137080 0.011329 -0.387001 -1.731484
    37 1.511618 -0.004263 0.000000 0.000000 -1.649327 0.036652
    38 1.099637 -0.010806 -0.000001 0.000000 -1.125748 0.010472
    39 -0.957059 -1.356555 -0.137080 0.000000 -0.424113 -1.685988
    40 1.351391 -0.010799 -0.000002 0.000000 -1.141444 0.005229
    41 0.859052 0.017735 -0.000001 0.000000 -1.544612 -0.010472
  time 1
    0 9.807475 1.871420 -8.419559 4.471618 -1.424211 -4.712308
    1 -0.244754 -8.933563 -0.000002 0.287345 0.101425 -0.154905
    2 -0.348630 -3.225921 0.729345 -0.698952 1.492005 -0.669620
    3 0.000000 2.239340 0.542449 0.000000 0.000000 0.000000
    4 0.000000 -2.809610 1.905540 0.000000 0.000000 0.000000
    5 0.000000 -4.353502 1.237908 0.000000 0.000000 0.000000
    6 0.000001 -5.688763 2.350623 0.000000 0.000000 0.000000
    7 0.000000 -4.061414 3.950155 0.000000 0.000000 0.000000
    8 0.799252 -9.334779 -10.315580 -0.430759 0.066211 0.626523
    9 0.026865 -9.077092 0.000002 0.303291 0.080795 0.264480
    10 0.000000 -0.456721 0.000000 0.000000 0.000000 0.000000
    11 -0.421909 0.233314 0.477535 -0.030644 -0.235844 -2.406234
    12 1.827484 -0.104693 0.000001 0.000000 0.000000 0.078542
    13 1.069447 0.056463 0.000001 0.000000 0.000000 0.047139
    14 -1.090120 -1.829637 -0.122573 0.000000 0.000000 -1.696450
    15 1.390341 -0.000584 0.000000 0.000000 -0.931982 0.005236
    16 0.964939 -0.010943 0.000001 0.000000 -1.157136 0.000000
    17 -0.348493 -1.994084 -0.122573 -0.000077 -0.539274 -1.644072
    18 1.546315 0.004626 0.000000 0.000000 -1.445149 0.000000
    19 1.135736 0.008476 0.000000 0.000000 -0.455552 0.020944
    20 0.310262 -1.738958 -0.122573 -0.000005 -0.937235 -1.518430
    21 1.569654 0.049780 0.000001 0.000000 -1.340446 -0.010472
    22 1.096338 0.003407 0.000000 0.000000 -0.471267 0.005236
    23 0.956485 -1.335289 -0.122573 0.000000 -0.916292 -1.445133
    24 1.346260 0.018204 -0.000001 -0.005225 -1.570796 0.000000
    25 0.874448 -0.001050 0.000000 0.000000 -1.319501 0.000000
    26 -0.017482 -0.437063 0.000000 0.000000 0.000000 0.000000
    27 0.472028 0.192308 0.472822 0.141785 -0.374976 -0.852516
    28 1.857548 0.010603 0.000000 0.000000 0.000000 -0.848219
    29 0.996039 -0.010017 0.000000 0.000000 0.000000 -0.738292
    30 1.137759 -1.867486 -0.137080 0.002457 0.047057 -1.408428
    31 1.365644 0.014869 0.000000 0.000000 -0.764439 -0.005236
    32 0.938013 -0.005664 0.000001 0.000000 -0.947705 0.010472
    33 0.409682 -2.071859 -0.137080 0.016921 -0.606768 -1.731060
    34 1.470907 0.007359 -0.000001 0.000000 -1.549862 0.010472
    35 1.152099 0.010338 0.000000 0.000000 -1.235691 0.005236
    36 -0.292848 -1.816393 -0.137080 0.011329 -0.387001 -1.731484
    37 1.511618 -0.004263 0.000000 0.000000 -1.649327 0.036652
    38 1.099637 -0.010806 -0.000001 0.000000 -1.125748 0.010472
    39 -0.957059 -1.356555 -0.137080 0.000000 -0.424113 -1.685988
    40 1.351391 -0.010799 -0.000002 0.000000 -1.141444 0.005229
    41 0.859052 0.017735 -0.000001 0.000000 -1.544612 -0.010472
  time 2
    0 9.807475 1.871420 -8.419559 4.471618 -1.424211 -4.712308
    1 -0.244754 -8.933563 -0.000002 0.287345 0.101425 -0.154905
    2 -0.348630 -3.225921 0.729345 -0.698952 1.492005 -0.669620
    3 0.000000 2.239340 0.542449 0.000000 0.000000 0.000000
    4 0.000000 -2.809610 1.905540 0.000000 0.000000 0.000000
    5 0.000000 -4.353502 1.237908 0.000000 0.000000 0.000000
    6 0.000001 -5.688763 2.350623 0.000000 0.000000 0.000000
    7 0.000000 -4.061414 3.950155 0.000000 0.000000 0.000000
    8 0.799252 -9.334779 -10.315580 -0.430759 0.066211 0.626523
    9 0.026865 -9.077092 0.000002 0.303291 0.080795 0.264480
    10 0.000000 -0.456721 0.000000 0.000000 0.000000 0.000000
    11 -0.421909 0.233314 0.477535 -0.030644 -0.235844 -2.406234
    12 1.827484 -0.104693 0.000001 0.000000 0.000000 0.078542
    13 1.069447 0.056463 0.000001 0.000000 0.000000 0.047139
    14 -1.090120 -1.829637 -0.122573 0.000000 0.000000 -1.696450
    15 1.390341 -0.000584 0.000000 0.000000 -0.931982 0.005236
    16 0.964939 -0.010943 0.000001 0.000000 -1.157136 0.000000
    17 -0.348493 -1.994084 -0.122573 -0.000077 -0.539274 -1.644072
    18 1.546315 0.004626 0.000000 0.000000 -1.445149 0.000000
    19 1.135736 0.008476 0.000000 0.000000 -0.455552 0.020944
    20 0.310262 -1.738958 -0.122573 -0.000005 -0.937235 -1.518430
    21 1.569654 0.049780 0.000001 0.000000 -1.340446 -0.010472
    22 1.096338 0.003407 0.000000 0.000000 -0.471267 0.005236
    23 0.956485 -1.335289 -0.122573 0.000000 -0.916292 -1.445133
    24 1.346260 0.018204 -0.000001 -0.005225 -1.570796 0.000000
    25 0.874448 -0.001050 0.000000 0.000000 -1.319501 0.000000
    26 -0.017482 -0.437063 0.000000 0.000000 0.000000 0.000000
    27 0.472028 0.192308 0.472822 0.141785 -0.374976 -0.852516
    28 1.857548 0.010603 0.000000 0.000000 0.000000 -0.848219
    29 0.996039 -0.010017 0.000000 0.000000 0.000000 -0.738292
    30 1.137759 -1.867486 -0.137080 0.002457 0.047057 -1.408428
    31 1.365644 0.014869 0.000000 0.000000 -0.764439 -0.005236
    32 0.938013 -0.005664 0.000001 0.000000 -0.947705 0.010472
    33 0.409682 -2.071859 -0.137080 0.016921 -0.606768 -1.731060
    34 1.470907 0.007359 -0.000001 0.000000 -1.549862 0.010472
    35 1.152099 0.010338 0.000000 0.000000 -1.235691 0.005236
    36 -0.292848 -1.816393 -0.137080 0.011329 -0.387001 -1.731484
    37 1.511618 -0.004263 0.000000 0.000000 -1.649327 0.036652
    38 1.099637 -0.010806 -0.000001 0.000000 -1.125748 0.010472
    39 -0.957059 -1.356555 -0.137080 0.000000 -0.424113 -1.685988
    40 1.351391 -0.010799 -0.000002 0.000000 -1.141444 0.005229
    41 0.859052 0.017735 -0.000001 0.000000 -1.544612 -0.010472
end
