version 1
nodes
  0 "blackhole_root" -1
  1 "triger" 0
  2 "bone_up" 0
  3 "bone_up001" 2
  4 "bone_up002" 2
  5 "blackhole_up02" 2
  6 "bone_up003" 2
  7 "bone_up004" 2
  8 "bone_up005" 2
  9 "bone_sideR" 0
  10 "bone_sideR001" 9
  11 "bone_sideR002" 10
  12 "bone_sideR003" 11
  13 "bone_sideR004" 12
  14 "bone_sideL" 0
  15 "bone_sideL001" 14
  16 "bone_sideL002" 15
  17 "bone_sideL003" 16
  18 "bone_sideL004" 17
  19 "bullet10" -1
  20 "bullet09" -1
  21 "bullet08" -1
  22 "bullet07" -1
  23 "bullet06" -1
  24 "bullet05" -1
  25 "bullet04" -1
  26 "bullet03" -1
  27 "bullet02" -1
  28 "bullet01" -1
  29 "blackhole_ef_root" 2
  30 "blackhole_bone001" -1
  31 "blackhole_bone002" -1
  32 "blackhole_bone003" -1
  33 "blackhole_bone004" -1
  34 "blackhole_point" 29
  35 "blackhole_ring" 2
  36 "blackhole_bone021" 35
  37 "blackhole_bone022" 35
  38 "blackhole_bone023" 35
  39 "blackhole_bone024" 35
  40 "blackhole_light_point001" 0
  41 "epic_light_bone001" 40
  42 "epic_light_bone002" 40
  43 "epic_light_bone003" 40
  44 "epic_light_bone004" 40
  45 "blackhole_light_point002" 0
  46 "epic_light_bone009" 45
  47 "epic_light_bone010" 45
  48 "epic_light_bone011" 45
  49 "epic_light_bone012" 45
  50 "epic_light_bone013" -1
  51 "epic_light_bone014" -1
  52 "epic_light_bone015" -1
  53 "epic_light_bone016" -1
  54 "blackhole_bone005" -1
  55 "blackhole_bone006" -1
  56 "blackhole_bone007" -1
  57 "blackhole_bone008" -1
  58 "blackhole_bone009" -1
  59 "blackhole_bone010" -1
  60 "blackhole_bone011" -1
  61 "blackhole_bone012" -1
  62 "blackhole_bone013" -1
  63 "blackhole_bone014" -1
  64 "blackhole_bone015" -1
  65 "blackhole_bone016" -1
  66 "root" -1
  67 "Bone01" 66
  68 "Bone_L_Upper" 67
  69 "Bone_Lefthand" 67
  70 "Bone13" 69
  71 "Bone14" 70
  72 "Bone15" 71
  73 "Bone17" 69
  74 "Bone18" 73
  75 "Bone19" 74
  76 "Bone21" 69
  77 "Bone22" 76
  78 "Bone23" 77
  79 "Bone09" 69
  80 "Bone10" 79
  81 "Bone11" 80
  82 "Bone05" 69
  83 "Bone06" 82
  84 "Bone07" 83
  85 "Bone_Se_Hand-L" 69
  86 "Bone04" 66
  87 "Bone_Righthand" 86
  88 "Bone39" 87
  89 "Bone40" 88
  90 "Bone41" 89
  91 "Bone35" 87
  92 "Bone36" 91
  93 "Bone37" 92
  94 "Bone31" 87
  95 "Bone32" 94
  96 "Bone33" 95
  97 "Bone43" 87
  98 "Bone44" 97
  99 "Bone45" 98
  100 "Bone27" 87
  101 "Bone28" 100
  102 "Bone29" 101
  103 "Bone_Se_Hand-R" 87
  104 "Bone_R_Upper" 86
end
skeleton
  time 0
    0 3.888964 -8.171732 -3.666628 -0.000001 0.000000 0.000000
    1 0.000000 0.000000 0.000000 -0.000001 0.000000 0.000000
    2 -0.002492 -0.142656 2.350765 0.000000 -0.349067 -1.570797
    3 3.648264 -0.591012 1.154949 0.000000 -0.349066 -0.349066
    4 3.648262 0.586283 1.154950 0.000000 -0.349066 0.349066
    5 1.638023 0.000147 0.712518 -0.754163 -0.927911 3.141592
    6 4.372977 0.004415 1.090627 0.000000 -2.454739 0.000000
    7 6.174505 0.004415 1.090625 0.000000 -2.454739 0.000000
    8 7.727388 0.004415 1.090622 0.000000 -2.454739 0.000000
    9 -0.861087 -1.742399 1.946832 0.000000 -0.000001 -2.268928
    10 1.752687 -0.302547 -0.187691 0.000000 0.000000 -0.610865
    11 2.180661 0.017721 -0.000003 0.000000 0.000000 0.181871
    12 2.344190 0.424477 -0.000004 0.000000 0.000000 0.683907
    13 1.295495 0.069204 -0.000001 0.000000 0.000000 0.203881
    14 0.904969 -1.742410 1.946826 0.000000 -0.000001 -0.872665
    15 1.750698 0.314426 -0.000002 0.000001 0.000001 0.610865
    16 2.187374 -0.186664 0.000000 0.000000 0.000000 -0.261799
    17 2.370613 -0.473120 0.000000 0.000000 0.000000 -0.650928
    18 1.352087 -0.060991 0.000000 0.000000 0.000000 -0.464585
    19 2.305325 -15.686938 -3.514146 -1.570798 0.628319 -0.000001
    20 1.871118 -15.686934 -2.177797 -1.570801 1.256638 -0.000004
    21 2.300508 -15.686928 -0.856263 -1.570793 1.884956 0.000003
    22 3.442191 -15.686922 -0.026779 -1.570795 2.513274 0.000001
    23 4.840371 -15.686919 -0.026774 -1.570795 -3.141592 0.000000
    24 5.966851 -15.686917 -0.845208 -1.570795 -2.513274 0.000000
    25 6.401179 -15.686915 -2.181931 -1.570792 -1.884956 -0.000003
    26 5.970810 -15.686914 -3.506473 -1.570799 -1.256638 0.000003
    27 4.821616 -15.686914 -4.341412 -1.570798 -0.628319 0.000001
    28 3.421892 -15.686914 -4.341414 -1.570797 -0.000001 0.000000
    29 5.261106 -0.112999 -1.667288 -0.096673 -0.466716 -2.857973
    30 -0.289740 -16.139378 2.481161 -1.570797 0.129944 -1.316020
    31 8.612186 -13.816513 2.481729 -1.570797 0.129944 -1.316020
    32 -0.589592 -14.988030 -6.641582 -1.570797 0.129944 -1.316020
    33 8.312334 -12.665166 -6.641015 -1.570797 0.129944 -1.316020
    34 0.000000 0.000000 0.000000 0.000000 0.000000 -3.141592
    35 -5.601692 0.000114 -17.397482 -0.754163 -0.927911 3.141592
    36 0.000002 -0.000003 0.000002 -1.570798 -0.000001 0.000000
    37 0.000004 -0.000002 0.000001 -1.570798 -0.000001 0.000000
    38 0.000004 -0.000003 0.000000 -1.570798 -0.000001 0.000000
    39 0.000004 -0.000001 0.000000 -1.570798 -0.000001 0.000000
    40 0.005519 129.453491 2.472699 0.000000 0.000000 0.000000
    41 0.000000 0.000000 0.000000 0.000000 0.000000 0.000000
    42 0.000000 0.000000 0.000000 0.000000 0.000000 0.000000
    43 0.000000 0.000000 0.000000 0.000000 0.000000 0.000000
    44 0.000000 0.000000 0.000000 0.000000 0.000000 0.000000
    45 0.026707 -7.663448 2.477350 0.000000 0.000000 0.000000
    46 0.000000 0.000000 0.000000 0.000000 0.000000 0.000000
    47 0.000000 0.000000 0.000000 0.000000 0.000000 0.000000
    48 0.000000 0.000000 0.000000 0.000000 0.000000 0.000000
    49 0.000000 0.000000 0.000000 0.000000 0.000000 0.000000
    50 4.153549 -16.409199 -2.186037 0.000000 0.000000 0.000000
    51 4.153549 -16.409199 -2.186037 0.000000 0.000000 0.000000
    52 4.153549 -16.409199 -2.186037 0.000000 0.000000 0.000000
    53 4.153549 -16.409199 -2.186037 0.000000 0.000000 0.000000
    54 4.011350 -14.402475 -2.079954 -1.570798 0.129944 -1.316020
    55 4.011350 -14.402475 -2.079954 -1.570798 0.129944 -1.316020
    56 4.011350 -14.402475 -2.079954 -1.570798 0.129944 -1.316020
    57 4.011350 -14.402475 -2.079954 -1.570798 0.129944 -1.316020
    58 4.011350 -14.402475 -2.079954 -1.570798 0.129944 -1.316020
    59 4.011350 -14.402475 -2.079954 -1.570798 0.129944 -1.316020
    60 4.011350 -14.402475 -2.079954 -1.570798 0.129944 -1.316020
    61 4.011350 -14.402475 -2.079954 -1.570798 0.129944 -1.316020
    62 4.011350 -14.402477 -2.079954 -1.570798 0.129944 -1.316020
    63 4.011350 -14.402477 -2.079954 -1.570798 0.129944 -1.316020
    64 4.011350 -14.402477 -2.079954 -1.570798 0.129944 -1.316020
    65 4.011350 -14.402477 -2.079954 -1.570798 0.129944 -1.316020
    66 0.001265 -0.569176 -20.601572 0.000000 0.000000 0.000000
    67 9.310103 -5.299614 -12.557959 3.138909 -0.000224 -1.566807
    68 1.257180 8.762585 -0.153713 -1.570562 0.002683 -1.566807
    69 -0.071921 -8.498736 -0.104134 -0.025046 0.287591 0.014898
    70 -0.488518 -2.755602 -0.228260 0.106454 0.010332 -0.264490
    71 0.039887 -1.479790 0.029854 -0.055395 0.000000 0.000001
    72 0.028786 -1.075731 -0.023109 0.002099 0.000000 0.000000
    73 0.250027 -2.820665 -0.238396 0.041826 -0.002921 0.008443
    74 -0.049759 -1.680544 0.100479 0.019826 0.000000 -0.000002
    75 -0.034142 -1.148312 0.084782 -0.040115 0.000000 0.000000
    76 0.957766 -2.746780 -0.090302 -0.017221 -0.162277 0.191558
    77 -0.033420 -1.397129 -0.011257 0.013931 0.000000 -0.000001
    78 -0.022360 -0.957436 0.018784 0.003845 0.000000 0.000000
    79 -1.180681 -2.507217 -0.193859 0.082999 0.013294 -0.477915
    80 -0.024967 -1.123934 0.017597 -0.018065 0.000000 0.000001
    81 -0.020057 -0.890968 0.010090 -0.060797 0.000000 0.000000
    82 0.583510 -1.197277 0.185379 0.158049 -0.404973 -0.364290
    83 1.535927 0.010246 0.005009 -0.002964 -0.012979 0.000887
    84 1.100771 0.004527 -0.010679 -0.002796 0.015973 0.003458
    85 0.120153 -0.050270 -0.054489 0.287569 3.110905 1.561085
    86 -9.310107 -5.231260 -12.513384 0.004984 -3.131565 -1.566847
    87 0.096944 -8.450418 -0.009365 -0.032965 -0.297907 -0.004663
    88 0.447953 -2.798986 -0.200443 0.106456 -0.010396 0.265094
    89 -0.032909 -1.480204 0.004940 -0.055403 0.000000 0.000002
    90 -0.027022 -1.076920 -0.020210 0.002094 0.000000 0.000000
    91 -0.249534 -2.846964 -0.174213 0.041903 -0.000125 -0.008396
    92 0.043235 -1.683941 0.096012 0.019757 0.002823 -0.000167
    93 0.031729 -1.160830 0.058838 -0.040181 0.000642 0.008372
    94 -0.963866 -2.785145 -0.085350 -0.017227 0.162276 -0.191556
    95 0.028479 -1.403067 0.006271 0.013941 0.000000 0.000000
    96 0.021413 -0.957781 0.020046 0.003851 0.000000 0.000000
    97 1.164475 -2.543940 -0.170330 0.083003 -0.013294 0.477915
    98 0.024032 -1.129042 0.017807 -0.018074 0.000000 0.000001
    99 0.014898 -0.883989 -0.019848 -0.060801 0.000000 0.000000
    100 -0.586770 -1.264477 0.200161 -0.152092 -0.410513 -2.814816
    101 1.522835 0.058681 0.016848 0.001410 0.008985 -0.046880
    102 1.117947 0.048424 -0.005766 -0.000243 -0.025198 0.065422
    103 -0.139399 -0.111698 0.014397 0.285382 -0.030687 1.580508
    104 -1.393470 8.839177 -0.239433 1.580804 -0.005023 -1.566847
end
triangles
$0b_blackhole_ef02.bmp
  59 4.011350 -14.402475 -2.079954 0.997782 0.059851 -0.029138 0.000000 1.000000
  61 4.011350 -14.402475 -2.079954 0.767381 -0.632871 -0.102957 1.000000 1.000000
  58 4.011350 -14.402475 -2.079954 0.997816 0.059236 -0.029212 0.000000 0.000000
$0b_blackhole_ef02.bmp
  58 4.011350 -14.402475 -2.079954 0.997816 0.059236 -0.029212 0.000000 0.000000
  61 4.011350 -14.402475 -2.079954 0.767381 -0.632871 -0.102957 1.000000 1.000000
  60 4.011350 -14.402475 -2.079954 0.766464 -0.633966 -0.103054 1.000000 0.000000
blackhole_black.bmp
  59 4.001354 -14.364093 -2.074771 0.927425 -0.365975 -0.077104 0.000000 1.000000
  61 4.001354 -14.364093 -2.074771 0.920660 -0.382330 -0.078799 0.499022 1.000000
  58 4.001354 -14.364093 -2.074771 0.927415 -0.365999 -0.077107 0.000000 0.500978
blackhole_black.bmp
  58 4.001354 -14.364093 -2.074771 0.927415 -0.365999 -0.077107 0.000000 0.500978
  61 4.001354 -14.364093 -2.074771 0.920660 -0.382330 -0.078799 0.499022 1.000000
  60 4.001354 -14.364093 -2.074771 0.920649 -0.382355 -0.078802 0.499022 0.500978
end
