// Created by Crowbar 0.68

$modelname "weapons/tfa_cso/c_voidpistol.mdl"

$include "csonline_gmod.qci"

$bodygroup "weapon"
{
	studio "v_voidpistol01"
}
$bodygroup "weapon"
{
	studio "v_voidpistol02"
}
$bodygroup "weapon"
{
	studio "v_voidpistol03"
}
$bodygroup "weapon"
{
	studio "v_voidpistol_ef"
}
$bodygroup "blackhole"
{
	studio "ef_voidpistol01"
	studio "ef_voidpistol02"
	studio "ef_voidpistol03"
}

$cdmaterials "models/weapons/tfa_cso/voidpistol"

$attachment 0 "blackhole_light_point002" 0 0 0
//$attachment 1 "blackhole_point" 0 0 0

$definebone "blackhole_root" "" 3.888964 -8.171732 -3.666628 0.000000 0.000000 -0.000057 0.000000 0.000000 0.000000 -0.000000 0.000000 0.000000
$definebone "blackhole_light_point002" "blackhole_root" 0.026707 -7.663448 2.477350 -0.000000 0.000000 0.000000 0.000000 0.000000 0.000000 -0.000000 0.000000 0.000000
$definebone "triger" "blackhole_root" 0.000000 0.000000 0.000000 -0.000000 0.000000 -0.000057 0.000000 0.000000 0.000000 -0.000000 0.000000 0.000000
$definebone "bone_up" "blackhole_root" -0.002492 -0.142656 2.350765 -20.000067 -90.000038 0.000000 0.000000 0.000000 0.000000 0.000000 0.000000 0.000000
$definebone "bone_up001" "bone_up" 3.648263 -0.591012 1.154949 -20.000006 -20.000008 -0.000000 -0.000000 0.000000 0.000000 0.000001 0.000002 0.000002
$definebone "bone_up002" "bone_up" 3.648261 0.586283 1.154950 -20.000006 20.000008 0.000000 0.000000 -0.000000 0.000000 0.000003 -0.000002 0.000000
$definebone "blackhole_up02" "bone_up" 1.638023 0.000147 0.712518 -53.165382 179.999969 -43.210354 0.000000 0.000000 0.000000 0.000002 0.000003 0.000000
$definebone "bone_up003" "bone_up" 4.372977 0.004415 1.090627 -39.353809 180.000000 180.000000 0.000000 0.000000 0.000000 -0.000000 0.000000 0.000000
$definebone "bone_up004" "bone_up" 6.174505 0.004415 1.090625 -39.353809 180.000000 180.000000 0.000000 0.000000 0.000000 -0.000000 0.000000 0.000000
$definebone "bone_up005" "bone_up" 7.727387 0.004415 1.090622 -39.353809 180.000000 180.000000 0.000000 0.000000 0.000000 -0.000000 0.000000 0.000000
$definebone "bone_sideR" "blackhole_root" -0.861087 -1.742399 1.946832 -0.000057 -130.000000 0.000000 0.000000 0.000000 0.000000 0.000000 0.000000 0.000000
$definebone "bone_sideR001" "bone_sideR" 1.752686 -0.302547 -0.187691 0.000000 -34.999985 0.000000 -0.000000 0.000000 0.000000 0.000000 0.000000 0.000000
$definebone "bone_sideR002" "bone_sideR001" 2.180661 0.017720 -0.000003 0.000000 10.420440 0.000000 0.000000 0.000000 0.000000 0.000000 0.000000 0.000000
$definebone "bone_sideR003" "bone_sideR002" 2.344190 0.424477 -0.000004 -0.000000 39.184982 0.000000 0.000000 -0.000000 0.000000 -0.000000 0.000000 0.000000
$definebone "bone_sideR004" "bone_sideR003" 1.295495 0.069204 -0.000001 0.000000 11.681521 0.000000 0.000000 0.000000 0.000000 0.000000 0.000000 0.000000
$definebone "bone_sideL" "blackhole_root" 0.904969 -1.742410 1.946826 -0.000057 -50.000023 0.000000 0.000001 -0.000000 0.000000 -0.000000 0.000000 0.000000
$definebone "bone_sideL001" "bone_sideL" 1.750698 0.314426 -0.000002 0.000057 34.999985 0.000057 -0.000001 0.000000 0.000000 -0.000000 0.000000 0.000000
$definebone "bone_sideL002" "bone_sideL001" 2.187374 -0.186664 -0.000000 -0.000000 -14.999978 -0.000000 -0.000001 0.000000 -0.000000 -0.000000 0.000000 -0.000000
$definebone "bone_sideL003" "bone_sideL002" 2.370612 -0.473121 -0.000000 -0.000000 -37.295425 0.000000 0.000000 0.000000 -0.000000 -0.000000 0.000000 0.000000
$definebone "bone_sideL004" "bone_sideL003" 1.352087 -0.060990 0.000000 -0.000000 -26.618763 0.000000 0.000000 0.000000 0.000000 -0.000000 0.000000 0.000000
$definebone "bullet10" "" 2.305325 -15.686938 -3.514146 36.000034 -0.000057 -90.000099 0.000000 0.000000 0.000000 -0.000000 0.000000 -0.000000
$definebone "bullet09" "" 1.871118 -15.686934 -2.177797 72.000061 -0.000229 -90.000267 -0.000000 0.000000 0.000000 -0.000000 0.000000 -0.000000
$definebone "bullet08" "" 2.300508 -15.686928 -0.856263 71.999977 -179.999832 90.000191 0.000000 0.000000 0.000000 -0.000000 0.000000 0.000000
$definebone "bullet07" "" 3.442191 -15.686922 -0.026779 36.000008 -179.999939 90.000076 0.000000 0.000000 0.000000 -0.000000 0.000000 0.000000
$definebone "bullet06" "" 4.840371 -15.686919 -0.026774 -0.000036 -180.000000 90.000076 0.000000 0.000000 0.000000 -0.000000 0.000000 -0.000000
$definebone "bullet05" "" 5.966851 -15.686917 -0.845208 -36.000008 -180.000000 90.000076 0.000000 0.000000 0.000000 -0.000000 0.000000 0.000000
$definebone "bullet04" "" 6.401179 -15.686915 -2.181931 -71.999977 179.999832 90.000252 0.000000 0.000000 0.000000 0.000000 0.000000 0.000000
$definebone "bullet03" "" 5.970810 -15.686914 -3.506473 -72.000061 0.000172 -90.000153 0.000000 -0.000000 0.000000 0.000000 0.000000 -0.000000
$definebone "bullet02" "" 4.821616 -15.686914 -4.341412 -36.000034 0.000057 -90.000099 0.000000 0.000000 0.000000 -0.000000 0.000000 -0.000000
$definebone "bullet01" "" 3.421892 -15.686914 -4.341414 -0.000057 0.000000 -90.000038 0.000000 0.000000 0.000000 -0.000000 0.000000 0.000000
$definebone "blackhole_ef_root" "bone_up" 5.261106 -0.112999 -1.667288 -26.740858 -163.749802 -5.538955 0.000000 -0.000000 0.000000 0.000000 0.000002 -0.000000
$definebone "blackhole_bone001" "" -0.289740 -16.139378 2.481161 7.445242 -75.402390 -90.000038 0.000000 0.000000 0.000000 -0.000000 -0.000000 -0.000000
$definebone "blackhole_bone002" "" 8.612186 -13.816513 2.481729 7.445242 -75.402390 -90.000038 0.000000 0.000000 0.000000 -0.000000 -0.000000 -0.000000
$definebone "blackhole_bone003" "" -0.589592 -14.988030 -6.641582 7.445242 -75.402390 -90.000038 0.000000 0.000000 0.000000 -0.000000 -0.000000 -0.000000
$definebone "blackhole_bone004" "" 8.312334 -12.665166 -6.641015 7.445242 -75.402390 -90.000038 0.000000 0.000000 -0.000000 -0.000000 -0.000000 -0.000000
$definebone "blackhole_point" "blackhole_ef_root" 0.000000 -0.000000 0.000000 -0.000000 -179.999969 0.000001 0.000000 -0.000000 0.000000 -0.000000 0.000002 0.000001
$definebone "blackhole_ring" "bone_up" -5.601693 0.000114 -17.397484 -53.165382 179.999969 -43.210354 0.000000 -0.000000 0.000001 0.000002 0.000003 0.000000
$definebone "blackhole_bone021" "blackhole_ring" 0.000004 -0.000004 0.000002 -0.000056 0.000002 -90.000099 0.000000 0.000001 0.000000 -0.000002 0.000000 0.000003
$definebone "blackhole_bone022" "blackhole_ring" 0.000004 -0.000003 0.000001 -0.000056 0.000002 -90.000099 -0.000002 0.000000 0.000000 -0.000002 0.000000 0.000003
$definebone "blackhole_bone023" "blackhole_ring" 0.000004 -0.000004 0.000000 -0.000056 0.000002 -90.000099 -0.000002 0.000000 0.000000 -0.000002 0.000000 0.000003
$definebone "blackhole_bone024" "blackhole_ring" 0.000004 -0.000001 0.000000 -0.000056 0.000002 -90.000099 0.000000 0.000000 0.000000 -0.000002 0.000000 0.000003
$definebone "blackhole_light_point001" "blackhole_root" 0.005519 129.453491 2.472699 -0.000000 0.000000 0.000000 0.000000 0.000000 0.000000 -0.000000 0.000000 0.000000
$definebone "epic_light_bone001" "blackhole_light_point001" 0.000000 0.000000 0.000000 -0.000000 0.000000 0.000000 0.000000 0.000000 0.000000 -0.000000 0.000000 0.000000
$definebone "epic_light_bone002" "blackhole_light_point001" 0.000000 0.000000 0.000000 -0.000000 0.000000 0.000000 0.000000 0.000000 0.000000 -0.000000 0.000000 0.000000
$definebone "epic_light_bone003" "blackhole_light_point001" 0.000000 0.000000 0.000000 -0.000000 0.000000 0.000000 0.000000 0.000000 0.000000 -0.000000 0.000000 0.000000
$definebone "epic_light_bone004" "blackhole_light_point001" 0.000000 0.000000 0.000000 -0.000000 0.000000 0.000000 0.000000 0.000000 0.000000 -0.000000 0.000000 0.000000
$definebone "epic_light_bone009" "blackhole_light_point002" 0.000000 0.000000 0.000000 -0.000000 0.000000 0.000000 0.000000 0.000000 0.000000 -0.000000 0.000000 0.000000
$definebone "epic_light_bone010" "blackhole_light_point002" 0.000000 0.000000 0.000000 -0.000000 0.000000 0.000000 0.000000 0.000000 0.000000 -0.000000 0.000000 0.000000
$definebone "epic_light_bone011" "blackhole_light_point002" 0.000000 0.000000 0.000000 -0.000000 0.000000 0.000000 0.000000 0.000000 0.000000 -0.000000 0.000000 0.000000
$definebone "epic_light_bone012" "blackhole_light_point002" 0.000000 0.000000 0.000000 -0.000000 0.000000 0.000000 0.000000 0.000000 0.000000 -0.000000 0.000000 0.000000
$definebone "epic_light_bone013" "" 4.153549 -16.409199 -2.186037 0.000000 0.000000 0.000000 0.000000 0.000000 0.000000 -0.000000 0.000000 0.000000
$definebone "epic_light_bone014" "" 4.153549 -16.409199 -2.186037 0.000000 0.000000 0.000000 0.000000 0.000000 0.000000 -0.000000 0.000000 0.000000
$definebone "epic_light_bone015" "" 4.153549 -16.409199 -2.186037 0.000000 0.000000 0.000000 0.000000 0.000000 0.000000 -0.000000 0.000000 0.000000
$definebone "epic_light_bone016" "" 4.153549 -16.409199 -2.186037 0.000000 0.000000 0.000000 0.000000 0.000000 0.000000 -0.000000 0.000000 0.000000
$definebone "blackhole_bone005" "" 4.011350 -14.402475 -2.079954 7.445242 -75.402390 -90.000099 0.000000 0.000000 0.000000 -0.000000 -0.000000 -0.000000
$definebone "blackhole_bone006" "" 4.011350 -14.402475 -2.079954 7.445242 -75.402390 -90.000099 0.000000 0.000000 0.000000 -0.000000 -0.000000 -0.000000
$definebone "blackhole_bone007" "" 4.011350 -14.402475 -2.079954 7.445242 -75.402390 -90.000099 0.000000 0.000000 0.000000 -0.000000 -0.000000 -0.000000
$definebone "blackhole_bone008" "" 4.011350 -14.402475 -2.079954 7.445242 -75.402390 -90.000099 0.000000 0.000000 0.000000 -0.000000 -0.000000 -0.000000
$definebone "blackhole_bone009" "" 4.011350 -14.402475 -2.079954 7.445242 -75.402390 -90.000099 0.000000 0.000000 0.000000 -0.000000 -0.000000 -0.000000
$definebone "blackhole_bone010" "" 4.011350 -14.402475 -2.079954 7.445242 -75.402390 -90.000099 0.000000 0.000000 0.000000 -0.000000 -0.000000 -0.000000
$definebone "blackhole_bone011" "" 4.011350 -14.402475 -2.079954 7.445242 -75.402390 -90.000099 0.000000 0.000000 0.000000 -0.000000 -0.000000 -0.000000
$definebone "blackhole_bone012" "" 4.011350 -14.402475 -2.079954 7.445242 -75.402390 -90.000099 0.000000 0.000000 0.000000 -0.000000 -0.000000 -0.000000
$definebone "blackhole_bone013" "" 4.011350 -14.402477 -2.079954 7.445242 -75.402390 -90.000099 0.000000 0.000000 0.000000 -0.000000 -0.000000 -0.000000
$definebone "blackhole_bone014" "" 4.011350 -14.402477 -2.079954 7.445242 -75.402390 -90.000099 0.000000 0.000000 0.000000 -0.000000 -0.000000 -0.000000
$definebone "blackhole_bone015" "" 4.011350 -14.402477 -2.079954 7.445242 -75.402390 -90.000099 0.000000 0.000000 0.000000 -0.000000 -0.000000 -0.000000
$definebone "blackhole_bone016" "" 4.011350 -14.402477 -2.079954 7.445242 -75.402390 -90.000099 0.000000 0.000000 0.000000 -0.000000 -0.000000 -0.000000

$sequence "idleA" {
	"v_voidpistol_anims\idleA"
	fps 30
}
$sequence "idleB" {
	"v_voidpistol_anims\idleB"
	fps 30
}
$sequence "idleC" {
	"v_voidpistol_anims\idleC"
	{ event 5004 0 "Voidpistol.Idle" }
	fps 30
	activity "ACT_VM_IDLE" 1
	loop
}
$sequence "shootA" {
	"v_voidpistol_anims\shootA"
	{ event 5001 0 "#I140 S0.045 R30 F0 P30 T999 A1 L0 O0 X0" }
	fps 30
}
$sequence "shootB" {
	"v_voidpistol_anims\shootB"
	{ event 5001 0 "#I140 S0.05 R30 F0 P30 T999 A1 L0 O0 X0" }
	fps 30
}
$sequence "shootC" {
	"v_voidpistol_anims\shootC"
	{ event 5001 0 "#I140 S0.05 R30 F0 P30 T999 A1 L0 O0 X0" }
	{ event 5004 0 "Voidpistol.Idle2" }
	fps 30
	activity "ACT_VM_PRIMARYATTACK" 1
	snap
}
$sequence "shoot_blackhole_a" {
	"v_voidpistol_anims\shoot_blackhole_a"
	{ event 5001 0 "#I141 S0.07 R30 F0 P30 T999 A1 L0 O0 X0" }
	{ event 5004 4 "weapons/voidpistol_shoot_blackhole.wav" }
	fps 30
}
$sequence "shoot_blackhole" {
	"v_voidpistol_anims\shoot_blackhole"
	{ event 5001 0 "#I141 S0.07 R30 F0 P30 T999 A1 L0 O0 X0" }
	{ event 5004 4 "Voidpistol.Fire2" }
	{ event 5004 34 "Voidpistol.Change" }
	fps 30
	activity "ACT_VM_SECONDARYATTACK" 1
	snap
}
$sequence "reloadA" {
	"v_voidpistol_anims\reloadA"
	{ event 5004 2 "weapons/voidpistol_reloadA_1.wav" }
	{ event 5004 22 "weapons/voidpistol_reloadA_2.wav" }
	fps 30
}
$sequence "reloadB" {
	"v_voidpistol_anims\reloadB"
	{ event 5004 2 "weapons/voidpistol_reloadA_1.wav" }
	{ event 5004 22 "weapons/voidpistol_reloadB_2.wav" }
	fps 30
}
$sequence "reloadC" {
	"v_voidpistol_anims\reloadC"
	{ event 5004 2 "Voidpistol.Reload1" }
	{ event 5004 22 "Voidpistol.Reload2" }
	fps 30
	activity "ACT_VM_RELOAD" 1
	snap
}
$sequence "scanning_on" {
	"v_voidpistol_anims\scanning_on"
	{ event 5004 1 "weapons/voidpistol_scaninng_on.wav" }
	fps 30
}
$sequence "scanning_off" {
	"v_voidpistol_anims\scanning_off"
	{ event 5004 2 "weapons/voidpistol_scaninng_off.wav" }
	fps 30
}
$sequence "changeAC" {
	"v_voidpistol_anims\changeAC"
	{ event 5004 3 "weapons/voidpistol_changeAC.wav" }
	fps 30
}
$sequence "changeBC" {
	"v_voidpistol_anims\changeBC"
	{ event 5004 3 "weapons/voidpistol_changeBC.wav" }
	fps 30
}
$sequence "drawA" {
	"v_voidpistol_anims\drawA"
	{ event 5004 5 "weapons/voidpistol_drawA.wav" }
	fps 30
}
$sequence "drawB" {
	"v_voidpistol_anims\drawB"
	{ event 5004 5 "weapons/voidpistol_drawB.wav" }
	fps 30
}
$sequence "drawC" {
	"v_voidpistol_anims\drawC"
	{ event 5004 5 "Voidpistol.Draw" }
	fps 30
	snap
}
$sequence "drawD" {
	"v_voidpistol_anims\drawD"
	{ event 5004 5 "Voidpistol.DrawB" }
	{ event 5004 49 "Voidpistol.Change" }
	activity "ACT_VM_DRAW" 1
	fps 30
	snap
}