// Created by Crowbar 0.49.0.0

$modelname "weapons/tfa_cso/c_mk3a1.mdl"

$Include "csonline_gmod.qci"

$bodygroup "weapon"
{
	studio "v_mk3a1_v_jackhammer"
}

$CDMaterials "models\weapons\tfa_cso\mk3a1\"

$attachment 0 "rootall" 2.905 0 13.978
//$attachment 1 "rootall" 2.136 -1.541 0.185

$definebone "rootall" "" 0.000000 0.000000 0.000000 -89.999983 90.000038 0.000000 0.000000 0.000000 0.000000 -0.000000 0.000000 0.000000
$definebone "triger" "rootall" 0.502589 0.000000 -0.425846 -89.999983 0.000057 0.000000 0.000000 0.000000 0.000000 0.000000 0.000000 0.000000
$definebone "triger2" "rootall" 2.072485 -0.000003 -10.797798 0.000036 180.000007 180.000007 0.000000 -0.000000 0.000000 0.000000 0.000000 0.000000
$definebone "megazine02" "rootall" -29.768642 -0.000007 -0.000006 -0.000000 -89.999983 0.000000 0.000000 0.000000 0.000000 -0.000000 -0.000000 0.000000
$definebone "reload" "rootall" 1.540350 0.000002 5.049790 -0.000000 -89.999983 0.000000 0.000000 0.000000 0.000000 -0.000000 -0.000000 0.000000
$definebone "megazine" "rootall" 1.540352 -0.000001 -7.045992 -0.000000 -89.999983 0.000000 0.000000 0.000000 0.000000 -0.000000 -0.000000 0.000000

$sequence "idle" {
	"v_mk3a1_anims\idle"
	fps 30
	loop
	activity "ACT_VM_IDLE" 1
	snap
}
$sequence "shoot1" {
	"v_mk3a1_anims\shoot1"
	{ event 5001 1 "31" }
	fps 30
	activity "ACT_VM_PRIMARYATTACK" 1
	snap
}
$sequence "shoot2" {
	"v_mk3a1_anims\shoot2"
	{ event 5001 1 "33" }
	fps 30
	activity "ACT_VM_PRIMARYATTACK" 2
	snap
}
$sequence "reload" {
	"v_mk3a1_anims\reload"
	{ event 5004 7 "MK3A1.ClipOut1" }
	{ event 5004 34 "MK3A1.ClipOut2" }
	{ event 5004 49 "MK3A1.ClipIn1" }
	{ event 5004 54 "MK3A1.ClipIn2" }
	fps 30
	activity "ACT_VM_RELOAD" 1
	snap
}
$sequence "draw" {
	"v_mk3a1_anims\draw"
	fps 30
	activity "ACT_VM_DRAW" 1
	snap
}
