version 1
nodes
  0 "gunkata_root" -1
  1 "gunkata_knife" 0
  2 "kata_triger" 0
  3 "kata_2" 0
  4 "slide" 0
  5 "gunkata_megazine" 0
  6 "gunkata_root001" -1
  7 "gunkata_knife001" 6
  8 "kata_triger001" 6
  9 "kata_005" 6
  10 "slide001" 6
  11 "gunkata_megazine001" 6
  12 "trail01" -1
  13 "trail02" 12
  14 "root" -1
  15 "Bone01" 14
  16 "Bone_L_Upper" 15
  17 "Bone_Lefthand" 15
  18 "Bone13" 17
  19 "Bone14" 18
  20 "Bone15" 19
  21 "Bone17" 17
  22 "Bone18" 21
  23 "Bone19" 22
  24 "Bone21" 17
  25 "Bone22" 24
  26 "Bone23" 25
  27 "Bone09" 17
  28 "Bone10" 27
  29 "Bone11" 28
  30 "Bone05" 17
  31 "Bone06" 30
  32 "Bone07" 31
  33 "Bone_Se_Hand-L" 17
  34 "Bone04" 14
  35 "Bone_Righthand" 34
  36 "Bone39" 35
  37 "Bone40" 36
  38 "Bone41" 37
  39 "Bone35" 35
  40 "Bone36" 39
  41 "Bone37" 40
  42 "Bone31" 35
  43 "Bone32" 42
  44 "Bone33" 43
  45 "Bone43" 35
  46 "Bone44" 45
  47 "Bone45" 46
  48 "Bone27" 35
  49 "Bone28" 48
  50 "Bone29" 49
  51 "Bone_Se_Hand-R" 35
  52 "Bone_R_Upper" 34
end
skeleton
  time 0
    0 0.000000 0.000000 0.000000 1.570796 -1.570796 0.000000
    1 -3.157606 0.000000 -1.771385 0.000000 0.000000 0.000000
    2 1.347458 0.000000 -0.036606 0.000001 -3.141592 0.000000
    3 2.980681 -0.000001 -3.026972 0.000000 0.000000 0.000000
    4 3.096915 -0.000001 -3.559005 -3.141592 -1.570451 0.000000
    5 -2.772562 0.000000 -3.715392 0.000000 -0.478942 0.000000
    6 -10.000000 0.000000 0.000000 1.570796 -1.570796 0.000000
    7 -3.157606 0.000001 -1.771385 0.000000 0.000000 0.000000
    8 1.347458 0.000000 -0.036606 0.000001 -3.141592 0.000000
    9 2.980681 -0.000001 -3.026972 0.000000 0.000000 0.000000
    10 3.096915 -0.000002 -3.559005 -3.141592 -1.570451 0.000000
    11 -2.772562 -0.000001 -3.715392 0.000000 -0.478942 0.000000
    12 -27.697800 52.310982 8.327048 0.986223 -1.014512 -1.333072
    13 0.000002 40.432781 -0.000015 0.000000 0.000000 0.000000
    14 0.001265 -0.569176 -20.601572 0.000000 0.000000 0.000000
    15 9.310103 -5.299614 -12.557959 3.138909 -0.000224 -1.566807
    16 1.257180 8.762585 -0.153713 -1.570562 0.002683 -1.566807
    17 -0.071921 -8.498736 -0.104134 -0.025046 0.287591 0.014898
    18 -0.488518 -2.755602 -0.228260 0.106454 0.010332 -0.264490
    19 0.039887 -1.479790 0.029854 -0.055395 0.000000 0.000001
    20 0.028786 -1.075731 -0.023109 0.002099 0.000000 0.000000
    21 0.250027 -2.820665 -0.238396 0.041826 -0.002921 0.008443
    22 -0.049759 -1.680544 0.100479 0.019826 0.000000 -0.000002
    23 -0.034142 -1.148312 0.084782 -0.040115 0.000000 0.000000
    24 0.957766 -2.746780 -0.090302 -0.017221 -0.162277 0.191558
    25 -0.033420 -1.397129 -0.011257 0.013931 0.000000 -0.000001
    26 -0.022360 -0.957436 0.018784 0.003845 0.000000 0.000000
    27 -1.180681 -2.507217 -0.193859 0.082999 0.013294 -0.477915
    28 -0.024967 -1.123934 0.017597 -0.018065 0.000000 0.000001
    29 -0.020057 -0.890968 0.010090 -0.060797 0.000000 0.000000
    30 0.583510 -1.197277 0.185379 0.158049 -0.404973 -0.364290
    31 1.535927 0.010246 0.005009 -0.002964 -0.012979 0.000887
    32 1.100771 0.004527 -0.010679 -0.002796 0.015973 0.003458
    33 0.120153 -0.050270 -0.054489 0.287569 3.110905 1.561085
    34 -9.310107 -5.231260 -12.513384 0.004984 -3.131565 -1.566847
    35 0.096944 -8.450418 -0.009365 -0.032965 -0.297907 -0.004663
    36 0.447953 -2.798986 -0.200443 0.106456 -0.010396 0.265094
    37 -0.032909 -1.480204 0.004940 -0.055403 0.000000 0.000002
    38 -0.027022 -1.076920 -0.020210 0.002094 0.000000 0.000000
    39 -0.249534 -2.846964 -0.174213 0.041903 -0.000125 -0.008396
    40 0.043235 -1.683941 0.096012 0.019757 0.002823 -0.000167
    41 0.031729 -1.160830 0.058838 -0.040181 0.000642 0.008372
    42 -0.963866 -2.785145 -0.085350 -0.017227 0.162276 -0.191556
    43 0.028479 -1.403067 0.006271 0.013941 0.000000 0.000000
    44 0.021413 -0.957781 0.020046 0.003851 0.000000 0.000000
    45 1.164475 -2.543940 -0.170330 0.083003 -0.013294 0.477915
    46 0.024032 -1.129042 0.017807 -0.018074 0.000000 0.000001
    47 0.014898 -0.883989 -0.019848 -0.060801 0.000000 0.000000
    48 -0.586770 -1.264477 0.200161 -0.152092 -0.410513 -2.814816
    49 1.522835 0.058681 0.016848 0.001410 0.008985 -0.046880
    50 1.117947 0.048424 -0.005766 -0.000243 -0.025198 0.065422
    51 -0.139399 -0.111698 0.014397 0.285382 -0.030687 1.580508
    52 -1.393470 8.839177 -0.239433 1.580804 -0.005023 -1.566847
end
triangles
$0b_gunkatamtrail.bmp
  13 -13.780463 89.529209 19.218441 -0.920854 0.259071 0.291393 0.000000 1.000000
  12 -28.737067 56.412578 1.396130 -0.920854 0.259071 0.291393 0.000000 0.000000
  13 -11.761057 81.195097 33.009821 -0.920854 0.259071 0.291393 1.000000 1.000000
$0b_gunkatamtrail.bmp
  13 -11.761057 81.195097 33.009821 -0.920854 0.259071 0.291393 1.000000 1.000000
  12 -28.737067 56.412578 1.396130 -0.920854 0.259071 0.291393 0.000000 0.000000
  12 -26.717660 48.078466 15.187510 -0.920854 0.259071 0.291393 1.000000 0.000000
end
