version 1
nodes
  0 "Bone01" -1
  1 "Bone_Lefthand" 0
  2 "Bone02" 1
  3 "Bone03" 2
  4 "Bone52" 3
  5 "Bone48" 3
  6 "Bone25" 3
  7 "Bone50" 3
  8 "Bone54" 3
  9 "Bone04" -1
  10 "Bone_Righthand" 9
  11 "Bone27" 10
  12 "Bone28" 11
  13 "Bone29" 12
  14 "Bone31" 10
  15 "Bone32" 14
  16 "Bone33" 15
  17 "Bone35" 10
  18 "Bone36" 17
  19 "Bone37" 18
  20 "Bone39" 10
  21 "Bone40" 20
  22 "Bone41" 21
  23 "Bone43" 10
  24 "Bone44" 23
  25 "Bone45" 24
  26 "Bone_Se_Hand-R" 10
  27 "Bone05" 1
  28 "Bone06" 27
  29 "Bone07" 28
  30 "Bone21" 1
  31 "Bone22" 30
  32 "Bone23" 31
  33 "Bone17" 1
  34 "Bone18" 33
  35 "Bone19" 34
  36 "Bone13" 1
  37 "Bone14" 36
  38 "Bone15" 37
  39 "Bone09" 1
  40 "Bone10" 39
  41 "Bone11" 40
  42 "Bone_Se_Hand-L" 1
end
skeleton
  time 0
    0 5.594714 4.296876 -6.958760 1.528678 -0.681232 -2.304176
    1 -0.071917 -8.498732 -0.104136 0.352646 -0.250698 -0.629139
    2 -0.252194 -4.514323 0.852150 -1.061842 1.466026 -1.048336
    3 -0.000001 2.617617 0.665015 0.000000 0.000000 0.000000
    4 0.000000 -1.655466 2.278033 0.000000 0.000000 0.000000
    5 0.000000 -1.796959 1.330032 0.000000 0.000000 0.000000
    6 0.000001 -2.886454 1.471525 0.000000 0.000000 0.000000
    7 0.000000 -0.778211 1.774024 -0.680679 0.000000 0.000000
    8 0.000000 -1.598869 0.580120 0.000000 0.000000 0.000000
    9 -6.406884 0.230605 -9.993073 -1.247716 2.344932 -1.309907
    10 0.096946 -8.450418 -0.009364 -0.368262 0.437144 0.090682
    11 -0.586769 -1.264477 0.200165 -0.325603 -0.304970 -2.339295
    12 1.522835 0.058679 0.016851 0.000000 0.000000 0.184813
    13 1.117948 0.048425 -0.005765 0.015532 0.003658 0.597410
    14 -0.963866 -2.785144 -0.085346 0.296295 0.185746 -0.010101
    15 0.028479 -1.403067 0.006271 -0.815979 0.000000 0.000000
    16 0.021412 -0.957781 0.020047 -0.445059 0.000000 0.000000
    17 -0.249534 -2.846964 -0.174215 0.463479 0.031261 0.129804
    18 0.043234 -1.683940 0.096014 -1.427447 0.000000 0.000000
    19 0.031730 -1.160831 0.058835 0.119114 0.000000 0.000000
    20 0.447951 -2.798983 -0.200442 0.657951 0.067808 0.126894
    21 -0.032910 -1.480207 0.004935 -1.294535 0.000000 0.000000
    22 -0.027023 -1.076920 -0.020211 0.165255 0.000000 0.000000
    23 1.164474 -2.543938 -0.170326 0.788244 -0.030232 0.124244
    24 0.024032 -1.129040 0.017806 -0.796431 0.000000 0.000000
    25 0.014897 -0.883992 -0.019845 -0.305455 0.000000 0.000000
    26 -0.026406 -0.138455 -0.019867 0.287061 0.027381 1.346366
    27 0.583509 -1.197273 0.185379 -0.235356 -0.564433 -0.040952
    28 1.535926 0.010247 0.005008 -0.305435 0.117569 -0.626843
    29 1.100770 0.004528 -0.010676 -0.001609 -0.012956 -0.535863
    30 0.957766 -2.746777 -0.090301 -1.097843 -0.030190 0.091702
    31 -0.033419 -1.397128 -0.011256 0.951045 0.000000 0.000000
    32 -0.022361 -0.957433 0.018782 0.092473 0.000000 0.000000
    33 0.250028 -2.820664 -0.238397 0.498038 0.001394 -0.072461
    34 -0.049759 -1.680544 0.100479 -0.265761 0.000000 0.000000
    35 -0.034141 -1.148311 0.084779 -0.047615 0.000000 0.000000
    36 -0.488517 -2.755600 -0.228261 0.605790 -0.021506 -0.150745
    37 0.039888 -1.479791 0.029853 -0.314493 0.000000 0.000000
    38 0.028785 -1.075732 -0.023110 -0.093810 0.000000 0.000000
    39 -1.180679 -2.507216 -0.193861 0.761126 0.143009 -0.128851
    40 -0.024967 -1.123935 0.017594 -0.187409 0.000000 0.000000
    41 -0.020058 -0.890964 0.010091 0.343960 0.000000 0.000000
    42 0.080903 -0.068755 -0.180384 0.307743 -2.879452 1.540137
  time 1
    0 5.750968 4.023430 -6.810318 1.538408 -0.802591 -2.234866
    1 -0.071917 -8.498732 -0.104136 0.323141 -0.242237 -0.677302
    2 -0.201411 -4.053372 1.039655 -1.013662 1.464209 -1.075430
    3 -0.000001 2.617617 0.665015 0.000000 0.000000 0.000000
    4 0.000000 -1.655466 2.278033 0.000000 0.000000 0.000000
    5 0.000000 -1.796959 1.330032 0.000000 0.000000 0.000000
    6 0.000001 -2.886454 1.471525 0.000000 0.000000 0.000000
    7 0.000000 -0.778211 1.774024 -0.680679 0.000000 0.000000
    8 0.000000 -1.598869 0.580120 0.000000 0.000000 0.000000
    9 -6.438135 0.230605 -10.000886 -1.231033 2.348686 -1.299790
    10 0.096946 -8.450418 -0.009364 -0.321279 0.397599 0.116802
    11 -0.586769 -1.264477 0.200165 -0.325603 -0.304970 -2.339295
    12 1.522835 0.058679 0.016851 0.000000 0.000000 0.184813
    13 1.117948 0.048425 -0.005765 0.015532 0.003658 0.597410
    14 -0.963866 -2.785144 -0.085346 0.296295 0.185746 -0.010101
    15 0.028479 -1.403067 0.006271 -0.815979 0.000000 0.000000
    16 0.021412 -0.957781 0.020047 -0.445059 0.000000 0.000000
    17 -0.249534 -2.846964 -0.174215 0.463479 0.031261 0.129804
    18 0.043234 -1.683940 0.096014 -1.427447 0.000000 0.000000
    19 0.031730 -1.160831 0.058835 0.119114 0.000000 0.000000
    20 0.447951 -2.798983 -0.200442 0.657951 0.067808 0.126894
    21 -0.032910 -1.480207 0.004935 -1.294535 0.000000 0.000000
    22 -0.027023 -1.076920 -0.020211 0.165255 0.000000 0.000000
    23 1.164474 -2.543938 -0.170326 0.788244 -0.030232 0.124244
    24 0.024032 -1.129040 0.017806 -0.796431 0.000000 0.000000
    25 0.014897 -0.883992 -0.019845 -0.305455 0.000000 0.000000
    26 -0.026406 -0.138455 -0.019867 0.287061 0.027381 1.346366
    27 0.583509 -1.197273 0.185379 -0.235356 -0.564433 -0.040952
    28 1.535926 0.010247 0.005008 -0.305435 0.117569 -0.626843
    29 1.100770 0.004528 -0.010676 -0.001609 -0.012956 -0.535863
    30 0.957766 -2.746777 -0.090301 -1.063457 -0.029171 0.092050
    31 -0.033419 -1.397128 -0.011256 0.835878 0.000000 0.000000
    32 -0.022361 -0.957433 0.018782 0.007024 0.000000 0.000000
    33 0.250028 -2.820664 -0.238397 0.499655 0.001394 -0.072461
    34 -0.049759 -1.680544 0.100479 -0.263524 0.000000 0.000000
    35 -0.034141 -1.148311 0.084779 -0.045003 0.000000 0.000000
    36 -0.488517 -2.755600 -0.228261 0.607529 -0.021506 -0.150745
    37 0.039888 -1.479791 0.029853 -0.312510 0.000000 0.000000
    38 0.028785 -1.075732 -0.023110 -0.091241 0.000000 0.000000
    39 -1.180679 -2.507216 -0.193861 0.762681 0.143009 -0.128851
    40 -0.024967 -1.123935 0.017594 -0.186439 0.000000 0.000000
    41 -0.020058 -0.890964 0.010091 0.346337 0.000000 0.000000
    42 0.080903 -0.068755 -0.180384 0.307743 -2.879452 1.540137
  time 2
    0 5.891598 3.769516 -6.673596 1.532613 -0.932702 -2.148574
    1 -0.071917 -8.498732 -0.104136 0.291985 -0.233707 -0.738355
    2 -0.154534 -3.717424 1.207629 -0.972426 1.460774 -1.129239
    3 -0.000001 2.617617 0.665015 0.000000 0.000000 0.000000
    4 0.000000 -1.655466 2.278033 0.000000 0.000000 0.000000
    5 0.000000 -1.796959 1.330032 0.000000 0.000000 0.000000
    6 0.000001 -2.886454 1.471525 0.000000 0.000000 0.000000
    7 0.000000 -0.778211 1.774024 -0.680679 0.000000 0.000000
    8 0.000000 -1.598869 0.580120 0.000000 0.000000 0.000000
    9 -6.457667 0.230605 -10.008699 -1.194811 2.357300 -1.278024
    10 0.096946 -8.450418 -0.009364 -0.275117 0.356278 0.140706
    11 -0.586769 -1.264477 0.200165 -0.325603 -0.304970 -2.339295
    12 1.522835 0.058679 0.016851 0.000000 0.000000 0.184813
    13 1.117948 0.048425 -0.005765 0.015532 0.003658 0.597410
    14 -0.963866 -2.785144 -0.085346 0.296295 0.185746 -0.010101
    15 0.028479 -1.403067 0.006271 -0.815979 0.000000 0.000000
    16 0.021412 -0.957781 0.020047 -0.445059 0.000000 0.000000
    17 -0.249534 -2.846964 -0.174215 0.463479 0.031261 0.129804
    18 0.043234 -1.683940 0.096014 -1.427447 0.000000 0.000000
    19 0.031730 -1.160831 0.058835 0.119114 0.000000 0.000000
    20 0.447951 -2.798983 -0.200442 0.657951 0.067808 0.126894
    21 -0.032910 -1.480207 0.004935 -1.294535 0.000000 0.000000
    22 -0.027023 -1.076920 -0.020211 0.165255 0.000000 0.000000
    23 1.164474 -2.543938 -0.170326 0.788244 -0.030232 0.124244
    24 0.024032 -1.129040 0.017806 -0.796431 0.000000 0.000000
    25 0.014897 -0.883992 -0.019845 -0.305455 0.000000 0.000000
    26 -0.026406 -0.138455 -0.019867 0.287061 0.027381 1.346366
    27 0.583509 -1.197273 0.185379 -0.235356 -0.564433 -0.040952
    28 1.535926 0.010247 0.005008 -0.305435 0.117569 -0.626843
    29 1.100770 0.004528 -0.010676 -0.001609 -0.012956 -0.535863
    30 0.957766 -2.746777 -0.090301 -1.024034 -0.027146 0.092829
    31 -0.033419 -1.397128 -0.011256 0.713402 0.000000 0.000000
    32 -0.022361 -0.957433 0.018782 -0.087443 0.000000 0.000000
    33 0.250028 -2.820664 -0.238397 0.504116 0.001394 -0.072461
    34 -0.049759 -1.680544 0.100479 -0.257351 0.000000 0.000000
    35 -0.034141 -1.148311 0.084779 -0.037792 0.000000 0.000000
    36 -0.488517 -2.755600 -0.228261 0.612328 -0.021506 -0.150745
    37 0.039888 -1.479791 0.029853 -0.307036 0.000000 0.000000
    38 0.028785 -1.075732 -0.023110 -0.084151 0.000000 0.000000
    39 -1.180679 -2.507216 -0.193861 0.766974 0.143009 -0.128851
    40 -0.024967 -1.123935 0.017594 -0.183762 0.000000 0.000000
    41 -0.020058 -0.890964 0.010091 0.352896 0.000000 0.000000
    42 0.080903 -0.068755 -0.180384 0.307743 -2.879452 1.540137
  time 3
    0 6.020508 3.535134 -6.548592 1.498632 -1.067457 -2.034150
    1 -0.071917 -8.498732 -0.104136 0.259590 -0.226335 -0.806847
    2 -0.111564 -3.506480 1.359978 -0.927746 1.458445 -1.169798
    3 -0.000001 2.617617 0.665015 0.000000 0.000000 0.000000
    4 0.000000 -1.655466 2.278033 0.000000 0.000000 0.000000
    5 0.000000 -1.796959 1.330032 0.000000 0.000000 0.000000
    6 0.000001 -2.886454 1.471525 0.000000 0.000000 0.000000
    7 0.000000 -0.778211 1.774024 -0.680679 0.000000 0.000000
    8 0.000000 -1.598869 0.580120 0.000000 0.000000 0.000000
    9 -6.461573 0.230605 -10.008699 -1.159160 2.366502 -1.256948
    10 0.096946 -8.450418 -0.009364 -0.229795 0.313366 0.162379
    11 -0.586769 -1.264477 0.200165 -0.325603 -0.304970 -2.339295
    12 1.522835 0.058679 0.016851 0.000000 0.000000 0.184813
    13 1.117948 0.048425 -0.005765 0.015532 0.003658 0.597410
    14 -0.963866 -2.785144 -0.085346 0.296295 0.185746 -0.010101
    15 0.028479 -1.403067 0.006271 -0.815979 0.000000 0.000000
    16 0.021412 -0.957781 0.020047 -0.445059 0.000000 0.000000
    17 -0.249534 -2.846964 -0.174215 0.463479 0.031261 0.129804
    18 0.043234 -1.683940 0.096014 -1.427447 0.000000 0.000000
    19 0.031730 -1.160831 0.058835 0.119114 0.000000 0.000000
    20 0.447951 -2.798983 -0.200442 0.657951 0.067808 0.126894
    21 -0.032910 -1.480207 0.004935 -1.294535 0.000000 0.000000
    22 -0.027023 -1.076920 -0.020211 0.165255 0.000000 0.000000
    23 1.164474 -2.543938 -0.170326 0.788244 -0.030232 0.124244
    24 0.024032 -1.129040 0.017806 -0.796431 0.000000 0.000000
    25 0.014897 -0.883992 -0.019845 -0.305455 0.000000 0.000000
    26 -0.026406 -0.138455 -0.019867 0.287061 0.027381 1.346366
    27 0.583509 -1.197273 0.185379 -0.235356 -0.564433 -0.040952
    28 1.535926 0.010247 0.005008 -0.305435 0.117569 -0.626843
    29 1.100770 0.004528 -0.010676 -0.001609 -0.012956 -0.535863
    30 0.957766 -2.746777 -0.090301 -0.987143 -0.025648 0.093476
    31 -0.033419 -1.397128 -0.011256 0.594597 0.000000 0.000000
    32 -0.022361 -0.957433 0.018782 -0.177416 0.000000 0.000000
    33 0.250028 -2.820664 -0.238397 0.510938 0.001394 -0.072461
    34 -0.049759 -1.680544 0.100479 -0.247911 0.000000 0.000000
    35 -0.034141 -1.148311 0.084779 -0.026767 0.000000 0.000000
    36 -0.488517 -2.755600 -0.228261 0.619666 -0.021506 -0.150745
    37 0.039888 -1.479791 0.029853 -0.298665 0.000000 0.000000
    38 0.028785 -1.075732 -0.023110 -0.073310 0.000000 0.000000
    39 -1.180679 -2.507216 -0.193861 0.773537 0.143009 -0.128851
    40 -0.024967 -1.123935 0.017594 -0.179669 0.000000 0.000000
    41 -0.020058 -0.890964 0.010091 0.362926 0.000000 0.000000
    42 0.080903 -0.068755 -0.180384 0.307743 -2.879452 1.540137
  time 4
    0 6.141605 3.324190 -6.435307 1.407634 -1.201013 -1.863899
    1 -0.071917 -8.498732 -0.104136 0.226552 -0.221002 -0.877263
    2 -0.068594 -3.420540 1.488888 -0.870630 1.459651 -1.158280
    3 -0.000001 2.617617 0.665015 0.000000 0.000000 0.000000
    4 0.000000 -1.655466 2.278033 0.000000 0.000000 0.000000
    5 0.000000 -1.796959 1.330032 0.000000 0.000000 0.000000
    6 0.000001 -2.886454 1.471525 0.000000 0.000000 0.000000
    7 0.000000 -0.778211 1.774024 -0.680679 0.000000 0.000000
    8 0.000000 -1.598869 0.580120 0.000000 0.000000 0.000000
    9 -6.457667 0.230605 -10.008699 -1.143162 2.370845 -1.247598
    10 0.096946 -8.450418 -0.009364 -0.185350 0.269097 0.181819
    11 -0.586769 -1.264477 0.200165 -0.325603 -0.304970 -2.339295
    12 1.522835 0.058679 0.016851 0.000000 0.000000 0.184813
    13 1.117948 0.048425 -0.005765 0.015532 0.003658 0.597410
    14 -0.963866 -2.785144 -0.085346 0.296295 0.185746 -0.010101
    15 0.028479 -1.403067 0.006271 -0.815979 0.000000 0.000000
    16 0.021412 -0.957781 0.020047 -0.445059 0.000000 0.000000
    17 -0.249534 -2.846964 -0.174215 0.463479 0.031261 0.129804
    18 0.043234 -1.683940 0.096014 -1.427447 0.000000 0.000000
    19 0.031730 -1.160831 0.058835 0.119114 0.000000 0.000000
    20 0.447951 -2.798983 -0.200442 0.657951 0.067808 0.126894
    21 -0.032910 -1.480207 0.004935 -1.294535 0.000000 0.000000
    22 -0.027023 -1.076920 -0.020211 0.165255 0.000000 0.000000
    23 1.164474 -2.543938 -0.170326 0.788244 -0.030232 0.124244
    24 0.024032 -1.129040 0.017806 -0.796431 0.000000 0.000000
    25 0.014897 -0.883992 -0.019845 -0.305455 0.000000 0.000000
    26 -0.026406 -0.138455 -0.019867 0.287061 0.027381 1.346366
    27 0.583509 -1.197273 0.185379 -0.235356 -0.564433 -0.040952
    28 1.535926 0.010247 0.005008 -0.305435 0.117569 -0.626843
    29 1.100770 0.004528 -0.010676 -0.001609 -0.012956 -0.535863
    30 0.957766 -2.746777 -0.090301 -0.960352 -0.026175 0.093332
    31 -0.033419 -1.397128 -0.011256 0.490377 0.000000 0.000000
    32 -0.022361 -0.957433 0.018782 -0.249353 0.000000 0.000000
    33 0.250028 -2.820664 -0.238397 0.519506 0.001394 -0.072461
    34 -0.049759 -1.680544 0.100479 -0.236056 0.000000 0.000000
    35 -0.034141 -1.148311 0.084779 -0.012920 0.000000 0.000000
    36 -0.488517 -2.755600 -0.228261 0.628882 -0.021506 -0.150745
    37 0.039888 -1.479791 0.029853 -0.288153 0.000000 0.000000
    38 0.028785 -1.075732 -0.023110 -0.059695 0.000000 0.000000
    39 -1.180679 -2.507216 -0.193861 0.781780 0.143009 -0.128851
    40 -0.024967 -1.123935 0.017594 -0.174529 0.000000 0.000000
    41 -0.020058 -0.890964 0.010091 0.375522 0.000000 0.000000
    42 0.080903 -0.068755 -0.180384 0.307743 -2.879452 1.540137
  time 5
    0 6.247077 3.128871 -6.329835 1.181498 -1.322479 -1.560347
    1 -0.071917 -8.498732 -0.104136 0.193662 -0.218149 -0.944087
    2 -0.029531 -3.459604 1.602173 -0.784337 1.466026 -1.048336
    3 -0.000001 2.617617 0.665015 0.000000 0.000000 0.000000
    4 0.000000 -1.655466 2.278033 0.000000 0.000000 0.000000
    5 0.000000 -1.796959 1.330032 0.000000 0.000000 0.000000
    6 0.000001 -2.886454 1.471525 0.000000 0.000000 0.000000
    7 0.000000 -0.778211 1.774024 -0.680679 0.000000 0.000000
    8 0.000000 -1.598869 0.580120 0.000000 0.000000 0.000000
    9 -6.438135 0.230605 -10.000886 -1.165616 2.364735 -1.260704
    10 0.096946 -8.450418 -0.009364 -0.141744 0.223613 0.199045
    11 -0.586769 -1.264477 0.200165 -0.325603 -0.304970 -2.339295
    12 1.522835 0.058679 0.016851 0.000000 0.000000 0.184813
    13 1.117948 0.048425 -0.005765 0.015532 0.003658 0.597410
    14 -0.963866 -2.785144 -0.085346 0.296295 0.185746 -0.010101
    15 0.028479 -1.403067 0.006271 -0.815979 0.000000 0.000000
    16 0.021412 -0.957781 0.020047 -0.445059 0.000000 0.000000
    17 -0.249534 -2.846964 -0.174215 0.463479 0.031261 0.129804
    18 0.043234 -1.683940 0.096014 -1.427447 0.000000 0.000000
    19 0.031730 -1.160831 0.058835 0.119114 0.000000 0.000000
    20 0.447951 -2.798983 -0.200442 0.657951 0.067808 0.126894
    21 -0.032910 -1.480207 0.004935 -1.294535 0.000000 0.000000
    22 -0.027023 -1.076920 -0.020211 0.165255 0.000000 0.000000
    23 1.164474 -2.543938 -0.170326 0.788244 -0.030232 0.124244
    24 0.024032 -1.129040 0.017806 -0.796431 0.000000 0.000000
    25 0.014897 -0.883992 -0.019845 -0.305455 0.000000 0.000000
    26 -0.026406 -0.138455 -0.019867 0.287061 0.027381 1.346366
    27 0.583509 -1.197273 0.185379 -0.235356 -0.564433 -0.040952
    28 1.535926 0.010247 0.005008 -0.305435 0.117569 -0.626843
    29 1.100770 0.004528 -0.010676 -0.001609 -0.012956 -0.535863
    30 0.957766 -2.746777 -0.090301 -0.951232 -0.030190 0.091702
    31 -0.033419 -1.397128 -0.011256 0.411721 0.000000 0.000000
    32 -0.022361 -0.957433 0.018782 -0.289743 0.000000 0.000000
    33 0.250028 -2.820664 -0.238397 0.529334 0.001394 -0.072461
    34 -0.049759 -1.680544 0.100479 -0.222411 0.000000 0.000000
    35 -0.034141 -1.148311 0.084779 0.003017 0.000000 0.000000
    36 -0.488517 -2.755600 -0.228261 0.639489 -0.021506 -0.150745
    37 0.039888 -1.479791 0.029853 -0.276093 0.000000 0.000000
    38 0.028785 -1.075732 -0.023110 -0.044025 0.000000 0.000000
    39 -1.180679 -2.507216 -0.193861 0.791268 0.143009 -0.128851
    40 -0.024967 -1.123935 0.017594 -0.168632 0.000000 0.000000
    41 -0.020058 -0.890964 0.010091 0.389973 0.000000 0.000000
    42 0.080903 -0.068755 -0.180384 0.307743 -2.879452 1.540137
  time 6
    0 6.344736 2.956991 -6.236082 0.631217 -1.401294 -0.935388
    1 -0.071917 -8.498732 -0.104136 0.161730 -0.217791 -1.001806
    2 -0.029531 -3.725237 1.692019 -0.536547 1.487284 -0.639819
    3 -0.000001 2.617617 0.665015 0.000000 0.000000 0.000000
    4 0.000000 -1.655466 2.278033 0.000000 0.000000 0.000000
    5 0.000000 -1.796959 1.330032 0.000000 0.000000 0.000000
    6 0.000001 -2.886454 1.471525 0.000000 0.000000 0.000000
    7 0.000000 -0.778211 1.774024 -0.680679 0.000000 0.000000
    8 0.000000 -1.598869 0.580120 0.000000 0.000000 0.000000
    9 -6.406884 0.230605 -9.993073 -1.247716 2.344932 -1.309907
    10 0.096946 -8.450418 -0.009364 -0.098961 0.177170 0.214090
    11 -0.586769 -1.264477 0.200165 -0.325603 -0.304970 -2.339295
    12 1.522835 0.058679 0.016851 0.000000 0.000000 0.184813
    13 1.117948 0.048425 -0.005765 0.015532 0.003658 0.597410
    14 -0.963866 -2.785144 -0.085346 0.296295 0.185746 -0.010101
    15 0.028479 -1.403067 0.006271 -0.815979 0.000000 0.000000
    16 0.021412 -0.957781 0.020047 -0.445059 0.000000 0.000000
    17 -0.249534 -2.846964 -0.174215 0.463479 0.031261 0.129804
    18 0.043234 -1.683940 0.096014 -1.427447 0.000000 0.000000
    19 0.031730 -1.160831 0.058835 0.119114 0.000000 0.000000
    20 0.447951 -2.798983 -0.200442 0.657951 0.067808 0.126894
    21 -0.032910 -1.480207 0.004935 -1.294535 0.000000 0.000000
    22 -0.027023 -1.076920 -0.020211 0.165255 0.000000 0.000000
    23 1.164474 -2.543938 -0.170326 0.788244 -0.030232 0.124244
    24 0.024032 -1.129040 0.017806 -0.796431 0.000000 0.000000
    25 0.014897 -0.883992 -0.019845 -0.305455 0.000000 0.000000
    26 -0.026406 -0.138455 -0.019867 0.287061 0.027381 1.346366
    27 0.583509 -1.197273 0.185379 -0.224034 -0.569467 -0.055466
    28 1.535926 0.010247 0.005008 -0.305243 0.118096 -0.625163
    29 1.100770 0.004528 -0.010676 -0.002508 -0.012824 -0.465518
    30 0.957766 -2.746777 -0.090301 -0.964327 -0.038232 0.088586
    31 -0.033419 -1.397128 -0.011256 0.352904 0.000000 0.000000
    32 -0.022361 -0.957433 0.018782 -0.305531 0.000000 0.000000
    33 0.250028 -2.820664 -0.238397 0.539906 0.001394 -0.072461
    34 -0.049759 -1.680544 0.100479 -0.207826 0.000000 0.000000
    35 -0.034141 -1.148311 0.084779 0.020051 0.000000 0.000000
    36 -0.488517 -2.755600 -0.228261 0.650826 -0.021506 -0.150745
    37 0.039888 -1.479791 0.029853 -0.263122 0.000000 0.000000
    38 0.028785 -1.075732 -0.023110 -0.027275 0.000000 0.000000
    39 -1.180679 -2.507216 -0.193861 0.801409 0.143009 -0.128851
    40 -0.024967 -1.123935 0.017594 -0.162289 0.000000 0.000000
    41 -0.020058 -0.890964 0.010091 0.405516 0.000000 0.000000
    42 0.080903 -0.068755 -0.180384 0.307743 -2.879452 1.540137
  time 7
    0 6.430677 2.804643 -6.154048 -0.114222 -1.384303 -0.118532
    1 -0.071917 -8.498732 -0.104136 0.131614 -0.219514 -1.044923
    2 -0.064688 -4.213533 1.758427 -0.000648 1.491876 0.194032
    3 -0.000001 2.617617 0.665015 0.000000 0.000000 0.000000
    4 0.000000 -1.655466 2.278033 0.000000 0.000000 0.000000
    5 0.000000 -1.796959 1.330032 0.000000 0.000000 0.000000
    6 0.000001 -2.886454 1.471525 0.000000 0.000000 0.000000
    7 0.000000 -0.778211 1.774024 -0.680679 0.000000 0.000000
    8 0.000000 -1.598869 0.580120 0.000000 0.000000 0.000000
    9 -6.360008 0.234512 -9.961823 -1.378665 2.321080 -1.390609
    10 0.096946 -8.450418 -0.009364 -0.056962 0.129931 0.227022
    11 -0.586769 -1.264477 0.200165 -0.325603 -0.304970 -2.339295
    12 1.522835 0.058679 0.016851 0.000000 0.000000 0.184813
    13 1.117948 0.048425 -0.005765 0.015532 0.003658 0.597410
    14 -0.963866 -2.785144 -0.085346 0.296295 0.185746 -0.010101
    15 0.028479 -1.403067 0.006271 -0.815979 0.000000 0.000000
    16 0.021412 -0.957781 0.020047 -0.445059 0.000000 0.000000
    17 -0.249534 -2.846964 -0.174215 0.463479 0.031261 0.129804
    18 0.043234 -1.683940 0.096014 -1.427447 0.000000 0.000000
    19 0.031730 -1.160831 0.058835 0.119114 0.000000 0.000000
    20 0.447951 -2.798983 -0.200442 0.657951 0.067808 0.126894
    21 -0.032910 -1.480207 0.004935 -1.294535 0.000000 0.000000
    22 -0.027023 -1.076920 -0.020211 0.165255 0.000000 0.000000
    23 1.164474 -2.543938 -0.170326 0.788244 -0.030232 0.124244
    24 0.024032 -1.129040 0.017806 -0.796431 0.000000 0.000000
    25 0.014897 -0.883992 -0.019845 -0.305455 0.000000 0.000000
    26 -0.026406 -0.138455 -0.019867 0.287061 0.027381 1.346366
    27 0.583509 -1.197273 0.185379 -0.208857 -0.572707 -0.073692
    28 1.535926 0.010247 0.005008 -0.304596 0.119798 -0.619749
    29 1.100770 0.004528 -0.010676 -0.003490 -0.012584 -0.387636
    30 0.957766 -2.746777 -0.090301 -0.994031 -0.049150 0.084787
    31 -0.033419 -1.397128 -0.011256 0.300351 0.000000 0.000000
    32 -0.022361 -0.957433 0.018782 -0.313556 0.000000 0.000000
    33 0.250028 -2.820664 -0.238397 0.550639 0.001394 -0.072461
    34 -0.049759 -1.680544 0.100479 -0.192973 0.000000 0.000000
    35 -0.034141 -1.148311 0.084779 0.037399 0.000000 0.000000
    36 -0.488517 -2.755600 -0.228261 0.662372 -0.021506 -0.150745
    37 0.039888 -1.479791 0.029853 -0.249951 0.000000 0.000000
    38 0.028785 -1.075732 -0.023110 -0.010218 0.000000 0.000000
    39 -1.180679 -2.507216 -0.193861 0.811736 0.143009 -0.128851
    40 -0.024967 -1.123935 0.017594 -0.155849 0.000000 0.000000
    41 -0.020058 -0.890964 0.010091 0.421297 0.000000 0.000000
    42 0.080903 -0.068755 -0.180384 0.307743 -2.879452 1.540137
  time 8
    0 6.504898 2.675732 -6.083734 -0.507403 -1.300159 0.341715
    1 -0.071917 -8.498732 -0.104136 0.104041 -0.222545 -1.067989
    2 -0.088126 -4.776050 1.805304 0.139639 1.462938 0.698432
    3 -0.000001 2.617617 0.665015 0.000000 0.000000 0.000000
    4 0.000000 -1.655466 2.278033 0.000000 0.000000 0.000000
    5 0.000000 -1.796959 1.330032 0.000000 0.000000 0.000000
    6 0.000001 -2.886454 1.471525 0.000000 0.000000 0.000000
    7 0.000000 -0.778211 1.774024 -0.680679 0.000000 0.000000
    8 0.000000 -1.598869 0.580120 0.000000 0.000000 0.000000
    9 -6.301412 0.246231 -9.891508 -1.529553 2.304443 -1.485873
    10 0.096946 -8.450418 -0.009364 -0.015694 0.082132 0.237892
    11 -0.586769 -1.264477 0.200165 -0.325603 -0.304970 -2.339295
    12 1.522835 0.058679 0.016851 0.000000 0.000000 0.184813
    13 1.117948 0.048425 -0.005765 0.015532 0.003658 0.597410
    14 -0.963866 -2.785144 -0.085346 0.296295 0.185746 -0.010101
    15 0.028479 -1.403067 0.006271 -0.815979 0.000000 0.000000
    16 0.021412 -0.957781 0.020047 -0.445059 0.000000 0.000000
    17 -0.249534 -2.846964 -0.174215 0.463479 0.031261 0.129804
    18 0.043234 -1.683940 0.096014 -1.427447 0.000000 0.000000
    19 0.031730 -1.160831 0.058835 0.119114 0.000000 0.000000
    20 0.447951 -2.798983 -0.200442 0.657951 0.067808 0.126894
    21 -0.032910 -1.480207 0.004935 -1.294535 0.000000 0.000000
    22 -0.027023 -1.076920 -0.020211 0.165255 0.000000 0.000000
    23 1.164474 -2.543938 -0.170326 0.788244 -0.030232 0.124244
    24 0.024032 -1.129040 0.017806 -0.796431 0.000000 0.000000
    25 0.014897 -0.883992 -0.019845 -0.305455 0.000000 0.000000
    26 -0.026406 -0.138455 -0.019867 0.287061 0.027381 1.346366
    27 0.583509 -1.197273 0.185379 -0.191089 -0.574562 -0.094319
    28 1.535926 0.010247 0.005008 -0.303637 0.122255 -0.611829
    29 1.100770 0.004528 -0.010676 -0.004521 -0.012261 -0.304789
    30 0.957766 -2.746777 -0.090301 -1.032719 -0.061889 0.080868
    31 -0.033419 -1.397128 -0.011256 0.253114 0.000000 0.000000
    32 -0.022361 -0.957433 0.018782 -0.315162 0.000000 0.000000
    33 0.250028 -2.820664 -0.238397 0.561017 0.001394 -0.072461
    34 -0.049759 -1.680544 0.100479 -0.178613 0.000000 0.000000
    35 -0.034141 -1.148311 0.084779 0.054172 0.000000 0.000000
    36 -0.488517 -2.755600 -0.228261 0.673535 -0.021506 -0.150745
    37 0.039888 -1.479791 0.029853 -0.237217 0.000000 0.000000
    38 0.028785 -1.075732 -0.023110 0.006275 0.000000 0.000000
    39 -1.180679 -2.507216 -0.193861 0.821721 0.143009 -0.128851
    40 -0.024967 -1.123935 0.017594 -0.149622 0.000000 0.000000
    41 -0.020058 -0.890964 0.010091 0.436555 0.000000 0.000000
    42 0.080903 -0.068755 -0.180384 0.307743 -2.879452 1.540137
  time 9
    0 6.567400 2.562448 -6.025138 -0.672229 -1.203688 0.568012
    1 -0.071917 -8.498732 -0.104136 0.079737 -0.225963 -1.065509
    2 -0.045156 -5.264346 1.844367 -0.038707 1.431654 0.909991
    3 -0.000001 2.617617 0.665015 0.000000 0.000000 0.000000
    4 0.000000 -1.655466 2.278033 0.000000 0.000000 0.000000
    5 0.000000 -1.796959 1.330032 0.000000 0.000000 0.000000
    6 0.000001 -2.886454 1.471525 0.000000 0.000000 0.000000
    7 0.000000 -0.778211 1.774024 -0.680679 0.000000 0.000000
    8 0.000000 -1.598869 0.580120 0.000000 0.000000 0.000000
    9 -6.235004 0.261856 -9.793849 1.444851 0.843153 1.548927
    10 0.096946 -8.450418 -0.009364 0.024880 0.033958 0.246735
    11 -0.586769 -1.264477 0.200165 -0.325603 -0.304970 -2.339295
    12 1.522835 0.058679 0.016851 0.000000 0.000000 0.184813
    13 1.117948 0.048425 -0.005765 0.015532 0.003658 0.597410
    14 -0.963866 -2.785144 -0.085346 0.296295 0.185746 -0.010101
    15 0.028479 -1.403067 0.006271 -0.815979 0.000000 0.000000
    16 0.021412 -0.957781 0.020047 -0.445059 0.000000 0.000000
    17 -0.249534 -2.846964 -0.174215 0.463479 0.031261 0.129804
    18 0.043234 -1.683940 0.096014 -1.427447 0.000000 0.000000
    19 0.031730 -1.160831 0.058835 0.119114 0.000000 0.000000
    20 0.447951 -2.798983 -0.200442 0.657951 0.067808 0.126894
    21 -0.032910 -1.480207 0.004935 -1.294535 0.000000 0.000000
    22 -0.027023 -1.076920 -0.020211 0.165255 0.000000 0.000000
    23 1.164474 -2.543938 -0.170326 0.788244 -0.030232 0.124244
    24 0.024032 -1.129040 0.017806 -0.796431 0.000000 0.000000
    25 0.014897 -0.883992 -0.019845 -0.305455 0.000000 0.000000
    26 -0.026406 -0.138455 -0.019867 0.287061 0.027381 1.346366
    27 0.583509 -1.197273 0.185379 -0.172059 -0.575502 -0.116222
    28 1.535926 0.010247 0.005008 -0.302511 0.125107 -0.602655
    29 1.100770 0.004528 -0.010676 -0.005552 -0.011829 -0.219430
    30 0.957766 -2.746777 -0.090301 -1.072714 -0.075336 0.077213
    31 -0.033419 -1.397128 -0.011256 0.210274 0.000000 0.000000
    32 -0.022361 -0.957433 0.018782 -0.311660 0.000000 0.000000
    33 0.250028 -2.820664 -0.238397 0.570490 0.001394 -0.072461
    34 -0.049759 -1.680544 0.100479 -0.165505 0.000000 0.000000
    35 -0.034141 -1.148311 0.084779 0.069482 0.000000 0.000000
    36 -0.488517 -2.755600 -0.228261 0.683724 -0.021506 -0.150745
    37 0.039888 -1.479791 0.029853 -0.225594 0.000000 0.000000
    38 0.028785 -1.075732 -0.023110 0.021328 0.000000 0.000000
    39 -1.180679 -2.507216 -0.193861 0.830836 0.143009 -0.128851
    40 -0.024967 -1.123935 0.017594 -0.143939 0.000000 0.000000
    41 -0.020058 -0.890964 0.010091 0.450483 0.000000 0.000000
    42 0.080903 -0.068755 -0.180384 0.307743 -2.879452 1.540137
  time 10
    0 6.618182 2.472601 -5.974355 -0.750064 -1.114729 0.700147
    1 -0.071917 -8.498732 -0.104136 0.059461 -0.228733 -1.032161
    2 0.122818 -5.526073 1.871712 -0.256081 1.404252 1.108841
    3 -0.000001 2.617617 0.665015 0.000000 0.000000 0.000000
    4 0.000000 -1.655466 2.278033 0.000000 0.000000 0.000000
    5 0.000000 -1.796959 1.330032 0.000000 0.000000 0.000000
    6 0.000001 -2.886454 1.471525 0.000000 0.000000 0.000000
    7 0.000000 -0.778211 1.774024 -0.680679 0.000000 0.000000
    8 0.000000 -1.598869 0.580120 0.000000 0.000000 0.000000
    9 -6.149064 0.277482 -9.672751 1.267053 0.836160 1.435730
    10 0.096946 -8.450418 -0.009364 0.064833 -0.014356 0.253652
    11 -0.586769 -1.264477 0.200165 -0.325603 -0.304970 -2.339295
    12 1.522835 0.058679 0.016851 0.000000 0.000000 0.184813
    13 1.117948 0.048425 -0.005765 0.015532 0.003658 0.597410
    14 -0.963866 -2.785144 -0.085346 0.296295 0.185746 -0.010101
    15 0.028479 -1.403067 0.006271 -0.815979 0.000000 0.000000
    16 0.021412 -0.957781 0.020047 -0.445059 0.000000 0.000000
    17 -0.249534 -2.846964 -0.174215 0.463479 0.031261 0.129804
    18 0.043234 -1.683940 0.096014 -1.427447 0.000000 0.000000
    19 0.031730 -1.160831 0.058835 0.119114 0.000000 0.000000
    20 0.447951 -2.798983 -0.200442 0.657951 0.067808 0.126894
    21 -0.032910 -1.480207 0.004935 -1.294535 0.000000 0.000000
    22 -0.027023 -1.076920 -0.020211 0.165255 0.000000 0.000000
    23 1.164474 -2.543938 -0.170326 0.788244 -0.030232 0.124244
    24 0.024032 -1.129040 0.017806 -0.796431 0.000000 0.000000
    25 0.014897 -0.883992 -0.019845 -0.305455 0.000000 0.000000
    26 -0.026406 -0.138455 -0.019867 0.287061 0.027381 1.346366
    27 0.583509 -1.197273 0.185379 -0.152995 -0.576095 -0.138124
    28 1.535926 0.010247 0.005008 -0.301348 0.127947 -0.593468
    29 1.100770 0.004528 -0.010676 -0.006535 -0.011302 -0.134100
    30 0.957766 -2.746777 -0.090301 -1.106365 -0.088291 0.073905
    31 -0.033419 -1.397128 -0.011256 0.170883 0.000000 0.000000
    32 -0.022361 -0.957433 0.018782 -0.304393 0.000000 0.000000
    33 0.250028 -2.820664 -0.238397 0.578540 0.001394 -0.072461
    34 -0.049759 -1.680544 0.100479 -0.154365 0.000000 0.000000
    35 -0.034141 -1.148311 0.084779 0.082492 0.000000 0.000000
    36 -0.488517 -2.755600 -0.228261 0.692384 -0.021506 -0.150745
    37 0.039888 -1.479791 0.029853 -0.215717 0.000000 0.000000
    38 0.028785 -1.075732 -0.023110 0.034121 0.000000 0.000000
    39 -1.180679 -2.507216 -0.193861 0.838581 0.143009 -0.128851
    40 -0.024967 -1.123935 0.017594 -0.139109 0.000000 0.000000
    41 -0.020058 -0.890964 0.010091 0.462318 0.000000 0.000000
    42 0.080903 -0.068755 -0.180384 0.307743 -2.879452 1.540137
  time 11
    0 6.657246 2.402287 -5.939198 -0.792272 -1.041135 0.787677
    1 -0.071917 -8.498732 -0.104136 0.042356 -0.231447 -0.913369
    2 0.505642 -5.514354 1.891244 -0.502364 1.383605 1.294983
    3 -0.000001 2.617617 0.665015 0.000000 0.000000 0.000000
    4 0.000000 -1.655466 2.278033 0.000000 0.000000 0.000000
    5 0.000000 -1.796959 1.330032 0.000000 0.000000 0.000000
    6 0.000001 -2.886454 1.471525 0.000000 0.000000 0.000000
    7 0.000000 -0.778211 1.774024 -0.680679 0.000000 0.000000
    8 0.000000 -1.598869 0.580120 0.000000 0.000000 0.000000
    9 -6.055311 0.297014 -9.543841 1.085941 0.814664 1.322839
    10 0.096946 -8.450418 -0.009364 0.104166 -0.062647 0.258713
    11 -0.586769 -1.264477 0.200165 -0.325603 -0.304970 -2.339295
    12 1.522835 0.058679 0.016851 0.000000 0.000000 0.184813
    13 1.117948 0.048425 -0.005765 0.015532 0.003658 0.597410
    14 -0.963866 -2.785144 -0.085346 0.296295 0.185746 -0.010101
    15 0.028479 -1.403067 0.006271 -0.815979 0.000000 0.000000
    16 0.021412 -0.957781 0.020047 -0.445059 0.000000 0.000000
    17 -0.249534 -2.846964 -0.174215 0.463479 0.031261 0.129804
    18 0.043234 -1.683940 0.096014 -1.427447 0.000000 0.000000
    19 0.031730 -1.160831 0.058835 0.119114 0.000000 0.000000
    20 0.447951 -2.798983 -0.200442 0.657951 0.067808 0.126894
    21 -0.032910 -1.480207 0.004935 -1.294535 0.000000 0.000000
    22 -0.027023 -1.076920 -0.020211 0.165255 0.000000 0.000000
    23 1.164474 -2.543938 -0.170326 0.788244 -0.030232 0.124244
    24 0.024032 -1.129040 0.017806 -0.796431 0.000000 0.000000
    25 0.014897 -0.883992 -0.019845 -0.305455 0.000000 0.000000
    26 -0.026406 -0.138455 -0.019867 0.287061 0.027381 1.346366
    27 0.583509 -1.197273 0.185379 -0.135125 -0.576986 -0.158901
    28 1.535926 0.010247 0.005008 -0.300330 0.130380 -0.585534
    29 1.100770 0.004528 -0.010676 -0.007457 -0.010727 -0.051253
    30 0.957766 -2.746777 -0.090301 -1.126022 -0.099497 0.070741
    31 -0.033419 -1.397128 -0.011256 0.134023 0.000000 0.000000
    32 -0.022361 -0.957433 0.018782 -0.294675 0.000000 0.000000
    33 0.250028 -2.820664 -0.238397 0.584618 0.001394 -0.072461
    34 -0.049759 -1.680544 0.100479 -0.145954 0.000000 0.000000
    35 -0.034141 -1.148311 0.084779 0.092316 0.000000 0.000000
    36 -0.488517 -2.755600 -0.228261 0.698922 -0.021506 -0.150745
    37 0.039888 -1.479791 0.029853 -0.208259 0.000000 0.000000
    38 0.028785 -1.075732 -0.023110 0.043781 0.000000 0.000000
    39 -1.180679 -2.507216 -0.193861 0.844429 0.143009 -0.128851
    40 -0.024967 -1.123935 0.017594 -0.135462 0.000000 0.000000
    41 -0.020058 -0.890964 0.010091 0.471255 0.000000 0.000000
    42 0.080903 -0.068755 -0.180384 0.307743 -2.879452 1.540137
  time 12
    0 6.684591 2.351504 -5.911854 -0.819314 -0.987550 0.848898
    1 -0.071917 -8.498732 -0.104136 0.029147 -0.232536 -0.692522
    2 1.072065 -5.338567 1.895150 -0.768456 1.371481 1.467551
    3 -0.000001 2.617617 0.665015 0.000000 0.000000 0.000000
    4 0.000000 -1.655466 2.278033 0.000000 0.000000 0.000000
    5 0.000000 -1.796959 1.330032 0.000000 0.000000 0.000000
    6 0.000001 -2.886454 1.471525 0.000000 0.000000 0.000000
    7 0.000000 -0.778211 1.774024 -0.680679 0.000000 0.000000
    8 0.000000 -1.598869 0.580120 0.000000 0.000000 0.000000
    9 -5.945933 0.316546 -9.407118 0.908372 0.778592 1.216769
    10 0.096946 -8.450418 -0.009364 0.142969 -0.110727 0.261967
    11 -0.586769 -1.264477 0.200165 -0.325603 -0.304970 -2.339295
    12 1.522835 0.058679 0.016851 0.000000 0.000000 0.184813
    13 1.117948 0.048425 -0.005765 0.015532 0.003658 0.597410
    14 -0.963866 -2.785144 -0.085346 0.296295 0.185746 -0.010101
    15 0.028479 -1.403067 0.006271 -0.815979 0.000000 0.000000
    16 0.021412 -0.957781 0.020047 -0.445059 0.000000 0.000000
    17 -0.249534 -2.846964 -0.174215 0.463479 0.031261 0.129804
    18 0.043234 -1.683940 0.096014 -1.427447 0.000000 0.000000
    19 0.031730 -1.160831 0.058835 0.119114 0.000000 0.000000
    20 0.447951 -2.798983 -0.200442 0.657951 0.067808 0.126894
    21 -0.032910 -1.480207 0.004935 -1.294535 0.000000 0.000000
    22 -0.027023 -1.076920 -0.020211 0.165255 0.000000 0.000000
    23 1.164474 -2.543938 -0.170326 0.788244 -0.030232 0.124244
    24 0.024032 -1.129040 0.017806 -0.796431 0.000000 0.000000
    25 0.014897 -0.883992 -0.019845 -0.305455 0.000000 0.000000
    26 -0.026406 -0.138455 -0.019867 0.287061 0.027381 1.346366
    27 0.583509 -1.197273 0.185379 -0.119607 -0.578866 -0.177428
    28 1.535926 0.010247 0.005008 -0.299622 0.132046 -0.580093
    29 1.100770 0.004528 -0.010676 -0.008260 -0.010116 0.026629
    30 0.957766 -2.746777 -0.090301 -1.124034 -0.107658 0.067385
    31 -0.033419 -1.397128 -0.011256 0.098745 0.000000 0.000000
    32 -0.022361 -0.957433 0.018782 -0.283906 0.000000 0.000000
    33 0.250028 -2.820664 -0.238397 0.588206 0.001394 -0.072461
    34 -0.049759 -1.680544 0.100479 -0.140989 0.000000 0.000000
    35 -0.034141 -1.148311 0.084779 0.098116 0.000000 0.000000
    36 -0.488517 -2.755600 -0.228261 0.702782 -0.021506 -0.150745
    37 0.039888 -1.479791 0.029853 -0.203855 0.000000 0.000000
    38 0.028785 -1.075732 -0.023110 0.049484 0.000000 0.000000
    39 -1.180679 -2.507216 -0.193861 0.847882 0.143009 -0.128851
    40 -0.024967 -1.123935 0.017594 -0.133309 0.000000 0.000000
    41 -0.020058 -0.890964 0.010091 0.476531 0.000000 0.000000
    42 0.080903 -0.068755 -0.180384 0.307743 -2.879452 1.540137
  time 13
    0 6.700216 2.320253 -5.892322 -0.843494 -0.957740 0.894449
    1 -0.071917 -8.498732 -0.104136 0.023187 -0.230813 -0.421418
    2 1.673646 -5.053402 1.891244 -1.045477 1.368376 1.625138
    3 -0.000001 2.617617 0.665015 0.000000 0.000000 0.000000
    4 0.000000 -1.655466 2.278033 0.000000 0.000000 0.000000
    5 0.000000 -1.796959 1.330032 0.000000 0.000000 0.000000
    6 0.000001 -2.886454 1.471525 0.000000 0.000000 0.000000
    7 0.000000 -0.778211 1.774024 -0.680679 0.000000 0.000000
    8 0.000000 -1.598869 0.580120 0.000000 0.000000 0.000000
    9 -5.824835 0.336077 -9.274302 0.739658 0.729195 1.122654
    10 0.096946 -8.450418 -0.009364 0.181242 -0.158386 0.263500
    11 -0.586769 -1.264477 0.200165 -0.325603 -0.304970 -2.339295
    12 1.522835 0.058679 0.016851 0.000000 0.000000 0.184813
    13 1.117948 0.048425 -0.005765 0.015532 0.003658 0.597410
    14 -0.963866 -2.785144 -0.085346 0.296295 0.185746 -0.010101
    15 0.028479 -1.403067 0.006271 -0.815979 0.000000 0.000000
    16 0.021412 -0.957781 0.020047 -0.445059 0.000000 0.000000
    17 -0.249534 -2.846964 -0.174215 0.463479 0.031261 0.129804
    18 0.043234 -1.683940 0.096014 -1.427447 0.000000 0.000000
    19 0.031730 -1.160831 0.058835 0.119114 0.000000 0.000000
    20 0.447951 -2.798983 -0.200442 0.657951 0.067808 0.126894
    21 -0.032910 -1.480207 0.004935 -1.294535 0.000000 0.000000
    22 -0.027023 -1.076920 -0.020211 0.165255 0.000000 0.000000
    23 1.164474 -2.543938 -0.170326 0.788244 -0.030232 0.124244
    24 0.024032 -1.129040 0.017806 -0.796431 0.000000 0.000000
    25 0.014897 -0.883992 -0.019845 -0.305455 0.000000 0.000000
    26 -0.026406 -0.138455 -0.019867 0.287061 0.027381 1.346366
    27 0.583509 -1.197273 0.185379 -0.107603 -0.582526 -0.192579
    28 1.535926 0.010247 0.005008 -0.299395 0.132573 -0.578400
    29 1.100770 0.004528 -0.010676 -0.008955 -0.009504 0.097003
    30 0.957766 -2.746777 -0.090301 -1.075953 -0.109792 0.062268
    31 -0.033419 -1.397128 -0.011256 0.064164 0.000000 0.000000
    32 -0.022361 -0.957433 0.018782 -0.273342 0.000000 0.000000
    33 0.250028 -2.820664 -0.238397 0.588724 0.001394 -0.072461
    34 -0.049759 -1.680544 0.100479 -0.140228 0.000000 0.000000
    35 -0.034141 -1.148311 0.084779 0.099004 0.000000 0.000000
    36 -0.488517 -2.755600 -0.228261 0.703338 -0.021506 -0.150745
    37 0.039888 -1.479791 0.029853 -0.203181 0.000000 0.000000
    38 0.028785 -1.075732 -0.023110 0.050357 0.000000 0.000000
    39 -1.180679 -2.507216 -0.193861 0.848380 0.143009 -0.128851
    40 -0.024967 -1.123935 0.017594 -0.132998 0.000000 0.000000
    41 -0.020058 -0.890964 0.010091 0.477292 0.000000 0.000000
    42 0.080903 -0.068755 -0.180384 0.307743 -2.879452 1.540137
  time 14
    0 6.708029 2.308534 -5.888415 -0.871395 -0.950485 0.931691
    1 -0.071917 -8.498732 -0.104136 0.026984 -0.228374 -0.151618
    2 2.169755 -4.729174 1.879525 -1.323574 1.373645 1.767205
    3 -0.000001 2.617617 0.665015 0.000000 0.000000 0.000000
    4 0.000000 -1.655466 2.278033 0.000000 0.000000 0.000000
    5 0.000000 -1.796959 1.330032 0.000000 0.000000 0.000000
    6 0.000001 -2.886454 1.471525 0.000000 0.000000 0.000000
    7 0.000000 -0.778211 1.774024 -0.680679 0.000000 0.000000
    8 0.000000 -1.598869 0.580120 0.000000 0.000000 0.000000
    9 -5.692019 0.347797 -9.153204 0.582885 0.668608 1.043025
    10 0.096946 -8.450418 -0.009364 0.219004 -0.205437 0.263398
    11 -0.586769 -1.264477 0.200165 -0.325603 -0.304970 -2.339295
    12 1.522835 0.058679 0.016851 0.000000 0.000000 0.184813
    13 1.117948 0.048425 -0.005765 0.015532 0.003658 0.597410
    14 -0.963866 -2.785144 -0.085346 0.296295 0.185746 -0.010101
    15 0.028479 -1.403067 0.006271 -0.815979 0.000000 0.000000
    16 0.021412 -0.957781 0.020047 -0.445059 0.000000 0.000000
    17 -0.249534 -2.846964 -0.174215 0.463479 0.031261 0.129804
    18 0.043234 -1.683940 0.096014 -1.427447 0.000000 0.000000
    19 0.031730 -1.160831 0.058835 0.119114 0.000000 0.000000
    20 0.447951 -2.798983 -0.200442 0.657951 0.067808 0.126894
    21 -0.032910 -1.480207 0.004935 -1.294535 0.000000 0.000000
    22 -0.027023 -1.076920 -0.020211 0.165255 0.000000 0.000000
    23 1.164474 -2.543938 -0.170326 0.788244 -0.030232 0.124244
    24 0.024032 -1.129040 0.017806 -0.796431 0.000000 0.000000
    25 0.014897 -0.883992 -0.019845 -0.305455 0.000000 0.000000
    26 -0.026406 -0.138455 -0.019867 0.287061 0.027381 1.346366
    27 0.583509 -1.197273 0.185379 -0.100236 -0.588734 -0.203305
    28 1.535926 0.010247 0.005008 -0.299826 0.131555 -0.581720
    29 1.100770 0.004528 -0.010676 -0.009507 -0.008953 0.157387
    30 0.957766 -2.746777 -0.090301 -0.982786 -0.105705 0.055748
    31 -0.033419 -1.397128 -0.011256 0.029297 0.000000 0.000000
    32 -0.022361 -0.957433 0.018782 -0.264353 0.000000 0.000000
    33 0.250028 -2.820664 -0.238397 0.585685 0.001394 -0.072461
    34 -0.049759 -1.680544 0.100479 -0.144478 0.000000 0.000000
    35 -0.034141 -1.148311 0.084779 0.094040 0.000000 0.000000
    36 -0.488517 -2.755600 -0.228261 0.700069 -0.021506 -0.150745
    37 0.039888 -1.479791 0.029853 -0.206950 0.000000 0.000000
    38 0.028785 -1.075732 -0.023110 0.045476 0.000000 0.000000
    39 -1.180679 -2.507216 -0.193861 0.845456 0.143009 -0.128851
    40 -0.024967 -1.123935 0.017594 -0.134822 0.000000 0.000000
    41 -0.020058 -0.890964 0.010091 0.472823 0.000000 0.000000
    42 0.080903 -0.068755 -0.180384 0.307743 -2.879452 1.540137
  time 15
    0 6.633808 2.789017 -6.154048 -0.904732 -0.962169 0.963978
    1 -0.071917 -8.498732 -0.104136 0.041250 -0.228140 0.065808
    2 2.411950 -4.436196 1.856087 1.551872 1.755707 -1.244915
    3 -0.000001 2.617617 0.665015 0.000000 0.000000 0.000000
    4 0.000000 -1.655466 2.278033 0.000000 0.000000 0.000000
    5 0.000000 -1.796959 1.330032 0.000000 0.000000 0.000000
    6 0.000001 -2.886454 1.471525 0.000000 0.000000 0.000000
    7 0.000000 -0.778211 1.774024 -0.680679 0.000000 0.000000
    8 0.000000 -1.598869 0.580120 0.000000 0.000000 0.000000
    9 -5.547483 0.359516 -9.055545 0.438738 0.599556 0.978571
    10 0.096946 -8.450418 -0.009364 0.256255 -0.251740 0.261745
    11 -0.586769 -1.264477 0.200165 -0.325603 -0.304970 -2.339295
    12 1.522835 0.058679 0.016851 0.000000 0.000000 0.184813
    13 1.117948 0.048425 -0.005765 0.015532 0.003658 0.597410
    14 -0.963866 -2.785144 -0.085346 0.296295 0.185746 -0.010101
    15 0.028479 -1.403067 0.006271 -0.815979 0.000000 0.000000
    16 0.021412 -0.957781 0.020047 -0.445059 0.000000 0.000000
    17 -0.249534 -2.846964 -0.174215 0.463479 0.031261 0.129804
    18 0.043234 -1.683940 0.096014 -1.427447 0.000000 0.000000
    19 0.031730 -1.160831 0.058835 0.119114 0.000000 0.000000
    20 0.447951 -2.798983 -0.200442 0.657951 0.067808 0.126894
    21 -0.032910 -1.480207 0.004935 -1.294535 0.000000 0.000000
    22 -0.027023 -1.076920 -0.020211 0.165255 0.000000 0.000000
    23 1.164474 -2.543938 -0.170326 0.788244 -0.030232 0.124244
    24 0.024032 -1.129040 0.017806 -0.796431 0.000000 0.000000
    25 0.014897 -0.883992 -0.019845 -0.305455 0.000000 0.000000
    26 -0.026406 -0.138455 -0.019867 0.287061 0.027381 1.346366
    27 0.583509 -1.197273 0.185379 -0.098770 -0.598307 -0.208406
    28 1.535926 0.010247 0.005008 -0.301073 0.128619 -0.591281
    29 1.100770 0.004528 -0.010676 -0.009926 -0.008486 0.205298
    30 0.957766 -2.746777 -0.090301 -0.874972 -0.098730 0.050475
    31 -0.033419 -1.397128 -0.011256 -0.006772 0.000000 0.000000
    32 -0.022361 -0.957433 0.018782 -0.258283 0.000000 0.000000
    33 0.250028 -2.820664 -0.238397 0.578540 0.001394 -0.072461
    34 -0.049759 -1.680544 0.100479 -0.154365 0.000000 0.000000
    35 -0.034141 -1.148311 0.084779 0.082492 0.000000 0.000000
    36 -0.488517 -2.755600 -0.228261 0.692384 -0.021506 -0.150745
    37 0.039888 -1.479791 0.029853 -0.215717 0.000000 0.000000
    38 0.028785 -1.075732 -0.023110 0.034121 0.000000 0.000000
    39 -1.180679 -2.507216 -0.193861 0.838581 0.143009 -0.128851
    40 -0.024967 -1.123935 0.017594 -0.139109 0.000000 0.000000
    41 -0.020058 -0.890964 0.010091 0.462318 0.000000 0.000000
    42 0.080903 -0.068755 -0.180384 0.307743 -2.879452 1.540137
  time 16
    0 6.575212 3.160122 -6.361086 -0.944651 -0.989133 0.994151
    1 -0.071917 -8.498732 -0.104136 0.065141 -0.230689 0.179983
    2 2.357261 -4.080716 1.809210 1.261771 1.737835 -1.146977
    3 -0.000001 2.617617 0.665015 0.000000 0.000000 0.000000
    4 0.000000 -1.655466 2.278033 0.000000 0.000000 0.000000
    5 0.000000 -1.796959 1.330032 0.000000 0.000000 0.000000
    6 0.000001 -2.886454 1.471525 0.000000 0.000000 0.000000
    7 0.000000 -0.778211 1.774024 -0.680679 0.000000 0.000000
    8 0.000000 -1.598869 0.580120 0.000000 0.000000 0.000000
    9 -5.387322 0.363422 -8.981324 0.306818 0.524614 0.928371
    10 0.096946 -8.450418 -0.009364 0.292995 -0.297108 0.258662
    11 -0.586769 -1.264477 0.200165 -0.325603 -0.304970 -2.339295
    12 1.522835 0.058679 0.016851 0.000000 0.000000 0.184813
    13 1.117948 0.048425 -0.005765 0.015532 0.003658 0.597410
    14 -0.963866 -2.785144 -0.085346 0.296295 0.185746 -0.010101
    15 0.028479 -1.403067 0.006271 -0.815979 0.000000 0.000000
    16 0.021412 -0.957781 0.020047 -0.445059 0.000000 0.000000
    17 -0.249534 -2.846964 -0.174215 0.463479 0.031261 0.129804
    18 0.043234 -1.683940 0.096014 -1.427447 0.000000 0.000000
    19 0.031730 -1.160831 0.058835 0.119114 0.000000 0.000000
    20 0.447951 -2.798983 -0.200442 0.657951 0.067808 0.126894
    21 -0.032910 -1.480207 0.004935 -1.294535 0.000000 0.000000
    22 -0.027023 -1.076920 -0.020211 0.165255 0.000000 0.000000
    23 1.164474 -2.543938 -0.170326 0.788244 -0.030232 0.124244
    24 0.024032 -1.129040 0.017806 -0.796431 0.000000 0.000000
    25 0.014897 -0.883992 -0.019845 -0.305455 0.000000 0.000000
    26 -0.026406 -0.138455 -0.019867 0.287061 0.027381 1.346366
    27 0.583509 -1.197273 0.185379 -0.104533 -0.611923 -0.206568
    28 1.535926 0.010247 0.005008 -0.303218 0.123345 -0.608335
    29 1.100770 0.004528 -0.010676 -0.010202 -0.008150 0.238254
    30 0.957766 -2.746777 -0.090301 -0.782785 -0.092953 0.048150
    31 -0.033419 -1.397128 -0.011256 -0.044960 0.000000 0.000000
    32 -0.022361 -0.957433 0.018782 -0.256444 0.000000 0.000000
    33 0.250028 -2.820664 -0.238397 0.566739 0.001394 -0.072461
    34 -0.049759 -1.680544 0.100479 -0.170694 0.000000 0.000000
    35 -0.034141 -1.148311 0.084779 0.063420 0.000000 0.000000
    36 -0.488517 -2.755600 -0.228261 0.679690 -0.021506 -0.150745
    37 0.039888 -1.479791 0.029853 -0.230196 0.000000 0.000000
    38 0.028785 -1.075732 -0.023110 0.015368 0.000000 0.000000
    39 -1.180679 -2.507216 -0.193861 0.827227 0.143009 -0.128851
    40 -0.024967 -1.123935 0.017594 -0.146189 0.000000 0.000000
    41 -0.020058 -0.890964 0.010091 0.444969 0.000000 0.000000
    42 0.080903 -0.068755 -0.180384 0.307743 -2.879452 1.540137
  time 17
    0 6.532242 3.429662 -6.509528 -0.991938 -1.027717 1.024980
    1 -0.071917 -8.498732 -0.104136 0.107591 -0.235209 0.166024
    2 2.095534 -3.627578 1.742802 0.899426 1.717040 -1.114259
    3 -0.000001 2.617617 0.665015 0.000000 0.000000 0.000000
    4 0.000000 -1.655466 2.278033 0.000000 0.000000 0.000000
    5 0.000000 -1.796959 1.330032 0.000000 0.000000 0.000000
    6 0.000001 -2.886454 1.471525 0.000000 0.000000 0.000000
    7 0.000000 -0.778211 1.774024 -0.680679 0.000000 0.000000
    8 0.000000 -1.598869 0.580120 0.000000 0.000000 0.000000
    9 -5.215442 0.359516 -8.942260 0.185924 0.446434 0.890971
    10 0.096946 -8.450418 -0.009364 0.329168 -0.341376 0.254215
    11 -0.586769 -1.264477 0.200165 -0.325603 -0.304970 -2.339295
    12 1.522835 0.058679 0.016851 0.000000 0.000000 0.184813
    13 1.117948 0.048425 -0.005765 0.015532 0.003658 0.597410
    14 -0.963866 -2.785144 -0.085346 0.296295 0.185746 -0.010101
    15 0.028479 -1.403067 0.006271 -0.815979 0.000000 0.000000
    16 0.021412 -0.957781 0.020047 -0.445059 0.000000 0.000000
    17 -0.249534 -2.846964 -0.174215 0.463479 0.031261 0.129804
    18 0.043234 -1.683940 0.096014 -1.427447 0.000000 0.000000
    19 0.031730 -1.160831 0.058835 0.119114 0.000000 0.000000
    20 0.447951 -2.798983 -0.200442 0.657951 0.067808 0.126894
    21 -0.032910 -1.480207 0.004935 -1.294535 0.000000 0.000000
    22 -0.027023 -1.076920 -0.020211 0.165255 0.000000 0.000000
    23 1.164474 -2.543938 -0.170326 0.788244 -0.030232 0.124244
    24 0.024032 -1.129040 0.017806 -0.796431 0.000000 0.000000
    25 0.014897 -0.883992 -0.019845 -0.305455 0.000000 0.000000
    26 -0.026406 -0.138455 -0.019867 0.287061 0.027381 1.346366
    27 0.583509 -1.197273 0.185379 -0.119028 -0.630201 -0.196292
    28 1.535926 0.010247 0.005008 -0.306286 0.115304 -0.634083
    29 1.100770 0.004528 -0.010676 -0.010322 -0.007994 0.253712
    30 0.957766 -2.746777 -0.090301 -0.712678 -0.089538 0.052177
    31 -0.033419 -1.397128 -0.011256 -0.081852 0.000000 0.000000
    32 -0.022361 -0.957433 0.018782 -0.260209 0.000000 0.000000
    33 0.250028 -2.820664 -0.238397 0.549734 0.001394 -0.072461
    34 -0.049759 -1.680544 0.100479 -0.194226 0.000000 0.000000
    35 -0.034141 -1.148311 0.084779 0.035936 0.000000 0.000000
    36 -0.488517 -2.755600 -0.228261 0.661398 -0.021506 -0.150745
    37 0.039888 -1.479791 0.029853 -0.251062 0.000000 0.000000
    38 0.028785 -1.075732 -0.023110 -0.011656 0.000000 0.000000
    39 -1.180679 -2.507216 -0.193861 0.810865 0.143009 -0.128851
    40 -0.024967 -1.123935 0.017594 -0.156392 0.000000 0.000000
    41 -0.020058 -0.890964 0.010091 0.419966 0.000000 0.000000
    42 0.080903 -0.068755 -0.180384 0.307743 -2.879452 1.540137
  time 18
    0 6.508804 3.585917 -6.599375 -1.047524 -1.074240 1.059088
    1 -0.071917 -8.498732 -0.104136 0.170679 -0.236629 0.059481
    2 1.700991 -3.197877 1.676394 0.466508 1.698028 -1.159037
    3 -0.000001 2.617617 0.665015 0.000000 0.000000 0.000000
    4 0.000000 -1.655466 2.278033 0.000000 0.000000 0.000000
    5 0.000000 -1.796959 1.330032 0.000000 0.000000 0.000000
    6 0.000001 -2.886454 1.471525 0.000000 0.000000 0.000000
    7 0.000000 -0.778211 1.774024 -0.680679 0.000000 0.000000
    8 0.000000 -1.598869 0.580120 0.000000 0.000000 0.000000
    9 -5.027936 0.343890 -8.950073 0.074743 0.367075 0.864453
    10 0.096946 -8.450418 -0.009364 0.364702 -0.384428 0.248575
    11 -0.586769 -1.264477 0.200165 -0.325603 -0.304970 -2.339295
    12 1.522835 0.058679 0.016851 0.000000 0.000000 0.184813
    13 1.117948 0.048425 -0.005765 0.015532 0.003658 0.597410
    14 -0.963866 -2.785144 -0.085346 0.296295 0.185746 -0.010101
    15 0.028479 -1.403067 0.006271 -0.815979 0.000000 0.000000
    16 0.021412 -0.957781 0.020047 -0.445059 0.000000 0.000000
    17 -0.249534 -2.846964 -0.174215 0.463479 0.031261 0.129804
    18 0.043234 -1.683940 0.096014 -1.427447 0.000000 0.000000
    19 0.031730 -1.160831 0.058835 0.119114 0.000000 0.000000
    20 0.447951 -2.798983 -0.200442 0.657951 0.067808 0.126894
    21 -0.032910 -1.480207 0.004935 -1.294535 0.000000 0.000000
    22 -0.027023 -1.076920 -0.020211 0.165255 0.000000 0.000000
    23 1.164474 -2.543938 -0.170326 0.788244 -0.030232 0.124244
    24 0.024032 -1.129040 0.017806 -0.796431 0.000000 0.000000
    25 0.014897 -0.883992 -0.019845 -0.305455 0.000000 0.000000
    26 -0.026406 -0.138455 -0.019867 0.287061 0.027381 1.346366
    27 0.583509 -1.197273 0.185379 -0.177004 -0.661687 -0.143487
    28 1.535926 0.010247 0.005008 -0.312542 0.096464 -0.693313
    29 1.100770 0.004528 -0.010676 -0.009842 -0.008582 0.194924
    30 0.957766 -2.746777 -0.090301 -0.652237 -0.087261 0.059511
    31 -0.033419 -1.397128 -0.011256 -0.113902 0.000000 0.000000
    32 -0.022361 -0.957433 0.018782 -0.270861 0.000000 0.000000
    33 0.250028 -2.820664 -0.238397 0.527038 0.001394 -0.072461
    34 -0.049759 -1.680544 0.100479 -0.225632 0.000000 0.000000
    35 -0.034141 -1.148311 0.084779 -0.000745 0.000000 0.000000
    36 -0.488517 -2.755600 -0.228261 0.636985 -0.021506 -0.150745
    37 0.039888 -1.479791 0.029853 -0.278910 0.000000 0.000000
    38 0.028785 -1.075732 -0.023110 -0.047724 0.000000 0.000000
    39 -1.180679 -2.507216 -0.193861 0.789028 0.143009 -0.128851
    40 -0.024967 -1.123935 0.017594 -0.170009 0.000000 0.000000
    41 -0.020058 -0.890964 0.010091 0.386598 0.000000 0.000000
    42 0.080903 -0.068755 -0.180384 0.307743 -2.879452 1.540137
  time 19
    0 6.500991 3.640606 -6.630625 -1.112411 -1.125022 1.099319
    1 -0.071917 -8.498732 -0.104136 0.241940 -0.226679 -0.098817
    2 1.251758 -2.916618 1.621704 -0.013406 1.685062 -1.271522
    3 -0.000001 2.617617 0.665015 0.000000 0.000000 0.000000
    4 0.000000 -1.655466 2.278033 0.000000 0.000000 0.000000
    5 0.000000 -1.796959 1.330032 0.000000 0.000000 0.000000
    6 0.000001 -2.886454 1.471525 0.000000 0.000000 0.000000
    7 0.000000 -0.778211 1.774024 -0.680679 0.000000 0.000000
    8 0.000000 -1.598869 0.580120 0.000000 0.000000 0.000000
    9 -4.828711 0.320452 -9.008668 -0.027754 0.288747 0.847133
    10 0.096946 -8.450418 -0.009364 0.399543 -0.426124 0.241845
    11 -0.586769 -1.264477 0.200165 -0.325603 -0.304970 -2.339295
    12 1.522835 0.058679 0.016851 0.000000 0.000000 0.184813
    13 1.117948 0.048425 -0.005765 0.015532 0.003658 0.597410
    14 -0.963866 -2.785144 -0.085346 0.296295 0.185746 -0.010101
    15 0.028479 -1.403067 0.006271 -0.815979 0.000000 0.000000
    16 0.021412 -0.957781 0.020047 -0.445059 0.000000 0.000000
    17 -0.249534 -2.846964 -0.174215 0.463479 0.031261 0.129804
    18 0.043234 -1.683940 0.096014 -1.427447 0.000000 0.000000
    19 0.031730 -1.160831 0.058835 0.119114 0.000000 0.000000
    20 0.447951 -2.798983 -0.200442 0.657951 0.067808 0.126894
    21 -0.032910 -1.480207 0.004935 -1.294535 0.000000 0.000000
    22 -0.027023 -1.076920 -0.020211 0.165255 0.000000 0.000000
    23 1.164474 -2.543938 -0.170326 0.788244 -0.030232 0.124244
    24 0.024032 -1.129040 0.017806 -0.796431 0.000000 0.000000
    25 0.014897 -0.883992 -0.019845 -0.305455 0.000000 0.000000
    26 -0.026406 -0.138455 -0.019867 0.287061 0.027381 1.346366
    27 0.583509 -1.197273 0.185379 -0.295584 -0.704205 -0.031313
    28 1.535926 0.010247 0.005008 -0.320679 0.063171 -0.795172
    29 1.100770 0.004528 -0.010676 -0.008428 -0.009984 0.042649
    30 0.957766 -2.746777 -0.090301 -0.603475 -0.086098 0.061369
    31 -0.033419 -1.397128 -0.011256 -0.142061 0.000000 0.000000
    32 -0.022361 -0.957433 0.018782 -0.289743 0.000000 0.000000
    33 0.250028 -2.820664 -0.238397 0.498038 0.001394 -0.072461
    34 -0.049759 -1.680544 0.100479 -0.265761 0.000000 0.000000
    35 -0.034141 -1.148311 0.084779 -0.047615 0.000000 0.000000
    36 -0.488517 -2.755600 -0.228261 0.605790 -0.021506 -0.150745
    37 0.039888 -1.479791 0.029853 -0.314493 0.000000 0.000000
    38 0.028785 -1.075732 -0.023110 -0.093810 0.000000 0.000000
    39 -1.180679 -2.507216 -0.193861 0.761126 0.143009 -0.128851
    40 -0.024967 -1.123935 0.017594 -0.187409 0.000000 0.000000
    41 -0.020058 -0.890964 0.010091 0.343960 0.000000 0.000000
    42 0.080903 -0.068755 -0.180384 0.307743 -2.879452 1.540137
  time 20
    0 6.500991 3.656231 -6.630625 -1.187241 -1.176318 1.148004
    1 -0.071917 -8.498732 -0.104136 0.307852 -0.203887 -0.267225
    2 0.818151 -2.916618 1.602173 -0.484868 1.678687 -1.409803
    3 -0.000001 2.617617 0.665015 0.000000 0.000000 0.000000
    4 0.000000 -1.655466 2.278033 0.000000 0.000000 0.000000
    5 0.000000 -1.796959 1.330032 0.000000 0.000000 0.000000
    6 0.000001 -2.886454 1.471525 0.000000 0.000000 0.000000
    7 0.000000 -0.778211 1.774024 -0.680679 0.000000 0.000000
    8 0.000000 -1.598869 0.580120 0.000000 0.000000 0.000000
    9 -4.617767 0.285295 -9.129766 -0.122480 0.213143 0.837093
    10 0.096946 -8.450418 -0.009364 0.433543 -0.466324 0.234195
    11 -0.586769 -1.264477 0.200165 -0.325603 -0.304970 -2.339295
    12 1.522835 0.058679 0.016851 0.000000 0.000000 0.184813
    13 1.117948 0.048425 -0.005765 0.015532 0.003658 0.597410
    14 -0.963866 -2.785144 -0.085346 0.296295 0.185746 -0.010101
    15 0.028479 -1.403067 0.006271 -0.815979 0.000000 0.000000
    16 0.021412 -0.957781 0.020047 -0.445059 0.000000 0.000000
    17 -0.249534 -2.846964 -0.174215 0.463479 0.031261 0.129804
    18 0.043234 -1.683940 0.096014 -1.427447 0.000000 0.000000
    19 0.031730 -1.160831 0.058835 0.119114 0.000000 0.000000
    20 0.447951 -2.798983 -0.200442 0.657951 0.067808 0.126894
    21 -0.032910 -1.480207 0.004935 -1.294535 0.000000 0.000000
    22 -0.027023 -1.076920 -0.020211 0.165255 0.000000 0.000000
    23 1.164474 -2.543938 -0.170326 0.788244 -0.030232 0.124244
    24 0.024032 -1.129040 0.017806 -0.796431 0.000000 0.000000
    25 0.014897 -0.883992 -0.019845 -0.305455 0.000000 0.000000
    26 -0.026406 -0.138455 -0.019867 0.287061 0.027381 1.346366
    27 0.583509 -1.197273 0.185379 -0.447073 -0.744113 0.112888
    28 1.535926 0.010247 0.005008 -0.325905 0.022076 -0.917779
    29 1.100770 0.004528 -0.010676 -0.006367 -0.011410 -0.149144
    30 0.957766 -2.746777 -0.090301 -0.563018 -0.085918 0.055401
    31 -0.033419 -1.397128 -0.011256 -0.171391 0.000000 0.000000
    32 -0.022361 -0.957433 0.018782 -0.318372 0.000000 0.000000
    33 0.250028 -2.820664 -0.238397 0.456074 0.001394 -0.072461
    34 -0.049759 -1.680544 0.100479 -0.323830 0.000000 0.000000
    35 -0.034141 -1.148311 0.084779 -0.115439 0.000000 0.000000
    36 -0.488517 -2.755600 -0.228261 0.560650 -0.021506 -0.150745
    37 0.039888 -1.479791 0.029853 -0.365984 0.000000 0.000000
    38 0.028785 -1.075732 -0.023110 -0.160499 0.000000 0.000000
    39 -1.180679 -2.507216 -0.193861 0.720749 0.143009 -0.128851
    40 -0.024967 -1.123935 0.017594 -0.212587 0.000000 0.000000
    41 -0.020058 -0.890964 0.010091 0.282262 0.000000 0.000000
    42 0.080903 -0.068755 -0.180384 0.307743 -2.879452 1.540137
  time 21
    0 6.497085 3.699201 -6.630625 -1.271443 -1.224510 1.206236
    1 -0.071917 -8.498732 -0.104136 0.357451 -0.175527 -0.405449
    2 0.353294 -3.268192 1.621704 -0.893616 1.674970 -1.533429
    3 -0.000001 2.617617 0.665015 0.000000 0.000000 0.000000
    4 0.000000 -1.655466 2.278033 0.000000 0.000000 0.000000
    5 0.000000 -1.796959 1.330032 0.000000 0.000000 0.000000
    6 0.000001 -2.886454 1.471525 0.000000 0.000000 0.000000
    7 0.000000 -0.778211 1.774024 -0.680679 0.000000 0.000000
    8 0.000000 -1.598869 0.580120 0.000000 0.000000 0.000000
    9 -4.395104 0.230605 -9.313365 -0.209722 0.141661 0.832724
    10 0.096946 -8.450418 -0.009364 0.466558 -0.504956 0.225829
    11 -0.586769 -1.264477 0.200165 -0.310646 -0.343744 -2.388851
    12 1.522835 0.058679 0.016851 0.000000 0.000000 0.184165
    13 1.117948 0.048425 -0.005765 0.015555 0.003562 0.603691
    14 -0.963866 -2.785144 -0.085346 0.232414 0.185746 -0.010101
    15 0.028479 -1.403067 0.006271 -0.815979 0.000000 0.000000
    16 0.021412 -0.957781 0.020047 -0.445059 0.000000 0.000000
    17 -0.249534 -2.846964 -0.174215 0.415828 0.031261 0.129804
    18 0.043234 -1.683940 0.096014 -1.451540 0.000000 0.000000
    19 0.031730 -1.160831 0.058835 0.119114 0.000000 0.000000
    20 0.447951 -2.798983 -0.200442 0.577314 0.067808 0.126894
    21 -0.032910 -1.480207 0.004935 -1.306050 0.000000 0.000000
    22 -0.027023 -1.076920 -0.020211 0.160030 0.000000 0.000000
    23 1.164474 -2.543938 -0.170326 0.687180 -0.030232 0.124244
    24 0.024032 -1.129040 0.017806 -0.822617 0.000000 0.000000
    25 0.014897 -0.883992 -0.019845 -0.305455 0.000000 0.000000
    26 -0.026406 -0.138455 -0.019867 0.287061 0.027381 1.346366
    27 0.583509 -1.197273 0.185379 -0.595971 -0.778753 0.254014
    28 1.535926 0.010247 0.005008 -0.326084 -0.019235 -1.039839
    29 1.100770 0.004528 -0.010676 -0.004257 -0.012357 -0.326484
    30 0.957766 -2.746777 -0.090301 -0.525664 -0.086470 0.046185
    31 -0.033419 -1.397128 -0.011256 -0.204296 0.000000 0.000000
    32 -0.022361 -0.957433 0.018782 -0.356398 0.000000 0.000000
    33 0.250028 -2.820664 -0.238397 0.396587 0.001394 -0.072461
    34 -0.049759 -1.680544 0.100479 -0.406147 0.000000 0.000000
    35 -0.034141 -1.148311 0.084779 -0.211583 0.000000 0.000000
    36 -0.488517 -2.755600 -0.228261 0.496661 -0.021506 -0.150745
    37 0.039888 -1.479791 0.029853 -0.438976 0.000000 0.000000
    38 0.028785 -1.075732 -0.023110 -0.255035 0.000000 0.000000
    39 -1.180679 -2.507216 -0.193861 0.663513 0.143009 -0.128851
    40 -0.024967 -1.123935 0.017594 -0.248279 0.000000 0.000000
    41 -0.020058 -0.890964 0.010091 0.194800 0.000000 0.000000
    42 0.080903 -0.068755 -0.180384 0.307743 -2.879452 1.540137
  time 22
    0 6.497085 3.757797 -6.626719 -1.361367 -1.266218 1.271975
    1 -0.071917 -8.498732 -0.104136 0.384644 -0.154457 -0.475545
    2 -0.056875 -3.662735 1.649049 1.920138 1.473079 1.503189
    3 -0.000001 2.617617 0.665015 0.000000 0.000000 0.000000
    4 0.000000 -1.655466 2.278033 0.000000 0.000000 0.000000
    5 0.000000 -1.796959 1.330032 0.000000 0.000000 0.000000
    6 0.000001 -2.886454 1.471525 0.000000 0.000000 0.000000
    7 0.000000 -0.778211 1.774024 -0.680679 0.000000 0.000000
    8 0.000000 -1.598869 0.580120 0.000000 0.000000 0.000000
    9 -4.156816 0.140759 -9.641500 -0.289594 0.075553 0.832341
    10 0.096946 -8.450418 -0.009364 0.498422 -0.541858 0.216952
    11 -0.586769 -1.264477 0.200165 -0.291278 -0.383185 -2.444843
    12 1.522835 0.058679 0.016851 0.000000 0.000000 0.179575
    13 1.117948 0.048425 -0.005765 0.015567 0.003514 0.607092
    14 -0.963866 -2.785144 -0.085346 0.168533 0.185746 -0.010101
    15 0.028479 -1.403067 0.006271 -0.815979 0.000000 0.000000
    16 0.021412 -0.957781 0.020047 -0.445059 0.000000 0.000000
    17 -0.249534 -2.846964 -0.174215 0.368204 0.031261 0.129804
    18 0.043234 -1.683940 0.096014 -1.475613 0.000000 0.000000
    19 0.031730 -1.160831 0.058835 0.119114 0.000000 0.000000
    20 0.447951 -2.798983 -0.200442 0.496677 0.067808 0.126894
    21 -0.032910 -1.480207 0.004935 -1.317582 0.000000 0.000000
    22 -0.027023 -1.076920 -0.020211 0.154781 0.000000 0.000000
    23 1.164474 -2.543938 -0.170326 0.586152 -0.030232 0.124244
    24 0.024032 -1.129040 0.017806 -0.848785 0.000000 0.000000
    25 0.014897 -0.883992 -0.019845 -0.305455 0.000000 0.000000
    26 -0.026406 -0.138455 -0.019867 0.287061 0.027381 1.346366
    27 0.583509 -1.197273 0.185379 -0.702683 -0.820195 0.352836
    28 1.535926 0.010247 0.005008 -0.322453 -0.052984 -1.140232
    29 1.100770 0.004528 -0.010676 -0.002891 -0.012740 -0.435370
    30 0.957766 -2.746777 -0.090301 -0.490706 -0.086973 0.035350
    31 -0.033419 -1.397128 -0.011256 -0.237580 0.000000 0.000000
    32 -0.022361 -0.957433 0.018782 -0.402303 0.000000 0.000000
    33 0.250028 -2.820664 -0.238397 0.322358 0.001394 -0.072461
    34 -0.049759 -1.680544 0.100479 -0.508864 0.000000 0.000000
    35 -0.034141 -1.148311 0.084779 -0.331553 0.000000 0.000000
    36 -0.488517 -2.755600 -0.228261 0.416815 -0.021506 -0.150745
    37 0.039888 -1.479791 0.029853 -0.530057 0.000000 0.000000
    38 0.028785 -1.075732 -0.023110 -0.372999 0.000000 0.000000
    39 -1.180679 -2.507216 -0.193861 0.592091 0.143009 -0.128851
    40 -0.024967 -1.123935 0.017594 -0.292817 0.000000 0.000000
    41 -0.020058 -0.890964 0.010091 0.085663 0.000000 0.000000
    42 0.080903 -0.068755 -0.180384 0.307743 -2.879452 1.540137
  time 23
    0 6.497085 3.824205 -6.611094 -1.447143 -1.298682 1.336767
    1 -0.071917 -8.498732 -0.104136 0.393857 -0.144384 -0.484865
    2 -0.260006 -3.826802 1.688113 1.654638 1.484608 1.393516
    3 -0.000001 2.617617 0.665015 0.000000 0.000000 0.000000
    4 0.000000 -1.655466 2.278033 0.000000 0.000000 0.000000
    5 0.000000 -1.796959 1.330032 0.000000 0.000000 0.000000
    6 0.000001 -2.886454 1.471525 0.000000 0.000000 0.000000
    7 0.000000 -0.778211 1.774024 -0.680679 0.000000 0.000000
    8 0.000000 -1.598869 0.580120 0.000000 0.000000 0.000000
    9 -3.906808 0.015755 -10.102452 -0.361696 0.015997 0.834410
    10 0.096946 -8.450418 -0.009364 0.528880 -0.577006 0.207786
    11 -0.586769 -1.264477 0.200165 -0.269235 -0.421546 -2.502597
    12 1.522835 0.058679 0.016851 0.000000 0.000000 0.174997
    13 1.117948 0.048425 -0.005765 0.015579 0.003454 0.610493
    14 -0.963866 -2.785144 -0.085346 0.104652 0.185746 -0.010101
    15 0.028479 -1.403067 0.006271 -0.815979 0.000000 0.000000
    16 0.021412 -0.957781 0.020047 -0.445059 0.000000 0.000000
    17 -0.249534 -2.846964 -0.174215 0.320553 0.031261 0.129804
    18 0.043234 -1.683940 0.096014 -1.499705 0.000000 0.000000
    19 0.031730 -1.160831 0.058835 0.119114 0.000000 0.000000
    20 0.447951 -2.798983 -0.200442 0.416040 0.067808 0.126894
    21 -0.032910 -1.480207 0.004935 -1.329097 0.000000 0.000000
    22 -0.027023 -1.076920 -0.020211 0.149557 0.000000 0.000000
    23 1.164474 -2.543938 -0.170326 0.485088 -0.030232 0.124244
    24 0.024032 -1.129040 0.017806 -0.874971 0.000000 0.000000
    25 0.014897 -0.883992 -0.019845 -0.305455 0.000000 0.000000
    26 -0.026406 -0.138455 -0.019867 0.287061 0.027381 1.346366
    27 0.583509 -1.197273 0.185379 -0.758170 -0.900580 0.401366
    28 1.535926 0.010247 0.005008 -0.316653 -0.081507 -1.226557
    29 1.100770 0.004528 -0.010676 -0.002316 -0.012860 -0.480208
    30 0.957766 -2.746777 -0.090301 -0.457381 -0.086793 0.024600
    31 -0.033419 -1.397128 -0.011256 -0.267954 0.000000 0.000000
    32 -0.022361 -0.957433 0.018782 -0.454629 0.000000 0.000000
    33 0.250028 -2.820664 -0.238397 0.236134 0.001394 -0.072461
    34 -0.049759 -1.680544 0.100479 -0.628179 0.000000 0.000000
    35 -0.034141 -1.148311 0.084779 -0.470910 0.000000 0.000000
    36 -0.488517 -2.755600 -0.228261 0.324066 -0.021506 -0.150745
    37 0.039888 -1.479791 0.029853 -0.635856 0.000000 0.000000
    38 0.028785 -1.075732 -0.023110 -0.510025 0.000000 0.000000
    39 -1.180679 -2.507216 -0.193861 0.509130 0.143009 -0.128851
    40 -0.024967 -1.123935 0.017594 -0.344551 0.000000 0.000000
    41 -0.020058 -0.890964 0.010091 -0.041108 0.000000 0.000000
    42 0.080903 -0.068755 -0.180384 0.307743 -2.879452 1.540137
  time 24
    0 6.500991 3.890613 -6.587655 -1.511028 -1.319761 1.384577
    1 -0.071917 -8.498732 -0.104136 0.393544 -0.139381 -0.469345
    2 -0.330321 -3.881492 1.727176 1.402865 1.499854 1.243553
    3 -0.000001 2.617617 0.665015 0.000000 0.000000 0.000000
    4 0.000000 -1.655466 2.278033 0.000000 0.000000 0.000000
    5 0.000000 -1.796959 1.330032 0.000000 0.000000 0.000000
    6 0.000001 -2.886454 1.471525 0.000000 0.000000 0.000000
    7 0.000000 -0.778211 1.774024 -0.680679 0.000000 0.000000
    8 0.000000 -1.598869 0.580120 0.000000 0.000000 0.000000
    9 -3.641175 -0.120968 -10.602467 -0.414316 -0.027289 0.829659
    10 0.096946 -8.450418 -0.009364 0.521302 -0.589775 0.217906
    11 -0.586769 -1.264477 0.200165 -0.246808 -0.457431 -2.556971
    12 1.522835 0.058679 0.016851 0.000000 0.000000 0.174338
    13 1.117948 0.048425 -0.005765 0.015591 0.003358 0.616775
    14 -0.963866 -2.785144 -0.085346 0.040771 0.185746 -0.010101
    15 0.028479 -1.403067 0.006271 -0.815979 0.000000 0.000000
    16 0.021412 -0.957781 0.020047 -0.445059 0.000000 0.000000
    17 -0.249534 -2.846964 -0.174215 0.272902 0.031261 0.129804
    18 0.043234 -1.683940 0.096014 -1.523798 0.000000 0.000000
    19 0.031730 -1.160831 0.058835 0.119114 0.000000 0.000000
    20 0.447951 -2.798983 -0.200442 0.335403 0.067808 0.126894
    21 -0.032910 -1.480207 0.004935 -1.340611 0.000000 0.000000
    22 -0.027023 -1.076920 -0.020211 0.144308 0.000000 0.000000
    23 1.164474 -2.543938 -0.170326 0.384024 -0.030232 0.124244
    24 0.024032 -1.129040 0.017806 -0.901157 0.000000 0.000000
    25 0.014897 -0.883992 -0.019845 -0.305455 0.000000 0.000000
    26 -0.026406 -0.138455 -0.019867 0.287061 0.027381 1.346366
    27 0.583509 -1.197273 0.185379 -0.778291 -1.017758 0.414793
    28 1.535926 0.010247 0.005008 -0.308958 -0.107718 -1.307921
    29 1.100770 0.004528 -0.010676 -0.002016 -0.012896 -0.504415
    30 0.957766 -2.746777 -0.090301 -0.425010 -0.085403 0.015660
    31 -0.033419 -1.397128 -0.011256 -0.292221 0.000000 0.000000
    32 -0.022361 -0.957433 0.018782 -0.511887 0.000000 0.000000
    33 0.250028 -2.820664 -0.238397 0.140697 0.001394 -0.072461
    34 -0.049759 -1.680544 0.100479 -0.760243 0.000000 0.000000
    35 -0.034141 -1.148311 0.084779 -0.625158 0.000000 0.000000
    36 -0.488517 -2.755600 -0.228261 0.221405 -0.021506 -0.150745
    37 0.039888 -1.479791 0.029853 -0.752960 0.000000 0.000000
    38 0.028785 -1.075732 -0.023110 -0.661693 0.000000 0.000000
    39 -1.180679 -2.507216 -0.193861 0.417334 0.143009 -0.128851
    40 -0.024967 -1.123935 0.017594 -0.401813 0.000000 0.000000
    41 -0.020058 -0.890964 0.010091 -0.181427 0.000000 0.000000
    42 0.080903 -0.068755 -0.180384 0.307743 -2.879452 1.540137
  time 25
    0 6.508804 3.941396 -6.544685 -1.512387 -1.332023 1.372479
    1 -0.071917 -8.498732 -0.104136 0.385965 -0.138127 -0.434821
    2 -0.369385 -3.940087 1.719364 1.090961 1.516685 0.991759
    3 -0.000001 2.617617 0.665015 0.000000 0.000000 0.000000
    4 0.000000 -1.655466 2.278033 0.000000 0.000000 0.000000
    5 0.000000 -1.796959 1.330032 0.000000 0.000000 0.000000
    6 0.000001 -2.886454 1.471525 0.000000 0.000000 0.000000
    7 0.000000 -0.778211 1.774024 -0.680679 0.000000 0.000000
    8 0.000000 -1.598869 0.580120 0.000000 0.000000 0.000000
    9 -3.363823 -0.234252 -11.039980 -0.440369 -0.049301 0.810652
    10 0.096946 -8.450418 -0.009364 0.459290 -0.569429 0.256361
    11 -0.586769 -1.264477 0.200165 -0.227071 -0.489943 -2.602309
    12 1.522835 0.058679 0.016851 0.000000 0.000000 0.181541
    13 1.117948 0.048425 -0.005765 0.015639 0.003166 0.628921
    14 -0.963866 -2.785144 -0.085346 -0.023110 0.185746 -0.010101
    15 0.028479 -1.403067 0.006271 -0.815979 0.000000 0.000000
    16 0.021412 -0.957781 0.020047 -0.445059 0.000000 0.000000
    17 -0.249534 -2.846964 -0.174215 0.225251 0.031261 0.129804
    18 0.043234 -1.683940 0.096014 -1.547871 0.000000 0.000000
    19 0.031730 -1.160831 0.058835 0.119114 0.000000 0.000000
    20 0.447951 -2.798983 -0.200442 0.254767 0.067808 0.126894
    21 -0.032910 -1.480207 0.004935 -1.352125 0.000000 0.000000
    22 -0.027023 -1.076920 -0.020211 0.139083 0.000000 0.000000
    23 1.164474 -2.543938 -0.170326 0.282959 -0.030232 0.124244
    24 0.024032 -1.129040 0.017806 -0.927324 0.000000 0.000000
    25 0.014897 -0.883992 -0.019845 -0.305455 0.000000 0.000000
    26 -0.026406 -0.138455 -0.019867 0.287061 0.027381 1.346366
    27 0.583509 -1.197273 0.185379 -0.739822 -1.138237 0.367875
    28 1.535926 0.010247 0.005008 -0.302319 -0.125563 -1.364884
    29 1.100770 0.004528 -0.010676 -0.001908 -0.012920 -0.512809
    30 0.957766 -2.746777 -0.090301 -0.392856 -0.082347 0.010291
    31 -0.033419 -1.397128 -0.011256 -0.307123 0.000000 0.000000
    32 -0.022361 -0.957433 0.018782 -0.572589 0.000000 0.000000
    33 0.250028 -2.820664 -0.238397 0.038825 0.001394 -0.072461
    34 -0.049759 -1.680544 0.100479 -0.901211 0.000000 0.000000
    35 -0.034141 -1.148311 0.084779 -0.789804 0.000000 0.000000
    36 -0.488517 -2.755600 -0.228261 0.111825 -0.021506 -0.150745
    37 0.039888 -1.479791 0.029853 -0.877958 0.000000 0.000000
    38 0.028785 -1.075732 -0.023110 -0.823586 0.000000 0.000000
    39 -1.180679 -2.507216 -0.193861 0.319285 0.143009 -0.128851
    40 -0.024967 -1.123935 0.017594 -0.462935 0.000000 0.000000
    41 -0.020058 -0.890964 0.010091 -0.331205 0.000000 0.000000
    42 0.080903 -0.068755 -0.180384 0.307743 -2.879452 1.540137
  time 26
    0 6.524429 3.976553 -6.478277 -1.435411 -1.339171 1.281595
    1 -0.071917 -8.498732 -0.104136 0.373252 -0.139037 -0.386980
    2 -0.412355 -4.045559 1.641236 0.584777 1.529866 0.516563
    3 -0.000001 2.617617 0.665015 0.000000 0.000000 0.000000
    4 0.000000 -1.655466 2.278033 0.000000 0.000000 0.000000
    5 0.000000 -1.796959 1.330032 0.000000 0.000000 0.000000
    6 0.000001 -2.886454 1.471525 0.000000 0.000000 0.000000
    7 0.000000 -0.778211 1.774024 -0.680679 0.000000 0.000000
    8 0.000000 -1.598869 0.580120 0.000000 0.000000 0.000000
    9 -3.074751 -0.292848 -11.301707 -0.447110 -0.055926 0.780226
    10 0.096946 -8.450418 -0.009364 0.375129 -0.530119 0.304937
    11 -0.586769 -1.264477 0.200165 -0.213575 -0.518498 -2.632510
    12 1.522835 0.058679 0.016851 0.000000 0.000000 0.200524
    13 1.117948 0.048425 -0.005765 0.015699 0.002843 0.649743
    14 -0.963866 -2.785144 -0.085346 -0.086991 0.185746 -0.010101
    15 0.028479 -1.403067 0.006271 -0.815979 0.000000 0.000000
    16 0.021412 -0.957781 0.020047 -0.445059 0.000000 0.000000
    17 -0.249534 -2.846964 -0.174215 0.177600 0.031261 0.129804
    18 0.043234 -1.683940 0.096014 -1.571964 0.000000 0.000000
    19 0.031730 -1.160831 0.058835 0.119114 0.000000 0.000000
    20 0.447951 -2.798983 -0.200442 0.174130 0.067808 0.126894
    21 -0.032910 -1.480207 0.004935 -1.363658 0.000000 0.000000
    22 -0.027023 -1.076920 -0.020211 0.133835 0.000000 0.000000
    23 1.164474 -2.543938 -0.170326 0.181931 -0.030232 0.124244
    24 0.024032 -1.129040 0.017806 -0.953510 0.000000 0.000000
    25 0.014897 -0.883992 -0.019845 -0.305455 0.000000 0.000000
    26 -0.026406 -0.138455 -0.019867 0.287061 0.027381 1.346366
    27 0.583509 -1.197273 0.185379 -0.596278 -1.222518 0.211860
    28 1.535926 0.010247 0.005008 -0.300701 -0.129518 -1.377672
    29 1.100770 0.004528 -0.010676 -0.001944 -0.012908 -0.510119
    30 0.957766 -2.746777 -0.090301 -0.360212 -0.077289 0.010267
    31 -0.033419 -1.397128 -0.011256 -0.309370 0.000000 0.000000
    32 -0.022361 -0.957433 0.018782 -0.635275 0.000000 0.000000
    33 0.250028 -2.820664 -0.238397 -0.066764 0.001394 -0.072461
    34 -0.049759 -1.680544 0.100479 -1.047323 0.000000 0.000000
    35 -0.034141 -1.148311 0.084779 -0.960460 0.000000 0.000000
    36 -0.488517 -2.755600 -0.228261 -0.001756 -0.021506 -0.150745
    37 0.039888 -1.479791 0.029853 -1.007519 0.000000 0.000000
    38 0.028785 -1.075732 -0.023110 -0.991387 0.000000 0.000000
    39 -1.180679 -2.507216 -0.193861 0.217722 0.143009 -0.128851
    40 -0.024967 -1.123935 0.017594 -0.526288 0.000000 0.000000
    41 -0.020058 -0.890964 0.010091 -0.486449 0.000000 0.000000
    42 0.080903 -0.068755 -0.180384 0.307743 -2.879452 1.540137
  time 27
    0 6.543961 3.980460 -6.388431 -1.304708 -1.339449 1.136561
    1 -0.071917 -8.498732 -0.104136 0.357451 -0.140580 -0.331485
    2 -0.420168 -4.154938 1.516232 -0.110089 1.529337 -0.164082
    3 -0.000001 2.617617 0.665015 0.000000 0.000000 0.000000
    4 0.000000 -1.655466 2.278033 0.000000 0.000000 0.000000
    5 0.000000 -1.796959 1.330032 0.000000 0.000000 0.000000
    6 0.000001 -2.886454 1.471525 0.000000 0.000000 0.000000
    7 0.000000 -0.778211 1.774024 -0.680679 0.000000 0.000000
    8 0.000000 -1.598869 0.580120 0.000000 0.000000 0.000000
    9 -2.777867 -0.265503 -11.293894 -0.441911 -0.052613 0.742442
    10 0.096946 -8.450418 -0.009364 0.297596 -0.489054 0.349441
    11 -0.586769 -1.264477 0.200165 -0.215404 -0.540803 -2.631072
    12 1.522835 0.058679 0.016851 0.000000 0.000000 0.242159
    13 1.117948 0.048425 -0.005765 0.015795 0.002255 0.687397
    14 -0.963866 -2.785144 -0.085346 -0.150872 0.185746 -0.010101
    15 0.028479 -1.403067 0.006271 -0.815979 0.000000 0.000000
    16 0.021412 -0.957781 0.020047 -0.445059 0.000000 0.000000
    17 -0.249534 -2.846964 -0.174215 0.129948 0.031261 0.129804
    18 0.043234 -1.683940 0.096014 -1.596056 0.000000 0.000000
    19 0.031730 -1.160831 0.058835 0.119114 0.000000 0.000000
    20 0.447951 -2.798983 -0.200442 0.093493 0.067808 0.126894
    21 -0.032910 -1.480207 0.004935 -1.375172 0.000000 0.000000
    22 -0.027023 -1.076920 -0.020211 0.128610 0.000000 0.000000
    23 1.164474 -2.543938 -0.170326 0.080867 -0.030232 0.124244
    24 0.024032 -1.129040 0.017806 -0.979696 0.000000 0.000000
    25 0.014897 -0.883992 -0.019845 -0.305455 0.000000 0.000000
    26 -0.026406 -0.138455 -0.019867 0.287061 0.027381 1.346366
    27 0.583509 -1.197273 0.185379 -0.312295 -1.237816 -0.090307
    28 1.535926 0.010247 0.005008 -0.306645 -0.114309 -1.328789
    29 1.100770 0.004528 -0.010676 -0.002064 -0.012896 -0.501104
    30 0.957766 -2.746777 -0.090301 -0.328221 -0.068253 0.021604
    31 -0.033419 -1.397128 -0.011256 -0.282033 0.000000 0.000000
    32 -0.022361 -0.957433 0.018782 -0.698457 0.000000 0.000000
    33 0.250028 -2.820664 -0.238397 -0.173258 0.001394 -0.072461
    34 -0.049759 -1.680544 0.100479 -1.194688 0.000000 0.000000
    35 -0.034141 -1.148311 0.084779 -1.132578 0.000000 0.000000
    36 -0.488517 -2.755600 -0.228261 -0.116309 -0.021506 -0.150745
    37 0.039888 -1.479791 0.029853 -1.138190 0.000000 0.000000
    38 0.028785 -1.075732 -0.023110 -1.160627 0.000000 0.000000
    39 -1.180679 -2.507216 -0.193861 0.115256 0.143009 -0.128851
    40 -0.024967 -1.123935 0.017594 -0.590185 0.000000 0.000000
    41 -0.020058 -0.890964 0.010091 -0.643025 0.000000 0.000000
    42 0.080903 -0.068755 -0.180384 0.307743 -2.879452 1.540137
  time 28
    0 6.571306 3.949209 -6.271240 -1.154762 -1.331916 0.972140
    1 -0.071917 -8.498732 -0.104136 0.340808 -0.141531 -0.274044
    2 -0.396729 -4.268222 1.344352 -0.593502 1.513332 -0.637386
    3 -0.000001 2.617617 0.665015 0.000000 0.000000 0.000000
    4 0.000000 -1.655466 2.278033 0.000000 0.000000 0.000000
    5 0.000000 -1.796959 1.330032 0.000000 0.000000 0.000000
    6 0.000001 -2.886454 1.471525 0.000000 0.000000 0.000000
    7 0.000000 -0.778211 1.774024 -0.680679 0.000000 0.000000
    8 0.000000 -1.598869 0.580120 0.000000 0.000000 0.000000
    9 -2.535672 -0.171751 -11.071231 -0.432313 -0.044810 0.701823
    10 0.096946 -8.450418 -0.009364 0.224774 -0.444903 0.392582
    11 -0.586769 -1.264477 0.200165 -0.233650 -0.556895 -2.597623
    12 1.522835 0.058679 0.016851 0.000000 0.000000 0.305893
    13 1.117948 0.048425 -0.005765 0.015891 0.001393 0.741362
    14 -0.963866 -2.785144 -0.085346 -0.214753 0.185746 -0.010101
    15 0.028479 -1.403067 0.006271 -0.815979 0.000000 0.000000
    16 0.021412 -0.957781 0.020047 -0.445059 0.000000 0.000000
    17 -0.249534 -2.846964 -0.174215 0.082297 0.031261 0.129804
    18 0.043234 -1.683940 0.096014 -1.620129 0.000000 0.000000
    19 0.031730 -1.160831 0.058835 0.119114 0.000000 0.000000
    20 0.447951 -2.798983 -0.200442 0.012856 0.067808 0.126894
    21 -0.032910 -1.480207 0.004935 -1.386686 0.000000 0.000000
    22 -0.027023 -1.076920 -0.020211 0.123361 0.000000 0.000000
    23 1.164474 -2.543938 -0.170326 -0.020197 -0.030232 0.124244
    24 0.024032 -1.129040 0.017806 -1.005864 0.000000 0.000000
    25 0.014897 -0.883992 -0.019845 -0.305455 0.000000 0.000000
    26 -0.026406 -0.138455 -0.019867 0.287061 0.027381 1.346366
    27 0.583509 -1.197273 0.185379 -0.003859 -1.180952 -0.421426
    28 1.535926 0.010247 0.005008 -0.316101 -0.083664 -1.233170
    29 1.100770 0.004528 -0.010676 -0.002196 -0.012872 -0.490464
    30 0.957766 -2.746777 -0.090301 -0.297674 -0.055537 0.044674
    31 -0.033419 -1.397128 -0.011256 -0.222931 0.000000 0.000000
    32 -0.022361 -0.957433 0.018782 -0.760676 0.000000 0.000000
    33 0.250028 -2.820664 -0.238397 -0.277910 0.001394 -0.072461
    34 -0.049759 -1.680544 0.100479 -1.339503 0.000000 0.000000
    35 -0.034141 -1.148311 0.084779 -1.301718 0.000000 0.000000
    36 -0.488517 -2.755600 -0.228261 -0.228881 -0.021506 -0.150745
    37 0.039888 -1.479791 0.029853 -1.266600 0.000000 0.000000
    38 0.028785 -1.075732 -0.023110 -1.326938 0.000000 0.000000
    39 -1.180679 -2.507216 -0.193861 0.014563 0.143009 -0.128851
    40 -0.024967 -1.123935 0.017594 -0.652975 0.000000 0.000000
    41 -0.020058 -0.890964 0.010091 -0.796890 0.000000 0.000000
    42 0.080903 -0.068755 -0.180384 0.307743 -2.879452 1.540137
  time 29
    0 6.606463 3.867175 -6.118891 -1.017621 -1.318990 0.820547
    1 -0.071917 -8.498732 -0.104136 0.325700 -0.141076 -0.220431
    2 -0.342040 -4.389320 1.121689 -0.828264 1.490670 -0.853758
    3 -0.000001 2.617617 0.665015 0.000000 0.000000 0.000000
    4 0.000000 -1.655466 2.278033 0.000000 0.000000 0.000000
    5 0.000000 -1.796959 1.330032 0.000000 0.000000 0.000000
    6 0.000001 -2.886454 1.471525 0.000000 0.000000 0.000000
    7 0.000000 -0.778211 1.774024 -0.680679 0.000000 0.000000
    8 0.000000 -1.598869 0.580120 0.000000 0.000000 0.000000
    9 -2.281758 -0.027215 -10.676688 -0.425285 -0.038847 0.662660
    10 0.096946 -8.450418 -0.009364 0.146566 -0.388451 0.436813
    11 -0.586769 -1.264477 0.200165 -0.259259 -0.569638 -2.550703
    12 1.522835 0.058679 0.016851 0.000000 0.000000 0.378460
    13 1.117948 0.048425 -0.005765 0.015939 0.000434 0.801921
    14 -0.963866 -2.785144 -0.085346 -0.278634 0.185746 -0.010101
    15 0.028479 -1.403067 0.006271 -0.815979 0.000000 0.000000
    16 0.021412 -0.957781 0.020047 -0.445059 0.000000 0.000000
    17 -0.249534 -2.846964 -0.174215 0.034646 0.031261 0.129804
    18 0.043234 -1.683940 0.096014 -1.644222 0.000000 0.000000
    19 0.031730 -1.160831 0.058835 0.119114 0.000000 0.000000
    20 0.447951 -2.798983 -0.200442 -0.067745 0.067808 0.126894
    21 -0.032910 -1.480207 0.004935 -1.398201 0.000000 0.000000
    22 -0.027023 -1.076920 -0.020211 0.118137 0.000000 0.000000
    23 1.164474 -2.543938 -0.170326 -0.121261 -0.030232 0.124244
    24 0.024032 -1.129040 0.017806 -1.032049 0.000000 0.000000
    25 0.014897 -0.883992 -0.019845 -0.305455 0.000000 0.000000
    26 -0.026406 -0.138455 -0.019867 0.287061 0.027381 1.346366
    27 0.583509 -1.197273 0.185379 0.206290 -1.078517 -0.656499
    28 1.535926 0.010247 0.005008 -0.323484 -0.046021 -1.119391
    29 1.100770 0.004528 -0.010676 -0.002280 -0.012860 -0.483045
    30 0.957766 -2.746777 -0.090301 -0.267426 -0.041971 0.072694
    31 -0.033419 -1.397128 -0.011256 -0.151110 0.000000 0.000000
    32 -0.022361 -0.957433 0.018782 -0.820385 0.000000 0.000000
    33 0.250028 -2.820664 -0.238397 -0.377939 0.001394 -0.072461
    34 -0.049759 -1.680544 0.100479 -1.477921 0.000000 0.000000
    35 -0.034141 -1.148311 0.084779 -1.463386 0.000000 0.000000
    36 -0.488517 -2.755600 -0.228261 -0.336480 -0.021506 -0.150745
    37 0.039888 -1.479791 0.029853 -1.389337 0.000000 0.000000
    38 0.028785 -1.075732 -0.023110 -1.485902 0.000000 0.000000
    39 -1.180679 -2.507216 -0.193861 -0.081712 0.143009 -0.128851
    40 -0.024967 -1.123935 0.017594 -0.712992 0.000000 0.000000
    41 -0.020058 -0.890964 0.010091 -0.943959 0.000000 0.000000
    42 0.080903 -0.068755 -0.180384 0.307743 -2.879452 1.540137
  time 30
    0 6.653340 3.726546 -5.927479 -0.911600 -1.306172 0.700292
    1 -0.071917 -8.498732 -0.104136 0.314522 -0.138803 -0.176415
    2 -0.252194 -4.514323 0.852150 -0.944649 1.466720 -0.930767
    3 -0.000001 2.617617 0.665015 0.000000 0.000000 0.000000
    4 0.000000 -1.655466 2.278033 0.000000 0.000000 0.000000
    5 0.000000 -1.796959 1.330032 0.000000 0.000000 0.000000
    6 0.000001 -2.886454 1.471525 0.000000 0.000000 0.000000
    7 0.000000 -0.778211 1.774024 -0.680679 0.000000 0.000000
    8 0.000000 -1.598869 0.580120 0.000000 0.000000 0.000000
    9 -1.809088 0.230605 -9.993073 -0.427228 -0.041350 0.629321
    10 0.096946 -8.450418 -0.009364 0.072740 -0.329122 0.475302
    11 -0.586769 -1.264477 0.200165 -0.282470 -0.582878 -2.509428
    12 1.522835 0.058679 0.016851 0.000000 0.000000 0.446604
    13 1.117948 0.048425 -0.005765 0.015939 -0.000477 0.859148
    14 -0.963866 -2.785144 -0.085346 -0.342483 0.185746 -0.010101
    15 0.028479 -1.403067 0.006271 -0.815979 0.000000 0.000000
    16 0.021412 -0.957781 0.020047 -0.445059 0.000000 0.000000
    17 -0.249534 -2.846964 -0.174215 -0.012978 0.031261 0.129804
    18 0.043234 -1.683940 0.096014 -1.668295 0.000000 0.000000
    19 0.031730 -1.160831 0.058835 0.119114 0.000000 0.000000
    20 0.447951 -2.798983 -0.200442 -0.148382 0.067808 0.126894
    21 -0.032910 -1.480207 0.004935 -1.409715 0.000000 0.000000
    22 -0.027023 -1.076920 -0.020211 0.112912 0.000000 0.000000
    23 1.164474 -2.543938 -0.170326 -0.222289 -0.030232 0.124244
    24 0.024032 -1.129040 0.017806 -1.058217 0.000000 0.000000
    25 0.014897 -0.883992 -0.019845 -0.305455 0.000000 0.000000
    26 -0.026406 -0.138455 -0.019867 0.287061 0.027381 1.346366
    27 0.583509 -1.197273 0.185379 0.339227 -0.969650 -0.814052
    28 1.535926 0.010247 0.005008 -0.326444 -0.010942 -1.015318
    29 1.100770 0.004528 -0.010676 -0.002280 -0.012860 -0.483518
    30 0.957766 -2.746777 -0.090301 -0.236552 -0.030022 0.098785
    31 -0.033419 -1.397128 -0.011256 -0.085680 0.000000 0.000000
    32 -0.022361 -0.957433 0.018782 -0.876155 0.000000 0.000000
    33 0.250028 -2.820664 -0.238397 -0.470596 0.001394 -0.072461
    34 -0.049759 -1.680544 0.100479 -1.606138 0.000000 0.000000
    35 -0.034141 -1.148311 0.084779 -1.613141 0.000000 0.000000
    36 -0.488517 -2.755600 -0.228261 -0.436149 -0.021506 -0.150745
    37 0.039888 -1.479791 0.029853 -1.503030 0.000000 0.000000
    38 0.028785 -1.075732 -0.023110 -1.633152 0.000000 0.000000
    39 -1.180679 -2.507216 -0.193861 -0.170864 0.143009 -0.128851
    40 -0.024967 -1.123935 0.017594 -0.768586 0.000000 0.000000
    41 -0.020058 -0.890964 0.010091 -1.080190 0.000000 0.000000
    42 0.080903 -0.068755 -0.180384 0.307743 -2.879452 1.540137
end
