// Created by Crowbar 0.49.0.0

$modelname "weapons/tfa_cso/c_tornado_b.mdl"

$Include "csonline_gmod.qci"

$bodygroup "weapon"
{
	studio "v_sflaser01"
}
$bodygroup "weapon"
{
	studio "v_sflaser02"
}

$CDMaterials "models\weapons\tfa_cso\tornado"

$attachment 0 "sflaser_root" 2.5 0 -8

$definebone "sflaser_root" "" 5.464611 -14.230823 -5.440492 -89.999983 -90.000038 0.000000 0.000000 0.000000 0.000000 -0.000000 0.000000 0.000000
$definebone "triger" "sflaser_root" 1.049424 0.000005 4.375285 0.000036 180.000007 180.000007 0.000000 0.000000 0.000000 0.000000 0.000000 0.000000
$definebone "sflaser_bone" "sflaser_root" 2.098040 0.062218 -5.515702 89.999983 0.000057 0.000000 0.000000 0.000000 0.000000 -0.000000 0.000000 0.000000
$definebone "cover_root" "sflaser_root" 1.537334 -0.001435 1.525789 0.000057 0.000000 0.000000 0.000000 0.000000 0.000000 0.000000 0.000000 0.000000
$definebone "cover_bone01" "cover_root" 0.000000 0.000000 0.000000 0.000000 0.000000 -0.000057 0.000000 -0.000000 0.000000 0.000000 0.000000 0.000000
$definebone "magagine" "cover_bone01" 1.766185 0.001438 0.610085 0.000000 0.000000 0.000000 0.000000 0.000000 0.000000 0.000000 0.000000 0.000000
$definebone "cover_bone02" "cover_bone01" 2.188327 0.001438 -1.238456 -89.999983 -0.000000 0.000000 0.000000 0.000000 0.000000 -0.000000 0.000000 0.000000
$definebone "scope" "cover_bone02" 2.606284 -0.000001 -1.513982 89.999983 -0.000057 0.000000 0.000000 0.000000 0.000000 0.000000 0.000000 0.000000
$definebone "scope01" "scope" 0.958213 0.000000 0.000003 0.000057 -0.000000 0.000000 0.000000 0.000000 0.000000 0.000000 -0.000000 0.000000
$definebone "scope02" "scope" 0.346097 0.000000 0.000001 0.000057 -0.000000 0.000000 0.000000 0.000000 0.000000 0.000000 -0.000000 0.000000
$definebone "sflaser_boneA" "sflaser_bone" 0.139103 -0.071847 1.618658 -0.000057 0.000000 0.000000 0.000000 -0.000000 0.000000 0.000000 0.000000 0.000000
$definebone "sflaser_boneA01" "sflaser_boneA" 1.572390 -0.000000 1.569140 0.000000 0.000000 0.000000 0.000000 0.000000 0.000000 0.000000 0.000000 0.000000
$definebone "laserA_point" "sflaser_boneA01" 0.248337 0.000044 0.567695 23.626886 0.000000 -89.999874 0.000000 0.000000 -0.000000 -0.000000 -0.000000 0.000000
$definebone "sflaser_laserA01_bone02" "laserA_point" 0.012753 -0.528788 -0.000001 -0.001318 0.001375 -0.000802 0.000000 0.000000 0.000000 0.000000 -0.000000 0.000000
$definebone "sflaser_laserA01_bone04" "laserA_point" 0.021011 -0.528881 -0.000089 -0.001318 0.001375 -0.000802 0.000000 0.000000 -0.000000 0.000000 -0.000000 0.000000
$definebone "sflaser_laserA01_bone01" "laserA_point" 0.004707 0.707848 0.000009 -0.001318 0.001260 -0.000802 0.000000 0.000000 0.000000 0.000000 -0.000000 0.000000
$definebone "sflaser_laserA01_bone03" "laserA_point" 0.012970 0.707756 -0.000075 -0.001318 0.001260 -0.000802 0.000000 0.000000 0.000000 0.000000 -0.000000 0.000000
$definebone "sflaser_laserA02_bone01" "laserA_point" 0.012754 -0.528786 -0.000001 -0.001261 0.001433 -0.000802 0.000000 0.000000 0.000000 -0.000000 -0.000000 0.000000
$definebone "sflaser_laserA02_bone02" "laserA_point" 0.021006 -0.528882 -0.000089 -0.001261 0.001433 -0.000802 0.000000 0.000000 0.000000 -0.000000 -0.000000 0.000000
$definebone "sflaser_laserA02_bone03" "laserA_point" 0.004713 0.707844 0.000010 -0.001318 0.001260 -0.000802 0.000000 0.000000 0.000000 0.000000 -0.000000 0.000000
$definebone "sflaser_laserA02_bone04" "laserA_point" 0.012960 0.707753 -0.000080 -0.001318 0.001260 -0.000802 0.000000 0.000000 0.000000 0.000000 -0.000000 0.000000
$definebone "sflaser_ef02" "sflaser_boneA01" -64.112457 -0.000034 0.000049 0.000000 0.000000 -0.000115 0.000000 0.000000 0.000000 0.000000 0.000000 0.000000
$definebone "sflaser_ef02_bone01" "sflaser_ef02" 0.000000 0.000002 0.000000 -0.000115 0.000000 -0.000057 0.000000 0.000000 0.000000 0.000000 0.000000 0.000000
$definebone "sflaser_ef02_bone02" "sflaser_ef02" 0.000000 0.000002 0.000000 -0.000115 0.000000 -0.000057 0.000000 0.000000 0.000000 0.000000 0.000000 0.000000
$definebone "sflaser_ef02_bone03" "sflaser_ef02" 0.000000 0.000000 0.000000 -0.000115 0.000000 -0.000057 0.000000 0.000000 0.000000 0.000000 0.000000 0.000000
$definebone "sflaser_ef02_bone04" "sflaser_ef02" 0.000000 0.000002 0.000000 -0.000115 0.000000 -0.000057 0.000000 0.000000 0.000000 0.000000 0.000000 0.000000
$definebone "sflaser_boneB" "sflaser_bone" 0.139095 1.378700 -0.806713 -0.000057 0.000000 -124.999963 0.000000 0.000000 0.000000 -0.000000 0.000000 0.000000
$definebone "sflaser_boneB01" "sflaser_boneB" 1.572397 0.000000 1.444725 -0.000000 0.000000 0.000000 0.000000 0.000000 0.000000 -0.000000 0.000000 0.000000
$definebone "laserB_point" "sflaser_boneB01" 0.170570 0.000042 0.385862 23.847877 0.000115 90.000154 -0.000001 0.000000 0.000000 -0.000000 0.000000 0.000002
$definebone "sflaser_laserB01_bone01" "laserB_point" 0.012760 -0.528782 -0.000001 -0.001260 0.001375 -0.000799 0.000001 0.000000 0.000000 -0.000000 0.000001 0.000002
$definebone "sflaser_laserB01_bone02" "laserB_point" 0.021022 -0.528894 -0.000091 -0.001260 0.001375 -0.000799 0.000002 -0.000002 0.000000 -0.000000 0.000001 0.000002
$definebone "sflaser_laserB01_bone03" "laserB_point" 0.004710 0.707840 0.000012 -0.001260 0.001259 -0.000744 0.000000 0.000000 0.000000 -0.000001 0.000000 -0.000002
$definebone "sflaser_laserB01_bone04" "laserB_point" 0.012966 0.707745 -0.000072 -0.001260 0.001259 -0.000744 0.000001 0.000000 0.000000 -0.000001 0.000000 -0.000002
$definebone "sflaser_laserB02_bone01" "laserB_point" 0.012755 -0.528788 -0.000004 -0.001260 0.001375 -0.000799 -0.000002 0.000000 0.000000 -0.000000 0.000001 0.000002
$definebone "sflaser_laseB02_bone02" "laserB_point" 0.021008 -0.528887 -0.000089 -0.001260 0.001375 -0.000799 0.000001 0.000000 0.000000 -0.000000 0.000001 0.000002
$definebone "sflaser_laserB02_bone03" "laserB_point" 0.004711 0.707838 0.000010 -0.001260 0.001259 -0.000744 -0.000001 -0.000002 0.000000 -0.000001 0.000000 -0.000002
$definebone "sflaser_laserB02_bone04" "laserB_point" 0.012963 0.707752 -0.000075 -0.001260 0.001259 -0.000744 0.000001 0.000000 0.000000 -0.000001 0.000000 -0.000002
$definebone "sflaser_ef03" "sflaser_boneB01" -63.230019 -1.036383 -2.351806 -0.000000 0.000000 124.999908 0.000000 0.000000 0.000000 0.000000 0.000000 -0.000000
$definebone "sflaser_ef03_bone01" "sflaser_ef03" 0.000000 0.000002 0.000000 -0.000115 0.000000 -0.000057 0.000000 0.000000 0.000000 0.000000 0.000000 -0.000000
$definebone "sflaser_ef03_bone02" "sflaser_ef03" 0.000000 0.000002 0.000000 -0.000115 0.000000 -0.000057 0.000000 0.000000 0.000000 0.000000 0.000000 -0.000000
$definebone "sflaser_ef03_bone03" "sflaser_ef03" 0.000000 0.000000 0.000000 -0.000115 0.000000 -0.000057 0.000000 0.000000 0.000000 0.000000 0.000000 -0.000000
$definebone "sflaser_ef03_bone04" "sflaser_ef03" 0.000000 0.000002 0.000000 -0.000115 0.000000 -0.000057 0.000000 0.000000 0.000000 0.000000 0.000000 -0.000000
$definebone "sflaser_boneC" "sflaser_bone" 0.139093 -1.391925 -0.813931 -0.000057 0.000000 124.999963 0.000000 0.000000 0.000000 -0.000000 0.000000 0.000000
$definebone "sflaser_boneC01" "sflaser_boneC" 1.572403 0.000000 1.432385 -0.000000 0.000000 0.000000 0.000000 0.000000 0.000000 -0.000000 0.000000 0.000000
$definebone "laserC_point" "sflaser_boneC01" 0.155441 -0.070680 0.411222 21.056254 -2.427164 -81.734778 0.000000 0.000000 0.000000 0.000001 0.000000 0.000000
$definebone "sflaser_laserC01_bone01" "laserC_point" 0.012760 -0.528782 -0.000002 -0.001317 0.001433 -0.000803 0.000000 0.000000 0.000000 -0.000001 0.000001 -0.000002
$definebone "sflaser_laserC01_bone02" "laserC_point" 0.021009 -0.528887 -0.000094 -0.001317 0.001433 -0.000803 0.000000 0.000000 0.000000 -0.000001 0.000001 -0.000002
$definebone "sflaser_laserC01_bone03" "laserC_point" 0.004711 0.707840 0.000010 -0.001259 0.001318 -0.000806 0.000000 0.000000 0.000000 -0.000001 0.000001 -0.000003
$definebone "sflaser_laserC01_bone04" "laserC_point" 0.012964 0.707745 -0.000084 -0.001259 0.001318 -0.000806 0.000000 0.000000 0.000000 -0.000001 0.000001 -0.000003
$definebone "sflaser_laserC02_bone01" "laserC_point" 0.012754 -0.528784 -0.000002 -0.001317 0.001433 -0.000803 0.000000 0.000001 0.000000 -0.000001 0.000001 -0.000002
$definebone "sflaser_laserC02_bone02" "laserC_point" 0.021008 -0.528881 -0.000091 -0.001317 0.001433 -0.000803 0.000000 -0.000001 0.000000 -0.000001 0.000001 -0.000002
$definebone "sflaser_laserC02_bone03" "laserC_point" 0.004713 0.707840 0.000009 -0.001259 0.001318 -0.000806 0.000000 0.000000 0.000000 -0.000001 0.000001 -0.000003
$definebone "sflaser_laserC02_bone04" "laserC_point" 0.012962 0.707749 -0.000079 -0.001259 0.001318 -0.000806 0.000000 0.000000 0.000000 -0.000001 0.000001 -0.000003
$definebone "sflaser_ef04" "sflaser_boneC01" -63.124893 1.320023 2.432644 -0.000000 0.000000 -125.000140 0.000000 0.000000 0.000000 0.000000 0.000000 -0.000000
$definebone "sflaser_ef04_bone01" "sflaser_ef04" 0.000000 0.000002 0.000000 -0.000115 0.000000 -0.000057 0.000000 0.000000 0.000000 0.000000 0.000000 -0.000000
$definebone "sflaser_ef04_bone02" "sflaser_ef04" 0.000000 0.000002 0.000000 -0.000115 0.000000 -0.000057 0.000000 0.000000 0.000000 0.000000 0.000000 -0.000000
$definebone "sflaser_ef04_bone03" "sflaser_ef04" 0.000000 0.000000 0.000000 -0.000115 0.000000 -0.000057 0.000000 0.000000 0.000000 0.000000 0.000000 -0.000000
$definebone "sflaser_ef04_bone04" "sflaser_ef04" 0.000000 0.000002 0.000000 -0.000115 0.000000 -0.000057 0.000000 0.000000 0.000000 0.000000 0.000000 -0.000000
$definebone "sflaser_ef01" "sflaser_bone" -6.371116 -0.037764 -0.036859 -0.000000 0.000000 -0.000057 0.000000 0.000000 -0.000000 -0.000000 0.000000 0.000000
$definebone "sflaser_ef01_bone02" "sflaser_ef01" 0.000003 0.000000 -0.000000 -0.000115 0.000000 -0.000057 0.000000 0.000000 0.000000 0.000000 0.000000 0.000000
$definebone "sflaser_ef01_bone03" "sflaser_ef01" 0.000001 0.000000 -0.000000 -0.000115 0.000000 -0.000057 0.000000 0.000000 0.000000 0.000000 0.000000 0.000000
$definebone "sflaser_ef01_bone01" "sflaser_ef01" 0.000004 0.000000 -0.000000 -0.000115 0.000000 -0.000057 0.000000 0.000000 0.000000 0.000000 0.000000 0.000000
$definebone "sflaser_ef01_bone04" "sflaser_ef01" 0.000001 0.000000 -0.000000 -0.000115 0.000000 -0.000057 0.000000 0.000000 0.000000 0.000000 0.000000 0.000000

$sequence "idleA" {
	"v_sflaser_anims\idleA"
	fps 30
	loop
}
$sequence "idleB" {
	"v_sflaser_anims\idleB"
	fps 30
	loop
	activity "ACT_VM_IDLE" 1
	snap
}
$sequence "idleC" {
	"v_sflaser_anims\idleC"
	fps 30
	loop
}
$sequence "shootA" {
	"v_sflaser_anims\shootA"
	fps 30
}
$sequence "shootB" {
	"v_sflaser_anims\shootB"
	fps 30
}
$sequence "shootC" {
	"v_sflaser_anims\shootC"
	fps 30
}
$sequence "shoot_emptyA" {
	"v_sflaser_anims\shoot_emptyA"
	fps 30
	loop
}
$sequence "shoot_emptyB" {
	"v_sflaser_anims\shoot_emptyB"
	fps 30
	loop
}
$sequence "shoot_emptyC" {
	"v_sflaser_anims\shoot_emptyC"
	fps 30
	loop
}
$sequence "shoot_endA" {
	"v_sflaser_anims\shoot_endA"
	{ event 5004 1 "Tornado.Fire_End" }
	fps 30
}
$sequence "shoot_endB" {
	"v_sflaser_anims\shoot_endB"
	{ event 5004 1 "Tornado.Fire_End" }
	fps 30
	activity "ACT_VM_PRIMARYATTACK" 1
	snap
}
$sequence "shoot_endC" {
	"v_sflaser_anims\shoot_endC"
	{ event 5004 1 "Tornado.Fire_End" }
	fps 30
}
$sequence "reloadA" {
	"v_sflaser_anims\reloadA"
	{ event 5004 1 "Tornado.ClipOut" }
	{ event 5004 57 "Tornado.ClipIn" }
	fps 30
}
$sequence "reloadB" {
	"v_sflaser_anims\reloadB"
	{ event 5004 1 "Tornado.ClipOut" }
	{ event 5004 57 "Tornado.ClipIn" }
	fps 30
	activity "ACT_VM_RELOAD" 1
	snap
}
$sequence "reloadC" {
	"v_sflaser_anims\reloadC"
	{ event 5004 1 "Tornado.ClipOut" }
	{ event 5004 57 "Tornado.ClipIn" }
	fps 30
}
$sequence "changeA" {
	"v_sflaser_anims\changeA"
	{ event 5004 15 "weapons/sflaser_changeb.wav" }
	fps 30
}
$sequence "changeB" {
	"v_sflaser_anims\changeB"
	{ event 5004 15 "weapons/sflaser_changeb.wav" }
	fps 30
}
$sequence "drawA" {
	"v_sflaser_anims\drawA"
	{ event 5004 10 "Tornado.DrawA" }
	fps 30
}
$sequence "drawB" {
	"v_sflaser_anims\drawB"
	{ event 5004 13 "Tornado.DrawC" }
	fps 30
	activity "ACT_VM_DRAW" 1
	snap
}
$sequence "drawC" {
	"v_sflaser_anims\drawC"
	{ event 5004 13 "Tornado.DrawC" }
	fps 30
}
