// Created by Crowbar 0.68

$modelname "weapons/tfa_cso/c_bizon_v8.mdl"

$include "csonline_gmod.qci"

$bodygroup "weapon"
{
	studio "v_bisonb"
}

$cdmaterials "models/weapons/tfa_cso/bizon_v8"

$attachment 0 "pp19_root" 15.7 0 0
//$attachment 1 "pp19_root" 5 0 -1

$sequence "idle" {
	"v_bisonb_anims\idle"
	fps 30
	loop
	activity "ACT_VM_IDLE" 1
	snap
}
$sequence "reload" {
	"v_bisonb_anims\reload"
	{ event 5004 4 "Bizon.ClipOut" }
	{ event 5004 36 "Bizon.ClipIn" }
	{ event 5004 62 "Bizon.BoltPull" }
	fps 38
	activity "ACT_VM_RELOAD" 1
	snap
}
$sequence "draw" {
	"v_bisonb_anims\draw"
	fps 35
	activity "ACT_VM_DRAW" 1
	snap
}
$sequence "shoot1" {
	"v_bisonb_anims\shoot1"
	{ event 5001 0 "12" }
	fps 30
	activity "ACT_VM_PRIMARYATTACK" 1
	snap
}
$sequence "shoot2" {
	"v_bisonb_anims\shoot2"
	{ event 5001 0 "12" }
	fps 30
	activity "ACT_VM_PRIMARYATTACK" 2
	snap
}
$sequence "shoot3" {
	"v_bisonb_anims\shoot3"
	{ event 5001 0 "12" }
	fps 30
	activity "ACT_VM_PRIMARYATTACK" 3
	snap
}
