// Created by Crowbar 0.34.0.0

$ModelName "weapons/tfa_cso/w_heaven_scorcher.mdl"

$BodyGroup "studio"
{
	studio "v_wondercannon_v_20s1epic1"
}

$collisionmodel "v_wondercannon_v_20s1epic1.smd"
{
	$mass 9
}

$CDMaterials "models\weapons\tfa_cso\heaven_scorcher\"

$attachment "0" "root" -0.30 -16.80 -0.40 rotate -0 0 0

$Sequence "idle" {
	"anims\idle.smd"
	fps 30
}