version 1
nodes
  0 "Bip01 L Forearm" -1
  1 "Bip01 L Hand" 0
  2 "Bone_QBB95" 1
  3 "Bone_Magazine" 2
  4 "Bone_Magazine_Clip" 2
  5 "Bone_Trigger" 2
  6 "Bone_Bullet_Case" 2
  7 "Bone_Bullet_Clip" 2
  8 "Bip01 L Finger0" 1
  9 "Bip01 L Finger01" 8
  10 "Bip01 L Finger02" 9
  11 "Bip01 L Finger1" 1
  12 "Bip01 L Finger11" 11
  13 "Bip01 L Finger12" 12
  14 "Bip01 L Finger2" 1
  15 "Bip01 L Finger21" 14
  16 "Bip01 L Finger22" 15
  17 "Bip01 L Finger3" 1
  18 "Bip01 L Finger31" 17
  19 "Bip01 L Finger32" 18
  20 "Bip01 L Finger4" 1
  21 "Bip01 L Finger41" 20
  22 "Bip01 L Finger42" 21
  23 "Bone_Se_Hand-L" 1
  24 "Bip01 L ForeTwist2" 0
  25 "Bip01 R Forearm" -1
  26 "Bip01 R Hand" 25
  27 "Bip01 R Finger0" 26
  28 "Bip01 R Finger01" 27
  29 "Bip01 R Finger02" 28
  30 "Bip01 R Finger1" 26
  31 "Bip01 R Finger11" 30
  32 "Bip01 R Finger12" 31
  33 "Bip01 R Finger2" 26
  34 "Bip01 R Finger21" 33
  35 "Bip01 R Finger22" 34
  36 "Bip01 R Finger3" 26
  37 "Bip01 R Finger31" 36
  38 "Bip01 R Finger32" 37
  39 "Bip01 R Finger4" 26
  40 "Bip01 R Finger41" 39
  41 "Bip01 R Finger42" 40
  42 "Bone_Se_Hand-R" 26
  43 "Bip01 R ForeTwist2" 25
end
skeleton
  time 0
    0 13.071600 -0.051095 -7.993183 -0.701904 -0.106220 -2.498974
    1 8.499673 0.000000 0.000000 -2.357510 -0.532615 0.614894
    2 2.590253 0.798589 -0.347197 -6.114193 -3.019792 -4.839349
    3 1.276065 4.913687 -1.756443 0.000000 0.000000 0.000000
    4 0.000001 6.776258 1.709932 0.000000 0.000000 0.000000
    5 0.000000 -2.155090 2.277096 0.657820 0.000000 0.000000
    6 -0.531231 4.631601 3.001893 0.000000 0.000000 0.000000
    7 0.000000 -0.825721 4.265968 0.000000 0.000000 0.000000
    8 1.066141 0.161471 -0.665475 2.484768 0.749569 0.986721
    9 1.535968 -0.000001 0.000001 0.000000 0.000000 1.180468
    10 1.100831 0.000000 0.000000 0.000000 0.000000 0.433641
    11 2.725985 -0.106123 -1.020465 -0.355073 0.107536 -0.014378
    12 1.397574 0.000001 0.000001 0.000000 0.000000 0.947319
    13 0.957879 0.000000 0.000000 0.000000 0.000000 1.317524
    14 2.818702 -0.176450 -0.444443 -0.118789 0.036080 0.644560
    15 1.684281 0.000000 0.000000 0.000000 0.000000 1.861645
    16 1.151941 0.000000 0.000001 0.000000 0.000000 1.141487
    17 2.804605 -0.069563 0.290472 -0.211325 0.071354 0.840695
    18 1.480629 0.000000 0.000000 0.000000 0.000000 1.698687
    19 1.076366 0.000000 0.000000 0.000000 0.000000 0.748916
    20 2.637186 0.041571 0.929335 -0.346527 0.088471 0.924980
    21 1.124349 -0.000002 0.000000 0.000000 0.000000 1.346295
    22 0.891247 0.000001 0.000000 0.000000 0.000000 0.984495
    23 0.050302 -0.068010 -0.113033 1.724535 0.010837 0.011384
    24 2.428478 0.000000 0.000000 -0.247874 0.000000 0.000000
    25 -1.042173 -8.615613 -11.575167 -1.217381 -0.762342 -6.931392
    26 8.499673 0.000001 0.000000 2.437185 0.370044 0.505808
    27 1.066141 0.161471 0.665475 -2.170786 -0.946944 0.854374
    28 1.535968 -0.000001 0.000000 0.000000 0.000000 0.676983
    29 1.100830 -0.000001 0.000000 0.000000 0.000000 0.413386
    30 2.725985 -0.106123 1.020465 -0.033428 -0.053085 0.395670
    31 1.397574 0.000001 -0.000001 0.000000 0.000000 1.132809
    32 0.957878 0.000000 0.000000 0.000000 0.000000 0.541011
    33 2.818702 -0.176451 0.444443 0.119850 0.134871 0.640665
    34 1.684282 -0.000002 0.000000 0.000000 0.000000 1.240621
    35 1.151941 0.000000 -0.000001 0.000000 0.000000 1.239975
    36 2.804606 -0.069564 -0.290472 0.214133 0.097671 1.016449
    37 1.480629 0.000001 -0.000001 0.000000 0.000000 1.179420
    38 1.076367 0.000000 0.000000 0.000000 0.000000 1.048828
    39 2.637187 0.041571 -0.929335 0.296641 0.280606 0.784692
    40 1.124349 0.000001 0.000000 0.000000 0.000000 1.636865
    41 0.891247 0.000001 0.000000 0.000000 0.000000 1.427882
    42 0.124525 -0.290673 0.144269 4.738708 3.090386 -5.888689
    43 2.428478 0.000000 0.000000 0.297285 0.000000 0.000000
  time 1
    0 13.450518 1.152066 -7.989277 -0.687714 -0.122295 -2.580812
    1 8.499673 0.000000 0.000000 -2.366567 -0.598471 0.672230
    2 2.590253 0.798589 -0.347197 -6.114193 -3.019792 -4.839349
    3 1.276065 4.913687 -1.756443 0.000000 0.000000 0.000000
    4 0.000001 6.776258 1.709932 0.000000 0.000000 0.000000
    5 0.000000 -2.155090 2.277096 0.651275 0.000000 0.000000
    6 -0.531231 4.631601 3.001893 0.000000 0.000000 0.000000
    7 0.000000 0.350096 4.285500 0.000000 0.000000 0.000000
    8 1.066141 0.161471 -0.665475 2.484768 0.749569 0.986721
    9 1.535968 -0.000001 0.000001 0.000000 0.000000 1.180468
    10 1.100831 0.000000 0.000000 0.000000 0.000000 0.433641
    11 2.725985 -0.106123 -1.020465 -0.355073 0.107536 -0.014378
    12 1.397574 0.000001 0.000001 0.000000 0.000000 0.947319
    13 0.957879 0.000000 0.000000 0.000000 0.000000 1.317524
    14 2.818702 -0.176450 -0.444443 -0.118789 0.036080 0.644560
    15 1.684281 0.000000 0.000000 0.000000 0.000000 1.861645
    16 1.151941 0.000000 0.000001 0.000000 0.000000 1.141487
    17 2.804605 -0.069563 0.290472 -0.211325 0.071354 0.840695
    18 1.480629 0.000000 0.000000 0.000000 0.000000 1.698687
    19 1.076366 0.000000 0.000000 0.000000 0.000000 0.748916
    20 2.637186 0.041571 0.929335 -0.346527 0.088471 0.924980
    21 1.124349 -0.000002 0.000000 0.000000 0.000000 1.346295
    22 0.891247 0.000001 0.000000 0.000000 0.000000 0.984495
    23 0.050302 -0.068010 -0.113033 1.724535 0.010837 0.011384
    24 2.428478 0.000000 0.000000 -0.238778 0.000000 0.000000
    25 -1.245304 -8.342167 -11.672826 -1.384392 -0.861196 -6.678918
    26 8.499673 0.000001 0.000000 2.484135 0.529518 0.560108
    27 1.066141 0.161471 0.665475 -1.997404 -0.961808 0.663279
    28 1.535968 -0.000001 0.000000 0.000000 0.000000 0.674945
    29 1.100830 -0.000001 0.000000 0.000000 0.000000 0.230687
    30 2.725985 -0.106123 1.020465 -0.033428 -0.053085 0.395670
    31 1.397574 0.000001 -0.000001 0.000000 0.000000 1.132809
    32 0.957878 0.000000 0.000000 0.000000 0.000000 0.541011
    33 2.818702 -0.176451 0.444443 0.119850 0.134871 0.640665
    34 1.684282 -0.000002 0.000000 0.000000 0.000000 1.240621
    35 1.151941 0.000000 -0.000001 0.000000 0.000000 1.239975
    36 2.804606 -0.069564 -0.290472 0.214133 0.097671 1.016449
    37 1.480629 0.000001 -0.000001 0.000000 0.000000 1.179420
    38 1.076367 0.000000 0.000000 0.000000 0.000000 1.048828
    39 2.637187 0.041571 -0.929335 0.296641 0.280606 0.784692
    40 1.124349 0.000001 0.000000 0.000000 0.000000 1.636865
    41 0.891247 0.000001 0.000000 0.000000 0.000000 1.427882
    42 0.124525 -0.290673 0.144269 4.738708 3.090386 -5.888689
    43 2.428478 0.000000 0.000000 0.282040 0.000000 0.000000
  time 2
    0 13.149727 1.890370 -7.899430 -0.689787 -0.141059 -2.554878
    1 8.499673 0.000000 0.000000 -2.400910 -0.529521 0.710186
    2 2.590253 0.798589 -0.347197 -6.114193 -3.019792 -4.839349
    3 1.276065 4.913687 -1.756443 0.000000 0.000000 0.000000
    4 0.000001 6.776258 1.709932 0.000000 0.000000 0.000000
    5 0.000000 -2.155090 2.277096 0.632664 0.000000 0.000000
    6 -0.531231 4.631601 3.001893 0.000000 0.000000 0.000000
    7 0.000000 0.455568 4.273781 0.000000 0.000000 0.000000
    8 1.066141 0.161471 -0.665475 2.484768 0.749569 0.986721
    9 1.535968 -0.000001 0.000001 0.000000 0.000000 1.180468
    10 1.100831 0.000000 0.000000 0.000000 0.000000 0.433641
    11 2.725985 -0.106123 -1.020465 -0.355073 0.107536 -0.014378
    12 1.397574 0.000001 0.000001 0.000000 0.000000 0.947319
    13 0.957879 0.000000 0.000000 0.000000 0.000000 1.317524
    14 2.818702 -0.176450 -0.444443 -0.118789 0.036080 0.644560
    15 1.684281 0.000000 0.000000 0.000000 0.000000 1.861645
    16 1.151941 0.000000 0.000001 0.000000 0.000000 1.141487
    17 2.804605 -0.069563 0.290472 -0.211325 0.071354 0.840695
    18 1.480629 0.000000 0.000000 0.000000 0.000000 1.698687
    19 1.076366 0.000000 0.000000 0.000000 0.000000 0.748916
    20 2.637186 0.041571 0.929335 -0.346527 0.088471 0.924980
    21 1.124349 -0.000002 0.000000 0.000000 0.000000 1.346295
    22 0.891247 0.000001 0.000000 0.000000 0.000000 0.984495
    23 0.050302 -0.068010 -0.113033 1.724535 0.010837 0.011384
    24 2.428478 0.000000 0.000000 -0.262867 0.000000 0.000000
    25 -1.299993 -7.635114 -11.778298 -1.359682 -0.844828 -6.722303
    26 8.499673 0.000001 0.000000 2.539882 0.510174 0.614685
    27 1.066141 0.161471 0.665475 -1.893824 -0.963414 0.557240
    28 1.535968 -0.000001 0.000000 0.000000 0.000000 0.666444
    29 1.100830 -0.000001 0.000000 0.000000 0.000000 0.123010
    30 2.725985 -0.106123 1.020465 -0.033428 -0.053085 0.395670
    31 1.397574 0.000001 -0.000001 0.000000 0.000000 1.132809
    32 0.957878 0.000000 0.000000 0.000000 0.000000 0.541011
    33 2.818702 -0.176451 0.444443 0.119850 0.134871 0.640665
    34 1.684282 -0.000002 0.000000 0.000000 0.000000 1.240621
    35 1.151941 0.000000 -0.000001 0.000000 0.000000 1.239975
    36 2.804606 -0.069564 -0.290472 0.214133 0.097671 1.016449
    37 1.480629 0.000001 -0.000001 0.000000 0.000000 1.179420
    38 1.076367 0.000000 0.000000 0.000000 0.000000 1.048828
    39 2.637187 0.041571 -0.929335 0.296641 0.280606 0.784692
    40 1.124349 0.000001 0.000000 0.000000 0.000000 1.636865
    41 0.891247 0.000001 0.000000 0.000000 0.000000 1.427882
    42 0.124525 -0.290673 0.144269 4.738708 3.090386 -5.888689
    43 2.428478 0.000000 0.000000 0.301096 0.000000 0.000000
  time 3
    0 13.259106 1.905996 -7.942400 -0.688936 -0.131295 -2.560369
    1 8.499673 0.000000 0.000000 -2.373541 -0.546352 0.691392
    2 2.590253 0.798589 -0.347197 -6.114193 -3.019792 -4.839349
    3 1.276065 4.913687 -1.756443 0.000000 0.000000 0.000000
    4 0.000001 6.776258 1.709932 0.000000 0.000000 0.000000
    5 0.000000 -2.155090 2.277096 0.603594 0.000000 0.000000
    6 -0.531231 4.631601 3.001893 0.000000 0.000000 0.000000
    7 0.000000 -0.087417 4.273781 0.000000 0.000000 0.000000
    8 1.066141 0.161471 -0.665475 2.484768 0.749569 0.986721
    9 1.535968 -0.000001 0.000001 0.000000 0.000000 1.180468
    10 1.100831 0.000000 0.000000 0.000000 0.000000 0.433641
    11 2.725985 -0.106123 -1.020465 -0.281812 0.110316 -0.014989
    12 1.397574 0.000001 0.000001 0.000000 0.000000 0.823855
    13 0.957879 0.000000 0.000000 0.000000 0.000000 1.292511
    14 2.818702 -0.176450 -0.444443 -0.118789 0.036080 0.644560
    15 1.684281 0.000000 0.000000 0.000000 0.000000 1.861645
    16 1.151941 0.000000 0.000001 0.000000 0.000000 1.141487
    17 2.804605 -0.069563 0.290472 -0.211325 0.071354 0.840695
    18 1.480629 0.000000 0.000000 0.000000 0.000000 1.698687
    19 1.076366 0.000000 0.000000 0.000000 0.000000 0.748916
    20 2.637186 0.041571 0.929335 -0.346527 0.088471 0.924980
    21 1.124349 -0.000002 0.000000 0.000000 0.000000 1.346295
    22 0.891247 0.000001 0.000000 0.000000 0.000000 0.984495
    23 0.050302 -0.068010 -0.113033 1.724535 0.010837 0.011384
    24 2.428478 0.000000 0.000000 -0.251757 0.000000 0.000000
    25 -1.139832 -6.947593 -11.684545 -1.330591 -0.823282 -6.827899
    26 8.499673 0.000001 0.000000 2.525645 0.420540 0.573553
    27 1.066141 0.161471 0.665475 -1.970626 -0.971402 0.673920
    28 1.535968 -0.000001 0.000000 0.000000 0.000000 0.637085
    29 1.100830 -0.000001 0.000000 0.000000 0.000000 0.195486
    30 2.725985 -0.106123 1.020465 -0.033428 -0.053085 0.395670
    31 1.397574 0.000001 -0.000001 0.000000 0.000000 1.132809
    32 0.957878 0.000000 0.000000 0.000000 0.000000 0.541011
    33 2.818702 -0.176451 0.444443 0.119850 0.134871 0.640665
    34 1.684282 -0.000002 0.000000 0.000000 0.000000 1.240621
    35 1.151941 0.000000 -0.000001 0.000000 0.000000 1.239975
    36 2.804606 -0.069564 -0.290472 0.214133 0.097671 1.016449
    37 1.480629 0.000001 -0.000001 0.000000 0.000000 1.179420
    38 1.076367 0.000000 0.000000 0.000000 0.000000 1.048828
    39 2.637187 0.041571 -0.929335 0.296641 0.280606 0.784692
    40 1.124349 0.000001 0.000000 0.000000 0.000000 1.636865
    41 0.891247 0.000001 0.000000 0.000000 0.000000 1.427882
    42 0.124525 -0.290673 0.144269 4.738708 3.090386 -5.888689
    43 2.428478 0.000000 0.000000 0.315477 0.000000 0.000000
  time 4
    0 13.360671 1.894276 -7.973651 -0.690518 -0.114852 -2.557789
    1 8.499673 0.000000 0.000000 -2.344751 -0.567178 0.657841
    2 2.590253 0.798589 -0.347197 -6.114193 -3.019792 -4.839349
    3 1.276065 4.913687 -1.756443 0.000000 0.000000 0.000000
    4 0.000001 6.776258 1.709932 0.000000 0.000000 0.000000
    5 0.000000 -2.155090 2.277096 0.565710 0.000000 0.000000
    6 -0.531231 4.631601 3.001893 0.000000 0.000000 0.000000
    7 0.000000 -1.681216 4.273781 0.000000 0.000000 0.000000
    8 1.066141 0.161471 -0.665475 2.484768 0.749569 0.986721
    9 1.535968 -0.000001 0.000001 0.000000 0.000000 1.180468
    10 1.100831 0.000000 0.000000 0.000000 0.000000 0.433641
    11 2.725985 -0.106123 -1.020465 -0.220918 0.107536 -0.014378
    12 1.397574 0.000001 0.000001 0.000000 0.000000 0.684909
    13 0.957879 0.000000 0.000000 0.000000 0.000000 1.231693
    14 2.818702 -0.176450 -0.444443 -0.118789 0.036080 0.644560
    15 1.684281 0.000000 0.000000 0.000000 0.000000 1.861645
    16 1.151941 0.000000 0.000001 0.000000 0.000000 1.141487
    17 2.804605 -0.069563 0.290472 -0.211325 0.071354 0.840695
    18 1.480629 0.000000 0.000000 0.000000 0.000000 1.698687
    19 1.076366 0.000000 0.000000 0.000000 0.000000 0.748916
    20 2.637186 0.041571 0.929335 -0.346527 0.088471 0.924980
    21 1.124349 -0.000002 0.000000 0.000000 0.000000 1.346295
    22 0.891247 0.000001 0.000000 0.000000 0.000000 0.984495
    23 0.050302 -0.068010 -0.113033 1.724535 0.010837 0.011384
    24 2.428478 0.000000 0.000000 -0.239137 0.000000 0.000000
    25 -1.151551 -6.392889 -11.415006 -1.290810 -0.770202 -6.901768
    26 8.499673 0.000001 0.000000 2.487318 0.356908 0.491402
    27 1.066141 0.161471 0.665475 -2.115284 -0.968726 0.871638
    28 1.535968 -0.000001 0.000000 0.000000 0.000000 0.601963
    29 1.100830 -0.000001 0.000000 0.000000 0.000000 0.334723
    30 2.725985 -0.106123 1.020465 -0.033428 -0.053085 0.395670
    31 1.397574 0.000001 -0.000001 0.000000 0.000000 1.132809
    32 0.957878 0.000000 0.000000 0.000000 0.000000 0.541011
    33 2.818702 -0.176451 0.444443 0.119850 0.134871 0.640665
    34 1.684282 -0.000002 0.000000 0.000000 0.000000 1.240621
    35 1.151941 0.000000 -0.000001 0.000000 0.000000 1.239975
    36 2.804606 -0.069564 -0.290472 0.214133 0.097671 1.016449
    37 1.480629 0.000001 -0.000001 0.000000 0.000000 1.179420
    38 1.076367 0.000000 0.000000 0.000000 0.000000 1.048828
    39 2.637187 0.041571 -0.929335 0.296641 0.280606 0.784692
    40 1.124349 0.000001 0.000000 0.000000 0.000000 1.636865
    41 0.891247 0.000001 0.000000 0.000000 0.000000 1.427882
    42 0.124525 -0.290673 0.144269 4.738708 3.090386 -5.888689
    43 2.428478 0.000000 0.000000 0.314722 0.000000 0.000000
  time 5
    0 13.407548 1.820055 -7.989277 -0.693766 -0.109616 -2.549056
    1 8.499673 0.000000 0.000000 -2.346536 -0.561955 0.650103
    2 2.590253 0.798589 -0.347197 -6.114193 -3.019792 -4.839349
    3 1.276065 4.913687 -1.756443 0.000000 0.000000 0.000000
    4 0.000001 6.776258 1.709932 0.000000 0.000000 0.000000
    5 0.000000 -2.155090 2.277096 0.520578 0.000000 0.000000
    6 -0.531231 4.631601 3.001893 0.000000 0.000000 0.000000
    7 0.000000 -2.970318 4.273781 0.000000 0.000000 0.000000
    8 1.066141 0.161471 -0.665475 2.484768 0.749569 0.986721
    9 1.535968 -0.000001 0.000001 0.000000 0.000000 1.180468
    10 1.100831 0.000000 0.000000 0.000000 0.000000 0.433641
    11 2.725985 -0.106123 -1.020465 -0.215177 0.090698 -0.011178
    12 1.397574 0.000001 0.000001 0.000000 0.000000 0.557420
    13 0.957879 0.000000 0.000000 0.000000 0.000000 1.110448
    14 2.818702 -0.176450 -0.444443 -0.118789 0.036080 0.644560
    15 1.684281 0.000000 0.000000 0.000000 0.000000 1.861645
    16 1.151941 0.000000 0.000001 0.000000 0.000000 1.141487
    17 2.804605 -0.069563 0.290472 -0.211325 0.071354 0.840695
    18 1.480629 0.000000 0.000000 0.000000 0.000000 1.698687
    19 1.076366 0.000000 0.000000 0.000000 0.000000 0.748916
    20 2.637186 0.041571 0.929335 -0.346527 0.088471 0.924980
    21 1.124349 -0.000002 0.000000 0.000000 0.000000 1.346295
    22 0.891247 0.000001 0.000000 0.000000 0.000000 0.984495
    23 0.050302 -0.068010 -0.113033 1.724535 0.010837 0.011384
    24 2.428478 0.000000 0.000000 -0.240384 0.000000 0.000000
    25 -1.249210 -6.174132 -11.122028 -1.242003 -0.707043 -6.932730
    26 8.499673 0.000001 0.000000 2.446310 0.336079 0.428335
    27 1.066141 0.161471 0.665475 -2.211743 -0.956167 0.996504
    28 1.535968 -0.000001 0.000000 0.000000 0.000000 0.585787
    29 1.100830 -0.000001 0.000000 0.000000 0.000000 0.437584
    30 2.725985 -0.106123 1.020465 -0.033428 -0.053085 0.395670
    31 1.397574 0.000001 -0.000001 0.000000 0.000000 1.132809
    32 0.957878 0.000000 0.000000 0.000000 0.000000 0.541011
    33 2.818702 -0.176451 0.444443 0.119850 0.134871 0.640665
    34 1.684282 -0.000002 0.000000 0.000000 0.000000 1.240621
    35 1.151941 0.000000 -0.000001 0.000000 0.000000 1.239975
    36 2.804606 -0.069564 -0.290472 0.214133 0.097671 1.016449
    37 1.480629 0.000001 -0.000001 0.000000 0.000000 1.179420
    38 1.076367 0.000000 0.000000 0.000000 0.000000 1.048828
    39 2.637187 0.041571 -0.929335 0.296641 0.280606 0.784692
    40 1.124349 0.000001 0.000000 0.000000 0.000000 1.636865
    41 0.891247 0.000001 0.000000 0.000000 0.000000 1.427882
    42 0.124525 -0.290673 0.144269 4.738708 3.090386 -5.888689
    43 2.428478 0.000000 0.000000 0.304356 0.000000 0.000000
  time 6
    0 13.423173 1.702864 -7.993183 -0.697158 -0.106333 -2.537081
    1 8.499673 0.000000 0.000000 -2.356617 -0.550171 0.647272
    2 2.590253 0.798589 -0.347197 -6.114193 -3.019792 -4.839349
    3 1.276065 4.913687 -1.756443 0.000000 0.000000 0.000000
    4 0.000001 6.776258 1.709932 0.000000 0.000000 0.000000
    5 0.000000 -2.155090 2.277096 0.469846 0.000000 0.000000
    6 -0.531231 4.631601 3.001893 0.000000 0.000000 0.000000
    7 0.000000 -2.677340 4.273781 0.000000 0.000000 0.000000
    8 1.066141 0.161471 -0.665475 2.484768 0.749569 0.986721
    9 1.535968 -0.000001 0.000001 0.000000 0.000000 1.180468
    10 1.100831 0.000000 0.000000 0.000000 0.000000 0.433641
    11 2.725985 -0.106123 -1.020465 -0.226826 0.068262 -0.006708
    12 1.397574 0.000001 0.000001 0.000000 0.000000 0.425996
    13 0.957879 0.000000 0.000000 0.000000 0.000000 0.965635
    14 2.818702 -0.176450 -0.444443 -0.118789 0.036080 0.644560
    15 1.684281 0.000000 0.000000 0.000000 0.000000 1.861645
    16 1.151941 0.000000 0.000001 0.000000 0.000000 1.141487
    17 2.804605 -0.069563 0.290472 -0.211325 0.071354 0.840695
    18 1.480629 0.000000 0.000000 0.000000 0.000000 1.698687
    19 1.076366 0.000000 0.000000 0.000000 0.000000 0.748916
    20 2.637186 0.041571 0.929335 -0.346527 0.088471 0.924980
    21 1.124349 -0.000002 0.000000 0.000000 0.000000 1.346295
    22 0.891247 0.000001 0.000000 0.000000 0.000000 0.984495
    23 0.050302 -0.068010 -0.113033 1.724535 0.010837 0.011384
    24 2.428478 0.000000 0.000000 -0.245189 0.000000 0.000000
    25 -1.276555 -6.244447 -11.008743 -1.223602 -0.672458 -6.939419
    26 8.499673 0.000001 0.000000 2.434328 0.331963 0.406693
    27 1.066141 0.161471 0.665475 -2.226410 -0.949950 1.000969
    28 1.535968 -0.000001 0.000000 0.000000 0.000000 0.596836
    29 1.100830 -0.000001 0.000000 0.000000 0.000000 0.471336
    30 2.725985 -0.106123 1.020465 -0.033428 -0.053085 0.395670
    31 1.397574 0.000001 -0.000001 0.000000 0.000000 1.132809
    32 0.957878 0.000000 0.000000 0.000000 0.000000 0.541011
    33 2.818702 -0.176451 0.444443 0.119850 0.134871 0.640665
    34 1.684282 -0.000002 0.000000 0.000000 0.000000 1.240621
    35 1.151941 0.000000 -0.000001 0.000000 0.000000 1.239975
    36 2.804606 -0.069564 -0.290472 0.214133 0.097671 1.016449
    37 1.480629 0.000001 -0.000001 0.000000 0.000000 1.179420
    38 1.076367 0.000000 0.000000 0.000000 0.000000 1.048828
    39 2.637187 0.041571 -0.929335 0.296641 0.280606 0.784692
    40 1.124349 0.000001 0.000000 0.000000 0.000000 1.636865
    41 0.891247 0.000001 0.000000 0.000000 0.000000 1.427882
    42 0.124525 -0.290673 0.144269 4.738708 3.090386 -5.888689
    43 2.428478 0.000000 0.000000 0.300856 0.000000 0.000000
  time 7
    0 13.430986 1.562235 -7.997090 -0.699854 -0.104352 -2.525768
    1 8.499673 0.000000 0.000000 -2.368186 -0.538079 0.646166
    2 2.590253 0.798589 -0.347197 -6.114193 -3.019792 -4.839349
    3 1.276065 4.913687 -1.756443 0.000000 0.000000 0.000000
    4 0.000001 6.776258 1.709932 0.000000 0.000000 0.000000
    5 0.000000 -2.155090 2.277096 0.415077 0.000000 0.000000
    6 -0.531231 4.631601 3.001893 0.000000 0.000000 0.000000
    7 0.000000 -2.782812 4.273781 0.000000 0.000000 0.000000
    8 1.066141 0.161471 -0.665475 2.484768 0.749569 0.986721
    9 1.535968 -0.000001 0.000001 0.000000 0.000000 1.180468
    10 1.100831 0.000000 0.000000 0.000000 0.000000 0.433641
    11 2.725985 -0.106123 -1.020465 -0.239302 0.048704 -0.002489
    12 1.397574 0.000001 0.000001 0.000000 0.000000 0.311941
    13 0.957879 0.000000 0.000000 0.000000 0.000000 0.824867
    14 2.818702 -0.176450 -0.444443 -0.118789 0.036080 0.644560
    15 1.684281 0.000000 0.000000 0.000000 0.000000 1.861645
    16 1.151941 0.000000 0.000001 0.000000 0.000000 1.141487
    17 2.804605 -0.069563 0.290472 -0.211325 0.071354 0.840695
    18 1.480629 0.000000 0.000000 0.000000 0.000000 1.698687
    19 1.076366 0.000000 0.000000 0.000000 0.000000 0.748916
    20 2.637186 0.041571 0.929335 -0.346527 0.088471 0.924980
    21 1.124349 -0.000002 0.000000 0.000000 0.000000 1.346295
    22 0.891247 0.000001 0.000000 0.000000 0.000000 0.984495
    23 0.050302 -0.068010 -0.113033 1.724535 0.010837 0.011384
    24 2.428478 0.000000 0.000000 -0.250547 0.000000 0.000000
    25 -1.245304 -6.392889 -10.977492 -1.215891 -0.653131 -6.946109
    26 8.499673 0.000001 0.000000 2.434152 0.327397 0.404721
    27 1.066141 0.161471 0.665475 -2.210282 -0.946697 0.956395
    28 1.535968 -0.000001 0.000000 0.000000 0.000000 0.621450
    29 1.100830 -0.000001 0.000000 0.000000 0.000000 0.480420
    30 2.725985 -0.106123 1.020465 -0.033428 -0.053085 0.395670
    31 1.397574 0.000001 -0.000001 0.000000 0.000000 1.132809
    32 0.957878 0.000000 0.000000 0.000000 0.000000 0.541011
    33 2.818702 -0.176451 0.444443 0.119850 0.134871 0.640665
    34 1.684282 -0.000002 0.000000 0.000000 0.000000 1.240621
    35 1.151941 0.000000 -0.000001 0.000000 0.000000 1.239975
    36 2.804606 -0.069564 -0.290472 0.214133 0.097671 1.016449
    37 1.480629 0.000001 -0.000001 0.000000 0.000000 1.179420
    38 1.076367 0.000000 0.000000 0.000000 0.000000 1.048828
    39 2.637187 0.041571 -0.929335 0.296641 0.280606 0.784692
    40 1.124349 0.000001 0.000000 0.000000 0.000000 1.636865
    41 0.891247 0.000001 0.000000 0.000000 0.000000 1.427882
    42 0.124525 -0.290673 0.144269 4.738708 3.090386 -5.888689
    43 2.428478 0.000000 0.000000 0.301419 0.000000 0.000000
  time 8
    0 13.419267 1.386449 -7.997090 -0.701448 -0.103050 -2.518557
    1 8.499673 0.000000 0.000000 -2.374500 -0.532022 0.644006
    2 2.590253 0.798589 -0.347197 -6.114193 -3.019792 -4.839349
    3 1.276065 4.913687 -1.756443 0.000000 0.000000 0.000000
    4 0.000001 6.776258 1.709932 0.000000 0.000000 0.000000
    5 0.000000 -2.155090 2.277096 0.357900 0.000000 0.000000
    6 -0.531231 4.631601 3.001893 0.000000 0.000000 0.000000
    7 0.000000 -2.782812 4.273781 0.000000 0.000000 0.000000
    8 1.066141 0.161471 -0.665475 2.484768 0.749569 0.986721
    9 1.535968 -0.000001 0.000001 0.000000 0.000000 1.180468
    10 1.100831 0.000000 0.000000 0.000000 0.000000 0.433641
    11 2.725985 -0.106123 -1.020465 -0.235935 0.040266 -0.000907
    12 1.397574 0.000001 0.000001 0.000000 0.000000 0.236441
    13 0.957879 0.000000 0.000000 0.000000 0.000000 0.715716
    14 2.818702 -0.176450 -0.444443 -0.118789 0.036080 0.644560
    15 1.684281 0.000000 0.000000 0.000000 0.000000 1.861645
    16 1.151941 0.000000 0.000001 0.000000 0.000000 1.141487
    17 2.804605 -0.069563 0.290472 -0.211325 0.071354 0.840695
    18 1.480629 0.000000 0.000000 0.000000 0.000000 1.698687
    19 1.076366 0.000000 0.000000 0.000000 0.000000 0.748916
    20 2.637186 0.041571 0.929335 -0.346527 0.088471 0.924980
    21 1.124349 -0.000002 0.000000 0.000000 0.000000 1.346295
    22 0.891247 0.000001 0.000000 0.000000 0.000000 0.984495
    23 0.050302 -0.068010 -0.113033 1.724535 0.010837 0.011384
    24 2.428478 0.000000 0.000000 -0.253303 0.000000 0.000000
    25 -1.151551 -6.596020 -11.059526 -1.212649 -0.657847 -6.955187
    26 8.499673 0.000001 0.000000 2.437536 0.323753 0.421132
    27 1.066141 0.161471 0.665475 -2.184783 -0.945544 0.896492
    28 1.535968 -0.000001 0.000000 0.000000 0.000000 0.651032
    29 1.100830 -0.000001 0.000000 0.000000 0.000000 0.477522
    30 2.725985 -0.106123 1.020465 -0.033428 -0.053085 0.395670
    31 1.397574 0.000001 -0.000001 0.000000 0.000000 1.132809
    32 0.957878 0.000000 0.000000 0.000000 0.000000 0.541011
    33 2.818702 -0.176451 0.444443 0.119850 0.134871 0.640665
    34 1.684282 -0.000002 0.000000 0.000000 0.000000 1.240621
    35 1.151941 0.000000 -0.000001 0.000000 0.000000 1.239975
    36 2.804606 -0.069564 -0.290472 0.214133 0.097671 1.016449
    37 1.480629 0.000001 -0.000001 0.000000 0.000000 1.179420
    38 1.076367 0.000000 0.000000 0.000000 0.000000 1.048828
    39 2.637187 0.041571 -0.929335 0.296641 0.280606 0.784692
    40 1.124349 0.000001 0.000000 0.000000 0.000000 1.636865
    41 0.891247 0.000001 0.000000 0.000000 0.000000 1.427882
    42 0.124525 -0.290673 0.144269 4.738708 3.090386 -5.888689
    43 2.428478 0.000000 0.000000 0.303205 0.000000 0.000000
  time 9
    0 13.391922 1.195036 -7.997090 -0.702059 -0.102286 -2.515778
    1 8.499673 0.000000 0.000000 -2.374599 -0.532856 0.640237
    2 2.590253 0.798589 -0.347197 -6.114193 -3.019792 -4.839349
    3 1.276065 4.913687 -1.756443 0.000000 0.000000 0.000000
    4 0.000001 6.776258 1.709932 0.000000 0.000000 0.000000
    5 0.000000 -2.155090 2.277096 0.299920 0.000000 0.000000
    6 -0.531231 4.631601 3.001893 0.000000 0.000000 0.000000
    7 0.000000 -2.782812 4.273781 0.000000 0.000000 0.000000
    8 1.066141 0.161471 -0.665475 2.484768 0.749569 0.986721
    9 1.535968 -0.000001 0.000001 0.000000 0.000000 1.180468
    10 1.100831 0.000000 0.000000 0.000000 0.000000 0.433641
    11 2.725985 -0.106123 -1.020465 -0.213415 0.044054 -0.002405
    12 1.397574 0.000001 0.000001 0.000000 0.000000 0.199772
    13 0.957879 0.000000 0.000000 0.000000 0.000000 0.634342
    14 2.818702 -0.176450 -0.444443 -0.118789 0.036080 0.644560
    15 1.684281 0.000000 0.000000 0.000000 0.000000 1.861645
    16 1.151941 0.000000 0.000001 0.000000 0.000000 1.141487
    17 2.804605 -0.069563 0.290472 -0.211325 0.071354 0.840695
    18 1.480629 0.000000 0.000000 0.000000 0.000000 1.698687
    19 1.076366 0.000000 0.000000 0.000000 0.000000 0.748916
    20 2.637186 0.041571 0.929335 -0.346527 0.088471 0.924980
    21 1.124349 -0.000002 0.000000 0.000000 0.000000 1.346295
    22 0.891247 0.000001 0.000000 0.000000 0.000000 0.984495
    23 0.050302 -0.068010 -0.113033 1.724535 0.010837 0.011384
    24 2.428478 0.000000 0.000000 -0.253063 0.000000 0.000000
    25 -1.053892 -6.826496 -11.172811 -1.209232 -0.676157 -6.963501
    26 8.499673 0.000001 0.000000 2.437386 0.322876 0.441584
    27 1.066141 0.161471 0.665475 -2.170786 -0.946944 0.854374
    28 1.535968 -0.000001 0.000000 0.000000 0.000000 0.676983
    29 1.100830 -0.000001 0.000000 0.000000 0.000000 0.475447
    30 2.725985 -0.106123 1.020465 -0.033428 -0.053085 0.395670
    31 1.397574 0.000001 -0.000001 0.000000 0.000000 1.132809
    32 0.957878 0.000000 0.000000 0.000000 0.000000 0.541011
    33 2.818702 -0.176451 0.444443 0.119850 0.134871 0.640665
    34 1.684282 -0.000002 0.000000 0.000000 0.000000 1.240621
    35 1.151941 0.000000 -0.000001 0.000000 0.000000 1.239975
    36 2.804606 -0.069564 -0.290472 0.214133 0.097671 1.016449
    37 1.480629 0.000001 -0.000001 0.000000 0.000000 1.179420
    38 1.076367 0.000000 0.000000 0.000000 0.000000 1.048828
    39 2.637187 0.041571 -0.929335 0.296641 0.280606 0.784692
    40 1.124349 0.000001 0.000000 0.000000 0.000000 1.636865
    41 0.891247 0.000001 0.000000 0.000000 0.000000 1.427882
    42 0.124525 -0.290673 0.144269 4.738708 3.090386 -5.888689
    43 2.428478 0.000000 0.000000 0.303577 0.000000 0.000000
  time 10
    0 13.356765 0.984092 -7.997090 -0.702227 -0.102060 -2.514984
    1 8.499673 0.000000 0.000000 -2.372616 -0.536499 0.636234
    2 2.590253 0.798589 -0.347197 -6.114193 -3.019792 -4.839349
    3 1.276065 4.913687 -1.756443 0.000000 0.000000 0.000000
    4 0.000001 6.776258 1.709932 0.000000 0.000000 0.000000
    5 0.000000 -2.155090 2.277096 0.242743 0.000000 0.000000
    6 -0.531231 4.631601 3.001893 0.000000 0.000000 0.000000
    7 0.000000 -2.782812 4.273781 0.000000 0.000000 0.000000
    8 1.066141 0.161471 -0.665475 2.484768 0.749569 0.986721
    9 1.535968 -0.000001 0.000001 0.000000 0.000000 1.180468
    10 1.100831 0.000000 0.000000 0.000000 0.000000 0.433641
    11 2.725985 -0.106123 -1.020465 -0.182315 0.054085 -0.005162
    12 1.397574 0.000001 0.000001 0.000000 0.000000 0.183784
    13 0.957879 0.000000 0.000000 0.000000 0.000000 0.560274
    14 2.818702 -0.176450 -0.444443 -0.118789 0.036080 0.644560
    15 1.684281 0.000000 0.000000 0.000000 0.000000 1.861645
    16 1.151941 0.000000 0.000001 0.000000 0.000000 1.141487
    17 2.804605 -0.069563 0.290472 -0.211325 0.071354 0.840695
    18 1.480629 0.000000 0.000000 0.000000 0.000000 1.698687
    19 1.076366 0.000000 0.000000 0.000000 0.000000 0.748916
    20 2.637186 0.041571 0.929335 -0.346527 0.088471 0.924980
    21 1.124349 -0.000002 0.000000 0.000000 0.000000 1.346295
    22 0.891247 0.000001 0.000000 0.000000 0.000000 0.984495
    23 0.050302 -0.068010 -0.113033 1.724535 0.010837 0.011384
    24 2.428478 0.000000 0.000000 -0.251709 0.000000 0.000000
    25 -0.971858 -7.072597 -11.282189 -1.206866 -0.697056 -6.968566
    26 8.499673 0.000001 0.000000 2.435506 0.324293 0.460439
    27 1.066141 0.161471 0.665475 -2.177967 -0.957279 0.840458
    28 1.535968 -0.000001 0.000000 0.000000 0.000000 0.701438
    29 1.100830 -0.000001 0.000000 0.000000 0.000000 0.473294
    30 2.725985 -0.106123 1.020465 -0.033428 -0.053085 0.395670
    31 1.397574 0.000001 -0.000001 0.000000 0.000000 1.132809
    32 0.957878 0.000000 0.000000 0.000000 0.000000 0.541011
    33 2.818702 -0.176451 0.444443 0.119850 0.134871 0.640665
    34 1.684282 -0.000002 0.000000 0.000000 0.000000 1.240621
    35 1.151941 0.000000 -0.000001 0.000000 0.000000 1.239975
    36 2.804606 -0.069564 -0.290472 0.214133 0.097671 1.016449
    37 1.480629 0.000001 -0.000001 0.000000 0.000000 1.179420
    38 1.076367 0.000000 0.000000 0.000000 0.000000 1.048828
    39 2.637187 0.041571 -0.929335 0.296641 0.280606 0.784692
    40 1.124349 0.000001 0.000000 0.000000 0.000000 1.636865
    41 0.891247 0.000001 0.000000 0.000000 0.000000 1.427882
    42 0.124525 -0.290673 0.144269 4.738708 3.090386 -5.888689
    43 2.428478 0.000000 0.000000 0.303085 0.000000 0.000000
  time 11
    0 13.317701 0.780961 -7.997090 -0.702107 -0.102201 -2.515513
    1 8.499673 0.000000 0.000000 -2.369178 -0.541854 0.632197
    2 2.590253 0.798589 -0.347197 -6.114193 -3.019792 -4.839349
    3 1.276065 4.913687 -1.756443 0.000000 0.000000 0.000000
    4 0.000001 6.776258 1.709932 0.000000 0.000000 0.000000
    5 0.000000 -2.155090 2.277096 0.187974 0.000000 0.000000
    6 -0.531231 4.631601 3.001893 0.000000 0.000000 0.000000
    7 0.000000 -2.782812 4.273781 0.000000 0.000000 0.000000
    8 1.066141 0.161471 -0.665475 2.484768 0.749569 0.986721
    9 1.535968 -0.000001 0.000001 0.000000 0.000000 1.180468
    10 1.100831 0.000000 0.000000 0.000000 0.000000 0.433641
    11 2.725985 -0.106123 -1.020465 -0.146625 0.067951 -0.008278
    12 1.397574 0.000001 0.000001 0.000000 0.000000 0.181760
    13 0.957879 0.000000 0.000000 0.000000 0.000000 0.496133
    14 2.818702 -0.176450 -0.444443 -0.118789 0.036080 0.644560
    15 1.684281 0.000000 0.000000 0.000000 0.000000 1.861645
    16 1.151941 0.000000 0.000001 0.000000 0.000000 1.141487
    17 2.804605 -0.069563 0.290472 -0.211325 0.071354 0.840695
    18 1.480629 0.000000 0.000000 0.000000 0.000000 1.698687
    19 1.076366 0.000000 0.000000 0.000000 0.000000 0.748916
    20 2.637186 0.041571 0.929335 -0.346527 0.088471 0.924980
    21 1.124349 -0.000002 0.000000 0.000000 0.000000 1.346295
    22 0.891247 0.000001 0.000000 0.000000 0.000000 0.984495
    23 0.050302 -0.068010 -0.113033 1.724535 0.010837 0.011384
    24 2.428478 0.000000 0.000000 -0.249672 0.000000 0.000000
    25 -0.924982 -7.330417 -11.368129 -1.207041 -0.718047 -6.969999
    26 8.499673 0.000001 0.000000 2.433801 0.327127 0.476817
    27 1.066141 0.161471 0.665475 -2.192877 -0.973090 0.838300
    28 1.535968 -0.000001 0.000000 0.000000 0.000000 0.724651
    29 1.100830 -0.000001 0.000000 0.000000 0.000000 0.464914
    30 2.725985 -0.106123 1.020465 -0.033428 -0.053085 0.395670
    31 1.397574 0.000001 -0.000001 0.000000 0.000000 1.132809
    32 0.957878 0.000000 0.000000 0.000000 0.000000 0.541011
    33 2.818702 -0.176451 0.444443 0.119850 0.134871 0.640665
    34 1.684282 -0.000002 0.000000 0.000000 0.000000 1.240621
    35 1.151941 0.000000 -0.000001 0.000000 0.000000 1.239975
    36 2.804606 -0.069564 -0.290472 0.214133 0.097671 1.016449
    37 1.480629 0.000001 -0.000001 0.000000 0.000000 1.179420
    38 1.076367 0.000000 0.000000 0.000000 0.000000 1.048828
    39 2.637187 0.041571 -0.929335 0.296641 0.280606 0.784692
    40 1.124349 0.000001 0.000000 0.000000 0.000000 1.636865
    41 0.891247 0.000001 0.000000 0.000000 0.000000 1.427882
    42 0.124525 -0.290673 0.144269 4.738708 3.090386 -5.888689
    43 2.428478 0.000000 0.000000 0.302462 0.000000 0.000000
  time 12
    0 13.274731 0.581736 -7.997090 -0.701856 -0.102569 -2.516837
    1 8.499673 0.000000 0.000000 -2.365211 -0.547844 0.628327
    2 2.590253 0.798589 -0.347197 -6.114193 -3.019792 -4.839349
    3 1.276065 4.913687 -1.756443 0.000000 0.000000 0.000000
    4 0.000001 6.776258 1.709932 0.000000 0.000000 0.000000
    5 0.000000 -2.155090 2.277096 0.137242 0.000000 0.000000
    6 -0.531231 4.631601 3.001893 0.000000 0.000000 0.000000
    7 0.000000 -2.782812 4.273781 0.000000 0.000000 0.000000
    8 1.066141 0.161471 -0.665475 2.484768 0.749569 0.986721
    9 1.535968 -0.000001 0.000001 0.000000 0.000000 1.180468
    10 1.100831 0.000000 0.000000 0.000000 0.000000 0.433641
    11 2.725985 -0.106123 -1.020465 -0.110372 0.083159 -0.011070
    12 1.397574 0.000001 0.000001 0.000000 0.000000 0.187120
    13 0.957879 0.000000 0.000000 0.000000 0.000000 0.444663
    14 2.818702 -0.176450 -0.444443 -0.118789 0.036080 0.644560
    15 1.684281 0.000000 0.000000 0.000000 0.000000 1.861645
    16 1.151941 0.000000 0.000001 0.000000 0.000000 1.141487
    17 2.804605 -0.069563 0.290472 -0.211325 0.071354 0.840695
    18 1.480629 0.000000 0.000000 0.000000 0.000000 1.698687
    19 1.076366 0.000000 0.000000 0.000000 0.000000 0.748916
    20 2.637186 0.041571 0.929335 -0.346527 0.088471 0.924980
    21 1.124349 -0.000002 0.000000 0.000000 0.000000 1.346295
    22 0.891247 0.000001 0.000000 0.000000 0.000000 0.984495
    23 0.050302 -0.068010 -0.113033 1.724535 0.010837 0.011384
    24 2.428478 0.000000 0.000000 -0.247371 0.000000 0.000000
    25 -0.893731 -7.592144 -11.438444 -1.207129 -0.737189 -6.968566
    26 8.499673 0.000001 0.000000 2.430693 0.331828 0.489512
    27 1.066141 0.161471 0.665475 -2.201215 -0.981284 0.839640
    28 1.535968 -0.000001 0.000000 0.000000 0.000000 0.734968
    29 1.100830 -0.000001 0.000000 0.000000 0.000000 0.455791
    30 2.725985 -0.106123 1.020465 -0.033428 -0.053085 0.395670
    31 1.397574 0.000001 -0.000001 0.000000 0.000000 1.132809
    32 0.957878 0.000000 0.000000 0.000000 0.000000 0.541011
    33 2.818702 -0.176451 0.444443 0.119850 0.134871 0.640665
    34 1.684282 -0.000002 0.000000 0.000000 0.000000 1.240621
    35 1.151941 0.000000 -0.000001 0.000000 0.000000 1.239975
    36 2.804606 -0.069564 -0.290472 0.214133 0.097671 1.016449
    37 1.480629 0.000001 -0.000001 0.000000 0.000000 1.179420
    38 1.076367 0.000000 0.000000 0.000000 0.000000 1.048828
    39 2.637187 0.041571 -0.929335 0.296641 0.280606 0.784692
    40 1.124349 0.000001 0.000000 0.000000 0.000000 1.636865
    41 0.891247 0.000001 0.000000 0.000000 0.000000 1.427882
    42 0.124525 -0.290673 0.144269 4.738708 3.090386 -5.888689
    43 2.428478 0.000000 0.000000 0.301036 0.000000 0.000000
  time 13
    0 13.239574 0.402043 -7.997090 -0.701568 -0.102909 -2.518027
    1 8.499673 0.000000 0.000000 -2.361509 -0.553353 0.624827
    2 2.590253 0.798589 -0.347197 -6.114193 -3.019792 -4.839349
    3 1.276065 4.913687 -1.756443 0.000000 0.000000 0.000000
    4 0.000001 6.776258 1.709932 0.000000 0.000000 0.000000
    5 0.000000 -2.155090 2.277096 0.092110 0.000000 0.000000
    6 -0.531231 4.631601 3.001893 0.000000 0.000000 0.000000
    7 0.000000 -2.782812 4.273781 0.000000 0.000000 0.000000
    8 1.066141 0.161471 -0.665475 2.484768 0.749569 0.986721
    9 1.535968 -0.000001 0.000001 0.000000 0.000000 1.180468
    10 1.100831 0.000000 0.000000 0.000000 0.000000 0.433641
    11 2.725985 -0.106123 -1.020465 -0.077486 0.097217 -0.013168
    12 1.397574 0.000001 0.000001 0.000000 0.000000 0.193262
    13 0.957879 0.000000 0.000000 0.000000 0.000000 0.408486
    14 2.818702 -0.176450 -0.444443 -0.118789 0.036080 0.644560
    15 1.684281 0.000000 0.000000 0.000000 0.000000 1.861645
    16 1.151941 0.000000 0.000001 0.000000 0.000000 1.141487
    17 2.804605 -0.069563 0.290472 -0.211325 0.071354 0.840695
    18 1.480629 0.000000 0.000000 0.000000 0.000000 1.698687
    19 1.076366 0.000000 0.000000 0.000000 0.000000 0.748916
    20 2.637186 0.041571 0.929335 -0.346527 0.088471 0.924980
    21 1.124349 -0.000002 0.000000 0.000000 0.000000 1.346295
    22 0.891247 0.000001 0.000000 0.000000 0.000000 0.984495
    23 0.050302 -0.068010 -0.113033 1.724535 0.010837 0.011384
    24 2.428478 0.000000 0.000000 -0.245237 0.000000 0.000000
    25 -0.885918 -7.826526 -11.481414 -1.208005 -0.752632 -6.964361
    26 8.499673 0.000001 0.000000 2.427334 0.337721 0.498377
    27 1.066141 0.161471 0.665475 -2.199024 -0.978731 0.840682
    28 1.535968 -0.000001 0.000000 0.000000 0.000000 0.730765
    29 1.100830 -0.000001 0.000000 0.000000 0.000000 0.447764
    30 2.725985 -0.106123 1.020465 -0.033428 -0.053085 0.395670
    31 1.397574 0.000001 -0.000001 0.000000 0.000000 1.132809
    32 0.957878 0.000000 0.000000 0.000000 0.000000 0.541011
    33 2.818702 -0.176451 0.444443 0.119850 0.134871 0.640665
    34 1.684282 -0.000002 0.000000 0.000000 0.000000 1.240621
    35 1.151941 0.000000 -0.000001 0.000000 0.000000 1.239975
    36 2.804606 -0.069564 -0.290472 0.214133 0.097671 1.016449
    37 1.480629 0.000001 -0.000001 0.000000 0.000000 1.179420
    38 1.076367 0.000000 0.000000 0.000000 0.000000 1.048828
    39 2.637187 0.041571 -0.929335 0.296641 0.280606 0.784692
    40 1.124349 0.000001 0.000000 0.000000 0.000000 1.636865
    41 0.891247 0.000001 0.000000 0.000000 0.000000 1.427882
    42 0.124525 -0.290673 0.144269 4.738708 3.090386 -5.888689
    43 2.428478 0.000000 0.000000 0.299274 0.000000 0.000000
  time 14
    0 13.208323 0.245789 -7.997090 -0.701448 -0.103050 -2.518557
    1 8.499673 0.000000 0.000000 -2.358931 -0.557281 0.621946
    2 2.590253 0.798589 -0.347197 -6.114193 -3.019792 -4.839349
    3 1.276065 4.913687 -1.756443 0.000000 0.000000 0.000000
    4 0.000001 6.776258 1.709932 0.000000 0.000000 0.000000
    5 0.000000 -2.155090 2.277096 0.054226 0.000000 0.000000
    6 -0.531231 4.631601 3.001893 0.000000 0.000000 0.000000
    7 0.000000 -2.782812 4.273781 0.000000 0.000000 0.000000
    8 1.066141 0.161471 -0.665475 2.484768 0.749569 0.986721
    9 1.535968 -0.000001 0.000001 0.000000 0.000000 1.180468
    10 1.100831 0.000000 0.000000 0.000000 0.000000 0.433641
    11 2.725985 -0.106123 -1.020465 -0.052019 0.107536 -0.014378
    12 1.397574 0.000001 0.000001 0.000000 0.000000 0.193561
    13 0.957879 0.000000 0.000000 0.000000 0.000000 0.390325
    14 2.818702 -0.176450 -0.444443 -0.118789 0.036080 0.644560
    15 1.684281 0.000000 0.000000 0.000000 0.000000 1.861645
    16 1.151941 0.000000 0.000001 0.000000 0.000000 1.141487
    17 2.804605 -0.069563 0.290472 -0.211325 0.071354 0.840695
    18 1.480629 0.000000 0.000000 0.000000 0.000000 1.698687
    19 1.076366 0.000000 0.000000 0.000000 0.000000 0.748916
    20 2.637186 0.041571 0.929335 -0.346527 0.088471 0.924980
    21 1.124349 -0.000002 0.000000 0.000000 0.000000 1.346295
    22 0.891247 0.000001 0.000000 0.000000 0.000000 0.984495
    23 0.050302 -0.068010 -0.113033 1.724535 0.010837 0.011384
    24 2.428478 0.000000 0.000000 -0.243727 0.000000 0.000000
    25 -0.893731 -8.033564 -11.508759 -1.209583 -0.763174 -6.958245
    26 8.499673 0.000001 0.000000 2.424652 0.344109 0.503478
    27 1.066141 0.161471 0.665475 -2.193364 -0.972431 0.843360
    28 1.535968 -0.000001 0.000000 0.000000 0.000000 0.720130
    29 1.100830 -0.000001 0.000000 0.000000 0.000000 0.439346
    30 2.725985 -0.106123 1.020465 -0.033428 -0.053085 0.395670
    31 1.397574 0.000001 -0.000001 0.000000 0.000000 1.132809
    32 0.957878 0.000000 0.000000 0.000000 0.000000 0.541011
    33 2.818702 -0.176451 0.444443 0.119850 0.134871 0.640665
    34 1.684282 -0.000002 0.000000 0.000000 0.000000 1.240621
    35 1.151941 0.000000 -0.000001 0.000000 0.000000 1.239975
    36 2.804606 -0.069564 -0.290472 0.214133 0.097671 1.016449
    37 1.480629 0.000001 -0.000001 0.000000 0.000000 1.179420
    38 1.076367 0.000000 0.000000 0.000000 0.000000 1.048828
    39 2.637187 0.041571 -0.929335 0.296641 0.280606 0.784692
    40 1.124349 0.000001 0.000000 0.000000 0.000000 1.636865
    41 0.891247 0.000001 0.000000 0.000000 0.000000 1.427882
    42 0.124525 -0.290673 0.144269 4.738708 3.090386 -5.888689
    43 2.428478 0.000000 0.000000 0.297560 0.000000 0.000000
  time 15
    0 13.188791 0.136410 -7.997090 -0.701448 -0.103050 -2.518557
    1 8.499673 0.000000 0.000000 -2.358138 -0.558510 0.620823
    2 2.590253 0.798589 -0.347197 -6.114193 -3.019792 -4.839349
    3 1.276065 4.913687 -1.756443 0.000000 0.000000 0.000000
    4 0.000001 6.776258 1.709932 0.000000 0.000000 0.000000
    5 0.000000 -2.155090 2.277096 0.025156 0.000000 0.000000
    6 -0.531231 4.631601 3.001893 0.000000 0.000000 0.000000
    7 0.000000 -2.782812 4.273781 0.000000 0.000000 0.000000
    8 1.066141 0.161471 -0.665475 2.484768 0.749569 0.986721
    9 1.535968 -0.000001 0.000001 0.000000 0.000000 1.180468
    10 1.100831 0.000000 0.000000 0.000000 0.000000 0.433641
    11 2.725985 -0.106123 -1.020465 -0.042947 0.110904 -0.014714
    12 1.397574 0.000001 0.000001 0.000000 0.000000 0.191468
    13 0.957879 0.000000 0.000000 0.000000 0.000000 0.433127
    14 2.818702 -0.176450 -0.444443 -0.118789 0.036080 0.644560
    15 1.684281 0.000000 0.000000 0.000000 0.000000 1.861645
    16 1.151941 0.000000 0.000001 0.000000 0.000000 1.141487
    17 2.804605 -0.069563 0.290472 -0.211325 0.071354 0.840695
    18 1.480629 0.000000 0.000000 0.000000 0.000000 1.698687
    19 1.076366 0.000000 0.000000 0.000000 0.000000 0.748916
    20 2.637186 0.041571 0.929335 -0.346527 0.088471 0.924980
    21 1.124349 -0.000002 0.000000 0.000000 0.000000 1.346295
    22 0.891247 0.000001 0.000000 0.000000 0.000000 0.984495
    23 0.050302 -0.068010 -0.113033 1.724535 0.010837 0.011384
    24 2.428478 0.000000 0.000000 -0.243260 0.000000 0.000000
    25 -0.917169 -8.193725 -11.532197 -1.210809 -0.767983 -6.952129
    26 8.499673 0.000001 0.000000 2.423474 0.350137 0.505352
    27 1.066141 0.161471 0.665475 -2.185818 -0.963908 0.846932
    28 1.535968 -0.000001 0.000000 0.000000 0.000000 0.705705
    29 1.100830 -0.000001 0.000000 0.000000 0.000000 0.430693
    30 2.725985 -0.106123 1.020465 -0.033412 -0.053085 0.395670
    31 1.397574 0.000001 -0.000001 0.000000 0.000000 1.132809
    32 0.957878 0.000000 0.000000 0.000000 0.000000 0.541011
    33 2.818702 -0.176451 0.444443 0.119850 0.134871 0.640665
    34 1.684282 -0.000002 0.000000 0.000000 0.000000 1.240621
    35 1.151941 0.000000 -0.000001 0.000000 0.000000 1.239975
    36 2.804606 -0.069564 -0.290472 0.214133 0.097671 1.016449
    37 1.480629 0.000001 -0.000001 0.000000 0.000000 1.179420
    38 1.076367 0.000000 0.000000 0.000000 0.000000 1.048828
    39 2.637187 0.041571 -0.929335 0.296641 0.280606 0.784692
    40 1.124349 0.000001 0.000000 0.000000 0.000000 1.636865
    41 0.891247 0.000001 0.000000 0.000000 0.000000 1.427882
    42 0.124525 -0.290673 0.144269 4.738708 3.090386 -5.888689
    43 2.428478 0.000000 0.000000 0.296278 0.000000 0.000000
  time 16
    0 13.173165 0.062189 -7.997090 -0.701448 -0.103050 -2.518557
    1 8.499673 0.000000 0.000000 -2.358501 -0.557895 0.621393
    2 2.590253 0.798589 -0.347197 -6.114193 -3.019792 -4.839349
    3 1.276065 4.913687 -1.756443 0.000000 0.000000 0.000000
    4 0.000001 6.776258 1.709932 0.000000 0.000000 0.000000
    5 0.000000 -2.155090 2.277096 0.006545 0.000000 0.000000
    6 -0.531231 4.631601 3.001893 0.000000 0.000000 0.000000
    7 0.000000 -2.782812 4.273781 0.000000 0.000000 0.000000
    8 1.066141 0.161471 -0.665475 2.484768 0.749569 0.986721
    9 1.535968 -0.000001 0.000001 0.000000 0.000000 1.180468
    10 1.100831 0.000000 0.000000 0.000000 0.000000 0.433641
    11 2.725985 -0.106123 -1.020465 -0.047489 0.109214 -0.014546
    12 1.397574 0.000001 0.000001 0.000000 0.000000 0.192526
    13 0.957879 0.000000 0.000000 0.000000 0.000000 0.537222
    14 2.818702 -0.176450 -0.444443 -0.118789 0.036080 0.644560
    15 1.684281 0.000000 0.000000 0.000000 0.000000 1.861645
    16 1.151941 0.000000 0.000001 0.000000 0.000000 1.141487
    17 2.804605 -0.069563 0.290472 -0.211325 0.071354 0.840695
    18 1.480629 0.000000 0.000000 0.000000 0.000000 1.698687
    19 1.076366 0.000000 0.000000 0.000000 0.000000 0.748916
    20 2.637186 0.041571 0.929335 -0.346527 0.088471 0.924980
    21 1.124349 -0.000002 0.000000 0.000000 0.000000 1.346295
    22 0.891247 0.000001 0.000000 0.000000 0.000000 0.984495
    23 0.050302 -0.068010 -0.113033 1.724535 0.010837 0.011384
    24 2.428478 0.000000 0.000000 -0.243500 0.000000 0.000000
    25 -0.948420 -8.295290 -11.540009 -1.210634 -0.768630 -6.947446
    26 8.499673 0.000001 0.000000 2.422797 0.354928 0.504896
    27 1.066141 0.161471 0.665475 -2.177785 -0.954891 0.850876
    28 1.535968 -0.000001 0.000000 0.000000 0.000000 0.690389
    29 1.100830 -0.000001 0.000000 0.000000 0.000000 0.421961
    30 2.725985 -0.106123 1.020465 -0.033428 -0.053085 0.395670
    31 1.397574 0.000001 -0.000001 0.000000 0.000000 1.132809
    32 0.957878 0.000000 0.000000 0.000000 0.000000 0.541011
    33 2.818702 -0.176451 0.444443 0.119850 0.134871 0.640665
    34 1.684282 -0.000002 0.000000 0.000000 0.000000 1.240621
    35 1.151941 0.000000 -0.000001 0.000000 0.000000 1.239975
    36 2.804606 -0.069564 -0.290472 0.214133 0.097671 1.016449
    37 1.480629 0.000001 -0.000001 0.000000 0.000000 1.179420
    38 1.076367 0.000000 0.000000 0.000000 0.000000 1.048828
    39 2.637187 0.041571 -0.929335 0.296641 0.280606 0.784692
    40 1.124349 0.000001 0.000000 0.000000 0.000000 1.636865
    41 0.891247 0.000001 0.000000 0.000000 0.000000 1.427882
    42 0.124525 -0.290673 0.144269 4.738708 3.090386 -5.888689
    43 2.428478 0.000000 0.000000 0.295271 0.000000 0.000000
  time 17
    0 13.169259 0.030938 -7.997090 -0.701448 -0.103050 -2.518557
    1 8.499673 0.000000 0.000000 -2.358931 -0.557281 0.621946
    2 2.590253 0.798589 -0.347197 -6.114193 -3.019792 -4.839349
    3 1.276065 4.913687 -1.756443 0.000000 0.000000 0.000000
    4 0.000001 6.776258 1.709932 0.000000 0.000000 0.000000
    5 0.000000 -2.155090 2.277096 0.000000 0.000000 0.000000
    6 -0.531231 4.631601 3.001893 0.000000 0.000000 0.000000
    7 0.000000 -2.782812 4.273781 0.000000 0.000000 0.000000
    8 1.066141 0.161471 -0.665475 2.484768 0.749569 0.986721
    9 1.535968 -0.000001 0.000001 0.000000 0.000000 1.180468
    10 1.100831 0.000000 0.000000 0.000000 0.000000 0.433641
    11 2.725985 -0.106123 -1.020465 -0.052019 0.107536 -0.014378
    12 1.397574 0.000001 0.000001 0.000000 0.000000 0.193561
    13 0.957879 0.000000 0.000000 0.000000 0.000000 0.641297
    14 2.818702 -0.176450 -0.444443 -0.118789 0.036080 0.644560
    15 1.684281 0.000000 0.000000 0.000000 0.000000 1.861645
    16 1.151941 0.000000 0.000001 0.000000 0.000000 1.141487
    17 2.804605 -0.069563 0.290472 -0.211325 0.071354 0.840695
    18 1.480629 0.000000 0.000000 0.000000 0.000000 1.698687
    19 1.076366 0.000000 0.000000 0.000000 0.000000 0.748916
    20 2.637186 0.041571 0.929335 -0.346527 0.088471 0.924980
    21 1.124349 -0.000002 0.000000 0.000000 0.000000 1.346295
    22 0.891247 0.000001 0.000000 0.000000 0.000000 0.984495
    23 0.050302 -0.068010 -0.113033 1.724535 0.010837 0.011384
    24 2.428478 0.000000 0.000000 -0.243727 0.000000 0.000000
    25 -0.960139 -8.330448 -11.543916 -1.208005 -0.768075 -6.946013
    26 8.499673 0.000001 0.000000 2.420466 0.357718 0.503478
    27 1.066141 0.161471 0.665475 -2.170786 -0.946944 0.854374
    28 1.535968 -0.000001 0.000000 0.000000 0.000000 0.676983
    29 1.100830 -0.000001 0.000000 0.000000 0.000000 0.413386
    30 2.725985 -0.106123 1.020465 -0.033428 -0.053085 0.395670
    31 1.397574 0.000001 -0.000001 0.000000 0.000000 1.132809
    32 0.957878 0.000000 0.000000 0.000000 0.000000 0.541011
    33 2.818702 -0.176451 0.444443 0.119850 0.134871 0.640665
    34 1.684282 -0.000002 0.000000 0.000000 0.000000 1.240621
    35 1.151941 0.000000 -0.000001 0.000000 0.000000 1.239975
    36 2.804606 -0.069564 -0.290472 0.214133 0.097671 1.016449
    37 1.480629 0.000001 -0.000001 0.000000 0.000000 1.179420
    38 1.076367 0.000000 0.000000 0.000000 0.000000 1.048828
    39 2.637187 0.041571 -0.929335 0.296641 0.280606 0.784692
    40 1.124349 0.000001 0.000000 0.000000 0.000000 1.636865
    41 0.891247 0.000001 0.000000 0.000000 0.000000 1.427882
    42 0.124525 -0.290673 0.144269 4.738708 3.090386 -5.888689
    43 2.428478 0.000000 0.000000 0.294073 0.000000 0.000000
end
