// Created by Crowbar 0.49.0.0

$modelname "weapons/tfa_cso/w_as50.mdl"

$bodygroup "studio"
{
	studio "w_as50"
}

$collisionmodel "w_as50.smd"
{
	$mass 9
}

$CDMaterials "models\weapons\tfa_cso\as50"

$attachment "0" "as50-p" 9.40 -0.00 0.00 rotate -0 0 0

$sequence "idle" {
	"w_as50_anims\idle"
	fps 30
}
