version 1
nodes
  0 "root" -1
  1 "Bone01" 0
  2 "Bone_Lefthand" 1
  3 "Bone02" 2
  4 "Bone12" 3
  5 "Bone16" 3
  6 "Bone08" 3
  7 "Bone_L_Upper" 1
  8 "Bone13" 2
  9 "Bone14" 8
  10 "Bone15" 9
  11 "Bone17" 2
  12 "Bone18" 11
  13 "Bone19" 12
  14 "Bone21" 2
  15 "Bone22" 14
  16 "Bone23" 15
  17 "Bone09" 2
  18 "Bone10" 17
  19 "Bone11" 18
  20 "Bone05" 2
  21 "Bone06" 20
  22 "Bone07" 21
  23 "Bone_Se_Hand-L" 2
  24 "Bone04" 0
  25 "Bone_Righthand" 24
  26 "Bone39" 25
  27 "Bone40" 26
  28 "Bone41" 27
  29 "Bone35" 25
  30 "Bone36" 29
  31 "Bone37" 30
  32 "Bone31" 25
  33 "Bone32" 32
  34 "Bone33" 33
  35 "Bone43" 25
  36 "Bone44" 35
  37 "Bone45" 36
  38 "Bone27" 25
  39 "Bone28" 38
  40 "Bone29" 39
  41 "Bone_Se_Hand-R" 25
  42 "Bone_R_Upper" 24
end
skeleton
  time 0
    0 -0.999830 1.628925 3.537212 0.000000 0.000000 0.000000
    1 6.528157 2.359251 -16.082685 -1.013637 -0.804674 0.818452
    2 -0.071918 -8.498731 -0.104136 0.177279 0.262897 0.153083
    3 2.815887 -5.283122 1.386547 0.209716 0.049969 -1.630727
    4 3.633989 -0.389698 -0.017557 -1.570797 -1.570796 0.000000
    5 11.822115 -1.093857 0.000000 0.000001 0.000000 -1.570796
    6 0.702476 -1.044055 -3.095909 0.181434 -0.139977 -0.284571
    7 1.257180 8.762585 -0.153713 -1.570562 0.002683 -1.566807
    8 -0.488518 -2.755602 -0.228260 -0.871614 -0.202562 -0.209541
    9 0.039887 -1.479790 0.029854 -1.516144 0.000000 0.000001
    10 0.028786 -1.075731 -0.023109 -1.298153 0.000000 0.000000
    11 0.250027 -2.820665 -0.238396 -0.797118 -0.167517 -0.114938
    12 -0.049759 -1.680544 0.100479 -1.644607 0.000000 -0.000002
    13 -0.034142 -1.148312 0.084782 -1.481002 0.000000 0.000000
    14 0.957766 -2.746780 -0.090302 -0.175885 -0.162684 0.097910
    15 -0.033420 -1.397129 -0.011257 -0.521018 0.000000 -0.000001
    16 -0.022360 -0.957436 0.018784 -0.975516 0.000000 0.000000
    17 -1.180681 -2.507217 -0.193859 -0.671429 -0.081516 -0.261329
    18 -0.024967 -1.123934 0.017597 -1.276708 0.000000 0.000001
    19 -0.020057 -0.890968 0.010090 -1.435733 0.000000 0.000000
    20 0.583510 -1.197277 0.185379 0.135458 -1.044822 -1.384612
    21 1.535927 0.010246 0.005009 -0.002964 -0.012979 -0.506650
    22 1.100771 0.004527 -0.010679 -0.015488 -0.004784 -1.694062
    23 0.120153 -0.050270 -0.054489 0.287569 3.110905 1.561085
    24 0.248778 -15.215940 -21.708977 1.254482 -2.553347 1.039295
    25 0.096944 -8.450418 -0.009365 0.578346 -1.160307 -0.531957
    26 0.447953 -2.798986 -0.200443 -0.811578 0.067911 0.184114
    27 -0.032909 -1.480204 0.004940 -1.438606 0.000000 0.000002
    28 -0.027022 -1.076920 -0.020210 -1.259609 0.000000 0.000000
    29 -0.249534 -2.846964 -0.174213 -0.492044 0.054681 0.190057
    30 0.043235 -1.683941 0.096012 -1.598830 0.002823 -0.000167
    31 0.031729 -1.160830 0.058838 -1.558407 0.000642 0.008372
    32 -0.963866 -2.785145 -0.085350 -0.213083 0.213870 0.168569
    33 0.028479 -1.403067 0.006271 -0.227588 0.000000 0.000000
    34 0.021413 -0.957781 0.020046 -0.590856 0.000000 0.000000
    35 1.164475 -2.543940 -0.170330 -1.022794 -0.190582 0.231608
    36 0.024032 -1.129042 0.017807 -1.198760 0.000000 0.000001
    37 0.014898 -0.883989 -0.019848 -1.447576 0.000000 0.000000
    38 -0.586770 -1.264477 0.200161 0.223296 -0.533499 -2.512572
    39 1.522835 0.058681 0.016848 0.001410 0.008985 0.453237
    40 1.117947 0.048424 -0.005766 0.002537 -0.025138 -0.045208
    41 -0.139399 -0.111698 0.014397 0.808210 0.214014 1.504550
    42 -2.143493 8.307911 -0.247246 1.580804 -0.005023 -1.456961
  time 1
    0 -0.999830 1.628925 3.537212 0.000000 0.000000 0.000000
    1 7.051610 2.206903 -16.246753 -1.125866 -0.846342 0.929301
    2 -0.071918 -8.498731 -0.104136 0.179328 0.326560 0.155588
    3 2.815887 -5.283122 1.386547 0.209716 0.049969 -1.630727
    4 3.633989 -0.389698 -0.017557 -1.570797 -1.570796 0.000000
    5 11.822115 -1.093857 0.000000 0.000001 0.000000 -1.570796
    6 -8.758979 -2.061470 -7.593118 0.282625 -0.022484 -0.679368
    7 1.257180 8.762585 -0.153713 -1.570562 0.002683 -1.566807
    8 -0.488518 -2.755602 -0.228260 -0.871614 -0.202562 -0.209541
    9 0.039887 -1.479790 0.029854 -1.516144 0.000000 0.000001
    10 0.028786 -1.075731 -0.023109 -1.298153 0.000000 0.000000
    11 0.250027 -2.820665 -0.238396 -0.797118 -0.167517 -0.114938
    12 -0.049759 -1.680544 0.100479 -1.644607 0.000000 -0.000002
    13 -0.034142 -1.148312 0.084782 -1.481002 0.000000 0.000000
    14 0.957766 -2.746780 -0.090302 -0.175885 -0.162684 0.097910
    15 -0.033420 -1.397129 -0.011257 -0.521018 0.000000 -0.000001
    16 -0.022360 -0.957436 0.018784 -0.975516 0.000000 0.000000
    17 -1.180681 -2.507217 -0.193859 -0.671429 -0.081516 -0.261329
    18 -0.024967 -1.123934 0.017597 -1.276708 0.000000 0.000001
    19 -0.020057 -0.890968 0.010090 -1.435733 0.000000 0.000000
    20 0.583510 -1.197277 0.185379 0.135458 -1.044822 -1.384612
    21 1.535927 0.010246 0.005009 -0.002964 -0.012979 -0.506650
    22 1.100771 0.004527 -0.010679 -0.015488 -0.004784 -1.694062
    23 0.120153 -0.050270 -0.054489 0.287569 3.110905 1.561085
    24 0.365969 -15.153438 -20.372999 1.190139 -2.656824 1.166560
    25 0.096944 -8.450418 -0.009365 0.390705 -1.001997 -0.366533
    26 0.447953 -2.798986 -0.200443 -0.612421 0.038058 0.189220
    27 -0.032909 -1.480204 0.004940 -1.142622 0.000000 0.000002
    28 -0.027022 -1.076920 -0.020210 -1.026041 0.000000 0.000000
    29 -0.249534 -2.846964 -0.174213 -0.321515 0.042984 0.161857
    30 0.043235 -1.683941 0.096012 -1.261636 0.002823 -0.000167
    31 0.031729 -1.160830 0.058838 -1.213273 0.000642 0.008372
    32 -0.963866 -2.785145 -0.085350 -0.072485 0.199105 0.148902
    33 0.028479 -1.403067 0.006271 -0.234922 0.000000 0.000000
    34 0.021413 -0.957781 0.020046 -0.508130 0.000000 0.000000
    35 1.164475 -2.543940 -0.170330 -0.813134 -0.190582 0.231608
    36 0.024032 -1.129042 0.017807 -0.949571 0.000000 0.000001
    37 0.014898 -0.883989 -0.019848 -1.201436 0.000000 0.000000
    38 -0.586770 -1.264477 0.200161 0.156864 -0.437718 -2.521566
    39 1.522835 0.058681 0.016848 0.001410 0.008985 0.342184
    40 1.117947 0.048424 -0.005766 0.003340 -0.025066 -0.077243
    41 -0.139399 -0.111698 0.014397 0.808210 0.214014 1.504550
    42 -3.936516 7.038341 -0.270684 1.580804 -0.005023 -1.194874
  time 2
    0 -0.999830 1.628925 3.537212 0.000000 0.000000 0.000000
    1 7.743038 2.062367 -16.406914 -1.278853 -0.886771 1.079685
    2 -0.071918 -8.498731 -0.104136 0.181486 0.399857 0.155744
    3 2.815887 -5.283122 1.386547 0.209716 0.049969 -1.630727
    4 3.633989 -0.389698 -0.017557 -1.570797 -1.570796 0.000000
    5 11.822115 -1.093857 0.000000 0.000001 0.000000 -1.570796
    6 -18.532107 -3.542707 -11.959972 0.413864 0.069834 -1.091240
    7 1.257180 8.762585 -0.153713 -1.570562 0.002683 -1.566807
    8 -0.488518 -2.755602 -0.228260 -0.871614 -0.202562 -0.209541
    9 0.039887 -1.479790 0.029854 -1.516144 0.000000 0.000001
    10 0.028786 -1.075731 -0.023109 -1.298153 0.000000 0.000000
    11 0.250027 -2.820665 -0.238396 -0.797118 -0.167517 -0.114938
    12 -0.049759 -1.680544 0.100479 -1.644607 0.000000 -0.000002
    13 -0.034142 -1.148312 0.084782 -1.481046 0.000000 0.000000
    14 0.957766 -2.746780 -0.090302 -0.175885 -0.162684 0.097910
    15 -0.033420 -1.397129 -0.011257 -0.521018 0.000000 -0.000001
    16 -0.022360 -0.957436 0.018784 -0.975516 0.000000 0.000000
    17 -1.180681 -2.507217 -0.193859 -0.671429 -0.081516 -0.261329
    18 -0.024967 -1.123934 0.017597 -1.276708 0.000000 0.000001
    19 -0.020057 -0.890968 0.010090 -1.435733 0.000000 0.000000
    20 0.583510 -1.197277 0.185379 0.135458 -1.044822 -1.384612
    21 1.535927 0.010246 0.005009 -0.002964 -0.012979 -0.506650
    22 1.100771 0.004527 -0.010679 -0.015488 -0.004784 -1.694062
    23 0.120153 -0.050270 -0.054489 0.287569 3.110905 1.561085
    24 0.514411 -14.876085 -18.908110 1.136482 -2.788585 1.265953
    25 0.096944 -8.450418 -0.009365 0.282207 -0.842418 -0.281338
    26 0.447953 -2.798986 -0.200443 -0.374641 0.002416 0.195320
    27 -0.032909 -1.480204 0.004940 -0.789379 0.000000 0.000002
    28 -0.027022 -1.076920 -0.020210 -0.724505 0.000000 0.000000
    29 -0.249534 -2.846964 -0.174213 -0.117984 0.029022 0.128204
    30 0.043235 -1.683941 0.096012 -0.859206 0.002823 -0.000167
    31 0.031729 -1.160830 0.058838 -0.791588 0.000642 0.008372
    32 -0.963866 -2.785145 -0.085350 0.095266 0.181463 0.125424
    33 0.028479 -1.403067 0.006271 -0.253190 0.000000 0.000000
    34 0.021413 -0.957781 0.020046 -0.409352 0.000000 0.000000
    35 1.164475 -2.543940 -0.170330 -0.562847 -0.190582 0.231608
    36 0.024032 -1.129042 0.017807 -0.652120 0.000000 0.000001
    37 0.014898 -0.883989 -0.019848 -0.877689 0.000000 0.000000
    38 -0.586770 -1.264477 0.200161 0.075099 -0.322738 -2.532284
    39 1.522835 0.058681 0.016848 0.001410 0.008985 0.238069
    40 1.117947 0.048424 -0.005766 0.003784 -0.024982 -0.095076
    41 -0.139399 -0.111698 0.014397 0.808210 0.214014 1.504550
    42 -6.073300 5.518763 -0.301935 1.580804 -0.005023 -0.882021
  time 3
    0 -0.999830 1.628925 3.537212 0.000000 0.000000 0.000000
    1 8.422746 1.925644 -16.504573 -1.428393 -0.912759 1.224815
    2 -0.071918 -8.498731 -0.104136 0.182936 0.460403 0.154426
    3 2.815887 -5.283122 1.386547 0.209716 0.049969 -1.630727
    4 3.633989 -0.389698 -0.017557 -1.570797 -1.570796 0.000000
    5 11.822115 -1.093857 0.000000 0.000001 0.000000 -1.570796
    6 -23.741473 -5.293260 -13.654573 0.485474 0.107786 -1.280355
    7 1.257180 8.762585 -0.153713 -1.570562 0.002683 -1.566807
    8 -0.488518 -2.755602 -0.228260 -0.871614 -0.202562 -0.209541
    9 0.039887 -1.479790 0.029854 -1.516144 0.000000 0.000001
    10 0.028786 -1.075731 -0.023109 -1.298153 0.000000 0.000000
    11 0.250027 -2.820665 -0.238396 -0.797118 -0.167517 -0.114938
    12 -0.049759 -1.680544 0.100479 -1.644607 0.000000 -0.000002
    13 -0.034142 -1.148312 0.084782 -1.481046 0.000000 0.000000
    14 0.957766 -2.746780 -0.090302 -0.175885 -0.162684 0.097910
    15 -0.033420 -1.397129 -0.011257 -0.521018 0.000000 -0.000001
    16 -0.022360 -0.957436 0.018784 -0.975516 0.000000 0.000000
    17 -1.180681 -2.507217 -0.193859 -0.671429 -0.081516 -0.261329
    18 -0.024967 -1.123934 0.017597 -1.276708 0.000000 0.000001
    19 -0.020057 -0.890968 0.010090 -1.435733 0.000000 0.000000
    20 0.583510 -1.197277 0.185379 0.135458 -1.044822 -1.384612
    21 1.535927 0.010246 0.005009 -0.002964 -0.012979 -0.506650
    22 1.100771 0.004527 -0.010679 -0.015488 -0.004784 -1.694062
    23 0.120153 -0.050270 -0.054489 0.287569 3.110905 1.561085
    24 0.686292 -14.450291 -17.357282 1.092167 -2.938884 1.342671
    25 0.096944 -8.450418 -0.009365 0.218156 -0.703587 -0.230117
    26 0.447953 -2.798986 -0.200443 -0.175437 -0.027426 0.200425
    27 -0.032909 -1.480204 0.004940 -0.493445 0.000000 0.000002
    28 -0.027022 -1.076920 -0.020210 -0.426899 0.000000 0.000000
    29 -0.249534 -2.846964 -0.174213 0.052517 0.017313 0.100005
    30 0.043235 -1.683941 0.096012 -0.522012 0.002823 -0.000167
    31 0.031729 -1.160830 0.058838 -0.418774 0.000642 0.008372
    32 -0.963866 -2.785145 -0.085350 0.235838 0.166698 0.105758
    33 0.028479 -1.403067 0.006271 -0.287430 0.000000 0.000000
    34 0.021413 -0.957781 0.020046 -0.326626 0.000000 0.000000
    35 1.164475 -2.543940 -0.170330 -0.353187 -0.190582 0.231608
    36 0.024032 -1.129042 0.017807 -0.402932 0.000000 0.000001
    37 0.014898 -0.883989 -0.019848 -0.546965 0.000000 0.000000
    38 -0.586770 -1.264477 0.200161 0.001684 -0.225063 -2.541266
    39 1.522835 0.058681 0.016848 0.001410 0.008985 0.160915
    40 1.117947 0.048424 -0.005766 0.003976 -0.024910 -0.102794
    41 -0.139399 -0.111698 0.014397 0.808210 0.214014 1.504550
    42 -7.866324 4.249193 -0.325373 1.580804 -0.005023 -0.619934
  time 4
    0 -0.999830 1.628925 3.537212 0.000000 0.000000 0.000000
    1 8.899323 1.796734 -16.485041 -1.517044 -0.927819 1.306785
    2 -0.071918 -8.498731 -0.104136 0.183056 0.485787 0.152412
    3 2.815887 -5.283122 1.386547 0.209716 0.049969 -1.630727
    4 3.633989 -0.389698 -0.017557 -1.570797 -1.570796 0.000000
    5 11.822115 -1.093857 0.000000 0.000001 0.000000 -1.570796
    6 -24.565176 -7.283205 -13.214628 0.481325 0.087429 -1.259060
    7 1.257180 8.762585 -0.153713 -1.570562 0.002683 -1.566807
    8 -0.488518 -2.755602 -0.228260 -0.871614 -0.202562 -0.209541
    9 0.039887 -1.479790 0.029854 -1.516144 0.000000 0.000001
    10 0.028786 -1.075731 -0.023109 -1.298153 0.000000 0.000000
    11 0.250027 -2.820665 -0.238396 -0.797118 -0.167517 -0.114938
    12 -0.049759 -1.680544 0.100479 -1.644607 0.000000 -0.000002
    13 -0.034142 -1.148312 0.084782 -1.481046 0.000000 0.000000
    14 0.957766 -2.746780 -0.090302 -0.175885 -0.162684 0.097910
    15 -0.033420 -1.397129 -0.011257 -0.521018 0.000000 -0.000001
    16 -0.022360 -0.957436 0.018784 -0.975516 0.000000 0.000000
    17 -1.180681 -2.507217 -0.193859 -0.671429 -0.081516 -0.261329
    18 -0.024967 -1.123934 0.017597 -1.276708 0.000000 0.000001
    19 -0.020057 -0.890968 0.010090 -1.435733 0.000000 0.000000
    20 0.583510 -1.197277 0.185379 0.135458 -1.044822 -1.384612
    21 1.535927 0.010246 0.005009 -0.002964 -0.012979 -0.506650
    22 1.100771 0.004527 -0.010679 -0.015488 -0.004784 -1.694062
    23 0.120153 -0.050270 -0.054489 0.287569 3.110905 1.561085
    24 0.858172 -13.934650 -15.771296 1.054503 -3.098407 1.403705
    25 0.096944 -8.450418 -0.009365 0.187402 -0.604208 -0.188925
    26 0.447953 -2.798986 -0.200443 -0.091917 -0.039938 0.202570
    27 -0.032909 -1.480204 0.004940 -0.369341 0.000000 0.000002
    28 -0.027022 -1.076920 -0.020210 -0.205122 0.000000 0.000000
    29 -0.249534 -2.846964 -0.174213 0.124012 0.012411 0.088176
    30 0.043235 -1.683941 0.096012 -0.380583 0.002823 -0.000167
    31 0.031729 -1.160830 0.058838 -0.220505 0.000642 0.008372
    32 -0.963866 -2.785145 -0.085350 0.294792 0.160514 0.097512
    33 0.028479 -1.403067 0.006271 -0.342638 0.000000 0.000000
    34 0.021413 -0.957781 0.020046 -0.291923 0.000000 0.000000
    35 1.164475 -2.543940 -0.170330 -0.265300 -0.190582 0.231608
    36 0.024032 -1.129042 0.017807 -0.298444 0.000000 0.000001
    37 0.014898 -0.883989 -0.019848 -0.280030 0.000000 0.000000
    38 -0.586770 -1.264477 0.200161 -0.039675 -0.181224 -2.545038
    39 1.522835 0.058681 0.016848 0.001410 0.008985 0.130744
    40 1.117947 0.048424 -0.005766 0.004012 -0.024886 -0.104448
    41 -0.139399 -0.111698 0.014397 0.808210 0.214014 1.504550
    42 -8.620253 3.714021 -0.337092 1.580804 -0.005023 -0.510016
  time 5
    0 -0.999830 1.628925 3.537212 0.000000 0.000000 0.000000
    1 9.164956 1.656105 -16.313161 -1.524477 -0.943448 1.303249
    2 -0.071918 -8.498731 -0.104136 0.182241 0.484193 0.150291
    3 2.815887 -5.283122 1.386547 0.209716 0.049969 -1.630727
    4 3.633989 -0.389698 -0.017557 -1.570797 -1.570796 0.000000
    5 11.822115 -1.093857 0.000000 0.000001 0.000000 -1.570796
    6 -24.587439 -9.482618 -12.872449 0.469479 0.035332 -1.202755
    7 1.257180 8.762585 -0.153713 -1.570562 0.002683 -1.566807
    8 -0.488518 -2.755602 -0.228260 -0.871614 -0.202562 -0.209541
    9 0.039887 -1.479790 0.029854 -1.516144 0.000000 0.000001
    10 0.028786 -1.075731 -0.023109 -1.298153 0.000000 0.000000
    11 0.250027 -2.820665 -0.238396 -0.797118 -0.167517 -0.114938
    12 -0.049759 -1.680544 0.100479 -1.644607 0.000000 -0.000002
    13 -0.034142 -1.148312 0.084782 -1.481002 0.000000 0.000000
    14 0.957766 -2.746780 -0.090302 -0.175885 -0.162684 0.097910
    15 -0.033420 -1.397129 -0.011257 -0.521018 0.000000 -0.000001
    16 -0.022360 -0.957436 0.018784 -0.975516 0.000000 0.000000
    17 -1.180681 -2.507217 -0.193859 -0.671429 -0.081516 -0.261329
    18 -0.024967 -1.123934 0.017597 -1.276708 0.000000 0.000001
    19 -0.020057 -0.890968 0.010090 -1.435733 0.000000 0.000000
    20 0.583510 -1.197277 0.185379 0.135458 -1.044822 -1.384612
    21 1.535927 0.010246 0.005009 -0.002964 -0.012979 -0.506650
    22 1.100771 0.004527 -0.010679 -0.015488 -0.004784 -1.694062
    23 0.120153 -0.050270 -0.054489 0.287569 3.110905 1.561085
    24 1.131618 -13.489324 -14.314220 1.030066 -3.274988 1.448205
    25 0.096944 -8.450418 -0.009365 0.178533 -0.568066 -0.145109
    26 0.447953 -2.798986 -0.200443 -0.156841 -0.039938 0.202570
    27 -0.032909 -1.480204 0.004940 -0.579968 0.000000 0.000002
    28 -0.027022 -1.076920 -0.020210 -0.069598 0.000000 0.000000
    29 -0.249534 -2.846964 -0.174213 0.084528 0.012411 0.088176
    30 0.043235 -1.683941 0.096012 -0.607243 0.002823 -0.000167
    31 0.031729 -1.160830 0.058838 -0.166058 0.000642 0.008372
    32 -0.963866 -2.785145 -0.085350 0.274824 0.160514 0.097512
    33 0.028479 -1.403067 0.006271 -0.473527 0.000000 0.000000
    34 0.021413 -0.957781 0.020046 -0.414121 0.000000 0.000000
    35 1.164475 -2.543940 -0.170330 -0.364078 -0.190582 0.231608
    36 0.024032 -1.129042 0.017807 -0.482377 0.000000 0.000001
    37 0.014898 -0.883989 -0.019848 -0.061345 0.000000 0.000000
    38 -0.586770 -1.264477 0.200161 -0.053346 -0.177437 -2.523240
    39 1.522835 0.058681 0.016848 0.001410 0.008985 0.156127
    40 1.117947 0.048424 -0.005766 0.003580 -0.024922 -0.087334
    41 -0.139399 -0.111698 0.014397 0.808210 0.214014 1.504550
    42 -8.620253 3.714021 -0.337092 1.580804 -0.005023 -0.510016
  time 6
    0 -0.999830 1.628925 3.537212 0.000000 0.000000 0.000000
    1 9.340743 1.495944 -16.031902 -1.482243 -0.961738 1.245738
    2 -0.071918 -8.498731 -0.104136 0.181270 0.479016 0.148014
    3 2.815887 -5.283122 1.386547 0.209716 0.049969 -1.630727
    4 3.633989 -0.389698 -0.017557 -1.570797 -1.570796 0.000000
    5 11.822115 -1.093857 0.000000 0.000001 0.000000 -1.570796
    6 -23.964096 -11.741878 -12.579153 0.451075 -0.035079 -1.122694
    7 1.257180 8.762585 -0.153713 -1.570562 0.002683 -1.566807
    8 -0.488518 -2.755602 -0.228260 -0.871614 -0.202562 -0.209541
    9 0.039887 -1.479790 0.029854 -1.516144 0.000000 0.000001
    10 0.028786 -1.075731 -0.023109 -1.298153 0.000000 0.000000
    11 0.250027 -2.820665 -0.238396 -0.797118 -0.167517 -0.114938
    12 -0.049759 -1.680544 0.100479 -1.644607 0.000000 -0.000002
    13 -0.034142 -1.148312 0.084782 -1.481046 0.000000 0.000000
    14 0.957766 -2.746780 -0.090302 -0.175885 -0.162684 0.097910
    15 -0.033420 -1.397129 -0.011257 -0.521018 0.000000 -0.000001
    16 -0.022360 -0.957436 0.018784 -0.975516 0.000000 0.000000
    17 -1.180681 -2.507217 -0.193859 -0.671429 -0.081516 -0.261329
    18 -0.024967 -1.123934 0.017597 -1.276708 0.000000 0.000001
    19 -0.020057 -0.890968 0.010090 -1.435733 0.000000 0.000000
    20 0.583510 -1.197277 0.185379 0.135458 -1.044822 -1.384612
    21 1.535927 0.010246 0.005009 -0.002964 -0.012979 -0.506650
    22 1.100771 0.004527 -0.010679 -0.015488 -0.004784 -1.694062
    23 0.120153 -0.050270 -0.054489 0.287569 3.110905 1.561085
    24 1.182400 -13.098687 -12.732141 0.986199 -3.451569 1.475982
    25 0.096944 -8.450418 -0.009365 0.185327 -0.589089 -0.095201
    26 0.447953 -2.798986 -0.200443 -0.299703 -0.039938 0.202570
    27 -0.032909 -1.480204 0.004940 -1.043318 0.000000 0.000002
    28 -0.027022 -1.076920 -0.020210 0.020544 0.000000 0.000000
    29 -0.249534 -2.846964 -0.174213 -0.002335 0.012411 0.088176
    30 0.043235 -1.683941 0.096012 -1.105804 0.002823 -0.000167
    31 0.031729 -1.160830 0.058838 -0.136147 0.000642 0.008372
    32 -0.963866 -2.785145 -0.085350 0.230859 0.160514 0.097512
    33 0.028479 -1.403067 0.006271 -0.673976 0.000000 0.000000
    34 0.021413 -0.957781 0.020046 -0.682956 0.000000 0.000000
    35 1.164475 -2.543940 -0.170330 -0.581489 -0.190582 0.231608
    36 0.024032 -1.129042 0.017807 -0.887030 0.000000 0.000001
    37 0.014898 -0.883989 -0.019848 0.144791 0.000000 0.000000
    38 -0.586770 -1.264477 0.200161 -0.060745 -0.175279 -2.475270
    39 1.522835 0.058681 0.016848 0.001410 0.008985 0.212006
    40 1.117947 0.048424 -0.005766 0.002645 -0.025030 -0.049666
    41 -0.139399 -0.111698 0.014397 0.808210 0.214014 1.504550
    42 -8.620253 3.714021 -0.337092 1.580804 -0.005023 -0.510016
  time 7
    0 -0.999830 1.628925 3.537212 0.000000 0.000000 0.000000
    1 9.465746 1.343595 -15.695955 -1.410328 -0.978348 1.157383
    2 -0.071918 -8.498731 -0.104136 0.180191 0.470650 0.145617
    3 2.815887 -5.283122 1.386547 0.209716 0.049969 -1.630727
    4 3.633989 -0.389698 -0.017557 -1.570797 -1.570796 0.000000
    5 11.822115 -1.093857 0.000000 0.000001 0.000000 -1.570796
    6 -22.873245 -13.926329 -12.302151 0.427517 -0.110477 -1.030051
    7 1.257180 8.762585 -0.153713 -1.570562 0.002683 -1.566807
    8 -0.488518 -2.755602 -0.228260 -0.871614 -0.202562 -0.209541
    9 0.039887 -1.479790 0.029854 -1.516144 0.000000 0.000001
    10 0.028786 -1.075731 -0.023109 -1.298153 0.000000 0.000000
    11 0.250027 -2.820665 -0.238396 -0.797118 -0.167517 -0.114938
    12 -0.049759 -1.680544 0.100479 -1.644607 0.000000 -0.000002
    13 -0.034142 -1.148312 0.084782 -1.481002 0.000000 0.000000
    14 0.957766 -2.746780 -0.090302 -0.175885 -0.162684 0.097910
    15 -0.033420 -1.397129 -0.011257 -0.521018 0.000000 -0.000001
    16 -0.022360 -0.957436 0.018784 -0.975516 0.000000 0.000000
    17 -1.180681 -2.507217 -0.193859 -0.671429 -0.081516 -0.261329
    18 -0.024967 -1.123934 0.017597 -1.276708 0.000000 0.000001
    19 -0.020057 -0.890968 0.010090 -1.435733 0.000000 0.000000
    20 0.583510 -1.197277 0.185379 0.135458 -1.044822 -1.384612
    21 1.535927 0.010246 0.005009 -0.002964 -0.012979 -0.506650
    22 1.100771 0.004527 -0.010679 -0.015488 -0.004784 -1.694062
    23 0.120153 -0.050270 -0.054489 0.287569 3.110905 1.561085
    24 1.178494 -12.868212 -11.150061 0.935755 -3.618403 1.496012
    25 0.096944 -8.450418 -0.009365 0.215615 -0.640461 -0.040138
    26 0.447953 -2.798986 -0.200443 -0.442519 -0.039938 0.202570
    27 -0.032909 -1.480204 0.004940 -1.506669 0.000000 0.000002
    28 -0.027022 -1.076920 -0.020210 0.070766 0.000000 0.000000
    29 -0.249534 -2.846964 -0.174213 -0.089227 0.012411 0.088176
    30 0.043235 -1.683941 0.096012 -1.604365 0.002823 -0.000167
    31 0.031729 -1.160830 0.058838 -0.123524 0.000642 0.008372
    32 -0.963866 -2.785145 -0.085350 0.186919 0.160514 0.097512
    33 0.028479 -1.403067 0.006271 -0.857597 0.000000 0.000000
    34 0.021413 -0.957781 0.020046 -0.951791 0.000000 0.000000
    35 1.164475 -2.543940 -0.170330 -0.798900 -0.190582 0.231608
    36 0.024032 -1.129042 0.017807 -1.291682 0.000000 0.000001
    37 0.014898 -0.883989 -0.019848 0.298057 0.000000 0.000000
    38 -0.586770 -1.264477 0.200161 -0.063777 -0.174297 -2.427301
    39 1.522835 0.058681 0.016848 0.001410 0.008985 0.267886
    40 1.117947 0.048424 -0.005766 0.001699 -0.025126 -0.012010
    41 -0.139399 -0.111698 0.014397 0.808210 0.214014 1.504550
    42 -8.620253 3.714021 -0.337092 1.580804 -0.005023 -0.510016
  time 8
    0 -0.999830 1.628925 3.537212 0.000000 0.000000 0.000000
    1 9.567312 1.222498 -15.356100 -1.332654 -0.990903 1.064902
    2 -0.071918 -8.498731 -0.104136 0.179041 0.459469 0.143112
    3 2.815887 -5.283122 1.386547 0.209716 0.049969 -1.630727
    4 3.633989 -0.389698 -0.017557 -1.570797 -1.570796 0.000000
    5 11.822115 -1.093857 0.000000 0.000001 0.000000 -1.570796
    6 -21.492986 -15.901312 -12.008855 0.401216 -0.177550 -0.936080
    7 1.257180 8.762585 -0.153713 -1.570562 0.002683 -1.566807
    8 -0.488518 -2.755602 -0.228260 -0.871614 -0.202562 -0.209541
    9 0.039887 -1.479790 0.029854 -1.516144 0.000000 0.000001
    10 0.028786 -1.075731 -0.023109 -1.298153 0.000000 0.000000
    11 0.250027 -2.820665 -0.238396 -0.797118 -0.167517 -0.114938
    12 -0.049759 -1.680544 0.100479 -1.644607 0.000000 -0.000002
    13 -0.034142 -1.148312 0.084782 -1.481046 0.000000 0.000000
    14 0.957766 -2.746780 -0.090302 -0.175885 -0.162684 0.097910
    15 -0.033420 -1.397129 -0.011257 -0.521018 0.000000 -0.000001
    16 -0.022360 -0.957436 0.018784 -0.975516 0.000000 0.000000
    17 -1.180681 -2.507217 -0.193859 -0.671429 -0.081516 -0.261329
    18 -0.024967 -1.123934 0.017597 -1.276708 0.000000 0.000001
    19 -0.020057 -0.890968 0.010090 -1.435733 0.000000 0.000000
    20 0.583510 -1.197277 0.185379 0.135458 -1.044822 -1.384612
    21 1.535927 0.010246 0.005009 -0.002964 -0.012979 -0.506650
    22 1.100771 0.004527 -0.010679 -0.015488 -0.004784 -1.694062
    23 0.120153 -0.050270 -0.054489 0.287569 3.110905 1.561085
    24 1.190213 -12.868212 -9.696892 0.896073 -3.764176 1.528986
    25 0.096944 -8.450418 -0.009365 0.281481 -0.696524 0.015488
    26 0.447953 -2.798986 -0.200443 -0.507443 -0.039938 0.202570
    27 -0.032909 -1.480204 0.004940 -1.717245 0.000000 0.000002
    28 -0.027022 -1.076920 -0.020210 0.086279 0.000000 0.000000
    29 -0.249534 -2.846964 -0.174213 -0.128739 0.012411 0.088176
    30 0.043235 -1.683941 0.096012 -1.830969 0.002823 -0.000167
    31 0.031729 -1.160830 0.058838 -0.120888 0.000642 0.008372
    32 -0.963866 -2.785145 -0.085350 0.166925 0.160514 0.097512
    33 0.028479 -1.403067 0.006271 -0.938002 0.000000 0.000000
    34 0.021413 -0.957781 0.020046 -1.073956 0.000000 0.000000
    35 1.164475 -2.543940 -0.170330 -0.897677 -0.190582 0.231608
    36 0.024032 -1.129042 0.017807 -1.475660 0.000000 0.000001
    37 0.014898 -0.883989 -0.019848 0.358131 0.000000 0.000000
    38 -0.586770 -1.264477 0.200161 -0.064366 -0.174069 -2.405502
    39 1.522835 0.058681 0.016848 0.001410 0.008985 0.293269
    40 1.117947 0.048424 -0.005766 0.001267 -0.025174 0.005116
    41 -0.139399 -0.111698 0.014397 0.808210 0.214014 1.504550
    42 -8.620253 3.714021 -0.337092 1.580804 -0.005023 -0.510016
  time 9
    0 -0.999830 1.628925 3.537212 0.000000 0.000000 0.000000
    1 9.692316 1.159996 -15.074842 -1.275555 -1.001391 0.997617
    2 -0.071918 -8.498731 -0.104136 0.177830 0.445890 0.140535
    3 2.815887 -5.283122 1.386547 0.209716 0.049969 -1.630727
    4 3.633989 -0.389698 -0.017557 -1.570797 -1.570796 0.000000
    5 9.376728 -1.093857 0.000000 0.000001 0.000000 -1.570796
    6 -20.023678 -17.502245 -11.650382 0.374713 -0.222786 -0.851838
    7 1.257180 8.762585 -0.153713 -1.570562 0.002683 -1.566807
    8 -0.488518 -2.755602 -0.228260 -0.871614 -0.202562 -0.209541
    9 0.039887 -1.479790 0.029854 -1.516144 0.000000 0.000001
    10 0.028786 -1.075731 -0.023109 -1.298153 0.000000 0.000000
    11 0.250027 -2.820665 -0.238396 -0.797118 -0.167517 -0.114938
    12 -0.049759 -1.680544 0.100479 -1.644607 0.000000 -0.000002
    13 -0.034142 -1.148312 0.084782 -1.481046 0.000000 0.000000
    14 0.957766 -2.746780 -0.090302 -0.175885 -0.162684 0.097910
    15 -0.033420 -1.397129 -0.011257 -0.521018 0.000000 -0.000001
    16 -0.022360 -0.957436 0.018784 -0.975516 0.000000 0.000000
    17 -1.180681 -2.507217 -0.193859 -0.671429 -0.081516 -0.261329
    18 -0.024967 -1.123934 0.017597 -1.276708 0.000000 0.000001
    19 -0.020057 -0.890968 0.010090 -1.435733 0.000000 0.000000
    20 0.583510 -1.197277 0.185379 0.135458 -1.044822 -1.384612
    21 1.535927 0.010246 0.005009 -0.002964 -0.012979 -0.506650
    22 1.100771 0.004527 -0.010679 -0.015488 -0.004784 -1.694062
    23 0.120153 -0.050270 -0.054489 0.287569 3.110905 1.561085
    24 0.694104 -11.512702 -10.259409 -2.315032 -5.668015 -1.483138
    25 0.096944 -8.450418 -0.009365 0.515540 -0.805724 0.068536
    26 0.447953 -2.798986 -0.200443 -0.507443 -0.039938 0.202570
    27 -0.032909 -1.480204 0.004940 -1.717245 0.000000 0.000002
    28 -0.027022 -1.076920 -0.020210 0.086279 0.000000 0.000000
    29 -0.249534 -2.846964 -0.174213 -0.128739 0.012411 0.088176
    30 0.043235 -1.683941 0.096012 -1.830969 0.002823 -0.000167
    31 0.031729 -1.160830 0.058838 -0.120888 0.000642 0.008372
    32 -0.963866 -2.785145 -0.085350 0.166925 0.160514 0.097512
    33 0.028479 -1.403067 0.006271 -0.938002 0.000000 0.000000
    34 0.021413 -0.957781 0.020046 -1.073956 0.000000 0.000000
    35 1.164475 -2.543940 -0.170330 -0.897677 -0.190582 0.231608
    36 0.024032 -1.129042 0.017807 -1.475660 0.000000 0.000001
    37 0.014898 -0.883989 -0.019848 0.358131 0.000000 0.000000
    38 -0.586770 -1.264477 0.200161 -0.064366 -0.174069 -2.405502
    39 1.522835 0.058681 0.016848 0.001410 0.008985 0.293269
    40 1.117947 0.048424 -0.005766 0.001267 -0.025174 0.005116
    41 -0.139399 -0.111698 0.014397 0.808210 0.214014 1.504550
    42 -8.620253 3.714021 -0.337092 1.580804 -0.005023 -0.510016
  time 10
    0 -0.999830 1.628925 3.537212 0.000000 0.000000 0.000000
    1 9.864196 1.187341 -14.902962 -1.266547 -1.014980 0.985781
    2 -0.071918 -8.498731 -0.104136 0.176596 0.430286 0.137887
    3 2.815887 -5.283122 1.386547 0.209716 0.049969 -1.630727
    4 3.633989 -0.389698 -0.017557 -1.570797 -1.570796 0.000000
    5 6.927434 -1.093857 0.000000 0.000001 0.000000 -1.570796
    6 -18.598894 -18.609432 -11.194143 0.350487 -0.232380 -0.788031
    7 1.257180 8.762585 -0.153713 -1.570562 0.002683 -1.566807
    8 -0.488518 -2.755602 -0.228260 -0.871614 -0.202562 -0.209541
    9 0.039887 -1.479790 0.029854 -1.516144 0.000000 0.000001
    10 0.028786 -1.075731 -0.023109 -1.298153 0.000000 0.000000
    11 0.250027 -2.820665 -0.238396 -0.797118 -0.167517 -0.114938
    12 -0.049759 -1.680544 0.100479 -1.644607 0.000000 -0.000002
    13 -0.034142 -1.148312 0.084782 -1.481046 0.000000 0.000000
    14 0.957766 -2.746780 -0.090302 -0.175885 -0.162684 0.097910
    15 -0.033420 -1.397129 -0.011257 -0.521018 0.000000 -0.000001
    16 -0.022360 -0.957436 0.018784 -0.975516 0.000000 0.000000
    17 -1.180681 -2.507217 -0.193859 -0.671429 -0.081516 -0.261329
    18 -0.024967 -1.123934 0.017597 -1.276708 0.000000 0.000001
    19 -0.020057 -0.890968 0.010090 -1.435733 0.000000 0.000000
    20 0.583510 -1.197277 0.185379 0.135458 -1.044822 -1.384612
    21 1.535927 0.010246 0.005009 -0.002964 -0.012979 -0.506650
    22 1.100771 0.004527 -0.010679 -0.015488 -0.004784 -1.694062
    23 0.120153 -0.050270 -0.054489 0.287569 3.110905 1.561085
    24 0.217527 -10.243132 -11.528979 -2.369137 -5.746602 -1.336599
    25 0.096944 -8.450418 -0.009365 0.765624 -0.909847 0.070645
    26 0.447953 -2.798986 -0.200443 -0.507443 -0.039938 0.202570
    27 -0.032909 -1.480204 0.004940 -1.717245 0.000000 0.000002
    28 -0.027022 -1.076920 -0.020210 0.086279 0.000000 0.000000
    29 -0.249534 -2.846964 -0.174213 -0.128739 0.012411 0.088176
    30 0.043235 -1.683941 0.096012 -1.830969 0.002823 -0.000167
    31 0.031729 -1.160830 0.058838 -0.120888 0.000642 0.008372
    32 -0.963866 -2.785145 -0.085350 0.166925 0.160514 0.097512
    33 0.028479 -1.403067 0.006271 -0.938002 0.000000 0.000000
    34 0.021413 -0.957781 0.020046 -1.073956 0.000000 0.000000
    35 1.164475 -2.543940 -0.170330 -0.897677 -0.190582 0.231608
    36 0.024032 -1.129042 0.017807 -1.475660 0.000000 0.000001
    37 0.014898 -0.883989 -0.019848 0.358131 0.000000 0.000000
    38 -0.586770 -1.264477 0.200161 -0.064366 -0.174069 -2.405502
    39 1.522835 0.058681 0.016848 0.001410 0.008985 0.293269
    40 1.117947 0.048424 -0.005766 0.001267 -0.025174 0.005116
    41 -0.139399 -0.111698 0.014397 0.808210 0.214014 1.504550
    42 -8.620253 3.714021 -0.337092 1.580804 -0.005023 -0.510016
  time 11
    0 -0.999830 1.628925 3.537212 0.000000 0.000000 0.000000
    1 10.270458 1.761577 -15.160782 -1.511531 -1.036705 1.271375
    2 -0.071918 -8.498731 -0.104136 0.175362 0.413076 0.135178
    3 2.815887 -5.283122 1.386547 0.209716 0.049969 -1.630727
    4 2.454266 -0.389698 -0.017557 -1.570797 -1.570796 0.000000
    5 6.927434 -1.093857 0.000000 0.000001 0.000000 -1.570796
    6 -17.196372 -19.462265 -10.623845 0.326394 -0.217912 -0.735204
    7 1.257180 8.762585 -0.153713 -1.570562 0.002683 -1.566807
    8 -0.488518 -2.755602 -0.228260 -0.871614 -0.202562 -0.209541
    9 0.039887 -1.479790 0.029854 -1.516144 0.000000 0.000001
    10 0.028786 -1.075731 -0.023109 -1.298153 0.000000 0.000000
    11 0.250027 -2.820665 -0.238396 -0.797118 -0.167517 -0.114938
    12 -0.049759 -1.680544 0.100479 -1.644607 0.000000 -0.000002
    13 -0.034142 -1.148312 0.084782 -1.481002 0.000000 0.000000
    14 0.957766 -2.746780 -0.090302 -0.175885 -0.162684 0.097910
    15 -0.033420 -1.397129 -0.011257 -0.521018 0.000000 -0.000001
    16 -0.022360 -0.957436 0.018784 -0.975516 0.000000 0.000000
    17 -1.180681 -2.507217 -0.193859 -0.671429 -0.081516 -0.261329
    18 -0.024967 -1.123934 0.017597 -1.276708 0.000000 0.000001
    19 -0.020057 -0.890968 0.010090 -1.435733 0.000000 0.000000
    20 0.583510 -1.197277 0.185379 0.135458 -1.044822 -1.384612
    21 1.535927 0.010246 0.005009 -0.002964 -0.012979 -0.506650
    22 1.100771 0.004527 -0.010679 -0.015488 -0.004784 -1.694062
    23 0.120153 -0.050270 -0.054489 0.287569 3.110905 1.561085
    24 1.057397 -10.672832 -12.525103 -2.257863 -5.843726 -1.159070
    25 0.096944 -8.450418 -0.009365 0.828430 -0.928608 0.068864
    26 0.447953 -2.798986 -0.200443 -0.507443 -0.039938 0.202570
    27 -0.032909 -1.480204 0.004940 -1.717245 0.000000 0.000002
    28 -0.027022 -1.076920 -0.020210 0.086279 0.000000 0.000000
    29 -0.249534 -2.846964 -0.174213 -0.128739 0.012411 0.088176
    30 0.043235 -1.683941 0.096012 -1.830969 0.002823 -0.000167
    31 0.031729 -1.160830 0.058838 -0.120888 0.000642 0.008372
    32 -0.963866 -2.785145 -0.085350 0.166925 0.160514 0.097512
    33 0.028479 -1.403067 0.006271 -0.938002 0.000000 0.000000
    34 0.021413 -0.957781 0.020046 -1.073956 0.000000 0.000000
    35 1.164475 -2.543940 -0.170330 -0.897677 -0.190582 0.231608
    36 0.024032 -1.129042 0.017807 -1.475660 0.000000 0.000001
    37 0.014898 -0.883989 -0.019848 0.358131 0.000000 0.000000
    38 -0.586770 -1.264477 0.200161 -0.064366 -0.174069 -2.405502
    39 1.522835 0.058681 0.016848 0.001410 0.008985 0.293269
    40 1.117947 0.048424 -0.005766 0.001267 -0.025174 0.005116
    41 -0.139399 -0.111698 0.014397 0.808210 0.214014 1.504550
    42 -8.620253 3.714021 -0.337092 1.580804 -0.005023 -0.510016
  time 12
    0 -0.999830 1.628925 3.537212 0.000000 0.000000 0.000000
    1 10.575155 2.441285 -15.703767 1.369758 -2.135122 -1.565558
    2 -0.071918 -8.498731 -0.104136 0.174151 0.394620 0.132422
    3 2.815887 -5.283122 1.386547 0.209716 0.049969 -1.630727
    4 1.270636 -0.389698 -0.017557 -1.570797 -1.570796 0.000000
    5 6.927434 -1.093857 0.000000 0.000001 0.000000 -1.570796
    6 -15.660277 -20.359985 -9.923193 0.299824 -0.200907 -0.677961
    7 1.257180 8.762585 -0.153713 -1.570562 0.002683 -1.566807
    8 -0.488518 -2.755602 -0.228260 -0.871614 -0.202562 -0.209541
    9 0.039887 -1.479790 0.029854 -1.516144 0.000000 0.000001
    10 0.028786 -1.075731 -0.023109 -1.298153 0.000000 0.000000
    11 0.250027 -2.820665 -0.238396 -0.797118 -0.167517 -0.114938
    12 -0.049759 -1.680544 0.100479 -1.644607 0.000000 -0.000002
    13 -0.034142 -1.148312 0.084782 -1.481002 0.000000 0.000000
    14 0.957766 -2.746780 -0.090302 -0.175885 -0.162684 0.097910
    15 -0.033420 -1.397129 -0.011257 -0.521018 0.000000 -0.000001
    16 -0.022360 -0.957436 0.018784 -0.975516 0.000000 0.000000
    17 -1.180681 -2.507217 -0.193859 -0.671429 -0.081516 -0.261329
    18 -0.024967 -1.123934 0.017597 -1.276708 0.000000 0.000001
    19 -0.020057 -0.890968 0.010090 -1.435733 0.000000 0.000000
    20 0.583510 -1.197277 0.185379 0.135458 -1.044822 -1.384612
    21 1.535927 0.010246 0.005009 -0.002964 -0.012979 -0.506650
    22 1.100771 0.004527 -0.010679 -0.015488 -0.004784 -1.694062
    23 0.120153 -0.050270 -0.054489 0.287569 3.110905 1.561085
    24 2.155086 -10.922840 -13.583729 -2.159368 -5.967568 -1.022547
    25 0.096944 -8.450418 -0.009365 0.841707 -0.923477 0.071535
    26 0.447953 -2.798986 -0.200443 -0.507443 -0.039938 0.202570
    27 -0.032909 -1.480204 0.004940 -1.717245 0.000000 0.000002
    28 -0.027022 -1.076920 -0.020210 0.086279 0.000000 0.000000
    29 -0.249534 -2.846964 -0.174213 -0.128739 0.012411 0.088176
    30 0.043235 -1.683941 0.096012 -1.830969 0.002823 -0.000167
    31 0.031729 -1.160830 0.058838 -0.120888 0.000642 0.008372
    32 -0.963866 -2.785145 -0.085350 0.166925 0.160514 0.097512
    33 0.028479 -1.403067 0.006271 -0.938002 0.000000 0.000000
    34 0.021413 -0.957781 0.020046 -1.073956 0.000000 0.000000
    35 1.164475 -2.543940 -0.170330 -0.897677 -0.190582 0.231608
    36 0.024032 -1.129042 0.017807 -1.475660 0.000000 0.000001
    37 0.014898 -0.883989 -0.019848 0.358131 0.000000 0.000000
    38 -0.586770 -1.264477 0.200161 -0.064366 -0.174069 -2.405502
    39 1.522835 0.058681 0.016848 0.001410 0.008985 0.293269
    40 1.117947 0.048424 -0.005766 0.001267 -0.025174 0.005116
    41 -0.139399 -0.111698 0.014397 0.808210 0.214014 1.504550
    42 -8.620253 3.714021 -0.337092 1.580804 -0.005023 -0.510016
  time 13
    0 -0.999830 1.628925 3.537212 0.000000 0.000000 0.000000
    1 10.434526 2.660042 -16.266284 -1.762866 -0.989431 1.563599
    2 -0.071918 -8.498731 -0.104136 0.172977 0.375337 0.129629
    3 2.815887 -5.283122 1.386547 0.209716 0.049969 -1.630727
    4 1.270636 -0.389698 -0.017557 -1.570797 -1.570796 0.000000
    5 6.927434 -1.093857 0.000000 0.000001 0.000000 -1.570796
    6 -14.035133 -21.302590 -9.141070 0.271515 -0.182030 -0.617320
    7 1.257180 8.762585 -0.153713 -1.570562 0.002683 -1.566807
    8 -0.488518 -2.755602 -0.228260 -0.871614 -0.202562 -0.209541
    9 0.039887 -1.479790 0.029854 -1.516144 0.000000 0.000001
    10 0.028786 -1.075731 -0.023109 -1.298153 0.000000 0.000000
    11 0.250027 -2.820665 -0.238396 -0.797118 -0.167517 -0.114938
    12 -0.049759 -1.680544 0.100479 -1.644607 0.000000 -0.000002
    13 -0.034142 -1.148312 0.084782 -1.481002 0.000000 0.000000
    14 0.957766 -2.746780 -0.090302 -0.175885 -0.162684 0.097910
    15 -0.033420 -1.397129 -0.011257 -0.521018 0.000000 -0.000001
    16 -0.022360 -0.957436 0.018784 -0.975516 0.000000 0.000000
    17 -1.180681 -2.507217 -0.193859 -0.671429 -0.081516 -0.261329
    18 -0.024967 -1.123934 0.017597 -1.276708 0.000000 0.000001
    19 -0.020057 -0.890968 0.010090 -1.435733 0.000000 0.000000
    20 0.583510 -1.197277 0.185379 0.135458 -1.044822 -1.384612
    21 1.535927 0.010246 0.005009 -0.002964 -0.012979 -0.506650
    22 1.100771 0.004527 -0.010679 -0.015488 -0.004784 -1.694062
    23 0.120153 -0.050270 -0.054489 0.287569 3.110905 1.561085
    24 2.108210 -10.711896 -13.884519 -2.151969 -5.983320 -1.026798
    25 0.096944 -8.450418 -0.009365 0.816761 -0.911558 0.073925
    26 0.447953 -2.798986 -0.200443 -0.507443 -0.039938 0.202570
    27 -0.032909 -1.480204 0.004940 -1.717245 0.000000 0.000002
    28 -0.027022 -1.076920 -0.020210 0.086279 0.000000 0.000000
    29 -0.249534 -2.846964 -0.174213 -0.128739 0.012411 0.088176
    30 0.043235 -1.683941 0.096012 -1.830969 0.002823 -0.000167
    31 0.031729 -1.160830 0.058838 -0.120888 0.000642 0.008372
    32 -0.963866 -2.785145 -0.085350 0.166925 0.160514 0.097512
    33 0.028479 -1.403067 0.006271 -0.938002 0.000000 0.000000
    34 0.021413 -0.957781 0.020046 -1.073956 0.000000 0.000000
    35 1.164475 -2.543940 -0.170330 -0.897677 -0.190582 0.231608
    36 0.024032 -1.129042 0.017807 -1.475660 0.000000 0.000001
    37 0.014898 -0.883989 -0.019848 0.358131 0.000000 0.000000
    38 -0.586770 -1.264477 0.200161 -0.064366 -0.174069 -2.405502
    39 1.522835 0.058681 0.016848 0.001410 0.008985 0.293269
    40 1.117947 0.048424 -0.005766 0.001267 -0.025174 0.005116
    41 -0.139399 -0.111698 0.014397 0.808210 0.214014 1.504550
    42 -8.620253 3.714021 -0.337092 1.580804 -0.005023 -0.510016
  time 14
    0 -0.999830 1.628925 3.537212 0.000000 0.000000 0.000000
    1 10.137642 2.726450 -16.867865 -1.679678 -0.978503 1.461984
    2 -0.071918 -8.498731 -0.104136 0.171874 0.355610 0.126801
    3 2.815887 -5.283122 1.386547 0.209716 0.049969 -1.630727
    4 1.270636 -0.389698 -0.017557 -1.570797 -1.570796 0.000000
    5 6.927434 -1.093857 0.000000 0.000001 0.000000 -1.570796
    6 -12.343202 -22.275120 -8.277476 0.242135 -0.161954 -0.554255
    7 1.257180 8.762585 -0.153713 -1.570562 0.002683 -1.566807
    8 -0.488518 -2.755602 -0.228260 -0.871614 -0.202562 -0.209541
    9 0.039887 -1.479790 0.029854 -1.516144 0.000000 0.000001
    10 0.028786 -1.075731 -0.023109 -1.298153 0.000000 0.000000
    11 0.250027 -2.820665 -0.238396 -0.797118 -0.167517 -0.114938
    12 -0.049759 -1.680544 0.100479 -1.644607 0.000000 -0.000002
    13 -0.034142 -1.148312 0.084782 -1.481046 0.000000 0.000000
    14 0.957766 -2.746780 -0.090302 -0.175885 -0.162684 0.097910
    15 -0.033420 -1.397129 -0.011257 -0.521018 0.000000 -0.000001
    16 -0.022360 -0.957436 0.018784 -0.975516 0.000000 0.000000
    17 -1.180681 -2.507217 -0.193859 -0.671429 -0.081516 -0.261329
    18 -0.024967 -1.123934 0.017597 -1.276708 0.000000 0.000001
    19 -0.020057 -0.890968 0.010090 -1.435733 0.000000 0.000000
    20 0.583510 -1.197277 0.185379 0.135458 -1.044822 -1.384612
    21 1.535927 0.010246 0.005009 -0.002964 -0.012979 -0.506650
    22 1.100771 0.004527 -0.010679 -0.015488 -0.004784 -1.694062
    23 0.120153 -0.050270 -0.054489 0.287569 3.110905 1.561085
    24 1.772262 -10.051719 -14.001711 -2.148083 -5.946855 -1.070165
    25 0.096944 -8.450418 -0.009365 0.765624 -0.909847 0.070645
    26 0.447953 -2.798986 -0.200443 -0.507443 -0.039938 0.202570
    27 -0.032909 -1.480204 0.004940 -1.717245 0.000000 0.000002
    28 -0.027022 -1.076920 -0.020210 0.086279 0.000000 0.000000
    29 -0.249534 -2.846964 -0.174213 -0.128739 0.012411 0.088176
    30 0.043235 -1.683941 0.096012 -1.830969 0.002823 -0.000167
    31 0.031729 -1.160830 0.058838 -0.120888 0.000642 0.008372
    32 -0.963866 -2.785145 -0.085350 0.166925 0.160514 0.097512
    33 0.028479 -1.403067 0.006271 -0.938002 0.000000 0.000000
    34 0.021413 -0.957781 0.020046 -1.073956 0.000000 0.000000
    35 1.164475 -2.543940 -0.170330 -0.897677 -0.190582 0.231608
    36 0.024032 -1.129042 0.017807 -1.475660 0.000000 0.000001
    37 0.014898 -0.883989 -0.019848 0.358131 0.000000 0.000000
    38 -0.586770 -1.264477 0.200161 -0.064366 -0.174069 -2.405502
    39 1.522835 0.058681 0.016848 0.001410 0.008985 0.293269
    40 1.117947 0.048424 -0.005766 0.001267 -0.025174 0.005116
    41 -0.139399 -0.111698 0.014397 0.808210 0.214014 1.504550
    42 -8.620253 3.714021 -0.337092 1.580804 -0.005023 -0.510016
  time 15
    0 -0.999830 1.628925 3.537212 0.000000 0.000000 0.000000
    1 9.899353 2.632697 -17.289753 -1.607763 -0.969643 1.373874
    2 -0.071918 -8.498731 -0.104136 0.170831 0.335836 0.123937
    3 2.815887 -5.283122 1.386547 0.209716 0.049969 -1.630727
    4 1.270636 -0.389698 -0.017557 -1.570797 -1.570796 0.000000
    5 7.693083 -1.093857 0.000000 0.000001 0.000000 -1.570796
    6 -10.606746 -23.262611 -7.381293 0.212421 -0.141330 -0.489745
    7 1.257180 8.762585 -0.153713 -1.570562 0.002683 -1.566807
    8 -0.488518 -2.755602 -0.228260 -0.871614 -0.202562 -0.209541
    9 0.039887 -1.479790 0.029854 -1.516144 0.000000 0.000001
    10 0.028786 -1.075731 -0.023109 -1.298153 0.000000 0.000000
    11 0.250027 -2.820665 -0.238396 -0.797118 -0.167517 -0.114938
    12 -0.049759 -1.680544 0.100479 -1.644607 0.000000 -0.000002
    13 -0.034142 -1.148312 0.084782 -1.481002 0.000000 0.000000
    14 0.957766 -2.746780 -0.090302 -0.175885 -0.162684 0.097910
    15 -0.033420 -1.397129 -0.011257 -0.521018 0.000000 -0.000001
    16 -0.022360 -0.957436 0.018784 -0.975516 0.000000 0.000000
    17 -1.180681 -2.507217 -0.193859 -0.671429 -0.081516 -0.261329
    18 -0.024967 -1.123934 0.017597 -1.276708 0.000000 0.000001
    19 -0.020057 -0.890968 0.010090 -1.435733 0.000000 0.000000
    20 0.583510 -1.197277 0.185379 0.135458 -1.044822 -1.384612
    21 1.535927 0.010246 0.005009 -0.002964 -0.012979 -0.506650
    22 1.100771 0.004527 -0.010679 -0.015488 -0.004784 -1.694062
    23 0.120153 -0.050270 -0.054489 0.287569 3.110905 1.561085
    24 2.119929 -8.590737 -13.743890 -1.998174 -5.804737 -1.112775
    25 0.096944 -8.450418 -0.009365 0.573938 -0.939644 0.052368
    26 0.447953 -2.798986 -0.200443 -0.507443 -0.039938 0.202570
    27 -0.032909 -1.480204 0.004940 -1.717245 0.000000 0.000002
    28 -0.027022 -1.076920 -0.020210 0.086279 0.000000 0.000000
    29 -0.249534 -2.846964 -0.174213 -0.128739 0.012411 0.088176
    30 0.043235 -1.683941 0.096012 -1.830969 0.002823 -0.000167
    31 0.031729 -1.160830 0.058838 -0.120888 0.000642 0.008372
    32 -0.963866 -2.785145 -0.085350 0.166925 0.160514 0.097512
    33 0.028479 -1.403067 0.006271 -0.938002 0.000000 0.000000
    34 0.021413 -0.957781 0.020046 -1.073956 0.000000 0.000000
    35 1.164475 -2.543940 -0.170330 -0.897677 -0.190582 0.231608
    36 0.024032 -1.129042 0.017807 -1.475660 0.000000 0.000001
    37 0.014898 -0.883989 -0.019848 0.358131 0.000000 0.000000
    38 -0.586770 -1.264477 0.200161 -0.064366 -0.174069 -2.405502
    39 1.522835 0.058681 0.016848 0.001410 0.008985 0.293269
    40 1.117947 0.048424 -0.005766 0.001267 -0.025174 0.005116
    41 -0.139399 -0.111698 0.014397 0.808210 0.214014 1.504550
    42 -8.417122 3.858556 -0.333186 1.580804 -0.005023 -0.539624
  time 16
    0 -0.999830 1.628925 3.537212 0.000000 0.000000 0.000000
    1 9.770443 2.343626 -17.613982 -1.565234 -0.959051 1.320881
    2 -0.071918 -8.498731 -0.104136 0.169873 0.316409 0.121025
    3 2.815887 -5.283122 1.386547 0.209716 0.049969 -1.630727
    4 1.270636 -0.389698 -0.017557 -1.570797 -1.570796 0.000000
    5 9.376728 -1.093857 0.000000 0.000001 0.000000 -1.570796
    6 -8.870291 -24.235140 -6.436227 0.182840 -0.120705 -0.424805
    7 1.257180 8.762585 -0.153713 -1.570562 0.002683 -1.566807
    8 -0.488518 -2.755602 -0.228260 -0.871614 -0.202562 -0.209541
    9 0.039887 -1.479790 0.029854 -1.516144 0.000000 0.000001
    10 0.028786 -1.075731 -0.023109 -1.298153 0.000000 0.000000
    11 0.250027 -2.820665 -0.238396 -0.797118 -0.167517 -0.114938
    12 -0.049759 -1.680544 0.100479 -1.644607 0.000000 -0.000002
    13 -0.034142 -1.148312 0.084782 -1.481046 0.000000 0.000000
    14 0.957766 -2.746780 -0.090302 -0.175885 -0.162684 0.097910
    15 -0.033420 -1.397129 -0.011257 -0.521018 0.000000 -0.000001
    16 -0.022360 -0.957436 0.018784 -0.975516 0.000000 0.000000
    17 -1.180681 -2.507217 -0.193859 -0.671429 -0.081516 -0.261329
    18 -0.024967 -1.123934 0.017597 -1.276708 0.000000 0.000001
    19 -0.020057 -0.890968 0.010090 -1.435733 0.000000 0.000000
    20 0.583510 -1.197277 0.185379 0.135458 -1.044822 -1.384612
    21 1.535927 0.010246 0.005009 -0.002964 -0.012979 -0.506650
    22 1.100771 0.004527 -0.010679 -0.015488 -0.004784 -1.694062
    23 0.120153 -0.050270 -0.054489 0.287569 3.110905 1.561085
    24 2.549630 -8.305572 -12.931365 -1.853868 -5.674020 -1.135356
    25 0.096944 -8.450418 -0.009365 0.387801 -0.969000 0.043980
    26 0.447953 -2.798986 -0.200443 -0.507443 -0.039938 0.202570
    27 -0.032909 -1.480204 0.004940 -1.717245 0.000000 0.000002
    28 -0.027022 -1.076920 -0.020210 0.086279 0.000000 0.000000
    29 -0.249534 -2.846964 -0.174213 -0.128739 0.012411 0.088176
    30 0.043235 -1.683941 0.096012 -1.830969 0.002823 -0.000167
    31 0.031729 -1.160830 0.058838 -0.120888 0.000642 0.008372
    32 -0.963866 -2.785145 -0.085350 0.166925 0.160514 0.097512
    33 0.028479 -1.403067 0.006271 -0.938002 0.000000 0.000000
    34 0.021413 -0.957781 0.020046 -1.073956 0.000000 0.000000
    35 1.164475 -2.543940 -0.170330 -0.897677 -0.190582 0.231608
    36 0.024032 -1.129042 0.017807 -1.475660 0.000000 0.000001
    37 0.014898 -0.883989 -0.019848 0.358131 0.000000 0.000000
    38 -0.586770 -1.264477 0.200161 -0.064366 -0.174069 -2.405502
    39 1.522835 0.058681 0.016848 0.001410 0.008985 0.293269
    40 1.117947 0.048424 -0.005766 0.001267 -0.025174 0.005116
    41 -0.139399 -0.111698 0.014397 0.808210 0.214014 1.504550
    42 -7.866324 4.249193 -0.325373 1.580804 -0.005023 -0.619934
  time 17
    0 -0.999830 1.628925 3.537212 0.000000 0.000000 0.000000
    1 9.653252 1.913925 -17.992900 -1.521474 -0.942105 1.265530
    2 -0.071918 -8.498731 -0.104136 0.168998 0.297713 0.118088
    3 2.815887 -5.283122 1.386547 0.209716 0.049969 -1.630727
    4 1.883936 -0.389698 -0.017557 -1.570797 -1.570796 0.000000
    5 11.060373 -1.093857 0.000000 0.000001 0.000000 -1.570796
    6 -7.156098 -25.192708 -5.491162 0.153995 -0.100658 -0.360530
    7 1.257180 8.762585 -0.153713 -1.570562 0.002683 -1.566807
    8 -0.488518 -2.755602 -0.228260 -0.871614 -0.202562 -0.209541
    9 0.039887 -1.479790 0.029854 -1.516144 0.000000 0.000001
    10 0.028786 -1.075731 -0.023109 -1.298153 0.000000 0.000000
    11 0.250027 -2.820665 -0.238396 -0.797118 -0.167517 -0.114938
    12 -0.049759 -1.680544 0.100479 -1.644607 0.000000 -0.000002
    13 -0.034142 -1.148312 0.084782 -1.481002 0.000000 0.000000
    14 0.957766 -2.746780 -0.090302 -0.175885 -0.162684 0.097910
    15 -0.033420 -1.397129 -0.011257 -0.521018 0.000000 -0.000001
    16 -0.022360 -0.957436 0.018784 -0.975516 0.000000 0.000000
    17 -1.180681 -2.507217 -0.193859 -0.671429 -0.081516 -0.261329
    18 -0.024967 -1.123934 0.017597 -1.276708 0.000000 0.000001
    19 -0.020057 -0.890968 0.010090 -1.435733 0.000000 0.000000
    20 0.583510 -1.197277 0.185379 0.135458 -1.044822 -1.384612
    21 1.535927 0.010246 0.005009 -0.002964 -0.012979 -0.506650
    22 1.100771 0.004527 -0.010679 -0.015488 -0.004784 -1.694062
    23 0.120153 -0.050270 -0.054489 0.287569 3.110905 1.561085
    24 2.307435 -9.743116 -11.907897 -1.885106 -5.645301 -1.192422
    25 0.096944 -8.450418 -0.009365 0.358135 -0.974187 0.042949
    26 0.447953 -2.798986 -0.200443 -0.507443 -0.039938 0.202570
    27 -0.032909 -1.480204 0.004940 -1.717245 0.000000 0.000002
    28 -0.027022 -1.076920 -0.020210 0.086279 0.000000 0.000000
    29 -0.249534 -2.846964 -0.174213 -0.128739 0.012411 0.088176
    30 0.043235 -1.683941 0.096012 -1.830969 0.002823 -0.000167
    31 0.031729 -1.160830 0.058838 -0.120888 0.000642 0.008372
    32 -0.963866 -2.785145 -0.085350 0.166925 0.160514 0.097512
    33 0.028479 -1.403067 0.006271 -0.938002 0.000000 0.000000
    34 0.021413 -0.957781 0.020046 -1.073956 0.000000 0.000000
    35 1.164475 -2.543940 -0.170330 -0.897677 -0.190582 0.231608
    36 0.024032 -1.129042 0.017807 -1.475660 0.000000 0.000001
    37 0.014898 -0.883989 -0.019848 0.358131 0.000000 0.000000
    38 -0.586770 -1.264477 0.200161 -0.064366 -0.174069 -2.405502
    39 1.522835 0.058681 0.016848 0.001410 0.008985 0.293269
    40 1.117947 0.048424 -0.005766 0.001267 -0.025174 0.005116
    41 -0.139399 -0.111698 0.014397 0.808210 0.214014 1.504550
    42 -7.057705 4.823430 -0.313654 1.580804 -0.005023 -0.738302
  time 18
    0 -0.999830 1.628925 3.537212 0.000000 0.000000 0.000000
    1 9.555593 1.445161 -18.328847 -1.481751 -0.925649 1.214649
    2 -0.071918 -8.498731 -0.104136 0.168219 0.280155 0.115104
    3 2.815887 -5.283122 1.386547 0.209716 0.049969 -1.630727
    4 3.024595 -0.389698 -0.017557 -1.570797 -1.570796 0.000000
    5 11.822115 -1.093857 0.000000 0.000001 0.000000 -1.570796
    6 -5.486429 -26.120351 -4.562390 0.126288 -0.081611 -0.297934
    7 1.257180 8.762585 -0.153713 -1.570562 0.002683 -1.566807
    8 -0.488518 -2.755602 -0.228260 -0.871614 -0.202562 -0.209541
    9 0.039887 -1.479790 0.029854 -1.516144 0.000000 0.000001
    10 0.028786 -1.075731 -0.023109 -1.298153 0.000000 0.000000
    11 0.250027 -2.820665 -0.238396 -0.797118 -0.167517 -0.114938
    12 -0.049759 -1.680544 0.100479 -1.644607 0.000000 -0.000002
    13 -0.034142 -1.148312 0.084782 -1.481046 0.000000 0.000000
    14 0.957766 -2.746780 -0.090302 -0.175885 -0.162684 0.097910
    15 -0.033420 -1.397129 -0.011257 -0.521018 0.000000 -0.000001
    16 -0.022360 -0.957436 0.018784 -0.975516 0.000000 0.000000
    17 -1.180681 -2.507217 -0.193859 -0.671429 -0.081516 -0.261329
    18 -0.024967 -1.123934 0.017597 -1.276708 0.000000 0.000001
    19 -0.020057 -0.890968 0.010090 -1.435733 0.000000 0.000000
    20 0.583510 -1.197277 0.185379 0.135458 -1.044822 -1.384612
    21 1.535927 0.010246 0.005009 -0.002964 -0.012979 -0.506650
    22 1.100771 0.004527 -0.010679 -0.015488 -0.004784 -1.694062
    23 0.120153 -0.050270 -0.054489 0.287569 3.110905 1.561085
    24 2.026176 -10.614237 -11.329754 -1.936222 -5.626938 -1.257235
    25 0.096944 -8.450418 -0.009365 0.345169 -0.977663 0.041403
    26 0.447953 -2.798986 -0.200443 -0.507443 -0.039938 0.202570
    27 -0.032909 -1.480204 0.004940 -1.717245 0.000000 0.000002
    28 -0.027022 -1.076920 -0.020210 0.086279 0.000000 0.000000
    29 -0.249534 -2.846964 -0.174213 -0.128739 0.012411 0.088176
    30 0.043235 -1.683941 0.096012 -1.830969 0.002823 -0.000167
    31 0.031729 -1.160830 0.058838 -0.120888 0.000642 0.008372
    32 -0.963866 -2.785145 -0.085350 0.166925 0.160514 0.097512
    33 0.028479 -1.403067 0.006271 -0.938002 0.000000 0.000000
    34 0.021413 -0.957781 0.020046 -1.073956 0.000000 0.000000
    35 1.164475 -2.543940 -0.170330 -0.897677 -0.190582 0.231608
    36 0.024032 -1.129042 0.017807 -1.475660 0.000000 0.000001
    37 0.014898 -0.883989 -0.019848 0.358131 0.000000 0.000000
    38 -0.586770 -1.264477 0.200161 -0.064366 -0.174069 -2.405502
    39 1.522835 0.058681 0.016848 0.001410 0.008985 0.293269
    40 1.117947 0.048424 -0.005766 0.001267 -0.025174 0.005116
    41 -0.139399 -0.111698 0.014397 0.808210 0.214014 1.504550
    42 -6.073300 5.518763 -0.301935 1.580804 -0.005023 -0.882021
  time 19
    0 -0.999830 1.628925 3.537212 0.000000 0.000000 0.000000
    1 9.473559 1.038899 -18.520259 -1.448772 -0.916944 1.172755
    2 -0.071918 -8.498731 -0.104136 0.167524 0.264120 0.112060
    3 2.815887 -5.283122 1.386547 0.209716 0.049969 -1.630727
    4 3.633989 -0.389698 -0.017557 -1.570797 -1.570796 0.000000
    5 11.822115 -1.093857 0.000000 0.000001 0.000000 -1.570796
    6 -3.905809 -26.988147 -3.649913 0.100321 -0.063973 -0.238191
    7 1.257180 8.762585 -0.153713 -1.570562 0.002683 -1.566807
    8 -0.488518 -2.755602 -0.228260 -0.871614 -0.202562 -0.209541
    9 0.039887 -1.479790 0.029854 -1.516144 0.000000 0.000001
    10 0.028786 -1.075731 -0.023109 -1.298153 0.000000 0.000000
    11 0.250027 -2.820665 -0.238396 -0.797118 -0.167517 -0.114938
    12 -0.049759 -1.680544 0.100479 -1.644607 0.000000 -0.000002
    13 -0.034142 -1.148312 0.084782 -1.481002 0.000000 0.000000
    14 0.957766 -2.746780 -0.090302 -0.175885 -0.162684 0.097910
    15 -0.033420 -1.397129 -0.011257 -0.521018 0.000000 -0.000001
    16 -0.022360 -0.957436 0.018784 -0.975516 0.000000 0.000000
    17 -1.180681 -2.507217 -0.193859 -0.671429 -0.081516 -0.261329
    18 -0.024967 -1.123934 0.017597 -1.276708 0.000000 0.000001
    19 -0.020057 -0.890968 0.010090 -1.435733 0.000000 0.000000
    20 0.583510 -1.197277 0.185379 0.135458 -1.044822 -1.384612
    21 1.535927 0.010246 0.005009 -0.002964 -0.012979 -0.506650
    22 1.100771 0.004527 -0.010679 -0.015488 -0.004784 -1.694062
    23 0.120153 -0.050270 -0.054489 0.287569 3.110905 1.561085
    24 1.717573 -10.973623 -11.138342 -1.994362 -5.613710 -1.320443
    25 0.096944 -8.450418 -0.009365 0.344858 -0.979484 0.039622
    26 0.447953 -2.798986 -0.200443 -0.507443 -0.039938 0.202570
    27 -0.032909 -1.480204 0.004940 -1.717245 0.000000 0.000002
    28 -0.027022 -1.076920 -0.020210 0.086279 0.000000 0.000000
    29 -0.249534 -2.846964 -0.174213 -0.128739 0.012411 0.088176
    30 0.043235 -1.683941 0.096012 -1.830969 0.002823 -0.000167
    31 0.031729 -1.160830 0.058838 -0.120888 0.000642 0.008372
    32 -0.963866 -2.785145 -0.085350 0.166925 0.160514 0.097512
    33 0.028479 -1.403067 0.006271 -0.938002 0.000000 0.000000
    34 0.021413 -0.957781 0.020046 -1.073956 0.000000 0.000000
    35 1.164475 -2.543940 -0.170330 -0.897677 -0.190582 0.231608
    36 0.024032 -1.129042 0.017807 -1.475660 0.000000 0.000001
    37 0.014898 -0.883989 -0.019848 0.358131 0.000000 0.000000
    38 -0.586770 -1.264477 0.200161 -0.064366 -0.174069 -2.405502
    39 1.522835 0.058681 0.016848 0.001410 0.008985 0.293269
    40 1.117947 0.048424 -0.005766 0.001267 -0.025174 0.005116
    41 -0.139399 -0.111698 0.014397 0.808210 0.214014 1.504550
    42 -5.006862 6.276599 -0.286309 1.580804 -0.005023 -1.038448
  time 20
    0 -0.999830 1.628925 3.537212 0.000000 0.000000 0.000000
    1 9.407151 0.796704 -18.457758 -1.423865 -0.923557 1.142796
    2 -0.071918 -8.498731 -0.104136 0.166924 0.250002 0.108980
    3 2.815887 -5.283122 1.386547 0.209716 0.049969 -1.630727
    4 3.633989 -0.389698 -0.017557 -1.570797 -1.570796 0.000000
    5 11.822115 -1.093857 0.000000 0.000001 0.000000 -1.570796
    6 -2.458763 -27.796094 -2.802613 0.076362 -0.048068 -0.182394
    7 1.257180 8.762585 -0.153713 -1.570562 0.002683 -1.566807
    8 -0.488518 -2.755602 -0.228260 -0.871614 -0.202562 -0.209541
    9 0.039887 -1.479790 0.029854 -1.516144 0.000000 0.000001
    10 0.028786 -1.075731 -0.023109 -1.298153 0.000000 0.000000
    11 0.250027 -2.820665 -0.238396 -0.797118 -0.167517 -0.114938
    12 -0.049759 -1.680544 0.100479 -1.644607 0.000000 -0.000002
    13 -0.034142 -1.148312 0.084782 -1.481046 0.000000 0.000000
    14 0.957766 -2.746780 -0.090302 -0.175885 -0.162684 0.097910
    15 -0.033420 -1.397129 -0.011257 -0.521018 0.000000 -0.000001
    16 -0.022360 -0.957436 0.018784 -0.975516 0.000000 0.000000
    17 -1.180681 -2.507217 -0.193859 -0.671429 -0.081516 -0.261329
    18 -0.024967 -1.123934 0.017597 -1.276708 0.000000 0.000001
    19 -0.020057 -0.890968 0.010090 -1.435733 0.000000 0.000000
    20 0.583510 -1.197277 0.185379 0.135458 -1.044822 -1.384612
    21 1.535927 0.010246 0.005009 -0.002964 -0.012979 -0.506650
    22 1.100771 0.004527 -0.010679 -0.015488 -0.004784 -1.694062
    23 0.120153 -0.050270 -0.054489 0.287569 3.110905 1.561085
    24 1.369906 -11.387698 -10.915679 -2.047346 -5.598392 -1.372501
    25 0.096944 -8.450418 -0.009365 0.353156 -0.979760 0.038075
    26 0.447953 -2.798986 -0.200443 -0.507443 -0.039938 0.202570
    27 -0.032909 -1.480204 0.004940 -1.717245 0.000000 0.000002
    28 -0.027022 -1.076920 -0.020210 0.086279 0.000000 0.000000
    29 -0.249534 -2.846964 -0.174213 -0.128739 0.012411 0.088176
    30 0.043235 -1.683941 0.096012 -1.830969 0.002823 -0.000167
    31 0.031729 -1.160830 0.058838 -0.120888 0.000642 0.008372
    32 -0.963866 -2.785145 -0.085350 0.166925 0.160514 0.097512
    33 0.028479 -1.403067 0.006271 -0.938002 0.000000 0.000000
    34 0.021413 -0.957781 0.020046 -1.073956 0.000000 0.000000
    35 1.164475 -2.543940 -0.170330 -0.897677 -0.190582 0.231608
    36 0.024032 -1.129042 0.017807 -1.475660 0.000000 0.000001
    37 0.014898 -0.883989 -0.019848 0.358131 0.000000 0.000000
    38 -0.586770 -1.264477 0.200161 -0.064366 -0.174069 -2.405502
    39 1.522835 0.058681 0.016848 0.001410 0.008985 0.293269
    40 1.117947 0.048424 -0.005766 0.001267 -0.025174 0.005116
    41 -0.139399 -0.111698 0.014397 0.808210 0.214014 1.504550
    42 -3.936516 7.038341 -0.270684 1.580804 -0.005023 -1.194874
  time 21
    0 -0.999830 1.628925 3.537212 0.000000 0.000000 0.000000
    1 9.360274 0.827955 -18.047589 -1.408507 -0.953110 1.127915
    2 -0.071918 -8.498731 -0.104136 0.166421 0.238209 0.105816
    3 2.815887 -5.283122 1.386547 0.209716 0.049969 -1.630727
    4 3.633989 -0.389698 -0.017557 -1.570797 -1.570796 0.000000
    5 11.822115 -1.093857 0.000000 0.000001 0.000000 -1.570796
    6 -1.123028 -28.529232 -2.036784 0.054946 -0.034121 -0.131833
    7 1.257180 8.762585 -0.153713 -1.570562 0.002683 -1.566807
    8 -0.488518 -2.755602 -0.228260 -0.871614 -0.202562 -0.209541
    9 0.039887 -1.479790 0.029854 -1.516144 0.000000 0.000001
    10 0.028786 -1.075731 -0.023109 -1.298153 0.000000 0.000000
    11 0.250027 -2.820665 -0.238396 -0.797118 -0.167517 -0.114938
    12 -0.049759 -1.680544 0.100479 -1.644607 0.000000 -0.000002
    13 -0.034142 -1.148312 0.084782 -1.481046 0.000000 0.000000
    14 0.957766 -2.746780 -0.090302 -0.175885 -0.162684 0.097910
    15 -0.033420 -1.397129 -0.011257 -0.521018 0.000000 -0.000001
    16 -0.022360 -0.957436 0.018784 -0.975516 0.000000 0.000000
    17 -1.180681 -2.507217 -0.193859 -0.671429 -0.081516 -0.261329
    18 -0.024967 -1.123934 0.017597 -1.276708 0.000000 0.000001
    19 -0.020057 -0.890968 0.010090 -1.435733 0.000000 0.000000
    20 0.583510 -1.197277 0.185379 0.135458 -1.044822 -1.384612
    21 1.535927 0.010246 0.005009 -0.002964 -0.012979 -0.506650
    22 1.100771 0.004527 -0.010679 -0.015488 -0.004784 -1.694062
    23 0.120153 -0.050270 -0.054489 0.287569 3.110905 1.561085
    24 0.994895 -11.782241 -10.693016 -2.083815 -5.572371 -1.404530
    25 0.096944 -8.450418 -0.009365 0.365759 -0.978711 0.037232
    26 0.447953 -2.798986 -0.200443 -0.507443 -0.039938 0.202570
    27 -0.032909 -1.480204 0.004940 -1.717245 0.000000 0.000002
    28 -0.027022 -1.076920 -0.020210 0.086279 0.000000 0.000000
    29 -0.249534 -2.846964 -0.174213 -0.128739 0.012411 0.088176
    30 0.043235 -1.683941 0.096012 -1.830969 0.002823 -0.000167
    31 0.031729 -1.160830 0.058838 -0.120888 0.000642 0.008372
    32 -0.963866 -2.785145 -0.085350 0.166925 0.160514 0.097512
    33 0.028479 -1.403067 0.006271 -0.938002 0.000000 0.000000
    34 0.021413 -0.957781 0.020046 -1.073956 0.000000 0.000000
    35 1.164475 -2.543940 -0.170330 -0.897677 -0.190582 0.231608
    36 0.024032 -1.129042 0.017807 -1.475660 0.000000 0.000001
    37 0.014898 -0.883989 -0.019848 0.358131 0.000000 0.000000
    38 -0.586770 -1.264477 0.200161 -0.064366 -0.174069 -2.405502
    39 1.522835 0.058681 0.016848 0.001410 0.008985 0.293269
    40 1.117947 0.048424 -0.005766 0.001267 -0.025174 0.005116
    41 -0.139399 -0.111698 0.014397 0.808210 0.214014 1.504550
    42 -2.952111 7.733675 -0.258965 1.580804 -0.005023 -1.338593
  time 22
    0 -0.999830 1.628925 3.537212 0.000000 0.000000 0.000000
    1 9.344649 1.195153 -17.172562 -1.407178 -1.013326 1.134349
    2 -0.071918 -8.498731 -0.104136 0.166062 0.231378 0.101346
    3 2.815887 -5.283122 1.386547 0.209716 0.049969 -1.630727
    4 3.633989 -0.389698 -0.017557 -1.570797 -1.570796 0.000000
    5 11.822115 -1.093857 0.000000 0.000001 0.000000 -1.570796
    6 0.034609 -29.142673 -1.352426 0.036408 -0.022329 -0.087641
    7 1.257180 8.762585 -0.153713 -1.570562 0.002683 -1.566807
    8 -0.488518 -2.755602 -0.228260 -0.871614 -0.202562 -0.209541
    9 0.039887 -1.479790 0.029854 -1.516144 0.000000 0.000001
    10 0.028786 -1.075731 -0.023109 -1.298153 0.000000 0.000000
    11 0.250027 -2.820665 -0.238396 -0.797118 -0.167517 -0.114938
    12 -0.049759 -1.680544 0.100479 -1.644607 0.000000 -0.000002
    13 -0.034142 -1.148312 0.084782 -1.481046 0.000000 0.000000
    14 0.957766 -2.746780 -0.090302 -0.175885 -0.162684 0.097910
    15 -0.033420 -1.397129 -0.011257 -0.521018 0.000000 -0.000001
    16 -0.022360 -0.957436 0.018784 -0.975516 0.000000 0.000000
    17 -1.180681 -2.507217 -0.193859 -0.671429 -0.081516 -0.261329
    18 -0.024967 -1.123934 0.017597 -1.276708 0.000000 0.000001
    19 -0.020057 -0.890968 0.010090 -1.435733 0.000000 0.000000
    20 0.583510 -1.197277 0.185379 0.135458 -1.044822 -1.384612
    21 1.535927 0.010246 0.005009 -0.002964 -0.012979 -0.506650
    22 1.100771 0.004527 -0.010679 -0.015488 -0.004784 -1.694062
    23 0.120153 -0.050270 -0.054489 0.287569 3.110905 1.561085
    24 0.623790 -12.106470 -10.532855 -2.092185 -5.525027 -1.408120
    25 0.096944 -8.450418 -0.009365 0.378517 -0.976449 0.037607
    26 0.447953 -2.798986 -0.200443 -0.507443 -0.039938 0.202570
    27 -0.032909 -1.480204 0.004940 -1.717245 0.000000 0.000002
    28 -0.027022 -1.076920 -0.020210 0.086279 0.000000 0.000000
    29 -0.249534 -2.846964 -0.174213 -0.128739 0.012411 0.088176
    30 0.043235 -1.683941 0.096012 -1.830969 0.002823 -0.000167
    31 0.031729 -1.160830 0.058838 -0.120888 0.000642 0.008372
    32 -0.963866 -2.785145 -0.085350 0.166925 0.160514 0.097512
    33 0.028479 -1.403067 0.006271 -0.938002 0.000000 0.000000
    34 0.021413 -0.957781 0.020046 -1.073956 0.000000 0.000000
    35 1.164475 -2.543940 -0.170330 -0.897677 -0.190582 0.231608
    36 0.024032 -1.129042 0.017807 -1.475660 0.000000 0.000001
    37 0.014898 -0.883989 -0.019848 0.358131 0.000000 0.000000
    38 -0.586770 -1.264477 0.200161 -0.064366 -0.174069 -2.405502
    39 1.522835 0.058681 0.016848 0.001410 0.008985 0.293269
    40 1.117947 0.048424 -0.005766 0.001267 -0.025174 0.005116
    41 -0.139399 -0.111698 0.014397 0.808210 0.214014 1.504550
    42 -2.143493 8.307911 -0.247246 1.580804 -0.005023 -1.456961
  time 23
    0 -0.999830 1.628925 3.537212 0.000000 0.000000 0.000000
    1 9.356368 1.835798 -15.895179 -1.424455 -1.099892 1.165536
    2 -0.071918 -8.498731 -0.104136 0.165882 0.230455 0.095078
    3 2.815887 -5.283122 1.386547 0.209716 0.049969 -1.630727
    4 3.633989 -0.389698 -0.017557 -1.570797 -1.570796 0.000000
    5 11.822115 -1.093857 0.000000 0.000001 0.000000 -1.570796
    6 0.969623 -29.666343 -0.782128 0.021149 -0.012862 -0.051147
    7 1.257180 8.762585 -0.153713 -1.570562 0.002683 -1.566807
    8 -0.488518 -2.755602 -0.228260 -0.871614 -0.202562 -0.209541
    9 0.039887 -1.479790 0.029854 -1.516144 0.000000 0.000001
    10 0.028786 -1.075731 -0.023109 -1.298153 0.000000 0.000000
    11 0.250027 -2.820665 -0.238396 -0.797118 -0.167517 -0.114938
    12 -0.049759 -1.680544 0.100479 -1.644607 0.000000 -0.000002
    13 -0.034142 -1.148312 0.084782 -1.481046 0.000000 0.000000
    14 0.957766 -2.746780 -0.090302 -0.175885 -0.162684 0.097910
    15 -0.033420 -1.397129 -0.011257 -0.521018 0.000000 -0.000001
    16 -0.022360 -0.957436 0.018784 -0.975516 0.000000 0.000000
    17 -1.180681 -2.507217 -0.193859 -0.671429 -0.081516 -0.261329
    18 -0.024967 -1.123934 0.017597 -1.276708 0.000000 0.000001
    19 -0.020057 -0.890968 0.010090 -1.435733 0.000000 0.000000
    20 0.583510 -1.197277 0.185379 0.135458 -1.044822 -1.384612
    21 1.535927 0.010246 0.005009 -0.002964 -0.012979 -0.506650
    22 1.100771 0.004527 -0.010679 -0.015488 -0.004784 -1.694062
    23 0.120153 -0.050270 -0.054489 0.287569 3.110905 1.561085
    24 0.330812 -12.297882 -10.501604 -2.068719 -5.455840 -1.380910
    25 0.096944 -8.450418 -0.009365 0.387230 -0.973138 0.039762
    26 0.447953 -2.798986 -0.200443 -0.507443 -0.039938 0.202570
    27 -0.032909 -1.480204 0.004940 -1.717245 0.000000 0.000002
    28 -0.027022 -1.076920 -0.020210 0.086279 0.000000 0.000000
    29 -0.249534 -2.846964 -0.174213 -0.128739 0.012411 0.088176
    30 0.043235 -1.683941 0.096012 -1.830969 0.002823 -0.000167
    31 0.031729 -1.160830 0.058838 -0.120888 0.000642 0.008372
    32 -0.963866 -2.785145 -0.085350 0.166925 0.160514 0.097512
    33 0.028479 -1.403067 0.006271 -0.938002 0.000000 0.000000
    34 0.021413 -0.957781 0.020046 -1.073956 0.000000 0.000000
    35 1.164475 -2.543940 -0.170330 -0.897677 -0.190582 0.231608
    36 0.024032 -1.129042 0.017807 -1.475660 0.000000 0.000001
    37 0.014898 -0.883989 -0.019848 0.358131 0.000000 0.000000
    38 -0.586770 -1.264477 0.200161 -0.064366 -0.174069 -2.405502
    39 1.522835 0.058681 0.016848 0.001410 0.008985 0.293269
    40 1.117947 0.048424 -0.005766 0.001267 -0.025174 0.005116
    41 -0.139399 -0.111698 0.014397 0.808210 0.214014 1.504550
    42 -1.592695 8.698548 -0.239433 1.580804 -0.005023 -1.537271
  time 24
    0 -0.999830 1.628925 3.537212 0.000000 0.000000 0.000000
    1 9.383713 2.640510 -14.367789 -1.468855 -1.201881 1.227222
    2 -0.071918 -8.498731 -0.104136 0.165786 0.233391 0.088163
    3 2.815887 -5.283122 1.386547 0.209716 0.049969 -1.630727
    4 3.633989 -0.389698 -0.017557 -1.570797 -1.570796 0.000000
    5 11.822115 -1.093857 0.000000 0.000001 0.000000 -1.570796
    6 1.682015 -30.055355 -0.358478 0.009705 -0.005875 -0.023522
    7 1.257180 8.762585 -0.153713 -1.570562 0.002683 -1.566807
    8 -0.488518 -2.755602 -0.228260 -0.871614 -0.202562 -0.209541
    9 0.039887 -1.479790 0.029854 -1.516144 0.000000 0.000001
    10 0.028786 -1.075731 -0.023109 -1.298153 0.000000 0.000000
    11 0.250027 -2.820665 -0.238396 -0.797118 -0.167517 -0.114938
    12 -0.049759 -1.680544 0.100479 -1.644607 0.000000 -0.000002
    13 -0.034142 -1.148312 0.084782 -1.481002 0.000000 0.000000
    14 0.957766 -2.746780 -0.090302 -0.175885 -0.162684 0.097910
    15 -0.033420 -1.397129 -0.011257 -0.521018 0.000000 -0.000001
    16 -0.022360 -0.957436 0.018784 -0.975516 0.000000 0.000000
    17 -1.180681 -2.507217 -0.193859 -0.671429 -0.081516 -0.261329
    18 -0.024967 -1.123934 0.017597 -1.276708 0.000000 0.000001
    19 -0.020057 -0.890968 0.010090 -1.435733 0.000000 0.000000
    20 0.583510 -1.197277 0.185379 0.135458 -1.044822 -1.384612
    21 1.535927 0.010246 0.005009 -0.002964 -0.012979 -0.506650
    22 1.100771 0.004527 -0.010679 -0.015488 -0.004784 -1.694062
    23 0.120153 -0.050270 -0.054489 0.287569 3.110905 1.561085
    24 0.182370 -12.290069 -10.610982 -2.009906 -5.371857 -1.319687
    25 0.096944 -8.450418 -0.009365 0.387801 -0.969000 0.043980
    26 0.447953 -2.798986 -0.200443 -0.507443 -0.039938 0.202570
    27 -0.032909 -1.480204 0.004940 -1.717245 0.000000 0.000002
    28 -0.027022 -1.076920 -0.020210 0.086279 0.000000 0.000000
    29 -0.249534 -2.846964 -0.174213 -0.128739 0.012411 0.088176
    30 0.043235 -1.683941 0.096012 -1.830969 0.002823 -0.000167
    31 0.031729 -1.160830 0.058838 -0.120888 0.000642 0.008372
    32 -0.963866 -2.785145 -0.085350 0.166925 0.160514 0.097512
    33 0.028479 -1.403067 0.006271 -0.938002 0.000000 0.000000
    34 0.021413 -0.957781 0.020046 -1.073956 0.000000 0.000000
    35 1.164475 -2.543940 -0.170330 -0.897677 -0.190582 0.231608
    36 0.024032 -1.129042 0.017807 -1.475660 0.000000 0.000001
    37 0.014898 -0.883989 -0.019848 0.358131 0.000000 0.000000
    38 -0.586770 -1.264477 0.200161 -0.064366 -0.174069 -2.405502
    39 1.522835 0.058681 0.016848 0.001410 0.008985 0.293269
    40 1.117947 0.048424 -0.005766 0.001267 -0.025174 0.005116
    41 -0.139399 -0.111698 0.014397 0.808210 0.214014 1.504550
    42 -1.393470 8.839177 -0.239433 1.580804 -0.005023 -1.566847
  time 25
    0 -0.999830 1.628925 3.537212 0.000000 0.000000 0.000000
    1 9.422776 3.507724 -12.742739 -1.562281 -1.307641 1.338856
    2 -0.071918 -8.498731 -0.104136 0.165714 0.238065 0.081763
    3 2.815887 -5.283122 1.386547 0.209716 0.049969 -1.630727
    4 3.633989 -0.389698 -0.017557 -1.570797 -1.570796 0.000000
    5 11.822115 -1.093857 0.000000 0.000001 0.000000 -1.570796
    6 2.127260 -30.294746 -0.081476 0.002477 -0.001507 -0.006056
    7 1.257180 8.762585 -0.153713 -1.570562 0.002683 -1.566807
    8 -0.488518 -2.755602 -0.228260 -0.871614 -0.202562 -0.209541
    9 0.039887 -1.479790 0.029854 -1.516144 0.000000 0.000001
    10 0.028786 -1.075731 -0.023109 -1.298153 0.000000 0.000000
    11 0.250027 -2.820665 -0.238396 -0.797118 -0.167517 -0.114938
    12 -0.049759 -1.680544 0.100479 -1.644607 0.000000 -0.000002
    13 -0.034142 -1.148312 0.084782 -1.481002 0.000000 0.000000
    14 0.957766 -2.746780 -0.090302 -0.175885 -0.162684 0.097910
    15 -0.033420 -1.397129 -0.011257 -0.521018 0.000000 -0.000001
    16 -0.022360 -0.957436 0.018784 -0.975516 0.000000 0.000000
    17 -1.180681 -2.507217 -0.193859 -0.671429 -0.081516 -0.261329
    18 -0.024967 -1.123934 0.017597 -1.276708 0.000000 0.000001
    19 -0.020057 -0.890968 0.010090 -1.435733 0.000000 0.000000
    20 0.583510 -1.197277 0.185379 0.135458 -1.044822 -1.384612
    21 1.535927 0.010246 0.005009 -0.002964 -0.012979 -0.506650
    22 1.100771 0.004527 -0.010679 -0.015488 -0.004784 -1.694062
    23 0.120153 -0.050270 -0.054489 0.287569 3.110905 1.561085
    24 0.272216 -12.145533 -10.900053 -1.892953 -5.290920 -1.195540
    25 0.096944 -8.450418 -0.009365 0.375094 -0.956640 0.058273
    26 0.447953 -2.798986 -0.200443 -0.507443 -0.039938 0.202570
    27 -0.032909 -1.480204 0.004940 -1.717245 0.000000 0.000002
    28 -0.027022 -1.076920 -0.020210 0.086279 0.000000 0.000000
    29 -0.249534 -2.846964 -0.174213 -0.128739 0.012411 0.088176
    30 0.043235 -1.683941 0.096012 -1.830969 0.002823 -0.000167
    31 0.031729 -1.160830 0.058838 -0.120888 0.000642 0.008372
    32 -0.963866 -2.785145 -0.085350 0.166925 0.160514 0.097512
    33 0.028479 -1.403067 0.006271 -0.938002 0.000000 0.000000
    34 0.021413 -0.957781 0.020046 -1.073956 0.000000 0.000000
    35 1.164475 -2.543940 -0.170330 -0.897677 -0.190582 0.231608
    36 0.024032 -1.129042 0.017807 -1.475660 0.000000 0.000001
    37 0.014898 -0.883989 -0.019848 0.358131 0.000000 0.000000
    38 -0.586770 -1.264477 0.200161 -0.064366 -0.174069 -2.405502
    39 1.522835 0.058681 0.016848 0.001410 0.008985 0.293269
    40 1.117947 0.048424 -0.005766 0.001267 -0.025174 0.005116
    41 -0.139399 -0.111698 0.014397 0.808210 0.214014 1.504550
    42 -1.393470 8.839177 -0.239433 1.580804 -0.005023 -1.566847
  time 26
    0 -0.999830 1.628925 3.537212 0.000000 0.000000 0.000000
    1 9.457934 4.335874 -11.176285 -1.762029 -1.404075 1.555250
    2 -0.071918 -8.498731 -0.104136 0.165678 0.242416 0.077065
    3 2.815887 -5.283122 1.386547 0.209716 0.049969 -1.630727
    4 3.633989 -0.389698 -0.017557 -1.570797 -1.570796 0.000000
    5 11.822115 -1.093857 0.000000 0.000001 0.000000 -1.570796
    6 2.283096 -30.369556 -0.000005 0.000001 0.000000 0.000000
    7 1.257180 8.762585 -0.153713 -1.570562 0.002683 -1.566807
    8 -0.488518 -2.755602 -0.228260 -0.871614 -0.202562 -0.209541
    9 0.039887 -1.479790 0.029854 -1.516144 0.000000 0.000001
    10 0.028786 -1.075731 -0.023109 -1.298153 0.000000 0.000000
    11 0.250027 -2.820665 -0.238396 -0.797118 -0.167517 -0.114938
    12 -0.049759 -1.680544 0.100479 -1.644607 0.000000 -0.000002
    13 -0.034142 -1.148312 0.084782 -1.481002 0.000000 0.000000
    14 0.957766 -2.746780 -0.090302 -0.175885 -0.162684 0.097910
    15 -0.033420 -1.397129 -0.011257 -0.521018 0.000000 -0.000001
    16 -0.022360 -0.957436 0.018784 -0.975516 0.000000 0.000000
    17 -1.180681 -2.507217 -0.193859 -0.671429 -0.081516 -0.261329
    18 -0.024967 -1.123934 0.017597 -1.276708 0.000000 0.000001
    19 -0.020057 -0.890968 0.010090 -1.435733 0.000000 0.000000
    20 0.583510 -1.197277 0.185379 0.135458 -1.044822 -1.384612
    21 1.535927 0.010246 0.005009 -0.002964 -0.012979 -0.506650
    22 1.100771 0.004527 -0.010679 -0.015488 -0.004784 -1.694062
    23 0.120153 -0.050270 -0.054489 0.287569 3.110905 1.561085
    24 0.569100 -11.907245 -11.321941 -1.718531 -5.233742 -1.009319
    25 0.096944 -8.450418 -0.009365 0.355075 -0.935947 0.080907
    26 0.447953 -2.798986 -0.200443 -0.507443 -0.039938 0.202570
    27 -0.032909 -1.480204 0.004940 -1.717245 0.000000 0.000002
    28 -0.027022 -1.076920 -0.020210 0.086279 0.000000 0.000000
    29 -0.249534 -2.846964 -0.174213 -0.128739 0.012411 0.088176
    30 0.043235 -1.683941 0.096012 -1.830969 0.002823 -0.000167
    31 0.031729 -1.160830 0.058838 -0.120888 0.000642 0.008372
    32 -0.963866 -2.785145 -0.085350 0.166925 0.160514 0.097512
    33 0.028479 -1.403067 0.006271 -0.938002 0.000000 0.000000
    34 0.021413 -0.957781 0.020046 -1.073956 0.000000 0.000000
    35 1.164475 -2.543940 -0.170330 -0.897677 -0.190582 0.231608
    36 0.024032 -1.129042 0.017807 -1.475660 0.000000 0.000001
    37 0.014898 -0.883989 -0.019848 0.358131 0.000000 0.000000
    38 -0.586770 -1.264477 0.200161 -0.064366 -0.174069 -2.405502
    39 1.522835 0.058681 0.016848 0.001410 0.008985 0.293269
    40 1.117947 0.048424 -0.005766 0.001267 -0.025174 0.005116
    41 -0.139399 -0.111698 0.014397 0.808210 0.214014 1.504550
    42 -1.393470 8.839177 -0.239433 1.580804 -0.005023 -1.566847
  time 27
    0 -0.999830 1.628925 3.537212 0.000000 0.000000 0.000000
    1 9.481372 5.023395 -9.820775 0.929898 -1.667804 -1.123734
    2 -0.071918 -8.498731 -0.104136 0.165654 0.244321 0.075243
    3 2.815887 -5.283122 1.386547 0.209716 0.049969 -1.630727
    4 3.633989 -0.389698 -0.017557 -1.570797 -1.570796 0.000000
    5 11.822115 -1.093857 0.000000 0.000001 0.000000 -1.570796
    6 2.283096 -30.369556 -0.000005 0.000001 0.000000 0.000000
    7 1.257180 8.762585 -0.153713 -1.570562 0.002683 -1.566807
    8 -0.488518 -2.755602 -0.228260 -0.871614 -0.202562 -0.209541
    9 0.039887 -1.479790 0.029854 -1.516144 0.000000 0.000001
    10 0.028786 -1.075731 -0.023109 -1.298153 0.000000 0.000000
    11 0.250027 -2.820665 -0.238396 -0.797118 -0.167517 -0.114938
    12 -0.049759 -1.680544 0.100479 -1.644607 0.000000 -0.000002
    13 -0.034142 -1.148312 0.084782 -1.481002 0.000000 0.000000
    14 0.957766 -2.746780 -0.090302 -0.175885 -0.162684 0.097910
    15 -0.033420 -1.397129 -0.011257 -0.521018 0.000000 -0.000001
    16 -0.022360 -0.957436 0.018784 -0.975516 0.000000 0.000000
    17 -1.180681 -2.507217 -0.193859 -0.671429 -0.081516 -0.261329
    18 -0.024967 -1.123934 0.017597 -1.276708 0.000000 0.000001
    19 -0.020057 -0.890968 0.010090 -1.435733 0.000000 0.000000
    20 0.583510 -1.197277 0.185379 0.135458 -1.044822 -1.384612
    21 1.535927 0.010246 0.005009 -0.002964 -0.012979 -0.506650
    22 1.100771 0.004527 -0.010679 -0.015488 -0.004784 -1.694062
    23 0.120153 -0.050270 -0.054489 0.287569 3.110905 1.561085
    24 0.901142 -11.559578 -11.708672 -1.542914 -5.200933 -0.824894
    25 0.096944 -8.450418 -0.009365 0.338894 -0.917848 0.099371
    26 0.447953 -2.798986 -0.200443 -0.507443 -0.039938 0.202570
    27 -0.032909 -1.480204 0.004940 -1.717245 0.000000 0.000002
    28 -0.027022 -1.076920 -0.020210 0.086279 0.000000 0.000000
    29 -0.249534 -2.846964 -0.174213 -0.128739 0.012411 0.088176
    30 0.043235 -1.683941 0.096012 -1.830969 0.002823 -0.000167
    31 0.031729 -1.160830 0.058838 -0.120888 0.000642 0.008372
    32 -0.963866 -2.785145 -0.085350 0.166925 0.160514 0.097512
    33 0.028479 -1.403067 0.006271 -0.938002 0.000000 0.000000
    34 0.021413 -0.957781 0.020046 -1.073956 0.000000 0.000000
    35 1.164475 -2.543940 -0.170330 -0.897677 -0.190582 0.231608
    36 0.024032 -1.129042 0.017807 -1.475660 0.000000 0.000001
    37 0.014898 -0.883989 -0.019848 0.358131 0.000000 0.000000
    38 -0.586770 -1.264477 0.200161 -0.064366 -0.174069 -2.405502
    39 1.522835 0.058681 0.016848 0.001410 0.008985 0.293269
    40 1.117947 0.048424 -0.005766 0.001267 -0.025174 0.005116
    41 -0.139399 -0.111698 0.014397 0.808210 0.214014 1.504550
    42 -1.393470 8.839177 -0.239433 1.580804 -0.005023 -1.566847
  time 28
    0 -0.999830 1.628925 3.537212 0.000000 0.000000 0.000000
    1 9.485278 5.390594 -8.949655 0.445540 -1.633911 -0.637512
    2 -0.071918 -8.498731 -0.104136 0.165966 0.242032 0.086713
    3 2.815887 -5.283122 1.386547 0.209716 0.049969 -1.630727
    4 3.633989 -0.389698 -0.017557 -1.570797 -1.570796 0.000000
    5 11.822115 -1.093857 0.000000 0.000001 0.000000 -1.570796
    6 -362.439332 214.752734 -266.948432 1.096297 0.231830 0.083812
    7 1.257180 8.762585 -0.153713 -1.570562 0.002683 -1.566807
    8 -0.488518 -2.755602 -0.228260 -0.871614 -0.202562 -0.209541
    9 0.039887 -1.479790 0.029854 -1.516144 0.000000 0.000001
    10 0.028786 -1.075731 -0.023109 -1.298153 0.000000 0.000000
    11 0.250027 -2.820665 -0.238396 -0.797118 -0.167517 -0.114938
    12 -0.049759 -1.680544 0.100479 -1.644607 0.000000 -0.000002
    13 -0.034142 -1.148312 0.084782 -1.481002 0.000000 0.000000
    14 0.957766 -2.746780 -0.090302 -0.175885 -0.162684 0.097910
    15 -0.033420 -1.397129 -0.011257 -0.521018 0.000000 -0.000001
    16 -0.022360 -0.957436 0.018784 -0.975516 0.000000 0.000000
    17 -1.180681 -2.507217 -0.193859 -0.671429 -0.081516 -0.261329
    18 -0.024967 -1.123934 0.017597 -1.276708 0.000000 0.000001
    19 -0.020057 -0.890968 0.010090 -1.435733 0.000000 0.000000
    20 0.583510 -1.197277 0.185379 0.135458 -1.044822 -1.384612
    21 1.535927 0.010246 0.005009 -0.002964 -0.012979 -0.506650
    22 1.100771 0.004527 -0.010679 -0.015488 -0.004784 -1.694062
    23 0.120153 -0.050270 -0.054489 0.287569 3.110905 1.561085
    24 0.983176 -11.141596 -11.642264 -1.471172 -5.179872 -0.757907
    25 0.096944 -8.450418 -0.009365 0.338894 -0.917848 0.099371
    26 0.447953 -2.798986 -0.200443 -0.507443 -0.039938 0.202570
    27 -0.032909 -1.480204 0.004940 -1.717245 0.000000 0.000002
    28 -0.027022 -1.076920 -0.020210 0.086279 0.000000 0.000000
    29 -0.249534 -2.846964 -0.174213 -0.128739 0.012411 0.088176
    30 0.043235 -1.683941 0.096012 -1.830969 0.002823 -0.000167
    31 0.031729 -1.160830 0.058838 -0.120888 0.000642 0.008372
    32 -0.963866 -2.785145 -0.085350 0.166925 0.160514 0.097512
    33 0.028479 -1.403067 0.006271 -0.938002 0.000000 0.000000
    34 0.021413 -0.957781 0.020046 -1.073956 0.000000 0.000000
    35 1.164475 -2.543940 -0.170330 -0.897677 -0.190582 0.231608
    36 0.024032 -1.129042 0.017807 -1.475660 0.000000 0.000001
    37 0.014898 -0.883989 -0.019848 0.358131 0.000000 0.000000
    38 -0.586770 -1.264477 0.200161 -0.064366 -0.174069 -2.405502
    39 1.522835 0.058681 0.016848 0.001410 0.008985 0.293269
    40 1.117947 0.048424 -0.005766 0.001267 -0.025174 0.005116
    41 -0.139399 -0.111698 0.014397 0.808210 0.214014 1.504550
    42 -1.393470 8.839177 -0.239433 1.580804 -0.005023 -1.566847
  time 29
    0 -0.999830 1.628925 3.537212 0.000000 0.000000 0.000000
    1 9.481372 5.488253 -8.469172 -0.149964 -1.612728 -0.045697
    2 -0.071918 -8.498731 -0.104136 0.166421 0.238209 0.105816
    3 2.815887 -5.283122 1.386547 0.209716 0.049969 -1.630727
    4 3.633989 -0.389698 -0.017557 -1.570797 -1.570796 0.000000
    5 11.822115 -1.093857 0.000000 0.000001 0.000000 -1.570796
    6 -727.206284 459.875025 -533.913154 2.192861 0.461604 0.179347
    7 1.257180 8.762585 -0.153713 -1.570562 0.002683 -1.566807
    8 -0.488518 -2.755602 -0.228260 -0.871614 -0.202562 -0.209541
    9 0.039887 -1.479790 0.029854 -1.516144 0.000000 0.000001
    10 0.028786 -1.075731 -0.023109 -1.298153 0.000000 0.000000
    11 0.250027 -2.820665 -0.238396 -0.797118 -0.167517 -0.114938
    12 -0.049759 -1.680544 0.100479 -1.644607 0.000000 -0.000002
    13 -0.034142 -1.148312 0.084782 -1.481002 0.000000 0.000000
    14 0.957766 -2.746780 -0.090302 -0.175885 -0.162684 0.097910
    15 -0.033420 -1.397129 -0.011257 -0.521018 0.000000 -0.000001
    16 -0.022360 -0.957436 0.018784 -0.975516 0.000000 0.000000
    17 -1.180681 -2.507217 -0.193859 -0.671429 -0.081516 -0.261329
    18 -0.024967 -1.123934 0.017597 -1.276708 0.000000 0.000001
    19 -0.020057 -0.890968 0.010090 -1.435733 0.000000 0.000000
    20 0.583510 -1.197277 0.185379 0.135458 -1.044822 -1.384612
    21 1.535927 0.010246 0.005009 -0.002964 -0.012979 -0.506650
    22 1.100771 0.004527 -0.010679 -0.015488 -0.004784 -1.694062
    23 0.120153 -0.050270 -0.054489 0.287569 3.110905 1.561085
    24 0.901142 -10.965810 -11.517260 -1.457646 -5.162292 -0.748743
    25 0.096944 -8.450418 -0.009365 0.338894 -0.917848 0.099371
    26 0.447953 -2.798986 -0.200443 -0.507443 -0.039938 0.202570
    27 -0.032909 -1.480204 0.004940 -1.717245 0.000000 0.000002
    28 -0.027022 -1.076920 -0.020210 0.086279 0.000000 0.000000
    29 -0.249534 -2.846964 -0.174213 -0.128739 0.012411 0.088176
    30 0.043235 -1.683941 0.096012 -1.830969 0.002823 -0.000167
    31 0.031729 -1.160830 0.058838 -0.120888 0.000642 0.008372
    32 -0.963866 -2.785145 -0.085350 0.166925 0.160514 0.097512
    33 0.028479 -1.403067 0.006271 -0.938002 0.000000 0.000000
    34 0.021413 -0.957781 0.020046 -1.073956 0.000000 0.000000
    35 1.164475 -2.543940 -0.170330 -0.897677 -0.190582 0.231608
    36 0.024032 -1.129042 0.017807 -1.475660 0.000000 0.000001
    37 0.014898 -0.883989 -0.019848 0.358131 0.000000 0.000000
    38 -0.586770 -1.264477 0.200161 -0.064366 -0.174069 -2.405502
    39 1.522835 0.058681 0.016848 0.001410 0.008985 0.293269
    40 1.117947 0.048424 -0.005766 0.001267 -0.025174 0.005116
    41 -0.139399 -0.111698 0.014397 0.808210 0.214014 1.504550
    42 -1.393470 8.839177 -0.239433 1.580804 -0.005023 -1.566847
end
