version 1
nodes
  0 "Bone01" -1
  1 "Bone_Lefthand" 0
  2 "Bone02" 1
  3 "Bone03" 2
  4 "Bone25" 3
  5 "Bone54" 3
  6 "Bone48" 3
  7 "Bone50" 3
  8 "Bone52" 3
  9 "Bone56" 3
  10 "Bone4" 1
  11 "Bone13" 10
  12 "Bone14" 11
  13 "Bone15" 12
  14 "Bone17" 10
  15 "Bone18" 14
  16 "Bone19" 15
  17 "Bone21" 10
  18 "Bone22" 17
  19 "Bone23" 18
  20 "Bone05" 10
  21 "Bone06" 20
  22 "Bone07" 21
  23 "Bone09" 10
  24 "Bone10" 23
  25 "Bone11" 24
  26 "Bone04" -1
  27 "Bone_Righthand" 26
  28 "Bone26" 27
  29 "Bone35" 28
  30 "Bone36" 29
  31 "Bone37" 30
  32 "Bone31" 28
  33 "Bone32" 32
  34 "Bone33" 33
  35 "Bone39" 28
  36 "Bone40" 35
  37 "Bone41" 36
  38 "Bone43" 28
  39 "Bone44" 38
  40 "Bone45" 39
  41 "Bone27" 28
  42 "Bone28" 41
  43 "Bone29" 42
end
skeleton
  time 0
    0 8.106567 3.165656 -8.096398 -0.539034 -1.241315 0.311552
    1 0.000000 -8.563284 0.000000 0.344690 -0.091140 -0.140417
    2 -0.627912 -3.172447 0.559143 -1.247017 1.437605 -1.233824
    3 0.000000 1.888487 0.974220 0.000000 0.000000 0.000000
    4 -0.013948 -2.603321 1.100493 0.209431 0.000000 0.000000
    5 -0.013949 -4.784637 0.650334 0.000000 0.000000 0.000000
    6 -0.716955 15.708817 -2.564272 0.000000 0.000000 0.000000
    7 -0.013949 -3.609846 2.626635 0.000000 0.000000 0.000000
    8 -0.551583 -1.713881 2.571738 0.000000 0.000000 0.340339
    9 -0.666018 -4.704158 1.993687 0.000000 0.337298 0.000000
    10 -0.003480 -0.404828 0.000000 -0.000001 0.000000 0.000000
    11 -0.519309 -2.501155 -0.278957 -1.107358 -0.060907 -0.152582
    12 -0.010599 -1.208185 -0.000001 -1.179843 0.000000 0.000000
    13 -0.000001 -0.763065 0.000000 -1.228712 0.000000 0.000000
    14 0.105981 -2.607135 -0.278958 -0.873864 -0.036146 -0.178594
    15 0.000001 -1.250578 0.000000 -1.223476 0.000000 0.000000
    16 -0.000001 -0.932635 0.000000 -1.567306 0.000000 0.000000
    17 0.763064 -2.490555 -0.278958 -0.307169 0.000000 0.130900
    18 -0.012322 -1.280916 0.000000 -1.192052 0.000000 0.000000
    19 -0.001697 -0.749371 0.000001 -0.593412 0.000000 0.000000
    20 0.354566 0.016268 0.318133 0.458018 -0.443926 -1.167637
    21 1.887166 0.012878 0.000000 -0.304014 -0.029870 -0.496333
    22 1.001873 -0.000270 0.000000 0.000000 0.000000 -0.577704
    23 -1.123359 -2.195093 -0.278958 -1.174574 -0.118742 -0.146524
    24 0.010771 -0.963792 0.000000 -0.977385 0.000000 0.000000
    25 -0.010412 -0.631916 0.000000 -1.034980 0.000000 0.000000
    26 -0.590500 -9.566937 -10.627959 -0.822932 0.449912 0.466873
    27 0.089928 -8.543164 0.000000 0.682096 -0.551340 0.128920
    28 -0.000001 -0.359712 0.000000 0.000000 0.000000 0.000000
    29 -0.170479 -2.636146 -0.277655 -1.043783 -0.052696 0.090280
    30 0.010598 -1.261177 -0.000001 -0.473438 0.000000 0.000000
    31 0.000001 -0.943234 0.000001 -0.944915 0.000000 0.000000
    32 -0.827562 -2.508972 -0.277655 -0.649137 0.000000 0.000000
    33 0.000000 -1.292971 -0.000001 -0.710575 -0.058257 0.000120
    34 0.000000 -0.752466 0.000000 -0.777529 -0.248776 0.191909
    35 0.444213 -2.561960 -0.277655 -1.341941 0.037893 0.167997
    36 0.021024 -1.208187 0.000001 -0.304135 0.000000 0.000000
    37 0.010598 -0.741867 -0.000001 -0.721174 0.000000 0.000000
    38 1.047446 -2.222820 -0.277655 -1.356430 -0.069497 -0.040770
    39 0.000000 -0.996224 -0.000001 -1.199041 0.000000 0.000000
    40 0.000001 -0.614692 0.000001 -1.031490 0.000000 0.000000
    41 -0.308254 -0.007813 0.307166 -0.295076 -0.605320 -2.458747
    42 1.978377 0.019542 -0.000001 -0.101941 -0.023968 0.319700
    43 0.982424 0.003187 0.000000 0.000000 0.000000 0.541329
  time 1
    0 8.583144 3.403944 -9.819107 -0.962012 -1.108286 0.683238
    1 0.000000 -8.563284 0.000000 0.411092 0.000040 -0.290187
    2 -0.627912 -3.172447 0.559143 -1.247017 1.437605 -1.233824
    3 0.000000 1.888487 0.974220 0.000000 0.000000 0.000000
    4 -0.013948 -2.603321 1.100493 0.212786 0.000000 0.000000
    5 -0.013949 -4.784637 0.650334 0.000000 0.000000 0.000000
    6 -0.716955 15.708817 -2.564272 0.000000 0.000000 0.000000
    7 -0.010043 -3.059048 2.630541 0.000000 0.000000 0.000000
    8 -0.551583 -1.713881 2.571738 0.000000 0.000000 0.340339
    9 -0.666018 -4.704158 1.993687 0.000000 -0.789273 0.000000
    10 -0.003480 -0.404828 0.000000 -0.000001 0.000000 0.000000
    11 -0.519309 -2.501155 -0.278957 -1.107358 -0.060907 -0.152582
    12 -0.010599 -1.208185 -0.000001 -1.179843 0.000000 0.000000
    13 -0.000001 -0.763065 0.000000 -1.228712 0.000000 0.000000
    14 0.105981 -2.607135 -0.278958 -0.873864 -0.036146 -0.178594
    15 0.000001 -1.250578 0.000000 -1.223476 0.000000 0.000000
    16 -0.000001 -0.932635 0.000000 -1.567306 0.000000 0.000000
    17 0.763064 -2.490555 -0.278958 -0.307169 0.000000 0.130900
    18 -0.012322 -1.280916 0.000000 -1.192052 0.000000 0.000000
    19 -0.001697 -0.749371 0.000001 -0.755719 0.000000 0.000000
    20 0.354566 0.016268 0.318133 0.458018 -0.443926 -1.167637
    21 1.887166 0.012878 0.000000 -0.304014 -0.029870 -0.496333
    22 1.001873 -0.000270 0.000000 0.000000 0.000000 -0.577704
    23 -1.123359 -2.195093 -0.278958 -1.174574 -0.118742 -0.146524
    24 0.010771 -0.963792 0.000000 -0.977385 0.000000 0.000000
    25 -0.010412 -0.631916 0.000000 -1.034980 0.000000 0.000000
    26 -0.625658 -9.895072 -10.452172 -0.778568 0.452289 -5.596595
    27 0.089928 -8.543164 0.000000 0.615153 -0.466095 -0.055048
    28 -0.000001 -0.359712 0.000000 0.000000 0.000000 0.000000
    29 -0.170479 -2.636146 -0.277655 -1.050945 -0.053679 0.089693
    30 0.010598 -1.261177 -0.000001 -0.473438 0.000000 0.000000
    31 0.000001 -0.943234 0.000001 -0.945690 0.000000 0.000000
    32 -0.827562 -2.508972 -0.277655 -0.649137 0.000000 0.000000
    33 0.000000 -1.292971 -0.000001 -0.710575 -0.058257 0.000120
    34 0.000000 -0.752466 0.000000 -0.777529 -0.248776 0.191909
    35 0.444213 -2.561960 -0.277655 -1.339091 0.024830 0.164977
    36 0.021024 -1.208187 0.000001 -0.304718 0.000000 0.000000
    37 0.010598 -0.741867 -0.000001 -0.721174 0.000000 0.000000
    38 1.047446 -2.222820 -0.277655 -1.356430 -0.069497 -0.040770
    39 0.000000 -0.996224 -0.000001 -1.199041 0.000000 0.000000
    40 0.000001 -0.614692 0.000001 -1.031490 0.000000 0.000000
    41 -0.308254 -0.007813 0.307166 -0.257594 -0.604991 -2.460359
    42 1.978377 0.019542 -0.000001 -0.103189 -0.018263 0.380347
    43 0.982424 0.003187 0.000000 0.000000 0.000000 0.490128
  time 2
    0 8.426889 2.939086 -9.229245 -0.956065 -1.114491 0.671575
    1 0.000000 -8.563284 0.000000 0.411679 0.004735 -0.295208
    2 -0.627912 -3.172447 0.559143 -1.247017 1.437605 -1.233824
    3 0.000000 1.888487 0.974220 0.000000 0.000000 0.000000
    4 -0.013948 -2.603321 1.100493 0.219486 0.000000 0.000000
    5 -0.013949 -4.784637 0.650334 0.000000 0.000000 0.000000
    6 -0.716955 15.708817 -2.564272 0.000000 0.000000 0.000000
    7 0.001676 -1.402748 2.650073 0.000000 0.000000 0.000000
    8 -0.551583 -1.713881 2.571738 0.000000 0.000000 0.340339
    9 -0.666018 -4.704158 1.993687 0.000000 2.721952 0.000000
    10 -0.003480 -0.404828 0.000000 -0.000001 0.000000 0.000000
    11 -0.519309 -2.501155 -0.278957 -1.107358 -0.060907 -0.152582
    12 -0.010599 -1.208185 -0.000001 -1.179843 0.000000 0.000000
    13 -0.000001 -0.763065 0.000000 -1.228712 0.000000 0.000000
    14 0.105981 -2.607135 -0.278958 -0.873864 -0.036146 -0.178594
    15 0.000001 -1.250578 0.000000 -1.223476 0.000000 0.000000
    16 -0.000001 -0.932635 0.000000 -1.567306 0.000000 0.000000
    17 0.763064 -2.490555 -0.278958 -0.309889 0.000000 0.130900
    18 -0.012322 -1.280916 0.000000 -1.203120 0.000000 0.000000
    19 -0.001697 -0.749371 0.000001 -0.777759 0.000000 0.000000
    20 0.354566 0.016268 0.318133 0.458018 -0.443926 -1.167637
    21 1.887166 0.012878 0.000000 -0.304014 -0.029870 -0.496333
    22 1.001873 -0.000270 0.000000 0.000000 0.000000 -0.577704
    23 -1.123359 -2.195093 -0.278958 -1.174574 -0.118742 -0.146524
    24 0.010771 -0.963792 0.000000 -0.977385 0.000000 0.000000
    25 -0.010412 -0.631916 0.000000 -1.034980 0.000000 0.000000
    26 -0.758474 -10.262271 -10.084974 -0.782110 0.452384 -5.614192
    27 0.089928 -8.543164 0.000000 0.626844 -0.466248 -0.061247
    28 -0.000001 -0.359712 0.000000 0.000000 0.000000 0.000000
    29 -0.170479 -2.636146 -0.277655 -1.058438 -0.055632 0.088518
    30 0.010598 -1.261177 -0.000001 -0.473438 0.000000 0.000000
    31 0.000001 -0.943234 0.000001 -0.947500 0.000000 0.000000
    32 -0.827562 -2.508972 -0.277655 -0.649137 0.000000 0.000000
    33 0.000000 -1.292971 -0.000001 -0.710575 -0.058257 0.000120
    34 0.000000 -0.752466 0.000000 -0.777529 -0.248776 0.191909
    35 0.444213 -2.561960 -0.277655 -1.336188 0.011779 0.161909
    36 0.021024 -1.208187 0.000001 -0.306152 0.000000 0.000000
    37 0.010598 -0.741867 -0.000001 -0.721174 0.000000 0.000000
    38 1.047446 -2.222820 -0.277655 -1.356430 -0.069497 -0.040770
    39 0.000000 -0.996224 -0.000001 -1.199041 0.000000 0.000000
    40 0.000001 -0.614692 0.000001 -1.031490 0.000000 0.000000
    41 -0.308254 -0.007813 0.307166 -0.217330 -0.604239 -2.463561
    42 1.978377 0.019542 -0.000001 -0.104176 -0.012619 0.444886
    43 0.982424 0.003187 0.000000 0.000000 0.000000 0.435895
  time 3
    0 8.317511 2.603139 -8.807358 -0.888735 -1.148306 0.608082
    1 0.000000 -8.563284 0.000000 0.403524 -0.005187 -0.277435
    2 -0.627912 -3.172447 0.559143 -1.247017 1.437605 -1.233824
    3 0.000000 1.888487 0.974220 0.000000 0.000000 0.000000
    4 -0.013948 -2.603321 1.100493 0.224507 0.000000 0.000000
    5 -0.013949 -4.784637 0.650334 0.000000 0.000000 0.000000
    6 -0.716955 15.708817 -2.564272 0.000000 0.000000 0.000000
    7 -0.002230 -1.648849 2.646167 0.000000 0.000000 0.000000
    8 -0.551583 -1.713881 2.571738 0.000000 0.000000 0.340339
    9 -0.666018 -4.704158 1.993687 0.000000 -1.856072 0.000000
    10 -0.003480 -0.404828 0.000000 -0.000001 0.000000 0.000000
    11 -0.519309 -2.501155 -0.278957 -1.107358 -0.060907 -0.152582
    12 -0.010599 -1.208185 -0.000001 -1.179843 0.000000 0.000000
    13 -0.000001 -0.763065 0.000000 -1.228712 0.000000 0.000000
    14 0.105981 -2.607135 -0.278958 -0.873864 -0.036146 -0.178594
    15 0.000001 -1.250578 0.000000 -1.223476 0.000000 0.000000
    16 -0.000001 -0.932635 0.000000 -1.567306 0.000000 0.000000
    17 0.763064 -2.490555 -0.278958 -0.312598 0.000000 0.130900
    18 -0.012322 -1.280916 0.000000 -1.214189 0.000000 0.000000
    19 -0.001697 -0.749371 0.000001 -0.772749 0.000000 0.000000
    20 0.354566 0.016268 0.318133 0.458018 -0.443926 -1.167637
    21 1.887166 0.012878 0.000000 -0.304014 -0.029870 -0.496333
    22 1.001873 -0.000270 0.000000 0.000000 0.000000 -0.577704
    23 -1.123359 -2.195093 -0.278958 -1.174574 -0.118742 -0.146524
    24 0.010771 -0.963792 0.000000 -0.977385 0.000000 0.000000
    25 -0.010412 -0.631916 0.000000 -1.034980 0.000000 0.000000
    26 -0.961605 -10.543529 -10.116225 -0.789460 0.452479 0.632418
    27 0.089928 -8.543164 -0.003906 0.644828 -0.471458 -0.055693
    28 -0.000001 -0.359712 0.000000 0.000000 0.000000 0.000000
    29 -0.170479 -2.636146 -0.277655 -1.065710 -0.057107 0.087667
    30 0.010598 -1.261177 -0.000001 -0.473438 0.000000 0.000000
    31 0.000001 -0.943234 0.000001 -0.949752 0.000000 0.000000
    32 -0.827562 -2.508972 -0.277655 -0.649137 0.000000 0.000000
    33 0.000000 -1.292971 -0.000001 -0.710616 -0.058257 0.000120
    34 0.000000 -0.752466 0.000000 -0.777529 -0.248776 0.191909
    35 0.444213 -2.561960 -0.277655 -1.335185 0.002407 0.160183
    36 0.021024 -1.208187 0.000001 -0.307926 0.000000 0.000000
    37 0.010598 -0.741867 -0.000001 -0.721174 0.000000 0.000000
    38 1.047446 -2.222820 -0.277655 -1.356430 -0.069497 -0.040770
    39 0.000000 -0.996224 -0.000001 -1.199041 0.000000 0.000000
    40 0.000001 -0.614692 0.000001 -1.031490 0.000000 0.000000
    41 -0.308254 -0.007813 0.307166 -0.178487 -0.603582 -2.465946
    42 1.978377 0.019542 -0.000001 -0.104756 -0.006854 0.507494
    43 0.982424 0.003187 0.000000 0.000000 0.000000 0.383164
  time 4
    0 8.251102 2.403914 -8.557350 -0.793385 -1.185259 0.520259
    1 0.000000 -8.563284 0.000000 0.390659 -0.022417 -0.248394
    2 -0.627912 -3.172447 0.559143 -1.247017 1.437605 -1.233824
    3 0.000000 1.888487 0.974220 0.000000 0.000000 0.000000
    4 -0.013948 -2.603321 1.100493 0.222841 0.000000 0.000000
    5 -0.013949 -4.784637 0.650334 0.000000 0.000000 0.000000
    6 -0.716955 15.708817 -2.564272 0.000000 0.000000 0.000000
    7 -0.006136 -2.383246 2.638354 0.000000 0.000000 0.000000
    8 -0.551583 -1.713881 2.571738 0.000000 0.000000 0.340339
    9 -0.666018 -4.704158 1.993687 0.000000 -0.161413 0.000000
    10 -0.003480 -0.404828 0.000000 -0.000001 0.000000 0.000000
    11 -0.519309 -2.501155 -0.278957 -1.107358 -0.060907 -0.152582
    12 -0.010599 -1.208185 -0.000001 -1.179843 0.000000 0.000000
    13 -0.000001 -0.763065 0.000000 -1.228712 0.000000 0.000000
    14 0.105981 -2.607135 -0.278958 -0.873864 -0.036146 -0.178594
    15 0.000001 -1.250578 0.000000 -1.223476 0.000000 0.000000
    16 -0.000001 -0.932635 0.000000 -1.567306 0.000000 0.000000
    17 0.763064 -2.490555 -0.278958 -0.307169 0.000000 0.130900
    18 -0.012322 -1.280916 0.000000 -1.192052 0.000000 0.000000
    19 -0.001697 -0.749371 0.000001 -0.755719 0.000000 0.000000
    20 0.354566 0.016268 0.318133 0.458018 -0.443926 -1.167637
    21 1.887166 0.012878 0.000000 -0.304014 -0.029870 -0.496333
    22 1.001873 -0.000270 0.000000 0.000000 0.000000 -0.577704
    23 -1.123359 -2.195093 -0.278958 -1.174574 -0.118742 -0.146524
    24 0.010771 -0.963792 0.000000 -0.977385 0.000000 0.000000
    25 -0.010412 -0.631916 0.000000 -1.034980 0.000000 0.000000
    26 -1.008482 -10.656814 -10.420921 -0.799289 0.452289 0.584314
    27 0.089928 -8.543164 -0.003906 0.666872 -0.480559 -0.042165
    28 -0.000001 -0.359712 0.000000 0.000000 0.000000 0.000000
    29 -0.170479 -2.636146 -0.277655 -1.072376 -0.056627 0.087967
    30 0.010598 -1.261177 -0.000001 -0.473438 0.000000 0.000000
    31 0.000001 -0.943234 0.000001 -0.951783 0.000000 0.000000
    32 -0.827562 -2.508972 -0.277655 -0.649137 0.000000 0.000000
    33 0.000000 -1.292971 -0.000001 -0.710575 -0.058257 0.000120
    34 0.000000 -0.752466 0.000000 -0.777529 -0.248776 0.191909
    35 0.444213 -2.561960 -0.277655 -1.334869 -0.005107 0.160914
    36 0.021024 -1.208187 0.000001 -0.309529 0.000000 0.000000
    37 0.010598 -0.741867 -0.000001 -0.721174 0.000000 0.000000
    38 1.047446 -2.222820 -0.277655 -1.356430 -0.069497 -0.040770
    39 0.000000 -0.996224 -0.000001 -1.199041 0.000000 0.000000
    40 0.000001 -0.614692 0.000001 -1.031490 0.000000 0.000000
    41 -0.308254 -0.007813 0.307166 -0.145208 -0.603691 -2.465108
    42 1.978377 0.019542 -0.000001 -0.104902 -0.000826 0.562288
    43 0.982424 0.003187 0.000000 0.000000 0.000000 0.336497
  time 5
    0 8.231570 2.337506 -8.471410 -0.727920 -1.205304 0.460242
    1 0.000000 -8.563284 0.000000 0.377374 -0.039869 -0.219725
    2 -0.627912 -3.172447 0.559143 -1.247017 1.437605 -1.233824
    3 0.000000 1.888487 0.974220 0.000000 0.000000 0.000000
    4 -0.013948 -2.603321 1.100493 0.209431 0.000000 0.000000
    5 -0.013949 -4.784637 0.650334 0.000000 0.000000 0.000000
    6 -0.716955 15.708817 -2.564272 0.000000 0.000000 0.000000
    7 -0.013949 -3.609846 2.626635 0.000000 0.000000 0.000000
    8 -0.551583 -1.713881 2.571738 0.000000 0.000000 0.340339
    9 -0.666018 -4.704158 1.993687 0.000000 0.337298 0.000000
    10 -0.003480 -0.404828 0.000000 -0.000001 0.000000 0.000000
    11 -0.519309 -2.501155 -0.278957 -1.107358 -0.060907 -0.152582
    12 -0.010599 -1.208185 -0.000001 -1.179843 0.000000 0.000000
    13 -0.000001 -0.763065 0.000000 -1.228712 0.000000 0.000000
    14 0.105981 -2.607135 -0.278958 -0.873864 -0.036146 -0.178594
    15 0.000001 -1.250578 0.000000 -1.223476 0.000000 0.000000
    16 -0.000001 -0.932635 0.000000 -1.567306 0.000000 0.000000
    17 0.763064 -2.490555 -0.278958 -0.291133 0.000000 0.130900
    18 -0.012322 -1.280916 0.000000 -1.126573 0.000000 0.000000
    19 -0.001697 -0.749371 0.000001 -0.732038 0.000000 0.000000
    20 0.354566 0.016268 0.318133 0.458018 -0.443926 -1.167637
    21 1.887166 0.012878 0.000000 -0.304014 -0.029870 -0.496333
    22 1.001873 -0.000270 0.000000 0.000000 0.000000 -0.577704
    23 -1.123359 -2.195093 -0.278958 -1.174574 -0.118742 -0.146524
    24 0.010771 -0.963792 0.000000 -0.977385 0.000000 0.000000
    25 -0.010412 -0.631916 0.000000 -1.034980 0.000000 0.000000
    26 -0.918635 -10.484934 -10.577176 -0.809826 0.451529 0.531810
    27 0.089928 -8.543164 -0.003906 0.690743 -0.492319 -0.024408
    28 -0.000001 -0.359712 0.000000 0.000000 0.000000 0.000000
    29 -0.170479 -2.636146 -0.277655 -1.077885 -0.052696 0.090280
    30 0.010598 -1.261177 -0.000001 -0.473438 0.000000 0.000000
    31 0.000001 -0.943234 0.000001 -0.952965 0.000000 0.000000
    32 -0.827562 -2.508972 -0.277655 -0.649137 0.000000 0.000000
    33 0.000000 -1.292971 -0.000001 -0.710575 -0.058257 0.000120
    34 0.000000 -0.752466 0.000000 -0.777529 -0.248776 0.191909
    35 0.444213 -2.561960 -0.277655 -1.336452 -0.008942 0.163012
    36 0.021024 -1.208187 0.000001 -0.310453 0.000000 0.000000
    37 0.010598 -0.741867 -0.000001 -0.721174 0.000000 0.000000
    38 1.047446 -2.222820 -0.277655 -1.356430 -0.069497 -0.040770
    39 0.000000 -0.996224 -0.000001 -1.199041 0.000000 0.000000
    40 0.000001 -0.614692 0.000001 -1.031490 0.000000 0.000000
    41 -0.308254 -0.007813 0.307166 -0.121675 -0.605320 -2.458747
    42 1.978377 0.019542 -0.000001 -0.104553 0.005634 0.603446
    43 0.982424 0.003187 0.000000 0.000000 0.000000 0.300399
  time 6
    0 8.243290 2.446884 -8.526099 -0.710029 -1.210045 0.444485
    1 0.000000 -8.563284 0.000000 0.368708 -0.050943 -0.203389
    2 -0.627912 -3.172447 0.559143 -1.247017 1.437605 -1.233824
    3 0.000000 1.888487 0.974220 0.000000 0.000000 0.000000
    4 -0.013948 -2.615040 1.100493 0.175586 0.000000 0.000000
    5 -0.013949 -4.784637 0.650334 0.000000 0.000000 0.000000
    6 -0.716955 15.708817 -2.564272 0.000000 0.000000 0.000000
    7 -0.013949 -3.609846 2.626635 0.000000 0.000000 0.000000
    8 -0.551583 -1.713881 2.571738 0.000000 0.000000 0.340339
    9 -0.666018 -4.704158 1.993687 0.000000 0.337298 0.000000
    10 -0.003480 -0.404828 0.000000 -0.000001 0.000000 0.000000
    11 -0.519309 -2.501155 -0.278957 -1.107358 -0.060907 -0.152582
    12 -0.010599 -1.208185 -0.000001 -1.179843 0.000000 0.000000
    13 -0.000001 -0.763065 0.000000 -1.228712 0.000000 0.000000
    14 0.105981 -2.607135 -0.278958 -0.873864 -0.036146 -0.178594
    15 0.000001 -1.250578 0.000000 -1.223476 0.000000 0.000000
    16 -0.000001 -0.932635 0.000000 -1.567306 0.000000 0.000000
    17 0.763064 -2.490555 -0.278958 -0.269681 0.000000 0.130900
    18 -0.012322 -1.280916 0.000000 -1.038938 0.000000 0.000000
    19 -0.001697 -0.749371 0.000001 -0.700386 0.000000 0.000000
    20 0.354566 0.016268 0.318133 0.458018 -0.443926 -1.167637
    21 1.887166 0.012878 0.000000 -0.304014 -0.029870 -0.496333
    22 1.001873 -0.000270 0.000000 0.000000 0.000000 -0.577704
    23 -1.123359 -2.195093 -0.278958 -1.174574 -0.118742 -0.146524
    24 0.010771 -0.963792 0.000000 -0.977385 0.000000 0.000000
    25 -0.010412 -0.631916 0.000000 -1.034980 0.000000 0.000000
    26 -0.781912 -10.156799 -10.577176 -0.819744 0.450387 0.482462
    27 0.089928 -8.543164 -0.007813 0.714207 -0.505244 -0.006134
    28 -0.000001 -0.359712 0.000000 0.000000 0.000000 0.000000
    29 -0.170479 -2.636146 -0.277655 -1.080530 -0.037212 0.099268
    30 0.010598 -1.261177 -0.000001 -0.473438 0.000000 0.000000
    31 0.000001 -0.943234 0.000001 -0.952633 0.000000 0.000000
    32 -0.827562 -2.508972 -0.277655 -0.649137 0.000000 0.000000
    33 0.000000 -1.292971 -0.000001 -0.710575 -0.058257 0.000120
    34 0.000000 -0.752466 0.000000 -0.777529 -0.248776 0.191909
    35 0.444213 -2.561960 -0.277655 -1.345266 0.000082 0.164594
    36 0.021024 -1.208187 0.000001 -0.310210 0.000000 0.000000
    37 0.010598 -0.741867 -0.000001 -0.721174 0.000000 0.000000
    38 1.047446 -2.222820 -0.277655 -1.356430 -0.069497 -0.040770
    39 0.000000 -0.996224 -0.000001 -1.199041 0.000000 0.000000
    40 0.000001 -0.614692 0.000001 -1.031490 0.000000 0.000000
    41 -0.308254 -0.007813 0.307166 -0.120579 -0.610314 -2.433629
    42 1.978377 0.019542 -0.000001 -0.103392 0.016024 0.614031
    43 0.982424 0.003187 0.000000 0.000000 0.000000 0.286942
  time 7
    0 8.255009 2.548450 -8.576882 -0.703226 -1.211614 0.439155
    1 0.000000 -8.563284 0.000000 0.365046 -0.055682 -0.199192
    2 -0.627912 -3.172447 0.559143 -1.247017 1.437605 -1.233824
    3 0.000000 1.888487 0.974220 0.000000 0.000000 0.000000
    4 -0.013948 -2.646291 1.100493 0.124652 0.000000 0.000000
    5 -0.013949 -4.784637 0.650334 0.000000 0.000000 0.000000
    6 -0.716955 15.708817 -2.564272 0.000000 0.000000 0.000000
    7 -0.013949 -3.609846 2.626635 0.000000 0.000000 0.000000
    8 -0.551583 -1.713881 2.571738 0.000000 0.000000 0.340339
    9 -0.666018 -4.704158 1.993687 0.000000 0.337298 0.000000
    10 -0.003480 -0.404828 0.000000 -0.000001 0.000000 0.000000
    11 -0.519309 -2.501155 -0.278957 -1.107358 -0.060907 -0.152582
    12 -0.010599 -1.208185 -0.000001 -1.179843 0.000000 0.000000
    13 -0.000001 -0.763065 0.000000 -1.228712 0.000000 0.000000
    14 0.105981 -2.607135 -0.278958 -0.873864 -0.036146 -0.178594
    15 0.000001 -1.250578 0.000000 -1.223476 0.000000 0.000000
    16 -0.000001 -0.932635 0.000000 -1.567306 0.000000 0.000000
    17 0.763064 -2.490555 -0.278958 -0.246203 0.000000 0.130900
    18 -0.012322 -1.280916 0.000000 -0.943015 0.000000 0.000000
    19 -0.001697 -0.749371 0.000001 -0.665715 0.000000 0.000000
    20 0.354566 0.016268 0.318133 0.458018 -0.443926 -1.167637
    21 1.887166 0.012878 0.000000 -0.304014 -0.029870 -0.496333
    22 1.001873 -0.000270 0.000000 0.000000 0.000000 -0.577704
    23 -1.123359 -2.195093 -0.278958 -1.174574 -0.118742 -0.146524
    24 0.010771 -0.963792 0.000000 -0.977385 0.000000 0.000000
    25 -0.010412 -0.631916 0.000000 -1.034980 0.000000 0.000000
    26 -0.649096 -9.918510 -10.588895 -0.827625 0.449151 0.443347
    27 0.089928 -8.543164 -0.007813 0.735155 -0.517708 0.009041
    28 -0.000001 -0.359712 0.000000 0.000000 0.000000 0.000000
    29 -0.170479 -2.636146 -0.277655 -1.080530 -0.014885 0.112236
    30 0.010598 -1.261177 -0.000001 -0.473438 0.000000 0.000000
    31 0.000001 -0.943234 0.000001 -0.950158 0.000000 0.000000
    32 -0.827562 -2.508972 -0.277655 -0.649137 0.000000 0.000000
    33 0.000000 -1.292971 -0.000001 -0.710575 -0.058257 0.000120
    34 0.000000 -0.752466 0.000000 -0.777529 -0.248776 0.191909
    35 0.444213 -2.561960 -0.277655 -1.378937 0.049686 0.163132
    36 0.021024 -1.208187 0.000001 -0.308266 0.000000 0.000000
    37 0.010598 -0.741867 -0.000001 -0.721174 0.000000 0.000000
    38 1.047446 -2.222820 -0.277655 -1.356430 -0.069497 -0.040770
    39 0.000000 -0.996224 -0.000001 -1.199041 0.000000 0.000000
    40 0.000001 -0.614692 0.000001 -1.031490 0.000000 0.000000
    41 -0.308254 -0.007813 0.307166 -0.139158 -0.617781 -2.397209
    42 1.978377 0.019542 -0.000001 -0.102144 0.027302 0.597593
    43 0.982424 0.003187 0.000000 0.000000 0.000000 0.294479
  time 8
    0 8.262821 2.638296 -8.619852 -0.705846 -1.210637 0.442631
    1 0.000000 -8.563284 0.000000 0.362991 -0.058539 -0.198417
    2 -0.627912 -3.172447 0.559143 -1.247017 1.437605 -1.233824
    3 0.000000 1.888487 0.974220 0.000000 0.000000 0.000000
    4 -0.013948 -2.681448 1.100493 0.069690 0.000000 0.000000
    5 -0.013949 -4.784637 0.650334 0.000000 0.000000 0.000000
    6 -0.716955 15.708817 -2.564272 0.000000 0.000000 0.000000
    7 -0.013949 -3.609846 2.626635 0.000000 0.000000 0.000000
    8 -0.551583 -1.713881 2.571738 0.000000 0.000000 0.340339
    9 -0.666018 -4.704158 1.993687 0.000000 0.337298 0.000000
    10 -0.003480 -0.404828 0.000000 -0.000001 0.000000 0.000000
    11 -0.519309 -2.501155 -0.278957 -1.107358 -0.060907 -0.152582
    12 -0.010599 -1.208185 -0.000001 -1.179843 0.000000 0.000000
    13 -0.000001 -0.763065 0.000000 -1.228712 0.000000 0.000000
    14 0.105981 -2.607135 -0.278958 -0.873864 -0.036146 -0.178594
    15 0.000001 -1.250578 0.000000 -1.223476 0.000000 0.000000
    16 -0.000001 -0.932635 0.000000 -1.567306 0.000000 0.000000
    17 0.763064 -2.490555 -0.278958 -0.224055 0.000000 0.130900
    18 -0.012322 -1.280916 0.000000 -0.852636 0.000000 0.000000
    19 -0.001697 -0.749371 0.000001 -0.633021 0.000000 0.000000
    20 0.354566 0.016268 0.318133 0.458018 -0.443926 -1.167637
    21 1.887166 0.012878 0.000000 -0.304014 -0.029870 -0.496333
    22 1.001873 -0.000270 0.000000 0.000000 0.000000 -0.577704
    23 -1.123359 -2.195093 -0.278958 -1.174574 -0.118742 -0.146524
    24 0.010771 -0.963792 0.000000 -0.977385 0.000000 0.000000
    25 -0.010412 -0.631916 0.000000 -1.034980 0.000000 0.000000
    26 -0.543624 -9.742723 -10.588895 -0.831876 0.448390 0.421925
    27 0.089928 -8.543164 -0.011719 0.751597 -0.527841 0.017532
    28 -0.000001 -0.359712 0.000000 0.000000 0.000000 0.000000
    29 -0.170479 -2.636146 -0.277655 -1.080860 -0.003511 0.118863
    30 0.010598 -1.261177 -0.000001 -0.473438 0.000000 0.000000
    31 0.000001 -0.943234 0.000001 -0.944915 0.000000 0.000000
    32 -0.827562 -2.508972 -0.277655 -0.649137 0.000000 0.000000
    33 0.000000 -1.292971 -0.000001 -0.710575 -0.058257 0.000120
    34 0.000000 -0.752466 0.000000 -0.777529 -0.248776 0.191909
    35 0.444213 -2.561960 -0.277655 -1.406328 0.094772 0.160243
    36 0.021024 -1.208187 0.000001 -0.304135 0.000000 0.000000
    37 0.010598 -0.741867 -0.000001 -0.721174 0.000000 0.000000
    38 1.047446 -2.222820 -0.277655 -1.356430 -0.069497 -0.040770
    39 0.000000 -0.996224 -0.000001 -1.199041 0.000000 0.000000
    40 0.000001 -0.614692 0.000001 -1.031490 0.000000 0.000000
    41 -0.308254 -0.007813 0.307166 -0.157736 -0.625343 -2.378558
    42 1.978377 0.019542 -0.000001 -0.101999 0.029699 0.578976
    43 0.982424 0.003187 0.000000 0.000000 0.000000 0.306926
  time 9
    0 8.270634 2.720330 -8.662822 -0.715674 -1.207639 0.452981
    1 0.000000 -8.563284 0.000000 0.362264 -0.059846 -0.200419
    2 -0.627912 -3.172447 0.559143 -1.247017 1.437605 -1.233824
    3 0.000000 1.888487 0.974220 0.000000 0.000000 0.000000
    4 -0.013948 -2.708793 1.100493 0.023789 0.000000 0.000000
    5 -0.013949 -4.784637 0.650334 0.000000 0.000000 0.000000
    6 -0.716955 15.708817 -2.564272 0.000000 0.000000 0.000000
    7 -0.013949 -3.609846 2.626635 0.000000 0.000000 0.000000
    8 -0.551583 -1.713881 2.571738 0.000000 0.000000 0.340339
    9 -0.666018 -4.704158 1.993687 0.000000 0.337298 0.000000
    10 -0.003480 -0.404828 0.000000 -0.000001 0.000000 0.000000
    11 -0.519309 -2.501155 -0.278957 -1.107358 -0.060907 -0.152582
    12 -0.010599 -1.208185 -0.000001 -1.179843 0.000000 0.000000
    13 -0.000001 -0.763065 0.000000 -1.228712 0.000000 0.000000
    14 0.105981 -2.607135 -0.278958 -0.873864 -0.036146 -0.178594
    15 0.000001 -1.250578 0.000000 -1.223476 0.000000 0.000000
    16 -0.000001 -0.932635 0.000000 -1.567306 0.000000 0.000000
    17 0.763064 -2.490555 -0.278958 -0.206606 0.000000 0.130900
    18 -0.012322 -1.280916 0.000000 -0.781652 0.000000 0.000000
    19 -0.001697 -0.749371 0.000001 -0.607254 0.000000 0.000000
    20 0.354566 0.016268 0.318133 0.458018 -0.443926 -1.167637
    21 1.887166 0.012878 0.000000 -0.304014 -0.029870 -0.496333
    22 1.001873 -0.000270 0.000000 0.000000 0.000000 -0.577704
    23 -1.123359 -2.195093 -0.278958 -1.174574 -0.118742 -0.146524
    24 0.010771 -0.963792 0.000000 -0.977385 0.000000 0.000000
    25 -0.010412 -0.631916 0.000000 -1.034980 0.000000 0.000000
    26 -0.492841 -9.609907 -10.549832 -0.833027 0.448105 0.415900
    27 0.089928 -8.543164 -0.011719 0.762963 -0.536766 0.017791
    28 -0.000001 -0.359712 0.000000 0.000000 0.000000 0.000000
    29 -0.170479 -2.636146 -0.277655 -1.082513 -0.005093 0.117964
    30 0.010598 -1.261177 -0.000001 -0.473438 0.000000 0.000000
    31 0.000001 -0.943234 0.000001 -0.930476 0.000276 0.000228
    32 -0.827562 -2.508972 -0.277655 -0.649137 0.000000 0.000000
    33 0.000000 -1.292971 -0.000001 -0.710616 -0.058257 0.000120
    34 0.000000 -0.752466 0.000000 -0.777529 -0.248776 0.191909
    35 0.444213 -2.561960 -0.277655 -1.404956 0.101640 0.160423
    36 0.021024 -1.208187 0.000001 -0.296749 0.000240 0.000899
    37 0.010598 -0.741867 -0.000001 -0.721174 0.000000 0.000000
    38 1.047446 -2.222820 -0.277655 -1.356430 -0.069497 -0.040770
    39 0.000000 -0.996224 -0.000001 -1.199041 0.000000 0.000000
    40 0.000001 -0.614692 0.000001 -1.031490 0.000000 0.000000
    41 -0.308254 -0.007813 0.307166 -0.169980 -0.633468 -2.380642
    42 1.978377 0.019542 -0.000001 -0.102637 0.023539 0.567207
    43 0.982424 0.003187 0.000000 0.000000 0.000000 0.316657
  time 10
    0 8.278447 2.790644 -8.697979 -0.730389 -1.203142 0.467966
    1 0.000000 -8.563284 0.000000 0.362608 -0.059957 -0.204503
    2 -0.627912 -3.172447 0.559143 -1.247017 1.437605 -1.233824
    3 0.000000 1.888487 0.974220 0.000000 0.000000 0.000000
    4 -0.013948 -2.720512 1.100493 0.000000 0.000000 0.000000
    5 -0.013949 -4.784637 0.650334 0.000000 0.000000 0.000000
    6 -0.716955 15.708817 -2.564272 0.000000 0.000000 0.000000
    7 -0.013949 -3.609846 2.626635 0.000000 0.000000 0.000000
    8 -0.551583 -1.713881 2.571738 0.000000 0.000000 0.340339
    9 -0.666018 -4.704158 1.993687 0.000000 0.337298 0.000000
    10 -0.003480 -0.404828 0.000000 -0.000001 0.000000 0.000000
    11 -0.519309 -2.501155 -0.278957 -1.107358 -0.060907 -0.152582
    12 -0.010599 -1.208185 -0.000001 -1.179843 0.000000 0.000000
    13 -0.000001 -0.763065 0.000000 -1.228712 0.000000 0.000000
    14 0.105981 -2.607135 -0.278958 -0.873864 -0.036146 -0.178594
    15 0.000001 -1.250578 0.000000 -1.223476 0.000000 0.000000
    16 -0.000001 -0.932635 0.000000 -1.567306 0.000000 0.000000
    17 0.763064 -2.490555 -0.278958 -0.197222 0.000000 0.130900
    18 -0.012322 -1.280916 0.000000 -0.743930 0.000000 0.000000
    19 -0.001697 -0.749371 0.000001 -0.593412 0.000000 0.000000
    20 0.354566 0.016268 0.318133 0.458018 -0.443926 -1.167637
    21 1.887166 0.012878 0.000000 -0.304014 -0.029870 -0.496333
    22 1.001873 -0.000270 0.000000 0.000000 0.000000 -0.577704
    23 -1.123359 -2.195093 -0.278958 -1.174574 -0.118742 -0.146524
    24 0.010771 -0.963792 0.000000 -0.977385 0.000000 0.000000
    25 -0.010412 -0.631916 0.000000 -1.034980 0.000000 0.000000
    26 -0.481122 -9.523967 -10.487330 -0.832672 0.448200 0.417526
    27 0.089928 -8.543164 -0.011719 0.770596 -0.545888 0.012625
    28 -0.000001 -0.359712 0.000000 0.000000 0.000000 0.000000
    29 -0.170479 -2.636146 -0.277655 -1.084331 -0.009372 0.115519
    30 0.010598 -1.261177 -0.000001 -0.473438 0.000000 0.000000
    31 0.000001 -0.943234 0.000001 -0.906400 0.000743 0.000623
    32 -0.827562 -2.508972 -0.277655 -0.649137 0.000000 0.000000
    33 0.000000 -1.292971 -0.000001 -0.710575 -0.058257 0.000120
    34 0.000000 -0.752466 0.000000 -0.777529 -0.248776 0.191909
    35 0.444213 -2.561960 -0.277655 -1.399097 0.103881 0.161142
    36 0.021024 -1.208187 0.000001 -0.286106 0.000779 0.003008
    37 0.010598 -0.741867 -0.000001 -0.721174 0.000000 0.000000
    38 1.047446 -2.222820 -0.277655 -1.356430 -0.069497 -0.040770
    39 0.000000 -0.996224 -0.000001 -1.199041 0.000000 0.000000
    40 0.000001 -0.614692 0.000001 -1.031490 0.000000 0.000000
    41 -0.308254 -0.007813 0.307166 -0.182954 -0.642971 -2.386014
    42 1.978377 0.019542 -0.000001 -0.103305 0.015857 0.554879
    43 0.982424 0.003187 0.000000 0.000000 0.000000 0.326563
  time 11
    0 8.286260 2.853146 -8.729230 -0.747726 -1.197634 0.485423
    1 0.000000 -8.563284 0.000000 0.363744 -0.059182 -0.210056
    2 -0.627912 -3.172447 0.559143 -1.247017 1.437605 -1.233824
    3 0.000000 1.888487 0.974220 0.000000 0.000000 0.000000
    4 -0.013948 -2.720512 1.100493 -0.007550 0.000000 0.000000
    5 -0.013949 -4.784637 0.650334 0.000000 0.000000 0.000000
    6 -0.716955 15.708817 -2.564272 0.000000 0.000000 0.000000
    7 -0.013949 -3.609846 2.626635 0.000000 0.000000 0.000000
    8 -0.551583 -1.713881 2.571738 0.000000 0.000000 0.340339
    9 -0.666018 -4.704158 1.993687 0.000000 0.337298 0.000000
    10 -0.003480 -0.404828 0.000000 -0.000001 0.000000 0.000000
    11 -0.519309 -2.501155 -0.278957 -1.107358 -0.060907 -0.152582
    12 -0.010599 -1.208185 -0.000001 -1.179843 0.000000 0.000000
    13 -0.000001 -0.763065 0.000000 -1.228712 0.000000 0.000000
    14 0.105981 -2.607135 -0.278958 -0.873864 -0.036146 -0.178594
    15 0.000001 -1.250578 0.000000 -1.223476 0.000000 0.000000
    16 -0.000001 -0.932635 0.000000 -1.567306 0.000000 0.000000
    17 0.763064 -2.490555 -0.278958 -0.193411 0.000000 0.130900
    18 -0.012322 -1.280916 0.000000 -0.729147 0.000000 0.000000
    19 -0.001697 -0.749371 0.000001 -0.587779 0.000000 0.000000
    20 0.354566 0.016268 0.318133 0.458018 -0.443926 -1.167637
    21 1.887166 0.012878 0.000000 -0.304014 -0.029870 -0.496333
    22 1.001873 -0.000270 0.000000 0.000000 0.000000 -0.577704
    23 -1.123359 -2.195093 -0.278958 -1.174574 -0.118742 -0.146524
    24 0.010771 -0.963792 0.000000 -0.977385 0.000000 0.000000
    25 -0.010412 -0.631916 0.000000 -1.034980 0.000000 0.000000
    26 -0.485028 -9.469278 -10.432640 -0.831167 0.448486 0.424985
    27 0.093834 -8.543164 -0.015625 0.775264 -0.553934 0.005102
    28 -0.000001 -0.359712 0.000000 0.000000 0.000000 0.000000
    29 -0.170479 -2.636146 -0.277655 -1.086149 -0.015676 0.111936
    30 0.010598 -1.261177 -0.000001 -0.473438 0.000000 0.000000
    31 0.000001 -0.943234 0.000001 -0.881031 0.000827 0.000707
    32 -0.827562 -2.508972 -0.277655 -0.649137 0.000000 0.000000
    33 0.000000 -1.292971 -0.000001 -0.710575 -0.058257 0.000120
    34 0.000000 -0.752466 0.000000 -0.777529 -0.248776 0.191909
    35 0.444213 -2.561960 -0.277655 -1.390389 0.102658 0.162209
    36 0.021024 -1.208187 0.000001 -0.273349 0.001378 0.005429
    37 0.010598 -0.741867 -0.000001 -0.721174 0.000000 0.000000
    38 1.047446 -2.222820 -0.277655 -1.356430 -0.069497 -0.040770
    39 0.000000 -0.996224 -0.000001 -1.199041 0.000000 0.000000
    40 0.000001 -0.614692 0.000001 -1.031490 0.000000 0.000000
    41 -0.308254 -0.007813 0.307166 -0.196274 -0.653335 -2.393964
    42 1.978377 0.019542 -0.000001 -0.104002 0.006988 0.542145
    43 0.982424 0.003187 0.000000 0.000000 0.000000 0.336612
  time 12
    0 8.294072 2.907835 -8.756575 -0.765566 -1.191673 0.503420
    1 0.000000 -8.563284 0.000000 0.365377 -0.057853 -0.216368
    2 -0.627912 -3.172447 0.559143 -1.247017 1.437605 -1.233824
    3 0.000000 1.888487 0.974220 0.000000 0.000000 0.000000
    4 -0.013948 -2.720512 1.100493 -0.013567 0.000000 0.000000
    5 -0.013949 -4.784637 0.650334 0.000000 0.000000 0.000000
    6 -0.716955 15.708817 -2.564272 0.000000 0.000000 0.000000
    7 -0.013949 -3.609846 2.626635 0.000000 0.000000 0.000000
    8 -0.551583 -1.713881 2.571738 0.000000 0.000000 0.340339
    9 -0.666018 -4.704158 1.993687 0.000000 0.337298 0.000000
    10 -0.003480 -0.404828 0.000000 -0.000001 0.000000 0.000000
    11 -0.519309 -2.501155 -0.278957 -1.107358 -0.060907 -0.152582
    12 -0.010599 -1.208185 -0.000001 -1.179843 0.000000 0.000000
    13 -0.000001 -0.763065 0.000000 -1.228712 0.000000 0.000000
    14 0.105981 -2.607135 -0.278958 -0.873864 -0.036146 -0.178594
    15 0.000001 -1.250578 0.000000 -1.223476 0.000000 0.000000
    16 -0.000001 -0.932635 0.000000 -1.567306 0.000000 0.000000
    17 0.763064 -2.490555 -0.278958 -0.190379 0.000000 0.130900
    18 -0.012322 -1.280916 0.000000 -0.717602 0.000000 0.000000
    19 -0.001697 -0.749371 0.000001 -0.583309 0.000000 0.000000
    20 0.354566 0.016268 0.318133 0.458018 -0.443926 -1.167637
    21 1.887166 0.012878 0.000000 -0.304014 -0.029870 -0.496333
    22 1.001873 -0.000270 0.000000 0.000000 0.000000 -0.577704
    23 -1.123359 -2.195093 -0.278958 -1.174574 -0.118742 -0.146524
    24 0.010771 -0.963792 0.000000 -0.977385 0.000000 0.000000
    25 -0.010412 -0.631916 0.000000 -1.034980 0.000000 0.000000
    26 -0.496747 -9.441933 -10.381858 -0.828688 0.448961 0.436844
    27 0.093834 -8.543164 -0.015625 0.777619 -0.559671 -0.001646
    28 -0.000001 -0.359712 0.000000 0.000000 0.000000 0.000000
    29 -0.170479 -2.636146 -0.277655 -1.088077 -0.023286 0.107598
    30 0.010598 -1.261177 -0.000001 -0.473438 0.000000 0.000000
    31 0.000001 -0.943234 0.000001 -0.862788 0.000000 0.000000
    32 -0.827562 -2.508972 -0.277655 -0.649137 0.000000 0.000000
    33 0.000000 -1.292971 -0.000001 -0.710616 -0.058257 0.000120
    34 0.000000 -0.752466 0.000000 -0.777529 -0.248776 0.191909
    35 0.444213 -2.561960 -0.277655 -1.380256 0.099111 0.163395
    36 0.021024 -1.208187 0.000001 -0.259572 0.001786 0.007251
    37 0.010598 -0.741867 -0.000001 -0.721174 0.000000 0.000000
    38 1.047446 -2.222820 -0.277655 -1.356430 -0.069497 -0.040770
    39 0.000000 -0.996224 -0.000001 -1.199041 0.000000 0.000000
    40 0.000001 -0.614692 0.000001 -1.031490 0.000000 0.000000
    41 -0.308254 -0.007813 0.307166 -0.209614 -0.664075 -2.403698
    42 1.978377 0.019542 -0.000001 -0.104640 -0.002767 0.529132
    43 0.982424 0.003187 0.000000 0.000000 0.000000 0.346806
  time 13
    0 8.297979 2.950806 -8.776107 -0.781945 -1.185886 0.520027
    1 0.000000 -8.563284 0.000000 0.367241 -0.056258 -0.222808
    2 -0.627912 -3.172447 0.559143 -1.247017 1.437605 -1.233824
    3 0.000000 1.888487 0.974220 0.000000 0.000000 0.000000
    4 -0.013948 -2.720512 1.100493 -0.018157 0.000000 0.000000
    5 -0.013949 -4.784637 0.650334 0.000000 0.000000 0.000000
    6 -0.716955 15.708817 -2.564272 0.000000 0.000000 0.000000
    7 -0.013949 -3.609846 2.626635 0.000000 0.000000 0.000000
    8 -0.551583 -1.713881 2.571738 0.000000 0.000000 0.340339
    9 -0.666018 -4.704158 1.993687 0.000000 0.337298 0.000000
    10 -0.003480 -0.404828 0.000000 -0.000001 0.000000 0.000000
    11 -0.519309 -2.501155 -0.278957 -1.107358 -0.060907 -0.152582
    12 -0.010599 -1.208185 -0.000001 -1.179843 0.000000 0.000000
    13 -0.000001 -0.763065 0.000000 -1.228712 0.000000 0.000000
    14 0.105981 -2.607135 -0.278958 -0.873864 -0.036146 -0.178594
    15 0.000001 -1.250578 0.000000 -1.223476 0.000000 0.000000
    16 -0.000001 -0.932635 0.000000 -1.567306 0.000000 0.000000
    17 0.763064 -2.490555 -0.278958 -0.188066 0.000000 0.130900
    18 -0.012322 -1.280916 0.000000 -0.709029 0.000000 0.000000
    19 -0.001697 -0.749371 0.000001 -0.579881 0.000000 0.000000
    20 0.354566 0.016268 0.318133 0.458018 -0.443926 -1.167637
    21 1.887166 0.012878 0.000000 -0.304014 -0.029870 -0.496333
    22 1.001873 -0.000270 0.000000 0.000000 0.000000 -0.577704
    23 -1.123359 -2.195093 -0.278958 -1.174574 -0.118742 -0.146524
    24 0.010771 -0.963792 0.000000 -0.977385 0.000000 0.000000
    25 -0.010412 -0.631916 0.000000 -1.034980 0.000000 0.000000
    26 -0.524092 -9.445839 -10.334981 -0.825766 0.449436 0.451572
    27 0.093834 -8.543164 -0.019532 0.778268 -0.561869 -0.004616
    28 -0.000001 -0.359712 0.000000 0.000000 0.000000 0.000000
    29 -0.170479 -2.636146 -0.277655 -1.089951 -0.031519 0.102936
    30 0.010598 -1.261177 -0.000001 -0.473438 0.000000 0.000000
    31 0.000001 -0.943234 0.000001 -0.853077 -0.002661 -0.002325
    32 -0.827562 -2.508972 -0.277655 -0.649137 0.000000 0.000000
    33 0.000000 -1.292971 -0.000001 -0.710575 -0.058257 0.000120
    34 0.000000 -0.752466 0.000000 -0.777529 -0.248776 0.191909
    35 0.444213 -2.561960 -0.277655 -1.370334 0.094389 0.164522
    36 0.021024 -1.208187 0.000001 -0.245868 0.001810 0.007562
    37 0.010598 -0.741867 -0.000001 -0.721174 0.000000 0.000000
    38 1.047446 -2.222820 -0.277655 -1.356430 -0.069497 -0.040770
    39 0.000000 -0.996224 -0.000001 -1.199041 0.000000 0.000000
    40 0.000001 -0.614692 0.000001 -1.031490 0.000000 0.000000
    41 -0.308254 -0.007813 0.307166 -0.222650 -0.674642 -2.414506
    42 1.978377 0.019542 -0.000001 -0.105192 -0.013098 0.515994
    43 0.982424 0.003187 0.000000 0.000000 0.000000 0.357145
  time 14
    0 8.301885 2.985963 -8.791732 -0.795149 -1.180866 0.533930
    1 0.000000 -8.563284 0.000000 0.369053 -0.054774 -0.228700
    2 -0.627912 -3.172447 0.559143 -1.247017 1.437605 -1.233824
    3 0.000000 1.888487 0.974220 0.000000 0.000000 0.000000
    4 -0.013948 -2.720512 1.100493 -0.021440 0.000000 0.000000
    5 -0.013949 -4.784637 0.650334 0.000000 0.000000 0.000000
    6 -0.716955 15.708817 -2.564272 0.000000 0.000000 0.000000
    7 -0.013949 -3.609846 2.626635 0.000000 0.000000 0.000000
    8 -0.551583 -1.713881 2.571738 0.000000 0.000000 0.340339
    9 -0.666018 -4.704158 1.993687 0.000000 0.337298 0.000000
    10 -0.003480 -0.404828 0.000000 -0.000001 0.000000 0.000000
    11 -0.519309 -2.501155 -0.278957 -1.107358 -0.060907 -0.152582
    12 -0.010599 -1.208185 -0.000001 -1.179843 0.000000 0.000000
    13 -0.000001 -0.763065 0.000000 -1.228712 0.000000 0.000000
    14 0.105981 -2.607135 -0.278958 -0.873864 -0.036146 -0.178594
    15 0.000001 -1.250578 0.000000 -1.223476 0.000000 0.000000
    16 -0.000001 -0.932635 0.000000 -1.567306 0.000000 0.000000
    17 0.763064 -2.490555 -0.278958 -0.186400 0.000000 0.130900
    18 -0.012322 -1.280916 0.000000 -0.703161 0.000000 0.000000
    19 -0.001697 -0.749371 0.000001 -0.577437 0.000000 0.000000
    20 0.354566 0.016268 0.318133 0.458018 -0.443926 -1.167637
    21 1.887166 0.012878 0.000000 -0.304014 -0.029870 -0.496333
    22 1.001873 -0.000270 0.000000 0.000000 0.000000 -0.577704
    23 -1.123359 -2.195093 -0.278958 -1.174574 -0.118742 -0.146524
    24 0.010771 -0.963792 0.000000 -0.977385 0.000000 0.000000
    25 -0.010412 -0.631916 0.000000 -1.034980 0.000000 0.000000
    26 -0.547530 -9.461465 -10.299824 -0.822489 0.450007 0.467447
    27 0.093834 -8.543164 -0.019532 0.776279 -0.558396 -0.003486
    28 -0.000001 -0.359712 0.000000 0.000000 0.000000 0.000000
    29 -0.170479 -2.636146 -0.277655 -1.091769 -0.039681 0.098322
    30 0.010598 -1.261177 -0.000001 -0.473438 0.000000 0.000000
    31 0.000001 -0.943234 0.000001 -0.847759 -0.006592 -0.005813
    32 -0.827562 -2.508972 -0.277655 -0.649137 0.000000 0.000000
    33 0.000000 -1.292971 -0.000001 -0.710616 -0.058257 0.000120
    34 0.000000 -0.752466 0.000000 -0.777529 -0.248776 0.191909
    35 0.444213 -2.561960 -0.277655 -1.362048 0.089643 0.165433
    36 0.021024 -1.208187 0.000001 -0.233354 0.001270 0.005453
    37 0.010598 -0.741867 -0.000001 -0.721174 0.000000 0.000000
    38 1.047446 -2.222820 -0.277655 -1.356430 -0.069497 -0.040770
    39 0.000000 -0.996224 -0.000001 -1.199041 0.000000 0.000000
    40 0.000001 -0.614692 0.000001 -1.031490 0.000000 0.000000
    41 -0.308254 -0.007813 0.307166 -0.235076 -0.684474 -2.425614
    42 1.978377 0.019542 -0.000001 -0.105627 -0.023669 0.502949
    43 0.982424 0.003187 0.000000 0.000000 0.000000 0.367627
  time 15
    0 8.301885 3.009401 -8.803451 -0.803767 -1.177310 0.543431
    1 0.000000 -8.563284 0.000000 0.370546 -0.053711 -0.233398
    2 -0.627912 -3.172447 0.559143 -1.247017 1.437605 -1.233824
    3 0.000000 1.888487 0.974220 0.000000 0.000000 0.000000
    4 -0.013948 -2.720512 1.100493 -0.023562 0.000000 0.000000
    5 -0.013949 -4.784637 0.650334 0.000000 0.000000 0.000000
    6 -0.716955 15.708817 -2.564272 0.000000 0.000000 0.000000
    7 -0.013949 -3.609846 2.626635 0.000000 0.000000 0.000000
    8 -0.551583 -1.713881 2.571738 0.000000 0.000000 0.340339
    9 -0.666018 -4.704158 1.993687 0.000000 0.337298 0.000000
    10 -0.003480 -0.404828 0.000000 -0.000001 0.000000 0.000000
    11 -0.519309 -2.501155 -0.278957 -1.107358 -0.060907 -0.152582
    12 -0.010599 -1.208185 -0.000001 -1.179843 0.000000 0.000000
    13 -0.000001 -0.763065 0.000000 -1.228712 0.000000 0.000000
    14 0.105981 -2.607135 -0.278958 -0.873864 -0.036146 -0.178594
    15 0.000001 -1.250578 0.000000 -1.223476 0.000000 0.000000
    16 -0.000001 -0.932635 0.000000 -1.567306 0.000000 0.000000
    17 0.763064 -2.490555 -0.278958 -0.185333 0.000000 0.130900
    18 -0.012322 -1.280916 0.000000 -0.699732 0.000000 0.000000
    19 -0.001697 -0.749371 0.000001 -0.575855 0.000000 0.000000
    20 0.354566 0.016268 0.318133 0.458018 -0.443926 -1.167637
    21 1.887166 0.012878 0.000000 -0.304014 -0.029870 -0.496333
    22 1.001873 -0.000270 0.000000 0.000000 0.000000 -0.577704
    23 -1.123359 -2.195093 -0.278958 -1.174574 -0.118742 -0.146524
    24 0.010771 -0.963792 0.000000 -0.977385 0.000000 0.000000
    25 -0.010412 -0.631916 0.000000 -1.034980 0.000000 0.000000
    26 -0.559249 -9.496622 -10.284198 -0.819390 0.450387 0.483036
    27 0.093834 -8.543164 -0.019532 0.771245 -0.550087 -0.000354
    28 -0.000001 -0.359712 0.000000 0.000000 0.000000 0.000000
    29 -0.170479 -2.636146 -0.277655 -1.093476 -0.047087 0.094163
    30 0.010598 -1.261177 -0.000001 -0.473438 0.000000 0.000000
    31 0.000001 -0.943234 0.000001 -0.846577 -0.010163 -0.008964
    32 -0.827562 -2.508972 -0.277655 -0.649137 0.000000 0.000000
    33 0.000000 -1.292971 -0.000001 -0.710575 -0.058257 0.000120
    34 0.000000 -0.752466 0.000000 -0.777529 -0.248776 0.191909
    35 0.444213 -2.561960 -0.277655 -1.357035 0.086060 0.165996
    36 0.021024 -1.208187 0.000001 -0.223149 0.000000 0.000000
    37 0.010598 -0.741867 -0.000001 -0.721174 0.000000 0.000000
    38 1.047446 -2.222820 -0.277655 -1.356430 -0.069497 -0.040770
    39 0.000000 -0.996224 -0.000001 -1.199041 0.000000 0.000000
    40 0.000001 -0.614692 0.000001 -1.031490 0.000000 0.000000
    41 -0.308254 -0.007813 0.307166 -0.246589 -0.692990 -2.436315
    42 1.978377 0.019542 -0.000001 -0.105918 -0.034143 0.490091
    43 0.982424 0.003187 0.000000 0.000000 0.000000 0.378197
  time 16
    0 8.305791 3.021120 -8.811264 -0.806085 -1.175881 0.547370
    1 0.000000 -8.563284 0.000000 0.371478 -0.053423 -0.236223
    2 -0.627912 -3.172447 0.559143 -1.247017 1.437605 -1.233824
    3 0.000000 1.888487 0.974220 0.000000 0.000000 0.000000
    4 -0.013948 -2.720512 1.100493 -0.024628 0.000000 0.000000
    5 -0.013949 -4.784637 0.650334 0.000000 0.000000 0.000000
    6 -0.716955 15.708817 -2.564272 0.000000 0.000000 0.000000
    7 -0.013949 -3.609846 2.626635 0.000000 0.000000 0.000000
    8 -0.551583 -1.713881 2.571738 0.000000 0.000000 0.340339
    9 -0.666018 -4.704158 1.993687 0.000000 0.337298 0.000000
    10 -0.003480 -0.404828 0.000000 -0.000001 0.000000 0.000000
    11 -0.519309 -2.501155 -0.278957 -1.107358 -0.060907 -0.152582
    12 -0.010599 -1.208185 -0.000001 -1.179843 0.000000 0.000000
    13 -0.000001 -0.763065 0.000000 -1.228712 0.000000 0.000000
    14 0.105981 -2.607135 -0.278958 -0.873864 -0.036146 -0.178594
    15 0.000001 -1.250578 0.000000 -1.223476 0.000000 0.000000
    16 -0.000001 -0.932635 0.000000 -1.567306 0.000000 0.000000
    17 0.763064 -2.490555 -0.278958 -0.184794 0.000000 0.130900
    18 -0.012322 -1.280916 0.000000 -0.698493 0.000000 0.000000
    19 -0.001697 -0.749371 0.000001 -0.575064 0.000000 0.000000
    20 0.354566 0.016268 0.318133 0.458018 -0.443926 -1.167637
    21 1.887166 0.012878 0.000000 -0.304014 -0.029870 -0.496333
    22 1.001873 -0.000270 0.000000 0.000000 0.000000 -0.577704
    23 -1.123359 -2.195093 -0.278958 -1.174574 -0.118742 -0.146524
    24 0.010771 -0.963792 0.000000 -0.977385 0.000000 0.000000
    25 -0.010412 -0.631916 0.000000 -1.034980 0.000000 0.000000
    26 -0.567062 -9.551311 -10.284198 -0.816733 0.450768 0.496712
    27 0.093834 -8.543164 -0.023438 0.764587 -0.540107 0.004392
    28 -0.000001 -0.359712 0.000000 0.000000 0.000000 0.000000
    29 -0.170479 -2.636146 -0.277655 -1.095184 -0.053020 0.090843
    30 0.010598 -1.261177 -0.000001 -0.473438 0.000000 0.000000
    31 0.000001 -0.943234 0.000001 -0.849273 -0.011733 -0.010319
    32 -0.827562 -2.508972 -0.277655 -0.649137 0.000000 0.000000
    33 0.000000 -1.292971 -0.000001 -0.710575 -0.058257 0.000120
    34 0.000000 -0.752466 0.000000 -0.777529 -0.248776 0.191909
    35 0.444213 -2.561960 -0.277655 -1.354343 0.083339 0.166319
    36 0.021024 -1.208187 0.000001 -0.220817 -0.008018 -0.035331
    37 0.010598 -0.741867 -0.000001 -0.721174 0.000000 0.000000
    38 1.047446 -2.222820 -0.277655 -1.356430 -0.069497 -0.040770
    39 0.000000 -0.996224 -0.000001 -1.199041 0.000000 0.000000
    40 0.000001 -0.614692 0.000001 -1.031490 0.000000 0.000000
    41 -0.308254 -0.007813 0.307166 -0.256924 -0.699628 -2.445834
    42 1.978377 0.019542 -0.000001 -0.106063 -0.044246 0.477607
    43 0.982424 0.003187 0.000000 0.000000 0.000000 0.388853
  time 17
    0 8.305791 3.028933 -8.815170 -0.800642 -1.177206 0.544126
    1 0.000000 -8.563284 0.000000 0.371567 -0.054243 -0.236530
    2 -0.627912 -3.172447 0.559143 -1.247017 1.437605 -1.233824
    3 0.000000 1.888487 0.974220 0.000000 0.000000 0.000000
    4 -0.013948 -2.720512 1.100493 -0.024772 0.000000 0.000000
    5 -0.013949 -4.784637 0.650334 0.000000 0.000000 0.000000
    6 -0.716955 15.708817 -2.564272 0.000000 0.000000 0.000000
    7 -0.013949 -3.609846 2.626635 0.000000 0.000000 0.000000
    8 -0.551583 -1.713881 2.571738 0.000000 0.000000 0.340339
    9 -0.666018 -4.704158 1.993687 0.000000 0.337298 0.000000
    10 -0.003480 -0.404828 0.000000 -0.000001 0.000000 0.000000
    11 -0.519309 -2.501155 -0.278957 -1.107358 -0.060907 -0.152582
    12 -0.010599 -1.208185 -0.000001 -1.179843 0.000000 0.000000
    13 -0.000001 -0.763065 0.000000 -1.228712 0.000000 0.000000
    14 0.105981 -2.607135 -0.278958 -0.873864 -0.036146 -0.178594
    15 0.000001 -1.250578 0.000000 -1.223476 0.000000 0.000000
    16 -0.000001 -0.932635 0.000000 -1.567306 0.000000 0.000000
    17 0.763064 -2.490555 -0.278958 -0.184722 0.000000 0.130900
    18 -0.012322 -1.280916 0.000000 -0.699160 0.000000 0.000000
    19 -0.001697 -0.749371 0.000001 -0.574956 0.000000 0.000000
    20 0.354566 0.016268 0.318133 0.458018 -0.443926 -1.167637
    21 1.887166 0.012878 0.000000 -0.304014 -0.029870 -0.496333
    22 1.001873 -0.000270 0.000000 0.000000 0.000000 -0.577704
    23 -1.123359 -2.195093 -0.278958 -1.174574 -0.118742 -0.146524
    24 0.010771 -0.963792 0.000000 -0.977385 0.000000 0.000000
    25 -0.010412 -0.631916 0.000000 -1.034980 0.000000 0.000000
    26 -0.574875 -9.609907 -10.284198 -0.814785 0.451053 0.506849
    27 0.093834 -8.543164 -0.023438 0.757605 -0.531644 0.010429
    28 -0.000001 -0.359712 0.000000 0.000000 0.000000 0.000000
    29 -0.170479 -2.636146 -0.277655 -1.097774 -0.054266 0.090160
    30 0.010598 -1.261177 -0.000001 -0.473438 0.000000 0.000000
    31 0.000001 -0.943234 0.000001 -0.854147 -0.011649 -0.010187
    32 -0.827562 -2.508972 -0.277655 -0.649137 0.000000 0.000000
    33 0.000000 -1.292971 -0.000001 -0.710616 -0.058257 0.000120
    34 0.000000 -0.752466 0.000000 -0.777529 -0.248776 0.191909
    35 0.444213 -2.561960 -0.277655 -1.352127 0.080475 0.166583
    36 0.021024 -1.208187 0.000001 -0.225312 -0.015352 -0.066922
    37 0.010598 -0.741867 -0.000001 -0.721174 0.000000 0.000000
    38 1.047446 -2.222820 -0.277655 -1.356430 -0.069497 -0.040770
    39 0.000000 -0.996224 -0.000001 -1.199041 0.000000 0.000000
    40 0.000001 -0.614692 0.000001 -1.031490 0.000000 0.000000
    41 -0.308254 -0.007813 0.307166 -0.265817 -0.703746 -2.453462
    42 1.978377 0.019542 -0.000001 -0.106092 -0.053642 0.465652
    43 0.982424 0.003187 0.000000 0.000000 0.000000 0.399624
  time 18
    0 8.274541 3.048465 -8.709698 -0.790462 -1.180204 0.536479
    1 0.000000 -8.563284 0.000000 0.370546 -0.056524 -0.233672
    2 -0.627912 -3.172447 0.559143 -1.247017 1.437605 -1.233824
    3 0.000000 1.888487 0.974220 0.000000 0.000000 0.000000
    4 -0.013948 -2.720512 1.100493 -0.024125 0.000000 0.000000
    5 -0.013949 -4.784637 0.650334 0.000000 0.000000 0.000000
    6 -0.716955 15.708817 -2.564272 0.000000 0.000000 0.000000
    7 -0.013949 -3.609846 2.626635 0.000000 0.000000 0.000000
    8 -0.551583 -1.713881 2.571738 0.000000 0.000000 0.340339
    9 -0.666018 -4.704158 1.993687 0.000000 0.337298 0.000000
    10 -0.003480 -0.404828 0.000000 -0.000001 0.000000 0.000000
    11 -0.519309 -2.501155 -0.278957 -1.107358 -0.060907 -0.152582
    12 -0.010599 -1.208185 -0.000001 -1.179843 0.000000 0.000000
    13 -0.000001 -0.763065 0.000000 -1.228712 0.000000 0.000000
    14 0.105981 -2.607135 -0.278958 -0.873864 -0.036146 -0.178594
    15 0.000001 -1.250578 0.000000 -1.223476 0.000000 0.000000
    16 -0.000001 -0.932635 0.000000 -1.567306 0.000000 0.000000
    17 0.763064 -2.490555 -0.278958 -0.185046 0.000000 0.130900
    18 -0.012322 -1.280916 0.000000 -0.701504 0.000000 0.000000
    19 -0.001697 -0.749371 0.000001 -0.575435 0.000000 0.000000
    20 0.354566 0.016268 0.318133 0.458018 -0.443926 -1.167637
    21 1.887166 0.012878 0.000000 -0.304014 -0.029870 -0.496333
    22 1.001873 -0.000270 0.000000 0.000000 0.000000 -0.577704
    23 -1.123359 -2.195093 -0.278958 -1.174574 -0.118742 -0.146524
    24 0.010771 -0.963792 0.000000 -0.977385 0.000000 0.000000
    25 -0.010412 -0.631916 0.000000 -1.034980 0.000000 0.000000
    26 -0.586594 -9.648971 -10.280292 -0.813900 0.451148 0.511822
    27 0.093834 -8.543164 -0.023438 0.751597 -0.527841 0.017532
    28 -0.000001 -0.359712 0.000000 0.000000 0.000000 0.000000
    29 -0.170479 -2.636146 -0.277655 -1.097774 -0.053020 0.090843
    30 0.010598 -1.261177 -0.000001 -0.473438 0.000000 0.000000
    31 0.000001 -0.943234 0.000001 -0.859613 -0.011337 -0.009875
    32 -0.827562 -2.508972 -0.277655 -0.649137 0.000000 0.000000
    33 0.000000 -1.292971 -0.000001 -0.710575 -0.058257 0.000120
    34 0.000000 -0.752466 0.000000 -0.777529 -0.248776 0.191909
    35 0.444213 -2.561960 -0.277655 -1.350332 0.077467 0.166799
    36 0.021024 -1.208187 0.000001 -0.230803 -0.015364 -0.066119
    37 0.010598 -0.741867 -0.000001 -0.721174 0.000000 0.000000
    38 1.047446 -2.222820 -0.277655 -1.356430 -0.069497 -0.040770
    39 0.000000 -0.996224 -0.000001 -1.199041 0.000000 0.000000
    40 0.000001 -0.614692 0.000001 -1.031490 0.000000 0.000000
    41 -0.308254 -0.007813 0.307166 -0.273025 -0.704763 -2.458468
    42 1.978377 0.019542 -0.000001 -0.105976 -0.061995 0.454350
    43 0.982424 0.003187 0.000000 0.000000 0.000000 0.410453
  time 19
    0 8.247196 3.067997 -8.608133 -0.779879 -1.183376 0.528060
    1 0.000000 -8.563284 0.000000 0.368913 -0.059447 -0.228878
    2 -0.627912 -3.172447 0.559143 -1.247017 1.437605 -1.233824
    3 0.000000 1.888487 0.974220 0.000000 0.000000 0.000000
    4 -0.013948 -2.720512 1.100493 -0.022807 0.000000 0.000000
    5 -0.013949 -4.784637 0.650334 0.000000 0.000000 0.000000
    6 -0.716955 15.708817 -2.564272 0.000000 0.000000 0.000000
    7 -0.013949 -3.609846 2.626635 0.000000 0.000000 0.000000
    8 -0.551583 -1.713881 2.571738 0.000000 0.000000 0.340339
    9 -0.666018 -4.704158 1.993687 0.000000 0.337298 0.000000
    10 -0.003480 -0.404828 0.000000 -0.000001 0.000000 0.000000
    11 -0.519309 -2.501155 -0.278957 -1.107358 -0.060907 -0.152582
    12 -0.010599 -1.208185 -0.000001 -1.179843 0.000000 0.000000
    13 -0.000001 -0.763065 0.000000 -1.228712 0.000000 0.000000
    14 0.105981 -2.607135 -0.278958 -0.873864 -0.036146 -0.178594
    15 0.000001 -1.250578 0.000000 -1.223476 0.000000 0.000000
    16 -0.000001 -0.932635 0.000000 -1.567306 0.000000 0.000000
    17 0.763064 -2.490555 -0.278958 -0.185717 0.000000 0.130900
    18 -0.012322 -1.280916 0.000000 -0.705238 0.000000 0.000000
    19 -0.001697 -0.749371 0.000001 -0.576418 0.000000 0.000000
    20 0.354566 0.016268 0.318133 0.458018 -0.443926 -1.167637
    21 1.887166 0.012878 0.000000 -0.304014 -0.029870 -0.496333
    22 1.001873 -0.000270 0.000000 0.000000 0.000000 -0.577704
    23 -1.123359 -2.195093 -0.278958 -1.174574 -0.118742 -0.146524
    24 0.010771 -0.963792 0.000000 -0.977385 0.000000 0.000000
    25 -0.010412 -0.631916 0.000000 -1.034980 0.000000 0.000000
    26 -0.606126 -9.664596 -10.256854 -0.813900 0.451148 0.512874
    27 0.093834 -8.543164 -0.027345 0.746481 -0.527863 0.025346
    28 -0.000001 -0.359712 0.000000 0.000000 0.000000 0.000000
    29 -0.170479 -2.636146 -0.277655 -1.093972 -0.052996 0.090795
    30 0.010598 -1.261177 -0.000001 -0.473438 0.000000 0.000000
    31 0.000001 -0.943234 0.000001 -0.865558 -0.010846 -0.009384
    32 -0.827562 -2.508972 -0.277655 -0.649137 0.000000 0.000000
    33 0.000000 -1.292971 -0.000001 -0.710575 -0.058257 0.000120
    34 0.000000 -0.752466 0.000000 -0.777529 -0.248776 0.191909
    35 0.444213 -2.561960 -0.277655 -1.348854 0.074351 0.166967
    36 0.021024 -1.208187 0.000001 -0.236513 -0.015041 -0.063926
    37 0.010598 -0.741867 -0.000001 -0.721174 0.000000 0.000000
    38 1.047446 -2.222820 -0.277655 -1.356430 -0.069497 -0.040770
    39 0.000000 -0.996224 -0.000001 -1.199041 0.000000 0.000000
    40 0.000001 -0.614692 0.000001 -1.031490 0.000000 0.000000
    41 -0.308254 -0.007813 0.307166 -0.278589 -0.702822 -2.461326
    42 1.978377 0.019542 -0.000001 -0.105744 -0.068994 0.443890
    43 0.982424 0.003187 0.000000 0.000000 0.000000 0.421340
  time 20
    0 8.223758 3.083622 -8.522193 -0.768640 -1.186793 0.518636
    1 0.000000 -8.563284 0.000000 0.367317 -0.062105 -0.223809
    2 -0.627912 -3.172447 0.559143 -1.247017 1.437605 -1.233824
    3 0.000000 1.888487 0.974220 0.000000 0.000000 0.000000
    4 -0.013948 -2.720512 1.100493 -0.020937 0.000000 0.000000
    5 -0.013949 -4.784637 0.650334 0.000000 0.000000 0.000000
    6 -0.716955 15.708817 -2.564272 0.000000 0.000000 0.000000
    7 -0.013949 -3.609846 2.626635 0.000000 0.000000 0.000000
    8 -0.551583 -1.713881 2.571738 0.000000 0.000000 0.340339
    9 -0.666018 -4.704158 1.993687 0.000000 0.337298 0.000000
    10 -0.003480 -0.404828 0.000000 -0.000001 0.000000 0.000000
    11 -0.519309 -2.501155 -0.278957 -1.107358 -0.060907 -0.152582
    12 -0.010599 -1.208185 -0.000001 -1.179843 0.000000 0.000000
    13 -0.000001 -0.763065 0.000000 -1.228712 0.000000 0.000000
    14 0.105981 -2.607135 -0.278958 -0.873864 -0.036146 -0.178594
    15 0.000001 -1.250578 0.000000 -1.223476 0.000000 0.000000
    16 -0.000001 -0.932635 0.000000 -1.567306 0.000000 0.000000
    17 0.763064 -2.490555 -0.278958 -0.186652 0.000000 0.130900
    18 -0.012322 -1.280916 0.000000 -0.710096 0.000000 0.000000
    19 -0.001697 -0.749371 0.000001 -0.577808 0.000000 0.000000
    20 0.354566 0.016268 0.318133 0.458018 -0.443926 -1.167637
    21 1.887166 0.012878 0.000000 -0.304014 -0.029870 -0.496333
    22 1.001873 -0.000270 0.000000 0.000000 0.000000 -0.577704
    23 -1.123359 -2.195093 -0.278958 -1.174574 -0.118742 -0.146524
    24 0.010771 -0.963792 0.000000 -0.977385 0.000000 0.000000
    25 -0.010412 -0.631916 0.000000 -1.034980 0.000000 0.000000
    26 -0.625658 -9.668502 -10.221696 -0.814254 0.451053 0.512205
    27 0.093834 -8.543164 -0.027345 0.741326 -0.528655 0.033579
    28 -0.000001 -0.359712 0.000000 0.000000 0.000000 0.000000
    29 -0.170479 -2.636146 -0.277655 -1.089951 -0.052972 0.090759
    30 0.010598 -1.261177 -0.000001 -0.473438 0.000000 0.000000
    31 0.000001 -0.943234 0.000001 -0.871983 -0.010199 -0.008761
    32 -0.827562 -2.508972 -0.277655 -0.649137 0.000000 0.000000
    33 0.000000 -1.292971 -0.000001 -0.710575 -0.058257 0.000120
    34 0.000000 -0.752466 0.000000 -0.777529 -0.248776 0.191909
    35 0.444213 -2.561960 -0.277655 -1.347693 0.071127 0.167110
    36 0.021024 -1.208187 0.000001 -0.242369 -0.014429 -0.060498
    37 0.010598 -0.741867 -0.000001 -0.721174 0.000000 0.000000
    38 1.047446 -2.222820 -0.277655 -1.356430 -0.069497 -0.040770
    39 0.000000 -0.996224 -0.000001 -1.199041 0.000000 0.000000
    40 0.000001 -0.614692 0.000001 -1.031490 0.000000 0.000000
    41 -0.308254 -0.007813 0.307166 -0.282893 -0.698673 -2.463195
    42 1.978377 0.019542 -0.000001 -0.105540 -0.073704 0.436729
    43 0.982424 0.003187 0.000000 0.000000 0.000000 0.432256
  time 21
    0 8.200320 3.099248 -8.440159 -0.756344 -1.190488 0.508132
    1 0.000000 -8.563284 0.000000 0.365748 -0.064563 -0.218385
    2 -0.627912 -3.172447 0.559143 -1.247017 1.437605 -1.233824
    3 0.000000 1.888487 0.974220 0.000000 0.000000 0.000000
    4 -0.013948 -2.720512 1.100493 -0.018660 0.000000 0.000000
    5 -0.013949 -4.784637 0.650334 0.000000 0.000000 0.000000
    6 -0.716955 15.708817 -2.564272 0.000000 0.000000 0.000000
    7 -0.013949 -3.609846 2.626635 0.000000 0.000000 0.000000
    8 -0.551583 -1.713881 2.571738 0.000000 0.000000 0.340339
    9 -0.666018 -4.704158 1.993687 0.000000 0.337298 0.000000
    10 -0.003480 -0.404828 0.000000 -0.000001 0.000000 0.000000
    11 -0.519309 -2.501155 -0.278957 -1.107358 -0.060907 -0.152582
    12 -0.010599 -1.208185 -0.000001 -1.179843 0.000000 0.000000
    13 -0.000001 -0.763065 0.000000 -1.228712 0.000000 0.000000
    14 0.105981 -2.607135 -0.278958 -0.873864 -0.036146 -0.178594
    15 0.000001 -1.250578 0.000000 -1.223476 0.000000 0.000000
    16 -0.000001 -0.932635 0.000000 -1.567306 0.000000 0.000000
    17 0.763064 -2.490555 -0.278958 -0.187802 0.000000 0.130900
    18 -0.012322 -1.280916 0.000000 -0.715830 0.000000 0.000000
    19 -0.001697 -0.749371 0.000001 -0.579510 0.000000 0.000000
    20 0.354566 0.016268 0.318133 0.458018 -0.443926 -1.167637
    21 1.887166 0.012878 0.000000 -0.304014 -0.029870 -0.496333
    22 1.001873 -0.000270 0.000000 0.000000 0.000000 -0.577704
    23 -1.123359 -2.195093 -0.278958 -1.174574 -0.118742 -0.146524
    24 0.010771 -0.963792 0.000000 -0.977385 0.000000 0.000000
    25 -0.010412 -0.631916 0.000000 -1.034980 0.000000 0.000000
    26 -0.653002 -9.660690 -10.186539 -0.814962 0.450958 0.510101
    27 0.097741 -8.543164 -0.031251 0.736170 -0.530061 0.042167
    28 -0.000001 -0.359712 0.000000 0.000000 0.000000 0.000000
    29 -0.170479 -2.636146 -0.277655 -1.085653 -0.052948 0.090711
    30 0.010598 -1.261177 -0.000001 -0.473438 0.000000 0.000000
    31 0.000001 -0.943234 0.000001 -0.878741 -0.009396 -0.008018
    32 -0.827562 -2.508972 -0.277655 -0.649137 0.000000 0.000000
    33 0.000000 -1.292971 -0.000001 -0.710575 -0.058257 0.000120
    34 0.000000 -0.752466 0.000000 -0.777529 -0.248776 0.191909
    35 0.444213 -2.561960 -0.277655 -1.346796 0.067819 0.167218
    36 0.021024 -1.208187 0.000001 -0.248371 -0.013543 -0.056052
    37 0.010598 -0.741867 -0.000001 -0.721174 0.000000 0.000000
    38 1.047446 -2.222820 -0.277655 -1.356430 -0.069497 -0.040770
    39 0.000000 -0.996224 -0.000001 -1.199041 0.000000 0.000000
    40 0.000001 -0.614692 0.000001 -1.031490 0.000000 0.000000
    41 -0.308254 -0.007813 0.307166 -0.286101 -0.692646 -2.464184
    42 1.978377 0.019542 -0.000001 -0.105424 -0.075682 0.433460
    43 0.982424 0.003187 0.000000 0.000000 0.000000 0.443230
  time 22
    0 8.180788 3.114873 -8.365938 -0.742787 -1.194532 0.496159
    1 0.000000 -8.563284 0.000000 0.364127 -0.066889 -0.212526
    2 -0.627912 -3.172447 0.559143 -1.247017 1.437605 -1.233824
    3 0.000000 1.888487 0.974220 0.000000 0.000000 0.000000
    4 -0.013948 -2.720512 1.100493 -0.016083 0.000000 0.000000
    5 -0.013949 -4.784637 0.650334 0.000000 0.000000 0.000000
    6 -0.716955 15.708817 -2.564272 0.000000 0.000000 0.000000
    7 -0.013949 -3.609846 2.626635 0.000000 0.000000 0.000000
    8 -0.551583 -1.713881 2.571738 0.000000 0.000000 0.340339
    9 -0.666018 -4.704158 1.993687 0.000000 0.337298 0.000000
    10 -0.003480 -0.404828 0.000000 -0.000001 0.000000 0.000000
    11 -0.519309 -2.501155 -0.278957 -1.107358 -0.060907 -0.152582
    12 -0.010599 -1.208185 -0.000001 -1.179843 0.000000 0.000000
    13 -0.000001 -0.763065 0.000000 -1.228712 0.000000 0.000000
    14 0.105981 -2.607135 -0.278958 -0.873864 -0.036146 -0.178594
    15 0.000001 -1.250578 0.000000 -1.223476 0.000000 0.000000
    16 -0.000001 -0.932635 0.000000 -1.567306 0.000000 0.000000
    17 0.763064 -2.490555 -0.278958 -0.189108 0.000000 0.130900
    18 -0.012322 -1.280916 0.000000 -0.722193 0.000000 0.000000
    19 -0.001697 -0.749371 0.000001 -0.581427 0.000000 0.000000
    20 0.354566 0.016268 0.318133 0.458018 -0.443926 -1.167637
    21 1.887166 0.012878 0.000000 -0.304014 -0.029870 -0.496333
    22 1.001873 -0.000270 0.000000 0.000000 0.000000 -0.577704
    23 -1.123359 -2.195093 -0.278958 -1.174574 -0.118742 -0.146524
    24 0.010771 -0.963792 0.000000 -0.977385 0.000000 0.000000
    25 -0.010412 -0.631916 0.000000 -1.034980 0.000000 0.000000
    26 -0.676440 -9.648971 -10.151382 -0.815936 0.450863 0.506753
    27 0.097741 -8.543164 -0.031251 0.731014 -0.531974 0.051078
    28 -0.000001 -0.359712 0.000000 0.000000 0.000000 0.000000
    29 -0.170479 -2.636146 -0.277655 -1.081246 -0.052924 0.090663
    30 0.010598 -1.261177 -0.000001 -0.473438 0.000000 0.000000
    31 0.000001 -0.943234 0.000001 -0.885831 -0.008485 -0.007191
    32 -0.827562 -2.508972 -0.277655 -0.649137 0.000000 0.000000
    33 0.000000 -1.292971 -0.000001 -0.710575 -0.058257 0.000120
    34 0.000000 -0.752466 0.000000 -0.777529 -0.248776 0.191909
    35 0.444213 -2.561960 -0.277655 -1.346110 0.064439 0.167302
    36 0.021024 -1.208187 0.000001 -0.254470 -0.012428 -0.050767
    37 0.010598 -0.741867 -0.000001 -0.721174 0.000000 0.000000
    38 1.047446 -2.222820 -0.277655 -1.356430 -0.069497 -0.040770
    39 0.000000 -0.996224 -0.000001 -1.199041 0.000000 0.000000
    40 0.000001 -0.614692 0.000001 -1.031490 0.000000 0.000000
    41 -0.308254 -0.007813 0.307166 -0.288376 -0.685053 -2.464484
    42 1.978377 0.019542 -0.000001 -0.105279 -0.075382 0.431281
    43 0.982424 0.003187 0.000000 0.000000 0.000000 0.454204
  time 23
    0 8.165162 3.126592 -8.303436 -0.727618 -1.198924 0.482642
    1 0.000000 -8.563284 0.000000 0.362442 -0.069214 -0.206165
    2 -0.627912 -3.172447 0.559143 -1.247017 1.437605 -1.233824
    3 0.000000 1.888487 0.974220 0.000000 0.000000 0.000000
    4 -0.013948 -2.720512 1.100493 -0.013339 0.000000 0.000000
    5 -0.013949 -4.784637 0.650334 0.000000 0.000000 0.000000
    6 -0.716955 15.708817 -2.564272 0.000000 0.000000 0.000000
    7 -0.013949 -3.609846 2.626635 0.000000 0.000000 0.000000
    8 -0.551583 -1.713881 2.571738 0.000000 0.000000 0.340339
    9 -0.666018 -4.704158 1.993687 0.000000 0.337298 0.000000
    10 -0.003480 -0.404828 0.000000 -0.000001 0.000000 0.000000
    11 -0.519309 -2.501155 -0.278957 -1.107358 -0.060907 -0.152582
    12 -0.010599 -1.208185 -0.000001 -1.179843 0.000000 0.000000
    13 -0.000001 -0.763065 0.000000 -1.228712 0.000000 0.000000
    14 0.105981 -2.607135 -0.278958 -0.873864 -0.036146 -0.178594
    15 0.000001 -1.250578 0.000000 -1.223476 0.000000 0.000000
    16 -0.000001 -0.932635 0.000000 -1.567306 0.000000 0.000000
    17 0.763064 -2.490555 -0.278958 -0.190499 0.000000 0.130900
    18 -0.012322 -1.280916 0.000000 -0.728899 0.000000 0.000000
    19 -0.001697 -0.749371 0.000001 -0.583477 0.000000 0.000000
    20 0.354566 0.016268 0.318133 0.458018 -0.443926 -1.167637
    21 1.887166 0.012878 0.000000 -0.304014 -0.029870 -0.496333
    22 1.001873 -0.000270 0.000000 0.000000 0.000000 -0.577704
    23 -1.123359 -2.195093 -0.278958 -1.174574 -0.118742 -0.146524
    24 0.010771 -0.963792 0.000000 -0.977385 0.000000 0.000000
    25 -0.010412 -0.631916 0.000000 -1.034980 0.000000 0.000000
    26 -0.692066 -9.633345 -10.135756 -0.817176 0.450768 0.502450
    27 0.097741 -8.543164 -0.031251 0.725777 -0.534326 0.060280
    28 -0.000001 -0.359712 0.000000 0.000000 0.000000 0.000000
    29 -0.170479 -2.636146 -0.277655 -1.076673 -0.052900 0.090615
    30 0.010598 -1.261177 -0.000001 -0.473438 0.000000 0.000000
    31 0.000001 -0.943234 0.000001 -0.893143 -0.007478 -0.006292
    32 -0.827562 -2.508972 -0.277655 -0.649137 0.000000 0.000000
    33 0.000000 -1.292971 -0.000001 -0.710575 -0.058257 0.000120
    34 0.000000 -0.752466 0.000000 -0.777529 -0.248776 0.191909
    35 0.444213 -2.561960 -0.277655 -1.345582 0.061012 0.167374
    36 0.021024 -1.208187 0.000001 -0.260641 -0.011122 -0.044810
    37 0.010598 -0.741867 -0.000001 -0.721174 0.000000 0.000000
    38 1.047446 -2.222820 -0.277655 -1.356430 -0.069497 -0.040770
    39 0.000000 -0.996224 -0.000001 -1.199041 0.000000 0.000000
    40 0.000001 -0.614692 0.000001 -1.031490 0.000000 0.000000
    41 -0.308254 -0.007813 0.307166 -0.289898 -0.676192 -2.464227
    42 1.978377 0.019542 -0.000001 -0.105018 -0.073249 0.427483
    43 0.982424 0.003187 0.000000 0.000000 0.000000 0.465206
  time 24
    0 8.149537 3.138311 -8.248747 -0.710432 -1.203735 0.467116
    1 0.000000 -8.563284 0.000000 0.360643 -0.071562 -0.199208
    2 -0.627912 -3.172447 0.559143 -1.247017 1.437605 -1.233824
    3 0.000000 1.888487 0.974220 0.000000 0.000000 0.000000
    4 -0.013948 -2.720512 1.100493 -0.010558 0.000000 0.000000
    5 -0.013949 -4.784637 0.650334 0.000000 0.000000 0.000000
    6 -0.716955 15.708817 -2.564272 0.000000 0.000000 0.000000
    7 -0.013949 -3.609846 2.626635 0.000000 0.000000 0.000000
    8 -0.551583 -1.713881 2.571738 0.000000 0.000000 0.340339
    9 -0.666018 -4.704158 1.993687 0.000000 0.337298 0.000000
    10 -0.003480 -0.404828 0.000000 -0.000001 0.000000 0.000000
    11 -0.519309 -2.501155 -0.278957 -1.107358 -0.060907 -0.152582
    12 -0.010599 -1.208185 -0.000001 -1.179843 0.000000 0.000000
    13 -0.000001 -0.763065 0.000000 -1.228712 0.000000 0.000000
    14 0.105981 -2.607135 -0.278958 -0.873864 -0.036146 -0.178594
    15 0.000001 -1.250578 0.000000 -1.223476 0.000000 0.000000
    16 -0.000001 -0.932635 0.000000 -1.567306 0.000000 0.000000
    17 0.763064 -2.490555 -0.278958 -0.191901 0.000000 0.130900
    18 -0.012322 -1.280916 0.000000 -0.735681 0.000000 0.000000
    19 -0.001697 -0.749371 0.000001 -0.585550 0.000000 0.000000
    20 0.354566 0.016268 0.318133 0.458018 -0.443926 -1.167637
    21 1.887166 0.012878 0.000000 -0.304014 -0.029870 -0.496333
    22 1.001873 -0.000270 0.000000 0.000000 0.000000 -0.577704
    23 -1.123359 -2.195093 -0.278958 -1.174574 -0.118742 -0.146524
    24 0.010771 -0.963792 0.000000 -0.977385 0.000000 0.000000
    25 -0.010412 -0.631916 0.000000 -1.034980 0.000000 0.000000
    26 -0.699879 -9.621626 -10.151382 -0.818504 0.450578 0.497381
    27 0.097741 -8.543164 -0.035157 0.720540 -0.536942 0.069675
    28 -0.000001 -0.359712 0.000000 0.000000 0.000000 0.000000
    29 -0.170479 -2.636146 -0.277655 -1.072046 -0.052876 0.090568
    30 0.010598 -1.261177 -0.000001 -0.473438 0.000000 0.000000
    31 0.000001 -0.943234 0.000001 -0.900602 -0.006400 -0.005345
    32 -0.827562 -2.508972 -0.277655 -0.649137 0.000000 0.000000
    33 0.000000 -1.292971 -0.000001 -0.710575 -0.058257 0.000120
    34 0.000000 -0.752466 0.000000 -0.777529 -0.248776 0.191909
    35 0.444213 -2.561960 -0.277655 -1.345160 0.057548 0.167434
    36 0.021024 -1.208187 0.000001 -0.266886 -0.009648 -0.038375
    37 0.010598 -0.741867 -0.000001 -0.721174 0.000000 0.000000
    38 1.047446 -2.222820 -0.277655 -1.356430 -0.069497 -0.040770
    39 0.000000 -0.996224 -0.000001 -1.199041 0.000000 0.000000
    40 0.000001 -0.614692 0.000001 -1.031490 0.000000 0.000000
    41 -0.308254 -0.007813 0.307166 -0.290873 -0.666376 -2.463539
    42 1.978377 0.019542 -0.000001 -0.104582 -0.069713 0.419295
    43 0.982424 0.003187 0.000000 0.000000 0.000000 0.476180
  time 25
    0 8.133911 3.146124 -8.201870 -0.690828 -1.208964 0.449351
    1 0.000000 -8.563284 0.000000 0.358665 -0.074065 -0.191573
    2 -0.627912 -3.172447 0.559143 -1.247017 1.437605 -1.233824
    3 0.000000 1.888487 0.974220 0.000000 0.000000 0.000000
    4 -0.013948 -2.720512 1.100493 -0.007850 0.000000 0.000000
    5 -0.013949 -4.784637 0.650334 0.000000 0.000000 0.000000
    6 -0.716955 15.708817 -2.564272 0.000000 0.000000 0.000000
    7 -0.013949 -3.609846 2.626635 0.000000 0.000000 0.000000
    8 -0.551583 -1.713881 2.571738 0.000000 0.000000 0.340339
    9 -0.666018 -4.704158 1.993687 0.000000 0.337298 0.000000
    10 -0.003480 -0.404828 0.000000 -0.000001 0.000000 0.000000
    11 -0.519309 -2.501155 -0.278957 -1.107358 -0.060907 -0.152582
    12 -0.010599 -1.208185 -0.000001 -1.179843 0.000000 0.000000
    13 -0.000001 -0.763065 0.000000 -1.228712 0.000000 0.000000
    14 0.105981 -2.607135 -0.278958 -0.873864 -0.036146 -0.178594
    15 0.000001 -1.250578 0.000000 -1.223476 0.000000 0.000000
    16 -0.000001 -0.932635 0.000000 -1.567306 0.000000 0.000000
    17 0.763064 -2.490555 -0.278958 -0.193267 0.000000 0.130900
    18 -0.012322 -1.280916 0.000000 -0.742292 0.000000 0.000000
    19 -0.001697 -0.749371 0.000001 -0.587564 0.000000 0.000000
    20 0.354566 0.016268 0.318133 0.458018 -0.443926 -1.167637
    21 1.887166 0.012878 0.000000 -0.304014 -0.029870 -0.496333
    22 1.001873 -0.000270 0.000000 0.000000 0.000000 -0.577704
    23 -1.123359 -2.195093 -0.278958 -1.174574 -0.118742 -0.146524
    24 0.010771 -0.963792 0.000000 -0.977385 0.000000 0.000000
    25 -0.010412 -0.631916 0.000000 -1.034980 0.000000 0.000000
    26 -0.695972 -9.617720 -10.186539 -0.820010 0.450387 0.491834
    27 0.097741 -8.543164 -0.035157 0.715222 -0.539755 0.079199
    28 -0.000001 -0.359712 0.000000 0.000000 0.000000 0.000000
    29 -0.170479 -2.636146 -0.277655 -1.067308 -0.052852 0.090520
    30 0.010598 -1.261177 -0.000001 -0.473438 0.000000 0.000000
    31 0.000001 -0.943234 0.000001 -0.908172 -0.005285 -0.004374
    32 -0.827562 -2.508972 -0.277655 -0.649137 0.000000 0.000000
    33 0.000000 -1.292971 -0.000001 -0.710575 -0.058257 0.000120
    34 0.000000 -0.752466 0.000000 -0.777529 -0.248776 0.191909
    35 0.444213 -2.561960 -0.277655 -1.344791 0.054073 0.167482
    36 0.021024 -1.208187 0.000001 -0.273155 -0.008066 -0.031651
    37 0.010598 -0.741867 -0.000001 -0.721174 0.000000 0.000000
    38 1.047446 -2.222820 -0.277655 -1.356430 -0.069497 -0.040770
    39 0.000000 -0.996224 -0.000001 -1.199041 0.000000 0.000000
    40 0.000001 -0.614692 0.000001 -1.031490 0.000000 0.000000
    41 -0.308254 -0.007813 0.307166 -0.291462 -0.655949 -2.462594
    42 1.978377 0.019542 -0.000001 -0.103973 -0.064560 0.406343
    43 0.982424 0.003187 0.000000 0.000000 0.000000 0.487154
  time 26
    0 8.126099 3.153937 -8.162807 -0.668351 -1.214646 0.428882
    1 0.000000 -8.563284 0.000000 0.356495 -0.076744 -0.183179
    2 -0.627912 -3.172447 0.559143 -1.247017 1.437605 -1.233824
    3 0.000000 1.888487 0.974220 0.000000 0.000000 0.000000
    4 -0.013948 -2.720512 1.100493 -0.005357 0.000000 0.000000
    5 -0.013949 -4.784637 0.650334 0.000000 0.000000 0.000000
    6 -0.716955 15.708817 -2.564272 0.000000 0.000000 0.000000
    7 -0.013949 -3.609846 2.626635 0.000000 0.000000 0.000000
    8 -0.551583 -1.713881 2.571738 0.000000 0.000000 0.340339
    9 -0.666018 -4.704158 1.993687 0.000000 0.337298 0.000000
    10 -0.003480 -0.404828 0.000000 -0.000001 0.000000 0.000000
    11 -0.519309 -2.501155 -0.278957 -1.107358 -0.060907 -0.152582
    12 -0.010599 -1.208185 -0.000001 -1.179843 0.000000 0.000000
    13 -0.000001 -0.763065 0.000000 -1.228712 0.000000 0.000000
    14 0.105981 -2.607135 -0.278958 -0.873864 -0.036146 -0.178594
    15 0.000001 -1.250578 0.000000 -1.223476 0.000000 0.000000
    16 -0.000001 -0.932635 0.000000 -1.567306 0.000000 0.000000
    17 0.763064 -2.490555 -0.278958 -0.194525 0.000000 0.130900
    18 -0.012322 -1.280916 0.000000 -0.748465 0.000000 0.000000
    19 -0.001697 -0.749371 0.000001 -0.589421 0.000000 0.000000
    20 0.354566 0.016268 0.318133 0.458018 -0.443926 -1.167637
    21 1.887166 0.012878 0.000000 -0.304014 -0.029870 -0.496333
    22 1.001873 -0.000270 0.000000 0.000000 0.000000 -0.577704
    23 -1.123359 -2.195093 -0.278958 -1.174574 -0.118742 -0.146524
    24 0.010771 -0.963792 0.000000 -0.977385 0.000000 0.000000
    25 -0.010412 -0.631916 0.000000 -1.034980 0.000000 0.000000
    26 -0.688160 -9.609907 -10.241228 -0.821515 0.450197 0.486096
    27 0.097741 -8.543164 -0.039064 0.709864 -0.542635 0.088853
    28 -0.000001 -0.359712 0.000000 0.000000 0.000000 0.000000
    29 -0.170479 -2.636146 -0.277655 -1.062515 -0.052828 0.090472
    30 0.010598 -1.261177 -0.000001 -0.473438 0.000000 0.000000
    31 0.000001 -0.943234 0.000001 -0.915742 -0.004147 -0.003416
    32 -0.827562 -2.508972 -0.277655 -0.649137 0.000000 0.000000
    33 0.000000 -1.292971 -0.000001 -0.710616 -0.058257 0.000120
    34 0.000000 -0.752466 0.000000 -0.777529 -0.248776 0.191909
    35 0.444213 -2.561960 -0.277655 -1.344421 0.050597 0.167542
    36 0.021024 -1.208187 0.000001 -0.279448 -0.006400 -0.024820
    37 0.010598 -0.741867 -0.000001 -0.721174 0.000000 0.000000
    38 1.047446 -2.222820 -0.277655 -1.356430 -0.069497 -0.040770
    39 0.000000 -0.996224 -0.000001 -1.199041 0.000000 0.000000
    40 0.000001 -0.614692 0.000001 -1.031490 0.000000 0.000000
    41 -0.308254 -0.007813 0.307166 -0.291848 -0.645194 -2.461498
    42 1.978377 0.019542 -0.000001 -0.103334 -0.057633 0.390777
    43 0.982424 0.003187 0.000000 0.000000 0.000000 0.498098
  time 27
    0 8.118286 3.157843 -8.131556 -0.642548 -1.220747 0.405478
    1 0.000000 -8.563284 0.000000 0.354057 -0.079734 -0.173961
    2 -0.627912 -3.172447 0.559143 -1.247017 1.437605 -1.233824
    3 0.000000 1.888487 0.974220 0.000000 0.000000 0.000000
    4 -0.013948 -2.720512 1.100493 -0.003200 0.000000 0.000000
    5 -0.013949 -4.784637 0.650334 0.000000 0.000000 0.000000
    6 -0.716955 15.708817 -2.564272 0.000000 0.000000 0.000000
    7 -0.013949 -3.609846 2.626635 0.000000 0.000000 0.000000
    8 -0.551583 -1.713881 2.571738 0.000000 0.000000 0.340339
    9 -0.666018 -4.704158 1.993687 0.000000 0.337298 0.000000
    10 -0.003480 -0.404828 0.000000 -0.000001 0.000000 0.000000
    11 -0.519309 -2.501155 -0.278957 -1.107358 -0.060907 -0.152582
    12 -0.010599 -1.208185 -0.000001 -1.179843 0.000000 0.000000
    13 -0.000001 -0.763065 0.000000 -1.228712 0.000000 0.000000
    14 0.105981 -2.607135 -0.278958 -0.873864 -0.036146 -0.178594
    15 0.000001 -1.250578 0.000000 -1.223476 0.000000 0.000000
    16 -0.000001 -0.932635 0.000000 -1.567306 0.000000 0.000000
    17 0.763064 -2.490555 -0.278958 -0.195616 0.000000 0.130900
    18 -0.012322 -1.280916 0.000000 -0.753951 0.000000 0.000000
    19 -0.001697 -0.749371 0.000001 -0.591027 0.000000 0.000000
    20 0.354566 0.016268 0.318133 0.458018 -0.443926 -1.167637
    21 1.887166 0.012878 0.000000 -0.304014 -0.029870 -0.496333
    22 1.001873 -0.000270 0.000000 0.000000 0.000000 -0.577704
    23 -1.123359 -2.195093 -0.278958 -1.174574 -0.118742 -0.146524
    24 0.010771 -0.963792 0.000000 -0.977385 0.000000 0.000000
    25 -0.010412 -0.631916 0.000000 -1.034980 0.000000 0.000000
    26 -0.672534 -9.598188 -10.311543 -0.823020 0.449912 0.480262
    27 0.097741 -8.543164 -0.039064 0.704464 -0.545471 0.098539
    28 -0.000001 -0.359712 0.000000 0.000000 0.000000 0.000000
    29 -0.170479 -2.636146 -0.277655 -1.057721 -0.052792 0.090412
    30 0.010598 -1.261177 -0.000001 -0.473438 0.000000 0.000000
    31 0.000001 -0.943234 0.000001 -0.923312 -0.003032 -0.002469
    32 -0.827562 -2.508972 -0.277655 -0.649137 0.000000 0.000000
    33 0.000000 -1.292971 -0.000001 -0.710616 -0.058257 0.000120
    34 0.000000 -0.752466 0.000000 -0.777529 -0.248776 0.191909
    35 0.444213 -2.561960 -0.277655 -1.343999 0.047134 0.167590
    36 0.021024 -1.208187 0.000001 -0.285693 -0.004722 -0.018049
    37 0.010598 -0.741867 -0.000001 -0.721174 0.000000 0.000000
    38 1.047446 -2.222820 -0.277655 -1.356430 -0.069497 -0.040770
    39 0.000000 -0.996224 -0.000001 -1.199041 0.000000 0.000000
    40 0.000001 -0.614692 0.000001 -1.031490 0.000000 0.000000
    41 -0.308254 -0.007813 0.307166 -0.292213 -0.634439 -2.460423
    42 1.978377 0.019542 -0.000001 -0.102782 -0.049507 0.373436
    43 0.982424 0.003187 0.000000 0.000000 0.000000 0.509014
  time 28
    0 8.110473 3.161749 -8.112024 -0.612814 -1.227301 0.378443
    1 0.000000 -8.563284 0.000000 0.351314 -0.083078 -0.163808
    2 -0.627912 -3.172447 0.559143 -1.247017 1.437605 -1.233824
    3 0.000000 1.888487 0.974220 0.000000 0.000000 0.000000
    4 -0.013948 -2.720512 1.100493 -0.001510 0.000000 0.000000
    5 -0.013949 -4.784637 0.650334 0.000000 0.000000 0.000000
    6 -0.716955 15.708817 -2.564272 0.000000 0.000000 0.000000
    7 -0.013949 -3.609846 2.626635 0.000000 0.000000 0.000000
    8 -0.551583 -1.713881 2.571738 0.000000 0.000000 0.340339
    9 -0.666018 -4.704158 1.993687 0.000000 0.337298 0.000000
    10 -0.003480 -0.404828 0.000000 -0.000001 0.000000 0.000000
    11 -0.519309 -2.501155 -0.278957 -1.107358 -0.060907 -0.152582
    12 -0.010599 -1.208185 -0.000001 -1.179843 0.000000 0.000000
    13 -0.000001 -0.763065 0.000000 -1.228712 0.000000 0.000000
    14 0.105981 -2.607135 -0.278958 -0.873864 -0.036146 -0.178594
    15 0.000001 -1.250578 0.000000 -1.223476 0.000000 0.000000
    16 -0.000001 -0.932635 0.000000 -1.567306 0.000000 0.000000
    17 0.763064 -2.490555 -0.278958 -0.196467 0.000000 0.130900
    18 -0.012322 -1.280916 0.000000 -0.758467 0.000000 0.000000
    19 -0.001697 -0.749371 0.000001 -0.592297 0.000000 0.000000
    20 0.354566 0.016268 0.318133 0.458018 -0.443926 -1.167637
    21 1.887166 0.012878 0.000000 -0.304014 -0.029870 -0.496333
    22 1.001873 -0.000270 0.000000 0.000000 0.000000 -0.577704
    23 -1.123359 -2.195093 -0.278958 -1.174574 -0.118742 -0.146524
    24 0.010771 -0.963792 0.000000 -0.977385 0.000000 0.000000
    25 -0.010412 -0.631916 0.000000 -1.034980 0.000000 0.000000
    26 -0.653002 -9.590375 -10.401389 -0.824526 0.449722 0.474716
    27 0.097741 -8.543164 -0.039064 0.699065 -0.548152 0.108160
    28 -0.000001 -0.359712 0.000000 0.000000 0.000000 0.000000
    29 -0.170479 -2.636146 -0.277655 -1.052984 -0.052768 0.090364
    30 0.010598 -1.261177 -0.000001 -0.473438 0.000000 0.000000
    31 0.000001 -0.943234 0.000001 -0.930698 -0.001942 -0.001570
    32 -0.827562 -2.508972 -0.277655 -0.649137 0.000000 0.000000
    33 0.000000 -1.292971 -0.000001 -0.710575 -0.058257 0.000120
    34 0.000000 -0.752466 0.000000 -0.777529 -0.248776 0.191909
    35 0.444213 -2.561960 -0.277655 -1.343471 0.043706 0.167650
    36 0.021024 -1.208187 0.000001 -0.291913 -0.003056 -0.011541
    37 0.010598 -0.741867 -0.000001 -0.721174 0.000000 0.000000
    38 1.047446 -2.222820 -0.277655 -1.356430 -0.069497 -0.040770
    39 0.000000 -0.996224 -0.000001 -1.199041 0.000000 0.000000
    40 0.000001 -0.614692 0.000001 -1.031490 0.000000 0.000000
    41 -0.308254 -0.007813 0.307166 -0.292761 -0.623997 -2.459499
    42 1.978377 0.019542 -0.000001 -0.102347 -0.040806 0.355223
    43 0.982424 0.003187 0.000000 0.000000 0.000000 0.519843
  time 29
    0 8.106567 3.165656 -8.100305 -0.578545 -1.234169 0.347315
    1 0.000000 -8.563284 0.000000 0.348212 -0.086866 -0.152653
    2 -0.627912 -3.172447 0.559143 -1.247017 1.437605 -1.233824
    3 0.000000 1.888487 0.974220 0.000000 0.000000 0.000000
    4 -0.013948 -2.720512 1.100493 -0.000395 0.000000 0.000000
    5 -0.013949 -4.784637 0.650334 0.000000 0.000000 0.000000
    6 -0.716955 15.708817 -2.564272 0.000000 0.000000 0.000000
    7 -0.013949 -3.609846 2.626635 0.000000 0.000000 0.000000
    8 -0.551583 -1.713881 2.571738 0.000000 0.000000 0.340339
    9 -0.666018 -4.704158 1.993687 0.000000 0.337298 0.000000
    10 -0.003480 -0.404828 0.000000 -0.000001 0.000000 0.000000
    11 -0.519309 -2.501155 -0.278957 -1.107358 -0.060907 -0.152582
    12 -0.010599 -1.208185 -0.000001 -1.179843 0.000000 0.000000
    13 -0.000001 -0.763065 0.000000 -1.228712 0.000000 0.000000
    14 0.105981 -2.607135 -0.278958 -0.873864 -0.036146 -0.178594
    15 0.000001 -1.250578 0.000000 -1.223476 0.000000 0.000000
    16 -0.000001 -0.932635 0.000000 -1.567306 0.000000 0.000000
    17 0.763064 -2.490555 -0.278958 -0.197030 0.000000 0.130900
    18 -0.012322 -1.280916 0.000000 -0.761762 0.000000 0.000000
    19 -0.001697 -0.749371 0.000001 -0.593124 0.000000 0.000000
    20 0.354566 0.016268 0.318133 0.458018 -0.443926 -1.167637
    21 1.887166 0.012878 0.000000 -0.304014 -0.029870 -0.496333
    22 1.001873 -0.000270 0.000000 0.000000 0.000000 -0.577704
    23 -1.123359 -2.195093 -0.278958 -1.174574 -0.118742 -0.146524
    24 0.010771 -0.963792 0.000000 -0.977385 0.000000 0.000000
    25 -0.010412 -0.631916 0.000000 -1.034980 0.000000 0.000000
    26 -0.625658 -9.578656 -10.502955 -0.825854 0.449532 0.469647
    27 0.097741 -8.543164 -0.042970 0.693585 -0.550548 0.117717
    28 -0.000001 -0.359712 0.000000 0.000000 0.000000 0.000000
    29 -0.170479 -2.636146 -0.277655 -1.048356 -0.052744 0.090316
    30 0.010598 -1.261177 -0.000001 -0.473438 0.000000 0.000000
    31 0.000001 -0.943234 0.000001 -0.937936 -0.000923 -0.000743
    32 -0.827562 -2.508972 -0.277655 -0.649137 0.000000 0.000000
    33 0.000000 -1.292971 -0.000001 -0.710575 -0.058257 0.000120
    34 0.000000 -0.752466 0.000000 -0.777529 -0.248776 0.191909
    35 0.444213 -2.561960 -0.277655 -1.342785 0.040338 0.167722
    36 0.021024 -1.208187 0.000001 -0.298061 -0.001462 -0.005465
    37 0.010598 -0.741867 -0.000001 -0.721174 0.000000 0.000000
    38 1.047446 -2.222820 -0.277655 -1.356430 -0.069497 -0.040770
    39 0.000000 -0.996224 -0.000001 -1.199041 0.000000 0.000000
    40 0.000001 -0.614692 0.000001 -1.031490 0.000000 0.000000
    41 -0.308254 -0.007813 0.307166 -0.293655 -0.614181 -2.458898
    42 1.978377 0.019542 -0.000001 -0.102057 -0.032082 0.337041
    43 0.982424 0.003187 0.000000 0.000000 0.000000 0.530644
  time 30
    0 8.106567 3.165656 -8.096398 -0.539034 -1.241315 0.311552
    1 0.000000 -8.563284 0.000000 0.344690 -0.091140 -0.140417
    2 -0.627912 -3.172447 0.559143 -1.247017 1.437605 -1.233824
    3 0.000000 1.888487 0.974220 0.000000 0.000000 0.000000
    4 -0.013948 -2.720512 1.100493 0.000000 0.000000 0.000000
    5 -0.013949 -4.784637 0.650334 0.000000 0.000000 0.000000
    6 -0.716955 15.708817 -2.564272 0.000000 0.000000 0.000000
    7 -0.013949 -3.609846 2.626635 0.000000 0.000000 0.000000
    8 -0.551583 -1.713881 2.571738 0.000000 0.000000 0.340339
    9 -0.666018 -4.704158 1.993687 0.000000 0.337298 0.000000
    10 -0.003480 -0.404828 0.000000 -0.000001 0.000000 0.000000
    11 -0.519309 -2.501155 -0.278957 -1.107358 -0.060907 -0.152582
    12 -0.010599 -1.208185 -0.000001 -1.179843 0.000000 0.000000
    13 -0.000001 -0.763065 0.000000 -1.228712 0.000000 0.000000
    14 0.105981 -2.607135 -0.278958 -0.873864 -0.036146 -0.178594
    15 0.000001 -1.250578 0.000000 -1.223476 0.000000 0.000000
    16 -0.000001 -0.932635 0.000000 -1.567306 0.000000 0.000000
    17 0.763064 -2.490555 -0.278958 -0.197222 0.000000 0.130900
    18 -0.012322 -1.280916 0.000000 -0.763572 0.000000 0.000000
    19 -0.001697 -0.749371 0.000001 -0.593412 0.000000 0.000000
    20 0.354566 0.016268 0.318133 0.458018 -0.443926 -1.167637
    21 1.887166 0.012878 0.000000 -0.304014 -0.029870 -0.496333
    22 1.001873 -0.000270 0.000000 0.000000 0.000000 -0.577704
    23 -1.123359 -2.195093 -0.278958 -1.174574 -0.118742 -0.146524
    24 0.010771 -0.963792 0.000000 -0.977385 0.000000 0.000000
    25 -0.010412 -0.631916 0.000000 -1.034980 0.000000 0.000000
    26 -0.590500 -9.566937 -10.627959 -0.827094 0.449341 0.465343
    27 0.097741 -8.543164 -0.042970 0.688145 -0.552593 0.127112
    28 -0.000001 -0.359712 0.000000 0.000000 0.000000 0.000000
    29 -0.170479 -2.636146 -0.277655 -1.043783 -0.052708 0.090268
    30 0.010598 -1.261177 -0.000001 -0.473472 0.000000 0.000000
    31 0.000001 -0.943234 0.000001 -0.944915 0.000000 0.000000
    32 -0.827562 -2.508972 -0.277655 -0.649137 0.000000 0.000000
    33 0.000000 -1.292971 -0.000001 -0.710575 -0.058257 0.000120
    34 0.000000 -0.752466 0.000000 -0.777529 -0.248776 0.191909
    35 0.444213 -2.561960 -0.277655 -1.341888 0.037019 0.167818
    36 0.021024 -1.208187 0.000001 -0.304135 0.000000 0.000000
    37 0.010598 -0.741867 -0.000001 -0.721174 0.000000 0.000000
    38 1.047446 -2.222820 -0.277655 -1.356430 -0.069497 -0.040770
    39 0.000000 -0.996224 -0.000001 -1.199041 0.000000 0.000000
    40 0.000001 -0.614692 0.000001 -1.031490 0.000000 0.000000
    41 -0.308254 -0.007813 0.307166 -0.295076 -0.605320 -2.458747
    42 1.978377 0.019542 -0.000001 -0.101941 -0.023968 0.319700
    43 0.982424 0.003187 0.000000 0.000000 0.000000 0.541329
end
