// Created by Crowbar 0.68

$modelname "weapons/tfa_cso/c_laserfist.mdl"

$bodygroup "weapon"
{
	studio "v_laserfist_L.smd"
}
$bodygroup "weapon"
{
	studio "v_laserfist_hand_L01.smd"
}
$bodygroup "weapon"
{
	studio "v_laserfist_hand_L02.smd"
}
$bodygroup "weapon"
{
	studio "v_laserfist_R.smd"
}
$bodygroup "weapon"
{
	studio "v_laserfist_hand_R01.smd"
}
$bodygroup "weapon"
{
	studio "v_laserfist_hand_R02.smd"
}
$bodygroup "weapon"
{
	studio "v_laserfist_ef.smd"
}


$surfaceprop "default"

$contents "solid"

$illumposition -0.634 -5.392 -7.444

$cdmaterials "models\weapons\tfa_cso\laserfist\"

$attachment "0" "r_dualsmg_ro" 0 8 0 rotate 0 0 0
$attachment "1" "l_dualsmg_ro" 0 -8 0 rotate 0 0 0

$cbox 0 0 0 0 0 0

$bbox -12.088 -17.551 -14.807 22.873 16.284 -0.081

$definebone "root" "" 0.185351 2.923437 -3.419765 0 0 -5.773295 0 0 0 0 0 0
$definebone "Bone01" "root" 7.660971 -8.2351 -2.673931 1.263812 179.948259 177.637757 0 0 0 0 0 0
$definebone "L_dualsmg" "Bone01" 0.000034 0 -0.000003 0.153781 -89.771369 -89.747648 0 0 0 0 0 0
$definebone "l_dualsmg_po" "L_dualsmg" 3.768928 0.000001 0.000008 0 -0.000002 0.000057 0 0 0 0 0 0
$definebone "l_dualsmg_ro" "l_dualsmg_po" 1.365127 -0.00036 0.000049 -19.761025 89.999982 0 0 0 0 0 0 0
$definebone "l_ro001" "l_dualsmg_ro" 2.211437 2.203717 3.830348 0 -89.999982 -29.99984 0 0 0 0 0 0
$definebone "l_ro005" "l_ro001" 2.894973 -0.000005 0.00005 0 -0.000002 0.000005 0 0 0 0 0 0
$definebone "l_ro009" "l_ro005" 5.811543 0.000001 0.28969 0 -0.000002 0.000005 0 0 0 0 0 0
$definebone "l_ro002" "l_dualsmg_ro" -2.833347 2.221488 3.19019 0 -89.999982 45.000223 0 0 0 0 0 0
$definebone "l_ro006" "l_ro002" 2.894965 0.000044 0.000023 -0.000003 0.000057 0.000053 0 0 0 0 0 0
$definebone "l_ro012" "l_ro006" 5.811539 0.000015 0.28968 -0.000003 0 -0.000003 0 0 0 0 0 0
$definebone "l_ro003" "l_dualsmg_ro" -2.810163 2.152452 -2.855319 0 -89.999982 135.000233 0 0 0 0 0 0
$definebone "l_ro007" "l_ro003" 2.89495 0.000033 -0.000051 0 0.000003 0.000014 0 0 0 0 0 0
$definebone "l_ro010" "l_ro007" 5.811543 0.000001 0.289669 0 0.000003 0.000015 0 0 0 0 0 0
$definebone "l_ro004" "l_dualsmg_ro" 2.167562 2.044026 -3.511128 0 -89.999982 -149.999833 0 0 0 0 0 0
$definebone "l_ro008" "l_ro004" 2.894952 -0.00005 -0.000035 0.000002 0 -0.000007 0 0 0 0 0 0
$definebone "l_ro011" "l_ro008" 5.811537 -0.000013 0.289674 0.000002 0 -0.000007 0 0 0 0 0 0
$definebone "l_bone001" "L_dualsmg" 1.665445 -0.23393 2.80411 9.928676 1.198398 -173.082635 0 0 0 0 0 0
$definebone "l_bone002" "L_dualsmg" 1.099737 2.418327 1.369669 1.392746 6.928664 123.798818 0 0 0 0 0 0
$definebone "l_bone003" "L_dualsmg" 1.129868 2.374418 -1.12508 1.335106 -173.060068 -55.727305 0 0 0 0 0 0
$definebone "l_bone004" "L_dualsmg" 1.669816 -0.280567 -2.476648 9.918358 -178.718197 7.401698 0 0 0 0 0 0
$definebone "l_bone005" "L_dualsmg" 4.327 2.496207 0.164996 0 -14.999985 179.999964 0 0 0 0 0 0
$definebone "l_bone006" "L_dualsmg" 0.641356 1.916879 0.16499 -0.000036 -134.999959 180.000005 0 0 0 0 0 0
$definebone "Bone04" "root" -7.738361 -8.23278 -2.57725 -6.820527 -179.321958 177.732095 0 0 0 0 0 0
$definebone "R_dualsmg" "Bone04" -0.06871 -0.004778 0.04412 0.287797 90.226355 89.6652 0 0 0 0 0 0
$definebone "r_dualsmg_po" "R_dualsmg" -3.702137 -0.000001 -0.000003 0 0 0.000056 0 0 0 0 0 0
$definebone "r_dualsmg_ro" "r_dualsmg_po" -1.34093 0.000366 -0.000043 -19.787787 90.000037 0 0 0 0 0 0 0
$definebone "Bone_Lefthand" "Bone01" 0.070587 -8.505345 -0.306871 -7.772859 1.877696 7.827691 0 0 0 0 0 0
$definebone "Bone13" "Bone_Lefthand" -0.527918 -2.733871 -0.063857 1.529513 -1.677278 -12.710903 0 0 0 0 0 0
$definebone "Bone14" "Bone13" 0.039021 -1.451691 0.013995 -0.529865 0.483805 -30.160107 0 0 0 0 0 0
$definebone "Bone15" "Bone14" 0.025245 -0.948034 -0.061938 -0.399632 0.278231 -18.102641 0 0 0 0 0 0
$definebone "Bone17" "Bone_Lefthand" 0.456623 -2.776109 -0.038286 2.18108 5.370792 -10.297261 0 0 0 0 0 0
$definebone "Bone18" "Bone17" -0.049151 -1.656675 0.095378 0.426114 -0.693337 -26.784293 0 0 0 0 0 0
$definebone "Bone19" "Bone18" -0.027947 -0.906208 0.027497 0.443243 -0.822651 -34.468563 0 0 0 0 0 0
$definebone "Bone21" "Bone_Lefthand" 1.409609 -2.548074 0.115849 3.453736 6.454081 -12.377442 0 0 0 0 0 0
$definebone "Bone22" "Bone21" -0.037107 -1.549641 -0.024853 0.482032 -1.621757 -33.18137 0 0 0 0 0 0
$definebone "Bone23" "Bone22" -0.026186 -1.095484 0.020049 0.107374 -0.181168 -3.94819 0 0 0 0 0 0
$definebone "Bone09" "Bone_Lefthand" -1.496458 -2.737234 0.167308 1.876669 1.033901 -8.412916 0 0 0 0 0 0
$definebone "Bone10" "Bone09" -0.025802 -1.157452 0.017413 0.401931 -1.045707 -25.773823 0 0 0 0 0 0
$definebone "Bone11" "Bone10" -0.020427 -0.887741 0.022146 0.457853 -1.444313 -37.16449 0 0 0 0 0 0
$definebone "Bone05" "Bone_Lefthand" 1.224889 -0.454767 0.270562 -15.698123 0.00103 -31.117177 0 0 0 0 0 0
$definebone "Bone06" "Bone05" 2.121862 -0.21839 0.046883 -9.769881 -33.152137 1.256671 0 0 0 0 0 0
$definebone "Bone07" "Bone06" 1.018223 -0.108398 0.024555 -7.536846 -30.582483 0.554332 0 0 0 0 0 0
$definebone "l_ro013" "r_dualsmg_ro" -2.26283 -2.48208 -3.867559 0 -89.999982 -30.002477 0 0 0 0 0 0
$definebone "l_ro014" "l_ro013" -2.843668 0.000005 -0.000045 0 -0.000001 -0.000003 0 0 0 0 0 0
$definebone "l_ro015" "l_ro014" -5.811945 0 -0.28984 0 -0.000001 -0.000003 0 0 0 0 0 0
$definebone "l_ro016" "r_dualsmg_ro" 2.901485 -2.499538 -3.220698 0 -89.999982 44.998096 0 0 0 0 0 0
$definebone "l_ro017" "l_ro016" -2.843667 -0.000039 -0.000024 0 0.000057 0.000063 0 0 0 0 0 0
$definebone "l_ro018" "l_ro017" -5.811939 0.000001 -0.293818 0 0 0.000003 0 0 0 0 0 0
$definebone "l_ro019" "r_dualsmg_ro" 2.877943 -2.431713 2.885144 0 -89.999982 134.998088 0 0 0 0 0 0
$definebone "l_ro020" "l_ro019" -2.843647 -0.000032 0.000049 0 0 -0.000005 0 0 0 0 0 0
$definebone "l_ro021" "l_ro020" -5.811937 0.000001 -0.290604 0 0 -0.000005 0 0 0 0 0 0
$definebone "l_ro022" "r_dualsmg_ro" -2.218276 -2.325212 3.547691 0 -89.999982 -150.000284 0 0 0 0 0 0
$definebone "l_ro023" "l_ro022" -2.84365 0.000046 0.000033 0 0 0.00001 0 0 0 0 0 0
$definebone "l_ro024" "l_ro023" -5.811937 0.000002 -0.292631 0 0 0.00001 0 0 0 0 0 0
$definebone "l_bone007" "R_dualsmg" -0.981192 0.232152 -2.75596 9.930157 1.198914 -173.081624 0 0 0 0 0 0
$definebone "l_bone008" "R_dualsmg" -1.066912 -2.556329 -1.451076 1.392631 6.931873 123.800362 0 0 0 0 0 0
$definebone "l_bone009" "R_dualsmg" -1.068944 -2.534675 1.056197 1.361405 -173.061953 -56.161152 0 0 0 0 0 0
$definebone "l_bone010" "R_dualsmg" -0.983219 0.277496 2.415555 9.919788 -178.717623 7.402846 0 0 0 0 0 0
$definebone "l_bone011" "R_dualsmg" -4.438776 -2.487371 -0.164989 0 -15.007652 179.999964 0 0 0 0 0 0
$definebone "l_bone012" "R_dualsmg" -0.629991 -1.950258 -0.164989 -0.000038 -134.999959 180.000005 0 0 0 0 0 0
$definebone "Bone_Righthand" "Bone04" 0.149881 -8.464748 -0.068509 -3.199282 -11.139739 -13.299039 0 0 0 0 0 0
$definebone "Bone39" "Bone_Righthand" 0.315456 -2.793949 -0.19887 -1.891046 2.018813 -13.46674 0 0 0 0 0 0
$definebone "Bone40" "Bone39" -0.033245 -1.491348 0.009707 0.675408 -0.292098 -29.221083 0 0 0 0 0 0
$definebone "Bone41" "Bone40" -0.025026 -1.006834 -0.025194 0.37764 -0.094478 -13.571257 0 0 0 0 0 0
$definebone "Bone35" "Bone_Righthand" -0.669086 -2.836143 -0.173297 -0.664343 -5.459602 -8.939685 0 0 0 0 0 0
$definebone "Bone36" "Bone35" 0.042955 -1.66643 0.090048 -0.486382 -0.093913 -32.377327 0 0 0 0 0 0
$definebone "Bone37" "Bone36" 0.028072 -0.955362 0.047537 -0.281774 0.320623 -30.12679 0 0 0 0 0 0
$definebone "Bone31" "Bone_Righthand" -1.622063 -2.608065 -0.019164 1.676077 -6.305523 -11.723683 0 0 0 0 0 0
$definebone "Bone32" "Bone31" 0.030247 -1.540855 -0.012677 -0.698717 -1.419 -34.725423 0 0 0 0 0 0
$definebone "Bone33" "Bone32" 0.022623 -1.134686 0.021703 -0.044395 -0.214866 -4.631099 0 0 0 0 0 0
$definebone "Bone43" "Bone_Righthand" 1.283998 -2.79736 0.032294 -2.698972 -0.349511 -8.61401 0 0 0 0 0 0
$definebone "Bone44" "Bone43" 0.023369 -1.132153 0.004688 -0.071673 1.477537 -27.579378 0 0 0 0 0 0
$definebone "Bone45" "Bone44" 0.015122 -0.894542 -0.01899 -0.09757 1.480864 -30.114926 0 0 0 0 0 0
$definebone "Bone27" "Bone_Righthand" -1.459228 -0.441065 0.143205 -14.395565 -177.280019 44.526372 0 0 0 0 0 0
$definebone "Bone28" "Bone27" 1.792527 0.051476 0.020219 -0.198633 31.575982 -0.561687 0 0 0 0 0 0
$definebone "Bone29" "Bone28" 1.179477 0.044848 -0.004567 -1.94409 35.61959 -0.892672 0 0 0 0 0 0
$definebone "dual_spark_point002" "l_ro013" -0.657601 1.153316 -0.034141 66.267083 90.368095 93.601227 0 0 0 0 0 0
$definebone "dual_spark_bone006" "dual_spark_point002" -0.399903 -1.045372 -0.749258 4.815942 69.996591 -0.077521 0 0 0 0 0 0
$definebone "dual_spark_bone007" "dual_spark_point002" -0.401813 -1.04812 -0.748879 5.070449 69.998429 -0.009397 0 0 0 0 0 0
$definebone "dual_spark_bone008" "dual_spark_point002" -0.401718 -1.047539 -0.749276 5.025242 69.998033 -0.001375 0 0 0 0 0 0
$definebone "dual_spark_bone009" "dual_spark_point002" -0.40139 -1.046728 -0.749626 4.956489 69.997329 -0.004412 0 0 0 0 0 0
$definebone "dual_spark_bone010" "dual_spark_point002" -0.400646 -1.045837 -0.74962 4.870543 69.996749 -0.035695 0 0 0 0 0 0
$definebone "dual_spark_point003" "l_ro016" -0.300121 1.007198 0.01722 82.226646 -69.410609 -65.548308 0 0 0 0 0 0
$definebone "dual_spark_bone011" "dual_spark_point003" 0.153481 -0.683594 -0.463017 -6.130877 -84.25623 3.516988 0 0 0 0 0 0
$definebone "dual_spark_bone015" "dual_spark_point003" 0.153481 -0.683594 -0.463017 -6.130364 -84.254523 3.515041 0 0 0 0 0 0
$definebone "dual_spark_bone014" "dual_spark_point003" 0.153481 -0.683594 -0.463017 -6.129161 -84.245643 3.506616 0 0 0 0 0 0
$definebone "dual_spark_bone013" "dual_spark_point003" 0.153481 -0.683596 -0.463016 -6.137754 -84.283517 3.545463 0 0 0 0 0 0
$definebone "dual_spark_bone012" "dual_spark_point003" 0.153481 -0.683594 -0.463017 -6.121996 -84.26679 3.528103 0 0 0 0 0 0
$definebone "dual_spark_point004" "l_ro019" -0.309558 1.159035 0.031711 46.276321 90.230883 86.37546 0 0 0 0 0 0
$definebone "dual_spark_bone016" "dual_spark_point004" -0.777515 -0.76808 -1.014997 -0.131781 44.997402 -0.035294 0 0 0 0 0 0
$definebone "dual_spark_bone017" "dual_spark_point004" -0.780867 -0.772455 -1.008756 0.186381 44.999643 -0.077177 0 0 0 0 0 0
$definebone "dual_spark_bone018" "dual_spark_point004" -0.780715 -0.77129 -1.009833 0.131779 44.999527 -0.035351 0 0 0 0 0 0
$definebone "dual_spark_bone019" "dual_spark_point004" -0.780056 -0.769867 -1.011518 0.045777 44.998847 -0.004011 0 0 0 0 0 0
$definebone "dual_spark_bone020" "dual_spark_point004" -0.778613 -0.768538 -1.013757 -0.068241 44.997867 -0.008938 0 0 0 0 0 0
$definebone "dual_spark_point001" "l_ro022" -0.610502 1.172298 -0.050471 26.204893 93.901113 91.928315 0 0 0 0 0 0
$definebone "dual_spark_bone005" "dual_spark_point001" -0.820027 -0.561337 -0.764203 0.005099 29.998478 -4.99367 0 0 0 0 0 0
$definebone "dual_spark_bone001" "dual_spark_point001" -0.820045 -0.561395 -0.764142 0.008709 30.001978 -4.991836 0 0 0 0 0 0
$definebone "dual_spark_bone002" "dual_spark_point001" -0.81989 -0.561385 -0.764324 -0.002005 30.000083 -4.9998 0 0 0 0 0 0
$definebone "dual_spark_bone003" "dual_spark_point001" -0.819904 -0.561406 -0.764295 -0.000515 29.999625 -5.001119 0 0 0 0 0 0
$definebone "dual_spark_bone004" "dual_spark_point001" -0.820005 -0.561347 -0.76422 0.004125 29.998529 -4.994934 0 0 0 0 0 0
$definebone "muzzle_boneR" "Bone04" 8.326231 -7.925354 -1.10815 14.199193 -146.590804 179.24072 0 0 0 0 0 0
$definebone "dual_spark_point008" "l_ro001" 0.031021 -0.964481 0.075244 -88.926228 -136.960866 136.9055 0 0 0 0 0 0
$definebone "dual_spark_bone040" "dual_spark_point008" 0.044948 0.698909 -0.349934 5.197526 -90.342612 10.965327 0 0 0 0 0 0
$definebone "dual_spark_bone039" "dual_spark_point008" 0.044946 0.69891 -0.349934 5.218327 -90.335351 10.945154 0 0 0 0 0 0
$definebone "dual_spark_bone038" "dual_spark_point008" 0.044947 0.698909 -0.349933 5.225544 -90.311391 10.895538 0 0 0 0 0 0
$definebone "dual_spark_bone037" "dual_spark_point008" 0.044947 0.698909 -0.34993 5.237977 -90.257767 10.815953 0 0 0 0 0 0
$definebone "dual_spark_bone036" "dual_spark_point008" 0.044948 0.698912 -0.349932 5.197701 -90.344442 10.967727 0 0 0 0 0 0
$definebone "dual_spark_point005" "l_ro002" 0.326582 -0.948627 0.045078 -87.943979 89.443936 -88.995084 0 0 0 0 0 0
$definebone "dual_spark_bone021" "dual_spark_point005" 0.133441 0.900405 -1.137937 0 -90.000037 -0.000003 0 0 0 0 0 0
$definebone "dual_spark_bone022" "dual_spark_point005" 0.133443 0.900393 -1.137937 0.000001 -89.999982 0.000112 0 0 0 0 0 0
$definebone "dual_spark_bone023" "dual_spark_point005" 0.133441 0.900395 -1.137936 0.000001 -89.999982 0.000112 0 0 0 0 0 0
$definebone "dual_spark_bone024" "dual_spark_point005" 0.13344 0.900398 -1.137938 -0.000056 -89.999982 0.000055 0 0 0 0 0 0
$definebone "dual_spark_bone025" "dual_spark_point005" 0.133437 0.900397 -1.137933 0.000001 -89.999982 0.000055 0 0 0 0 0 0
$definebone "dual_spark_point007" "l_ro003" 0.216886 -0.862409 0.042655 -80.678031 -85.097627 84.483388 0 0 0 0 0 0
$definebone "dual_spark_bone035" "dual_spark_point007" 0.013644 0.782532 -1.422428 -1.047306 94.679939 -0.978211 0 0 0 0 0 0
$definebone "dual_spark_bone034" "dual_spark_point007" 0.013639 0.782535 -1.422431 -1.047306 94.679939 -0.978211 0 0 0 0 0 0
$definebone "dual_spark_bone033" "dual_spark_point007" 0.013644 0.782533 -1.422431 -1.047306 94.679939 -0.978211 0 0 0 0 0 0
$definebone "dual_spark_bone032" "dual_spark_point007" 0.013644 0.782532 -1.422428 -1.047306 94.679939 -0.978211 0 0 0 0 0 0
$definebone "dual_spark_bone031" "dual_spark_point007" 0.013644 0.782532 -1.422428 -1.047306 94.679939 -0.978211 0 0 0 0 0 0
$definebone "dual_spark_point006" "l_ro004" -0.092209 -1.226791 0.042591 -57.019044 -90.402833 89.822937 0 0 0 0 0 0
$definebone "dual_spark_bone026" "dual_spark_point006" -0.720552 0.911056 -1.496213 0 120.000072 -0.000117 0 0 0 0 0 0
$definebone "dual_spark_bone027" "dual_spark_point006" -0.720549 0.911056 -1.496215 0.000059 120.000072 -0.000002 0 0 0 0 0 0
$definebone "dual_spark_bone028" "dual_spark_point006" -0.720897 0.931442 -1.474503 0.024467 120.004293 0.663941 0 0 0 0 0 0
$definebone "dual_spark_bone029" "dual_spark_point006" -0.72055 0.911058 -1.49621 0 119.99999 -0.000003 0 0 0 0 0 0
$definebone "dual_spark_bone030" "dual_spark_point006" -0.720551 0.911057 -1.496209 0 119.99999 -0.000003 0 0 0 0 0 0
$definebone "muzzle_boneL" "Bone01" -3.950249 -9.05154 -4.405101 29.384126 161.388668 176.228511 0 0 0 0 0 0


$sectionframes 30 140

$sequence "idle" {
	"c_laserfist_anims\idle.smd"
	activity "ACT_VM_IDLE" 1
	{ event 5004 0 "Laserfist.Idle" }
	fadein 0.2
	fadeout 0.2
	snap
	fps 30
	loop
}

$sequence "shootA_empty_loop" {
	"c_laserfist_anims\shootA_empty_loop.smd"
	{ event 5004 0 "Laserfist.Empty_Loop" }
	fadein 0.2
	fadeout 0.2
	snap
	fps 60
	loop
}

$sequence "shootA_empty_end" {
	"c_laserfist_anims\shootA_empty_end.smd"
	activity "ACT_VM_PRIMARYATTACK" 1
	{ event 5001 0 "#I77 S0.06 R2 F0 P30 T0.1 A1 L0 O0 X0" }
	fadein 0.2
	fadeout 0.2
	snap
	fps 30
}

$sequence "shootA_loop" {
	"c_laserfist_anims\shootA_loop.smd"
	{ event 5001 0 "#I85 S0.05 R0 F15 P30 T0.05 A1 L0 O0 X0" }
	{ event 5001 5 "#I85 S0.05 R0 F15 P30 T0.05 A1 L0 O0 X0" }
	{ event 5001 10 "#I85 S0.05 R0 F15 P30 T0.05 A1 L0 O0 X0" }
	{ event 5001 15 "#I85 S0.05 R0 F15 P30 T0.05 A1 L0 O0 X0" }
	{ event 5011 0 "#I85 S0.05 R0 F15 P30 T0.05 A1 L0 O0 X1" }
	{ event 5011 5 "#I85 S0.05 R0 F15 P30 T0.05 A1 L0 O0 X1" }
	{ event 5011 10 "#I85 S0.05 R0 F15 P30 T0.05 A1 L0 O0 X1" }
	{ event 5011 15 "#I85 S0.05 R0 F15 P30 T0.05 A1 L0 O0 X1" }
	{ event 5001 1 "#I89 S0.06 R0 F15 P30 T0.1 A1 L0 O0 X14" }
	{ event 5011 1 "#I90 S0.06 R0 F15 P30 T0.1 A1 L0 O0 X15" }
	{ event 5004 0 "Laserfist.Empty_Loop" }
	fadein 0.2
	fadeout 0.2
	snap
	fps 60
	loop
}

$sequence "shootA_end" {
	"c_laserfist_anims\shootA_end.smd"
	{ event 5004 0 "Laserfist.Empty_End" }
	fadein 0.2
	fadeout 0.2
	fps 30
}

$sequence "shootB_ready" {
	"c_laserfist_anims\shootB_ready.smd"
	activity "ACT_VM_ATTACH_SILENCER" 1
	{ event 5001 32 "#I86 S0.13 R0 F0 P30 T999 A1 L0 O0 X2" }
	{ event 5011 32 "#I86 S0.13 R0 F0 P30 T999 A1 L0 O0 X3" }
	{ event 5004 0 "Laserfist.Ready" }
	{ event 5004 25 "Laserfist.Charge" }
	fadein 0.2
	fadeout 0.2
	snap
	fps 30
}

$sequence "shootB_loop" {
	"c_laserfist_anims\shootB_loop.smd"
	activity "ACT_VM_IDLE_SILENCED" 1
	{ event 5001 0 "#I91 S0.13 R0 F0 P30 T999 A1 L0 O0 X2" }
	{ event 5011 0 "#I91 S0.13 R0 F0 P30 T999 A1 L0 O0 X3" }
	{ event 5004 0 "Laserfist.ShootB_Loop" }
	fadein 0.2
	fadeout 0.2
	snap
	fps 30
	loop
}

$sequence "shootB_shoot" {
	"c_laserfist_anims\shootB_shoot.smd"
	activity "ACT_VM_PRIMARYATTACK_SILENCED" 1
	{ event 5001 0 "#I86 S0.13 R0 F15 P30 T999 A1 L0 O0 X2" }
	{ event 5011 0 "#I86 S0.13 R0 F15 P30 T999 A1 L0 O0 X3" }
	{ event 5001 1 "#I87 S0.07 R0 F0 P30 T999 A1 L0 O0 X2" }
	{ event 5011 1 "#I87 S0.07 R0 F0 P30 T999 A1 L0 O0 X3" }
	{ event 5004 20 "Laserfist.ShootB_Shoot" }
	fadein 0.2
	fadeout 0.2
	snap
	fps 30
}

$sequence "reload" {
	"c_laserfist_anims\reload.smd"
	activity "ACT_VM_RELOAD" 1
	{ event 5004 5 "Laserfist.ClipOut" }
	{ event 5004 31 "Laserfist.ClipIn1" }
	{ event 5004 60 "Laserfist.ClipIn2" }
	fadein 0.2
	fadeout 0.2
	snap
	fps 30
}

$sequence "draw" {
	"c_laserfist_anims\draw.smd"
	activity "ACT_VM_DRAW" 1
	{ event 5004 17 "Laserfist.Draw" }
	fadein 0.2
	fadeout 0.2
	snap
	fps 30
}
