// Created by Crowbar 0.68

$modelname "weapons/tfa_cso/c_shiftexpar.mdl"

$Include "bones.qci"

$bodygroup "weapon"
{
	studio "v_shiftexpar_mesh01"
}
$bodygroup "weapon"
{
	studio "v_shiftexpar_mesh02"
}
$bodygroup "weapon"
{
	studio "v_shiftexpar_attach"
}

$CDMaterials "models\weapons\tfa_cso\shiftexpar\"

$texturegroup "skinfamilies"
{
	{ "$20shiftexpar_02_v.bmp"    }
	{ "$20shiftexpar_02_on_v.bmp" }
}


$attachment 0 "shiftexpar_root" 0 3.2 17

$sequence "idle" {
	"v_shiftexpar_anims\idle"
	activity "ACT_VM_IDLE" 1
	{ event 5061 60 "#I385 S0.013 R0 F0 P30 T999 A1 L0 U1 O0 X6 D1 H1" }
	fps 30
	loop
	snap
}
$sequence "shootA" {
	"v_shiftexpar_anims\shootA"
	activity "ACT_VM_PRIMARYATTACK" 1
	{ event 5001 0 "#I309 S0.04 R2 F0 P80 T999 A1 L0 X0 O0 D0" }
	{ event 5061 1 "#I388 S0.013 R0 F0 P30 T999 A1 L0 U1 O0 X6 D1 H1" }
	fps 30
	snap
}
$sequence "shootB" {
	"v_shiftexpar_anims\shootB"
	activity "ACT_VM_SECONDARYATTACK" 1
	{ event 5041 0 "#I384 S0.1 R0 F0 P30 T999 A1 X4 L0 O0 D1 H1" }
	{ event 5061 1 "#I385 S0.013 R0 F0 P30 T999 A1 L0 U1 O0 X6 D1 H1" }
	fps 30
	snap
}
$sequence "shootB2" {
	"v_shiftexpar_anims\shootB2"
	activity "ACT_VM_HITCENTER" 1
	{ event 5061 18 "#I385 S0.013 R0 F0 P30 T999 A1 L0 U1 O0 X6 D1 H1" }
	{ event 5021 0 "#I386 S0.032 R0 F0 P30 T999 A1 L0 U1 O0 X2 D0 H1" }
	{ event 5031 0 "#I387 S0.05 R0 F0 P30 T999 A1 L0 U1 O0 X3 D1 H1" }
	fps 30
	snap
}
$sequence "reload" {
	"v_shiftexpar_anims\reload"
	activity "ACT_VM_RELOAD" 1
	{ event 5061 52 "#I385 S0.013 R0 F0 P30 T999 A1 L0 U1 O0 X6 D1 H1" }
	{ event 5051 17 "#I389 S0.035 R0 F0 P30 T999 A1 L0 U1 O0 X5 D0 H1" }
	{ event 5004 14 "ShiftExPar.ClipOut" }
	{ event 5004 41 "ShiftExPar.ClipIn" }
	fps 30
	snap
}
$sequence "draw" {
	"v_shiftexpar_anims\draw"
	activity "ACT_VM_DRAW" 1
	{ event 5061 15 "#I385 S0.013 R0 F0 P30 T999 A1 L0 U1 O0 X6 D1 H1" }
	{ event 5004 1 "ShiftExPar.Draw" }
	fps 30
	snap
}
