version 1
nodes
  0 "[CSO]M60E4-pws" -1
end
skeleton
  time 0
    0 21.790312 -15.117317 2.181757 -0.316086 -0.005766 -0.589471
end
triangles
#256256M60e4-p.bmp
  0 4.537906 -5.422213 5.683399 -0.555535 -0.266213 0.787725 0.476563 0.351563
  0 4.480449 -5.511149 5.391870 -0.741577 -0.609470 -0.280374 0.488281 0.351563
  0 4.682402 -5.727977 5.668276 -0.627042 -0.621410 0.469754 0.488281 0.339844
#256256M60e4-p.bmp
  0 4.682402 -5.727977 5.668276 -0.627042 -0.621410 0.469754 0.488281 0.339844
  0 4.480449 -5.511149 5.391870 -0.741577 -0.609470 -0.280374 0.488281 0.351563
  0 4.675998 -5.740669 5.367779 -0.625462 -0.679631 -0.383274 0.500000 0.339844
#256256M60e4-p.bmp
  0 4.480449 -5.511149 5.391870 -0.741577 -0.609470 -0.280374 0.488281 0.351563
  0 4.572963 -5.374252 5.253666 -0.339806 -0.092355 -0.935950 0.476563 0.351563
  0 4.675998 -5.740669 5.367779 -0.625462 -0.679631 -0.383274 0.500000 0.339844
#256256M60e4-p.bmp
  0 4.675998 -5.740669 5.367779 -0.625462 -0.679631 -0.383274 0.500000 0.339844
  0 4.572963 -5.374252 5.253666 -0.339806 -0.092355 -0.935950 0.476563 0.351563
  0 4.804172 -5.551104 5.166690 -0.265481 -0.147280 -0.952800 0.480469 0.339844
#256256M60e4-p.bmp
  0 4.572963 -5.374252 5.253666 -0.339806 -0.092355 -0.935950 0.476563 0.351563
  0 4.695762 -5.190297 5.286542 0.124815 0.595763 -0.793403 0.460938 0.351563
  0 4.804172 -5.551104 5.166690 -0.265481 -0.147280 -0.952800 0.480469 0.339844
#256256M60e4-p.bmp
  0 4.804172 -5.551104 5.166690 -0.265481 -0.147280 -0.952800 0.480469 0.339844
  0 4.695762 -5.190297 5.286542 0.124815 0.595763 -0.793403 0.460938 0.351563
  0 4.965494 -5.309348 5.218932 0.204097 0.556378 -0.805474 0.460938 0.339844
#256256M60e4-p.bmp
  0 4.695762 -5.190297 5.286542 0.124815 0.595763 -0.793403 0.460938 0.351563
  0 4.753972 -5.101219 5.483206 0.353900 0.933739 -0.053722 0.453125 0.351563
  0 4.965494 -5.309348 5.218932 0.204097 0.556378 -0.805474 0.460938 0.339844
#256256M60e4-p.bmp
  0 4.965494 -5.309348 5.218932 0.204097 0.556378 -0.805474 0.460938 0.339844
  0 4.753972 -5.101219 5.483206 0.353900 0.933739 -0.053722 0.453125 0.351563
  0 5.046079 -5.186188 5.475911 0.429669 0.901474 -0.052235 0.441406 0.339844
#256256M60e4-p.bmp
  0 4.753972 -5.101219 5.483206 0.353900 0.933739 -0.053722 0.453125 0.351563
  0 4.703094 -5.175133 5.691407 0.107788 0.565384 0.817755 0.460938 0.351563
  0 5.046079 -5.186188 5.475911 0.429669 0.901474 -0.052235 0.441406 0.339844
#256256M60e4-p.bmp
  0 5.046079 -5.186188 5.475911 0.429669 0.901474 -0.052235 0.441406 0.339844
  0 4.703094 -5.175133 5.691407 0.107788 0.565384 0.817755 0.460938 0.351563
  0 4.978803 -5.283870 5.756681 0.199283 0.626498 0.753516 0.457031 0.339844
#256256M60e4-p.bmp
  0 4.703094 -5.175133 5.691407 0.107788 0.565384 0.817755 0.460938 0.351563
  0 4.537906 -5.422213 5.683399 -0.555535 -0.266213 0.787725 0.476563 0.351563
  0 4.978803 -5.283870 5.756681 0.199283 0.626498 0.753516 0.457031 0.339844
#256256M60e4-p.bmp
  0 4.978803 -5.283870 5.756681 0.199283 0.626498 0.753516 0.457031 0.339844
  0 4.537906 -5.422213 5.683399 -0.555535 -0.266213 0.787725 0.476563 0.351563
  0 4.818159 -5.523202 5.840430 -0.262371 0.011284 0.964901 0.472656 0.339844
#256256M60e4-p.bmp
  0 4.537906 -5.422213 5.683399 -0.555535 -0.266213 0.787725 0.476563 0.351563
  0 4.682402 -5.727977 5.668276 -0.627042 -0.621410 0.469754 0.488281 0.339844
  0 4.818159 -5.523202 5.840430 -0.262371 0.011284 0.964901 0.472656 0.339844
#256256M60e4-p.bmp
  0 4.818159 -5.523202 5.840430 -0.262371 0.011284 0.964901 0.472656 0.339844
  0 4.682402 -5.727977 5.668276 -0.627042 -0.621410 0.469754 0.488281 0.339844
  0 6.846339 -6.879628 5.854499 0.437951 -0.454643 0.775563 0.472656 0.238281
#256256M60e4-p.bmp
  0 4.682402 -5.727977 5.668276 -0.627042 -0.621410 0.469754 0.488281 0.339844
  0 6.710582 -7.084403 5.682345 0.132453 -0.915542 0.379789 0.488281 0.238281
  0 6.846339 -6.879628 5.854499 0.437951 -0.454643 0.775563 0.472656 0.238281
#256256M60e4-p.bmp
  0 4.903290 -4.870918 6.161487 -0.539255 -0.241675 0.806720 0.476563 0.351563
  0 4.840534 -4.967744 5.873066 -0.747104 -0.617379 -0.246331 0.488281 0.351563
  0 5.053085 -5.168791 6.143255 -0.617225 -0.606404 0.501305 0.488281 0.339844
#256256M60e4-p.bmp
  0 5.053085 -5.168791 6.143255 -0.617225 -0.606404 0.501305 0.488281 0.339844
  0 4.840534 -4.967744 5.873066 -0.747104 -0.617379 -0.246331 0.488281 0.351563
  0 5.036084 -5.197264 5.848976 -0.633112 -0.690719 -0.349394 0.500000 0.339844
#256256M60e4-p.bmp
  0 4.840534 -4.967744 5.873066 -0.747104 -0.617379 -0.246331 0.488281 0.351563
  0 4.931366 -4.833461 5.725358 -0.358896 -0.120792 -0.925528 0.476563 0.351563
  0 5.036084 -5.197264 5.848976 -0.633112 -0.690719 -0.349394 0.500000 0.339844
#256256M60e4-p.bmp
  0 5.036084 -5.197264 5.848976 -0.633112 -0.690719 -0.349394 0.500000 0.339844
  0 4.931366 -4.833461 5.725358 -0.358896 -0.120792 -0.925528 0.476563 0.351563
  0 5.157276 -5.018205 5.641490 -0.284927 -0.176247 -0.942207 0.480469 0.339844
#256256M60e4-p.bmp
  0 4.931366 -4.833461 5.725358 -0.358896 -0.120792 -0.925528 0.476563 0.351563
  0 5.057781 -4.644230 5.745621 0.108478 0.571123 -0.813665 0.460938 0.351563
  0 5.157276 -5.018205 5.641490 -0.284927 -0.176247 -0.942207 0.480469 0.339844
#256256M60e4-p.bmp
  0 5.157276 -5.018205 5.641490 -0.284927 -0.176247 -0.942207 0.480469 0.339844
  0 5.057781 -4.644230 5.745621 0.108478 0.571123 -0.813665 0.460938 0.351563
  0 5.322214 -4.771172 5.681120 0.187499 0.531345 -0.826145 0.460938 0.339844
#256256M60e4-p.bmp
  0 5.057781 -4.644230 5.745621 0.108478 0.571123 -0.813665 0.460938 0.351563
  0 5.115991 -4.555152 5.942284 0.352632 0.931470 -0.089528 0.453125 0.351563
  0 5.322214 -4.771172 5.681120 0.187499 0.531345 -0.826145 0.460938 0.339844
#256256M60e4-p.bmp
  0 5.322214 -4.771172 5.681120 0.187499 0.531345 -0.826145 0.460938 0.339844
  0 5.115991 -4.555152 5.942284 0.352632 0.931470 -0.089528 0.453125 0.351563
  0 5.408098 -4.640122 5.934989 0.428418 0.899226 -0.088607 0.441406 0.339844
#256256M60e4-p.bmp
  0 5.115991 -4.555152 5.942284 0.352632 0.931470 -0.089528 0.453125 0.351563
  0 5.070412 -4.621176 6.147378 0.124460 0.590102 0.797678 0.460938 0.351563
  0 5.408098 -4.640122 5.934989 0.428418 0.899226 -0.088607 0.441406 0.339844
#256256M60e4-p.bmp
  0 5.408098 -4.640122 5.934989 0.428418 0.899226 -0.088607 0.441406 0.339844
  0 5.070412 -4.621176 6.147378 0.124460 0.590102 0.797678 0.460938 0.351563
  0 5.346121 -4.729913 6.212652 0.214612 0.649172 0.729738 0.457031 0.339844
#256256M60e4-p.bmp
  0 5.070412 -4.621176 6.147378 0.124460 0.590102 0.797678 0.460938 0.351563
  0 4.903290 -4.870918 6.161487 -0.539255 -0.241675 0.806720 0.476563 0.351563
  0 5.346121 -4.729913 6.212652 0.214612 0.649172 0.729738 0.457031 0.339844
#256256M60e4-p.bmp
  0 5.346121 -4.729913 6.212652 0.214612 0.649172 0.729738 0.457031 0.339844
  0 4.903290 -4.870918 6.161487 -0.539255 -0.241675 0.806720 0.476563 0.351563
  0 5.187160 -4.966631 6.305905 -0.242552 0.040962 0.969273 0.472656 0.339844
#256256M60e4-p.bmp
  0 4.903290 -4.870918 6.161487 -0.539255 -0.241675 0.806720 0.476563 0.351563
  0 5.053085 -5.168791 6.143255 -0.617225 -0.606404 0.501305 0.488281 0.339844
  0 5.187160 -4.966631 6.305905 -0.242552 0.040962 0.969273 0.472656 0.339844
#256256M60e4-p.bmp
  0 5.187160 -4.966631 6.305905 -0.242552 0.040962 0.969273 0.472656 0.339844
  0 5.053085 -5.168791 6.143255 -0.617225 -0.606404 0.501305 0.488281 0.339844
  0 7.215339 -6.323056 6.319974 0.437951 -0.454643 0.775563 0.472656 0.238281
#256256M60e4-p.bmp
  0 5.053085 -5.168791 6.143255 -0.617225 -0.606404 0.501305 0.488281 0.339844
  0 7.081265 -6.525217 6.157324 0.132453 -0.915542 0.379789 0.488281 0.238281
  0 7.215339 -6.323056 6.319974 0.437951 -0.454643 0.775563 0.472656 0.238281
#256256M60e4-p.bmp
  0 5.187260 -4.440643 6.708319 -0.675144 -0.447142 0.586724 0.476563 0.351563
  0 5.186155 -4.445444 6.404714 -0.667991 -0.502229 -0.549139 0.488281 0.351563
  0 5.344538 -4.727917 6.633239 -0.682796 -0.707767 0.181259 0.488281 0.339844
#256256M60e4-p.bmp
  0 5.344538 -4.727917 6.633239 -0.682796 -0.707767 0.181259 0.488281 0.339844
  0 5.186155 -4.445444 6.404714 -0.667991 -0.502229 -0.549139 0.488281 0.351563
  0 5.387255 -4.667026 6.345893 -0.534370 -0.546144 -0.645116 0.500000 0.339844
#256256M60e4-p.bmp
  0 5.186155 -4.445444 6.404714 -0.667991 -0.502229 -0.549139 0.488281 0.351563
  0 5.297679 -4.279694 6.307815 -0.172896 0.156835 -0.972373 0.476563 0.351563
  0 5.387255 -4.667026 6.345893 -0.534370 -0.546144 -0.645116 0.500000 0.339844
#256256M60e4-p.bmp
  0 5.387255 -4.667026 6.345893 -0.534370 -0.546144 -0.645116 0.500000 0.339844
  0 5.297679 -4.279694 6.307815 -0.172896 0.156835 -0.972373 0.476563 0.351563
  0 5.541168 -4.438151 6.224127 -0.095484 0.106521 -0.989715 0.480469 0.339844
#256256M60e4-p.bmp
  0 5.297679 -4.279694 6.307815 -0.172896 0.156835 -0.972373 0.476563 0.351563
  0 5.404080 -4.119506 6.413260 0.243884 0.775993 -0.581683 0.460938 0.351563
  0 5.541168 -4.438151 6.224127 -0.095484 0.106521 -0.989715 0.480469 0.339844
#256256M60e4-p.bmp
  0 5.541168 -4.438151 6.224127 -0.095484 0.106521 -0.989715 0.480469 0.339844
  0 5.404080 -4.119506 6.413260 0.243884 0.775993 -0.581683 0.460938 0.351563
  0 5.689456 -4.214934 6.367947 0.324988 0.739377 -0.589665 0.460938 0.339844
#256256M60e4-p.bmp
  0 5.404080 -4.119506 6.413260 0.243884 0.775993 -0.581683 0.460938 0.351563
  0 5.430498 -4.077772 6.628574 0.335260 0.908994 0.247651 0.453125 0.351563
  0 5.689456 -4.214934 6.367947 0.324988 0.739377 -0.589665 0.460938 0.339844
#256256M60e4-p.bmp
  0 5.689456 -4.214934 6.367947 0.324988 0.739377 -0.589665 0.460938 0.339844
  0 5.430498 -4.077772 6.628574 0.335260 0.908994 0.247651 0.453125 0.351563
  0 5.717055 -4.170680 6.656009 0.410421 0.875869 0.253788 0.441406 0.339844
#256256M60e4-p.bmp
  0 5.430498 -4.077772 6.628574 0.335260 0.908994 0.247651 0.453125 0.351563
  0 5.344714 -4.204211 6.804796 -0.046903 0.335361 0.940921 0.460938 0.351563
  0 5.717055 -4.170680 6.656009 0.410421 0.875869 0.253788 0.441406 0.339844
#256256M60e4-p.bmp
  0 5.717055 -4.170680 6.656009 0.410421 0.875869 0.253788 0.441406 0.339844
  0 5.344714 -4.204211 6.804796 -0.046903 0.335361 0.940921 0.460938 0.351563
  0 5.606209 -4.334005 6.888900 0.052704 0.408962 0.911028 0.457031 0.339844
#256256M60e4-p.bmp
  0 5.344714 -4.204211 6.804796 -0.046903 0.335361 0.940921 0.460938 0.351563
  0 5.187260 -4.440643 6.708319 -0.675144 -0.447142 0.586724 0.476563 0.351563
  0 5.606209 -4.334005 6.888900 0.052704 0.408962 0.911028 0.457031 0.339844
#256256M60e4-p.bmp
  0 5.606209 -4.334005 6.888900 0.052704 0.408962 0.911028 0.457031 0.339844
  0 5.187260 -4.440643 6.708319 -0.675144 -0.447142 0.586724 0.476563 0.351563
  0 5.441020 -4.581085 6.880891 -0.423264 -0.230211 0.876271 0.472656 0.339844
#256256M60e4-p.bmp
  0 5.187260 -4.440643 6.708319 -0.675144 -0.447142 0.586724 0.476563 0.351563
  0 5.344538 -4.727917 6.633239 -0.682796 -0.707767 0.181259 0.488281 0.339844
  0 5.441020 -4.581085 6.880891 -0.423264 -0.230211 0.876271 0.472656 0.339844
#256256M60e4-p.bmp
  0 5.441020 -4.581085 6.880891 -0.423264 -0.230211 0.876271 0.472656 0.339844
  0 5.344538 -4.727917 6.633239 -0.682796 -0.707767 0.181259 0.488281 0.339844
  0 7.469200 -5.937511 6.894960 0.310114 -0.646604 0.696945 0.472656 0.238281
#256256M60e4-p.bmp
  0 5.344538 -4.727917 6.633239 -0.682796 -0.707767 0.181259 0.488281 0.339844
  0 7.372718 -6.084343 6.647308 0.087782 -0.984712 0.150458 0.488281 0.238281
  0 7.469200 -5.937511 6.894960 0.310114 -0.646604 0.696945 0.472656 0.238281
#256256M60e4-p.bmp
  0 4.682402 -5.727977 5.668276 -0.627042 -0.621410 0.469754 0.488281 0.339844
  0 4.675998 -5.740669 5.367779 -0.625462 -0.679631 -0.383274 0.500000 0.339844
  0 6.710582 -7.084403 5.682345 0.132453 -0.915542 0.379789 0.488281 0.238281
#256256M60e4-p.bmp
  0 6.710582 -7.084403 5.682345 0.132453 -0.915542 0.379789 0.488281 0.238281
  0 4.675998 -5.740669 5.367779 -0.625462 -0.679631 -0.383274 0.500000 0.339844
  0 6.704178 -7.097094 5.381848 0.116066 -0.947081 -0.299278 0.500000 0.238281
#256256M60e4-p.bmp
  0 4.675998 -5.740669 5.367779 -0.625462 -0.679631 -0.383274 0.500000 0.339844
  0 4.804172 -5.551104 5.166690 -0.265481 -0.147280 -0.952800 0.480469 0.339844
  0 6.704178 -7.097094 5.381848 0.116066 -0.947081 -0.299278 0.500000 0.238281
#256256M60e4-p.bmp
  0 6.704178 -7.097094 5.381848 0.116066 -0.947081 -0.299278 0.500000 0.238281
  0 4.804172 -5.551104 5.166690 -0.265481 -0.147280 -0.952800 0.480469 0.339844
  0 6.832352 -6.907530 5.180759 0.401138 -0.525511 -0.750285 0.480469 0.238281
#256256M60e4-p.bmp
  0 4.804172 -5.551104 5.166690 -0.265481 -0.147280 -0.952800 0.480469 0.339844
  0 4.965494 -5.309348 5.218932 0.204097 0.556378 -0.805474 0.460938 0.339844
  0 6.832352 -6.907530 5.180759 0.401138 -0.525511 -0.750285 0.480469 0.238281
#256256M60e4-p.bmp
  0 6.832352 -6.907530 5.180759 0.401138 -0.525511 -0.750285 0.480469 0.238281
  0 4.965494 -5.309348 5.218932 0.204097 0.556378 -0.805474 0.460938 0.339844
  0 6.993673 -6.665774 5.233001 0.772997 0.031716 -0.633617 0.460938 0.238281
#256256M60e4-p.bmp
  0 4.965494 -5.309348 5.218932 0.204097 0.556378 -0.805474 0.460938 0.339844
  0 5.046079 -5.186188 5.475911 0.429669 0.901474 -0.052235 0.441406 0.339844
  0 6.993673 -6.665774 5.233001 0.772997 0.031716 -0.633617 0.460938 0.238281
#256256M60e4-p.bmp
  0 6.993673 -6.665774 5.233001 0.772997 0.031716 -0.633617 0.460938 0.238281
  0 5.046079 -5.186188 5.475911 0.429669 0.901474 -0.052235 0.441406 0.339844
  0 7.074259 -6.542614 5.489980 0.951630 0.304995 -0.037126 0.441406 0.238281
#256256M60e4-p.bmp
  0 5.046079 -5.186188 5.475911 0.429669 0.901474 -0.052235 0.441406 0.339844
  0 4.978803 -5.283870 5.756681 0.199283 0.626498 0.753516 0.457031 0.339844
  0 7.074259 -6.542614 5.489980 0.951630 0.304995 -0.037126 0.441406 0.238281
#256256M60e4-p.bmp
  0 7.074259 -6.542614 5.489980 0.951630 0.304995 -0.037126 0.441406 0.238281
  0 4.978803 -5.283870 5.756681 0.199283 0.626498 0.753516 0.457031 0.339844
  0 7.006983 -6.640296 5.770750 0.802520 0.088548 0.590018 0.457031 0.238281
#256256M60e4-p.bmp
  0 4.978803 -5.283870 5.756681 0.199283 0.626498 0.753516 0.457031 0.339844
  0 4.818159 -5.523202 5.840430 -0.262371 0.011284 0.964901 0.472656 0.339844
  0 7.006983 -6.640296 5.770750 0.802520 0.088548 0.590018 0.457031 0.238281
#256256M60e4-p.bmp
  0 7.006983 -6.640296 5.770750 0.802520 0.088548 0.590018 0.457031 0.238281
  0 4.818159 -5.523202 5.840430 -0.262371 0.011284 0.964901 0.472656 0.339844
  0 6.846339 -6.879628 5.854499 0.437951 -0.454643 0.775563 0.472656 0.238281
#256256M60e4-p.bmp
  0 5.053085 -5.168791 6.143255 -0.617225 -0.606404 0.501305 0.488281 0.339844
  0 5.036084 -5.197264 5.848976 -0.633112 -0.690719 -0.349394 0.500000 0.339844
  0 7.081265 -6.525217 6.157324 0.132453 -0.915542 0.379789 0.488281 0.238281
#256256M60e4-p.bmp
  0 7.081265 -6.525217 6.157324 0.132453 -0.915542 0.379789 0.488281 0.238281
  0 5.036084 -5.197264 5.848976 -0.633112 -0.690719 -0.349394 0.500000 0.339844
  0 7.064264 -6.553690 5.863045 0.116066 -0.947081 -0.299278 0.500000 0.238281
#256256M60e4-p.bmp
  0 5.036084 -5.197264 5.848976 -0.633112 -0.690719 -0.349394 0.500000 0.339844
  0 5.157276 -5.018205 5.641490 -0.284927 -0.176247 -0.942207 0.480469 0.339844
  0 7.064264 -6.553690 5.863045 0.116066 -0.947081 -0.299278 0.500000 0.238281
#256256M60e4-p.bmp
  0 7.064264 -6.553690 5.863045 0.116066 -0.947081 -0.299278 0.500000 0.238281
  0 5.157276 -5.018205 5.641490 -0.284927 -0.176247 -0.942207 0.480469 0.339844
  0 7.185456 -6.374630 5.655559 0.401138 -0.525511 -0.750285 0.480469 0.238281
#256256M60e4-p.bmp
  0 5.157276 -5.018205 5.641490 -0.284927 -0.176247 -0.942207 0.480469 0.339844
  0 5.322214 -4.771172 5.681120 0.187499 0.531345 -0.826145 0.460938 0.339844
  0 7.185456 -6.374630 5.655559 0.401138 -0.525511 -0.750285 0.480469 0.238281
#256256M60e4-p.bmp
  0 7.185456 -6.374630 5.655559 0.401138 -0.525511 -0.750285 0.480469 0.238281
  0 5.322214 -4.771172 5.681120 0.187499 0.531345 -0.826145 0.460938 0.339844
  0 7.350394 -6.127598 5.695189 0.772997 0.031716 -0.633617 0.460938 0.238281
#256256M60e4-p.bmp
  0 5.322214 -4.771172 5.681120 0.187499 0.531345 -0.826145 0.460938 0.339844
  0 5.408098 -4.640122 5.934989 0.428418 0.899226 -0.088607 0.441406 0.339844
  0 7.350394 -6.127598 5.695189 0.772997 0.031716 -0.633617 0.460938 0.238281
#256256M60e4-p.bmp
  0 7.350394 -6.127598 5.695189 0.772997 0.031716 -0.633617 0.460938 0.238281
  0 5.408098 -4.640122 5.934989 0.428418 0.899226 -0.088607 0.441406 0.339844
  0 7.436278 -5.996548 5.949058 0.951630 0.304995 -0.037126 0.441406 0.238281
#256256M60e4-p.bmp
  0 5.408098 -4.640122 5.934989 0.428418 0.899226 -0.088607 0.441406 0.339844
  0 5.346121 -4.729913 6.212652 0.214612 0.649172 0.729738 0.457031 0.339844
  0 7.436278 -5.996548 5.949058 0.951630 0.304995 -0.037126 0.441406 0.238281
#256256M60e4-p.bmp
  0 7.436278 -5.996548 5.949058 0.951630 0.304995 -0.037126 0.441406 0.238281
  0 5.346121 -4.729913 6.212652 0.214612 0.649172 0.729738 0.457031 0.339844
  0 7.374300 -6.086339 6.226721 0.802520 0.088548 0.590018 0.457031 0.238281
#256256M60e4-p.bmp
  0 5.346121 -4.729913 6.212652 0.214612 0.649172 0.729738 0.457031 0.339844
  0 5.187160 -4.966631 6.305905 -0.242552 0.040962 0.969273 0.472656 0.339844
  0 7.374300 -6.086339 6.226721 0.802520 0.088548 0.590018 0.457031 0.238281
#256256M60e4-p.bmp
  0 7.374300 -6.086339 6.226721 0.802520 0.088548 0.590018 0.457031 0.238281
  0 5.187160 -4.966631 6.305905 -0.242552 0.040962 0.969273 0.472656 0.339844
  0 7.215339 -6.323056 6.319974 0.437951 -0.454643 0.775563 0.472656 0.238281
#256256M60e4-p.bmp
  0 5.344538 -4.727917 6.633239 -0.682796 -0.707767 0.181259 0.488281 0.339844
  0 5.387255 -4.667026 6.345893 -0.534370 -0.546144 -0.645116 0.500000 0.339844
  0 7.372718 -6.084343 6.647308 0.087782 -0.984712 0.150458 0.488281 0.238281
#256256M60e4-p.bmp
  0 7.372718 -6.084343 6.647308 0.087782 -0.984712 0.150458 0.488281 0.238281
  0 5.387255 -4.667026 6.345893 -0.534370 -0.546144 -0.645116 0.500000 0.339844
  0 7.415434 -6.023452 6.359962 0.188205 -0.841372 -0.506629 0.500000 0.238281
#256256M60e4-p.bmp
  0 5.387255 -4.667026 6.345893 -0.534370 -0.546144 -0.645116 0.500000 0.339844
  0 5.541168 -4.438151 6.224127 -0.095484 0.106521 -0.989715 0.480469 0.339844
  0 7.415434 -6.023452 6.359962 0.188205 -0.841372 -0.506629 0.500000 0.238281
#256256M60e4-p.bmp
  0 7.415434 -6.023452 6.359962 0.188205 -0.841372 -0.506629 0.500000 0.238281
  0 5.541168 -4.438151 6.224127 -0.095484 0.106521 -0.989715 0.480469 0.339844
  0 7.569348 -5.794577 6.238196 0.535760 -0.324526 -0.779516 0.480469 0.238281
#256256M60e4-p.bmp
  0 5.541168 -4.438151 6.224127 -0.095484 0.106521 -0.989715 0.480469 0.339844
  0 5.689456 -4.214934 6.367947 0.324988 0.739377 -0.589665 0.460938 0.339844
  0 7.569348 -5.794577 6.238196 0.535760 -0.324526 -0.779516 0.480469 0.238281
#256256M60e4-p.bmp
  0 7.569348 -5.794577 6.238196 0.535760 -0.324526 -0.779516 0.480469 0.238281
  0 5.689456 -4.214934 6.367947 0.324988 0.739377 -0.589665 0.460938 0.339844
  0 7.717636 -5.571359 6.382016 0.868731 0.176633 -0.462717 0.460938 0.238281
#256256M60e4-p.bmp
  0 5.689456 -4.214934 6.367947 0.324988 0.739377 -0.589665 0.460938 0.339844
  0 5.717055 -4.170680 6.656009 0.410421 0.875869 0.253788 0.441406 0.339844
  0 7.717636 -5.571359 6.382016 0.868731 0.176633 -0.462717 0.460938 0.238281
#256256M60e4-p.bmp
  0 7.717636 -5.571359 6.382016 0.868731 0.176633 -0.462717 0.460938 0.238281
  0 5.717055 -4.170680 6.656009 0.410421 0.875869 0.253788 0.441406 0.339844
  0 7.745235 -5.527106 6.670078 0.936387 0.284721 0.205216 0.441406 0.238281
#256256M60e4-p.bmp
  0 5.717055 -4.170680 6.656009 0.410421 0.875869 0.253788 0.441406 0.339844
  0 5.606209 -4.334005 6.888900 0.052704 0.408962 0.911028 0.457031 0.339844
  0 7.745235 -5.527106 6.670078 0.936387 0.284721 0.205216 0.441406 0.238281
#256256M60e4-p.bmp
  0 7.745235 -5.527106 6.670078 0.936387 0.284721 0.205216 0.441406 0.238281
  0 5.606209 -4.334005 6.888900 0.052704 0.408962 0.911028 0.457031 0.339844
  0 7.634389 -5.690431 6.902969 0.687779 -0.081654 0.721314 0.457031 0.238281
#256256M60e4-p.bmp
  0 5.606209 -4.334005 6.888900 0.052704 0.408962 0.911028 0.457031 0.339844
  0 5.441020 -4.581085 6.880891 -0.423264 -0.230211 0.876271 0.472656 0.339844
  0 7.634389 -5.690431 6.902969 0.687779 -0.081654 0.721314 0.457031 0.238281
#256256M60e4-p.bmp
  0 7.634389 -5.690431 6.902969 0.687779 -0.081654 0.721314 0.457031 0.238281
  0 5.441020 -4.581085 6.880891 -0.423264 -0.230211 0.876271 0.472656 0.339844
  0 7.469200 -5.937511 6.894960 0.310114 -0.646604 0.696945 0.472656 0.238281
#256256M60e4-p.bmp
  0 20.184471 -12.692438 2.672305 0.209729 0.932619 -0.293659 0.082031 0.453125
  0 11.343596 -7.400526 1.035179 0.963266 0.161123 -0.214842 0.191406 0.429688
  0 11.622894 -6.966544 2.612915 0.963266 0.161123 -0.214842 0.191406 0.453125
#256256M60e4-p.bmp
  0 11.622894 -6.966544 2.612915 0.963266 0.161123 -0.214842 0.191406 0.453125
  0 11.343596 -7.400526 1.035179 0.963266 0.161123 -0.214842 0.191406 0.429688
  0 12.242843 -6.043345 2.249228 0.963266 0.161123 -0.214842 0.187500 0.453125
#256256M60e4-p.bmp
  0 11.343596 -7.400526 1.035179 0.963266 0.161123 -0.214842 0.191406 0.429688
  0 11.963544 -6.477327 0.671492 0.963266 0.161123 -0.214842 0.187500 0.429688
  0 12.242843 -6.043345 2.249228 0.963266 0.161123 -0.214842 0.187500 0.453125
#256256M60e4-p.bmp
  0 12.242843 -6.043345 2.249228 0.963266 0.161123 -0.214842 0.187500 0.453125
  0 11.963544 -6.477327 0.671492 0.963266 0.161123 -0.214842 0.187500 0.429688
  0 3.423587 -0.145117 2.188051 -0.213087 0.951038 -0.223876 0.304688 0.453125
#256256M60e4-p.bmp
  0 11.963544 -6.477327 0.671492 0.963266 0.161123 -0.214842 0.187500 0.429688
  0 3.144288 -0.579099 0.610315 -0.213087 0.951038 -0.223876 0.304688 0.429688
  0 3.423587 -0.145117 2.188051 -0.213087 0.951038 -0.223876 0.304688 0.453125
#256256M60e4-p.bmp
  0 3.423587 -0.145117 2.188051 -0.213087 0.951038 -0.223876 0.304688 0.453125
  0 3.144288 -0.579099 0.610315 -0.213087 0.951038 -0.223876 0.304688 0.429688
  0 2.803638 -1.068316 2.551738 -0.213087 0.951038 -0.223876 0.304688 0.453125
#256256M60e4-p.bmp
  0 3.144288 -0.579099 0.610315 -0.213087 0.951038 -0.223876 0.304688 0.429688
  0 2.524340 -1.502298 0.974002 -0.213087 0.951038 -0.223876 0.304688 0.429688
  0 2.803638 -1.068316 2.551738 -0.213087 0.951038 -0.223876 0.304688 0.453125
#256256M60e4-p.bmp
  0 2.803638 -1.068316 2.551738 -0.213087 0.951038 -0.223876 0.304688 0.453125
  0 2.524340 -1.502298 0.974002 -0.213087 0.951038 -0.223876 0.304688 0.429688
  0 0.185292 0.682807 2.533575 0.529871 0.789059 -0.310843 0.339844 0.453125
#256256M60e4-p.bmp
  0 2.524340 -1.502298 0.974002 -0.213087 0.951038 -0.223876 0.304688 0.429688
  0 -0.094006 0.248825 0.955839 0.529871 0.789059 -0.310843 0.339844 0.429688
  0 0.185292 0.682807 2.533575 0.529871 0.789059 -0.310843 0.339844 0.453125
#256256M60e4-p.bmp
  0 27.280909 -13.550799 1.652165 0.168252 0.261435 0.950444 0.042969 0.695313
  0 20.184471 -12.692438 2.672305 0.168252 0.261435 0.950444 0.246094 0.804688
  0 23.566669 -20.785914 4.299814 0.168252 0.261435 0.950444 0.011719 0.964844
#256256M60e4-p.bmp
  0 23.566669 -20.785914 4.299814 0.168252 0.261435 0.950444 0.011719 0.964844
  0 20.184471 -12.692438 2.672305 0.168252 0.261435 0.950444 0.246094 0.804688
  0 11.846452 -12.947553 4.218514 0.284945 0.179327 0.941620 0.460938 0.964844
#256256M60e4-p.bmp
  0 20.184471 -12.692438 2.672305 0.168252 0.261435 0.950444 0.246094 0.804688
  0 12.856220 -11.461791 3.631077 0.228351 0.219816 0.948439 0.460938 0.906250
  0 11.846452 -12.947553 4.218514 0.284945 0.179327 0.941620 0.460938 0.964844
#256256M60e4-p.bmp
  0 11.846452 -12.947553 4.218514 0.284945 0.179327 0.941620 0.460938 0.964844
  0 12.856220 -11.461791 3.631077 0.228351 0.219816 0.948439 0.460938 0.906250
  0 7.353463 -10.042059 5.929670 0.284945 0.179327 0.941620 0.628906 0.984375
#256256M60e4-p.bmp
  0 12.856220 -11.461791 3.631077 0.228351 0.219816 0.948439 0.460938 0.906250
  0 8.683438 -8.061522 5.149452 0.284945 0.179327 0.941620 0.628906 0.906250
  0 7.353463 -10.042059 5.929670 0.284945 0.179327 0.941620 0.628906 0.984375
#256256M60e4-p.bmp
  0 7.353463 -10.042059 5.929670 0.284945 0.179327 0.941620 0.628906 0.984375
  0 8.683438 -8.061522 5.149452 0.284945 0.179327 0.941620 0.628906 0.906250
  0 2.000420 -3.591989 5.103094 0.168252 0.261435 0.950444 0.886719 0.906250
#256256M60e4-p.bmp
  0 -20.489332 11.491342 3.188868 0.168252 0.261435 0.950444 0.785156 0.277344
  0 -24.738451 13.119197 2.651587 -0.529871 -0.789059 0.310843 0.976563 0.312500
  0 -21.047830 10.650948 2.677188 -0.529871 -0.789059 0.310843 0.785156 0.312500
#256256M60e4-p.bmp
  0 -21.047830 10.650948 2.677188 -0.529871 -0.789059 0.310843 0.785156 0.312500
  0 -24.738451 13.119197 2.651587 -0.529871 -0.789059 0.310843 0.976563 0.312500
  0 -20.758535 11.073046 1.668158 -0.168252 -0.261435 -0.950444 0.785156 0.277344
#256256M60e4-p.bmp
  0 -24.738451 13.119197 2.651587 -0.529871 -0.789059 0.310843 0.976563 0.312500
  0 -24.449156 13.541295 1.642558 -0.168252 -0.261435 -0.950444 0.976563 0.277344
  0 -20.758535 11.073046 1.668158 -0.168252 -0.261435 -0.950444 0.785156 0.277344
#256256M60e4-p.bmp
  0 -20.758535 11.073046 1.668158 -0.168252 -0.261435 -0.950444 0.785156 0.277344
  0 -24.449156 13.541295 1.642558 -0.168252 -0.261435 -0.950444 0.976563 0.277344
  0 -20.194739 11.921332 2.176730 0.529871 0.789059 -0.310843 0.785156 0.242188
#256256M60e4-p.bmp
  0 -24.449156 13.541295 1.642558 -0.168252 -0.261435 -0.950444 0.976563 0.277344
  0 -23.885359 14.389581 2.151129 0.529871 0.789059 -0.310843 0.976563 0.242188
  0 -20.194739 11.921332 2.176730 0.529871 0.789059 -0.310843 0.785156 0.242188
#256256M60e4-p.bmp
  0 -20.194739 11.921332 2.176730 0.529871 0.789059 -0.310843 0.785156 0.242188
  0 -23.885359 14.389581 2.151129 0.529871 0.789059 -0.310843 0.976563 0.242188
  0 -24.179952 13.959592 3.163267 0.168252 0.261435 0.950444 0.976563 0.277344
#256256M60e4-p.bmp
  0 -11.337010 5.261484 3.040312 0.168252 0.261435 0.950444 0.500000 0.203125
  0 -21.169298 10.972305 2.610297 -0.529871 -0.789059 0.310843 0.980469 0.226563
  0 -11.734940 4.662703 2.675740 -0.529871 -0.789059 0.310843 0.500000 0.226563
#256256M60e4-p.bmp
  0 -11.734940 4.662703 2.675740 -0.529871 -0.789059 0.310843 0.500000 0.226563
  0 -21.169298 10.972305 2.610297 -0.529871 -0.789059 0.310843 0.980469 0.226563
  0 -11.528818 4.963448 1.956807 -0.168252 -0.261435 -0.950444 0.500000 0.203125
#256256M60e4-p.bmp
  0 -21.169298 10.972305 2.610297 -0.529871 -0.789059 0.310843 0.980469 0.226563
  0 -20.963176 11.273050 1.891363 -0.168252 -0.261435 -0.950444 0.980469 0.203125
  0 -11.528818 4.963448 1.956807 -0.168252 -0.261435 -0.950444 0.500000 0.203125
#256256M60e4-p.bmp
  0 -11.528818 4.963448 1.956807 -0.168252 -0.261435 -0.950444 0.500000 0.203125
  0 -20.963176 11.273050 1.891363 -0.168252 -0.261435 -0.950444 0.980469 0.203125
  0 -11.125589 5.570120 2.318270 0.529871 0.789059 -0.310843 0.500000 0.175781
#256256M60e4-p.bmp
  0 -20.963176 11.273050 1.891363 -0.168252 -0.261435 -0.950444 0.980469 0.203125
  0 -20.559947 11.879722 2.252826 0.529871 0.789059 -0.310843 0.980469 0.175781
  0 -11.125589 5.570120 2.318270 0.529871 0.789059 -0.310843 0.500000 0.175781
#256256M60e4-p.bmp
  0 -11.125589 5.570120 2.318270 0.529871 0.789059 -0.310843 0.500000 0.175781
  0 -20.559947 11.879722 2.252826 0.529871 0.789059 -0.310843 0.980469 0.175781
  0 -20.771368 11.571086 2.974869 0.168252 0.261435 0.950444 0.980469 0.203125
#256256M60e4-p.bmp
  0 -10.404739 6.994611 2.787844 0.168252 0.261435 0.950444 0.500000 0.121094
  0 -21.143687 12.750362 2.116679 -0.529871 -0.789059 0.310843 0.980469 0.160156
  0 -11.060975 6.007147 2.186620 -0.529871 -0.789059 0.310843 0.500000 0.160156
#256256M60e4-p.bmp
  0 -11.060975 6.007147 2.186620 -0.529871 -0.789059 0.310843 0.500000 0.160156
  0 -21.143687 12.750362 2.116679 -0.529871 -0.789059 0.310843 0.980469 0.160156
  0 -10.721053 6.503114 1.001010 -0.168252 -0.261435 -0.950444 0.500000 0.121094
#256256M60e4-p.bmp
  0 -21.143687 12.750362 2.116679 -0.529871 -0.789059 0.310843 0.980469 0.160156
  0 -20.803766 13.246328 0.931069 -0.168252 -0.261435 -0.950444 0.980469 0.121094
  0 -10.721053 6.503114 1.001010 -0.168252 -0.261435 -0.950444 0.500000 0.121094
#256256M60e4-p.bmp
  0 -10.721053 6.503114 1.001010 -0.168252 -0.261435 -0.950444 0.500000 0.121094
  0 -20.803766 13.246328 0.931069 -0.168252 -0.261435 -0.950444 0.980469 0.121094
  0 -10.059519 7.498468 1.599126 0.529871 0.789059 -0.310843 0.500000 0.085938
#256256M60e4-p.bmp
  0 -20.803766 13.246328 0.931069 -0.168252 -0.261435 -0.950444 0.980469 0.121094
  0 -20.142232 14.241683 1.529184 0.529871 0.789059 -0.310843 0.980469 0.085938
  0 -10.059519 7.498468 1.599126 0.529871 0.789059 -0.310843 0.500000 0.085938
#256256M60e4-p.bmp
  0 -10.059519 7.498468 1.599126 0.529871 0.789059 -0.310843 0.500000 0.085938
  0 -20.142232 14.241683 1.529184 0.529871 0.789059 -0.310843 0.980469 0.085938
  0 -20.487452 13.737826 2.717903 0.168252 0.261435 0.950444 0.980469 0.121094
#256256M60e4-p.bmp
  0 3.223621 -4.367118 5.510103 -0.831221 0.555912 -0.005766 0.472656 0.402344
  0 4.695762 -5.190297 5.286542 0.124815 0.595763 -0.793403 0.460938 0.351563
  0 4.572963 -5.374252 5.253666 -0.339806 -0.092355 -0.935950 0.476563 0.351563
#256256M60e4-p.bmp
  0 3.223621 -4.367118 5.510103 -0.831221 0.555912 -0.005766 0.472656 0.402344
  0 4.753972 -5.101219 5.483206 0.353900 0.933739 -0.053722 0.453125 0.351563
  0 4.695762 -5.190297 5.286542 0.124815 0.595763 -0.793403 0.460938 0.351563
#256256M60e4-p.bmp
  0 3.223621 -4.367118 5.510103 -0.831221 0.555912 -0.005766 0.472656 0.402344
  0 4.703094 -5.175133 5.691407 0.107788 0.565384 0.817755 0.460938 0.351563
  0 4.753972 -5.101219 5.483206 0.353900 0.933739 -0.053722 0.453125 0.351563
#256256M60e4-p.bmp
  0 3.223621 -4.367118 5.510103 -0.831221 0.555912 -0.005766 0.472656 0.402344
  0 4.537906 -5.422213 5.683399 -0.555535 -0.266213 0.787725 0.476563 0.351563
  0 4.703094 -5.175133 5.691407 0.107788 0.565384 0.817755 0.460938 0.351563
#256256M60e4-p.bmp
  0 3.223621 -4.367118 5.510103 -0.831221 0.555912 -0.005766 0.472656 0.402344
  0 4.480449 -5.511149 5.391870 -0.741577 -0.609470 -0.280374 0.488281 0.351563
  0 4.537906 -5.422213 5.683399 -0.555535 -0.266213 0.787725 0.476563 0.351563
#256256M60e4-p.bmp
  0 3.223621 -4.367118 5.510103 -0.831221 0.555912 -0.005766 0.472656 0.402344
  0 4.572963 -5.374252 5.253666 -0.339806 -0.092355 -0.935950 0.476563 0.351563
  0 4.480449 -5.511149 5.391870 -0.741577 -0.609470 -0.280374 0.488281 0.351563
#256256M60e4-p.bmp
  0 3.587323 -3.818436 5.978687 -0.831221 0.555912 -0.005766 0.472656 0.402344
  0 5.057781 -4.644230 5.745621 0.108478 0.571123 -0.813665 0.460938 0.351563
  0 4.931366 -4.833461 5.725358 -0.358896 -0.120792 -0.925528 0.476563 0.351563
#256256M60e4-p.bmp
  0 3.587323 -3.818436 5.978687 -0.831221 0.555912 -0.005766 0.472656 0.402344
  0 5.115991 -4.555152 5.942284 0.352632 0.931470 -0.089528 0.453125 0.351563
  0 5.057781 -4.644230 5.745621 0.108478 0.571123 -0.813665 0.460938 0.351563
#256256M60e4-p.bmp
  0 3.587323 -3.818436 5.978687 -0.831221 0.555912 -0.005766 0.472656 0.402344
  0 5.070412 -4.621176 6.147378 0.124460 0.590102 0.797678 0.460938 0.351563
  0 5.115991 -4.555152 5.942284 0.352632 0.931470 -0.089528 0.453125 0.351563
#256256M60e4-p.bmp
  0 3.587323 -3.818436 5.978687 -0.831221 0.555912 -0.005766 0.472656 0.402344
  0 4.903290 -4.870918 6.161487 -0.539255 -0.241675 0.806720 0.476563 0.351563
  0 5.070412 -4.621176 6.147378 0.124460 0.590102 0.797678 0.460938 0.351563
#256256M60e4-p.bmp
  0 3.587323 -3.818436 5.978687 -0.831221 0.555912 -0.005766 0.472656 0.402344
  0 4.840534 -4.967744 5.873066 -0.747104 -0.617379 -0.246331 0.488281 0.351563
  0 4.903290 -4.870918 6.161487 -0.539255 -0.241675 0.806720 0.476563 0.351563
#256256M60e4-p.bmp
  0 3.587323 -3.818436 5.978687 -0.831221 0.555912 -0.005766 0.472656 0.402344
  0 4.931366 -4.833461 5.725358 -0.358896 -0.120792 -0.925528 0.476563 0.351563
  0 4.840534 -4.967744 5.873066 -0.747104 -0.617379 -0.246331 0.488281 0.351563
#256256M60e4-p.bmp
  0 3.898967 -3.346190 6.582724 -0.831221 0.555912 -0.005766 0.472656 0.402344
  0 5.404080 -4.119506 6.413260 0.243884 0.775993 -0.581683 0.460938 0.351563
  0 5.297679 -4.279694 6.307815 -0.172896 0.156835 -0.972373 0.476563 0.351563
#256256M60e4-p.bmp
  0 3.898967 -3.346190 6.582724 -0.831221 0.555912 -0.005766 0.472656 0.402344
  0 5.430498 -4.077772 6.628574 0.335260 0.908994 0.247651 0.453125 0.351563
  0 5.404080 -4.119506 6.413260 0.243884 0.775993 -0.581683 0.460938 0.351563
#256256M60e4-p.bmp
  0 3.898967 -3.346190 6.582724 -0.831221 0.555912 -0.005766 0.472656 0.402344
  0 5.344714 -4.204211 6.804796 -0.046903 0.335361 0.940921 0.460938 0.351563
  0 5.430498 -4.077772 6.628574 0.335260 0.908994 0.247651 0.453125 0.351563
#256256M60e4-p.bmp
  0 3.898967 -3.346190 6.582724 -0.831221 0.555912 -0.005766 0.472656 0.402344
  0 5.187260 -4.440643 6.708319 -0.675144 -0.447142 0.586724 0.476563 0.351563
  0 5.344714 -4.204211 6.804796 -0.046903 0.335361 0.940921 0.460938 0.351563
#256256M60e4-p.bmp
  0 3.898967 -3.346190 6.582724 -0.831221 0.555912 -0.005766 0.472656 0.402344
  0 5.186155 -4.445444 6.404714 -0.667991 -0.502229 -0.549139 0.488281 0.351563
  0 5.187260 -4.440643 6.708319 -0.675144 -0.447142 0.586724 0.476563 0.351563
#256256M60e4-p.bmp
  0 3.898967 -3.346190 6.582724 -0.831221 0.555912 -0.005766 0.472656 0.402344
  0 5.297679 -4.279694 6.307815 -0.172896 0.156835 -0.972373 0.476563 0.351563
  0 5.186155 -4.445444 6.404714 -0.667991 -0.502229 -0.549139 0.488281 0.351563
#256256M60e4-p.bmp
  0 12.576921 -11.895774 2.053341 -0.168252 -0.261435 -0.950444 0.460938 0.906250
  0 11.567154 -13.381535 2.640778 -0.168252 -0.261435 -0.950444 0.460938 0.964844
  0 6.799913 -10.902180 2.802711 -0.168252 -0.261435 -0.950444 0.628906 0.984375
#256256M60e4-p.bmp
  0 12.576921 -11.895774 2.053341 -0.168252 -0.261435 -0.950444 0.460938 0.906250
  0 19.905172 -13.126420 1.094568 -0.168252 -0.261435 -0.950444 0.246094 0.804688
  0 11.567154 -13.381535 2.640778 -0.168252 -0.261435 -0.950444 0.460938 0.964844
#256256M60e4-p.bmp
  0 12.576921 -11.895774 2.053341 -0.168252 -0.261435 -0.950444 0.460938 0.906250
  0 11.343596 -7.400526 1.035179 -0.168252 -0.261435 -0.950444 0.570313 0.804688
  0 19.905172 -13.126420 1.094568 -0.168252 -0.261435 -0.950444 0.246094 0.804688
#256256M60e4-p.bmp
  0 12.576921 -11.895774 2.053341 -0.168252 -0.261435 -0.950444 0.460938 0.906250
  0 1.144845 -4.901873 2.153315 -0.168252 -0.261435 -0.950444 0.886719 0.906250
  0 11.343596 -7.400526 1.035179 -0.168252 -0.261435 -0.950444 0.570313 0.804688
#256256M60e4-p.bmp
  0 12.576921 -11.895774 2.053341 -0.168252 -0.261435 -0.950444 0.460938 0.906250
  0 6.799913 -10.902180 2.802711 -0.168252 -0.261435 -0.950444 0.628906 0.984375
  0 1.144845 -4.901873 2.153315 -0.168252 -0.261435 -0.950444 0.886719 0.906250
#256256M60e4-p.bmp
  0 27.001610 -13.984782 0.074429 0.949133 0.217368 -0.227811 0.007813 0.429688
  0 25.006680 -12.650592 0.060591 0.209729 0.932619 -0.293659 0.031250 0.429688
  0 27.280909 -13.550799 1.652165 0.949133 0.217368 -0.227811 0.007813 0.453125
#256256M60e4-p.bmp
  0 27.280909 -13.550799 1.652165 0.949133 0.217368 -0.227811 0.007813 0.453125
  0 25.006680 -12.650592 0.060591 0.209729 0.932619 -0.293659 0.031250 0.429688
  0 25.285978 -12.216610 1.638327 0.209729 0.932619 -0.293659 0.031250 0.453125
#256256M60e4-p.bmp
  0 25.006680 -12.650592 0.060591 0.209729 0.932619 -0.293659 0.031250 0.429688
  0 19.905172 -13.126420 1.094568 0.209729 0.932619 -0.293659 0.082031 0.429688
  0 25.285978 -12.216610 1.638327 0.209729 0.932619 -0.293659 0.031250 0.453125
#256256M60e4-p.bmp
  0 25.285978 -12.216610 1.638327 0.209729 0.932619 -0.293659 0.031250 0.453125
  0 19.905172 -13.126420 1.094568 0.209729 0.932619 -0.293659 0.082031 0.429688
  0 20.184471 -12.692438 2.672305 0.209729 0.932619 -0.293659 0.082031 0.453125
#256256M60e4-p.bmp
  0 19.905172 -13.126420 1.094568 0.209729 0.932619 -0.293659 0.082031 0.429688
  0 11.343596 -7.400526 1.035179 0.963266 0.161123 -0.214842 0.191406 0.429688
  0 20.184471 -12.692438 2.672305 0.209729 0.932619 -0.293659 0.082031 0.453125
#256256M60e4-p.bmp
  0 11.622894 -6.966544 2.612915 0.168252 0.261435 0.950444 0.570313 0.804688
  0 12.856220 -11.461791 3.631077 0.228351 0.219816 0.948439 0.460938 0.906250
  0 20.184471 -12.692438 2.672305 0.168252 0.261435 0.950444 0.246094 0.804688
#256256M60e4-p.bmp
  0 11.622894 -6.966544 2.612915 0.168252 0.261435 0.950444 0.570313 0.804688
  0 1.424143 -4.467891 3.731052 0.168252 0.261435 0.950444 0.886719 0.925781
  0 12.856220 -11.461791 3.631077 0.228351 0.219816 0.948439 0.460938 0.906250
#256256M60e4-p.bmp
  0 11.622894 -6.966544 2.612915 0.168252 0.261435 0.950444 0.570313 0.804688
  0 2.803638 -1.068316 2.551738 0.168252 0.261435 0.950444 0.906250 0.804688
  0 1.424143 -4.467891 3.731052 0.168252 0.261435 0.950444 0.886719 0.925781
#256256M60e4-p.bmp
  0 11.622894 -6.966544 2.612915 0.168252 0.261435 0.950444 0.570313 0.804688
  0 3.423587 -0.145117 2.188051 0.168252 0.261435 0.950444 0.906250 0.765625
  0 2.803638 -1.068316 2.551738 0.168252 0.261435 0.950444 0.906250 0.804688
#256256M60e4-p.bmp
  0 11.622894 -6.966544 2.612915 0.168252 0.261435 0.950444 0.570313 0.804688
  0 12.242843 -6.043345 2.249228 0.168252 0.261435 0.950444 0.570313 0.765625
  0 3.423587 -0.145117 2.188051 0.168252 0.261435 0.950444 0.906250 0.765625
#256256M60e4-p.bmp
  0 11.846452 -12.947553 4.218514 -0.481063 -0.819798 0.310659 0.406250 0.664063
  0 7.353463 -10.042059 5.929670 -0.481063 -0.819798 0.310659 0.554688 0.613281
  0 11.567154 -13.381535 2.640778 -0.481063 -0.819798 0.310659 0.406250 0.710938
#256256M60e4-p.bmp
  0 11.567154 -13.381535 2.640778 -0.481063 -0.819798 0.310659 0.406250 0.710938
  0 7.353463 -10.042059 5.929670 -0.481063 -0.819798 0.310659 0.554688 0.613281
  0 6.799913 -10.902180 2.802711 -0.481063 -0.819798 0.310659 0.554688 0.710938
#256256M60e4-p.bmp
  0 7.353463 -10.042059 5.929670 -0.481063 -0.819798 0.310659 0.554688 0.613281
  0 0.670445 -5.572526 5.883312 -0.962437 -0.164859 0.215723 0.781250 0.613281
  0 6.799913 -10.902180 2.802711 -0.481063 -0.819798 0.310659 0.554688 0.710938
#256256M60e4-p.bmp
  0 6.799913 -10.902180 2.802711 -0.481063 -0.819798 0.310659 0.554688 0.710938
  0 0.670445 -5.572526 5.883312 -0.962437 -0.164859 0.215723 0.781250 0.613281
  0 0.116896 -6.432647 2.756352 -0.962437 -0.164859 0.215723 0.781250 0.710938
#256256M60e4-p.bmp
  0 0.670445 -5.572526 5.883312 -0.962437 -0.164859 0.215723 0.781250 0.613281
  0 1.144845 -4.901873 2.153315 -0.887031 0.450275 -0.102119 0.820313 0.710938
  0 0.116896 -6.432647 2.756352 -0.962437 -0.164859 0.215723 0.781250 0.710938
#256256M60e4-p.bmp
  0 -12.373496 3.948335 1.575411 -0.946101 -0.227859 0.230160 0.816406 0.597656
  0 -4.900819 -1.049315 1.627247 -0.376806 -0.873908 0.307086 0.589844 0.597656
  0 -11.922580 4.648980 4.122600 -0.946101 -0.227859 0.230160 0.816406 0.515625
#256256M60e4-p.bmp
  0 -11.922580 4.648980 4.122600 -0.946101 -0.227859 0.230160 0.816406 0.515625
  0 -4.900819 -1.049315 1.627247 -0.376806 -0.873908 0.307086 0.589844 0.597656
  0 -4.449903 -0.348669 4.174436 -0.376806 -0.873908 0.307086 0.589844 0.515625
#256256M60e4-p.bmp
  0 -4.900819 -1.049315 1.627247 -0.376806 -0.873908 0.307086 0.589844 0.597656
  0 -1.574103 -1.924941 1.279191 0.374071 -0.909001 0.183815 0.484375 0.597656
  0 -4.449903 -0.348669 4.174436 -0.376806 -0.873908 0.307086 0.589844 0.515625
#256256M60e4-p.bmp
  0 -4.449903 -0.348669 4.174436 -0.376806 -0.873908 0.307086 0.589844 0.515625
  0 -1.574103 -1.924941 1.279191 0.374071 -0.909001 0.183815 0.484375 0.597656
  0 -1.123188 -1.224295 3.826380 0.374071 -0.909001 0.183815 0.484375 0.515625
#256256M60e4-p.bmp
  0 -1.574103 -1.924941 1.279191 0.374071 -0.909001 0.183815 0.484375 0.597656
  0 0.710893 1.471058 2.760301 0.963266 0.161123 -0.214842 0.425781 0.515625
  0 -1.123188 -1.224295 3.826380 0.374071 -0.909001 0.183815 0.484375 0.515625
#256256M60e4-p.bmp
  0 -7.597550 6.095218 2.201610 0.168252 0.261435 0.950444 0.375000 0.488281
  0 -7.461266 7.284715 1.850294 0.168252 0.261435 0.950444 0.390625 0.457031
  0 -12.576563 9.425131 2.167072 0.168252 0.261435 0.950444 0.539063 0.488281
#256256M60e4-p.bmp
  0 -12.576563 9.425131 2.167072 0.168252 0.261435 0.950444 0.539063 0.488281
  0 -7.461266 7.284715 1.850294 0.168252 0.261435 0.950444 0.390625 0.457031
  0 -9.901214 8.996567 1.811352 0.168252 0.261435 0.950444 0.472656 0.457031
#256256M60e4-p.bmp
  0 -7.461266 7.284715 1.850294 0.168252 0.261435 0.950444 0.390625 0.457031
  0 -2.835764 9.096544 0.533092 0.168252 0.261435 0.950444 0.328125 0.335938
  0 -9.901214 8.996567 1.811352 0.168252 0.261435 0.950444 0.472656 0.457031
#256256M60e4-p.bmp
  0 -9.901214 8.996567 1.811352 0.168252 0.261435 0.950444 0.472656 0.457031
  0 -2.835764 9.096544 0.533092 0.168252 0.261435 0.950444 0.328125 0.335938
  0 -4.345200 11.512459 0.135763 0.168252 0.261435 0.950444 0.394531 0.312500
#256256M60e4-p.bmp
  0 -2.835764 9.096544 0.533092 0.168252 0.261435 0.950444 0.328125 0.335938
  0 -2.554635 9.891877 0.264556 0.168252 0.261435 0.950444 0.335938 0.312500
  0 -4.345200 11.512459 0.135763 0.168252 0.261435 0.950444 0.394531 0.312500
#256256M60e4-p.bmp
  0 -7.669899 6.960536 0.671744 0.794323 -0.606925 0.026330 0.371094 0.457031
  0 -3.044397 8.772365 -0.645458 0.751798 -0.657657 0.047822 0.308594 0.332031
  0 -7.461266 7.284715 1.850294 0.794323 -0.606925 0.026330 0.390625 0.457031
#256256M60e4-p.bmp
  0 -7.461266 7.284715 1.850294 0.794323 -0.606925 0.026330 0.390625 0.457031
  0 -3.044397 8.772365 -0.645458 0.751798 -0.657657 0.047822 0.308594 0.332031
  0 -2.835764 9.096544 0.533092 0.751798 -0.657657 0.047822 0.328125 0.335938
#256256M60e4-p.bmp
  0 -3.044397 8.772365 -0.645458 0.751798 -0.657657 0.047822 0.308594 0.332031
  0 -2.763267 9.567698 -0.913994 0.949133 0.217368 -0.227811 0.320313 0.296875
  0 -2.835764 9.096544 0.533092 0.751798 -0.657657 0.047822 0.328125 0.335938
#256256M60e4-p.bmp
  0 -2.835764 9.096544 0.533092 0.751798 -0.657657 0.047822 0.328125 0.335938
  0 -2.763267 9.567698 -0.913994 0.949133 0.217368 -0.227811 0.320313 0.296875
  0 -2.554635 9.891877 0.264556 0.949133 0.217368 -0.227811 0.335938 0.312500
#256256M60e4-p.bmp
  0 -2.763267 9.567698 -0.913994 0.949133 0.217368 -0.227811 0.320313 0.296875
  0 -4.345200 11.512459 0.135763 0.122266 0.951209 -0.283290 0.394531 0.312500
  0 -2.554635 9.891877 0.264556 0.949133 0.217368 -0.227811 0.335938 0.312500
#256256M60e4-p.bmp
  0 -2.763267 9.567698 -0.913994 -0.168252 -0.261435 -0.950444 0.335938 0.312500
  0 -3.044397 8.772365 -0.645458 -0.168252 -0.261435 -0.950444 0.328125 0.335938
  0 -4.553833 11.188280 -1.042787 -0.168252 -0.261435 -0.950444 0.394531 0.312500
#256256M60e4-p.bmp
  0 -4.553833 11.188280 -1.042787 -0.168252 -0.261435 -0.950444 0.394531 0.312500
  0 -3.044397 8.772365 -0.645458 -0.168252 -0.261435 -0.950444 0.328125 0.335938
  0 -10.109846 8.672387 0.632802 -0.168252 -0.261435 -0.950444 0.472656 0.457031
#256256M60e4-p.bmp
  0 -3.044397 8.772365 -0.645458 -0.168252 -0.261435 -0.950444 0.328125 0.335938
  0 -7.669899 6.960536 0.671744 -0.168252 -0.261435 -0.950444 0.390625 0.457031
  0 -10.109846 8.672387 0.632802 -0.168252 -0.261435 -0.950444 0.472656 0.457031
#256256M60e4-p.bmp
  0 -10.109846 8.672387 0.632802 -0.168252 -0.261435 -0.950444 0.472656 0.457031
  0 -7.669899 6.960536 0.671744 -0.168252 -0.261435 -0.950444 0.390625 0.457031
  0 -12.785195 9.100951 0.988522 -0.168252 -0.261435 -0.950444 0.539063 0.488281
#256256M60e4-p.bmp
  0 -7.669899 6.960536 0.671744 -0.168252 -0.261435 -0.950444 0.390625 0.457031
  0 -7.806183 5.771039 1.023060 -0.168252 -0.261435 -0.950444 0.375000 0.488281
  0 -12.785195 9.100951 0.988522 -0.168252 -0.261435 -0.950444 0.539063 0.488281
#256256M60e4-p.bmp
  0 1.740080 -3.508627 5.578671 0.307382 0.339529 -0.888952 0.726563 0.257813
  0 -2.903961 -0.249417 5.935660 0.441967 0.776368 0.449353 0.523438 0.292969
  0 1.825009 -3.228863 6.433609 0.441967 0.776368 0.449353 0.726563 0.292969
#256256M60e4-p.bmp
  0 1.740080 -3.508627 5.578671 0.307382 0.339529 -0.888952 0.726563 0.257813
  0 -2.997202 -0.523622 5.080664 0.307382 0.339529 -0.888952 0.523438 0.257813
  0 -2.903961 -0.249417 5.935660 0.441967 0.776368 0.449353 0.523438 0.292969
#256256M60e4-p.bmp
  0 1.740080 -3.508627 5.578671 0.307382 0.339529 -0.888952 0.726563 0.257813
  0 -3.278034 -0.941823 5.245412 -0.441967 -0.776368 -0.449353 0.523438 0.238281
  0 -2.997202 -0.523622 5.080664 0.307382 0.339529 -0.888952 0.523438 0.257813
#256256M60e4-p.bmp
  0 1.740080 -3.508627 5.578671 0.307382 0.339529 -0.888952 0.726563 0.257813
  0 1.459248 -3.926828 5.743418 -0.441967 -0.776368 -0.449353 0.726563 0.238281
  0 -3.278034 -0.941823 5.245412 -0.441967 -0.776368 -0.449353 0.523438 0.238281
#256256M60e4-p.bmp
  0 -11.059421 8.078685 3.973329 -0.071445 -0.096530 0.992763 0.566406 0.332031
  0 -11.996945 9.321635 4.018350 -0.071445 -0.096530 0.992763 0.585938 0.382813
  0 -11.443715 7.503147 3.884028 -0.071445 -0.096530 0.992763 0.542969 0.332031
#256256M60e4-p.bmp
  0 -11.443715 7.503147 3.884028 -0.071445 -0.096530 0.992763 0.542969 0.332031
  0 -11.996945 9.321635 4.018350 -0.071445 -0.096530 0.992763 0.585938 0.382813
  0 -12.946367 7.899856 3.809442 -0.071445 -0.096530 0.992763 0.523438 0.382813
#256256M60e4-p.bmp
  0 -11.996945 9.321635 4.018350 -0.071445 -0.096530 0.992763 0.585938 0.382813
  0 -13.418936 9.839222 3.969886 -0.071445 -0.096530 0.992763 0.574219 0.433594
  0 -12.946367 7.899856 3.809442 -0.071445 -0.096530 0.992763 0.523438 0.382813
#256256M60e4-p.bmp
  0 -12.946367 7.899856 3.809442 -0.071445 -0.096530 0.992763 0.523438 0.382813
  0 -13.418936 9.839222 3.969886 -0.071445 -0.096530 0.992763 0.574219 0.433594
  0 -13.973467 9.008762 3.844063 -0.071445 -0.096530 0.992763 0.539063 0.433594
#256256M60e4-p.bmp
  0 -11.041767 8.102689 3.742652 0.794292 0.596521 0.115164 0.574219 0.324219
  0 -11.984590 9.337749 3.790781 0.590627 0.797959 0.120093 0.593750 0.378906
  0 -11.059421 8.078685 3.973329 0.794292 0.596521 0.115164 0.566406 0.332031
#256256M60e4-p.bmp
  0 -11.059421 8.078685 3.973329 0.794292 0.596521 0.115164 0.566406 0.332031
  0 -11.984590 9.337749 3.790781 0.590627 0.797959 0.120093 0.593750 0.378906
  0 -11.996945 9.321635 4.018350 0.590627 0.797959 0.120093 0.585938 0.382813
#256256M60e4-p.bmp
  0 -11.984590 9.337749 3.790781 0.590627 0.797959 0.120093 0.593750 0.378906
  0 -13.401282 9.863226 3.739208 -0.313252 0.947120 0.069549 0.585938 0.433594
  0 -11.996945 9.321635 4.018350 0.590627 0.797959 0.120093 0.585938 0.382813
#256256M60e4-p.bmp
  0 -11.996945 9.321635 4.018350 0.590627 0.797959 0.120093 0.585938 0.382813
  0 -13.401282 9.863226 3.739208 -0.313252 0.947120 0.069549 0.585938 0.433594
  0 -13.418936 9.839222 3.969886 -0.313252 0.947120 0.069549 0.574219 0.433594
#256256M60e4-p.bmp
  0 -13.955813 9.032766 3.613385 -0.994252 -0.072677 -0.078618 0.531250 0.433594
  0 -12.934012 7.915970 3.581873 -0.510765 -0.851369 -0.119538 0.511719 0.382813
  0 -13.973467 9.008762 3.844063 -0.994252 -0.072677 -0.078618 0.539063 0.433594
#256256M60e4-p.bmp
  0 -13.973467 9.008762 3.844063 -0.994252 -0.072677 -0.078618 0.539063 0.433594
  0 -12.934012 7.915970 3.581873 -0.510765 -0.851369 -0.119538 0.511719 0.382813
  0 -12.946367 7.899856 3.809442 -0.510765 -0.851369 -0.119538 0.523438 0.382813
#256256M60e4-p.bmp
  0 -12.934012 7.915970 3.581873 -0.510765 -0.851369 -0.119538 0.511719 0.382813
  0 -11.426061 7.527152 3.653350 -0.246878 -0.962625 -0.111371 0.531250 0.328125
  0 -12.946367 7.899856 3.809442 -0.510765 -0.851369 -0.119538 0.523438 0.382813
#256256M60e4-p.bmp
  0 -12.946367 7.899856 3.809442 -0.510765 -0.851369 -0.119538 0.523438 0.382813
  0 -11.426061 7.527152 3.653350 -0.246878 -0.962625 -0.111371 0.531250 0.328125
  0 -11.443715 7.503147 3.884028 -0.246878 -0.962625 -0.111371 0.542969 0.332031
#256256M60e4-p.bmp
  0 0.938465 -0.766493 3.966775 -0.433233 -0.641218 0.633363 0.503906 0.066406
  0 1.327454 -0.415950 4.232869 0.055934 0.093944 0.994005 0.500000 0.039063
  0 -11.463355 7.527717 3.880747 -0.529871 -0.789059 0.310843 0.984375 0.066406
#256256M60e4-p.bmp
  0 -11.463355 7.527717 3.880747 -0.529871 -0.789059 0.310843 0.984375 0.066406
  0 1.327454 -0.415950 4.232869 0.055934 0.093944 0.994005 0.500000 0.039063
  0 -11.182424 7.950528 4.146091 0.168252 0.261435 0.950444 0.984375 0.039063
#256256M60e4-p.bmp
  0 1.327454 -0.415950 4.232869 0.055934 0.093944 0.994005 0.500000 0.039063
  0 1.082031 0.075104 3.709865 0.555918 0.831044 -0.017929 0.515625 0.011719
  0 -11.182424 7.950528 4.146091 0.168252 0.261435 0.950444 0.984375 0.039063
#256256M60e4-p.bmp
  0 -11.182424 7.950528 4.146091 0.168252 0.261435 0.950444 0.984375 0.039063
  0 1.082031 0.075104 3.709865 0.555918 0.831044 -0.017929 0.515625 0.011719
  0 -11.028861 8.174745 3.625855 0.529871 0.789059 -0.310843 0.984375 0.011719
#256256M60e4-p.bmp
  0 -11.320390 7.736152 3.366727 -0.168252 -0.261435 -0.950444 0.984375 0.039063
  0 0.938465 -0.766493 3.966775 -0.433233 -0.641218 0.633363 0.503906 0.066406
  0 -11.463355 7.527717 3.880747 -0.529871 -0.789059 0.310843 0.984375 0.066406
#256256M60e4-p.bmp
  0 -11.320390 7.736152 3.366727 -0.168252 -0.261435 -0.950444 0.984375 0.039063
  0 0.599321 -0.235629 3.449411 -0.217449 -0.334649 -0.916911 0.523438 0.039063
  0 0.938465 -0.766493 3.966775 -0.433233 -0.641218 0.633363 0.503906 0.066406
#256256M60e4-p.bmp
  0 -11.320390 7.736152 3.366727 -0.168252 -0.261435 -0.950444 0.984375 0.039063
  0 1.082031 0.075104 3.709865 0.555918 0.831044 -0.017929 0.515625 0.011719
  0 0.599321 -0.235629 3.449411 -0.217449 -0.334649 -0.916911 0.523438 0.039063
#256256M60e4-p.bmp
  0 -11.320390 7.736152 3.366727 -0.168252 -0.261435 -0.950444 0.984375 0.039063
  0 -11.028861 8.174745 3.625855 0.529871 0.789059 -0.310843 0.984375 0.011719
  0 1.082031 0.075104 3.709865 0.555918 0.831044 -0.017929 0.515625 0.011719
#256256M60e4-p.bmp
  0 4.675895 -2.854134 2.722042 -0.255703 -0.373087 0.891864 0.730469 0.394531
  0 8.299590 -4.428735 4.902036 -0.529871 -0.789059 0.310843 0.839844 0.351563
  0 5.057827 -2.260677 4.879549 -0.529871 -0.789059 0.310843 0.730469 0.351563
#256256M60e4-p.bmp
  0 4.675895 -2.854134 2.722042 -0.255703 -0.373087 0.891864 0.730469 0.394531
  0 7.917658 -5.022193 2.744530 -0.255703 -0.373087 0.891864 0.839844 0.394531
  0 8.299590 -4.428735 4.902036 -0.529871 -0.789059 0.310843 0.839844 0.351563
#256256M60e4-p.bmp
  0 4.675895 -2.854134 2.722042 -0.255703 -0.373087 0.891864 0.730469 0.394531
  0 6.900307 -6.537185 3.341350 0.168252 0.261435 0.950444 0.839844 0.457031
  0 7.917658 -5.022193 2.744530 -0.255703 -0.373087 0.891864 0.839844 0.394531
#256256M60e4-p.bmp
  0 4.675895 -2.854134 2.722042 -0.255703 -0.373087 0.891864 0.730469 0.394531
  0 3.658543 -4.369127 3.318862 0.168252 0.261435 0.950444 0.730469 0.457031
  0 6.900307 -6.537185 3.341350 0.168252 0.261435 0.950444 0.839844 0.457031
#256256M60e4-p.bmp
  0 7.074259 -6.542614 5.489980 0.951630 0.304995 -0.037126 0.492188 0.406250
  0 7.006983 -6.640296 5.770750 0.802520 0.088548 0.590018 0.500000 0.406250
  0 6.993673 -6.665774 5.233001 0.772997 0.031716 -0.633617 0.488281 0.414063
#256256M60e4-p.bmp
  0 6.993673 -6.665774 5.233001 0.772997 0.031716 -0.633617 0.488281 0.414063
  0 7.006983 -6.640296 5.770750 0.802520 0.088548 0.590018 0.500000 0.406250
  0 6.832352 -6.907530 5.180759 0.401138 -0.525511 -0.750285 0.492188 0.421875
#256256M60e4-p.bmp
  0 7.006983 -6.640296 5.770750 0.802520 0.088548 0.590018 0.500000 0.406250
  0 6.710582 -7.084403 5.682345 0.132453 -0.915542 0.379789 0.503906 0.417969
  0 6.832352 -6.907530 5.180759 0.401138 -0.525511 -0.750285 0.492188 0.421875
#256256M60e4-p.bmp
  0 6.832352 -6.907530 5.180759 0.401138 -0.525511 -0.750285 0.492188 0.421875
  0 6.710582 -7.084403 5.682345 0.132453 -0.915542 0.379789 0.503906 0.417969
  0 6.704178 -7.097094 5.381848 0.116066 -0.947081 -0.299278 0.500000 0.421875
#256256M60e4-p.bmp
  0 7.436278 -5.996548 5.949058 0.951630 0.304995 -0.037126 0.492188 0.406250
  0 7.374300 -6.086339 6.226721 0.802520 0.088548 0.590018 0.500000 0.406250
  0 7.350394 -6.127598 5.695189 0.772997 0.031716 -0.633617 0.488281 0.414063
#256256M60e4-p.bmp
  0 7.350394 -6.127598 5.695189 0.772997 0.031716 -0.633617 0.488281 0.414063
  0 7.374300 -6.086339 6.226721 0.802520 0.088548 0.590018 0.500000 0.406250
  0 7.185456 -6.374630 5.655559 0.401138 -0.525511 -0.750285 0.492188 0.421875
#256256M60e4-p.bmp
  0 7.374300 -6.086339 6.226721 0.802520 0.088548 0.590018 0.500000 0.406250
  0 7.081265 -6.525217 6.157324 0.132453 -0.915542 0.379789 0.503906 0.417969
  0 7.185456 -6.374630 5.655559 0.401138 -0.525511 -0.750285 0.492188 0.421875
#256256M60e4-p.bmp
  0 7.185456 -6.374630 5.655559 0.401138 -0.525511 -0.750285 0.492188 0.421875
  0 7.081265 -6.525217 6.157324 0.132453 -0.915542 0.379789 0.503906 0.417969
  0 7.064264 -6.553690 5.863045 0.116066 -0.947081 -0.299278 0.500000 0.421875
#256256M60e4-p.bmp
  0 7.745235 -5.527106 6.670078 0.936387 0.284721 0.205216 0.492188 0.406250
  0 7.634389 -5.690431 6.902969 0.687779 -0.081654 0.721314 0.500000 0.406250
  0 7.717636 -5.571359 6.382016 0.868731 0.176633 -0.462717 0.488281 0.414063
#256256M60e4-p.bmp
  0 7.717636 -5.571359 6.382016 0.868731 0.176633 -0.462717 0.488281 0.414063
  0 7.634389 -5.690431 6.902969 0.687779 -0.081654 0.721314 0.500000 0.406250
  0 7.569348 -5.794577 6.238196 0.535760 -0.324526 -0.779516 0.492188 0.421875
#256256M60e4-p.bmp
  0 7.634389 -5.690431 6.902969 0.687779 -0.081654 0.721314 0.500000 0.406250
  0 7.372718 -6.084343 6.647308 0.087782 -0.984712 0.150458 0.503906 0.417969
  0 7.569348 -5.794577 6.238196 0.535760 -0.324526 -0.779516 0.492188 0.421875
#256256M60e4-p.bmp
  0 7.569348 -5.794577 6.238196 0.535760 -0.324526 -0.779516 0.492188 0.421875
  0 7.372718 -6.084343 6.647308 0.087782 -0.984712 0.150458 0.503906 0.417969
  0 7.415434 -6.023452 6.359962 0.188205 -0.841372 -0.506629 0.500000 0.421875
#256256M60e4-p.bmp
  0 -11.835242 6.936160 0.458370 0.168252 0.261435 0.950444 0.984375 0.039063
  0 0.429213 -0.939264 0.022144 0.457067 0.677447 -0.576329 0.515625 0.011719
  0 -11.681680 7.160377 -0.061866 0.529871 0.789059 -0.310843 0.984375 0.011719
#256256M60e4-p.bmp
  0 -11.835242 6.936160 0.458370 0.168252 0.261435 0.950444 0.984375 0.039063
  0 0.084470 -1.035621 0.541054 0.117556 0.185893 0.975512 0.523438 0.039063
  0 0.429213 -0.939264 0.022144 0.457067 0.677447 -0.576329 0.515625 0.011719
#256256M60e4-p.bmp
  0 -11.835242 6.936160 0.458370 0.168252 0.261435 0.950444 0.984375 0.039063
  0 0.285647 -1.780861 0.279054 -0.554862 -0.830207 -0.053706 0.503906 0.066406
  0 0.084470 -1.035621 0.541054 0.117556 0.185893 0.975512 0.523438 0.039063
#256256M60e4-p.bmp
  0 -11.835242 6.936160 0.458370 0.168252 0.261435 0.950444 0.984375 0.039063
  0 -12.116173 6.513349 0.193025 -0.529871 -0.789059 0.310843 0.984375 0.066406
  0 0.285647 -1.780861 0.279054 -0.554862 -0.830207 -0.053706 0.503906 0.066406
#256256M60e4-p.bmp
  0 11.567154 -13.381535 2.640778 -0.168252 -0.261435 -0.950444 0.460938 0.964844
  0 19.905172 -13.126420 1.094568 -0.168252 -0.261435 -0.950444 0.246094 0.804688
  0 23.287371 -21.219896 2.722078 -0.168252 -0.261435 -0.950444 0.011719 0.964844
#256256M60e4-p.bmp
  0 23.287371 -21.219896 2.722078 -0.168252 -0.261435 -0.950444 0.011719 0.964844
  0 19.905172 -13.126420 1.094568 -0.168252 -0.261435 -0.950444 0.246094 0.804688
  0 27.001610 -13.984782 0.074429 -0.168252 -0.261435 -0.950444 0.042969 0.695313
#256256M60e4-p.bmp
  0 19.905172 -13.126420 1.094568 -0.168252 -0.261435 -0.950444 0.246094 0.804688
  0 25.006680 -12.650592 0.060591 -0.168252 -0.261435 -0.950444 0.117188 0.695313
  0 27.001610 -13.984782 0.074429 -0.168252 -0.261435 -0.950444 0.042969 0.695313
#256256M60e4-p.bmp
  0 11.963544 -6.477327 0.671492 -0.168252 -0.261435 -0.950444 0.570313 0.765625
  0 11.343596 -7.400526 1.035179 -0.168252 -0.261435 -0.950444 0.570313 0.804688
  0 3.144288 -0.579099 0.610315 -0.168252 -0.261435 -0.950444 0.906250 0.765625
#256256M60e4-p.bmp
  0 3.144288 -0.579099 0.610315 -0.168252 -0.261435 -0.950444 0.906250 0.765625
  0 11.343596 -7.400526 1.035179 -0.168252 -0.261435 -0.950444 0.570313 0.804688
  0 2.524340 -1.502298 0.974002 -0.168252 -0.261435 -0.950444 0.906250 0.804688
#256256M60e4-p.bmp
  0 11.343596 -7.400526 1.035179 -0.168252 -0.261435 -0.950444 0.570313 0.804688
  0 1.144845 -4.901873 2.153315 -0.168252 -0.261435 -0.950444 0.886719 0.906250
  0 2.524340 -1.502298 0.974002 -0.168252 -0.261435 -0.950444 0.906250 0.804688
#256256M60e4-p.bmp
  0 -4.900819 -1.049315 1.627247 -0.168252 -0.261435 -0.950444 0.113281 0.644531
  0 -12.373496 3.948335 1.575411 -0.168252 -0.261435 -0.950444 0.394531 0.644531
  0 -1.574103 -1.924941 1.279191 -0.168252 -0.261435 -0.950444 0.011719 0.609375
#256256M60e4-p.bmp
  0 -1.574103 -1.924941 1.279191 -0.168252 -0.261435 -0.950444 0.011719 0.609375
  0 -12.373496 3.948335 1.575411 -0.168252 -0.261435 -0.950444 0.394531 0.644531
  0 0.259978 0.770412 0.213113 -0.168252 -0.261435 -0.950444 0.011719 0.503906
#256256M60e4-p.bmp
  0 -12.373496 3.948335 1.575411 -0.168252 -0.261435 -0.950444 0.394531 0.644531
  0 -10.446149 7.930559 0.138847 -0.168252 -0.261435 -0.950444 0.414063 0.503906
  0 0.259978 0.770412 0.213113 -0.168252 -0.261435 -0.950444 0.011719 0.503906
#256256M60e4-p.bmp
  0 -9.995234 8.631205 2.686036 0.168252 0.261435 0.950444 0.414063 0.503906
  0 -11.922580 4.648980 4.122600 0.168252 0.261435 0.950444 0.394531 0.644531
  0 0.710893 1.471058 2.760301 0.168252 0.261435 0.950444 0.011719 0.503906
#256256M60e4-p.bmp
  0 0.710893 1.471058 2.760301 0.168252 0.261435 0.950444 0.011719 0.503906
  0 -11.922580 4.648980 4.122600 0.168252 0.261435 0.950444 0.394531 0.644531
  0 -1.123188 -1.224295 3.826380 0.168252 0.261435 0.950444 0.011719 0.609375
#256256M60e4-p.bmp
  0 -11.922580 4.648980 4.122600 0.168252 0.261435 0.950444 0.394531 0.644531
  0 -4.449903 -0.348669 4.174436 0.168252 0.261435 0.950444 0.113281 0.644531
  0 -1.123188 -1.224295 3.826380 0.168252 0.261435 0.950444 0.011719 0.609375
#256256M60e4-p.bmp
  0 0.259978 0.770412 0.213113 0.963266 0.161123 -0.214842 0.007813 0.468750
  0 -10.446149 7.930559 0.138847 -0.276739 0.937940 -0.209006 0.132813 0.468750
  0 -9.995234 8.631205 2.686036 -0.276739 0.937940 -0.209006 0.132813 0.488281
#256256M60e4-p.bmp
  0 -9.995234 8.631205 2.686036 -0.276739 0.937940 -0.209006 0.132813 0.488281
  0 -10.446149 7.930559 0.138847 -0.276739 0.937940 -0.209006 0.132813 0.468750
  0 -11.922580 4.648980 4.122600 -0.946101 -0.227859 0.230160 0.175781 0.488281
#256256M60e4-p.bmp
  0 -10.446149 7.930559 0.138847 -0.276739 0.937940 -0.209006 0.132813 0.468750
  0 -12.373496 3.948335 1.575411 -0.946101 -0.227859 0.230160 0.175781 0.468750
  0 -11.922580 4.648980 4.122600 -0.946101 -0.227859 0.230160 0.175781 0.488281
#256256M60e4-p.bmp
  0 -9.901214 8.996567 1.811352 0.048059 0.960867 -0.272811 0.472656 0.457031
  0 -4.345200 11.512459 0.135763 0.122266 0.951209 -0.283290 0.394531 0.312500
  0 -10.109846 8.672387 0.632802 0.048059 0.960867 -0.272811 0.484375 0.441406
#256256M60e4-p.bmp
  0 -10.109846 8.672387 0.632802 0.048059 0.960867 -0.272811 0.484375 0.441406
  0 -4.345200 11.512459 0.135763 0.122266 0.951209 -0.283290 0.394531 0.312500
  0 -4.553833 11.188280 -1.042787 0.122266 0.951209 -0.283290 0.402344 0.296875
#256256M60e4-p.bmp
  0 -4.345200 11.512459 0.135763 0.122266 0.951209 -0.283290 0.394531 0.312500
  0 -2.763267 9.567698 -0.913994 0.949133 0.217368 -0.227811 0.320313 0.296875
  0 -4.553833 11.188280 -1.042787 0.122266 0.951209 -0.283290 0.402344 0.296875
#256256M60e4-p.bmp
  0 -12.096533 6.488779 0.196307 -0.376421 -0.570411 -0.730027 0.542969 0.332031
  0 -13.525154 7.000520 0.539917 -0.376421 -0.570411 -0.730027 0.523438 0.382813
  0 -12.821380 8.040603 -0.638823 -0.376421 -0.570411 -0.730027 0.585938 0.382813
#256256M60e4-p.bmp
  0 -12.821380 8.040603 -0.638823 -0.376421 -0.570411 -0.730027 0.585938 0.382813
  0 -13.525154 7.000520 0.539917 -0.376421 -0.570411 -0.730027 0.523438 0.382813
  0 -14.192896 8.636621 -0.402154 -0.376421 -0.570411 -0.730027 0.574219 0.433594
#256256M60e4-p.bmp
  0 -13.525154 7.000520 0.539917 -0.376421 -0.570411 -0.730027 0.523438 0.382813
  0 -14.602730 8.030994 0.289404 -0.376421 -0.570411 -0.730027 0.539063 0.433594
  0 -14.192896 8.636621 -0.402154 -0.376421 -0.570411 -0.730027 0.574219 0.433594
#256256M60e4-p.bmp
  0 -11.813191 6.907456 -0.284658 0.660011 0.387870 -0.643384 0.566406 0.332031
  0 -12.821380 8.040603 -0.638823 0.448578 0.577240 -0.682328 0.585938 0.382813
  0 -12.738359 8.166520 -0.467206 0.448578 0.577240 -0.682328 0.593750 0.378906
#256256M60e4-p.bmp
  0 -12.738359 8.166520 -0.467206 0.448578 0.577240 -0.682328 0.593750 0.378906
  0 -12.821380 8.040603 -0.638823 0.448578 0.577240 -0.682328 0.585938 0.382813
  0 -14.104576 8.770428 -0.233646 -0.401082 0.810648 -0.426595 0.585938 0.433594
#256256M60e4-p.bmp
  0 -12.821380 8.040603 -0.638823 0.448578 0.577240 -0.682328 0.585938 0.382813
  0 -14.192896 8.636621 -0.402154 -0.401082 0.810648 -0.426595 0.574219 0.433594
  0 -14.104576 8.770428 -0.233646 -0.401082 0.810648 -0.426595 0.585938 0.433594
#256256M60e4-p.bmp
  0 -14.602730 8.030994 0.289404 -0.906422 0.063796 0.417528 0.539063 0.433594
  0 -13.525154 7.000520 0.539917 -0.368717 -0.630651 0.682881 0.523438 0.382813
  0 -13.442133 7.126436 0.711534 -0.368717 -0.630651 0.682881 0.511719 0.382813
#256256M60e4-p.bmp
  0 -13.442133 7.126436 0.711534 -0.368717 -0.630651 0.682881 0.511719 0.382813
  0 -13.525154 7.000520 0.539917 -0.368717 -0.630651 0.682881 0.523438 0.382813
  0 -12.008213 6.622586 0.364816 -0.112595 -0.753973 0.647184 0.531250 0.328125
#256256M60e4-p.bmp
  0 -13.525154 7.000520 0.539917 -0.368717 -0.630651 0.682881 0.523438 0.382813
  0 -12.096533 6.488779 0.196307 -0.112595 -0.753973 0.647184 0.542969 0.332031
  0 -12.008213 6.622586 0.364816 -0.112595 -0.753973 0.647184 0.531250 0.328125
#256256M60e4-p.bmp
  0 -12.116173 6.513349 0.193025 -0.529871 -0.789059 0.310843 0.984375 0.066406
  0 -11.973209 6.721784 -0.320994 -0.168252 -0.261435 -0.950444 0.984375 0.039063
  0 0.536670 -1.644694 -0.234216 -0.273408 -0.417797 -0.866426 0.500000 0.039063
#256256M60e4-p.bmp
  0 0.536670 -1.644694 -0.234216 -0.273408 -0.417797 -0.866426 0.500000 0.039063
  0 -11.973209 6.721784 -0.320994 -0.168252 -0.261435 -0.950444 0.984375 0.039063
  0 0.429213 -0.939264 0.022144 0.457067 0.677447 -0.576329 0.515625 0.011719
#256256M60e4-p.bmp
  0 -11.973209 6.721784 -0.320994 -0.168252 -0.261435 -0.950444 0.984375 0.039063
  0 -11.681680 7.160377 -0.061866 0.529871 0.789059 -0.310843 0.984375 0.011719
  0 0.429213 -0.939264 0.022144 0.457067 0.677447 -0.576329 0.515625 0.011719
#256256M60e4-p.bmp
  0 27.280909 -13.550799 1.652165 0.949133 0.217368 -0.227811 0.769531 0.234375
  0 23.566669 -20.785914 4.299814 0.266154 -0.940427 0.211563 0.769531 0.335938
  0 27.001610 -13.984782 0.074429 0.949133 0.217368 -0.227811 0.750000 0.234375
#256256M60e4-p.bmp
  0 27.001610 -13.984782 0.074429 0.949133 0.217368 -0.227811 0.750000 0.234375
  0 23.566669 -20.785914 4.299814 0.266154 -0.940427 0.211563 0.769531 0.335938
  0 23.287371 -21.219896 2.722078 0.266154 -0.940427 0.211563 0.750000 0.335938
#256256M60e4-p.bmp
  0 -4.815010 -0.915983 2.111973 -0.168252 -0.261435 -0.950444 0.851563 0.750000
  0 -0.094006 0.248825 0.955839 -0.168252 -0.261435 -0.950444 0.980469 0.640625
  0 1.144845 -4.901873 2.153315 -0.168252 -0.261435 -0.950444 0.851563 0.507813
#256256M60e4-p.bmp
  0 1.144845 -4.901873 2.153315 -0.168252 -0.261435 -0.950444 0.851563 0.507813
  0 -0.094006 0.248825 0.955839 -0.168252 -0.261435 -0.950444 0.980469 0.640625
  0 2.524340 -1.502298 0.974002 -0.168252 -0.261435 -0.950444 0.980469 0.535156
#256256M60e4-p.bmp
  0 11.846452 -12.947553 4.218514 -0.481063 -0.819798 0.310659 0.406250 0.664063
  0 11.567154 -13.381535 2.640778 -0.481063 -0.819798 0.310659 0.406250 0.710938
  0 23.566669 -20.785914 4.299814 0.266154 -0.940427 0.211563 0.160156 0.664063
#256256M60e4-p.bmp
  0 23.566669 -20.785914 4.299814 0.266154 -0.940427 0.211563 0.160156 0.664063
  0 11.567154 -13.381535 2.640778 -0.481063 -0.819798 0.310659 0.406250 0.710938
  0 23.287371 -21.219896 2.722078 0.266154 -0.940427 0.211563 0.160156 0.710938
#256256M60e4-p.bmp
  0 2.803638 -1.068316 2.551738 0.168252 0.261435 0.950444 0.980469 0.535156
  0 0.185292 0.682807 2.533575 0.168252 0.261435 0.950444 0.980469 0.640625
  0 1.424143 -4.467891 3.731052 0.168252 0.261435 0.950444 0.851563 0.507813
#256256M60e4-p.bmp
  0 1.424143 -4.467891 3.731052 0.168252 0.261435 0.950444 0.851563 0.507813
  0 0.185292 0.682807 2.533575 0.168252 0.261435 0.950444 0.980469 0.640625
  0 -4.535712 -0.482001 3.689710 0.168252 0.261435 0.950444 0.851563 0.750000
#256256M60e4-p.bmp
  0 2.000420 -3.591989 5.103094 -0.184404 0.916832 -0.354140 0.242188 0.726563
  0 8.683438 -8.061522 5.149452 0.486449 0.770059 -0.412767 0.316406 0.726563
  0 1.144845 -4.901873 2.153315 -0.887031 0.450275 -0.102119 0.242188 0.757813
#256256M60e4-p.bmp
  0 1.144845 -4.901873 2.153315 -0.887031 0.450275 -0.102119 0.242188 0.757813
  0 8.683438 -8.061522 5.149452 0.486449 0.770059 -0.412767 0.316406 0.726563
  0 12.856220 -11.461791 3.631077 0.486449 0.770059 -0.412767 0.367188 0.742188
#256256M60e4-p.bmp
  0 -4.815010 -0.915983 2.111973 -0.529871 -0.789059 0.310843 0.476563 0.019531
  0 1.144845 -4.901873 2.153315 -0.887031 0.450275 -0.102119 0.476563 0.218750
  0 -4.535712 -0.482001 3.689710 -0.529871 -0.789059 0.310843 0.433594 0.019531
#256256M60e4-p.bmp
  0 -4.535712 -0.482001 3.689710 -0.529871 -0.789059 0.310843 0.433594 0.019531
  0 1.144845 -4.901873 2.153315 -0.887031 0.450275 -0.102119 0.476563 0.218750
  0 1.424143 -4.467891 3.731052 -0.529871 -0.789059 0.310843 0.433594 0.218750
#256256M60e4-p.bmp
  0 -2.887058 -0.732913 5.444898 0.529871 0.789059 -0.310843 0.144531 0.039063
  0 -5.684178 0.352456 3.432015 0.529871 0.789059 -0.310843 0.011719 0.039063
  0 -2.972642 -0.514872 5.852494 0.529871 0.789059 -0.310843 0.144531 0.019531
#256256M60e4-p.bmp
  0 -2.972642 -0.514872 5.852494 0.529871 0.789059 -0.310843 0.144531 0.019531
  0 -5.684178 0.352456 3.432015 0.529871 0.789059 -0.310843 0.011719 0.039063
  0 -5.984298 0.699017 3.800151 0.529871 0.789059 -0.310843 0.011719 0.019531
#256256M60e4-p.bmp
  0 -2.972642 -0.514872 5.852494 -0.321867 0.526208 0.787088 0.144531 0.019531
  0 -5.984298 0.699017 3.800151 -0.321867 0.526208 0.787088 0.011719 0.019531
  0 -3.020331 -0.585887 5.880469 -0.321867 0.526208 0.787088 0.144531 0.011719
#256256M60e4-p.bmp
  0 -3.020331 -0.585887 5.880469 -0.321867 0.526208 0.787088 0.144531 0.011719
  0 -5.984298 0.699017 3.800151 -0.321867 0.526208 0.787088 0.011719 0.019531
  0 -6.031986 0.628002 3.828127 -0.321867 0.526208 0.787088 0.011719 0.011719
#256256M60e4-p.bmp
  0 -2.934747 -0.803928 5.472874 0.345711 -0.535657 -0.770426 0.144531 0.046875
  0 -5.731866 0.281441 3.459991 0.345711 -0.535657 -0.770426 0.011719 0.046875
  0 -2.887058 -0.732913 5.444898 0.345711 -0.535657 -0.770426 0.144531 0.039063
#256256M60e4-p.bmp
  0 -2.887058 -0.732913 5.444898 0.345711 -0.535657 -0.770426 0.144531 0.039063
  0 -5.731866 0.281441 3.459991 0.345711 -0.535657 -0.770426 0.011719 0.046875
  0 -5.684178 0.352456 3.432015 0.345711 -0.535657 -0.770426 0.011719 0.039063
#256256M60e4-p.bmp
  0 -6.031986 0.628002 3.828127 -0.529871 -0.789059 0.310843 0.011719 0.019531
  0 -5.731866 0.281441 3.459991 -0.529871 -0.789059 0.310843 0.011719 0.039063
  0 -3.020331 -0.585887 5.880469 -0.529871 -0.789059 0.310843 0.144531 0.019531
#256256M60e4-p.bmp
  0 -3.020331 -0.585887 5.880469 -0.529871 -0.789059 0.310843 0.144531 0.019531
  0 -5.731866 0.281441 3.459991 -0.529871 -0.789059 0.310843 0.011719 0.039063
  0 -2.934747 -0.803928 5.472874 -0.529871 -0.789059 0.310843 0.144531 0.039063
#256256M60e4-p.bmp
  0 1.544177 -3.647064 6.598356 -0.307383 -0.339530 0.888952 0.726563 0.292969
  0 -3.184792 -0.667618 6.100407 -0.307383 -0.339530 0.888952 0.523438 0.292969
  0 1.459248 -3.926828 5.743418 -0.441967 -0.776368 -0.449353 0.726563 0.257813
#256256M60e4-p.bmp
  0 1.459248 -3.926828 5.743418 -0.441967 -0.776368 -0.449353 0.726563 0.257813
  0 -3.184792 -0.667618 6.100407 -0.307383 -0.339530 0.888952 0.523438 0.292969
  0 -3.278034 -0.941823 5.245412 -0.441967 -0.776368 -0.449353 0.523438 0.257813
#256256M60e4-p.bmp
  0 -3.184792 -0.667618 6.100407 -0.307383 -0.339530 0.888952 0.523438 0.312500
  0 1.544177 -3.647064 6.598356 -0.307383 -0.339530 0.888952 0.726563 0.312500
  0 -2.903961 -0.249417 5.935660 0.441967 0.776368 0.449353 0.523438 0.292969
#256256M60e4-p.bmp
  0 -2.903961 -0.249417 5.935660 0.441967 0.776368 0.449353 0.523438 0.292969
  0 1.544177 -3.647064 6.598356 -0.307383 -0.339530 0.888952 0.726563 0.312500
  0 1.825009 -3.228863 6.433609 0.441967 0.776368 0.449353 0.726563 0.292969
#256256M60e4-p.bmp
  0 1.544177 -3.647064 6.598356 0.842722 -0.531011 0.088582 0.046875 0.273438
  0 1.459248 -3.926828 5.743418 0.842722 -0.531011 0.088582 0.007813 0.273438
  0 1.825009 -3.228863 6.433609 0.842722 -0.531011 0.088582 0.046875 0.296875
#256256M60e4-p.bmp
  0 1.825009 -3.228863 6.433609 0.842722 -0.531011 0.088582 0.046875 0.296875
  0 1.459248 -3.926828 5.743418 0.842722 -0.531011 0.088582 0.007813 0.273438
  0 1.740080 -3.508627 5.578671 0.842722 -0.531011 0.088582 0.007813 0.296875
#256256M60e4-p.bmp
  0 -3.184792 -0.667618 6.100407 -0.842722 0.531011 -0.088580 0.046875 0.273438
  0 -2.903961 -0.249417 5.935660 -0.842722 0.531011 -0.088580 0.046875 0.296875
  0 -3.278034 -0.941823 5.245412 -0.842722 0.531011 -0.088580 0.007813 0.273438
#256256M60e4-p.bmp
  0 -3.278034 -0.941823 5.245412 -0.842722 0.531011 -0.088580 0.007813 0.273438
  0 -2.903961 -0.249417 5.935660 -0.842722 0.531011 -0.088580 0.046875 0.296875
  0 -2.997202 -0.523622 5.080664 -0.842722 0.531011 -0.088580 0.007813 0.296875
#256256M60e4-p.bmp
  0 -0.123710 -3.920436 2.160528 -0.706734 0.208227 -0.676142 0.382813 0.011719
  0 0.366711 -4.248424 2.163930 0.468790 -0.577952 -0.667988 0.414063 0.011719
  0 -2.905530 -8.062994 3.792457 -0.882967 -0.285547 -0.372602 0.382813 0.273438
#256256M60e4-p.bmp
  0 -2.905530 -8.062994 3.792457 -0.882967 -0.285547 -0.372602 0.382813 0.273438
  0 0.366711 -4.248424 2.163930 0.468790 -0.577952 -0.667988 0.414063 0.011719
  0 -2.415109 -8.390982 3.795859 0.076844 -0.927459 -0.365945 0.414063 0.273438
#256256M60e4-p.bmp
  0 -2.152636 -7.983144 5.278551 0.168252 0.261435 0.950444 0.382813 0.273438
  0 0.629184 -3.840586 3.646622 0.168252 0.261435 0.950444 0.382813 0.011719
  0 -2.643057 -7.655155 5.275149 0.168252 0.261435 0.950444 0.414063 0.273438
#256256M60e4-p.bmp
  0 -2.643057 -7.655155 5.275149 0.168252 0.261435 0.950444 0.414063 0.273438
  0 0.629184 -3.840586 3.646622 0.168252 0.261435 0.950444 0.382813 0.011719
  0 0.138764 -3.512598 3.643220 0.168252 0.261435 0.950444 0.414063 0.011719
#256256M60e4-p.bmp
  0 0.138764 -3.512598 3.643220 -0.831221 0.555912 -0.005766 0.382813 0.011719
  0 -0.123710 -3.920436 2.160528 -0.706734 0.208227 -0.676142 0.320313 0.011719
  0 -2.643057 -7.655155 5.275149 -0.962437 -0.164859 0.215723 0.382813 0.273438
#256256M60e4-p.bmp
  0 -2.643057 -7.655155 5.275149 -0.962437 -0.164859 0.215723 0.382813 0.273438
  0 -0.123710 -3.920436 2.160528 -0.706734 0.208227 -0.676142 0.320313 0.011719
  0 -2.905530 -8.062994 3.792457 -0.882967 -0.285547 -0.372602 0.320313 0.273438
#256256M60e4-p.bmp
  0 -2.643057 -7.655155 5.275149 -0.962437 -0.164859 0.215723 0.273438 0.492188
  0 -2.905530 -8.062994 3.792457 -0.882967 -0.285547 -0.372602 0.210938 0.492188
  0 -2.152636 -7.983144 5.278551 0.213087 -0.951038 0.223876 0.273438 0.460938
#256256M60e4-p.bmp
  0 -2.152636 -7.983144 5.278551 0.213087 -0.951038 0.223876 0.273438 0.460938
  0 -2.905530 -8.062994 3.792457 -0.882967 -0.285547 -0.372602 0.210938 0.492188
  0 -2.415109 -8.390982 3.795859 0.076844 -0.927459 -0.365945 0.210938 0.460938
#256256M60e4-p.bmp
  0 -2.152636 -7.983144 5.278551 0.213087 -0.951038 0.223876 0.382813 0.273438
  0 -2.415109 -8.390982 3.795859 0.076844 -0.927459 -0.365945 0.320313 0.273438
  0 0.629184 -3.840586 3.646622 0.831221 -0.555912 0.005766 0.382813 0.011719
#256256M60e4-p.bmp
  0 0.629184 -3.840586 3.646622 0.831221 -0.555912 0.005766 0.382813 0.011719
  0 -2.415109 -8.390982 3.795859 0.076844 -0.927459 -0.365945 0.320313 0.273438
  0 0.366711 -4.248424 2.163930 0.468790 -0.577952 -0.667988 0.320313 0.011719
#256256M60e4-p.bmp
  0 -24.738451 13.119197 2.651587 -0.529871 -0.789059 0.310843 0.976563 0.312500
  0 -20.489332 11.491342 3.188868 0.168252 0.261435 0.950444 0.785156 0.277344
  0 -24.179952 13.959592 3.163267 0.168252 0.261435 0.950444 0.976563 0.277344
#256256M60e4-p.bmp
  0 -24.179952 13.959592 3.163267 0.168252 0.261435 0.950444 0.976563 0.277344
  0 -20.489332 11.491342 3.188868 0.168252 0.261435 0.950444 0.785156 0.277344
  0 -20.194739 11.921332 2.176730 0.529871 0.789059 -0.310843 0.785156 0.242188
#256256M60e4-p.bmp
  0 -24.179952 13.959592 3.163267 -0.831221 0.555912 -0.005766 0.921875 0.730469
  0 -23.885359 14.389581 2.151129 -0.831221 0.555912 -0.005766 0.953125 0.703125
  0 -24.738451 13.119197 2.651587 -0.831221 0.555912 -0.005766 0.953125 0.761719
#256256M60e4-p.bmp
  0 -24.738451 13.119197 2.651587 -0.831221 0.555912 -0.005766 0.953125 0.761719
  0 -23.885359 14.389581 2.151129 -0.831221 0.555912 -0.005766 0.953125 0.703125
  0 -24.449156 13.541295 1.642558 -0.831221 0.555912 -0.005766 0.980469 0.730469
#256256M60e4-p.bmp
  0 -21.047830 10.650948 2.677188 0.831221 -0.555912 0.005766 0.953125 0.761719
  0 -20.758535 11.073046 1.668158 0.831221 -0.555912 0.005766 0.980469 0.730469
  0 -20.489332 11.491342 3.188868 0.831221 -0.555912 0.005766 0.921875 0.730469
#256256M60e4-p.bmp
  0 -20.489332 11.491342 3.188868 0.831221 -0.555912 0.005766 0.921875 0.730469
  0 -20.758535 11.073046 1.668158 0.831221 -0.555912 0.005766 0.980469 0.730469
  0 -20.194739 11.921332 2.176730 0.831221 -0.555912 0.005766 0.953125 0.703125
#256256M60e4-p.bmp
  0 -21.169298 10.972305 2.610297 -0.529871 -0.789059 0.310843 0.980469 0.226563
  0 -11.337010 5.261484 3.040312 0.168252 0.261435 0.950444 0.500000 0.203125
  0 -20.771368 11.571086 2.974869 0.168252 0.261435 0.950444 0.980469 0.203125
#256256M60e4-p.bmp
  0 -20.771368 11.571086 2.974869 0.168252 0.261435 0.950444 0.980469 0.203125
  0 -11.337010 5.261484 3.040312 0.168252 0.261435 0.950444 0.500000 0.203125
  0 -11.125589 5.570120 2.318270 0.529871 0.789059 -0.310843 0.500000 0.175781
#256256M60e4-p.bmp
  0 -21.884571 6.913699 4.053210 0.168252 0.261435 0.950444 0.648438 0.496094
  0 -19.105110 9.994444 2.713767 0.168252 0.261435 0.950444 0.617188 0.324219
  0 -23.056593 7.697535 4.045080 0.168252 0.261435 0.950444 0.699219 0.496094
#256256M60e4-p.bmp
  0 -23.056593 7.697535 4.045080 0.168252 0.261435 0.950444 0.699219 0.496094
  0 -19.105110 9.994444 2.713767 0.168252 0.261435 0.950444 0.617188 0.324219
  0 -20.767552 11.106268 2.702235 0.168252 0.261435 0.950444 0.699219 0.324219
#256256M60e4-p.bmp
  0 -20.767552 11.106268 2.702235 -0.831221 0.555912 -0.005766 0.699219 0.324219
  0 -20.831488 11.006923 2.341067 -0.831221 0.555912 -0.005766 0.714844 0.324219
  0 -23.056593 7.697535 4.045080 -0.962437 -0.164859 0.215723 0.699219 0.496094
#256256M60e4-p.bmp
  0 -23.056593 7.697535 4.045080 -0.962437 -0.164859 0.215723 0.699219 0.496094
  0 -20.831488 11.006923 2.341067 -0.831221 0.555912 -0.005766 0.714844 0.324219
  0 -23.120528 7.598190 3.683912 -0.962437 -0.164859 0.215723 0.714844 0.496094
#256256M60e4-p.bmp
  0 -23.056593 7.697535 4.045080 -0.962437 -0.164859 0.215723 0.699219 0.496094
  0 -23.120528 7.598190 3.683912 -0.962437 -0.164859 0.215723 0.699219 0.507813
  0 -21.884571 6.913699 4.053210 0.147267 -0.960033 0.238009 0.648438 0.496094
#256256M60e4-p.bmp
  0 -21.884571 6.913699 4.053210 0.147267 -0.960033 0.238009 0.648438 0.496094
  0 -23.120528 7.598190 3.683912 -0.962437 -0.164859 0.215723 0.699219 0.507813
  0 -21.948507 6.814354 3.692042 0.147267 -0.960033 0.238009 0.648438 0.507813
#256256M60e4-p.bmp
  0 -21.884571 6.913699 4.053210 0.147267 -0.960033 0.238009 0.648438 0.496094
  0 -21.948507 6.814354 3.692042 0.147267 -0.960033 0.238009 0.632813 0.496094
  0 -19.105110 9.994444 2.713767 0.751798 -0.657657 0.047822 0.617188 0.324219
#256256M60e4-p.bmp
  0 -19.105110 9.994444 2.713767 0.751798 -0.657657 0.047822 0.617188 0.324219
  0 -21.948507 6.814354 3.692042 0.147267 -0.960033 0.238009 0.632813 0.496094
  0 -19.169045 9.895098 2.352599 0.751798 -0.657657 0.047822 0.601563 0.324219
#256256M60e4-p.bmp
  0 -21.143687 12.750362 2.116679 -0.529871 -0.789059 0.310843 0.980469 0.160156
  0 -10.404739 6.994611 2.787844 0.168252 0.261435 0.950444 0.500000 0.121094
  0 -20.487452 13.737826 2.717903 0.168252 0.261435 0.950444 0.980469 0.121094
#256256M60e4-p.bmp
  0 -20.487452 13.737826 2.717903 0.168252 0.261435 0.950444 0.980469 0.121094
  0 -10.404739 6.994611 2.787844 0.168252 0.261435 0.950444 0.500000 0.121094
  0 -10.059519 7.498468 1.599126 0.529871 0.789059 -0.310843 0.500000 0.085938
#256256M60e4-p.bmp
  0 -20.803766 13.246328 0.931069 -0.831221 0.555912 -0.005766 0.980469 0.730469
  0 -21.143687 12.750362 2.116679 -0.831221 0.555912 -0.005766 0.953125 0.761719
  0 -20.142232 14.241683 1.529184 -0.831221 0.555912 -0.005766 0.953125 0.703125
#256256M60e4-p.bmp
  0 -20.142232 14.241683 1.529184 -0.831221 0.555912 -0.005766 0.953125 0.703125
  0 -21.143687 12.750362 2.116679 -0.831221 0.555912 -0.005766 0.953125 0.761719
  0 -20.487452 13.737826 2.717903 -0.831221 0.555912 -0.005766 0.921875 0.730469
#256256M60e4-p.bmp
  0 -15.878315 8.233504 2.521706 0.168252 0.261435 0.950444 0.933594 0.980469
  0 -15.131198 9.346077 2.083416 0.168252 0.261435 0.950444 0.933594 0.914063
  0 -16.692911 8.778298 2.516055 0.168252 0.261435 0.950444 0.976563 0.980469
#256256M60e4-p.bmp
  0 -16.692911 8.778298 2.516055 0.168252 0.261435 0.950444 0.976563 0.980469
  0 -15.131198 9.346077 2.083416 0.168252 0.261435 0.950444 0.933594 0.914063
  0 -15.945794 9.890870 2.077766 0.168252 0.261435 0.950444 0.976563 0.914063
#256256M60e4-p.bmp
  0 -11.946017 10.364110 1.797168 -0.213087 0.951038 -0.223876 0.539063 0.457031
  0 -12.154649 10.039931 0.618618 -0.213087 0.951038 -0.223876 0.566406 0.457031
  0 -12.576563 9.425131 2.167072 -0.962437 -0.164859 0.215723 0.539063 0.488281
#256256M60e4-p.bmp
  0 -12.576563 9.425131 2.167072 -0.962437 -0.164859 0.215723 0.539063 0.488281
  0 -12.154649 10.039931 0.618618 -0.213087 0.951038 -0.223876 0.566406 0.457031
  0 -12.785195 9.100951 0.988522 -0.962437 -0.164859 0.215723 0.566406 0.488281
#256256M60e4-p.bmp
  0 -12.576563 9.425131 2.167072 -0.962437 -0.164859 0.215723 0.320313 0.769531
  0 -12.785195 9.100951 0.988522 -0.962437 -0.164859 0.215723 0.320313 0.785156
  0 -7.597550 6.095218 2.201610 0.423037 -0.890035 0.169933 0.246094 0.769531
#256256M60e4-p.bmp
  0 -7.597550 6.095218 2.201610 0.423037 -0.890035 0.169933 0.246094 0.769531
  0 -12.785195 9.100951 0.988522 -0.962437 -0.164859 0.215723 0.320313 0.785156
  0 -7.806183 5.771039 1.023060 0.423037 -0.890035 0.169933 0.246094 0.785156
#256256M60e4-p.bmp
  0 -7.597550 6.095218 2.201610 0.423037 -0.890035 0.169933 0.375000 0.488281
  0 -7.806183 5.771039 1.023060 0.423037 -0.890035 0.169933 0.359375 0.488281
  0 -7.461266 7.284715 1.850294 0.794323 -0.606925 0.026330 0.390625 0.457031
#256256M60e4-p.bmp
  0 -7.461266 7.284715 1.850294 0.794323 -0.606925 0.026330 0.390625 0.457031
  0 -7.806183 5.771039 1.023060 0.423037 -0.890035 0.169933 0.359375 0.488281
  0 -7.669899 6.960536 0.671744 0.794323 -0.606925 0.026330 0.371094 0.457031
#256256M60e4-p.bmp
  0 -10.109846 8.672387 0.632802 0.048059 0.960867 -0.272811 0.359375 0.757813
  0 -12.154649 10.039931 0.618618 -0.213087 0.951038 -0.223876 0.410156 0.757813
  0 -9.901214 8.996567 1.811352 0.048059 0.960867 -0.272811 0.359375 0.785156
#256256M60e4-p.bmp
  0 -9.901214 8.996567 1.811352 0.048059 0.960867 -0.272811 0.359375 0.785156
  0 -12.154649 10.039931 0.618618 -0.213087 0.951038 -0.223876 0.410156 0.757813
  0 -11.946017 10.364110 1.797168 -0.213087 0.951038 -0.223876 0.410156 0.785156
#256256M60e4-p.bmp
  0 10.311296 -4.958949 1.966715 0.168252 0.261435 0.950444 0.878906 0.480469
  0 14.682733 -2.233974 0.443314 0.168252 0.261435 0.950444 0.878906 0.351563
  0 7.958940 -3.385717 1.950397 0.168252 0.261435 0.950444 0.941406 0.507813
#256256M60e4-p.bmp
  0 7.958940 -3.385717 1.950397 0.168252 0.261435 0.950444 0.941406 0.507813
  0 14.682733 -2.233974 0.443314 0.168252 0.261435 0.950444 0.878906 0.351563
  0 12.801535 0.453440 0.037115 0.168252 0.261435 0.950444 0.957031 0.351563
#256256M60e4-p.bmp
  0 14.682733 -2.233974 0.443314 0.970049 -0.215286 -0.112505 0.878906 0.351563
  0 14.507751 -2.505866 -0.545148 0.970049 -0.215286 -0.112505 0.878906 0.324219
  0 12.801535 0.453440 0.037115 0.122266 0.951209 -0.283290 0.957031 0.351563
#256256M60e4-p.bmp
  0 12.801535 0.453440 0.037115 0.122266 0.951209 -0.283290 0.957031 0.351563
  0 14.507751 -2.505866 -0.545148 0.970049 -0.215286 -0.112505 0.878906 0.324219
  0 12.626553 0.181547 -0.951346 0.122266 0.951209 -0.283290 0.960938 0.324219
#256256M60e4-p.bmp
  0 12.801535 0.453440 0.037115 0.122266 0.951209 -0.283290 0.957031 0.351563
  0 12.626553 0.181547 -0.951346 0.122266 0.951209 -0.283290 0.980469 0.351563
  0 7.958940 -3.385717 1.950397 -0.642121 0.760625 -0.095551 0.941406 0.507813
#256256M60e4-p.bmp
  0 7.958940 -3.385717 1.950397 -0.642121 0.760625 -0.095551 0.941406 0.507813
  0 12.626553 0.181547 -0.951346 0.122266 0.951209 -0.283290 0.980469 0.351563
  0 7.783958 -3.657610 0.961936 -0.642121 0.760625 -0.095551 0.964844 0.511719
#256256M60e4-p.bmp
  0 10.311296 -4.958949 1.966715 0.555969 -0.821365 0.127509 0.878906 0.480469
  0 10.136314 -5.230841 0.978254 0.555969 -0.821365 0.127509 0.859375 0.480469
  0 14.682733 -2.233974 0.443314 0.970049 -0.215286 -0.112505 0.878906 0.351563
#256256M60e4-p.bmp
  0 14.682733 -2.233974 0.443314 0.970049 -0.215286 -0.112505 0.878906 0.351563
  0 10.136314 -5.230841 0.978254 0.555969 -0.821365 0.127509 0.859375 0.480469
  0 14.507751 -2.505866 -0.545148 0.970049 -0.215286 -0.112505 0.855469 0.351563
#256256M60e4-p.bmp
  0 -20.831488 11.006923 2.341067 -0.168252 -0.261435 -0.950444 0.699219 0.324219
  0 -19.169045 9.895098 2.352599 -0.168252 -0.261435 -0.950444 0.617188 0.324219
  0 -23.120528 7.598190 3.683912 -0.168252 -0.261435 -0.950444 0.699219 0.496094
#256256M60e4-p.bmp
  0 -23.120528 7.598190 3.683912 -0.168252 -0.261435 -0.950444 0.699219 0.496094
  0 -19.169045 9.895098 2.352599 -0.168252 -0.261435 -0.950444 0.617188 0.324219
  0 -21.948507 6.814354 3.692042 -0.168252 -0.261435 -0.950444 0.648438 0.496094
#256256M60e4-p.bmp
  0 -15.976079 9.843812 1.906686 -0.168252 -0.261435 -0.950444 0.976563 0.914063
  0 -15.161483 9.299019 1.912336 -0.168252 -0.261435 -0.950444 0.933594 0.914063
  0 -16.723197 8.731240 2.344975 -0.168252 -0.261435 -0.950444 0.976563 0.980469
#256256M60e4-p.bmp
  0 -16.723197 8.731240 2.344975 -0.168252 -0.261435 -0.950444 0.976563 0.980469
  0 -15.161483 9.299019 1.912336 -0.168252 -0.261435 -0.950444 0.933594 0.914063
  0 -15.908600 8.186446 2.350626 -0.168252 -0.261435 -0.950444 0.933594 0.980469
#256256M60e4-p.bmp
  0 -18.139234 9.745584 2.506022 0.168252 0.261435 0.950444 0.933594 0.980469
  0 -17.392117 10.858156 2.067733 0.168252 0.261435 0.950444 0.933594 0.914063
  0 -18.845774 10.218110 2.501121 0.168252 0.261435 0.950444 0.976563 0.980469
#256256M60e4-p.bmp
  0 -18.845774 10.218110 2.501121 0.168252 0.261435 0.950444 0.976563 0.980469
  0 -17.392117 10.858156 2.067733 0.168252 0.261435 0.950444 0.933594 0.914063
  0 -18.098657 11.330683 2.062832 0.168252 0.261435 0.950444 0.976563 0.914063
#256256M60e4-p.bmp
  0 -18.128942 11.283625 1.891752 -0.168252 -0.261435 -0.950444 0.976563 0.914063
  0 -17.422402 10.811098 1.896653 -0.168252 -0.261435 -0.950444 0.933594 0.914063
  0 -18.876059 10.171052 2.330041 -0.168252 -0.261435 -0.950444 0.976563 0.980469
#256256M60e4-p.bmp
  0 -18.876059 10.171052 2.330041 -0.168252 -0.261435 -0.950444 0.976563 0.980469
  0 -17.422402 10.811098 1.896653 -0.168252 -0.261435 -0.950444 0.933594 0.914063
  0 -18.169520 9.698526 2.334943 -0.168252 -0.261435 -0.950444 0.933594 0.980469
#256256M60e4-p.bmp
  0 -13.418936 9.839222 3.969886 -0.313252 0.947120 0.069549 0.574219 0.433594
  0 -13.401282 9.863226 3.739208 -0.313252 0.947120 0.069549 0.574219 0.441406
  0 -13.973467 9.008762 3.844063 -0.994252 -0.072677 -0.078618 0.539063 0.433594
#256256M60e4-p.bmp
  0 -13.973467 9.008762 3.844063 -0.994252 -0.072677 -0.078618 0.539063 0.433594
  0 -13.401282 9.863226 3.739208 -0.313252 0.947120 0.069549 0.574219 0.441406
  0 -13.955813 9.032766 3.613385 -0.994252 -0.072677 -0.078618 0.539063 0.441406
#256256M60e4-p.bmp
  0 -11.320390 7.736152 3.366727 -0.831221 0.555912 -0.005766 0.980469 0.730469
  0 -11.463355 7.527717 3.880747 -0.831221 0.555912 -0.005766 0.953125 0.761719
  0 -11.028861 8.174745 3.625855 -0.831221 0.555912 -0.005766 0.953125 0.703125
#256256M60e4-p.bmp
  0 -11.028861 8.174745 3.625855 -0.831221 0.555912 -0.005766 0.953125 0.703125
  0 -11.463355 7.527717 3.880747 -0.831221 0.555912 -0.005766 0.953125 0.761719
  0 -11.182424 7.950528 4.146091 -0.831221 0.555912 -0.005766 0.921875 0.730469
#256256M60e4-p.bmp
  0 0.332174 0.188835 3.106390 -0.581728 0.418407 -0.697516 0.980469 0.828125
  0 0.421349 0.141277 3.008993 -0.581728 0.418407 -0.697516 0.984375 0.828125
  0 0.416027 -1.386638 3.882634 -0.524239 -0.848540 -0.071787 0.980469 0.890625
#256256M60e4-p.bmp
  0 0.416027 -1.386638 3.882634 -0.524239 -0.848540 -0.071787 0.980469 0.890625
  0 0.421349 0.141277 3.008993 -0.581728 0.418407 -0.697516 0.984375 0.828125
  0 0.505200 -1.434195 3.785237 -0.524239 -0.848540 -0.071787 0.984375 0.890625
#256256M60e4-p.bmp
  0 1.884472 -0.890879 4.748884 0.581728 -0.418407 0.697516 0.917969 0.890625
  0 1.808934 0.679034 3.972699 0.524235 0.848543 0.071786 0.917969 0.828125
  0 1.789999 -0.851212 4.849390 0.581728 -0.418407 0.697516 0.921875 0.890625
#256256M60e4-p.bmp
  0 1.789999 -0.851212 4.849390 0.581728 -0.418407 0.697516 0.921875 0.890625
  0 1.808934 0.679034 3.972699 0.524235 0.848543 0.071786 0.917969 0.828125
  0 1.719759 0.726592 4.070096 0.524235 0.848543 0.071786 0.921875 0.828125
#256256M60e4-p.bmp
  0 1.808934 0.679034 3.972699 0.524235 0.848543 0.071786 0.921875 0.824219
  0 0.421349 0.141277 3.008993 -0.581728 0.418407 -0.697516 0.980469 0.824219
  0 1.719759 0.726592 4.070096 0.524235 0.848543 0.071786 0.921875 0.828125
#256256M60e4-p.bmp
  0 1.719759 0.726592 4.070096 0.524235 0.848543 0.071786 0.921875 0.828125
  0 0.421349 0.141277 3.008993 -0.581728 0.418407 -0.697516 0.980469 0.824219
  0 0.332174 0.188835 3.106390 -0.581728 0.418407 -0.697516 0.980469 0.828125
#256256M60e4-p.bmp
  0 1.719759 0.726592 4.070096 -0.621906 0.323903 0.712966 0.921875 0.828125
  0 0.332174 0.188835 3.106390 -0.621906 0.323903 0.712966 0.980469 0.828125
  0 1.789999 -0.851212 4.849390 -0.621906 0.323903 0.712966 0.921875 0.890625
#256256M60e4-p.bmp
  0 1.789999 -0.851212 4.849390 -0.621906 0.323903 0.712966 0.921875 0.890625
  0 0.332174 0.188835 3.106390 -0.621906 0.323903 0.712966 0.980469 0.828125
  0 0.416027 -1.386638 3.882634 -0.621906 0.323903 0.712966 0.980469 0.890625
#256256M60e4-p.bmp
  0 1.789999 -0.851212 4.849390 0.581728 -0.418407 0.697516 0.921875 0.890625
  0 0.416027 -1.386638 3.882634 -0.524239 -0.848540 -0.071787 0.980469 0.890625
  0 1.884472 -0.890879 4.748884 0.581728 -0.418407 0.697516 0.921875 0.894531
#256256M60e4-p.bmp
  0 1.884472 -0.890879 4.748884 0.581728 -0.418407 0.697516 0.921875 0.894531
  0 0.416027 -1.386638 3.882634 -0.524239 -0.848540 -0.071787 0.980469 0.890625
  0 0.505200 -1.434195 3.785237 -0.524239 -0.848540 -0.071787 0.980469 0.894531
#256256M60e4-p.bmp
  0 1.884472 -0.890879 4.748884 0.621906 -0.323903 -0.712966 0.980469 0.816406
  0 0.505200 -1.434195 3.785237 0.621906 -0.323903 -0.712966 0.953125 0.816406
  0 1.808934 0.679034 3.972699 0.621906 -0.323903 -0.712966 0.980469 0.785156
#256256M60e4-p.bmp
  0 1.808934 0.679034 3.972699 0.621906 -0.323903 -0.712966 0.980469 0.785156
  0 0.505200 -1.434195 3.785237 0.621906 -0.323903 -0.712966 0.953125 0.816406
  0 0.421349 0.141277 3.008993 0.621906 -0.323903 -0.712966 0.953125 0.785156
#256256M60e4-p.bmp
  0 7.695577 2.725418 3.020052 -0.168252 -0.261435 -0.950444 0.062500 0.265625
  0 11.909868 -0.093057 3.049286 -0.168252 -0.261435 -0.950444 0.156250 0.265625
  0 3.599678 -3.374005 5.422874 -0.168252 -0.261435 -0.950444 0.062500 0.406250
#256256M60e4-p.bmp
  0 3.599678 -3.374005 5.422874 -0.168252 -0.261435 -0.950444 0.062500 0.406250
  0 11.909868 -0.093057 3.049286 -0.168252 -0.261435 -0.950444 0.156250 0.265625
  0 7.813969 -6.192479 5.452107 -0.168252 -0.261435 -0.950444 0.156250 0.406250
#256256M60e4-p.bmp
  0 8.905925 -4.495766 11.620486 0.168252 0.261435 0.950444 0.171875 0.253906
  0 13.001824 1.603657 9.217664 0.168252 0.261435 0.950444 0.171875 0.058594
  0 4.691634 -1.677292 11.591253 0.168252 0.261435 0.950444 0.300781 0.253906
#256256M60e4-p.bmp
  0 4.691634 -1.677292 11.591253 0.168252 0.261435 0.950444 0.300781 0.253906
  0 13.001824 1.603657 9.217664 0.168252 0.261435 0.950444 0.171875 0.058594
  0 8.787533 4.422131 9.188431 0.168252 0.261435 0.950444 0.300781 0.058594
#256256M60e4-p.bmp
  0 13.001824 1.603657 9.217664 0.529871 0.789059 -0.310843 0.171875 0.058594
  0 11.909868 -0.093057 3.049286 0.529871 0.789059 -0.310843 0.171875 0.011719
  0 8.787533 4.422131 9.188431 0.529871 0.789059 -0.310843 0.300781 0.058594
#256256M60e4-p.bmp
  0 8.787533 4.422131 9.188431 0.529871 0.789059 -0.310843 0.300781 0.058594
  0 11.909868 -0.093057 3.049286 0.529871 0.789059 -0.310843 0.171875 0.011719
  0 7.695577 2.725418 3.020052 0.529871 0.789059 -0.310843 0.300781 0.011719
#256256M60e4-p.bmp
  0 8.787533 4.422131 9.188431 -0.831221 0.555912 -0.005766 0.171875 0.058594
  0 7.695577 2.725418 3.020052 -0.831221 0.555912 -0.005766 0.007813 0.058594
  0 4.691634 -1.677292 11.591253 -0.831221 0.555912 -0.005766 0.171875 0.253906
#256256M60e4-p.bmp
  0 4.691634 -1.677292 11.591253 -0.831221 0.555912 -0.005766 0.171875 0.253906
  0 7.695577 2.725418 3.020052 -0.831221 0.555912 -0.005766 0.007813 0.058594
  0 3.599678 -3.374005 5.422874 -0.831221 0.555912 -0.005766 0.007813 0.253906
#256256M60e4-p.bmp
  0 4.691634 -1.677292 11.591253 -0.529871 -0.789059 0.310843 0.300781 0.253906
  0 3.599678 -3.374005 5.422874 -0.529871 -0.789059 0.310843 0.300781 0.417969
  0 8.905925 -4.495766 11.620486 -0.529871 -0.789059 0.310843 0.171875 0.253906
#256256M60e4-p.bmp
  0 8.905925 -4.495766 11.620486 -0.529871 -0.789059 0.310843 0.171875 0.253906
  0 3.599678 -3.374005 5.422874 -0.529871 -0.789059 0.310843 0.300781 0.417969
  0 7.813969 -6.192479 5.452107 -0.529871 -0.789059 0.310843 0.171875 0.417969
#256256M60e4-p.bmp
  0 8.905925 -4.495766 11.620486 0.831221 -0.555912 0.005766 0.171875 0.253906
  0 7.813969 -6.192479 5.452107 0.831221 -0.555912 0.005766 0.007813 0.253906
  0 13.001824 1.603657 9.217664 0.831221 -0.555912 0.005766 0.171875 0.058594
#256256M60e4-p.bmp
  0 13.001824 1.603657 9.217664 0.831221 -0.555912 0.005766 0.171875 0.058594
  0 7.813969 -6.192479 5.452107 0.831221 -0.555912 0.005766 0.007813 0.253906
  0 11.909868 -0.093057 3.049286 0.831221 -0.555912 0.005766 0.007813 0.058594
#256256M60e4-p.bmp
  0 -14.514410 8.164802 0.457913 -0.906422 0.063796 0.417528 0.539063 0.441406
  0 -14.104576 8.770428 -0.233646 -0.401082 0.810648 -0.426595 0.574219 0.441406
  0 -14.602730 8.030994 0.289404 -0.906422 0.063796 0.417528 0.539063 0.433594
#256256M60e4-p.bmp
  0 -14.602730 8.030994 0.289404 -0.906422 0.063796 0.417528 0.539063 0.433594
  0 -14.104576 8.770428 -0.233646 -0.401082 0.810648 -0.426595 0.574219 0.441406
  0 -14.192896 8.636621 -0.402154 -0.401082 0.810648 -0.426595 0.574219 0.433594
#256256M60e4-p.bmp
  0 -11.973209 6.721784 -0.320994 -0.831221 0.555912 -0.005766 0.921875 0.730469
  0 -12.116173 6.513349 0.193025 -0.831221 0.555912 -0.005766 0.953125 0.761719
  0 -11.681680 7.160377 -0.061866 -0.831221 0.555912 -0.005766 0.953125 0.703125
#256256M60e4-p.bmp
  0 -11.681680 7.160377 -0.061866 -0.831221 0.555912 -0.005766 0.953125 0.703125
  0 -12.116173 6.513349 0.193025 -0.831221 0.555912 -0.005766 0.953125 0.761719
  0 -11.835242 6.936160 0.458370 -0.831221 0.555912 -0.005766 0.980469 0.730469
#256256M60e4-p.bmp
  0 -0.006286 -2.228958 0.895888 -0.396949 -0.650754 0.647264 0.984375 0.890625
  0 0.024274 -0.475710 0.765947 -0.362516 0.759025 0.540799 0.984375 0.828125
  0 -0.125744 -2.228459 0.822205 -0.396949 -0.650754 0.647264 0.980469 0.890625
#256256M60e4-p.bmp
  0 -0.125744 -2.228459 0.822205 -0.396949 -0.650754 0.647264 0.980469 0.890625
  0 0.024274 -0.475710 0.765947 -0.362516 0.759025 0.540799 0.984375 0.828125
  0 -0.095186 -0.475210 0.692264 -0.362516 0.759025 0.540799 0.980469 0.828125
#256256M60e4-p.bmp
  0 0.858308 -0.611955 -0.796175 0.396946 0.650756 -0.647264 0.921875 0.828125
  0 0.977768 -0.612455 -0.722493 0.396946 0.650756 -0.647264 0.917969 0.828125
  0 0.814137 -2.367535 -0.663183 0.362515 -0.759026 -0.540799 0.921875 0.890625
#256256M60e4-p.bmp
  0 0.814137 -2.367535 -0.663183 0.362515 -0.759026 -0.540799 0.921875 0.890625
  0 0.977768 -0.612455 -0.722493 0.396946 0.650756 -0.647264 0.917969 0.828125
  0 0.938896 -2.360144 -0.592608 0.362515 -0.759026 -0.540799 0.917969 0.890625
#256256M60e4-p.bmp
  0 -0.095186 -0.475210 0.692264 -0.362516 0.759025 0.540799 0.980469 0.828125
  0 0.024274 -0.475710 0.765947 -0.362516 0.759025 0.540799 0.980469 0.824219
  0 0.858308 -0.611955 -0.796175 0.396946 0.650756 -0.647264 0.921875 0.828125
#256256M60e4-p.bmp
  0 0.858308 -0.611955 -0.796175 0.396946 0.650756 -0.647264 0.921875 0.828125
  0 0.024274 -0.475710 0.765947 -0.362516 0.759025 0.540799 0.980469 0.824219
  0 0.977768 -0.612455 -0.722493 0.396946 0.650756 -0.647264 0.921875 0.824219
#256256M60e4-p.bmp
  0 -0.125744 -2.228459 0.822205 -0.843216 -0.019976 -0.537203 0.980469 0.890625
  0 -0.095186 -0.475210 0.692264 -0.843216 -0.019976 -0.537203 0.980469 0.828125
  0 0.814137 -2.367535 -0.663183 -0.843216 -0.019976 -0.537203 0.921875 0.890625
#256256M60e4-p.bmp
  0 0.814137 -2.367535 -0.663183 -0.843216 -0.019976 -0.537203 0.921875 0.890625
  0 -0.095186 -0.475210 0.692264 -0.843216 -0.019976 -0.537203 0.980469 0.828125
  0 0.858308 -0.611955 -0.796175 -0.843216 -0.019976 -0.537203 0.921875 0.828125
#256256M60e4-p.bmp
  0 -0.006286 -2.228958 0.895888 -0.396949 -0.650754 0.647264 0.980469 0.894531
  0 -0.125744 -2.228459 0.822205 -0.396949 -0.650754 0.647264 0.980469 0.890625
  0 0.938896 -2.360144 -0.592608 0.362515 -0.759026 -0.540799 0.921875 0.894531
#256256M60e4-p.bmp
  0 0.938896 -2.360144 -0.592608 0.362515 -0.759026 -0.540799 0.921875 0.894531
  0 -0.125744 -2.228459 0.822205 -0.396949 -0.650754 0.647264 0.980469 0.890625
  0 0.814137 -2.367535 -0.663183 0.362515 -0.759026 -0.540799 0.921875 0.890625
#256256M60e4-p.bmp
  0 0.024274 -0.475710 0.765947 0.843217 0.019976 0.537202 0.953125 0.785156
  0 -0.006286 -2.228958 0.895888 0.843217 0.019976 0.537202 0.953125 0.816406
  0 0.977768 -0.612455 -0.722493 0.843217 0.019976 0.537202 0.980469 0.785156
#256256M60e4-p.bmp
  0 0.977768 -0.612455 -0.722493 0.843217 0.019976 0.537202 0.980469 0.785156
  0 -0.006286 -2.228958 0.895888 0.843217 0.019976 0.537202 0.953125 0.816406
  0 0.938896 -2.360144 -0.592608 0.843217 0.019976 0.537202 0.980469 0.816406
#256256M60e4-p.bmp
  0 0.259978 0.770412 0.213113 0.963266 0.161123 -0.214842 0.425781 0.597656
  0 0.710893 1.471058 2.760301 0.963266 0.161123 -0.214842 0.425781 0.515625
  0 -1.574103 -1.924941 1.279191 0.374071 -0.909001 0.183815 0.484375 0.597656
#256256M60e4-p.bmp
  0 0.116896 -6.432647 2.756352 -0.168252 -0.261435 -0.950444 0.886719 0.984375
  0 1.144845 -4.901873 2.153315 -0.168252 -0.261435 -0.950444 0.886719 0.906250
  0 6.799913 -10.902180 2.802711 -0.168252 -0.261435 -0.950444 0.628906 0.984375
#256256M60e4-p.bmp
  0 25.285978 -12.216610 1.638327 0.168252 0.261435 0.950444 0.117188 0.695313
  0 20.184471 -12.692438 2.672305 0.168252 0.261435 0.950444 0.246094 0.804688
  0 27.280909 -13.550799 1.652165 0.168252 0.261435 0.950444 0.042969 0.695313
#256256M60e4-p.bmp
  0 0.710893 1.471058 2.760301 0.963266 0.161123 -0.214842 0.007813 0.488281
  0 0.259978 0.770412 0.213113 0.963266 0.161123 -0.214842 0.007813 0.468750
  0 -9.995234 8.631205 2.686036 -0.276739 0.937940 -0.209006 0.132813 0.488281
#256256M60e4-p.bmp
  0 0.670445 -5.572526 5.883312 0.168252 0.261435 0.950444 0.886719 0.984375
  0 7.353463 -10.042059 5.929670 0.284945 0.179327 0.941620 0.628906 0.984375
  0 2.000420 -3.591989 5.103094 0.168252 0.261435 0.950444 0.886719 0.906250
#256256M60e4-p.bmp
  0 2.000420 -3.591989 5.103094 -0.184404 0.916832 -0.354140 0.820313 0.613281
  0 1.144845 -4.901873 2.153315 -0.887031 0.450275 -0.102119 0.820313 0.710938
  0 0.670445 -5.572526 5.883312 -0.962437 -0.164859 0.215723 0.781250 0.613281
#256256M60e4-p.bmp
  0 -11.946017 10.364110 1.797168 0.168252 0.261435 0.950444 0.539063 0.457031
  0 -12.576563 9.425131 2.167072 0.168252 0.261435 0.950444 0.539063 0.488281
  0 -9.901214 8.996567 1.811352 0.168252 0.261435 0.950444 0.472656 0.457031
#256256M60e4-p.bmp
  0 -12.154649 10.039931 0.618618 -0.168252 -0.261435 -0.950444 0.539063 0.457031
  0 -10.109846 8.672387 0.632802 -0.168252 -0.261435 -0.950444 0.472656 0.457031
  0 -12.785195 9.100951 0.988522 -0.168252 -0.261435 -0.950444 0.539063 0.488281
#256256M60e4-p.bmp
  0 6.846339 -6.879628 5.854499 0.437951 -0.454643 0.775563 0.503906 0.410156
  0 6.710582 -7.084403 5.682345 0.132453 -0.915542 0.379789 0.503906 0.417969
  0 7.006983 -6.640296 5.770750 0.802520 0.088548 0.590018 0.500000 0.406250
#256256M60e4-p.bmp
  0 7.215339 -6.323056 6.319974 0.437951 -0.454643 0.775563 0.503906 0.410156
  0 7.081265 -6.525217 6.157324 0.132453 -0.915542 0.379789 0.503906 0.417969
  0 7.374300 -6.086339 6.226721 0.802520 0.088548 0.590018 0.500000 0.406250
#256256M60e4-p.bmp
  0 7.469200 -5.937511 6.894960 0.310114 -0.646604 0.696945 0.503906 0.410156
  0 7.372718 -6.084343 6.647308 0.087782 -0.984712 0.150458 0.503906 0.417969
  0 7.634389 -5.690431 6.902969 0.687779 -0.081654 0.721314 0.500000 0.406250
#256256M60e4-p.bmp
  0 -11.813191 6.907456 -0.284658 -0.376421 -0.570411 -0.730027 0.566406 0.332031
  0 -12.096533 6.488779 0.196307 -0.376421 -0.570411 -0.730027 0.542969 0.332031
  0 -12.821380 8.040603 -0.638823 -0.376421 -0.570411 -0.730027 0.585938 0.382813
#256256M60e4-p.bmp
  0 -11.724871 7.041263 -0.116149 0.660011 0.387870 -0.643384 0.574219 0.324219
  0 -11.813191 6.907456 -0.284658 0.660011 0.387870 -0.643384 0.566406 0.332031
  0 -12.738359 8.166520 -0.467206 0.448578 0.577240 -0.682328 0.593750 0.378906
#256256M60e4-p.bmp
  0 -14.514410 8.164802 0.457913 -0.906422 0.063796 0.417528 0.531250 0.433594
  0 -14.602730 8.030994 0.289404 -0.906422 0.063796 0.417528 0.539063 0.433594
  0 -13.442133 7.126436 0.711534 -0.368717 -0.630651 0.682881 0.511719 0.382813
#256256M60e4-p.bmp
  0 0.285647 -1.780861 0.279054 -0.554862 -0.830207 -0.053706 0.503906 0.066406
  0 -12.116173 6.513349 0.193025 -0.529871 -0.789059 0.310843 0.984375 0.066406
  0 0.536670 -1.644694 -0.234216 -0.273408 -0.417797 -0.866426 0.500000 0.039063
end
