version 1
nodes
  0 "lock_root" -1
  1 "trigar" 0
  2 "lock_rotationR" 0
  3 "lock_rotationR_up" 2
  4 "lock_rotationR001" 3
  5 "lock_rotationR002" 3
  6 "lock_rotationR003" 3
  7 "lock_rotationR004" 3
  8 "lock_rotationR005" 3
  9 "lock_bridge01" 0
  10 "lock_bridge002" 0
  11 "lock_rotationL" 0
  12 "lock_rotationL_up" 11
  13 "lock_rotationL002" 12
  14 "lock_rotationL003" 12
  15 "lock_rotationL004" 12
  16 "lock_rotationL005" 12
  17 "lock_rotationL001" 12
  18 "magazine" 0
  19 "lock_upper" 0
  20 "lock_upper02" 19
  21 "lock_upper003" 20
  22 "lock_upper004" 21
  23 "lock_sideR" 0
  24 "lock_sideL" 0
  25 "Bullet_root" -1
  26 "Bullet001" 25
  27 "bullet_Point001" 26
  28 "Bullet011" 27
  29 "Bullet012" 28
  30 "Bullet013" 29
  31 "Bullet014" 30
  32 "Bullet002" 25
  33 "bullet_Point002" 32
  34 "Bullet016" 33
  35 "Bullet017" 34
  36 "Bullet018" 35
  37 "Bullet019" 36
  38 "Bullet003" 25
  39 "bullet_Point003" 38
  40 "Bullet021" 39
  41 "Bullet022" 40
  42 "Bullet023" 41
  43 "Bullet024" 42
  44 "Bullet004" 25
  45 "bullet_Point004" 44
  46 "Bullet026" 45
  47 "Bullet027" 46
  48 "Bullet028" 47
  49 "Bullet029" 48
  50 "Bullet005" 25
  51 "bullet_Point005" 50
  52 "Bullet031" 51
  53 "Bullet032" 52
  54 "Bullet033" 53
  55 "Bullet034" 54
  56 "Bullet006" 25
  57 "bullet_Point006" 56
  58 "Bullet036" 57
  59 "Bullet037" 58
  60 "Bullet038" 59
  61 "Bullet039" 60
  62 "Bullet007" 25
  63 "bullet_Point007" 62
  64 "Bullet041" 63
  65 "Bullet042" 64
  66 "Bullet043" 65
  67 "Bullet044" 66
  68 "Bullet008" 25
  69 "bullet_Point008" 68
  70 "Bullet046" 69
  71 "Bullet047" 70
  72 "Bullet048" 71
  73 "Bullet049" 72
  74 "Bullet009" 25
  75 "bullet_Point009" 74
  76 "Bullet051" 75
  77 "Bullet052" 76
  78 "Bullet053" 77
  79 "Bullet054" 78
  80 "Bullet010" 25
  81 "bullet_Point010" 80
  82 "Bullet056" 81
  83 "Bullet057" 82
  84 "Bullet058" 83
  85 "Bullet059" 84
  86 "smokeR_root" -1
  87 "smokeL_root" -1
  88 "root" -1
  89 "Bone01" 88
  90 "Bone_L_Upper" 89
  91 "Bone_Lefthand" 89
  92 "Bone13" 91
  93 "Bone14" 92
  94 "Bone15" 93
  95 "Bone17" 91
  96 "Bone18" 95
  97 "Bone19" 96
  98 "Bone21" 91
  99 "Bone22" 98
  100 "Bone23" 99
  101 "Bone09" 91
  102 "Bone10" 101
  103 "Bone11" 102
  104 "Bone05" 91
  105 "Bone06" 104
  106 "Bone07" 105
  107 "Bone_Se_Hand-L" 91
  108 "Bone04" 88
  109 "Bone_Righthand" 108
  110 "Bone39" 109
  111 "Bone40" 110
  112 "Bone41" 111
  113 "Bone35" 109
  114 "Bone36" 113
  115 "Bone37" 114
  116 "Bone31" 109
  117 "Bone32" 116
  118 "Bone33" 117
  119 "Bone43" 109
  120 "Bone44" 119
  121 "Bone45" 120
  122 "Bone27" 109
  123 "Bone28" 122
  124 "Bone29" 123
  125 "Bone_Se_Hand-R" 109
  126 "Bone_R_Upper" 108
end
skeleton
  time 0
    0 -0.002833 -0.697976 -15.300318 0.000000 0.000000 -0.000043
    1 -0.003705 -0.088851 0.612631 1.570801 1.570796 0.000000
    2 -0.564713 -4.015904 1.566239 0.000000 0.000001 3.141592
    3 -0.064035 1.694918 -0.000001 0.000000 0.000000 0.000000
    4 0.676236 1.191122 -1.040430 0.000000 -1.570796 0.000000
    5 0.676235 -0.173693 -1.040429 0.000000 -1.570796 0.000000
    6 0.676236 -1.522763 -1.040429 0.000000 -1.570796 0.000000
    7 0.684514 0.504665 1.254998 -0.000002 -1.570451 0.000000
    8 0.684514 -0.824704 1.254999 -0.000002 -1.570451 0.000000
    9 0.000000 2.215781 3.010640 1.570796 -2.293253 -4.712389
    10 0.000000 -0.674149 3.010639 1.570796 -2.293253 -4.712389
    11 0.565000 -4.015941 1.566662 0.000000 3.141592 0.000000
    12 0.063999 -1.694921 0.000000 0.000000 -0.000001 0.000000
    13 -0.592701 0.173695 1.045670 0.000000 -1.571142 0.000000
    14 -0.592701 1.522763 1.045669 0.000000 -1.571142 0.000000
    15 -0.584427 -0.504663 -1.249530 3.141590 1.570796 0.000000
    16 -0.584426 0.824705 -1.249531 3.141590 1.570796 0.000000
    17 -0.592702 -1.191118 1.045671 0.000000 -1.571142 0.000000
    18 -0.009867 5.508937 0.331835 0.000000 1.570796 0.000000
    19 0.000000 -0.396913 4.361983 3.141592 -1.570796 0.000000
    20 0.995852 -1.693115 -0.000002 0.000000 0.000000 0.000000
    21 0.439213 0.000000 0.000000 0.000000 0.000000 0.000000
    22 -0.168286 -2.668214 0.000000 0.000000 0.000000 -1.570796
    23 -0.868299 4.614312 3.201679 0.000000 0.000000 3.141592
    24 0.864151 4.614213 3.201568 0.000000 -3.141592 0.000000
    25 -9.151853 0.000000 -22.452812 -0.000002 3.141592 -1.570797
    26 0.679067 -0.648700 0.567080 3.141592 0.000001 0.000000
    27 0.000000 -0.000001 0.000000 0.000003 0.000000 0.000000
    28 0.000000 0.000000 0.000000 0.000000 0.000000 0.000000
    29 0.000000 0.000000 0.000000 0.000000 0.000000 0.000000
    30 0.000000 0.000000 0.000000 0.000000 0.000000 0.000000
    31 0.000000 0.000000 0.000000 0.000000 0.000000 0.000000
    32 0.679068 0.672769 0.567080 3.141592 0.000001 0.000000
    33 0.000000 -0.000001 0.000000 0.000003 0.000000 0.000000
    34 0.000000 0.000000 0.000000 0.000000 0.000000 0.000000
    35 0.000000 0.000000 0.000000 0.000000 0.000000 0.000000
    36 0.000000 0.000000 0.000000 0.000000 0.000000 0.000000
    37 0.000000 0.000000 0.000000 0.000000 0.000000 0.000000
    38 0.679065 -1.336178 -0.596495 3.141592 0.000001 0.000000
    39 0.000000 -0.000001 0.000000 0.000003 0.000000 0.000000
    40 0.000000 0.000000 0.000000 0.000000 0.000000 0.000000
    41 0.000000 0.000000 0.000000 0.000000 0.000000 0.000000
    42 0.000000 0.000000 0.000000 0.000000 0.000000 0.000000
    43 0.000000 0.000000 0.000000 0.000000 0.000000 0.000000
    44 0.679066 -0.010668 -0.596489 3.141592 0.000001 0.000000
    45 0.000000 -0.000001 0.000000 0.000003 0.000000 0.000000
    46 0.000000 0.000000 0.000000 0.000000 0.000000 0.000000
    47 0.000000 0.000000 0.000000 0.000000 0.000000 0.000000
    48 0.000000 0.000000 0.000000 0.000000 0.000000 0.000000
    49 0.000000 0.000000 0.000000 0.000000 0.000000 0.000000
    50 0.679067 1.357895 -0.596487 3.141592 0.000001 0.000000
    51 0.000000 -0.000001 0.000000 0.000003 0.000000 0.000000
    52 0.000000 0.000000 0.000000 0.000000 0.000000 0.000000
    53 0.000000 0.000000 0.000000 0.000000 0.000000 0.000000
    54 0.000000 0.000000 0.000000 0.000000 0.000000 0.000000
    55 0.000000 0.000000 0.000000 0.000000 0.000000 0.000000
    56 -0.656619 -0.643710 0.567078 0.000000 0.000001 3.141592
    57 0.000000 -0.000001 -0.000002 0.000003 0.000000 0.000000
    58 0.000000 0.000000 0.000000 0.000000 0.000000 0.000000
    59 0.000000 0.000000 0.000000 0.000000 0.000000 0.000000
    60 0.000000 0.000000 0.000000 0.000000 0.000000 0.000000
    61 0.000000 0.000000 0.000000 0.000000 0.000000 0.000000
    62 -0.656619 0.677758 0.567081 0.000000 0.000001 3.141592
    63 0.000000 -0.000001 0.000000 0.000003 0.000000 0.000000
    64 0.000000 0.000000 0.000000 0.000000 0.000000 0.000000
    65 0.000000 0.000000 0.000000 0.000000 0.000000 0.000000
    66 0.000000 0.000000 0.000000 0.000000 0.000000 0.000000
    67 0.000000 0.000000 0.000000 0.000000 0.000000 0.000000
    68 -0.656617 -1.331188 -0.596495 0.000000 0.000001 3.141592
    69 0.000000 -0.000001 -0.000002 0.000003 0.000000 0.000000
    70 0.000000 0.000000 0.000000 0.000000 0.000000 0.000000
    71 0.000000 0.000000 0.000000 0.000000 0.000000 0.000000
    72 0.000000 0.000000 0.000000 0.000000 0.000000 0.000000
    73 0.000000 0.000000 0.000000 0.000000 0.000000 0.000000
    74 -0.656618 -0.005678 -0.596489 0.000000 0.000001 3.141592
    75 0.000000 -0.000001 0.000000 0.000003 0.000000 0.000000
    76 0.000000 0.000000 0.000000 0.000000 0.000000 0.000000
    77 0.000000 0.000000 0.000000 0.000000 0.000000 0.000000
    78 0.000000 0.000000 0.000000 0.000000 0.000000 0.000000
    79 0.000000 0.000000 0.000000 0.000000 0.000000 0.000000
    80 -0.656615 1.362884 -0.596487 0.000000 0.000001 3.141592
    81 0.000000 -0.000001 0.000000 0.000003 0.000000 0.000000
    82 0.000000 0.000000 0.000000 0.000000 0.000000 0.000000
    83 0.000000 0.000000 0.000000 0.000000 0.000000 0.000000
    84 0.000000 0.000000 0.000000 0.000000 0.000000 0.000000
    85 0.000000 0.000000 0.000000 0.000000 0.000000 0.000000
    86 -22.515255 -14.055544 -0.798508 1.570796 0.000000 -1.570796
    87 -24.677761 16.758575 -1.251462 1.570796 0.000000 -1.570796
    88 -0.002752 -0.696599 -15.304535 0.000000 0.000000 -0.000043
    89 3.806029 12.134512 -1.233394 6.229045 -2.062258 -0.244229
    90 3.448653 9.395416 -0.282623 1.545838 -3.132837 1.309107
    91 0.010113 -8.498736 -0.068977 0.144224 0.662533 0.173639
    92 -0.488518 -2.755602 -0.228260 -0.854769 -0.065650 -0.331400
    93 0.039887 -1.546198 0.022041 -1.871391 -0.006663 0.041767
    94 0.028786 -1.087450 -0.062173 -0.318681 -0.007023 0.004902
    95 0.250027 -2.820665 -0.238396 -0.552653 -0.155197 -0.177390
    96 -0.049759 -1.594604 0.022352 -1.692609 -0.002732 -0.044381
    97 -0.034142 -1.163937 0.049625 -0.998466 0.007910 -0.025959
    98 0.957766 -2.746780 -0.090302 0.165424 -0.223746 0.095945
    99 -0.033420 -1.397129 -0.015163 -0.248262 0.005789 -0.011866
    100 -0.022360 -0.957436 0.010971 -0.329891 0.006604 -0.015424
    101 -1.180681 -2.507217 -0.193859 -0.988602 0.140810 -0.391040
    102 -0.024967 -1.127840 0.017597 -1.364398 -0.005129 -0.056674
    103 -0.020057 -0.902687 0.021809 -0.713798 0.007922 -0.028176
    104 0.606948 -1.197277 0.185379 0.455111 -0.925243 -0.684416
    105 1.426549 -0.267106 0.087043 0.093188 -0.260641 -1.002736
    106 1.053895 -0.140009 0.028385 0.033433 -0.179999 -0.730272
    107 0.120153 -0.050270 -0.054489 0.287569 3.110905 1.561085
    108 -3.751344 4.464349 -4.528765 -0.877067 -5.167795 -0.426037
    109 -0.008528 -8.426980 0.033605 -0.132294 -0.773278 0.215614
    110 0.447953 -2.798986 -0.200443 -0.928571 -0.223099 0.202211
    111 -0.032909 -1.491923 0.008846 -0.635164 0.014513 -0.007381
    112 -0.027022 -1.127703 -0.020210 -1.224260 0.024233 -0.022076
    113 -0.249534 -2.846964 -0.174213 -0.434857 -0.182998 0.147751
    114 0.043235 -1.660503 0.080387 -1.017380 -0.016688 0.001727
    115 0.031729 -1.141298 0.054932 -1.091808 -0.012110 0.006059
    116 -0.963866 -2.785145 -0.085350 -0.011521 -0.037434 0.101211
    117 0.028479 -1.403067 -0.005448 -0.471563 -0.008269 -0.020110
    118 0.021413 -0.946062 0.020046 -0.591871 -0.011769 -0.023801
    119 1.164475 -2.543940 -0.170330 -0.839763 -0.344009 0.135803
    120 0.024032 -1.136855 -0.001725 -0.785833 0.004362 0.041887
    121 0.014898 -0.899614 -0.015942 -0.966253 0.007562 0.048610
    122 -0.586770 -1.264477 0.200161 -0.123442 0.196326 -2.622843
    123 1.557992 0.035243 0.016848 -0.013655 -0.005385 0.702874
    124 1.117947 0.048424 -0.005766 0.004024 -0.019793 -0.149526
    125 -0.139399 -0.111698 0.014397 0.635980 -0.028572 1.346092
    126 -1.295811 8.889960 -0.204276 1.570809 -0.000001 -1.570790
  time 1
    0 -0.002833 -0.697976 -15.300318 0.000000 0.000000 -0.000043
    1 -0.003705 -0.088851 0.612631 1.570801 1.570796 0.000000
    2 -0.564713 -4.015904 1.566239 0.000000 0.000001 3.141592
    3 -0.064035 1.694918 -0.000001 0.000000 0.000000 0.000000
    4 0.676236 1.191122 -1.040430 0.000000 -1.570796 0.000000
    5 0.676235 -0.173693 -1.040429 0.000000 -1.570796 0.000000
    6 0.676236 -1.522763 -1.040429 0.000000 -1.570796 0.000000
    7 0.684514 0.504665 1.254998 -0.000002 -1.570451 0.000000
    8 0.684514 -0.824704 1.254999 -0.000002 -1.570451 0.000000
    9 0.000000 2.215781 3.010640 1.570796 -2.293253 -4.712389
    10 0.000000 -0.674149 3.010639 1.570796 -2.293253 -4.712389
    11 0.565000 -4.015941 1.566662 0.000000 3.141592 0.000000
    12 0.063999 -1.694921 0.000000 0.000000 -0.000001 0.000000
    13 -0.592701 0.173695 1.045670 0.000000 -1.571142 0.000000
    14 -0.592701 1.522763 1.045669 0.000000 -1.571142 0.000000
    15 -0.584427 -0.504663 -1.249530 3.141590 1.570796 0.000000
    16 -0.584426 0.824705 -1.249531 3.141590 1.570796 0.000000
    17 -0.592702 -1.191118 1.045671 0.000000 -1.571142 0.000000
    18 -0.009867 5.508937 0.331835 0.000000 1.570796 0.000000
    19 0.000000 -0.396913 4.361983 3.141592 -1.570796 0.000000
    20 0.995852 -1.693115 -0.000002 0.000000 0.000000 0.000000
    21 0.439213 0.000000 0.000000 0.000000 0.000000 0.000000
    22 -0.168286 -2.668214 0.000000 0.000000 0.000000 -1.570796
    23 -0.868299 4.614312 3.201679 0.000000 0.000000 3.141592
    24 0.864151 4.614213 3.201568 0.000000 -3.141592 0.000000
    25 -9.151853 0.000000 -22.452812 -0.000002 3.141592 -1.570797
    26 0.679067 -0.648700 0.567080 3.141592 0.000001 0.000000
    27 0.000000 -0.000001 0.000000 0.000003 0.000000 0.000000
    28 0.000000 0.000000 0.000000 0.000000 0.000000 0.000000
    29 0.000000 0.000000 0.000000 0.000000 0.000000 0.000000
    30 0.000000 0.000000 0.000000 0.000000 0.000000 0.000000
    31 0.000000 0.000000 0.000000 0.000000 0.000000 0.000000
    32 0.679068 0.672769 0.567080 3.141592 0.000001 0.000000
    33 0.000000 -0.000001 0.000000 0.000003 0.000000 0.000000
    34 0.000000 0.000000 0.000000 0.000000 0.000000 0.000000
    35 0.000000 0.000000 0.000000 0.000000 0.000000 0.000000
    36 0.000000 0.000000 0.000000 0.000000 0.000000 0.000000
    37 0.000000 0.000000 0.000000 0.000000 0.000000 0.000000
    38 0.679065 -1.336178 -0.596495 3.141592 0.000001 0.000000
    39 0.000000 -0.000001 0.000000 0.000003 0.000000 0.000000
    40 0.000000 0.000000 0.000000 0.000000 0.000000 0.000000
    41 0.000000 0.000000 0.000000 0.000000 0.000000 0.000000
    42 0.000000 0.000000 0.000000 0.000000 0.000000 0.000000
    43 0.000000 0.000000 0.000000 0.000000 0.000000 0.000000
    44 0.679066 -0.010668 -0.596489 3.141592 0.000001 0.000000
    45 0.000000 -0.000001 0.000000 0.000003 0.000000 0.000000
    46 0.000000 0.000000 0.000000 0.000000 0.000000 0.000000
    47 0.000000 0.000000 0.000000 0.000000 0.000000 0.000000
    48 0.000000 0.000000 0.000000 0.000000 0.000000 0.000000
    49 0.000000 0.000000 0.000000 0.000000 0.000000 0.000000
    50 0.679067 1.357895 -0.596487 3.141592 0.000001 0.000000
    51 0.000000 -0.000001 0.000000 0.000003 0.000000 0.000000
    52 0.000000 0.000000 0.000000 0.000000 0.000000 0.000000
    53 0.000000 0.000000 0.000000 0.000000 0.000000 0.000000
    54 0.000000 0.000000 0.000000 0.000000 0.000000 0.000000
    55 0.000000 0.000000 0.000000 0.000000 0.000000 0.000000
    56 -0.656619 -0.643710 0.567078 0.000000 0.000001 3.141592
    57 0.000000 -0.000001 -0.000002 0.000003 0.000000 0.000000
    58 0.000000 0.000000 0.000000 0.000000 0.000000 0.000000
    59 0.000000 0.000000 0.000000 0.000000 0.000000 0.000000
    60 0.000000 0.000000 0.000000 0.000000 0.000000 0.000000
    61 0.000000 0.000000 0.000000 0.000000 0.000000 0.000000
    62 -0.656619 0.677758 0.567081 0.000000 0.000001 3.141592
    63 0.000000 -0.000001 0.000000 0.000003 0.000000 0.000000
    64 0.000000 0.000000 0.000000 0.000000 0.000000 0.000000
    65 0.000000 0.000000 0.000000 0.000000 0.000000 0.000000
    66 0.000000 0.000000 0.000000 0.000000 0.000000 0.000000
    67 0.000000 0.000000 0.000000 0.000000 0.000000 0.000000
    68 -0.656617 -1.331188 -0.596495 0.000000 0.000001 3.141592
    69 0.000000 -0.000001 -0.000002 0.000003 0.000000 0.000000
    70 0.000000 0.000000 0.000000 0.000000 0.000000 0.000000
    71 0.000000 0.000000 0.000000 0.000000 0.000000 0.000000
    72 0.000000 0.000000 0.000000 0.000000 0.000000 0.000000
    73 0.000000 0.000000 0.000000 0.000000 0.000000 0.000000
    74 -0.656618 -0.005678 -0.596489 0.000000 0.000001 3.141592
    75 0.000000 -0.000001 0.000000 0.000003 0.000000 0.000000
    76 0.000000 0.000000 0.000000 0.000000 0.000000 0.000000
    77 0.000000 0.000000 0.000000 0.000000 0.000000 0.000000
    78 0.000000 0.000000 0.000000 0.000000 0.000000 0.000000
    79 0.000000 0.000000 0.000000 0.000000 0.000000 0.000000
    80 -0.656615 1.362884 -0.596487 0.000000 0.000001 3.141592
    81 0.000000 -0.000001 0.000000 0.000003 0.000000 0.000000
    82 0.000000 0.000000 0.000000 0.000000 0.000000 0.000000
    83 0.000000 0.000000 0.000000 0.000000 0.000000 0.000000
    84 0.000000 0.000000 0.000000 0.000000 0.000000 0.000000
    85 0.000000 0.000000 0.000000 0.000000 0.000000 0.000000
    86 -22.515255 -14.055544 -0.798508 1.570796 0.000000 -1.570796
    87 -24.677761 16.758575 -1.251462 1.570796 0.000000 -1.570796
    88 -0.002752 -0.696599 -15.304535 0.000000 0.000000 -0.000043
    89 3.806029 12.134512 -1.233394 6.229045 -2.062258 -0.244229
    90 3.448653 9.395416 -0.282623 1.545838 -3.132837 1.309107
    91 0.010113 -8.498736 -0.068977 0.144224 0.662533 0.173639
    92 -0.488518 -2.755602 -0.228260 -0.854769 -0.065650 -0.331400
    93 0.039887 -1.546198 0.022041 -1.871391 -0.006663 0.041767
    94 0.028786 -1.087450 -0.062173 -0.318681 -0.007023 0.004902
    95 0.250027 -2.820665 -0.238396 -0.552653 -0.155197 -0.177390
    96 -0.049759 -1.594604 0.022352 -1.692609 -0.002732 -0.044381
    97 -0.034142 -1.163937 0.049625 -0.998466 0.007910 -0.025959
    98 0.957766 -2.746780 -0.090302 0.165424 -0.223746 0.095945
    99 -0.033420 -1.397129 -0.015163 -0.248262 0.005789 -0.011866
    100 -0.022360 -0.957436 0.010971 -0.329891 0.006604 -0.015424
    101 -1.180681 -2.507217 -0.193859 -0.988602 0.140810 -0.391040
    102 -0.024967 -1.127840 0.017597 -1.364398 -0.005129 -0.056674
    103 -0.020057 -0.902687 0.021809 -0.713798 0.007922 -0.028176
    104 0.606948 -1.197277 0.185379 0.455111 -0.925243 -0.684416
    105 1.426549 -0.267106 0.087043 0.093188 -0.260641 -1.002736
    106 1.053895 -0.140009 0.028385 0.033433 -0.179999 -0.730272
    107 0.120153 -0.050270 -0.054489 0.287569 3.110905 1.561085
    108 -3.751344 4.464349 -4.528765 -0.877067 -5.167795 -0.426037
    109 -0.008528 -8.426980 0.033605 -0.132294 -0.773278 0.215614
    110 0.447953 -2.798986 -0.200443 -0.928571 -0.223099 0.202211
    111 -0.032909 -1.491923 0.008846 -0.635164 0.014513 -0.007381
    112 -0.027022 -1.127703 -0.020210 -1.224260 0.024233 -0.022076
    113 -0.249534 -2.846964 -0.174213 -0.434857 -0.182998 0.147751
    114 0.043235 -1.660503 0.080387 -1.017380 -0.016688 0.001727
    115 0.031729 -1.141298 0.054932 -1.091808 -0.012110 0.006059
    116 -0.963866 -2.785145 -0.085350 -0.011521 -0.037434 0.101211
    117 0.028479 -1.403067 -0.005448 -0.471563 -0.008269 -0.020110
    118 0.021413 -0.946062 0.020046 -0.591871 -0.011769 -0.023801
    119 1.164475 -2.543940 -0.170330 -0.839763 -0.344009 0.135803
    120 0.024032 -1.136855 -0.001725 -0.785833 0.004362 0.041887
    121 0.014898 -0.899614 -0.015942 -0.966253 0.007562 0.048610
    122 -0.586770 -1.264477 0.200161 -0.123442 0.196326 -2.622843
    123 1.557992 0.035243 0.016848 -0.013655 -0.005385 0.702874
    124 1.117947 0.048424 -0.005766 0.004024 -0.019793 -0.149526
    125 -0.139399 -0.111698 0.014397 0.635980 -0.028572 1.346092
    126 -1.295811 8.889960 -0.204276 1.570809 -0.000001 -1.570790
  time 2
    0 -0.002833 -0.697976 -15.300318 0.000000 0.000000 -0.000043
    1 -0.003705 -0.088851 0.612631 1.570801 1.570796 0.000000
    2 -0.564713 -4.015904 1.566239 0.000000 0.000001 3.141592
    3 -0.064035 1.694918 -0.000001 0.000000 0.000000 0.000000
    4 0.676236 1.191122 -1.040430 0.000000 -1.570796 0.000000
    5 0.676235 -0.173693 -1.040429 0.000000 -1.570796 0.000000
    6 0.676236 -1.522763 -1.040429 0.000000 -1.570796 0.000000
    7 0.684514 0.504665 1.254998 -0.000002 -1.570451 0.000000
    8 0.684514 -0.824704 1.254999 -0.000002 -1.570451 0.000000
    9 0.000000 2.215781 3.010640 1.570796 -2.293253 -4.712389
    10 0.000000 -0.674149 3.010639 1.570796 -2.293253 -4.712389
    11 0.565000 -4.015941 1.566662 0.000000 3.141592 0.000000
    12 0.063999 -1.694921 0.000000 0.000000 -0.000001 0.000000
    13 -0.592701 0.173695 1.045670 0.000000 -1.571142 0.000000
    14 -0.592701 1.522763 1.045669 0.000000 -1.571142 0.000000
    15 -0.584427 -0.504663 -1.249530 3.141590 1.570796 0.000000
    16 -0.584426 0.824705 -1.249531 3.141590 1.570796 0.000000
    17 -0.592702 -1.191118 1.045671 0.000000 -1.571142 0.000000
    18 -0.009867 5.508937 0.331835 0.000000 1.570796 0.000000
    19 0.000000 -0.396913 4.361983 3.141592 -1.570796 0.000000
    20 0.995852 -1.693115 -0.000002 0.000000 0.000000 0.000000
    21 0.439213 0.000000 0.000000 0.000000 0.000000 0.000000
    22 -0.168286 -2.668214 0.000000 0.000000 0.000000 -1.570796
    23 -0.868299 4.614312 3.201679 0.000000 0.000000 3.141592
    24 0.864151 4.614213 3.201568 0.000000 -3.141592 0.000000
    25 -9.151853 0.000000 -22.452812 -0.000002 3.141592 -1.570797
    26 0.679067 -0.648700 0.567080 3.141592 0.000001 0.000000
    27 0.000000 -0.000001 0.000000 0.000003 0.000000 0.000000
    28 0.000000 0.000000 0.000000 0.000000 0.000000 0.000000
    29 0.000000 0.000000 0.000000 0.000000 0.000000 0.000000
    30 0.000000 0.000000 0.000000 0.000000 0.000000 0.000000
    31 0.000000 0.000000 0.000000 0.000000 0.000000 0.000000
    32 0.679068 0.672769 0.567080 3.141592 0.000001 0.000000
    33 0.000000 -0.000001 0.000000 0.000003 0.000000 0.000000
    34 0.000000 0.000000 0.000000 0.000000 0.000000 0.000000
    35 0.000000 0.000000 0.000000 0.000000 0.000000 0.000000
    36 0.000000 0.000000 0.000000 0.000000 0.000000 0.000000
    37 0.000000 0.000000 0.000000 0.000000 0.000000 0.000000
    38 0.679065 -1.336178 -0.596495 3.141592 0.000001 0.000000
    39 0.000000 -0.000001 0.000000 0.000003 0.000000 0.000000
    40 0.000000 0.000000 0.000000 0.000000 0.000000 0.000000
    41 0.000000 0.000000 0.000000 0.000000 0.000000 0.000000
    42 0.000000 0.000000 0.000000 0.000000 0.000000 0.000000
    43 0.000000 0.000000 0.000000 0.000000 0.000000 0.000000
    44 0.679066 -0.010668 -0.596489 3.141592 0.000001 0.000000
    45 0.000000 -0.000001 0.000000 0.000003 0.000000 0.000000
    46 0.000000 0.000000 0.000000 0.000000 0.000000 0.000000
    47 0.000000 0.000000 0.000000 0.000000 0.000000 0.000000
    48 0.000000 0.000000 0.000000 0.000000 0.000000 0.000000
    49 0.000000 0.000000 0.000000 0.000000 0.000000 0.000000
    50 0.679067 1.357895 -0.596487 3.141592 0.000001 0.000000
    51 0.000000 -0.000001 0.000000 0.000003 0.000000 0.000000
    52 0.000000 0.000000 0.000000 0.000000 0.000000 0.000000
    53 0.000000 0.000000 0.000000 0.000000 0.000000 0.000000
    54 0.000000 0.000000 0.000000 0.000000 0.000000 0.000000
    55 0.000000 0.000000 0.000000 0.000000 0.000000 0.000000
    56 -0.656619 -0.643710 0.567078 0.000000 0.000001 3.141592
    57 0.000000 -0.000001 -0.000002 0.000003 0.000000 0.000000
    58 0.000000 0.000000 0.000000 0.000000 0.000000 0.000000
    59 0.000000 0.000000 0.000000 0.000000 0.000000 0.000000
    60 0.000000 0.000000 0.000000 0.000000 0.000000 0.000000
    61 0.000000 0.000000 0.000000 0.000000 0.000000 0.000000
    62 -0.656619 0.677758 0.567081 0.000000 0.000001 3.141592
    63 0.000000 -0.000001 0.000000 0.000003 0.000000 0.000000
    64 0.000000 0.000000 0.000000 0.000000 0.000000 0.000000
    65 0.000000 0.000000 0.000000 0.000000 0.000000 0.000000
    66 0.000000 0.000000 0.000000 0.000000 0.000000 0.000000
    67 0.000000 0.000000 0.000000 0.000000 0.000000 0.000000
    68 -0.656617 -1.331188 -0.596495 0.000000 0.000001 3.141592
    69 0.000000 -0.000001 -0.000002 0.000003 0.000000 0.000000
    70 0.000000 0.000000 0.000000 0.000000 0.000000 0.000000
    71 0.000000 0.000000 0.000000 0.000000 0.000000 0.000000
    72 0.000000 0.000000 0.000000 0.000000 0.000000 0.000000
    73 0.000000 0.000000 0.000000 0.000000 0.000000 0.000000
    74 -0.656618 -0.005678 -0.596489 0.000000 0.000001 3.141592
    75 0.000000 -0.000001 0.000000 0.000003 0.000000 0.000000
    76 0.000000 0.000000 0.000000 0.000000 0.000000 0.000000
    77 0.000000 0.000000 0.000000 0.000000 0.000000 0.000000
    78 0.000000 0.000000 0.000000 0.000000 0.000000 0.000000
    79 0.000000 0.000000 0.000000 0.000000 0.000000 0.000000
    80 -0.656615 1.362884 -0.596487 0.000000 0.000001 3.141592
    81 0.000000 -0.000001 0.000000 0.000003 0.000000 0.000000
    82 0.000000 0.000000 0.000000 0.000000 0.000000 0.000000
    83 0.000000 0.000000 0.000000 0.000000 0.000000 0.000000
    84 0.000000 0.000000 0.000000 0.000000 0.000000 0.000000
    85 0.000000 0.000000 0.000000 0.000000 0.000000 0.000000
    86 -22.515255 -14.055544 -0.798508 1.570796 0.000000 -1.570796
    87 -24.677761 16.758575 -1.251462 1.570796 0.000000 -1.570796
    88 -0.002752 -0.696599 -15.304535 0.000000 0.000000 -0.000043
    89 3.806029 12.134512 -1.233394 6.229045 -2.062258 -0.244229
    90 3.448653 9.395416 -0.282623 1.545838 -3.132837 1.309107
    91 0.010113 -8.498736 -0.068977 0.144224 0.662533 0.173639
    92 -0.488518 -2.755602 -0.228260 -0.854769 -0.065650 -0.331400
    93 0.039887 -1.546198 0.022041 -1.871391 -0.006663 0.041767
    94 0.028786 -1.087450 -0.062173 -0.318681 -0.007023 0.004902
    95 0.250027 -2.820665 -0.238396 -0.552653 -0.155197 -0.177390
    96 -0.049759 -1.594604 0.022352 -1.692609 -0.002732 -0.044381
    97 -0.034142 -1.163937 0.049625 -0.998466 0.007910 -0.025959
    98 0.957766 -2.746780 -0.090302 0.165424 -0.223746 0.095945
    99 -0.033420 -1.397129 -0.015163 -0.248262 0.005789 -0.011866
    100 -0.022360 -0.957436 0.010971 -0.329891 0.006604 -0.015424
    101 -1.180681 -2.507217 -0.193859 -0.988602 0.140810 -0.391040
    102 -0.024967 -1.127840 0.017597 -1.364398 -0.005129 -0.056674
    103 -0.020057 -0.902687 0.021809 -0.713798 0.007922 -0.028176
    104 0.606948 -1.197277 0.185379 0.455111 -0.925243 -0.684416
    105 1.426549 -0.267106 0.087043 0.093188 -0.260641 -1.002736
    106 1.053895 -0.140009 0.028385 0.033433 -0.179999 -0.730272
    107 0.120153 -0.050270 -0.054489 0.287569 3.110905 1.561085
    108 -3.751344 4.464349 -4.528765 -0.877067 -5.167795 -0.426037
    109 -0.008528 -8.426980 0.033605 -0.132294 -0.773278 0.215614
    110 0.447953 -2.798986 -0.200443 -0.928571 -0.223099 0.202211
    111 -0.032909 -1.491923 0.008846 -0.635164 0.014513 -0.007381
    112 -0.027022 -1.127703 -0.020210 -1.224260 0.024233 -0.022076
    113 -0.249534 -2.846964 -0.174213 -0.434857 -0.182998 0.147751
    114 0.043235 -1.660503 0.080387 -1.017380 -0.016688 0.001727
    115 0.031729 -1.141298 0.054932 -1.091808 -0.012110 0.006059
    116 -0.963866 -2.785145 -0.085350 -0.011521 -0.037434 0.101211
    117 0.028479 -1.403067 -0.005448 -0.471563 -0.008269 -0.020110
    118 0.021413 -0.946062 0.020046 -0.591871 -0.011769 -0.023801
    119 1.164475 -2.543940 -0.170330 -0.839763 -0.344009 0.135803
    120 0.024032 -1.136855 -0.001725 -0.785833 0.004362 0.041887
    121 0.014898 -0.899614 -0.015942 -0.966253 0.007562 0.048610
    122 -0.586770 -1.264477 0.200161 -0.123442 0.196326 -2.622843
    123 1.557992 0.035243 0.016848 -0.013655 -0.005385 0.702874
    124 1.117947 0.048424 -0.005766 0.004024 -0.019793 -0.149526
    125 -0.139399 -0.111698 0.014397 0.635980 -0.028572 1.346092
    126 -1.295811 8.889960 -0.204276 1.570809 -0.000001 -1.570790
  time 3
    0 -0.002833 -0.697976 -15.300318 0.000000 0.000000 -0.000043
    1 -0.003705 -0.088851 0.612631 1.570801 1.570796 0.000000
    2 -0.564713 -4.015904 1.566239 0.000000 0.000001 3.141592
    3 -0.064035 1.694918 -0.000001 0.000000 0.000000 0.000000
    4 0.676236 1.191122 -1.040430 0.000000 -1.570796 0.000000
    5 0.676235 -0.173693 -1.040429 0.000000 -1.570796 0.000000
    6 0.676236 -1.522763 -1.040429 0.000000 -1.570796 0.000000
    7 0.684514 0.504665 1.254998 -0.000002 -1.570451 0.000000
    8 0.684514 -0.824704 1.254999 -0.000002 -1.570451 0.000000
    9 0.000000 2.215781 3.010640 1.570796 -2.293253 -4.712389
    10 0.000000 -0.674149 3.010639 1.570796 -2.293253 -4.712389
    11 0.565000 -4.015941 1.566662 0.000000 3.141592 0.000000
    12 0.063999 -1.694921 0.000000 0.000000 -0.000001 0.000000
    13 -0.592701 0.173695 1.045670 0.000000 -1.571142 0.000000
    14 -0.592701 1.522763 1.045669 0.000000 -1.571142 0.000000
    15 -0.584427 -0.504663 -1.249530 3.141590 1.570796 0.000000
    16 -0.584426 0.824705 -1.249531 3.141590 1.570796 0.000000
    17 -0.592702 -1.191118 1.045671 0.000000 -1.571142 0.000000
    18 -0.009867 5.508937 0.331835 0.000000 1.570796 0.000000
    19 0.000000 -0.396913 4.361983 3.141592 -1.570796 0.000000
    20 0.995852 -1.693115 -0.000002 0.000000 0.000000 0.000000
    21 0.439213 0.000000 0.000000 0.000000 0.000000 0.000000
    22 -0.168286 -2.668214 0.000000 0.000000 0.000000 -1.570796
    23 -0.868299 4.614312 3.201679 0.000000 0.000000 3.141592
    24 0.864151 4.614213 3.201568 0.000000 -3.141592 0.000000
    25 -9.151853 0.000000 -22.452812 -0.000002 3.141592 -1.570797
    26 0.679067 -0.648700 0.567080 3.141592 0.000001 0.000000
    27 0.000000 -0.000001 0.000000 0.000003 0.000000 0.000000
    28 0.000000 0.000000 0.000000 0.000000 0.000000 0.000000
    29 0.000000 0.000000 0.000000 0.000000 0.000000 0.000000
    30 0.000000 0.000000 0.000000 0.000000 0.000000 0.000000
    31 0.000000 0.000000 0.000000 0.000000 0.000000 0.000000
    32 0.679068 0.672769 0.567080 3.141592 0.000001 0.000000
    33 0.000000 -0.000001 0.000000 0.000003 0.000000 0.000000
    34 0.000000 0.000000 0.000000 0.000000 0.000000 0.000000
    35 0.000000 0.000000 0.000000 0.000000 0.000000 0.000000
    36 0.000000 0.000000 0.000000 0.000000 0.000000 0.000000
    37 0.000000 0.000000 0.000000 0.000000 0.000000 0.000000
    38 0.679065 -1.336178 -0.596495 3.141592 0.000001 0.000000
    39 0.000000 -0.000001 0.000000 0.000003 0.000000 0.000000
    40 0.000000 0.000000 0.000000 0.000000 0.000000 0.000000
    41 0.000000 0.000000 0.000000 0.000000 0.000000 0.000000
    42 0.000000 0.000000 0.000000 0.000000 0.000000 0.000000
    43 0.000000 0.000000 0.000000 0.000000 0.000000 0.000000
    44 0.679066 -0.010668 -0.596489 3.141592 0.000001 0.000000
    45 0.000000 -0.000001 0.000000 0.000003 0.000000 0.000000
    46 0.000000 0.000000 0.000000 0.000000 0.000000 0.000000
    47 0.000000 0.000000 0.000000 0.000000 0.000000 0.000000
    48 0.000000 0.000000 0.000000 0.000000 0.000000 0.000000
    49 0.000000 0.000000 0.000000 0.000000 0.000000 0.000000
    50 0.679067 1.357895 -0.596487 3.141592 0.000001 0.000000
    51 0.000000 -0.000001 0.000000 0.000003 0.000000 0.000000
    52 0.000000 0.000000 0.000000 0.000000 0.000000 0.000000
    53 0.000000 0.000000 0.000000 0.000000 0.000000 0.000000
    54 0.000000 0.000000 0.000000 0.000000 0.000000 0.000000
    55 0.000000 0.000000 0.000000 0.000000 0.000000 0.000000
    56 -0.656619 -0.643710 0.567078 0.000000 0.000001 3.141592
    57 0.000000 -0.000001 -0.000002 0.000003 0.000000 0.000000
    58 0.000000 0.000000 0.000000 0.000000 0.000000 0.000000
    59 0.000000 0.000000 0.000000 0.000000 0.000000 0.000000
    60 0.000000 0.000000 0.000000 0.000000 0.000000 0.000000
    61 0.000000 0.000000 0.000000 0.000000 0.000000 0.000000
    62 -0.656619 0.677758 0.567081 0.000000 0.000001 3.141592
    63 0.000000 -0.000001 0.000000 0.000003 0.000000 0.000000
    64 0.000000 0.000000 0.000000 0.000000 0.000000 0.000000
    65 0.000000 0.000000 0.000000 0.000000 0.000000 0.000000
    66 0.000000 0.000000 0.000000 0.000000 0.000000 0.000000
    67 0.000000 0.000000 0.000000 0.000000 0.000000 0.000000
    68 -0.656617 -1.331188 -0.596495 0.000000 0.000001 3.141592
    69 0.000000 -0.000001 -0.000002 0.000003 0.000000 0.000000
    70 0.000000 0.000000 0.000000 0.000000 0.000000 0.000000
    71 0.000000 0.000000 0.000000 0.000000 0.000000 0.000000
    72 0.000000 0.000000 0.000000 0.000000 0.000000 0.000000
    73 0.000000 0.000000 0.000000 0.000000 0.000000 0.000000
    74 -0.656618 -0.005678 -0.596489 0.000000 0.000001 3.141592
    75 0.000000 -0.000001 0.000000 0.000003 0.000000 0.000000
    76 0.000000 0.000000 0.000000 0.000000 0.000000 0.000000
    77 0.000000 0.000000 0.000000 0.000000 0.000000 0.000000
    78 0.000000 0.000000 0.000000 0.000000 0.000000 0.000000
    79 0.000000 0.000000 0.000000 0.000000 0.000000 0.000000
    80 -0.656615 1.362884 -0.596487 0.000000 0.000001 3.141592
    81 0.000000 -0.000001 0.000000 0.000003 0.000000 0.000000
    82 0.000000 0.000000 0.000000 0.000000 0.000000 0.000000
    83 0.000000 0.000000 0.000000 0.000000 0.000000 0.000000
    84 0.000000 0.000000 0.000000 0.000000 0.000000 0.000000
    85 0.000000 0.000000 0.000000 0.000000 0.000000 0.000000
    86 -22.515255 -14.055544 -0.798508 1.570796 0.000000 -1.570796
    87 -24.677761 16.758575 -1.251462 1.570796 0.000000 -1.570796
    88 -0.002752 -0.696599 -15.304535 0.000000 0.000000 -0.000043
    89 3.806029 12.134512 -1.233394 6.229045 -2.062258 -0.244229
    90 3.448653 9.395416 -0.282623 1.545838 -3.132837 1.309107
    91 0.010113 -8.498736 -0.068977 0.144224 0.662533 0.173639
    92 -0.488518 -2.755602 -0.228260 -0.854769 -0.065650 -0.331400
    93 0.039887 -1.546198 0.022041 -1.871391 -0.006663 0.041767
    94 0.028786 -1.087450 -0.062173 -0.318681 -0.007023 0.004902
    95 0.250027 -2.820665 -0.238396 -0.552653 -0.155197 -0.177390
    96 -0.049759 -1.594604 0.022352 -1.692609 -0.002732 -0.044381
    97 -0.034142 -1.163937 0.049625 -0.998466 0.007910 -0.025959
    98 0.957766 -2.746780 -0.090302 0.165424 -0.223746 0.095945
    99 -0.033420 -1.397129 -0.015163 -0.248262 0.005789 -0.011866
    100 -0.022360 -0.957436 0.010971 -0.329891 0.006604 -0.015424
    101 -1.180681 -2.507217 -0.193859 -0.988602 0.140810 -0.391040
    102 -0.024967 -1.127840 0.017597 -1.364398 -0.005129 -0.056674
    103 -0.020057 -0.902687 0.021809 -0.713798 0.007922 -0.028176
    104 0.606948 -1.197277 0.185379 0.455111 -0.925243 -0.684416
    105 1.426549 -0.267106 0.087043 0.093188 -0.260641 -1.002736
    106 1.053895 -0.140009 0.028385 0.033433 -0.179999 -0.730272
    107 0.120153 -0.050270 -0.054489 0.287569 3.110905 1.561085
    108 -3.751344 4.464349 -4.528765 -0.877067 -5.167795 -0.426037
    109 -0.008528 -8.426980 0.033605 -0.132294 -0.773278 0.215614
    110 0.447953 -2.798986 -0.200443 -0.928571 -0.223099 0.202211
    111 -0.032909 -1.491923 0.008846 -0.635164 0.014513 -0.007381
    112 -0.027022 -1.127703 -0.020210 -1.224260 0.024233 -0.022076
    113 -0.249534 -2.846964 -0.174213 -0.434857 -0.182998 0.147751
    114 0.043235 -1.660503 0.080387 -1.017380 -0.016688 0.001727
    115 0.031729 -1.141298 0.054932 -1.091808 -0.012110 0.006059
    116 -0.963866 -2.785145 -0.085350 -0.011521 -0.037434 0.101211
    117 0.028479 -1.403067 -0.005448 -0.471563 -0.008269 -0.020110
    118 0.021413 -0.946062 0.020046 -0.591871 -0.011769 -0.023801
    119 1.164475 -2.543940 -0.170330 -0.839763 -0.344009 0.135803
    120 0.024032 -1.136855 -0.001725 -0.785833 0.004362 0.041887
    121 0.014898 -0.899614 -0.015942 -0.966253 0.007562 0.048610
    122 -0.586770 -1.264477 0.200161 -0.123442 0.196326 -2.622843
    123 1.557992 0.035243 0.016848 -0.013655 -0.005385 0.702874
    124 1.117947 0.048424 -0.005766 0.004024 -0.019793 -0.149526
    125 -0.139399 -0.111698 0.014397 0.635980 -0.028572 1.346092
    126 -1.295811 8.889960 -0.204276 1.570809 -0.000001 -1.570790
  time 4
    0 -0.002833 -0.697976 -15.300318 0.000000 0.000000 -0.000043
    1 -0.003705 -0.088851 0.612631 1.570801 1.570796 0.000000
    2 -0.564713 -4.015904 1.566239 0.000000 0.000001 3.141592
    3 -0.064035 1.694918 -0.000001 0.000000 0.000000 0.000000
    4 0.676236 1.191122 -1.040430 0.000000 -1.570796 0.000000
    5 0.676235 -0.173693 -1.040429 0.000000 -1.570796 0.000000
    6 0.676236 -1.522763 -1.040429 0.000000 -1.570796 0.000000
    7 0.684514 0.504665 1.254998 -0.000002 -1.570451 0.000000
    8 0.684514 -0.824704 1.254999 -0.000002 -1.570451 0.000000
    9 0.000000 2.215781 3.010640 1.570796 -2.293253 -4.712389
    10 0.000000 -0.674149 3.010639 1.570796 -2.293253 -4.712389
    11 0.565000 -4.015941 1.566662 0.000000 3.141592 0.000000
    12 0.063999 -1.694921 0.000000 0.000000 -0.000001 0.000000
    13 -0.592701 0.173695 1.045670 0.000000 -1.571142 0.000000
    14 -0.592701 1.522763 1.045669 0.000000 -1.571142 0.000000
    15 -0.584427 -0.504663 -1.249530 3.141590 1.570796 0.000000
    16 -0.584426 0.824705 -1.249531 3.141590 1.570796 0.000000
    17 -0.592702 -1.191118 1.045671 0.000000 -1.571142 0.000000
    18 -0.009867 5.508937 0.331835 0.000000 1.570796 0.000000
    19 0.000000 -0.396913 4.361983 3.141592 -1.570796 0.000000
    20 0.995852 -1.693115 -0.000002 0.000000 0.000000 0.000000
    21 0.439213 0.000000 0.000000 0.000000 0.000000 0.000000
    22 -0.168286 -2.668214 0.000000 0.000000 0.000000 -1.570796
    23 -0.868299 4.614312 3.201679 0.000000 0.000000 3.141592
    24 0.864151 4.614213 3.201568 0.000000 -3.141592 0.000000
    25 -9.151853 0.000000 -22.452812 -0.000002 3.141592 -1.570797
    26 0.679067 -0.648700 0.567080 3.141592 0.000001 0.000000
    27 0.000000 -0.000001 0.000000 0.000003 0.000000 0.000000
    28 0.000000 0.000000 0.000000 0.000000 0.000000 0.000000
    29 0.000000 0.000000 0.000000 0.000000 0.000000 0.000000
    30 0.000000 0.000000 0.000000 0.000000 0.000000 0.000000
    31 0.000000 0.000000 0.000000 0.000000 0.000000 0.000000
    32 0.679068 0.672769 0.567080 3.141592 0.000001 0.000000
    33 0.000000 -0.000001 0.000000 0.000003 0.000000 0.000000
    34 0.000000 0.000000 0.000000 0.000000 0.000000 0.000000
    35 0.000000 0.000000 0.000000 0.000000 0.000000 0.000000
    36 0.000000 0.000000 0.000000 0.000000 0.000000 0.000000
    37 0.000000 0.000000 0.000000 0.000000 0.000000 0.000000
    38 0.679065 -1.336178 -0.596495 3.141592 0.000001 0.000000
    39 0.000000 -0.000001 0.000000 0.000003 0.000000 0.000000
    40 0.000000 0.000000 0.000000 0.000000 0.000000 0.000000
    41 0.000000 0.000000 0.000000 0.000000 0.000000 0.000000
    42 0.000000 0.000000 0.000000 0.000000 0.000000 0.000000
    43 0.000000 0.000000 0.000000 0.000000 0.000000 0.000000
    44 0.679066 -0.010668 -0.596489 3.141592 0.000001 0.000000
    45 0.000000 -0.000001 0.000000 0.000003 0.000000 0.000000
    46 0.000000 0.000000 0.000000 0.000000 0.000000 0.000000
    47 0.000000 0.000000 0.000000 0.000000 0.000000 0.000000
    48 0.000000 0.000000 0.000000 0.000000 0.000000 0.000000
    49 0.000000 0.000000 0.000000 0.000000 0.000000 0.000000
    50 0.679067 1.357895 -0.596487 3.141592 0.000001 0.000000
    51 0.000000 -0.000001 0.000000 0.000003 0.000000 0.000000
    52 0.000000 0.000000 0.000000 0.000000 0.000000 0.000000
    53 0.000000 0.000000 0.000000 0.000000 0.000000 0.000000
    54 0.000000 0.000000 0.000000 0.000000 0.000000 0.000000
    55 0.000000 0.000000 0.000000 0.000000 0.000000 0.000000
    56 -0.656619 -0.643710 0.567078 0.000000 0.000001 3.141592
    57 0.000000 -0.000001 -0.000002 0.000003 0.000000 0.000000
    58 0.000000 0.000000 0.000000 0.000000 0.000000 0.000000
    59 0.000000 0.000000 0.000000 0.000000 0.000000 0.000000
    60 0.000000 0.000000 0.000000 0.000000 0.000000 0.000000
    61 0.000000 0.000000 0.000000 0.000000 0.000000 0.000000
    62 -0.656619 0.677758 0.567081 0.000000 0.000001 3.141592
    63 0.000000 -0.000001 0.000000 0.000003 0.000000 0.000000
    64 0.000000 0.000000 0.000000 0.000000 0.000000 0.000000
    65 0.000000 0.000000 0.000000 0.000000 0.000000 0.000000
    66 0.000000 0.000000 0.000000 0.000000 0.000000 0.000000
    67 0.000000 0.000000 0.000000 0.000000 0.000000 0.000000
    68 -0.656617 -1.331188 -0.596495 0.000000 0.000001 3.141592
    69 0.000000 -0.000001 -0.000002 0.000003 0.000000 0.000000
    70 0.000000 0.000000 0.000000 0.000000 0.000000 0.000000
    71 0.000000 0.000000 0.000000 0.000000 0.000000 0.000000
    72 0.000000 0.000000 0.000000 0.000000 0.000000 0.000000
    73 0.000000 0.000000 0.000000 0.000000 0.000000 0.000000
    74 -0.656618 -0.005678 -0.596489 0.000000 0.000001 3.141592
    75 0.000000 -0.000001 0.000000 0.000003 0.000000 0.000000
    76 0.000000 0.000000 0.000000 0.000000 0.000000 0.000000
    77 0.000000 0.000000 0.000000 0.000000 0.000000 0.000000
    78 0.000000 0.000000 0.000000 0.000000 0.000000 0.000000
    79 0.000000 0.000000 0.000000 0.000000 0.000000 0.000000
    80 -0.656615 1.362884 -0.596487 0.000000 0.000001 3.141592
    81 0.000000 -0.000001 0.000000 0.000003 0.000000 0.000000
    82 0.000000 0.000000 0.000000 0.000000 0.000000 0.000000
    83 0.000000 0.000000 0.000000 0.000000 0.000000 0.000000
    84 0.000000 0.000000 0.000000 0.000000 0.000000 0.000000
    85 0.000000 0.000000 0.000000 0.000000 0.000000 0.000000
    86 -22.515255 -14.055544 -0.798508 1.570796 0.000000 -1.570796
    87 -24.677761 16.758575 -1.251462 1.570796 0.000000 -1.570796
    88 -0.002752 -0.696599 -15.304535 0.000000 0.000000 -0.000043
    89 3.806029 12.134512 -1.233394 6.229045 -2.062258 -0.244229
    90 3.448653 9.395416 -0.282623 1.545838 -3.132837 1.309107
    91 0.010113 -8.498736 -0.068977 0.144224 0.662533 0.173639
    92 -0.488518 -2.755602 -0.228260 -0.854769 -0.065650 -0.331400
    93 0.039887 -1.546198 0.022041 -1.871391 -0.006663 0.041767
    94 0.028786 -1.087450 -0.062173 -0.318681 -0.007023 0.004902
    95 0.250027 -2.820665 -0.238396 -0.552653 -0.155197 -0.177390
    96 -0.049759 -1.594604 0.022352 -1.692609 -0.002732 -0.044381
    97 -0.034142 -1.163937 0.049625 -0.998466 0.007910 -0.025959
    98 0.957766 -2.746780 -0.090302 0.165424 -0.223746 0.095945
    99 -0.033420 -1.397129 -0.015163 -0.248262 0.005789 -0.011866
    100 -0.022360 -0.957436 0.010971 -0.329891 0.006604 -0.015424
    101 -1.180681 -2.507217 -0.193859 -0.988602 0.140810 -0.391040
    102 -0.024967 -1.127840 0.017597 -1.364398 -0.005129 -0.056674
    103 -0.020057 -0.902687 0.021809 -0.713798 0.007922 -0.028176
    104 0.606948 -1.197277 0.185379 0.455111 -0.925243 -0.684416
    105 1.426549 -0.267106 0.087043 0.093188 -0.260641 -1.002736
    106 1.053895 -0.140009 0.028385 0.033433 -0.179999 -0.730272
    107 0.120153 -0.050270 -0.054489 0.287569 3.110905 1.561085
    108 -3.751344 4.464349 -4.528765 -0.877067 -5.167795 -0.426037
    109 -0.008528 -8.426980 0.033605 -0.132294 -0.773278 0.215614
    110 0.447953 -2.798986 -0.200443 -0.928571 -0.223099 0.202211
    111 -0.032909 -1.491923 0.008846 -0.635164 0.014513 -0.007381
    112 -0.027022 -1.127703 -0.020210 -1.224260 0.024233 -0.022076
    113 -0.249534 -2.846964 -0.174213 -0.434857 -0.182998 0.147751
    114 0.043235 -1.660503 0.080387 -1.017380 -0.016688 0.001727
    115 0.031729 -1.141298 0.054932 -1.091808 -0.012110 0.006059
    116 -0.963866 -2.785145 -0.085350 -0.011521 -0.037434 0.101211
    117 0.028479 -1.403067 -0.005448 -0.471563 -0.008269 -0.020110
    118 0.021413 -0.946062 0.020046 -0.591871 -0.011769 -0.023801
    119 1.164475 -2.543940 -0.170330 -0.839763 -0.344009 0.135803
    120 0.024032 -1.136855 -0.001725 -0.785833 0.004362 0.041887
    121 0.014898 -0.899614 -0.015942 -0.966253 0.007562 0.048610
    122 -0.586770 -1.264477 0.200161 -0.123442 0.196326 -2.622843
    123 1.557992 0.035243 0.016848 -0.013655 -0.005385 0.702874
    124 1.117947 0.048424 -0.005766 0.004024 -0.019793 -0.149526
    125 -0.139399 -0.111698 0.014397 0.635980 -0.028572 1.346092
    126 -1.295811 8.889960 -0.204276 1.570809 -0.000001 -1.570790
  time 5
    0 -0.002833 -0.697976 -15.300318 0.000000 0.000000 -0.000043
    1 -0.003705 -0.088851 0.612631 1.570801 1.570796 0.000000
    2 -0.564713 -4.015904 1.566239 0.000000 0.000001 3.141592
    3 -0.064035 1.694918 -0.000001 0.000000 0.000000 0.000000
    4 0.676236 1.191122 -1.040430 0.000000 -1.570796 0.000000
    5 0.676235 -0.173693 -1.040429 0.000000 -1.570796 0.000000
    6 0.676236 -1.522763 -1.040429 0.000000 -1.570796 0.000000
    7 0.684514 0.504665 1.254998 -0.000002 -1.570451 0.000000
    8 0.684514 -0.824704 1.254999 -0.000002 -1.570451 0.000000
    9 0.000000 2.215781 3.010640 1.570796 -2.293253 -4.712389
    10 0.000000 -0.674149 3.010639 1.570796 -2.293253 -4.712389
    11 0.565000 -4.015941 1.566662 0.000000 3.141592 0.000000
    12 0.063999 -1.694921 0.000000 0.000000 -0.000001 0.000000
    13 -0.592701 0.173695 1.045670 0.000000 -1.571142 0.000000
    14 -0.592701 1.522763 1.045669 0.000000 -1.571142 0.000000
    15 -0.584427 -0.504663 -1.249530 3.141590 1.570796 0.000000
    16 -0.584426 0.824705 -1.249531 3.141590 1.570796 0.000000
    17 -0.592702 -1.191118 1.045671 0.000000 -1.571142 0.000000
    18 -0.009867 5.508937 0.331835 0.000000 1.570796 0.000000
    19 0.000000 -0.396913 4.361983 3.141592 -1.570796 0.000000
    20 0.995852 -1.693115 -0.000002 0.000000 0.000000 0.000000
    21 0.439213 0.000000 0.000000 0.000000 0.000000 0.000000
    22 -0.168286 -2.668214 0.000000 0.000000 0.000000 -1.570796
    23 -0.868299 4.614312 3.201679 0.000000 0.000000 3.141592
    24 0.864151 4.614213 3.201568 0.000000 -3.141592 0.000000
    25 -9.151853 0.000000 -22.452812 -0.000002 3.141592 -1.570797
    26 0.679067 -0.648700 0.567080 3.141592 0.000001 0.000000
    27 0.000000 -0.000001 0.000000 0.000003 0.000000 0.000000
    28 0.000000 0.000000 0.000000 0.000000 0.000000 0.000000
    29 0.000000 0.000000 0.000000 0.000000 0.000000 0.000000
    30 0.000000 0.000000 0.000000 0.000000 0.000000 0.000000
    31 0.000000 0.000000 0.000000 0.000000 0.000000 0.000000
    32 0.679068 0.672769 0.567080 3.141592 0.000001 0.000000
    33 0.000000 -0.000001 0.000000 0.000003 0.000000 0.000000
    34 0.000000 0.000000 0.000000 0.000000 0.000000 0.000000
    35 0.000000 0.000000 0.000000 0.000000 0.000000 0.000000
    36 0.000000 0.000000 0.000000 0.000000 0.000000 0.000000
    37 0.000000 0.000000 0.000000 0.000000 0.000000 0.000000
    38 0.679065 -1.336178 -0.596495 3.141592 0.000001 0.000000
    39 0.000000 -0.000001 0.000000 0.000003 0.000000 0.000000
    40 0.000000 0.000000 0.000000 0.000000 0.000000 0.000000
    41 0.000000 0.000000 0.000000 0.000000 0.000000 0.000000
    42 0.000000 0.000000 0.000000 0.000000 0.000000 0.000000
    43 0.000000 0.000000 0.000000 0.000000 0.000000 0.000000
    44 0.679066 -0.010668 -0.596489 3.141592 0.000001 0.000000
    45 0.000000 -0.000001 0.000000 0.000003 0.000000 0.000000
    46 0.000000 0.000000 0.000000 0.000000 0.000000 0.000000
    47 0.000000 0.000000 0.000000 0.000000 0.000000 0.000000
    48 0.000000 0.000000 0.000000 0.000000 0.000000 0.000000
    49 0.000000 0.000000 0.000000 0.000000 0.000000 0.000000
    50 0.679067 1.357895 -0.596487 3.141592 0.000001 0.000000
    51 0.000000 -0.000001 0.000000 0.000003 0.000000 0.000000
    52 0.000000 0.000000 0.000000 0.000000 0.000000 0.000000
    53 0.000000 0.000000 0.000000 0.000000 0.000000 0.000000
    54 0.000000 0.000000 0.000000 0.000000 0.000000 0.000000
    55 0.000000 0.000000 0.000000 0.000000 0.000000 0.000000
    56 -0.656619 -0.643710 0.567078 0.000000 0.000001 3.141592
    57 0.000000 -0.000001 -0.000002 0.000003 0.000000 0.000000
    58 0.000000 0.000000 0.000000 0.000000 0.000000 0.000000
    59 0.000000 0.000000 0.000000 0.000000 0.000000 0.000000
    60 0.000000 0.000000 0.000000 0.000000 0.000000 0.000000
    61 0.000000 0.000000 0.000000 0.000000 0.000000 0.000000
    62 -0.656619 0.677758 0.567081 0.000000 0.000001 3.141592
    63 0.000000 -0.000001 0.000000 0.000003 0.000000 0.000000
    64 0.000000 0.000000 0.000000 0.000000 0.000000 0.000000
    65 0.000000 0.000000 0.000000 0.000000 0.000000 0.000000
    66 0.000000 0.000000 0.000000 0.000000 0.000000 0.000000
    67 0.000000 0.000000 0.000000 0.000000 0.000000 0.000000
    68 -0.656617 -1.331188 -0.596495 0.000000 0.000001 3.141592
    69 0.000000 -0.000001 -0.000002 0.000003 0.000000 0.000000
    70 0.000000 0.000000 0.000000 0.000000 0.000000 0.000000
    71 0.000000 0.000000 0.000000 0.000000 0.000000 0.000000
    72 0.000000 0.000000 0.000000 0.000000 0.000000 0.000000
    73 0.000000 0.000000 0.000000 0.000000 0.000000 0.000000
    74 -0.656618 -0.005678 -0.596489 0.000000 0.000001 3.141592
    75 0.000000 -0.000001 0.000000 0.000003 0.000000 0.000000
    76 0.000000 0.000000 0.000000 0.000000 0.000000 0.000000
    77 0.000000 0.000000 0.000000 0.000000 0.000000 0.000000
    78 0.000000 0.000000 0.000000 0.000000 0.000000 0.000000
    79 0.000000 0.000000 0.000000 0.000000 0.000000 0.000000
    80 -0.656615 1.362884 -0.596487 0.000000 0.000001 3.141592
    81 0.000000 -0.000001 0.000000 0.000003 0.000000 0.000000
    82 0.000000 0.000000 0.000000 0.000000 0.000000 0.000000
    83 0.000000 0.000000 0.000000 0.000000 0.000000 0.000000
    84 0.000000 0.000000 0.000000 0.000000 0.000000 0.000000
    85 0.000000 0.000000 0.000000 0.000000 0.000000 0.000000
    86 -22.515255 -14.055544 -0.798508 1.570796 0.000000 -1.570796
    87 -24.677761 16.758575 -1.251462 1.570796 0.000000 -1.570796
    88 -0.002752 -0.696599 -15.304535 0.000000 0.000000 -0.000043
    89 3.806029 12.134512 -1.233394 6.229045 -2.062258 -0.244229
    90 3.448653 9.395416 -0.282623 1.545838 -3.132837 1.309107
    91 0.010113 -8.498736 -0.068977 0.144224 0.662533 0.173639
    92 -0.488518 -2.755602 -0.228260 -0.854769 -0.065650 -0.331400
    93 0.039887 -1.546198 0.022041 -1.871391 -0.006663 0.041767
    94 0.028786 -1.087450 -0.062173 -0.318681 -0.007023 0.004902
    95 0.250027 -2.820665 -0.238396 -0.552653 -0.155197 -0.177390
    96 -0.049759 -1.594604 0.022352 -1.692609 -0.002732 -0.044381
    97 -0.034142 -1.163937 0.049625 -0.998466 0.007910 -0.025959
    98 0.957766 -2.746780 -0.090302 0.165424 -0.223746 0.095945
    99 -0.033420 -1.397129 -0.015163 -0.248262 0.005789 -0.011866
    100 -0.022360 -0.957436 0.010971 -0.329891 0.006604 -0.015424
    101 -1.180681 -2.507217 -0.193859 -0.988602 0.140810 -0.391040
    102 -0.024967 -1.127840 0.017597 -1.364398 -0.005129 -0.056674
    103 -0.020057 -0.902687 0.021809 -0.713798 0.007922 -0.028176
    104 0.606948 -1.197277 0.185379 0.455111 -0.925243 -0.684416
    105 1.426549 -0.267106 0.087043 0.093188 -0.260641 -1.002736
    106 1.053895 -0.140009 0.028385 0.033433 -0.179999 -0.730272
    107 0.120153 -0.050270 -0.054489 0.287569 3.110905 1.561085
    108 -3.751344 4.464349 -4.528765 -0.877067 -5.167795 -0.426037
    109 -0.008528 -8.426980 0.033605 -0.132294 -0.773278 0.215614
    110 0.447953 -2.798986 -0.200443 -0.928571 -0.223099 0.202211
    111 -0.032909 -1.491923 0.008846 -0.635164 0.014513 -0.007381
    112 -0.027022 -1.127703 -0.020210 -1.224260 0.024233 -0.022076
    113 -0.249534 -2.846964 -0.174213 -0.434857 -0.182998 0.147751
    114 0.043235 -1.660503 0.080387 -1.017380 -0.016688 0.001727
    115 0.031729 -1.141298 0.054932 -1.091808 -0.012110 0.006059
    116 -0.963866 -2.785145 -0.085350 -0.011521 -0.037434 0.101211
    117 0.028479 -1.403067 -0.005448 -0.471563 -0.008269 -0.020110
    118 0.021413 -0.946062 0.020046 -0.591871 -0.011769 -0.023801
    119 1.164475 -2.543940 -0.170330 -0.839763 -0.344009 0.135803
    120 0.024032 -1.136855 -0.001725 -0.785833 0.004362 0.041887
    121 0.014898 -0.899614 -0.015942 -0.966253 0.007562 0.048610
    122 -0.586770 -1.264477 0.200161 -0.123442 0.196326 -2.622843
    123 1.557992 0.035243 0.016848 -0.013655 -0.005385 0.702874
    124 1.117947 0.048424 -0.005766 0.004024 -0.019793 -0.149526
    125 -0.139399 -0.111698 0.014397 0.635980 -0.028572 1.346092
    126 -1.295811 8.889960 -0.204276 1.570809 -0.000001 -1.570790
  time 6
    0 -0.002833 -0.697976 -15.300318 0.000000 0.000000 -0.000043
    1 -0.003705 -0.088851 0.612631 1.570801 1.570796 0.000000
    2 -0.564713 -4.015904 1.566239 0.000000 0.000001 3.141592
    3 -0.064035 1.694918 -0.000001 0.000000 0.000000 0.000000
    4 0.676236 1.191122 -1.040430 0.000000 -1.570796 0.000000
    5 0.676235 -0.173693 -1.040429 0.000000 -1.570796 0.000000
    6 0.676236 -1.522763 -1.040429 0.000000 -1.570796 0.000000
    7 0.684514 0.504665 1.254998 -0.000002 -1.570451 0.000000
    8 0.684514 -0.824704 1.254999 -0.000002 -1.570451 0.000000
    9 0.000000 2.215781 3.010640 1.570796 -2.293253 -4.712389
    10 0.000000 -0.674149 3.010639 1.570796 -2.293253 -4.712389
    11 0.565000 -4.015941 1.566662 0.000000 3.141592 0.000000
    12 0.063999 -1.694921 0.000000 0.000000 -0.000001 0.000000
    13 -0.592701 0.173695 1.045670 0.000000 -1.571142 0.000000
    14 -0.592701 1.522763 1.045669 0.000000 -1.571142 0.000000
    15 -0.584427 -0.504663 -1.249530 3.141590 1.570796 0.000000
    16 -0.584426 0.824705 -1.249531 3.141590 1.570796 0.000000
    17 -0.592702 -1.191118 1.045671 0.000000 -1.571142 0.000000
    18 -0.009867 5.508937 0.331835 0.000000 1.570796 0.000000
    19 0.000000 -0.396913 4.361983 3.141592 -1.570796 0.000000
    20 0.995852 -1.693115 -0.000002 0.000000 0.000000 0.000000
    21 0.439213 0.000000 0.000000 0.000000 0.000000 0.000000
    22 -0.168286 -2.668214 0.000000 0.000000 0.000000 -1.570796
    23 -0.868299 4.614312 3.201679 0.000000 0.000000 3.141592
    24 0.864151 4.614213 3.201568 0.000000 -3.141592 0.000000
    25 -9.151853 0.000000 -22.452812 -0.000002 3.141592 -1.570797
    26 0.679067 -0.648700 0.567080 3.141592 0.000001 0.000000
    27 0.000000 -0.000001 0.000000 0.000003 0.000000 0.000000
    28 0.000000 0.000000 0.000000 0.000000 0.000000 0.000000
    29 0.000000 0.000000 0.000000 0.000000 0.000000 0.000000
    30 0.000000 0.000000 0.000000 0.000000 0.000000 0.000000
    31 0.000000 0.000000 0.000000 0.000000 0.000000 0.000000
    32 0.679068 0.672769 0.567080 3.141592 0.000001 0.000000
    33 0.000000 -0.000001 0.000000 0.000003 0.000000 0.000000
    34 0.000000 0.000000 0.000000 0.000000 0.000000 0.000000
    35 0.000000 0.000000 0.000000 0.000000 0.000000 0.000000
    36 0.000000 0.000000 0.000000 0.000000 0.000000 0.000000
    37 0.000000 0.000000 0.000000 0.000000 0.000000 0.000000
    38 0.679065 -1.336178 -0.596495 3.141592 0.000001 0.000000
    39 0.000000 -0.000001 0.000000 0.000003 0.000000 0.000000
    40 0.000000 0.000000 0.000000 0.000000 0.000000 0.000000
    41 0.000000 0.000000 0.000000 0.000000 0.000000 0.000000
    42 0.000000 0.000000 0.000000 0.000000 0.000000 0.000000
    43 0.000000 0.000000 0.000000 0.000000 0.000000 0.000000
    44 0.679066 -0.010668 -0.596489 3.141592 0.000001 0.000000
    45 0.000000 -0.000001 0.000000 0.000003 0.000000 0.000000
    46 0.000000 0.000000 0.000000 0.000000 0.000000 0.000000
    47 0.000000 0.000000 0.000000 0.000000 0.000000 0.000000
    48 0.000000 0.000000 0.000000 0.000000 0.000000 0.000000
    49 0.000000 0.000000 0.000000 0.000000 0.000000 0.000000
    50 0.679067 1.357895 -0.596487 3.141592 0.000001 0.000000
    51 0.000000 -0.000001 0.000000 0.000003 0.000000 0.000000
    52 0.000000 0.000000 0.000000 0.000000 0.000000 0.000000
    53 0.000000 0.000000 0.000000 0.000000 0.000000 0.000000
    54 0.000000 0.000000 0.000000 0.000000 0.000000 0.000000
    55 0.000000 0.000000 0.000000 0.000000 0.000000 0.000000
    56 -0.656619 -0.643710 0.567078 0.000000 0.000001 3.141592
    57 0.000000 -0.000001 -0.000002 0.000003 0.000000 0.000000
    58 0.000000 0.000000 0.000000 0.000000 0.000000 0.000000
    59 0.000000 0.000000 0.000000 0.000000 0.000000 0.000000
    60 0.000000 0.000000 0.000000 0.000000 0.000000 0.000000
    61 0.000000 0.000000 0.000000 0.000000 0.000000 0.000000
    62 -0.656619 0.677758 0.567081 0.000000 0.000001 3.141592
    63 0.000000 -0.000001 0.000000 0.000003 0.000000 0.000000
    64 0.000000 0.000000 0.000000 0.000000 0.000000 0.000000
    65 0.000000 0.000000 0.000000 0.000000 0.000000 0.000000
    66 0.000000 0.000000 0.000000 0.000000 0.000000 0.000000
    67 0.000000 0.000000 0.000000 0.000000 0.000000 0.000000
    68 -0.656617 -1.331188 -0.596495 0.000000 0.000001 3.141592
    69 0.000000 -0.000001 -0.000002 0.000003 0.000000 0.000000
    70 0.000000 0.000000 0.000000 0.000000 0.000000 0.000000
    71 0.000000 0.000000 0.000000 0.000000 0.000000 0.000000
    72 0.000000 0.000000 0.000000 0.000000 0.000000 0.000000
    73 0.000000 0.000000 0.000000 0.000000 0.000000 0.000000
    74 -0.656618 -0.005678 -0.596489 0.000000 0.000001 3.141592
    75 0.000000 -0.000001 0.000000 0.000003 0.000000 0.000000
    76 0.000000 0.000000 0.000000 0.000000 0.000000 0.000000
    77 0.000000 0.000000 0.000000 0.000000 0.000000 0.000000
    78 0.000000 0.000000 0.000000 0.000000 0.000000 0.000000
    79 0.000000 0.000000 0.000000 0.000000 0.000000 0.000000
    80 -0.656615 1.362884 -0.596487 0.000000 0.000001 3.141592
    81 0.000000 -0.000001 0.000000 0.000003 0.000000 0.000000
    82 0.000000 0.000000 0.000000 0.000000 0.000000 0.000000
    83 0.000000 0.000000 0.000000 0.000000 0.000000 0.000000
    84 0.000000 0.000000 0.000000 0.000000 0.000000 0.000000
    85 0.000000 0.000000 0.000000 0.000000 0.000000 0.000000
    86 -22.515255 -14.055544 -0.798508 1.570796 0.000000 -1.570796
    87 -24.677761 16.758575 -1.251462 1.570796 0.000000 -1.570796
    88 -0.002752 -0.696599 -15.304535 0.000000 0.000000 -0.000043
    89 3.806029 12.134512 -1.233394 6.229045 -2.062258 -0.244229
    90 3.448653 9.395416 -0.282623 1.545838 -3.132837 1.309107
    91 0.010113 -8.498736 -0.068977 0.144224 0.662533 0.173639
    92 -0.488518 -2.755602 -0.228260 -0.854769 -0.065650 -0.331400
    93 0.039887 -1.546198 0.022041 -1.871391 -0.006663 0.041767
    94 0.028786 -1.087450 -0.062173 -0.318681 -0.007023 0.004902
    95 0.250027 -2.820665 -0.238396 -0.552653 -0.155197 -0.177390
    96 -0.049759 -1.594604 0.022352 -1.692609 -0.002732 -0.044381
    97 -0.034142 -1.163937 0.049625 -0.998466 0.007910 -0.025959
    98 0.957766 -2.746780 -0.090302 0.165424 -0.223746 0.095945
    99 -0.033420 -1.397129 -0.015163 -0.248262 0.005789 -0.011866
    100 -0.022360 -0.957436 0.010971 -0.329891 0.006604 -0.015424
    101 -1.180681 -2.507217 -0.193859 -0.988602 0.140810 -0.391040
    102 -0.024967 -1.127840 0.017597 -1.364398 -0.005129 -0.056674
    103 -0.020057 -0.902687 0.021809 -0.713798 0.007922 -0.028176
    104 0.606948 -1.197277 0.185379 0.455111 -0.925243 -0.684416
    105 1.426549 -0.267106 0.087043 0.093188 -0.260641 -1.002736
    106 1.053895 -0.140009 0.028385 0.033433 -0.179999 -0.730272
    107 0.120153 -0.050270 -0.054489 0.287569 3.110905 1.561085
    108 -3.751344 4.464349 -4.528765 -0.877067 -5.167795 -0.426037
    109 -0.008528 -8.426980 0.033605 -0.132294 -0.773278 0.215614
    110 0.447953 -2.798986 -0.200443 -0.928571 -0.223099 0.202211
    111 -0.032909 -1.491923 0.008846 -0.635164 0.014513 -0.007381
    112 -0.027022 -1.127703 -0.020210 -1.224260 0.024233 -0.022076
    113 -0.249534 -2.846964 -0.174213 -0.434857 -0.182998 0.147751
    114 0.043235 -1.660503 0.080387 -1.017380 -0.016688 0.001727
    115 0.031729 -1.141298 0.054932 -1.091808 -0.012110 0.006059
    116 -0.963866 -2.785145 -0.085350 -0.011521 -0.037434 0.101211
    117 0.028479 -1.403067 -0.005448 -0.471563 -0.008269 -0.020110
    118 0.021413 -0.946062 0.020046 -0.591871 -0.011769 -0.023801
    119 1.164475 -2.543940 -0.170330 -0.839763 -0.344009 0.135803
    120 0.024032 -1.136855 -0.001725 -0.785833 0.004362 0.041887
    121 0.014898 -0.899614 -0.015942 -0.966253 0.007562 0.048610
    122 -0.586770 -1.264477 0.200161 -0.123442 0.196326 -2.622843
    123 1.557992 0.035243 0.016848 -0.013655 -0.005385 0.702874
    124 1.117947 0.048424 -0.005766 0.004024 -0.019793 -0.149526
    125 -0.139399 -0.111698 0.014397 0.635980 -0.028572 1.346092
    126 -1.295811 8.889960 -0.204276 1.570809 -0.000001 -1.570790
  time 7
    0 -0.002833 -0.697976 -15.300318 0.000000 0.000000 -0.000043
    1 -0.003705 -0.088851 0.612631 1.570801 1.570796 0.000000
    2 -0.564713 -4.015904 1.566239 0.000000 0.000001 3.141592
    3 -0.064035 1.694918 -0.000001 0.000000 0.000000 0.000000
    4 0.676236 1.191122 -1.040430 0.000000 -1.570796 0.000000
    5 0.676235 -0.173693 -1.040429 0.000000 -1.570796 0.000000
    6 0.676236 -1.522763 -1.040429 0.000000 -1.570796 0.000000
    7 0.684514 0.504665 1.254998 -0.000002 -1.570451 0.000000
    8 0.684514 -0.824704 1.254999 -0.000002 -1.570451 0.000000
    9 0.000000 2.215781 3.010640 1.570796 -2.293253 -4.712389
    10 0.000000 -0.674149 3.010639 1.570796 -2.293253 -4.712389
    11 0.565000 -4.015941 1.566662 0.000000 3.141592 0.000000
    12 0.063999 -1.694921 0.000000 0.000000 -0.000001 0.000000
    13 -0.592701 0.173695 1.045670 0.000000 -1.571142 0.000000
    14 -0.592701 1.522763 1.045669 0.000000 -1.571142 0.000000
    15 -0.584427 -0.504663 -1.249530 3.141590 1.570796 0.000000
    16 -0.584426 0.824705 -1.249531 3.141590 1.570796 0.000000
    17 -0.592702 -1.191118 1.045671 0.000000 -1.571142 0.000000
    18 -0.009867 5.508937 0.331835 0.000000 1.570796 0.000000
    19 0.000000 -0.396913 4.361983 3.141592 -1.570796 0.000000
    20 0.995852 -1.693115 -0.000002 0.000000 0.000000 0.000000
    21 0.439213 0.000000 0.000000 0.000000 0.000000 0.000000
    22 -0.168286 -2.668214 0.000000 0.000000 0.000000 -1.570796
    23 -0.868299 4.614312 3.201679 0.000000 0.000000 3.141592
    24 0.864151 4.614213 3.201568 0.000000 -3.141592 0.000000
    25 -9.151853 0.000000 -22.452812 -0.000002 3.141592 -1.570797
    26 0.679067 -0.648700 0.567080 3.141592 0.000001 0.000000
    27 0.000000 -0.000001 0.000000 0.000003 0.000000 0.000000
    28 0.000000 0.000000 0.000000 0.000000 0.000000 0.000000
    29 0.000000 0.000000 0.000000 0.000000 0.000000 0.000000
    30 0.000000 0.000000 0.000000 0.000000 0.000000 0.000000
    31 0.000000 0.000000 0.000000 0.000000 0.000000 0.000000
    32 0.679068 0.672769 0.567080 3.141592 0.000001 0.000000
    33 0.000000 -0.000001 0.000000 0.000003 0.000000 0.000000
    34 0.000000 0.000000 0.000000 0.000000 0.000000 0.000000
    35 0.000000 0.000000 0.000000 0.000000 0.000000 0.000000
    36 0.000000 0.000000 0.000000 0.000000 0.000000 0.000000
    37 0.000000 0.000000 0.000000 0.000000 0.000000 0.000000
    38 0.679065 -1.336178 -0.596495 3.141592 0.000001 0.000000
    39 0.000000 -0.000001 0.000000 0.000003 0.000000 0.000000
    40 0.000000 0.000000 0.000000 0.000000 0.000000 0.000000
    41 0.000000 0.000000 0.000000 0.000000 0.000000 0.000000
    42 0.000000 0.000000 0.000000 0.000000 0.000000 0.000000
    43 0.000000 0.000000 0.000000 0.000000 0.000000 0.000000
    44 0.679066 -0.010668 -0.596489 3.141592 0.000001 0.000000
    45 0.000000 -0.000001 0.000000 0.000003 0.000000 0.000000
    46 0.000000 0.000000 0.000000 0.000000 0.000000 0.000000
    47 0.000000 0.000000 0.000000 0.000000 0.000000 0.000000
    48 0.000000 0.000000 0.000000 0.000000 0.000000 0.000000
    49 0.000000 0.000000 0.000000 0.000000 0.000000 0.000000
    50 0.679067 1.357895 -0.596487 3.141592 0.000001 0.000000
    51 0.000000 -0.000001 0.000000 0.000003 0.000000 0.000000
    52 0.000000 0.000000 0.000000 0.000000 0.000000 0.000000
    53 0.000000 0.000000 0.000000 0.000000 0.000000 0.000000
    54 0.000000 0.000000 0.000000 0.000000 0.000000 0.000000
    55 0.000000 0.000000 0.000000 0.000000 0.000000 0.000000
    56 -0.656619 -0.643710 0.567078 0.000000 0.000001 3.141592
    57 0.000000 -0.000001 -0.000002 0.000003 0.000000 0.000000
    58 0.000000 0.000000 0.000000 0.000000 0.000000 0.000000
    59 0.000000 0.000000 0.000000 0.000000 0.000000 0.000000
    60 0.000000 0.000000 0.000000 0.000000 0.000000 0.000000
    61 0.000000 0.000000 0.000000 0.000000 0.000000 0.000000
    62 -0.656619 0.677758 0.567081 0.000000 0.000001 3.141592
    63 0.000000 -0.000001 0.000000 0.000003 0.000000 0.000000
    64 0.000000 0.000000 0.000000 0.000000 0.000000 0.000000
    65 0.000000 0.000000 0.000000 0.000000 0.000000 0.000000
    66 0.000000 0.000000 0.000000 0.000000 0.000000 0.000000
    67 0.000000 0.000000 0.000000 0.000000 0.000000 0.000000
    68 -0.656617 -1.331188 -0.596495 0.000000 0.000001 3.141592
    69 0.000000 -0.000001 -0.000002 0.000003 0.000000 0.000000
    70 0.000000 0.000000 0.000000 0.000000 0.000000 0.000000
    71 0.000000 0.000000 0.000000 0.000000 0.000000 0.000000
    72 0.000000 0.000000 0.000000 0.000000 0.000000 0.000000
    73 0.000000 0.000000 0.000000 0.000000 0.000000 0.000000
    74 -0.656618 -0.005678 -0.596489 0.000000 0.000001 3.141592
    75 0.000000 -0.000001 0.000000 0.000003 0.000000 0.000000
    76 0.000000 0.000000 0.000000 0.000000 0.000000 0.000000
    77 0.000000 0.000000 0.000000 0.000000 0.000000 0.000000
    78 0.000000 0.000000 0.000000 0.000000 0.000000 0.000000
    79 0.000000 0.000000 0.000000 0.000000 0.000000 0.000000
    80 -0.656615 1.362884 -0.596487 0.000000 0.000001 3.141592
    81 0.000000 -0.000001 0.000000 0.000003 0.000000 0.000000
    82 0.000000 0.000000 0.000000 0.000000 0.000000 0.000000
    83 0.000000 0.000000 0.000000 0.000000 0.000000 0.000000
    84 0.000000 0.000000 0.000000 0.000000 0.000000 0.000000
    85 0.000000 0.000000 0.000000 0.000000 0.000000 0.000000
    86 -22.515255 -14.055544 -0.798508 1.570796 0.000000 -1.570796
    87 -24.677761 16.758575 -1.251462 1.570796 0.000000 -1.570796
    88 -0.002752 -0.696599 -15.304535 0.000000 0.000000 -0.000043
    89 3.806029 12.134512 -1.233394 6.229045 -2.062258 -0.244229
    90 3.448653 9.395416 -0.282623 1.545838 -3.132837 1.309107
    91 0.010113 -8.498736 -0.068977 0.144224 0.662533 0.173639
    92 -0.488518 -2.755602 -0.228260 -0.854769 -0.065650 -0.331400
    93 0.039887 -1.546198 0.022041 -1.871391 -0.006663 0.041767
    94 0.028786 -1.087450 -0.062173 -0.318681 -0.007023 0.004902
    95 0.250027 -2.820665 -0.238396 -0.552653 -0.155197 -0.177390
    96 -0.049759 -1.594604 0.022352 -1.692609 -0.002732 -0.044381
    97 -0.034142 -1.163937 0.049625 -0.998466 0.007910 -0.025959
    98 0.957766 -2.746780 -0.090302 0.165424 -0.223746 0.095945
    99 -0.033420 -1.397129 -0.015163 -0.248262 0.005789 -0.011866
    100 -0.022360 -0.957436 0.010971 -0.329891 0.006604 -0.015424
    101 -1.180681 -2.507217 -0.193859 -0.988602 0.140810 -0.391040
    102 -0.024967 -1.127840 0.017597 -1.364398 -0.005129 -0.056674
    103 -0.020057 -0.902687 0.021809 -0.713798 0.007922 -0.028176
    104 0.606948 -1.197277 0.185379 0.455111 -0.925243 -0.684416
    105 1.426549 -0.267106 0.087043 0.093188 -0.260641 -1.002736
    106 1.053895 -0.140009 0.028385 0.033433 -0.179999 -0.730272
    107 0.120153 -0.050270 -0.054489 0.287569 3.110905 1.561085
    108 -3.751344 4.464349 -4.528765 -0.877067 -5.167795 -0.426037
    109 -0.008528 -8.426980 0.033605 -0.132294 -0.773278 0.215614
    110 0.447953 -2.798986 -0.200443 -0.928571 -0.223099 0.202211
    111 -0.032909 -1.491923 0.008846 -0.635164 0.014513 -0.007381
    112 -0.027022 -1.127703 -0.020210 -1.224260 0.024233 -0.022076
    113 -0.249534 -2.846964 -0.174213 -0.434857 -0.182998 0.147751
    114 0.043235 -1.660503 0.080387 -1.017380 -0.016688 0.001727
    115 0.031729 -1.141298 0.054932 -1.091808 -0.012110 0.006059
    116 -0.963866 -2.785145 -0.085350 -0.011521 -0.037434 0.101211
    117 0.028479 -1.403067 -0.005448 -0.471563 -0.008269 -0.020110
    118 0.021413 -0.946062 0.020046 -0.591871 -0.011769 -0.023801
    119 1.164475 -2.543940 -0.170330 -0.839763 -0.344009 0.135803
    120 0.024032 -1.136855 -0.001725 -0.785833 0.004362 0.041887
    121 0.014898 -0.899614 -0.015942 -0.966253 0.007562 0.048610
    122 -0.586770 -1.264477 0.200161 -0.123442 0.196326 -2.622843
    123 1.557992 0.035243 0.016848 -0.013655 -0.005385 0.702874
    124 1.117947 0.048424 -0.005766 0.004024 -0.019793 -0.149526
    125 -0.139399 -0.111698 0.014397 0.635980 -0.028572 1.346092
    126 -1.295811 8.889960 -0.204276 1.570809 -0.000001 -1.570790
  time 8
    0 -0.002833 -0.697976 -15.300318 0.000000 0.000000 -0.000043
    1 -0.003705 -0.088851 0.612631 1.570801 1.570796 0.000000
    2 -0.564713 -4.015904 1.566239 0.000000 0.000001 3.141592
    3 -0.064035 1.694918 -0.000001 0.000000 0.000000 0.000000
    4 0.676236 1.191122 -1.040430 0.000000 -1.570796 0.000000
    5 0.676235 -0.173693 -1.040429 0.000000 -1.570796 0.000000
    6 0.676236 -1.522763 -1.040429 0.000000 -1.570796 0.000000
    7 0.684514 0.504665 1.254998 -0.000002 -1.570451 0.000000
    8 0.684514 -0.824704 1.254999 -0.000002 -1.570451 0.000000
    9 0.000000 2.215781 3.010640 1.570796 -2.293253 -4.712389
    10 0.000000 -0.674149 3.010639 1.570796 -2.293253 -4.712389
    11 0.565000 -4.015941 1.566662 0.000000 3.141592 0.000000
    12 0.063999 -1.694921 0.000000 0.000000 -0.000001 0.000000
    13 -0.592701 0.173695 1.045670 0.000000 -1.571142 0.000000
    14 -0.592701 1.522763 1.045669 0.000000 -1.571142 0.000000
    15 -0.584427 -0.504663 -1.249530 3.141590 1.570796 0.000000
    16 -0.584426 0.824705 -1.249531 3.141590 1.570796 0.000000
    17 -0.592702 -1.191118 1.045671 0.000000 -1.571142 0.000000
    18 -0.009867 5.508937 0.331835 0.000000 1.570796 0.000000
    19 0.000000 -0.396913 4.361983 3.141592 -1.570796 0.000000
    20 0.995852 -1.693115 -0.000002 0.000000 0.000000 0.000000
    21 0.439213 0.000000 0.000000 0.000000 0.000000 0.000000
    22 -0.168286 -2.668214 0.000000 0.000000 0.000000 -1.570796
    23 -0.868299 4.614312 3.201679 0.000000 0.000000 3.141592
    24 0.864151 4.614213 3.201568 0.000000 -3.141592 0.000000
    25 -9.151853 0.000000 -22.452812 -0.000002 3.141592 -1.570797
    26 0.679067 -0.648700 0.567080 3.141592 0.000001 0.000000
    27 0.000000 -0.000001 0.000000 0.000003 0.000000 0.000000
    28 0.000000 0.000000 0.000000 0.000000 0.000000 0.000000
    29 0.000000 0.000000 0.000000 0.000000 0.000000 0.000000
    30 0.000000 0.000000 0.000000 0.000000 0.000000 0.000000
    31 0.000000 0.000000 0.000000 0.000000 0.000000 0.000000
    32 0.679068 0.672769 0.567080 3.141592 0.000001 0.000000
    33 0.000000 -0.000001 0.000000 0.000003 0.000000 0.000000
    34 0.000000 0.000000 0.000000 0.000000 0.000000 0.000000
    35 0.000000 0.000000 0.000000 0.000000 0.000000 0.000000
    36 0.000000 0.000000 0.000000 0.000000 0.000000 0.000000
    37 0.000000 0.000000 0.000000 0.000000 0.000000 0.000000
    38 0.679065 -1.336178 -0.596495 3.141592 0.000001 0.000000
    39 0.000000 -0.000001 0.000000 0.000003 0.000000 0.000000
    40 0.000000 0.000000 0.000000 0.000000 0.000000 0.000000
    41 0.000000 0.000000 0.000000 0.000000 0.000000 0.000000
    42 0.000000 0.000000 0.000000 0.000000 0.000000 0.000000
    43 0.000000 0.000000 0.000000 0.000000 0.000000 0.000000
    44 0.679066 -0.010668 -0.596489 3.141592 0.000001 0.000000
    45 0.000000 -0.000001 0.000000 0.000003 0.000000 0.000000
    46 0.000000 0.000000 0.000000 0.000000 0.000000 0.000000
    47 0.000000 0.000000 0.000000 0.000000 0.000000 0.000000
    48 0.000000 0.000000 0.000000 0.000000 0.000000 0.000000
    49 0.000000 0.000000 0.000000 0.000000 0.000000 0.000000
    50 0.679067 1.357895 -0.596487 3.141592 0.000001 0.000000
    51 0.000000 -0.000001 0.000000 0.000003 0.000000 0.000000
    52 0.000000 0.000000 0.000000 0.000000 0.000000 0.000000
    53 0.000000 0.000000 0.000000 0.000000 0.000000 0.000000
    54 0.000000 0.000000 0.000000 0.000000 0.000000 0.000000
    55 0.000000 0.000000 0.000000 0.000000 0.000000 0.000000
    56 -0.656619 -0.643710 0.567078 0.000000 0.000001 3.141592
    57 0.000000 -0.000001 -0.000002 0.000003 0.000000 0.000000
    58 0.000000 0.000000 0.000000 0.000000 0.000000 0.000000
    59 0.000000 0.000000 0.000000 0.000000 0.000000 0.000000
    60 0.000000 0.000000 0.000000 0.000000 0.000000 0.000000
    61 0.000000 0.000000 0.000000 0.000000 0.000000 0.000000
    62 -0.656619 0.677758 0.567081 0.000000 0.000001 3.141592
    63 0.000000 -0.000001 0.000000 0.000003 0.000000 0.000000
    64 0.000000 0.000000 0.000000 0.000000 0.000000 0.000000
    65 0.000000 0.000000 0.000000 0.000000 0.000000 0.000000
    66 0.000000 0.000000 0.000000 0.000000 0.000000 0.000000
    67 0.000000 0.000000 0.000000 0.000000 0.000000 0.000000
    68 -0.656617 -1.331188 -0.596495 0.000000 0.000001 3.141592
    69 0.000000 -0.000001 -0.000002 0.000003 0.000000 0.000000
    70 0.000000 0.000000 0.000000 0.000000 0.000000 0.000000
    71 0.000000 0.000000 0.000000 0.000000 0.000000 0.000000
    72 0.000000 0.000000 0.000000 0.000000 0.000000 0.000000
    73 0.000000 0.000000 0.000000 0.000000 0.000000 0.000000
    74 -0.656618 -0.005678 -0.596489 0.000000 0.000001 3.141592
    75 0.000000 -0.000001 0.000000 0.000003 0.000000 0.000000
    76 0.000000 0.000000 0.000000 0.000000 0.000000 0.000000
    77 0.000000 0.000000 0.000000 0.000000 0.000000 0.000000
    78 0.000000 0.000000 0.000000 0.000000 0.000000 0.000000
    79 0.000000 0.000000 0.000000 0.000000 0.000000 0.000000
    80 -0.656615 1.362884 -0.596487 0.000000 0.000001 3.141592
    81 0.000000 -0.000001 0.000000 0.000003 0.000000 0.000000
    82 0.000000 0.000000 0.000000 0.000000 0.000000 0.000000
    83 0.000000 0.000000 0.000000 0.000000 0.000000 0.000000
    84 0.000000 0.000000 0.000000 0.000000 0.000000 0.000000
    85 0.000000 0.000000 0.000000 0.000000 0.000000 0.000000
    86 -22.515255 -14.055544 -0.798508 1.570796 0.000000 -1.570796
    87 -24.677761 16.758575 -1.251462 1.570796 0.000000 -1.570796
    88 -0.002752 -0.696599 -15.304535 0.000000 0.000000 -0.000043
    89 3.806029 12.134512 -1.233394 6.229045 -2.062258 -0.244229
    90 3.448653 9.395416 -0.282623 1.545838 -3.132837 1.309107
    91 0.010113 -8.498736 -0.068977 0.144224 0.662533 0.173639
    92 -0.488518 -2.755602 -0.228260 -0.854769 -0.065650 -0.331400
    93 0.039887 -1.546198 0.022041 -1.871391 -0.006663 0.041767
    94 0.028786 -1.087450 -0.062173 -0.318681 -0.007023 0.004902
    95 0.250027 -2.820665 -0.238396 -0.552653 -0.155197 -0.177390
    96 -0.049759 -1.594604 0.022352 -1.692609 -0.002732 -0.044381
    97 -0.034142 -1.163937 0.049625 -0.998466 0.007910 -0.025959
    98 0.957766 -2.746780 -0.090302 0.165424 -0.223746 0.095945
    99 -0.033420 -1.397129 -0.015163 -0.248262 0.005789 -0.011866
    100 -0.022360 -0.957436 0.010971 -0.329891 0.006604 -0.015424
    101 -1.180681 -2.507217 -0.193859 -0.988602 0.140810 -0.391040
    102 -0.024967 -1.127840 0.017597 -1.364398 -0.005129 -0.056674
    103 -0.020057 -0.902687 0.021809 -0.713798 0.007922 -0.028176
    104 0.606948 -1.197277 0.185379 0.455111 -0.925243 -0.684416
    105 1.426549 -0.267106 0.087043 0.093188 -0.260641 -1.002736
    106 1.053895 -0.140009 0.028385 0.033433 -0.179999 -0.730272
    107 0.120153 -0.050270 -0.054489 0.287569 3.110905 1.561085
    108 -3.751344 4.464349 -4.528765 -0.877067 -5.167795 -0.426037
    109 -0.008528 -8.426980 0.033605 -0.132294 -0.773278 0.215614
    110 0.447953 -2.798986 -0.200443 -0.928571 -0.223099 0.202211
    111 -0.032909 -1.491923 0.008846 -0.635164 0.014513 -0.007381
    112 -0.027022 -1.127703 -0.020210 -1.224260 0.024233 -0.022076
    113 -0.249534 -2.846964 -0.174213 -0.434857 -0.182998 0.147751
    114 0.043235 -1.660503 0.080387 -1.017380 -0.016688 0.001727
    115 0.031729 -1.141298 0.054932 -1.091808 -0.012110 0.006059
    116 -0.963866 -2.785145 -0.085350 -0.011521 -0.037434 0.101211
    117 0.028479 -1.403067 -0.005448 -0.471563 -0.008269 -0.020110
    118 0.021413 -0.946062 0.020046 -0.591871 -0.011769 -0.023801
    119 1.164475 -2.543940 -0.170330 -0.839763 -0.344009 0.135803
    120 0.024032 -1.136855 -0.001725 -0.785833 0.004362 0.041887
    121 0.014898 -0.899614 -0.015942 -0.966253 0.007562 0.048610
    122 -0.586770 -1.264477 0.200161 -0.123442 0.196326 -2.622843
    123 1.557992 0.035243 0.016848 -0.013655 -0.005385 0.702874
    124 1.117947 0.048424 -0.005766 0.004024 -0.019793 -0.149526
    125 -0.139399 -0.111698 0.014397 0.635980 -0.028572 1.346092
    126 -1.295811 8.889960 -0.204276 1.570809 -0.000001 -1.570790
  time 9
    0 -0.002833 -0.697976 -15.300318 0.000000 0.000000 -0.000043
    1 -0.003705 -0.088851 0.612631 1.570801 1.570796 0.000000
    2 -0.564713 -4.015904 1.566239 0.000000 0.000001 3.141592
    3 -0.064035 1.694918 -0.000001 0.000000 0.000000 0.000000
    4 0.676236 1.191122 -1.040430 0.000000 -1.570796 0.000000
    5 0.676235 -0.173693 -1.040429 0.000000 -1.570796 0.000000
    6 0.676236 -1.522763 -1.040429 0.000000 -1.570796 0.000000
    7 0.684514 0.504665 1.254998 -0.000002 -1.570451 0.000000
    8 0.684514 -0.824704 1.254999 -0.000002 -1.570451 0.000000
    9 0.000000 2.215781 3.010640 1.570796 -2.293253 -4.712389
    10 0.000000 -0.674149 3.010639 1.570796 -2.293253 -4.712389
    11 0.565000 -4.015941 1.566662 0.000000 3.141592 0.000000
    12 0.063999 -1.694921 0.000000 0.000000 -0.000001 0.000000
    13 -0.592701 0.173695 1.045670 0.000000 -1.571142 0.000000
    14 -0.592701 1.522763 1.045669 0.000000 -1.571142 0.000000
    15 -0.584427 -0.504663 -1.249530 3.141590 1.570796 0.000000
    16 -0.584426 0.824705 -1.249531 3.141590 1.570796 0.000000
    17 -0.592702 -1.191118 1.045671 0.000000 -1.571142 0.000000
    18 -0.009867 5.508937 0.331835 0.000000 1.570796 0.000000
    19 0.000000 -0.396913 4.361983 3.141592 -1.570796 0.000000
    20 0.995852 -1.693115 -0.000002 0.000000 0.000000 0.000000
    21 0.439213 0.000000 0.000000 0.000000 0.000000 0.000000
    22 -0.168286 -2.668214 0.000000 0.000000 0.000000 -1.570796
    23 -0.868299 4.614312 3.201679 0.000000 0.000000 3.141592
    24 0.864151 4.614213 3.201568 0.000000 -3.141592 0.000000
    25 -9.151853 0.000000 -22.452812 -0.000002 3.141592 -1.570797
    26 0.679067 -0.648700 0.567080 3.141592 0.000001 0.000000
    27 0.000000 -0.000001 0.000000 0.000003 0.000000 0.000000
    28 0.000000 0.000000 0.000000 0.000000 0.000000 0.000000
    29 0.000000 0.000000 0.000000 0.000000 0.000000 0.000000
    30 0.000000 0.000000 0.000000 0.000000 0.000000 0.000000
    31 0.000000 0.000000 0.000000 0.000000 0.000000 0.000000
    32 0.679068 0.672769 0.567080 3.141592 0.000001 0.000000
    33 0.000000 -0.000001 0.000000 0.000003 0.000000 0.000000
    34 0.000000 0.000000 0.000000 0.000000 0.000000 0.000000
    35 0.000000 0.000000 0.000000 0.000000 0.000000 0.000000
    36 0.000000 0.000000 0.000000 0.000000 0.000000 0.000000
    37 0.000000 0.000000 0.000000 0.000000 0.000000 0.000000
    38 0.679065 -1.336178 -0.596495 3.141592 0.000001 0.000000
    39 0.000000 -0.000001 0.000000 0.000003 0.000000 0.000000
    40 0.000000 0.000000 0.000000 0.000000 0.000000 0.000000
    41 0.000000 0.000000 0.000000 0.000000 0.000000 0.000000
    42 0.000000 0.000000 0.000000 0.000000 0.000000 0.000000
    43 0.000000 0.000000 0.000000 0.000000 0.000000 0.000000
    44 0.679066 -0.010668 -0.596489 3.141592 0.000001 0.000000
    45 0.000000 -0.000001 0.000000 0.000003 0.000000 0.000000
    46 0.000000 0.000000 0.000000 0.000000 0.000000 0.000000
    47 0.000000 0.000000 0.000000 0.000000 0.000000 0.000000
    48 0.000000 0.000000 0.000000 0.000000 0.000000 0.000000
    49 0.000000 0.000000 0.000000 0.000000 0.000000 0.000000
    50 0.679067 1.357895 -0.596487 3.141592 0.000001 0.000000
    51 0.000000 -0.000001 0.000000 0.000003 0.000000 0.000000
    52 0.000000 0.000000 0.000000 0.000000 0.000000 0.000000
    53 0.000000 0.000000 0.000000 0.000000 0.000000 0.000000
    54 0.000000 0.000000 0.000000 0.000000 0.000000 0.000000
    55 0.000000 0.000000 0.000000 0.000000 0.000000 0.000000
    56 -0.656619 -0.643710 0.567078 0.000000 0.000001 3.141592
    57 0.000000 -0.000001 -0.000002 0.000003 0.000000 0.000000
    58 0.000000 0.000000 0.000000 0.000000 0.000000 0.000000
    59 0.000000 0.000000 0.000000 0.000000 0.000000 0.000000
    60 0.000000 0.000000 0.000000 0.000000 0.000000 0.000000
    61 0.000000 0.000000 0.000000 0.000000 0.000000 0.000000
    62 -0.656619 0.677758 0.567081 0.000000 0.000001 3.141592
    63 0.000000 -0.000001 0.000000 0.000003 0.000000 0.000000
    64 0.000000 0.000000 0.000000 0.000000 0.000000 0.000000
    65 0.000000 0.000000 0.000000 0.000000 0.000000 0.000000
    66 0.000000 0.000000 0.000000 0.000000 0.000000 0.000000
    67 0.000000 0.000000 0.000000 0.000000 0.000000 0.000000
    68 -0.656617 -1.331188 -0.596495 0.000000 0.000001 3.141592
    69 0.000000 -0.000001 -0.000002 0.000003 0.000000 0.000000
    70 0.000000 0.000000 0.000000 0.000000 0.000000 0.000000
    71 0.000000 0.000000 0.000000 0.000000 0.000000 0.000000
    72 0.000000 0.000000 0.000000 0.000000 0.000000 0.000000
    73 0.000000 0.000000 0.000000 0.000000 0.000000 0.000000
    74 -0.656618 -0.005678 -0.596489 0.000000 0.000001 3.141592
    75 0.000000 -0.000001 0.000000 0.000003 0.000000 0.000000
    76 0.000000 0.000000 0.000000 0.000000 0.000000 0.000000
    77 0.000000 0.000000 0.000000 0.000000 0.000000 0.000000
    78 0.000000 0.000000 0.000000 0.000000 0.000000 0.000000
    79 0.000000 0.000000 0.000000 0.000000 0.000000 0.000000
    80 -0.656615 1.362884 -0.596487 0.000000 0.000001 3.141592
    81 0.000000 -0.000001 0.000000 0.000003 0.000000 0.000000
    82 0.000000 0.000000 0.000000 0.000000 0.000000 0.000000
    83 0.000000 0.000000 0.000000 0.000000 0.000000 0.000000
    84 0.000000 0.000000 0.000000 0.000000 0.000000 0.000000
    85 0.000000 0.000000 0.000000 0.000000 0.000000 0.000000
    86 -22.515255 -14.055544 -0.798508 1.570796 0.000000 -1.570796
    87 -24.677761 16.758575 -1.251462 1.570796 0.000000 -1.570796
    88 -0.002752 -0.696599 -15.304535 0.000000 0.000000 -0.000043
    89 3.806029 12.134512 -1.233394 6.229045 -2.062258 -0.244229
    90 3.448653 9.395416 -0.282623 1.545838 -3.132837 1.309107
    91 0.010113 -8.498736 -0.068977 0.144224 0.662533 0.173639
    92 -0.488518 -2.755602 -0.228260 -0.854769 -0.065650 -0.331400
    93 0.039887 -1.546198 0.022041 -1.871391 -0.006663 0.041767
    94 0.028786 -1.087450 -0.062173 -0.318681 -0.007023 0.004902
    95 0.250027 -2.820665 -0.238396 -0.552653 -0.155197 -0.177390
    96 -0.049759 -1.594604 0.022352 -1.692609 -0.002732 -0.044381
    97 -0.034142 -1.163937 0.049625 -0.998466 0.007910 -0.025959
    98 0.957766 -2.746780 -0.090302 0.165424 -0.223746 0.095945
    99 -0.033420 -1.397129 -0.015163 -0.248262 0.005789 -0.011866
    100 -0.022360 -0.957436 0.010971 -0.329891 0.006604 -0.015424
    101 -1.180681 -2.507217 -0.193859 -0.988602 0.140810 -0.391040
    102 -0.024967 -1.127840 0.017597 -1.364398 -0.005129 -0.056674
    103 -0.020057 -0.902687 0.021809 -0.713798 0.007922 -0.028176
    104 0.606948 -1.197277 0.185379 0.455111 -0.925243 -0.684416
    105 1.426549 -0.267106 0.087043 0.093188 -0.260641 -1.002736
    106 1.053895 -0.140009 0.028385 0.033433 -0.179999 -0.730272
    107 0.120153 -0.050270 -0.054489 0.287569 3.110905 1.561085
    108 -3.751344 4.464349 -4.528765 -0.877067 -5.167795 -0.426037
    109 -0.008528 -8.426980 0.033605 -0.132294 -0.773278 0.215614
    110 0.447953 -2.798986 -0.200443 -0.928571 -0.223099 0.202211
    111 -0.032909 -1.491923 0.008846 -0.635164 0.014513 -0.007381
    112 -0.027022 -1.127703 -0.020210 -1.224260 0.024233 -0.022076
    113 -0.249534 -2.846964 -0.174213 -0.434857 -0.182998 0.147751
    114 0.043235 -1.660503 0.080387 -1.017380 -0.016688 0.001727
    115 0.031729 -1.141298 0.054932 -1.091808 -0.012110 0.006059
    116 -0.963866 -2.785145 -0.085350 -0.011521 -0.037434 0.101211
    117 0.028479 -1.403067 -0.005448 -0.471563 -0.008269 -0.020110
    118 0.021413 -0.946062 0.020046 -0.591871 -0.011769 -0.023801
    119 1.164475 -2.543940 -0.170330 -0.839763 -0.344009 0.135803
    120 0.024032 -1.136855 -0.001725 -0.785833 0.004362 0.041887
    121 0.014898 -0.899614 -0.015942 -0.966253 0.007562 0.048610
    122 -0.586770 -1.264477 0.200161 -0.123442 0.196326 -2.622843
    123 1.557992 0.035243 0.016848 -0.013655 -0.005385 0.702874
    124 1.117947 0.048424 -0.005766 0.004024 -0.019793 -0.149526
    125 -0.139399 -0.111698 0.014397 0.635980 -0.028572 1.346092
    126 -1.295811 8.889960 -0.204276 1.570809 -0.000001 -1.570790
  time 10
    0 -0.002833 -0.697976 -15.300318 0.000000 0.000000 -0.000043
    1 -0.003705 -0.088851 0.612631 1.570801 1.570796 0.000000
    2 -0.564713 -4.015904 1.566239 0.000000 0.000001 3.141592
    3 -0.064035 1.694918 -0.000001 0.000000 0.000000 0.000000
    4 0.676236 1.191122 -1.040430 0.000000 -1.570796 0.000000
    5 0.676235 -0.173693 -1.040429 0.000000 -1.570796 0.000000
    6 0.676236 -1.522763 -1.040429 0.000000 -1.570796 0.000000
    7 0.684514 0.504665 1.254998 -0.000002 -1.570451 0.000000
    8 0.684514 -0.824704 1.254999 -0.000002 -1.570451 0.000000
    9 0.000000 2.215781 3.010640 1.570796 -2.293253 -4.712389
    10 0.000000 -0.674149 3.010639 1.570796 -2.293253 -4.712389
    11 0.565000 -4.015941 1.566662 0.000000 3.141592 0.000000
    12 0.063999 -1.694921 0.000000 0.000000 -0.000001 0.000000
    13 -0.592701 0.173695 1.045670 0.000000 -1.571142 0.000000
    14 -0.592701 1.522763 1.045669 0.000000 -1.571142 0.000000
    15 -0.584427 -0.504663 -1.249530 3.141590 1.570796 0.000000
    16 -0.584426 0.824705 -1.249531 3.141590 1.570796 0.000000
    17 -0.592702 -1.191118 1.045671 0.000000 -1.571142 0.000000
    18 -0.009867 5.508937 0.331835 0.000000 1.570796 0.000000
    19 0.000000 -0.396913 4.361983 3.141592 -1.570796 0.000000
    20 0.995852 -1.693115 -0.000002 0.000000 0.000000 0.000000
    21 0.439213 0.000000 0.000000 0.000000 0.000000 0.000000
    22 -0.168286 -2.668214 0.000000 0.000000 0.000000 -1.570796
    23 -0.868299 4.614312 3.201679 0.000000 0.000000 3.141592
    24 0.864151 4.614213 3.201568 0.000000 -3.141592 0.000000
    25 -9.151853 0.000000 -22.452812 -0.000002 3.141592 -1.570797
    26 0.679067 -0.648700 0.567080 3.141592 0.000001 0.000000
    27 0.000000 -0.000001 0.000000 0.000003 0.000000 0.000000
    28 0.000000 0.000000 0.000000 0.000000 0.000000 0.000000
    29 0.000000 0.000000 0.000000 0.000000 0.000000 0.000000
    30 0.000000 0.000000 0.000000 0.000000 0.000000 0.000000
    31 0.000000 0.000000 0.000000 0.000000 0.000000 0.000000
    32 0.679068 0.672769 0.567080 3.141592 0.000001 0.000000
    33 0.000000 -0.000001 0.000000 0.000003 0.000000 0.000000
    34 0.000000 0.000000 0.000000 0.000000 0.000000 0.000000
    35 0.000000 0.000000 0.000000 0.000000 0.000000 0.000000
    36 0.000000 0.000000 0.000000 0.000000 0.000000 0.000000
    37 0.000000 0.000000 0.000000 0.000000 0.000000 0.000000
    38 0.679065 -1.336178 -0.596495 3.141592 0.000001 0.000000
    39 0.000000 -0.000001 0.000000 0.000003 0.000000 0.000000
    40 0.000000 0.000000 0.000000 0.000000 0.000000 0.000000
    41 0.000000 0.000000 0.000000 0.000000 0.000000 0.000000
    42 0.000000 0.000000 0.000000 0.000000 0.000000 0.000000
    43 0.000000 0.000000 0.000000 0.000000 0.000000 0.000000
    44 0.679066 -0.010668 -0.596489 3.141592 0.000001 0.000000
    45 0.000000 -0.000001 0.000000 0.000003 0.000000 0.000000
    46 0.000000 0.000000 0.000000 0.000000 0.000000 0.000000
    47 0.000000 0.000000 0.000000 0.000000 0.000000 0.000000
    48 0.000000 0.000000 0.000000 0.000000 0.000000 0.000000
    49 0.000000 0.000000 0.000000 0.000000 0.000000 0.000000
    50 0.679067 1.357895 -0.596487 3.141592 0.000001 0.000000
    51 0.000000 -0.000001 0.000000 0.000003 0.000000 0.000000
    52 0.000000 0.000000 0.000000 0.000000 0.000000 0.000000
    53 0.000000 0.000000 0.000000 0.000000 0.000000 0.000000
    54 0.000000 0.000000 0.000000 0.000000 0.000000 0.000000
    55 0.000000 0.000000 0.000000 0.000000 0.000000 0.000000
    56 -0.656619 -0.643710 0.567078 0.000000 0.000001 3.141592
    57 0.000000 -0.000001 -0.000002 0.000003 0.000000 0.000000
    58 0.000000 0.000000 0.000000 0.000000 0.000000 0.000000
    59 0.000000 0.000000 0.000000 0.000000 0.000000 0.000000
    60 0.000000 0.000000 0.000000 0.000000 0.000000 0.000000
    61 0.000000 0.000000 0.000000 0.000000 0.000000 0.000000
    62 -0.656619 0.677758 0.567081 0.000000 0.000001 3.141592
    63 0.000000 -0.000001 0.000000 0.000003 0.000000 0.000000
    64 0.000000 0.000000 0.000000 0.000000 0.000000 0.000000
    65 0.000000 0.000000 0.000000 0.000000 0.000000 0.000000
    66 0.000000 0.000000 0.000000 0.000000 0.000000 0.000000
    67 0.000000 0.000000 0.000000 0.000000 0.000000 0.000000
    68 -0.656617 -1.331188 -0.596495 0.000000 0.000001 3.141592
    69 0.000000 -0.000001 -0.000002 0.000003 0.000000 0.000000
    70 0.000000 0.000000 0.000000 0.000000 0.000000 0.000000
    71 0.000000 0.000000 0.000000 0.000000 0.000000 0.000000
    72 0.000000 0.000000 0.000000 0.000000 0.000000 0.000000
    73 0.000000 0.000000 0.000000 0.000000 0.000000 0.000000
    74 -0.656618 -0.005678 -0.596489 0.000000 0.000001 3.141592
    75 0.000000 -0.000001 0.000000 0.000003 0.000000 0.000000
    76 0.000000 0.000000 0.000000 0.000000 0.000000 0.000000
    77 0.000000 0.000000 0.000000 0.000000 0.000000 0.000000
    78 0.000000 0.000000 0.000000 0.000000 0.000000 0.000000
    79 0.000000 0.000000 0.000000 0.000000 0.000000 0.000000
    80 -0.656615 1.362884 -0.596487 0.000000 0.000001 3.141592
    81 0.000000 -0.000001 0.000000 0.000003 0.000000 0.000000
    82 0.000000 0.000000 0.000000 0.000000 0.000000 0.000000
    83 0.000000 0.000000 0.000000 0.000000 0.000000 0.000000
    84 0.000000 0.000000 0.000000 0.000000 0.000000 0.000000
    85 0.000000 0.000000 0.000000 0.000000 0.000000 0.000000
    86 -22.515255 -14.055544 -0.798508 1.570796 0.000000 -1.570796
    87 -24.677761 16.758575 -1.251462 1.570796 0.000000 -1.570796
    88 -0.002752 -0.696599 -15.304535 0.000000 0.000000 -0.000043
    89 3.806029 12.134512 -1.233394 6.229045 -2.062258 -0.244229
    90 3.448653 9.395416 -0.282623 1.545838 -3.132837 1.309107
    91 0.010113 -8.498736 -0.068977 0.144224 0.662533 0.173639
    92 -0.488518 -2.755602 -0.228260 -0.854769 -0.065650 -0.331400
    93 0.039887 -1.546198 0.022041 -1.871391 -0.006663 0.041767
    94 0.028786 -1.087450 -0.062173 -0.318681 -0.007023 0.004902
    95 0.250027 -2.820665 -0.238396 -0.552653 -0.155197 -0.177390
    96 -0.049759 -1.594604 0.022352 -1.692609 -0.002732 -0.044381
    97 -0.034142 -1.163937 0.049625 -0.998466 0.007910 -0.025959
    98 0.957766 -2.746780 -0.090302 0.165424 -0.223746 0.095945
    99 -0.033420 -1.397129 -0.015163 -0.248262 0.005789 -0.011866
    100 -0.022360 -0.957436 0.010971 -0.329891 0.006604 -0.015424
    101 -1.180681 -2.507217 -0.193859 -0.988602 0.140810 -0.391040
    102 -0.024967 -1.127840 0.017597 -1.364398 -0.005129 -0.056674
    103 -0.020057 -0.902687 0.021809 -0.713798 0.007922 -0.028176
    104 0.606948 -1.197277 0.185379 0.455111 -0.925243 -0.684416
    105 1.426549 -0.267106 0.087043 0.093188 -0.260641 -1.002736
    106 1.053895 -0.140009 0.028385 0.033433 -0.179999 -0.730272
    107 0.120153 -0.050270 -0.054489 0.287569 3.110905 1.561085
    108 -3.751344 4.464349 -4.528765 -0.877067 -5.167795 -0.426037
    109 -0.008528 -8.426980 0.033605 -0.132294 -0.773278 0.215614
    110 0.447953 -2.798986 -0.200443 -0.928571 -0.223099 0.202211
    111 -0.032909 -1.491923 0.008846 -0.635164 0.014513 -0.007381
    112 -0.027022 -1.127703 -0.020210 -1.224260 0.024233 -0.022076
    113 -0.249534 -2.846964 -0.174213 -0.434857 -0.182998 0.147751
    114 0.043235 -1.660503 0.080387 -1.017380 -0.016688 0.001727
    115 0.031729 -1.141298 0.054932 -1.091808 -0.012110 0.006059
    116 -0.963866 -2.785145 -0.085350 -0.011521 -0.037434 0.101211
    117 0.028479 -1.403067 -0.005448 -0.471563 -0.008269 -0.020110
    118 0.021413 -0.946062 0.020046 -0.591871 -0.011769 -0.023801
    119 1.164475 -2.543940 -0.170330 -0.839763 -0.344009 0.135803
    120 0.024032 -1.136855 -0.001725 -0.785833 0.004362 0.041887
    121 0.014898 -0.899614 -0.015942 -0.966253 0.007562 0.048610
    122 -0.586770 -1.264477 0.200161 -0.123442 0.196326 -2.622843
    123 1.557992 0.035243 0.016848 -0.013655 -0.005385 0.702874
    124 1.117947 0.048424 -0.005766 0.004024 -0.019793 -0.149526
    125 -0.139399 -0.111698 0.014397 0.635980 -0.028572 1.346092
    126 -1.295811 8.889960 -0.204276 1.570809 -0.000001 -1.570790
end
