version 1
nodes
  0 "root" -1
  1 "Bone01" 0
  2 "Bone_Lefthand" 1
  3 "m1887_root" 2
  4 "magazine" 3
  5 "trigger" 4
  6 "bady" 3
  7 "head" 6
  8 "hand_L" 6
  9 "hand_R" 6
  10 "foot_R" 6
  11 "foot_L" 6
  12 "bullet1" -1
  13 "bullet2" -1
  14 "Bone_L_Upper" 1
  15 "Bone13" 2
  16 "Bone14" 15
  17 "Bone15" 16
  18 "Bone17" 2
  19 "Bone18" 18
  20 "Bone19" 19
  21 "Bone21" 2
  22 "Bone22" 21
  23 "Bone23" 22
  24 "Bone09" 2
  25 "Bone10" 24
  26 "Bone11" 25
  27 "Bone05" 2
  28 "Bone06" 27
  29 "Bone07" 28
  30 "Bone_Se_Hand-L" 2
  31 "Bone04" 0
  32 "Bone_Righthand" 31
  33 "Bone39" 32
  34 "Bone40" 33
  35 "Bone41" 34
  36 "Bone35" 32
  37 "Bone36" 36
  38 "Bone37" 37
  39 "Bone31" 32
  40 "Bone32" 39
  41 "Bone33" 40
  42 "Bone43" 32
  43 "Bone44" 42
  44 "Bone45" 43
  45 "Bone27" 32
  46 "Bone28" 45
  47 "Bone29" 46
  48 "Bone_Se_Hand-R" 32
  49 "Bone_R_Upper" 31
end
skeleton
  time 0
    0 0.000000 0.000000 -0.105472 -0.000240 0.000000 0.000000
    1 8.195760 2.761581 -4.828511 0.332294 -2.018564 -0.625854
    2 -0.071918 -8.498730 -0.104136 -0.183667 0.224208 -0.551766
    3 2.176176 -5.464137 0.881548 -0.129531 2.899966 0.276555
    4 0.006734 -1.942639 -2.123448 -1.221720 -1.570796 0.000000
    5 2.120982 2.563700 -0.066897 -1.570796 1.525027 1.570796
    6 -3.819283 -4.268721 0.643766 -1.570796 -2.705264 -0.007299
    7 1.100606 0.000000 0.000000 0.584251 -0.938057 -0.412249
    8 0.953722 -0.312239 0.000000 0.249975 -0.260177 -2.332053
    9 0.958288 0.313313 0.000000 -0.257030 -0.142636 2.402380
    10 0.068044 0.289749 0.174807 0.046147 -0.274984 2.956468
    11 0.063958 -0.269955 0.174808 6.254566 -0.277280 -3.054471
    12 1.164098 -13.152745 -1.628346 -1.171870 0.071882 -1.778114
    13 1.324259 -10.379192 -12.355235 0.389402 -2.162082 -5.621862
    14 1.257180 8.762585 -0.153713 -1.570562 0.002683 -1.566807
    15 -0.488518 -2.755602 -0.228260 -0.852976 0.020147 -0.242666
    16 0.039887 -1.479790 0.029854 -1.208016 0.000000 0.000001
    17 0.028786 -1.075731 -0.023109 -0.530140 0.000000 0.000000
    18 0.250027 -2.820665 -0.238396 -0.557519 0.025111 -0.158311
    19 -0.049759 -1.680544 0.100479 -1.430840 0.000000 -0.000002
    20 -0.034142 -1.148312 0.084782 -0.766456 0.000000 0.000000
    21 0.957766 -2.746780 -0.090302 0.105130 -0.318125 0.282857
    22 -0.033420 -1.397129 -0.011257 -0.388109 0.000000 -0.000001
    23 -0.022360 -0.957436 0.018784 -0.656157 0.000000 0.000000
    24 -1.180681 -2.507217 -0.193859 -0.953236 0.144549 -0.134616
    25 -0.024967 -1.123934 0.017597 -1.138636 0.000000 0.000001
    26 -0.020057 -0.890968 0.010090 -0.440505 0.000000 0.000000
    27 0.583510 -1.197277 0.185379 -0.215235 -0.859020 0.070458
    28 1.535927 0.010246 0.005009 -0.129761 -0.191466 -0.906006
    29 1.100771 0.004527 -0.010679 -0.014888 0.005906 -1.013814
    30 0.120153 -0.050270 -0.054489 0.287569 3.110905 1.561085
    31 -8.001474 3.183059 -9.728143 0.108675 -2.552840 0.250750
    32 0.096944 -8.450418 -0.009365 0.063297 -0.288744 -0.027585
    33 0.447953 -2.798986 -0.200443 -0.170525 -0.083514 -0.165974
    34 -0.032909 -1.480204 0.004940 -0.939314 0.000000 0.000002
    35 -0.027022 -1.076920 -0.020210 -0.813191 0.000000 0.000000
    36 -0.249534 -2.846964 -0.174213 0.145408 0.023581 -0.119949
    37 0.043235 -1.683941 0.096012 -1.324738 0.002823 -0.000167
    38 0.031729 -1.160830 0.058838 -0.977242 0.000642 0.008372
    39 -0.963866 -2.785145 -0.085350 0.120267 0.136233 -0.037326
    40 0.028479 -1.403067 0.006271 -0.422391 0.000000 0.000000
    41 0.021413 -0.957781 0.020046 -0.779334 0.000000 0.000000
    42 1.164475 -2.543940 -0.170330 -0.269465 -0.516892 -0.043920
    43 0.024032 -1.129042 0.017807 -0.304194 0.000000 0.000001
    44 0.014898 -0.883989 -0.019848 -0.741892 0.000000 0.000000
    45 -0.586770 -1.264477 0.200161 -0.289387 -0.420304 -2.419832
    46 1.522835 0.058681 0.016848 0.036465 0.041379 0.270448
    47 1.117947 0.048424 -0.005766 -0.003611 -0.024946 0.199871
    48 -0.139399 -0.111698 0.014397 0.285382 -0.030687 1.580508
    49 -1.393470 8.839177 -0.239433 1.580804 -0.005023 -1.566847
  time 1
    0 0.000000 0.000000 -0.109378 -0.001390 0.000000 0.000000
    1 9.512206 2.273285 -8.453622 0.345114 -2.001581 -0.635660
    2 -0.071918 -8.498730 -0.104136 -0.223044 0.240771 -0.466949
    3 2.176176 -5.464137 0.881548 -0.129531 2.899966 0.276555
    4 0.006734 -1.942639 -2.123448 -0.959888 -1.570796 0.000000
    5 2.120982 2.563700 -0.066897 -1.570796 1.525027 1.570796
    6 -3.831002 -4.241376 0.409384 -1.394436 -2.738378 -0.000971
    7 1.100606 0.000000 0.000000 1.011861 -0.805354 -0.221791
    8 0.953722 -0.312239 0.000000 0.245648 -0.246909 -2.309628
    9 0.958288 0.313313 0.000000 -0.295259 -0.207094 2.377630
    10 0.068044 0.289749 0.174807 0.013014 -0.448390 3.078186
    11 0.063958 -0.269955 0.174808 6.270862 -0.456576 -3.114570
    12 2.187567 -13.219153 -4.499527 -1.219604 -0.001128 -1.843420
    13 0.996124 -0.003876 -20.000000 1.570796 -1.531343 -1.570835
    14 1.257180 8.762585 -0.153713 -1.570562 0.002683 -1.566807
    15 -0.488518 -2.755602 -0.228260 -0.852976 0.020147 -0.242666
    16 0.039887 -1.479790 0.029854 -1.208016 0.000000 0.000001
    17 0.028786 -1.075731 -0.023109 -0.530140 0.000000 0.000000
    18 0.250027 -2.820665 -0.238396 -0.557519 0.025111 -0.158311
    19 -0.049759 -1.680544 0.100479 -1.430840 0.000000 -0.000002
    20 -0.034142 -1.148312 0.084782 -0.766456 0.000000 0.000000
    21 0.957766 -2.746780 -0.090302 0.105130 -0.318125 0.282857
    22 -0.033420 -1.397129 -0.011257 -0.388109 0.000000 -0.000001
    23 -0.022360 -0.957436 0.018784 -0.656157 0.000000 0.000000
    24 -1.180681 -2.507217 -0.193859 -0.953236 0.144549 -0.134616
    25 -0.024967 -1.123934 0.017597 -1.138636 0.000000 0.000001
    26 -0.020057 -0.890968 0.010090 -0.440505 0.000000 0.000000
    27 0.583510 -1.197277 0.185379 -0.163162 -0.578841 -0.004772
    28 1.535927 0.010246 0.005009 -0.206906 -0.105440 -0.401772
    29 1.100771 0.004527 -0.010679 -0.005517 0.015254 -0.171068
    30 0.120153 -0.050270 -0.054489 0.287569 3.110905 1.561085
    31 -8.001474 3.198685 -21.884764 0.108675 -2.552840 0.250750
    32 0.096944 -8.450418 -0.009365 0.064037 -0.192769 -0.025123
    33 0.447953 -2.798986 -0.200443 -0.198343 -0.083514 -0.165974
    34 -0.032909 -1.480204 0.004940 -0.960875 0.000000 0.000002
    35 -0.027022 -1.076920 -0.020210 -0.813191 0.000000 0.000000
    36 -0.249534 -2.846964 -0.174213 0.145408 0.023581 -0.119949
    37 0.043235 -1.683941 0.096012 -1.353462 0.002823 -0.000167
    38 0.031729 -1.160830 0.058838 -0.988044 0.000642 0.008372
    39 -0.963866 -2.785145 -0.085350 0.190932 0.136233 -0.037326
    40 0.028479 -1.403067 0.006271 -0.422391 0.000000 0.000000
    41 0.021413 -0.957781 0.020046 -0.811642 0.000000 0.000000
    42 1.164475 -2.543940 -0.170330 -0.319956 -0.514610 -0.031484
    43 0.024032 -1.129042 0.017807 -0.304194 0.000000 0.000001
    44 0.014898 -0.883989 -0.019848 -0.741892 0.000000 0.000000
    45 -0.586770 -1.264477 0.200161 -0.289387 -0.420304 -2.419832
    46 1.522835 0.058681 0.016848 0.036465 0.041379 0.270448
    47 1.117947 0.048424 -0.005766 -0.003611 -0.024946 0.199871
    48 -0.139399 -0.111698 0.014397 0.285382 -0.030687 1.580508
    49 -1.393470 8.839177 -0.239433 1.580804 -0.005023 -1.566847
  time 2
    0 0.000000 0.000000 -0.109378 -0.002409 0.000000 0.000000
    1 9.512206 2.312348 -8.457528 0.381137 -1.981641 -0.663187
    2 -0.071918 -8.498730 -0.104136 -0.309691 0.253714 -0.355281
    3 2.176176 -5.464137 0.881548 -0.129531 2.899966 0.276555
    4 0.006734 -1.942639 -2.123448 -0.794554 -1.570796 0.000000
    5 2.120982 2.563700 -0.066897 -1.570796 1.525027 1.570796
    6 -3.866160 -4.167155 0.190627 -1.119902 -2.823558 0.015519
    7 1.100606 0.000000 0.000000 1.396263 -0.610836 -0.031333
    8 0.953722 -0.312239 0.000000 0.233688 -0.232797 -2.248184
    9 0.958288 0.313313 0.000000 -0.319519 -0.348932 2.310621
    10 0.068044 0.289749 0.174807 -0.000776 -0.694760 3.128175
    11 0.063958 -0.269955 0.174808 -0.005150 -0.698733 -3.139970
    12 1.707083 -12.324595 -3.452620 -1.269137 -0.104844 -1.958713
    13 0.996124 -0.003876 -20.000000 1.570796 -1.531343 -1.570835
    14 1.257180 8.762585 -0.153713 -1.570562 0.002683 -1.566807
    15 -0.488518 -2.755602 -0.228260 -0.852976 0.020147 -0.242666
    16 0.039887 -1.479790 0.029854 -1.208016 0.000000 0.000001
    17 0.028786 -1.075731 -0.023109 -0.530140 0.000000 0.000000
    18 0.250027 -2.820665 -0.238396 -0.557519 0.025111 -0.158311
    19 -0.049759 -1.680544 0.100479 -1.430840 0.000000 -0.000002
    20 -0.034142 -1.148312 0.084782 -0.766456 0.000000 0.000000
    21 0.957766 -2.746780 -0.090302 0.105130 -0.318125 0.282857
    22 -0.033420 -1.397129 -0.011257 -0.388109 0.000000 -0.000001
    23 -0.022360 -0.957436 0.018784 -0.656157 0.000000 0.000000
    24 -1.180681 -2.507217 -0.193859 -0.953236 0.144549 -0.134616
    25 -0.024967 -1.123934 0.017597 -1.138636 0.000000 0.000001
    26 -0.020057 -0.890968 0.010090 -0.440505 0.000000 0.000000
    27 0.583510 -1.197277 0.185379 -0.169789 -0.614488 0.004806
    28 1.535927 0.010246 0.005009 -0.198588 -0.114704 -0.456073
    29 1.100771 0.004527 -0.010679 -0.006535 0.014247 -0.261830
    30 0.120153 -0.050270 -0.054489 0.287569 3.110905 1.561085
    31 -7.716309 2.729921 -17.005708 -1.452668 -6.263890 -1.309739
    32 0.096944 -8.450418 -0.009365 0.064463 -0.070879 -0.018790
    33 0.447953 -2.798986 -0.200443 -0.267824 -0.083514 -0.165974
    34 -0.032909 -1.480204 0.004940 -0.979389 0.000000 0.000002
    35 -0.027022 -1.076920 -0.020210 -0.813166 0.000000 0.000000
    36 -0.249534 -2.846964 -0.174213 0.145408 0.023581 -0.119949
    37 0.043235 -1.683941 0.096012 -1.378172 0.002823 -0.000167
    38 0.031729 -1.160830 0.058838 -0.997299 0.000642 0.008372
    39 -0.963866 -2.785145 -0.085350 0.247736 0.136233 -0.037326
    40 0.028479 -1.403067 0.006271 -0.422391 0.000000 0.000000
    41 0.021413 -0.957781 0.020046 -0.839433 0.000000 0.000000
    42 1.164475 -2.543940 -0.170330 -0.446185 -0.508913 -0.000396
    43 0.024032 -1.129042 0.017807 -0.304194 0.000000 0.000001
    44 0.014898 -0.883989 -0.019848 -0.741892 0.000000 0.000000
    45 -0.586770 -1.264477 0.200161 -0.275977 -0.406366 -2.450426
    46 1.522835 0.058681 0.016848 0.036465 0.041379 0.270448
    47 1.117947 0.048424 -0.005766 -0.003611 -0.024946 0.199871
    48 -0.139399 -0.111698 0.014397 0.285382 -0.030687 1.580508
    49 -1.393470 8.839177 -0.239433 1.580804 -0.005023 -1.566847
  time 3
    0 0.000000 0.000000 -0.109378 -0.003236 0.000000 0.000000
    1 9.512206 2.417820 -8.457528 0.436751 -1.959360 -0.705827
    2 -0.071918 -8.498730 -0.104136 -0.396323 0.262151 -0.257988
    3 2.176176 -5.464137 0.881548 -0.129531 2.899966 0.276555
    4 0.006734 -1.942639 -2.123448 -0.613784 -1.570796 0.000000
    5 2.120982 2.563700 -0.066897 -1.570796 1.525027 1.570796
    6 -3.916943 -4.053870 -0.016411 -0.792876 -2.939937 0.038049
    7 1.100606 0.000000 0.000000 1.350540 -0.476528 -0.031333
    8 0.953722 -0.312239 0.000000 0.215603 -0.217922 -2.156330
    9 0.958288 0.313313 0.000000 -0.332200 -0.490769 2.211711
    10 0.068044 0.289749 0.174807 -0.003649 -0.872669 3.137847
    11 0.063958 -0.269955 0.174808 -0.003616 -0.872686 3.137862
    12 1.441450 -11.289407 -2.487747 -1.299321 -0.205675 -2.064650
    13 0.996124 -0.003876 -20.000000 1.570796 -1.531343 -1.570835
    14 1.257180 8.762585 -0.153713 -1.570562 0.002683 -1.566807
    15 -0.488518 -2.755602 -0.228260 -0.852976 0.020147 -0.242666
    16 0.039887 -1.479790 0.029854 -1.208016 0.000000 0.000001
    17 0.028786 -1.075731 -0.023109 -0.530140 0.000000 0.000000
    18 0.250027 -2.820665 -0.238396 -0.557519 0.025111 -0.158311
    19 -0.049759 -1.680544 0.100479 -1.430840 0.000000 -0.000002
    20 -0.034142 -1.148312 0.084782 -0.766456 0.000000 0.000000
    21 0.957766 -2.746780 -0.090302 0.105130 -0.318125 0.282857
    22 -0.033420 -1.397129 -0.011257 -0.388109 0.000000 -0.000001
    23 -0.022360 -0.957436 0.018784 -0.656157 0.000000 0.000000
    24 -1.180681 -2.507217 -0.193859 -0.953236 0.144549 -0.134616
    25 -0.024967 -1.123934 0.017597 -1.138636 0.000000 0.000001
    26 -0.020057 -0.890968 0.010090 -0.440505 0.000000 0.000000
    27 0.583510 -1.197277 0.185379 -0.185585 -0.699483 0.027627
    28 1.535927 0.010246 0.005009 -0.178790 -0.136792 -0.585561
    29 1.100771 0.004527 -0.010679 -0.008932 0.011838 -0.478253
    30 0.120153 -0.050270 -0.054489 0.287569 3.110905 1.561085
    31 -6.892065 1.624418 -11.302409 0.127494 -5.655913 0.278081
    32 0.096944 -8.450418 -0.009365 0.064687 0.062039 -0.010140
    33 0.447953 -2.798986 -0.200443 -0.358152 -0.083514 -0.165974
    34 -0.032909 -1.480204 0.004940 -0.994505 0.000000 0.000002
    35 -0.027022 -1.076920 -0.020210 -0.813191 0.000000 0.000000
    36 -0.249534 -2.846964 -0.174213 0.145408 0.023581 -0.119949
    37 0.043235 -1.683941 0.096012 -1.398336 0.002823 -0.000167
    38 0.031729 -1.160830 0.058838 -1.004857 0.000642 0.008372
    39 -0.963866 -2.785145 -0.085350 0.291136 0.136233 -0.037326
    40 0.028479 -1.403067 0.006271 -0.422391 0.000000 0.000000
    41 0.021413 -0.957781 0.020046 -0.862104 0.000000 0.000000
    42 1.164475 -2.543940 -0.170330 -0.610299 -0.501494 0.040011
    43 0.024032 -1.129042 0.017807 -0.304194 0.000000 0.000001
    44 0.014898 -0.883989 -0.019848 -0.741892 0.000000 0.000000
    45 -0.586770 -1.264477 0.200161 -0.242456 -0.371503 -2.526874
    46 1.522835 0.058681 0.016848 0.036465 0.041379 0.270448
    47 1.117947 0.048424 -0.005766 -0.003611 -0.024946 0.199871
    48 -0.139399 -0.111698 0.014397 0.285382 -0.030687 1.580508
    49 -1.393470 8.839177 -0.239433 1.580804 -0.005023 -1.566847
  time 4
    0 0.000000 0.000000 -0.105472 -0.003859 0.000000 0.000000
    1 9.512206 2.585794 -8.461435 0.508526 -1.935353 -0.760611
    2 -0.071918 -8.498730 -0.104136 -0.435700 0.265159 -0.216386
    3 2.176176 -5.464137 0.881548 -0.129531 2.899966 0.276555
    4 0.006734 -1.942639 -2.123448 -0.432487 -1.570796 0.000000
    5 2.120982 2.563700 -0.066897 -1.570796 1.525027 1.570796
    6 -3.979444 -3.909335 -0.211729 -0.459044 -3.066845 0.062593
    7 1.100606 0.000000 0.000000 1.229651 -0.329011 -0.031333
    8 0.953722 -0.312239 0.000000 0.192940 -0.202393 -2.042816
    9 0.958288 0.313313 0.000000 -0.335968 -0.555227 2.091719
    10 0.068044 0.289749 0.174807 -0.003649 -0.937685 3.137847
    11 0.063958 -0.269955 0.174808 -0.003616 -0.937544 3.137862
    12 1.609424 -10.722983 -1.886166 -1.323646 -0.263223 -2.100027
    13 0.996124 -0.003876 -20.000000 1.570796 -1.531343 -1.570835
    14 1.257180 8.762585 -0.153713 -1.570562 0.002683 -1.566807
    15 -0.488518 -2.755602 -0.228260 -0.852976 0.020147 -0.242666
    16 0.039887 -1.479790 0.029854 -1.208016 0.000000 0.000001
    17 0.028786 -1.075731 -0.023109 -0.530140 0.000000 0.000000
    18 0.250027 -2.820665 -0.238396 -0.557519 0.025111 -0.158311
    19 -0.049759 -1.680544 0.100479 -1.430840 0.000000 -0.000002
    20 -0.034142 -1.148312 0.084782 -0.766456 0.000000 0.000000
    21 0.957766 -2.746780 -0.090302 0.105130 -0.318125 0.282857
    22 -0.033420 -1.397129 -0.011257 -0.388109 0.000000 -0.000001
    23 -0.022360 -0.957436 0.018784 -0.656157 0.000000 0.000000
    24 -1.180681 -2.507217 -0.193859 -0.953236 0.144549 -0.134616
    25 -0.024967 -1.123934 0.017597 -1.138636 0.000000 0.000001
    26 -0.020057 -0.890968 0.010090 -0.440505 0.000000 0.000000
    27 0.583510 -1.197277 0.185379 -0.204449 -0.800938 0.054872
    28 1.535927 0.010246 0.005009 -0.155144 -0.163158 -0.740111
    29 1.100771 0.004527 -0.010679 -0.011808 0.008974 -0.736574
    30 0.120153 -0.050270 -0.054489 0.287569 3.110905 1.561085
    31 -5.677184 0.116560 -9.860959 0.101853 -5.663178 0.288357
    32 0.096944 -8.450418 -0.009365 0.064822 0.191195 -0.000713
    33 0.447953 -2.798986 -0.200443 -0.448479 -0.083514 -0.165974
    34 -0.032909 -1.480204 0.004940 -1.005813 0.000000 0.000002
    35 -0.027022 -1.076920 -0.020210 -0.813166 0.000000 0.000000
    36 -0.249534 -2.846964 -0.174213 0.145408 0.023581 -0.119949
    37 0.043235 -1.683941 0.096012 -1.413382 0.002823 -0.000167
    38 0.031729 -1.160830 0.058838 -1.010511 0.000642 0.008372
    39 -0.963866 -2.785145 -0.085350 0.321584 0.136233 -0.037326
    40 0.028479 -1.403067 0.006271 -0.422391 0.000000 0.000000
    41 0.021413 -0.957781 0.020046 -0.879053 0.000000 0.000000
    42 1.164475 -2.543940 -0.170330 -0.774379 -0.494090 0.080418
    43 0.024032 -1.129042 0.017807 -0.304194 0.000000 0.000001
    44 0.014898 -0.883989 -0.019848 -0.741892 0.000000 0.000000
    45 -0.586770 -1.264477 0.200161 -0.198880 -0.326189 -2.626274
    46 1.522835 0.058681 0.016848 0.036465 0.041379 0.270448
    47 1.117947 0.048424 -0.005766 -0.003611 -0.024946 0.199871
    48 -0.139399 -0.111698 0.014397 0.285382 -0.030687 1.580508
    49 -1.393470 8.839177 -0.239433 1.580804 -0.005023 -1.566847
  time 5
    0 0.000000 0.000000 -0.093753 -0.004243 0.000000 0.000000
    1 9.512206 2.796738 -8.465341 0.592760 -1.910234 -0.825111
    2 -0.071918 -8.498730 -0.104136 -0.420019 0.264560 -0.225351
    3 2.176176 -5.464137 0.881548 -0.129531 2.899966 0.276555
    4 0.006734 -1.942639 -2.123448 -0.265570 -1.570796 0.000000
    5 2.120982 2.563700 -0.066897 -1.570796 1.525027 1.570796
    6 -4.049759 -3.741361 -0.403141 -0.163992 -3.183225 0.085123
    7 1.100606 0.000000 0.000000 1.057925 -0.180631 -0.031333
    8 0.953722 -0.312239 0.000000 0.167197 -0.186347 -1.916271
    9 0.958288 0.313313 0.000000 -0.324481 -0.520790 1.937992
    10 0.068044 0.289749 0.174807 -0.003649 -0.958867 3.137847
    11 0.063958 -0.269955 0.174808 -0.003616 -0.958664 3.137862
    12 2.148503 -10.746422 -1.601001 -1.358373 -0.276453 -2.057921
    13 0.996124 -0.003876 -20.000000 1.570796 -1.531343 -1.570835
    14 1.257180 8.762585 -0.153713 -1.570562 0.002683 -1.566807
    15 -0.488518 -2.755602 -0.228260 -0.852976 0.020147 -0.242666
    16 0.039887 -1.479790 0.029854 -1.208016 0.000000 0.000001
    17 0.028786 -1.075731 -0.023109 -0.530140 0.000000 0.000000
    18 0.250027 -2.820665 -0.238396 -0.557519 0.025111 -0.158311
    19 -0.049759 -1.680544 0.100479 -1.430840 0.000000 -0.000002
    20 -0.034142 -1.148312 0.084782 -0.766456 0.000000 0.000000
    21 0.957766 -2.746780 -0.090302 0.105130 -0.318125 0.282857
    22 -0.033420 -1.397129 -0.011257 -0.388109 0.000000 -0.000001
    23 -0.022360 -0.957436 0.018784 -0.656157 0.000000 0.000000
    24 -1.180681 -2.507217 -0.193859 -0.953236 0.144549 -0.134616
    25 -0.024967 -1.123934 0.017597 -1.138636 0.000000 0.000001
    26 -0.020057 -0.890968 0.010090 -0.440505 0.000000 0.000000
    27 0.583510 -1.197277 0.185379 -0.220245 -0.885949 0.077693
    28 1.535927 0.010246 0.005009 -0.135334 -0.185246 -0.869599
    29 1.100771 0.004527 -0.010679 -0.014217 0.006577 -0.952997
    30 0.120153 -0.050270 -0.054489 0.287569 3.110905 1.561085
    31 -4.278704 -1.692089 -8.806239 0.035141 -5.682010 0.293780
    32 0.096944 -8.450418 -0.009365 0.065023 0.301799 0.007937
    33 0.447953 -2.798986 -0.200443 -0.517960 -0.083514 -0.165974
    34 -0.032909 -1.480204 0.004940 -1.012873 0.000000 0.000002
    35 -0.027022 -1.076920 -0.020210 -0.813166 0.000000 0.000000
    36 -0.249534 -2.846964 -0.174213 0.145408 0.023581 -0.119949
    37 0.043235 -1.683941 0.096012 -1.422825 0.002823 -0.000167
    38 0.031729 -1.160830 0.058838 -1.014022 0.000642 0.008372
    39 -0.963866 -2.785145 -0.085350 0.339537 0.136233 -0.037326
    40 0.028479 -1.403067 0.006271 -0.422391 0.000000 0.000000
    41 0.021413 -0.957781 0.020046 -0.889649 0.000000 0.000000
    42 1.164475 -2.543940 -0.170330 -0.900643 -0.488394 0.111489
    43 0.024032 -1.129042 0.017807 -0.304194 0.000000 0.000001
    44 0.014898 -0.883989 -0.019848 -0.741892 0.000000 0.000000
    45 -0.586770 -1.264477 0.200161 -0.155292 -0.280864 -2.725674
    46 1.522835 0.058681 0.016848 0.036465 0.041379 0.270448
    47 1.117947 0.048424 -0.005766 -0.003611 -0.024946 0.199871
    48 -0.139399 -0.111698 0.014397 0.285382 -0.030687 1.580508
    49 -1.393470 8.839177 -0.239433 1.580804 -0.005023 -1.566847
  time 6
    0 0.000000 0.000000 -0.074221 -0.004386 0.000000 0.000000
    1 9.512206 3.042839 -8.469247 0.686022 -1.884620 -0.896358
    2 -0.071918 -8.498730 -0.104136 -0.379568 0.262882 -0.249619
    3 2.176176 -5.464137 0.881548 -0.129531 2.899966 0.276555
    4 0.006734 -1.942639 -2.123448 -0.127944 -1.570796 0.000000
    5 2.120982 2.563700 -0.066897 -1.570796 1.525027 1.570796
    6 -4.116167 -3.557762 -0.590647 0.046451 -3.268404 0.101518
    7 1.100606 0.000000 0.000000 0.859694 -0.043761 -0.031333
    8 0.953722 -0.312239 0.000000 0.139920 -0.169837 -1.785400
    9 0.958288 0.313313 0.000000 -0.294064 -0.431901 1.746315
    10 0.068044 0.289749 0.174807 -0.003649 -0.965024 3.137847
    11 0.063958 -0.269955 0.174808 -0.003616 -0.964855 3.137862
    12 2.878994 -10.976897 -1.472091 -1.398293 -0.270246 -1.983644
    13 0.996124 -0.003876 -20.000000 1.570796 -1.531343 -1.570835
    14 1.257180 8.762585 -0.153713 -1.570562 0.002683 -1.566807
    15 -0.488518 -2.755602 -0.228260 -0.852976 0.020147 -0.242666
    16 0.039887 -1.479790 0.029854 -1.208016 0.000000 0.000001
    17 0.028786 -1.075731 -0.023109 -0.530140 0.000000 0.000000
    18 0.250027 -2.820665 -0.238396 -0.557519 0.025111 -0.158311
    19 -0.049759 -1.680544 0.100479 -1.430840 0.000000 -0.000002
    20 -0.034142 -1.148312 0.084782 -0.766456 0.000000 0.000000
    21 0.957766 -2.746780 -0.090302 0.105130 -0.318125 0.282857
    22 -0.033420 -1.397129 -0.011257 -0.388109 0.000000 -0.000001
    23 -0.022360 -0.957436 0.018784 -0.656157 0.000000 0.000000
    24 -1.180681 -2.507217 -0.193859 -0.953236 0.144549 -0.134616
    25 -0.024967 -1.123934 0.017597 -1.138636 0.000000 0.000001
    26 -0.020057 -0.890968 0.010090 -0.440505 0.000000 0.000000
    27 0.583510 -1.197277 0.185379 -0.226872 -0.921580 0.087271
    28 1.535927 0.010246 0.005009 -0.127016 -0.194510 -0.923928
    29 1.100771 0.004527 -0.010679 -0.015224 0.005570 -1.043727
    30 0.120153 -0.050270 -0.054489 0.287569 3.110905 1.561085
    31 -2.817722 -3.555427 -8.087468 -0.057541 -5.707916 0.297134
    32 0.096944 -8.450418 -0.009365 0.065404 0.378996 0.014269
    33 0.447953 -2.798986 -0.200443 -0.545778 -0.083514 -0.165974
    34 -0.032909 -1.480204 0.004940 -1.015305 0.000000 0.000002
    35 -0.027022 -1.076920 -0.020210 -0.813166 0.000000 0.000000
    36 -0.249534 -2.846964 -0.174213 0.145408 0.023581 -0.119949
    37 0.043235 -1.683941 0.096012 -1.426046 0.002823 -0.000167
    38 0.031729 -1.160830 0.058838 -1.015242 0.000642 0.008372
    39 -0.963866 -2.785145 -0.085350 0.345410 0.136233 -0.037326
    40 0.028479 -1.403067 0.006271 -0.422391 0.000000 0.000000
    41 0.021413 -0.957781 0.020046 -0.893345 0.000000 0.000000
    42 1.164475 -2.543940 -0.170330 -0.951099 -0.486112 0.123925
    43 0.024032 -1.129042 0.017807 -0.304194 0.000000 0.000001
    44 0.014898 -0.883989 -0.019848 -0.741892 0.000000 0.000000
    45 -0.586770 -1.264477 0.200161 -0.121783 -0.246001 -2.802123
    46 1.522835 0.058681 0.016848 0.036465 0.041379 0.270448
    47 1.117947 0.048424 -0.005766 -0.003611 -0.024946 0.199871
    48 -0.139399 -0.111698 0.014397 0.285382 -0.030687 1.580508
    49 -1.393470 8.839177 -0.239433 1.580804 -0.005023 -1.566847
  time 7
    0 0.000000 0.000000 -0.054689 0.005141 0.000000 0.000000
    1 9.512206 3.312379 -8.469247 0.784521 -1.859085 -0.971653
    2 -0.071918 -8.498730 -0.104136 -0.324253 0.260342 -0.285193
    3 2.176176 -5.464137 0.881548 -0.129531 2.899966 0.276555
    4 0.006734 -1.942639 -2.123448 -0.034467 -1.570796 0.000000
    5 2.120982 2.563700 -0.066897 -1.570796 1.525027 1.570796
    6 -4.178669 -3.370256 -0.774246 0.126745 -3.301423 0.107941
    7 1.100606 0.000000 0.000000 0.659248 0.069283 -0.031333
    8 0.953722 -0.312239 0.000000 0.112619 -0.153028 -1.658879
    9 0.958288 0.313313 0.000000 -0.250230 -0.310407 1.539055
    10 0.068044 0.289749 0.174807 -0.003649 -0.984873 3.137847
    11 0.063958 -0.269955 0.174808 -0.003616 -0.984827 3.137862
    12 3.738395 -11.301126 -1.640065 -1.441454 -0.234912 -1.891165
    13 0.996124 -0.003876 -20.000000 1.570796 -1.531343 -1.570835
    14 1.257180 8.762585 -0.153713 -1.570562 0.002683 -1.566807
    15 -0.488518 -2.755602 -0.228260 -0.852976 0.020147 -0.242666
    16 0.039887 -1.479790 0.029854 -1.208016 0.000000 0.000001
    17 0.028786 -1.075731 -0.023109 -0.530140 0.000000 0.000000
    18 0.250027 -2.820665 -0.238396 -0.557519 0.025111 -0.158311
    19 -0.049759 -1.680544 0.100479 -1.430840 0.000000 -0.000002
    20 -0.034142 -1.148312 0.084782 -0.766456 0.000000 0.000000
    21 0.957766 -2.746780 -0.090302 0.105130 -0.318125 0.282857
    22 -0.033420 -1.397129 -0.011257 -0.388109 0.000000 -0.000001
    23 -0.022360 -0.957436 0.018784 -0.656157 0.000000 0.000000
    24 -1.180681 -2.507217 -0.193859 -0.953236 0.144549 -0.134616
    25 -0.024967 -1.123934 0.017597 -1.138636 0.000000 0.000001
    26 -0.020057 -0.890968 0.010090 -0.440505 0.000000 0.000000
    27 0.583510 -1.197277 0.185379 -0.226872 -0.921580 0.087271
    28 1.535927 0.010246 0.005009 -0.127016 -0.194510 -0.923928
    29 1.100771 0.004527 -0.010679 -0.015224 0.005570 -1.043727
    30 0.120153 -0.050270 -0.054489 0.287569 3.110905 1.561085
    31 -1.427054 -5.227353 -7.642141 -0.161091 -5.736307 0.301130
    32 0.096944 -8.450418 -0.009365 0.066099 0.408030 0.016731
    33 0.447953 -2.798986 -0.200443 -0.545778 -0.083514 -0.165974
    34 -0.032909 -1.480204 0.004940 -1.015305 0.000000 0.000002
    35 -0.027022 -1.076920 -0.020210 -0.813191 0.000000 0.000000
    36 -0.249534 -2.846964 -0.174213 0.145408 0.023581 -0.119949
    37 0.043235 -1.683941 0.096012 -1.426046 0.002823 -0.000167
    38 0.031729 -1.160830 0.058838 -1.015242 0.000642 0.008372
    39 -0.963866 -2.785145 -0.085350 0.345410 0.136233 -0.037326
    40 0.028479 -1.403067 0.006271 -0.422391 0.000000 0.000000
    41 0.021413 -0.957781 0.020046 -0.893345 0.000000 0.000000
    42 1.164475 -2.543940 -0.170330 -0.951099 -0.486112 0.123925
    43 0.024032 -1.129042 0.017807 -0.304194 0.000000 0.000001
    44 0.014898 -0.883989 -0.019848 -0.741892 0.000000 0.000000
    45 -0.586770 -1.264477 0.200161 -0.108372 -0.232062 -2.832705
    46 1.522835 0.058681 0.016848 0.036465 0.041379 0.270448
    47 1.117947 0.048424 -0.005766 -0.003611 -0.024946 0.199871
    48 -0.139399 -0.111698 0.014397 0.285382 -0.030687 1.580508
    49 -1.393470 8.839177 -0.239433 1.580804 -0.005023 -1.566847
  time 8
    0 0.000000 0.000000 -0.035157 0.027864 0.000000 0.000000
    1 9.512206 3.593637 -8.473154 0.884915 -1.834284 -1.048388
    2 -0.071918 -8.498730 -0.104136 -0.263994 0.257178 -0.328010
    3 2.176176 -5.464137 0.881548 -0.129531 2.899966 0.276555
    4 0.006734 -1.942639 -2.123448 0.000000 -1.570796 0.000000
    5 2.120982 2.563700 -0.066897 -1.570796 1.525027 1.570796
    6 -4.229452 -3.178844 -0.957846 0.093717 -3.246774 0.036803
    7 1.100606 0.000000 0.000000 0.480917 0.146159 -0.031333
    8 0.953722 -0.312239 0.000000 0.086816 -0.135973 -1.545341
    9 0.958288 0.313313 0.000000 -0.198861 -0.178013 1.338669
    10 0.068044 0.289749 0.174807 -0.003649 -1.047224 3.137847
    11 0.063958 -0.269955 0.174808 -0.003616 -1.047238 3.137862
    12 4.652486 -11.613636 -2.155705 -1.480134 -0.168762 -1.795867
    13 0.996124 -0.003876 -20.000000 1.570796 -1.531343 -1.570835
    14 1.257180 8.762585 -0.153713 -1.570562 0.002683 -1.566807
    15 -0.488518 -2.755602 -0.228260 -0.852976 0.020147 -0.242666
    16 0.039887 -1.479790 0.029854 -1.208016 0.000000 0.000001
    17 0.028786 -1.075731 -0.023109 -0.530140 0.000000 0.000000
    18 0.250027 -2.820665 -0.238396 -0.557519 0.025111 -0.158311
    19 -0.049759 -1.680544 0.100479 -1.430840 0.000000 -0.000002
    20 -0.034142 -1.148312 0.084782 -0.766456 0.000000 0.000000
    21 0.957766 -2.746780 -0.090302 0.105130 -0.318125 0.282857
    22 -0.033420 -1.397129 -0.011257 -0.388109 0.000000 -0.000001
    23 -0.022360 -0.957436 0.018784 -0.656157 0.000000 0.000000
    24 -1.180681 -2.507217 -0.193859 -0.953236 0.144549 -0.134616
    25 -0.024967 -1.123934 0.017597 -1.138636 0.000000 0.000001
    26 -0.020057 -0.890968 0.010090 -0.440505 0.000000 0.000000
    27 0.583510 -1.197277 0.185379 -0.226872 -0.921580 0.087271
    28 1.535927 0.010246 0.005009 -0.127016 -0.194510 -0.923928
    29 1.100771 0.004527 -0.010679 -0.015224 0.005570 -1.043727
    30 0.120153 -0.050270 -0.054489 0.287569 3.110905 1.561085
    31 -0.231705 -6.450047 -7.415572 -0.260313 -5.762787 0.308480
    32 0.096944 -8.450418 -0.009365 0.068229 0.098178 -0.006585
    33 0.447953 -2.798986 -0.200443 -0.545778 -0.083514 -0.165974
    34 -0.032909 -1.480204 0.004940 -1.015305 0.000000 0.000002
    35 -0.027022 -1.076920 -0.020210 -0.813166 0.000000 0.000000
    36 -0.249534 -2.846964 -0.174213 0.145408 0.023581 -0.119949
    37 0.043235 -1.683941 0.096012 -1.426046 0.002823 -0.000167
    38 0.031729 -1.160830 0.058838 -1.015242 0.000642 0.008372
    39 -0.963866 -2.785145 -0.085350 0.345410 0.136233 -0.037326
    40 0.028479 -1.403067 0.006271 -0.422391 0.000000 0.000000
    41 0.021413 -0.957781 0.020046 -0.893345 0.000000 0.000000
    42 1.164475 -2.543940 -0.170330 -0.951099 -0.486112 0.123925
    43 0.024032 -1.129042 0.017807 -0.304194 0.000000 0.000001
    44 0.014898 -0.883989 -0.019848 -0.741892 0.000000 0.000000
    45 -0.586770 -1.264477 0.200161 -0.136668 -0.261473 -2.768202
    46 1.522835 0.058681 0.016848 0.036465 0.041379 0.270448
    47 1.117947 0.048424 -0.005766 -0.005205 -0.024335 0.268063
    48 -0.139399 -0.111698 0.014397 0.285382 -0.030687 1.580508
    49 -1.393470 8.839177 -0.239433 1.580804 -0.005023 -1.566847
  time 9
    0 0.000000 0.000000 -0.015625 0.054997 0.000000 0.000000
    1 9.512206 3.874896 -8.473154 0.983414 -1.810813 -1.123773
    2 -0.071918 -8.498730 -0.104136 -0.208679 0.253582 -0.374117
    3 2.176176 -5.464137 0.881548 -0.129531 2.899966 0.276555
    4 0.006734 -1.942639 -2.123448 0.000000 -1.570796 0.000000
    5 2.120982 2.563700 -0.066897 -1.570796 1.525027 1.570796
    6 -4.264609 -3.003057 -1.145351 0.014956 -3.116517 -0.132702
    7 1.100606 0.000000 0.000000 0.349034 0.174520 -0.031333
    8 0.953722 -0.312239 0.000000 0.064046 -0.118782 -1.453511
    9 0.958288 0.313313 0.000000 -0.145562 -0.056472 1.167709
    10 0.068044 0.289749 0.174807 -0.003649 -1.236757 3.137847
    11 0.063958 -0.269955 0.174808 -0.003616 -1.236720 3.137862
    12 5.535325 -11.824580 -2.890103 -1.506691 -0.086170 -1.711078
    13 0.996124 -0.003876 -20.000000 1.570796 -1.531343 -1.570835
    14 1.257180 8.762585 -0.153713 -1.570562 0.002683 -1.566807
    15 -0.488518 -2.755602 -0.228260 -0.852976 0.020147 -0.242666
    16 0.039887 -1.479790 0.029854 -1.208016 0.000000 0.000001
    17 0.028786 -1.075731 -0.023109 -0.530140 0.000000 0.000000
    18 0.250027 -2.820665 -0.238396 -0.557519 0.025111 -0.158311
    19 -0.049759 -1.680544 0.100479 -1.430840 0.000000 -0.000002
    20 -0.034142 -1.148312 0.084782 -0.766456 0.000000 0.000000
    21 0.957766 -2.746780 -0.090302 0.105130 -0.318125 0.282857
    22 -0.033420 -1.397129 -0.011257 -0.388109 0.000000 -0.000001
    23 -0.022360 -0.957436 0.018784 -0.656157 0.000000 0.000000
    24 -1.180681 -2.507217 -0.193859 -0.953236 0.144549 -0.134616
    25 -0.024967 -1.123934 0.017597 -1.138636 0.000000 0.000001
    26 -0.020057 -0.890968 0.010090 -0.440505 0.000000 0.000000
    27 0.583510 -1.197277 0.185379 -0.226872 -0.921580 0.087271
    28 1.535927 0.010246 0.005009 -0.127016 -0.194510 -0.923928
    29 1.100771 0.004527 -0.010679 -0.015224 0.005570 -1.043727
    30 0.120153 -0.050270 -0.054489 0.287569 3.110905 1.561085
    31 0.639415 -6.993032 -7.353070 -0.340058 -5.782861 0.321824
    32 0.096944 -8.450418 -0.009365 0.075022 -0.477221 -0.049914
    33 0.447953 -2.798986 -0.200443 -0.545778 -0.083514 -0.165974
    34 -0.032909 -1.480204 0.004940 -1.015305 0.000000 0.000002
    35 -0.027022 -1.076920 -0.020210 -0.813166 0.000000 0.000000
    36 -0.249534 -2.846964 -0.174213 0.145408 0.023581 -0.119949
    37 0.043235 -1.683941 0.096012 -1.426046 0.002823 -0.000167
    38 0.031729 -1.160830 0.058838 -1.015242 0.000642 0.008372
    39 -0.963866 -2.785145 -0.085350 0.345410 0.136233 -0.037326
    40 0.028479 -1.403067 0.006271 -0.422391 0.000000 0.000000
    41 0.021413 -0.957781 0.020046 -0.893345 0.000000 0.000000
    42 1.164475 -2.543940 -0.170330 -0.951099 -0.486112 0.123925
    43 0.024032 -1.129042 0.017807 -0.304194 0.000000 0.000001
    44 0.014898 -0.883989 -0.019848 -0.741892 0.000000 0.000000
    45 -0.586770 -1.264477 0.200161 -0.198880 -0.326189 -2.626274
    46 1.522835 0.058681 0.016848 0.034464 0.042865 0.225170
    47 1.117947 0.048424 -0.005766 -0.008716 -0.023017 0.418088
    48 -0.139399 -0.111698 0.014397 0.285382 -0.030687 1.580508
    49 -1.393470 8.839177 -0.239433 1.580804 -0.005023 -1.566847
  time 10
    0 0.000000 0.000000 -0.003906 0.077732 0.000000 0.000000
    1 9.512206 4.144435 -8.477060 1.076676 -1.789266 -1.195020
    2 -0.071918 -8.498730 -0.104136 -0.168228 0.249783 -0.419495
    3 2.176176 -5.464137 0.881548 -0.129531 2.899966 0.276555
    4 0.006734 -1.942639 -2.123448 0.000000 -1.570796 0.000000
    5 2.120982 2.563700 -0.066897 -1.570796 1.525027 1.570796
    6 -4.276329 -2.842896 -1.336763 -0.079048 -2.960993 -0.335187
    7 1.100606 0.000000 0.000000 0.287034 -0.130234 -0.088039
    8 0.953722 -0.312239 0.000000 0.045817 -0.101592 -1.392067
    9 0.958288 0.313313 0.000000 -0.096122 0.032323 1.048633
    10 0.068044 0.289749 0.174807 -0.003649 -1.491031 3.137847
    11 0.063958 -0.269955 0.174808 -0.003616 -1.491059 3.137862
    12 6.281442 -11.914426 -3.667470 -1.522008 -0.004449 -1.646350
    13 0.996124 -0.003876 -20.000000 1.570796 -1.531343 -1.570835
    14 1.257180 8.762585 -0.153713 -1.570562 0.002683 -1.566807
    15 -0.488518 -2.755602 -0.228260 -0.852976 0.020147 -0.242666
    16 0.039887 -1.479790 0.029854 -1.208016 0.000000 0.000001
    17 0.028786 -1.075731 -0.023109 -0.530140 0.000000 0.000000
    18 0.250027 -2.820665 -0.238396 -0.557519 0.025111 -0.158311
    19 -0.049759 -1.680544 0.100479 -1.430840 0.000000 -0.000002
    20 -0.034142 -1.148312 0.084782 -0.766456 0.000000 0.000000
    21 0.957766 -2.746780 -0.090302 0.105130 -0.318125 0.282857
    22 -0.033420 -1.397129 -0.011257 -0.388109 0.000000 -0.000001
    23 -0.022360 -0.957436 0.018784 -0.656157 0.000000 0.000000
    24 -1.180681 -2.507217 -0.193859 -0.953236 0.144549 -0.134616
    25 -0.024967 -1.123934 0.017597 -1.138636 0.000000 0.000001
    26 -0.020057 -0.890968 0.010090 -0.440505 0.000000 0.000000
    27 0.583510 -1.197277 0.185379 -0.226872 -0.921580 0.087271
    28 1.535927 0.010246 0.005009 -0.127016 -0.194510 -0.923928
    29 1.100771 0.004527 -0.010679 -0.015224 0.005570 -1.043727
    30 0.120153 -0.050270 -0.054489 0.287569 3.110905 1.561085
    31 1.158962 -7.082879 -7.837460 -0.404982 -5.795767 0.351724
    32 0.096944 -8.450418 -0.009365 0.089795 -0.787073 -0.073230
    33 0.447953 -2.798986 -0.200443 -0.545778 -0.083514 -0.165974
    34 -0.032909 -1.480204 0.004940 -1.015305 0.000000 0.000002
    35 -0.027022 -1.076920 -0.020210 -0.813166 0.000000 0.000000
    36 -0.249534 -2.846964 -0.174213 0.145408 0.023581 -0.119949
    37 0.043235 -1.683941 0.096012 -1.426046 0.002823 -0.000167
    38 0.031729 -1.160830 0.058838 -1.015242 0.000642 0.008372
    39 -0.963866 -2.785145 -0.085350 0.345410 0.136233 -0.037326
    40 0.028479 -1.403067 0.006271 -0.422391 0.000000 0.000000
    41 0.021413 -0.957781 0.020046 -0.893345 0.000000 0.000000
    42 1.164475 -2.543940 -0.170330 -0.951099 -0.486112 0.123925
    43 0.024032 -1.129042 0.017807 -0.304194 0.000000 0.000001
    44 0.014898 -0.883989 -0.019848 -0.741892 0.000000 0.000000
    45 -0.586770 -1.264477 0.200161 -0.261104 -0.390906 -2.484347
    46 1.522835 0.058681 0.016848 0.030736 0.045610 0.141098
    47 1.117947 0.048424 -0.005766 -0.012216 -0.021687 0.568096
    48 -0.139399 -0.111698 0.014397 0.285382 -0.030687 1.580508
    49 -1.393470 8.839177 -0.239433 1.580804 -0.005023 -1.566847
  time 11
    0 0.000000 0.000000 0.000000 0.087260 0.000000 0.000000
    1 9.512206 4.390537 -8.480967 1.160910 -1.770279 -1.259430
    2 -0.071918 -8.498730 -0.104136 -0.152547 0.246008 -0.460126
    3 2.176176 -5.464137 0.881548 -0.129531 2.899966 0.276555
    4 0.006734 -1.942639 -2.123448 0.000000 -1.570796 0.000000
    5 2.120982 2.563700 -0.066897 -1.570796 1.525027 1.570796
    6 -3.881785 -2.678828 -1.535988 -0.157808 -2.830640 -0.504788
    7 1.100606 0.000000 0.000000 0.267773 -0.696229 -0.193364
    8 0.953722 -0.312239 0.000000 0.033677 -0.084510 -1.369642
    9 0.958288 0.313313 0.000000 -0.056148 0.066808 1.003899
    10 0.068044 0.289749 0.174807 3.137933 -1.523240 -0.003639
    11 0.063958 -0.269955 0.174808 3.137937 -1.523213 -0.003642
    12 6.800989 -11.914426 -4.280770 -1.533806 0.058598 -1.610076
    13 0.996124 -0.003876 -20.000000 1.570796 -1.531343 -1.570835
    14 1.257180 8.762585 -0.153713 -1.570562 0.002683 -1.566807
    15 -0.488518 -2.755602 -0.228260 -0.852976 0.020147 -0.242666
    16 0.039887 -1.479790 0.029854 -1.208016 0.000000 0.000001
    17 0.028786 -1.075731 -0.023109 -0.530140 0.000000 0.000000
    18 0.250027 -2.820665 -0.238396 -0.557519 0.025111 -0.158311
    19 -0.049759 -1.680544 0.100479 -1.430840 0.000000 -0.000002
    20 -0.034142 -1.148312 0.084782 -0.766456 0.000000 0.000000
    21 0.957766 -2.746780 -0.090302 0.105130 -0.318125 0.282857
    22 -0.033420 -1.397129 -0.011257 -0.388109 0.000000 -0.000001
    23 -0.022360 -0.957436 0.018784 -0.656157 0.000000 0.000000
    24 -1.180681 -2.507217 -0.193859 -0.953236 0.144549 -0.134616
    25 -0.024967 -1.123934 0.017597 -1.138636 0.000000 0.000001
    26 -0.020057 -0.890968 0.010090 -0.440505 0.000000 0.000000
    27 0.583510 -1.197277 0.185379 -0.226872 -0.921580 0.087271
    28 1.535927 0.010246 0.005009 -0.127016 -0.194510 -0.923928
    29 1.100771 0.004527 -0.010679 -0.015224 0.005570 -1.043727
    30 0.120153 -0.050270 -0.054489 0.287569 3.110905 1.561085
    31 1.432408 -7.133662 -8.899992 -0.463367 -5.804083 0.395039
    32 0.096944 -8.450418 -0.009365 0.223024 -0.755499 -0.070347
    33 0.447953 -2.798986 -0.200443 -0.545778 -0.083514 -0.165974
    34 -0.032909 -1.480204 0.004940 -1.015305 0.000000 0.000002
    35 -0.027022 -1.076920 -0.020210 -0.813191 0.000000 0.000000
    36 -0.249534 -2.846964 -0.174213 0.145408 0.023581 -0.119949
    37 0.043235 -1.683941 0.096012 -1.426046 0.002823 -0.000167
    38 0.031729 -1.160830 0.058838 -1.015242 0.000642 0.008372
    39 -0.963866 -2.785145 -0.085350 0.345410 0.136233 -0.037326
    40 0.028479 -1.403067 0.006271 -0.422391 0.000000 0.000000
    41 0.021413 -0.957781 0.020046 -0.893345 0.000000 0.000000
    42 1.164475 -2.543940 -0.170330 -0.951099 -0.486112 0.123925
    43 0.024032 -1.129042 0.017807 -0.304194 0.000000 0.000001
    44 0.014898 -0.883989 -0.019848 -0.741892 0.000000 0.000000
    45 -0.586770 -1.264477 0.200161 -0.289387 -0.420304 -2.419832
    46 1.522835 0.058681 0.016848 0.028723 0.047084 0.095833
    47 1.117947 0.048424 -0.005766 -0.013810 -0.021075 0.636305
    48 -0.139399 -0.111698 0.014397 0.285382 -0.030687 1.580508
    49 -1.393470 8.839177 -0.239433 1.580804 -0.005023 -1.566847
  time 12
    0 0.000000 0.000000 0.000000 0.073645 0.000000 0.000000
    1 9.512206 4.601481 -8.480967 1.232685 -1.754446 -1.314304
    2 -0.071918 -8.498730 -0.104136 -0.163026 0.238002 -0.513653
    3 2.176176 -5.464137 0.881548 -0.129531 2.899966 0.276555
    4 0.006734 -1.942639 -2.123448 0.000000 -1.570796 0.000000
    5 2.120982 2.563700 -0.066897 -1.570796 1.525027 1.570796
    6 -3.077073 -2.503042 -1.692243 -0.190885 -2.775991 -0.575926
    7 1.100606 0.000000 0.000000 0.240033 -1.001014 -0.250091
    8 0.953722 -0.312239 0.000000 0.028176 -0.063832 -1.573274
    9 0.958288 0.313313 0.000000 -0.028212 0.054499 1.360670
    10 0.068044 0.289749 0.174807 -0.003649 -1.311974 3.137847
    11 0.063958 -0.269955 0.174808 -0.003616 -1.311963 3.137862
    12 7.047090 -11.976928 -4.714377 -1.543666 0.107217 -1.603219
    13 0.996124 -0.003876 -20.000000 1.570796 -1.531343 -1.570835
    14 1.257180 8.762585 -0.153713 -1.570562 0.002683 -1.566807
    15 -0.488518 -2.755602 -0.228260 -0.852976 0.020147 -0.242666
    16 0.039887 -1.479790 0.029854 -1.208016 0.000000 0.000001
    17 0.028786 -1.075731 -0.023109 -0.530140 0.000000 0.000000
    18 0.250027 -2.820665 -0.238396 -0.557519 0.025111 -0.158311
    19 -0.049759 -1.680544 0.100479 -1.430840 0.000000 -0.000002
    20 -0.034142 -1.148312 0.084782 -0.766456 0.000000 0.000000
    21 0.957766 -2.746780 -0.090302 0.105130 -0.318125 0.282857
    22 -0.033420 -1.397129 -0.011257 -0.388109 0.000000 -0.000001
    23 -0.022360 -0.957436 0.018784 -0.656157 0.000000 0.000000
    24 -1.180681 -2.507217 -0.193859 -0.953236 0.144549 -0.134616
    25 -0.024967 -1.123934 0.017597 -1.138636 0.000000 0.000001
    26 -0.020057 -0.890968 0.010090 -0.440505 0.000000 0.000000
    27 0.583510 -1.197277 0.185379 -0.226872 -0.921580 0.087271
    28 1.535927 0.010246 0.005009 -0.127016 -0.194510 -0.923928
    29 1.100771 0.004527 -0.010679 -0.015224 0.005570 -1.043727
    30 0.120153 -0.050270 -0.054489 0.287569 3.110905 1.561085
    31 1.537880 -7.157100 -9.962525 -0.505568 -5.808576 0.434001
    32 0.096944 -8.450418 -0.009365 0.346345 -0.688269 -0.064185
    33 0.447953 -2.798986 -0.200443 -0.545778 -0.083514 -0.165974
    34 -0.032909 -1.480204 0.004940 -1.015305 0.000000 0.000002
    35 -0.027022 -1.076920 -0.020210 -0.813166 0.000000 0.000000
    36 -0.249534 -2.846964 -0.174213 0.145408 0.023581 -0.119949
    37 0.043235 -1.683941 0.096012 -1.426046 0.002823 -0.000167
    38 0.031729 -1.160830 0.058838 -1.015242 0.000642 0.008372
    39 -0.963866 -2.785145 -0.085350 0.345410 0.136233 -0.037326
    40 0.028479 -1.403067 0.006271 -0.422391 0.000000 0.000000
    41 0.021413 -0.957781 0.020046 -0.893345 0.000000 0.000000
    42 1.164475 -2.543940 -0.170330 -0.951099 -0.486112 0.123925
    43 0.024032 -1.129042 0.017807 -0.304194 0.000000 0.000001
    44 0.014898 -0.883989 -0.019848 -0.741892 0.000000 0.000000
    45 -0.586770 -1.264477 0.200161 -0.289387 -0.420304 -2.419832
    46 1.522835 0.058681 0.016848 0.029298 0.046665 0.108764
    47 1.117947 0.048424 -0.005766 -0.013055 -0.021363 0.603969
    48 -0.139399 -0.111698 0.014397 0.285382 -0.030687 1.580508
    49 -1.393470 8.839177 -0.239433 1.580804 -0.005023 -1.566847
  time 13
    0 0.000000 0.000000 0.000000 0.043696 0.000000 0.000000
    1 9.512206 4.765548 -8.480967 1.288389 -1.742383 -1.356854
    2 -0.071918 -8.498730 -0.104136 -0.173521 0.231842 -0.548741
    3 2.176176 -5.464137 0.881548 -0.129531 2.899966 0.276555
    4 0.006734 -1.942639 -2.123448 0.000000 -1.570796 0.000000
    5 2.120982 2.563700 -0.066897 -1.570796 1.525027 1.570796
    6 -1.959852 -2.338974 -1.766464 -0.170991 -2.813987 -0.516772
    7 1.100606 0.000000 0.000000 0.171513 -0.701444 -0.200334
    8 0.953722 -0.312239 0.000000 0.025911 -0.040593 -1.951425
    9 0.958288 0.313313 0.000000 -0.010568 0.029692 2.023060
    10 0.068044 0.289749 0.174807 -0.003649 -0.742821 3.137847
    11 0.063958 -0.269955 0.174808 -0.003616 -0.742820 3.137862
    12 7.211158 -12.082400 -4.776879 -1.551851 0.119412 -1.601360
    13 0.996124 -0.003876 -20.000000 1.570796 -1.531343 -1.570835
    14 1.257180 8.762585 -0.153713 -1.570562 0.002683 -1.566807
    15 -0.488518 -2.755602 -0.228260 -0.852976 0.020147 -0.242666
    16 0.039887 -1.479790 0.029854 -1.208016 0.000000 0.000001
    17 0.028786 -1.075731 -0.023109 -0.530140 0.000000 0.000000
    18 0.250027 -2.820665 -0.238396 -0.557519 0.025111 -0.158311
    19 -0.049759 -1.680544 0.100479 -1.430840 0.000000 -0.000002
    20 -0.034142 -1.148312 0.084782 -0.766456 0.000000 0.000000
    21 0.957766 -2.746780 -0.090302 0.105130 -0.318125 0.282857
    22 -0.033420 -1.397129 -0.011257 -0.388109 0.000000 -0.000001
    23 -0.022360 -0.957436 0.018784 -0.656157 0.000000 0.000000
    24 -1.180681 -2.507217 -0.193859 -0.953236 0.144549 -0.134616
    25 -0.024967 -1.123934 0.017597 -1.138636 0.000000 0.000001
    26 -0.020057 -0.890968 0.010090 -0.440505 0.000000 0.000000
    27 0.583510 -1.197277 0.185379 -0.226872 -0.921580 0.087271
    28 1.535927 0.010246 0.005009 -0.127016 -0.194510 -0.923928
    29 1.100771 0.004527 -0.010679 -0.015224 0.005570 -1.043727
    30 0.120153 -0.050270 -0.054489 0.287569 3.110905 1.561085
    31 1.553506 -7.161006 -10.446915 -0.521752 -5.809914 0.450913
    32 0.096944 -8.450418 -0.009365 0.316910 -0.601168 -0.056207
    33 0.447953 -2.798986 -0.200443 -0.545778 -0.083514 -0.165974
    34 -0.032909 -1.480204 0.004940 -1.015305 0.000000 0.000002
    35 -0.027022 -1.076920 -0.020210 -0.813166 0.000000 0.000000
    36 -0.249534 -2.846964 -0.174213 0.145408 0.023581 -0.119949
    37 0.043235 -1.683941 0.096012 -1.426046 0.002823 -0.000167
    38 0.031729 -1.160830 0.058838 -1.015242 0.000642 0.008372
    39 -0.963866 -2.785145 -0.085350 0.345410 0.136233 -0.037326
    40 0.028479 -1.403067 0.006271 -0.422391 0.000000 0.000000
    41 0.021413 -0.957781 0.020046 -0.893345 0.000000 0.000000
    42 1.164475 -2.543940 -0.170330 -0.951099 -0.486112 0.123925
    43 0.024032 -1.129042 0.017807 -0.304194 0.000000 0.000001
    44 0.014898 -0.883989 -0.019848 -0.741892 0.000000 0.000000
    45 -0.586770 -1.264477 0.200161 -0.289387 -0.420304 -2.419832
    46 1.522835 0.058681 0.016848 0.030736 0.045610 0.141098
    47 1.117947 0.048424 -0.005766 -0.011173 -0.022082 0.523146
    48 -0.139399 -0.111698 0.014397 0.285382 -0.030687 1.580508
    49 -1.393470 8.839177 -0.239433 1.580804 -0.005023 -1.566847
  time 14
    0 0.000000 0.000000 0.000000 0.013698 0.000000 0.000000
    1 9.512206 4.874926 -8.480967 1.324412 -1.734684 -1.384471
    2 -0.071918 -8.498730 -0.104136 -0.170254 0.234059 -0.534895
    3 2.176176 -5.464137 0.881548 -0.129531 2.899966 0.276555
    4 0.006734 -1.942639 -2.123448 0.000000 -1.570796 0.000000
    5 2.120982 2.563700 -0.066897 -1.570796 1.525027 1.570796
    6 -0.741064 -2.171000 -1.805528 -0.123677 -2.904717 -0.375742
    7 1.100606 0.000000 0.000000 0.103504 -0.301792 -0.128720
    8 0.953722 -0.312239 0.000000 0.022411 -0.021877 -2.155058
    9 0.958288 0.313313 0.000000 -0.003033 0.010430 2.379830
    10 0.068044 0.289749 0.174807 -0.003649 -0.436351 3.137847
    11 0.063958 -0.269955 0.174808 -0.003616 -0.436355 3.137862
    12 7.410382 -12.125370 -4.386242 -1.559742 0.082390 -1.590722
    13 0.996124 -0.003876 -20.000000 1.570796 -1.531343 -1.570835
    14 1.257180 8.762585 -0.153713 -1.570562 0.002683 -1.566807
    15 -0.488518 -2.755602 -0.228260 -0.852976 0.020147 -0.242666
    16 0.039887 -1.479790 0.029854 -1.208016 0.000000 0.000001
    17 0.028786 -1.075731 -0.023109 -0.530140 0.000000 0.000000
    18 0.250027 -2.820665 -0.238396 -0.557519 0.025111 -0.158311
    19 -0.049759 -1.680544 0.100479 -1.430840 0.000000 -0.000002
    20 -0.034142 -1.148312 0.084782 -0.766456 0.000000 0.000000
    21 0.957766 -2.746780 -0.090302 0.105130 -0.318125 0.282857
    22 -0.033420 -1.397129 -0.011257 -0.388109 0.000000 -0.000001
    23 -0.022360 -0.957436 0.018784 -0.656157 0.000000 0.000000
    24 -1.180681 -2.507217 -0.193859 -0.953236 0.144549 -0.134616
    25 -0.024967 -1.123934 0.017597 -1.138636 0.000000 0.000001
    26 -0.020057 -0.890968 0.010090 -0.440505 0.000000 0.000000
    27 0.583510 -1.197277 0.185379 -0.226872 -0.921580 0.087271
    28 1.535927 0.010246 0.005009 -0.127016 -0.194510 -0.923928
    29 1.100771 0.004527 -0.010679 -0.015224 0.005570 -1.043727
    30 0.120153 -0.050270 -0.054489 0.287569 3.110905 1.561085
    31 1.553506 -7.161006 -10.446915 -0.521752 -5.809914 0.450913
    32 0.096944 -8.450418 -0.009365 0.246720 -0.496383 -0.046609
    33 0.447953 -2.798986 -0.200443 -0.545778 -0.083514 -0.165974
    34 -0.032909 -1.480204 0.004940 -1.015305 0.000000 0.000002
    35 -0.027022 -1.076920 -0.020210 -0.813166 0.000000 0.000000
    36 -0.249534 -2.846964 -0.174213 0.145408 0.023581 -0.119949
    37 0.043235 -1.683941 0.096012 -1.426046 0.002823 -0.000167
    38 0.031729 -1.160830 0.058838 -1.015242 0.000642 0.008372
    39 -0.963866 -2.785145 -0.085350 0.345410 0.136233 -0.037326
    40 0.028479 -1.403067 0.006271 -0.422391 0.000000 0.000000
    41 0.021413 -0.957781 0.020046 -0.893345 0.000000 0.000000
    42 1.164475 -2.543940 -0.170330 -0.951099 -0.486112 0.123925
    43 0.024032 -1.129042 0.017807 -0.304194 0.000000 0.000001
    44 0.014898 -0.883989 -0.019848 -0.741892 0.000000 0.000000
    45 -0.586770 -1.264477 0.200161 -0.289387 -0.420304 -2.419832
    46 1.522835 0.058681 0.016848 0.032594 0.044232 0.183140
    47 1.117947 0.048424 -0.005766 -0.008716 -0.023017 0.418088
    48 -0.139399 -0.111698 0.014397 0.285382 -0.030687 1.580508
    49 -1.393470 8.839177 -0.239433 1.580804 -0.005023 -1.566847
  time 15
    0 0.000000 0.000000 0.000000 0.000000 0.000000 0.000000
    1 9.512206 4.910084 -8.480967 1.337142 -1.732006 -1.394187
    2 -0.071918 -8.498730 -0.104136 -0.163026 0.238925 -0.504422
    3 2.176176 -5.464137 0.881548 -0.129531 2.899966 0.276555
    4 0.006734 -1.942639 -2.123448 0.000000 -1.570796 0.000000
    5 2.120982 2.563700 -0.066897 -1.570796 1.525027 1.570796
    6 -0.170734 -1.979588 -1.844591 -0.067160 -3.012962 -0.207388
    7 1.100606 0.000000 0.000000 0.055310 -0.134555 -0.084017
    8 0.953722 -0.312239 0.000000 0.014106 -0.009944 -2.041867
    9 0.958288 0.313313 0.000000 -0.001011 0.003054 2.204561
    10 0.068044 0.289749 0.174807 -0.003649 -0.730461 3.137847
    11 0.063958 -0.269955 0.174808 -0.003616 -0.730488 3.137862
    12 7.543199 -12.082400 -3.995605 -1.565277 0.041938 -1.580980
    13 0.996124 -0.003876 -20.000000 1.570796 -1.531343 -1.570835
    14 1.257180 8.762585 -0.153713 -1.570562 0.002683 -1.566807
    15 -0.488518 -2.755602 -0.228260 -0.852976 0.020147 -0.242666
    16 0.039887 -1.479790 0.029854 -1.208016 0.000000 0.000001
    17 0.028786 -1.075731 -0.023109 -0.530140 0.000000 0.000000
    18 0.250027 -2.820665 -0.238396 -0.557519 0.025111 -0.158311
    19 -0.049759 -1.680544 0.100479 -1.430840 0.000000 -0.000002
    20 -0.034142 -1.148312 0.084782 -0.766456 0.000000 0.000000
    21 0.957766 -2.746780 -0.090302 0.105130 -0.318125 0.282857
    22 -0.033420 -1.397129 -0.011257 -0.388109 0.000000 -0.000001
    23 -0.022360 -0.957436 0.018784 -0.656157 0.000000 0.000000
    24 -1.180681 -2.507217 -0.193859 -0.953236 0.144549 -0.134616
    25 -0.024967 -1.123934 0.017597 -1.138636 0.000000 0.000001
    26 -0.020057 -0.890968 0.010090 -0.440505 0.000000 0.000000
    27 0.583510 -1.197277 0.185379 -0.226872 -0.921580 0.087271
    28 1.535927 0.010246 0.005009 -0.127016 -0.194510 -0.923928
    29 1.100771 0.004527 -0.010679 -0.015224 0.005570 -1.043727
    30 0.120153 -0.050270 -0.054489 0.287569 3.110905 1.561085
    31 1.553506 -7.161006 -10.446915 -0.521752 -5.809914 0.450913
    32 0.096944 -8.450418 -0.009365 0.162922 -0.395200 -0.037327
    33 0.447953 -2.798986 -0.200443 -0.545778 -0.083514 -0.165974
    34 -0.032909 -1.480204 0.004940 -1.015305 0.000000 0.000002
    35 -0.027022 -1.076920 -0.020210 -0.813166 0.000000 0.000000
    36 -0.249534 -2.846964 -0.174213 0.145408 0.023581 -0.119949
    37 0.043235 -1.683941 0.096012 -1.426046 0.002823 -0.000167
    38 0.031729 -1.160830 0.058838 -1.015242 0.000642 0.008372
    39 -0.963866 -2.785145 -0.085350 0.345410 0.136233 -0.037326
    40 0.028479 -1.403067 0.006271 -0.422391 0.000000 0.000000
    41 0.021413 -0.957781 0.020046 -0.893345 0.000000 0.000000
    42 1.164475 -2.543940 -0.170330 -0.951099 -0.486112 0.123925
    43 0.024032 -1.129042 0.017807 -0.304194 0.000000 0.000001
    44 0.014898 -0.883989 -0.019848 -0.741892 0.000000 0.000000
    45 -0.586770 -1.264477 0.200161 -0.289387 -0.420304 -2.419832
    46 1.522835 0.058681 0.016848 0.034464 0.042865 0.225170
    47 1.117947 0.048424 -0.005766 -0.006259 -0.023940 0.313013
    48 -0.139399 -0.111698 0.014397 0.285382 -0.030687 1.580508
    49 -1.393470 8.839177 -0.239433 1.580804 -0.005023 -1.566847
  time 16
    0 0.000000 0.000000 0.000000 -0.000120 0.000000 0.000000
    1 9.512206 4.910084 -8.480967 1.337142 -1.732006 -1.394187
    2 -0.071918 -8.498730 -0.104136 -0.155813 0.243803 -0.473971
    3 2.176176 -5.464137 0.881548 -0.129531 2.899966 0.276555
    4 0.006734 -1.942639 -2.123448 0.000000 -1.570796 0.000000
    5 2.120982 2.563700 -0.066897 -1.570796 1.525027 1.570796
    6 -0.366053 -1.647547 -1.911000 -0.019846 -3.103597 -0.066357
    7 1.100606 0.000000 0.000000 0.016150 -0.033731 -0.046852
    8 0.953722 -0.312239 0.000000 0.004554 -0.002534 -1.831662
    9 0.958288 0.313313 0.000000 -0.000184 0.000376 1.879050
    10 0.068044 0.289749 0.174807 -0.003649 -1.276686 3.137847
    11 0.063958 -0.269955 0.174808 -0.003616 -1.276713 3.137862
    12 7.617420 -11.996460 -3.741691 -1.568982 0.012974 -1.573995
    13 0.996124 -0.003876 -20.000000 1.570796 -1.531343 -1.570835
    14 1.257180 8.762585 -0.153713 -1.570562 0.002683 -1.566807
    15 -0.488518 -2.755602 -0.228260 -0.852976 0.020147 -0.242666
    16 0.039887 -1.479790 0.029854 -1.208016 0.000000 0.000001
    17 0.028786 -1.075731 -0.023109 -0.530140 0.000000 0.000000
    18 0.250027 -2.820665 -0.238396 -0.557519 0.025111 -0.158311
    19 -0.049759 -1.680544 0.100479 -1.430840 0.000000 -0.000002
    20 -0.034142 -1.148312 0.084782 -0.766456 0.000000 0.000000
    21 0.957766 -2.746780 -0.090302 0.105130 -0.318125 0.282857
    22 -0.033420 -1.397129 -0.011257 -0.388109 0.000000 -0.000001
    23 -0.022360 -0.957436 0.018784 -0.656157 0.000000 0.000000
    24 -1.180681 -2.507217 -0.193859 -0.953236 0.144549 -0.134616
    25 -0.024967 -1.123934 0.017597 -1.138636 0.000000 0.000001
    26 -0.020057 -0.890968 0.010090 -0.440505 0.000000 0.000000
    27 0.583510 -1.197277 0.185379 -0.226872 -0.921580 0.087271
    28 1.535927 0.010246 0.005009 -0.127016 -0.194510 -0.923928
    29 1.100771 0.004527 -0.010679 -0.015224 0.005570 -1.043727
    30 0.120153 -0.050270 -0.054489 0.287569 3.110905 1.561085
    31 1.553506 -7.161006 -10.446915 -0.521752 -5.809914 0.450913
    32 0.096944 -8.450418 -0.009365 0.092732 -0.318870 -0.030336
    33 0.447953 -2.798986 -0.200443 -0.545778 -0.083514 -0.165974
    34 -0.032909 -1.480204 0.004940 -1.015305 0.000000 0.000002
    35 -0.027022 -1.076920 -0.020210 -0.813191 0.000000 0.000000
    36 -0.249534 -2.846964 -0.174213 0.145408 0.023581 -0.119949
    37 0.043235 -1.683941 0.096012 -1.426046 0.002823 -0.000167
    38 0.031729 -1.160830 0.058838 -1.015242 0.000642 0.008372
    39 -0.963866 -2.785145 -0.085350 0.345410 0.136233 -0.037326
    40 0.028479 -1.403067 0.006271 -0.422391 0.000000 0.000000
    41 0.021413 -0.957781 0.020046 -0.893345 0.000000 0.000000
    42 1.164475 -2.543940 -0.170330 -0.951099 -0.486112 0.123925
    43 0.024032 -1.129042 0.017807 -0.304194 0.000000 0.000001
    44 0.014898 -0.883989 -0.019848 -0.741892 0.000000 0.000000
    45 -0.586770 -1.264477 0.200161 -0.289387 -0.420304 -2.419832
    46 1.522835 0.058681 0.016848 0.035902 0.041811 0.257505
    47 1.117947 0.048424 -0.005766 -0.004366 -0.024659 0.232190
    48 -0.139399 -0.111698 0.014397 0.285382 -0.030687 1.580508
    49 -1.393470 8.839177 -0.239433 1.580804 -0.005023 -1.566847
  time 17
    0 0.000000 0.000000 0.000000 -0.000252 0.000000 0.000000
    1 9.512206 4.910084 -8.480967 1.337142 -1.732006 -1.394187
    2 -0.071918 -8.498730 -0.104136 -0.152547 0.246008 -0.460126
    3 2.176176 -5.464137 0.881548 -0.129531 2.899966 0.276555
    4 0.006734 -1.942639 -2.123448 0.000000 -1.570796 0.000000
    5 2.120982 2.563700 -0.066897 -1.570796 1.525027 1.570796
    6 -0.557465 -1.424884 -1.946157 0.000000 -3.141592 -0.007299
    7 1.100606 0.000000 0.000000 0.000000 0.000000 -0.031333
    8 0.953722 -0.312239 0.000000 0.000000 0.000000 -1.718471
    9 0.958288 0.313313 0.000000 0.000000 0.000000 1.703873
    10 0.068044 0.289749 0.174807 3.134294 -1.570796 0.000000
    11 0.063958 -0.269955 0.174808 3.134294 -1.570796 0.000000
    12 7.652577 -11.953490 -3.628407 -1.570796 -0.000256 -1.570790
    13 0.996124 -0.003876 -20.000000 1.570796 -1.531343 -1.570835
    14 1.257180 8.762585 -0.153713 -1.570562 0.002683 -1.566807
    15 -0.488518 -2.755602 -0.228260 -0.852976 0.020147 -0.242666
    16 0.039887 -1.479790 0.029854 -1.208016 0.000000 0.000001
    17 0.028786 -1.075731 -0.023109 -0.530140 0.000000 0.000000
    18 0.250027 -2.820665 -0.238396 -0.557519 0.025111 -0.158311
    19 -0.049759 -1.680544 0.100479 -1.430840 0.000000 -0.000002
    20 -0.034142 -1.148312 0.084782 -0.766456 0.000000 0.000000
    21 0.957766 -2.746780 -0.090302 0.105130 -0.318125 0.282857
    22 -0.033420 -1.397129 -0.011257 -0.388109 0.000000 -0.000001
    23 -0.022360 -0.957436 0.018784 -0.656157 0.000000 0.000000
    24 -1.180681 -2.507217 -0.193859 -0.953236 0.144549 -0.134616
    25 -0.024967 -1.123934 0.017597 -1.138636 0.000000 0.000001
    26 -0.020057 -0.890968 0.010090 -0.440505 0.000000 0.000000
    27 0.583510 -1.197277 0.185379 -0.226872 -0.921580 0.087271
    28 1.535927 0.010246 0.005009 -0.127016 -0.194510 -0.923928
    29 1.100771 0.004527 -0.010679 -0.015224 0.005570 -1.043727
    30 0.120153 -0.050270 -0.054489 0.287569 3.110905 1.561085
    31 1.553506 -7.161006 -10.446915 -0.521752 -5.809914 0.450913
    32 0.096944 -8.450418 -0.009365 0.063297 -0.288744 -0.027585
    33 0.447953 -2.798986 -0.200443 -0.545778 -0.083514 -0.165974
    34 -0.032909 -1.480204 0.004940 -1.015305 0.000000 0.000002
    35 -0.027022 -1.076920 -0.020210 -0.813166 0.000000 0.000000
    36 -0.249534 -2.846964 -0.174213 0.145408 0.023581 -0.119949
    37 0.043235 -1.683941 0.096012 -1.426046 0.002823 -0.000167
    38 0.031729 -1.160830 0.058838 -1.015242 0.000642 0.008372
    39 -0.963866 -2.785145 -0.085350 0.345410 0.136233 -0.037326
    40 0.028479 -1.403067 0.006271 -0.422391 0.000000 0.000000
    41 0.021413 -0.957781 0.020046 -0.893345 0.000000 0.000000
    42 1.164475 -2.543940 -0.170330 -0.951099 -0.486112 0.123925
    43 0.024032 -1.129042 0.017807 -0.304194 0.000000 0.000001
    44 0.014898 -0.883989 -0.019848 -0.741892 0.000000 0.000000
    45 -0.586770 -1.264477 0.200161 -0.289387 -0.420304 -2.419832
    46 1.522835 0.058681 0.016848 0.036465 0.041379 0.270448
    47 1.117947 0.048424 -0.005766 -0.003611 -0.024946 0.199871
    48 -0.139399 -0.111698 0.014397 0.285382 -0.030687 1.580508
    49 -1.393470 8.839177 -0.239433 1.580804 -0.005023 -1.566847
end
