// Created by Crowbar 0.68

$modelname "weapons/tfa_cso/c_quantum_horizon.mdl"

$include "csonline_gmod.qci"

$bodygroup "weapon"
{
	studio "v_revivegun01"
}
$bodygroup "weapon"
{
	studio "v_revivegun02"
}
$bodygroup "weapon"
{
	studio "v_revivegun03"
}
$bodygroup "weapon"
{
	studio "v_revivegun_light"
}

$CDMaterials "models\weapons\tfa_cso\quantum_horizon"

$attachment 0 "revivegun_root" 0.3 0 2.5
//$attachment 1 "revive_bone01" 0 0 0
//$attachment 2 "revive_bone02" 0 0 0
//$attachment 3 "revive_bone03" 0 0 0
//$attachment 4 "revive_bone04" 0 0 0
//$attachment 5 "sprite_attach01" 0 0 0
//$attachment 6 "root" -10.5 -28 -7.5
//$attachment 7 "root" -32 -22 -2

$sequence "idle" {
	"v_revivegun_anims\idle"
	fps 30
	loop
}
$sequence "reload" {
	"v_revivegun_anims\reload"
	{ event 5004 4 "Quantum.ClipOutA" }
	{ event 5004 22 "Quantum.ClipIn" }
	fps 30
}
$sequence "draw" {
	"v_revivegun_anims\draw"
	{ event 5004 4 "Quantum.Draw" }
	fps 30
}
$sequence "shootA" {
	"v_revivegun_anims\shootA"
	{ event 5001 0 "#I225 S0.085 R0 F0 P30 T999 A1 L0 O0 X0 D0" }
	{ event 5001 0 "#I224 S0.075 R0 F0 P30 T0.2 A1 L0 O0 X0 D0" }
	{ event 5001 1 "#I224 S0.07 R0 F0 P30 T999 A1 L0 O0 X0 D1" }
	fps 30
}
$sequence "shootB_start" {
	"v_revivegun_anims\shootB_start"
	{ event 5004 0 "Quantum.ShootB_Start" }
	fps 30
}
$sequence "shootB" {
	"v_revivegun_anims\shootB"
	{ event 5011 0 "#I223 S0.03 R2 F0 P30 T999 A1 L0 O0 X1 D0" }
	{ event 5021 0 "#I223 S0.03 R2 F0 P30 T999 A1 L0 O0 X2 D0" }
	{ event 5031 0 "#I223 S0.03 R2 F0 P30 T999 A1 L0 O0 X3 D0" }
	{ event 5041 0 "#I223 S0.03 R2 F0 P30 T999 A1 L0 O0 X4 D0" }
	{ event 5004 34 "Quantum.ShootB" }
	fps 30
}
$sequence "revive_idle" {
	"v_revivegun_anims\revive_idle"
	{ event 5004 1 "Quantum.Idle2" }
	fps 30
	activity "ACT_VM_IDLE" 1
	snap
	loop
}
$sequence "revive_reload" {
	"v_revivegun_anims\revive_reload"
	{ event 5004 4 "Quantum.ClipOutA" }
	{ event 5004 22 "Quantum.ClipIn" }
	fps 30
	activity "ACT_VM_RELOAD" 1
	snap
}
$sequence "revive_draw" {
	"v_revivegun_anims\revive_draw"
	{ event 5004 4 "Quantum.Draw" }
	fps 30
	activity "ACT_VM_DRAW" 1
	snap
}
$sequence "revive_shootA" {
	"v_revivegun_anims\revive_shootA"
	{ event 5001 0 "#I225 S0.085 R0 F0 P30 T999 A1 L0 O0 X0 D0" }
	{ event 5001 0 "#I224 S0.075 R0 F0 P30 T0.2 A1 L0 O0 X0 D0" }
	{ event 5001 1 "#I224 S0.07 R0 F0 P30 T999 A1 L0 O0 X0 D1" }
	fps 30
	activity "ACT_VM_PRIMARYATTACK" 1
	snap
}
$sequence "revive_shootB_start" {
	"v_revivegun_anims\revive_shootB_start"
	{ event 5004 0 "Quantum.ShootB_Start" }
	fps 30
}
$sequence "revive_shootB" {
	"v_revivegun_anims\revive_shootB"
	{ event 5011 0 "#I223 S0.03 R2 F0 P30 T999 A1 L0 O0 X1 D0" }
	{ event 5021 0 "#I223 S0.03 R2 F0 P30 T999 A1 L0 O0 X2 D0" }
	{ event 5031 0 "#I223 S0.03 R2 F0 P30 T999 A1 L0 O0 X3 D0" }
	{ event 5041 0 "#I223 S0.03 R2 F0 P30 T999 A1 L0 O0 X4 D0" }
	{ event 5004 34 "Quantum.ShootB" }
	fps 30
}
$sequence "revive" {
	"v_revivegun_anims\revive"
	{ event 5061 30 "#I226 S0.1 R0 F0 P30 T999 A1 L0 O0 X6 D0" }
	{ event 5071 30 "#I226 S0.1 R0 F0 P30 T999 A1 L0 O0 X7 D0" }
	fps 30
}
