version 1
nodes
0 "root" -1
end
skeleton
time 0
0 0 0 0 0 0 0
end
triangles
heart_bomb.bmp
0  -1.119960 -1.542323 0.342890  -0.191094 -0.979172 0.068597  0.505976 0.638554 0
0  -1.909960 -1.252323 -0.597110  -0.439541 -0.878583 -0.186806  0.581673 0.514056 0
0  -1.019960 -1.542324 -0.627109  -0.208532 -0.970449 -0.121424  0.494024 0.538153 0
heart_bomb.bmp
0  -1.019960 -1.542324 -0.627109  -0.208532 -0.970449 -0.121424  0.494024 0.538153 0
0  -1.909960 -1.252323 -0.597110  -0.439541 -0.878583 -0.186806  0.581673 0.514056 0
0  -1.569959 -1.102324 -1.557110  -0.444850 -0.790268 -0.421408  0.549801 0.417671 0
heart_bomb.bmp
0  -1.909960 -1.252323 -0.597110  -0.439541 -0.878583 -0.186806  0.581673 0.514056 0
0  -2.126070 -0.718828 -1.487564  -0.686747 -0.524020 -0.503768  0.613546 0.397590 0
0  -1.569959 -1.102324 -1.557110  -0.444850 -0.790268 -0.421408  0.549801 0.417671 0
heart_bomb.bmp
0  -1.569959 -1.102324 -1.557110  -0.444850 -0.790268 -0.421408  0.549801 0.417671 0
0  -2.126070 -0.718828 -1.487564  -0.686747 -0.524020 -0.503768  0.613546 0.397590 0
0  -1.500376 -0.534953 -2.234021  -0.581902 -0.411790 -0.701298  0.557769 0.313253 0
heart_bomb.bmp
0  -2.126070 -0.718828 -1.487564  -0.686747 -0.524020 -0.503768  0.613546 0.397590 0
0  -1.709592 -0.010739 -2.228683  -0.672163 0.000037 -0.740403  0.601594 0.281124 0
0  -1.500376 -0.534953 -2.234021  -0.581902 -0.411790 -0.701298  0.557769 0.313253 0
heart_bomb.bmp
0  -1.500376 -0.534953 -2.234021  -0.581902 -0.411790 -0.701298  0.557769 0.313253 0
0  -1.709592 -0.010739 -2.228683  -0.672163 0.000037 -0.740403  0.601594 0.281124 0
0  -0.882072 -0.011816 -2.811853  -0.606603 -0.000016 -0.795005  0.505976 0.228916 0
heart_bomb.bmp
0  -1.709592 -0.010739 -2.228683  -0.672163 0.000037 -0.740403  0.601594 0.281124 0
0  -1.488593 0.539676 -2.239724  -0.581853 0.411655 -0.701418  0.557769 0.313253 0
0  -0.882072 -0.011816 -2.811853  -0.606603 -0.000016 -0.795005  0.505976 0.228916 0
heart_bomb.bmp
0  -0.882072 -0.011816 -2.811853  -0.606603 -0.000016 -0.795005  0.505976 0.228916 0
0  -1.488593 0.539676 -2.239724  -0.581853 0.411655 -0.701418  0.557769 0.313253 0
0  -0.769003 0.276630 -2.836646  -0.547393 0.330364 -0.768909  0.482072 0.248996 0
heart_bomb.bmp
0  -1.488593 0.539676 -2.239724  -0.581853 0.411655 -0.701418  0.557769 0.313253 0
0  -1.090415 0.820195 -2.304250  -0.417236 0.642056 -0.643179  0.505976 0.337349 0
0  -0.769003 0.276630 -2.836646  -0.547393 0.330364 -0.768909  0.482072 0.248996 0
heart_bomb.bmp
0  -0.769003 0.276630 -2.836646  -0.547393 0.330364 -0.768909  0.482072 0.248996 0
0  -1.090415 0.820195 -2.304250  -0.417236 0.642056 -0.643179  0.505976 0.337349 0
0  -0.547057 0.433626 -2.877781  -0.475511 0.508294 -0.718002  0.458167 0.265060 0
heart_bomb.bmp
0  -1.090415 0.820195 -2.304250  -0.417236 0.642056 -0.643179  0.505976 0.337349 0
0  -0.610548 1.005091 -2.354822  -0.236312 0.777717 -0.582506  0.458167 0.357430 0
0  -0.547057 0.433626 -2.877781  -0.475511 0.508294 -0.718002  0.458167 0.265060 0
heart_bomb.bmp
0  -0.547057 0.433626 -2.877781  -0.475511 0.508294 -0.718002  0.458167 0.265060 0
0  -0.610548 1.005091 -2.354822  -0.236312 0.777717 -0.582506  0.458167 0.357430 0
0  -0.300548 0.542592 -2.970772  -0.343756 0.635643 -0.691224  0.426295 0.277108 0
heart_bomb.bmp
0  -0.610548 1.005091 -2.354822  -0.236312 0.777717 -0.582506  0.458167 0.357430 0
0  -0.000548 1.065580 -2.373291  -0.000000 0.838888 -0.544305  0.394422 0.369478 0
0  -0.300548 0.542592 -2.970772  -0.343756 0.635643 -0.691224  0.426295 0.277108 0
heart_bomb.bmp
0  -0.300548 0.542592 -2.970772  -0.343756 0.635643 -0.691224  0.426295 0.277108 0
0  -0.000548 1.065580 -2.373291  -0.000000 0.838888 -0.544305  0.394422 0.369478 0
0  -0.000548 0.574107 -3.029991  0.000013 0.731795 -0.681524  0.390438 0.281124 0
heart_bomb.bmp
0  -0.000548 1.065580 -2.373291  -0.000000 0.838888 -0.544305  0.394422 0.369478 0
0  0.299452 0.542592 -2.970772  0.343778 0.635636 -0.691219  0.354582 0.281124 0
0  -0.000548 0.574107 -3.029991  0.000013 0.731795 -0.681524  0.390438 0.281124 0
heart_bomb.bmp
0  -0.000548 0.574107 -3.029991  0.000013 0.731795 -0.681524  0.390438 0.281124 0
0  0.299452 0.542592 -2.970772  0.343778 0.635636 -0.691219  0.354582 0.281124 0
0  0.000667 -0.002886 -3.535077  -0.000003 0.000024 -1.000000  0.390438 0.204819 0
heart_bomb.bmp
0  0.299452 0.542592 -2.970772  0.343778 0.635636 -0.691219  0.354582 0.281124 0
0  0.545963 0.433626 -2.877782  0.475490 0.508314 -0.718002  0.322709 0.269076 0
0  0.000667 -0.002886 -3.535077  -0.000003 0.000024 -1.000000  0.390438 0.204819 0
heart_bomb.bmp
0  0.000667 -0.002886 -3.535077  -0.000003 0.000024 -1.000000  0.390438 0.204819 0
0  0.545963 0.433626 -2.877782  0.475490 0.508314 -0.718002  0.322709 0.269076 0
0  0.767908 0.276629 -2.836646  0.547395 0.330399 -0.768892  0.294821 0.253012 0
heart_bomb.bmp
0  0.545963 0.433626 -2.877782  0.475490 0.508314 -0.718002  0.322709 0.269076 0
0  1.089321 0.820194 -2.304249  0.417237 0.642056 -0.643178  0.278884 0.345382 0
0  0.767908 0.276629 -2.836646  0.547395 0.330399 -0.768892  0.294821 0.253012 0
heart_bomb.bmp
0  0.767908 0.276629 -2.836646  0.547395 0.330399 -0.768892  0.294821 0.253012 0
0  1.089321 0.820194 -2.304249  0.417237 0.642056 -0.643178  0.278884 0.345382 0
0  1.487499 0.539675 -2.239723  0.581719 0.411885 -0.701394  0.227092 0.325301 0
heart_bomb.bmp
0  1.089321 0.820194 -2.304249  0.417237 0.642056 -0.643178  0.278884 0.345382 0
0  1.565927 1.105770 -1.566013  0.444665 0.790376 -0.421402  0.239044 0.425703 0
0  1.487499 0.539675 -2.239723  0.581719 0.411885 -0.701394  0.227092 0.325301 0
heart_bomb.bmp
0  1.487499 0.539675 -2.239723  0.581719 0.411885 -0.701394  0.227092 0.325301 0
0  1.565927 1.105770 -1.566013  0.444665 0.790376 -0.421402  0.239044 0.425703 0
0  2.107997 0.718596 -1.497046  0.686698 0.523992 -0.503863  0.175299 0.409639 0
heart_bomb.bmp
0  1.565927 1.105770 -1.566013  0.444665 0.790376 -0.421402  0.239044 0.425703 0
0  1.918057 1.256918 -0.590390  0.439472 0.878639 -0.186703  0.215139 0.526104 0
0  2.107997 0.718596 -1.497046  0.686698 0.523992 -0.503863  0.175299 0.409639 0
heart_bomb.bmp
0  2.107997 0.718596 -1.497046  0.686698 0.523992 -0.503863  0.175299 0.409639 0
0  1.918057 1.256918 -0.590390  0.439472 0.878639 -0.186703  0.215139 0.526104 0
0  2.550905 0.817730 -0.569982  0.748383 0.600907 -0.280774  0.139442 0.506024 0
heart_bomb.bmp
0  1.918057 1.256918 -0.590390  0.439472 0.878639 -0.186703  0.215139 0.526104 0
0  2.107914 1.260075 0.392411  0.419512 0.906939 0.038354  0.203187 0.626506 0
0  2.550905 0.817730 -0.569982  0.748383 0.600907 -0.280774  0.139442 0.506024 0
heart_bomb.bmp
0  2.550905 0.817730 -0.569982  0.748383 0.600907 -0.280774  0.139442 0.506024 0
0  2.107914 1.260075 0.392411  0.419512 0.906939 0.038354  0.203187 0.626506 0
0  2.777329 0.846193 0.469772  0.776333 0.630115 0.016203  0.127490 0.614458 0
heart_bomb.bmp
0  2.107914 1.260075 0.392411  0.419512 0.906939 0.038354  0.203187 0.626506 0
0  1.947421 1.176204 1.141148  0.371496 0.906168 0.202115  0.215139 0.702811 0
0  2.777329 0.846193 0.469772  0.776333 0.630115 0.016203  0.127490 0.614458 0
heart_bomb.bmp
0  2.777329 0.846193 0.469772  0.776333 0.630115 0.016203  0.127490 0.614458 0
0  1.947421 1.176204 1.141148  0.371496 0.906168 0.202115  0.215139 0.702811 0
0  2.591677 0.812899 1.268599  0.690844 0.650918 0.314706  0.139442 0.698795 0
heart_bomb.bmp
0  1.947421 1.176204 1.141148  0.371496 0.906168 0.202115  0.215139 0.702811 0
0  2.277084 0.788136 1.741477  0.562183 0.612428 0.555772  0.163347 0.755020 0
0  2.591677 0.812899 1.268599  0.690844 0.650918 0.314706  0.139442 0.698795 0
heart_bomb.bmp
0  2.591677 0.812899 1.268599  0.690844 0.650918 0.314706  0.139442 0.698795 0
0  2.277084 0.788136 1.741477  0.562183 0.612428 0.555772  0.163347 0.755020 0
0  2.964475 -0.004724 1.363570  0.929106 -0.000012 0.369814  0.043825 0.710843 0
heart_bomb.bmp
0  2.277084 0.788136 1.741477  0.562183 0.612428 0.555772  0.163347 0.755020 0
0  2.666915 0.005317 1.801699  0.750536 0.000014 0.660830  0.071713 0.775100 0
0  2.964475 -0.004724 1.363570  0.929106 -0.000012 0.369814  0.043825 0.710843 0
heart_bomb.bmp
0  2.964475 -0.004724 1.363570  0.929106 -0.000012 0.369814  0.043825 0.710843 0
0  2.666915 0.005317 1.801699  0.750536 0.000014 0.660830  0.071713 0.775100 0
0  2.270039 -0.792323 1.732891  0.561692 -0.613117 0.555508  0.163347 0.755020 0
heart_bomb.bmp
0  2.666915 0.005317 1.801699  0.750536 0.000014 0.660830  0.071713 0.775100 0
0  2.177117 0.003465 2.185097  0.479699 -0.000032 0.877433  0.115538 0.839357 0
0  2.270039 -0.792323 1.732891  0.561692 -0.613117 0.555508  0.163347 0.755020 0
heart_bomb.bmp
0  2.270039 -0.792323 1.732891  0.561692 -0.613117 0.555508  0.163347 0.755020 0
0  2.177117 0.003465 2.185097  0.479699 -0.000032 0.877433  0.115538 0.839357 0
0  1.790039 -0.762323 2.092891  0.312043 -0.540908 0.781056  0.195219 0.807229 0
heart_bomb.bmp
0  2.177117 0.003465 2.185097  0.479699 -0.000032 0.877433  0.115538 0.839357 0
0  1.376922 -0.555853 2.273123  -0.018001 -0.353193 0.935377  0.223108 0.851406 0
0  1.790039 -0.762323 2.092891  0.312043 -0.540908 0.781056  0.195219 0.807229 0
heart_bomb.bmp
0  1.790039 -0.762323 2.092891  0.312043 -0.540908 0.781056  0.195219 0.807229 0
0  1.376922 -0.555853 2.273123  -0.018001 -0.353193 0.935377  0.223108 0.851406 0
0  1.300039 -1.062323 1.902891  0.023223 -0.762436 0.646647  0.254980 0.803213 0
heart_bomb.bmp
0  1.376922 -0.555853 2.273123  -0.018001 -0.353193 0.935377  0.223108 0.851406 0
0  0.920039 -0.772322 2.042891  -0.313805 -0.462318 0.829330  0.278884 0.847390 0
0  1.300039 -1.062323 1.902891  0.023223 -0.762436 0.646647  0.254980 0.803213 0
heart_bomb.bmp
0  1.300039 -1.062323 1.902891  0.023223 -0.762436 0.646647  0.254980 0.803213 0
0  0.920039 -0.772322 2.042891  -0.313805 -0.462318 0.829330  0.278884 0.847390 0
0  0.420039 -0.902322 1.732891  -0.487137 -0.342199 0.803491  0.346614 0.843373 0
heart_bomb.bmp
0  0.920039 -0.772322 2.042891  -0.313805 -0.462318 0.829330  0.278884 0.847390 0
0  0.610114 0.007436 2.086545  -0.546148 0.000136 0.837689  0.286853 0.939759 0
0  0.420039 -0.902322 1.732891  -0.487137 -0.342199 0.803491  0.346614 0.843373 0
heart_bomb.bmp
0  0.420039 -0.902322 1.732891  -0.487137 -0.342199 0.803491  0.346614 0.843373 0
0  0.610114 0.007436 2.086545  -0.546148 0.000136 0.837689  0.286853 0.939759 0
0  0.240665 -0.002881 1.759059  -0.739725 -0.000202 0.672909  0.350598 0.943775 0
heart_bomb.bmp
0  0.610114 0.007436 2.086545  -0.546148 0.000136 0.837689  0.286853 0.939759 0
0  0.420665 0.897119 1.729058  -0.487113 0.342326 0.803451  0.346614 0.843373 0
0  0.240665 -0.002881 1.759059  -0.739725 -0.000202 0.672909  0.350598 0.943775 0
heart_bomb.bmp
0  0.240665 -0.002881 1.759059  -0.739725 -0.000202 0.672909  0.350598 0.943775 0
0  0.420665 0.897119 1.729058  -0.487113 0.342326 0.803451  0.346614 0.843373 0
0  0.000665 -0.002882 1.439059  0.045127 0.000082 0.998981  0.410359 0.943775 0
heart_bomb.bmp
0  0.420665 0.897119 1.729058  -0.487113 0.342326 0.803451  0.346614 0.843373 0
0  0.000040 0.967677 1.382889  0.011043 0.271425 0.962396  0.406375 0.835341 0
0  0.000665 -0.002882 1.439059  0.045127 0.000082 0.998981  0.410359 0.943775 0
heart_bomb.bmp
0  0.000665 -0.002882 1.439059  0.045127 0.000082 0.998981  0.410359 0.943775 0
0  0.000040 0.967677 1.382889  0.011043 0.271425 0.962396  0.406375 0.835341 0
0  -0.239335 -0.002881 1.759059  0.709629 -0.000072 0.704575  0.466135 0.939759 0
heart_bomb.bmp
0  0.000040 0.967677 1.382889  0.011043 0.271425 0.962396  0.406375 0.835341 0
0  -0.419335 0.897119 1.729058  0.467073 0.358500 0.808283  0.470120 0.839357 0
0  -0.239335 -0.002881 1.759059  0.709629 -0.000072 0.704575  0.466135 0.939759 0
heart_bomb.bmp
0  -0.239335 -0.002881 1.759059  0.709629 -0.000072 0.704575  0.466135 0.939759 0
0  -0.419335 0.897119 1.729058  0.467073 0.358500 0.808283  0.470120 0.839357 0
0  -0.611215 0.007436 2.086544  0.545812 0.000343 0.837908  0.529880 0.931727 0
heart_bomb.bmp
0  -0.419335 0.897119 1.729058  0.467073 0.358500 0.808283  0.470120 0.839357 0
0  -0.926751 0.776397 2.055947  0.313808 0.462305 0.829336  0.533865 0.839357 0
0  -0.611215 0.007436 2.086544  0.545812 0.000343 0.837908  0.529880 0.931727 0
heart_bomb.bmp
0  -0.611215 0.007436 2.086544  0.545812 0.000343 0.837908  0.529880 0.931727 0
0  -0.926751 0.776397 2.055947  0.313808 0.462305 0.829336  0.533865 0.839357 0
0  -1.094864 0.002188 2.334045  0.269734 0.000040 0.962935  0.593625 0.911647 0
heart_bomb.bmp
0  -0.926751 0.776397 2.055947  0.313808 0.462305 0.829336  0.533865 0.839357 0
0  -1.373455 0.554897 2.269239  0.018071 0.353275 0.935345  0.589641 0.843373 0
0  -1.094864 0.002188 2.334045  0.269734 0.000040 0.962935  0.593625 0.911647 0
heart_bomb.bmp
0  -1.094864 0.002188 2.334045  0.269734 0.000040 0.962935  0.593625 0.911647 0
0  -1.373455 0.554897 2.269239  0.018071 0.353275 0.935345  0.589641 0.843373 0
0  -1.593704 0.006172 2.345995  -0.158623 -0.000046 0.987339  0.645418 0.875502 0
heart_bomb.bmp
0  -1.373455 0.554897 2.269239  0.018071 0.353275 0.935345  0.589641 0.843373 0
0  -2.178218 0.003467 2.185096  -0.479698 -0.000033 0.877434  0.697211 0.823293 0
0  -1.593704 0.006172 2.345995  -0.158623 -0.000046 0.987339  0.645418 0.875502 0
heart_bomb.bmp
0  -1.593704 0.006172 2.345995  -0.158623 -0.000046 0.987339  0.645418 0.875502 0
0  -2.178218 0.003467 2.185096  -0.479698 -0.000033 0.877434  0.697211 0.823293 0
0  -1.378024 -0.555852 2.273121  0.018016 -0.353204 0.935373  0.589641 0.843373 0
heart_bomb.bmp
0  -2.178218 0.003467 2.185096  -0.479698 -0.000033 0.877434  0.697211 0.823293 0
0  -1.789961 -0.762321 2.092890  -0.312026 -0.540920 0.781054  0.613546 0.795181 0
0  -1.378024 -0.555852 2.273121  0.018016 -0.353204 0.935373  0.589641 0.843373 0
heart_bomb.bmp
0  -1.378024 -0.555852 2.273121  0.018016 -0.353204 0.935373  0.589641 0.843373 0
0  -1.789961 -0.762321 2.092890  -0.312026 -0.540920 0.781054  0.613546 0.795181 0
0  -1.299961 -1.062322 1.902890  -0.023257 -0.762439 0.646643  0.553785 0.791165 0
heart_bomb.bmp
0  -1.789961 -0.762321 2.092890  -0.312026 -0.540920 0.781054  0.613546 0.795181 0
0  -1.729961 -1.152322 1.582890  -0.295635 -0.879199 0.373642  0.581673 0.742972 0
0  -1.299961 -1.062322 1.902890  -0.023257 -0.762439 0.646643  0.553785 0.791165 0
heart_bomb.bmp
0  -1.299961 -1.062322 1.902890  -0.023257 -0.762439 0.646643  0.553785 0.791165 0
0  -1.729961 -1.152322 1.582890  -0.295635 -0.879199 0.373642  0.581673 0.742972 0
0  -0.889961 -1.362322 1.302890  -0.091985 -0.940515 0.327065  0.494024 0.746988 0
heart_bomb.bmp
0  -1.729961 -1.152322 1.582890  -0.295635 -0.879199 0.373642  0.581673 0.742972 0
0  -1.009960 -1.442323 1.012890  -0.144544 -0.963214 0.226551  0.498008 0.710843 0
0  -0.889961 -1.362322 1.302890  -0.091985 -0.940515 0.327065  0.494024 0.746988 0
heart_bomb.bmp
0  -0.889961 -1.362322 1.302890  -0.091985 -0.940515 0.327065  0.494024 0.746988 0
0  -1.009960 -1.442323 1.012890  -0.144544 -0.963214 0.226551  0.498008 0.710843 0
0  0.000040 -1.542323 0.912891  0.000000 -0.966242 0.257636  0.402390 0.734940 0
heart_bomb.bmp
0  -1.009960 -1.442323 1.012890  -0.144544 -0.963214 0.226551  0.498008 0.710843 0
0  -1.119960 -1.542323 0.342890  -0.191094 -0.979172 0.068597  0.505976 0.638554 0
0  0.000040 -1.542323 0.912891  0.000000 -0.966242 0.257636  0.402390 0.734940 0
heart_bomb.bmp
0  0.000040 -1.542323 0.912891  0.000000 -0.966242 0.257636  0.402390 0.734940 0
0  -1.119960 -1.542323 0.342890  -0.191094 -0.979172 0.068597  0.505976 0.638554 0
0  0.000040 -1.642323 0.292891  -0.000001 -0.997183 0.075012  0.402390 0.662651 0
heart_bomb.bmp
0  -1.119960 -1.542323 0.342890  -0.191094 -0.979172 0.068597  0.505976 0.638554 0
0  -1.019960 -1.542324 -0.627109  -0.208532 -0.970449 -0.121424  0.494024 0.538153 0
0  0.000040 -1.642323 0.292891  -0.000001 -0.997183 0.075012  0.402390 0.662651 0
heart_bomb.bmp
0  0.000040 -1.642323 0.292891  -0.000001 -0.997183 0.075012  0.402390 0.662651 0
0  -1.019960 -1.542324 -0.627109  -0.208532 -0.970449 -0.121424  0.494024 0.538153 0
0  0.000040 -1.642324 -0.677109  -0.000000 -0.994580 -0.103974  0.398406 0.558233 0
heart_bomb.bmp
0  -1.019960 -1.542324 -0.627109  -0.208532 -0.970449 -0.121424  0.494024 0.538153 0
0  -0.839959 -1.352325 -1.617110  -0.224083 -0.908107 -0.353735  0.478088 0.437751 0
0  0.000040 -1.642324 -0.677109  -0.000000 -0.994580 -0.103974  0.398406 0.558233 0
heart_bomb.bmp
0  0.000040 -1.642324 -0.677109  -0.000000 -0.994580 -0.103974  0.398406 0.558233 0
0  -0.839959 -1.352325 -1.617110  -0.224083 -0.908107 -0.353735  0.478088 0.437751 0
0  0.000041 -1.442325 -1.647109  0.000000 -0.943051 -0.332648  0.394422 0.453815 0
heart_bomb.bmp
0  -0.839959 -1.352325 -1.617110  -0.224083 -0.908107 -0.353735  0.478088 0.437751 0
0  -0.609959 -1.002325 -2.347110  -0.236288 -0.777713 -0.582521  0.458167 0.357430 0
0  0.000041 -1.442325 -1.647109  0.000000 -0.943051 -0.332648  0.394422 0.453815 0
heart_bomb.bmp
0  0.000041 -1.442325 -1.647109  0.000000 -0.943051 -0.332648  0.394422 0.453815 0
0  -0.609959 -1.002325 -2.347110  -0.236288 -0.777713 -0.582521  0.458167 0.357430 0
0  0.000041 -1.072326 -2.357109  -0.000000 -0.838815 -0.544416  0.394422 0.369478 0
heart_bomb.bmp
0  -0.609959 -1.002325 -2.347110  -0.236288 -0.777713 -0.582521  0.458167 0.357430 0
0  -0.299958 -0.532326 -2.967110  -0.343809 -0.635624 -0.691214  0.426295 0.277108 0
0  0.000041 -1.072326 -2.357109  -0.000000 -0.838815 -0.544416  0.394422 0.369478 0
heart_bomb.bmp
0  0.000041 -1.072326 -2.357109  -0.000000 -0.838815 -0.544416  0.394422 0.369478 0
0  -0.299958 -0.532326 -2.967110  -0.343809 -0.635624 -0.691214  0.426295 0.277108 0
0  0.000042 -0.572326 -3.027110  -0.000002 -0.731716 -0.681610  0.390438 0.281124 0
heart_bomb.bmp
0  -0.299958 -0.532326 -2.967110  -0.343809 -0.635624 -0.691214  0.426295 0.277108 0
0  0.000667 -0.002886 -3.535077  -0.000003 0.000024 -1.000000  0.390438 0.204819 0
0  0.000042 -0.572326 -3.027110  -0.000002 -0.731716 -0.681610  0.390438 0.281124 0
heart_bomb.bmp
0  0.000042 -0.572326 -3.027110  -0.000002 -0.731716 -0.681610  0.390438 0.281124 0
0  0.000667 -0.002886 -3.535077  -0.000003 0.000024 -1.000000  0.390438 0.204819 0
0  0.300042 -0.532326 -2.967110  0.343809 -0.635635 -0.691204  0.354582 0.281124 0
heart_bomb.bmp
0  0.000667 -0.002886 -3.535077  -0.000003 0.000024 -1.000000  0.390438 0.204819 0
0  0.540042 -0.432326 -2.877110  0.475502 -0.508301 -0.718003  0.322709 0.269076 0
0  0.300042 -0.532326 -2.967110  0.343809 -0.635635 -0.691204  0.354582 0.281124 0
heart_bomb.bmp
0  0.300042 -0.532326 -2.967110  0.343809 -0.635635 -0.691204  0.354582 0.281124 0
0  0.540042 -0.432326 -2.877110  0.475502 -0.508301 -0.718003  0.322709 0.269076 0
0  0.610041 -1.002326 -2.347109  0.236332 -0.777720 -0.582493  0.330677 0.361446 0
heart_bomb.bmp
0  0.540042 -0.432326 -2.877110  0.475502 -0.508301 -0.718003  0.322709 0.269076 0
0  1.080041 -0.822326 -2.297109  0.417196 -0.641976 -0.643285  0.278884 0.345382 0
0  0.610041 -1.002326 -2.347109  0.236332 -0.777720 -0.582493  0.330677 0.361446 0
heart_bomb.bmp
0  0.610041 -1.002326 -2.347109  0.236332 -0.777720 -0.582493  0.330677 0.361446 0
0  1.080041 -0.822326 -2.297109  0.417196 -0.641976 -0.643285  0.278884 0.345382 0
0  0.840041 -1.352325 -1.617109  0.224082 -0.908107 -0.353735  0.314741 0.441767 0
heart_bomb.bmp
0  1.080041 -0.822326 -2.297109  0.417196 -0.641976 -0.643285  0.278884 0.345382 0
0  1.570041 -1.102326 -1.557109  0.444850 -0.790268 -0.421407  0.239044 0.425703 0
0  0.840041 -1.352325 -1.617109  0.224082 -0.908107 -0.353735  0.314741 0.441767 0
heart_bomb.bmp
0  0.840041 -1.352325 -1.617109  0.224082 -0.908107 -0.353735  0.314741 0.441767 0
0  1.570041 -1.102326 -1.557109  0.444850 -0.790268 -0.421407  0.239044 0.425703 0
0  1.020040 -1.542325 -0.627108  0.208532 -0.970449 -0.121424  0.302789 0.546185 0
heart_bomb.bmp
0  1.570041 -1.102326 -1.557109  0.444850 -0.790268 -0.421407  0.239044 0.425703 0
0  1.910040 -1.252325 -0.597108  0.439502 -0.878603 -0.186801  0.215139 0.526104 0
0  1.020040 -1.542325 -0.627108  0.208532 -0.970449 -0.121424  0.302789 0.546185 0
heart_bomb.bmp
0  1.020040 -1.542325 -0.627108  0.208532 -0.970449 -0.121424  0.302789 0.546185 0
0  1.910040 -1.252325 -0.597108  0.439502 -0.878603 -0.186801  0.215139 0.526104 0
0  1.120040 -1.542324 0.342892  0.191093 -0.979172 0.068598  0.298805 0.646586 0
heart_bomb.bmp
0  1.910040 -1.252325 -0.597108  0.439502 -0.878603 -0.186801  0.215139 0.526104 0
0  2.100040 -1.252324 0.372892  0.419227 -0.907064 0.038527  0.203187 0.626506 0
0  1.120040 -1.542324 0.342892  0.191093 -0.979172 0.068598  0.298805 0.646586 0
heart_bomb.bmp
0  1.120040 -1.542324 0.342892  0.191093 -0.979172 0.068598  0.298805 0.646586 0
0  2.100040 -1.252324 0.372892  0.419227 -0.907064 0.038527  0.203187 0.626506 0
0  1.010040 -1.442323 1.012891  0.144544 -0.963214 0.226551  0.306773 0.714859 0
heart_bomb.bmp
0  2.100040 -1.252324 0.372892  0.419227 -0.907064 0.038527  0.203187 0.626506 0
0  1.930040 -1.182323 1.142892  0.371484 -0.906180 0.202083  0.215139 0.702811 0
0  1.010040 -1.442323 1.012891  0.144544 -0.963214 0.226551  0.306773 0.714859 0
heart_bomb.bmp
0  1.010040 -1.442323 1.012891  0.144544 -0.963214 0.226551  0.306773 0.714859 0
0  1.930040 -1.182323 1.142892  0.371484 -0.906180 0.202083  0.215139 0.702811 0
0  1.730039 -1.152323 1.582892  0.295634 -0.879200 0.373642  0.227092 0.751004 0
heart_bomb.bmp
0  1.930040 -1.182323 1.142892  0.371484 -0.906180 0.202083  0.215139 0.702811 0
0  2.270039 -0.792323 1.732891  0.561692 -0.613117 0.555508  0.163347 0.755020 0
0  1.730039 -1.152323 1.582892  0.295634 -0.879200 0.373642  0.227092 0.751004 0
heart_bomb.bmp
0  1.730039 -1.152323 1.582892  0.295634 -0.879200 0.373642  0.227092 0.751004 0
0  2.270039 -0.792323 1.732891  0.561692 -0.613117 0.555508  0.163347 0.755020 0
0  1.790039 -0.762323 2.092891  0.312043 -0.540908 0.781056  0.195219 0.807229 0
heart_bomb.bmp
0  1.376922 -0.555853 2.273123  -0.018001 -0.353193 0.935377  0.223108 0.851406 0
0  1.093763 0.002187 2.334046  -0.269777 0.000016 0.962923  0.223108 0.919679 0
0  0.920039 -0.772322 2.042891  -0.313805 -0.462318 0.829330  0.278884 0.847390 0
heart_bomb.bmp
0  0.920039 -0.772322 2.042891  -0.313805 -0.462318 0.829330  0.278884 0.847390 0
0  1.093763 0.002187 2.334046  -0.269777 0.000016 0.962923  0.223108 0.919679 0
0  0.610114 0.007436 2.086545  -0.546148 0.000136 0.837689  0.286853 0.939759 0
heart_bomb.bmp
0  1.093763 0.002187 2.334046  -0.269777 0.000016 0.962923  0.223108 0.919679 0
0  0.925651 0.776396 2.055948  -0.313812 0.462316 0.829328  0.278884 0.847390 0
0  0.610114 0.007436 2.086545  -0.546148 0.000136 0.837689  0.286853 0.939759 0
heart_bomb.bmp
0  0.610114 0.007436 2.086545  -0.546148 0.000136 0.837689  0.286853 0.939759 0
0  0.925651 0.776396 2.055948  -0.313812 0.462316 0.829328  0.278884 0.847390 0
0  0.420665 0.897119 1.729058  -0.487113 0.342326 0.803451  0.346614 0.843373 0
heart_bomb.bmp
0  0.925651 0.776396 2.055948  -0.313812 0.462316 0.829328  0.278884 0.847390 0
0  1.317455 1.056926 1.905987  0.023329 0.762445 0.646632  0.254980 0.803213 0
0  0.420665 0.897119 1.729058  -0.487113 0.342326 0.803451  0.346614 0.843373 0
heart_bomb.bmp
0  0.420665 0.897119 1.729058  -0.487113 0.342326 0.803451  0.346614 0.843373 0
0  1.317455 1.056926 1.905987  0.023329 0.762445 0.646632  0.254980 0.803213 0
0  0.700665 1.298430 1.579057  -0.094608 0.800285 0.592110  0.326693 0.791165 0
heart_bomb.bmp
0  1.317455 1.056926 1.905987  0.023329 0.762445 0.646632  0.254980 0.803213 0
0  0.890665 1.372172 1.298590  0.091902 0.940510 0.327100  0.314741 0.755020 0
0  0.700665 1.298430 1.579057  -0.094608 0.800285 0.592110  0.326693 0.791165 0
heart_bomb.bmp
0  0.700665 1.298430 1.579057  -0.094608 0.800285 0.592110  0.326693 0.791165 0
0  0.890665 1.372172 1.298590  0.091902 0.940510 0.327100  0.314741 0.755020 0
0  0.000666 1.419486 1.197290  -0.000001 0.818416 0.574626  0.406375 0.779116 0
heart_bomb.bmp
0  0.890665 1.372172 1.298590  0.091902 0.940510 0.327100  0.314741 0.755020 0
0  0.000666 1.544127 0.919865  0.000002 0.966143 0.258007  0.402390 0.734940 0
0  0.000666 1.419486 1.197290  -0.000001 0.818416 0.574626  0.406375 0.779116 0
heart_bomb.bmp
0  0.000666 1.419486 1.197290  -0.000001 0.818416 0.574626  0.406375 0.779116 0
0  0.000666 1.544127 0.919865  0.000002 0.966143 0.258007  0.402390 0.734940 0
0  -0.889335 1.372172 1.298589  -0.091936 0.940515 0.327076  0.494024 0.746988 0
heart_bomb.bmp
0  0.000666 1.544127 0.919865  0.000002 0.966143 0.258007  0.402390 0.734940 0
0  -1.026852 1.449442 1.019202  -0.144534 0.963214 0.226560  0.498008 0.710843 0
0  -0.889335 1.372172 1.298589  -0.091936 0.940515 0.327076  0.494024 0.746988 0
heart_bomb.bmp
0  -0.889335 1.372172 1.298589  -0.091936 0.940515 0.327076  0.494024 0.746988 0
0  -1.026852 1.449442 1.019202  -0.144534 0.963214 0.226560  0.498008 0.710843 0
0  -1.745343 1.146555 1.583623  -0.295601 0.879237 0.373581  0.581673 0.742972 0
heart_bomb.bmp
0  -1.026852 1.449442 1.019202  -0.144534 0.963214 0.226560  0.498008 0.710843 0
0  -1.940003 1.181257 1.139753  -0.371486 0.906175 0.202100  0.589641 0.690763 0
0  -1.745343 1.146555 1.583623  -0.295601 0.879237 0.373581  0.581673 0.742972 0
heart_bomb.bmp
0  -1.745343 1.146555 1.583623  -0.295601 0.879237 0.373581  0.581673 0.742972 0
0  -1.940003 1.181257 1.139753  -0.371486 0.906175 0.202100  0.589641 0.690763 0
0  -2.278184 0.788138 1.741475  -0.559272 0.614433 0.556495  0.645418 0.738956 0
heart_bomb.bmp
0  -1.940003 1.181257 1.139753  -0.371486 0.906175 0.202100  0.589641 0.690763 0
0  -2.592776 0.812901 1.268597  -0.690145 0.653222 0.311449  0.665339 0.682731 0
0  -2.278184 0.788138 1.741475  -0.559272 0.614433 0.556495  0.645418 0.738956 0
heart_bomb.bmp
0  -2.278184 0.788138 1.741475  -0.559272 0.614433 0.556495  0.645418 0.738956 0
0  -2.592776 0.812901 1.268597  -0.690145 0.653222 0.311449  0.665339 0.682731 0
0  -2.668016 0.005319 1.801697  -0.746788 -0.000008 0.665062  0.737052 0.759036 0
heart_bomb.bmp
0  -2.592776 0.812901 1.268597  -0.690145 0.653222 0.311449  0.665339 0.682731 0
0  -2.965575 -0.004721 1.363567  -0.930932 0.000041 0.365193  0.760956 0.690763 0
0  -2.668016 0.005319 1.801697  -0.746788 -0.000008 0.665062  0.737052 0.759036 0
heart_bomb.bmp
0  -2.668016 0.005319 1.801697  -0.746788 -0.000008 0.665062  0.737052 0.759036 0
0  -2.965575 -0.004721 1.363567  -0.930932 0.000041 0.365193  0.760956 0.690763 0
0  -2.589960 -0.812322 1.262889  -0.690153 -0.653265 0.311341  0.665339 0.682731 0
heart_bomb.bmp
0  -2.965575 -0.004721 1.363567  -0.930932 0.000041 0.365193  0.760956 0.690763 0
0  -3.107432 -0.012082 0.533916  -0.999942 -0.000062 0.010787  0.764940 0.590361 0
0  -2.589960 -0.812322 1.262889  -0.690153 -0.653265 0.311341  0.665339 0.682731 0
heart_bomb.bmp
0  -2.589960 -0.812322 1.262889  -0.690153 -0.653265 0.311341  0.665339 0.682731 0
0  -3.107432 -0.012082 0.533916  -0.999942 -0.000062 0.010787  0.764940 0.590361 0
0  -2.769960 -0.832322 0.462889  -0.776331 -0.630118 0.016203  0.673307 0.598394 0
heart_bomb.bmp
0  -3.107432 -0.012082 0.533916  -0.999942 -0.000062 0.010787  0.764940 0.590361 0
0  -2.886348 -0.008966 -0.566112  -0.943789 0.000058 -0.330550  0.741036 0.469880 0
0  -2.769960 -0.832322 0.462889  -0.776331 -0.630118 0.016203  0.673307 0.598394 0
heart_bomb.bmp
0  -2.769960 -0.832322 0.462889  -0.776331 -0.630118 0.016203  0.673307 0.598394 0
0  -2.886348 -0.008966 -0.566112  -0.943789 0.000058 -0.330550  0.741036 0.469880 0
0  -2.549959 -0.822323 -0.567111  -0.748399 -0.600866 -0.280817  0.653386 0.493976 0
heart_bomb.bmp
0  -2.886348 -0.008966 -0.566112  -0.943789 0.000058 -0.330550  0.741036 0.469880 0
0  -2.407464 -0.003206 -1.489549  -0.827316 0.000057 -0.561738  0.689243 0.361446 0
0  -2.549959 -0.822323 -0.567111  -0.748399 -0.600866 -0.280817  0.653386 0.493976 0
heart_bomb.bmp
0  -2.549959 -0.822323 -0.567111  -0.748399 -0.600866 -0.280817  0.653386 0.493976 0
0  -2.407464 -0.003206 -1.489549  -0.827316 0.000057 -0.561738  0.689243 0.361446 0
0  -2.126070 -0.718828 -1.487564  -0.686747 -0.524020 -0.503768  0.613546 0.397590 0
heart_bomb.bmp
0  -2.407464 -0.003206 -1.489549  -0.827316 0.000057 -0.561738  0.689243 0.361446 0
0  -1.709592 -0.010739 -2.228683  -0.672163 0.000037 -0.740403  0.601594 0.281124 0
0  -2.126070 -0.718828 -1.487564  -0.686747 -0.524020 -0.503768  0.613546 0.397590 0
heart_bomb.bmp
0  1.376922 -0.555853 2.273123  -0.018001 -0.353193 0.935377  0.223108 0.851406 0
0  1.592603 0.006171 2.345996  0.158624 -0.000045 0.987339  0.167331 0.887550 0
0  1.093763 0.002187 2.334046  -0.269777 0.000016 0.962923  0.223108 0.919679 0
heart_bomb.bmp
0  1.093763 0.002187 2.334046  -0.269777 0.000016 0.962923  0.223108 0.919679 0
0  1.592603 0.006171 2.345996  0.158624 -0.000045 0.987339  0.167331 0.887550 0
0  1.372354 0.554896 2.269241  -0.018072 0.353276 0.935345  0.223108 0.851406 0
heart_bomb.bmp
0  1.592603 0.006171 2.345996  0.158624 -0.000045 0.987339  0.167331 0.887550 0
0  2.177117 0.003465 2.185097  0.479699 -0.000032 0.877433  0.115538 0.839357 0
0  1.372354 0.554896 2.269241  -0.018072 0.353276 0.935345  0.223108 0.851406 0
heart_bomb.bmp
0  1.372354 0.554896 2.269241  -0.018072 0.353276 0.935345  0.223108 0.851406 0
0  2.177117 0.003465 2.185097  0.479699 -0.000032 0.877433  0.115538 0.839357 0
0  1.803596 0.765162 2.093445  0.312112 0.540925 0.781016  0.195219 0.807229 0
heart_bomb.bmp
0  2.177117 0.003465 2.185097  0.479699 -0.000032 0.877433  0.115538 0.839357 0
0  2.277084 0.788136 1.741477  0.562183 0.612428 0.555772  0.163347 0.755020 0
0  1.803596 0.765162 2.093445  0.312112 0.540925 0.781016  0.195219 0.807229 0
heart_bomb.bmp
0  1.803596 0.765162 2.093445  0.312112 0.540925 0.781016  0.195219 0.807229 0
0  2.277084 0.788136 1.741477  0.562183 0.612428 0.555772  0.163347 0.755020 0
0  1.744243 1.146553 1.583623  0.295540 0.879259 0.373576  0.227092 0.751004 0
heart_bomb.bmp
0  2.277084 0.788136 1.741477  0.562183 0.612428 0.555772  0.163347 0.755020 0
0  1.947421 1.176204 1.141148  0.371496 0.906168 0.202115  0.215139 0.702811 0
0  1.744243 1.146553 1.583623  0.295540 0.879259 0.373576  0.227092 0.751004 0
heart_bomb.bmp
0  1.744243 1.146553 1.583623  0.295540 0.879259 0.373576  0.227092 0.751004 0
0  1.947421 1.176204 1.141148  0.371496 0.906168 0.202115  0.215139 0.702811 0
0  1.025753 1.449441 1.019203  0.144540 0.963215 0.226548  0.306773 0.714859 0
heart_bomb.bmp
0  1.947421 1.176204 1.141148  0.371496 0.906168 0.202115  0.215139 0.702811 0
0  2.107914 1.260075 0.392411  0.419512 0.906939 0.038354  0.203187 0.626506 0
0  1.025753 1.449441 1.019203  0.144540 0.963215 0.226548  0.306773 0.714859 0
heart_bomb.bmp
0  1.025753 1.449441 1.019203  0.144540 0.963215 0.226548  0.306773 0.714859 0
0  2.107914 1.260075 0.392411  0.419512 0.906939 0.038354  0.203187 0.626506 0
0  1.128735 1.537723 0.350921  0.191082 0.979177 0.068562  0.298805 0.646586 0
heart_bomb.bmp
0  2.107914 1.260075 0.392411  0.419512 0.906939 0.038354  0.203187 0.626506 0
0  1.918057 1.256918 -0.590390  0.439472 0.878639 -0.186703  0.215139 0.526104 0
0  1.128735 1.537723 0.350921  0.191082 0.979177 0.068562  0.298805 0.646586 0
heart_bomb.bmp
0  1.128735 1.537723 0.350921  0.191082 0.979177 0.068562  0.298805 0.646586 0
0  1.918057 1.256918 -0.590390  0.439472 0.878639 -0.186703  0.215139 0.526104 0
0  1.031323 1.541082 -0.621285  0.208515 0.970459 -0.121370  0.302789 0.546185 0
heart_bomb.bmp
0  1.918057 1.256918 -0.590390  0.439472 0.878639 -0.186703  0.215139 0.526104 0
0  1.565927 1.105770 -1.566013  0.444665 0.790376 -0.421402  0.239044 0.425703 0
0  1.031323 1.541082 -0.621285  0.208515 0.970459 -0.121370  0.302789 0.546185 0
heart_bomb.bmp
0  1.031323 1.541082 -0.621285  0.208515 0.970459 -0.121370  0.302789 0.546185 0
0  1.565927 1.105770 -1.566013  0.444665 0.790376 -0.421402  0.239044 0.425703 0
0  0.851261 1.358039 -1.624433  0.224125 0.908117 -0.353682  0.314741 0.441767 0
heart_bomb.bmp
0  1.565927 1.105770 -1.566013  0.444665 0.790376 -0.421402  0.239044 0.425703 0
0  1.089321 0.820194 -2.304249  0.417237 0.642056 -0.643178  0.278884 0.345382 0
0  0.851261 1.358039 -1.624433  0.224125 0.908117 -0.353682  0.314741 0.441767 0
heart_bomb.bmp
0  0.851261 1.358039 -1.624433  0.224125 0.908117 -0.353682  0.314741 0.441767 0
0  1.089321 0.820194 -2.304249  0.417237 0.642056 -0.643178  0.278884 0.345382 0
0  0.609452 1.005091 -2.354822  0.236313 0.777717 -0.582505  0.330677 0.361446 0
heart_bomb.bmp
0  1.089321 0.820194 -2.304249  0.417237 0.642056 -0.643178  0.278884 0.345382 0
0  0.545963 0.433626 -2.877782  0.475490 0.508314 -0.718002  0.322709 0.269076 0
0  0.609452 1.005091 -2.354822  0.236313 0.777717 -0.582505  0.330677 0.361446 0
heart_bomb.bmp
0  0.609452 1.005091 -2.354822  0.236313 0.777717 -0.582505  0.330677 0.361446 0
0  0.545963 0.433626 -2.877782  0.475490 0.508314 -0.718002  0.322709 0.269076 0
0  0.299452 0.542592 -2.970772  0.343778 0.635636 -0.691219  0.354582 0.281124 0
heart_bomb.bmp
0  0.000040 0.967677 1.382889  0.011043 0.271425 0.962396  0.406375 0.835341 0
0  0.000666 1.419486 1.197290  -0.000001 0.818416 0.574626  0.406375 0.779116 0
0  -0.419335 0.897119 1.729058  0.467073 0.358500 0.808283  0.470120 0.839357 0
heart_bomb.bmp
0  -0.419335 0.897119 1.729058  0.467073 0.358500 0.808283  0.470120 0.839357 0
0  0.000666 1.419486 1.197290  -0.000001 0.818416 0.574626  0.406375 0.779116 0
0  -0.699335 1.298431 1.579057  0.094594 0.800303 0.592088  0.482072 0.787149 0
heart_bomb.bmp
0  0.000666 1.419486 1.197290  -0.000001 0.818416 0.574626  0.406375 0.779116 0
0  -0.889335 1.372172 1.298589  -0.091936 0.940515 0.327076  0.494024 0.746988 0
0  -0.699335 1.298431 1.579057  0.094594 0.800303 0.592088  0.482072 0.787149 0
heart_bomb.bmp
0  -0.699335 1.298431 1.579057  0.094594 0.800303 0.592088  0.482072 0.787149 0
0  -0.889335 1.372172 1.298589  -0.091936 0.940515 0.327076  0.494024 0.746988 0
0  -1.318555 1.056927 1.905988  -0.023386 0.762451 0.646623  0.553785 0.791165 0
heart_bomb.bmp
0  -0.889335 1.372172 1.298589  -0.091936 0.940515 0.327076  0.494024 0.746988 0
0  -1.745343 1.146555 1.583623  -0.295601 0.879237 0.373581  0.581673 0.742972 0
0  -1.318555 1.056927 1.905988  -0.023386 0.762451 0.646623  0.553785 0.791165 0
heart_bomb.bmp
0  -1.318555 1.056927 1.905988  -0.023386 0.762451 0.646623  0.553785 0.791165 0
0  -1.745343 1.146555 1.583623  -0.295601 0.879237 0.373581  0.581673 0.742972 0
0  -1.804697 0.765164 2.093445  -0.312158 0.540939 0.780988  0.613546 0.795181 0
heart_bomb.bmp
0  -1.745343 1.146555 1.583623  -0.295601 0.879237 0.373581  0.581673 0.742972 0
0  -2.278184 0.788138 1.741475  -0.559272 0.614433 0.556495  0.645418 0.738956 0
0  -1.804697 0.765164 2.093445  -0.312158 0.540939 0.780988  0.613546 0.795181 0
heart_bomb.bmp
0  -1.804697 0.765164 2.093445  -0.312158 0.540939 0.780988  0.613546 0.795181 0
0  -2.278184 0.788138 1.741475  -0.559272 0.614433 0.556495  0.645418 0.738956 0
0  -2.178218 0.003467 2.185096  -0.479698 -0.000033 0.877434  0.697211 0.823293 0
heart_bomb.bmp
0  -2.278184 0.788138 1.741475  -0.559272 0.614433 0.556495  0.645418 0.738956 0
0  -2.668016 0.005319 1.801697  -0.746788 -0.000008 0.665062  0.737052 0.759036 0
0  -2.178218 0.003467 2.185096  -0.479698 -0.000033 0.877434  0.697211 0.823293 0
heart_bomb.bmp
0  -2.178218 0.003467 2.185096  -0.479698 -0.000033 0.877434  0.697211 0.823293 0
0  -2.668016 0.005319 1.801697  -0.746788 -0.000008 0.665062  0.737052 0.759036 0
0  -2.269961 -0.792321 1.732889  -0.559190 -0.614509 0.556494  0.645418 0.738956 0
heart_bomb.bmp
0  -2.668016 0.005319 1.801697  -0.746788 -0.000008 0.665062  0.737052 0.759036 0
0  -2.589960 -0.812322 1.262889  -0.690153 -0.653265 0.311341  0.665339 0.682731 0
0  -2.269961 -0.792321 1.732889  -0.559190 -0.614509 0.556494  0.645418 0.738956 0
heart_bomb.bmp
0  -2.269961 -0.792321 1.732889  -0.559190 -0.614509 0.556494  0.645418 0.738956 0
0  -2.589960 -0.812322 1.262889  -0.690153 -0.653265 0.311341  0.665339 0.682731 0
0  -1.929960 -1.182322 1.142890  -0.371484 -0.906180 0.202083  0.589641 0.690763 0
heart_bomb.bmp
0  -2.589960 -0.812322 1.262889  -0.690153 -0.653265 0.311341  0.665339 0.682731 0
0  -2.769960 -0.832322 0.462889  -0.776331 -0.630118 0.016203  0.673307 0.598394 0
0  -1.929960 -1.182322 1.142890  -0.371484 -0.906180 0.202083  0.589641 0.690763 0
heart_bomb.bmp
0  -1.929960 -1.182322 1.142890  -0.371484 -0.906180 0.202083  0.589641 0.690763 0
0  -2.769960 -0.832322 0.462889  -0.776331 -0.630118 0.016203  0.673307 0.598394 0
0  -2.099960 -1.252323 0.372890  -0.419180 -0.907085 0.038535  0.597610 0.614458 0
heart_bomb.bmp
0  -2.769960 -0.832322 0.462889  -0.776331 -0.630118 0.016203  0.673307 0.598394 0
0  -2.549959 -0.822323 -0.567111  -0.748399 -0.600866 -0.280817  0.653386 0.493976 0
0  -2.099960 -1.252323 0.372890  -0.419180 -0.907085 0.038535  0.597610 0.614458 0
heart_bomb.bmp
0  -2.099960 -1.252323 0.372890  -0.419180 -0.907085 0.038535  0.597610 0.614458 0
0  -2.549959 -0.822323 -0.567111  -0.748399 -0.600866 -0.280817  0.653386 0.493976 0
0  -1.909960 -1.252323 -0.597110  -0.439541 -0.878583 -0.186806  0.581673 0.514056 0
heart_bomb.bmp
0  -2.549959 -0.822323 -0.567111  -0.748399 -0.600866 -0.280817  0.653386 0.493976 0
0  -2.126070 -0.718828 -1.487564  -0.686747 -0.524020 -0.503768  0.613546 0.397590 0
0  -1.909960 -1.252323 -0.597110  -0.439541 -0.878583 -0.186806  0.581673 0.514056 0
heart_bomb.bmp
0  0.300042 -0.532326 -2.967110  0.343809 -0.635635 -0.691204  0.354582 0.281124 0
0  0.610041 -1.002326 -2.347109  0.236332 -0.777720 -0.582493  0.330677 0.361446 0
0  0.000041 -1.072326 -2.357109  -0.000000 -0.838815 -0.544416  0.394422 0.369478 0
heart_bomb.bmp
0  0.000041 -1.072326 -2.357109  -0.000000 -0.838815 -0.544416  0.394422 0.369478 0
0  0.610041 -1.002326 -2.347109  0.236332 -0.777720 -0.582493  0.330677 0.361446 0
0  0.000041 -1.442325 -1.647109  0.000000 -0.943051 -0.332648  0.394422 0.453815 0
heart_bomb.bmp
0  0.610041 -1.002326 -2.347109  0.236332 -0.777720 -0.582493  0.330677 0.361446 0
0  0.840041 -1.352325 -1.617109  0.224082 -0.908107 -0.353735  0.314741 0.441767 0
0  0.000041 -1.442325 -1.647109  0.000000 -0.943051 -0.332648  0.394422 0.453815 0
heart_bomb.bmp
0  0.000041 -1.442325 -1.647109  0.000000 -0.943051 -0.332648  0.394422 0.453815 0
0  0.840041 -1.352325 -1.617109  0.224082 -0.908107 -0.353735  0.314741 0.441767 0
0  0.000040 -1.642324 -0.677109  -0.000000 -0.994580 -0.103974  0.398406 0.558233 0
heart_bomb.bmp
0  0.840041 -1.352325 -1.617109  0.224082 -0.908107 -0.353735  0.314741 0.441767 0
0  1.020040 -1.542325 -0.627108  0.208532 -0.970449 -0.121424  0.302789 0.546185 0
0  0.000040 -1.642324 -0.677109  -0.000000 -0.994580 -0.103974  0.398406 0.558233 0
heart_bomb.bmp
0  0.000040 -1.642324 -0.677109  -0.000000 -0.994580 -0.103974  0.398406 0.558233 0
0  1.020040 -1.542325 -0.627108  0.208532 -0.970449 -0.121424  0.302789 0.546185 0
0  0.000040 -1.642323 0.292891  -0.000001 -0.997183 0.075012  0.402390 0.662651 0
heart_bomb.bmp
0  1.020040 -1.542325 -0.627108  0.208532 -0.970449 -0.121424  0.302789 0.546185 0
0  1.120040 -1.542324 0.342892  0.191093 -0.979172 0.068598  0.298805 0.646586 0
0  0.000040 -1.642323 0.292891  -0.000001 -0.997183 0.075012  0.402390 0.662651 0
heart_bomb.bmp
0  0.000040 -1.642323 0.292891  -0.000001 -0.997183 0.075012  0.402390 0.662651 0
0  1.120040 -1.542324 0.342892  0.191093 -0.979172 0.068598  0.298805 0.646586 0
0  0.000040 -1.542323 0.912891  0.000000 -0.966242 0.257636  0.402390 0.734940 0
heart_bomb.bmp
0  1.120040 -1.542324 0.342892  0.191093 -0.979172 0.068598  0.298805 0.646586 0
0  1.010040 -1.442323 1.012891  0.144544 -0.963214 0.226551  0.306773 0.714859 0
0  0.000040 -1.542323 0.912891  0.000000 -0.966242 0.257636  0.402390 0.734940 0
heart_bomb.bmp
0  0.000040 -1.542323 0.912891  0.000000 -0.966242 0.257636  0.402390 0.734940 0
0  1.010040 -1.442323 1.012891  0.144544 -0.963214 0.226551  0.306773 0.714859 0
0  0.890039 -1.362323 1.302891  0.091987 -0.940515 0.327064  0.314741 0.755020 0
heart_bomb.bmp
0  1.010040 -1.442323 1.012891  0.144544 -0.963214 0.226551  0.306773 0.714859 0
0  1.730039 -1.152323 1.582892  0.295634 -0.879200 0.373642  0.227092 0.751004 0
0  0.890039 -1.362323 1.302891  0.091987 -0.940515 0.327064  0.314741 0.755020 0
heart_bomb.bmp
0  0.890039 -1.362323 1.302891  0.091987 -0.940515 0.327064  0.314741 0.755020 0
0  1.730039 -1.152323 1.582892  0.295634 -0.879200 0.373642  0.227092 0.751004 0
0  1.300039 -1.062323 1.902891  0.023223 -0.762436 0.646647  0.254980 0.803213 0
heart_bomb.bmp
0  1.730039 -1.152323 1.582892  0.295634 -0.879200 0.373642  0.227092 0.751004 0
0  1.790039 -0.762323 2.092891  0.312043 -0.540908 0.781056  0.195219 0.807229 0
0  1.300039 -1.062323 1.902891  0.023223 -0.762436 0.646647  0.254980 0.803213 0
heart_bomb.bmp
0  0.000667 -0.002886 -3.535077  -0.000003 0.000024 -1.000000  0.390438 0.204819 0
0  0.765443 -0.283429 -2.831303  0.547399 -0.330388 -0.768894  0.294821 0.253012 0
0  0.540042 -0.432326 -2.877110  0.475502 -0.508301 -0.718003  0.322709 0.269076 0
heart_bomb.bmp
0  0.540042 -0.432326 -2.877110  0.475502 -0.508301 -0.718003  0.322709 0.269076 0
0  0.765443 -0.283429 -2.831303  0.547399 -0.330388 -0.768894  0.294821 0.253012 0
0  1.080041 -0.822326 -2.297109  0.417196 -0.641976 -0.643285  0.278884 0.345382 0
heart_bomb.bmp
0  0.765443 -0.283429 -2.831303  0.547399 -0.330388 -0.768894  0.294821 0.253012 0
0  1.499280 -0.534954 -2.234020  0.581916 -0.411764 -0.701302  0.227092 0.325301 0
0  1.080041 -0.822326 -2.297109  0.417196 -0.641976 -0.643285  0.278884 0.345382 0
heart_bomb.bmp
0  1.080041 -0.822326 -2.297109  0.417196 -0.641976 -0.643285  0.278884 0.345382 0
0  1.499280 -0.534954 -2.234020  0.581916 -0.411764 -0.701302  0.227092 0.325301 0
0  1.570041 -1.102326 -1.557109  0.444850 -0.790268 -0.421407  0.239044 0.425703 0
heart_bomb.bmp
0  1.499280 -0.534954 -2.234020  0.581916 -0.411764 -0.701302  0.227092 0.325301 0
0  2.124972 -0.718829 -1.487563  0.686748 -0.524012 -0.503775  0.175299 0.409639 0
0  1.570041 -1.102326 -1.557109  0.444850 -0.790268 -0.421407  0.239044 0.425703 0
heart_bomb.bmp
0  1.570041 -1.102326 -1.557109  0.444850 -0.790268 -0.421407  0.239044 0.425703 0
0  2.124972 -0.718829 -1.487563  0.686748 -0.524012 -0.503775  0.175299 0.409639 0
0  1.910040 -1.252325 -0.597108  0.439502 -0.878603 -0.186801  0.215139 0.526104 0
heart_bomb.bmp
0  2.124972 -0.718829 -1.487563  0.686748 -0.524012 -0.503775  0.175299 0.409639 0
0  2.550040 -0.822325 -0.567108  0.748399 -0.600867 -0.280817  0.139442 0.506024 0
0  1.910040 -1.252325 -0.597108  0.439502 -0.878603 -0.186801  0.215139 0.526104 0
heart_bomb.bmp
0  1.910040 -1.252325 -0.597108  0.439502 -0.878603 -0.186801  0.215139 0.526104 0
0  2.550040 -0.822325 -0.567108  0.748399 -0.600867 -0.280817  0.139442 0.506024 0
0  2.100040 -1.252324 0.372892  0.419227 -0.907064 0.038527  0.203187 0.626506 0
heart_bomb.bmp
0  2.550040 -0.822325 -0.567108  0.748399 -0.600867 -0.280817  0.139442 0.506024 0
0  2.770040 -0.832324 0.462892  0.776334 -0.630113 0.016205  0.127490 0.614458 0
0  2.100040 -1.252324 0.372892  0.419227 -0.907064 0.038527  0.203187 0.626506 0
heart_bomb.bmp
0  2.100040 -1.252324 0.372892  0.419227 -0.907064 0.038527  0.203187 0.626506 0
0  2.770040 -0.832324 0.462892  0.776334 -0.630113 0.016205  0.127490 0.614458 0
0  1.930040 -1.182323 1.142892  0.371484 -0.906180 0.202083  0.215139 0.702811 0
heart_bomb.bmp
0  2.770040 -0.832324 0.462892  0.776334 -0.630113 0.016205  0.127490 0.614458 0
0  2.590040 -0.812324 1.262892  0.690886 -0.650878 0.314697  0.139442 0.698795 0
0  1.930040 -1.182323 1.142892  0.371484 -0.906180 0.202083  0.215139 0.702811 0
heart_bomb.bmp
0  1.930040 -1.182323 1.142892  0.371484 -0.906180 0.202083  0.215139 0.702811 0
0  2.590040 -0.812324 1.262892  0.690886 -0.650878 0.314697  0.139442 0.698795 0
0  2.270039 -0.792323 1.732891  0.561692 -0.613117 0.555508  0.163347 0.755020 0
heart_bomb.bmp
0  2.590040 -0.812324 1.262892  0.690886 -0.650878 0.314697  0.139442 0.698795 0
0  2.964475 -0.004724 1.363570  0.929106 -0.000012 0.369814  0.043825 0.710843 0
0  2.270039 -0.792323 1.732891  0.561692 -0.613117 0.555508  0.163347 0.755020 0
heart_bomb.bmp
0  1.803596 0.765162 2.093445  0.312112 0.540925 0.781016  0.195219 0.807229 0
0  1.744243 1.146553 1.583623  0.295540 0.879259 0.373576  0.227092 0.751004 0
0  1.317455 1.056926 1.905987  0.023329 0.762445 0.646632  0.254980 0.803213 0
heart_bomb.bmp
0  1.317455 1.056926 1.905987  0.023329 0.762445 0.646632  0.254980 0.803213 0
0  1.744243 1.146553 1.583623  0.295540 0.879259 0.373576  0.227092 0.751004 0
0  0.890665 1.372172 1.298590  0.091902 0.940510 0.327100  0.314741 0.755020 0
heart_bomb.bmp
0  1.744243 1.146553 1.583623  0.295540 0.879259 0.373576  0.227092 0.751004 0
0  1.025753 1.449441 1.019203  0.144540 0.963215 0.226548  0.306773 0.714859 0
0  0.890665 1.372172 1.298590  0.091902 0.940510 0.327100  0.314741 0.755020 0
heart_bomb.bmp
0  0.890665 1.372172 1.298590  0.091902 0.940510 0.327100  0.314741 0.755020 0
0  1.025753 1.449441 1.019203  0.144540 0.963215 0.226548  0.306773 0.714859 0
0  0.000666 1.544127 0.919865  0.000002 0.966143 0.258007  0.402390 0.734940 0
heart_bomb.bmp
0  1.025753 1.449441 1.019203  0.144540 0.963215 0.226548  0.306773 0.714859 0
0  1.128735 1.537723 0.350921  0.191082 0.979177 0.068562  0.298805 0.646586 0
0  0.000666 1.544127 0.919865  0.000002 0.966143 0.258007  0.402390 0.734940 0
heart_bomb.bmp
0  0.000666 1.544127 0.919865  0.000002 0.966143 0.258007  0.402390 0.734940 0
0  1.128735 1.537723 0.350921  0.191082 0.979177 0.068562  0.298805 0.646586 0
0  0.000666 1.645088 0.288075  0.000101 0.997219 0.074524  0.402390 0.662651 0
heart_bomb.bmp
0  1.128735 1.537723 0.350921  0.191082 0.979177 0.068562  0.298805 0.646586 0
0  1.031323 1.541082 -0.621285  0.208515 0.970459 -0.121370  0.302789 0.546185 0
0  0.000666 1.645088 0.288075  0.000101 0.997219 0.074524  0.402390 0.662651 0
heart_bomb.bmp
0  0.000666 1.645088 0.288075  0.000101 0.997219 0.074524  0.402390 0.662651 0
0  1.031323 1.541082 -0.621285  0.208515 0.970459 -0.121370  0.302789 0.546185 0
0  0.000667 1.645087 -0.681925  -0.000068 0.994593 -0.103851  0.398406 0.558233 0
heart_bomb.bmp
0  1.031323 1.541082 -0.621285  0.208515 0.970459 -0.121370  0.302789 0.546185 0
0  0.851261 1.358039 -1.624433  0.224125 0.908117 -0.353682  0.314741 0.441767 0
0  0.000667 1.645087 -0.681925  -0.000068 0.994593 -0.103851  0.398406 0.558233 0
heart_bomb.bmp
0  0.000667 1.645087 -0.681925  -0.000068 0.994593 -0.103851  0.398406 0.558233 0
0  0.851261 1.358039 -1.624433  0.224125 0.908117 -0.353682  0.314741 0.441767 0
0  -0.000548 1.439515 -1.657559  -0.000032 0.943035 -0.332693  0.394422 0.453815 0
heart_bomb.bmp
0  0.851261 1.358039 -1.624433  0.224125 0.908117 -0.353682  0.314741 0.441767 0
0  0.609452 1.005091 -2.354822  0.236313 0.777717 -0.582505  0.330677 0.361446 0
0  -0.000548 1.439515 -1.657559  -0.000032 0.943035 -0.332693  0.394422 0.453815 0
heart_bomb.bmp
0  -0.000548 1.439515 -1.657559  -0.000032 0.943035 -0.332693  0.394422 0.453815 0
0  0.609452 1.005091 -2.354822  0.236313 0.777717 -0.582505  0.330677 0.361446 0
0  -0.000548 1.065580 -2.373291  -0.000000 0.838888 -0.544305  0.394422 0.369478 0
heart_bomb.bmp
0  0.609452 1.005091 -2.354822  0.236313 0.777717 -0.582505  0.330677 0.361446 0
0  0.299452 0.542592 -2.970772  0.343778 0.635636 -0.691219  0.354582 0.281124 0
0  -0.000548 1.065580 -2.373291  -0.000000 0.838888 -0.544305  0.394422 0.369478 0
heart_bomb.bmp
0  0.000667 -0.002886 -3.535077  -0.000003 0.000024 -1.000000  0.390438 0.204819 0
0  0.880977 -0.011816 -2.811853  0.606604 -0.000013 -0.795004  0.266932 0.220884 0
0  0.765443 -0.283429 -2.831303  0.547399 -0.330388 -0.768894  0.294821 0.253012 0
heart_bomb.bmp
0  0.765443 -0.283429 -2.831303  0.547399 -0.330388 -0.768894  0.294821 0.253012 0
0  0.880977 -0.011816 -2.811853  0.606604 -0.000013 -0.795004  0.266932 0.220884 0
0  1.499280 -0.534954 -2.234020  0.581916 -0.411764 -0.701302  0.227092 0.325301 0
heart_bomb.bmp
0  0.880977 -0.011816 -2.811853  0.606604 -0.000013 -0.795004  0.266932 0.220884 0
0  1.713181 -0.010602 -2.219848  0.672126 0.000126 -0.740437  0.167331 0.285141 0
0  1.499280 -0.534954 -2.234020  0.581916 -0.411764 -0.701302  0.227092 0.325301 0
heart_bomb.bmp
0  1.499280 -0.534954 -2.234020  0.581916 -0.411764 -0.701302  0.227092 0.325301 0
0  1.713181 -0.010602 -2.219848  0.672126 0.000126 -0.740437  0.167331 0.285141 0
0  2.124972 -0.718829 -1.487563  0.686748 -0.524012 -0.503775  0.175299 0.409639 0
heart_bomb.bmp
0  1.713181 -0.010602 -2.219848  0.672126 0.000126 -0.740437  0.167331 0.285141 0
0  2.406366 -0.003208 -1.489547  0.827325 0.000007 -0.561724  0.091633 0.373494 0
0  2.124972 -0.718829 -1.487563  0.686748 -0.524012 -0.503775  0.175299 0.409639 0
heart_bomb.bmp
0  2.124972 -0.718829 -1.487563  0.686748 -0.524012 -0.503775  0.175299 0.409639 0
0  2.406366 -0.003208 -1.489547  0.827325 0.000007 -0.561724  0.091633 0.373494 0
0  2.550040 -0.822325 -0.567108  0.748399 -0.600867 -0.280817  0.139442 0.506024 0
heart_bomb.bmp
0  2.406366 -0.003208 -1.489547  0.827325 0.000007 -0.561724  0.091633 0.373494 0
0  2.885249 -0.008969 -0.566109  0.943803 0.000023 -0.330507  0.047809 0.485944 0
0  2.550040 -0.822325 -0.567108  0.748399 -0.600867 -0.280817  0.139442 0.506024 0
heart_bomb.bmp
0  2.550040 -0.822325 -0.567108  0.748399 -0.600867 -0.280817  0.139442 0.506024 0
0  2.885249 -0.008969 -0.566109  0.943803 0.000023 -0.330507  0.047809 0.485944 0
0  2.770040 -0.832324 0.462892  0.776334 -0.630113 0.016205  0.127490 0.614458 0
heart_bomb.bmp
0  2.885249 -0.008969 -0.566109  0.943803 0.000023 -0.330507  0.047809 0.485944 0
0  3.116342 -0.002293 0.535905  0.999942 -0.000029 0.010794  0.031873 0.610442 0
0  2.770040 -0.832324 0.462892  0.776334 -0.630113 0.016205  0.127490 0.614458 0
heart_bomb.bmp
0  2.770040 -0.832324 0.462892  0.776334 -0.630113 0.016205  0.127490 0.614458 0
0  3.116342 -0.002293 0.535905  0.999942 -0.000029 0.010794  0.031873 0.610442 0
0  2.590040 -0.812324 1.262892  0.690886 -0.650878 0.314697  0.139442 0.698795 0
heart_bomb.bmp
0  3.116342 -0.002293 0.535905  0.999942 -0.000029 0.010794  0.031873 0.610442 0
0  2.964475 -0.004724 1.363570  0.929106 -0.000012 0.369814  0.043825 0.710843 0
0  2.590040 -0.812324 1.262892  0.690886 -0.650878 0.314697  0.139442 0.698795 0
heart_bomb.bmp
0  2.964475 -0.004724 1.363570  0.929106 -0.000012 0.369814  0.043825 0.710843 0
0  3.116342 -0.002293 0.535905  0.999942 -0.000029 0.010794  0.031873 0.610442 0
0  2.591677 0.812899 1.268599  0.690844 0.650918 0.314706  0.139442 0.698795 0
heart_bomb.bmp
0  2.591677 0.812899 1.268599  0.690844 0.650918 0.314706  0.139442 0.698795 0
0  3.116342 -0.002293 0.535905  0.999942 -0.000029 0.010794  0.031873 0.610442 0
0  2.777329 0.846193 0.469772  0.776333 0.630115 0.016203  0.127490 0.614458 0
heart_bomb.bmp
0  3.116342 -0.002293 0.535905  0.999942 -0.000029 0.010794  0.031873 0.610442 0
0  2.885249 -0.008969 -0.566109  0.943803 0.000023 -0.330507  0.047809 0.485944 0
0  2.777329 0.846193 0.469772  0.776333 0.630115 0.016203  0.127490 0.614458 0
heart_bomb.bmp
0  2.777329 0.846193 0.469772  0.776333 0.630115 0.016203  0.127490 0.614458 0
0  2.885249 -0.008969 -0.566109  0.943803 0.000023 -0.330507  0.047809 0.485944 0
0  2.550905 0.817730 -0.569982  0.748383 0.600907 -0.280774  0.139442 0.506024 0
heart_bomb.bmp
0  2.885249 -0.008969 -0.566109  0.943803 0.000023 -0.330507  0.047809 0.485944 0
0  2.406366 -0.003208 -1.489547  0.827325 0.000007 -0.561724  0.091633 0.373494 0
0  2.550905 0.817730 -0.569982  0.748383 0.600907 -0.280774  0.139442 0.506024 0
heart_bomb.bmp
0  2.550905 0.817730 -0.569982  0.748383 0.600907 -0.280774  0.139442 0.506024 0
0  2.406366 -0.003208 -1.489547  0.827325 0.000007 -0.561724  0.091633 0.373494 0
0  2.107997 0.718596 -1.497046  0.686698 0.523992 -0.503863  0.175299 0.409639 0
heart_bomb.bmp
0  2.406366 -0.003208 -1.489547  0.827325 0.000007 -0.561724  0.091633 0.373494 0
0  1.713181 -0.010602 -2.219848  0.672126 0.000126 -0.740437  0.167331 0.285141 0
0  2.107997 0.718596 -1.497046  0.686698 0.523992 -0.503863  0.175299 0.409639 0
heart_bomb.bmp
0  2.107997 0.718596 -1.497046  0.686698 0.523992 -0.503863  0.175299 0.409639 0
0  1.713181 -0.010602 -2.219848  0.672126 0.000126 -0.740437  0.167331 0.285141 0
0  1.487499 0.539675 -2.239723  0.581719 0.411885 -0.701394  0.227092 0.325301 0
heart_bomb.bmp
0  1.713181 -0.010602 -2.219848  0.672126 0.000126 -0.740437  0.167331 0.285141 0
0  0.880977 -0.011816 -2.811853  0.606604 -0.000013 -0.795004  0.266932 0.220884 0
0  1.487499 0.539675 -2.239723  0.581719 0.411885 -0.701394  0.227092 0.325301 0
heart_bomb.bmp
0  1.487499 0.539675 -2.239723  0.581719 0.411885 -0.701394  0.227092 0.325301 0
0  0.880977 -0.011816 -2.811853  0.606604 -0.000013 -0.795004  0.266932 0.220884 0
0  0.767908 0.276629 -2.836646  0.547395 0.330399 -0.768892  0.294821 0.253012 0
heart_bomb.bmp
0  0.880977 -0.011816 -2.811853  0.606604 -0.000013 -0.795004  0.266932 0.220884 0
0  0.000667 -0.002886 -3.535077  -0.000003 0.000024 -1.000000  0.390438 0.204819 0
0  0.767908 0.276629 -2.836646  0.547395 0.330399 -0.768892  0.294821 0.253012 0
heart_bomb.bmp
0  0.240665 -0.002881 1.759059  -0.739725 -0.000202 0.672909  0.350598 0.943775 0
0  0.000665 -0.002882 1.439059  0.045127 0.000082 0.998981  0.410359 0.943775 0
0  0.420039 -0.902322 1.732891  -0.487137 -0.342199 0.803491  0.346614 0.843373 0
heart_bomb.bmp
0  0.420039 -0.902322 1.732891  -0.487137 -0.342199 0.803491  0.346614 0.843373 0
0  0.000665 -0.002882 1.439059  0.045127 0.000082 0.998981  0.410359 0.943775 0
0  0.000040 -0.972323 1.382891  0.010997 -0.271343 0.962420  0.406375 0.835341 0
heart_bomb.bmp
0  0.000665 -0.002882 1.439059  0.045127 0.000082 0.998981  0.410359 0.943775 0
0  -0.239335 -0.002881 1.759059  0.709629 -0.000072 0.704575  0.466135 0.939759 0
0  0.000040 -0.972323 1.382891  0.010997 -0.271343 0.962420  0.406375 0.835341 0
heart_bomb.bmp
0  0.000040 -0.972323 1.382891  0.010997 -0.271343 0.962420  0.406375 0.835341 0
0  -0.239335 -0.002881 1.759059  0.709629 -0.000072 0.704575  0.466135 0.939759 0
0  -0.419961 -0.902322 1.732890  0.467048 -0.358308 0.808382  0.470120 0.839357 0
heart_bomb.bmp
0  -0.239335 -0.002881 1.759059  0.709629 -0.000072 0.704575  0.466135 0.939759 0
0  -0.611215 0.007436 2.086544  0.545812 0.000343 0.837908  0.529880 0.931727 0
0  -0.419961 -0.902322 1.732890  0.467048 -0.358308 0.808382  0.470120 0.839357 0
heart_bomb.bmp
0  -0.419961 -0.902322 1.732890  0.467048 -0.358308 0.808382  0.470120 0.839357 0
0  -0.611215 0.007436 2.086544  0.545812 0.000343 0.837908  0.529880 0.931727 0
0  -0.919961 -0.772322 2.042890  0.313802 -0.462320 0.829330  0.533865 0.839357 0
heart_bomb.bmp
0  -0.611215 0.007436 2.086544  0.545812 0.000343 0.837908  0.529880 0.931727 0
0  -1.094864 0.002188 2.334045  0.269734 0.000040 0.962935  0.593625 0.911647 0
0  -0.919961 -0.772322 2.042890  0.313802 -0.462320 0.829330  0.533865 0.839357 0
heart_bomb.bmp
0  -0.919961 -0.772322 2.042890  0.313802 -0.462320 0.829330  0.533865 0.839357 0
0  -1.094864 0.002188 2.334045  0.269734 0.000040 0.962935  0.593625 0.911647 0
0  -1.378024 -0.555852 2.273121  0.018016 -0.353204 0.935373  0.589641 0.843373 0
heart_bomb.bmp
0  -1.094864 0.002188 2.334045  0.269734 0.000040 0.962935  0.593625 0.911647 0
0  -1.593704 0.006172 2.345995  -0.158623 -0.000046 0.987339  0.645418 0.875502 0
0  -1.378024 -0.555852 2.273121  0.018016 -0.353204 0.935373  0.589641 0.843373 0
heart_bomb.bmp
0  0.000039 -1.422323 1.192891  0.000000 -0.818379 0.574679  0.406375 0.779116 0
0  -0.419961 -0.902322 1.732890  0.467048 -0.358308 0.808382  0.470120 0.839357 0
0  -0.699961 -1.292322 1.572891  0.094585 -0.800285 0.592114  0.482072 0.787149 0
heart_bomb.bmp
0  0.000039 -1.422323 1.192891  0.000000 -0.818379 0.574679  0.406375 0.779116 0
0  0.000040 -0.972323 1.382891  0.010997 -0.271343 0.962420  0.406375 0.835341 0
0  -0.419961 -0.902322 1.732890  0.467048 -0.358308 0.808382  0.470120 0.839357 0
heart_bomb.bmp
0  0.000039 -1.422323 1.192891  0.000000 -0.818379 0.574679  0.406375 0.779116 0
0  0.420039 -0.902322 1.732891  -0.487137 -0.342199 0.803491  0.346614 0.843373 0
0  0.000040 -0.972323 1.382891  0.010997 -0.271343 0.962420  0.406375 0.835341 0
heart_bomb.bmp
0  0.000039 -1.422323 1.192891  0.000000 -0.818379 0.574679  0.406375 0.779116 0
0  0.700039 -1.292323 1.572891  -0.094585 -0.800285 0.592113  0.326693 0.791165 0
0  0.420039 -0.902322 1.732891  -0.487137 -0.342199 0.803491  0.346614 0.843373 0
heart_bomb.bmp
0  0.000039 -1.422323 1.192891  0.000000 -0.818379 0.574679  0.406375 0.779116 0
0  0.890039 -1.362323 1.302891  0.091987 -0.940515 0.327064  0.314741 0.755020 0
0  0.700039 -1.292323 1.572891  -0.094585 -0.800285 0.592113  0.326693 0.791165 0
heart_bomb.bmp
0  0.000039 -1.422323 1.192891  0.000000 -0.818379 0.574679  0.406375 0.779116 0
0  0.000040 -1.542323 0.912891  0.000000 -0.966242 0.257636  0.402390 0.734940 0
0  0.890039 -1.362323 1.302891  0.091987 -0.940515 0.327064  0.314741 0.755020 0
heart_bomb.bmp
0  0.000039 -1.422323 1.192891  0.000000 -0.818379 0.574679  0.406375 0.779116 0
0  -0.889961 -1.362322 1.302890  -0.091985 -0.940515 0.327065  0.494024 0.746988 0
0  0.000040 -1.542323 0.912891  0.000000 -0.966242 0.257636  0.402390 0.734940 0
heart_bomb.bmp
0  0.000039 -1.422323 1.192891  0.000000 -0.818379 0.574679  0.406375 0.779116 0
0  -0.699961 -1.292322 1.572891  0.094585 -0.800285 0.592114  0.482072 0.787149 0
0  -0.889961 -1.362322 1.302890  -0.091985 -0.940515 0.327065  0.494024 0.746988 0
heart_bomb.bmp
0  -1.019960 -1.542324 -0.627109  -0.208532 -0.970449 -0.121424  0.494024 0.538153 0
0  -1.569959 -1.102324 -1.557110  -0.444850 -0.790268 -0.421408  0.549801 0.417671 0
0  -0.839959 -1.352325 -1.617110  -0.224083 -0.908107 -0.353735  0.478088 0.437751 0
heart_bomb.bmp
0  -0.839959 -1.352325 -1.617110  -0.224083 -0.908107 -0.353735  0.478088 0.437751 0
0  -1.569959 -1.102324 -1.557110  -0.444850 -0.790268 -0.421408  0.549801 0.417671 0
0  -1.079959 -0.822325 -2.297110  -0.417180 -0.641992 -0.643278  0.505976 0.337349 0
heart_bomb.bmp
0  -1.569959 -1.102324 -1.557110  -0.444850 -0.790268 -0.421408  0.549801 0.417671 0
0  -1.500376 -0.534953 -2.234021  -0.581902 -0.411790 -0.701298  0.557769 0.313253 0
0  -1.079959 -0.822325 -2.297110  -0.417180 -0.641992 -0.643278  0.505976 0.337349 0
heart_bomb.bmp
0  -1.079959 -0.822325 -2.297110  -0.417180 -0.641992 -0.643278  0.505976 0.337349 0
0  -1.500376 -0.534953 -2.234021  -0.581902 -0.411790 -0.701298  0.557769 0.313253 0
0  -0.766538 -0.283429 -2.831303  -0.547401 -0.330385 -0.768894  0.482072 0.248996 0
heart_bomb.bmp
0  -1.500376 -0.534953 -2.234021  -0.581902 -0.411790 -0.701298  0.557769 0.313253 0
0  -0.882072 -0.011816 -2.811853  -0.606603 -0.000016 -0.795005  0.505976 0.228916 0
0  -0.766538 -0.283429 -2.831303  -0.547401 -0.330385 -0.768894  0.482072 0.248996 0
heart_bomb.bmp
0  -0.766538 -0.283429 -2.831303  -0.547401 -0.330385 -0.768894  0.482072 0.248996 0
0  -0.882072 -0.011816 -2.811853  -0.606603 -0.000016 -0.795005  0.505976 0.228916 0
0  0.000667 -0.002886 -3.535077  -0.000003 0.000024 -1.000000  0.390438 0.204819 0
heart_bomb.bmp
0  -0.882072 -0.011816 -2.811853  -0.606603 -0.000016 -0.795005  0.505976 0.228916 0
0  -0.769003 0.276630 -2.836646  -0.547393 0.330364 -0.768909  0.482072 0.248996 0
0  0.000667 -0.002886 -3.535077  -0.000003 0.000024 -1.000000  0.390438 0.204819 0
heart_bomb.bmp
0  0.000667 -0.002886 -3.535077  -0.000003 0.000024 -1.000000  0.390438 0.204819 0
0  -0.769003 0.276630 -2.836646  -0.547393 0.330364 -0.768909  0.482072 0.248996 0
0  -0.547057 0.433626 -2.877781  -0.475511 0.508294 -0.718002  0.458167 0.265060 0
heart_bomb.bmp
0  0.000666 1.645088 0.288075  0.000101 0.997219 0.074524  0.402390 0.662651 0
0  -1.129834 1.537724 0.350920  -0.191121 0.979167 0.068591  0.505976 0.638554 0
0  0.000666 1.544127 0.919865  0.000002 0.966143 0.258007  0.402390 0.734940 0
heart_bomb.bmp
0  0.000666 1.544127 0.919865  0.000002 0.966143 0.258007  0.402390 0.734940 0
0  -1.129834 1.537724 0.350920  -0.191121 0.979167 0.068591  0.505976 0.638554 0
0  -1.026852 1.449442 1.019202  -0.144534 0.963214 0.226560  0.498008 0.710843 0
heart_bomb.bmp
0  -1.129834 1.537724 0.350920  -0.191121 0.979167 0.068591  0.505976 0.638554 0
0  -2.104198 1.251484 0.390681  -0.419217 0.907075 0.038355  0.597610 0.614458 0
0  -1.026852 1.449442 1.019202  -0.144534 0.963214 0.226560  0.498008 0.710843 0
heart_bomb.bmp
0  -1.026852 1.449442 1.019202  -0.144534 0.963214 0.226560  0.498008 0.710843 0
0  -2.104198 1.251484 0.390681  -0.419217 0.907075 0.038355  0.597610 0.614458 0
0  -1.940003 1.181257 1.139753  -0.371486 0.906175 0.202100  0.589641 0.690763 0
heart_bomb.bmp
0  -2.104198 1.251484 0.390681  -0.419217 0.907075 0.038355  0.597610 0.614458 0
0  -2.773613 0.837603 0.468042  -0.776319 0.630133 0.016173  0.673307 0.598394 0
0  -1.940003 1.181257 1.139753  -0.371486 0.906175 0.202100  0.589641 0.690763 0
heart_bomb.bmp
0  -1.940003 1.181257 1.139753  -0.371486 0.906175 0.202100  0.589641 0.690763 0
0  -2.773613 0.837603 0.468042  -0.776319 0.630133 0.016173  0.673307 0.598394 0
0  -2.592776 0.812901 1.268597  -0.690145 0.653222 0.311449  0.665339 0.682731 0
heart_bomb.bmp
0  -2.773613 0.837603 0.468042  -0.776319 0.630133 0.016173  0.673307 0.598394 0
0  -3.107432 -0.012082 0.533916  -0.999942 -0.000062 0.010787  0.764940 0.590361 0
0  -2.592776 0.812901 1.268597  -0.690145 0.653222 0.311449  0.665339 0.682731 0
heart_bomb.bmp
0  -2.592776 0.812901 1.268597  -0.690145 0.653222 0.311449  0.665339 0.682731 0
0  -3.107432 -0.012082 0.533916  -0.999942 -0.000062 0.010787  0.764940 0.590361 0
0  -2.965575 -0.004721 1.363567  -0.930932 0.000041 0.365193  0.760956 0.690763 0
heart_bomb.bmp
0  0.000667 1.645087 -0.681925  -0.000068 0.994593 -0.103851  0.398406 0.558233 0
0  -1.032421 1.541084 -0.621286  -0.208500 0.970460 -0.121386  0.494024 0.538153 0
0  0.000666 1.645088 0.288075  0.000101 0.997219 0.074524  0.402390 0.662651 0
heart_bomb.bmp
0  0.000666 1.645088 0.288075  0.000101 0.997219 0.074524  0.402390 0.662651 0
0  -1.032421 1.541084 -0.621286  -0.208500 0.970460 -0.121386  0.494024 0.538153 0
0  -1.129834 1.537724 0.350920  -0.191121 0.979167 0.068591  0.505976 0.638554 0
heart_bomb.bmp
0  -1.032421 1.541084 -0.621286  -0.208500 0.970460 -0.121386  0.494024 0.538153 0
0  -1.919154 1.256920 -0.590392  -0.439503 0.878603 -0.186800  0.581673 0.514056 0
0  -1.129834 1.537724 0.350920  -0.191121 0.979167 0.068591  0.505976 0.638554 0
heart_bomb.bmp
0  -1.129834 1.537724 0.350920  -0.191121 0.979167 0.068591  0.505976 0.638554 0
0  -1.919154 1.256920 -0.590392  -0.439503 0.878603 -0.186800  0.581673 0.514056 0
0  -2.104198 1.251484 0.390681  -0.419217 0.907075 0.038355  0.597610 0.614458 0
heart_bomb.bmp
0  -1.919154 1.256920 -0.590392  -0.439503 0.878603 -0.186800  0.581673 0.514056 0
0  -2.552003 0.817731 -0.569985  -0.748337 0.600941 -0.280822  0.653386 0.493976 0
0  -2.104198 1.251484 0.390681  -0.419217 0.907075 0.038355  0.597610 0.614458 0
heart_bomb.bmp
0  -2.104198 1.251484 0.390681  -0.419217 0.907075 0.038355  0.597610 0.614458 0
0  -2.552003 0.817731 -0.569985  -0.748337 0.600941 -0.280822  0.653386 0.493976 0
0  -2.773613 0.837603 0.468042  -0.776319 0.630133 0.016173  0.673307 0.598394 0
heart_bomb.bmp
0  -2.552003 0.817731 -0.569985  -0.748337 0.600941 -0.280822  0.653386 0.493976 0
0  -2.886348 -0.008966 -0.566112  -0.943789 0.000058 -0.330550  0.741036 0.469880 0
0  -2.773613 0.837603 0.468042  -0.776319 0.630133 0.016173  0.673307 0.598394 0
heart_bomb.bmp
0  -2.773613 0.837603 0.468042  -0.776319 0.630133 0.016173  0.673307 0.598394 0
0  -2.886348 -0.008966 -0.566112  -0.943789 0.000058 -0.330550  0.741036 0.469880 0
0  -3.107432 -0.012082 0.533916  -0.999942 -0.000062 0.010787  0.764940 0.590361 0
heart_bomb.bmp
0  -0.000548 1.439515 -1.657559  -0.000032 0.943035 -0.332693  0.394422 0.453815 0
0  -0.852356 1.358040 -1.624433  -0.224123 0.908118 -0.353680  0.478088 0.437751 0
0  0.000667 1.645087 -0.681925  -0.000068 0.994593 -0.103851  0.398406 0.558233 0
heart_bomb.bmp
0  0.000667 1.645087 -0.681925  -0.000068 0.994593 -0.103851  0.398406 0.558233 0
0  -0.852356 1.358040 -1.624433  -0.224123 0.908118 -0.353680  0.478088 0.437751 0
0  -1.032421 1.541084 -0.621286  -0.208500 0.970460 -0.121386  0.494024 0.538153 0
heart_bomb.bmp
0  -0.852356 1.358040 -1.624433  -0.224123 0.908118 -0.353680  0.478088 0.437751 0
0  -1.567023 1.105772 -1.566015  -0.444664 0.790376 -0.421402  0.549801 0.417671 0
0  -1.032421 1.541084 -0.621286  -0.208500 0.970460 -0.121386  0.494024 0.538153 0
heart_bomb.bmp
0  -1.032421 1.541084 -0.621286  -0.208500 0.970460 -0.121386  0.494024 0.538153 0
0  -1.567023 1.105772 -1.566015  -0.444664 0.790376 -0.421402  0.549801 0.417671 0
0  -1.919154 1.256920 -0.590392  -0.439503 0.878603 -0.186800  0.581673 0.514056 0
heart_bomb.bmp
0  -1.567023 1.105772 -1.566015  -0.444664 0.790376 -0.421402  0.549801 0.417671 0
0  -2.109093 0.718598 -1.497049  -0.686734 0.523990 -0.503817  0.613546 0.397590 0
0  -1.919154 1.256920 -0.590392  -0.439503 0.878603 -0.186800  0.581673 0.514056 0
heart_bomb.bmp
0  -1.919154 1.256920 -0.590392  -0.439503 0.878603 -0.186800  0.581673 0.514056 0
0  -2.109093 0.718598 -1.497049  -0.686734 0.523990 -0.503817  0.613546 0.397590 0
0  -2.552003 0.817731 -0.569985  -0.748337 0.600941 -0.280822  0.653386 0.493976 0
heart_bomb.bmp
0  -2.109093 0.718598 -1.497049  -0.686734 0.523990 -0.503817  0.613546 0.397590 0
0  -2.407464 -0.003206 -1.489549  -0.827316 0.000057 -0.561738  0.689243 0.361446 0
0  -2.552003 0.817731 -0.569985  -0.748337 0.600941 -0.280822  0.653386 0.493976 0
heart_bomb.bmp
0  -2.552003 0.817731 -0.569985  -0.748337 0.600941 -0.280822  0.653386 0.493976 0
0  -2.407464 -0.003206 -1.489549  -0.827316 0.000057 -0.561738  0.689243 0.361446 0
0  -2.886348 -0.008966 -0.566112  -0.943789 0.000058 -0.330550  0.741036 0.469880 0
heart_bomb.bmp
0  -0.000548 1.065580 -2.373291  -0.000000 0.838888 -0.544305  0.394422 0.369478 0
0  -0.610548 1.005091 -2.354822  -0.236312 0.777717 -0.582506  0.458167 0.357430 0
0  -0.000548 1.439515 -1.657559  -0.000032 0.943035 -0.332693  0.394422 0.453815 0
heart_bomb.bmp
0  -0.000548 1.439515 -1.657559  -0.000032 0.943035 -0.332693  0.394422 0.453815 0
0  -0.610548 1.005091 -2.354822  -0.236312 0.777717 -0.582506  0.458167 0.357430 0
0  -0.852356 1.358040 -1.624433  -0.224123 0.908118 -0.353680  0.478088 0.437751 0
heart_bomb.bmp
0  -0.610548 1.005091 -2.354822  -0.236312 0.777717 -0.582506  0.458167 0.357430 0
0  -1.090415 0.820195 -2.304250  -0.417236 0.642056 -0.643179  0.505976 0.337349 0
0  -0.852356 1.358040 -1.624433  -0.224123 0.908118 -0.353680  0.478088 0.437751 0
heart_bomb.bmp
0  -0.852356 1.358040 -1.624433  -0.224123 0.908118 -0.353680  0.478088 0.437751 0
0  -1.090415 0.820195 -2.304250  -0.417236 0.642056 -0.643179  0.505976 0.337349 0
0  -1.567023 1.105772 -1.566015  -0.444664 0.790376 -0.421402  0.549801 0.417671 0
heart_bomb.bmp
0  -1.090415 0.820195 -2.304250  -0.417236 0.642056 -0.643179  0.505976 0.337349 0
0  -1.488593 0.539676 -2.239724  -0.581853 0.411655 -0.701418  0.557769 0.313253 0
0  -1.567023 1.105772 -1.566015  -0.444664 0.790376 -0.421402  0.549801 0.417671 0
heart_bomb.bmp
0  -1.567023 1.105772 -1.566015  -0.444664 0.790376 -0.421402  0.549801 0.417671 0
0  -1.488593 0.539676 -2.239724  -0.581853 0.411655 -0.701418  0.557769 0.313253 0
0  -2.109093 0.718598 -1.497049  -0.686734 0.523990 -0.503817  0.613546 0.397590 0
heart_bomb.bmp
0  -1.488593 0.539676 -2.239724  -0.581853 0.411655 -0.701418  0.557769 0.313253 0
0  -1.709592 -0.010739 -2.228683  -0.672163 0.000037 -0.740403  0.601594 0.281124 0
0  -2.109093 0.718598 -1.497049  -0.686734 0.523990 -0.503817  0.613546 0.397590 0
heart_bomb.bmp
0  -2.109093 0.718598 -1.497049  -0.686734 0.523990 -0.503817  0.613546 0.397590 0
0  -1.709592 -0.010739 -2.228683  -0.672163 0.000037 -0.740403  0.601594 0.281124 0
0  -2.407464 -0.003206 -1.489549  -0.827316 0.000057 -0.561738  0.689243 0.361446 0
heart_bomb.bmp
0  -2.178218 0.003467 2.185096  -0.479698 -0.000033 0.877434  0.697211 0.823293 0
0  -2.269961 -0.792321 1.732889  -0.559190 -0.614509 0.556494  0.645418 0.738956 0
0  -1.789961 -0.762321 2.092890  -0.312026 -0.540920 0.781054  0.613546 0.795181 0
heart_bomb.bmp
0  -1.789961 -0.762321 2.092890  -0.312026 -0.540920 0.781054  0.613546 0.795181 0
0  -2.269961 -0.792321 1.732889  -0.559190 -0.614509 0.556494  0.645418 0.738956 0
0  -1.729961 -1.152322 1.582890  -0.295635 -0.879199 0.373642  0.581673 0.742972 0
heart_bomb.bmp
0  -2.269961 -0.792321 1.732889  -0.559190 -0.614509 0.556494  0.645418 0.738956 0
0  -1.929960 -1.182322 1.142890  -0.371484 -0.906180 0.202083  0.589641 0.690763 0
0  -1.729961 -1.152322 1.582890  -0.295635 -0.879199 0.373642  0.581673 0.742972 0
heart_bomb.bmp
0  -1.729961 -1.152322 1.582890  -0.295635 -0.879199 0.373642  0.581673 0.742972 0
0  -1.929960 -1.182322 1.142890  -0.371484 -0.906180 0.202083  0.589641 0.690763 0
0  -1.009960 -1.442323 1.012890  -0.144544 -0.963214 0.226551  0.498008 0.710843 0
heart_bomb.bmp
0  -1.929960 -1.182322 1.142890  -0.371484 -0.906180 0.202083  0.589641 0.690763 0
0  -2.099960 -1.252323 0.372890  -0.419180 -0.907085 0.038535  0.597610 0.614458 0
0  -1.009960 -1.442323 1.012890  -0.144544 -0.963214 0.226551  0.498008 0.710843 0
heart_bomb.bmp
0  -1.009960 -1.442323 1.012890  -0.144544 -0.963214 0.226551  0.498008 0.710843 0
0  -2.099960 -1.252323 0.372890  -0.419180 -0.907085 0.038535  0.597610 0.614458 0
0  -1.119960 -1.542323 0.342890  -0.191094 -0.979172 0.068597  0.505976 0.638554 0
heart_bomb.bmp
0  -2.099960 -1.252323 0.372890  -0.419180 -0.907085 0.038535  0.597610 0.614458 0
0  -1.909960 -1.252323 -0.597110  -0.439541 -0.878583 -0.186806  0.581673 0.514056 0
0  -1.119960 -1.542323 0.342890  -0.191094 -0.979172 0.068597  0.505976 0.638554 0
heart_bomb.bmp
0  -0.539958 -0.432326 -2.877110  -0.475512 -0.508286 -0.718006  0.458167 0.265060 0
0  -0.299958 -0.532326 -2.967110  -0.343809 -0.635624 -0.691214  0.426295 0.277108 0
0  -0.609959 -1.002325 -2.347110  -0.236288 -0.777713 -0.582521  0.458167 0.357430 0
heart_bomb.bmp
0  -0.539958 -0.432326 -2.877110  -0.475512 -0.508286 -0.718006  0.458167 0.265060 0
0  0.000667 -0.002886 -3.535077  -0.000003 0.000024 -1.000000  0.390438 0.204819 0
0  -0.299958 -0.532326 -2.967110  -0.343809 -0.635624 -0.691214  0.426295 0.277108 0
heart_bomb.bmp
0  -0.539958 -0.432326 -2.877110  -0.475512 -0.508286 -0.718006  0.458167 0.265060 0
0  -0.766538 -0.283429 -2.831303  -0.547401 -0.330385 -0.768894  0.482072 0.248996 0
0  0.000667 -0.002886 -3.535077  -0.000003 0.000024 -1.000000  0.390438 0.204819 0
heart_bomb.bmp
0  -0.539958 -0.432326 -2.877110  -0.475512 -0.508286 -0.718006  0.458167 0.265060 0
0  -1.079959 -0.822325 -2.297110  -0.417180 -0.641992 -0.643278  0.505976 0.337349 0
0  -0.766538 -0.283429 -2.831303  -0.547401 -0.330385 -0.768894  0.482072 0.248996 0
heart_bomb.bmp
0  -0.539958 -0.432326 -2.877110  -0.475512 -0.508286 -0.718006  0.458167 0.265060 0
0  -0.609959 -1.002325 -2.347110  -0.236288 -0.777713 -0.582521  0.458167 0.357430 0
0  -1.079959 -0.822325 -2.297110  -0.417180 -0.641992 -0.643278  0.505976 0.337349 0
heart_bomb.bmp
0  -1.299961 -1.062322 1.902890  -0.023257 -0.762439 0.646643  0.553785 0.791165 0
0  -0.919961 -0.772322 2.042890  0.313802 -0.462320 0.829330  0.533865 0.839357 0
0  -1.378024 -0.555852 2.273121  0.018016 -0.353204 0.935373  0.589641 0.843373 0
heart_bomb.bmp
0  -1.299961 -1.062322 1.902890  -0.023257 -0.762439 0.646643  0.553785 0.791165 0
0  -0.419961 -0.902322 1.732890  0.467048 -0.358308 0.808382  0.470120 0.839357 0
0  -0.919961 -0.772322 2.042890  0.313802 -0.462320 0.829330  0.533865 0.839357 0
heart_bomb.bmp
0  -1.299961 -1.062322 1.902890  -0.023257 -0.762439 0.646643  0.553785 0.791165 0
0  -0.699961 -1.292322 1.572891  0.094585 -0.800285 0.592114  0.482072 0.787149 0
0  -0.419961 -0.902322 1.732890  0.467048 -0.358308 0.808382  0.470120 0.839357 0
heart_bomb.bmp
0  -1.299961 -1.062322 1.902890  -0.023257 -0.762439 0.646643  0.553785 0.791165 0
0  -0.889961 -1.362322 1.302890  -0.091985 -0.940515 0.327065  0.494024 0.746988 0
0  -0.699961 -1.292322 1.572891  0.094585 -0.800285 0.592114  0.482072 0.787149 0
heart_bomb.bmp
0  -0.419335 0.897119 1.729058  0.467073 0.358500 0.808283  0.470120 0.839357 0
0  -1.318555 1.056927 1.905988  -0.023386 0.762451 0.646623  0.553785 0.791165 0
0  -0.926751 0.776397 2.055947  0.313808 0.462305 0.829336  0.533865 0.839357 0
heart_bomb.bmp
0  -0.926751 0.776397 2.055947  0.313808 0.462305 0.829336  0.533865 0.839357 0
0  -1.318555 1.056927 1.905988  -0.023386 0.762451 0.646623  0.553785 0.791165 0
0  -1.373455 0.554897 2.269239  0.018071 0.353275 0.935345  0.589641 0.843373 0
heart_bomb.bmp
0  -1.318555 1.056927 1.905988  -0.023386 0.762451 0.646623  0.553785 0.791165 0
0  -1.804697 0.765164 2.093445  -0.312158 0.540939 0.780988  0.613546 0.795181 0
0  -1.373455 0.554897 2.269239  0.018071 0.353275 0.935345  0.589641 0.843373 0
heart_bomb.bmp
0  -1.373455 0.554897 2.269239  0.018071 0.353275 0.935345  0.589641 0.843373 0
0  -1.804697 0.765164 2.093445  -0.312158 0.540939 0.780988  0.613546 0.795181 0
0  -2.178218 0.003467 2.185096  -0.479698 -0.000033 0.877434  0.697211 0.823293 0
heart_bomb.bmp
0  1.093763 0.002187 2.334046  -0.269777 0.000016 0.962923  0.223108 0.919679 0
0  1.372354 0.554896 2.269241  -0.018072 0.353276 0.935345  0.223108 0.851406 0
0  0.925651 0.776396 2.055948  -0.313812 0.462316 0.829328  0.278884 0.847390 0
heart_bomb.bmp
0  0.925651 0.776396 2.055948  -0.313812 0.462316 0.829328  0.278884 0.847390 0
0  1.372354 0.554896 2.269241  -0.018072 0.353276 0.935345  0.223108 0.851406 0
0  1.317455 1.056926 1.905987  0.023329 0.762445 0.646632  0.254980 0.803213 0
heart_bomb.bmp
0  1.372354 0.554896 2.269241  -0.018072 0.353276 0.935345  0.223108 0.851406 0
0  1.803596 0.765162 2.093445  0.312112 0.540925 0.781016  0.195219 0.807229 0
0  1.317455 1.056926 1.905987  0.023329 0.762445 0.646632  0.254980 0.803213 0
heart_bomb.bmp
0  0.420039 -0.902322 1.732891  -0.487137 -0.342199 0.803491  0.346614 0.843373 0
0  0.700039 -1.292323 1.572891  -0.094585 -0.800285 0.592113  0.326693 0.791165 0
0  1.300039 -1.062323 1.902891  0.023223 -0.762436 0.646647  0.254980 0.803213 0
heart_bomb.bmp
0  1.300039 -1.062323 1.902891  0.023223 -0.762436 0.646647  0.254980 0.803213 0
0  0.700039 -1.292323 1.572891  -0.094585 -0.800285 0.592113  0.326693 0.791165 0
0  0.890039 -1.362323 1.302891  0.091987 -0.940515 0.327064  0.314741 0.755020 0
heart_bomb.bmp
0  -0.000548 0.574107 -3.029991  0.000013 0.731795 -0.681524  0.390438 0.281124 0
0  0.000667 -0.002886 -3.535077  -0.000003 0.000024 -1.000000  0.390438 0.204819 0
0  -0.300548 0.542592 -2.970772  -0.343756 0.635643 -0.691224  0.426295 0.277108 0
heart_bomb.bmp
0  -0.300548 0.542592 -2.970772  -0.343756 0.635643 -0.691224  0.426295 0.277108 0
0  0.000667 -0.002886 -3.535077  -0.000003 0.000024 -1.000000  0.390438 0.204819 0
0  -0.547057 0.433626 -2.877781  -0.475511 0.508294 -0.718002  0.458167 0.265060 0
heart_bomb.bmp
0  0.700665 1.298430 1.579057  -0.094608 0.800285 0.592110  0.326693 0.791165 0
0  0.000666 1.419486 1.197290  -0.000001 0.818416 0.574626  0.406375 0.779116 0
0  0.420665 0.897119 1.729058  -0.487113 0.342326 0.803451  0.346614 0.843373 0
heart_bomb.bmp
0  0.420665 0.897119 1.729058  -0.487113 0.342326 0.803451  0.346614 0.843373 0
0  0.000666 1.419486 1.197290  -0.000001 0.818416 0.574626  0.406375 0.779116 0
0  0.000040 0.967677 1.382889  0.011043 0.271425 0.962396  0.406375 0.835341 0
heart_bomb.bmp
0  -1.079959 -0.822325 -2.297110  -0.417180 -0.641992 -0.643278  0.505976 0.337349 0
0  -0.609959 -1.002325 -2.347110  -0.236288 -0.777713 -0.582521  0.458167 0.357430 0
0  -0.839959 -1.352325 -1.617110  -0.224083 -0.908107 -0.353735  0.478088 0.437751 0
heart_bomb.bmp
0  0.000041 -1.072326 -2.357109  -0.000000 -0.838815 -0.544416  0.394422 0.369478 0
0  0.000042 -0.572326 -3.027110  -0.000002 -0.731716 -0.681610  0.390438 0.281124 0
0  0.300042 -0.532326 -2.967110  0.343809 -0.635635 -0.691204  0.354582 0.281124 0
heart_bomb.bmp
0  2.177117 0.003465 2.185097  0.479699 -0.000032 0.877433  0.115538 0.839357 0
0  1.592603 0.006171 2.345996  0.158624 -0.000045 0.987339  0.167331 0.887550 0
0  1.376922 -0.555853 2.273123  -0.018001 -0.353193 0.935377  0.223108 0.851406 0
heart_bomb.bmp
0  -0.419335 0.897119 1.729058  0.467073 0.358500 0.808283  0.470120 0.839357 0
0  -0.699335 1.298431 1.579057  0.094594 0.800303 0.592088  0.482072 0.787149 0
0  -1.318555 1.056927 1.905988  -0.023386 0.762451 0.646623  0.553785 0.791165 0
heart_bomb.bmp
0  2.177117 0.003465 2.185097  0.479699 -0.000032 0.877433  0.115538 0.839357 0
0  2.666915 0.005317 1.801699  0.750536 0.000014 0.660830  0.071713 0.775100 0
0  2.277084 0.788136 1.741477  0.562183 0.612428 0.555772  0.163347 0.755020 0
end
