// Created by Crowbar 0.34.0.0

$ModelName "weapons/tfa_cso/w_m249ra.mdl"

$BodyGroup "studio"
{
	studio "w_y23s3buffm249"
}

$collisionmodel "w_y23s3buffm249.smd"
{
	$mass 9
}

$CDMaterials "models\weapons\tfa_cso\m249ra"

$attachment "0" "root" -0.25 -14.50 1.00 rotate -0 -90 0

$Sequence "idle" {
	"anims\idle.smd"
	fps 30
}