// Created by Crowbar 0.68

// Stored modelname (without quotes): "p_dualsword_skillfx1.mdl"
$modelname "effects/tfa_cso/dualsword_skillfx1.mdl"

$bodygroup "weapon"
{
	studio "skill_ref1_2"
}

$cdmaterials "models\weapons\tfa_cso\dual_sword\"

$sequence "idle_skill1" {
	"dualsword_skillfx1_anims\idle_skill1"
	fps 30
	snap
}
$sequence "idle_skill2" {
	"dualsword_skillfx1_anims\idle_skill2"
	fps 30
	snap
}
$sequence "idle_skill3" {
	"dualsword_skillfx1_anims\idle_skill3"
	fps 30
	snap
}
