version 1
nodes
  0 "Bone01" -1
  1 "Bone_Lefthand" 0
  2 "NEXON_CSO_infi_Root_L" 1
  3 "NEXON_CSO_infi_Dummy_L" 2
  4 "NEXON_CSO_infi_Slide_L" 3
  5 "NEXON_CSO_infi_Nori_L" 3
  6 "NEXON_CSO_infi_Triigger_L" 3
  7 "NEXON_CSO_infi_Magazine_L" 3
  8 "NEXON_CSO_infi_Bullet_L" 7
  9 "Bone05" 1
  10 "Bone06" 9
  11 "Bone07" 10
  12 "Bone21" 1
  13 "Bone22" 12
  14 "Bone23" 13
  15 "Bone17" 1
  16 "Bone18" 15
  17 "Bone19" 16
  18 "Bone13" 1
  19 "Bone14" 18
  20 "Bone15" 19
  21 "Bone09" 1
  22 "Bone10" 21
  23 "Bone11" 22
  24 "Bone_Se_Hand-L" 1
  25 "Bone_L_Upper" 0
  26 "Bone04" -1
  27 "Bone_Righthand" 26
  28 "Bone27" 27
  29 "Bone28" 28
  30 "Bone29" 29
  31 "Bone31" 27
  32 "Bone32" 31
  33 "Bone33" 32
  34 "Bone35" 27
  35 "Bone36" 34
  36 "Bone37" 35
  37 "Bone39" 27
  38 "Bone40" 37
  39 "Bone41" 38
  40 "Bone43" 27
  41 "Bone44" 40
  42 "Bone45" 41
  43 "Bone_Se_Hand-R" 27
  44 "Bone_R_Upper" 26
end
skeleton
  time 0
    0 7.113683 -10.208568 -14.689385 1.555483 -2.959262 -1.529497
    1 -0.071919 -8.498734 -0.104136 -0.113186 0.423787 -0.372384
    2 0.270743 -2.981032 0.317115 0.554701 1.379980 0.480550
    3 -0.000001 -1.808652 1.012938 0.000000 0.000000 0.000000
    4 -0.115836 1.063685 1.652800 0.000000 0.000000 0.000000
    5 0.000000 2.290612 1.335354 0.000000 0.000000 0.000000
    6 0.000000 0.956672 0.002903 0.000000 0.000000 0.000000
    7 -0.194965 1.732989 -0.758107 0.000000 0.000000 0.000000
    8 -0.000001 -0.273071 1.043217 0.000000 0.000000 0.000000
    9 0.583509 -1.197273 0.185379 -0.077883 -0.765986 -0.796215
    10 1.535925 0.010247 0.005009 -0.076524 0.315733 -1.052207
    11 1.100770 0.004527 -0.010675 -0.000003 0.000010 -0.670682
    12 0.957766 -2.746777 -0.090301 0.180504 -0.032999 0.150451
    13 -0.033419 -1.397129 -0.011256 -1.293119 -0.046740 -0.095039
    14 -0.022362 -0.957434 0.018782 -0.467088 0.000000 0.000000
    15 0.250028 -2.820664 -0.238397 -0.282644 0.057278 -0.106682
    16 -0.049759 -1.680546 0.100479 -2.012741 0.000000 -0.000002
    17 -0.034141 -1.148309 0.084778 -1.037448 0.000000 0.000000
    18 -0.488517 -2.755600 -0.228262 -0.195772 0.054591 -0.144142
    19 0.039889 -1.479791 0.029853 -2.042721 0.000000 0.000001
    20 0.028786 -1.075733 -0.023111 -0.841787 0.000000 0.000000
    21 -1.180679 -2.507216 -0.193861 0.008684 0.244081 -0.056771
    22 -0.024966 -1.123935 0.017594 -1.466568 0.000000 0.000001
    23 -0.020058 -0.890966 0.010091 -1.308722 0.000000 0.000000
    24 0.120152 -0.050267 -0.054488 0.287569 3.110905 1.561085
    25 1.304080 8.804363 -0.126173 1.605129 -1.493046 -0.161010
    26 -0.048652 -7.334933 -12.117388 -1.433200 -5.447522 -0.627023
    27 0.096946 -8.450419 -0.009364 0.111815 -0.268812 0.244946
    28 -0.587378 -1.261647 0.201457 0.105379 -0.619415 -2.838878
    29 1.522835 0.058680 0.016851 -0.008552 0.057547 0.424986
    30 1.117948 0.048425 -0.005765 -0.000015 -0.000006 0.429058
    31 -0.963867 -2.785143 -0.085346 0.230931 0.199968 -0.171434
    32 0.028478 -1.403069 0.006271 -1.008232 0.000000 0.000000
    33 0.021414 -0.957782 0.020047 -0.332263 0.000000 0.000000
    34 -0.249534 -2.846964 -0.174215 -0.001189 0.000966 -0.025450
    35 0.043234 -1.683941 0.096014 -2.021613 -0.002966 -0.000335
    36 0.031729 -1.160830 0.058836 -1.017645 0.000007 0.000007
    37 0.447951 -2.798983 -0.200442 -0.016224 0.053277 0.116304
    38 -0.032910 -1.480207 0.004936 -1.783744 0.000000 0.000002
    39 -0.027022 -1.076920 -0.020212 -0.898878 0.000000 0.000000
    40 1.164474 -2.543939 -0.170327 -0.365257 -0.001010 -0.002103
    41 0.024033 -1.129040 0.017806 -1.210733 -0.100239 0.187008
    42 0.014896 -0.883991 -0.019845 -0.909612 0.074161 0.017318
    43 -0.139399 -0.111701 0.014397 0.285534 -0.040597 1.576226
    44 -1.441116 8.792395 -0.163593 -1.643144 1.483711 0.062639
  time 1
    0 7.113683 -10.196849 -14.693292 1.555629 -2.963558 -1.529497
    1 -0.071919 -8.498734 -0.104136 -0.116697 0.426895 -0.381129
    2 0.270743 -2.981032 0.317115 0.554701 1.379980 0.480550
    3 -0.000001 -1.808652 1.012938 0.000000 0.000000 0.000000
    4 -0.115836 1.063685 1.652800 0.000000 0.000000 0.000000
    5 0.000000 2.290612 1.335354 0.000000 0.000000 0.000000
    6 0.000000 0.956672 0.002903 0.000000 0.000000 0.000000
    7 -0.194965 1.732989 -0.758107 0.000000 0.000000 0.000000
    8 -0.000001 -0.273071 1.043217 0.000000 0.000000 0.000000
    9 0.583509 -1.197273 0.185379 -0.077883 -0.765986 -0.796215
    10 1.535925 0.010247 0.005009 -0.076524 0.315733 -1.052207
    11 1.100770 0.004527 -0.010675 -0.000003 0.000010 -0.670682
    12 0.957766 -2.746777 -0.090301 0.180644 -0.032676 0.151014
    13 -0.033419 -1.397129 -0.011256 -1.300955 -0.047063 -0.094835
    14 -0.022362 -0.957434 0.018782 -0.456324 0.000000 0.000000
    15 0.250028 -2.820664 -0.238397 -0.282644 0.057278 -0.106682
    16 -0.049759 -1.680546 0.100479 -2.012741 0.000000 -0.000002
    17 -0.034141 -1.148309 0.084778 -1.037448 0.000000 0.000000
    18 -0.488517 -2.755600 -0.228262 -0.195772 0.054591 -0.144142
    19 0.039889 -1.479791 0.029853 -2.042721 0.000000 0.000001
    20 0.028786 -1.075733 -0.023111 -0.841787 0.000000 0.000000
    21 -1.180679 -2.507216 -0.193861 0.008684 0.244081 -0.056771
    22 -0.024966 -1.123935 0.017594 -1.466568 0.000000 0.000001
    23 -0.020058 -0.890966 0.010091 -1.308722 0.000000 0.000000
    24 0.120152 -0.050267 -0.054488 0.287569 3.110905 1.561085
    25 1.304080 8.804363 -0.126173 1.605129 -1.493046 -0.161010
    26 -0.048652 -7.323214 -12.121295 -1.437929 -5.450179 -0.627499
    27 0.096946 -8.450419 -0.009364 0.121543 -0.270299 0.246030
    28 -0.587378 -1.261647 0.201457 0.105722 -0.619364 -2.839450
    29 1.522835 0.058680 0.016851 -0.009300 0.057427 0.411814
    30 1.117948 0.048425 -0.005765 -0.000015 -0.000006 0.474008
    31 -0.963867 -2.785143 -0.085346 0.230931 0.199968 -0.171434
    32 0.028478 -1.403069 0.006271 -1.008232 0.000000 0.000000
    33 0.021414 -0.957782 0.020047 -0.332263 0.000000 0.000000
    34 -0.249534 -2.846964 -0.174215 -0.001189 0.000966 -0.025450
    35 0.043234 -1.683941 0.096014 -2.021613 -0.002966 -0.000335
    36 0.031729 -1.160830 0.058836 -1.017645 0.000007 0.000007
    37 0.447951 -2.798983 -0.200442 -0.016224 0.053277 0.116304
    38 -0.032910 -1.480207 0.004936 -1.783744 0.000000 0.000002
    39 -0.027022 -1.076920 -0.020212 -0.898878 0.000000 0.000000
    40 1.164474 -2.543939 -0.170327 -0.365257 -0.001010 -0.002103
    41 0.024033 -1.129040 0.017806 -1.210733 -0.100239 0.187008
    42 0.014896 -0.883991 -0.019845 -0.909612 0.074161 0.017318
    43 -0.139399 -0.111701 0.014397 0.285534 -0.040597 1.576226
    44 -1.441116 8.792395 -0.163593 -1.643144 1.483711 0.062639
  time 2
    0 7.113683 -10.173411 -14.708917 1.555848 -2.968522 -1.529497
    1 -0.071919 -8.498734 -0.104136 -0.120751 0.430407 -0.391117
    2 0.270743 -2.981032 0.317115 0.554701 1.379980 0.480550
    3 -0.000001 -1.808652 1.012938 0.000000 0.000000 0.000000
    4 -0.115836 1.063685 1.652800 0.000000 0.000000 0.000000
    5 0.000000 2.290612 1.335354 0.000000 0.000000 0.000000
    6 0.000000 0.956672 0.002903 0.000000 0.000000 0.000000
    7 -0.194965 1.732989 -0.758107 0.000000 0.000000 0.000000
    8 -0.000001 -0.273071 1.043217 0.000000 0.000000 0.000000
    9 0.583509 -1.197273 0.185379 -0.077883 -0.765986 -0.796215
    10 1.535925 0.010247 0.005009 -0.076524 0.315733 -1.052207
    11 1.100770 0.004527 -0.010675 -0.000003 0.000010 -0.670682
    12 0.957766 -2.746777 -0.090301 0.180878 -0.032136 0.151961
    13 -0.033419 -1.397129 -0.011256 -1.313949 -0.047591 -0.094499
    14 -0.022362 -0.957434 0.018782 -0.438395 0.000000 0.000000
    15 0.250028 -2.820664 -0.238397 -0.282644 0.057278 -0.106682
    16 -0.049759 -1.680546 0.100479 -2.012741 0.000000 -0.000002
    17 -0.034141 -1.148309 0.084778 -1.037448 0.000000 0.000000
    18 -0.488517 -2.755600 -0.228262 -0.195772 0.054591 -0.144142
    19 0.039889 -1.479791 0.029853 -2.042721 0.000000 0.000001
    20 0.028786 -1.075733 -0.023111 -0.841787 0.000000 0.000000
    21 -1.180679 -2.507216 -0.193861 0.008684 0.244081 -0.056771
    22 -0.024966 -1.123935 0.017594 -1.466568 0.000000 0.000001
    23 -0.020058 -0.890966 0.010091 -1.308722 0.000000 0.000000
    24 0.120152 -0.050267 -0.054488 0.287569 3.110905 1.561085
    25 1.304080 8.804363 -0.126173 1.605129 -1.493046 -0.161010
    26 -0.048652 -7.299776 -12.136920 -1.443226 -5.453102 -0.627976
    27 0.096946 -8.450419 -0.009364 0.132624 -0.271990 0.247256
    28 -0.587378 -1.261647 0.201457 0.106093 -0.619313 -2.840086
    29 1.522835 0.058680 0.016851 -0.010155 0.057295 0.397057
    30 1.117948 0.048425 -0.005765 -0.000015 0.000006 0.524308
    31 -0.963867 -2.785143 -0.085346 0.230931 0.199968 -0.171434
    32 0.028478 -1.403069 0.006271 -1.008232 0.000000 0.000000
    33 0.021414 -0.957782 0.020047 -0.332263 0.000000 0.000000
    34 -0.249534 -2.846964 -0.174215 -0.001189 0.000966 -0.025450
    35 0.043234 -1.683941 0.096014 -2.021613 -0.002966 -0.000335
    36 0.031729 -1.160830 0.058836 -1.017645 0.000007 0.000007
    37 0.447951 -2.798983 -0.200442 -0.016224 0.053277 0.116304
    38 -0.032910 -1.480207 0.004936 -1.783744 0.000000 0.000002
    39 -0.027022 -1.076920 -0.020212 -0.898878 0.000000 0.000000
    40 1.164474 -2.543939 -0.170327 -0.365257 -0.001010 -0.002103
    41 0.024033 -1.129040 0.017806 -1.210733 -0.100239 0.187008
    42 0.014896 -0.883991 -0.019845 -0.909612 0.074161 0.017318
    43 -0.139399 -0.111701 0.014397 0.285534 -0.040597 1.576226
    44 -1.441116 8.792395 -0.163593 -1.643144 1.483711 0.062639
  time 3
    0 7.113683 -10.146066 -14.724543 1.556067 -2.973200 -1.529497
    1 -0.071919 -8.498734 -0.104136 -0.124588 0.433692 -0.400533
    2 0.270743 -2.981032 0.317115 0.554701 1.379980 0.480550
    3 -0.000001 -1.808652 1.012938 0.000000 0.000000 0.000000
    4 -0.115836 1.063685 1.652800 0.000000 0.000000 0.000000
    5 0.000000 2.290612 1.335354 0.000000 0.000000 0.000000
    6 0.000000 0.956672 0.002903 0.000000 0.000000 0.000000
    7 -0.194965 1.732989 -0.758107 0.000000 0.000000 0.000000
    8 -0.000001 -0.273071 1.043217 0.000000 0.000000 0.000000
    9 0.583509 -1.197273 0.185379 -0.077883 -0.765974 -0.796215
    10 1.535925 0.010247 0.005009 -0.076524 0.315733 -1.052207
    11 1.100770 0.004527 -0.010675 -0.000003 0.000010 -0.670682
    12 0.957766 -2.746777 -0.090301 0.180925 -0.032028 0.152153
    13 -0.033419 -1.397129 -0.011256 -1.316547 -0.047687 -0.094428
    14 -0.022362 -0.957434 0.018782 -0.434828 0.000000 0.000000
    15 0.250028 -2.820664 -0.238397 -0.282644 0.057278 -0.106682
    16 -0.049759 -1.680546 0.100479 -2.012741 0.000000 -0.000002
    17 -0.034141 -1.148309 0.084778 -1.037448 0.000000 0.000000
    18 -0.488517 -2.755600 -0.228262 -0.195772 0.054591 -0.144142
    19 0.039889 -1.479791 0.029853 -2.042721 0.000000 0.000001
    20 0.028786 -1.075733 -0.023111 -0.841787 0.000000 0.000000
    21 -1.180679 -2.507216 -0.193861 0.008684 0.244081 -0.056771
    22 -0.024966 -1.123935 0.017594 -1.466568 0.000000 0.000001
    23 -0.020058 -0.890966 0.010091 -1.308722 0.000000 0.000000
    24 0.120152 -0.050267 -0.054488 0.287569 3.110905 1.561085
    25 1.304080 8.804363 -0.126173 1.605129 -1.493046 -0.161010
    26 -0.048652 -7.272431 -12.156452 -1.448271 -5.455936 -0.628452
    27 0.096946 -8.450419 -0.009364 0.143029 -0.273590 0.248369
    28 -0.587378 -1.261647 0.201457 0.106493 -0.619261 -2.840772
    29 1.522835 0.058680 0.016851 -0.010946 0.057139 0.383110
    30 1.117948 0.048425 -0.005765 -0.000015 0.000006 0.571917
    31 -0.963867 -2.785143 -0.085346 0.230931 0.199968 -0.171434
    32 0.028478 -1.403069 0.006271 -1.008232 0.000000 0.000000
    33 0.021414 -0.957782 0.020047 -0.332263 0.000000 0.000000
    34 -0.249534 -2.846964 -0.174215 -0.001189 0.000966 -0.025450
    35 0.043234 -1.683941 0.096014 -2.021613 -0.002966 -0.000335
    36 0.031729 -1.160830 0.058836 -1.017645 0.000007 0.000007
    37 0.447951 -2.798983 -0.200442 -0.016224 0.053277 0.116304
    38 -0.032910 -1.480207 0.004936 -1.783744 0.000000 0.000002
    39 -0.027022 -1.076920 -0.020212 -0.898878 0.000000 0.000000
    40 1.164474 -2.543939 -0.170327 -0.365257 -0.001010 -0.002103
    41 0.024033 -1.129040 0.017806 -1.210733 -0.100239 0.187008
    42 0.014896 -0.883991 -0.019845 -0.909612 0.074161 0.017318
    43 -0.139399 -0.111701 0.014397 0.285534 -0.040597 1.576226
    44 -1.441116 8.792395 -0.163593 -1.643144 1.483711 0.062639
  time 4
    0 7.113683 -10.118722 -14.740168 1.556214 -2.976636 -1.529497
    1 -0.071919 -8.498734 -0.104136 -0.127462 0.436093 -0.407539
    2 0.270743 -2.981032 0.317115 0.554701 1.379980 0.480550
    3 -0.000001 -1.808652 1.012938 0.000000 0.000000 0.000000
    4 -0.115836 1.063685 1.652800 0.000000 0.000000 0.000000
    5 0.000000 2.290612 1.335354 0.000000 0.000000 0.000000
    6 0.000000 0.956672 0.002903 0.000000 0.000000 0.000000
    7 -0.194965 1.732989 -0.758107 0.000000 0.000000 0.000000
    8 -0.000001 -0.273071 1.043217 0.000000 0.000000 0.000000
    9 0.583509 -1.197273 0.185379 -0.077883 -0.765974 -0.796215
    10 1.535925 0.010247 0.005009 -0.076524 0.315733 -1.052207
    11 1.100770 0.004527 -0.010675 -0.000003 0.000010 -0.670682
    12 0.957766 -2.746777 -0.090301 0.180504 -0.032999 0.150451
    13 -0.033419 -1.397129 -0.011256 -1.293119 -0.046740 -0.095039
    14 -0.022362 -0.957434 0.018782 -0.467088 0.000000 0.000000
    15 0.250028 -2.820664 -0.238397 -0.282644 0.057278 -0.106682
    16 -0.049759 -1.680546 0.100479 -2.012741 0.000000 -0.000002
    17 -0.034141 -1.148309 0.084778 -1.037448 0.000000 0.000000
    18 -0.488517 -2.755600 -0.228262 -0.195772 0.054591 -0.144142
    19 0.039889 -1.479791 0.029853 -2.042721 0.000000 0.000001
    20 0.028786 -1.075733 -0.023111 -0.841787 0.000000 0.000000
    21 -1.180679 -2.507216 -0.193861 0.008684 0.244081 -0.056771
    22 -0.024966 -1.123935 0.017594 -1.466568 0.000000 0.000001
    23 -0.020058 -0.890966 0.010091 -1.308722 0.000000 0.000000
    24 0.120152 -0.050267 -0.054488 0.287569 3.110905 1.561085
    25 1.304080 8.804363 -0.126173 1.605129 -1.493046 -0.161010
    26 -0.048652 -7.245086 -12.168171 -1.451929 -5.457973 -0.628738
    27 0.096946 -8.450419 -0.009364 0.150754 -0.274784 0.249197
    28 -0.587378 -1.261647 0.201457 0.106907 -0.619184 -2.841490
    29 1.522835 0.058680 0.016851 -0.011566 0.057019 0.372262
    30 1.117948 0.048425 -0.005765 -0.000015 0.000006 0.608857
    31 -0.963867 -2.785143 -0.085346 0.230931 0.199968 -0.171434
    32 0.028478 -1.403069 0.006271 -1.008232 0.000000 0.000000
    33 0.021414 -0.957782 0.020047 -0.332263 0.000000 0.000000
    34 -0.249534 -2.846964 -0.174215 -0.001189 0.000966 -0.025450
    35 0.043234 -1.683941 0.096014 -2.021613 -0.002966 -0.000335
    36 0.031729 -1.160830 0.058836 -1.017645 0.000007 0.000007
    37 0.447951 -2.798983 -0.200442 -0.016224 0.053277 0.116304
    38 -0.032910 -1.480207 0.004936 -1.783744 0.000000 0.000002
    39 -0.027022 -1.076920 -0.020212 -0.898878 0.000000 0.000000
    40 1.164474 -2.543939 -0.170327 -0.365257 -0.001010 -0.002103
    41 0.024033 -1.129040 0.017806 -1.210733 -0.100239 0.187008
    42 0.014896 -0.883991 -0.019845 -0.909612 0.074161 0.017318
    43 -0.139399 -0.111701 0.014397 0.285534 -0.040597 1.576226
    44 -1.441116 8.792395 -0.163593 -1.643144 1.483711 0.062639
  time 5
    0 7.113683 -10.110909 -14.747981 1.556214 -2.977973 -1.529497
    1 -0.071919 -8.498734 -0.104136 -0.128588 0.437028 -0.410272
    2 0.270743 -2.981032 0.317115 0.554701 1.379980 0.480550
    3 -0.000001 -1.808652 1.012938 0.000000 0.000000 0.000000
    4 -0.115836 1.063685 1.652800 0.000000 0.000000 0.000000
    5 0.000000 2.290612 1.335354 0.000000 0.000000 0.000000
    6 0.000000 0.956672 0.002903 0.000000 0.000000 0.000000
    7 -0.194965 1.732989 -0.758107 0.000000 0.000000 0.000000
    8 -0.000001 -0.273071 1.043217 0.000000 0.000000 0.000000
    9 0.583509 -1.197273 0.185379 -0.077883 -0.765974 -0.796215
    10 1.535925 0.010247 0.005009 -0.076524 0.315733 -1.052207
    11 1.100770 0.004527 -0.010675 -0.000003 0.000010 -0.670682
    12 0.957766 -2.746777 -0.090301 0.179459 -0.035156 0.146664
    13 -0.033419 -1.397129 -0.011256 -1.216336 -0.043720 -0.096813
    14 -0.022362 -0.957434 0.018782 -0.567211 0.000000 0.000000
    15 0.250028 -2.820664 -0.238397 -0.282644 0.057278 -0.106682
    16 -0.049759 -1.680546 0.100479 -2.012741 0.000000 -0.000002
    17 -0.034141 -1.148309 0.084778 -1.037448 0.000000 0.000000
    18 -0.488517 -2.755600 -0.228262 -0.195772 0.054591 -0.144142
    19 0.039889 -1.479791 0.029853 -2.042721 0.000000 0.000001
    20 0.028786 -1.075733 -0.023111 -0.841787 0.000000 0.000000
    21 -1.180679 -2.507216 -0.193861 0.008684 0.244081 -0.056771
    22 -0.024966 -1.123935 0.017594 -1.466568 0.000000 0.000001
    23 -0.020058 -0.890966 0.010091 -1.308722 0.000000 0.000000
    24 0.120152 -0.050267 -0.054488 0.287569 3.110905 1.561085
    25 1.304080 8.804363 -0.126173 1.605129 -1.493046 -0.161010
    26 -0.048652 -7.237274 -12.175984 -1.453379 -5.458859 -0.628833
    27 0.096946 -8.450419 -0.009364 0.153772 -0.275257 0.249539
    28 -0.587378 -1.261647 0.201457 0.107321 -0.619133 -2.842209
    29 1.522835 0.058680 0.016851 -0.011866 0.056959 0.366909
    30 1.117948 0.048425 -0.005765 -0.000015 0.000006 0.627119
    31 -0.963867 -2.785143 -0.085346 0.230931 0.199968 -0.171434
    32 0.028478 -1.403069 0.006271 -1.008232 0.000000 0.000000
    33 0.021414 -0.957782 0.020047 -0.332263 0.000000 0.000000
    34 -0.249534 -2.846964 -0.174215 -0.001189 0.000966 -0.025450
    35 0.043234 -1.683941 0.096014 -2.021613 -0.002966 -0.000335
    36 0.031729 -1.160830 0.058836 -1.017645 0.000007 0.000007
    37 0.447951 -2.798983 -0.200442 -0.016224 0.053277 0.116304
    38 -0.032910 -1.480207 0.004936 -1.783744 0.000000 0.000002
    39 -0.027022 -1.076920 -0.020212 -0.898878 0.000000 0.000000
    40 1.164474 -2.543939 -0.170327 -0.365257 -0.001010 -0.002103
    41 0.024033 -1.129040 0.017806 -1.210733 -0.100239 0.187008
    42 0.014896 -0.883991 -0.019845 -0.909612 0.074161 0.017318
    43 -0.139399 -0.111701 0.014397 0.285534 -0.040597 1.576226
    44 -1.441116 8.792395 -0.163593 -1.643144 1.483711 0.062639
  time 6
    0 7.113683 -10.114815 -14.744074 1.556214 -2.977209 -1.529497
    1 -0.071919 -8.498734 -0.104136 -0.128059 0.436724 -0.408956
    2 0.270743 -2.981032 0.317115 0.554701 1.379980 0.480550
    3 -0.000001 -1.808652 1.012938 0.000000 0.000000 0.000000
    4 -0.115836 1.063685 1.652800 0.000000 0.000000 0.000000
    5 0.000000 2.290612 1.335354 0.000000 0.000000 0.000000
    6 0.000000 0.956672 0.002903 0.000000 0.000000 0.000000
    7 -0.194965 1.732989 -0.758107 0.000000 0.000000 0.000000
    8 -0.000001 -0.273071 1.043217 0.000000 0.000000 0.000000
    9 0.583509 -1.197273 0.185379 -0.077883 -0.765986 -0.796215
    10 1.535925 0.010247 0.005009 -0.076524 0.315733 -1.052207
    11 1.100770 0.004527 -0.010675 -0.000003 0.000010 -0.670682
    12 0.957766 -2.746777 -0.090301 0.178039 -0.037973 0.141702
    13 -0.033419 -1.397129 -0.011256 -1.102523 -0.038914 -0.099030
    14 -0.022362 -0.957434 0.018782 -0.714974 0.000000 0.000000
    15 0.250028 -2.820664 -0.238397 -0.282644 0.057278 -0.106682
    16 -0.049759 -1.680546 0.100479 -2.012741 0.000000 -0.000002
    17 -0.034141 -1.148309 0.084778 -1.037448 0.000000 0.000000
    18 -0.488517 -2.755600 -0.228262 -0.195772 0.054591 -0.144142
    19 0.039889 -1.479791 0.029853 -2.042721 0.000000 0.000001
    20 0.028786 -1.075733 -0.023111 -0.841787 0.000000 0.000000
    21 -1.180679 -2.507216 -0.193861 0.008684 0.244081 -0.056771
    22 -0.024966 -1.123935 0.017594 -1.466568 0.000000 0.000001
    23 -0.020058 -0.890966 0.010091 -1.308722 0.000000 0.000000
    24 0.120152 -0.050267 -0.054488 0.287569 3.110905 1.561085
    25 1.304080 8.804363 -0.126173 1.605129 -1.493046 -0.161010
    26 -0.048652 -7.241180 -12.172077 -1.452623 -5.458593 -0.628833
    27 0.096946 -8.450419 -0.009364 0.152393 -0.274987 0.249425
    28 -0.587378 -1.261647 0.201457 0.107735 -0.619056 -2.842911
    29 1.522835 0.058680 0.016851 -0.011887 0.056959 0.366663
    30 1.117948 0.048425 -0.005765 -0.000015 0.000006 0.628080
    31 -0.963867 -2.785143 -0.085346 0.230931 0.199968 -0.171434
    32 0.028478 -1.403069 0.006271 -1.008232 0.000000 0.000000
    33 0.021414 -0.957782 0.020047 -0.332263 0.000000 0.000000
    34 -0.249534 -2.846964 -0.174215 -0.001189 0.000966 -0.025450
    35 0.043234 -1.683941 0.096014 -2.021613 -0.002966 -0.000335
    36 0.031729 -1.160830 0.058836 -1.017645 0.000007 0.000007
    37 0.447951 -2.798983 -0.200442 -0.016224 0.053277 0.116304
    38 -0.032910 -1.480207 0.004936 -1.783744 0.000000 0.000002
    39 -0.027022 -1.076920 -0.020212 -0.898878 0.000000 0.000000
    40 1.164474 -2.543939 -0.170327 -0.365257 -0.001010 -0.002103
    41 0.024033 -1.129040 0.017806 -1.210733 -0.100239 0.187008
    42 0.014896 -0.883991 -0.019845 -0.909612 0.074161 0.017318
    43 -0.139399 -0.111701 0.014397 0.285534 -0.040597 1.576226
    44 -1.441116 8.792395 -0.163593 -1.643144 1.483711 0.062639
  time 7
    0 7.113683 -10.126535 -14.736262 1.556141 -2.975300 -1.529497
    1 -0.071919 -8.498734 -0.104136 -0.126595 0.435865 -0.405403
    2 0.270743 -2.981032 0.317115 0.554701 1.379980 0.480550
    3 -0.000001 -1.808652 1.012938 0.000000 0.000000 0.000000
    4 -0.115836 1.063685 1.652800 0.000000 0.000000 0.000000
    5 0.000000 2.290612 1.335354 0.000000 0.000000 0.000000
    6 0.000000 0.956672 0.002903 0.000000 0.000000 0.000000
    7 -0.194965 1.732989 -0.758107 0.000000 0.000000 0.000000
    8 -0.000001 -0.273071 1.043217 0.000000 0.000000 0.000000
    9 0.583509 -1.197273 0.185379 -0.077883 -0.765974 -0.796215
    10 1.535925 0.010247 0.005009 -0.076524 0.315733 -1.052207
    11 1.100770 0.004527 -0.010675 -0.000003 0.000010 -0.670682
    12 0.957766 -2.746777 -0.090301 0.176433 -0.041185 0.136093
    13 -0.033419 -1.397129 -0.011256 -1.001621 -0.033952 -0.100672
    14 -0.022362 -0.957434 0.018782 -0.853534 0.000000 0.000000
    15 0.250028 -2.820664 -0.238397 -0.282644 0.057278 -0.106682
    16 -0.049759 -1.680546 0.100479 -2.012741 0.000000 -0.000002
    17 -0.034141 -1.148309 0.084778 -1.037448 0.000000 0.000000
    18 -0.488517 -2.755600 -0.228262 -0.195772 0.054591 -0.144142
    19 0.039889 -1.479791 0.029853 -2.042721 0.000000 0.000001
    20 0.028786 -1.075733 -0.023111 -0.841787 0.000000 0.000000
    21 -1.180679 -2.507216 -0.193861 0.008684 0.244081 -0.056771
    22 -0.024966 -1.123935 0.017594 -1.466568 0.000000 0.000001
    23 -0.020058 -0.890966 0.010091 -1.308722 0.000000 0.000000
    24 0.120152 -0.050267 -0.054488 0.287569 3.110905 1.561085
    25 1.304080 8.804363 -0.126173 1.605129 -1.493046 -0.161010
    26 -0.048652 -7.252899 -12.164265 -1.450668 -5.457619 -0.628643
    27 0.096946 -8.450419 -0.009364 0.148673 -0.274221 0.249168
    28 -0.587378 -1.261647 0.201457 0.108120 -0.619004 -2.843596
    29 1.522835 0.058680 0.016851 -0.011759 0.056983 0.369022
    30 1.117948 0.048425 -0.005765 -0.000015 0.000006 0.619975
    31 -0.963867 -2.785143 -0.085346 0.230931 0.199968 -0.171434
    32 0.028478 -1.403069 0.006271 -1.008232 0.000000 0.000000
    33 0.021414 -0.957782 0.020047 -0.332263 0.000000 0.000000
    34 -0.249534 -2.846964 -0.174215 -0.001189 0.000966 -0.025450
    35 0.043234 -1.683941 0.096014 -2.021613 -0.002966 -0.000335
    36 0.031729 -1.160830 0.058836 -1.017645 0.000007 0.000007
    37 0.447951 -2.798983 -0.200442 -0.016224 0.053277 0.116304
    38 -0.032910 -1.480207 0.004936 -1.783744 0.000000 0.000002
    39 -0.027022 -1.076920 -0.020212 -0.898878 0.000000 0.000000
    40 1.164474 -2.543939 -0.170327 -0.365257 -0.001010 -0.002103
    41 0.024033 -1.129040 0.017806 -1.210733 -0.100239 0.187008
    42 0.014896 -0.883991 -0.019845 -0.909612 0.074161 0.017318
    43 -0.139399 -0.111701 0.014397 0.285534 -0.040597 1.576226
    44 -1.441116 8.792395 -0.163593 -1.643144 1.483711 0.062639
  time 8
    0 7.113683 -10.142160 -14.728449 1.555994 -2.972436 -1.529497
    1 -0.071919 -8.498734 -0.104136 -0.124493 0.434526 -0.400260
    2 0.270743 -2.981032 0.317115 0.554701 1.379980 0.480550
    3 -0.000001 -1.808652 1.012938 0.000000 0.000000 0.000000
    4 -0.115836 1.063685 1.652800 0.000000 0.000000 0.000000
    5 0.000000 2.290612 1.335354 0.000000 0.000000 0.000000
    6 0.000000 0.956672 0.002903 0.000000 0.000000 0.000000
    7 -0.194965 1.732989 -0.758107 0.000000 0.000000 0.000000
    8 -0.000001 -0.273071 1.043217 0.000000 0.000000 0.000000
    9 0.583509 -1.197273 0.185379 -0.077883 -0.765986 -0.796215
    10 1.535925 0.010247 0.005009 -0.076524 0.315733 -1.052207
    11 1.100770 0.004527 -0.010675 -0.000003 0.000010 -0.670682
    12 0.957766 -2.746777 -0.090301 0.174873 -0.044492 0.130317
    13 -0.033419 -1.397129 -0.011256 -0.921550 -0.028943 -0.101834
    14 -0.022362 -0.957434 0.018782 -0.926079 0.000000 0.000000
    15 0.250028 -2.820664 -0.238397 -0.282644 0.057278 -0.106682
    16 -0.049759 -1.680546 0.100479 -2.012741 0.000000 -0.000002
    17 -0.034141 -1.148309 0.084778 -1.037448 0.000000 0.000000
    18 -0.488517 -2.755600 -0.228262 -0.195772 0.054591 -0.144142
    19 0.039889 -1.479791 0.029853 -2.042721 0.000000 0.000001
    20 0.028786 -1.075733 -0.023111 -0.841787 0.000000 0.000000
    21 -1.180679 -2.507216 -0.193861 0.008684 0.244081 -0.056771
    22 -0.024966 -1.123935 0.017594 -1.466568 0.000000 0.000001
    23 -0.020058 -0.890966 0.010091 -1.308722 0.000000 0.000000
    24 0.120152 -0.050267 -0.054488 0.287569 3.110905 1.561085
    25 1.304080 8.804363 -0.126173 1.605129 -1.493046 -0.161010
    26 -0.044746 -7.268525 -12.152546 -1.447767 -5.456202 -0.628452
    27 0.096946 -8.450419 -0.009364 0.143237 -0.273161 0.248712
    28 -0.587378 -1.261647 0.201457 0.108492 -0.618953 -2.844217
    29 1.522835 0.058680 0.016851 -0.011502 0.057031 0.373354
    30 1.117948 0.048425 -0.005765 -0.000015 0.000006 0.605141
    31 -0.963867 -2.785143 -0.085346 0.230931 0.199968 -0.171434
    32 0.028478 -1.403069 0.006271 -1.008232 0.000000 0.000000
    33 0.021414 -0.957782 0.020047 -0.332263 0.000000 0.000000
    34 -0.249534 -2.846964 -0.174215 -0.001189 0.000966 -0.025450
    35 0.043234 -1.683941 0.096014 -2.021613 -0.002966 -0.000335
    36 0.031729 -1.160830 0.058836 -1.017645 0.000007 0.000007
    37 0.447951 -2.798983 -0.200442 -0.016224 0.053277 0.116304
    38 -0.032910 -1.480207 0.004936 -1.783744 0.000000 0.000002
    39 -0.027022 -1.076920 -0.020212 -0.898878 0.000000 0.000000
    40 1.164474 -2.543939 -0.170327 -0.365257 -0.001010 -0.002103
    41 0.024033 -1.129040 0.017806 -1.210733 -0.100239 0.187008
    42 0.014896 -0.883991 -0.019845 -0.909612 0.074161 0.017318
    43 -0.139399 -0.111701 0.014397 0.285534 -0.040597 1.576226
    44 -1.441116 8.792395 -0.163593 -1.643144 1.483711 0.062639
  time 9
    0 7.113683 -10.157786 -14.716730 1.555848 -2.969190 -1.529497
    1 -0.071919 -8.498734 -0.104136 -0.121998 0.432783 -0.394148
    2 0.270743 -2.981032 0.317115 0.554701 1.379980 0.480550
    3 -0.000001 -1.808652 1.012938 0.000000 0.000000 0.000000
    4 -0.115836 1.063685 1.652800 0.000000 0.000000 0.000000
    5 0.000000 2.290612 1.335354 0.000000 0.000000 0.000000
    6 0.000000 0.843387 0.002903 0.000000 0.000000 0.000000
    7 -0.194965 1.732989 -0.758107 0.000000 0.000000 0.000000
    8 -0.000001 -0.273071 1.043217 0.000000 0.000000 0.000000
    9 0.583509 -1.197273 0.185379 -0.077883 -0.765986 -0.796215
    10 1.535925 0.010247 0.005009 -0.076524 0.315733 -1.052207
    11 1.100770 0.004527 -0.010675 -0.000003 0.000010 -0.670682
    12 0.957766 -2.746777 -0.090301 0.173548 -0.047608 0.124900
    13 -0.033419 -1.397129 -0.011256 -0.844848 -0.023526 -0.102685
    14 -0.022362 -0.957434 0.018782 -0.893501 0.000000 0.000000
    15 0.250028 -2.820664 -0.238397 -0.282644 0.057278 -0.106682
    16 -0.049759 -1.680546 0.100479 -2.012741 0.000000 -0.000002
    17 -0.034141 -1.148309 0.084778 -1.037448 0.000000 0.000000
    18 -0.488517 -2.755600 -0.228262 -0.195772 0.054591 -0.144142
    19 0.039889 -1.479791 0.029853 -2.042721 0.000000 0.000001
    20 0.028786 -1.075733 -0.023111 -0.841787 0.000000 0.000000
    21 -1.180679 -2.507216 -0.193861 0.008684 0.244081 -0.056771
    22 -0.024966 -1.123935 0.017594 -1.466568 0.000000 0.000001
    23 -0.020058 -0.890966 0.010091 -1.308722 0.000000 0.000000
    24 0.120152 -0.050267 -0.054488 0.287569 3.110905 1.561085
    25 1.304080 8.804363 -0.126173 1.605129 -1.493046 -0.161010
    26 -0.040839 -7.284150 -12.140827 -1.444425 -5.454430 -0.628262
    27 0.096946 -8.450419 -0.009364 0.136682 -0.271967 0.248141
    28 -0.587378 -1.261647 0.201457 0.108806 -0.618901 -2.844772
    29 1.522835 0.058680 0.016851 -0.011182 0.057091 0.379025
    30 1.117948 0.048425 -0.005765 -0.000015 0.000006 0.585854
    31 -0.963867 -2.785143 -0.085346 0.230931 0.199968 -0.171434
    32 0.028478 -1.403069 0.006271 -1.008232 0.000000 0.000000
    33 0.021414 -0.957782 0.020047 -0.332263 0.000000 0.000000
    34 -0.249534 -2.846964 -0.174215 -0.001189 0.000966 -0.025450
    35 0.043234 -1.683941 0.096014 -2.021613 -0.002966 -0.000335
    36 0.031729 -1.160830 0.058836 -1.017645 0.000007 0.000007
    37 0.447951 -2.798983 -0.200442 -0.016224 0.053277 0.116304
    38 -0.032910 -1.480207 0.004936 -1.783744 0.000000 0.000002
    39 -0.027022 -1.076920 -0.020212 -0.898878 0.000000 0.000000
    40 1.164474 -2.543939 -0.170327 -0.365257 -0.001010 -0.002103
    41 0.024033 -1.129040 0.017806 -1.210733 -0.100239 0.187008
    42 0.014896 -0.883991 -0.019845 -0.909612 0.074161 0.017318
    43 -0.139399 -0.111701 0.014397 0.285534 -0.040597 1.576226
    44 -1.441116 8.792395 -0.163593 -1.643144 1.483711 0.062639
  time 10
    0 7.113683 -10.177317 -14.705011 1.555775 -2.965849 -1.529497
    1 -0.071919 -8.498734 -0.104136 -0.119368 0.430761 -0.387688
    2 0.270743 -2.981032 0.317115 0.554701 1.379980 0.480550
    3 -0.000001 -1.808652 1.012938 0.000000 0.000000 0.000000
    4 -0.115836 1.063685 1.652800 0.000000 0.000000 0.000000
    5 0.000000 2.290612 1.335354 0.000000 0.000000 0.000000
    6 0.000000 0.706664 0.002903 0.000000 0.000000 0.000000
    7 -0.194965 1.732989 -0.758107 0.000000 0.000000 0.000000
    8 -0.000001 -0.273071 1.043217 0.000000 0.000000 0.000000
    9 0.583509 -1.197273 0.185379 -0.077883 -0.765986 -0.796215
    10 1.535925 0.010247 0.005009 -0.076524 0.315733 -1.052207
    11 1.100770 0.004527 -0.010675 -0.000003 0.000010 -0.670682
    12 0.957766 -2.746777 -0.090301 0.172674 -0.050245 0.120334
    13 -0.033419 -1.397129 -0.011256 -0.783089 -0.018864 -0.103104
    14 -0.022362 -0.957434 0.018782 -0.794079 0.000000 0.000000
    15 0.250028 -2.820664 -0.238397 -0.282644 0.057278 -0.106682
    16 -0.049759 -1.680546 0.100479 -2.012741 0.000000 -0.000002
    17 -0.034141 -1.148309 0.084778 -1.037448 0.000000 0.000000
    18 -0.488517 -2.755600 -0.228262 -0.195772 0.054591 -0.144142
    19 0.039889 -1.479791 0.029853 -2.042721 0.000000 0.000001
    20 0.028786 -1.075733 -0.023111 -0.841787 0.000000 0.000000
    21 -1.180679 -2.507216 -0.193861 0.008684 0.244081 -0.056771
    22 -0.024966 -1.123935 0.017594 -1.466568 0.000000 0.000001
    23 -0.020058 -0.890966 0.010091 -1.308722 0.000000 0.000000
    24 0.120152 -0.050267 -0.054488 0.287569 3.110905 1.561085
    25 1.304080 8.804363 -0.126173 1.605129 -1.493046 -0.161010
    26 -0.036933 -7.307588 -12.129107 -1.440893 -5.452659 -0.627976
    27 0.096946 -8.450419 -0.009364 0.129659 -0.270773 0.247456
    28 -0.587378 -1.261647 0.201457 0.109077 -0.618850 -2.845229
    29 1.522835 0.058680 0.016851 -0.010818 0.057163 0.385294
    30 1.117948 0.048425 -0.005765 -0.000015 0.000006 0.564420
    31 -0.963867 -2.785143 -0.085346 0.230931 0.199968 -0.171434
    32 0.028478 -1.403069 0.006271 -1.008232 0.000000 0.000000
    33 0.021414 -0.957782 0.020047 -0.332263 0.000000 0.000000
    34 -0.249534 -2.846964 -0.174215 -0.001189 0.000966 -0.025450
    35 0.043234 -1.683941 0.096014 -2.021613 -0.002966 -0.000335
    36 0.031729 -1.160830 0.058836 -1.017645 0.000007 0.000007
    37 0.447951 -2.798983 -0.200442 -0.016224 0.053277 0.116304
    38 -0.032910 -1.480207 0.004936 -1.783744 0.000000 0.000002
    39 -0.027022 -1.076920 -0.020212 -0.898878 0.000000 0.000000
    40 1.164474 -2.543939 -0.170327 -0.365257 -0.001010 -0.002103
    41 0.024033 -1.129040 0.017806 -1.210733 -0.100239 0.187008
    42 0.014896 -0.883991 -0.019845 -0.909612 0.074161 0.017318
    43 -0.139399 -0.111701 0.014397 0.285534 -0.040597 1.576226
    44 -1.441116 8.792395 -0.163593 -1.643144 1.483711 0.062639
  time 11
    0 7.113683 -10.192943 -14.697198 1.555629 -2.962889 -1.529497
    1 -0.071919 -8.498734 -0.104136 -0.116860 0.428512 -0.381502
    2 0.270743 -2.981032 0.317115 0.554701 1.379980 0.480550
    3 -0.000001 -1.808652 1.012938 0.000000 0.000000 0.000000
    4 -0.115836 1.063685 1.652800 0.000000 0.000000 0.000000
    5 0.000000 2.290612 1.335354 0.000000 0.000000 0.000000
    6 0.000000 0.683226 0.002903 0.000000 0.000000 0.000000
    7 -0.194965 1.732989 -0.758107 0.000000 0.000000 0.000000
    8 -0.000001 -0.273071 1.043217 0.000000 0.000000 0.000000
    9 0.583509 -1.197273 0.185379 -0.077883 -0.765974 -0.796215
    10 1.535925 0.010247 0.005009 -0.076524 0.315733 -1.052207
    11 1.100770 0.004527 -0.010675 -0.000003 0.000010 -0.670682
    12 0.957766 -2.746777 -0.090301 0.172440 -0.052115 0.117110
    13 -0.033419 -1.397129 -0.011256 -0.747885 -0.016119 -0.103224
    14 -0.022362 -0.957434 0.018782 -0.687109 0.000000 0.000000
    15 0.250028 -2.820664 -0.238397 -0.282644 0.057278 -0.106682
    16 -0.049759 -1.680546 0.100479 -2.012741 0.000000 -0.000002
    17 -0.034141 -1.148309 0.084778 -1.037448 0.000000 0.000000
    18 -0.488517 -2.755600 -0.228262 -0.195772 0.054591 -0.144142
    19 0.039889 -1.479791 0.029853 -2.042721 0.000000 0.000001
    20 0.028786 -1.075733 -0.023111 -0.841787 0.000000 0.000000
    21 -1.180679 -2.507216 -0.193861 0.008684 0.244081 -0.056771
    22 -0.024966 -1.123935 0.017594 -1.466568 0.000000 0.000001
    23 -0.020058 -0.890966 0.010091 -1.308722 0.000000 0.000000
    24 0.120152 -0.050267 -0.054488 0.287569 3.110905 1.561085
    25 1.304080 8.804363 -0.126173 1.605129 -1.493046 -0.161010
    26 -0.033026 -7.323214 -12.117388 -1.437614 -5.450976 -0.627690
    27 0.096946 -8.450419 -0.009364 0.122766 -0.269759 0.246657
    28 -0.587378 -1.261647 0.201457 0.109277 -0.618824 -2.845588
    29 1.522835 0.058680 0.016851 -0.010476 0.057235 0.391527
    30 1.117948 0.048425 -0.005765 -0.000015 0.000006 0.543114
    31 -0.963867 -2.785143 -0.085346 0.230931 0.199968 -0.171434
    32 0.028478 -1.403069 0.006271 -1.008232 0.000000 0.000000
    33 0.021414 -0.957782 0.020047 -0.332263 0.000000 0.000000
    34 -0.249534 -2.846964 -0.174215 -0.001189 0.000966 -0.025450
    35 0.043234 -1.683941 0.096014 -2.021613 -0.002966 -0.000335
    36 0.031729 -1.160830 0.058836 -1.017645 0.000007 0.000007
    37 0.447951 -2.798983 -0.200442 -0.016224 0.053277 0.116304
    38 -0.032910 -1.480207 0.004936 -1.783744 0.000000 0.000002
    39 -0.027022 -1.076920 -0.020212 -0.898878 0.000000 0.000000
    40 1.164474 -2.543939 -0.170327 -0.365257 -0.001010 -0.002103
    41 0.024033 -1.129040 0.017806 -1.210733 -0.100239 0.187008
    42 0.014896 -0.883991 -0.019845 -0.909612 0.074161 0.017318
    43 -0.139399 -0.111701 0.014397 0.285534 -0.040597 1.576226
    44 -1.441116 8.792395 -0.163593 -1.643144 1.483711 0.062639
  time 12
    0 7.113683 -10.204662 -14.689385 1.555483 -2.960503 -1.529497
    1 -0.071919 -8.498734 -0.104136 -0.114718 0.426162 -0.376185
    2 0.270743 -2.981032 0.317115 0.554701 1.379980 0.480550
    3 -0.000001 -1.808652 1.012938 0.000000 0.000000 0.000000
    4 -0.115836 1.063685 1.652800 0.000000 0.000000 0.000000
    5 0.000000 2.290612 1.335354 0.000000 0.000000 0.000000
    6 0.000000 0.679319 0.002903 0.000000 0.000000 0.000000
    7 -0.194965 1.732989 -0.758107 0.000000 0.000000 0.000000
    8 -0.000001 -0.273071 1.043217 0.000000 0.000000 0.000000
    9 0.583509 -1.197273 0.185379 -0.077883 -0.765986 -0.796215
    10 1.535925 0.010247 0.005009 -0.076524 0.315733 -1.052207
    11 1.100770 0.004527 -0.010675 -0.000003 0.000010 -0.670682
    12 0.957766 -2.746777 -0.090301 0.173033 -0.053121 0.115372
    13 -0.033419 -1.397129 -0.011256 -0.734161 -0.015029 -0.103248
    14 -0.022362 -0.957434 0.018782 -0.631921 0.000000 0.000000
    15 0.250028 -2.820664 -0.238397 -0.282644 0.057278 -0.106682
    16 -0.049759 -1.680546 0.100479 -2.012741 0.000000 -0.000002
    17 -0.034141 -1.148309 0.084778 -1.037448 0.000000 0.000000
    18 -0.488517 -2.755600 -0.228262 -0.195772 0.054591 -0.144142
    19 0.039889 -1.479791 0.029853 -2.042721 0.000000 0.000001
    20 0.028786 -1.075733 -0.023111 -0.841787 0.000000 0.000000
    21 -1.180679 -2.507216 -0.193861 0.008684 0.244081 -0.056771
    22 -0.024966 -1.123935 0.017594 -1.466568 0.000000 0.000001
    23 -0.020058 -0.890966 0.010091 -1.308722 0.000000 0.000000
    24 0.120152 -0.050267 -0.054488 0.287569 3.110905 1.561085
    25 1.304080 8.804363 -0.126173 1.605129 -1.493046 -0.161010
    26 -0.029120 -7.342746 -12.109576 -1.434965 -5.449559 -0.627404
    27 0.096946 -8.450419 -0.009364 0.116601 -0.269037 0.245830
    28 -0.587378 -1.261647 0.201457 0.109405 -0.618799 -2.845817
    29 1.522835 0.058680 0.016851 -0.010155 0.057295 0.397057
    30 1.117948 0.048425 -0.005765 -0.000015 0.000006 0.524276
    31 -0.963867 -2.785143 -0.085346 0.230931 0.199968 -0.171434
    32 0.028478 -1.403069 0.006271 -1.008232 0.000000 0.000000
    33 0.021414 -0.957782 0.020047 -0.332263 0.000000 0.000000
    34 -0.249534 -2.846964 -0.174215 -0.001189 0.000966 -0.025450
    35 0.043234 -1.683941 0.096014 -2.021613 -0.002966 -0.000335
    36 0.031729 -1.160830 0.058836 -1.017645 0.000007 0.000007
    37 0.447951 -2.798983 -0.200442 -0.016224 0.053277 0.116304
    38 -0.032910 -1.480207 0.004936 -1.783744 0.000000 0.000002
    39 -0.027022 -1.076920 -0.020212 -0.898878 0.000000 0.000000
    40 1.164474 -2.543939 -0.170327 -0.365257 -0.001010 -0.002103
    41 0.024033 -1.129040 0.017806 -1.210733 -0.100239 0.187008
    42 0.014896 -0.883991 -0.019845 -0.909612 0.074161 0.017318
    43 -0.139399 -0.111701 0.014397 0.285534 -0.040597 1.576226
    44 -1.441116 8.792395 -0.163593 -1.643144 1.483711 0.062639
  time 13
    0 7.113683 -10.208568 -14.689385 1.555483 -2.959262 -1.529497
    1 -0.071919 -8.498734 -0.104136 -0.113186 0.423787 -0.372384
    2 0.270743 -2.981032 0.317115 0.554701 1.379980 0.480550
    3 -0.000001 -1.808652 1.012938 0.000000 0.000000 0.000000
    4 -0.115836 1.063685 1.652800 0.000000 0.000000 0.000000
    5 0.000000 2.290612 1.335354 0.000000 0.000000 0.000000
    6 0.000000 0.706664 0.002903 0.000000 0.000000 0.000000
    7 -0.194965 1.732989 -0.758107 0.000000 0.000000 0.000000
    8 -0.000001 -0.273071 1.043217 0.000000 0.000000 0.000000
    9 0.583509 -1.197273 0.185379 -0.077883 -0.765986 -0.796215
    10 1.535925 0.010247 0.005009 -0.076524 0.315733 -1.052207
    11 1.100770 0.004527 -0.010675 -0.000003 0.000010 -0.670682
    12 0.957766 -2.746777 -0.090301 0.174343 -0.053517 0.114689
    13 -0.033419 -1.397129 -0.011256 -0.728030 -0.014441 -0.103260
    14 -0.022362 -0.957434 0.018782 -0.631252 0.000000 0.000000
    15 0.250028 -2.820664 -0.238397 -0.282644 0.057278 -0.106682
    16 -0.049759 -1.680546 0.100479 -2.012741 0.000000 -0.000002
    17 -0.034141 -1.148309 0.084778 -1.037448 0.000000 0.000000
    18 -0.488517 -2.755600 -0.228262 -0.195772 0.054591 -0.144142
    19 0.039889 -1.479791 0.029853 -2.042721 0.000000 0.000001
    20 0.028786 -1.075733 -0.023111 -0.841787 0.000000 0.000000
    21 -1.180679 -2.507216 -0.193861 0.008684 0.244081 -0.056771
    22 -0.024966 -1.123935 0.017594 -1.466568 0.000000 0.000001
    23 -0.020058 -0.890966 0.010091 -1.308722 0.000000 0.000000
    24 0.120152 -0.050267 -0.054488 0.287569 3.110905 1.561085
    25 1.304080 8.804363 -0.126173 1.605129 -1.493046 -0.161010
    26 -0.029120 -7.354465 -12.105669 -1.433263 -5.448673 -0.627214
    27 0.096946 -8.450419 -0.009364 0.111815 -0.268812 0.244946
    28 -0.587378 -1.261647 0.201457 0.109463 -0.618799 -2.845882
    29 1.522835 0.058680 0.016851 -0.009920 0.057331 0.401213
    30 1.117948 0.048425 -0.005765 -0.000015 0.000006 0.510147
    31 -0.963867 -2.785143 -0.085346 0.230931 0.199968 -0.171434
    32 0.028478 -1.403069 0.006271 -1.008232 0.000000 0.000000
    33 0.021414 -0.957782 0.020047 -0.332263 0.000000 0.000000
    34 -0.249534 -2.846964 -0.174215 -0.001189 0.000966 -0.025450
    35 0.043234 -1.683941 0.096014 -2.021613 -0.002966 -0.000335
    36 0.031729 -1.160830 0.058836 -1.017645 0.000007 0.000007
    37 0.447951 -2.798983 -0.200442 -0.016224 0.053277 0.116304
    38 -0.032910 -1.480207 0.004936 -1.783744 0.000000 0.000002
    39 -0.027022 -1.076920 -0.020212 -0.898878 0.000000 0.000000
    40 1.164474 -2.543939 -0.170327 -0.365257 -0.001010 -0.002103
    41 0.024033 -1.129040 0.017806 -1.210733 -0.100239 0.187008
    42 0.014896 -0.883991 -0.019845 -0.909612 0.074161 0.017318
    43 -0.139399 -0.111701 0.014397 0.285534 -0.040597 1.576226
    44 -1.441116 8.792395 -0.163593 -1.643144 1.483711 0.062639
  time 14
    0 7.113683 -10.208568 -14.689385 1.555483 -2.959166 -1.529497
    1 -0.071919 -8.498734 -0.104136 -0.112169 0.420957 -0.369875
    2 0.270743 -2.981032 0.317115 0.554701 1.379980 0.480550
    3 -0.000001 -1.808652 1.012938 0.000000 0.000000 0.000000
    4 -0.115836 1.063685 1.652800 0.000000 0.000000 0.000000
    5 0.000000 2.290612 1.335354 0.000000 0.000000 0.000000
    6 0.000000 0.706664 0.002903 0.000000 0.000000 0.000000
    7 -0.194965 1.732989 -0.758107 0.000000 0.000000 0.000000
    8 -0.000001 -0.273071 1.043217 0.000000 0.000000 0.000000
    9 0.583509 -1.197273 0.185379 -0.077883 -0.765986 -0.796215
    10 1.535925 0.010247 0.005009 -0.076524 0.315733 -1.052207
    11 1.100770 0.004527 -0.010675 -0.000003 0.000010 -0.670682
    12 0.957766 -2.746777 -0.090301 0.176090 -0.053457 0.114785
    13 -0.033419 -1.397129 -0.011256 -0.727949 -0.014274 -0.103284
    14 -0.022362 -0.957434 0.018782 -0.645519 0.000000 0.000000
    15 0.250028 -2.820664 -0.238397 -0.282644 0.057278 -0.106682
    16 -0.049759 -1.680546 0.100479 -2.012741 0.000000 -0.000002
    17 -0.034141 -1.148309 0.084778 -1.037448 0.000000 0.000000
    18 -0.488517 -2.755600 -0.228262 -0.195772 0.054591 -0.144142
    19 0.039889 -1.479791 0.029853 -2.042721 0.000000 0.000001
    20 0.028786 -1.075733 -0.023111 -0.841787 0.000000 0.000000
    21 -1.180679 -2.507216 -0.193861 0.008684 0.244081 -0.056771
    22 -0.024966 -1.123935 0.017594 -1.466568 0.000000 0.000001
    23 -0.020058 -0.890966 0.010091 -1.308722 0.000000 0.000000
    24 0.120152 -0.050267 -0.054488 0.287569 3.110905 1.561085
    25 1.304080 8.804363 -0.126173 1.605129 -1.493046 -0.161010
    26 -0.029120 -7.362278 -12.101763 -1.432569 -5.448142 -0.627118
    27 0.096946 -8.450419 -0.009364 0.107939 -0.269195 0.243861
    28 -0.587378 -1.261647 0.201457 0.109377 -0.618799 -2.845751
    29 1.522835 0.058680 0.016851 -0.009749 0.057367 0.404277
    30 1.117948 0.048425 -0.005765 -0.000015 0.000006 0.499670
    31 -0.963867 -2.785143 -0.085346 0.230931 0.199968 -0.171434
    32 0.028478 -1.403069 0.006271 -1.008232 0.000000 0.000000
    33 0.021414 -0.957782 0.020047 -0.332263 0.000000 0.000000
    34 -0.249534 -2.846964 -0.174215 -0.001189 0.000966 -0.025450
    35 0.043234 -1.683941 0.096014 -2.021613 -0.002966 -0.000335
    36 0.031729 -1.160830 0.058836 -1.017645 0.000007 0.000007
    37 0.447951 -2.798983 -0.200442 -0.016224 0.053277 0.116304
    38 -0.032910 -1.480207 0.004936 -1.783744 0.000000 0.000002
    39 -0.027022 -1.076920 -0.020212 -0.898878 0.000000 0.000000
    40 1.164474 -2.543939 -0.170327 -0.365257 -0.001010 -0.002103
    41 0.024033 -1.129040 0.017806 -1.210733 -0.100239 0.187008
    42 0.014896 -0.883991 -0.019845 -0.909612 0.074161 0.017318
    43 -0.139399 -0.111701 0.014397 0.285534 -0.040597 1.576226
    44 -1.441116 8.792395 -0.163593 -1.643144 1.483711 0.062639
  time 15
    0 7.113683 -10.208568 -14.689385 1.555483 -2.960025 -1.529497
    1 -0.071919 -8.498734 -0.104136 -0.111396 0.417419 -0.367986
    2 0.270743 -2.981032 0.317115 0.554701 1.379980 0.480550
    3 -0.000001 -1.808652 1.012938 0.000000 0.000000 0.000000
    4 -0.115836 1.063685 1.652800 0.000000 0.000000 0.000000
    5 0.000000 2.290612 1.335354 0.000000 0.000000 0.000000
    6 0.000000 0.706664 0.002903 0.000000 0.000000 0.000000
    7 -0.194965 1.732989 -0.758107 0.000000 0.000000 0.000000
    8 -0.000001 -0.273071 1.043217 0.000000 0.000000 0.000000
    9 0.583509 -1.197273 0.185379 -0.077883 -0.765986 -0.796215
    10 1.535925 0.010247 0.005009 -0.076524 0.315733 -1.052207
    11 1.100770 0.004527 -0.010675 -0.000003 0.000010 -0.670682
    12 0.957766 -2.746777 -0.090301 0.178008 -0.053121 0.115360
    13 -0.033419 -1.397129 -0.011256 -0.732375 -0.014405 -0.103308
    14 -0.022362 -0.957434 0.018782 -0.670550 0.000000 0.000000
    15 0.250028 -2.820664 -0.238397 -0.282644 0.057278 -0.106682
    16 -0.049759 -1.680546 0.100479 -2.012741 0.000000 -0.000002
    17 -0.034141 -1.148309 0.084778 -1.037448 0.000000 0.000000
    18 -0.488517 -2.755600 -0.228262 -0.195772 0.054591 -0.144142
    19 0.039889 -1.479791 0.029853 -2.042721 0.000000 0.000001
    20 0.028786 -1.075733 -0.023111 -0.841787 0.000000 0.000000
    21 -1.180679 -2.507216 -0.193861 0.008684 0.244081 -0.056771
    22 -0.024966 -1.123935 0.017594 -1.466568 0.000000 0.000001
    23 -0.020058 -0.890966 0.010091 -1.308722 0.000000 0.000000
    24 0.120152 -0.050267 -0.054488 0.287569 3.110905 1.561085
    25 1.304080 8.804363 -0.126173 1.605129 -1.493046 -0.161010
    26 -0.029120 -7.366184 -12.101763 -1.432569 -5.447965 -0.627118
    27 0.096946 -8.450419 -0.009364 0.104194 -0.270051 0.242463
    28 -0.587378 -1.261647 0.201457 0.109163 -0.618850 -2.845392
    29 1.522835 0.058680 0.016851 -0.009578 0.057391 0.407024
    30 1.117948 0.048425 -0.005765 -0.000015 0.000006 0.490219
    31 -0.963867 -2.785143 -0.085346 0.230931 0.199968 -0.171434
    32 0.028478 -1.403069 0.006271 -1.008232 0.000000 0.000000
    33 0.021414 -0.957782 0.020047 -0.332263 0.000000 0.000000
    34 -0.249534 -2.846964 -0.174215 -0.001189 0.000966 -0.025450
    35 0.043234 -1.683941 0.096014 -2.021613 -0.002966 -0.000335
    36 0.031729 -1.160830 0.058836 -1.017645 0.000007 0.000007
    37 0.447951 -2.798983 -0.200442 -0.016224 0.053277 0.116304
    38 -0.032910 -1.480207 0.004936 -1.783744 0.000000 0.000002
    39 -0.027022 -1.076920 -0.020212 -0.898878 0.000000 0.000000
    40 1.164474 -2.543939 -0.170327 -0.365257 -0.001010 -0.002103
    41 0.024033 -1.129040 0.017806 -1.210733 -0.100239 0.187008
    42 0.014896 -0.883991 -0.019845 -0.909612 0.074161 0.017318
    43 -0.139399 -0.111701 0.014397 0.285534 -0.040597 1.576226
    44 -1.441116 8.792395 -0.163593 -1.643144 1.483711 0.062639
  time 16
    0 7.113683 -10.208568 -14.689385 1.555556 -2.961457 -1.529497
    1 -0.071919 -8.498734 -0.104136 -0.110827 0.413478 -0.366620
    2 0.270743 -2.981032 0.317115 0.554701 1.379980 0.480550
    3 -0.000001 -1.808652 1.012938 0.000000 0.000000 0.000000
    4 -0.115836 1.063685 1.652800 0.000000 0.000000 0.000000
    5 0.000000 2.290612 1.335354 0.000000 0.000000 0.000000
    6 0.000000 0.706664 0.002903 0.000000 0.000000 0.000000
    7 -0.194965 1.732989 -0.758107 0.000000 0.000000 0.000000
    8 -0.000001 -0.273071 1.043217 0.000000 0.000000 0.000000
    9 0.583509 -1.197273 0.185379 -0.077883 -0.765974 -0.796215
    10 1.535925 0.010247 0.005009 -0.076524 0.315733 -1.052207
    11 1.100770 0.004527 -0.010675 -0.000003 0.000010 -0.670682
    12 0.957766 -2.746777 -0.090301 0.179864 -0.052666 0.116139
    13 -0.033419 -1.397129 -0.011256 -0.739643 -0.014741 -0.103344
    14 -0.022362 -0.957434 0.018782 -0.702236 0.000000 0.000000
    15 0.250028 -2.820664 -0.238397 -0.282644 0.057278 -0.106682
    16 -0.049759 -1.680546 0.100479 -2.012741 0.000000 -0.000002
    17 -0.034141 -1.148309 0.084778 -1.037448 0.000000 0.000000
    18 -0.488517 -2.755600 -0.228262 -0.195772 0.054591 -0.144142
    19 0.039889 -1.479791 0.029853 -2.042721 0.000000 0.000001
    20 0.028786 -1.075733 -0.023111 -0.841787 0.000000 0.000000
    21 -1.180679 -2.507216 -0.193861 0.008684 0.244081 -0.056771
    22 -0.024966 -1.123935 0.017594 -1.466568 0.000000 0.000001
    23 -0.020058 -0.890966 0.010091 -1.308722 0.000000 0.000000
    24 0.120152 -0.050267 -0.054488 0.287569 3.110905 1.561085
    25 1.304080 8.804363 -0.126173 1.605129 -1.493046 -0.161010
    26 -0.029120 -7.370090 -12.101763 -1.433074 -5.447876 -0.627118
    27 0.096946 -8.450419 -0.009364 0.100734 -0.271246 0.240923
    28 -0.587378 -1.261647 0.201457 0.108834 -0.618901 -2.844821
    29 1.522835 0.058680 0.016851 -0.009428 0.057415 0.409595
    30 1.117948 0.048425 -0.005765 -0.000015 0.000006 0.481537
    31 -0.963867 -2.785143 -0.085346 0.230931 0.199968 -0.171434
    32 0.028478 -1.403069 0.006271 -1.008232 0.000000 0.000000
    33 0.021414 -0.957782 0.020047 -0.332263 0.000000 0.000000
    34 -0.249534 -2.846964 -0.174215 -0.001189 0.000966 -0.025450
    35 0.043234 -1.683941 0.096014 -2.021613 -0.002966 -0.000335
    36 0.031729 -1.160830 0.058836 -1.017645 0.000007 0.000007
    37 0.447951 -2.798983 -0.200442 -0.016224 0.053277 0.116304
    38 -0.032910 -1.480207 0.004936 -1.783744 0.000000 0.000002
    39 -0.027022 -1.076920 -0.020212 -0.898878 0.000000 0.000000
    40 1.164474 -2.543939 -0.170327 -0.365257 -0.001010 -0.002103
    41 0.024033 -1.129040 0.017806 -1.210733 -0.100239 0.187008
    42 0.014896 -0.883991 -0.019845 -0.909612 0.074161 0.017318
    43 -0.139399 -0.111701 0.014397 0.285534 -0.040597 1.576226
    44 -1.441116 8.792395 -0.163593 -1.643144 1.483711 0.062639
  time 17
    0 7.113683 -10.208568 -14.689385 1.555629 -2.963271 -1.529497
    1 -0.071919 -8.498734 -0.104136 -0.110447 0.409485 -0.365676
    2 0.270743 -2.981032 0.317115 0.554701 1.379980 0.480550
    3 -0.000001 -1.808652 1.012938 0.000000 0.000000 0.000000
    4 -0.115836 1.063685 1.652800 0.000000 0.000000 0.000000
    5 0.000000 2.290612 1.335354 0.000000 0.000000 0.000000
    6 0.000000 0.706664 0.002903 0.000000 0.000000 0.000000
    7 -0.194965 1.732989 -0.758107 0.000000 0.000000 0.000000
    8 -0.000001 -0.273071 1.043217 0.000000 0.000000 0.000000
    9 0.583509 -1.197273 0.185379 -0.077883 -0.765974 -0.796215
    10 1.535925 0.010247 0.005009 -0.076524 0.315733 -1.052207
    11 1.100770 0.004527 -0.010675 -0.000003 0.000010 -0.670682
    12 0.957766 -2.746777 -0.090301 0.181377 -0.052282 0.116822
    13 -0.033419 -1.397129 -0.011256 -0.748291 -0.015196 -0.103356
    14 -0.022362 -0.957434 0.018782 -0.736311 0.000000 0.000000
    15 0.250028 -2.820664 -0.238397 -0.282644 0.057278 -0.106682
    16 -0.049759 -1.680546 0.100479 -2.012741 0.000000 -0.000002
    17 -0.034141 -1.148309 0.084778 -1.037448 0.000000 0.000000
    18 -0.488517 -2.755600 -0.228262 -0.195772 0.054591 -0.144142
    19 0.039889 -1.479791 0.029853 -2.042721 0.000000 0.000001
    20 0.028786 -1.075733 -0.023111 -0.841787 0.000000 0.000000
    21 -1.180679 -2.507216 -0.193861 0.008684 0.244081 -0.056771
    22 -0.024966 -1.123935 0.017594 -1.466568 0.000000 0.000001
    23 -0.020058 -0.890966 0.010091 -1.308722 0.000000 0.000000
    24 0.120152 -0.050267 -0.054488 0.287569 3.110905 1.561085
    25 1.304080 8.804363 -0.126173 1.605129 -1.493046 -0.161010
    26 -0.029120 -7.373997 -12.101763 -1.433893 -5.448053 -0.627118
    27 0.096946 -8.450419 -0.009364 0.097613 -0.272621 0.239354
    28 -0.587378 -1.261647 0.201457 0.108420 -0.618953 -2.844086
    29 1.522835 0.058680 0.016851 -0.009300 0.057439 0.411919
    30 1.117948 0.048425 -0.005765 -0.000015 -0.000006 0.473527
    31 -0.963867 -2.785143 -0.085346 0.230931 0.199968 -0.171434
    32 0.028478 -1.403069 0.006271 -1.008232 0.000000 0.000000
    33 0.021414 -0.957782 0.020047 -0.332263 0.000000 0.000000
    34 -0.249534 -2.846964 -0.174215 -0.001189 0.000966 -0.025450
    35 0.043234 -1.683941 0.096014 -2.021613 -0.002966 -0.000335
    36 0.031729 -1.160830 0.058836 -1.017645 0.000007 0.000007
    37 0.447951 -2.798983 -0.200442 -0.016224 0.053277 0.116304
    38 -0.032910 -1.480207 0.004936 -1.783744 0.000000 0.000002
    39 -0.027022 -1.076920 -0.020212 -0.898878 0.000000 0.000000
    40 1.164474 -2.543939 -0.170327 -0.365257 -0.001010 -0.002103
    41 0.024033 -1.129040 0.017806 -1.210733 -0.100239 0.187008
    42 0.014896 -0.883991 -0.019845 -0.909612 0.074161 0.017318
    43 -0.139399 -0.111701 0.014397 0.285534 -0.040597 1.576226
    44 -1.441116 8.792395 -0.163593 -1.643144 1.483711 0.062639
  time 18
    0 7.113683 -10.208568 -14.689385 1.555702 -2.965181 -1.529497
    1 -0.071919 -8.498734 -0.104136 -0.110203 0.405796 -0.365104
    2 0.270743 -2.981032 0.317115 0.554701 1.379980 0.480550
    3 -0.000001 -1.808652 1.012938 0.000000 0.000000 0.000000
    4 -0.115836 1.063685 1.652800 0.000000 0.000000 0.000000
    5 0.000000 2.290612 1.335354 0.000000 0.000000 0.000000
    6 0.000000 0.706664 0.002903 0.000000 0.000000 0.000000
    7 -0.194965 1.732989 -0.758107 0.000000 0.000000 0.000000
    8 -0.000001 -0.273071 1.043217 0.000000 0.000000 0.000000
    9 0.583509 -1.197273 0.185379 -0.077883 -0.765986 -0.796215
    10 1.535925 0.010247 0.005009 -0.076524 0.315733 -1.052207
    11 1.100770 0.004527 -0.010675 -0.000003 0.000010 -0.670682
    12 0.957766 -2.746777 -0.090301 0.182281 -0.052115 0.117110
    13 -0.033419 -1.397129 -0.011256 -0.756696 -0.015640 -0.103380
    14 -0.022362 -0.957434 0.018782 -0.768698 0.000000 0.000000
    15 0.250028 -2.820664 -0.238397 -0.282644 0.057278 -0.106682
    16 -0.049759 -1.680546 0.100479 -2.012741 0.000000 -0.000002
    17 -0.034141 -1.148309 0.084778 -1.037448 0.000000 0.000000
    18 -0.488517 -2.755600 -0.228262 -0.195772 0.054591 -0.144142
    19 0.039889 -1.479791 0.029853 -2.042721 0.000000 0.000001
    20 0.028786 -1.075733 -0.023111 -0.841787 0.000000 0.000000
    21 -1.180679 -2.507216 -0.193861 0.008684 0.244081 -0.056771
    22 -0.024966 -1.123935 0.017594 -1.466568 0.000000 0.000001
    23 -0.020058 -0.890966 0.010091 -1.308722 0.000000 0.000000
    24 0.120152 -0.050267 -0.054488 0.287569 3.110905 1.561085
    25 1.304080 8.804363 -0.126173 1.605129 -1.493046 -0.161010
    26 -0.029120 -7.373997 -12.101763 -1.434839 -5.448230 -0.627118
    27 0.096946 -8.450419 -0.009364 0.095012 -0.273973 0.237899
    28 -0.587378 -1.261647 0.201457 0.107935 -0.619030 -2.843254
    29 1.522835 0.058680 0.016851 -0.009172 0.057451 0.414138
    30 1.117948 0.048425 -0.005765 -0.000015 -0.000006 0.465966
    31 -0.963867 -2.785143 -0.085346 0.230931 0.199968 -0.171434
    32 0.028478 -1.403069 0.006271 -1.008232 0.000000 0.000000
    33 0.021414 -0.957782 0.020047 -0.332263 0.000000 0.000000
    34 -0.249534 -2.846964 -0.174215 -0.001189 0.000966 -0.025450
    35 0.043234 -1.683941 0.096014 -2.021613 -0.002966 -0.000335
    36 0.031729 -1.160830 0.058836 -1.017645 0.000007 0.000007
    37 0.447951 -2.798983 -0.200442 -0.016224 0.053277 0.116304
    38 -0.032910 -1.480207 0.004936 -1.783744 0.000000 0.000002
    39 -0.027022 -1.076920 -0.020212 -0.898878 0.000000 0.000000
    40 1.164474 -2.543939 -0.170327 -0.365257 -0.001010 -0.002103
    41 0.024033 -1.129040 0.017806 -1.210733 -0.100239 0.187008
    42 0.014896 -0.883991 -0.019845 -0.909612 0.074161 0.017318
    43 -0.139399 -0.111701 0.014397 0.285534 -0.040597 1.576226
    44 -1.441116 8.792395 -0.163593 -1.643144 1.483711 0.062639
  time 19
    0 7.113683 -10.208568 -14.689385 1.555775 -2.966803 -1.529497
    1 -0.071919 -8.498734 -0.104136 -0.110068 0.402739 -0.364781
    2 0.270743 -2.981032 0.317115 0.554701 1.379980 0.480517
    3 -0.000001 -1.808652 1.012938 0.000000 0.000000 0.000000
    4 -0.115836 1.063685 1.652800 0.000000 0.000000 0.000000
    5 0.000000 2.290612 1.335354 0.000000 0.000000 0.000000
    6 0.000000 0.706664 0.002903 0.000000 0.000000 0.000000
    7 -0.194965 1.732989 -0.758107 0.000000 0.000000 0.000000
    8 -0.000001 -0.273071 1.043217 0.000000 0.000000 0.000000
    9 0.583509 -1.197273 0.185379 -0.077883 -0.765974 -0.796215
    10 1.535925 0.010247 0.005009 -0.076524 0.315733 -1.052207
    11 1.100770 0.004527 -0.010675 -0.000003 0.000010 -0.670682
    12 0.957766 -2.746777 -0.090301 0.182718 -0.052115 0.117110
    13 -0.033419 -1.397129 -0.011256 -0.763274 -0.015975 -0.103392
    14 -0.022362 -0.957434 0.018782 -0.795161 0.000000 0.000000
    15 0.250028 -2.820664 -0.238397 -0.282644 0.057278 -0.106682
    16 -0.049759 -1.680546 0.100479 -2.012741 0.000000 -0.000002
    17 -0.034141 -1.148309 0.084778 -1.037448 0.000000 0.000000
    18 -0.488517 -2.755600 -0.228262 -0.195772 0.054591 -0.144142
    19 0.039889 -1.479791 0.029853 -2.042721 0.000000 0.000001
    20 0.028786 -1.075733 -0.023111 -0.841787 0.000000 0.000000
    21 -1.180679 -2.507216 -0.193861 0.008684 0.244081 -0.056771
    22 -0.024966 -1.123935 0.017594 -1.466568 0.000000 0.000001
    23 -0.020058 -0.890966 0.010091 -1.308722 0.000000 0.000000
    24 0.120152 -0.050267 -0.054488 0.287569 3.110905 1.561085
    25 1.304080 8.804363 -0.126173 1.605129 -1.493046 -0.161010
    26 -0.029120 -7.377903 -12.097856 -1.435722 -5.448407 -0.627214
    27 0.096946 -8.450419 -0.009364 0.093009 -0.275145 0.236700
    28 -0.587378 -1.261647 0.201457 0.107406 -0.619107 -2.842356
    29 1.522835 0.058680 0.016851 -0.009044 0.057475 0.416286
    30 1.117948 0.048425 -0.005765 -0.000015 -0.000006 0.458693
    31 -0.963867 -2.785143 -0.085346 0.230931 0.199968 -0.171434
    32 0.028478 -1.403069 0.006271 -1.008232 0.000000 0.000000
    33 0.021414 -0.957782 0.020047 -0.332263 0.000000 0.000000
    34 -0.249534 -2.846964 -0.174215 -0.001189 0.000966 -0.025450
    35 0.043234 -1.683941 0.096014 -2.021613 -0.002966 -0.000335
    36 0.031729 -1.160830 0.058836 -1.017645 0.000007 0.000007
    37 0.447951 -2.798983 -0.200442 -0.016224 0.053277 0.116304
    38 -0.032910 -1.480207 0.004936 -1.783744 0.000000 0.000002
    39 -0.027022 -1.076920 -0.020212 -0.898878 0.000000 0.000000
    40 1.164474 -2.543939 -0.170327 -0.365257 -0.001010 -0.002103
    41 0.024033 -1.129040 0.017806 -1.210733 -0.100239 0.187008
    42 0.014896 -0.883991 -0.019845 -0.909612 0.074161 0.017318
    43 -0.139399 -0.111701 0.014397 0.285534 -0.040597 1.576226
    44 -1.441116 8.792395 -0.163593 -1.643144 1.483711 0.062639
  time 20
    0 7.113683 -10.208568 -14.689385 1.555848 -2.968045 -1.529497
    1 -0.071919 -8.498734 -0.104136 -0.110013 0.400641 -0.364682
    2 0.270743 -2.981032 0.317115 0.554701 1.379980 0.480550
    3 -0.000001 -1.808652 1.012938 0.000000 0.000000 0.000000
    4 -0.115836 1.063685 1.652800 0.000000 0.000000 0.000000
    5 0.000000 2.290612 1.335354 0.000000 0.000000 0.000000
    6 0.000000 0.706664 0.002903 0.000000 0.000000 0.000000
    7 -0.194965 1.732989 -0.758107 0.000000 0.000000 0.000000
    8 -0.000001 -0.273071 1.043217 0.000000 0.000000 0.000000
    9 0.583509 -1.197273 0.185379 -0.077883 -0.765986 -0.796215
    10 1.535925 0.010247 0.005009 -0.076524 0.315733 -1.052207
    11 1.100770 0.004527 -0.010675 -0.000003 0.000010 -0.670682
    12 0.957766 -2.746777 -0.090301 0.182999 -0.052115 0.117110
    13 -0.033419 -1.397129 -0.011256 -0.766482 -0.016119 -0.103392
    14 -0.022362 -0.957434 0.018782 -0.811562 0.000000 0.000000
    15 0.250028 -2.820664 -0.238397 -0.282644 0.057278 -0.106682
    16 -0.049759 -1.680546 0.100479 -2.012741 0.000000 -0.000002
    17 -0.034141 -1.148309 0.084778 -1.037448 0.000000 0.000000
    18 -0.488517 -2.755600 -0.228262 -0.195772 0.054591 -0.144142
    19 0.039889 -1.479791 0.029853 -2.042721 0.000000 0.000001
    20 0.028786 -1.075733 -0.023111 -0.841787 0.000000 0.000000
    21 -1.180679 -2.507216 -0.193861 0.008684 0.244081 -0.056771
    22 -0.024966 -1.123935 0.017594 -1.466568 0.000000 0.000001
    23 -0.020058 -0.890966 0.010091 -1.308722 0.000000 0.000000
    24 0.120152 -0.050267 -0.054488 0.287569 3.110905 1.561085
    25 1.304080 8.804363 -0.126173 1.605129 -1.493046 -0.161010
    26 -0.029120 -7.377903 -12.097856 -1.436353 -5.448585 -0.627214
    27 0.096946 -8.450419 -0.009364 0.091708 -0.275978 0.235873
    28 -0.587378 -1.261647 0.201457 0.106864 -0.619184 -2.841425
    29 1.522835 0.058680 0.016851 -0.008937 0.057487 0.418400
    30 1.117948 0.048425 -0.005765 -0.000015 -0.000006 0.451549
    31 -0.963867 -2.785143 -0.085346 0.230931 0.199968 -0.171434
    32 0.028478 -1.403069 0.006271 -1.008232 0.000000 0.000000
    33 0.021414 -0.957782 0.020047 -0.332263 0.000000 0.000000
    34 -0.249534 -2.846964 -0.174215 -0.001189 0.000966 -0.025450
    35 0.043234 -1.683941 0.096014 -2.021613 -0.002966 -0.000335
    36 0.031729 -1.160830 0.058836 -1.017645 0.000007 0.000007
    37 0.447951 -2.798983 -0.200442 -0.016224 0.053277 0.116304
    38 -0.032910 -1.480207 0.004936 -1.783744 0.000000 0.000002
    39 -0.027022 -1.076920 -0.020212 -0.898878 0.000000 0.000000
    40 1.164474 -2.543939 -0.170327 -0.365257 -0.001010 -0.002103
    41 0.024033 -1.129040 0.017806 -1.210733 -0.100239 0.187008
    42 0.014896 -0.883991 -0.019845 -0.909612 0.074161 0.017318
    43 -0.139399 -0.111701 0.014397 0.285534 -0.040597 1.576226
    44 -1.441116 8.792395 -0.163593 -1.643144 1.483711 0.062639
  time 21
    0 7.113683 -10.208568 -14.689385 1.555848 -2.968522 -1.529497
    1 -0.071919 -8.498734 -0.104136 -0.110000 0.399883 -0.364657
    2 0.270743 -2.981032 0.317115 0.554701 1.379980 0.480550
    3 -0.000001 -1.808652 1.012938 0.000000 0.000000 0.000000
    4 -0.115836 1.063685 1.652800 0.000000 0.000000 0.000000
    5 0.000000 2.290612 1.335354 0.000000 0.000000 0.000000
    6 0.000000 0.706664 0.002903 0.000000 0.000000 0.000000
    7 -0.194965 1.732989 -0.758107 0.000000 0.000000 0.000000
    8 -0.000001 -0.273071 1.043217 0.000000 0.000000 0.000000
    9 0.583509 -1.197273 0.185379 -0.077883 -0.765986 -0.796215
    10 1.535925 0.010247 0.005009 -0.076524 0.315733 -1.052207
    11 1.100770 0.004527 -0.010675 -0.000003 0.000010 -0.670682
    12 0.957766 -2.746777 -0.090301 0.183155 -0.052115 0.117110
    13 -0.033419 -1.397129 -0.011256 -0.767254 -0.016119 -0.103404
    14 -0.022362 -0.957434 0.018782 -0.819651 0.000000 0.000000
    15 0.250028 -2.820664 -0.238397 -0.282644 0.057278 -0.106682
    16 -0.049759 -1.680546 0.100479 -2.012741 0.000000 -0.000002
    17 -0.034141 -1.148309 0.084778 -1.037448 0.000000 0.000000
    18 -0.488517 -2.755600 -0.228262 -0.195772 0.054591 -0.144142
    19 0.039889 -1.479791 0.029853 -2.042721 0.000000 0.000001
    20 0.028786 -1.075733 -0.023111 -0.841787 0.000000 0.000000
    21 -1.180679 -2.507216 -0.193861 0.008684 0.244081 -0.056771
    22 -0.024966 -1.123935 0.017594 -1.466568 0.000000 0.000001
    23 -0.020058 -0.890966 0.010091 -1.308722 0.000000 0.000000
    24 0.120152 -0.050267 -0.054488 0.287569 3.110905 1.561085
    25 1.304080 8.804363 -0.126173 1.605129 -1.493046 -0.161010
    26 -0.029120 -7.377903 -12.097856 -1.436605 -5.448585 -0.627214
    27 0.096946 -8.450419 -0.009364 0.091266 -0.276294 0.235588
    28 -0.587378 -1.261647 0.201457 0.106336 -0.619287 -2.840495
    29 1.522835 0.058680 0.016851 -0.008808 0.057511 0.420513
    30 1.117948 0.048425 -0.005765 -0.000015 -0.000006 0.444340
    31 -0.963867 -2.785143 -0.085346 0.230931 0.199968 -0.171434
    32 0.028478 -1.403069 0.006271 -1.008232 0.000000 0.000000
    33 0.021414 -0.957782 0.020047 -0.332263 0.000000 0.000000
    34 -0.249534 -2.846964 -0.174215 -0.001189 0.000966 -0.025450
    35 0.043234 -1.683941 0.096014 -2.021613 -0.002966 -0.000335
    36 0.031729 -1.160830 0.058836 -1.017645 0.000007 0.000007
    37 0.447951 -2.798983 -0.200442 -0.016224 0.053277 0.116304
    38 -0.032910 -1.480207 0.004936 -1.783744 0.000000 0.000002
    39 -0.027022 -1.076920 -0.020212 -0.898878 0.000000 0.000000
    40 1.164474 -2.543939 -0.170327 -0.365257 -0.001010 -0.002103
    41 0.024033 -1.129040 0.017806 -1.210733 -0.100239 0.187008
    42 0.014896 -0.883991 -0.019845 -0.909612 0.074161 0.017318
    43 -0.139399 -0.111701 0.014397 0.285534 -0.040597 1.576226
    44 -1.441116 8.792395 -0.163593 -1.643144 1.483711 0.062639
  time 22
    0 7.113683 -10.208568 -14.689385 1.555848 -2.968235 -1.529497
    1 -0.071919 -8.498734 -0.104136 -0.110068 0.400439 -0.364831
    2 0.270743 -2.981032 0.317115 0.554701 1.379980 0.480550
    3 -0.000001 -1.808652 1.012938 0.000000 0.000000 0.000000
    4 -0.115836 1.063685 1.652800 0.000000 0.000000 0.000000
    5 0.000000 2.290612 1.335354 0.000000 0.000000 0.000000
    6 0.000000 0.706664 0.002903 0.000000 0.000000 0.000000
    7 -0.194965 1.732989 -0.758107 0.000000 0.000000 0.000000
    8 -0.000001 -0.273071 1.043217 0.000000 0.000000 0.000000
    9 0.583509 -1.197273 0.185379 -0.077883 -0.765986 -0.796215
    10 1.535925 0.010247 0.005009 -0.076524 0.315733 -1.052207
    11 1.100770 0.004527 -0.010675 -0.000003 0.000010 -0.670682
    12 0.957766 -2.746777 -0.090301 0.183202 -0.052115 0.117110
    13 -0.033419 -1.397129 -0.011256 -0.767741 -0.016119 -0.103404
    14 -0.022362 -0.957434 0.018782 -0.824332 0.000000 0.000000
    15 0.250028 -2.820664 -0.238397 -0.282644 0.057278 -0.106682
    16 -0.049759 -1.680546 0.100479 -2.012741 0.000000 -0.000002
    17 -0.034141 -1.148309 0.084778 -1.037448 0.000000 0.000000
    18 -0.488517 -2.755600 -0.228262 -0.195772 0.054591 -0.144142
    19 0.039889 -1.479791 0.029853 -2.042721 0.000000 0.000001
    20 0.028786 -1.075733 -0.023111 -0.841787 0.000000 0.000000
    21 -1.180679 -2.507216 -0.193861 0.008684 0.244081 -0.056771
    22 -0.024966 -1.123935 0.017594 -1.466568 0.000000 0.000001
    23 -0.020058 -0.890966 0.010091 -1.308722 0.000000 0.000000
    24 0.120152 -0.050267 -0.054488 0.287569 3.110905 1.561085
    25 1.304080 8.804363 -0.126173 1.605129 -1.493046 -0.161010
    26 -0.029120 -7.377903 -12.101763 -1.436542 -5.448496 -0.627214
    27 0.096946 -8.450419 -0.009364 0.091734 -0.276114 0.235787
    28 -0.587378 -1.261647 0.201457 0.105836 -0.619338 -2.839646
    29 1.522835 0.058680 0.016851 -0.008680 0.057535 0.422696
    30 1.117948 0.048425 -0.005765 -0.000015 -0.000006 0.436907
    31 -0.963867 -2.785143 -0.085346 0.230931 0.199968 -0.171434
    32 0.028478 -1.403069 0.006271 -1.008232 0.000000 0.000000
    33 0.021414 -0.957782 0.020047 -0.332263 0.000000 0.000000
    34 -0.249534 -2.846964 -0.174215 -0.001189 0.000966 -0.025450
    35 0.043234 -1.683941 0.096014 -2.021613 -0.002966 -0.000335
    36 0.031729 -1.160830 0.058836 -1.017645 0.000007 0.000007
    37 0.447951 -2.798983 -0.200442 -0.016224 0.053277 0.116304
    38 -0.032910 -1.480207 0.004936 -1.783744 0.000000 0.000002
    39 -0.027022 -1.076920 -0.020212 -0.898878 0.000000 0.000000
    40 1.164474 -2.543939 -0.170327 -0.365257 -0.001010 -0.002103
    41 0.024033 -1.129040 0.017806 -1.210733 -0.100239 0.187008
    42 0.014896 -0.883991 -0.019845 -0.909612 0.074161 0.017318
    43 -0.139399 -0.111701 0.014397 0.285534 -0.040597 1.576226
    44 -1.441116 8.792395 -0.163593 -1.643144 1.483711 0.062639
  time 23
    0 7.113683 -10.208568 -14.689385 1.555848 -2.967663 -1.529497
    1 -0.071919 -8.498734 -0.104136 -0.110271 0.401981 -0.365328
    2 0.270743 -2.981032 0.317115 0.554701 1.379980 0.480550
    3 -0.000001 -1.808652 1.012938 0.000000 0.000000 0.000000
    4 -0.115836 1.063685 1.652800 0.000000 0.000000 0.000000
    5 0.000000 2.290612 1.335354 0.000000 0.000000 0.000000
    6 0.000000 0.706664 0.002903 0.000000 0.000000 0.000000
    7 -0.194965 1.732989 -0.758107 0.000000 0.000000 0.000000
    8 -0.000001 -0.273071 1.043217 0.000000 0.000000 0.000000
    9 0.583509 -1.197273 0.185379 -0.077883 -0.765974 -0.796215
    10 1.535925 0.010247 0.005009 -0.076524 0.315733 -1.052207
    11 1.100770 0.004527 -0.010675 -0.000003 0.000010 -0.670682
    12 0.957766 -2.746777 -0.090301 0.183155 -0.052115 0.117110
    13 -0.033419 -1.397129 -0.011256 -0.767903 -0.016119 -0.103404
    14 -0.022362 -0.957434 0.018782 -0.826243 0.000000 0.000000
    15 0.250028 -2.820664 -0.238397 -0.282644 0.057278 -0.106682
    16 -0.049759 -1.680546 0.100479 -2.012741 0.000000 -0.000002
    17 -0.034141 -1.148309 0.084778 -1.037448 0.000000 0.000000
    18 -0.488517 -2.755600 -0.228262 -0.195772 0.054591 -0.144142
    19 0.039889 -1.479791 0.029853 -2.042721 0.000000 0.000001
    20 0.028786 -1.075733 -0.023111 -0.841787 0.000000 0.000000
    21 -1.180679 -2.507216 -0.193861 0.008684 0.244081 -0.056771
    22 -0.024966 -1.123935 0.017594 -1.466568 0.000000 0.000001
    23 -0.020058 -0.890966 0.010091 -1.308722 0.000000 0.000000
    24 0.120152 -0.050267 -0.054488 0.287569 3.110905 1.561085
    25 1.304080 8.804363 -0.126173 1.605129 -1.493046 -0.161010
    26 -0.029120 -7.370090 -12.101763 -1.436290 -5.448407 -0.627118
    27 0.096946 -8.450419 -0.009364 0.093061 -0.275640 0.236387
    28 -0.587378 -1.261647 0.201457 0.105379 -0.619415 -2.838878
    29 1.522835 0.058680 0.016851 -0.008552 0.057547 0.424986
    30 1.117948 0.048425 -0.005765 -0.000015 -0.000006 0.429058
    31 -0.963867 -2.785143 -0.085346 0.230931 0.199968 -0.171434
    32 0.028478 -1.403069 0.006271 -1.008232 0.000000 0.000000
    33 0.021414 -0.957782 0.020047 -0.332263 0.000000 0.000000
    34 -0.249534 -2.846964 -0.174215 -0.001189 0.000966 -0.025450
    35 0.043234 -1.683941 0.096014 -2.021613 -0.002966 -0.000335
    36 0.031729 -1.160830 0.058836 -1.017645 0.000007 0.000007
    37 0.447951 -2.798983 -0.200442 -0.016224 0.053277 0.116304
    38 -0.032910 -1.480207 0.004936 -1.783744 0.000000 0.000002
    39 -0.027022 -1.076920 -0.020212 -0.898878 0.000000 0.000000
    40 1.164474 -2.543939 -0.170327 -0.365257 -0.001010 -0.002103
    41 0.024033 -1.129040 0.017806 -1.210733 -0.100239 0.187008
    42 0.014896 -0.883991 -0.019845 -0.909612 0.074161 0.017318
    43 -0.139399 -0.111701 0.014397 0.285534 -0.040597 1.576226
    44 -1.441116 8.792395 -0.163593 -1.643144 1.483711 0.062639
  time 24
    0 7.113683 -10.208568 -14.689385 1.555775 -2.966803 -1.529497
    1 -0.071919 -8.498734 -0.104136 -0.110569 0.404305 -0.366073
    2 0.270743 -2.981032 0.317115 0.554701 1.379980 0.480550
    3 -0.000001 -1.808652 1.012938 0.000000 0.000000 0.000000
    4 -0.115836 1.063685 1.652800 0.000000 0.000000 0.000000
    5 0.000000 2.290612 1.335354 0.000000 0.000000 0.000000
    6 0.000000 0.706664 0.002903 0.000000 0.000000 0.000000
    7 -0.194965 1.732989 -0.758107 0.000000 0.000000 0.000000
    8 -0.000001 -0.273071 1.043217 0.000000 0.000000 0.000000
    9 0.583509 -1.197273 0.185379 -0.077883 -0.765986 -0.796215
    10 1.535925 0.010247 0.005009 -0.076524 0.315733 -1.052207
    11 1.100770 0.004527 -0.010675 -0.000003 0.000010 -0.670682
    12 0.957766 -2.746777 -0.090301 0.183061 -0.052115 0.117110
    13 -0.033419 -1.397129 -0.011256 -0.767863 -0.016119 -0.103404
    14 -0.022362 -0.957434 0.018782 -0.825924 0.000000 0.000000
    15 0.250028 -2.820664 -0.238397 -0.282644 0.057278 -0.106682
    16 -0.049759 -1.680546 0.100479 -2.012741 0.000000 -0.000002
    17 -0.034141 -1.148309 0.084778 -1.037448 0.000000 0.000000
    18 -0.488517 -2.755600 -0.228262 -0.195772 0.054591 -0.144142
    19 0.039889 -1.479791 0.029853 -2.042721 0.000000 0.000001
    20 0.028786 -1.075733 -0.023111 -0.841787 0.000000 0.000000
    21 -1.180679 -2.507216 -0.193861 0.008684 0.244081 -0.056771
    22 -0.024966 -1.123935 0.017594 -1.466568 0.000000 0.000001
    23 -0.020058 -0.890966 0.010091 -1.308722 0.000000 0.000000
    24 0.120152 -0.050267 -0.054488 0.287569 3.110905 1.561085
    25 1.304080 8.804363 -0.126173 1.605129 -1.493046 -0.161010
    26 -0.033026 -7.366184 -12.105669 -1.435974 -5.448319 -0.627118
    27 0.096946 -8.450419 -0.009364 0.095064 -0.274897 0.237300
    28 -0.587378 -1.261647 0.201457 0.105379 -0.619415 -2.838878
    29 1.522835 0.058680 0.016851 -0.008552 0.057547 0.424986
    30 1.117948 0.048425 -0.005765 -0.000015 -0.000006 0.429058
    31 -0.963867 -2.785143 -0.085346 0.230931 0.199968 -0.171434
    32 0.028478 -1.403069 0.006271 -1.008232 0.000000 0.000000
    33 0.021414 -0.957782 0.020047 -0.332263 0.000000 0.000000
    34 -0.249534 -2.846964 -0.174215 -0.001189 0.000966 -0.025450
    35 0.043234 -1.683941 0.096014 -2.021613 -0.002966 -0.000335
    36 0.031729 -1.160830 0.058836 -1.017645 0.000007 0.000007
    37 0.447951 -2.798983 -0.200442 -0.016224 0.053277 0.116304
    38 -0.032910 -1.480207 0.004936 -1.783744 0.000000 0.000002
    39 -0.027022 -1.076920 -0.020212 -0.898878 0.000000 0.000000
    40 1.164474 -2.543939 -0.170327 -0.365257 -0.001010 -0.002103
    41 0.024033 -1.129040 0.017806 -1.210733 -0.100239 0.187008
    42 0.014896 -0.883991 -0.019845 -0.909612 0.074161 0.017318
    43 -0.139399 -0.111701 0.014397 0.285534 -0.040597 1.576226
    44 -1.441116 8.792395 -0.163593 -1.643144 1.483711 0.062639
  time 25
    0 7.113683 -10.208568 -14.689385 1.555702 -2.965658 -1.529497
    1 -0.071919 -8.498734 -0.104136 -0.110949 0.407236 -0.367017
    2 0.270743 -2.981032 0.317115 0.554701 1.379980 0.480550
    3 -0.000001 -1.808652 1.012938 0.000000 0.000000 0.000000
    4 -0.115836 1.063685 1.652800 0.000000 0.000000 0.000000
    5 0.000000 2.290612 1.335354 0.000000 0.000000 0.000000
    6 0.000000 0.706664 0.002903 0.000000 0.000000 0.000000
    7 -0.194965 1.732989 -0.758107 0.000000 0.000000 0.000000
    8 -0.000001 -0.273071 1.043217 0.000000 0.000000 0.000000
    9 0.583509 -1.197273 0.185379 -0.077883 -0.765986 -0.796215
    10 1.535925 0.010247 0.005009 -0.076524 0.315733 -1.052207
    11 1.100770 0.004527 -0.010675 -0.000003 0.000010 -0.670682
    12 0.957766 -2.746777 -0.090301 0.182905 -0.052115 0.117110
    13 -0.033419 -1.397129 -0.011256 -0.767700 -0.016119 -0.103404
    14 -0.022362 -0.957434 0.018782 -0.824045 0.000000 0.000000
    15 0.250028 -2.820664 -0.238397 -0.282644 0.057278 -0.106682
    16 -0.049759 -1.680546 0.100479 -2.012741 0.000000 -0.000002
    17 -0.034141 -1.148309 0.084778 -1.037448 0.000000 0.000000
    18 -0.488517 -2.755600 -0.228262 -0.195772 0.054591 -0.144142
    19 0.039889 -1.479791 0.029853 -2.042721 0.000000 0.000001
    20 0.028786 -1.075733 -0.023111 -0.841787 0.000000 0.000000
    21 -1.180679 -2.507216 -0.193861 0.008684 0.244081 -0.056771
    22 -0.024966 -1.123935 0.017594 -1.466568 0.000000 0.000001
    23 -0.020058 -0.890966 0.010091 -1.308722 0.000000 0.000000
    24 0.120152 -0.050267 -0.054488 0.287569 3.110905 1.561085
    25 1.304080 8.804363 -0.126173 1.605129 -1.493046 -0.161010
    26 -0.036933 -7.358371 -12.105669 -1.435596 -5.448142 -0.627118
    27 0.096946 -8.450419 -0.009364 0.097561 -0.273973 0.238441
    28 -0.587378 -1.261647 0.201457 0.105379 -0.619415 -2.838878
    29 1.522835 0.058680 0.016851 -0.008552 0.057547 0.424986
    30 1.117948 0.048425 -0.005765 -0.000015 -0.000006 0.429058
    31 -0.963867 -2.785143 -0.085346 0.230931 0.199968 -0.171434
    32 0.028478 -1.403069 0.006271 -1.008232 0.000000 0.000000
    33 0.021414 -0.957782 0.020047 -0.332263 0.000000 0.000000
    34 -0.249534 -2.846964 -0.174215 -0.001189 0.000966 -0.025450
    35 0.043234 -1.683941 0.096014 -2.021613 -0.002966 -0.000335
    36 0.031729 -1.160830 0.058836 -1.017645 0.000007 0.000007
    37 0.447951 -2.798983 -0.200442 -0.016224 0.053277 0.116304
    38 -0.032910 -1.480207 0.004936 -1.783744 0.000000 0.000002
    39 -0.027022 -1.076920 -0.020212 -0.898878 0.000000 0.000000
    40 1.164474 -2.543939 -0.170327 -0.365257 -0.001010 -0.002103
    41 0.024033 -1.129040 0.017806 -1.210733 -0.100239 0.187008
    42 0.014896 -0.883991 -0.019845 -0.909612 0.074161 0.017318
    43 -0.139399 -0.111701 0.014397 0.285534 -0.040597 1.576226
    44 -1.441116 8.792395 -0.163593 -1.643144 1.483711 0.062639
  time 26
    0 7.113683 -10.208568 -14.689385 1.555702 -2.964417 -1.529497
    1 -0.071919 -8.498734 -0.104136 -0.111383 0.410546 -0.368086
    2 0.270743 -2.981032 0.317115 0.554701 1.379980 0.480550
    3 -0.000001 -1.808652 1.012938 0.000000 0.000000 0.000000
    4 -0.115836 1.063685 1.652800 0.000000 0.000000 0.000000
    5 0.000000 2.290612 1.335354 0.000000 0.000000 0.000000
    6 0.000000 0.706664 0.002903 0.000000 0.000000 0.000000
    7 -0.194965 1.732989 -0.758107 0.000000 0.000000 0.000000
    8 -0.000001 -0.273071 1.043217 0.000000 0.000000 0.000000
    9 0.583509 -1.197273 0.185379 -0.077883 -0.765986 -0.796215
    10 1.535925 0.010247 0.005009 -0.076524 0.315733 -1.052207
    11 1.100770 0.004527 -0.010675 -0.000003 0.000010 -0.670682
    12 0.957766 -2.746777 -0.090301 0.182734 -0.052115 0.117110
    13 -0.033419 -1.397129 -0.011256 -0.767416 -0.016119 -0.103404
    14 -0.022362 -0.957434 0.018782 -0.821147 0.000000 0.000000
    15 0.250028 -2.820664 -0.238397 -0.282644 0.057278 -0.106682
    16 -0.049759 -1.680546 0.100479 -2.012741 0.000000 -0.000002
    17 -0.034141 -1.148309 0.084778 -1.037448 0.000000 0.000000
    18 -0.488517 -2.755600 -0.228262 -0.195772 0.054591 -0.144142
    19 0.039889 -1.479791 0.029853 -2.042721 0.000000 0.000001
    20 0.028786 -1.075733 -0.023111 -0.841787 0.000000 0.000000
    21 -1.180679 -2.507216 -0.193861 0.008684 0.244081 -0.056771
    22 -0.024966 -1.123935 0.017594 -1.466568 0.000000 0.000001
    23 -0.020058 -0.890966 0.010091 -1.308722 0.000000 0.000000
    24 0.120152 -0.050267 -0.054488 0.287569 3.110905 1.561085
    25 1.304080 8.804363 -0.126173 1.605129 -1.493046 -0.161010
    26 -0.040839 -7.350558 -12.109576 -1.435091 -5.448053 -0.627118
    27 0.096946 -8.450419 -0.009364 0.100422 -0.272936 0.239725
    28 -0.587378 -1.261647 0.201457 0.105379 -0.619415 -2.838878
    29 1.522835 0.058680 0.016851 -0.008552 0.057547 0.424986
    30 1.117948 0.048425 -0.005765 -0.000015 -0.000006 0.429058
    31 -0.963867 -2.785143 -0.085346 0.230931 0.199968 -0.171434
    32 0.028478 -1.403069 0.006271 -1.008232 0.000000 0.000000
    33 0.021414 -0.957782 0.020047 -0.332263 0.000000 0.000000
    34 -0.249534 -2.846964 -0.174215 -0.001189 0.000966 -0.025450
    35 0.043234 -1.683941 0.096014 -2.021613 -0.002966 -0.000335
    36 0.031729 -1.160830 0.058836 -1.017645 0.000007 0.000007
    37 0.447951 -2.798983 -0.200442 -0.016224 0.053277 0.116304
    38 -0.032910 -1.480207 0.004936 -1.783744 0.000000 0.000002
    39 -0.027022 -1.076920 -0.020212 -0.898878 0.000000 0.000000
    40 1.164474 -2.543939 -0.170327 -0.365257 -0.001010 -0.002103
    41 0.024033 -1.129040 0.017806 -1.210733 -0.100239 0.187008
    42 0.014896 -0.883991 -0.019845 -0.909612 0.074161 0.017318
    43 -0.139399 -0.111701 0.014397 0.285534 -0.040597 1.576226
    44 -1.441116 8.792395 -0.163593 -1.643144 1.483711 0.062639
  time 27
    0 7.113683 -10.208568 -14.689385 1.555629 -2.962985 -1.529497
    1 -0.071919 -8.498734 -0.104136 -0.111857 0.414059 -0.369204
    2 0.270743 -2.981032 0.317115 0.554701 1.379980 0.480550
    3 -0.000001 -1.808652 1.012938 0.000000 0.000000 0.000000
    4 -0.115836 1.063685 1.652800 0.000000 0.000000 0.000000
    5 0.000000 2.290612 1.335354 0.000000 0.000000 0.000000
    6 0.000000 0.706664 0.002903 0.000000 0.000000 0.000000
    7 -0.194965 1.732989 -0.758107 0.000000 0.000000 0.000000
    8 -0.000001 -0.273071 1.043217 0.000000 0.000000 0.000000
    9 0.583509 -1.197273 0.185379 -0.077883 -0.765986 -0.796215
    10 1.535925 0.010247 0.005009 -0.076524 0.315733 -1.052207
    11 1.100770 0.004527 -0.010675 -0.000003 0.000010 -0.670682
    12 0.957766 -2.746777 -0.090301 0.182562 -0.052115 0.117110
    13 -0.033419 -1.397129 -0.011256 -0.767091 -0.016119 -0.103404
    14 -0.022362 -0.957434 0.018782 -0.817835 0.000000 0.000000
    15 0.250028 -2.820664 -0.238397 -0.282644 0.057278 -0.106682
    16 -0.049759 -1.680546 0.100479 -2.012741 0.000000 -0.000002
    17 -0.034141 -1.148309 0.084778 -1.037448 0.000000 0.000000
    18 -0.488517 -2.755600 -0.228262 -0.195772 0.054591 -0.144142
    19 0.039889 -1.479791 0.029853 -2.042721 0.000000 0.000001
    20 0.028786 -1.075733 -0.023111 -0.841787 0.000000 0.000000
    21 -1.180679 -2.507216 -0.193861 0.008684 0.244081 -0.056771
    22 -0.024966 -1.123935 0.017594 -1.466568 0.000000 0.000001
    23 -0.020058 -0.890966 0.010091 -1.308722 0.000000 0.000000
    24 0.120152 -0.050267 -0.054488 0.287569 3.110905 1.561085
    25 1.304080 8.804363 -0.126173 1.605129 -1.493046 -0.161010
    26 -0.044746 -7.346652 -12.113482 -1.434587 -5.447965 -0.627118
    27 0.096946 -8.450419 -0.009364 0.103439 -0.271854 0.241094
    28 -0.587378 -1.261647 0.201457 0.105379 -0.619415 -2.838878
    29 1.522835 0.058680 0.016851 -0.008552 0.057547 0.424986
    30 1.117948 0.048425 -0.005765 -0.000015 -0.000006 0.429058
    31 -0.963867 -2.785143 -0.085346 0.230931 0.199968 -0.171434
    32 0.028478 -1.403069 0.006271 -1.008232 0.000000 0.000000
    33 0.021414 -0.957782 0.020047 -0.332263 0.000000 0.000000
    34 -0.249534 -2.846964 -0.174215 -0.001189 0.000966 -0.025450
    35 0.043234 -1.683941 0.096014 -2.021613 -0.002966 -0.000335
    36 0.031729 -1.160830 0.058836 -1.017645 0.000007 0.000007
    37 0.447951 -2.798983 -0.200442 -0.016224 0.053277 0.116304
    38 -0.032910 -1.480207 0.004936 -1.783744 0.000000 0.000002
    39 -0.027022 -1.076920 -0.020212 -0.898878 0.000000 0.000000
    40 1.164474 -2.543939 -0.170327 -0.365257 -0.001010 -0.002103
    41 0.024033 -1.129040 0.017806 -1.210733 -0.100239 0.187008
    42 0.014896 -0.883991 -0.019845 -0.909612 0.074161 0.017318
    43 -0.139399 -0.111701 0.014397 0.285534 -0.040597 1.576226
    44 -1.441116 8.792395 -0.163593 -1.643144 1.483711 0.062639
  time 28
    0 7.113683 -10.208568 -14.689385 1.555556 -2.961648 -1.529497
    1 -0.071919 -8.498734 -0.104136 -0.112332 0.417546 -0.370347
    2 0.270743 -2.981032 0.317115 0.554701 1.379980 0.480550
    3 -0.000001 -1.808652 1.012938 0.000000 0.000000 0.000000
    4 -0.115836 1.063685 1.652800 0.000000 0.000000 0.000000
    5 0.000000 2.290612 1.335354 0.000000 0.000000 0.000000
    6 0.000000 0.706664 0.002903 0.000000 0.000000 0.000000
    7 -0.194965 1.732989 -0.758107 0.000000 0.000000 0.000000
    8 -0.000001 -0.273071 1.043217 0.000000 0.000000 0.000000
    9 0.583509 -1.197273 0.185379 -0.077883 -0.765986 -0.796215
    10 1.535925 0.010247 0.005009 -0.076524 0.315733 -1.052207
    11 1.100770 0.004527 -0.010675 -0.000003 0.000010 -0.670682
    12 0.957766 -2.746777 -0.090301 0.182422 -0.052115 0.117110
    13 -0.033419 -1.397129 -0.011256 -0.766766 -0.016119 -0.103404
    14 -0.022362 -0.957434 0.018782 -0.814746 0.000000 0.000000
    15 0.250028 -2.820664 -0.238397 -0.282644 0.057278 -0.106682
    16 -0.049759 -1.680546 0.100479 -2.012741 0.000000 -0.000002
    17 -0.034141 -1.148309 0.084778 -1.037448 0.000000 0.000000
    18 -0.488517 -2.755600 -0.228262 -0.195772 0.054591 -0.144142
    19 0.039889 -1.479791 0.029853 -2.042721 0.000000 0.000001
    20 0.028786 -1.075733 -0.023111 -0.841787 0.000000 0.000000
    21 -1.180679 -2.507216 -0.193861 0.008684 0.244081 -0.056771
    22 -0.024966 -1.123935 0.017594 -1.466568 0.000000 0.000001
    23 -0.020058 -0.890966 0.010091 -1.308722 0.000000 0.000000
    24 0.120152 -0.050267 -0.054488 0.287569 3.110905 1.561085
    25 1.304080 8.804363 -0.126173 1.605129 -1.493046 -0.161010
    26 -0.048652 -7.338839 -12.113482 -1.434082 -5.447787 -0.627023
    27 0.096946 -8.450419 -0.009364 0.106457 -0.270750 0.242492
    28 -0.587378 -1.261647 0.201457 0.105379 -0.619415 -2.838878
    29 1.522835 0.058680 0.016851 -0.008552 0.057547 0.424986
    30 1.117948 0.048425 -0.005765 -0.000015 -0.000006 0.429058
    31 -0.963867 -2.785143 -0.085346 0.230931 0.199968 -0.171434
    32 0.028478 -1.403069 0.006271 -1.008232 0.000000 0.000000
    33 0.021414 -0.957782 0.020047 -0.332263 0.000000 0.000000
    34 -0.249534 -2.846964 -0.174215 -0.001189 0.000966 -0.025450
    35 0.043234 -1.683941 0.096014 -2.021613 -0.002966 -0.000335
    36 0.031729 -1.160830 0.058836 -1.017645 0.000007 0.000007
    37 0.447951 -2.798983 -0.200442 -0.016224 0.053277 0.116304
    38 -0.032910 -1.480207 0.004936 -1.783744 0.000000 0.000002
    39 -0.027022 -1.076920 -0.020212 -0.898878 0.000000 0.000000
    40 1.164474 -2.543939 -0.170327 -0.365257 -0.001010 -0.002103
    41 0.024033 -1.129040 0.017806 -1.210733 -0.100239 0.187008
    42 0.014896 -0.883991 -0.019845 -0.909612 0.074161 0.017318
    43 -0.139399 -0.111701 0.014397 0.285534 -0.040597 1.576226
    44 -1.441116 8.792395 -0.163593 -1.643144 1.483711 0.062639
  time 29
    0 7.113683 -10.208568 -14.689385 1.555483 -2.960407 -1.529497
    1 -0.071919 -8.498734 -0.104136 -0.112779 0.420856 -0.371440
    2 0.270743 -2.981032 0.317115 0.554701 1.379980 0.480550
    3 -0.000001 -1.808652 1.012938 0.000000 0.000000 0.000000
    4 -0.115836 1.063685 1.652800 0.000000 0.000000 0.000000
    5 0.000000 2.290612 1.335354 0.000000 0.000000 0.000000
    6 0.000000 0.706664 0.002903 0.000000 0.000000 0.000000
    7 -0.194965 1.732989 -0.758107 0.000000 0.000000 0.000000
    8 -0.000001 -0.273071 1.043217 0.000000 0.000000 0.000000
    9 0.583509 -1.197273 0.185379 -0.077883 -0.765986 -0.796215
    10 1.535925 0.010247 0.005009 -0.076524 0.315733 -1.052207
    11 1.100770 0.004527 -0.010675 -0.000003 0.000010 -0.670682
    12 0.957766 -2.746777 -0.090301 0.182313 -0.052115 0.117110
    13 -0.033419 -1.397129 -0.011256 -0.766563 -0.016119 -0.103392
    14 -0.022362 -0.957434 0.018782 -0.812454 0.000000 0.000000
    15 0.250028 -2.820664 -0.238397 -0.282644 0.057278 -0.106682
    16 -0.049759 -1.680546 0.100479 -2.012741 0.000000 -0.000002
    17 -0.034141 -1.148309 0.084778 -1.037448 0.000000 0.000000
    18 -0.488517 -2.755600 -0.228262 -0.195772 0.054591 -0.144142
    19 0.039889 -1.479791 0.029853 -2.042721 0.000000 0.000001
    20 0.028786 -1.075733 -0.023111 -0.841787 0.000000 0.000000
    21 -1.180679 -2.507216 -0.193861 0.008684 0.244081 -0.056771
    22 -0.024966 -1.123935 0.017594 -1.466568 0.000000 0.000001
    23 -0.020058 -0.890966 0.010091 -1.308722 0.000000 0.000000
    24 0.120152 -0.050267 -0.054488 0.287569 3.110905 1.561085
    25 1.304080 8.804363 -0.126173 1.605129 -1.493046 -0.161010
    26 -0.048652 -7.334933 -12.117388 -1.433641 -5.447699 -0.627023
    27 0.096946 -8.450419 -0.009364 0.109292 -0.269713 0.243776
    28 -0.587378 -1.261647 0.201457 0.105379 -0.619415 -2.838878
    29 1.522835 0.058680 0.016851 -0.008552 0.057547 0.424986
    30 1.117948 0.048425 -0.005765 -0.000015 -0.000006 0.429058
    31 -0.963867 -2.785143 -0.085346 0.230931 0.199968 -0.171434
    32 0.028478 -1.403069 0.006271 -1.008232 0.000000 0.000000
    33 0.021414 -0.957782 0.020047 -0.332263 0.000000 0.000000
    34 -0.249534 -2.846964 -0.174215 -0.001189 0.000966 -0.025450
    35 0.043234 -1.683941 0.096014 -2.021613 -0.002966 -0.000335
    36 0.031729 -1.160830 0.058836 -1.017645 0.000007 0.000007
    37 0.447951 -2.798983 -0.200442 -0.016224 0.053277 0.116304
    38 -0.032910 -1.480207 0.004936 -1.783744 0.000000 0.000002
    39 -0.027022 -1.076920 -0.020212 -0.898878 0.000000 0.000000
    40 1.164474 -2.543939 -0.170327 -0.365257 -0.001010 -0.002103
    41 0.024033 -1.129040 0.017806 -1.210733 -0.100239 0.187008
    42 0.014896 -0.883991 -0.019845 -0.909612 0.074161 0.017318
    43 -0.139399 -0.111701 0.014397 0.285534 -0.040597 1.576226
    44 -1.441116 8.792395 -0.163593 -1.643144 1.483711 0.062639
  time 30
    0 7.113683 -10.208568 -14.689385 1.555483 -2.959262 -1.529497
    1 -0.071919 -8.498734 -0.104136 -0.113186 0.423787 -0.372384
    2 0.270743 -2.981032 0.317115 0.554701 1.379980 0.480550
    3 -0.000001 -1.808652 1.012938 0.000000 0.000000 0.000000
    4 -0.115836 1.063685 1.652800 0.000000 0.000000 0.000000
    5 0.000000 2.290612 1.335354 0.000000 0.000000 0.000000
    6 0.000000 0.706664 0.002903 0.000000 0.000000 0.000000
    7 -0.194965 1.732989 -0.758107 0.000000 0.000000 0.000000
    8 -0.000001 -0.273071 1.043217 0.000000 0.000000 0.000000
    9 0.583509 -1.197273 0.185379 -0.077883 -0.765986 -0.796215
    10 1.535925 0.010247 0.005009 -0.076524 0.315733 -1.052207
    11 1.100770 0.004527 -0.010675 -0.000003 0.000010 -0.670682
    12 0.957766 -2.746777 -0.090301 0.182281 -0.052115 0.117110
    13 -0.033419 -1.397129 -0.011256 -0.766482 -0.016119 -0.103392
    14 -0.022362 -0.957434 0.018782 -0.811562 0.000000 0.000000
    15 0.250028 -2.820664 -0.238397 -0.282644 0.057278 -0.106682
    16 -0.049759 -1.680546 0.100479 -2.012741 0.000000 -0.000002
    17 -0.034141 -1.148309 0.084778 -1.037448 0.000000 0.000000
    18 -0.488517 -2.755600 -0.228262 -0.195772 0.054591 -0.144142
    19 0.039889 -1.479791 0.029853 -2.042721 0.000000 0.000001
    20 0.028786 -1.075733 -0.023111 -0.841787 0.000000 0.000000
    21 -1.180679 -2.507216 -0.193861 0.008684 0.244081 -0.056771
    22 -0.024966 -1.123935 0.017594 -1.466568 0.000000 0.000001
    23 -0.020058 -0.890966 0.010091 -1.308722 0.000000 0.000000
    24 0.120152 -0.050267 -0.054488 0.287569 3.110905 1.561085
    25 1.304080 8.804363 -0.126173 1.605129 -1.493046 -0.161010
    26 -0.048652 -7.334933 -12.117388 -1.433200 -5.447522 -0.627023
    27 0.096946 -8.450419 -0.009364 0.111815 -0.268812 0.244946
    28 -0.587378 -1.261647 0.201457 0.105379 -0.619415 -2.838878
    29 1.522835 0.058680 0.016851 -0.008552 0.057547 0.424986
    30 1.117948 0.048425 -0.005765 -0.000015 -0.000006 0.429058
    31 -0.963867 -2.785143 -0.085346 0.230931 0.199968 -0.171434
    32 0.028478 -1.403069 0.006271 -1.008232 0.000000 0.000000
    33 0.021414 -0.957782 0.020047 -0.332263 0.000000 0.000000
    34 -0.249534 -2.846964 -0.174215 -0.001189 0.000966 -0.025450
    35 0.043234 -1.683941 0.096014 -2.021613 -0.002966 -0.000335
    36 0.031729 -1.160830 0.058836 -1.017645 0.000007 0.000007
    37 0.447951 -2.798983 -0.200442 -0.016224 0.053277 0.116304
    38 -0.032910 -1.480207 0.004936 -1.783744 0.000000 0.000002
    39 -0.027022 -1.076920 -0.020212 -0.898878 0.000000 0.000000
    40 1.164474 -2.543939 -0.170327 -0.365257 -0.001010 -0.002103
    41 0.024033 -1.129040 0.017806 -1.210733 -0.100239 0.187008
    42 0.014896 -0.883991 -0.019845 -0.909612 0.074161 0.017318
    43 -0.139399 -0.111701 0.014397 0.285534 -0.040597 1.576226
    44 -1.441116 8.792395 -0.163593 -1.643144 1.483711 0.062639
end
