// Created by Crowbar 0.49.0.0

$modelname "weapons/tfa_cso/c_xm8s.mdl"

$Include "csonline_gmod.qci"

$bodygroup "weapon"
{
	studio "v_xm8_f_xm8_template"
}

$CDMaterials "models\weapons\tfa_cso\xm8\"

$attachment 0 "Bone_Bullet_case" 0.196 12.54 -0.0095
//$attachment 1 "Bone_Bullet_case" 0.196 16.639999 -0.0095

$sequence "Carbine_xm8_idle" {
	"v_xm8_anims\Carbine_xm8_idle"
	fps 15
	loop
	activity "ACT_VM_IDLE" 1
	snap
}
$sequence "Carbine_xm8_reload" {
	"v_xm8_anims\Carbine_xm8_reload"
	{ event 5004 11 "XM8.ClipOut" }
	{ event 5004 36 "XM8.ClipIn" }
	{ event 5004 61 "XM8.ClipOn" }
	{ event 5004 81 "XM8.Draw" }
	fps 30
	activity "ACT_VM_RELOAD" 1
	snap
}
$sequence "Carbine_xm8_draw" {
	"v_xm8_anims\Carbine_xm8_draw"
	{ event 5004 9 "XM8.Draw" }
	fps 30
	activity "ACT_VM_DRAW" 1
	snap
}
$sequence "Carbine_xm8_shoot1" {
	"v_xm8_anims\Carbine_xm8_shoot1"
	{ event 5001 0 "33" }
	fps 16
	activity "ACT_VM_PRIMARYATTACK" 1
	snap
}
$sequence "Carbine_xm8_shoot2" {
	"v_xm8_anims\Carbine_xm8_shoot2"
	{ event 5001 0 "33" }
	fps 16
	activity "ACT_VM_PRIMARYATTACK" 1
	snap
}
$sequence "Carbine_xm8_shoot3" {
	"v_xm8_anims\Carbine_xm8_shoot3"
	{ event 5001 0 "33" }
	fps 16
	activity "ACT_VM_PRIMARYATTACK" 1
	snap
}
$sequence "change_sharpshooter_xm8" {
	"v_xm8_anims\change_sharpshooter_xm8"
	{ event 5004 9 "XM8.Foley1" }
	{ event 5004 29 "XM8.Foley4" }
	{ event 5004 54 "XM8.Foley2" }
	{ event 5004 78 "XM8.Foley3" }
	{ event 5004 88 "XM8.Foley5" }
	{ event 5004 124 "XM8.Foley2" }
	{ event 5004 153 "XM8.Foley6" }
	fps 30
	activity "ACT_VM_ATTACH_SILENCER" 1
	snap
}
$sequence "Sharpshooter_xm8_idle" {
	"v_xm8_anims\Sharpshooter_xm8_idle"
	fps 15
	loop
	activity "ACT_VM_IDLE_SILENCED" 1
	snap
}
$sequence "Sharpshooter_xm8_reload" {
	"v_xm8_anims\Sharpshooter_xm8_reload"
	{ event 5004 11 "XM8.ClipOut" }
	{ event 5004 36 "XM8.ClipIn" }
	{ event 5004 61 "XM8.ClipOn" }
	{ event 5004 81 "XM8.Draw" }
	fps 30
	activity "ACT_VM_RELOAD_SILENCED" 1
	snap
}
$sequence "Sharpshooter_xm8_draw" {
	"v_xm8_anims\Sharpshooter_xm8_draw"
	{ event 5004 9 "XM8.Draw" }
	fps 30
	activity "ACT_VM_DRAW_SILENCED" 1
	snap
}
$sequence "Sharpshooter_xm8_shoot1" {
	"v_xm8_anims\Sharpshooter_xm8_shoot1"
	{ event 5011 0 "31" }
	fps 30
	activity "ACT_VM_PRIMARYATTACK_SILENCED" 1
	snap
}
$sequence "Sharpshooter_xm8_shoot2" {
	"v_xm8_anims\Sharpshooter_xm8_shoot2"
	{ event 5011 0 "31" }
	fps 30
	activity "ACT_VM_PRIMARYATTACK_SILENCED" 1
	snap
}
$sequence "Sharpshooter_xm8_shoot3" {
	"v_xm8_anims\Sharpshooter_xm8_shoot3"
	{ event 5011 0 "31" }
	fps 30
	activity "ACT_VM_PRIMARYATTACK_SILENCED" 1
	snap
}
$sequence "change_carbine_xm8" {
	"v_xm8_anims\change_carbine_xm8"
	{ event 5004 9 "XM8.Foley1" }
	{ event 5004 29 "XM8.Foley4" }
	{ event 5004 54 "XM8.Foley2" }
	{ event 5004 78 "XM8.Foley3" }
	{ event 5004 88 "XM8.Foley5" }
	{ event 5004 124 "XM8.Foley2" }
	{ event 5004 153 "XM8.Foley6" }
	fps 30
	activity "ACT_VM_DETACH_SILENCER" 1
	snap
}
