version 1
nodes
  0 "root_speargunex" -1
  1 "trigger" 0
  2 "roller_b_r" 0
  3 "roller_f_r" 2
  4 "roller_b_l" 0
  5 "roller_f_l" 4
  6 "bowstring_r" 0
  7 "bowstring_l" 0
  8 "cover_r" 0
  9 "cover_l" 0
  10 "spear" 0
  11 "battery" 0
  12 "Plane006" 0
  13 "Plane001" 0
  14 "Plane005" 0
  15 "Plane004" 0
  16 "Plane002" 0
  17 "Plane003" 0
  18 "Bip01 L Clavicle" -1
  19 "Bip01 L UpperArm" 18
  20 "Bip01 L Forearm" 19
  21 "Bip01 L Hand" 20
  22 "Bip01 L Finger0" 21
  23 "Bip01 L Finger01" 22
  24 "Bip01 L Finger02" 23
  25 "Bip01 L Finger0s002" 23
  26 "Bip01 L Finger0s001" 22
  27 "Bip01 L Finger1" 21
  28 "Bip01 L Finger11" 27
  29 "Bip01 L Finger12" 28
  30 "Bip01 L Finger0s004" 28
  31 "Bip01 L Finger0s003" 27
  32 "Bip01 L Finger2" 21
  33 "Bip01 L Finger21" 32
  34 "Bip01 L Finger22" 33
  35 "Bip01 L Finger0s006" 33
  36 "Bip01 L Finger0s005" 32
  37 "Bip01 L Finger3" 21
  38 "Bip01 L Finger31" 37
  39 "Bip01 L Finger32" 38
  40 "Bip01 L Finger0s008" 38
  41 "Bip01 L Finger0s007" 37
  42 "Bip01 L Finger4" 21
  43 "Bip01 L Finger41" 42
  44 "Bip01 L Finger42" 43
  45 "Bip01 L Finger0s010" 43
  46 "Bip01 L Finger0s009" 42
  47 "Bip01 L Finger4sr" 21
  48 "Bip01 L Finger3sr" 21
  49 "Bip01 L Finger2sr" 21
  50 "Bip01 L Finger1sr" 21
  51 "Bip01 L ForeTwist" 19
  52 "Bip01 L ForeTwist1" 51
  53 "Bip01 L ForeTwist2" 52
  54 "Bip01 L elbow" 19
  55 "Bip01 R Clavicle" -1
  56 "Bip01 R UpperArm" 55
  57 "Bip01 R Forearm" 56
  58 "Bip01 R Hand" 57
  59 "Bip01 R Finger0" 58
  60 "Bip01 R Finger01" 59
  61 "Bip01 R Finger02" 60
  62 "Bip01 R Finger01s" 60
  63 "Bip01 R Finger0s" 59
  64 "Bip01 R Finger1" 58
  65 "Bip01 R Finger11" 64
  66 "Bip01 R Finger12" 65
  67 "Bip01 R Finger11s" 65
  68 "Bip01 R Finger1s" 64
  69 "Bip01 R Finger2" 58
  70 "Bip01 R Finger21" 69
  71 "Bip01 R Finger22" 70
  72 "Bip01 R Finger21s" 70
  73 "Bip01 R Finger2s" 69
  74 "Bip01 R Finger3" 58
  75 "Bip01 R Finger31" 74
  76 "Bip01 R Finger32" 75
  77 "Bip01 R Finger31s" 75
  78 "Bip01 R Finger3s" 74
  79 "Bip01 R Finger4" 58
  80 "Bip01 R Finger41" 79
  81 "Bip01 R Finger42" 80
  82 "Bip01 R Finger41s" 80
  83 "Bip01 R Finger4s" 79
  84 "Bip01 R Finger1sr" 58
  85 "Bip01 R Finger2sr" 58
  86 "Bip01 R Finger3sr" 58
  87 "Bip01 R Finger4sr" 58
  88 "Bip01 R ForeTwist" 56
  89 "Bip01 R ForeTwist1" 88
  90 "Bip01 R ForeTwist2" 89
  91 "Bip01 R elbow" 56
  92 "Bone_Righthand" -1
  93 "Bone_Lefthand" -1
end
skeleton
  time 0
    0 0.000000 0.522196 2.163483 1.570797 -1.570796 0.000000
    1 -1.921795 -0.000001 -3.148129 -1.570796 3.135041 0.000000
    2 0.109512 3.419210 2.367603 -1.570796 0.000002 0.000000
    3 -0.000023 -12.044995 -0.950902 0.000000 0.000000 0.000000
    4 0.109515 -3.418999 2.367604 -1.570796 0.000002 0.000000
    5 -0.000023 -12.044996 0.951003 0.000000 0.000000 0.000000
    6 0.109514 1.127988 2.173097 -1.570796 0.000002 0.000000
    7 0.109514 -1.128000 2.173098 -1.570796 0.000002 0.000000
    8 1.858153 1.261792 0.522196 0.000000 0.000000 0.000000
    9 1.858154 -1.261999 0.522196 0.000000 0.000000 0.000000
    10 -4.899579 -0.000001 0.588955 -1.570796 -1.570796 0.000000
    11 1.435228 0.000000 -0.697306 -1.570796 -1.570796 0.000000
    12 -30.314703 4.937196 -30.859289 0.000363 0.001336 0.000922
    13 -30.314951 4.937264 -31.047424 0.000363 0.001337 0.000922
    14 -28.406202 4.944070 -44.943016 -0.000363 -0.001336 -3.140671
    15 -28.409132 4.944860 -47.137901 -0.001336 0.000363 -1.569875
    16 -28.411627 4.945535 -49.001286 0.000363 0.001336 0.000921
    17 -28.414122 4.946208 -50.865437 -0.001336 0.000363 -1.569875
    18 -2.488369 -1.615709 -0.029535 0.000000 0.000000 0.081720
    19 4.065896 0.000000 0.000000 -0.017643 -0.009144 0.094204
    20 7.451248 0.000000 0.000000 0.000000 0.000000 -0.168185
    21 9.021112 0.000000 0.000000 -1.605178 0.035696 -0.008403
    22 1.127069 0.260708 -0.809209 2.036304 1.129024 0.465327
    23 1.389874 0.000000 0.000000 0.000000 -0.031600 -0.103426
    24 0.975416 -0.000002 0.000000 0.000000 0.000000 -0.103426
    25 0.975416 0.000002 0.000000 0.000000 0.000000 -0.103426
    26 1.389874 0.000004 0.000000 0.000000 -0.031600 -0.103426
    27 2.570181 -0.048783 -0.726834 -0.122438 0.193603 -0.030101
    28 1.523346 0.000000 0.000000 0.000000 0.000000 -0.000404
    29 1.162989 0.000000 0.000000 0.000000 0.000000 -0.012474
    30 1.162987 -0.000004 0.000001 -0.000001 0.000000 -0.012474
    31 1.523352 0.000000 0.000002 -0.000001 0.000000 -0.000404
    32 2.716949 -0.032341 -0.020266 -0.244180 -0.002584 -0.000588
    33 1.738605 0.000000 0.000000 0.000000 0.000000 0.004058
    34 1.155094 0.000000 0.000000 0.000000 0.000000 -0.014569
    35 1.155090 0.000004 0.000000 0.000000 0.000000 -0.007284
    36 1.738605 0.000000 0.000000 0.000000 0.000000 0.002029
    37 2.666088 0.108882 0.673818 -0.236789 -0.252403 -0.025148
    38 1.520893 0.000000 0.000000 0.000000 0.000000 0.023490
    39 1.109413 0.000000 0.000000 0.000000 0.000000 0.012310
    40 1.109419 0.000004 -0.000003 0.000000 0.000000 0.012310
    41 1.520891 0.000004 0.000002 0.000000 0.000000 0.023490
    42 2.501347 0.300780 1.374819 -0.195345 -0.498418 0.056457
    43 1.197973 0.000000 0.000000 0.000000 0.000000 0.006466
    44 0.825676 0.000000 0.000001 0.000000 0.000000 0.043368
    45 0.825676 0.000008 0.000004 0.000000 0.000000 0.043368
    46 1.197975 0.000000 0.000000 0.000000 0.000000 0.006466
    47 2.501347 0.300780 1.374819 -0.150930 -0.399748 0.035860
    48 2.666096 0.108882 0.673818 -0.189090 -0.201561 -0.024927
    49 2.515263 -0.032223 -0.020787 -0.195344 -0.002057 -0.000521
    50 2.570501 -0.048788 -0.726891 -0.035940 0.058443 -0.006488
    51 7.451248 0.000000 0.000000 -0.008590 0.000000 -0.168185
    52 3.007038 0.000000 0.000000 -0.008590 0.000000 0.000000
    53 3.007038 0.000000 0.000000 -0.008590 0.000000 0.000000
    54 7.451247 0.000000 0.000000 0.000000 0.000000 -0.168185
    55 2.488373 -1.615702 -0.029535 0.000000 -3.141592 -0.081717
    56 4.065895 0.000000 0.000000 0.017643 0.009144 0.094204
    57 7.451247 0.000000 0.000000 0.000000 0.000000 -0.168185
    58 9.021112 0.000000 0.000000 1.605178 -0.035696 -0.008403
    59 1.127071 0.260708 0.809209 -2.036304 -1.129024 0.465327
    60 1.389876 0.000004 0.000000 0.000000 0.031600 -0.103426
    61 0.975416 -0.000002 0.000000 0.000000 0.000000 -0.103426
    62 0.975416 -0.000002 0.000000 0.000000 0.000000 -0.103426
    63 1.389876 0.000000 0.000000 0.000000 0.031600 -0.103425
    64 2.570181 -0.048783 0.726834 0.122438 -0.193603 -0.030101
    65 1.523348 0.000000 0.000000 0.000000 0.000000 -0.000404
    66 1.162989 0.000000 0.000000 0.000000 0.000000 -0.012474
    67 1.162987 0.000000 0.000001 0.000000 0.000000 -0.012474
    68 1.523348 0.000000 0.000000 0.000000 0.000000 -0.000404
    69 2.716949 -0.032341 0.020266 0.244180 0.002584 -0.000588
    70 1.738605 0.000000 0.000000 0.000000 0.000000 0.004058
    71 1.155094 0.000000 0.000000 0.000000 0.000000 -0.014568
    72 1.155092 0.000000 0.000000 0.000000 0.000000 -0.014568
    73 1.738605 0.000000 0.000000 0.000000 0.000000 0.004057
    74 2.666090 0.108882 -0.673818 0.236789 0.252403 -0.025148
    75 1.520895 0.000000 0.000000 0.000000 0.000000 0.023490
    76 1.109407 0.000000 0.000000 0.000000 0.000000 0.012310
    77 1.109404 0.000000 0.000000 0.000000 0.000000 0.012309
    78 1.520897 0.000000 0.000001 0.000001 0.000000 0.023490
    79 2.501347 0.300780 -1.374819 0.195345 0.498418 0.056457
    80 1.197973 0.000000 0.000000 0.000000 0.000000 0.006466
    81 0.825678 0.000000 0.000000 0.000000 0.000000 0.043368
    82 0.825678 0.000000 0.000001 0.000000 0.000000 0.043367
    83 1.197975 0.000000 0.000002 0.000000 0.000000 0.006466
    84 2.570181 -0.048783 0.726834 0.097220 -0.155201 -0.022100
    85 2.515263 -0.032223 0.020787 0.195344 0.002057 -0.000521
    86 2.666092 0.108882 -0.673818 0.189090 0.201562 -0.024927
    87 2.501348 0.300780 -1.374820 0.150930 0.399748 0.035860
    88 7.451247 0.000000 0.000000 0.008590 0.000000 -0.168185
    89 3.007038 0.000000 0.000000 0.008590 0.000000 0.000000
    90 3.007038 0.000000 0.000000 0.008590 0.000000 0.000000
    91 7.451247 0.000000 0.000000 0.000000 0.000000 -0.168184
    92 -17.920086 0.090112 0.146559 -1.520649 0.023591 -3.140378
    93 17.920084 0.090161 0.146559 -1.620943 0.023591 -0.001212
end
triangles
$0b_speargunex_chargefx3.bmp
  12 -7.424920 31.377237 -30.653509 0.039791 -0.114375 0.992640 0.000000 1.000000
  12 -2.434922 31.379051 -30.648912 0.039791 -0.114375 0.992640 0.000000 -0.001957
  12 -7.429519 31.383903 -25.663516 0.039791 -0.114375 0.992640 1.001957 1.000000
$0b_speargunex_chargefx3.bmp
  12 -7.429519 31.383903 -25.663516 0.039791 -0.114375 0.992640 1.001957 1.000000
  12 -2.434922 31.379051 -30.648912 0.039791 -0.114375 0.992640 0.000000 -0.001957
  12 -2.439521 31.385718 -25.658919 0.039791 -0.114375 0.992640 1.001957 -0.001957
$0b_speargunex_chargefx3.bmp
  17 -8.439464 51.391023 -22.763856 0.039791 -0.114375 0.992640 0.000000 1.000000
  17 -8.433023 51.381684 -29.753847 0.039791 -0.114375 0.992640 0.000000 -0.001957
  17 -1.449467 51.393565 -22.757418 0.039791 -0.114375 0.992640 1.001957 1.000000
$0b_speargunex_chargefx3.bmp
  17 -1.449467 51.393565 -22.757418 0.039791 -0.114375 0.992640 1.001957 1.000000
  17 -8.433023 51.381684 -29.753847 0.039791 -0.114375 0.992640 0.000000 -0.001957
  17 -1.443026 51.384226 -29.747409 0.039791 -0.114375 0.992640 1.001957 -0.001957
$0b_speargunex_chargefx1.bmp
  13 -9.922682 31.561118 -33.156057 0.039791 -0.114375 0.992640 0.000000 1.000000
  13 0.067313 31.564750 -33.146854 0.039791 -0.114375 0.992640 0.000000 -0.001957
  13 -9.931890 31.574474 -23.166070 0.039791 -0.114375 0.992640 1.001957 1.000000
$0b_speargunex_chargefx1.bmp
  13 -9.931890 31.574474 -23.166070 0.039791 -0.114375 0.992640 1.001957 1.000000
  13 0.067313 31.564750 -33.146854 0.039791 -0.114375 0.992640 0.000000 -0.001957
  13 0.058105 31.578107 -23.156867 0.039791 -0.114375 0.992640 1.001957 -0.001957
$0b_speargunex_chargefx2.bmp
  14 -1.946864 45.470294 -23.249959 0.039791 -0.114375 0.992640 0.000000 1.000000
  14 -7.936861 45.468116 -23.255475 0.039791 -0.114375 0.992640 0.000000 -0.001957
  14 -1.941345 45.462292 -29.239951 0.039791 -0.114375 0.992640 1.001957 1.000000
$0b_speargunex_chargefx2.bmp
  14 -1.941345 45.462292 -29.239951 0.039791 -0.114375 0.992640 1.001957 1.000000
  14 -7.936861 45.468116 -23.255475 0.039791 -0.114375 0.992640 0.000000 -0.001957
  14 -7.931342 45.460114 -29.245467 0.039791 -0.114375 0.992640 1.001957 -0.001957
$0b_speargunex_chargefx2.bmp
  15 -6.936732 47.662029 -24.257483 0.039791 -0.114375 0.992640 0.000000 1.000000
  15 -6.933055 47.656698 -28.247478 0.039791 -0.114375 0.992640 0.000000 -0.001957
  15 -2.946734 47.663480 -24.253808 0.039791 -0.114375 0.992640 1.001957 1.000000
$0b_speargunex_chargefx2.bmp
  15 -2.946734 47.663480 -24.253808 0.039791 -0.114375 0.992640 1.001957 1.000000
  15 -6.933055 47.656698 -28.247478 0.039791 -0.114375 0.992640 0.000000 -0.001957
  15 -2.943057 47.658149 -28.243803 0.039791 -0.114375 0.992640 1.001957 -0.001957
$0b_speargunex_chargefx2.bmp
  16 -7.932812 49.518383 -29.250890 0.039791 -0.114375 0.992640 0.000000 1.000000
  16 -1.942815 49.520561 -29.245378 0.039791 -0.114375 0.992640 0.000000 -0.001957
  16 -7.938327 49.526386 -23.260898 0.039791 -0.114375 0.992640 1.001957 1.000000
$0b_speargunex_chargefx2.bmp
  16 -7.938327 49.526386 -23.260898 0.039791 -0.114375 0.992640 1.001957 1.000000
  16 -1.942815 49.520561 -29.245378 0.039791 -0.114375 0.992640 0.000000 -0.001957
  16 -1.948330 49.528564 -23.255386 0.039791 -0.114375 0.992640 1.001957 -0.001957
end
