// Created by Crowbar 0.34.0.0

$ModelName "weapons/tfa_cso/w_qbarrel.mdl"

$BodyGroup "studio"
{
	studio "v_qbarrel_v_ref"
}

$collisionmodel "v_qbarrel_v_ref.smd"
{
	$mass 9
}

$CDMaterials "models\weapons\tfa_cso\qbarrel"

$attachment "0" "root" 0.00 -15.50 0.40 rotate -0 0 0

$Sequence "idle" {
	"anims\idle.smd"
	fps 30
}