// Created by Crowbar 0.58

$modelname "v_chainsawm.mdl"
$cd "."
$cdtexture "."
$cliptotextures
$scale 1.0

$bodygroup "hands"
{
	studio "v_chainsawm_CSO_Hand_Male_L_2009"
	studio "v_chainsawm_CSO_Hand_Female_L_2009"
}
$bodygroup "weapon"
{
	studio "v_chainsawm_v_ref"
}

$flags 0


$cbox 0 0 0 0 0 0

$bbox 0 0 0 0 0 0

$hbox 0 "root" -9.310107 -5.299614 -12.557959 9.310103 0 0
$hbox 0 "Bone01" -1.36 -8.498736 -1.73 1.62 8.762585 1.24
$hbox 0 "Bone_L_Upper" 0 -1.69 -2.69 8.98 1.68 1.69
$hbox 0 "Bone_Lefthand" -1.6 -3.09 -9.831116 12.590044 18.063139 0.92
$hbox 0 "Bone05" 0 -0.83 -0.75 1.535927 0.87 0.73
$hbox 0 "Bone06" 0 -0.66 -0.61 1.2 0.54 0.49
$hbox 0 "Bone04" -1.72 -8.450418 -1.67 1.31 8.839177 1.3
$hbox 0 "Bone_Righthand" -1.4 -3.14 -0.81 1.58 0 0.94
$hbox 0 "Bone27" 0 -0.87 -0.75 1.522835 0.85 0.73
$hbox 0 "Bone28" 0 -0.56 -0.61 1.23 0.63 0.48
$hbox 0 "Bone_R_Upper" 0 -1.63 -2.69 9.07 1.74 1.69
$hbox 0 "chainsaw_root" -4.46 -1.28 -3.99 8.24 31.860001 4.43

$sequence "idle1" {
	"v_chainsawm_anims\idle1"
	{ event 5004 1 "weapons/chainsaw_idle.wav" }
	fps 30
	loop
}
$sequence "draw" {
	"v_chainsawm_anims\draw"
	{ event 5004 8 "weapons/chainsaw_draw.wav" }
	fps 30
}
$sequence "draw_empty" {
	"v_chainsawm_anims\draw_empty"
	{ event 5004 11 "weapons/chainsaw_draw1.wav" }
	fps 30
}
$sequence "attack1_start" {
	"v_chainsawm_anims\attack1_start"
	{ event 5004 1 "weapons/chainsaw_attack1_start.wav" }
	fps 30
}
$sequence "attack1_loop" {
	"v_chainsawm_anims\attack1_loop"
	{ event 5004 1 "weapons/chainsaw_attack1_loop.wav" }
	fps 30
	loop
}
$sequence "attack1_end" {
	"v_chainsawm_anims\attack1_end"
	{ event 5004 1 "weapons/chainsaw_attack1_end.wav" }
	fps 30
}
$sequence "reload" {
	"v_chainsawm_anims\reload"
	{ event 5004 11 "weapons/chainsaw_reload.wav" }
	fps 30
}
$sequence "slash1" {
	"v_chainsawm_anims\slash1"
	{ event 5004 1 "weapons/chainsaw_slash1.wav" }
	fps 30
}
$sequence "slash2" {
	"v_chainsawm_anims\slash2"
	{ event 5004 2 "weapons/chainsaw_slash2.wav" }
	fps 30
}
$sequence "slash3" {
	"v_chainsawm_anims\slash3"
	{ event 5004 1 "weapons/chainsaw_slash3.wav" }
	fps 30
}
$sequence "slash4" {
	"v_chainsawm_anims\slash4"
	{ event 5004 2 "weapons/chainsaw_slash4.wav" }
	fps 30
}
$sequence "empty" {
	"v_chainsawm_anims\empty"
	fps 30
	loop
}
