version 1
nodes
  0 "Bone01" -1
  1 "Bone_Lefthand" 0
  2 "Bone_SL8" 1
  3 "Bone_Magazine" 2
  4 "Bone_Bullet_HoTo" 3
  5 "Bone_Nori" 2
  6 "Bone_Nori_T" 5
  7 "Bone_Trigger" 2
  8 "Bone_bullet_Cover" 2
  9 "Bone_Magazine_Trigger" 2
  10 "Bone04" -1
  11 "Bone_Righthand" 10
  12 "Bone27" 11
  13 "Bone28" 12
  14 "Bone29" 13
  15 "Bone31" 11
  16 "Bone32" 15
  17 "Bone33" 16
  18 "Bone35" 11
  19 "Bone36" 18
  20 "Bone37" 19
  21 "Bone39" 11
  22 "Bone40" 21
  23 "Bone41" 22
  24 "Bone43" 11
  25 "Bone44" 24
  26 "Bone45" 25
  27 "Bone_Se_Hand-R" 11
  28 "Bone05" 1
  29 "Bone06" 28
  30 "Bone07" 29
  31 "Bone21" 1
  32 "Bone22" 31
  33 "Bone23" 32
  34 "Bone17" 1
  35 "Bone18" 34
  36 "Bone19" 35
  37 "Bone13" 1
  38 "Bone14" 37
  39 "Bone15" 38
  40 "Bone09" 1
  41 "Bone10" 40
  42 "Bone11" 41
  43 "Bone_Se_Hand-L" 1
end
skeleton
  time 0
    0 7.589238 4.397932 -10.832746 0.907964 -2.129253 -1.330741
    1 -0.071918 -8.498731 -0.104136 0.361485 0.467430 -0.361585
    2 1.231110 -1.646805 1.167199 0.283770 1.487099 0.248230
    3 -0.018918 -5.204151 1.209771 0.000000 0.000000 0.000000
    4 -0.106210 -0.041607 0.734739 0.000000 -1.570796 0.000000
    5 -0.006608 -7.116275 2.875793 0.000000 0.000000 0.000000
    6 0.000031 -0.420787 -0.134254 0.000000 0.000000 0.000000
    7 -0.086616 -2.846228 0.453552 0.000000 0.000000 0.000000
    8 -0.086616 -6.239250 1.961809 0.000000 0.000000 0.000000
    9 -0.086616 -4.262175 -0.301127 0.000000 0.000000 0.000000
    10 -2.773034 -6.580040 -8.748608 -0.485505 0.472102 0.372334
    11 0.096947 -8.450419 -0.009363 0.427877 -0.536382 0.190841
    12 -0.586768 -1.264477 0.200164 -0.224488 -0.513450 -2.434584
    13 1.522834 0.058679 0.016851 0.290409 -0.033622 0.109000
    14 1.117947 0.048425 -0.005765 0.225382 -0.008054 0.078707
    15 -0.963867 -2.785143 -0.085346 -0.534770 -0.046320 0.035343
    16 0.028478 -1.403067 0.006271 -1.585394 0.000000 0.000000
    17 0.021414 -0.957781 0.020047 -1.007036 -0.248776 0.191909
    18 -0.249534 -2.846963 -0.174215 -0.881820 -0.052696 0.090280
    19 0.043234 -1.683940 0.096014 -1.837724 0.000000 0.000000
    20 0.031729 -1.160831 0.058836 -1.246304 0.000000 0.000000
    21 0.447952 -2.798983 -0.200441 -1.144028 0.037894 0.167993
    22 -0.032909 -1.480207 0.004936 -1.659992 0.000000 0.000000
    23 -0.027022 -1.076920 -0.020212 -0.972712 0.000000 0.000000
    24 1.164474 -2.543939 -0.170327 -1.340445 -0.035155 0.207255
    25 0.024032 -1.129040 0.017805 -1.441949 0.000000 0.000000
    26 0.014896 -0.883992 -0.019845 -0.763542 0.000000 0.000000
    27 -0.130622 -0.116383 -0.021176 0.289586 0.093244 1.456062
    28 0.583509 -1.197274 0.185379 0.167141 -0.668981 -0.728004
    29 1.535926 0.010247 0.005008 -0.097416 -0.205560 -1.019483
    30 1.100770 0.004528 -0.010675 0.000000 0.000000 -0.250166
    31 0.957766 -2.746777 -0.090301 -0.334120 0.035355 0.063678
    32 -0.033419 -1.397127 -0.011256 -0.104320 0.000000 0.000000
    33 -0.022361 -0.957434 0.018783 -0.638045 0.000000 0.000000
    34 0.250029 -2.820664 -0.238397 -0.618475 0.127049 -0.341497
    35 -0.049759 -1.680544 0.100479 -1.815466 0.077876 -0.019415
    36 -0.034141 -1.148310 0.084779 -0.997595 -0.031376 -0.015448
    37 -0.488517 -2.755600 -0.228262 -0.877258 0.177036 -0.438099
    38 0.039889 -1.479791 0.029854 -1.520913 0.000000 0.000000
    39 0.028786 -1.075733 -0.023111 -1.058310 0.000000 0.000000
    40 -1.180679 -2.507216 -0.193861 -1.019141 0.319461 -0.426610
    41 -0.024967 -1.123934 0.017594 -0.936346 0.000000 0.000000
    42 -0.020058 -0.890964 0.010091 -1.193241 0.000000 0.000000
    43 0.092807 -0.054173 -0.097459 3.122270 6.118195 -1.569909
  time 1
    0 7.589238 4.397932 -10.832746 0.907964 -2.129253 -1.330741
    1 -0.071918 -8.498731 -0.104136 0.361485 0.467430 -0.361585
    2 1.231110 -1.646805 1.167199 0.283770 1.487099 0.248230
    3 -0.018918 -5.204151 1.209771 0.000000 0.000000 0.000000
    4 -0.106210 -0.041607 0.734739 0.000000 -1.570796 0.000000
    5 -0.006608 -7.116275 2.875793 0.000000 0.000000 0.000000
    6 0.000031 -0.420787 -0.134254 0.000000 0.000000 0.000000
    7 -0.086616 -2.846228 0.453552 0.000000 0.000000 0.000000
    8 -0.086616 -6.239250 1.961809 0.000000 0.000000 0.000000
    9 -0.086616 -4.262175 -0.301127 0.000000 0.000000 0.000000
    10 -2.773034 -6.580040 -8.748608 -0.485505 0.472102 0.372334
    11 0.096947 -8.450419 -0.009363 0.427877 -0.536382 0.190841
    12 -0.586768 -1.264477 0.200164 -0.224488 -0.513450 -2.434584
    13 1.522834 0.058679 0.016851 0.290409 -0.033622 0.109000
    14 1.117947 0.048425 -0.005765 0.225382 -0.008054 0.078707
    15 -0.963867 -2.785143 -0.085346 -0.534770 -0.046320 0.035343
    16 0.028478 -1.403067 0.006271 -1.585394 0.000000 0.000000
    17 0.021414 -0.957781 0.020047 -1.007036 -0.248776 0.191909
    18 -0.249534 -2.846963 -0.174215 -0.881820 -0.052696 0.090280
    19 0.043234 -1.683940 0.096014 -1.837724 0.000000 0.000000
    20 0.031729 -1.160831 0.058836 -1.246304 0.000000 0.000000
    21 0.447952 -2.798983 -0.200441 -1.144028 0.037894 0.167993
    22 -0.032909 -1.480207 0.004936 -1.659992 0.000000 0.000000
    23 -0.027022 -1.076920 -0.020212 -0.972712 0.000000 0.000000
    24 1.164474 -2.543939 -0.170327 -1.340445 -0.035155 0.207255
    25 0.024032 -1.129040 0.017805 -1.441949 0.000000 0.000000
    26 0.014896 -0.883992 -0.019845 -0.763542 0.000000 0.000000
    27 -0.130622 -0.116383 -0.021176 0.289586 0.093244 1.456062
    28 0.583509 -1.197274 0.185379 0.167141 -0.668981 -0.728004
    29 1.535926 0.010247 0.005008 -0.097416 -0.205560 -1.019483
    30 1.100770 0.004528 -0.010675 0.000000 0.000000 -0.250166
    31 0.957766 -2.746777 -0.090301 -0.334120 0.035355 0.063678
    32 -0.033419 -1.397127 -0.011256 -0.104320 0.000000 0.000000
    33 -0.022361 -0.957434 0.018783 -0.638045 0.000000 0.000000
    34 0.250029 -2.820664 -0.238397 -0.618475 0.127049 -0.341497
    35 -0.049759 -1.680544 0.100479 -1.815466 0.077876 -0.019415
    36 -0.034141 -1.148310 0.084779 -0.997595 -0.031376 -0.015448
    37 -0.488517 -2.755600 -0.228262 -0.877258 0.177036 -0.438099
    38 0.039889 -1.479791 0.029854 -1.520913 0.000000 0.000000
    39 0.028786 -1.075733 -0.023111 -1.058310 0.000000 0.000000
    40 -1.180679 -2.507216 -0.193861 -1.019141 0.319461 -0.426610
    41 -0.024967 -1.123934 0.017594 -0.936346 0.000000 0.000000
    42 -0.020058 -0.890964 0.010091 -1.193241 0.000000 0.000000
    43 0.092807 -0.054173 -0.097459 3.122270 6.118195 -1.569909
end
