version 1
nodes
  0 "Bone01" -1
  1 "Bone_Lefthand" 0
  2 "Bone02" 1
  3 "Bone03" 2
  4 "Bone50" 3
  5 "Bone25" 3
  6 "Bone48" 3
  7 "Bone04" -1
  8 "Bone_Righthand" 7
  9 "Bone27" 8
  10 "Bone28" 9
  11 "Bone29" 10
  12 "Bone31" 8
  13 "Bone32" 12
  14 "Bone33" 13
  15 "Bone35" 8
  16 "Bone36" 15
  17 "Bone37" 16
  18 "Bone39" 8
  19 "Bone40" 18
  20 "Bone41" 19
  21 "Bone43" 8
  22 "Bone44" 21
  23 "Bone45" 22
  24 "Bone_Se_Hand-R" 8
  25 "Bone05" 1
  26 "Bone06" 25
  27 "Bone07" 26
  28 "Bone21" 1
  29 "Bone22" 28
  30 "Bone23" 29
  31 "Bone17" 1
  32 "Bone18" 31
  33 "Bone19" 32
  34 "Bone13" 1
  35 "Bone14" 34
  36 "Bone15" 35
  37 "Bone09" 1
  38 "Bone10" 37
  39 "Bone11" 38
  40 "Bone_Se_Hand-L" 1
end
skeleton
  time 0
    0 5.545547 5.676803 -8.061242 1.227443 -1.318424 -1.819459
    1 -0.071917 -8.498731 -0.104136 0.162946 -0.263128 -0.423821
    2 -0.072383 -3.150735 0.779960 1.024858 1.506711 1.076655
    3 0.000000 2.038370 1.408873 0.000000 0.000000 0.000000
    4 0.000000 -2.240710 2.058080 0.000000 0.000000 0.000000
    5 0.000000 -2.855218 0.622003 0.000000 0.000000 0.000000
    6 0.000000 -5.238311 0.651979 0.000000 0.000000 0.000000
    7 -5.058261 0.405600 -19.700631 -1.496996 1.220205 -1.289139
    8 0.096946 -8.450419 -0.009363 0.075799 -0.779614 -0.206717
    9 -0.586769 -1.264477 0.200164 -0.078093 -0.501753 -2.892750
    10 1.522835 0.058680 0.016850 0.286580 0.100871 0.175931
    11 1.117947 0.048424 -0.005765 0.000000 0.000000 0.045535
    12 -0.963867 -2.785143 -0.085346 -0.722057 -0.082944 -0.093792
    13 0.028478 -1.403067 0.006272 -0.993900 -0.000007 -0.000010
    14 0.021412 -0.957782 0.020047 -0.273489 -0.000003 -0.000008
    15 -0.249534 -2.846963 -0.174215 -1.033666 -0.000004 0.000010
    16 0.043235 -1.683940 0.096015 -1.280463 0.000001 0.000000
    17 0.031729 -1.160830 0.058836 -0.680943 0.000000 0.000000
    18 0.447951 -2.798983 -0.200441 -1.167461 -0.004424 -0.010840
    19 -0.032909 -1.480207 0.004935 -1.539369 0.000000 0.000000
    20 -0.027023 -1.076921 -0.020212 -1.026104 0.000000 0.000000
    21 1.164474 -2.543939 -0.170327 -1.273503 -0.127672 0.027042
    22 0.024033 -1.129040 0.017807 -1.602844 0.000000 -0.000001
    23 0.014896 -0.883992 -0.019846 -1.337964 0.000000 0.000000
    24 -0.111496 -0.128692 -0.041031 0.322900 0.160749 1.329808
    25 0.583509 -1.197274 0.185379 0.334028 -0.650676 -0.753731
    26 1.535926 0.010247 0.005009 0.004032 -0.314800 -0.899441
    27 1.100770 0.004528 -0.010675 0.000000 0.000000 -1.163831
    28 0.957766 -2.746777 -0.090301 0.346514 -0.041032 0.291246
    29 -0.033419 -1.397128 -0.011255 -1.636736 0.003835 -0.214045
    30 -0.022361 -0.957433 0.018783 -0.272235 -0.018648 -0.009516
    31 0.250029 -2.820664 -0.238396 -0.897975 0.021060 -0.127769
    32 -0.049759 -1.680544 0.100479 -1.695293 0.000000 0.000000
    33 -0.034141 -1.148311 0.084779 -1.153251 0.000000 0.000000
    34 -0.488517 -2.755600 -0.228261 -1.167895 0.035339 -0.191569
    35 0.039889 -1.479791 0.029854 -1.473814 0.000000 0.000000
    36 0.028785 -1.075733 -0.023110 -1.579427 0.000000 0.000000
    37 -1.180679 -2.507216 -0.193861 -1.203898 0.120143 -0.337102
    38 -0.024967 -1.123934 0.017595 -1.356839 0.000000 0.000000
    39 -0.020058 -0.890965 0.010091 -1.594917 0.000000 0.000000
    40 0.120180 -0.051600 -0.063059 0.012085 -2.987703 1.512552
  time 1
    0 6.123690 4.430671 -7.928425 1.104347 -1.330784 -1.670881
    1 -0.071917 -8.498731 -0.104136 0.158461 -0.177990 -0.469158
    2 -0.072383 -3.150735 0.779960 1.024858 1.506711 1.076655
    3 0.000000 2.038370 1.408873 0.000000 0.000000 0.000000
    4 0.000000 -2.240710 2.058080 0.000000 0.000000 0.000000
    5 0.000000 -2.855218 0.622003 0.000000 0.000000 0.000000
    6 0.000000 -5.238311 0.651979 0.000000 0.000000 0.000000
    7 -4.777002 -0.488959 -19.142020 -1.571042 1.270953 -1.336096
    8 0.096946 -8.450419 -0.009363 0.043823 -0.774747 -0.173081
    9 -0.586769 -1.264477 0.200164 -0.067825 -0.503958 -2.909907
    10 1.522835 0.058680 0.016850 0.285489 0.088479 0.166374
    11 1.117947 0.048424 -0.005765 0.000000 0.000000 0.035973
    12 -0.963867 -2.785143 -0.085346 -0.722012 -0.083136 -0.094020
    13 0.028478 -1.403067 0.006272 -0.994103 -0.000007 -0.000010
    14 0.021412 -0.957782 0.020047 -0.273091 -0.000003 -0.000008
    15 -0.249534 -2.846963 -0.174215 -1.034132 -0.000004 0.000010
    16 0.043235 -1.683940 0.096015 -1.280837 0.000001 0.000000
    17 0.031729 -1.160830 0.058836 -0.681296 0.000000 0.000000
    18 0.447951 -2.798983 -0.200441 -1.167571 -0.004567 -0.010894
    19 -0.032909 -1.480207 0.004935 -1.540938 0.000000 0.000000
    20 -0.027023 -1.076921 -0.020212 -1.027442 0.000000 0.000000
    21 1.164474 -2.543939 -0.170327 -1.273503 -0.127960 0.027149
    22 0.024033 -1.129040 0.017807 -1.605416 0.000000 -0.000001
    23 0.014896 -0.883992 -0.019846 -1.339846 0.000000 0.000000
    24 -0.111496 -0.128692 -0.041031 0.324006 0.154278 1.335311
    25 0.583509 -1.197274 0.185379 0.322786 -0.655686 -0.735240
    26 1.535926 0.010247 0.005009 -0.038980 -0.312475 -0.760267
    27 1.100770 0.004528 -0.010675 0.000000 0.000000 -1.077980
    28 0.957766 -2.746777 -0.090301 0.415400 -0.041032 0.291246
    29 -0.033419 -1.397128 -0.011255 -1.660557 0.003835 -0.214045
    30 -0.022361 -0.957433 0.018783 -0.283169 -0.018648 -0.009516
    31 0.250029 -2.820664 -0.238396 -0.874677 0.027004 -0.116467
    32 -0.049759 -1.680544 0.100479 -1.640811 0.000000 0.000000
    33 -0.034141 -1.148311 0.084779 -1.088739 0.000000 0.000000
    34 -0.488517 -2.755600 -0.228261 -1.151069 0.035339 -0.191569
    35 0.039889 -1.479791 0.029854 -1.461806 0.000000 0.000000
    36 0.028785 -1.075733 -0.023110 -1.539409 0.000000 0.000000
    37 -1.180679 -2.507216 -0.193861 -1.203898 0.120143 -0.337102
    38 -0.024967 -1.123934 0.017595 -1.356839 0.000000 0.000000
    39 -0.020058 -0.890965 0.010091 -1.594917 0.000000 0.000000
    40 0.120180 -0.051600 -0.063059 0.012085 -2.987703 1.512552
  time 2
    0 6.623705 3.262667 -7.779983 0.967078 -1.337220 -1.508167
    1 -0.071917 -8.498731 -0.104136 0.151285 -0.086883 -0.520727
    2 -0.072383 -3.150735 0.779960 1.024858 1.506711 1.076655
    3 0.000000 2.038370 1.408873 0.000000 0.000000 0.000000
    4 0.000000 -2.240710 2.058080 0.000000 0.000000 0.000000
    5 0.000000 -2.855218 0.622003 0.000000 0.000000 0.000000
    6 0.000000 -5.238311 0.651979 0.000000 0.000000 0.000000
    7 -4.554339 -1.344454 -18.524814 -1.692204 1.324025 -1.429360
    8 0.096946 -8.450419 -0.009363 -0.036061 -0.759988 -0.089012
    9 -0.586769 -1.264477 0.200164 -0.040794 -0.510071 -2.955136
    10 1.522835 0.058680 0.016850 0.284919 0.074737 0.156314
    11 1.117947 0.048424 -0.005765 0.000000 0.000000 0.024614
    12 -0.963867 -2.785143 -0.085346 -0.721968 -0.083639 -0.094595
    13 0.028478 -1.403067 0.006272 -0.994623 -0.000007 -0.000010
    14 0.021412 -0.957782 0.020047 -0.272028 -0.000003 -0.000008
    15 -0.249534 -2.846963 -0.174215 -1.035390 -0.000004 0.000010
    16 0.043235 -1.683940 0.096015 -1.281844 0.000001 0.000000
    17 0.031729 -1.160830 0.058836 -0.682198 0.000000 0.000000
    18 0.447951 -2.798983 -0.200441 -1.167954 -0.004939 -0.011042
    19 -0.032909 -1.480207 0.004935 -1.545084 0.000000 0.000000
    20 -0.027023 -1.076921 -0.020212 -1.030914 0.000000 0.000000
    21 1.164474 -2.543939 -0.170327 -1.273462 -0.128715 0.027413
    22 0.024033 -1.129040 0.017807 -1.612298 0.000000 -0.000001
    23 0.014896 -0.883992 -0.019846 -1.344838 0.000000 0.000000
    24 -0.115402 -0.128692 -0.033218 0.327064 0.136358 1.350524
    25 0.583509 -1.197274 0.185379 0.310046 -0.661079 -0.714428
    26 1.535926 0.010247 0.005009 -0.083203 -0.303977 -0.614718
    27 1.100770 0.004528 -0.010675 0.000000 0.000000 -0.995110
    28 0.957766 -2.746777 -0.090301 0.492744 -0.041032 0.291246
    29 -0.033419 -1.397128 -0.011255 -1.687269 0.003835 -0.214045
    30 -0.022361 -0.957433 0.018783 -0.297651 -0.018648 -0.009516
    31 0.250029 -2.820664 -0.238396 -0.848323 0.033380 -0.103548
    32 -0.049759 -1.680544 0.100479 -1.583692 0.000000 0.000000
    33 -0.034141 -1.148311 0.084779 -1.021522 0.000000 0.000000
    34 -0.488517 -2.755600 -0.228261 -1.132097 0.035339 -0.191569
    35 0.039889 -1.479791 0.029854 -1.448263 0.000000 0.000000
    36 0.028785 -1.075733 -0.023110 -1.502236 0.000000 0.000000
    37 -1.180679 -2.507216 -0.193861 -1.203898 0.120143 -0.337102
    38 -0.024967 -1.123934 0.017595 -1.356839 0.000000 0.000000
    39 -0.020058 -0.890965 0.010091 -1.594917 0.000000 0.000000
    40 0.120180 -0.051600 -0.063059 0.012085 -2.987703 1.512552
  time 3
    0 7.029968 2.231386 -7.612010 0.824861 -1.338286 -1.340544
    1 -0.071917 -8.498731 -0.104136 0.139440 0.003720 -0.572746
    2 -0.072383 -3.150735 0.779960 1.024858 1.506711 1.076655
    3 0.000000 2.038370 1.408873 0.000000 0.000000 0.000000
    4 0.000000 -2.240710 2.058080 0.000000 0.000000 0.000000
    5 0.000000 -2.855218 0.622003 0.000000 0.000000 0.000000
    6 0.000000 -5.238311 0.651979 0.000000 0.000000 0.000000
    7 -4.386365 -2.156979 -17.845106 1.273099 1.768677 1.563532
    8 0.096946 -8.450419 -0.009363 -0.139899 -0.734992 0.020295
    9 -0.586769 -1.264477 0.200164 -0.002587 -0.519378 -3.019058
    10 1.522835 0.058680 0.016850 0.284774 0.060090 0.145983
    11 1.117947 0.048424 -0.005765 0.000000 0.000000 0.012068
    12 -0.963867 -2.785143 -0.085346 -0.721923 -0.084359 -0.095398
    13 0.028478 -1.403067 0.006272 -0.995375 -0.000007 -0.000010
    14 0.021412 -0.957782 0.020047 -0.270568 -0.000003 -0.000008
    15 -0.249534 -2.846963 -0.174215 -1.037161 -0.000004 0.000010
    16 0.043235 -1.683940 0.096015 -1.283253 0.000001 0.000000
    17 0.031729 -1.160830 0.058836 -0.683454 0.000000 0.000000
    18 0.447951 -2.798983 -0.200441 -1.168447 -0.005478 -0.011244
    19 -0.032909 -1.480207 0.004935 -1.550985 0.000000 0.000000
    20 -0.027023 -1.076921 -0.020212 -1.035868 0.000000 0.000000
    21 1.164474 -2.543939 -0.170327 -1.273421 -0.129782 0.027785
    22 0.024033 -1.129040 0.017807 -1.621961 0.000000 -0.000001
    23 0.014896 -0.883992 -0.019846 -1.351865 0.000000 0.000000
    24 -0.127121 -0.128692 -0.025406 0.331641 0.109305 1.373492
    25 0.583509 -1.197274 0.185379 0.296216 -0.666604 -0.691974
    26 1.535926 0.010247 0.005009 -0.126612 -0.289021 -0.466392
    27 1.100770 0.004528 -0.010675 0.000000 0.000000 -0.913464
    28 0.957766 -2.746777 -0.090301 0.575346 -0.041032 0.291246
    29 -0.033419 -1.397128 -0.011255 -1.715786 0.003835 -0.214045
    30 -0.022361 -0.957433 0.018783 -0.314364 -0.018648 -0.009516
    31 0.250029 -2.820664 -0.238396 -0.820147 0.039803 -0.089610
    32 -0.049759 -1.680544 0.100479 -1.525064 0.000000 0.000000
    33 -0.034141 -1.148311 0.084779 -0.952813 0.000000 0.000000
    34 -0.488517 -2.755600 -0.228261 -1.111879 0.035339 -0.191569
    35 0.039889 -1.479791 0.029854 -1.433845 0.000000 0.000000
    36 0.028785 -1.075733 -0.023110 -1.466707 0.000000 0.000000
    37 -1.180679 -2.507216 -0.193861 -1.203898 0.120143 -0.337102
    38 -0.024967 -1.123934 0.017595 -1.356839 0.000000 0.000000
    39 -0.020058 -0.890965 0.010091 -1.594917 0.000000 0.000000
    40 0.120180 -0.051600 -0.063059 0.012085 -2.987703 1.512552
  time 4
    0 7.330758 1.399329 -7.420597 0.685760 -1.335174 -1.175997
    1 -0.071917 -8.498731 -0.104136 0.122634 0.087397 -0.619690
    2 -0.072383 -3.150735 0.779960 1.024858 1.506711 1.076655
    3 0.000000 2.038370 1.408873 0.000000 0.000000 0.000000
    4 0.000000 -2.240710 2.058080 0.000000 0.000000 0.000000
    5 0.000000 -2.855218 0.622003 0.000000 0.000000 0.000000
    6 0.000000 -5.238311 0.651979 0.000000 0.000000 0.000000
    7 -4.273080 -2.926533 -17.106802 1.045865 1.729361 1.363031
    8 0.096946 -8.450419 -0.009363 -0.243737 -0.699509 0.129556
    9 -0.586769 -1.264477 0.200164 0.041160 -0.531148 -3.092360
    10 1.522835 0.058680 0.016850 0.284931 0.044982 0.135459
    11 1.117947 0.048424 -0.005765 0.000000 0.000000 -0.001125
    12 -0.963867 -2.785143 -0.085346 -0.721834 -0.085173 -0.096333
    13 0.028478 -1.403067 0.006272 -0.996214 -0.000007 -0.000010
    14 0.021412 -0.957782 0.020047 -0.268875 -0.000003 -0.000008
    15 -0.249534 -2.846963 -0.174215 -1.039165 -0.000004 0.000010
    16 0.043235 -1.683940 0.096015 -1.284892 0.000001 0.000000
    17 0.031729 -1.160830 0.058836 -0.684946 0.000000 0.000000
    18 0.447951 -2.798983 -0.200441 -1.169050 -0.006077 -0.011486
    19 -0.032909 -1.480207 0.004935 -1.557745 0.000000 0.000000
    20 -0.027023 -1.076921 -0.020212 -1.041510 0.000000 0.000000
    21 1.164474 -2.543939 -0.170327 -1.273338 -0.131004 0.028204
    22 0.024033 -1.129040 0.017807 -1.633083 0.000000 -0.000001
    23 0.014896 -0.883992 -0.019846 -1.359891 0.000000 0.000000
    24 -0.134934 -0.128692 -0.009780 0.337306 0.075340 1.402261
    25 0.583509 -1.197274 0.185379 0.281715 -0.672057 -0.668598
    26 1.535926 0.010247 0.005009 -0.167287 -0.267964 -0.318693
    27 1.100770 0.004528 -0.010675 0.000000 0.000000 -0.831167
    28 0.957766 -2.746777 -0.090301 0.660044 -0.041032 0.291246
    29 -0.033419 -1.397128 -0.011255 -1.745051 0.003835 -0.214045
    30 -0.022361 -0.957433 0.018783 -0.331954 -0.018648 -0.009516
    31 0.250029 -2.820664 -0.238396 -0.791444 0.045916 -0.075276
    32 -0.049759 -1.680544 0.100479 -1.466051 0.000000 0.000000
    33 -0.034141 -1.148311 0.084779 -0.883688 0.000000 0.000000
    34 -0.488517 -2.755600 -0.228261 -1.091374 0.035339 -0.191569
    35 0.039889 -1.479791 0.029854 -1.419200 0.000000 0.000000
    36 0.028785 -1.075733 -0.023110 -1.431600 0.000000 0.000000
    37 -1.180679 -2.507216 -0.193861 -1.203898 0.120143 -0.337102
    38 -0.024967 -1.123934 0.017595 -1.356839 0.000000 0.000000
    39 -0.020058 -0.890965 0.010091 -1.594917 0.000000 0.000000
    40 0.120180 -0.051600 -0.063059 0.012085 -2.987703 1.512552
  time 5
    0 7.522170 0.832905 -7.213560 0.554050 -1.329548 -1.018786
    1 -0.071917 -8.498731 -0.104136 0.102056 0.157902 -0.655604
    2 -0.072383 -3.150735 0.779960 1.024858 1.506711 1.076655
    3 0.000000 2.038370 1.408873 0.000000 0.000000 0.000000
    4 0.000000 -2.240710 2.058080 0.000000 0.000000 0.000000
    5 0.000000 -2.855218 0.622003 0.000000 0.000000 0.000000
    6 0.000000 -5.238311 0.651979 0.000000 0.000000 0.000000
    7 -4.206672 -3.657024 -16.309903 0.809464 1.700269 1.151156
    8 0.096946 -8.450419 -0.009363 -0.323621 -0.653191 0.213648
    9 -0.586769 -1.264477 0.200164 0.084955 -0.544682 -3.165661
    10 1.522835 0.058680 0.016850 0.285246 0.029890 0.124973
    11 1.117947 0.048424 -0.005765 0.000000 0.000000 -0.014281
    12 -0.963867 -2.785143 -0.085346 -0.721745 -0.085988 -0.097268
    13 0.028478 -1.403067 0.006272 -0.997082 -0.000007 -0.000010
    14 0.021412 -0.957782 0.020047 -0.267149 -0.000003 -0.000008
    15 -0.249534 -2.846963 -0.174215 -1.041169 -0.000004 0.000010
    16 0.043235 -1.683940 0.096015 -1.286532 0.000001 0.000000
    17 0.031729 -1.160830 0.058836 -0.686398 0.000000 0.000000
    18 0.447951 -2.798983 -0.200441 -1.169597 -0.006689 -0.011715
    19 -0.032909 -1.480207 0.004935 -1.564468 0.000000 0.000000
    20 -0.027023 -1.076921 -0.020212 -1.047188 0.000000 0.000000
    21 1.164474 -2.543939 -0.170327 -1.273297 -0.132226 0.028636
    22 0.024033 -1.129040 0.017807 -1.644205 0.000000 -0.000001
    23 0.014896 -0.883992 -0.019846 -1.367955 0.000000 0.000000
    24 -0.146653 -0.132598 0.001939 0.343647 0.036800 1.434875
    25 0.583509 -1.197274 0.185379 0.266986 -0.677234 -0.645022
    26 1.535926 0.010247 0.005009 -0.203636 -0.241777 -0.174786
    27 1.100770 0.004528 -0.010675 0.000000 0.000000 -0.746539
    28 0.957766 -2.746777 -0.090301 0.743675 -0.041032 0.291246
    29 -0.033419 -1.397128 -0.011255 -1.773942 0.003835 -0.214045
    30 -0.022361 -0.957433 0.018783 -0.349105 -0.018648 -0.009516
    31 0.250029 -2.820664 -0.238396 -0.763520 0.051440 -0.061206
    32 -0.049759 -1.680544 0.100479 -1.407818 0.000000 0.000000
    33 -0.034141 -1.148311 0.084779 -0.815361 0.000000 0.000000
    34 -0.488517 -2.755600 -0.228261 -1.071467 0.035339 -0.191569
    35 0.039889 -1.479791 0.029854 -1.404987 0.000000 0.000000
    36 0.028785 -1.075733 -0.023110 -1.395649 0.000000 0.000000
    37 -1.180679 -2.507216 -0.193861 -1.203898 0.120143 -0.337102
    38 -0.024967 -1.123934 0.017595 -1.356839 0.000000 0.000000
    39 -0.020058 -0.890965 0.010091 -1.594917 0.000000 0.000000
    40 0.120180 -0.051600 -0.063059 0.012085 -2.987703 1.512552
  time 6
    0 7.588579 0.586804 -6.986990 0.429915 -1.322984 -0.869183
    1 -0.071917 -8.498731 -0.104136 0.080080 0.209376 -0.673766
    2 -0.072383 -3.150735 0.779960 1.024858 1.506711 1.076655
    3 0.000000 2.038370 1.408873 0.000000 0.000000 0.000000
    4 0.000000 -2.240710 2.058080 0.000000 0.000000 0.000000
    5 0.000000 -2.855218 0.622003 0.000000 0.000000 0.000000
    6 0.000000 -5.238311 0.651979 0.000000 0.000000 0.000000
    7 -4.187140 -4.340639 -15.454408 0.654303 1.675731 1.017516
    8 0.096946 -8.450419 -0.009363 -0.355598 -0.595758 0.247261
    9 -0.586769 -1.264477 0.200164 0.123162 -0.559235 -3.229584
    10 1.522835 0.058680 0.016850 0.285562 0.015259 0.114604
    11 1.117947 0.048424 -0.005765 0.000000 0.000000 -0.026863
    12 -0.963867 -2.785143 -0.085346 -0.721700 -0.086708 -0.098083
    13 0.028478 -1.403067 0.006272 -0.997805 -0.000007 -0.000010
    14 0.021412 -0.957782 0.020047 -0.265688 -0.000003 -0.000008
    15 -0.249534 -2.846963 -0.174215 -1.042940 -0.000004 0.000010
    16 0.043235 -1.683940 0.096015 -1.287941 0.000001 0.000000
    17 0.031729 -1.160830 0.058836 -0.687693 0.000000 0.000000
    18 0.447951 -2.798983 -0.200441 -1.170090 -0.007216 -0.011931
    19 -0.032909 -1.480207 0.004935 -1.570369 0.000000 0.000000
    20 -0.027023 -1.076921 -0.020212 -1.052142 0.000000 0.000000
    21 1.164474 -2.543939 -0.170327 -1.273256 -0.133293 0.029007
    22 0.024033 -1.129040 0.017807 -1.653867 0.000000 -0.000001
    23 0.014896 -0.883992 -0.019846 -1.374982 0.000000 0.000000
    24 -0.158372 -0.132598 0.017565 0.350288 -0.004057 1.469431
    25 0.583509 -1.197274 0.185379 0.252520 -0.681992 -0.622015
    26 1.535926 0.010247 0.005009 -0.234581 -0.211936 -0.037450
    27 1.100770 0.004528 -0.010675 0.000000 0.000000 -0.657707
    28 0.957766 -2.746777 -0.090301 0.823114 -0.041032 0.291246
    29 -0.033419 -1.397128 -0.011255 -1.801403 0.003835 -0.214045
    30 -0.022361 -0.957433 0.018783 -0.364483 -0.018648 -0.009516
    31 0.250029 -2.820664 -0.238396 -0.737681 0.056198 -0.048083
    32 -0.049759 -1.680544 0.100479 -1.351455 0.000000 0.000000
    33 -0.034141 -1.148311 0.084779 -0.748942 0.000000 0.000000
    34 -0.488517 -2.755600 -0.228261 -1.053107 0.035339 -0.191569
    35 0.039889 -1.479791 0.029854 -1.391887 0.000000 0.000000
    36 0.028785 -1.075733 -0.023110 -1.357654 0.000000 0.000000
    37 -1.180679 -2.507216 -0.193861 -1.203898 0.120143 -0.337102
    38 -0.024967 -1.123934 0.017595 -1.356839 0.000000 0.000000
    39 -0.020058 -0.890965 0.010091 -1.594917 0.000000 0.000000
    40 0.120180 -0.051600 -0.063059 0.012085 -2.987703 1.512552
  time 7
    0 7.514358 0.524302 -6.717451 0.298511 -1.315526 -0.709868
    1 -0.071917 -8.498731 -0.104136 0.054727 0.242250 -0.670788
    2 -0.072383 -3.150735 0.779960 1.024858 1.506711 1.076655
    3 0.000000 2.038370 1.408873 0.000000 0.000000 0.000000
    4 0.000000 -2.240710 2.058080 0.000000 0.000000 0.000000
    5 0.000000 -2.855218 0.622003 0.000000 0.000000 0.000000
    6 0.000000 -5.238311 0.651979 0.000000 0.000000 0.000000
    7 -4.265268 -4.993003 -14.466096 0.670348 1.652495 1.048306
    8 0.096946 -8.450419 -0.009363 -0.355824 -0.515527 0.238284
    9 -0.586769 -1.264477 0.200164 0.150194 -0.574092 -3.274813
    10 1.522835 0.058680 0.016850 0.285719 0.001501 0.104621
    11 1.117947 0.048424 -0.005765 0.000000 0.000000 -0.038222
    12 -0.963867 -2.785143 -0.085346 -0.721656 -0.087211 -0.098658
    13 0.028478 -1.403067 0.006272 -0.998355 -0.000007 -0.000010
    14 0.021412 -0.957782 0.020047 -0.264626 -0.000003 -0.000008
    15 -0.249534 -2.846963 -0.174215 -1.044152 -0.000004 0.000010
    16 0.043235 -1.683940 0.096015 -1.288948 0.000001 0.000000
    17 0.031729 -1.160830 0.058836 -0.688595 0.000000 0.000000
    18 0.447951 -2.798983 -0.200441 -1.170474 -0.007599 -0.012079
    19 -0.032909 -1.480207 0.004935 -1.574515 0.000000 0.000000
    20 -0.027023 -1.076921 -0.020212 -1.055614 0.000000 0.000000
    21 1.164474 -2.543939 -0.170327 -1.273215 -0.134048 0.029271
    22 0.024033 -1.129040 0.017807 -1.660680 0.000000 -0.000001
    23 0.014896 -0.883992 -0.019846 -1.379974 0.000000 0.000000
    24 -0.173998 -0.136505 0.033190 0.356816 -0.044895 1.504026
    25 0.583509 -1.197274 0.185379 0.238822 -0.686211 -0.600329
    26 1.535926 0.010247 0.005009 -0.259581 -0.180189 0.090737
    27 1.100770 0.004528 -0.010675 0.000000 0.000000 -0.563026
    28 0.957766 -2.746777 -0.090301 0.895201 -0.041032 0.291246
    29 -0.033419 -1.397128 -0.011255 -1.826278 0.003835 -0.214045
    30 -0.022361 -0.957433 0.018783 -0.376752 -0.018648 -0.009516
    31 0.250029 -2.820664 -0.238396 -0.715258 0.060033 -0.036638
    32 -0.049759 -1.680544 0.100479 -1.298099 0.000000 0.000000
    33 -0.034141 -1.148311 0.084779 -0.685575 0.000000 0.000000
    34 -0.488517 -2.755600 -0.228261 -1.037203 0.035339 -0.191569
    35 0.039889 -1.479791 0.029854 -1.380550 0.000000 0.000000
    36 0.028785 -1.075733 -0.023110 -1.316415 0.000000 0.000000
    37 -1.180679 -2.507216 -0.193861 -1.203898 0.120143 -0.337102
    38 -0.024967 -1.123934 0.017595 -1.356839 0.000000 0.000000
    39 -0.020058 -0.890965 0.010091 -1.594917 0.000000 0.000000
    40 0.120180 -0.051600 -0.063059 0.012085 -2.987703 1.512552
  time 8
    0 7.326852 0.469613 -6.401035 0.159532 -1.304572 -0.540141
    1 -0.071917 -8.498731 -0.104136 0.025865 0.262024 -0.650745
    2 -0.072383 -3.150735 0.779960 1.024858 1.506711 1.076655
    3 0.000000 2.038370 1.408873 0.000000 0.000000 0.000000
    4 0.000000 -2.240710 2.058080 0.000000 0.000000 0.000000
    5 0.000000 -2.855218 0.622003 0.000000 0.000000 0.000000
    6 0.000000 -5.238311 0.651979 0.000000 0.000000 0.000000
    7 -4.460586 -5.606303 -13.333249 0.953928 1.633627 1.340040
    8 0.096946 -8.450419 -0.009363 -0.355314 -0.410426 0.215967
    9 -0.586769 -1.264477 0.200164 0.160462 -0.588539 -3.291937
    10 1.522835 0.058680 0.016850 0.285549 -0.010908 0.095142
    11 1.117947 0.048424 -0.005765 0.000000 0.000000 -0.047784
    12 -0.963867 -2.785143 -0.085346 -0.721611 -0.087403 -0.098874
    13 0.028478 -1.403067 0.006272 -0.998557 -0.000007 -0.000010
    14 0.021412 -0.957782 0.020047 -0.264227 -0.000003 -0.000008
    15 -0.249534 -2.846963 -0.174215 -1.044618 -0.000004 0.000010
    16 0.043235 -1.683940 0.096015 -1.289322 0.000001 0.000000
    17 0.031729 -1.160830 0.058836 -0.688949 0.000000 0.000000
    18 0.447951 -2.798983 -0.200441 -1.170583 -0.007743 -0.012133
    19 -0.032909 -1.480207 0.004935 -1.576121 0.000000 0.000000
    20 -0.027023 -1.076921 -0.020212 -1.056952 0.000000 0.000000
    21 1.164474 -2.543939 -0.170327 -1.273215 -0.134336 0.029367
    22 0.024033 -1.129040 0.017807 -1.663321 0.000000 -0.000001
    23 0.014896 -0.883992 -0.019846 -1.381856 0.000000 0.000000
    24 -0.185717 -0.136505 0.048815 0.362893 -0.083416 1.536718
    25 0.583509 -1.197274 0.185379 0.226406 -0.689782 -0.580777
    26 1.535926 0.010247 0.005009 -0.278696 -0.148381 0.207465
    27 1.100770 0.004528 -0.010675 0.000000 0.000000 -0.460547
    28 0.957766 -2.746777 -0.090301 0.956733 -0.041032 0.291246
    29 -0.033419 -1.397128 -0.011255 -1.847546 0.003835 -0.214045
    30 -0.022361 -0.957433 0.018783 -0.384597 -0.018648 -0.009516
    31 0.250029 -2.820664 -0.238396 -0.697593 0.062874 -0.027566
    32 -0.049759 -1.680544 0.100479 -1.248903 0.000000 0.000000
    33 -0.034141 -1.148311 0.084779 -0.626439 0.000000 0.000000
    34 -0.488517 -2.755600 -0.228261 -1.024703 0.035339 -0.191569
    35 0.039889 -1.479791 0.029854 -1.371621 0.000000 0.000000
    36 0.028785 -1.075733 -0.023110 -1.270642 0.000000 0.000000
    37 -1.180679 -2.507216 -0.193861 -1.203898 0.120143 -0.337102
    38 -0.024967 -1.123934 0.017595 -1.356839 0.000000 0.000000
    39 -0.020058 -0.890965 0.010091 -1.594917 0.000000 0.000000
    40 0.120180 -0.051600 -0.063059 0.012085 -2.987703 1.512552
  time 9
    0 7.069031 0.430549 -6.061181 0.030877 -1.290166 -0.380664
    1 -0.071917 -8.498731 -0.104136 -0.001599 0.270677 -0.617496
    2 -0.072383 -3.150735 0.779960 1.024858 1.506711 1.076655
    3 0.000000 2.038370 1.408873 0.000000 0.000000 0.000000
    4 0.000000 -2.240710 2.058080 0.000000 0.000000 0.000000
    5 0.000000 -2.855218 0.622003 0.000000 0.000000 0.000000
    6 0.000000 -5.238311 0.651979 0.000000 0.000000 0.000000
    7 -4.722313 -6.176632 -12.137900 -1.553470 1.509452 -1.161267
    8 0.096946 -8.450419 -0.009363 -0.352338 -0.294460 0.187249
    9 -0.586769 -1.264477 0.200164 0.132332 -0.609113 -3.244911
    10 1.522835 0.058680 0.016850 0.284846 -0.021556 0.086320
    11 1.117947 0.048424 -0.005765 0.000000 0.000000 -0.054902
    12 -0.963867 -2.785143 -0.085346 -0.721656 -0.087175 -0.098622
    13 0.028478 -1.403067 0.006272 -0.998297 -0.000007 -0.000010
    14 0.021412 -0.957782 0.020047 -0.264692 -0.000003 -0.000008
    15 -0.249534 -2.846963 -0.174215 -1.044105 -0.000004 0.000010
    16 0.043235 -1.683940 0.096015 -1.288861 0.000001 0.000000
    17 0.031729 -1.160830 0.058836 -0.688517 0.000000 0.000000
    18 0.447951 -2.798983 -0.200441 -1.170474 -0.007575 -0.012066
    19 -0.032909 -1.480207 0.004935 -1.574254 0.000000 0.000000
    20 -0.027023 -1.076921 -0.020212 -1.055361 0.000000 0.000000
    21 1.164474 -2.543939 -0.170327 -1.273256 -0.134000 0.029247
    22 0.024033 -1.129040 0.017807 -1.660263 0.000000 -0.000001
    23 0.014896 -0.883992 -0.019846 -1.379629 0.000000 0.000000
    24 -0.193530 -0.140411 0.060535 0.368165 -0.117323 1.565591
    25 0.583509 -1.197274 0.185379 0.215812 -0.692658 -0.564174
    26 1.535926 0.010247 0.005009 -0.292406 -0.118348 0.310546
    27 1.100770 0.004528 -0.010675 0.000000 0.000000 -0.339186
    28 0.957766 -2.746777 -0.090301 1.004626 -0.041032 0.291246
    29 -0.033419 -1.397128 -0.011255 -1.864085 0.003835 -0.214045
    30 -0.022361 -0.957433 0.018783 -0.386663 -0.018648 -0.009516
    31 0.250029 -2.820664 -0.238396 -0.686015 0.064647 -0.021609
    32 -0.049759 -1.680544 0.100479 -1.204979 0.000000 0.000000
    33 -0.034141 -1.148311 0.084779 -0.572644 0.000000 0.000000
    34 -0.488517 -2.755600 -0.228261 -1.016530 0.035339 -0.191569
    35 0.039889 -1.479791 0.029854 -1.365785 0.000000 0.000000
    36 0.028785 -1.075733 -0.023110 -1.219182 0.000000 0.000000
    37 -1.180679 -2.507216 -0.193861 -1.203898 0.120143 -0.337102
    38 -0.024967 -1.123934 0.017595 -1.356839 0.000000 0.000000
    39 -0.020058 -0.890965 0.010091 -1.594917 0.000000 0.000000
    40 0.120180 -0.051600 -0.063059 0.012085 -2.987703 1.512552
  time 10
    0 6.783867 0.407111 -5.736952 -0.075297 -1.274737 -0.246437
    1 -0.071917 -8.498731 -0.104136 -0.023311 0.269754 -0.574940
    2 -0.072383 -3.150735 0.779960 1.024858 1.506711 1.076655
    3 0.000000 2.038370 1.408873 0.000000 0.000000 0.000000
    4 0.000000 -2.240710 2.058080 0.000000 0.000000 0.000000
    5 0.000000 -2.855218 0.622003 0.000000 0.000000 0.000000
    6 0.000000 -5.238311 0.651979 0.000000 0.000000 0.000000
    7 -4.991852 -6.700086 -10.977709 -0.996242 1.479151 -0.595347
    8 0.096946 -8.450419 -0.009363 -0.345109 -0.181760 0.159017
    9 -0.586769 -1.264477 0.200164 0.067476 -0.636166 -3.136445
    10 1.522835 0.058680 0.016850 0.283416 -0.029999 0.078388
    11 1.117947 0.048424 -0.005765 0.000000 0.000000 -0.059000
    12 -0.963867 -2.785143 -0.085346 -0.721700 -0.086432 -0.097759
    13 0.028478 -1.403067 0.006272 -0.997516 -0.000007 -0.000010
    14 0.021412 -0.957782 0.020047 -0.266252 -0.000003 -0.000008
    15 -0.249534 -2.846963 -0.174215 -1.042241 -0.000004 0.000010
    16 0.043235 -1.683940 0.096015 -1.287395 0.000001 0.000000
    17 0.031729 -1.160830 0.058836 -0.687183 0.000000 0.000000
    18 0.447951 -2.798983 -0.200441 -1.169926 -0.007012 -0.011850
    19 -0.032909 -1.480207 0.004935 -1.568054 0.000000 0.000000
    20 -0.027023 -1.076921 -0.020212 -1.050189 0.000000 0.000000
    21 1.164474 -2.543939 -0.170327 -1.273297 -0.132874 0.028863
    22 0.024033 -1.129040 0.017807 -1.650044 0.000000 -0.000001
    23 0.014896 -0.883992 -0.019846 -1.372256 0.000000 0.000000
    24 -0.201342 -0.144317 0.068347 0.372310 -0.144357 1.588663
    25 0.583509 -1.197274 0.185379 0.207590 -0.694792 -0.551304
    26 1.535926 0.010247 0.005009 -0.301575 -0.091778 0.397828
    27 1.100770 0.004528 -0.010675 0.000000 0.000000 -0.197299
    28 0.957766 -2.746777 -0.090301 1.035678 -0.041032 0.291246
    29 -0.033419 -1.397128 -0.011255 -1.874804 0.003835 -0.214045
    30 -0.022361 -0.957433 0.018783 -0.381635 -0.018648 -0.009516
    31 0.250029 -2.820664 -0.238396 -0.681869 0.065259 -0.019464
    32 -0.049759 -1.680544 0.100479 -1.167479 0.000000 0.000000
    33 -0.034141 -1.148311 0.084779 -0.525405 0.000000 0.000000
    34 -0.488517 -2.755600 -0.228261 -1.013594 0.035339 -0.191569
    35 0.039889 -1.479791 0.029854 -1.363700 0.000000 0.000000
    36 0.028785 -1.075733 -0.023110 -1.160745 0.000000 0.000000
    37 -1.180679 -2.507216 -0.193861 -1.203898 0.120143 -0.337102
    38 -0.024967 -1.123934 0.017595 -1.356839 0.000000 0.000000
    39 -0.020058 -0.890965 0.010091 -1.594917 0.000000 0.000000
    40 0.120180 -0.051600 -0.063059 0.012085 -2.987703 1.512552
  time 11
    0 6.514327 0.411018 -5.447881 -0.153248 -1.262121 -0.146090
    1 -0.071917 -8.498731 -0.104136 -0.035263 0.260191 -0.527330
    2 -0.072383 -3.150735 0.779960 1.024858 1.506711 1.076655
    3 0.000000 2.038370 1.408873 0.000000 0.000000 0.000000
    4 0.000000 -2.240710 2.058080 0.000000 0.000000 0.000000
    5 0.000000 -2.855218 0.622003 0.000000 0.000000 0.000000
    6 0.000000 -5.238311 0.651979 0.000000 0.000000 0.000000
    7 -5.214515 -7.164944 -9.922989 -0.705276 1.424871 -0.287934
    8 0.096946 -8.450419 -0.009363 -0.331871 -0.086394 0.138232
    9 -0.586769 -1.264477 0.200164 -0.004593 -0.659707 -3.015529
    10 1.522835 0.058680 0.016850 0.281065 -0.035775 0.071462
    11 1.117947 0.048424 -0.005765 0.000000 0.000000 -0.059467
    12 -0.963867 -2.785143 -0.085346 -0.721834 -0.085054 -0.096201
    13 0.028478 -1.403067 0.006272 -0.996098 -0.000007 -0.000010
    14 0.021412 -0.957782 0.020047 -0.269107 -0.000003 -0.000008
    15 -0.249534 -2.846963 -0.174215 -1.038839 -0.000004 0.000010
    16 0.043235 -1.683940 0.096015 -1.284662 0.000001 0.000000
    17 0.031729 -1.160830 0.058836 -0.684710 0.000000 0.000000
    18 0.447951 -2.798983 -0.200441 -1.168940 -0.005993 -0.011446
    19 -0.032909 -1.480207 0.004935 -1.556737 0.000000 0.000000
    20 -0.027023 -1.076921 -0.020212 -1.040678 0.000000 0.000000
    21 1.164474 -2.543939 -0.170327 -1.273380 -0.130824 0.028144
    22 0.024033 -1.129040 0.017807 -1.631414 0.000000 -0.000001
    23 0.014896 -0.883992 -0.019846 -1.358700 0.000000 0.000000
    24 -0.209155 -0.148224 0.076160 0.375049 -0.162239 1.603966
    25 0.583509 -1.197274 0.185379 0.202269 -0.696110 -0.543010
    26 1.535926 0.010247 0.005009 -0.305458 -0.077421 0.443855
    27 1.100770 0.004528 -0.010675 0.000000 0.000000 -0.047422
    28 0.957766 -2.746777 -0.090301 1.046727 -0.041032 0.291246
    29 -0.033419 -1.397128 -0.011255 -1.878649 0.003835 -0.214045
    30 -0.022361 -0.957433 0.018783 -0.368177 -0.018648 -0.009516
    31 0.250029 -2.820664 -0.238396 -0.692104 0.063725 -0.024737
    32 -0.049759 -1.680544 0.100479 -1.160241 0.000000 0.000000
    33 -0.034141 -1.148311 0.084779 -0.482189 0.000000 0.000000
    34 -0.488517 -2.755600 -0.228261 -1.035693 0.035339 -0.191569
    35 0.039889 -1.479791 0.029854 -1.379471 0.000000 0.000000
    36 0.028785 -1.075733 -0.023110 -1.043604 0.000000 0.000000
    37 -1.180679 -2.507216 -0.193861 -1.203898 0.120143 -0.337102
    38 -0.024967 -1.123934 0.017595 -1.356839 0.000000 0.000000
    39 -0.020058 -0.890965 0.010091 -1.594917 0.000000 0.000000
    40 0.120180 -0.051600 -0.063059 0.012085 -2.987703 1.512552
  time 12
    0 6.307289 0.446175 -5.225218 -0.200531 -1.256835 -0.084910
    1 -0.071917 -8.498731 -0.104136 -0.033521 0.242310 -0.479288
    2 -0.072383 -3.150735 0.779960 1.024858 1.506711 1.076655
    3 0.000000 2.038370 1.408873 0.000000 0.000000 0.000000
    4 0.000000 -2.240710 2.058080 0.000000 0.000000 0.000000
    5 0.000000 -2.855218 0.622003 0.000000 0.000000 0.000000
    6 0.000000 -5.238311 0.651979 0.000000 0.000000 0.000000
    7 -5.331706 -7.571206 -9.071401 -0.540629 1.353489 -0.094826
    8 0.096946 -8.450419 -0.009363 -0.310865 -0.022397 0.131783
    9 -0.586769 -1.264477 0.200164 -0.054692 -0.669789 -2.931149
    10 1.522835 0.058680 0.016850 0.277587 -0.038491 0.065774
    11 1.117947 0.048424 -0.005765 0.000000 0.000000 -0.055693
    12 -0.963867 -2.785143 -0.085346 -0.722057 -0.082944 -0.093792
    13 0.028478 -1.403067 0.006272 -0.993900 -0.000007 -0.000010
    14 0.021412 -0.957782 0.020047 -0.273489 -0.000003 -0.000008
    15 -0.249534 -2.846963 -0.174215 -1.033666 -0.000004 0.000010
    16 0.043235 -1.683940 0.096015 -1.280463 0.000001 0.000000
    17 0.031729 -1.160830 0.058836 -0.680943 0.000000 0.000000
    18 0.447951 -2.798983 -0.200441 -1.167461 -0.004424 -0.010840
    19 -0.032909 -1.480207 0.004935 -1.539369 0.000000 0.000000
    20 -0.027023 -1.076921 -0.020212 -1.026104 0.000000 0.000000
    21 1.164474 -2.543939 -0.170327 -1.273503 -0.127672 0.027042
    22 0.024033 -1.129040 0.017807 -1.602844 0.000000 -0.000001
    23 0.014896 -0.883992 -0.019846 -1.337964 0.000000 0.000000
    24 -0.209155 -0.152130 0.080066 0.376025 -0.168710 1.609508
    25 0.583509 -1.197274 0.185379 0.200387 -0.696577 -0.540076
    26 1.535926 0.010247 0.005009 -0.304463 -0.081364 0.431263
    27 1.100770 0.004528 -0.010675 0.000000 0.000000 0.097829
    28 0.957766 -2.746777 -0.090301 0.946865 -0.041032 0.291246
    29 -0.033419 -1.397128 -0.011255 -1.844144 0.003835 -0.214045
    30 -0.022361 -0.957433 0.018783 -0.301875 -0.018648 -0.009516
    31 0.250029 -2.820664 -0.238396 -0.718925 0.059422 -0.038508
    32 -0.049759 -1.680544 0.100479 -1.194924 0.000000 0.000000
    33 -0.034141 -1.148311 0.084779 -0.447019 0.000000 0.000000
    34 -0.488517 -2.755600 -0.228261 -1.085381 0.035339 -0.191569
    35 0.039889 -1.479791 0.029854 -1.414922 0.000000 0.000000
    36 0.028785 -1.075733 -0.023110 -0.872891 0.000000 0.000000
    37 -1.180679 -2.507216 -0.193861 -1.203898 0.120143 -0.337102
    38 -0.024967 -1.123934 0.017595 -1.356839 0.000000 0.000000
    39 -0.020058 -0.890965 0.010091 -1.594917 0.000000 0.000000
    40 0.120180 -0.051600 -0.063059 0.012085 -2.987703 1.512552
  time 13
    0 6.151035 0.528209 -5.088495 -0.229977 -1.256793 -0.047361
    1 -0.071917 -8.498731 -0.104136 -0.017982 0.211893 -0.431521
    2 -0.072383 -3.150735 0.779960 1.024858 1.506711 1.076655
    3 0.000000 2.038370 1.408873 0.000000 0.000000 0.000000
    4 0.000000 -2.240710 2.058080 0.000000 0.000000 0.000000
    5 0.000000 -2.855218 0.622003 0.000000 0.000000 0.000000
    6 0.000000 -5.238311 0.651979 0.000000 0.000000 0.000000
    7 -5.319987 -7.903248 -8.438569 -0.442007 1.262681 0.043364
    8 0.096946 -8.450419 -0.009363 -0.279087 0.005990 0.145447
    9 -0.586769 -1.264477 0.200164 -0.083490 -0.662642 -2.882030
    10 1.522835 0.058680 0.016850 0.272460 -0.035479 0.059700
    11 1.117947 0.048424 -0.005765 0.000000 0.000000 -0.042536
    12 -0.963867 -2.785143 -0.085346 -0.722280 -0.080416 -0.090916
    13 0.028478 -1.403067 0.006272 -0.991239 -0.000007 -0.000010
    14 0.021412 -0.957782 0.020047 -0.278734 -0.000003 -0.000008
    15 -0.249534 -2.846963 -0.174215 -1.027421 -0.000004 0.000010
    16 0.043235 -1.683940 0.096015 -1.275430 0.000001 0.000000
    17 0.031729 -1.160830 0.058836 -0.676390 0.000000 0.000000
    18 0.447951 -2.798983 -0.200441 -1.165654 -0.002542 -0.010086
    19 -0.032909 -1.480207 0.004935 -1.518453 0.000000 0.000000
    20 -0.027023 -1.076921 -0.020212 -1.008600 0.000000 0.000000
    21 1.164474 -2.543939 -0.170327 -1.273667 -0.123873 0.025723
    22 0.024033 -1.129040 0.017807 -1.568435 0.000000 -0.000001
    23 0.014896 -0.883992 -0.019846 -1.313042 0.000000 0.000000
    24 -0.205249 -0.156037 0.076160 0.325939 -0.155825 1.603073
    25 0.583509 -1.197274 0.185379 0.206907 -0.694959 -0.550244
    26 1.535926 0.010247 0.005009 -0.298842 -0.100515 0.369477
    27 1.100770 0.004528 -0.010675 0.000000 0.000000 0.225994
    28 0.957766 -2.746777 -0.090301 0.722072 -0.041032 0.291246
    29 -0.033419 -1.397128 -0.011255 -1.766489 0.003835 -0.214045
    30 -0.022361 -0.957433 0.018783 -0.178834 -0.018648 -0.009516
    31 0.250029 -2.820664 -0.238396 -0.756461 0.052783 -0.057635
    32 -0.049759 -1.680544 0.100479 -1.254296 0.000000 0.000000
    33 -0.034141 -1.148311 0.084779 -0.430857 0.000000 0.000000
    34 -0.488517 -2.755600 -0.228261 -1.137742 0.035339 -0.191569
    35 0.039889 -1.479791 0.029854 -1.452302 0.000000 0.000000
    36 0.028785 -1.075733 -0.023110 -0.732686 0.000000 0.000000
    37 -1.180679 -2.507216 -0.193861 -1.203898 0.120143 -0.337102
    38 -0.024967 -1.123934 0.017595 -1.356839 0.000000 0.000000
    39 -0.020058 -0.890965 0.010091 -1.594917 0.000000 0.000000
    40 0.120180 -0.051600 -0.063059 0.012085 -2.987703 1.512552
  time 14
    0 6.014312 0.657119 -5.022087 -0.256490 -1.257262 -0.013858
    1 -0.071917 -8.498731 -0.104136 0.006553 0.166699 -0.381598
    2 -0.072383 -3.150735 0.779960 1.024858 1.506711 1.076655
    3 0.000000 2.038370 1.408873 0.000000 0.000000 0.000000
    4 0.000000 -2.240710 2.058080 0.000000 0.000000 0.000000
    5 0.000000 -2.855218 0.622003 0.000000 0.000000 0.000000
    6 0.000000 -5.238311 0.651979 0.000000 0.000000 0.000000
    7 -5.202796 -8.161068 -7.961992 -0.391581 1.153563 0.139877
    8 0.096946 -8.450419 -0.009363 -0.236310 0.007183 0.176879
    9 -0.586769 -1.264477 0.200164 -0.110952 -0.643481 -2.834840
    10 1.522835 0.058680 0.016850 0.265455 -0.025638 0.052348
    11 1.117947 0.048424 -0.005765 0.000000 0.000000 -0.017696
    12 -0.963867 -2.785143 -0.085346 -0.722502 -0.077827 -0.087956
    13 0.028478 -1.403067 0.006272 -0.988549 -0.000007 -0.000010
    14 0.021412 -0.957782 0.020047 -0.284112 -0.000003 -0.000008
    15 -0.249534 -2.846963 -0.174215 -1.021036 -0.000004 0.000010
    16 0.043235 -1.683940 0.096015 -1.270281 0.000001 0.000000
    17 0.031729 -1.160830 0.058836 -0.671720 0.000000 0.000000
    18 0.447951 -2.798983 -0.200441 -1.163846 -0.000612 -0.009332
    19 -0.032909 -1.480207 0.004935 -1.497089 0.000000 0.000000
    20 -0.027023 -1.076921 -0.020212 -0.990662 0.000000 0.000000
    21 1.164474 -2.543939 -0.170327 -1.273832 -0.120002 0.024381
    22 0.024033 -1.129040 0.017807 -1.533262 0.000000 -0.000001
    23 0.014896 -0.883992 -0.019846 -1.287506 0.000000 0.000000
    24 -0.189623 -0.159943 0.068347 0.215900 -0.124005 1.585723
    25 0.583509 -1.197274 0.185379 0.223889 -0.690477 -0.576830
    26 1.535926 0.010247 0.005009 -0.287061 -0.131100 0.267491
    27 1.100770 0.004528 -0.010675 0.000000 0.000000 0.389287
    28 0.957766 -2.746777 -0.090301 0.484552 -0.041032 0.291246
    29 -0.033419 -1.397128 -0.011255 -1.684445 0.003835 -0.214045
    30 -0.022361 -0.957433 0.018783 -0.058573 -0.018648 -0.009516
    31 0.250029 -2.820664 -0.238396 -0.798850 0.044382 -0.078992
    32 -0.049759 -1.680544 0.100479 -1.336738 0.000000 0.000000
    33 -0.034141 -1.148311 0.084779 -0.444522 0.000000 0.000000
    34 -0.488517 -2.755600 -0.228261 -1.167895 0.035339 -0.191569
    35 0.039889 -1.479791 0.029854 -1.473814 0.000000 0.000000
    36 0.028785 -1.075733 -0.023110 -0.707156 0.000000 0.000000
    37 -1.180679 -2.507216 -0.193861 -1.203898 0.120143 -0.337102
    38 -0.024967 -1.123934 0.017595 -1.356839 0.000000 0.000000
    39 -0.020058 -0.890965 0.010091 -1.594917 0.000000 0.000000
    40 0.120180 -0.051600 -0.063059 0.012085 -2.987703 1.512552
  time 15
    0 5.897121 0.828999 -5.022087 -0.280498 -1.258242 0.016300
    1 -0.071917 -8.498731 -0.104136 0.036893 0.109820 -0.329442
    2 -0.072383 -3.150735 0.779960 1.024858 1.506711 1.076655
    3 0.000000 2.038370 1.408873 0.000000 0.000000 0.000000
    4 0.000000 -2.240710 2.058080 0.000000 0.000000 0.000000
    5 0.000000 -2.855218 0.622003 0.000000 0.000000 0.000000
    6 0.000000 -5.238311 0.651979 0.000000 0.000000 0.000000
    7 -5.015290 -8.356386 -7.622138 -0.370570 1.032268 0.212831
    8 0.096946 -8.450419 -0.009363 -0.185029 -0.013856 0.220932
    9 -0.586769 -1.264477 0.200164 -0.136550 -0.615774 -2.790624
    10 1.522835 0.058680 0.016850 0.256825 -0.010875 0.044842
    11 1.117947 0.048424 -0.005765 0.000000 0.000000 0.015088
    12 -0.963867 -2.785143 -0.085346 -0.722770 -0.075154 -0.084924
    13 0.028478 -1.403067 0.006272 -0.985772 -0.000007 -0.000010
    14 0.021412 -0.957782 0.020047 -0.289656 -0.000003 -0.000008
    15 -0.249534 -2.846963 -0.174215 -1.014465 -0.000004 0.000010
    16 0.043235 -1.683940 0.096015 -1.264989 0.000001 0.000000
    17 0.031729 -1.160830 0.058836 -0.666932 0.000000 0.000000
    18 0.447951 -2.798983 -0.200441 -1.161929 0.001365 -0.008550
    19 -0.032909 -1.480207 0.004935 -1.475090 0.000000 0.000000
    20 -0.027023 -1.076921 -0.020212 -0.972182 0.000000 0.000000
    21 1.164474 -2.543939 -0.170327 -1.273996 -0.116011 0.022991
    22 0.024033 -1.129040 0.017807 -1.497045 0.000000 -0.000001
    23 0.014896 -0.883992 -0.019846 -1.261240 0.000000 0.000000
    24 -0.166185 -0.167756 0.056628 0.106179 -0.083512 1.560399
    25 0.583509 -1.197274 0.185379 0.247427 -0.683598 -0.613936
    26 1.535926 0.010247 0.005009 -0.263739 -0.173969 0.114317
    27 1.100770 0.004528 -0.010675 0.000000 0.000000 0.575400
    28 0.957766 -2.746777 -0.090301 0.346514 -0.041032 0.291246
    29 -0.033419 -1.397128 -0.011255 -1.636736 0.003835 -0.214045
    30 -0.022361 -0.957433 0.018783 -0.000609 -0.018648 -0.009516
    31 0.250029 -2.820664 -0.238396 -0.840329 0.035249 -0.099605
    32 -0.049759 -1.680544 0.100479 -1.440093 0.000000 0.000000
    33 -0.034141 -1.148311 0.084779 -0.498976 0.000000 0.000000
    34 -0.488517 -2.755600 -0.228261 -1.170784 0.035339 -0.191569
    35 0.039889 -1.479791 0.029854 -1.475875 0.000000 0.000000
    36 0.028785 -1.075733 -0.023110 -0.943549 0.000000 0.000000
    37 -1.180679 -2.507216 -0.193861 -1.203898 0.120143 -0.337102
    38 -0.024967 -1.123934 0.017595 -1.356839 0.000000 0.000000
    39 -0.020058 -0.890965 0.010091 -1.594917 0.000000 0.000000
    40 0.120180 -0.051600 -0.063059 0.012085 -2.987703 1.512552
  time 16
    0 5.795555 1.039943 -5.076776 -0.302551 -1.259819 0.043545
    1 -0.071917 -8.498731 -0.104136 0.070081 0.044540 -0.274582
    2 -0.072383 -3.150735 0.779960 1.024858 1.506711 1.076655
    3 0.000000 2.038370 1.408873 0.000000 0.000000 0.000000
    4 0.000000 -2.240710 2.058080 0.000000 0.000000 0.000000
    5 0.000000 -2.855218 0.622003 0.000000 0.000000 0.000000
    6 0.000000 -5.238311 0.651979 0.000000 0.000000 0.000000
    7 -4.777002 -8.493109 -7.399475 -0.367833 0.904840 0.272949
    8 0.096946 -8.450419 -0.009363 -0.127738 -0.052229 0.272407
    9 -0.586769 -1.264477 0.200164 -0.159713 -0.582897 -2.750362
    10 1.522835 0.058680 0.016850 0.246875 0.006981 0.038342
    11 1.117947 0.048424 -0.005765 0.000000 0.000000 0.052221
    12 -0.963867 -2.785143 -0.085346 -0.722993 -0.072398 -0.081796
    13 0.028478 -1.403067 0.006272 -0.982880 -0.000007 -0.000010
    14 0.021412 -0.957782 0.020047 -0.295365 -0.000003 -0.000008
    15 -0.249534 -2.846963 -0.174215 -1.007707 -0.000004 0.000010
    16 0.043235 -1.683940 0.096015 -1.259524 0.000001 0.000000
    17 0.031729 -1.160830 0.058836 -0.661987 0.000000 0.000000
    18 0.447951 -2.798983 -0.200441 -1.159957 0.003402 -0.007729
    19 -0.032909 -1.480207 0.004935 -1.452381 0.000000 0.000000
    20 -0.027023 -1.076921 -0.020212 -0.953159 0.000000 0.000000
    21 1.164474 -2.543939 -0.170327 -1.274202 -0.111889 0.021553
    22 0.024033 -1.129040 0.017807 -1.459716 0.000000 -0.000001
    23 0.014896 -0.883992 -0.019846 -1.234168 0.000000 0.000000
    24 -0.142747 -0.175568 0.041003 0.056806 -0.044550 1.530012
    25 0.583509 -1.197274 0.185379 0.273637 -0.674945 -0.655651
    26 1.535926 0.010247 0.005009 -0.222440 -0.224663 -0.093487
    27 1.100770 0.004528 -0.010675 0.000000 0.000000 0.674744
    28 0.957766 -2.746777 -0.090301 0.332074 -0.041032 0.291246
    29 -0.033419 -1.397128 -0.011255 -1.631768 0.003835 -0.214045
    30 -0.022361 -0.957433 0.018783 0.001256 -0.018648 -0.009516
    31 0.250029 -2.820664 -0.238396 -0.875216 0.026860 -0.116731
    32 -0.049759 -1.680544 0.100479 -1.546324 0.000000 0.000000
    33 -0.034141 -1.148311 0.084779 -0.690569 0.000000 0.000000
    34 -0.488517 -2.755600 -0.228261 -1.178418 0.035339 -0.191569
    35 0.039889 -1.479791 0.029854 -1.481328 0.000000 0.000000
    36 0.028785 -1.075733 -0.023110 -1.333946 0.000000 0.000000
    37 -1.180679 -2.507216 -0.193861 -1.203898 0.120143 -0.337102
    38 -0.024967 -1.123934 0.017595 -1.356839 0.000000 0.000000
    39 -0.020058 -0.890965 0.010091 -1.594917 0.000000 0.000000
    40 0.120180 -0.051600 -0.063059 0.012085 -2.987703 1.512552
  time 17
    0 5.709615 1.278232 -5.182248 -0.323017 -1.261950 0.068470
    1 -0.071917 -8.498731 -0.104136 0.103560 -0.025678 -0.215960
    2 -0.072383 -3.150735 0.779960 1.024858 1.506711 1.076655
    3 0.000000 2.038370 1.408873 0.000000 0.000000 0.000000
    4 0.000000 -2.240710 2.058080 0.000000 0.000000 0.000000
    5 0.000000 -2.855218 0.622003 0.000000 0.000000 0.000000
    6 0.000000 -5.238311 0.651979 0.000000 0.000000 0.000000
    7 -4.519182 -8.586862 -7.262752 -0.377065 0.777318 0.325999
    8 0.096946 -8.450419 -0.009363 -0.066932 -0.102974 0.326133
    9 -0.586769 -1.264477 0.200164 -0.179915 -0.548301 -2.715166
    10 1.522835 0.058680 0.016850 0.236003 0.026088 0.034047
    11 1.117947 0.048424 -0.005765 0.000000 0.000000 0.089930
    12 -0.963867 -2.785143 -0.085346 -0.723215 -0.069546 -0.078560
    13 0.028478 -1.403067 0.006272 -0.979900 -0.000007 -0.000010
    14 0.021412 -0.957782 0.020047 -0.301274 -0.000003 -0.000008
    15 -0.249534 -2.846963 -0.174215 -1.000670 -0.000004 0.000010
    16 0.043235 -1.683940 0.096015 -1.253858 0.000001 0.000000
    17 0.031729 -1.160830 0.058836 -0.656885 0.000000 0.000000
    18 0.447951 -2.798983 -0.200441 -1.157930 0.005512 -0.006881
    19 -0.032909 -1.480207 0.004935 -1.428888 0.000000 0.000000
    20 -0.027023 -1.076921 -0.020212 -0.933449 0.000000 0.000000
    21 1.164474 -2.543939 -0.170327 -1.274407 -0.107634 0.020067
    22 0.024033 -1.129040 0.017807 -1.420997 0.000000 -0.000001
    23 0.014896 -0.883992 -0.019846 -1.206097 0.000000 0.000000
    24 -0.115402 -0.183381 0.025377 0.070894 -0.003234 1.487791
    25 0.583509 -1.197274 0.185379 0.298925 -0.665549 -0.696367
    26 1.535926 0.010247 0.005009 -0.162889 -0.270612 -0.335273
    27 1.100770 0.004528 -0.010675 0.000000 0.000000 0.577808
    28 0.957766 -2.746777 -0.090301 0.294887 -0.041032 0.291246
    29 -0.033419 -1.397128 -0.011255 -1.618905 0.003835 -0.214045
    30 -0.022361 -0.957433 0.018783 0.004913 -0.018648 -0.009516
    31 0.250029 -2.820664 -0.238396 -0.897975 0.021060 -0.127769
    32 -0.049759 -1.680544 0.100479 -1.637407 0.000000 0.000000
    33 -0.034141 -1.148311 0.084779 -0.975219 0.000000 0.000000
    34 -0.488517 -2.755600 -0.228261 -1.186100 0.035339 -0.191569
    35 0.039889 -1.479791 0.029854 -1.486805 0.000000 0.000000
    36 0.028785 -1.075733 -0.023110 -1.579427 0.000000 0.000000
    37 -1.180679 -2.507216 -0.193861 -1.203898 0.120143 -0.337102
    38 -0.024967 -1.123934 0.017595 -1.356839 0.000000 0.000000
    39 -0.020058 -0.890965 0.010091 -1.594917 0.000000 0.000000
    40 0.120180 -0.051600 -0.063059 0.012085 -2.987703 1.512552
  time 18
    0 5.643207 1.547771 -5.322877 -0.342260 -1.264635 0.091561
    1 -0.071917 -8.498731 -0.104136 0.134849 -0.097262 -0.151911
    2 -0.072383 -3.150735 0.779960 1.024858 1.506711 1.076655
    3 0.000000 2.038370 1.408873 0.000000 0.000000 0.000000
    4 0.000000 -2.240710 2.058080 0.000000 0.000000 0.000000
    5 0.000000 -2.855218 0.622003 0.000000 0.000000 0.000000
    6 0.000000 -5.238311 0.651979 0.000000 0.000000 0.000000
    7 -4.269174 -8.645458 -7.200250 -0.394637 0.655188 0.374987
    8 0.096946 -8.450419 -0.009363 -0.005134 -0.161161 0.376959
    9 -0.586769 -1.264477 0.200164 -0.196583 -0.515439 -2.685982
    10 1.522835 0.058680 0.016850 0.224647 0.044652 0.033234
    11 1.117947 0.048424 -0.005765 0.000000 0.000000 0.124620
    12 -0.963867 -2.785143 -0.085346 -0.723438 -0.066585 -0.075192
    13 0.028478 -1.403067 0.006272 -0.976834 -0.000007 -0.000010
    14 0.021412 -0.957782 0.020047 -0.307415 -0.000003 -0.000008
    15 -0.249534 -2.846963 -0.174215 -0.993399 -0.000004 0.000010
    16 0.043235 -1.683940 0.096015 -1.247962 0.000001 0.000000
    17 0.031729 -1.160830 0.058836 -0.651548 0.000000 0.000000
    18 0.447951 -2.798983 -0.200441 -1.155849 0.007705 -0.005992
    19 -0.032909 -1.480207 0.004935 -1.404461 0.000000 0.000000
    20 -0.027023 -1.076921 -0.020212 -0.912944 0.000000 0.000000
    21 1.164474 -2.543939 -0.170327 -1.274613 -0.103200 0.018521
    22 0.024033 -1.129040 0.017807 -1.380819 0.000000 -0.000001
    23 0.014896 -0.883992 -0.019846 -1.176951 0.000000 0.000000
    24 -0.091964 -0.191194 0.013658 0.104003 0.045262 1.433386
    25 0.583509 -1.197274 0.185379 0.320042 -0.656872 -0.730755
    26 1.535926 0.010247 0.005009 -0.091269 -0.301724 -0.587696
    27 1.100770 0.004528 -0.010675 0.000000 0.000000 -0.307384
    28 0.957766 -2.746777 -0.090301 0.259873 -0.041032 0.291246
    29 -0.033419 -1.397128 -0.011255 -1.606825 0.003835 -0.214045
    30 -0.022361 -0.957433 0.018783 0.005718 -0.018648 -0.009516
    31 0.250029 -2.820664 -0.238396 -0.902661 0.019837 -0.130034
    32 -0.049759 -1.680544 0.100479 -1.695293 0.000000 0.000000
    33 -0.034141 -1.148311 0.084779 -1.153251 0.000000 0.000000
    34 -0.488517 -2.755600 -0.228261 -1.191697 0.035339 -0.191569
    35 0.039889 -1.479791 0.029854 -1.490796 0.000000 0.000000
    36 0.028785 -1.075733 -0.023110 -1.602624 0.000000 0.000000
    37 -1.180679 -2.507216 -0.193861 -1.203898 0.120143 -0.337102
    38 -0.024967 -1.123934 0.017595 -1.356839 0.000000 0.000000
    39 -0.020058 -0.890965 0.010091 -1.594917 0.000000 0.000000
    40 0.120180 -0.051600 -0.063059 0.012085 -2.987703 1.512552
  time 19
    0 5.588518 1.836842 -5.494757 -0.360770 -1.267875 0.113303
    1 -0.071917 -8.498731 -0.104136 0.155586 -0.143426 -0.104340
    2 -0.072383 -3.150735 0.779960 1.024858 1.506711 1.076655
    3 0.000000 2.038370 1.408873 0.000000 0.000000 0.000000
    4 0.000000 -2.240710 2.058080 0.000000 0.000000 0.000000
    5 0.000000 -2.855218 0.622003 0.000000 0.000000 0.000000
    6 0.000000 -5.238311 0.651979 0.000000 0.000000 0.000000
    7 -4.050417 -8.672802 -7.180718 -0.418003 0.544211 0.421131
    8 0.096946 -8.450419 -0.009363 0.055190 -0.221891 0.419643
    9 -0.586769 -1.264477 0.200164 -0.209192 -0.487702 -2.663858
    10 1.522835 0.058680 0.016850 0.213303 0.060962 0.037142
    11 1.117947 0.048424 -0.005765 0.000000 0.000000 0.152515
    12 -0.963867 -2.785143 -0.085346 -0.723661 -0.063493 -0.071681
    13 0.028478 -1.403067 0.006272 -0.973595 -0.000007 -0.000010
    14 0.021412 -0.957782 0.020047 -0.313822 -0.000003 -0.000008
    15 -0.249534 -2.846963 -0.174215 -0.985803 -0.000004 0.000010
    16 0.043235 -1.683940 0.096015 -1.241836 0.000001 0.000000
    17 0.031729 -1.160830 0.058836 -0.646014 0.000000 0.000000
    18 0.447951 -2.798983 -0.200441 -1.153657 0.009982 -0.005062
    19 -0.032909 -1.480207 0.004935 -1.379026 0.000000 0.000000
    20 -0.027023 -1.076921 -0.020212 -0.891606 0.000000 0.000000
    21 1.164474 -2.543939 -0.170327 -1.274860 -0.098586 0.016915
    22 0.024033 -1.129040 0.017807 -1.338972 0.000000 -0.000001
    23 0.014896 -0.883992 -0.019846 -1.146576 0.000000 0.000000
    24 -0.068526 -0.195100 -0.001967 0.144991 0.091940 1.379241
    25 0.583509 -1.197274 0.185379 0.334028 -0.650676 -0.753731
    26 1.535926 0.010247 0.005009 0.019289 -0.314248 -0.948714
    27 1.100770 0.004528 -0.010675 0.000000 0.000000 -1.163831
    28 0.957766 -2.746777 -0.090301 0.235108 -0.041032 0.291246
    29 -0.033419 -1.397128 -0.011255 -1.598249 0.003835 -0.214045
    30 -0.022361 -0.957433 0.018783 0.002810 -0.018648 -0.009516
    31 0.250029 -2.820664 -0.238396 -0.913866 0.016853 -0.135415
    32 -0.049759 -1.680544 0.100479 -1.707098 0.000000 0.000000
    33 -0.034141 -1.148311 0.084779 -1.172708 0.000000 0.000000
    34 -0.488517 -2.755600 -0.228261 -1.195424 0.035339 -0.191569
    35 0.039889 -1.479791 0.029854 -1.493457 0.000000 0.000000
    36 0.028785 -1.075733 -0.023110 -1.658150 0.000000 0.000000
    37 -1.180679 -2.507216 -0.193861 -1.203898 0.120143 -0.337102
    38 -0.024967 -1.123934 0.017595 -1.356839 0.000000 0.000000
    39 -0.020058 -0.890965 0.010091 -1.594917 0.000000 0.000000
    40 0.120180 -0.051600 -0.063059 0.012085 -2.987703 1.512552
  time 20
    0 5.549454 2.141539 -5.686170 -0.378853 -1.271583 0.134181
    1 -0.071917 -8.498731 -0.104136 0.173974 -0.170619 -0.066291
    2 -0.072383 -3.150735 0.779960 1.024858 1.506711 1.076655
    3 0.000000 2.038370 1.408873 0.000000 0.000000 0.000000
    4 0.000000 -2.240710 2.058080 0.000000 0.000000 0.000000
    5 0.000000 -2.855218 0.622003 0.000000 0.000000 0.000000
    6 0.000000 -5.238311 0.651979 0.000000 0.000000 0.000000
    7 -3.898069 -8.684521 -7.188531 -0.444935 0.449685 0.464676
    8 0.096946 -8.450419 -0.009363 0.111517 -0.280204 0.449058
    9 -0.586769 -1.264477 0.200164 -0.217120 -0.468557 -2.649838
    10 1.522835 0.058680 0.016850 0.202492 0.073256 0.047202
    11 1.117947 0.048424 -0.005765 0.000000 0.000000 0.170021
    12 -0.963867 -2.785143 -0.085346 -0.723884 -0.060270 -0.068026
    13 0.028478 -1.403067 0.006272 -0.970239 -0.000007 -0.000010
    14 0.021412 -0.957782 0.020047 -0.320495 -0.000003 -0.000008
    15 -0.249534 -2.846963 -0.174215 -0.977880 -0.000004 0.000010
    16 0.043235 -1.683940 0.096015 -1.235450 0.000001 0.000000
    17 0.031729 -1.160830 0.058836 -0.640206 0.000000 0.000000
    18 0.447951 -2.798983 -0.200441 -1.151357 0.012367 -0.004093
    19 -0.032909 -1.480207 0.004935 -1.352471 0.000000 0.000000
    20 -0.027023 -1.076921 -0.020212 -0.869293 0.000000 0.000000
    21 1.164474 -2.543939 -0.170327 -1.275106 -0.093768 0.015237
    22 0.024033 -1.129040 0.017807 -1.295178 0.000000 -0.000001
    23 0.014896 -0.883992 -0.019846 -1.114857 0.000000 0.000000
    24 -0.052900 -0.199007 -0.009780 0.183316 0.127800 1.337875
    25 0.583509 -1.197274 0.185379 0.337395 -0.649130 -0.759307
    26 1.535926 0.010247 0.005009 0.022932 -0.314009 -0.960523
    27 1.100770 0.004528 -0.010675 0.000000 0.000000 -1.225830
    28 0.957766 -2.746777 -0.090301 0.219486 -0.041032 0.291246
    29 -0.033419 -1.397128 -0.011255 -1.592873 0.003835 -0.214045
    30 -0.022361 -0.957433 0.018783 -0.003571 -0.018648 -0.009516
    31 0.250029 -2.820664 -0.238396 -0.923071 0.014348 -0.139825
    32 -0.049759 -1.680544 0.100479 -1.733931 0.000000 0.000000
    33 -0.034141 -1.148311 0.084779 -1.216930 0.000000 0.000000
    34 -0.488517 -2.755600 -0.228261 -1.197497 0.035339 -0.191569
    35 0.039889 -1.479791 0.029854 -1.494931 0.000000 0.000000
    36 0.028785 -1.075733 -0.023110 -1.703878 0.000000 0.000000
    37 -1.180679 -2.507216 -0.193861 -1.203898 0.120143 -0.337102
    38 -0.024967 -1.123934 0.017595 -1.356839 0.000000 0.000000
    39 -0.020058 -0.890965 0.010091 -1.594917 0.000000 0.000000
    40 0.120180 -0.051600 -0.063059 0.012085 -2.987703 1.512552
  time 21
    0 5.529922 2.454049 -5.893207 -0.396935 -1.275802 0.154682
    1 -0.071917 -8.498731 -0.104136 0.188563 -0.178182 -0.044797
    2 -0.072383 -3.150735 0.779960 1.024858 1.506711 1.076655
    3 0.000000 2.038370 1.408873 0.000000 0.000000 0.000000
    4 0.000000 -2.240710 2.058080 0.000000 0.000000 0.000000
    5 0.000000 -2.855218 0.622003 0.000000 0.000000 0.000000
    6 0.000000 -5.238311 0.651979 0.000000 0.000000 0.000000
    7 -3.835567 -8.684521 -7.196343 -0.473332 0.376723 0.504565
    8 0.096946 -8.450419 -0.009363 0.161353 -0.331169 0.460030
    9 -0.586769 -1.264477 0.200164 -0.219937 -0.461409 -2.644936
    10 1.522835 0.058680 0.016850 0.192675 0.079822 0.064730
    11 1.117947 0.048424 -0.005765 0.000000 0.000000 0.173364
    12 -0.963867 -2.785143 -0.085346 -0.724107 -0.056890 -0.064202
    13 0.028478 -1.403067 0.006272 -0.966711 -0.000007 -0.000010
    14 0.021412 -0.957782 0.020047 -0.327499 -0.000003 -0.000008
    15 -0.249534 -2.846963 -0.174215 -0.969538 -0.000004 0.000010
    16 0.043235 -1.683940 0.096015 -1.228749 0.000001 0.000000
    17 0.031729 -1.160830 0.058836 -0.634162 0.000000 0.000000
    18 0.447951 -2.798983 -0.200441 -1.148947 0.014848 -0.003056
    19 -0.032909 -1.480207 0.004935 -1.324645 0.000000 0.000000
    20 -0.027023 -1.076921 -0.020212 -0.846002 0.000000 0.000000
    21 1.164474 -2.543939 -0.170327 -1.275394 -0.088734 0.013475
    22 0.024033 -1.129040 0.017807 -1.249438 0.000000 -0.000001
    23 0.014896 -0.883992 -0.019846 -1.081679 0.000000 0.000000
    24 -0.048994 -0.199007 -0.013686 0.208790 0.143959 1.321924
    25 0.583509 -1.197274 0.185379 0.344514 -0.645787 -0.771102
    26 1.535926 0.010247 0.005009 0.030542 -0.313385 -0.985199
    27 1.100770 0.004528 -0.010675 0.000000 0.000000 -1.357856
    28 0.957766 -2.746777 -0.090301 0.211866 -0.041032 0.291246
    29 -0.033419 -1.397128 -0.011255 -1.590218 0.003835 -0.214045
    30 -0.022361 -0.957433 0.018783 -0.013098 -0.018648 -0.009516
    31 0.250029 -2.820664 -0.238396 -0.929075 0.012694 -0.142690
    32 -0.049759 -1.680544 0.100479 -1.754545 0.000000 0.000000
    33 -0.034141 -1.148311 0.084779 -1.250920 0.000000 0.000000
    34 -0.488517 -2.755600 -0.228261 -1.198109 0.035339 -0.191569
    35 0.039889 -1.479791 0.029854 -1.495374 0.000000 0.000000
    36 0.028785 -1.075733 -0.023110 -1.733652 0.000000 0.000000
    37 -1.180679 -2.507216 -0.193861 -1.203898 0.120143 -0.337102
    38 -0.024967 -1.123934 0.017595 -1.356839 0.000000 0.000000
    39 -0.020058 -0.890965 0.010091 -1.594917 0.000000 0.000000
    40 0.120180 -0.051600 -0.063059 0.012085 -2.987703 1.512552
  time 22
    0 5.518203 2.770465 -6.104151 -0.415445 -1.280405 0.175291
    1 -0.071917 -8.498731 -0.104136 0.202071 -0.182053 -0.032670
    2 -0.072383 -3.150735 0.779960 1.024858 1.506711 1.076655
    3 0.000000 2.038370 1.408873 0.000000 0.000000 0.000000
    4 0.000000 -2.240710 2.058080 0.000000 0.000000 0.000000
    5 0.000000 -2.855218 0.622003 0.000000 0.000000 0.000000
    6 0.000000 -5.238311 0.651979 0.000000 0.000000 0.000000
    7 -3.835567 -8.723585 -7.239313 -0.503192 0.346608 0.540311
    8 0.096946 -8.450419 -0.009363 0.206539 -0.387503 0.443467
    9 -0.586769 -1.264477 0.200164 -0.212965 -0.470807 -2.659446
    10 1.522835 0.058680 0.016850 0.184724 0.075461 0.110193
    11 1.117947 0.048424 -0.005765 0.000000 0.000000 0.141766
    12 -0.963867 -2.785143 -0.085346 -0.724330 -0.053342 -0.060188
    13 0.028478 -1.403067 0.006272 -0.963037 -0.000007 -0.000010
    14 0.021412 -0.957782 0.020047 -0.334802 -0.000003 -0.000008
    15 -0.249534 -2.846963 -0.174215 -0.960870 -0.000004 0.000010
    16 0.043235 -1.683940 0.096015 -1.221731 0.000001 0.000000
    17 0.031729 -1.160830 0.058836 -0.627844 0.000000 0.000000
    18 0.447951 -2.798983 -0.200441 -1.146427 0.017460 -0.001978
    19 -0.032909 -1.480207 0.004935 -1.295512 0.000000 0.000000
    20 -0.027023 -1.076921 -0.020212 -0.821555 0.000000 0.000000
    21 1.164474 -2.543939 -0.170327 -1.275682 -0.083449 0.011641
    22 0.024033 -1.129040 0.017807 -1.201544 0.000000 -0.000001
    23 0.014896 -0.883992 -0.019846 -1.046889 0.000000 0.000000
    24 -0.048994 -0.199007 -0.013686 0.224228 0.147079 1.322921
    25 0.583509 -1.197274 0.185379 0.349560 -0.643366 -0.779519
    26 1.535926 0.010247 0.005009 0.035708 -0.312858 -1.001936
    27 1.100770 0.004528 -0.010675 0.000000 0.000000 -1.452269
    28 0.957766 -2.746777 -0.090301 0.211180 -0.041032 0.291246
    29 -0.033419 -1.397128 -0.011255 -1.589980 0.003835 -0.214045
    30 -0.022361 -0.957433 0.018783 -0.025532 -0.018648 -0.009516
    31 0.250029 -2.820664 -0.238396 -0.932263 0.011807 -0.144212
    32 -0.049759 -1.680544 0.100479 -1.767212 0.000000 0.000000
    33 -0.034141 -1.148311 0.084779 -1.271800 0.000000 0.000000
    34 -0.488517 -2.755600 -0.228261 -1.197485 0.035339 -0.191569
    35 0.039889 -1.479791 0.029854 -1.494931 0.000000 0.000000
    36 0.028785 -1.075733 -0.023110 -1.749517 0.000000 0.000000
    37 -1.180679 -2.507216 -0.193861 -1.203898 0.120143 -0.337102
    38 -0.024967 -1.123934 0.017595 -1.356839 0.000000 0.000000
    39 -0.020058 -0.890965 0.010091 -1.594917 0.000000 0.000000
    40 0.120180 -0.051600 -0.063059 0.012085 -2.987703 1.512552
  time 23
    0 5.522109 3.086880 -6.307282 -0.434750 -1.285349 0.196548
    1 -0.071917 -8.498731 -0.104136 0.215447 -0.184785 -0.028281
    2 -0.072383 -3.150735 0.779960 1.024858 1.506711 1.076655
    3 0.000000 2.038370 1.408873 0.000000 0.000000 0.000000
    4 0.000000 -2.240710 2.058080 0.000000 0.000000 0.000000
    5 0.000000 -2.855218 0.622003 0.000000 0.000000 0.000000
    6 0.000000 -5.238311 0.651979 0.000000 0.000000 0.000000
    7 -3.855099 -8.817338 -7.356504 -0.533180 0.363803 0.571263
    8 0.096946 -8.450419 -0.009363 0.248721 -0.458596 0.402639
    9 -0.586769 -1.264477 0.200164 -0.195867 -0.494332 -2.694904
    10 1.522835 0.058680 0.016850 0.177198 0.060353 0.187461
    11 1.117947 0.048424 -0.005765 0.000000 0.000000 0.072568
    12 -0.963867 -2.785143 -0.085346 -0.724552 -0.049627 -0.055981
    13 0.028478 -1.403067 0.006272 -0.959161 -0.000007 -0.000010
    14 0.021412 -0.957782 0.020047 -0.342504 -0.000003 -0.000008
    15 -0.249534 -2.846963 -0.174215 -0.951735 -0.000004 0.000010
    16 0.043235 -1.683940 0.096015 -1.214368 0.000001 0.000000
    17 0.031729 -1.160830 0.058836 -0.621172 0.000000 0.000000
    18 0.447951 -2.798983 -0.200441 -1.143743 0.020181 -0.000834
    19 -0.032909 -1.480207 0.004935 -1.264960 0.000000 0.000000
    20 -0.027023 -1.076921 -0.020212 -0.795914 0.000000 0.000000
    21 1.164474 -2.543939 -0.170327 -1.276011 -0.077912 0.009700
    22 0.024033 -1.129040 0.017807 -1.151216 0.000000 -0.000001
    23 0.014896 -0.883992 -0.019846 -1.010447 0.000000 0.000000
    24 -0.048994 -0.199007 -0.013686 0.239048 0.149836 1.323892
    25 0.583509 -1.197274 0.185379 0.352412 -0.641963 -0.784280
    26 1.535926 0.010247 0.005009 0.038249 -0.312558 -1.010226
    27 1.100770 0.004528 -0.010675 0.000000 0.000000 -1.505859
    28 0.957766 -2.746777 -0.090301 0.216362 -0.041032 0.291246
    29 -0.033419 -1.397128 -0.011255 -1.591784 0.003835 -0.214045
    30 -0.022361 -0.957433 0.018783 -0.040544 -0.018648 -0.009516
    31 0.250029 -2.820664 -0.238396 -0.933054 0.011592 -0.144583
    32 -0.049759 -1.680544 0.100479 -1.773013 0.000000 0.000000
    33 -0.034141 -1.148311 0.084779 -1.281373 0.000000 0.000000
    34 -0.488517 -2.755600 -0.228261 -1.195819 0.035339 -0.191569
    35 0.039889 -1.479791 0.029854 -1.493732 0.000000 0.000000
    36 0.028785 -1.075733 -0.023110 -1.753472 0.000000 0.000000
    37 -1.180679 -2.507216 -0.193861 -1.203898 0.120143 -0.337102
    38 -0.024967 -1.123934 0.017595 -1.356839 0.000000 0.000000
    39 -0.020058 -0.890965 0.010091 -1.594917 0.000000 0.000000
    40 0.120180 -0.051600 -0.063059 0.012085 -2.987703 1.512552
  time 24
    0 5.541641 3.399390 -6.498694 -0.455337 -1.290592 0.218991
    1 -0.071917 -8.498731 -0.104136 0.228717 -0.180686 -0.031886
    2 -0.072383 -3.150735 0.779960 1.024858 1.506711 1.076655
    3 0.000000 2.038370 1.408873 0.000000 0.000000 0.000000
    4 0.000000 -2.240710 2.058080 0.000000 0.000000 0.000000
    5 0.000000 -2.855218 0.622003 0.000000 0.000000 0.000000
    6 0.000000 -5.238311 0.651979 0.000000 0.000000 0.000000
    7 -3.882443 -8.930623 -7.528385 -0.560239 0.407766 0.595960
    8 0.096946 -8.450419 -0.009363 0.285176 -0.534556 0.350700
    9 -0.586769 -1.264477 0.200164 -0.174137 -0.524974 -2.739316
    10 1.522835 0.058680 0.016850 0.167454 0.040867 0.273126
    11 1.117947 0.048424 -0.005765 0.000000 0.000000 -0.010651
    12 -0.963867 -2.785143 -0.085346 -0.724775 -0.045720 -0.051571
    13 0.028478 -1.403067 0.006272 -0.955112 -0.000007 -0.000010
    14 0.021412 -0.957782 0.020047 -0.350570 -0.000003 -0.000008
    15 -0.249534 -2.846963 -0.174215 -0.942135 -0.000004 0.000010
    16 0.043235 -1.683940 0.096015 -1.206631 0.000001 0.000000
    17 0.031729 -1.160830 0.058836 -0.614187 0.000000 0.000000
    18 0.447951 -2.798983 -0.200441 -1.140949 0.023045 0.000379
    19 -0.032909 -1.480207 0.004935 -1.232839 0.000000 0.000000
    20 -0.027023 -1.076921 -0.020212 -0.768971 0.000000 0.000000
    21 1.164474 -2.543939 -0.170327 -1.276340 -0.072088 0.007674
    22 0.024033 -1.129040 0.017807 -1.098316 0.000000 -0.000001
    23 0.014896 -0.883992 -0.019846 -0.972123 0.000000 0.000000
    24 -0.048994 -0.199007 -0.013686 0.253117 0.152210 1.324837
    25 0.583509 -1.197274 0.185379 0.353419 -0.641472 -0.785954
    26 1.535926 0.010247 0.005009 0.038560 -0.312522 -1.011243
    27 1.100770 0.004528 -0.010675 0.000000 0.000000 -1.524818
    28 0.957766 -2.746777 -0.090301 0.226230 -0.041032 0.291246
    29 -0.033419 -1.397128 -0.011255 -1.595187 0.003835 -0.214045
    30 -0.022361 -0.957433 0.018783 -0.057896 -0.018648 -0.009516
    31 0.250029 -2.820664 -0.238396 -0.931855 0.011927 -0.144020
    32 -0.049759 -1.680544 0.100479 -1.773061 0.000000 0.000000
    33 -0.034141 -1.148311 0.084779 -1.281442 0.000000 0.000000
    34 -0.488517 -2.755600 -0.228261 -1.193315 0.035339 -0.191569
    35 0.039889 -1.479791 0.029854 -1.491959 0.000000 0.000000
    36 0.028785 -1.075733 -0.023110 -1.747517 0.000000 0.000000
    37 -1.180679 -2.507216 -0.193861 -1.203898 0.120143 -0.337102
    38 -0.024967 -1.123934 0.017595 -1.356839 0.000000 0.000000
    39 -0.020058 -0.890965 0.010091 -1.594917 0.000000 0.000000
    40 0.120180 -0.051600 -0.063059 0.012085 -2.987703 1.512552
  time 25
    0 5.568986 3.696274 -6.670575 -0.477635 -1.296005 0.243214
    1 -0.071917 -8.498731 -0.104136 0.240721 -0.172597 -0.040957
    2 -0.072383 -3.150735 0.779960 1.024858 1.506711 1.076655
    3 0.000000 2.038370 1.408873 0.000000 0.000000 0.000000
    4 0.000000 -2.240710 2.058080 0.000000 0.000000 0.000000
    5 0.000000 -2.855218 0.622003 0.000000 0.000000 0.000000
    6 0.000000 -5.238311 0.651979 0.000000 0.000000 0.000000
    7 -3.909788 -9.036095 -7.731516 -0.582587 0.458050 0.614239
    8 0.096946 -8.450419 -0.009363 0.313212 -0.605492 0.300871
    9 -0.586769 -1.264477 0.200164 -0.153361 -0.555707 -2.780657
    10 1.522835 0.058680 0.016850 0.154364 0.023307 0.343855
    11 1.117947 0.048424 -0.005765 0.000000 0.000000 -0.084271
    12 -0.963867 -2.785143 -0.085346 -0.724954 -0.041621 -0.046933
    13 0.028478 -1.403067 0.006272 -0.950831 -0.000007 -0.000010
    14 0.021412 -0.957782 0.020047 -0.359069 -0.000003 -0.000008
    15 -0.249534 -2.846963 -0.174215 -0.932115 -0.000004 0.000010
    16 0.043235 -1.683940 0.096015 -1.198491 0.000001 0.000000
    17 0.031729 -1.160830 0.058836 -0.606809 0.000000 0.000000
    18 0.447951 -2.798983 -0.200441 -1.138046 0.026053 0.001658
    19 -0.032909 -1.480207 0.004935 -1.199075 0.000000 0.000000
    20 -0.027023 -1.076921 -0.020212 -0.740618 0.000000 0.000000
    21 1.164474 -2.543939 -0.170327 -1.276751 -0.065964 0.005529
    22 0.024033 -1.129040 0.017807 -1.042775 0.000000 -0.000001
    23 0.014896 -0.883992 -0.019846 -0.931802 0.000000 0.000000
    24 -0.048994 -0.199007 -0.013686 0.266286 0.154240 1.325743
    25 0.583509 -1.197274 0.185379 0.352927 -0.641724 -0.785125
    26 1.535926 0.010247 0.005009 0.037038 -0.312702 -1.006276
    27 1.100770 0.004528 -0.010675 0.000000 0.000000 -1.515377
    28 0.957766 -2.746777 -0.090301 0.239756 -0.041032 0.291246
    29 -0.033419 -1.397128 -0.011255 -1.599849 0.003835 -0.214045
    30 -0.022361 -0.957433 0.018783 -0.077297 -0.018648 -0.009516
    31 0.250029 -2.820664 -0.238396 -0.929075 0.012694 -0.142690
    32 -0.049759 -1.680544 0.100479 -1.768447 0.000000 0.000000
    33 -0.034141 -1.148311 0.084779 -1.273812 0.000000 0.000000
    34 -0.488517 -2.755600 -0.228261 -1.190199 0.035339 -0.191569
    35 0.039889 -1.479791 0.029854 -1.489730 0.000000 0.000000
    36 0.028785 -1.075733 -0.023110 -1.733652 0.000000 0.000000
    37 -1.180679 -2.507216 -0.193861 -1.203898 0.120143 -0.337102
    38 -0.024967 -1.123934 0.017595 -1.356839 0.000000 0.000000
    39 -0.020058 -0.890965 0.010091 -1.594917 0.000000 0.000000
    40 0.120180 -0.051600 -0.063059 0.012085 -2.987703 1.512552
  time 26
    0 5.611956 3.977533 -6.811204 -0.502071 -1.301546 0.269650
    1 -0.071917 -8.498731 -0.104136 0.250271 -0.163381 -0.053066
    2 -0.072383 -3.150735 0.779960 1.024858 1.506711 1.076655
    3 0.000000 2.038370 1.408873 0.000000 0.000000 0.000000
    4 0.000000 -2.240710 2.058080 0.000000 0.000000 0.000000
    5 0.000000 -2.855218 0.622003 0.000000 0.000000 0.000000
    6 0.000000 -5.238311 0.651979 0.000000 0.000000 0.000000
    7 -3.933226 -9.098597 -7.938553 -0.599013 0.493927 0.626750
    8 0.096946 -8.450419 -0.009363 0.330079 -0.661481 0.266353
    9 -0.586769 -1.264477 0.200164 -0.139129 -0.579521 -2.806866
    10 1.522835 0.058680 0.016850 0.138451 0.013367 0.376279
    11 1.117947 0.048424 -0.005765 0.000000 0.000000 -0.124676
    12 -0.963867 -2.785143 -0.085346 -0.725176 -0.037295 -0.042055
    13 0.028478 -1.403067 0.006272 -0.946347 -0.000007 -0.000010
    14 0.021412 -0.957782 0.020047 -0.367998 -0.000003 -0.000008
    15 -0.249534 -2.846963 -0.174215 -0.921489 -0.000004 0.000010
    16 0.043235 -1.683940 0.096015 -1.189949 0.000001 0.000000
    17 0.031729 -1.160830 0.058836 -0.599077 0.000000 0.000000
    18 0.447951 -2.798983 -0.200441 -1.134924 0.029205 0.003005
    19 -0.032909 -1.480207 0.004935 -1.163555 0.000000 0.000000
    20 -0.027023 -1.076921 -0.020212 -0.710890 0.000000 0.000000
    21 1.164474 -2.543939 -0.170327 -1.277162 -0.059540 0.003276
    22 0.024033 -1.129040 0.017807 -0.984314 0.000000 -0.000001
    23 0.014896 -0.883992 -0.019846 -0.889408 0.000000 0.000000
    24 -0.048994 -0.199007 -0.013686 0.278423 0.155944 1.326585
    25 0.583509 -1.197274 0.185379 0.351237 -0.642539 -0.782314
    26 1.535926 0.010247 0.005009 0.034042 -0.313038 -0.996578
    27 1.100770 0.004528 -0.010675 0.000000 0.000000 -1.483766
    28 0.957766 -2.746777 -0.090301 0.255758 -0.041032 0.291246
    29 -0.033419 -1.397128 -0.011255 -1.605395 0.003835 -0.214045
    30 -0.022361 -0.957433 0.018783 -0.098453 -0.018648 -0.009516
    31 0.250029 -2.820664 -0.238396 -0.925096 0.013797 -0.140796
    32 -0.049759 -1.680544 0.100479 -1.760261 0.000000 0.000000
    33 -0.034141 -1.148311 0.084779 -1.260320 0.000000 0.000000
    34 -0.488517 -2.755600 -0.228261 -1.186675 0.035339 -0.191569
    35 0.039889 -1.479791 0.029854 -1.487213 0.000000 0.000000
    36 0.028785 -1.075733 -0.023110 -1.713899 0.000000 0.000000
    37 -1.180679 -2.507216 -0.193861 -1.203898 0.120143 -0.337102
    38 -0.024967 -1.123934 0.017595 -1.356839 0.000000 0.000000
    39 -0.020058 -0.890965 0.010091 -1.594917 0.000000 0.000000
    40 0.120180 -0.051600 -0.063059 0.012085 -2.987703 1.512552
  time 27
    0 5.666645 4.235353 -6.908863 -0.529256 -1.307044 0.299053
    1 -0.071917 -8.498731 -0.104136 0.256234 -0.156046 -0.065860
    2 -0.072383 -3.150735 0.779960 1.024858 1.506711 1.076655
    3 0.000000 2.038370 1.408873 0.000000 0.000000 0.000000
    4 0.000000 -2.240710 2.058080 0.000000 0.000000 0.000000
    5 0.000000 -2.855218 0.622003 0.000000 0.000000 0.000000
    6 0.000000 -5.238311 0.651979 0.000000 0.000000 0.000000
    7 -3.941039 -9.079065 -8.133872 -0.610856 0.521346 0.627644
    8 0.096946 -8.450419 -0.009363 0.336032 -0.714550 0.242250
    9 -0.586769 -1.264477 0.200164 -0.131297 -0.598894 -2.816572
    10 1.522835 0.058680 0.016850 0.122162 0.010158 0.373493
    11 1.117947 0.048424 -0.005765 0.000000 0.000000 -0.133483
    12 -0.963867 -2.785143 -0.085346 -0.725355 -0.032753 -0.036914
    13 0.028478 -1.403067 0.006272 -0.941604 -0.000007 -0.000010
    14 0.021412 -0.957782 0.020047 -0.377393 -0.000003 -0.000008
    15 -0.249534 -2.846963 -0.174215 -0.910350 -0.000004 0.000010
    16 0.043235 -1.683940 0.096015 -1.180947 0.000001 0.000000
    17 0.031729 -1.160830 0.058836 -0.590953 0.000000 0.000000
    18 0.447951 -2.798983 -0.200441 -1.131692 0.032525 0.004446
    19 -0.032909 -1.480207 0.004935 -1.126205 0.000000 0.000000
    20 -0.027023 -1.076921 -0.020212 -0.679535 0.000000 0.000000
    21 1.164474 -2.543939 -0.170327 -1.277615 -0.052769 0.000903
    22 0.024033 -1.129040 0.017807 -0.922795 0.000000 -0.000001
    23 0.014896 -0.883992 -0.019846 -0.844787 0.000000 0.000000
    24 -0.048994 -0.199007 -0.013686 0.289397 0.157361 1.327361
    25 0.583509 -1.197274 0.185379 0.348709 -0.643773 -0.778090
    26 1.535926 0.010247 0.005009 0.029967 -0.313433 -0.983322
    27 1.100770 0.004528 -0.010675 0.000000 0.000000 -1.436215
    28 0.957766 -2.746777 -0.090301 0.273246 -0.041032 0.291246
    29 -0.033419 -1.397128 -0.011255 -1.611419 0.003835 -0.214045
    30 -0.022361 -0.957433 0.018783 -0.121090 -0.018648 -0.009516
    31 0.250029 -2.820664 -0.238396 -0.920338 0.015091 -0.138519
    32 -0.049759 -1.680544 0.100479 -1.749607 0.000000 0.000000
    33 -0.034141 -1.148311 0.084779 -1.242770 0.000000 0.000000
    34 -0.488517 -2.755600 -0.228261 -1.182936 0.035339 -0.191569
    35 0.039889 -1.479791 0.029854 -1.484552 0.000000 0.000000
    36 0.028785 -1.075733 -0.023110 -1.690280 0.000000 0.000000
    37 -1.180679 -2.507216 -0.193861 -1.203898 0.120143 -0.337102
    38 -0.024967 -1.123934 0.017595 -1.356839 0.000000 0.000000
    39 -0.020058 -0.890965 0.010091 -1.594917 0.000000 0.000000
    40 0.120180 -0.051600 -0.063059 0.012085 -2.987703 1.512552
  time 28
    0 5.729147 4.477548 -6.986990 -0.559617 -1.312457 0.331962
    1 -0.071917 -8.498731 -0.104136 0.254888 -0.150593 -0.083552
    2 -0.072383 -3.150735 0.779960 1.024858 1.506711 1.076655
    3 0.000000 2.038370 1.408873 0.000000 0.000000 0.000000
    4 0.000000 -2.240710 2.058080 0.000000 0.000000 0.000000
    5 0.000000 -2.855218 0.622003 0.000000 0.000000 0.000000
    6 0.000000 -5.238311 0.651979 0.000000 0.000000 0.000000
    7 -3.929320 -8.950155 -8.290127 -0.617541 0.551089 0.616676
    8 0.096946 -8.450419 -0.009363 0.332800 -0.767242 0.221442
    9 -0.586769 -1.264477 0.200164 -0.126234 -0.616048 -2.819154
    10 1.522835 0.058680 0.016850 0.106527 0.008874 0.355849
    11 1.117947 0.048424 -0.005765 0.000000 0.000000 -0.129780
    12 -0.963867 -2.785143 -0.085346 -0.725488 -0.027959 -0.031520
    13 0.028478 -1.403067 0.006272 -0.936628 -0.000007 -0.000010
    14 0.021412 -0.957782 0.020047 -0.387285 -0.000003 -0.000008
    15 -0.249534 -2.846963 -0.174215 -0.898606 -0.000004 0.000010
    16 0.043235 -1.683940 0.096015 -1.171455 0.000001 0.000000
    17 0.031729 -1.160830 0.058836 -0.582398 0.000000 0.000000
    18 0.447951 -2.798983 -0.200441 -1.128241 0.036013 0.005968
    19 -0.032909 -1.480207 0.004935 -1.086876 0.000000 0.000000
    20 -0.027023 -1.076921 -0.020212 -0.646517 0.000000 0.000000
    21 1.164474 -2.543939 -0.170327 -1.278108 -0.045638 -0.001590
    22 0.024033 -1.129040 0.017807 -0.858078 0.000000 -0.000001
    23 0.014896 -0.883992 -0.019846 -0.797862 0.000000 0.000000
    24 -0.048994 -0.199007 -0.013686 0.299057 0.158490 1.328061
    25 0.583509 -1.197274 0.185379 0.345641 -0.645247 -0.772991
    26 1.535926 0.010247 0.005009 0.025173 -0.313841 -0.967797
    27 1.100770 0.004528 -0.010675 0.000000 0.000000 -1.378879
    28 0.957766 -2.746777 -0.090301 0.291039 -0.041032 0.291246
    29 -0.033419 -1.397128 -0.011255 -1.617578 0.003835 -0.214045
    30 -0.022361 -0.957433 0.018783 -0.144915 -0.018648 -0.009516
    31 0.250029 -2.820664 -0.238396 -0.915197 0.016493 -0.136062
    32 -0.049759 -1.680544 0.100479 -1.737586 0.000000 0.000000
    33 -0.034141 -1.148311 0.084779 -1.222965 0.000000 0.000000
    34 -0.488517 -2.755600 -0.228261 -1.179209 0.035339 -0.191569
    35 0.039889 -1.479791 0.029854 -1.481892 0.000000 0.000000
    36 0.028785 -1.075733 -0.023110 -1.664772 0.000000 0.000000
    37 -1.180679 -2.507216 -0.193861 -1.203898 0.120143 -0.337102
    38 -0.024967 -1.123934 0.017595 -1.356839 0.000000 0.000000
    39 -0.020058 -0.890965 0.010091 -1.594917 0.000000 0.000000
    40 0.120180 -0.051600 -0.063059 0.012085 -2.987703 1.512552
  time 29
    0 5.807274 4.719743 -7.057305 -0.593705 -1.317572 0.368972
    1 -0.071917 -8.498731 -0.104136 0.245786 -0.145344 -0.107828
    2 -0.072383 -3.150735 0.779960 1.024858 1.506711 1.076655
    3 0.000000 2.038370 1.408873 0.000000 0.000000 0.000000
    4 0.000000 -2.240710 2.058080 0.000000 0.000000 0.000000
    5 0.000000 -2.855218 0.622003 0.000000 0.000000 0.000000
    6 0.000000 -5.238311 0.651979 0.000000 0.000000 0.000000
    7 -3.882443 -8.680615 -8.383880 -0.614612 0.570514 0.603597
    8 0.096946 -8.450419 -0.009363 0.319959 -0.795691 0.213601
    9 -0.586769 -1.264477 0.200164 -0.124467 -0.623423 -2.819056
    10 1.522835 0.058680 0.016850 0.090444 0.008627 0.325786
    11 1.117947 0.048424 -0.005765 0.000000 0.000000 -0.116264
    12 -0.963867 -2.785143 -0.085346 -0.725667 -0.022926 -0.025828
    13 0.028478 -1.403067 0.006272 -0.931393 -0.000007 -0.000010
    14 0.021412 -0.957782 0.020047 -0.397709 -0.000003 -0.000008
    15 -0.249534 -2.846963 -0.174215 -0.886256 -0.000004 0.000010
    16 0.043235 -1.683940 0.096015 -1.161475 0.000001 0.000000
    17 0.031729 -1.160830 0.058836 -0.573372 0.000000 0.000000
    18 0.447951 -2.798983 -0.200441 -1.124626 0.039680 0.007584
    19 -0.032909 -1.480207 0.004935 -1.045455 0.000000 0.000000
    20 -0.027023 -1.076921 -0.020212 -0.611798 0.000000 0.000000
    21 1.164474 -2.543939 -0.170327 -1.278642 -0.038147 -0.004226
    22 0.024033 -1.129040 0.017807 -0.789955 0.000000 -0.000001
    23 0.014896 -0.883992 -0.019846 -0.748440 0.000000 0.000000
    24 -0.048994 -0.199007 -0.013686 0.307274 0.159352 1.328643
    25 0.583509 -1.197274 0.185379 0.342369 -0.646805 -0.767554
    26 1.535926 0.010247 0.005009 0.020068 -0.314200 -0.951256
    27 1.100770 0.004528 -0.010675 0.000000 0.000000 -1.318065
    28 0.957766 -2.746777 -0.090301 0.308070 -0.041032 0.291246
    29 -0.033419 -1.397128 -0.011255 -1.623465 0.003835 -0.214045
    30 -0.022361 -0.957433 0.018783 -0.169673 -0.018648 -0.009516
    31 0.250029 -2.820664 -0.238396 -0.910079 0.017860 -0.133605
    32 -0.049759 -1.680544 0.100479 -1.725290 0.000000 0.000000
    33 -0.034141 -1.148311 0.084779 -1.202675 0.000000 0.000000
    34 -0.488517 -2.755600 -0.228261 -1.175697 0.035339 -0.191569
    35 0.039889 -1.479791 0.029854 -1.479375 0.000000 0.000000
    36 0.028785 -1.075733 -0.023110 -1.639419 0.000000 0.000000
    37 -1.180679 -2.507216 -0.193861 -1.203898 0.120143 -0.337102
    38 -0.024967 -1.123934 0.017595 -1.356839 0.000000 0.000000
    39 -0.020058 -0.890965 0.010091 -1.594917 0.000000 0.000000
    40 0.120180 -0.051600 -0.063059 0.012085 -2.987703 1.512552
  time 30
    0 5.901027 4.958031 -7.123713 -0.631887 -1.322217 0.410621
    1 -0.071917 -8.498731 -0.104136 0.233044 -0.140682 -0.132750
    2 -0.072383 -3.150735 0.779960 1.024858 1.506711 1.076655
    3 0.000000 2.038370 1.408873 0.000000 0.000000 0.000000
    4 0.000000 -2.240710 2.058080 0.000000 0.000000 0.000000
    5 0.000000 -2.855218 0.622003 0.000000 0.000000 0.000000
    6 0.000000 -5.238311 0.651979 0.000000 0.000000 0.000000
    7 -3.796503 -8.227476 -8.399505 -0.596721 0.566982 0.598804
    8 0.096946 -8.450419 -0.009363 0.297025 -0.775909 0.228471
    9 -0.586769 -1.264477 0.200164 -0.135643 -0.539451 -2.813402
    10 1.522835 0.058680 0.016850 0.072798 0.008561 0.285546
    11 1.117947 0.048424 -0.005765 0.000000 0.000000 -0.095630
    12 -0.963867 -2.785143 -0.085346 -0.725756 -0.017616 -0.019859
    13 0.028478 -1.403067 0.006272 -0.925868 -0.000007 -0.000010
    14 0.021412 -0.957782 0.020047 -0.408664 -0.000003 -0.000008
    15 -0.249534 -2.846963 -0.174215 -0.873253 -0.000004 0.000010
    16 0.043235 -1.683940 0.096015 -1.150977 0.000001 0.000000
    17 0.031729 -1.160830 0.058836 -0.563874 0.000000 0.000000
    18 0.447951 -2.798983 -0.200441 -1.120792 0.043539 0.009294
    19 -0.032909 -1.480207 0.004935 -1.001905 0.000000 0.000000
    20 -0.027023 -1.076921 -0.020212 -0.575236 0.000000 0.000000
    21 1.164474 -2.543939 -0.170327 -1.279218 -0.030250 -0.006995
    22 0.024033 -1.129040 0.017807 -0.718287 0.000000 -0.000001
    23 0.014896 -0.883992 -0.019846 -0.696408 0.000000 0.000000
    24 -0.048994 -0.199007 -0.013686 0.313914 0.160003 1.329135
    25 0.583509 -1.197274 0.185379 0.339241 -0.648279 -0.762363
    26 1.535926 0.010247 0.005009 0.015010 -0.314476 -0.934910
    27 1.100770 0.004528 -0.010675 0.000000 0.000000 -1.259926
    28 0.957766 -2.746777 -0.090301 0.323234 -0.041032 0.291246
    29 -0.033419 -1.397128 -0.011255 -1.628705 0.003835 -0.214045
    30 -0.022361 -0.957433 0.018783 -0.195053 -0.018648 -0.009516
    31 0.250029 -2.820664 -0.238396 -0.905393 0.019106 -0.131352
    32 -0.049759 -1.680544 0.100479 -1.713809 0.000000 0.000000
    33 -0.034141 -1.148311 0.084779 -1.183773 0.000000 0.000000
    34 -0.488517 -2.755600 -0.228261 -1.172593 0.035339 -0.191569
    35 0.039889 -1.479791 0.029854 -1.477170 0.000000 0.000000
    36 0.028785 -1.075733 -0.023110 -1.616178 0.000000 0.000000
    37 -1.180679 -2.507216 -0.193861 -1.203898 0.120143 -0.337102
    38 -0.024967 -1.123934 0.017595 -1.356839 0.000000 0.000000
    39 -0.020058 -0.890965 0.010091 -1.594917 0.000000 0.000000
    40 0.120180 -0.051600 -0.063059 0.012085 -2.987703 1.512552
  time 31
    0 6.006499 5.200226 -7.186215 -0.674649 -1.326224 0.457396
    1 -0.071917 -8.498731 -0.104136 0.219351 -0.137338 -0.153303
    2 -0.072383 -3.150735 0.779960 1.024858 1.506711 1.076655
    3 0.000000 2.038370 1.408873 0.000000 0.000000 0.000000
    4 0.000000 -2.240710 2.058080 0.000000 0.000000 0.000000
    5 0.000000 -2.855218 0.622003 0.000000 0.000000 0.000000
    6 0.000000 -5.238311 0.651979 0.000000 0.000000 0.000000
    7 -3.640249 -7.430577 -8.313565 -0.531143 0.495321 0.607334
    8 0.096946 -8.450419 -0.009363 0.252519 -0.703716 0.284888
    9 -0.586769 -1.264477 0.200164 -0.185599 -0.517416 -2.768990
    10 1.522835 0.058680 0.016850 0.052497 0.007755 0.237684
    11 1.117947 0.048424 -0.005765 0.000000 0.000000 -0.070575
    12 -0.963867 -2.785143 -0.085346 -0.725845 -0.012044 -0.013568
    13 0.028478 -1.403067 0.006272 -0.920083 -0.000007 -0.000010
    14 0.021412 -0.957782 0.020047 -0.420183 -0.000003 -0.000008
    15 -0.249534 -2.846963 -0.174215 -0.859552 -0.000004 0.000010
    16 0.043235 -1.683940 0.096015 -1.139961 0.000001 0.000000
    17 0.031729 -1.160830 0.058836 -0.553906 0.000000 0.000000
    18 0.447951 -2.798983 -0.200441 -1.116793 0.047590 0.011126
    19 -0.032909 -1.480207 0.004935 -0.956077 0.000000 0.000000
    20 -0.027023 -1.076921 -0.020212 -0.536792 0.000000 0.000000
    21 1.164474 -2.543939 -0.170327 -1.279876 -0.021956 -0.009919
    22 0.024033 -1.129040 0.017807 -0.642795 0.000000 -0.000001
    23 0.014896 -0.883992 -0.019846 -0.641687 0.000000 0.000000
    24 -0.048994 -0.199007 -0.013686 0.318810 0.160424 1.329498
    25 0.583509 -1.197274 0.185379 0.336568 -0.649514 -0.757940
    26 1.535926 0.010247 0.005009 0.010396 -0.314656 -0.919971
    27 1.100770 0.004528 -0.010675 0.000000 0.000000 -1.210694
    28 0.957766 -2.746777 -0.090301 0.335427 -0.041032 0.291246
    29 -0.033419 -1.397128 -0.011255 -1.632925 0.003835 -0.214045
    30 -0.022361 -0.957433 0.018783 -0.220799 -0.018648 -0.009516
    31 0.250029 -2.820664 -0.238396 -0.901546 0.020125 -0.129495
    32 -0.049759 -1.680544 0.100479 -1.704257 0.000000 0.000000
    33 -0.034141 -1.148311 0.084779 -1.168026 0.000000 0.000000
    34 -0.488517 -2.755600 -0.228261 -1.170125 0.035339 -0.191569
    35 0.039889 -1.479791 0.029854 -1.475408 0.000000 0.000000
    36 0.028785 -1.075733 -0.023110 -1.597113 0.000000 0.000000
    37 -1.180679 -2.507216 -0.193861 -1.203898 0.120143 -0.337102
    38 -0.024967 -1.123934 0.017595 -1.356839 0.000000 0.000000
    39 -0.020058 -0.890965 0.010091 -1.594917 0.000000 0.000000
    40 0.120180 -0.051600 -0.063059 0.012085 -2.987703 1.512552
  time 32
    0 6.127596 5.438515 -7.244811 -0.722116 -1.329378 0.509566
    1 -0.071917 -8.498731 -0.104136 0.202071 -0.134726 -0.174502
    2 -0.072383 -3.150735 0.779960 1.024858 1.506711 1.076655
    3 0.000000 2.038370 1.408873 0.000000 0.000000 0.000000
    4 0.000000 -2.240710 2.058080 0.000000 0.000000 0.000000
    5 0.000000 -2.855218 0.622003 0.000000 0.000000 0.000000
    6 0.000000 -5.238311 0.651979 0.000000 0.000000 0.000000
    7 -3.460556 -6.516487 -8.188561 -0.446909 0.376537 0.623744
    8 0.096946 -8.450419 -0.009363 0.220968 -0.591739 0.326342
    9 -0.586769 -1.264477 0.200164 -0.255995 -0.540683 -2.703466
    10 1.522835 0.058680 0.016850 0.028536 0.005253 0.184559
    11 1.117947 0.048424 -0.005765 0.000000 0.000000 -0.043830
    12 -0.963867 -2.785143 -0.085346 -0.725934 -0.006171 -0.006952
    13 0.028478 -1.403067 0.006272 -0.913980 -0.000007 -0.000010
    14 0.021412 -0.957782 0.020047 -0.432332 -0.000003 -0.000008
    15 -0.249534 -2.846963 -0.174215 -0.845151 -0.000004 0.000010
    16 0.043235 -1.683940 0.096015 -1.128341 0.000001 0.000000
    17 0.031729 -1.160830 0.058836 -0.543388 0.000000 0.000000
    18 0.447951 -2.798983 -0.200441 -1.112520 0.051832 0.013052
    19 -0.032909 -1.480207 0.004935 -0.907858 0.000000 0.000000
    20 -0.027023 -1.076921 -0.020212 -0.496324 0.000000 0.000000
    21 1.164474 -2.543939 -0.170327 -1.280575 -0.013231 -0.012999
    22 0.024033 -1.129040 0.017807 -0.563480 0.000000 -0.000001
    23 0.014896 -0.883992 -0.019846 -0.584125 0.000000 0.000000
    24 -0.048994 -0.199007 -0.013686 0.321849 0.160673 1.329718
    25 0.583509 -1.197274 0.185379 0.334711 -0.650365 -0.754883
    26 1.535926 0.010247 0.005009 0.006609 -0.314752 -0.907732
    27 1.100770 0.004528 -0.010675 0.000000 0.000000 -1.176598
    28 0.957766 -2.746777 -0.090301 0.343542 -0.041032 0.291246
    29 -0.033419 -1.397128 -0.011255 -1.635715 0.003835 -0.214045
    30 -0.022361 -0.957433 0.018783 -0.246617 -0.018648 -0.009516
    31 0.250029 -2.820664 -0.238396 -0.898934 0.020808 -0.128236
    32 -0.049759 -1.680544 0.100479 -1.697714 0.000000 0.000000
    33 -0.034141 -1.148311 0.084779 -1.157239 0.000000 0.000000
    34 -0.488517 -2.755600 -0.228261 -1.168483 0.035339 -0.191569
    35 0.039889 -1.479791 0.029854 -1.474234 0.000000 0.000000
    36 0.028785 -1.075733 -0.023110 -1.584182 0.000000 0.000000
    37 -1.180679 -2.507216 -0.193861 -1.203898 0.120143 -0.337102
    38 -0.024967 -1.123934 0.017595 -1.356839 0.000000 0.000000
    39 -0.020058 -0.890965 0.010091 -1.594917 0.000000 0.000000
    40 0.120180 -0.051600 -0.063059 0.012085 -2.987703 1.512552
  time 33
    0 6.260413 5.676803 -7.299500 -0.774287 -1.331381 0.567292
    1 -0.071917 -8.498731 -0.104136 0.177272 -0.131478 -0.205459
    2 -0.072383 -3.150735 0.779960 1.024858 1.506711 1.076655
    3 0.000000 2.038370 1.408873 0.000000 0.000000 0.000000
    4 0.000000 -2.240710 2.058080 0.000000 0.000000 0.000000
    5 0.000000 -2.855218 0.622003 0.000000 0.000000 0.000000
    6 0.000000 -5.238311 0.651979 0.000000 0.000000 0.000000
    7 -3.374615 -6.082880 -8.126059 -0.393364 0.225686 0.678906
    8 0.096946 -8.450419 -0.009363 0.236644 -0.440634 0.301265
    9 -0.586769 -1.264477 0.200164 -0.291671 -0.559509 -2.669838
    10 1.522835 0.058680 0.016850 -0.000006 0.000003 0.128804
    11 1.117947 0.048424 -0.005765 0.000000 0.000000 -0.018092
    12 -0.963867 -2.785143 -0.085346 -0.725934 0.000001 -0.000001
    13 0.028478 -1.403067 0.006272 -0.907559 -0.000007 -0.000010
    14 0.021412 -0.957782 0.020047 -0.445080 -0.000003 -0.000008
    15 -0.249534 -2.846963 -0.174215 -0.830005 -0.000004 0.000010
    16 0.043235 -1.683940 0.096015 -1.116117 0.000001 0.000000
    17 0.031729 -1.160830 0.058836 -0.532360 0.000000 0.000000
    18 0.447951 -2.798983 -0.200441 -1.108083 0.056290 0.015112
    19 -0.032909 -1.480207 0.004935 -0.857137 0.000000 0.000000
    20 -0.027023 -1.076921 -0.020212 -0.453794 0.000000 0.000000
    21 1.164474 -2.543939 -0.170327 -1.281315 -0.004051 -0.016247
    22 0.024033 -1.129040 0.017807 -0.479995 0.000000 -0.000001
    23 0.014896 -0.883992 -0.019846 -0.523605 0.000000 0.000000
    24 -0.048994 -0.199007 -0.013686 0.322900 0.160749 1.329808
    25 0.583509 -1.197274 0.185379 0.334028 -0.650676 -0.753731
    26 1.535926 0.010247 0.005009 0.004032 -0.314800 -0.899441
    27 1.100770 0.004528 -0.010675 0.000000 0.000000 -1.163831
    28 0.957766 -2.746777 -0.090301 0.346514 -0.041032 0.291246
    29 -0.033419 -1.397128 -0.011255 -1.636736 0.003835 -0.214045
    30 -0.022361 -0.957433 0.018783 -0.272235 -0.018648 -0.009516
    31 0.250029 -2.820664 -0.238396 -0.897975 0.021060 -0.127769
    32 -0.049759 -1.680544 0.100479 -1.695293 0.000000 0.000000
    33 -0.034141 -1.148311 0.084779 -1.153251 0.000000 0.000000
    34 -0.488517 -2.755600 -0.228261 -1.167895 0.035339 -0.191569
    35 0.039889 -1.479791 0.029854 -1.473814 0.000000 0.000000
    36 0.028785 -1.075733 -0.023110 -1.579427 0.000000 0.000000
    37 -1.180679 -2.507216 -0.193861 -1.203898 0.120143 -0.337102
    38 -0.024967 -1.123934 0.017595 -1.356839 0.000000 0.000000
    39 -0.020058 -0.890965 0.010091 -1.594917 0.000000 0.000000
    40 0.120180 -0.051600 -0.063059 0.012085 -2.987703 1.512552
end
