version 1
nodes
0 "root" -1
end
skeleton
time 0
0 0 0 0 0 0 0
end
triangles
CSO_SmokeGrenade_PW.BMP
0  -0.179529 1.599702 -1.731160  -0.074765 0.609895 -0.788948  0.984252 0.669291 0
0  1.414054 1.599502 -1.001644  0.646190 0.609732 -0.458983  0.826772 0.669291 0
0  1.412892 -4.616498 -1.000814  0.646027 -0.610049 -0.458791  0.826772 0.000000 0
CSO_SmokeGrenade_PW.BMP
0  1.412892 -4.616498 -1.000814  0.645990 -0.610039 -0.458856  0.826772 0.000000 0
0  1.414054 1.599502 -1.001644  0.646217 0.609671 -0.459026  0.826772 0.669291 0
0  1.571670 -4.616296 0.734179  0.720168 -0.610146 0.330273  0.661417 0.000000 0
CSO_SmokeGrenade_PW.BMP
0  1.414054 1.599502 -1.001644  0.646217 0.609669 -0.459029  0.826772 0.669291 0
0  1.572832 1.599704 0.733349  0.720393 0.609989 0.330073  0.661417 0.669291 0
0  1.571670 -4.616296 0.734179  0.720168 -0.610143 0.330277  0.661417 0.000000 0
CSO_SmokeGrenade_PW.BMP
0  1.571670 -4.616296 0.734179  0.720149 -0.610182 0.330248  0.661417 0.000000 0
0  1.572832 1.599704 0.733349  0.720354 0.610019 0.330101  0.661417 0.669291 0
0  0.153599 -4.615897 1.742482  0.088655 -0.359271 0.929013  0.496063 0.000000 0
CSO_SmokeGrenade_PW.BMP
0  1.572832 1.599704 0.733349  0.720377 0.610001 0.330085  0.661417 0.669291 0
0  0.154761 1.600103 1.741652  0.075439 0.610183 0.788661  0.496063 0.669291 0
0  0.153599 -4.615897 1.742482  0.088646 -0.359257 0.929019  0.496063 0.000000 0
CSO_SmokeGrenade_PW.BMP
0  0.153599 -4.615897 1.742482  0.088662 -0.359312 0.928996  0.496063 0.000000 0
0  0.154761 1.600103 1.741652  0.075459 0.610144 0.788689  0.496063 0.669291 0
0  -1.433030 -4.615695 1.022746  -0.645786 -0.609669 0.459635  0.330709 0.000000 0
CSO_SmokeGrenade_PW.BMP
0  0.154761 1.600103 1.741652  0.075456 0.610146 0.788688  0.496063 0.669291 0
0  -1.431868 1.600304 1.021916  -0.645549 0.610040 0.459476  0.330709 0.669291 0
0  -1.433030 -4.615695 1.022746  -0.645783 -0.609671 0.459636  0.330709 0.000000 0
CSO_SmokeGrenade_PW.BMP
0  -1.433030 -4.615695 1.022746  -0.645734 -0.609732 0.459625  0.330709 0.000000 0
0  -1.431868 1.600304 1.021916  -0.645499 0.610049 0.459534  0.330709 0.669291 0
0  -1.598762 -4.615898 -0.722027  -0.720640 -0.609895 -0.329705  0.165354 0.000000 0
CSO_SmokeGrenade_PW.BMP
0  -1.431868 1.600304 1.021916  -0.645499 0.610053 0.459528  0.330709 0.669291 0
0  -1.597600 1.600102 -0.722857  -0.720415 0.610060 -0.329894  0.165354 0.669291 0
0  -1.598762 -4.615898 -0.722027  -0.720639 -0.609904 -0.329691  0.165354 0.000000 0
CSO_SmokeGrenade_PW.BMP
0  -1.598762 -4.615898 -0.722027  -0.720635 -0.609911 -0.329688  0.165354 0.000000 0
0  -1.597600 1.600102 -0.722857  -0.720371 0.610121 -0.329876  0.165354 0.669291 0
0  -0.180691 -4.616297 -1.730330  -0.074961 -0.610079 -0.788786  0.015748 0.000000 0
CSO_SmokeGrenade_PW.BMP
0  -1.597600 1.600102 -0.722857  -0.720424 0.610079 -0.329839  0.165354 0.669291 0
0  -0.179529 1.599702 -1.731160  -0.074750 0.609911 -0.788937  0.015748 0.669291 0
0  -0.180691 -4.616297 -1.730330  -0.075014 -0.610121 -0.788749  0.015748 0.000000 0
CSO_SmokeGrenade_PW.BMP
0  -0.014959 -4.616096 0.014443  -0.000187 -1.000000 0.000133  0.173228 0.834646 0
0  1.571670 -4.616296 0.734179  0.720160 -0.610147 0.330287  0.259843 0.677165 0
0  0.153599 -4.615897 1.742482  -0.000187 -1.000000 0.000133  0.086614 0.677165 0
CSO_SmokeGrenade_PW.BMP
0  -0.014959 -4.616096 0.014443  -0.000187 -1.000000 0.000133  0.173228 0.834646 0
0  1.412892 -4.616498 -1.000814  0.645956 -0.610087 -0.458841  0.354331 0.834646 0
0  1.571670 -4.616296 0.734179  0.720184 -0.610147 0.330234  0.259843 0.677165 0
CSO_SmokeGrenade_PW.BMP
0  -0.014959 -4.616096 0.014443  -0.000187 -1.000000 0.000133  0.173228 0.834646 0
0  -0.180691 -4.616297 -1.730330  -0.075002 -0.610072 -0.788788  0.259843 0.992126 0
0  1.412892 -4.616498 -1.000814  0.645884 -0.610087 -0.458942  0.354331 0.834646 0
CSO_SmokeGrenade_PW.BMP
0  -0.014959 -4.616096 0.014443  -0.000187 -1.000000 0.000133  0.173228 0.834646 0
0  -1.598762 -4.615898 -0.722027  -0.720625 -0.609890 -0.329748  0.086614 0.992126 0
0  -0.180691 -4.616297 -1.730330  -0.074798 -0.610072 -0.788808  0.259843 0.992126 0
CSO_SmokeGrenade_PW.BMP
0  -0.014959 -4.616096 0.014443  -0.000187 -1.000000 0.000134  0.173228 0.834646 0
0  -1.433030 -4.615695 1.022746  -0.645749 -0.609722 0.459616  0.000000 0.834646 0
0  -1.598762 -4.615898 -0.722027  -0.720646 -0.609890 -0.329701  0.086614 0.992126 0
CSO_SmokeGrenade_PW.BMP
0  -0.014959 -4.616096 0.014443  -0.000188 -1.000000 0.000134  0.173228 0.834646 0
0  0.153599 -4.615897 1.742482  0.088609 -0.359306 0.929004  0.086614 0.677165 0
0  -1.433030 -4.615695 1.022746  -0.645678 -0.609722 0.459715  0.000000 0.834646 0
CSO_SmokeGrenade_PW.BMP
0  -0.013797 1.599904 0.013613  0.000187 1.000000 -0.000133  0.173228 0.834646 0
0  1.414054 1.599502 -1.001644  0.646186 0.609723 -0.459001  0.354331 0.834646 0
0  -0.179529 1.599702 -1.731160  -0.074774 0.609890 -0.788951  0.259843 0.992126 0
CSO_SmokeGrenade_PW.BMP
0  -0.013797 1.599904 0.013613  0.000187 1.000000 -0.000133  0.173228 0.834646 0
0  1.572832 1.599704 0.733349  0.720412 0.609966 0.330072  0.259843 0.677165 0
0  1.414054 1.599502 -1.001644  0.646184 0.609723 -0.459004  0.354331 0.834646 0
CSO_SmokeGrenade_PW.BMP
0  -0.013797 1.599904 0.013613  0.000187 1.000000 -0.000134  0.173228 0.834646 0
0  0.154761 1.600103 1.741652  0.075465 0.610148 0.788685  0.086614 0.677165 0
0  1.572832 1.599704 0.733349  0.720388 0.609967 0.330124  0.259843 0.677165 0
CSO_SmokeGrenade_PW.BMP
0  -0.013797 1.599904 0.013613  0.000187 1.000000 -0.000134  0.173228 0.834646 0
0  -1.431868 1.600304 1.021916  -0.645523 0.610087 0.459449  0.000000 0.834646 0
0  0.154761 1.600103 1.741652  0.075535 0.610148 0.788679  0.086614 0.677165 0
CSO_SmokeGrenade_PW.BMP
0  -0.013797 1.599904 0.013613  0.000187 1.000000 -0.000133  0.173228 0.834646 0
0  -1.597600 1.600102 -0.722857  -0.720418 0.610071 -0.329864  0.086614 0.992126 0
0  -1.431868 1.600304 1.021916  -0.645521 0.610087 0.459452  0.000000 0.834646 0
CSO_SmokeGrenade_PW.BMP
0  -0.013797 1.599904 0.013613  0.000187 1.000000 -0.000133  0.173228 0.834646 0
0  -0.179529 1.599702 -1.731160  -0.074821 0.609890 -0.788946  0.259843 0.992126 0
0  -1.597600 1.600102 -0.722857  -0.720397 0.610071 -0.329911  0.086614 0.992126 0
CSO_SmokeGrenade_PW.BMP
0  0.765024 3.429667 -0.672678  0.573195 0.577206 -0.581619  0.354331 0.818898 0
0  0.054274 3.429800 -0.667932  -0.378108 0.694805 -0.611785  0.440945 0.818898 0
0  0.065403 3.429973 0.641974  -0.369198 0.694967 0.617020  0.440945 0.992126 0
CSO_SmokeGrenade_PW.BMP
0  0.065403 3.429973 0.641974  -0.369225 0.694935 0.617039  0.440945 0.992126 0
0  0.054274 3.429800 -0.667932  -0.378131 0.694781 -0.611798  0.440945 0.818898 0
0  -0.743913 2.206125 0.643186  -0.724888 0.219461 0.652974  0.637795 0.992126 0
CSO_SmokeGrenade_PW.BMP
0  0.054274 3.429800 -0.667932  -0.378101 0.694829 -0.611761  0.440945 0.818898 0
0  -0.751565 2.205951 -0.661830  -0.734292 0.219245 -0.642454  0.637795 0.818898 0
0  -0.743913 2.206125 0.643186  -0.724861 0.219464 0.653002  0.637795 0.992126 0
CSO_SmokeGrenade_PW.BMP
0  -0.743913 2.206125 0.643186  -0.724887 0.219424 0.652987  0.637795 0.992126 0
0  -0.751565 2.205951 -0.661830  -0.734285 0.219256 -0.642458  0.637795 0.818898 0
0  -0.744115 1.132125 0.643329  -0.573237 -0.577222 0.581562  0.740157 0.992126 0
CSO_SmokeGrenade_PW.BMP
0  -0.751565 2.205951 -0.661830  -0.734285 0.219211 -0.642473  0.637795 0.818898 0
0  -0.751767 1.131952 -0.661687  -0.581612 -0.577382 -0.573025  0.740157 0.818898 0
0  -0.744115 1.132125 0.643329  -0.573237 -0.577180 0.581603  0.740157 0.992126 0
CSO_SmokeGrenade_PW.BMP
0  0.065403 3.429973 0.641974  -0.369262 0.694955 0.616996  0.874016 0.960630 0
0  -0.743913 2.206125 0.643186  -0.724885 0.219463 0.652976  0.748031 0.811024 0
0  0.771263 3.429842 0.640704  0.581573 0.577396 0.573050  0.984252 0.960630 0
CSO_SmokeGrenade_PW.BMP
0  0.771263 3.429842 0.640704  0.581576 0.577390 0.573053  0.984252 0.960630 0
0  -0.743913 2.206125 0.643186  -0.724905 0.219441 0.652962  0.748031 0.811024 0
0  0.770833 1.131842 0.641011  0.581429 -0.577385 0.573207  0.984252 0.677165 0
CSO_SmokeGrenade_PW.BMP
0  -0.743913 2.206125 0.643186  -0.724890 0.219489 0.652962  0.748031 0.811024 0
0  -0.744115 1.132125 0.643329  -0.573221 -0.577211 0.581589  0.748031 0.677165 0
0  0.770833 1.131842 0.641011  0.581386 -0.577428 0.573207  0.984252 0.677165 0
CSO_SmokeGrenade_PW.BMP
0  -0.751767 1.131952 -0.661687  -0.581611 -0.577335 -0.573073  0.748031 0.677165 0
0  -0.751565 2.205951 -0.661830  -0.734308 0.219197 -0.642452  0.748031 0.811024 0
0  0.764595 1.131668 -0.672371  0.573017 -0.577559 -0.581444  0.984252 0.677165 0
CSO_SmokeGrenade_PW.BMP
0  0.764595 1.131668 -0.672371  0.572986 -0.577590 -0.581444  0.984252 0.677165 0
0  -0.751565 2.205951 -0.661830  -0.734286 0.219270 -0.642453  0.748031 0.811024 0
0  0.765024 3.429667 -0.672678  0.573208 0.577214 -0.581598  0.984252 0.960630 0
CSO_SmokeGrenade_PW.BMP
0  -0.751565 2.205951 -0.661830  -0.734278 0.219287 -0.642456  0.748031 0.811024 0
0  0.054274 3.429800 -0.667932  -0.378099 0.694811 -0.611783  0.874016 0.960630 0
0  0.765024 3.429667 -0.672678  0.573208 0.577242 -0.581571  0.984252 0.960630 0
CSO_SmokeGrenade_PW.BMP
0  0.770833 1.131842 0.641011  0.581380 -0.577381 0.573261  0.354331 0.677165 0
0  0.764595 1.131668 -0.672371  0.573038 -0.577562 -0.581420  0.354331 0.803150 0
0  0.771263 3.429842 0.640704  0.581596 0.577371 0.573053  0.622047 0.677165 0
CSO_SmokeGrenade_PW.BMP
0  0.771263 3.429842 0.640704  0.581596 0.577391 0.573032  0.622047 0.677165 0
0  0.764595 1.131668 -0.672371  0.573038 -0.577594 -0.581388  0.354331 0.803150 0
0  0.765024 3.429667 -0.672678  0.573254 0.577181 -0.581585  0.622047 0.803150 0
CSO_SmokeGrenade_PW.BMP
0  -0.744115 1.132125 0.643329  -0.573257 -0.577205 0.581559  0.992126 0.968504 0
0  -0.751767 1.131952 -0.661687  -0.581655 -0.577358 -0.573006  0.992126 0.968504 0
0  0.770833 1.131842 0.641011  0.581414 -0.577422 0.573185  0.992126 0.685039 0
CSO_SmokeGrenade_PW.BMP
0  0.770833 1.131842 0.641011  0.581362 -0.577422 0.573237  0.992126 0.685039 0
0  -0.751767 1.131952 -0.661687  -0.581601 -0.577358 -0.573060  0.992126 0.968504 0
0  0.764595 1.131668 -0.672371  0.573013 -0.577575 -0.581432  0.992126 0.685039 0
CSO_SmokeGrenade_PW.BMP
0  0.065403 3.429973 0.641974  -0.369249 0.694967 0.616989  0.440945 0.992126 0
0  0.771263 3.429842 0.640704  0.581598 0.577359 0.573063  0.354331 0.992126 0
0  0.765024 3.429667 -0.672678  0.573221 0.577206 -0.581594  0.354331 0.818898 0
CSO_SmokeGrenade_PW.BMP
0  -0.179529 1.599702 -1.731160  -0.074752 0.609904 -0.788942  0.984252 0.669291 0
0  1.412892 -4.616498 -1.000814  0.646023 -0.610052 -0.458793  0.826772 0.000000 0
0  -0.180691 -4.616297 -1.730330  -0.075017 -0.610060 -0.788796  0.984252 0.000000 0
end
