version 1
nodes
  0 "root" -1
  1 "Bone01" 0
  2 "Bone_Lefthand" 1
  3 "sprifle_root" 2
  4 "trigger1" 3
  5 "trigger2" 3
  6 "wheel02" 3
  7 "wheel01" 3
  8 "wheel_link1" 7
  9 "wheel03" 3
  10 "pump" 3
  11 "revolver_link" 3
  12 "revolver_root" 11
  13 "revolver" 12
  14 "magazine" 13
  15 "bullet1" 14
  16 "bullet2" 14
  17 "bullet3" 14
  18 "bullet4" 14
  19 "bullet5" 14
  20 "bullet6" 14
  21 "bullet7" 14
  22 "Bone_L_Upper" 1
  23 "Bone13" 2
  24 "Bone14" 23
  25 "Bone15" 24
  26 "Bone17" 2
  27 "Bone18" 26
  28 "Bone19" 27
  29 "Bone21" 2
  30 "Bone22" 29
  31 "Bone23" 30
  32 "Bone09" 2
  33 "Bone10" 32
  34 "Bone11" 33
  35 "Bone05" 2
  36 "Bone06" 35
  37 "Bone07" 36
  38 "Bone_Se_Hand-L" 2
  39 "Bone04" 0
  40 "Bone_Righthand" 39
  41 "Bone39" 40
  42 "Bone40" 41
  43 "Bone41" 42
  44 "Bone35" 40
  45 "Bone36" 44
  46 "Bone37" 45
  47 "Bone31" 40
  48 "Bone32" 47
  49 "Bone33" 48
  50 "Bone43" 40
  51 "Bone44" 50
  52 "Bone45" 51
  53 "Bone27" 40
  54 "Bone28" 53
  55 "Bone29" 54
  56 "Bone_Se_Hand-R" 40
  57 "Bone_R_Upper" 39
end
skeleton
  time 0
    0 -0.996124 0.003876 1.800000 0.000000 0.000000 -0.000034
    1 10.029492 3.757194 -9.113669 -0.149965 -1.612728 -0.045697
    2 -0.071918 -8.498730 -0.104137 0.151252 0.282508 0.057556
    3 2.733911 -2.087656 1.626837 -0.053752 0.246035 3.130544
    4 0.974667 3.050010 0.000333 0.000009 0.000002 -0.004012
    5 -0.325163 1.868348 0.019495 -0.000006 0.000008 -1.984743
    6 1.078272 6.143588 0.056378 -0.004012 -1.570796 0.000000
    7 -0.229161 7.782845 0.458929 -0.004012 -1.570796 0.000000
    8 0.864836 0.017996 -0.821000 1.570799 -0.348983 1.570796
    9 0.916864 9.033262 -0.145395 -0.004012 -1.570796 0.000000
    10 -0.248194 9.936764 1.328514 0.000002 -0.000009 1.566784
    11 0.938609 4.841143 0.465839 -0.000009 -0.000002 3.137580
    12 0.998565 3.087639 -0.174532 0.000000 0.000000 -1.570796
    13 1.137329 0.000000 0.000000 -0.523579 0.000000 0.000000
    14 -0.819369 -0.001998 0.011001 0.000000 0.000000 0.000000
    15 0.681055 0.557127 0.103592 0.000000 0.000000 0.000000
    16 0.681054 0.247698 0.494205 -3.141592 0.000000 0.000000
    17 0.681054 -0.265101 0.489439 0.000000 0.000000 0.000000
    18 0.681054 -0.576983 0.103931 -3.141592 0.000000 0.000000
    19 0.681055 -0.452399 -0.364148 0.000000 0.000000 0.000000
    20 0.681055 -0.012558 -0.578705 -3.141592 0.000000 0.000000
    21 0.681055 0.450127 -0.379953 0.000000 0.000000 0.000000
    22 1.257180 8.762585 -0.153713 -1.570562 0.002683 -1.566807
    23 -0.488518 -2.755602 -0.228260 -0.276286 -0.172145 -0.126284
    24 0.039887 -1.479790 0.029854 -1.622681 0.000000 0.000001
    25 0.028786 -1.075731 -0.023109 -1.042649 0.000000 0.000000
    26 0.250027 -2.820665 -0.238396 -0.273537 -0.167517 -0.114938
    27 -0.049759 -1.680544 0.100479 -1.760238 0.000000 -0.000002
    28 -0.034142 -1.148312 0.084782 -0.925879 0.000000 0.000000
    29 0.957766 -2.746780 -0.090302 -0.168670 -0.162684 0.097910
    30 -0.033420 -1.397129 -0.011257 -0.170296 -0.043396 -0.075732
    31 -0.022360 -0.957436 0.018784 -0.539183 0.000000 0.000000
    32 -1.180681 -2.507217 -0.193859 0.013476 -0.069771 -0.086690
    33 -0.024967 -1.123934 0.017597 -1.532721 0.000000 0.000001
    34 -0.020057 -0.890968 0.010090 -0.677843 0.000000 0.000000
    35 0.583510 -1.197277 0.185379 0.180199 -0.812077 -1.291294
    36 1.535927 0.010246 0.005009 -0.002964 -0.012979 -0.506627
    37 1.100771 0.004527 -0.010679 -0.014337 0.007572 -0.908784
    38 0.120153 -0.050270 -0.054489 0.287569 3.110905 1.561085
    39 0.299561 -13.583077 -12.173530 -1.199547 -5.086386 -0.350973
    40 0.096944 -8.450418 -0.009365 0.162467 -1.145423 -0.075769
    41 0.447953 -2.798986 -0.200443 -0.786474 -0.067958 0.142839
    42 -0.032909 -1.480204 0.004940 -1.165523 0.000000 0.000002
    43 -0.027022 -1.076920 -0.020210 -0.581968 0.000000 0.000000
    44 -0.249534 -2.846964 -0.174213 -0.128734 0.012411 0.088176
    45 0.043235 -1.683941 0.096012 -1.570874 0.002823 -0.000167
    46 0.031729 -1.160830 0.058838 -0.744924 0.000642 0.008372
    47 -0.963866 -2.785145 -0.085350 0.029528 0.160514 0.097512
    48 0.028479 -1.403067 0.006271 -0.585006 0.000000 0.000000
    49 0.021413 -0.957781 0.020046 -1.349016 0.000000 0.000000
    50 1.164475 -2.543940 -0.170330 -0.959734 -0.190582 0.231601
    51 0.024032 -1.129042 0.017807 -0.709841 0.000000 0.000001
    52 0.014898 -0.883989 -0.019848 -0.845482 0.000000 0.000000
    53 -0.586770 -1.264477 0.200161 0.029405 -0.425529 -2.676430
    54 1.522835 0.058681 0.016848 0.001410 0.008985 0.586072
    55 1.117947 0.048424 -0.005766 0.001267 -0.025174 0.005115
    56 -0.139399 -0.111698 0.014397 0.653645 -0.030687 1.580508
    57 -1.393470 8.839177 -0.239433 1.580804 -0.005023 -1.566847
  time 1
    0 -0.996124 1.015625 1.800000 0.000000 0.000000 -0.000034
    1 10.029492 3.757194 -9.113669 -0.149965 -1.612728 -0.045697
    2 -0.071918 -8.498730 -0.104137 0.136751 0.289651 0.006166
    3 2.733911 -2.087656 1.626837 -0.053752 0.246035 3.130544
    4 0.974667 3.050010 0.000333 0.000009 0.000002 -0.004012
    5 -0.325163 1.868348 0.019495 -0.000006 0.000008 -1.984743
    6 1.078272 6.143588 0.056378 0.247281 -1.570796 0.000000
    7 -0.229161 7.782845 0.458929 -1.564262 -1.570796 0.000000
    8 0.864836 0.017996 -0.821000 4.712295 -1.565767 -1.570700
    9 0.916864 9.033262 -0.145395 0.247281 -1.570796 0.000000
    10 -0.248194 9.382059 1.328514 0.000002 -0.000009 1.566784
    11 0.938609 4.841143 0.465839 -0.000009 -0.000002 3.137580
    12 0.998565 3.087639 -0.174532 0.000000 0.000000 -1.570796
    13 1.137329 0.000000 0.000000 -0.484744 0.000000 0.000000
    14 -0.819369 -0.001998 0.011001 0.000000 0.000000 0.000000
    15 0.681055 0.557127 0.103592 0.000000 0.000000 0.000000
    16 0.681054 0.247698 0.494205 -3.141592 0.000000 0.000000
    17 0.681054 -0.265101 0.489439 0.000000 0.000000 0.000000
    18 0.681054 -0.576983 0.103931 -3.141592 0.000000 0.000000
    19 0.681055 -0.452399 -0.364148 0.000000 0.000000 0.000000
    20 0.681055 -0.012558 -0.578705 -3.141592 0.000000 0.000000
    21 0.681055 0.450127 -0.379953 0.000000 0.000000 0.000000
    22 1.257180 8.762585 -0.153713 -1.570562 0.002683 -1.566807
    23 -0.488518 -2.755602 -0.228260 -0.276286 -0.172145 -0.126284
    24 0.039887 -1.479790 0.029854 -1.622681 0.000000 0.000001
    25 0.028786 -1.075731 -0.023109 -1.042649 0.000000 0.000000
    26 0.250027 -2.820665 -0.238396 -0.273537 -0.167517 -0.114938
    27 -0.049759 -1.680544 0.100479 -1.760238 0.000000 -0.000002
    28 -0.034142 -1.148312 0.084782 -0.925906 0.000000 0.000000
    29 0.957766 -2.746780 -0.090302 -0.168670 -0.162684 0.097910
    30 -0.033420 -1.397129 -0.011257 -0.170296 -0.043396 -0.075732
    31 -0.022360 -0.957436 0.018784 -0.539183 0.000000 0.000000
    32 -1.180681 -2.507217 -0.193859 0.013476 -0.069771 -0.086690
    33 -0.024967 -1.123934 0.017597 -1.532721 0.000000 0.000001
    34 -0.020057 -0.890968 0.010090 -0.677843 0.000000 0.000000
    35 0.583510 -1.197277 0.185379 0.180199 -0.812077 -1.291294
    36 1.535927 0.010246 0.005009 -0.002964 -0.012979 -0.506627
    37 1.100771 0.004527 -0.010679 -0.014337 0.007572 -0.908784
    38 0.120153 -0.050270 -0.054489 0.287569 3.110905 1.561085
    39 0.299561 -13.583077 -13.540759 -1.199547 -5.086386 -0.350973
    40 0.096944 -8.450418 -0.009365 0.162467 -1.145423 -0.075769
    41 0.447953 -2.798986 -0.200443 -0.786474 -0.067958 0.142839
    42 -0.032909 -1.480204 0.004940 -1.165523 0.000000 0.000002
    43 -0.027022 -1.076920 -0.020210 -0.581968 0.000000 0.000000
    44 -0.249534 -2.846964 -0.174213 -0.128734 0.012411 0.088176
    45 0.043235 -1.683941 0.096012 -1.570874 0.002823 -0.000167
    46 0.031729 -1.160830 0.058838 -0.744924 0.000642 0.008372
    47 -0.963866 -2.785145 -0.085350 0.029528 0.160514 0.097512
    48 0.028479 -1.403067 0.006271 -0.585006 0.000000 0.000000
    49 0.021413 -0.957781 0.020046 -1.349016 0.000000 0.000000
    50 1.164475 -2.543940 -0.170330 -0.959734 -0.190582 0.231601
    51 0.024032 -1.129042 0.017807 -0.709841 0.000000 0.000001
    52 0.014898 -0.883989 -0.019848 -0.845482 0.000000 0.000000
    53 -0.586770 -1.264477 0.200161 0.029405 -0.425529 -2.676430
    54 1.522835 0.058681 0.016848 0.001410 0.008985 0.586072
    55 1.117947 0.048424 -0.005766 0.001267 -0.025174 0.005115
    56 -0.139399 -0.111698 0.014397 0.653645 -0.030687 1.580508
    57 -1.393470 8.839177 -0.239433 1.580804 -0.005023 -1.566847
  time 2
    0 -0.996124 1.000000 1.800000 -0.003371 0.000000 -0.000034
    1 10.029492 3.757194 -9.113669 -0.149965 -1.612728 -0.045697
    2 -0.071918 -8.498730 -0.104137 0.136954 0.289555 0.006906
    3 2.733911 -2.087656 1.626837 -0.053752 0.246035 3.130544
    4 0.974667 3.050010 0.000333 0.000009 0.000002 -0.004012
    5 -0.325163 1.868348 0.019495 -0.000006 0.000008 -1.984743
    6 1.078272 6.143588 0.056378 0.498574 -1.570796 0.000000
    7 -0.229161 7.782845 0.458929 -1.811137 -1.570796 0.000000
    8 0.864836 0.017996 -0.821000 4.712391 -1.377401 4.712388
    9 0.916864 9.033262 -0.145395 0.498574 -1.570796 0.000000
    10 -0.248194 9.401591 1.328514 0.000002 -0.000009 1.566784
    11 0.938609 4.841143 0.465839 -0.000009 -0.000002 3.137580
    12 0.998565 3.087639 -0.174532 0.000000 0.000000 -1.570796
    13 1.137329 0.000000 0.000000 -0.387795 0.000000 0.000000
    14 -0.819369 -0.001998 0.011001 0.000000 0.000000 0.000000
    15 0.681055 0.557127 0.103592 0.000000 0.000000 0.000000
    16 0.681054 0.247698 0.494205 -3.141592 0.000000 0.000000
    17 0.681054 -0.265101 0.489439 0.000000 0.000000 0.000000
    18 0.681054 -0.576983 0.103931 -3.141592 0.000000 0.000000
    19 0.681055 -0.452399 -0.364148 0.000000 0.000000 0.000000
    20 0.681055 -0.012558 -0.578705 -3.141592 0.000000 0.000000
    21 0.681055 0.450127 -0.379953 0.000000 0.000000 0.000000
    22 1.257180 8.762585 -0.153713 -1.570562 0.002683 -1.566807
    23 -0.488518 -2.755602 -0.228260 -0.276286 -0.172145 -0.126284
    24 0.039887 -1.479790 0.029854 -1.622681 0.000000 0.000001
    25 0.028786 -1.075731 -0.023109 -1.042649 0.000000 0.000000
    26 0.250027 -2.820665 -0.238396 -0.273537 -0.167517 -0.114938
    27 -0.049759 -1.680544 0.100479 -1.760238 0.000000 -0.000002
    28 -0.034142 -1.148312 0.084782 -0.925906 0.000000 0.000000
    29 0.957766 -2.746780 -0.090302 -0.168670 -0.162684 0.097910
    30 -0.033420 -1.397129 -0.011257 -0.170296 -0.043396 -0.075732
    31 -0.022360 -0.957436 0.018784 -0.539183 0.000000 0.000000
    32 -1.180681 -2.507217 -0.193859 0.013476 -0.069771 -0.086690
    33 -0.024967 -1.123934 0.017597 -1.532721 0.000000 0.000001
    34 -0.020057 -0.890968 0.010090 -0.677843 0.000000 0.000000
    35 0.583510 -1.197277 0.185379 0.180199 -0.812077 -1.291294
    36 1.535927 0.010246 0.005009 -0.002964 -0.012979 -0.506627
    37 1.100771 0.004527 -0.010679 -0.014337 0.007572 -0.908784
    38 0.120153 -0.050270 -0.054489 0.287569 3.110905 1.561085
    39 0.299561 -13.583077 -13.521227 -1.199547 -5.086386 -0.350973
    40 0.096944 -8.450418 -0.009365 0.162467 -1.145423 -0.075769
    41 0.447953 -2.798986 -0.200443 -0.786474 -0.067958 0.142839
    42 -0.032909 -1.480204 0.004940 -1.165523 0.000000 0.000002
    43 -0.027022 -1.076920 -0.020210 -0.581968 0.000000 0.000000
    44 -0.249534 -2.846964 -0.174213 -0.128734 0.012411 0.088176
    45 0.043235 -1.683941 0.096012 -1.570874 0.002823 -0.000167
    46 0.031729 -1.160830 0.058838 -0.744924 0.000642 0.008372
    47 -0.963866 -2.785145 -0.085350 0.029528 0.160514 0.097512
    48 0.028479 -1.403067 0.006271 -0.585006 0.000000 0.000000
    49 0.021413 -0.957781 0.020046 -1.349016 0.000000 0.000000
    50 1.164475 -2.543940 -0.170330 -0.959734 -0.190582 0.231601
    51 0.024032 -1.129042 0.017807 -0.709841 0.000000 0.000001
    52 0.014898 -0.883989 -0.019848 -0.845482 0.000000 0.000000
    53 -0.586770 -1.264477 0.200161 0.029405 -0.425529 -2.676430
    54 1.522835 0.058681 0.016848 0.001410 0.008985 0.586072
    55 1.117947 0.048424 -0.005766 0.001267 -0.025174 0.005115
    56 -0.139399 -0.111698 0.014397 0.653645 -0.030687 1.580508
    57 -1.393470 8.839177 -0.239433 1.580804 -0.005023 -1.566847
  time 3
    0 -0.996124 0.945311 1.800000 -0.011826 0.000000 -0.000034
    1 10.029492 3.757194 -9.113669 -0.149965 -1.612728 -0.045697
    2 -0.071918 -8.498730 -0.104137 0.137554 0.289255 0.009009
    3 2.733911 -2.087656 1.626837 -0.053752 0.246035 3.130544
    4 0.974667 3.050010 0.000333 0.000009 0.000002 -0.004012
    5 -0.325163 1.868348 0.019495 -0.000006 0.000008 -1.984743
    6 1.078272 6.143588 0.056378 0.749962 -1.570796 0.000000
    7 -0.229161 7.782845 0.458929 -2.049479 -1.570796 0.000000
    8 0.864836 0.017996 -0.821000 4.712391 -1.229890 -1.570700
    9 0.916864 9.033262 -0.145395 0.749962 -1.570796 0.000000
    10 -0.248194 9.452374 1.328514 0.000002 -0.000009 1.566784
    11 0.938609 4.841143 0.465839 -0.000009 -0.000002 3.137580
    12 0.998565 3.087639 -0.174532 0.000000 0.000000 -1.570796
    13 1.137329 0.000000 0.000000 -0.261790 0.000000 0.000000
    14 -0.819369 -0.001998 0.011001 0.000000 0.000000 0.000000
    15 0.681055 0.557127 0.103592 0.000000 0.000000 0.000000
    16 0.681054 0.247698 0.494205 -3.141592 0.000000 0.000000
    17 0.681054 -0.265101 0.489439 0.000000 0.000000 0.000000
    18 0.681054 -0.576983 0.103931 -3.141592 0.000000 0.000000
    19 0.681055 -0.452399 -0.364148 0.000000 0.000000 0.000000
    20 0.681055 -0.012558 -0.578705 -3.141592 0.000000 0.000000
    21 0.681055 0.450127 -0.379953 0.000000 0.000000 0.000000
    22 1.257180 8.762585 -0.153713 -1.570562 0.002683 -1.566807
    23 -0.488518 -2.755602 -0.228260 -0.276286 -0.172145 -0.126284
    24 0.039887 -1.479790 0.029854 -1.622681 0.000000 0.000001
    25 0.028786 -1.075731 -0.023109 -1.042649 0.000000 0.000000
    26 0.250027 -2.820665 -0.238396 -0.273537 -0.167517 -0.114938
    27 -0.049759 -1.680544 0.100479 -1.760238 0.000000 -0.000002
    28 -0.034142 -1.148312 0.084782 -0.925906 0.000000 0.000000
    29 0.957766 -2.746780 -0.090302 -0.168670 -0.162684 0.097910
    30 -0.033420 -1.397129 -0.011257 -0.170296 -0.043396 -0.075732
    31 -0.022360 -0.957436 0.018784 -0.539183 0.000000 0.000000
    32 -1.180681 -2.507217 -0.193859 0.013476 -0.069771 -0.086690
    33 -0.024967 -1.123934 0.017597 -1.532721 0.000000 0.000001
    34 -0.020057 -0.890968 0.010090 -0.677843 0.000000 0.000000
    35 0.583510 -1.197277 0.185379 0.180199 -0.812077 -1.291294
    36 1.535927 0.010246 0.005009 -0.002964 -0.012979 -0.506627
    37 1.100771 0.004527 -0.010679 -0.014337 0.007572 -0.908784
    38 0.120153 -0.050270 -0.054489 0.287569 3.110905 1.561085
    39 0.299561 -13.583077 -13.466538 -1.199547 -5.086386 -0.350973
    40 0.096944 -8.450418 -0.009365 0.162467 -1.145423 -0.075769
    41 0.447953 -2.798986 -0.200443 -0.786474 -0.067958 0.142839
    42 -0.032909 -1.480204 0.004940 -1.165523 0.000000 0.000002
    43 -0.027022 -1.076920 -0.020210 -0.581968 0.000000 0.000000
    44 -0.249534 -2.846964 -0.174213 -0.128734 0.012411 0.088176
    45 0.043235 -1.683941 0.096012 -1.570874 0.002823 -0.000167
    46 0.031729 -1.160830 0.058838 -0.744924 0.000642 0.008372
    47 -0.963866 -2.785145 -0.085350 0.029528 0.160514 0.097512
    48 0.028479 -1.403067 0.006271 -0.585006 0.000000 0.000000
    49 0.021413 -0.957781 0.020046 -1.349016 0.000000 0.000000
    50 1.164475 -2.543940 -0.170330 -0.959734 -0.190582 0.231601
    51 0.024032 -1.129042 0.017807 -0.709841 0.000000 0.000001
    52 0.014898 -0.883989 -0.019848 -0.845482 0.000000 0.000000
    53 -0.586770 -1.264477 0.200161 0.029405 -0.425529 -2.676430
    54 1.522835 0.058681 0.016848 0.001410 0.008985 0.586072
    55 1.117947 0.048424 -0.005766 0.001267 -0.025174 0.005115
    56 -0.139399 -0.111698 0.014397 0.653645 -0.030687 1.580508
    57 -1.393470 8.839177 -0.239433 1.580804 -0.005023 -1.566847
  time 4
    0 -0.996124 0.859371 1.800000 -0.022796 0.000000 -0.000034
    1 10.029492 3.757194 -9.113669 -0.149965 -1.612728 -0.045697
    2 -0.071918 -8.498730 -0.104137 0.138464 0.288812 0.012239
    3 2.733911 -2.087656 1.626837 -0.053752 0.246035 3.130544
    4 0.974667 3.050010 0.000333 0.000009 0.000002 -0.004012
    5 -0.325163 1.868348 0.019495 -0.000006 0.000008 -1.984743
    6 1.078272 6.143588 0.056378 1.001255 -1.570796 0.000000
    7 -0.229161 7.782845 0.458929 -2.279960 -1.570796 0.000000
    8 0.864836 0.017996 -0.821000 4.712391 -1.088706 -1.570700
    9 0.916864 9.033262 -0.145395 1.001255 -1.570796 0.000000
    10 -0.248194 9.530501 1.328514 0.000002 -0.000009 1.566784
    11 0.938609 4.841143 0.465839 -0.000009 -0.000002 3.137580
    12 0.998565 3.087639 -0.174532 0.000000 0.000000 -1.570796
    13 1.137329 0.000000 0.000000 -0.135691 0.000000 0.000000
    14 -0.819369 -0.001998 0.011001 0.000000 0.000000 0.000000
    15 0.681055 0.557127 0.103592 0.000000 0.000000 0.000000
    16 0.681054 0.247698 0.494205 -3.141592 0.000000 0.000000
    17 0.681054 -0.265101 0.489439 0.000000 0.000000 0.000000
    18 0.681054 -0.576983 0.103931 -3.141592 0.000000 0.000000
    19 0.681055 -0.452399 -0.364148 0.000000 0.000000 0.000000
    20 0.681055 -0.012558 -0.578705 -3.141592 0.000000 0.000000
    21 0.681055 0.450127 -0.379953 0.000000 0.000000 0.000000
    22 1.257180 8.762585 -0.153713 -1.570562 0.002683 -1.566807
    23 -0.488518 -2.755602 -0.228260 -0.276286 -0.172145 -0.126284
    24 0.039887 -1.479790 0.029854 -1.622681 0.000000 0.000001
    25 0.028786 -1.075731 -0.023109 -1.042649 0.000000 0.000000
    26 0.250027 -2.820665 -0.238396 -0.273537 -0.167517 -0.114938
    27 -0.049759 -1.680544 0.100479 -1.760238 0.000000 -0.000002
    28 -0.034142 -1.148312 0.084782 -0.925879 0.000000 0.000000
    29 0.957766 -2.746780 -0.090302 -0.168670 -0.162684 0.097910
    30 -0.033420 -1.397129 -0.011257 -0.170296 -0.043396 -0.075732
    31 -0.022360 -0.957436 0.018784 -0.539183 0.000000 0.000000
    32 -1.180681 -2.507217 -0.193859 0.013476 -0.069771 -0.086690
    33 -0.024967 -1.123934 0.017597 -1.532721 0.000000 0.000001
    34 -0.020057 -0.890968 0.010090 -0.677843 0.000000 0.000000
    35 0.583510 -1.197277 0.185379 0.180199 -0.812077 -1.291294
    36 1.535927 0.010246 0.005009 -0.002964 -0.012979 -0.506627
    37 1.100771 0.004527 -0.010679 -0.014337 0.007572 -0.908784
    38 0.120153 -0.050270 -0.054489 0.287569 3.110905 1.561085
    39 0.299561 -13.583077 -13.380598 -1.199547 -5.086386 -0.350973
    40 0.096944 -8.450418 -0.009365 0.162467 -1.145423 -0.075769
    41 0.447953 -2.798986 -0.200443 -0.786501 -0.067958 0.142839
    42 -0.032909 -1.480204 0.004940 -1.165523 0.000000 0.000002
    43 -0.027022 -1.076920 -0.020210 -0.581968 0.000000 0.000000
    44 -0.249534 -2.846964 -0.174213 -0.128734 0.012411 0.088176
    45 0.043235 -1.683941 0.096012 -1.570874 0.002823 -0.000167
    46 0.031729 -1.160830 0.058838 -0.744924 0.000642 0.008372
    47 -0.963866 -2.785145 -0.085350 0.029528 0.160514 0.097512
    48 0.028479 -1.403067 0.006271 -0.585006 0.000000 0.000000
    49 0.021413 -0.957781 0.020046 -1.349016 0.000000 0.000000
    50 1.164475 -2.543940 -0.170330 -0.959734 -0.190582 0.231601
    51 0.024032 -1.129042 0.017807 -0.709841 0.000000 0.000001
    52 0.014898 -0.883989 -0.019848 -0.845482 0.000000 0.000000
    53 -0.586770 -1.264477 0.200161 0.029405 -0.425529 -2.676430
    54 1.522835 0.058681 0.016848 0.001410 0.008985 0.586072
    55 1.117947 0.048424 -0.005766 0.001267 -0.025174 0.005115
    56 -0.139399 -0.111698 0.014397 0.653645 -0.030687 1.580508
    57 -1.393470 8.839177 -0.239433 1.580804 -0.005023 -1.566847
  time 5
    0 -0.996124 0.753899 1.800000 -0.033784 0.000000 -0.000034
    1 10.029492 3.757194 -9.113669 -0.149965 -1.612728 -0.045697
    2 -0.071918 -8.498730 -0.104137 0.139627 0.288237 0.016343
    3 2.733911 -2.087656 1.626837 -0.053752 0.246035 3.130544
    4 0.974667 3.050010 0.000333 0.000009 0.000002 -0.004012
    5 -0.325163 1.868348 0.019495 -0.000006 0.000008 -1.984743
    6 1.078272 6.143588 0.056378 1.252548 -1.570796 0.000000
    7 -0.229161 7.782845 0.458929 -2.502962 -1.570796 0.000000
    8 0.864836 0.017996 -0.821000 4.712391 -0.927457 -1.570700
    9 0.916864 9.033262 -0.145395 1.252548 -1.570796 0.000000
    10 -0.248194 9.632067 1.328514 0.000002 -0.000009 1.566784
    11 0.938609 4.841143 0.465839 -0.000009 -0.000002 3.137580
    12 0.998565 3.087639 -0.174532 0.000000 0.000000 -1.570796
    13 1.137329 0.000000 0.000000 -0.038742 0.000000 0.000000
    14 -0.819369 -0.001998 0.011001 0.000000 0.000000 0.000000
    15 0.681055 0.557127 0.103592 0.000000 0.000000 0.000000
    16 0.681054 0.247698 0.494205 -3.141592 0.000000 0.000000
    17 0.681054 -0.265101 0.489439 0.000000 0.000000 0.000000
    18 0.681054 -0.576983 0.103931 -3.141592 0.000000 0.000000
    19 0.681055 -0.452399 -0.364148 0.000000 0.000000 0.000000
    20 0.681055 -0.012558 -0.578705 -3.141592 0.000000 0.000000
    21 0.681055 0.450127 -0.379953 0.000000 0.000000 0.000000
    22 1.257180 8.762585 -0.153713 -1.570562 0.002683 -1.566807
    23 -0.488518 -2.755602 -0.228260 -0.276286 -0.172145 -0.126284
    24 0.039887 -1.479790 0.029854 -1.622681 0.000000 0.000001
    25 0.028786 -1.075731 -0.023109 -1.042649 0.000000 0.000000
    26 0.250027 -2.820665 -0.238396 -0.273537 -0.167517 -0.114938
    27 -0.049759 -1.680544 0.100479 -1.760238 0.000000 -0.000002
    28 -0.034142 -1.148312 0.084782 -0.925879 0.000000 0.000000
    29 0.957766 -2.746780 -0.090302 -0.168670 -0.162684 0.097910
    30 -0.033420 -1.397129 -0.011257 -0.170296 -0.043396 -0.075732
    31 -0.022360 -0.957436 0.018784 -0.539183 0.000000 0.000000
    32 -1.180681 -2.507217 -0.193859 0.013476 -0.069771 -0.086690
    33 -0.024967 -1.123934 0.017597 -1.532721 0.000000 0.000001
    34 -0.020057 -0.890968 0.010090 -0.677843 0.000000 0.000000
    35 0.583510 -1.197277 0.185379 0.180199 -0.812077 -1.291294
    36 1.535927 0.010246 0.005009 -0.002964 -0.012979 -0.506627
    37 1.100771 0.004527 -0.010679 -0.014337 0.007572 -0.908784
    38 0.120153 -0.050270 -0.054489 0.287569 3.110905 1.561085
    39 0.299561 -13.583077 -13.267313 -1.199547 -5.086386 -0.350973
    40 0.096944 -8.450418 -0.009365 0.162467 -1.145423 -0.075769
    41 0.447953 -2.798986 -0.200443 -0.786501 -0.067958 0.142839
    42 -0.032909 -1.480204 0.004940 -1.165523 0.000000 0.000002
    43 -0.027022 -1.076920 -0.020210 -0.581968 0.000000 0.000000
    44 -0.249534 -2.846964 -0.174213 -0.128734 0.012411 0.088176
    45 0.043235 -1.683941 0.096012 -1.570874 0.002823 -0.000167
    46 0.031729 -1.160830 0.058838 -0.744924 0.000642 0.008372
    47 -0.963866 -2.785145 -0.085350 0.029528 0.160514 0.097512
    48 0.028479 -1.403067 0.006271 -0.585006 0.000000 0.000000
    49 0.021413 -0.957781 0.020046 -1.349016 0.000000 0.000000
    50 1.164475 -2.543940 -0.170330 -0.959734 -0.190582 0.231601
    51 0.024032 -1.129042 0.017807 -0.709841 0.000000 0.000001
    52 0.014898 -0.883989 -0.019848 -0.845482 0.000000 0.000000
    53 -0.586770 -1.264477 0.200161 0.029405 -0.425529 -2.676430
    54 1.522835 0.058681 0.016848 0.001410 0.008985 0.586072
    55 1.117947 0.048424 -0.005766 0.001267 -0.025174 0.005115
    56 -0.139399 -0.111698 0.014397 0.653645 -0.030687 1.580508
    57 -1.393470 8.839177 -0.239433 1.580804 -0.005023 -1.566847
  time 6
    0 -0.996124 0.636708 1.800000 -0.042239 0.000000 -0.000034
    1 10.029492 3.757194 -9.113669 -0.149965 -1.612728 -0.045697
    2 -0.071918 -8.498730 -0.104137 0.140981 0.287565 0.021154
    3 2.733911 -2.087656 1.626837 -0.053752 0.246035 3.130544
    4 0.974667 3.050010 0.000333 0.000009 0.000002 -0.004012
    5 -0.325163 1.868348 0.019495 -0.000006 0.000008 -1.984743
    6 1.078272 6.143588 0.056378 1.503937 -1.570317 0.000000
    7 -0.229161 7.782845 0.458929 -2.719158 -1.570796 0.000000
    8 0.864836 0.017996 -0.821000 4.712391 -0.742526 -1.570700
    9 0.916864 9.033262 -0.145395 1.503937 -1.570317 0.000000
    10 -0.248194 9.753164 1.328514 0.000002 -0.000009 1.566784
    11 0.938609 4.841143 0.465839 -0.000009 -0.000002 3.137580
    12 0.998565 3.087639 -0.174532 0.000000 0.000000 -1.570796
    13 1.137329 0.000000 0.000000 0.000000 0.000000 0.000000
    14 -0.819369 -0.001998 0.011001 0.000000 0.000000 0.000000
    15 0.681055 0.557127 0.103592 0.000000 0.000000 0.000000
    16 0.681054 0.247698 0.494205 -3.141592 0.000000 0.000000
    17 0.681054 -0.265101 0.489439 0.000000 0.000000 0.000000
    18 0.681054 -0.576983 0.103931 -3.141592 0.000000 0.000000
    19 0.681055 -0.452399 -0.364148 0.000000 0.000000 0.000000
    20 0.681055 -0.012558 -0.578705 -3.141592 0.000000 0.000000
    21 0.681055 0.450127 -0.379953 0.000000 0.000000 0.000000
    22 1.257180 8.762585 -0.153713 -1.570562 0.002683 -1.566807
    23 -0.488518 -2.755602 -0.228260 -0.276286 -0.172145 -0.126284
    24 0.039887 -1.479790 0.029854 -1.622681 0.000000 0.000001
    25 0.028786 -1.075731 -0.023109 -1.042649 0.000000 0.000000
    26 0.250027 -2.820665 -0.238396 -0.273537 -0.167517 -0.114938
    27 -0.049759 -1.680544 0.100479 -1.760238 0.000000 -0.000002
    28 -0.034142 -1.148312 0.084782 -0.925906 0.000000 0.000000
    29 0.957766 -2.746780 -0.090302 -0.168670 -0.162684 0.097910
    30 -0.033420 -1.397129 -0.011257 -0.170296 -0.043396 -0.075732
    31 -0.022360 -0.957436 0.018784 -0.539183 0.000000 0.000000
    32 -1.180681 -2.507217 -0.193859 0.013476 -0.069771 -0.086690
    33 -0.024967 -1.123934 0.017597 -1.532721 0.000000 0.000001
    34 -0.020057 -0.890968 0.010090 -0.677843 0.000000 0.000000
    35 0.583510 -1.197277 0.185379 0.180199 -0.812077 -1.291294
    36 1.535927 0.010246 0.005009 -0.002964 -0.012979 -0.506627
    37 1.100771 0.004527 -0.010679 -0.014337 0.007572 -0.908784
    38 0.120153 -0.050270 -0.054489 0.287569 3.110905 1.561085
    39 0.299561 -13.583077 -13.142309 -1.199547 -5.086386 -0.350973
    40 0.096944 -8.450418 -0.009365 0.162467 -1.145423 -0.075769
    41 0.447953 -2.798986 -0.200443 -0.786474 -0.067958 0.142839
    42 -0.032909 -1.480204 0.004940 -1.165523 0.000000 0.000002
    43 -0.027022 -1.076920 -0.020210 -0.581968 0.000000 0.000000
    44 -0.249534 -2.846964 -0.174213 -0.128734 0.012411 0.088176
    45 0.043235 -1.683941 0.096012 -1.570874 0.002823 -0.000167
    46 0.031729 -1.160830 0.058838 -0.744924 0.000642 0.008372
    47 -0.963866 -2.785145 -0.085350 0.029528 0.160514 0.097512
    48 0.028479 -1.403067 0.006271 -0.585006 0.000000 0.000000
    49 0.021413 -0.957781 0.020046 -1.349016 0.000000 0.000000
    50 1.164475 -2.543940 -0.170330 -0.959734 -0.190582 0.231601
    51 0.024032 -1.129042 0.017807 -0.709841 0.000000 0.000001
    52 0.014898 -0.883989 -0.019848 -0.845482 0.000000 0.000000
    53 -0.586770 -1.264477 0.200161 0.029405 -0.425529 -2.676430
    54 1.522835 0.058681 0.016848 0.001410 0.008985 0.586072
    55 1.117947 0.048424 -0.005766 0.001267 -0.025174 0.005115
    56 -0.139399 -0.111698 0.014397 0.653645 -0.030687 1.580508
    57 -1.393470 8.839177 -0.239433 1.580804 -0.005023 -1.566847
  time 7
    0 -0.996124 0.511704 1.800000 -0.045610 0.000000 -0.000034
    1 10.029492 3.757194 -9.113669 -0.149965 -1.612728 -0.045697
    2 -0.071918 -8.498730 -0.104137 0.142455 0.286834 0.026386
    3 2.733911 -2.087656 1.626837 -0.053752 0.246035 3.130544
    4 0.974667 3.050010 0.000333 0.000009 0.000002 -0.004012
    5 -0.325163 1.868348 0.019495 -0.000006 0.000008 -1.984743
    6 1.078272 6.143588 0.056378 1.755230 -1.570796 0.000000
    7 -0.229161 7.782845 0.458929 -2.929121 -1.570796 0.000000
    8 0.864836 0.017996 -0.821000 4.712391 -0.549279 -1.570700
    9 0.916864 9.033262 -0.145395 1.755230 -1.570796 0.000000
    10 -0.248194 9.889887 1.328514 0.000002 -0.000009 1.566784
    11 0.938609 4.841143 0.465839 -0.000009 -0.000002 3.137580
    12 0.998565 3.087639 -0.174532 0.000000 0.000000 -1.570796
    13 1.137329 0.000000 0.000000 0.000000 0.000000 0.000000
    14 -0.819369 -0.001998 0.011001 0.000000 0.000000 0.000000
    15 0.681055 0.557127 0.103592 0.000000 0.000000 0.000000
    16 0.681054 0.247698 0.494205 -3.141592 0.000000 0.000000
    17 0.681054 -0.265101 0.489439 0.000000 0.000000 0.000000
    18 0.681054 -0.576983 0.103931 -3.141592 0.000000 0.000000
    19 0.681055 -0.452399 -0.364148 0.000000 0.000000 0.000000
    20 0.681055 -0.012558 -0.578705 -3.141592 0.000000 0.000000
    21 0.681055 0.450127 -0.379953 0.000000 0.000000 0.000000
    22 1.257180 8.762585 -0.153713 -1.570562 0.002683 -1.566807
    23 -0.488518 -2.755602 -0.228260 -0.276286 -0.172145 -0.126284
    24 0.039887 -1.479790 0.029854 -1.622681 0.000000 0.000001
    25 0.028786 -1.075731 -0.023109 -1.042649 0.000000 0.000000
    26 0.250027 -2.820665 -0.238396 -0.273537 -0.167517 -0.114938
    27 -0.049759 -1.680544 0.100479 -1.760238 0.000000 -0.000002
    28 -0.034142 -1.148312 0.084782 -0.925906 0.000000 0.000000
    29 0.957766 -2.746780 -0.090302 -0.168670 -0.162684 0.097910
    30 -0.033420 -1.397129 -0.011257 -0.170296 -0.043396 -0.075732
    31 -0.022360 -0.957436 0.018784 -0.539183 0.000000 0.000000
    32 -1.180681 -2.507217 -0.193859 0.013476 -0.069771 -0.086690
    33 -0.024967 -1.123934 0.017597 -1.532721 0.000000 0.000001
    34 -0.020057 -0.890968 0.010090 -0.677843 0.000000 0.000000
    35 0.583510 -1.197277 0.185379 0.180199 -0.812077 -1.291294
    36 1.535927 0.010246 0.005009 -0.002964 -0.012979 -0.506627
    37 1.100771 0.004527 -0.010679 -0.014337 0.007572 -0.908784
    38 0.120153 -0.050270 -0.054489 0.287569 3.110905 1.561085
    39 0.299561 -13.583077 -13.001680 -1.199547 -5.086386 -0.350973
    40 0.096944 -8.450418 -0.009365 0.162467 -1.145423 -0.075769
    41 0.447953 -2.798986 -0.200443 -0.786501 -0.067958 0.142839
    42 -0.032909 -1.480204 0.004940 -1.165523 0.000000 0.000002
    43 -0.027022 -1.076920 -0.020210 -0.581968 0.000000 0.000000
    44 -0.249534 -2.846964 -0.174213 -0.128734 0.012411 0.088176
    45 0.043235 -1.683941 0.096012 -1.570874 0.002823 -0.000167
    46 0.031729 -1.160830 0.058838 -0.744924 0.000642 0.008372
    47 -0.963866 -2.785145 -0.085350 0.029528 0.160514 0.097512
    48 0.028479 -1.403067 0.006271 -0.585006 0.000000 0.000000
    49 0.021413 -0.957781 0.020046 -1.349016 0.000000 0.000000
    50 1.164475 -2.543940 -0.170330 -0.959734 -0.190582 0.231601
    51 0.024032 -1.129042 0.017807 -0.709841 0.000000 0.000001
    52 0.014898 -0.883989 -0.019848 -0.845482 0.000000 0.000000
    53 -0.586770 -1.264477 0.200161 0.029405 -0.425529 -2.676430
    54 1.522835 0.058681 0.016848 0.001410 0.008985 0.586072
    55 1.117947 0.048424 -0.005766 0.001267 -0.025174 0.005115
    56 -0.139399 -0.111698 0.014397 0.653645 -0.030687 1.580508
    57 -1.393470 8.839177 -0.239433 1.580804 -0.005023 -1.566847
  time 8
    0 -0.996124 0.382794 1.800000 -0.042863 0.000000 -0.000034
    1 10.029492 3.757194 -9.113669 -0.149965 -1.612728 -0.045697
    2 -0.071918 -8.498730 -0.104137 0.144001 0.286079 0.031869
    3 2.733911 -2.087656 1.626837 -0.053752 0.246035 3.130544
    4 0.974667 3.050010 0.000333 0.000009 0.000002 -0.004012
    5 -0.325163 1.868348 0.019495 -0.000006 0.000008 -1.984743
    6 1.078272 6.143588 0.056378 2.006523 -1.570796 0.000000
    7 -0.229161 7.782845 0.458929 -3.133332 -1.570796 0.000000
    8 0.864836 0.017996 -0.821000 4.712391 -0.349344 -1.570700
    9 0.916864 9.033262 -0.145395 2.006523 -1.570796 0.000000
    10 -0.248194 10.030517 1.328514 0.000002 -0.000009 1.566784
    11 0.938609 4.841143 0.465839 -0.000009 -0.000002 3.137580
    12 0.998565 3.087639 -0.174532 0.000000 0.000000 -1.570796
    13 1.137329 0.000000 0.000000 0.000000 0.000000 0.000000
    14 -0.819369 -0.001998 0.011001 0.000000 0.000000 0.000000
    15 0.681055 0.557127 0.103592 0.000000 0.000000 0.000000
    16 0.681054 0.247698 0.494205 -3.141592 0.000000 0.000000
    17 0.681054 -0.265101 0.489439 0.000000 0.000000 0.000000
    18 0.681054 -0.576983 0.103931 -3.141592 0.000000 0.000000
    19 0.681055 -0.452399 -0.364148 0.000000 0.000000 0.000000
    20 0.681055 -0.012558 -0.578705 -3.141592 0.000000 0.000000
    21 0.681055 0.450127 -0.379953 0.000000 0.000000 0.000000
    22 1.257180 8.762585 -0.153713 -1.570562 0.002683 -1.566807
    23 -0.488518 -2.755602 -0.228260 -0.276286 -0.172145 -0.126284
    24 0.039887 -1.479790 0.029854 -1.622681 0.000000 0.000001
    25 0.028786 -1.075731 -0.023109 -1.042649 0.000000 0.000000
    26 0.250027 -2.820665 -0.238396 -0.273537 -0.167517 -0.114938
    27 -0.049759 -1.680544 0.100479 -1.760238 0.000000 -0.000002
    28 -0.034142 -1.148312 0.084782 -0.925879 0.000000 0.000000
    29 0.957766 -2.746780 -0.090302 -0.168670 -0.162684 0.097910
    30 -0.033420 -1.397129 -0.011257 -0.170296 -0.043396 -0.075732
    31 -0.022360 -0.957436 0.018784 -0.539183 0.000000 0.000000
    32 -1.180681 -2.507217 -0.193859 0.013476 -0.069771 -0.086690
    33 -0.024967 -1.123934 0.017597 -1.532721 0.000000 0.000001
    34 -0.020057 -0.890968 0.010090 -0.677843 0.000000 0.000000
    35 0.583510 -1.197277 0.185379 0.180199 -0.812077 -1.291294
    36 1.535927 0.010246 0.005009 -0.002964 -0.012979 -0.506627
    37 1.100771 0.004527 -0.010679 -0.014337 0.007572 -0.908784
    38 0.120153 -0.050270 -0.054489 0.287569 3.110905 1.561085
    39 0.299561 -13.583077 -12.857144 -1.199547 -5.086386 -0.350973
    40 0.096944 -8.450418 -0.009365 0.162467 -1.145423 -0.075769
    41 0.447953 -2.798986 -0.200443 -0.786474 -0.067958 0.142839
    42 -0.032909 -1.480204 0.004940 -1.165523 0.000000 0.000002
    43 -0.027022 -1.076920 -0.020210 -0.581968 0.000000 0.000000
    44 -0.249534 -2.846964 -0.174213 -0.128734 0.012411 0.088176
    45 0.043235 -1.683941 0.096012 -1.570874 0.002823 -0.000167
    46 0.031729 -1.160830 0.058838 -0.744924 0.000642 0.008372
    47 -0.963866 -2.785145 -0.085350 0.029528 0.160514 0.097512
    48 0.028479 -1.403067 0.006271 -0.585006 0.000000 0.000000
    49 0.021413 -0.957781 0.020046 -1.349016 0.000000 0.000000
    50 1.164475 -2.543940 -0.170330 -0.959734 -0.190582 0.231601
    51 0.024032 -1.129042 0.017807 -0.709841 0.000000 0.000001
    52 0.014898 -0.883989 -0.019848 -0.845482 0.000000 0.000000
    53 -0.586770 -1.264477 0.200161 0.029405 -0.425529 -2.676430
    54 1.522835 0.058681 0.016848 0.001410 0.008985 0.586072
    55 1.117947 0.048424 -0.005766 0.001267 -0.025174 0.005115
    56 -0.139399 -0.111698 0.014397 0.653645 -0.030687 1.580508
    57 -1.393470 8.839177 -0.239433 1.580804 -0.005023 -1.566847
  time 9
    0 -0.996124 0.265603 1.800000 -0.035621 0.000000 -0.000034
    1 10.029492 3.757194 -9.113669 -0.149965 -1.612728 -0.045697
    2 -0.071918 -8.498730 -0.104137 0.145547 0.285312 0.037336
    3 2.733911 -2.087656 1.626837 -0.053752 0.246035 3.130544
    4 0.974667 3.050010 0.000333 0.000009 0.000002 -0.004012
    5 -0.325163 1.868348 0.019495 -0.000006 0.000008 -1.984743
    6 1.078272 6.143588 0.056378 2.257911 -1.570796 0.000000
    7 -0.229161 7.782845 0.458929 2.950626 -1.570796 0.000000
    8 0.864836 0.017996 -0.821000 4.712391 -0.144528 -1.570700
    9 0.916864 9.033262 -0.145395 2.257911 -1.570796 0.000000
    10 -0.248194 10.178959 1.328514 0.000002 -0.000009 1.566784
    11 0.938609 4.841143 0.465839 -0.000009 -0.000002 3.137580
    12 0.998565 3.087639 -0.174532 0.000000 0.000000 -1.570796
    13 1.137329 0.000000 0.000000 0.000000 0.000000 0.000000
    14 -0.819369 -0.001998 0.011001 0.000000 0.000000 0.000000
    15 0.681055 0.557127 0.103592 0.000000 0.000000 0.000000
    16 0.681054 0.247698 0.494205 -3.141592 0.000000 0.000000
    17 0.681054 -0.265101 0.489439 0.000000 0.000000 0.000000
    18 0.681054 -0.576983 0.103931 -3.141592 0.000000 0.000000
    19 0.681055 -0.452399 -0.364148 0.000000 0.000000 0.000000
    20 0.681055 -0.012558 -0.578705 -3.141592 0.000000 0.000000
    21 0.681055 0.450127 -0.379953 0.000000 0.000000 0.000000
    22 1.257180 8.762585 -0.153713 -1.570562 0.002683 -1.566807
    23 -0.488518 -2.755602 -0.228260 -0.276286 -0.172145 -0.126284
    24 0.039887 -1.479790 0.029854 -1.622681 0.000000 0.000001
    25 0.028786 -1.075731 -0.023109 -1.042649 0.000000 0.000000
    26 0.250027 -2.820665 -0.238396 -0.273537 -0.167517 -0.114938
    27 -0.049759 -1.680544 0.100479 -1.760238 0.000000 -0.000002
    28 -0.034142 -1.148312 0.084782 -0.925906 0.000000 0.000000
    29 0.957766 -2.746780 -0.090302 -0.168670 -0.162684 0.097910
    30 -0.033420 -1.397129 -0.011257 -0.170296 -0.043396 -0.075732
    31 -0.022360 -0.957436 0.018784 -0.539183 0.000000 0.000000
    32 -1.180681 -2.507217 -0.193859 0.013476 -0.069771 -0.086690
    33 -0.024967 -1.123934 0.017597 -1.532721 0.000000 0.000001
    34 -0.020057 -0.890968 0.010090 -0.677843 0.000000 0.000000
    35 0.583510 -1.197277 0.185379 0.180199 -0.812077 -1.291294
    36 1.535927 0.010246 0.005009 -0.002964 -0.012979 -0.506627
    37 1.100771 0.004527 -0.010679 -0.014337 0.007572 -0.908784
    38 0.120153 -0.050270 -0.054489 0.287569 3.110905 1.561085
    39 0.299561 -13.583077 -12.708702 -1.199547 -5.086386 -0.350973
    40 0.096944 -8.450418 -0.009365 0.162467 -1.145423 -0.075769
    41 0.447953 -2.798986 -0.200443 -0.786501 -0.067958 0.142839
    42 -0.032909 -1.480204 0.004940 -1.165523 0.000000 0.000002
    43 -0.027022 -1.076920 -0.020210 -0.581968 0.000000 0.000000
    44 -0.249534 -2.846964 -0.174213 -0.128734 0.012411 0.088176
    45 0.043235 -1.683941 0.096012 -1.570874 0.002823 -0.000167
    46 0.031729 -1.160830 0.058838 -0.744924 0.000642 0.008372
    47 -0.963866 -2.785145 -0.085350 0.029528 0.160514 0.097512
    48 0.028479 -1.403067 0.006271 -0.585006 0.000000 0.000000
    49 0.021413 -0.957781 0.020046 -1.349016 0.000000 0.000000
    50 1.164475 -2.543940 -0.170330 -0.959734 -0.190582 0.231601
    51 0.024032 -1.129042 0.017807 -0.709841 0.000000 0.000001
    52 0.014898 -0.883989 -0.019848 -0.845482 0.000000 0.000000
    53 -0.586770 -1.264477 0.200161 0.029405 -0.425529 -2.676430
    54 1.522835 0.058681 0.016848 0.001410 0.008985 0.586072
    55 1.117947 0.048424 -0.005766 0.001267 -0.025174 0.005115
    56 -0.139399 -0.111698 0.014397 0.653645 -0.030687 1.580508
    57 -1.393470 8.839177 -0.239433 1.580804 -0.005023 -1.566847
  time 10
    0 -0.996124 0.160131 1.800000 -0.025383 0.000000 -0.000034
    1 10.029492 3.757194 -9.113669 -0.149965 -1.612728 -0.045697
    2 -0.071918 -8.498730 -0.104137 0.147033 0.284581 0.042585
    3 2.733911 -2.087656 1.626837 -0.053752 0.246035 3.130544
    4 0.974667 3.050010 0.000333 0.000009 0.000002 -0.004012
    5 -0.325163 1.868348 0.019495 -0.000006 0.000008 -1.984743
    6 1.078272 6.143588 0.056378 2.509204 -1.570796 0.000000
    7 -0.229161 7.782845 0.458929 2.756003 -1.570796 0.000000
    8 0.864836 0.017996 -0.821000 4.712391 0.063271 -1.570700
    9 0.916864 9.033262 -0.145395 2.509204 -1.570796 0.000000
    10 -0.248194 10.327401 1.328514 0.000002 -0.000009 1.566784
    11 0.938609 4.841143 0.465839 -0.000009 -0.000002 3.137580
    12 0.998565 3.087639 -0.174532 0.000000 0.000000 -1.570796
    13 1.137329 0.000000 0.000000 0.000000 0.000000 0.000000
    14 -0.819369 -0.001998 0.011001 0.000000 0.000000 0.000000
    15 0.681055 0.557127 0.103592 0.000000 0.000000 0.000000
    16 0.681054 0.247698 0.494205 -3.141592 0.000000 0.000000
    17 0.681054 -0.265101 0.489439 0.000000 0.000000 0.000000
    18 0.681054 -0.576983 0.103931 -3.141592 0.000000 0.000000
    19 0.681055 -0.452399 -0.364148 0.000000 0.000000 0.000000
    20 0.681055 -0.012558 -0.578705 -3.141592 0.000000 0.000000
    21 0.681055 0.450127 -0.379953 0.000000 0.000000 0.000000
    22 1.257180 8.762585 -0.153713 -1.570562 0.002683 -1.566807
    23 -0.488518 -2.755602 -0.228260 -0.276286 -0.172145 -0.126284
    24 0.039887 -1.479790 0.029854 -1.622681 0.000000 0.000001
    25 0.028786 -1.075731 -0.023109 -1.042649 0.000000 0.000000
    26 0.250027 -2.820665 -0.238396 -0.273537 -0.167517 -0.114938
    27 -0.049759 -1.680544 0.100479 -1.760238 0.000000 -0.000002
    28 -0.034142 -1.148312 0.084782 -0.925906 0.000000 0.000000
    29 0.957766 -2.746780 -0.090302 -0.168670 -0.162684 0.097910
    30 -0.033420 -1.397129 -0.011257 -0.170296 -0.043396 -0.075732
    31 -0.022360 -0.957436 0.018784 -0.539183 0.000000 0.000000
    32 -1.180681 -2.507217 -0.193859 0.013476 -0.069771 -0.086690
    33 -0.024967 -1.123934 0.017597 -1.532721 0.000000 0.000001
    34 -0.020057 -0.890968 0.010090 -0.677843 0.000000 0.000000
    35 0.583510 -1.197277 0.185379 0.180199 -0.812077 -1.291294
    36 1.535927 0.010246 0.005009 -0.002964 -0.012979 -0.506627
    37 1.100771 0.004527 -0.010679 -0.014337 0.007572 -0.908784
    38 0.120153 -0.050270 -0.054489 0.287569 3.110905 1.561085
    39 0.299561 -13.583077 -12.568073 -1.199547 -5.086386 -0.350973
    40 0.096944 -8.450418 -0.009365 0.162467 -1.145423 -0.075769
    41 0.447953 -2.798986 -0.200443 -0.786501 -0.067958 0.142839
    42 -0.032909 -1.480204 0.004940 -1.165523 0.000000 0.000002
    43 -0.027022 -1.076920 -0.020210 -0.581968 0.000000 0.000000
    44 -0.249534 -2.846964 -0.174213 -0.128734 0.012411 0.088176
    45 0.043235 -1.683941 0.096012 -1.570874 0.002823 -0.000167
    46 0.031729 -1.160830 0.058838 -0.744924 0.000642 0.008372
    47 -0.963866 -2.785145 -0.085350 0.029528 0.160514 0.097512
    48 0.028479 -1.403067 0.006271 -0.585006 0.000000 0.000000
    49 0.021413 -0.957781 0.020046 -1.349016 0.000000 0.000000
    50 1.164475 -2.543940 -0.170330 -0.959734 -0.190582 0.231601
    51 0.024032 -1.129042 0.017807 -0.709841 0.000000 0.000001
    52 0.014898 -0.883989 -0.019848 -0.845482 0.000000 0.000000
    53 -0.586770 -1.264477 0.200161 0.029405 -0.425529 -2.676430
    54 1.522835 0.058681 0.016848 0.001410 0.008985 0.586072
    55 1.117947 0.048424 -0.005766 0.001267 -0.025174 0.005115
    56 -0.139399 -0.111698 0.014397 0.653645 -0.030687 1.580508
    57 -1.393470 8.839177 -0.239433 1.580804 -0.005023 -1.566847
  time 11
    0 -0.996124 0.078097 1.800000 -0.013646 0.000000 -0.000034
    1 10.029492 3.757194 -9.113669 -0.149965 -1.612728 -0.045697
    2 -0.071918 -8.498730 -0.104137 0.148388 0.283922 0.047379
    3 2.733911 -2.087656 1.626837 -0.053752 0.246035 3.130544
    4 0.974667 3.050010 0.000333 0.000009 0.000002 -0.004012
    5 -0.325163 1.868348 0.019495 -0.000006 0.000008 -1.984743
    6 1.078272 6.143588 0.056378 2.760497 -1.570796 0.000000
    7 -0.229161 7.782845 0.458929 2.565310 -1.570796 0.000000
    8 0.864836 0.017996 -0.821000 4.712391 0.277125 -1.570700
    9 0.916864 9.033262 -0.145395 2.760497 -1.570796 0.000000
    10 -0.248194 10.471936 1.328514 0.000002 -0.000009 1.566784
    11 0.938609 4.841143 0.465839 -0.000009 -0.000002 3.137580
    12 0.998565 3.087639 -0.174532 0.000000 0.000000 -1.570796
    13 1.137329 0.000000 0.000000 0.000000 0.000000 0.000000
    14 -0.819369 -0.001998 0.011001 0.000000 0.000000 0.000000
    15 0.681055 0.557127 0.103592 0.000000 0.000000 0.000000
    16 0.681054 0.247698 0.494205 -3.141592 0.000000 0.000000
    17 0.681054 -0.265101 0.489439 0.000000 0.000000 0.000000
    18 0.681054 -0.576983 0.103931 -3.141592 0.000000 0.000000
    19 0.681055 -0.452399 -0.364148 0.000000 0.000000 0.000000
    20 0.681055 -0.012558 -0.578705 -3.141592 0.000000 0.000000
    21 0.681055 0.450127 -0.379953 0.000000 0.000000 0.000000
    22 1.257180 8.762585 -0.153713 -1.570562 0.002683 -1.566807
    23 -0.488518 -2.755602 -0.228260 -0.276286 -0.172145 -0.126284
    24 0.039887 -1.479790 0.029854 -1.622681 0.000000 0.000001
    25 0.028786 -1.075731 -0.023109 -1.042649 0.000000 0.000000
    26 0.250027 -2.820665 -0.238396 -0.273537 -0.167517 -0.114938
    27 -0.049759 -1.680544 0.100479 -1.760238 0.000000 -0.000002
    28 -0.034142 -1.148312 0.084782 -0.925906 0.000000 0.000000
    29 0.957766 -2.746780 -0.090302 -0.168670 -0.162684 0.097910
    30 -0.033420 -1.397129 -0.011257 -0.170296 -0.043396 -0.075732
    31 -0.022360 -0.957436 0.018784 -0.539183 0.000000 0.000000
    32 -1.180681 -2.507217 -0.193859 0.013476 -0.069771 -0.086690
    33 -0.024967 -1.123934 0.017597 -1.532721 0.000000 0.000001
    34 -0.020057 -0.890968 0.010090 -0.677843 0.000000 0.000000
    35 0.583510 -1.197277 0.185379 0.180199 -0.812077 -1.291294
    36 1.535927 0.010246 0.005009 -0.002964 -0.012979 -0.506627
    37 1.100771 0.004527 -0.010679 -0.014337 0.007572 -0.908784
    38 0.120153 -0.050270 -0.054489 0.287569 3.110905 1.561085
    39 0.299561 -13.583077 -12.446976 -1.199547 -5.086386 -0.350973
    40 0.096944 -8.450418 -0.009365 0.162467 -1.145423 -0.075769
    41 0.447953 -2.798986 -0.200443 -0.786501 -0.067958 0.142839
    42 -0.032909 -1.480204 0.004940 -1.165523 0.000000 0.000002
    43 -0.027022 -1.076920 -0.020210 -0.581968 0.000000 0.000000
    44 -0.249534 -2.846964 -0.174213 -0.128734 0.012411 0.088176
    45 0.043235 -1.683941 0.096012 -1.570874 0.002823 -0.000167
    46 0.031729 -1.160830 0.058838 -0.744924 0.000642 0.008372
    47 -0.963866 -2.785145 -0.085350 0.029528 0.160514 0.097512
    48 0.028479 -1.403067 0.006271 -0.585006 0.000000 0.000000
    49 0.021413 -0.957781 0.020046 -1.349016 0.000000 0.000000
    50 1.164475 -2.543940 -0.170330 -0.959734 -0.190582 0.231601
    51 0.024032 -1.129042 0.017807 -0.709841 0.000000 0.000001
    52 0.014898 -0.883989 -0.019848 -0.845482 0.000000 0.000000
    53 -0.586770 -1.264477 0.200161 0.029405 -0.425529 -2.676430
    54 1.522835 0.058681 0.016848 0.001410 0.008985 0.586072
    55 1.117947 0.048424 -0.005766 0.001267 -0.025174 0.005115
    56 -0.139399 -0.111698 0.014397 0.653645 -0.030687 1.580508
    57 -1.393470 8.839177 -0.239433 1.580804 -0.005023 -1.566847
  time 12
    0 -0.996124 0.023408 1.800000 -0.001891 0.000000 -0.000034
    1 10.029492 3.757194 -9.113669 -0.149965 -1.612728 -0.045697
    2 -0.071918 -8.498730 -0.104137 0.149550 0.283347 0.051500
    3 2.733911 -2.087656 1.626837 -0.053752 0.246035 3.130544
    4 0.974667 3.050010 0.000333 0.000009 0.000002 -0.004012
    5 -0.325163 1.868348 0.019495 -0.000006 0.000008 -1.984743
    6 1.078272 6.143588 0.056378 3.011886 -1.570796 0.000000
    7 -0.229161 7.782845 0.458929 2.378164 -1.570796 0.000000
    8 0.864836 0.017996 -0.821000 4.712391 0.498663 -1.570700
    9 0.916864 9.033262 -0.145395 3.011886 -1.570796 0.000000
    10 -0.248194 10.608659 1.328514 0.000002 -0.000009 1.566784
    11 0.938609 4.841143 0.465839 -0.000009 -0.000002 3.137580
    12 0.998565 3.087639 -0.174532 0.000000 0.000000 -1.570796
    13 1.137329 0.000000 0.000000 0.000000 0.000000 0.000000
    14 -0.819369 -0.001998 0.011001 0.000000 0.000000 0.000000
    15 0.681055 0.557127 0.103592 0.000000 0.000000 0.000000
    16 0.681054 0.247698 0.494205 -3.141592 0.000000 0.000000
    17 0.681054 -0.265101 0.489439 0.000000 0.000000 0.000000
    18 0.681054 -0.576983 0.103931 -3.141592 0.000000 0.000000
    19 0.681055 -0.452399 -0.364148 0.000000 0.000000 0.000000
    20 0.681055 -0.012558 -0.578705 -3.141592 0.000000 0.000000
    21 0.681055 0.450127 -0.379953 0.000000 0.000000 0.000000
    22 1.257180 8.762585 -0.153713 -1.570562 0.002683 -1.566807
    23 -0.488518 -2.755602 -0.228260 -0.276286 -0.172145 -0.126284
    24 0.039887 -1.479790 0.029854 -1.622681 0.000000 0.000001
    25 0.028786 -1.075731 -0.023109 -1.042649 0.000000 0.000000
    26 0.250027 -2.820665 -0.238396 -0.273537 -0.167517 -0.114938
    27 -0.049759 -1.680544 0.100479 -1.760238 0.000000 -0.000002
    28 -0.034142 -1.148312 0.084782 -0.925879 0.000000 0.000000
    29 0.957766 -2.746780 -0.090302 -0.168670 -0.162684 0.097910
    30 -0.033420 -1.397129 -0.011257 -0.170296 -0.043396 -0.075732
    31 -0.022360 -0.957436 0.018784 -0.539183 0.000000 0.000000
    32 -1.180681 -2.507217 -0.193859 0.013476 -0.069771 -0.086690
    33 -0.024967 -1.123934 0.017597 -1.532721 0.000000 0.000001
    34 -0.020057 -0.890968 0.010090 -0.677843 0.000000 0.000000
    35 0.583510 -1.197277 0.185379 0.180199 -0.812077 -1.291294
    36 1.535927 0.010246 0.005009 -0.002964 -0.012979 -0.506627
    37 1.100771 0.004527 -0.010679 -0.014337 0.007572 -0.908784
    38 0.120153 -0.050270 -0.054489 0.287569 3.110905 1.561085
    39 0.299561 -13.583077 -12.337597 -1.199547 -5.086386 -0.350973
    40 0.096944 -8.450418 -0.009365 0.162467 -1.145423 -0.075769
    41 0.447953 -2.798986 -0.200443 -0.786501 -0.067958 0.142839
    42 -0.032909 -1.480204 0.004940 -1.165523 0.000000 0.000002
    43 -0.027022 -1.076920 -0.020210 -0.581968 0.000000 0.000000
    44 -0.249534 -2.846964 -0.174213 -0.128734 0.012411 0.088176
    45 0.043235 -1.683941 0.096012 -1.570874 0.002823 -0.000167
    46 0.031729 -1.160830 0.058838 -0.744924 0.000642 0.008372
    47 -0.963866 -2.785145 -0.085350 0.029528 0.160514 0.097512
    48 0.028479 -1.403067 0.006271 -0.585006 0.000000 0.000000
    49 0.021413 -0.957781 0.020046 -1.349016 0.000000 0.000000
    50 1.164475 -2.543940 -0.170330 -0.959734 -0.190582 0.231601
    51 0.024032 -1.129042 0.017807 -0.709841 0.000000 0.000001
    52 0.014898 -0.883989 -0.019848 -0.845482 0.000000 0.000000
    53 -0.586770 -1.264477 0.200161 0.029405 -0.425529 -2.676430
    54 1.522835 0.058681 0.016848 0.001410 0.008985 0.586072
    55 1.117947 0.048424 -0.005766 0.001267 -0.025174 0.005115
    56 -0.139399 -0.111698 0.014397 0.653645 -0.030687 1.580508
    57 -1.393470 8.839177 -0.239433 1.580804 -0.005023 -1.566847
  time 13
    0 -0.996124 0.003876 1.800000 0.008330 0.000000 -0.000034
    1 10.029492 3.757194 -9.113669 -0.149965 -1.612728 -0.045697
    2 -0.071918 -8.498730 -0.104137 0.150449 0.282903 0.054713
    3 2.733911 -2.087656 1.626837 -0.053752 0.246035 3.130544
    4 0.974667 3.050010 0.000333 0.000009 0.000002 -0.004012
    5 -0.325163 1.868348 0.019495 -0.000006 0.000008 -1.984743
    6 1.078272 6.143588 0.056378 -3.019910 -1.570796 0.000000
    7 -0.229161 7.782845 0.458929 2.193703 -1.570796 0.000000
    8 0.864836 0.017996 -0.821000 4.712391 0.724991 -1.570700
    9 0.916864 9.033262 -0.145395 -3.019910 -1.570796 0.000000
    10 -0.248194 10.729757 1.328514 0.000002 -0.000009 1.566784
    11 0.938609 4.841143 0.465839 -0.000009 -0.000002 3.137580
    12 0.998565 3.087639 -0.174532 0.000000 0.000000 -1.570796
    13 1.137329 0.000000 0.000000 0.000000 0.000000 0.000000
    14 -0.819369 -0.001998 0.011001 0.000000 0.000000 0.000000
    15 0.681055 0.557127 0.103592 0.000000 0.000000 0.000000
    16 0.681054 0.247698 0.494205 -3.141592 0.000000 0.000000
    17 0.681054 -0.265101 0.489439 0.000000 0.000000 0.000000
    18 0.681054 -0.576983 0.103931 -3.141592 0.000000 0.000000
    19 0.681055 -0.452399 -0.364148 0.000000 0.000000 0.000000
    20 0.681055 -0.012558 -0.578705 -3.141592 0.000000 0.000000
    21 0.681055 0.450127 -0.379953 0.000000 0.000000 0.000000
    22 1.257180 8.762585 -0.153713 -1.570562 0.002683 -1.566807
    23 -0.488518 -2.755602 -0.228260 -0.276286 -0.172145 -0.126284
    24 0.039887 -1.479790 0.029854 -1.622681 0.000000 0.000001
    25 0.028786 -1.075731 -0.023109 -1.042649 0.000000 0.000000
    26 0.250027 -2.820665 -0.238396 -0.273537 -0.167517 -0.114938
    27 -0.049759 -1.680544 0.100479 -1.760238 0.000000 -0.000002
    28 -0.034142 -1.148312 0.084782 -0.925906 0.000000 0.000000
    29 0.957766 -2.746780 -0.090302 -0.168670 -0.162684 0.097910
    30 -0.033420 -1.397129 -0.011257 -0.170296 -0.043396 -0.075732
    31 -0.022360 -0.957436 0.018784 -0.539183 0.000000 0.000000
    32 -1.180681 -2.507217 -0.193859 0.013476 -0.069771 -0.086690
    33 -0.024967 -1.123934 0.017597 -1.532721 0.000000 0.000001
    34 -0.020057 -0.890968 0.010090 -0.677843 0.000000 0.000000
    35 0.583510 -1.197277 0.185379 0.180199 -0.812077 -1.291294
    36 1.535927 0.010246 0.005009 -0.002964 -0.012979 -0.506627
    37 1.100771 0.004527 -0.010679 -0.014337 0.007572 -0.908784
    38 0.120153 -0.050270 -0.054489 0.287569 3.110905 1.561085
    39 0.299561 -13.583077 -12.251657 -1.199547 -5.086386 -0.350973
    40 0.096944 -8.450418 -0.009365 0.162467 -1.145423 -0.075769
    41 0.447953 -2.798986 -0.200443 -0.786501 -0.067958 0.142839
    42 -0.032909 -1.480204 0.004940 -1.165523 0.000000 0.000002
    43 -0.027022 -1.076920 -0.020210 -0.581968 0.000000 0.000000
    44 -0.249534 -2.846964 -0.174213 -0.128734 0.012411 0.088176
    45 0.043235 -1.683941 0.096012 -1.570874 0.002823 -0.000167
    46 0.031729 -1.160830 0.058838 -0.744924 0.000642 0.008372
    47 -0.963866 -2.785145 -0.085350 0.029528 0.160514 0.097512
    48 0.028479 -1.403067 0.006271 -0.585006 0.000000 0.000000
    49 0.021413 -0.957781 0.020046 -1.349016 0.000000 0.000000
    50 1.164475 -2.543940 -0.170330 -0.959734 -0.190582 0.231601
    51 0.024032 -1.129042 0.017807 -0.709841 0.000000 0.000001
    52 0.014898 -0.883989 -0.019848 -0.845482 0.000000 0.000000
    53 -0.586770 -1.264477 0.200161 0.029405 -0.425529 -2.676430
    54 1.522835 0.058681 0.016848 0.001410 0.008985 0.586072
    55 1.117947 0.048424 -0.005766 0.001267 -0.025174 0.005115
    56 -0.139399 -0.111698 0.014397 0.653645 -0.030687 1.580508
    57 -1.393470 8.839177 -0.239433 1.580804 -0.005023 -1.566847
  time 14
    0 -0.996124 0.003876 1.796094 0.015572 0.000000 -0.000034
    1 10.029492 3.757194 -9.113669 -0.149965 -1.612728 -0.045697
    2 -0.071918 -8.498730 -0.104137 0.151048 0.282604 0.056816
    3 2.733911 -2.087656 1.626837 -0.053752 0.246035 3.130544
    4 0.974667 3.050010 0.000333 0.000009 0.000002 -0.004012
    5 -0.325163 1.868348 0.019495 -0.000006 0.000008 -1.984743
    6 1.078272 6.143588 0.056378 -2.768521 -1.570796 0.000000
    7 -0.229161 7.782845 0.458929 2.011639 -1.570796 0.000000
    8 0.864836 0.017996 -0.821000 4.712391 0.953126 -1.570700
    9 0.916864 9.033262 -0.145395 -2.768521 -1.570796 0.000000
    10 -0.248194 10.831322 1.328514 0.000002 -0.000009 1.566784
    11 0.938609 4.841143 0.465839 -0.000009 -0.000002 3.137580
    12 0.998565 3.087639 -0.174532 0.000000 0.000000 -1.570796
    13 1.137329 0.000000 0.000000 0.000000 0.000000 0.000000
    14 -0.819369 -0.001998 0.011001 0.000000 0.000000 0.000000
    15 0.681055 0.557127 0.103592 0.000000 0.000000 0.000000
    16 0.681054 0.247698 0.494205 -3.141592 0.000000 0.000000
    17 0.681054 -0.265101 0.489439 0.000000 0.000000 0.000000
    18 0.681054 -0.576983 0.103931 -3.141592 0.000000 0.000000
    19 0.681055 -0.452399 -0.364148 0.000000 0.000000 0.000000
    20 0.681055 -0.012558 -0.578705 -3.141592 0.000000 0.000000
    21 0.681055 0.450127 -0.379953 0.000000 0.000000 0.000000
    22 1.257180 8.762585 -0.153713 -1.570562 0.002683 -1.566807
    23 -0.488518 -2.755602 -0.228260 -0.276286 -0.172145 -0.126284
    24 0.039887 -1.479790 0.029854 -1.622681 0.000000 0.000001
    25 0.028786 -1.075731 -0.023109 -1.042649 0.000000 0.000000
    26 0.250027 -2.820665 -0.238396 -0.273537 -0.167517 -0.114938
    27 -0.049759 -1.680544 0.100479 -1.760238 0.000000 -0.000002
    28 -0.034142 -1.148312 0.084782 -0.925879 0.000000 0.000000
    29 0.957766 -2.746780 -0.090302 -0.168670 -0.162684 0.097910
    30 -0.033420 -1.397129 -0.011257 -0.170296 -0.043396 -0.075732
    31 -0.022360 -0.957436 0.018784 -0.539183 0.000000 0.000000
    32 -1.180681 -2.507217 -0.193859 0.013476 -0.069771 -0.086690
    33 -0.024967 -1.123934 0.017597 -1.532721 0.000000 0.000001
    34 -0.020057 -0.890968 0.010090 -0.677843 0.000000 0.000000
    35 0.583510 -1.197277 0.185379 0.180199 -0.812077 -1.291294
    36 1.535927 0.010246 0.005009 -0.002964 -0.012979 -0.506627
    37 1.100771 0.004527 -0.010679 -0.014337 0.007572 -0.908784
    38 0.120153 -0.050270 -0.054489 0.287569 3.110905 1.561085
    39 0.299561 -13.583077 -12.193062 -1.199547 -5.086386 -0.350973
    40 0.096944 -8.450418 -0.009365 0.162467 -1.145423 -0.075769
    41 0.447953 -2.798986 -0.200443 -0.786474 -0.067958 0.142839
    42 -0.032909 -1.480204 0.004940 -1.165523 0.000000 0.000002
    43 -0.027022 -1.076920 -0.020210 -0.581968 0.000000 0.000000
    44 -0.249534 -2.846964 -0.174213 -0.128734 0.012411 0.088176
    45 0.043235 -1.683941 0.096012 -1.570874 0.002823 -0.000167
    46 0.031729 -1.160830 0.058838 -0.744924 0.000642 0.008372
    47 -0.963866 -2.785145 -0.085350 0.029528 0.160514 0.097512
    48 0.028479 -1.403067 0.006271 -0.585006 0.000000 0.000000
    49 0.021413 -0.957781 0.020046 -1.349016 0.000000 0.000000
    50 1.164475 -2.543940 -0.170330 -0.959734 -0.190582 0.231601
    51 0.024032 -1.129042 0.017807 -0.709841 0.000000 0.000001
    52 0.014898 -0.883989 -0.019848 -0.845482 0.000000 0.000000
    53 -0.586770 -1.264477 0.200161 0.029405 -0.425529 -2.676430
    54 1.522835 0.058681 0.016848 0.001410 0.008985 0.586072
    55 1.117947 0.048424 -0.005766 0.001267 -0.025174 0.005115
    56 -0.139399 -0.111698 0.014397 0.653645 -0.030687 1.580508
    57 -1.393470 8.839177 -0.239433 1.580804 -0.005023 -1.566847
  time 15
    0 -0.996124 0.003876 1.780468 0.018319 0.000000 -0.000034
    1 10.029492 3.757194 -9.113669 -0.149965 -1.612728 -0.045697
    2 -0.071918 -8.498730 -0.104137 0.151252 0.282508 0.057556
    3 2.733911 -2.087656 1.626837 -0.053752 0.246035 3.130544
    4 0.974667 3.050010 0.000333 0.000009 0.000002 -0.004012
    5 -0.325163 1.868348 0.019495 -0.000006 0.000008 -1.984743
    6 1.078272 6.143588 0.056378 -2.517228 -1.570796 0.000000
    7 -0.229161 7.782845 0.458929 1.831204 -1.570796 0.000000
    8 0.864836 0.017996 -0.821000 4.712391 1.184245 -1.570700
    9 0.916864 9.033262 -0.145395 -2.517228 -1.570796 0.000000
    10 -0.244288 10.909450 1.328514 0.000002 -0.000009 1.566784
    11 0.938609 4.841143 0.465839 -0.000009 -0.000002 3.137580
    12 0.998565 3.087639 -0.174532 0.000000 0.000000 -1.570796
    13 1.137329 0.000000 0.000000 0.000000 0.000000 0.000000
    14 -0.819369 -0.001998 0.011001 0.000000 0.000000 0.000000
    15 0.681055 0.557127 0.103592 0.000000 0.000000 0.000000
    16 0.681054 0.247698 0.494205 -3.141592 0.000000 0.000000
    17 0.681054 -0.265101 0.489439 0.000000 0.000000 0.000000
    18 0.681054 -0.576983 0.103931 -3.141592 0.000000 0.000000
    19 0.681055 -0.452399 -0.364148 0.000000 0.000000 0.000000
    20 0.681055 -0.012558 -0.578705 -3.141592 0.000000 0.000000
    21 0.681055 0.450127 -0.379953 0.000000 0.000000 0.000000
    22 1.257180 8.762585 -0.153713 -1.570562 0.002683 -1.566807
    23 -0.488518 -2.755602 -0.228260 -0.276286 -0.172145 -0.126284
    24 0.039887 -1.479790 0.029854 -1.622681 0.000000 0.000001
    25 0.028786 -1.075731 -0.023109 -1.042649 0.000000 0.000000
    26 0.250027 -2.820665 -0.238396 -0.273537 -0.167517 -0.114938
    27 -0.049759 -1.680544 0.100479 -1.760238 0.000000 -0.000002
    28 -0.034142 -1.148312 0.084782 -0.925906 0.000000 0.000000
    29 0.957766 -2.746780 -0.090302 -0.168670 -0.162684 0.097910
    30 -0.033420 -1.397129 -0.011257 -0.170296 -0.043396 -0.075732
    31 -0.022360 -0.957436 0.018784 -0.539183 0.000000 0.000000
    32 -1.180681 -2.507217 -0.193859 0.013476 -0.069771 -0.086690
    33 -0.024967 -1.123934 0.017597 -1.532721 0.000000 0.000001
    34 -0.020057 -0.890968 0.010090 -0.677843 0.000000 0.000000
    35 0.583510 -1.197277 0.185379 0.180199 -0.812077 -1.291294
    36 1.535927 0.010246 0.005009 -0.002964 -0.012979 -0.506627
    37 1.100771 0.004527 -0.010679 -0.014337 0.007572 -0.908784
    38 0.120153 -0.050270 -0.054489 0.287569 3.110905 1.561085
    39 0.299561 -13.583077 -12.173530 -1.199547 -5.086386 -0.350973
    40 0.096944 -8.450418 -0.009365 0.162467 -1.145423 -0.075769
    41 0.447953 -2.798986 -0.200443 -0.786501 -0.067958 0.142839
    42 -0.032909 -1.480204 0.004940 -1.165523 0.000000 0.000002
    43 -0.027022 -1.076920 -0.020210 -0.581968 0.000000 0.000000
    44 -0.249534 -2.846964 -0.174213 -0.128734 0.012411 0.088176
    45 0.043235 -1.683941 0.096012 -1.570874 0.002823 -0.000167
    46 0.031729 -1.160830 0.058838 -0.744924 0.000642 0.008372
    47 -0.963866 -2.785145 -0.085350 0.029528 0.160514 0.097512
    48 0.028479 -1.403067 0.006271 -0.585006 0.000000 0.000000
    49 0.021413 -0.957781 0.020046 -1.349016 0.000000 0.000000
    50 1.164475 -2.543940 -0.170330 -0.959734 -0.190582 0.231601
    51 0.024032 -1.129042 0.017807 -0.709841 0.000000 0.000001
    52 0.014898 -0.883989 -0.019848 -0.845482 0.000000 0.000000
    53 -0.586770 -1.264477 0.200161 0.029405 -0.425529 -2.676430
    54 1.522835 0.058681 0.016848 0.001410 0.008985 0.586072
    55 1.117947 0.048424 -0.005766 0.001267 -0.025174 0.005115
    56 -0.139399 -0.111698 0.014397 0.653645 -0.030687 1.580508
    57 -1.393470 8.839177 -0.239433 1.580804 -0.005023 -1.566847
  time 16
    0 -0.996124 0.003876 1.757030 0.017356 0.000000 -0.000034
    1 10.029492 3.757194 -9.113669 -0.149965 -1.612728 -0.045697
    2 -0.071918 -8.498730 -0.104137 0.151252 0.282508 0.057556
    3 2.733911 -2.087656 1.626837 -0.053752 0.246035 3.130544
    4 0.974667 3.050010 0.000333 0.000009 0.000002 -0.004012
    5 -0.325163 1.868348 0.019495 -0.000006 0.000008 -1.984743
    6 1.078272 6.143588 0.056378 -2.265935 -1.570796 0.000000
    7 -0.229161 7.782845 0.458929 1.651920 -1.570796 0.000000
    8 0.864836 0.017996 -0.821000 4.712391 1.420335 -1.570700
    9 0.916864 9.033262 -0.145395 -2.265935 -1.570796 0.000000
    10 -0.244288 10.960232 1.328514 0.000002 -0.000009 1.566784
    11 0.938609 4.841143 0.465839 -0.000009 -0.000002 3.137580
    12 0.998565 3.087639 -0.174532 0.000000 0.000000 -1.570796
    13 1.137329 0.000000 0.000000 0.000000 0.000000 0.000000
    14 -0.819369 -0.001998 0.011001 0.000000 0.000000 0.000000
    15 0.681055 0.557127 0.103592 0.000000 0.000000 0.000000
    16 0.681054 0.247698 0.494205 -3.141592 0.000000 0.000000
    17 0.681054 -0.265101 0.489439 0.000000 0.000000 0.000000
    18 0.681054 -0.576983 0.103931 -3.141592 0.000000 0.000000
    19 0.681055 -0.452399 -0.364148 0.000000 0.000000 0.000000
    20 0.681055 -0.012558 -0.578705 -3.141592 0.000000 0.000000
    21 0.681055 0.450127 -0.379953 0.000000 0.000000 0.000000
    22 1.257180 8.762585 -0.153713 -1.570562 0.002683 -1.566807
    23 -0.488518 -2.755602 -0.228260 -0.276286 -0.172145 -0.126284
    24 0.039887 -1.479790 0.029854 -1.622681 0.000000 0.000001
    25 0.028786 -1.075731 -0.023109 -1.042649 0.000000 0.000000
    26 0.250027 -2.820665 -0.238396 -0.273537 -0.167517 -0.114938
    27 -0.049759 -1.680544 0.100479 -1.760238 0.000000 -0.000002
    28 -0.034142 -1.148312 0.084782 -0.925879 0.000000 0.000000
    29 0.957766 -2.746780 -0.090302 -0.168670 -0.162684 0.097910
    30 -0.033420 -1.397129 -0.011257 -0.170296 -0.043396 -0.075732
    31 -0.022360 -0.957436 0.018784 -0.539183 0.000000 0.000000
    32 -1.180681 -2.507217 -0.193859 0.013476 -0.069771 -0.086690
    33 -0.024967 -1.123934 0.017597 -1.532721 0.000000 0.000001
    34 -0.020057 -0.890968 0.010090 -0.677843 0.000000 0.000000
    35 0.583510 -1.197277 0.185379 0.180199 -0.812077 -1.291294
    36 1.535927 0.010246 0.005009 -0.002964 -0.012979 -0.506627
    37 1.100771 0.004527 -0.010679 -0.014337 0.007572 -0.908784
    38 0.120153 -0.050270 -0.054489 0.287569 3.110905 1.561085
    39 0.299561 -13.583077 -12.173530 -1.199547 -5.086386 -0.350973
    40 0.096944 -8.450418 -0.009365 0.162467 -1.145423 -0.075769
    41 0.447953 -2.798986 -0.200443 -0.786474 -0.067958 0.142839
    42 -0.032909 -1.480204 0.004940 -1.165523 0.000000 0.000002
    43 -0.027022 -1.076920 -0.020210 -0.581968 0.000000 0.000000
    44 -0.249534 -2.846964 -0.174213 -0.128734 0.012411 0.088176
    45 0.043235 -1.683941 0.096012 -1.570874 0.002823 -0.000167
    46 0.031729 -1.160830 0.058838 -0.744924 0.000642 0.008372
    47 -0.963866 -2.785145 -0.085350 0.029528 0.160514 0.097512
    48 0.028479 -1.403067 0.006271 -0.585006 0.000000 0.000000
    49 0.021413 -0.957781 0.020046 -1.349016 0.000000 0.000000
    50 1.164475 -2.543940 -0.170330 -0.959734 -0.190582 0.231601
    51 0.024032 -1.129042 0.017807 -0.709841 0.000000 0.000001
    52 0.014898 -0.883989 -0.019848 -0.845482 0.000000 0.000000
    53 -0.586770 -1.264477 0.200161 0.029405 -0.425529 -2.676430
    54 1.522835 0.058681 0.016848 0.001410 0.008985 0.586072
    55 1.117947 0.048424 -0.005766 0.001267 -0.025174 0.005115
    56 -0.139399 -0.111698 0.014397 0.653645 -0.030687 1.580508
    57 -1.393470 8.839177 -0.239433 1.580804 -0.005023 -1.566847
  time 17
    0 -0.996124 0.003876 1.733592 0.014769 0.000000 -0.000034
    1 10.029492 3.757194 -9.113669 -0.149965 -1.612728 -0.045697
    2 -0.071918 -8.498730 -0.104137 0.151252 0.282508 0.057556
    3 2.733911 -2.087656 1.626837 -0.053752 0.246035 3.130544
    4 0.974667 3.050010 0.000333 0.000009 0.000002 -0.004012
    5 -0.325163 1.868348 0.019495 -0.000006 0.000008 -1.984743
    6 1.078272 6.143588 0.056378 -2.014547 -1.570796 0.000000
    7 -0.229161 7.782845 0.458929 1.473307 -1.570796 0.000000
    8 0.864836 0.017996 -0.821000 1.570799 1.482159 1.570796
    9 0.916864 9.033262 -0.145395 -2.014547 -1.570796 0.000000
    10 -0.244288 10.979764 1.328514 0.000002 -0.000009 1.566784
    11 0.938609 4.841143 0.465839 -0.000009 -0.000002 3.137580
    12 0.998565 3.087639 -0.174532 0.000000 0.000000 -1.570796
    13 1.137329 0.000000 0.000000 0.000000 0.000000 0.000000
    14 -0.819369 -0.001998 0.011001 0.000000 0.000000 0.000000
    15 0.681055 0.557127 0.103592 0.000000 0.000000 0.000000
    16 0.681054 0.247698 0.494205 -3.141592 0.000000 0.000000
    17 0.681054 -0.265101 0.489439 0.000000 0.000000 0.000000
    18 0.681054 -0.576983 0.103931 -3.141592 0.000000 0.000000
    19 0.681055 -0.452399 -0.364148 0.000000 0.000000 0.000000
    20 0.681055 -0.012558 -0.578705 -3.141592 0.000000 0.000000
    21 0.681055 0.450127 -0.379953 0.000000 0.000000 0.000000
    22 1.257180 8.762585 -0.153713 -1.570562 0.002683 -1.566807
    23 -0.488518 -2.755602 -0.228260 -0.276286 -0.172145 -0.126284
    24 0.039887 -1.479790 0.029854 -1.622681 0.000000 0.000001
    25 0.028786 -1.075731 -0.023109 -1.042649 0.000000 0.000000
    26 0.250027 -2.820665 -0.238396 -0.273537 -0.167517 -0.114938
    27 -0.049759 -1.680544 0.100479 -1.760238 0.000000 -0.000002
    28 -0.034142 -1.148312 0.084782 -0.925879 0.000000 0.000000
    29 0.957766 -2.746780 -0.090302 -0.168670 -0.162684 0.097910
    30 -0.033420 -1.397129 -0.011257 -0.170296 -0.043396 -0.075732
    31 -0.022360 -0.957436 0.018784 -0.539183 0.000000 0.000000
    32 -1.180681 -2.507217 -0.193859 0.013476 -0.069771 -0.086690
    33 -0.024967 -1.123934 0.017597 -1.532721 0.000000 0.000001
    34 -0.020057 -0.890968 0.010090 -0.677843 0.000000 0.000000
    35 0.583510 -1.197277 0.185379 0.180199 -0.812077 -1.291294
    36 1.535927 0.010246 0.005009 -0.002964 -0.012979 -0.506627
    37 1.100771 0.004527 -0.010679 -0.014337 0.007572 -0.908784
    38 0.120153 -0.050270 -0.054489 0.287569 3.110905 1.561085
    39 0.299561 -13.583077 -12.173530 -1.199547 -5.086386 -0.350973
    40 0.096944 -8.450418 -0.009365 0.162467 -1.145423 -0.075769
    41 0.447953 -2.798986 -0.200443 -0.786501 -0.067958 0.142839
    42 -0.032909 -1.480204 0.004940 -1.165523 0.000000 0.000002
    43 -0.027022 -1.076920 -0.020210 -0.581968 0.000000 0.000000
    44 -0.249534 -2.846964 -0.174213 -0.128734 0.012411 0.088176
    45 0.043235 -1.683941 0.096012 -1.570874 0.002823 -0.000167
    46 0.031729 -1.160830 0.058838 -0.744924 0.000642 0.008372
    47 -0.963866 -2.785145 -0.085350 0.029528 0.160514 0.097512
    48 0.028479 -1.403067 0.006271 -0.585006 0.000000 0.000000
    49 0.021413 -0.957781 0.020046 -1.349016 0.000000 0.000000
    50 1.164475 -2.543940 -0.170330 -0.959734 -0.190582 0.231601
    51 0.024032 -1.129042 0.017807 -0.709841 0.000000 0.000001
    52 0.014898 -0.883989 -0.019848 -0.845482 0.000000 0.000000
    53 -0.586770 -1.264477 0.200161 0.029405 -0.425529 -2.676430
    54 1.522835 0.058681 0.016848 0.001410 0.008985 0.586072
    55 1.117947 0.048424 -0.005766 0.001267 -0.025174 0.005115
    56 -0.139399 -0.111698 0.014397 0.653645 -0.030687 1.580508
    57 -1.393470 8.839177 -0.239433 1.580804 -0.005023 -1.566847
  time 18
    0 -0.996124 0.003876 1.710153 0.011130 0.000000 -0.000034
    1 10.029492 3.757194 -9.113669 -0.149965 -1.612728 -0.045697
    2 -0.071918 -8.498730 -0.104137 0.151252 0.282508 0.057556
    3 2.733911 -2.087656 1.626837 -0.053752 0.246035 3.130544
    4 0.974667 3.050010 0.000333 0.000009 0.000002 -0.004012
    5 -0.325163 1.868348 0.019495 -0.000006 0.000008 -1.984743
    6 1.078272 6.143588 0.056378 -1.763254 -1.570796 0.000000
    7 -0.229161 7.782845 0.458929 1.294598 -1.570796 0.000000
    8 0.864836 0.017996 -0.821000 1.570799 1.239923 1.570796
    9 0.916864 9.033262 -0.145395 -1.763254 -1.570796 0.000000
    10 -0.244288 10.932888 1.328514 0.000002 -0.000009 1.566784
    11 0.938609 4.841143 0.465839 -0.000009 -0.000002 3.137580
    12 0.998565 3.087639 -0.174532 0.000000 0.000000 -1.570796
    13 1.137329 0.000000 0.000000 0.000000 0.000000 0.000000
    14 -0.819369 -0.001998 0.011001 0.000000 0.000000 0.000000
    15 0.681055 0.557127 0.103592 0.000000 0.000000 0.000000
    16 0.681054 0.247698 0.494205 -3.141592 0.000000 0.000000
    17 0.681054 -0.265101 0.489439 0.000000 0.000000 0.000000
    18 0.681054 -0.576983 0.103931 -3.141592 0.000000 0.000000
    19 0.681055 -0.452399 -0.364148 0.000000 0.000000 0.000000
    20 0.681055 -0.012558 -0.578705 -3.141592 0.000000 0.000000
    21 0.681055 0.450127 -0.379953 0.000000 0.000000 0.000000
    22 1.257180 8.762585 -0.153713 -1.570562 0.002683 -1.566807
    23 -0.488518 -2.755602 -0.228260 -0.276286 -0.172145 -0.126284
    24 0.039887 -1.479790 0.029854 -1.622681 0.000000 0.000001
    25 0.028786 -1.075731 -0.023109 -1.042649 0.000000 0.000000
    26 0.250027 -2.820665 -0.238396 -0.273537 -0.167517 -0.114938
    27 -0.049759 -1.680544 0.100479 -1.760238 0.000000 -0.000002
    28 -0.034142 -1.148312 0.084782 -0.925906 0.000000 0.000000
    29 0.957766 -2.746780 -0.090302 -0.168670 -0.162684 0.097910
    30 -0.033420 -1.397129 -0.011257 -0.170296 -0.043396 -0.075732
    31 -0.022360 -0.957436 0.018784 -0.539183 0.000000 0.000000
    32 -1.180681 -2.507217 -0.193859 0.013476 -0.069771 -0.086690
    33 -0.024967 -1.123934 0.017597 -1.532721 0.000000 0.000001
    34 -0.020057 -0.890968 0.010090 -0.677843 0.000000 0.000000
    35 0.583510 -1.197277 0.185379 0.180199 -0.812077 -1.291294
    36 1.535927 0.010246 0.005009 -0.002964 -0.012979 -0.506627
    37 1.100771 0.004527 -0.010679 -0.014337 0.007572 -0.908784
    38 0.120153 -0.050270 -0.054489 0.287569 3.110905 1.561085
    39 0.299561 -13.583077 -12.173530 -1.199547 -5.086386 -0.350973
    40 0.096944 -8.450418 -0.009365 0.162467 -1.145423 -0.075769
    41 0.447953 -2.798986 -0.200443 -0.786474 -0.067958 0.142839
    42 -0.032909 -1.480204 0.004940 -1.165523 0.000000 0.000002
    43 -0.027022 -1.076920 -0.020210 -0.581968 0.000000 0.000000
    44 -0.249534 -2.846964 -0.174213 -0.128734 0.012411 0.088176
    45 0.043235 -1.683941 0.096012 -1.570874 0.002823 -0.000167
    46 0.031729 -1.160830 0.058838 -0.744924 0.000642 0.008372
    47 -0.963866 -2.785145 -0.085350 0.029528 0.160514 0.097512
    48 0.028479 -1.403067 0.006271 -0.585006 0.000000 0.000000
    49 0.021413 -0.957781 0.020046 -1.349016 0.000000 0.000000
    50 1.164475 -2.543940 -0.170330 -0.959734 -0.190582 0.231601
    51 0.024032 -1.129042 0.017807 -0.709841 0.000000 0.000001
    52 0.014898 -0.883989 -0.019848 -0.845482 0.000000 0.000000
    53 -0.586770 -1.264477 0.200161 0.029405 -0.425529 -2.676430
    54 1.522835 0.058681 0.016848 0.001410 0.008985 0.586072
    55 1.117947 0.048424 -0.005766 0.001267 -0.025174 0.005115
    56 -0.139399 -0.111698 0.014397 0.653645 -0.030687 1.580508
    57 -1.393470 8.839177 -0.239433 1.580804 -0.005023 -1.566847
  time 19
    0 -0.996124 0.003876 1.694528 0.006957 0.000000 -0.000034
    1 10.029492 3.757194 -9.113669 -0.149965 -1.612728 -0.045697
    2 -0.071918 -8.498730 -0.104137 0.151252 0.282508 0.057556
    3 2.733911 -2.087656 1.626837 -0.053752 0.246035 3.130544
    4 0.974667 3.050010 0.000333 0.000009 0.000002 -0.004012
    5 -0.325163 1.868348 0.019495 -0.000006 0.000008 -1.984743
    6 1.078272 6.143588 0.056378 -1.511961 -1.570796 0.000000
    7 -0.229161 7.782845 0.458929 1.115314 -1.570796 0.000000
    8 0.864836 0.017996 -0.821000 1.570799 0.995066 1.570796
    9 0.916864 9.033262 -0.145395 -1.511961 -1.570796 0.000000
    10 -0.248194 10.815697 1.328514 0.000002 -0.000009 1.566784
    11 0.938609 4.841143 0.465839 -0.000009 -0.000002 3.137580
    12 0.998565 3.087639 -0.174532 0.000000 0.000000 -1.570796
    13 1.137329 0.000000 0.000000 0.000000 0.000000 0.000000
    14 -0.819369 -0.001998 0.011001 0.000000 0.000000 0.000000
    15 0.681055 0.557127 0.103592 0.000000 0.000000 0.000000
    16 0.681054 0.247698 0.494205 -3.141592 0.000000 0.000000
    17 0.681054 -0.265101 0.489439 0.000000 0.000000 0.000000
    18 0.681054 -0.576983 0.103931 -3.141592 0.000000 0.000000
    19 0.681055 -0.452399 -0.364148 0.000000 0.000000 0.000000
    20 0.681055 -0.012558 -0.578705 -3.141592 0.000000 0.000000
    21 0.681055 0.450127 -0.379953 0.000000 0.000000 0.000000
    22 1.257180 8.762585 -0.153713 -1.570562 0.002683 -1.566807
    23 -0.488518 -2.755602 -0.228260 -0.276286 -0.172145 -0.126284
    24 0.039887 -1.479790 0.029854 -1.622681 0.000000 0.000001
    25 0.028786 -1.075731 -0.023109 -1.042649 0.000000 0.000000
    26 0.250027 -2.820665 -0.238396 -0.273537 -0.167517 -0.114938
    27 -0.049759 -1.680544 0.100479 -1.760238 0.000000 -0.000002
    28 -0.034142 -1.148312 0.084782 -0.925879 0.000000 0.000000
    29 0.957766 -2.746780 -0.090302 -0.168670 -0.162684 0.097910
    30 -0.033420 -1.397129 -0.011257 -0.170296 -0.043396 -0.075732
    31 -0.022360 -0.957436 0.018784 -0.539183 0.000000 0.000000
    32 -1.180681 -2.507217 -0.193859 0.013476 -0.069771 -0.086690
    33 -0.024967 -1.123934 0.017597 -1.532721 0.000000 0.000001
    34 -0.020057 -0.890968 0.010090 -0.677843 0.000000 0.000000
    35 0.583510 -1.197277 0.185379 0.180199 -0.812077 -1.291294
    36 1.535927 0.010246 0.005009 -0.002964 -0.012979 -0.506627
    37 1.100771 0.004527 -0.010679 -0.014337 0.007572 -0.908784
    38 0.120153 -0.050270 -0.054489 0.287569 3.110905 1.561085
    39 0.299561 -13.583077 -12.173530 -1.199547 -5.086386 -0.350973
    40 0.096944 -8.450418 -0.009365 0.162467 -1.145423 -0.075769
    41 0.447953 -2.798986 -0.200443 -0.786474 -0.067958 0.142839
    42 -0.032909 -1.480204 0.004940 -1.165523 0.000000 0.000002
    43 -0.027022 -1.076920 -0.020210 -0.581968 0.000000 0.000000
    44 -0.249534 -2.846964 -0.174213 -0.128734 0.012411 0.088176
    45 0.043235 -1.683941 0.096012 -1.570874 0.002823 -0.000167
    46 0.031729 -1.160830 0.058838 -0.744924 0.000642 0.008372
    47 -0.963866 -2.785145 -0.085350 0.029528 0.160514 0.097512
    48 0.028479 -1.403067 0.006271 -0.585006 0.000000 0.000000
    49 0.021413 -0.957781 0.020046 -1.349016 0.000000 0.000000
    50 1.164475 -2.543940 -0.170330 -0.959734 -0.190582 0.231601
    51 0.024032 -1.129042 0.017807 -0.709841 0.000000 0.000001
    52 0.014898 -0.883989 -0.019848 -0.845482 0.000000 0.000000
    53 -0.586770 -1.264477 0.200161 0.029405 -0.425529 -2.676430
    54 1.522835 0.058681 0.016848 0.001410 0.008985 0.586072
    55 1.117947 0.048424 -0.005766 0.001267 -0.025174 0.005115
    56 -0.139399 -0.111698 0.014397 0.653645 -0.030687 1.580508
    57 -1.393470 8.839177 -0.239433 1.580804 -0.005023 -1.566847
  time 20
    0 -0.996124 0.003876 1.690622 0.002800 0.000000 -0.000034
    1 10.029492 3.757194 -9.113669 -0.149965 -1.612728 -0.045697
    2 -0.071918 -8.498730 -0.104137 0.151252 0.282508 0.057556
    3 2.733911 -2.087656 1.626837 -0.053752 0.246035 3.130544
    4 0.974667 3.050010 0.000333 0.000009 0.000002 -0.004012
    5 -0.325163 1.868348 0.019495 -0.000006 0.000008 -1.984743
    6 1.078272 6.143588 0.056378 -1.260572 -1.570796 0.000000
    7 -0.229161 7.782845 0.458929 0.934880 -1.570796 0.000000
    8 0.864836 0.017996 -0.821000 4.712391 2.390906 -1.570700
    9 0.916864 9.033262 -0.145395 -1.260572 -1.570796 0.000000
    10 -0.248194 10.647723 1.328514 0.000002 -0.000009 1.566784
    11 0.938609 4.841143 0.465839 -0.000009 -0.000002 3.137580
    12 0.998565 3.087639 -0.174532 0.000000 0.000000 -1.570796
    13 1.137329 0.000000 0.000000 0.000000 0.000000 0.000000
    14 -0.819369 -0.001998 0.011001 0.000000 0.000000 0.000000
    15 0.681055 0.557127 0.103592 0.000000 0.000000 0.000000
    16 0.681054 0.247698 0.494205 -3.141592 0.000000 0.000000
    17 0.681054 -0.265101 0.489439 0.000000 0.000000 0.000000
    18 0.681054 -0.576983 0.103931 -3.141592 0.000000 0.000000
    19 0.681055 -0.452399 -0.364148 0.000000 0.000000 0.000000
    20 0.681055 -0.012558 -0.578705 -3.141592 0.000000 0.000000
    21 0.681055 0.450127 -0.379953 0.000000 0.000000 0.000000
    22 1.257180 8.762585 -0.153713 -1.570562 0.002683 -1.566807
    23 -0.488518 -2.755602 -0.228260 -0.276286 -0.172145 -0.126284
    24 0.039887 -1.479790 0.029854 -1.622681 0.000000 0.000001
    25 0.028786 -1.075731 -0.023109 -1.042649 0.000000 0.000000
    26 0.250027 -2.820665 -0.238396 -0.273537 -0.167517 -0.114938
    27 -0.049759 -1.680544 0.100479 -1.760238 0.000000 -0.000002
    28 -0.034142 -1.148312 0.084782 -0.925879 0.000000 0.000000
    29 0.957766 -2.746780 -0.090302 -0.168670 -0.162684 0.097910
    30 -0.033420 -1.397129 -0.011257 -0.170296 -0.043396 -0.075732
    31 -0.022360 -0.957436 0.018784 -0.539183 0.000000 0.000000
    32 -1.180681 -2.507217 -0.193859 0.013476 -0.069771 -0.086690
    33 -0.024967 -1.123934 0.017597 -1.532721 0.000000 0.000001
    34 -0.020057 -0.890968 0.010090 -0.677843 0.000000 0.000000
    35 0.583510 -1.197277 0.185379 0.180199 -0.812077 -1.291294
    36 1.535927 0.010246 0.005009 -0.002964 -0.012979 -0.506627
    37 1.100771 0.004527 -0.010679 -0.014337 0.007572 -0.908784
    38 0.120153 -0.050270 -0.054489 0.287569 3.110905 1.561085
    39 0.299561 -13.583077 -12.173530 -1.199547 -5.086386 -0.350973
    40 0.096944 -8.450418 -0.009365 0.162467 -1.145423 -0.075769
    41 0.447953 -2.798986 -0.200443 -0.786474 -0.067958 0.142839
    42 -0.032909 -1.480204 0.004940 -1.165523 0.000000 0.000002
    43 -0.027022 -1.076920 -0.020210 -0.581968 0.000000 0.000000
    44 -0.249534 -2.846964 -0.174213 -0.128734 0.012411 0.088176
    45 0.043235 -1.683941 0.096012 -1.570874 0.002823 -0.000167
    46 0.031729 -1.160830 0.058838 -0.744924 0.000642 0.008372
    47 -0.963866 -2.785145 -0.085350 0.029528 0.160514 0.097512
    48 0.028479 -1.403067 0.006271 -0.585006 0.000000 0.000000
    49 0.021413 -0.957781 0.020046 -1.349016 0.000000 0.000000
    50 1.164475 -2.543940 -0.170330 -0.959734 -0.190582 0.231601
    51 0.024032 -1.129042 0.017807 -0.709841 0.000000 0.000001
    52 0.014898 -0.883989 -0.019848 -0.845482 0.000000 0.000000
    53 -0.586770 -1.264477 0.200161 0.029405 -0.425529 -2.676430
    54 1.522835 0.058681 0.016848 0.001410 0.008985 0.586072
    55 1.117947 0.048424 -0.005766 0.001267 -0.025174 0.005115
    56 -0.139399 -0.111698 0.014397 0.653645 -0.030687 1.580508
    57 -1.393470 8.839177 -0.239433 1.580804 -0.005023 -1.566847
  time 21
    0 -0.996124 0.003876 1.702341 -0.000838 0.000000 -0.000034
    1 10.029492 3.757194 -9.113669 -0.149965 -1.612728 -0.045697
    2 -0.071918 -8.498730 -0.104137 0.151252 0.282508 0.057556
    3 2.733911 -2.087656 1.626837 -0.053752 0.246035 3.130544
    4 0.974667 3.050010 0.000333 0.000009 0.000002 -0.004012
    5 -0.325163 1.868348 0.019495 -0.000006 0.000008 -1.984743
    6 1.078272 6.143588 0.056378 -1.009279 -1.570796 0.000000
    7 -0.229161 7.782845 0.458929 0.752816 -1.570796 0.000000
    8 0.864836 0.017996 -0.821000 1.570799 0.509690 1.570796
    9 0.916864 9.033262 -0.145395 -1.009279 -1.570796 0.000000
    10 -0.248194 10.456311 1.328514 0.000002 -0.000009 1.566784
    11 0.938609 4.841143 0.465839 -0.000009 -0.000002 3.137580
    12 0.998565 3.087639 -0.174532 0.000000 0.000000 -1.570796
    13 1.137329 0.000000 0.000000 0.000000 0.000000 0.000000
    14 -0.819369 -0.001998 0.011001 0.000000 0.000000 0.000000
    15 0.681055 0.557127 0.103592 0.000000 0.000000 0.000000
    16 0.681054 0.247698 0.494205 -3.141592 0.000000 0.000000
    17 0.681054 -0.265101 0.489439 0.000000 0.000000 0.000000
    18 0.681054 -0.576983 0.103931 -3.141592 0.000000 0.000000
    19 0.681055 -0.452399 -0.364148 0.000000 0.000000 0.000000
    20 0.681055 -0.012558 -0.578705 -3.141592 0.000000 0.000000
    21 0.681055 0.450127 -0.379953 0.000000 0.000000 0.000000
    22 1.257180 8.762585 -0.153713 -1.570562 0.002683 -1.566807
    23 -0.488518 -2.755602 -0.228260 -0.276286 -0.172145 -0.126284
    24 0.039887 -1.479790 0.029854 -1.622681 0.000000 0.000001
    25 0.028786 -1.075731 -0.023109 -1.042649 0.000000 0.000000
    26 0.250027 -2.820665 -0.238396 -0.273537 -0.167517 -0.114938
    27 -0.049759 -1.680544 0.100479 -1.760238 0.000000 -0.000002
    28 -0.034142 -1.148312 0.084782 -0.925906 0.000000 0.000000
    29 0.957766 -2.746780 -0.090302 -0.168670 -0.162684 0.097910
    30 -0.033420 -1.397129 -0.011257 -0.170296 -0.043396 -0.075732
    31 -0.022360 -0.957436 0.018784 -0.539183 0.000000 0.000000
    32 -1.180681 -2.507217 -0.193859 0.013476 -0.069771 -0.086690
    33 -0.024967 -1.123934 0.017597 -1.532721 0.000000 0.000001
    34 -0.020057 -0.890968 0.010090 -0.677843 0.000000 0.000000
    35 0.583510 -1.197277 0.185379 0.180199 -0.812077 -1.291294
    36 1.535927 0.010246 0.005009 -0.002964 -0.012979 -0.506627
    37 1.100771 0.004527 -0.010679 -0.014337 0.007572 -0.908784
    38 0.120153 -0.050270 -0.054489 0.287569 3.110905 1.561085
    39 0.299561 -13.583077 -12.173530 -1.199547 -5.086386 -0.350973
    40 0.096944 -8.450418 -0.009365 0.162467 -1.145423 -0.075769
    41 0.447953 -2.798986 -0.200443 -0.786501 -0.067958 0.142839
    42 -0.032909 -1.480204 0.004940 -1.165523 0.000000 0.000002
    43 -0.027022 -1.076920 -0.020210 -0.581968 0.000000 0.000000
    44 -0.249534 -2.846964 -0.174213 -0.128734 0.012411 0.088176
    45 0.043235 -1.683941 0.096012 -1.570874 0.002823 -0.000167
    46 0.031729 -1.160830 0.058838 -0.744924 0.000642 0.008372
    47 -0.963866 -2.785145 -0.085350 0.029528 0.160514 0.097512
    48 0.028479 -1.403067 0.006271 -0.585006 0.000000 0.000000
    49 0.021413 -0.957781 0.020046 -1.349016 0.000000 0.000000
    50 1.164475 -2.543940 -0.170330 -0.959734 -0.190582 0.231601
    51 0.024032 -1.129042 0.017807 -0.709841 0.000000 0.000001
    52 0.014898 -0.883989 -0.019848 -0.845482 0.000000 0.000000
    53 -0.586770 -1.264477 0.200161 0.029405 -0.425529 -2.676430
    54 1.522835 0.058681 0.016848 0.001410 0.008985 0.586072
    55 1.117947 0.048424 -0.005766 0.001267 -0.025174 0.005115
    56 -0.139399 -0.111698 0.014397 0.653645 -0.030687 1.580508
    57 -1.393470 8.839177 -0.239433 1.580804 -0.005023 -1.566847
  time 22
    0 -0.996124 0.003876 1.729685 -0.003407 0.000000 -0.000034
    1 10.029492 3.757194 -9.113669 -0.149965 -1.612728 -0.045697
    2 -0.071918 -8.498730 -0.104137 0.151252 0.282508 0.057556
    3 2.733911 -2.087656 1.626837 -0.053752 0.246035 3.130544
    4 0.974667 3.050010 0.000333 0.000009 0.000002 -0.004012
    5 -0.325163 1.868348 0.019495 -0.000006 0.000008 -1.984743
    6 1.078272 6.143588 0.056378 -0.757986 -1.570796 0.000000
    7 -0.229161 7.782845 0.458929 0.568355 -1.570796 0.000000
    8 0.864836 0.017996 -0.821000 4.712391 2.849708 -1.570700
    9 0.916864 9.033262 -0.145395 -0.757986 -1.570796 0.000000
    10 -0.248194 10.264899 1.328514 0.000002 -0.000009 1.566784
    11 0.938609 4.841143 0.465839 -0.000009 -0.000002 3.137580
    12 0.998565 3.087639 -0.174532 0.000000 0.000000 -1.570796
    13 1.137329 0.000000 0.000000 0.000000 0.000000 0.000000
    14 -0.819369 -0.001998 0.011001 0.000000 0.000000 0.000000
    15 0.681055 0.557127 0.103592 0.000000 0.000000 0.000000
    16 0.681054 0.247698 0.494205 -3.141592 0.000000 0.000000
    17 0.681054 -0.265101 0.489439 0.000000 0.000000 0.000000
    18 0.681054 -0.576983 0.103931 -3.141592 0.000000 0.000000
    19 0.681055 -0.452399 -0.364148 0.000000 0.000000 0.000000
    20 0.681055 -0.012558 -0.578705 -3.141592 0.000000 0.000000
    21 0.681055 0.450127 -0.379953 0.000000 0.000000 0.000000
    22 1.257180 8.762585 -0.153713 -1.570562 0.002683 -1.566807
    23 -0.488518 -2.755602 -0.228260 -0.276286 -0.172145 -0.126284
    24 0.039887 -1.479790 0.029854 -1.622681 0.000000 0.000001
    25 0.028786 -1.075731 -0.023109 -1.042649 0.000000 0.000000
    26 0.250027 -2.820665 -0.238396 -0.273537 -0.167517 -0.114938
    27 -0.049759 -1.680544 0.100479 -1.760238 0.000000 -0.000002
    28 -0.034142 -1.148312 0.084782 -0.925879 0.000000 0.000000
    29 0.957766 -2.746780 -0.090302 -0.168670 -0.162684 0.097910
    30 -0.033420 -1.397129 -0.011257 -0.170296 -0.043396 -0.075732
    31 -0.022360 -0.957436 0.018784 -0.539183 0.000000 0.000000
    32 -1.180681 -2.507217 -0.193859 0.013476 -0.069771 -0.086690
    33 -0.024967 -1.123934 0.017597 -1.532721 0.000000 0.000001
    34 -0.020057 -0.890968 0.010090 -0.677843 0.000000 0.000000
    35 0.583510 -1.197277 0.185379 0.180199 -0.812077 -1.291294
    36 1.535927 0.010246 0.005009 -0.002964 -0.012979 -0.506627
    37 1.100771 0.004527 -0.010679 -0.014337 0.007572 -0.908784
    38 0.120153 -0.050270 -0.054489 0.287569 3.110905 1.561085
    39 0.299561 -13.583077 -12.173530 -1.199547 -5.086386 -0.350973
    40 0.096944 -8.450418 -0.009365 0.162467 -1.145423 -0.075769
    41 0.447953 -2.798986 -0.200443 -0.786501 -0.067958 0.142839
    42 -0.032909 -1.480204 0.004940 -1.165523 0.000000 0.000002
    43 -0.027022 -1.076920 -0.020210 -0.581968 0.000000 0.000000
    44 -0.249534 -2.846964 -0.174213 -0.128734 0.012411 0.088176
    45 0.043235 -1.683941 0.096012 -1.570874 0.002823 -0.000167
    46 0.031729 -1.160830 0.058838 -0.744924 0.000642 0.008372
    47 -0.963866 -2.785145 -0.085350 0.029528 0.160514 0.097512
    48 0.028479 -1.403067 0.006271 -0.585006 0.000000 0.000000
    49 0.021413 -0.957781 0.020046 -1.349016 0.000000 0.000000
    50 1.164475 -2.543940 -0.170330 -0.959734 -0.190582 0.231601
    51 0.024032 -1.129042 0.017807 -0.709841 0.000000 0.000001
    52 0.014898 -0.883989 -0.019848 -0.845482 0.000000 0.000000
    53 -0.586770 -1.264477 0.200161 0.029405 -0.425529 -2.676430
    54 1.522835 0.058681 0.016848 0.001410 0.008985 0.586072
    55 1.117947 0.048424 -0.005766 0.001267 -0.025174 0.005115
    56 -0.139399 -0.111698 0.014397 0.653645 -0.030687 1.580508
    57 -1.393470 8.839177 -0.239433 1.580804 -0.005023 -1.566847
  time 23
    0 -0.996124 0.003876 1.760936 -0.004388 0.000000 -0.000034
    1 10.029492 3.757194 -9.113669 -0.149965 -1.612728 -0.045697
    2 -0.071918 -8.498730 -0.104137 0.151252 0.282508 0.057556
    3 2.733911 -2.087656 1.626837 -0.053752 0.246035 3.130544
    4 0.974667 3.050010 0.000333 0.000009 0.000002 -0.004012
    5 -0.325163 1.868348 0.019495 -0.000006 0.000008 -1.984743
    6 1.078272 6.143588 0.056378 -0.506598 -1.570796 0.000000
    7 -0.229161 7.782845 0.458929 0.381209 -1.570796 0.000000
    8 0.864836 0.017996 -0.821000 1.570799 0.073936 1.570796
    9 0.916864 9.033262 -0.145395 -0.506598 -1.570796 0.000000
    10 -0.248194 10.096925 1.328514 0.000002 -0.000009 1.566784
    11 0.938609 4.841143 0.465839 -0.000009 -0.000002 3.137580
    12 0.998565 3.087639 -0.174532 0.000000 0.000000 -1.570796
    13 1.137329 0.000000 0.000000 0.000000 0.000000 0.000000
    14 -0.819369 -0.001998 0.011001 0.000000 0.000000 0.000000
    15 0.681055 0.557127 0.103592 0.000000 0.000000 0.000000
    16 0.681054 0.247698 0.494205 -3.141592 0.000000 0.000000
    17 0.681054 -0.265101 0.489439 0.000000 0.000000 0.000000
    18 0.681054 -0.576983 0.103931 -3.141592 0.000000 0.000000
    19 0.681055 -0.452399 -0.364148 0.000000 0.000000 0.000000
    20 0.681055 -0.012558 -0.578705 -3.141592 0.000000 0.000000
    21 0.681055 0.450127 -0.379953 0.000000 0.000000 0.000000
    22 1.257180 8.762585 -0.153713 -1.570562 0.002683 -1.566807
    23 -0.488518 -2.755602 -0.228260 -0.276286 -0.172145 -0.126284
    24 0.039887 -1.479790 0.029854 -1.622681 0.000000 0.000001
    25 0.028786 -1.075731 -0.023109 -1.042649 0.000000 0.000000
    26 0.250027 -2.820665 -0.238396 -0.273537 -0.167517 -0.114938
    27 -0.049759 -1.680544 0.100479 -1.760238 0.000000 -0.000002
    28 -0.034142 -1.148312 0.084782 -0.925906 0.000000 0.000000
    29 0.957766 -2.746780 -0.090302 -0.168670 -0.162684 0.097910
    30 -0.033420 -1.397129 -0.011257 -0.170296 -0.043396 -0.075732
    31 -0.022360 -0.957436 0.018784 -0.539183 0.000000 0.000000
    32 -1.180681 -2.507217 -0.193859 0.013476 -0.069771 -0.086690
    33 -0.024967 -1.123934 0.017597 -1.532721 0.000000 0.000001
    34 -0.020057 -0.890968 0.010090 -0.677843 0.000000 0.000000
    35 0.583510 -1.197277 0.185379 0.180199 -0.812077 -1.291294
    36 1.535927 0.010246 0.005009 -0.002964 -0.012979 -0.506627
    37 1.100771 0.004527 -0.010679 -0.014337 0.007572 -0.908784
    38 0.120153 -0.050270 -0.054489 0.287569 3.110905 1.561085
    39 0.299561 -13.583077 -12.173530 -1.199547 -5.086386 -0.350973
    40 0.096944 -8.450418 -0.009365 0.162467 -1.145423 -0.075769
    41 0.447953 -2.798986 -0.200443 -0.786501 -0.067958 0.142839
    42 -0.032909 -1.480204 0.004940 -1.165523 0.000000 0.000002
    43 -0.027022 -1.076920 -0.020210 -0.581968 0.000000 0.000000
    44 -0.249534 -2.846964 -0.174213 -0.128734 0.012411 0.088176
    45 0.043235 -1.683941 0.096012 -1.570874 0.002823 -0.000167
    46 0.031729 -1.160830 0.058838 -0.744924 0.000642 0.008372
    47 -0.963866 -2.785145 -0.085350 0.029528 0.160514 0.097512
    48 0.028479 -1.403067 0.006271 -0.585006 0.000000 0.000000
    49 0.021413 -0.957781 0.020046 -1.349016 0.000000 0.000000
    50 1.164475 -2.543940 -0.170330 -0.959734 -0.190582 0.231601
    51 0.024032 -1.129042 0.017807 -0.709841 0.000000 0.000001
    52 0.014898 -0.883989 -0.019848 -0.845482 0.000000 0.000000
    53 -0.586770 -1.264477 0.200161 0.029405 -0.425529 -2.676430
    54 1.522835 0.058681 0.016848 0.001410 0.008985 0.586072
    55 1.117947 0.048424 -0.005766 0.001267 -0.025174 0.005115
    56 -0.139399 -0.111698 0.014397 0.653645 -0.030687 1.580508
    57 -1.393470 8.839177 -0.239433 1.580804 -0.005023 -1.566847
  time 24
    0 -0.996124 0.003876 1.788281 -0.002194 0.000000 -0.000034
    1 10.029492 3.757194 -9.113669 -0.149965 -1.612728 -0.045697
    2 -0.071918 -8.498730 -0.104137 0.151252 0.282508 0.057556
    3 2.733911 -2.087656 1.626837 -0.053752 0.246035 3.130544
    4 0.974667 3.050010 0.000333 0.000009 0.000002 -0.004012
    5 -0.325163 1.868348 0.019495 -0.000006 0.000008 -1.984743
    6 1.078272 6.143588 0.056378 -0.255305 -1.570796 0.000000
    7 -0.229161 7.782845 0.458929 0.190516 -1.570796 0.000000
    8 0.864836 0.017996 -0.821000 1.570799 -0.141817 1.570796
    9 0.916864 9.033262 -0.145395 -0.255305 -1.570796 0.000000
    10 -0.248194 9.979734 1.328514 0.000002 -0.000009 1.566784
    11 0.938609 4.841143 0.465839 -0.000009 -0.000002 3.137580
    12 0.998565 3.087639 -0.174532 0.000000 0.000000 -1.570796
    13 1.137329 0.000000 0.000000 0.000000 0.000000 0.000000
    14 -0.819369 -0.001998 0.011001 0.000000 0.000000 0.000000
    15 0.681055 0.557127 0.103592 0.000000 0.000000 0.000000
    16 0.681054 0.247698 0.494205 -3.141592 0.000000 0.000000
    17 0.681054 -0.265101 0.489439 0.000000 0.000000 0.000000
    18 0.681054 -0.576983 0.103931 -3.141592 0.000000 0.000000
    19 0.681055 -0.452399 -0.364148 0.000000 0.000000 0.000000
    20 0.681055 -0.012558 -0.578705 -3.141592 0.000000 0.000000
    21 0.681055 0.450127 -0.379953 0.000000 0.000000 0.000000
    22 1.257180 8.762585 -0.153713 -1.570562 0.002683 -1.566807
    23 -0.488518 -2.755602 -0.228260 -0.276286 -0.172145 -0.126284
    24 0.039887 -1.479790 0.029854 -1.622681 0.000000 0.000001
    25 0.028786 -1.075731 -0.023109 -1.042649 0.000000 0.000000
    26 0.250027 -2.820665 -0.238396 -0.273537 -0.167517 -0.114938
    27 -0.049759 -1.680544 0.100479 -1.760238 0.000000 -0.000002
    28 -0.034142 -1.148312 0.084782 -0.925906 0.000000 0.000000
    29 0.957766 -2.746780 -0.090302 -0.168670 -0.162684 0.097910
    30 -0.033420 -1.397129 -0.011257 -0.170296 -0.043396 -0.075732
    31 -0.022360 -0.957436 0.018784 -0.539183 0.000000 0.000000
    32 -1.180681 -2.507217 -0.193859 0.013476 -0.069771 -0.086690
    33 -0.024967 -1.123934 0.017597 -1.532721 0.000000 0.000001
    34 -0.020057 -0.890968 0.010090 -0.677843 0.000000 0.000000
    35 0.583510 -1.197277 0.185379 0.180199 -0.812077 -1.291294
    36 1.535927 0.010246 0.005009 -0.002964 -0.012979 -0.506627
    37 1.100771 0.004527 -0.010679 -0.014337 0.007572 -0.908784
    38 0.120153 -0.050270 -0.054489 0.287569 3.110905 1.561085
    39 0.299561 -13.583077 -12.173530 -1.199547 -5.086386 -0.350973
    40 0.096944 -8.450418 -0.009365 0.162467 -1.145423 -0.075769
    41 0.447953 -2.798986 -0.200443 -0.786474 -0.067958 0.142839
    42 -0.032909 -1.480204 0.004940 -1.165523 0.000000 0.000002
    43 -0.027022 -1.076920 -0.020210 -0.581968 0.000000 0.000000
    44 -0.249534 -2.846964 -0.174213 -0.128734 0.012411 0.088176
    45 0.043235 -1.683941 0.096012 -1.570874 0.002823 -0.000167
    46 0.031729 -1.160830 0.058838 -0.744924 0.000642 0.008372
    47 -0.963866 -2.785145 -0.085350 0.029528 0.160514 0.097512
    48 0.028479 -1.403067 0.006271 -0.585006 0.000000 0.000000
    49 0.021413 -0.957781 0.020046 -1.349016 0.000000 0.000000
    50 1.164475 -2.543940 -0.170330 -0.959734 -0.190582 0.231601
    51 0.024032 -1.129042 0.017807 -0.709841 0.000000 0.000001
    52 0.014898 -0.883989 -0.019848 -0.845482 0.000000 0.000000
    53 -0.586770 -1.264477 0.200161 0.029405 -0.425529 -2.676430
    54 1.522835 0.058681 0.016848 0.001410 0.008985 0.586072
    55 1.117947 0.048424 -0.005766 0.001267 -0.025174 0.005115
    56 -0.139399 -0.111698 0.014397 0.653645 -0.030687 1.580508
    57 -1.393470 8.839177 -0.239433 1.580804 -0.005023 -1.566847
  time 25
    0 -0.996124 0.003876 1.800000 0.000000 0.000000 -0.000034
    1 10.029492 3.757194 -9.113669 -0.149965 -1.612728 -0.045697
    2 -0.071918 -8.498730 -0.104137 0.151252 0.282508 0.057556
    3 2.733911 -2.087656 1.626837 -0.053752 0.246035 3.130544
    4 0.974667 3.050010 0.000333 0.000009 0.000002 -0.004012
    5 -0.325163 1.868348 0.019495 -0.000006 0.000008 -1.984743
    6 1.078272 6.143588 0.056378 -0.004012 -1.570796 0.000000
    7 -0.229161 7.782845 0.458929 -0.004012 -1.570796 0.000000
    8 0.864836 0.017996 -0.821000 1.570799 -0.347084 1.570796
    9 0.916864 9.033262 -0.145395 -0.004012 -1.570796 0.000000
    10 -0.248194 9.936764 1.328514 0.000002 -0.000009 1.566784
    11 0.938609 4.841143 0.465839 -0.000009 -0.000002 3.137580
    12 0.998565 3.087639 -0.174532 0.000000 0.000000 -1.570796
    13 1.137329 0.000000 0.000000 0.000000 0.000000 0.000000
    14 -0.819369 -0.001998 0.011001 0.000000 0.000000 0.000000
    15 0.681055 0.557127 0.103592 0.000000 0.000000 0.000000
    16 0.681054 0.247698 0.494205 -3.141592 0.000000 0.000000
    17 0.681054 -0.265101 0.489439 0.000000 0.000000 0.000000
    18 0.681054 -0.576983 0.103931 -3.141592 0.000000 0.000000
    19 0.681055 -0.452399 -0.364148 0.000000 0.000000 0.000000
    20 0.681055 -0.012558 -0.578705 -3.141592 0.000000 0.000000
    21 0.681055 0.450127 -0.379953 0.000000 0.000000 0.000000
    22 1.257180 8.762585 -0.153713 -1.570562 0.002683 -1.566807
    23 -0.488518 -2.755602 -0.228260 -0.276286 -0.172145 -0.126284
    24 0.039887 -1.479790 0.029854 -1.622681 0.000000 0.000001
    25 0.028786 -1.075731 -0.023109 -1.042649 0.000000 0.000000
    26 0.250027 -2.820665 -0.238396 -0.273537 -0.167517 -0.114938
    27 -0.049759 -1.680544 0.100479 -1.760238 0.000000 -0.000002
    28 -0.034142 -1.148312 0.084782 -0.925879 0.000000 0.000000
    29 0.957766 -2.746780 -0.090302 -0.168670 -0.162684 0.097910
    30 -0.033420 -1.397129 -0.011257 -0.170296 -0.043396 -0.075732
    31 -0.022360 -0.957436 0.018784 -0.539183 0.000000 0.000000
    32 -1.180681 -2.507217 -0.193859 0.013476 -0.069771 -0.086690
    33 -0.024967 -1.123934 0.017597 -1.532721 0.000000 0.000001
    34 -0.020057 -0.890968 0.010090 -0.677843 0.000000 0.000000
    35 0.583510 -1.197277 0.185379 0.180199 -0.812077 -1.291294
    36 1.535927 0.010246 0.005009 -0.002964 -0.012979 -0.506627
    37 1.100771 0.004527 -0.010679 -0.014337 0.007572 -0.908784
    38 0.120153 -0.050270 -0.054489 0.287569 3.110905 1.561085
    39 0.299561 -13.583077 -12.173530 -1.199547 -5.086386 -0.350973
    40 0.096944 -8.450418 -0.009365 0.162467 -1.145423 -0.075769
    41 0.447953 -2.798986 -0.200443 -0.786474 -0.067958 0.142839
    42 -0.032909 -1.480204 0.004940 -1.165523 0.000000 0.000002
    43 -0.027022 -1.076920 -0.020210 -0.581968 0.000000 0.000000
    44 -0.249534 -2.846964 -0.174213 -0.128734 0.012411 0.088176
    45 0.043235 -1.683941 0.096012 -1.570874 0.002823 -0.000167
    46 0.031729 -1.160830 0.058838 -0.744924 0.000642 0.008372
    47 -0.963866 -2.785145 -0.085350 0.029528 0.160514 0.097512
    48 0.028479 -1.403067 0.006271 -0.585006 0.000000 0.000000
    49 0.021413 -0.957781 0.020046 -1.349016 0.000000 0.000000
    50 1.164475 -2.543940 -0.170330 -0.959734 -0.190582 0.231601
    51 0.024032 -1.129042 0.017807 -0.709841 0.000000 0.000001
    52 0.014898 -0.883989 -0.019848 -0.845482 0.000000 0.000000
    53 -0.586770 -1.264477 0.200161 0.029405 -0.425529 -2.676430
    54 1.522835 0.058681 0.016848 0.001410 0.008985 0.586072
    55 1.117947 0.048424 -0.005766 0.001267 -0.025174 0.005115
    56 -0.139399 -0.111698 0.014397 0.653645 -0.030687 1.580508
    57 -1.393470 8.839177 -0.239433 1.580804 -0.005023 -1.566847
end
