version 1
nodes
0 "root" -1
end
skeleton
time 0
0 0 0 0 0 0 0
end
triangles
#256256mgsmbag_p.bmp
0  -10.627972 5.069546 -9.394386  -0.866038 -0.492389 -0.086782  0.917969 0.296875 0
0  -8.517971 3.859549 -9.614388  -0.000009 -0.984806 -0.173656  0.984375 0.296875 0
0  -8.517962 2.459540 -1.664391  -0.000009 -0.984815 -0.173606  0.984375 0.527344 0
#256256mgsmbag_p.bmp
0  -8.517962 2.459540 -1.664391  -0.000019 -0.984815 -0.173608  0.984375 0.527344 0
0  -8.517971 3.859549 -9.614388  -0.000019 -0.984814 -0.173615  0.984375 0.296875 0
0  -6.397963 3.669543 -1.454392  0.866024 -0.492407 -0.086821  0.917969 0.527344 0
#256256mgsmbag_p.bmp
0  -8.517971 3.859549 -9.614388  0.000018 -0.984799 -0.173699  0.984375 0.296875 0
0  -6.397972 5.069550 -9.394390  0.866018 -0.492410 -0.086859  0.917969 0.296875 0
0  -6.397963 3.669543 -1.454392  0.866018 -0.492414 -0.086838  0.917969 0.527344 0
#256256mgsmbag_p.bmp
0  -6.397963 3.669543 -1.454392  0.866034 -0.492385 -0.086846  0.917969 0.527344 0
0  -6.397972 5.069550 -9.394390  0.866034 -0.492394 -0.086796  0.917969 0.296875 0
0  -6.397965 6.069540 -1.034390  0.866009 0.492427 0.086859  0.847656 0.527344 0
#256256mgsmbag_p.bmp
0  -6.397972 5.069550 -9.394390  0.866034 -0.492397 -0.086779  0.917969 0.296875 0
0  -6.397974 7.469549 -8.974384  0.866009 0.492428 0.086852  0.847656 0.296875 0
0  -6.397965 6.069540 -1.034390  0.866009 0.492436 0.086802  0.847656 0.527344 0
#256256mgsmbag_p.bmp
0  -6.397965 6.069540 -1.034390  0.866023 0.492411 0.086807  0.847656 0.527344 0
0  -6.397974 7.469549 -8.974384  0.866023 0.492401 0.086866  0.847656 0.296875 0
0  -8.517966 7.279539 -0.824383  -0.000109 0.979751 0.200220  0.781250 0.527344 0
#256256mgsmbag_p.bmp
0  -6.397974 7.469549 -8.974384  0.866023 0.492408 0.086827  0.847656 0.296875 0
0  -8.517975 8.679546 -8.764381  -0.000112 0.979760 0.200176  0.781250 0.296875 0
0  -8.517966 7.279539 -0.824383  -0.000112 0.979761 0.200171  0.781250 0.527344 0
#256256mgsmbag_p.bmp
0  -8.517966 7.279539 -0.824383  -0.000121 0.979756 0.200196  0.781250 0.527344 0
0  -8.517975 8.679546 -8.764381  -0.000120 0.979757 0.200191  0.781250 0.296875 0
0  -10.627964 6.069536 -1.034382  -0.866020 0.492407 0.086861  0.847656 0.527344 0
#256256mgsmbag_p.bmp
0  -8.517975 8.679546 -8.764381  -0.000121 0.979762 0.200168  0.781250 0.296875 0
0  -10.627974 7.479546 -8.974380  -0.866022 0.492414 0.086805  0.847656 0.296875 0
0  -10.627964 6.069536 -1.034382  -0.866021 0.492414 0.086807  0.847656 0.527344 0
#256256mgsmbag_p.bmp
0  -10.627964 6.069536 -1.034382  -0.866034 0.492385 0.086846  0.847656 0.527344 0
0  -10.627974 7.479546 -8.974380  -0.866034 0.492383 0.086858  0.847656 0.296875 0
0  -10.627962 3.669539 -1.454388  -0.866033 -0.492395 -0.086803  0.917969 0.527344 0
#256256mgsmbag_p.bmp
0  -10.627974 7.479546 -8.974380  -0.866034 0.492389 0.086826  0.847656 0.296875 0
0  -10.627972 5.069546 -9.394386  -0.866033 -0.492390 -0.086823  0.917969 0.296875 0
0  -10.627962 3.669539 -1.454388  -0.866033 -0.492384 -0.086862  0.917969 0.527344 0
#256256mgsmbag_p.bmp
0  -10.627962 3.669539 -1.454388  -0.866019 -0.492410 -0.086856  0.917969 0.527344 0
0  -10.627972 5.069546 -9.394386  -0.866019 -0.492411 -0.086846  0.917969 0.296875 0
0  -8.517962 2.459540 -1.664391  -0.000019 -0.984815 -0.173609  0.984375 0.527344 0
#256256mgsmbag_p.bmp
0  -10.627962 3.669539 -1.454388  -0.566943 -0.453584 0.687632  0.917969 0.527344 0
0  -8.517962 2.459540 -1.664391  -0.000019 -0.775961 0.630781  0.984375 0.527344 0
0  -9.907962 3.949538 -0.664387  -0.566930 -0.453628 0.687613  0.914063 0.562500 0
#256256mgsmbag_p.bmp
0  -9.907962 3.949538 -0.664387  -0.566900 -0.453612 0.687649  0.914063 0.562500 0
0  -8.517962 2.459540 -1.664391  -0.000014 -0.775973 0.630766  0.984375 0.527344 0
0  -8.517962 3.159539 -0.804390  -0.000014 -0.775959 0.630783  0.968750 0.562500 0
#256256mgsmbag_p.bmp
0  -8.517962 2.459540 -1.664391  -0.000019 -0.775959 0.630783  0.984375 0.527344 0
0  -6.397963 3.669543 -1.454392  0.566948 -0.453626 0.687600  0.917969 0.527344 0
0  -8.517962 3.159539 -0.804390  -0.000019 -0.775978 0.630760  0.968750 0.562500 0
#256256mgsmbag_p.bmp
0  -8.517962 3.159539 -0.804390  0.000004 -0.775981 0.630756  0.968750 0.562500 0
0  -6.397963 3.669543 -1.454392  0.566929 -0.453623 0.687617  0.917969 0.527344 0
0  -7.117962 3.949539 -0.664391  0.566936 -0.453626 0.687610  0.914063 0.562500 0
#256256mgsmbag_p.bmp
0  -6.397963 3.669543 -1.454392  0.566945 -0.453645 0.687590  0.917969 0.527344 0
0  -6.397965 6.069540 -1.034390  0.566868 0.191098 0.801338  0.847656 0.527344 0
0  -7.117962 3.949539 -0.664391  0.566917 -0.453634 0.687620  0.914063 0.562500 0
#256256mgsmbag_p.bmp
0  -7.117962 3.949539 -0.664391  0.566947 -0.453606 0.687614  0.914063 0.562500 0
0  -6.397965 6.069540 -1.034390  0.566917 0.191102 0.801302  0.847656 0.527344 0
0  -7.117963 5.539539 -0.384388  0.566912 0.191098 0.801307  0.855469 0.562500 0
#256256mgsmbag_p.bmp
0  -6.397965 6.069540 -1.034390  0.566873 0.191099 0.801334  0.847656 0.527344 0
0  -8.517966 7.279539 -0.824383  -0.000012 0.513451 0.858119  0.781250 0.527344 0
0  -7.117963 5.539539 -0.384388  0.566891 0.191110 0.801319  0.855469 0.562500 0
#256256mgsmbag_p.bmp
0  -7.117963 5.539539 -0.384388  0.566899 0.191085 0.801319  0.855469 0.562500 0
0  -8.517966 7.279539 -0.824383  0.000019 0.513426 0.858134  0.781250 0.527344 0
0  -8.517963 6.329536 -0.244385  0.000019 0.513439 0.858126  0.796875 0.562500 0
#256256mgsmbag_p.bmp
0  -8.517966 7.279539 -0.824383  -0.000001 0.513458 0.858115  0.781250 0.527344 0
0  -10.627964 6.069536 -1.034382  -0.566955 0.191072 0.801282  0.847656 0.527344 0
0  -8.517963 6.329536 -0.244385  -0.000002 0.513434 0.858129  0.796875 0.562500 0
#256256mgsmbag_p.bmp
0  -8.517963 6.329536 -0.244385  0.000000 0.513425 0.858134  0.796875 0.562500 0
0  -10.627964 6.069536 -1.034382  -0.566963 0.191092 0.801272  0.847656 0.527344 0
0  -9.907963 5.529535 -0.384385  -0.566960 0.191090 0.801274  0.855469 0.562500 0
#256256mgsmbag_p.bmp
0  -10.627964 6.069536 -1.034382  -0.566921 0.191106 0.801298  0.847656 0.527344 0
0  -10.627962 3.669539 -1.454388  -0.566924 -0.453620 0.687623  0.917969 0.527344 0
0  -9.907963 5.529535 -0.384385  -0.566912 0.191099 0.801306  0.855469 0.562500 0
#256256mgsmbag_p.bmp
0  -9.907963 5.529535 -0.384385  -0.566926 0.191081 0.801301  0.855469 0.562500 0
0  -10.627962 3.669539 -1.454388  -0.566906 -0.453630 0.687631  0.917969 0.527344 0
0  -9.907962 3.949538 -0.664387  -0.566916 -0.453635 0.687620  0.914063 0.562500 0
#256256mgsmbag_p.bmp
0  -8.517971 3.859549 -9.614388  0.000011 -0.513412 -0.858142  0.984375 0.296875 0
0  -10.627972 5.069546 -9.394386  -0.566931 -0.191075 -0.801299  0.917969 0.296875 0
0  -8.517973 4.819550 -10.184387  0.000011 -0.513451 -0.858119  0.968750 0.261719 0
#256256mgsmbag_p.bmp
0  -8.517973 4.819550 -10.184387  -0.000005 -0.513437 -0.858127  0.968750 0.261719 0
0  -10.627972 5.069546 -9.394386  -0.566910 -0.191094 -0.801309  0.917969 0.296875 0
0  -9.907972 5.609547 -10.044384  -0.566912 -0.191096 -0.801307  0.910156 0.261719 0
#256256mgsmbag_p.bmp
0  -10.627972 5.069546 -9.394386  -0.566914 -0.191049 -0.801317  0.917969 0.296875 0
0  -10.627974 7.479546 -8.974380  -0.566898 0.453567 -0.687680  0.847656 0.296875 0
0  -9.907972 5.609547 -10.044384  -0.566927 -0.191059 -0.801305  0.910156 0.261719 0
#256256mgsmbag_p.bmp
0  -9.907972 5.609547 -10.044384  -0.566939 -0.191082 -0.801291  0.910156 0.261719 0
0  -10.627974 7.479546 -8.974380  -0.566906 0.453562 -0.687677  0.847656 0.296875 0
0  -9.907975 7.189547 -9.764381  -0.566931 0.453573 -0.687648  0.851563 0.261719 0
#256256mgsmbag_p.bmp
0  -10.627974 7.479546 -8.974380  -0.566913 0.453605 -0.687642  0.847656 0.296875 0
0  -8.517975 8.679546 -8.764381  0.000008 0.775941 -0.630806  0.781250 0.296875 0
0  -9.907975 7.189547 -9.764381  -0.566917 0.453607 -0.687638  0.851563 0.261719 0
#256256mgsmbag_p.bmp
0  -9.907975 7.189547 -9.764381  -0.566902 0.453611 -0.687648  0.851563 0.261719 0
0  -8.517975 8.679546 -8.764381  0.000032 0.775935 -0.630813  0.781250 0.296875 0
0  -8.517975 7.979548 -9.624382  -0.000016 0.775929 -0.630820  0.796875 0.261719 0
#256256mgsmbag_p.bmp
0  -8.517975 8.679546 -8.764381  0.000025 0.775925 -0.630826  0.781250 0.296875 0
0  -6.397974 7.469549 -8.974384  0.566904 0.453612 -0.687645  0.847656 0.296875 0
0  -8.517975 7.979548 -9.624382  0.000026 0.775913 -0.630840  0.796875 0.261719 0
#256256mgsmbag_p.bmp
0  -8.517975 7.979548 -9.624382  0.000003 0.775942 -0.630805  0.796875 0.261719 0
0  -6.397974 7.469549 -8.974384  0.566951 0.453584 -0.687625  0.847656 0.296875 0
0  -7.117975 7.189550 -9.764385  0.566925 0.453575 -0.687652  0.851563 0.261719 0
#256256mgsmbag_p.bmp
0  -6.397974 7.469549 -8.974384  0.566931 0.453591 -0.687637  0.847656 0.296875 0
0  -6.397972 5.069550 -9.394390  0.566932 -0.191087 -0.801295  0.917969 0.296875 0
0  -7.117975 7.189550 -9.764385  0.566940 0.453595 -0.687627  0.851563 0.261719 0
#256256mgsmbag_p.bmp
0  -7.117975 7.189550 -9.764385  0.566899 0.453592 -0.687662  0.851563 0.261719 0
0  -6.397972 5.069550 -9.394390  0.566941 -0.191069 -0.801293  0.917969 0.296875 0
0  -7.117973 5.609550 -10.044388  0.566949 -0.191075 -0.801286  0.910156 0.261719 0
#256256mgsmbag_p.bmp
0  -6.397972 5.069550 -9.394390  0.566937 -0.191106 -0.801287  0.917969 0.296875 0
0  -8.517971 3.859549 -9.614388  -0.000013 -0.513444 -0.858123  0.984375 0.296875 0
0  -7.117973 5.609550 -10.044388  0.566942 -0.191109 -0.801283  0.910156 0.261719 0
#256256mgsmbag_p.bmp
0  -7.117973 5.609550 -10.044388  0.566937 -0.191097 -0.801290  0.910156 0.261719 0
0  -8.517971 3.859549 -9.614388  0.000018 -0.513437 -0.858128  0.984375 0.296875 0
0  -8.517973 4.819550 -10.184387  0.000018 -0.513415 -0.858141  0.968750 0.261719 0
#256256mgsmbag_p.bmp
0  1.785456 4.281019 -4.318356  0.000014 -0.500054 -0.865994  0.601563 0.468750 0
0  1.805455 5.177265 -4.434735  -0.000014 0.258874 -0.965911  0.566406 0.468750 0
0  3.075456 4.281021 -4.318360  -0.000012 -0.500054 -0.865994  0.601563 0.417969 0
#256256mgsmbag_p.bmp
0  3.075456 4.281021 -4.318360  0.000016 -0.500051 -0.865996  0.601563 0.417969 0
0  1.805455 5.177265 -4.434735  0.000009 0.258878 -0.965910  0.566406 0.468750 0
0  3.075455 5.177267 -4.434735  -0.000019 0.258878 -0.965910  0.566406 0.417969 0
#256256mgsmbag_p.bmp
0  1.805455 5.177265 -4.434735  0.000012 0.258880 -0.965909  0.566406 0.468750 0
0  1.845454 5.896248 -3.895230  -0.000014 0.759959 -0.649971  0.531250 0.464844 0
0  3.075455 5.177267 -4.434735  -0.000028 0.258880 -0.965909  0.566406 0.417969 0
#256256mgsmbag_p.bmp
0  3.075455 5.177267 -4.434735  -0.000023 0.258876 -0.965911  0.566406 0.417969 0
0  1.845454 5.896248 -3.895230  0.000013 0.759956 -0.649974  0.531250 0.464844 0
0  3.075454 5.896250 -3.895234  -0.000014 0.759956 -0.649974  0.531250 0.417969 0
#256256mgsmbag_p.bmp
0  1.845454 5.896248 -3.895230  -0.000006 0.759949 -0.649982  0.531250 0.464844 0
0  2.045456 7.561998 -0.713128  0.000013 0.953060 -0.302783  0.390625 0.457031 0
0  3.075454 5.896250 -3.895234  -0.000011 0.759949 -0.649982  0.531250 0.417969 0
#256256mgsmbag_p.bmp
0  3.075454 5.896250 -3.895234  -0.000019 0.759950 -0.649982  0.531250 0.417969 0
0  2.045456 7.561998 -0.713128  0.000005 0.953060 -0.302782  0.390625 0.457031 0
0  3.075456 7.562000 -0.713128  -0.000010 0.953060 -0.302782  0.390625 0.417969 0
#256256mgsmbag_p.bmp
0  2.045456 7.561998 -0.713128  -0.000012 0.953071 -0.302748  0.390625 0.457031 0
0  2.085457 7.667276 0.071865  -0.000028 0.965928 0.258810  0.359375 0.457031 0
0  3.075456 7.562000 -0.713128  -0.000011 0.953071 -0.302748  0.390625 0.417969 0
#256256mgsmbag_p.bmp
0  3.075456 7.562000 -0.713128  -0.000014 0.953071 -0.302748  0.390625 0.417969 0
0  2.085457 7.667276 0.071865  0.000018 0.965929 0.258809  0.359375 0.457031 0
0  3.075457 7.667278 0.071865  -0.000020 0.965928 0.258809  0.359375 0.417969 0
#256256mgsmbag_p.bmp
0  2.085457 7.667276 0.071865  -0.000022 0.965927 0.258816  0.359375 0.457031 0
0  2.095458 7.194103 0.689853  0.000029 0.500023 0.866012  0.328125 0.457031 0
0  3.075457 7.667278 0.071865  0.000031 0.965927 0.258816  0.359375 0.417969 0
#256256mgsmbag_p.bmp
0  3.075457 7.667278 0.071865  0.000012 0.965925 0.258821  0.359375 0.417969 0
0  2.095458 7.194103 0.689853  -0.000030 0.500019 0.866014  0.328125 0.457031 0
0  3.075458 7.194103 0.689849  -0.000015 0.500019 0.866014  0.328125 0.417969 0
#256256mgsmbag_p.bmp
0  2.095458 7.194103 0.689853  -0.000022 0.500048 0.865998  0.328125 0.457031 0
0  3.075459 6.400654 0.800464  -0.000111 -0.258882 0.965909  0.359375 0.417969 0
0  3.075458 7.194103 0.689849  -0.000015 0.500048 0.865998  0.328125 0.417969 0
#256256mgsmbag_p.bmp
0  2.095458 7.194103 0.689853  -0.000026 0.500048 0.865998  0.328125 0.457031 0
0  2.085459 6.400652 0.800468  -0.000025 -0.258882 0.965909  0.359375 0.457031 0
0  3.075459 6.400654 0.800464  -0.000036 -0.258882 0.965909  0.359375 0.417969 0
#256256mgsmbag_p.bmp
0  3.075459 6.400654 0.800464  -0.000015 -0.258844 0.965919  0.359375 0.417969 0
0  2.085459 6.400652 0.800468  -0.000034 -0.258844 0.965919  0.359375 0.457031 0
0  3.075460 5.771992 0.310379  0.000017 -0.738733 0.673998  0.390625 0.417969 0
#256256mgsmbag_p.bmp
0  2.085459 6.400652 0.800468  -0.000008 -0.258849 0.965918  0.359375 0.457031 0
0  2.045460 5.771992 0.310379  0.000009 -0.738737 0.673994  0.390625 0.457031 0
0  3.075460 5.771992 0.310379  -0.000013 -0.738737 0.673994  0.390625 0.417969 0
#256256mgsmbag_p.bmp
0  3.075460 5.771992 0.310379  -0.000008 -0.738746 0.673984  0.390625 0.417969 0
0  2.045460 5.771992 0.310379  0.000012 -0.738746 0.673984  0.390625 0.457031 0
0  3.075458 3.861014 -2.716923  0.000002 -0.940422 0.340008  0.531250 0.417969 0
#256256mgsmbag_p.bmp
0  2.045460 5.771992 0.310379  -0.000015 -0.738746 0.673984  0.390625 0.457031 0
0  1.845458 3.861012 -2.716923  -0.000014 -0.940422 0.340008  0.531250 0.464844 0
0  3.075458 3.861014 -2.716923  -0.000014 -0.940422 0.340008  0.531250 0.417969 0
#256256mgsmbag_p.bmp
0  3.075458 3.861014 -2.716923  -0.000009 -0.940428 0.339993  0.531250 0.417969 0
0  1.845458 3.861012 -2.716923  -0.000004 -0.940428 0.339993  0.531250 0.464844 0
0  3.075458 3.749975 -3.604714  -0.000019 -0.965935 -0.258785  0.566406 0.417969 0
#256256mgsmbag_p.bmp
0  1.845458 3.861012 -2.716923  0.000007 -0.940412 0.340037  0.531250 0.464844 0
0  1.805457 3.749974 -3.604710  -0.000013 -0.965935 -0.258786  0.566406 0.468750 0
0  3.075458 3.749975 -3.604714  0.000010 -0.965935 -0.258786  0.566406 0.417969 0
#256256mgsmbag_p.bmp
0  3.075458 3.749975 -3.604714  -0.000017 -0.965941 -0.258761  0.566406 0.417969 0
0  1.805457 3.749974 -3.604710  0.000012 -0.965929 -0.258807  0.566406 0.468750 0
0  3.075456 4.281021 -4.318360  0.000021 -0.500031 -0.866007  0.601563 0.417969 0
#256256mgsmbag_p.bmp
0  1.805457 3.749974 -3.604710  -0.000024 -0.965929 -0.258808  0.566406 0.468750 0
0  1.785456 4.281019 -4.318356  0.000026 -0.500031 -0.866008  0.601563 0.468750 0
0  3.075456 4.281021 -4.318360  -0.000014 -0.500031 -0.866008  0.601563 0.417969 0
#256256mgsmbag_p.bmp
0  -12.397957 -1.610466 -0.524392  0.000001 -1.000000 -0.000001  0.062500 0.523438 0
0  -10.937963 -1.610454 -8.804390  0.000001 -1.000000 -0.000001  0.054688 0.578125 0
0  -10.937955 -1.610466 0.165607  0.000001 -1.000000 -0.000001  0.054688 0.519531 0
#256256mgsmbag_p.bmp
0  -10.937955 -1.610466 0.165607  0.000001 -1.000000 -0.000001  0.054688 0.519531 0
0  -10.937963 -1.610454 -8.804390  0.000001 -1.000000 -0.000001  0.054688 0.578125 0
0  -7.617956 -1.610462 0.165603  0.000001 -1.000000 -0.000001  0.031250 0.519531 0
#256256mgsmbag_p.bmp
0  -10.937963 -1.610454 -8.804390  0.000001 -1.000000 -0.000001  0.054688 0.578125 0
0  -8.457968 -1.610449 -11.904396  0.000001 -1.000000 -0.000001  0.035156 0.601563 0
0  -7.617956 -1.610462 0.165603  0.000001 -1.000000 -0.000001  0.031250 0.519531 0
#256256mgsmbag_p.bmp
0  -7.617956 -1.610462 0.165603  0.000001 -1.000000 -0.000001  0.031250 0.519531 0
0  -8.457968 -1.610449 -11.904396  0.000001 -1.000000 -0.000001  0.035156 0.601563 0
0  -4.287955 -1.610460 0.755603  0.000001 -1.000000 -0.000001  0.007813 0.511719 0
#256256mgsmbag_p.bmp
0  -8.457968 -1.610449 -11.904396  0.000001 -1.000000 -0.000001  0.035156 0.601563 0
0  -4.287976 -1.610435 -19.514400  0.000001 -1.000000 -0.000001  0.007813 0.652344 0
0  -4.287955 -1.610460 0.755603  0.000001 -1.000000 -0.000001  0.007813 0.511719 0
#256256mgsmbag_p.bmp
0  -4.287955 -1.610460 0.755603  0.000001 -1.000000 -0.000001  0.007813 0.511719 0
0  -4.287976 -1.610435 -19.514400  0.000001 -1.000000 -0.000001  0.007813 0.652344 0
0  -0.127968 -1.610441 -11.904404  0.000001 -1.000000 -0.000001  0.035156 0.601563 0
#256256mgsmbag_p.bmp
0  -4.287976 -1.610435 -19.514400  0.000002 -1.000000 -0.000002  0.007813 0.652344 0
0  -0.127969 -1.610439 -12.874401  0.000002 -1.000000 -0.000002  0.035156 0.605469 0
0  -0.127968 -1.610441 -11.904404  0.000002 -1.000000 -0.000002  0.035156 0.601563 0
#256256mgsmbag_p.bmp
0  3.812040 2.339550 -0.524403  -0.000474 0.979721 0.200364  0.570313 0.769531 0
0  2.362030 4.029558 -8.804398  -0.000474 0.979721 0.200364  0.339844 0.808594 0
0  2.362041 2.199549 0.165599  -0.000474 0.979721 0.200364  0.589844 0.812500 0
#256256mgsmbag_p.bmp
0  2.362041 2.199549 0.165599  -0.000406 0.979622 0.200851  0.589844 0.812500 0
0  2.362030 4.029558 -8.804398  -0.000406 0.979622 0.200851  0.339844 0.808594 0
0  -0.967959 2.199545 0.165603  -0.000406 0.979622 0.200851  0.589844 0.902344 0
#256256mgsmbag_p.bmp
0  2.362030 4.029558 -8.804398  -0.000406 0.979622 0.200851  0.339844 0.808594 0
0  -4.287970 4.029552 -8.804390  -0.000406 0.979622 0.200851  0.339844 0.992188 0
0  -0.967959 2.199545 0.165603  -0.000406 0.979622 0.200851  0.589844 0.902344 0
#256256mgsmbag_p.bmp
0  -0.967959 2.199545 0.165603  -0.000483 0.979648 0.200721  0.589844 0.902344 0
0  -4.287970 4.029552 -8.804390  -0.000483 0.979648 0.200721  0.339844 0.992188 0
0  -4.287959 2.079540 0.755607  -0.000483 0.979648 0.200721  0.605469 0.992188 0
#256256mgsmbag_p.bmp
0  -4.287970 4.029552 -8.804390  -0.000189 0.979614 0.200890  0.339844 0.992188 0
0  -7.617959 2.199539 0.165607  -0.000189 0.979614 0.200890  0.589844 0.902344 0
0  -4.287959 2.079540 0.755607  -0.000189 0.979614 0.200890  0.605469 0.992188 0
#256256mgsmbag_p.bmp
0  -4.287959 2.079540 0.755607  -0.000184 0.979680 0.200566  0.605469 0.992188 0
0  -7.617959 2.199539 0.165607  -0.000184 0.979680 0.200566  0.589844 0.902344 0
0  -7.167959 2.079539 0.755607  -0.000184 0.979680 0.200566  0.605469 0.914063 0
#256256mgsmbag_p.bmp
0  3.075456 4.281021 -4.318360  1.000000 0.000002 -0.000002  0.328125 0.570313 0
0  3.075454 5.896250 -3.895234  1.000000 0.000002 -0.000002  0.375000 0.613281 0
0  3.075458 3.749975 -3.604714  1.000000 0.000002 -0.000002  0.339844 0.535156 0
#256256mgsmbag_p.bmp
0  3.075458 3.749975 -3.604714  1.000000 0.000002 -0.000000  0.339844 0.535156 0
0  3.075454 5.896250 -3.895234  1.000000 0.000002 -0.000000  0.375000 0.613281 0
0  3.075458 3.861014 -2.716923  1.000000 0.000002 -0.000000  0.371094 0.519531 0
#256256mgsmbag_p.bmp
0  3.075454 5.896250 -3.895234  1.000000 0.000001 -0.000001  0.375000 0.613281 0
0  3.075456 7.562000 -0.713128  1.000000 0.000001 -0.000001  0.515625 0.601563 0
0  3.075458 3.861014 -2.716923  1.000000 0.000001 -0.000001  0.371094 0.519531 0
#256256mgsmbag_p.bmp
0  3.075458 3.861014 -2.716923  1.000000 0.000001 -0.000001  0.371094 0.519531 0
0  3.075456 7.562000 -0.713128  1.000000 0.000001 -0.000001  0.515625 0.601563 0
0  3.075460 5.771992 0.310379  1.000000 0.000001 -0.000001  0.515625 0.519531 0
#256256mgsmbag_p.bmp
0  3.075456 7.562000 -0.713128  1.000000 0.000002 -0.000001  0.515625 0.601563 0
0  3.075458 7.194103 0.689849  1.000000 0.000002 -0.000001  0.554688 0.558594 0
0  3.075460 5.771992 0.310379  1.000000 0.000002 -0.000001  0.515625 0.519531 0
#256256mgsmbag_p.bmp
0  3.075460 5.771992 0.310379  1.000000 0.000001 0.000000  0.515625 0.519531 0
0  3.075458 7.194103 0.689849  1.000000 0.000001 0.000000  0.554688 0.558594 0
0  3.075459 6.400654 0.800464  1.000000 0.000001 0.000000  0.542969 0.531250 0
#256256mgsmbag_p.bmp
0  2.245458 7.312031 0.348793  -0.999881 -0.010898 0.010899  0.640625 0.511719 0
0  2.395465 3.110379 2.381500  -0.999881 -0.010898 0.010898  0.707031 0.687500 0
0  2.395465 4.100306 3.371673  -0.999881 -0.010898 0.010899  0.652344 0.687500 0
#256256mgsmbag_p.bmp
0  2.395465 4.100306 3.371673  -0.999881 -0.010916 0.010917  0.652344 0.687500 0
0  2.395465 3.110379 2.381500  -0.999881 -0.010916 0.010917  0.707031 0.687500 0
0  2.395467 3.807303 4.074630  -0.999881 -0.010916 0.010917  0.640625 0.714844 0
#256256mgsmbag_p.bmp
0  2.395465 3.110379 2.381500  -0.999881 -0.010916 0.010917  0.707031 0.687500 0
0  2.395467 2.406035 2.675437  -0.999881 -0.010917 0.010916  0.722656 0.714844 0
0  2.395467 3.807303 4.074630  -0.999881 -0.010917 0.010916  0.640625 0.714844 0
#256256mgsmbag_p.bmp
0  2.395467 3.807303 4.074630  -0.999881 -0.010914 0.010916  0.640625 0.714844 0
0  2.395467 2.406035 2.675437  -0.999881 -0.010915 0.010916  0.722656 0.714844 0
0  2.395468 3.102959 4.368568  -0.999881 -0.010914 0.010917  0.656250 0.742188 0
#256256mgsmbag_p.bmp
0  2.395467 2.406035 2.675437  -0.999881 -0.010915 0.010916  0.722656 0.714844 0
0  2.395468 2.113032 3.378395  -0.999881 -0.010916 0.010915  0.710938 0.742188 0
0  2.395468 3.102959 4.368568  -0.999881 -0.010915 0.010916  0.656250 0.742188 0
#256256mgsmbag_p.bmp
0  2.395468 3.102959 4.368568  -0.999881 -0.010915 0.010914  0.656250 0.742188 0
0  2.395468 2.113032 3.378395  -0.999881 -0.010915 0.010915  0.710938 0.742188 0
0  2.395468 2.406969 4.082740  -0.999881 -0.010915 0.010915  0.683594 0.753906 0
#256256mgsmbag_p.bmp
0  1.305474 -1.627714 4.526897  -0.423378 -0.582389 0.693956  0.382813 0.132813 0
0  1.305474 -0.467691 5.496871  -0.498615 -0.686194 0.529642  0.343750 0.167969 0
0  0.635473 -1.137714 4.526889  -0.423378 -0.582389 0.693956  0.359375 0.121094 0
#256256mgsmbag_p.bmp
0  0.635473 -1.137714 4.526889  -0.423382 -0.582392 0.693951  0.359375 0.121094 0
0  1.305474 -0.467691 5.496871  -0.498617 -0.686193 0.529642  0.343750 0.167969 0
0  0.635473 0.022307 5.496864  -0.529709 -0.728788 0.433908  0.320313 0.152344 0
#256256mgsmbag_p.bmp
0  1.305474 -0.467691 5.496871  -0.498614 -0.686205 0.529630  0.343750 0.167969 0
0  1.305476 0.402369 8.266853  -0.584213 -0.803033 0.117613  0.316406 0.257813 0
0  0.635473 0.022307 5.496864  -0.529703 -0.728775 0.433937  0.320313 0.152344 0
#256256mgsmbag_p.bmp
0  0.635473 0.022307 5.496864  -0.529699 -0.728778 0.433937  0.320313 0.152344 0
0  1.305476 0.402369 8.266853  -0.584217 -0.803030 0.117613  0.316406 0.257813 0
0  0.635475 0.892368 8.266846  -0.584222 -0.803027 0.117613  0.292969 0.242188 0
#256256mgsmbag_p.bmp
0  1.305476 0.402369 8.266853  -0.584214 -0.803034 0.117599  0.316406 0.257813 0
0  1.305478 0.402409 10.106857  -0.588110 -0.808781 0.000001  0.316406 0.316406 0
0  0.635475 0.892368 8.266846  -0.584218 -0.803031 0.117600  0.292969 0.242188 0
#256256mgsmbag_p.bmp
0  0.635475 0.892368 8.266846  -0.584217 -0.803032 0.117599  0.292969 0.242188 0
0  1.305478 0.402409 10.106857  -0.588149 -0.808753 0.000002  0.316406 0.316406 0
0  0.635478 0.892418 10.576843  -0.588149 -0.808753 0.000002  0.292969 0.316406 0
#256256mgsmbag_p.bmp
0  1.805457 3.749974 -3.604710  -0.998536 0.027045 0.046845  0.339844 0.535156 0
0  1.845458 3.861012 -2.716923  -0.998536 0.027045 0.046845  0.371094 0.519531 0
0  1.845454 5.896248 -3.895230  -0.998536 0.027045 0.046844  0.375000 0.613281 0
#256256mgsmbag_p.bmp
0  1.845454 5.896248 -3.895230  -0.998553 0.026883 0.046583  0.375000 0.613281 0
0  1.845458 3.861012 -2.716923  -0.998553 0.026882 0.046583  0.371094 0.519531 0
0  2.045456 7.561998 -0.713128  -0.998553 0.026882 0.046583  0.515625 0.601563 0
#256256mgsmbag_p.bmp
0  1.845458 3.861012 -2.716923  -0.998552 0.026925 0.046568  0.371094 0.519531 0
0  2.045460 5.771992 0.310379  -0.998552 0.026925 0.046568  0.515625 0.519531 0
0  2.045456 7.561998 -0.713128  -0.998552 0.026925 0.046568  0.515625 0.601563 0
#256256mgsmbag_p.bmp
0  2.045456 7.561998 -0.713128  -0.998534 0.027064 0.046870  0.515625 0.601563 0
0  2.045460 5.771992 0.310379  -0.998534 0.027064 0.046870  0.515625 0.519531 0
0  2.095458 7.194103 0.689853  -0.998534 0.027064 0.046870  0.554688 0.558594 0
#256256mgsmbag_p.bmp
0  2.045460 5.771992 0.310379  -0.998539 0.027053 0.046768  0.515625 0.519531 0
0  2.085459 6.400652 0.800468  -0.998539 0.027052 0.046768  0.542969 0.531250 0
0  2.095458 7.194103 0.689853  -0.998539 0.027052 0.046768  0.554688 0.558594 0
#256256mgsmbag_p.bmp
0  3.035469 2.113034 3.378395  -0.000007 -1.000000 0.000001  0.562500 0.507813 0
0  2.395467 2.406035 2.675437  -0.000019 -0.707090 -0.707123  0.535156 0.480469 0
0  3.035468 2.406035 2.675437  -0.000018 -0.707090 -0.707123  0.535156 0.507813 0
#256256mgsmbag_p.bmp
0  3.035468 2.406035 2.675437  -0.000018 -0.707094 -0.707120  0.535156 0.507813 0
0  2.395467 2.406035 2.675437  -0.000027 -0.707094 -0.707120  0.535156 0.480469 0
0  3.035465 3.110379 2.381496  0.000001 -0.568397 -0.822754  0.503906 0.507813 0
#256256mgsmbag_p.bmp
0  2.395467 2.406035 2.675437  -0.000029 -0.707091 -0.707123  0.535156 0.480469 0
0  2.395465 3.110379 2.381500  0.000005 -0.568393 -0.822757  0.503906 0.480469 0
0  3.035465 3.110379 2.381496  0.000018 -0.568393 -0.822757  0.503906 0.507813 0
#256256mgsmbag_p.bmp
0  3.035465 3.110379 2.381496  -0.000004 -0.568411 -0.822745  0.503906 0.507813 0
0  2.395465 3.110379 2.381500  -0.000019 -0.568411 -0.822745  0.503906 0.480469 0
0  3.035458 6.126783 -0.828064  -0.000007 -0.707106 -0.707108  0.328125 0.507813 0
#256256mgsmbag_p.bmp
0  2.395465 3.110379 2.381500  -0.000000 -0.568411 -0.822745  0.503906 0.480469 0
0  2.245458 6.126783 -0.828064  -0.000000 -0.707106 -0.707108  0.328125 0.476563 0
0  3.035458 6.126783 -0.828064  0.000001 -0.707106 -0.707108  0.328125 0.507813 0
#256256mgsmbag_p.bmp
0  3.035469 2.406969 4.082736  -0.000014 -0.707151 0.707063  0.593750 0.507813 0
0  3.035469 3.102961 4.368568  -0.000018 0.000010 1.000000  0.562500 0.507813 0
0  2.395468 2.406969 4.082740  0.000018 -0.707151 0.707063  0.593750 0.480469 0
#256256mgsmbag_p.bmp
0  2.395468 2.406969 4.082740  0.000024 -0.707148 0.707065  0.593750 0.480469 0
0  3.035469 3.102961 4.368568  -0.000012 0.000013 1.000000  0.562500 0.507813 0
0  2.395468 3.102959 4.368568  0.000018 0.000014 1.000000  0.562500 0.480469 0
#256256mgsmbag_p.bmp
0  3.035469 3.102961 4.368568  -0.000018 0.000001 1.000000  0.562500 0.507813 0
0  3.035468 3.807305 4.074630  0.000024 0.707090 0.707123  0.535156 0.507813 0
0  2.395468 3.102959 4.368568  -0.000028 0.000001 1.000000  0.562500 0.480469 0
#256256mgsmbag_p.bmp
0  2.395468 3.102959 4.368568  -0.000026 0.000001 1.000000  0.562500 0.480469 0
0  3.035468 3.807305 4.074630  0.000025 0.707091 0.707123  0.535156 0.507813 0
0  2.395467 3.807303 4.074630  0.000016 0.707091 0.707123  0.535156 0.480469 0
#256256mgsmbag_p.bmp
0  3.035468 3.807305 4.074630  0.000017 0.707089 0.707124  0.535156 0.507813 0
0  2.395465 4.100306 3.371673  -0.000002 0.821392 0.570364  0.503906 0.480469 0
0  2.395467 3.807303 4.074630  0.000016 0.707089 0.707124  0.535156 0.480469 0
#256256mgsmbag_p.bmp
0  3.035458 7.312033 0.348793  1.000000 0.000001 -0.000001  0.640625 0.511719 0
0  3.035465 4.100306 3.371673  1.000000 0.000001 -0.000001  0.652344 0.687500 0
0  3.035458 6.126783 -0.828064  1.000000 0.000001 -0.000001  0.707031 0.511719 0
#256256mgsmbag_p.bmp
0  3.035458 6.126783 -0.828064  1.000000 0.000001 -0.000001  0.707031 0.511719 0
0  3.035465 4.100306 3.371673  1.000000 0.000001 -0.000001  0.652344 0.687500 0
0  3.035465 3.110379 2.381496  1.000000 0.000001 -0.000001  0.707031 0.687500 0
#256256mgsmbag_p.bmp
0  3.035465 4.100306 3.371673  1.000000 0.000003 -0.000003  0.652344 0.687500 0
0  3.035468 3.807305 4.074630  1.000000 0.000003 -0.000003  0.640625 0.714844 0
0  3.035465 3.110379 2.381496  1.000000 0.000003 -0.000003  0.707031 0.687500 0
#256256mgsmbag_p.bmp
0  3.035465 3.110379 2.381496  1.000000 0.000003 -0.000003  0.707031 0.687500 0
0  3.035468 3.807305 4.074630  1.000000 0.000003 -0.000003  0.640625 0.714844 0
0  3.035468 2.406035 2.675437  1.000000 0.000003 -0.000003  0.722656 0.714844 0
#256256mgsmbag_p.bmp
0  3.035468 3.807305 4.074630  1.000000 0.000001 -0.000001  0.640625 0.714844 0
0  3.035469 2.113034 3.378395  1.000000 0.000001 -0.000001  0.710938 0.742188 0
0  3.035468 2.406035 2.675437  1.000000 0.000001 -0.000001  0.722656 0.714844 0
#256256mgsmbag_p.bmp
0  1.305488 -10.247658 7.107086  -1.000000 -0.000001 0.000001  0.660156 0.218750 0
0  1.305487 -11.577713 4.527114  -1.000000 -0.000001 0.000001  0.707031 0.132813 0
0  1.305488 -12.127695 5.357128  -1.000000 -0.000001 0.000001  0.722656 0.160156 0
#256256mgsmbag_p.bmp
0  1.305488 -10.247658 7.107086  -1.000000 -0.000001 0.000001  0.660156 0.218750 0
0  1.305474 -1.627714 4.526897  -1.000000 -0.000001 0.000001  0.382813 0.132813 0
0  1.305487 -11.577713 4.527114  -1.000000 -0.000001 0.000001  0.707031 0.132813 0
#256256mgsmbag_p.bmp
0  1.305488 -10.247658 7.107086  -1.000000 -0.000001 0.000001  0.660156 0.218750 0
0  1.305474 -0.467691 5.496871  -1.000000 -0.000001 0.000001  0.343750 0.167969 0
0  1.305474 -1.627714 4.526897  -1.000000 -0.000001 0.000001  0.382813 0.132813 0
#256256mgsmbag_p.bmp
0  1.305488 -10.247658 7.107086  -1.000000 -0.000001 0.000001  0.660156 0.218750 0
0  1.305476 0.402369 8.266853  -1.000000 -0.000001 0.000001  0.316406 0.257813 0
0  1.305474 -0.467691 5.496871  -1.000000 -0.000001 0.000001  0.343750 0.167969 0
#256256mgsmbag_p.bmp
0  1.305488 -10.247658 7.107086  -1.000000 -0.000001 0.000001  0.660156 0.218750 0
0  1.305491 -10.247606 9.427086  -1.000000 -0.000001 0.000001  0.660156 0.292969 0
0  1.305476 0.402369 8.266853  -1.000000 -0.000001 0.000001  0.316406 0.257813 0
#256256mgsmbag_p.bmp
0  7.505473 -1.137705 4.526882  -0.000001 -0.000022 -1.000000  0.359375 0.121094 0
0  6.835474 -1.627706 4.526893  -0.000001 -0.000022 -1.000000  0.375000 0.097656 0
0  7.505461 8.652294 4.526664  -0.000001 -0.000022 -1.000000  0.039063 0.132813 0
#256256mgsmbag_p.bmp
0  7.505461 8.652294 4.526664  -0.000001 -0.000022 -1.000000  0.039063 0.132813 0
0  6.835474 -1.627706 4.526893  -0.000001 -0.000022 -1.000000  0.375000 0.097656 0
0  4.065461 8.652290 4.526668  -0.000001 -0.000022 -1.000000  0.039063 0.007813 0
#256256mgsmbag_p.bmp
0  6.835474 -1.627706 4.526893  0.000000 -0.000022 -1.000000  0.375000 0.097656 0
0  4.065487 -11.577710 4.527111  0.000000 -0.000022 -1.000000  0.699219 0.007813 0
0  4.065461 8.652290 4.526668  0.000000 -0.000022 -1.000000  0.039063 0.007813 0
#256256mgsmbag_p.bmp
0  4.065461 8.652290 4.526668  -0.000002 -0.000022 -1.000000  0.039063 0.007813 0
0  4.065487 -11.577710 4.527111  -0.000002 -0.000022 -1.000000  0.699219 0.007813 0
0  1.305474 -1.627714 4.526897  -0.000002 -0.000022 -1.000000  0.375000 0.097656 0
#256256mgsmbag_p.bmp
0  4.065487 -11.577710 4.527111  -0.000001 -0.000022 -1.000000  0.699219 0.007813 0
0  1.305487 -11.577713 4.527114  -0.000001 -0.000022 -1.000000  0.699219 0.097656 0
0  1.305474 -1.627714 4.526897  -0.000001 -0.000022 -1.000000  0.375000 0.097656 0
#256256mgsmbag_p.bmp
0  7.505473 -1.137705 4.526882  0.423380 -0.582385 0.693957  0.359375 0.121094 0
0  7.505473 0.022316 5.496856  0.529704 -0.728768 0.433948  0.320313 0.152344 0
0  6.835474 -0.467686 5.496868  0.498624 -0.686190 0.529639  0.343750 0.167969 0
#256256mgsmbag_p.bmp
0  6.835474 -0.467686 5.496868  0.498620 -0.686201 0.529629  0.343750 0.167969 0
0  7.505473 0.022316 5.496856  0.529708 -0.728772 0.433936  0.320313 0.152344 0
0  6.835476 0.402376 8.266846  0.583179 -0.801675 0.131219  0.316406 0.257813 0
#256256mgsmbag_p.bmp
0  7.505473 0.022316 5.496856  0.529697 -0.728780 0.433936  0.320313 0.152344 0
0  7.505475 0.892376 8.266838  0.583172 -0.801680 0.131219  0.292969 0.242188 0
0  6.835476 0.402376 8.266846  0.583172 -0.801681 0.131219  0.316406 0.257813 0
#256256mgsmbag_p.bmp
0  6.835476 0.402376 8.266846  0.583175 -0.801681 0.131204  0.316406 0.257813 0
0  7.505475 0.892376 8.266838  0.583181 -0.801677 0.131204  0.292969 0.242188 0
0  6.835478 0.402416 10.106850  0.587957 -0.808892 -0.000001  0.316406 0.316406 0
#256256mgsmbag_p.bmp
0  7.505475 0.892376 8.266838  0.583180 -0.801677 0.131204  0.292969 0.242188 0
0  7.505478 0.892428 10.576836  0.587956 -0.808893 0.000001  0.292969 0.316406 0
0  6.835478 0.402416 10.106850  0.587956 -0.808893 0.000001  0.316406 0.316406 0
#256256mgsmbag_p.bmp
0  6.835492 -10.247584 10.107079  1.000000 0.000001 -0.000001  0.660156 0.316406 0
0  6.835491 -10.247600 9.427078  1.000000 0.000001 -0.000001  0.660156 0.292969 0
0  6.835478 0.402416 10.106850  1.000000 0.000001 -0.000001  0.316406 0.316406 0
#256256mgsmbag_p.bmp
0  6.835478 0.402416 10.106850  1.000000 0.000001 -0.000001  0.316406 0.316406 0
0  6.835491 -10.247600 9.427078  1.000000 0.000001 -0.000001  0.660156 0.292969 0
0  6.835476 0.402376 8.266846  1.000000 0.000001 -0.000001  0.316406 0.257813 0
#256256mgsmbag_p.bmp
0  6.835491 -10.247600 9.427078  1.000000 0.000001 -0.000001  0.660156 0.292969 0
0  6.835488 -10.247650 7.107078  1.000000 0.000001 -0.000001  0.660156 0.218750 0
0  6.835476 0.402376 8.266846  1.000000 0.000001 -0.000001  0.316406 0.257813 0
#256256mgsmbag_p.bmp
0  6.835476 0.402376 8.266846  1.000000 0.000001 -0.000001  0.316406 0.257813 0
0  6.835488 -10.247650 7.107078  1.000000 0.000001 -0.000001  0.660156 0.218750 0
0  6.835474 -0.467686 5.496868  1.000000 0.000001 -0.000001  0.343750 0.167969 0
#256256mgsmbag_p.bmp
0  6.835488 -10.247650 7.107078  1.000000 0.000001 -0.000001  0.660156 0.218750 0
0  6.835474 -1.627706 4.526893  1.000000 0.000001 -0.000001  0.382813 0.132813 0
0  6.835474 -0.467686 5.496868  1.000000 0.000001 -0.000001  0.343750 0.167969 0
#256256mgsmbag_p.bmp
0  -4.287981 4.029564 -19.514393  -0.000001 1.000000 0.000001  0.011719 0.992188 0
0  1.872026 4.029562 -12.874397  -0.000001 1.000000 0.000001  0.195313 0.824219 0
0  1.872019 4.029572 -19.514400  -0.000001 1.000000 0.000001  0.011719 0.824219 0
#256256mgsmbag_p.bmp
0  -4.287981 4.029564 -19.514393  -0.000001 1.000000 0.000001  0.011719 0.992188 0
0  -4.287975 4.029556 -12.874393  -0.000001 1.000000 0.000001  0.195313 0.992188 0
0  1.872026 4.029562 -12.874397  -0.000001 1.000000 0.000001  0.195313 0.824219 0
#256256mgsmbag_p.bmp
0  -4.287981 4.029564 -19.514393  -0.000001 1.000000 0.000001  0.011719 0.992188 0
0  -10.457975 4.029551 -12.874386  -0.000001 1.000000 0.000001  0.195313 0.824219 0
0  -4.287975 4.029556 -12.874393  -0.000001 1.000000 0.000001  0.195313 0.992188 0
#256256mgsmbag_p.bmp
0  -4.287981 4.029564 -19.514393  -0.000001 1.000000 0.000001  0.011719 0.992188 0
0  -10.457981 4.029558 -19.514385  -0.000001 1.000000 0.000001  0.011719 0.824219 0
0  -10.457975 4.029551 -12.874386  -0.000001 1.000000 0.000001  0.195313 0.824219 0
#256256mgsmbag_p.bmp
0  -4.287959 2.079540 0.755607  0.000001 -0.000001 1.000000  0.605469 0.992188 0
0  -1.417955 -1.610456 0.755600  0.000001 -0.000001 1.000000  0.710938 0.914063 0
0  -1.417959 2.079544 0.755603  0.000001 -0.000001 1.000000  0.605469 0.914063 0
#256256mgsmbag_p.bmp
0  -4.287959 2.079540 0.755607  0.000001 -0.000001 1.000000  0.605469 0.992188 0
0  -4.287955 -1.610460 0.755603  0.000001 -0.000001 1.000000  0.710938 0.992188 0
0  -1.417955 -1.610456 0.755600  0.000001 -0.000001 1.000000  0.710938 0.914063 0
#256256mgsmbag_p.bmp
0  -4.287959 2.079540 0.755607  -0.000000 -0.000001 1.000000  0.605469 0.992188 0
0  -7.167955 -1.610462 0.755603  -0.000000 -0.000001 1.000000  0.710938 0.914063 0
0  -4.287955 -1.610460 0.755603  -0.000000 -0.000001 1.000000  0.710938 0.992188 0
#256256mgsmbag_p.bmp
0  -4.287959 2.079540 0.755607  0.000000 -0.000001 1.000000  0.605469 0.992188 0
0  -7.167959 2.079539 0.755607  0.000000 -0.000001 1.000000  0.605469 0.914063 0
0  -7.167955 -1.610462 0.755603  0.000000 -0.000001 1.000000  0.710938 0.914063 0
#256256mgsmbag_p.bmp
0  -4.287975 4.029556 -12.874393  0.000001 -0.000001 1.000000  0.195313 0.992188 0
0  -0.127973 3.039561 -12.874397  0.000001 -0.000001 1.000000  0.222656 0.878906 0
0  1.872026 4.029562 -12.874397  0.000001 -0.000001 1.000000  0.195313 0.824219 0
#256256mgsmbag_p.bmp
0  -4.287975 4.029556 -12.874393  0.000001 0.000000 1.000000  0.195313 0.992188 0
0  -4.287973 3.039557 -12.874393  0.000001 0.000000 1.000000  0.222656 0.992188 0
0  -0.127973 3.039561 -12.874397  0.000001 0.000000 1.000000  0.222656 0.878906 0
#256256mgsmbag_p.bmp
0  -4.287975 4.029556 -12.874393  0.000001 0.000000 1.000000  0.195313 0.992188 0
0  -8.457973 3.039553 -12.874390  0.000001 0.000000 1.000000  0.222656 0.878906 0
0  -4.287973 3.039557 -12.874393  0.000001 0.000000 1.000000  0.222656 0.992188 0
#256256mgsmbag_p.bmp
0  -4.287975 4.029556 -12.874393  0.000001 -0.000001 1.000000  0.195313 0.992188 0
0  -10.457975 4.029551 -12.874386  0.000001 -0.000001 1.000000  0.195313 0.824219 0
0  -8.457973 3.039553 -12.874390  0.000001 -0.000001 1.000000  0.222656 0.878906 0
#256256mgsmbag_p.bmp
0  -0.967955 -1.610454 0.165599  0.000001 -1.000000 -0.000001  0.031250 0.519531 0
0  2.362035 -1.610441 -8.804405  0.000001 -1.000000 -0.000001  0.054688 0.578125 0
0  2.362044 -1.610451 0.165596  0.000001 -1.000000 -0.000001  0.054688 0.519531 0
#256256mgsmbag_p.bmp
0  -0.967955 -1.610454 0.165599  0.000001 -1.000000 -0.000001  0.031250 0.519531 0
0  -0.127968 -1.610441 -11.904404  0.000001 -1.000000 -0.000001  0.035156 0.601563 0
0  2.362035 -1.610441 -8.804405  0.000001 -1.000000 -0.000001  0.054688 0.578125 0
#256256mgsmbag_p.bmp
0  -0.967955 -1.610454 0.165599  0.000002 -1.000000 -0.000001  0.031250 0.519531 0
0  -4.287955 -1.610460 0.755603  0.000002 -1.000000 -0.000001  0.007813 0.511719 0
0  -0.127968 -1.610441 -11.904404  0.000002 -1.000000 -0.000001  0.035156 0.601563 0
#256256mgsmbag_p.bmp
0  -0.967955 -1.610454 0.165599  0.000001 -1.000000 -0.000002  0.031250 0.519531 0
0  -1.417955 -1.610456 0.755600  0.000001 -1.000000 -0.000002  0.027344 0.511719 0
0  -4.287955 -1.610460 0.755603  0.000001 -1.000000 -0.000002  0.007813 0.511719 0
#256256mgsmbag_p.bmp
0  -4.287970 4.029552 -8.804390  -0.000000 0.953054 -0.302801  0.339844 0.992188 0
0  -8.457973 3.039551 -11.904388  -0.000000 0.953054 -0.302801  0.250000 0.878906 0
0  -10.937970 4.029545 -8.804386  -0.000000 0.953054 -0.302801  0.339844 0.808594 0
#256256mgsmbag_p.bmp
0  -4.287970 4.029552 -8.804390  0.000000 0.953039 -0.302846  0.339844 0.992188 0
0  -4.287973 3.039557 -11.904392  0.000000 0.953039 -0.302846  0.250000 0.992188 0
0  -8.457973 3.039551 -11.904388  0.000000 0.953039 -0.302846  0.250000 0.878906 0
#256256mgsmbag_p.bmp
0  -4.287970 4.029552 -8.804390  -0.000000 0.953039 -0.302846  0.339844 0.992188 0
0  -0.127972 3.039561 -11.904396  -0.000000 0.953039 -0.302846  0.250000 0.878906 0
0  -4.287973 3.039557 -11.904392  -0.000001 0.953039 -0.302846  0.250000 0.992188 0
#256256mgsmbag_p.bmp
0  -4.287970 4.029552 -8.804390  0.000000 0.953039 -0.302847  0.339844 0.992188 0
0  2.362030 4.029558 -8.804398  0.000000 0.953039 -0.302847  0.339844 0.808594 0
0  -0.127972 3.039561 -11.904396  0.000000 0.953039 -0.302847  0.250000 0.878906 0
#256256mgsmbag_p.bmp
0  -4.287973 3.039557 -11.904392  -0.000001 1.000000 0.000002  0.250000 0.992188 0
0  -8.457973 3.039553 -12.874390  -0.000001 1.000000 0.000002  0.222656 0.878906 0
0  -8.457973 3.039551 -11.904388  -0.000001 1.000000 0.000002  0.250000 0.878906 0
#256256mgsmbag_p.bmp
0  -4.287973 3.039557 -11.904392  -0.000001 1.000000 0.000000  0.250000 0.992188 0
0  -4.287973 3.039557 -12.874393  -0.000001 1.000000 0.000000  0.222656 0.992188 0
0  -8.457973 3.039553 -12.874390  -0.000001 1.000000 0.000000  0.222656 0.878906 0
#256256mgsmbag_p.bmp
0  -4.287973 3.039557 -11.904392  -0.000001 1.000000 0.000000  0.250000 0.992188 0
0  -0.127973 3.039561 -12.874397  -0.000001 1.000000 0.000000  0.222656 0.878906 0
0  -4.287973 3.039557 -12.874393  -0.000001 1.000000 0.000000  0.222656 0.992188 0
#256256mgsmbag_p.bmp
0  -4.287973 3.039557 -11.904392  -0.000001 1.000000 0.000000  0.250000 0.992188 0
0  -0.127972 3.039561 -11.904396  -0.000001 1.000000 0.000000  0.250000 0.878906 0
0  -0.127973 3.039561 -12.874397  -0.000001 1.000000 0.000000  0.222656 0.878906 0
#256256mgsmbag_p.bmp
0  -4.287981 4.029564 -19.514393  -0.000001 0.000001 -1.000000  0.011719 0.992188 0
0  -10.457975 -1.610441 -19.514393  -0.000001 0.000001 -1.000000  0.003906 0.824219 0
0  -10.457981 4.029558 -19.514385  -0.000001 0.000001 -1.000000  0.011719 0.824219 0
#256256mgsmbag_p.bmp
0  -4.287981 4.029564 -19.514393  -0.000002 0.000001 -1.000000  0.011719 0.992188 0
0  -4.287976 -1.610435 -19.514400  -0.000002 0.000001 -1.000000  0.003906 0.992188 0
0  -10.457975 -1.610441 -19.514393  -0.000002 0.000001 -1.000000  0.003906 0.824219 0
#256256mgsmbag_p.bmp
0  -4.287981 4.029564 -19.514393  -0.000000 0.000001 -1.000000  0.011719 0.992188 0
0  1.872025 -1.610430 -19.514404  -0.000000 0.000001 -1.000000  0.003906 0.824219 0
0  -4.287976 -1.610435 -19.514400  -0.000000 0.000001 -1.000000  0.003906 0.992188 0
#256256mgsmbag_p.bmp
0  -4.287981 4.029564 -19.514393  -0.000001 0.000001 -1.000000  0.011719 0.992188 0
0  1.872019 4.029572 -19.514400  -0.000001 0.000001 -1.000000  0.011719 0.824219 0
0  1.872025 -1.610430 -19.514404  -0.000001 0.000001 -1.000000  0.003906 0.824219 0
#256256mgsmbag_p.bmp
0  -8.517962 3.159539 -0.804390  -0.000020 -0.173743 0.984791  0.941406 0.613281 0
0  -9.907963 5.529535 -0.384385  -0.000020 -0.173743 0.984791  0.855469 0.562500 0
0  -9.907962 3.949538 -0.664387  -0.000020 -0.173743 0.984791  0.914063 0.562500 0
#256256mgsmbag_p.bmp
0  -8.517962 3.159539 -0.804390  0.000127 -0.173680 0.984802  0.941406 0.613281 0
0  -8.517963 6.329536 -0.244385  0.000127 -0.173680 0.984802  0.824219 0.613281 0
0  -9.907963 5.529535 -0.384385  0.000127 -0.173680 0.984802  0.855469 0.562500 0
#256256mgsmbag_p.bmp
0  -8.517962 3.159539 -0.804390  0.000312 -0.173964 0.984752  0.941406 0.613281 0
0  -7.117963 5.539539 -0.384388  0.000312 -0.173964 0.984752  0.855469 0.562500 0
0  -8.517963 6.329536 -0.244385  0.000312 -0.173964 0.984752  0.824219 0.613281 0
#256256mgsmbag_p.bmp
0  -8.517962 3.159539 -0.804390  -0.000618 -0.173433 0.984845  0.941406 0.613281 0
0  -7.117962 3.949539 -0.664391  -0.000618 -0.173433 0.984845  0.914063 0.562500 0
0  -7.117963 5.539539 -0.384388  -0.000618 -0.173433 0.984845  0.855469 0.562500 0
#256256mgsmbag_p.bmp
0  -8.517975 7.979548 -9.624382  -0.000001 0.174498 -0.984658  0.824219 0.210938 0
0  -9.907972 5.609547 -10.044384  -0.000001 0.174498 -0.984658  0.910156 0.261719 0
0  -9.907975 7.189547 -9.764381  -0.000001 0.174498 -0.984658  0.851563 0.261719 0
#256256mgsmbag_p.bmp
0  -8.517975 7.979548 -9.624382  -0.000002 0.174168 -0.984716  0.824219 0.210938 0
0  -8.517973 4.819550 -10.184387  -0.000002 0.174168 -0.984716  0.941406 0.210938 0
0  -9.907972 5.609547 -10.044384  -0.000002 0.174168 -0.984716  0.910156 0.261719 0
#256256mgsmbag_p.bmp
0  -8.517975 7.979548 -9.624382  -0.000004 0.173932 -0.984758  0.824219 0.210938 0
0  -7.117973 5.609550 -10.044388  -0.000004 0.173932 -0.984758  0.910156 0.261719 0
0  -8.517973 4.819550 -10.184387  -0.000004 0.173932 -0.984758  0.941406 0.210938 0
#256256mgsmbag_p.bmp
0  -8.517975 7.979548 -9.624382  -0.000003 0.174167 -0.984716  0.824219 0.210938 0
0  -7.117975 7.189550 -9.764385  -0.000002 0.174167 -0.984716  0.851563 0.261719 0
0  -7.117973 5.609550 -10.044388  -0.000003 0.174168 -0.984716  0.910156 0.261719 0
#256256mgsmbag_p.bmp
0  4.065468 8.652422 10.576668  -0.000001 1.000000 -0.000022  0.003906 0.304688 0
0  0.635461 8.652285 4.526676  -0.000001 1.000000 -0.000022  0.039063 0.132813 0
0  0.635468 8.652418 10.576675  -0.000001 1.000000 -0.000022  0.039063 0.304688 0
#256256mgsmbag_p.bmp
0  4.065468 8.652422 10.576668  -0.000002 1.000000 -0.000022  0.003906 0.304688 0
0  4.065461 8.652290 4.526668  -0.000002 1.000000 -0.000022  0.003906 0.132813 0
0  0.635461 8.652285 4.526676  -0.000002 1.000000 -0.000022  0.039063 0.132813 0
#256256mgsmbag_p.bmp
0  4.065468 8.652422 10.576668  -0.000001 1.000000 -0.000022  0.003906 0.304688 0
0  7.505461 8.652294 4.526664  -0.000001 1.000000 -0.000022  0.039063 0.132813 0
0  4.065461 8.652290 4.526668  -0.000001 1.000000 -0.000022  0.003906 0.132813 0
#256256mgsmbag_p.bmp
0  4.065468 8.652422 10.576668  -0.000001 1.000000 -0.000022  0.003906 0.304688 0
0  7.505468 8.652426 10.576668  -0.000001 1.000000 -0.000022  0.039063 0.304688 0
0  7.505461 8.652294 4.526664  -0.000001 1.000000 -0.000022  0.039063 0.132813 0
#256256mgsmbag_p.bmp
0  2.925493 -11.607590 10.107117  0.000000 0.000022 1.000000  0.707031 0.367188 0
0  4.065493 -11.607588 10.107117  0.000000 0.000022 1.000000  0.707031 0.406250 0
0  1.305492 -10.247592 10.107086  0.000000 0.000022 1.000000  0.660156 0.316406 0
#256256mgsmbag_p.bmp
0  1.305492 -10.247592 10.107086  -0.000000 0.000022 1.000000  0.660156 0.316406 0
0  4.065493 -11.607588 10.107117  -0.000000 0.000022 1.000000  0.707031 0.406250 0
0  4.065478 0.402413 10.106850  -0.000000 0.000022 1.000000  0.316406 0.406250 0
#256256mgsmbag_p.bmp
0  4.065493 -11.607588 10.107117  0.000003 0.000022 1.000000  0.707031 0.406250 0
0  6.835492 -10.247584 10.107079  0.000003 0.000022 1.000000  0.660156 0.316406 0
0  4.065478 0.402413 10.106850  0.000003 0.000022 1.000000  0.316406 0.406250 0
#256256mgsmbag_p.bmp
0  4.065478 0.402413 10.106850  0.000000 0.000021 1.000000  0.316406 0.406250 0
0  6.835492 -10.247584 10.107079  0.000000 0.000021 1.000000  0.660156 0.316406 0
0  6.835478 0.402416 10.106850  0.000000 0.000021 1.000000  0.316406 0.316406 0
#256256mgsmbag_p.bmp
0  4.065486 -10.247692 5.357082  -0.000003 -0.000022 -1.000000  0.734375 0.992188 0
0  3.155499 -20.087694 5.357299  -0.000003 -0.000022 -1.000000  0.765625 0.628906 0
0  3.155487 -10.247693 5.357086  -0.000003 -0.000022 -1.000000  0.765625 0.992188 0
#256256mgsmbag_p.bmp
0  4.065486 -10.247692 5.357082  -0.000000 -0.000022 -1.000000  0.734375 0.992188 0
0  4.065499 -20.087692 5.357299  -0.000000 -0.000022 -1.000000  0.734375 0.628906 0
0  3.155499 -20.087694 5.357299  -0.000000 -0.000022 -1.000000  0.765625 0.628906 0
#256256mgsmbag_p.bmp
0  4.065486 -10.247692 5.357082  -0.000004 -0.000022 -1.000000  0.734375 0.992188 0
0  4.975499 -20.087692 5.357296  -0.000004 -0.000022 -1.000000  0.765625 0.628906 0
0  4.065499 -20.087692 5.357299  -0.000004 -0.000022 -1.000000  0.734375 0.628906 0
#256256mgsmbag_p.bmp
0  4.065486 -10.247692 5.357082  0.000001 -0.000022 -1.000000  0.734375 0.992188 0
0  4.975486 -10.247691 5.357082  0.000001 -0.000022 -1.000000  0.765625 0.992188 0
0  4.975499 -20.087692 5.357296  0.000001 -0.000022 -1.000000  0.765625 0.628906 0
#256256mgsmbag_p.bmp
0  4.065504 -20.087597 9.747299  0.000000 0.000022 1.000000  0.988281 0.628906 0
0  3.155492 -10.247598 9.747086  0.000000 0.000022 1.000000  0.957031 0.992188 0
0  3.155504 -20.087597 9.747299  0.000000 0.000022 1.000000  0.957031 0.628906 0
#256256mgsmbag_p.bmp
0  4.065504 -20.087597 9.747299  0.000000 0.000022 1.000000  0.988281 0.628906 0
0  4.065491 -10.247597 9.747086  0.000000 0.000022 1.000000  0.988281 0.992188 0
0  3.155492 -10.247598 9.747086  0.000000 0.000022 1.000000  0.957031 0.992188 0
#256256mgsmbag_p.bmp
0  4.065504 -20.087597 9.747299  0.000001 0.000022 1.000000  0.988281 0.628906 0
0  4.975491 -10.247595 9.747086  0.000001 0.000022 1.000000  0.957031 0.992188 0
0  4.065491 -10.247597 9.747086  0.000001 0.000022 1.000000  0.988281 0.992188 0
#256256mgsmbag_p.bmp
0  4.065504 -20.087597 9.747299  0.000000 0.000022 1.000000  0.988281 0.628906 0
0  4.975504 -20.087595 9.747299  0.000000 0.000022 1.000000  0.957031 0.628906 0
0  4.975491 -10.247595 9.747086  0.000000 0.000022 1.000000  0.957031 0.992188 0
#256256mgsmbag_p.bmp
0  4.065499 -20.087692 5.357299  0.000002 -1.000000 0.000022  0.613281 0.417969 0
0  3.155504 -20.087597 9.747299  0.000002 -1.000000 0.000022  0.765625 0.453125 0
0  3.155499 -20.087694 5.357299  0.000002 -1.000000 0.000022  0.613281 0.453125 0
#256256mgsmbag_p.bmp
0  4.065499 -20.087692 5.357299  0.000000 -1.000000 0.000022  0.613281 0.417969 0
0  4.065504 -20.087597 9.747299  0.000000 -1.000000 0.000022  0.765625 0.417969 0
0  3.155504 -20.087597 9.747299  0.000000 -1.000000 0.000022  0.765625 0.453125 0
#256256mgsmbag_p.bmp
0  4.065499 -20.087692 5.357299  0.000002 -1.000000 0.000021  0.613281 0.417969 0
0  4.975504 -20.087595 9.747299  0.000002 -1.000000 0.000021  0.765625 0.453125 0
0  4.065504 -20.087597 9.747299  0.000002 -1.000000 0.000021  0.765625 0.417969 0
#256256mgsmbag_p.bmp
0  4.065499 -20.087692 5.357299  0.000000 -1.000000 0.000022  0.613281 0.417969 0
0  4.975499 -20.087692 5.357296  0.000000 -1.000000 0.000022  0.613281 0.453125 0
0  4.975504 -20.087595 9.747299  0.000000 -1.000000 0.000022  0.765625 0.453125 0
#256256mgsmbag_p.bmp
0  7.505478 0.892428 10.576836  1.000000 0.000001 -0.000002  0.292969 0.316406 0
0  7.505475 0.892376 8.266838  1.000000 0.000001 -0.000002  0.292969 0.242188 0
0  7.505468 8.652426 10.576668  1.000000 0.000001 -0.000002  0.039063 0.304688 0
#256256mgsmbag_p.bmp
0  7.505468 8.652426 10.576668  1.000000 0.000001 -0.000001  0.039063 0.304688 0
0  7.505475 0.892376 8.266838  1.000000 0.000001 -0.000001  0.292969 0.242188 0
0  7.505461 8.652294 4.526664  1.000000 0.000001 -0.000001  0.039063 0.132813 0
#256256mgsmbag_p.bmp
0  7.505475 0.892376 8.266838  1.000000 0.000001 -0.000001  0.292969 0.242188 0
0  7.505473 0.022316 5.496856  1.000000 0.000001 -0.000001  0.320313 0.152344 0
0  7.505461 8.652294 4.526664  1.000000 0.000001 -0.000001  0.039063 0.132813 0
#256256mgsmbag_p.bmp
0  7.505461 8.652294 4.526664  1.000000 0.000001 -0.000001  0.039063 0.132813 0
0  7.505473 0.022316 5.496856  1.000000 0.000001 -0.000001  0.320313 0.152344 0
0  7.505473 -1.137705 4.526882  1.000000 0.000001 -0.000001  0.359375 0.121094 0
#256256mgsmbag_p.bmp
0  4.065468 8.652422 10.576668  0.000000 0.000022 1.000000  0.039063 0.425781 0
0  7.505478 0.892428 10.576836  0.000000 0.000022 1.000000  0.292969 0.316406 0
0  7.505468 8.652426 10.576668  0.000000 0.000022 1.000000  0.039063 0.304688 0
#256256mgsmbag_p.bmp
0  4.065468 8.652422 10.576668  0.000002 0.000023 1.000000  0.039063 0.425781 0
0  4.065478 0.892422 10.576843  0.000002 0.000023 1.000000  0.292969 0.425781 0
0  7.505478 0.892428 10.576836  0.000002 0.000023 1.000000  0.292969 0.316406 0
#256256mgsmbag_p.bmp
0  4.065468 8.652422 10.576668  0.000000 0.000023 1.000000  0.039063 0.425781 0
0  0.635478 0.892418 10.576843  0.000000 0.000023 1.000000  0.292969 0.316406 0
0  4.065478 0.892422 10.576843  0.000000 0.000023 1.000000  0.292969 0.425781 0
#256256mgsmbag_p.bmp
0  4.065468 8.652422 10.576668  0.000002 0.000022 1.000000  0.039063 0.425781 0
0  0.635468 8.652418 10.576675  0.000002 0.000022 1.000000  0.039063 0.304688 0
0  0.635478 0.892418 10.576843  0.000002 0.000022 1.000000  0.292969 0.316406 0
#256256mgsmbag_p.bmp
0  4.065478 0.892422 10.576843  -0.000003 -0.691135 0.722726  0.292969 0.425781 0
0  6.835478 0.402416 10.106850  -0.000003 -0.691135 0.722726  0.316406 0.316406 0
0  7.505478 0.892428 10.576836  -0.000003 -0.691135 0.722726  0.292969 0.316406 0
#256256mgsmbag_p.bmp
0  4.065478 0.892422 10.576843  0.000001 -0.691209 0.722654  0.292969 0.425781 0
0  4.065478 0.402413 10.106850  0.000000 -0.691209 0.722654  0.316406 0.406250 0
0  6.835478 0.402416 10.106850  0.000001 -0.691209 0.722654  0.316406 0.316406 0
#256256mgsmbag_p.bmp
0  4.065478 0.892422 10.576843  0.000004 -0.691209 0.722654  0.292969 0.425781 0
0  1.305478 0.402409 10.106857  0.000004 -0.691209 0.722654  0.316406 0.316406 0
0  4.065478 0.402413 10.106850  0.000003 -0.691209 0.722654  0.316406 0.406250 0
#256256mgsmbag_p.bmp
0  4.065478 0.892422 10.576843  -0.000002 -0.691203 0.722661  0.292969 0.425781 0
0  0.635478 0.892418 10.576843  -0.000001 -0.691203 0.722661  0.292969 0.316406 0
0  1.305478 0.402409 10.106857  -0.000001 -0.691203 0.722661  0.316406 0.316406 0
#256256mgsmbag_p.bmp
0  4.065488 -12.127691 5.357124  0.000000 -0.835795 -0.549041  0.730469 0.007813 0
0  6.835487 -11.577706 4.527111  0.000000 -0.835795 -0.549041  0.699219 0.097656 0
0  6.835488 -12.127687 5.357120  0.000000 -0.835795 -0.549041  0.730469 0.097656 0
#256256mgsmbag_p.bmp
0  4.065488 -12.127691 5.357124  -0.000001 -0.835797 -0.549039  0.730469 0.007813 0
0  4.065487 -11.577710 4.527111  -0.000001 -0.835797 -0.549039  0.699219 0.007813 0
0  6.835487 -11.577706 4.527111  -0.000001 -0.835797 -0.549039  0.699219 0.097656 0
#256256mgsmbag_p.bmp
0  4.065488 -12.127691 5.357124  0.000003 -0.835770 -0.549080  0.730469 0.007813 0
0  1.305487 -11.577713 4.527114  0.000003 -0.835770 -0.549080  0.699219 0.097656 0
0  4.065487 -11.577710 4.527111  0.000000 -0.835770 -0.549080  0.699219 0.007813 0
#256256mgsmbag_p.bmp
0  4.065488 -12.127691 5.357124  -0.000002 -0.835796 -0.549041  0.730469 0.007813 0
0  1.305488 -12.127695 5.357128  -0.000002 -0.835796 -0.549041  0.730469 0.097656 0
0  1.305487 -11.577713 4.527114  -0.000003 -0.835796 -0.549041  0.699219 0.097656 0
#256256mgsmbag_p.bmp
0  4.065493 -11.607588 10.107117  0.000002 -1.000000 0.000021  0.750000 0.316406 0
0  5.195493 -11.607601 9.427109  0.000002 -1.000000 0.000021  0.730469 0.292969 0
0  5.195494 -11.607586 10.107109  0.000002 -1.000000 0.000021  0.730469 0.316406 0
#256256mgsmbag_p.bmp
0  4.065493 -11.607588 10.107117  0.000002 -1.000000 0.000022  0.750000 0.316406 0
0  4.065493 -11.607603 9.427116  0.000002 -1.000000 0.000022  0.750000 0.292969 0
0  5.195493 -11.607601 9.427109  0.000002 -1.000000 0.000022  0.730469 0.292969 0
#256256mgsmbag_p.bmp
0  4.065493 -11.607588 10.107117  0.000002 -1.000000 0.000022  0.750000 0.316406 0
0  2.925493 -11.607605 9.427116  0.000002 -1.000000 0.000022  0.730469 0.292969 0
0  4.065493 -11.607603 9.427116  0.000002 -1.000000 0.000022  0.750000 0.292969 0
#256256mgsmbag_p.bmp
0  4.065493 -11.607588 10.107117  0.000002 -1.000000 0.000022  0.750000 0.316406 0
0  2.925493 -11.607590 10.107117  0.000002 -1.000000 0.000022  0.730469 0.316406 0
0  2.925493 -11.607605 9.427116  0.000002 -1.000000 0.000022  0.730469 0.292969 0
#256256mgsmbag_p.bmp
0  -8.457968 -1.610449 -11.904396  -0.000000 -1.000000 -0.000002  0.035156 0.601563 0
0  -8.457970 -1.610447 -12.874393  -0.000000 -1.000000 -0.000002  0.035156 0.605469 0
0  -4.287976 -1.610435 -19.514400  -0.000000 -1.000000 -0.000002  0.007813 0.652344 0
#256256mgsmbag_p.bmp
0  -4.287976 -1.610435 -19.514400  0.000001 -1.000000 -0.000001  0.007813 0.652344 0
0  -8.457970 -1.610447 -12.874393  0.000001 -1.000000 -0.000001  0.035156 0.605469 0
0  -10.457975 -1.610441 -19.514393  0.000001 -1.000000 -0.000001  0.050781 0.652344 0
#256256mgsmbag_p.bmp
0  -8.457970 -1.610447 -12.874393  0.000001 -1.000000 -0.000001  0.035156 0.605469 0
0  -10.457970 -1.610449 -12.874393  0.000001 -1.000000 -0.000001  0.050781 0.605469 0
0  -10.457975 -1.610441 -19.514393  0.000001 -1.000000 -0.000001  0.050781 0.652344 0
#256256mgsmbag_p.bmp
0  -4.287970 4.029552 -8.804390  -0.000351 0.979648 0.200721  0.339844 0.992188 0
0  -10.937970 4.029545 -8.804386  -0.000351 0.979648 0.200721  0.339844 0.808594 0
0  -7.617959 2.199539 0.165607  -0.000351 0.979648 0.200721  0.589844 0.902344 0
#256256mgsmbag_p.bmp
0  -7.617959 2.199539 0.165607  -0.000352 0.979649 0.200720  0.589844 0.902344 0
0  -10.937970 4.029545 -8.804386  -0.000352 0.979649 0.200720  0.339844 0.808594 0
0  -10.937960 2.199536 0.165615  -0.000352 0.979649 0.200720  0.589844 0.812500 0
#256256mgsmbag_p.bmp
0  -10.937970 4.029545 -8.804386  0.000340 0.979678 0.200576  0.339844 0.808594 0
0  -12.397961 2.339535 -0.524388  0.000340 0.979678 0.200576  0.570313 0.769531 0
0  -10.937960 2.199536 0.165615  0.000340 0.979678 0.200576  0.589844 0.812500 0
#256256mgsmbag_p.bmp
0  2.395468 2.406969 4.082740  0.000131 -0.707157 0.707056  0.593750 0.480469 0
0  2.395468 2.113032 3.378395  -0.000023 -1.000000 0.000000  0.562500 0.480469 0
0  3.035469 2.406969 4.082736  0.000032 -0.707157 0.707056  0.593750 0.507813 0
#256256mgsmbag_p.bmp
0  3.035469 2.406969 4.082736  0.000028 -0.707158 0.707056  0.593750 0.507813 0
0  2.395468 2.113032 3.378395  0.000038 -1.000000 -0.000000  0.562500 0.480469 0
0  3.035469 2.113034 3.378395  -0.000016 -1.000000 -0.000000  0.562500 0.507813 0
#256256mgsmbag_p.bmp
0  2.395468 2.113032 3.378395  0.000021 -1.000000 -0.000001  0.562500 0.480469 0
0  2.395467 2.406035 2.675437  0.000010 -0.707123 -0.707091  0.535156 0.480469 0
0  3.035469 2.113034 3.378395  0.000022 -1.000000 -0.000001  0.562500 0.507813 0
#256256mgsmbag_p.bmp
0  2.245458 7.312031 0.348793  0.000008 0.707084 0.707129  0.328125 0.476563 0
0  2.395465 4.100306 3.371673  0.000007 0.821388 0.570369  0.503906 0.480469 0
0  3.035458 7.312033 0.348793  0.000006 0.707084 0.707129  0.328125 0.507813 0
#256256mgsmbag_p.bmp
0  3.035458 7.312033 0.348793  -0.000005 0.707085 0.707129  0.328125 0.507813 0
0  2.395465 4.100306 3.371673  0.000008 0.821389 0.570369  0.503906 0.480469 0
0  3.035465 4.100306 3.371673  -0.000000 0.821389 0.570369  0.503906 0.507813 0
#256256mgsmbag_p.bmp
0  2.395465 4.100306 3.371673  -0.000003 0.821393 0.570362  0.503906 0.480469 0
0  3.035468 3.807305 4.074630  -0.000007 0.707124 0.707089  0.535156 0.507813 0
0  3.035465 4.100306 3.371673  0.000001 0.821393 0.570362  0.503906 0.507813 0
#256256mgsmbag_p.bmp
0  0.635473 0.022307 5.496864  -1.000000 -0.000001 0.000001  0.320313 0.152344 0
0  0.635475 0.892368 8.266846  -1.000000 -0.000001 0.000001  0.292969 0.242188 0
0  0.635461 8.652285 4.526676  -1.000000 -0.000001 0.000001  0.039063 0.132813 0
#256256mgsmbag_p.bmp
0  0.635461 8.652285 4.526676  -1.000000 -0.000001 0.000001  0.039063 0.132813 0
0  0.635475 0.892368 8.266846  -1.000000 -0.000001 0.000001  0.292969 0.242188 0
0  0.635468 8.652418 10.576675  -1.000000 -0.000001 0.000001  0.039063 0.304688 0
#256256mgsmbag_p.bmp
0  0.635475 0.892368 8.266846  -1.000000 -0.000001 0.000001  0.292969 0.242188 0
0  0.635478 0.892418 10.576843  -1.000000 -0.000001 0.000001  0.292969 0.316406 0
0  0.635468 8.652418 10.576675  -1.000000 -0.000001 0.000001  0.039063 0.304688 0
#256256mgsmbag_p.bmp
0  3.812044 -1.610449 -0.524407  0.985010 0.000001 -0.172497  0.628906 0.628906 0
0  2.362035 -1.610441 -8.804405  0.985010 0.000001 -0.172497  0.398438 0.628906 0
0  3.812040 2.339550 -0.524403  0.985010 0.000001 -0.172497  0.628906 0.738281 0
#256256mgsmbag_p.bmp
0  3.812040 2.339550 -0.524403  0.985010 0.000001 -0.172497  0.628906 0.738281 0
0  2.362035 -1.610441 -8.804405  0.985010 0.000001 -0.172497  0.398438 0.628906 0
0  2.362030 4.029558 -8.804398  0.985010 0.000001 -0.172497  0.398438 0.785156 0
#256256mgsmbag_p.bmp
0  1.872026 4.029562 -12.874397  1.000000 0.000001 -0.000001  0.195313 0.824219 0
0  1.872031 -1.610437 -12.874405  1.000000 0.000001 -0.000001  0.195313 0.667969 0
0  1.872019 4.029572 -19.514400  1.000000 0.000001 -0.000001  0.011719 0.824219 0
#256256mgsmbag_p.bmp
0  1.872019 4.029572 -19.514400  1.000000 0.000001 -0.000001  0.011719 0.824219 0
0  1.872031 -1.610437 -12.874405  1.000000 0.000001 -0.000001  0.195313 0.667969 0
0  1.872025 -1.610430 -19.514404  1.000000 0.000001 -0.000001  0.011719 0.667969 0
#256256mgsmbag_p.bmp
0  2.362030 4.029558 -8.804398  0.780240 -0.000001 -0.625480  0.398438 0.785156 0
0  2.362035 -1.610441 -8.804405  0.780240 -0.000001 -0.625480  0.398438 0.628906 0
0  -0.127972 3.039561 -11.904396  0.780240 -0.000001 -0.625480  0.289063 0.757813 0
#256256mgsmbag_p.bmp
0  -0.127972 3.039561 -11.904396  0.780210 -0.000000 -0.625518  0.289063 0.757813 0
0  2.362035 -1.610441 -8.804405  0.780210 -0.000000 -0.625518  0.398438 0.628906 0
0  -0.127968 -1.610441 -11.904404  0.780210 -0.000000 -0.625518  0.289063 0.628906 0
#256256mgsmbag_p.bmp
0  -0.127972 3.039561 -11.904396  1.000000 0.000001 -0.000001  0.289063 0.757813 0
0  -0.127968 -1.610441 -11.904404  1.000000 0.000001 -0.000001  0.289063 0.628906 0
0  -0.127973 3.039561 -12.874397  1.000000 0.000001 -0.000001  0.265625 0.757813 0
#256256mgsmbag_p.bmp
0  -0.127973 3.039561 -12.874397  1.000000 0.000001 -0.000001  0.265625 0.757813 0
0  -0.127968 -1.610441 -11.904404  1.000000 0.000001 -0.000001  0.289063 0.628906 0
0  -0.127969 -1.610439 -12.874401  1.000000 0.000001 -0.000001  0.265625 0.628906 0
#256256mgsmbag_p.bmp
0  2.362041 2.199549 0.165599  0.000001 -0.000001 1.000000  0.589844 0.812500 0
0  -0.967959 2.199545 0.165603  0.000001 -0.000001 1.000000  0.589844 0.902344 0
0  2.362044 -1.610451 0.165596  0.000001 -0.000001 1.000000  0.691406 0.808594 0
#256256mgsmbag_p.bmp
0  2.362044 -1.610451 0.165596  0.000001 -0.000001 1.000000  0.691406 0.808594 0
0  -0.967959 2.199545 0.165603  0.000001 -0.000001 1.000000  0.589844 0.902344 0
0  -0.967955 -1.610454 0.165599  0.000001 -0.000001 1.000000  0.691406 0.902344 0
#256256mgsmbag_p.bmp
0  -4.287976 -1.610435 -19.514400  0.000001 -1.000000 -0.000001  0.007813 0.652344 0
0  1.872025 -1.610430 -19.514404  0.000001 -1.000000 -0.000001  0.050781 0.652344 0
0  -0.127969 -1.610439 -12.874401  0.000001 -1.000000 -0.000001  0.035156 0.605469 0
#256256mgsmbag_p.bmp
0  -0.127969 -1.610439 -12.874401  0.000001 -1.000000 -0.000001  0.035156 0.605469 0
0  1.872025 -1.610430 -19.514404  0.000001 -1.000000 -0.000001  0.050781 0.652344 0
0  1.872031 -1.610437 -12.874405  0.000001 -1.000000 -0.000001  0.050781 0.605469 0
#256256mgsmbag_p.bmp
0  -0.127969 -1.610439 -12.874401  0.000002 -0.000001 1.000000  0.250000 0.667969 0
0  1.872031 -1.610437 -12.874405  0.000002 -0.000001 1.000000  0.195313 0.667969 0
0  -0.127973 3.039561 -12.874397  0.000002 -0.000001 1.000000  0.250000 0.796875 0
#256256mgsmbag_p.bmp
0  -0.127973 3.039561 -12.874397  0.000001 -0.000001 1.000000  0.250000 0.796875 0
0  1.872031 -1.610437 -12.874405  0.000001 -0.000001 1.000000  0.195313 0.667969 0
0  1.872026 4.029562 -12.874397  0.000001 -0.000001 1.000000  0.195313 0.824219 0
#256256mgsmbag_p.bmp
0  2.362044 -1.610451 0.165596  0.424622 -0.000000 0.905371  0.691406 0.808594 0
0  3.812044 -1.610449 -0.524407  0.424622 -0.000000 0.905371  0.683594 0.769531 0
0  2.362041 2.199549 0.165599  0.424622 0.000000 0.905371  0.589844 0.812500 0
#256256mgsmbag_p.bmp
0  2.362041 2.199549 0.165599  0.424622 -0.000000 0.905371  0.589844 0.812500 0
0  3.812044 -1.610449 -0.524407  0.424622 0.000000 0.905371  0.683594 0.769531 0
0  3.812040 2.339550 -0.524403  0.424622 -0.000000 0.905371  0.570313 0.769531 0
#256256mgsmbag_p.bmp
0  -1.417955 -1.610456 0.755600  0.795326 0.000000 0.606182  0.710938 0.914063 0
0  -0.967955 -1.610454 0.165599  0.795326 0.000000 0.606182  0.691406 0.902344 0
0  -1.417959 2.079544 0.755603  0.795326 0.000000 0.606182  0.605469 0.914063 0
#256256mgsmbag_p.bmp
0  -1.417959 2.079544 0.755603  0.795413 0.000000 0.606068  0.605469 0.914063 0
0  -0.967955 -1.610454 0.165599  0.795413 0.000000 0.606068  0.691406 0.902344 0
0  -0.967959 2.199545 0.165603  0.795413 0.000000 0.606068  0.589844 0.902344 0
#256256mgsmbag_p.bmp
0  -10.937970 4.029545 -8.804386  -0.984891 -0.000000 -0.173177  0.398438 0.785156 0
0  -10.937963 -1.610454 -8.804390  -0.984891 0.000000 -0.173177  0.398438 0.628906 0
0  -12.397961 2.339535 -0.524388  -0.984891 -0.000000 -0.173177  0.628906 0.738281 0
#256256mgsmbag_p.bmp
0  -12.397961 2.339535 -0.524388  -0.984891 -0.000000 -0.173177  0.628906 0.738281 0
0  -10.937963 -1.610454 -8.804390  -0.984891 -0.000001 -0.173177  0.398438 0.628906 0
0  -12.397957 -1.610466 -0.524392  -0.984891 -0.000000 -0.173177  0.628906 0.628906 0
#256256mgsmbag_p.bmp
0  -10.457975 4.029551 -12.874386  -1.000000 -0.000001 0.000001  0.195313 0.824219 0
0  -10.457981 4.029558 -19.514385  -1.000000 -0.000001 0.000001  0.011719 0.824219 0
0  -10.457970 -1.610449 -12.874393  -1.000000 -0.000001 0.000001  0.195313 0.667969 0
#256256mgsmbag_p.bmp
0  -10.457970 -1.610449 -12.874393  -1.000000 -0.000001 0.000001  0.195313 0.667969 0
0  -10.457981 4.029558 -19.514385  -1.000000 -0.000001 0.000001  0.011719 0.824219 0
0  -10.457975 -1.610441 -19.514393  -1.000000 -0.000001 0.000001  0.011719 0.667969 0
#256256mgsmbag_p.bmp
0  -8.457968 -1.610449 -11.904396  -0.780001 0.000000 -0.625779  0.289063 0.628906 0
0  -10.937963 -1.610454 -8.804390  -0.780001 -0.000000 -0.625779  0.398438 0.628906 0
0  -8.457973 3.039551 -11.904388  -0.780001 -0.000000 -0.625779  0.289063 0.757813 0
#256256mgsmbag_p.bmp
0  -8.457973 3.039551 -11.904388  -0.780000 0.000000 -0.625779  0.289063 0.757813 0
0  -10.937963 -1.610454 -8.804390  -0.780000 0.000000 -0.625779  0.398438 0.628906 0
0  -10.937970 4.029545 -8.804386  -0.780000 0.000000 -0.625779  0.398438 0.785156 0
#256256mgsmbag_p.bmp
0  -8.457973 3.039551 -11.904388  -1.000000 -0.000001 -0.000000  0.289063 0.757813 0
0  -8.457973 3.039553 -12.874390  -1.000000 -0.000001 -0.000000  0.265625 0.757813 0
0  -8.457968 -1.610449 -11.904396  -1.000000 -0.000001 -0.000000  0.289063 0.628906 0
#256256mgsmbag_p.bmp
0  -8.457968 -1.610449 -11.904396  -1.000000 -0.000001 0.000002  0.289063 0.628906 0
0  -8.457973 3.039553 -12.874390  -1.000000 -0.000001 0.000002  0.265625 0.757813 0
0  -8.457970 -1.610447 -12.874393  -1.000000 -0.000001 0.000002  0.265625 0.628906 0
#256256mgsmbag_p.bmp
0  -10.937960 2.199536 0.165615  0.000002 -0.000002 1.000000  0.589844 0.812500 0
0  -10.937955 -1.610466 0.165607  0.000002 -0.000002 1.000000  0.691406 0.808594 0
0  -7.617959 2.199539 0.165607  0.000002 -0.000002 1.000000  0.589844 0.902344 0
#256256mgsmbag_p.bmp
0  -7.617959 2.199539 0.165607  0.000001 -0.000001 1.000000  0.589844 0.902344 0
0  -10.937955 -1.610466 0.165607  0.000001 -0.000001 1.000000  0.691406 0.808594 0
0  -7.617956 -1.610462 0.165603  0.000001 -0.000001 1.000000  0.691406 0.902344 0
#256256mgsmbag_p.bmp
0  -10.457975 4.029551 -12.874386  0.000001 -0.000001 1.000000  0.195313 0.824219 0
0  -10.457970 -1.610449 -12.874393  0.000001 -0.000001 1.000000  0.195313 0.667969 0
0  -8.457973 3.039553 -12.874390  0.000001 -0.000001 1.000000  0.250000 0.796875 0
#256256mgsmbag_p.bmp
0  -8.457973 3.039553 -12.874390  0.000000 -0.000001 1.000000  0.250000 0.796875 0
0  -10.457970 -1.610449 -12.874393  0.000000 -0.000001 1.000000  0.195313 0.667969 0
0  -8.457970 -1.610447 -12.874393  0.000000 -0.000001 1.000000  0.250000 0.667969 0
#256256mgsmbag_p.bmp
0  -12.397961 2.339535 -0.524388  -0.424513 0.000000 0.905422  0.570313 0.769531 0
0  -12.397957 -1.610466 -0.524392  -0.424513 0.000000 0.905422  0.683594 0.769531 0
0  -10.937960 2.199536 0.165615  -0.424513 -0.000000 0.905422  0.589844 0.812500 0
#256256mgsmbag_p.bmp
0  -10.937960 2.199536 0.165615  -0.424510 -0.000000 0.905423  0.589844 0.812500 0
0  -12.397957 -1.610466 -0.524392  -0.424510 -0.000002 0.905423  0.683594 0.769531 0
0  -10.937955 -1.610466 0.165607  -0.424510 -0.000000 0.905423  0.691406 0.808594 0
#256256mgsmbag_p.bmp
0  -7.167955 -1.610462 0.755603  -0.795529 -0.000001 0.605916  0.710938 0.914063 0
0  -7.167959 2.079539 0.755607  -0.795529 -0.000001 0.605916  0.605469 0.914063 0
0  -7.617956 -1.610462 0.165603  -0.795529 -0.000001 0.605916  0.691406 0.902344 0
#256256mgsmbag_p.bmp
0  -7.617956 -1.610462 0.165603  -0.795413 -0.000001 0.606068  0.691406 0.902344 0
0  -7.167959 2.079539 0.755607  -0.795413 -0.000001 0.606068  0.605469 0.914063 0
0  -7.617959 2.199539 0.165607  -0.795413 -0.000001 0.606068  0.589844 0.902344 0
#256256mgsmbag_p.bmp
0  1.305458 4.641459 -2.417256  0.000002 -0.866087 0.499893  0.226563 0.617188 0
0  1.305457 3.995148 -3.534791  -0.000007 -0.866087 0.499893  0.160156 0.617188 0
0  1.995458 4.641460 -2.417256  -0.000007 -0.866087 0.499893  0.226563 0.652344 0
#256256mgsmbag_p.bmp
0  1.995458 4.641460 -2.417256  0.000003 -0.866111 0.499851  0.226563 0.652344 0
0  1.305457 3.995148 -3.534791  0.000003 -0.866111 0.499851  0.160156 0.617188 0
0  1.995457 3.995150 -3.534791  0.000003 -0.866111 0.499851  0.160156 0.652344 0
#256256mgsmbag_p.bmp
0  1.305456 5.758993 -3.063569  0.000000 0.499811 0.866134  0.160156 0.617188 0
0  1.305458 4.641459 -2.417256  0.000000 0.499811 0.866134  0.226563 0.617188 0
0  1.995456 5.758993 -3.063569  -0.000000 0.499811 0.866134  0.160156 0.652344 0
#256256mgsmbag_p.bmp
0  1.995456 5.758993 -3.063569  -0.000005 0.499812 0.866134  0.160156 0.652344 0
0  1.305458 4.641459 -2.417256  -0.000005 0.499812 0.866134  0.226563 0.617188 0
0  1.995458 4.641460 -2.417256  -0.000005 0.499812 0.866134  0.226563 0.652344 0
#256256mgsmbag_p.bmp
0  1.305455 5.112680 -4.181099  -0.000003 0.866253 -0.499605  0.089844 0.617188 0
0  1.305456 5.758993 -3.063569  0.000011 0.866253 -0.499605  0.160156 0.617188 0
0  1.995455 5.112680 -4.181103  0.000011 0.866253 -0.499605  0.089844 0.652344 0
#256256mgsmbag_p.bmp
0  1.995455 5.112680 -4.181103  0.000000 0.866302 -0.499520  0.089844 0.652344 0
0  1.305456 5.758993 -3.063569  -0.000000 0.866302 -0.499520  0.160156 0.617188 0
0  1.995456 5.758993 -3.063569  -0.000000 0.866302 -0.499520  0.160156 0.652344 0
#256256mgsmbag_p.bmp
0  1.305457 3.995148 -3.534791  0.000002 -0.500640 -0.865656  0.160156 0.617188 0
0  1.305455 5.112680 -4.181099  0.000002 -0.500640 -0.865656  0.089844 0.617188 0
0  1.995457 3.995150 -3.534791  0.000002 -0.500640 -0.865656  0.160156 0.652344 0
#256256mgsmbag_p.bmp
0  1.995457 3.995150 -3.534791  -0.000005 -0.500642 -0.865654  0.160156 0.652344 0
0  1.305455 5.112680 -4.181099  -0.000005 -0.500642 -0.865654  0.089844 0.617188 0
0  1.995455 5.112680 -4.181103  -0.000005 -0.500642 -0.865654  0.089844 0.652344 0
#256256mgsmbag_p.bmp
0  1.292034 3.729553 -4.944397  1.000000 0.000001 -0.000001  0.234375 0.597656 0
0  1.292031 6.499552 -4.454396  1.000000 0.000001 -0.000001  0.234375 0.519531 0
0  1.292037 3.239552 -2.164399  1.000000 0.000001 -0.000001  0.156250 0.597656 0
#256256mgsmbag_p.bmp
0  1.292037 3.239552 -2.164399  1.000000 0.000001 -0.000001  0.156250 0.597656 0
0  1.292031 6.499552 -4.454396  1.000000 0.000001 -0.000001  0.234375 0.519531 0
0  1.292035 6.019548 -1.674397  1.000000 0.000001 -0.000001  0.156250 0.519531 0
#256256mgsmbag_p.bmp
0  -1.527965 6.019547 -1.674393  -1.000000 -0.000001 0.000001  0.156250 0.519531 0
0  -1.527968 6.499550 -4.454392  -1.000000 -0.000001 0.000001  0.234375 0.519531 0
0  -1.527963 3.239548 -2.164395  -1.000000 -0.000001 0.000001  0.156250 0.597656 0
#256256mgsmbag_p.bmp
0  -1.527963 3.239548 -2.164395  -1.000000 -0.000001 0.000001  0.156250 0.597656 0
0  -1.527968 6.499550 -4.454392  -1.000000 -0.000001 0.000001  0.234375 0.519531 0
0  -1.527966 3.729552 -4.944397  -1.000000 -0.000001 0.000001  0.234375 0.597656 0
#256256mgsmbag_p.bmp
0  -1.527968 6.499550 -4.454392  -0.000001 0.174193 -0.984712  0.234375 0.519531 0
0  1.292031 6.499552 -4.454396  -0.000001 0.174193 -0.984712  0.234375 0.441406 0
0  -1.527966 3.729552 -4.944397  -0.000001 0.174193 -0.984712  0.308594 0.519531 0
#256256mgsmbag_p.bmp
0  -1.527966 3.729552 -4.944397  -0.000000 0.174192 -0.984712  0.308594 0.519531 0
0  1.292031 6.499552 -4.454396  -0.000000 0.174192 -0.984712  0.234375 0.441406 0
0  1.292034 3.729553 -4.944397  -0.000000 0.174192 -0.984712  0.308594 0.441406 0
#256256mgsmbag_p.bmp
0  -1.527963 3.239548 -2.164395  0.000001 -0.173584 0.984819  0.078125 0.519531 0
0  1.292037 3.239552 -2.164399  0.000001 -0.173584 0.984819  0.078125 0.441406 0
0  -1.527965 6.019547 -1.674393  0.000001 -0.173584 0.984819  0.156250 0.519531 0
#256256mgsmbag_p.bmp
0  -1.527965 6.019547 -1.674393  0.000001 -0.173584 0.984819  0.156250 0.519531 0
0  1.292037 3.239552 -2.164399  0.000001 -0.173584 0.984819  0.078125 0.441406 0
0  1.292035 6.019548 -1.674397  0.000001 -0.173584 0.984819  0.156250 0.441406 0
#256256mgsmbag_p.bmp
0  -1.527965 6.019547 -1.674393  -0.000131 0.979755 0.200200  0.156250 0.519531 0
0  1.292035 6.019548 -1.674397  -0.000130 0.979755 0.200200  0.156250 0.441406 0
0  -1.527968 6.499550 -4.454392  -0.000000 0.979755 0.200200  0.234375 0.519531 0
#256256mgsmbag_p.bmp
0  -1.527968 6.499550 -4.454392  -0.000129 0.979755 0.200200  0.234375 0.519531 0
0  1.292035 6.019548 -1.674397  -0.000132 0.979755 0.200200  0.156250 0.441406 0
0  1.292031 6.499552 -4.454396  -0.000131 0.979755 0.200200  0.234375 0.441406 0
#256256mgsmbag_p.bmp
0  1.805455 5.177265 -4.434735  -0.998536 0.027023 0.046863  0.343750 0.601563 0
0  1.785456 4.281019 -4.318356  -0.998536 0.027022 0.046862  0.328125 0.570313 0
0  1.845454 5.896248 -3.895230  -0.998536 0.027023 0.046863  0.375000 0.613281 0
#256256mgsmbag_p.bmp
0  1.845454 5.896248 -3.895230  -0.998532 0.027233 0.046833  0.375000 0.613281 0
0  1.785456 4.281019 -4.318356  -0.998532 0.027233 0.046833  0.328125 0.570313 0
0  1.805457 3.749974 -3.604710  -0.998531 0.027233 0.046833  0.339844 0.535156 0
#256256mgsmbag_p.bmp
0  3.035468 3.807305 4.074630  1.000000 0.000001 -0.000001  0.640625 0.714844 0
0  3.035469 3.102961 4.368568  1.000000 0.000001 -0.000001  0.656250 0.742188 0
0  3.035469 2.113034 3.378395  1.000000 0.000001 -0.000001  0.710938 0.742188 0
#256256mgsmbag_p.bmp
0  3.035469 2.113034 3.378395  1.000000 0.000000 0.000000  0.710938 0.742188 0
0  3.035469 3.102961 4.368568  1.000000 0.000000 0.000000  0.656250 0.742188 0
0  3.035469 2.406969 4.082736  1.000000 0.000000 0.000000  0.683594 0.753906 0
#256256mgsmbag_p.bmp
0  3.035475 -1.747711 4.526897  -1.000000 -0.000001 0.000001  0.871094 0.171875 0
0  3.035467 4.292288 4.526767  -1.000000 -0.000001 0.000001  0.871094 0.027344 0
0  3.035472 -1.747763 2.196899  -1.000000 -0.000001 0.000001  0.929688 0.171875 0
#256256mgsmbag_p.bmp
0  3.035472 -1.747763 2.196899  -1.000000 -0.000001 0.000001  0.929688 0.171875 0
0  3.035467 4.292288 4.526767  -1.000000 -0.000001 0.000001  0.871094 0.027344 0
0  3.035464 4.292238 2.196765  -1.000000 -0.000001 0.000001  0.929688 0.027344 0
#256256mgsmbag_p.bmp
0  5.095464 4.292240 2.196765  1.000000 0.000001 -0.000001  0.929688 0.027344 0
0  5.095466 4.292292 4.526763  1.000000 0.000001 -0.000001  0.871094 0.027344 0
0  5.095471 -1.747759 2.196895  1.000000 0.000001 -0.000001  0.929688 0.171875 0
#256256mgsmbag_p.bmp
0  5.095471 -1.747759 2.196895  1.000000 0.000001 -0.000001  0.929688 0.171875 0
0  5.095466 4.292292 4.526763  1.000000 0.000001 -0.000001  0.871094 0.027344 0
0  5.095474 -1.747709 4.526897  1.000000 0.000001 -0.000001  0.871094 0.171875 0
#256256mgsmbag_p.bmp
0  5.095474 -1.747709 4.526897  0.000001 -1.000000 0.000021  0.871094 0.199219 0
0  3.035475 -1.747711 4.526897  0.000001 -1.000000 0.000021  0.871094 0.171875 0
0  5.095471 -1.747759 2.196895  0.000001 -1.000000 0.000021  0.929688 0.199219 0
#256256mgsmbag_p.bmp
0  5.095471 -1.747759 2.196895  0.000002 -1.000000 0.000022  0.929688 0.199219 0
0  3.035475 -1.747711 4.526897  0.000002 -1.000000 0.000022  0.871094 0.171875 0
0  3.035472 -1.747763 2.196899  0.000002 -1.000000 0.000022  0.929688 0.171875 0
#256256mgsmbag_p.bmp
0  3.035464 4.292238 2.196765  -0.000001 1.000000 -0.000021  0.929688 0.027344 0
0  3.035467 4.292288 4.526767  -0.000001 1.000000 -0.000021  0.929688 0.007813 0
0  5.095464 4.292240 2.196765  -0.000001 1.000000 -0.000021  0.980469 0.027344 0
#256256mgsmbag_p.bmp
0  5.095464 4.292240 2.196765  -0.000002 1.000000 -0.000022  0.980469 0.027344 0
0  3.035467 4.292288 4.526767  -0.000002 1.000000 -0.000022  0.929688 0.007813 0
0  5.095466 4.292292 4.526763  -0.000002 1.000000 -0.000022  0.980469 0.007813 0
#256256mgsmbag_p.bmp
0  3.035472 -1.747763 2.196899  -0.000002 -0.000022 -1.000000  0.929688 0.171875 0
0  3.035464 4.292238 2.196765  -0.000002 -0.000022 -1.000000  0.929688 0.027344 0
0  5.095471 -1.747759 2.196895  -0.000002 -0.000022 -1.000000  0.980469 0.171875 0
#256256mgsmbag_p.bmp
0  5.095471 -1.747759 2.196895  -0.000000 -0.000021 -1.000000  0.980469 0.171875 0
0  3.035464 4.292238 2.196765  -0.000000 -0.000021 -1.000000  0.929688 0.027344 0
0  5.095464 4.292240 2.196765  -0.000000 -0.000021 -1.000000  0.980469 0.027344 0
#256256mgsmbag_p.bmp
0  3.665479 -5.117710 4.526973  -1.000000 -0.000001 0.000002  0.687500 0.226563 0
0  3.665475 -1.747711 4.526897  -1.000000 -0.000001 0.000002  0.769531 0.226563 0
0  3.665477 -4.067730 3.616951  -1.000000 -0.000001 0.000002  0.714844 0.250000 0
#256256mgsmbag_p.bmp
0  3.665477 -4.067730 3.616951  -1.000000 -0.000001 0.000001  0.714844 0.250000 0
0  3.665475 -1.747711 4.526897  -1.000000 -0.000001 0.000001  0.769531 0.226563 0
0  3.665474 -1.747730 3.616897  -1.000000 -0.000001 0.000001  0.769531 0.250000 0
#256256mgsmbag_p.bmp
0  4.455478 -5.117709 4.526969  1.000000 0.000001 -0.000001  0.687500 0.226563 0
0  4.455476 -4.067730 3.616947  1.000000 0.000001 -0.000001  0.714844 0.250000 0
0  4.455474 -1.747709 4.526897  1.000000 0.000001 -0.000001  0.769531 0.226563 0
#256256mgsmbag_p.bmp
0  4.455474 -1.747709 4.526897  1.000000 0.000001 -0.000001  0.769531 0.226563 0
0  4.455476 -4.067730 3.616947  1.000000 0.000001 -0.000001  0.714844 0.250000 0
0  4.455473 -1.747730 3.616897  1.000000 0.000001 -0.000001  0.769531 0.250000 0
#256256mgsmbag_p.bmp
0  3.665477 -4.067730 3.616951  -0.000005 -0.000023 -1.000000  0.714844 0.250000 0
0  3.665474 -1.747730 3.616897  -0.000005 -0.000023 -1.000000  0.769531 0.250000 0
0  4.455476 -4.067730 3.616947  -0.000005 -0.000023 -1.000000  0.714844 0.269531 0
#256256mgsmbag_p.bmp
0  4.455476 -4.067730 3.616947  0.000000 -0.000021 -1.000000  0.714844 0.269531 0
0  3.665474 -1.747730 3.616897  0.000000 -0.000021 -1.000000  0.769531 0.250000 0
0  4.455473 -1.747730 3.616897  0.000000 -0.000021 -1.000000  0.769531 0.269531 0
#256256mgsmbag_p.bmp
0  4.455478 -5.117709 4.526969  -0.000003 -0.654947 -0.755675  0.679688 0.269531 0
0  3.665479 -5.117710 4.526973  -0.000003 -0.654947 -0.755675  0.679688 0.250000 0
0  4.455476 -4.067730 3.616947  -0.000003 -0.654947 -0.755675  0.714844 0.269531 0
#256256mgsmbag_p.bmp
0  4.455476 -4.067730 3.616947  -0.000003 -0.654947 -0.755675  0.714844 0.269531 0
0  3.665479 -5.117710 4.526973  -0.000003 -0.654947 -0.755675  0.679688 0.250000 0
0  3.665477 -4.067730 3.616951  -0.000003 -0.654947 -0.755675  0.714844 0.250000 0
#256256mgsmbag_p.bmp
0  3.665462 7.372290 4.526699  -1.000000 -0.000001 0.000000  0.687500 0.226563 0
0  3.665463 6.322269 3.616722  -1.000000 -0.000001 0.000000  0.714844 0.250000 0
0  3.665466 4.292290 4.526767  -1.000000 -0.000001 0.000000  0.769531 0.226563 0
#256256mgsmbag_p.bmp
0  3.665466 4.292290 4.526767  -1.000000 -0.000001 0.000001  0.769531 0.226563 0
0  3.665463 6.322269 3.616722  -1.000000 -0.000001 0.000001  0.714844 0.250000 0
0  3.665465 4.292269 3.616767  -1.000000 -0.000001 0.000001  0.769531 0.250000 0
#256256mgsmbag_p.bmp
0  4.455462 7.372290 4.526699  1.000000 0.000001 -0.000000  0.687500 0.226563 0
0  4.455466 4.292290 4.526763  1.000000 0.000001 -0.000000  0.769531 0.226563 0
0  4.455463 6.322269 3.616722  1.000000 0.000001 -0.000000  0.714844 0.250000 0
#256256mgsmbag_p.bmp
0  4.455463 6.322269 3.616722  1.000000 0.000001 -0.000001  0.714844 0.250000 0
0  4.455466 4.292290 4.526763  1.000000 0.000001 -0.000001  0.769531 0.226563 0
0  4.455465 4.292271 3.616764  1.000000 0.000001 -0.000001  0.769531 0.250000 0
#256256mgsmbag_p.bmp
0  3.665463 6.322269 3.616722  0.000000 -0.000023 -1.000000  0.714844 0.250000 0
0  4.455463 6.322269 3.616722  0.000000 -0.000023 -1.000000  0.714844 0.269531 0
0  3.665465 4.292269 3.616767  0.000000 -0.000023 -1.000000  0.769531 0.250000 0
#256256mgsmbag_p.bmp
0  3.665465 4.292269 3.616767  -0.000005 -0.000021 -1.000000  0.769531 0.250000 0
0  4.455463 6.322269 3.616722  -0.000005 -0.000021 -1.000000  0.714844 0.269531 0
0  4.455465 4.292271 3.616764  -0.000005 -0.000021 -1.000000  0.769531 0.269531 0
#256256mgsmbag_p.bmp
0  4.455462 7.372290 4.526699  0.000000 0.654189 -0.756331  0.679688 0.269531 0
0  4.455463 6.322269 3.616722  0.000000 0.654189 -0.756331  0.714844 0.269531 0
0  3.665462 7.372290 4.526699  0.000000 0.654189 -0.756331  0.679688 0.250000 0
#256256mgsmbag_p.bmp
0  3.665462 7.372290 4.526699  0.000000 0.654080 -0.756425  0.679688 0.250000 0
0  4.455463 6.322269 3.616722  0.000000 0.654080 -0.756425  0.714844 0.269531 0
0  3.665463 6.322269 3.616722  0.000000 0.654080 -0.756425  0.714844 0.250000 0
#256256mgsmbag_p.bmp
0  4.065461 8.652290 4.526668  -0.000002 -0.000022 -1.000000  0.039063 0.007813 0
0  1.305474 -1.627714 4.526897  -0.000002 -0.000022 -1.000000  0.375000 0.097656 0
0  0.635461 8.652285 4.526676  -0.000002 -0.000022 -1.000000  0.039063 0.132813 0
#256256mgsmbag_p.bmp
0  0.635461 8.652285 4.526676  -0.000004 -0.000022 -1.000000  0.039063 0.132813 0
0  1.305474 -1.627714 4.526897  -0.000004 -0.000022 -1.000000  0.375000 0.097656 0
0  0.635473 -1.137714 4.526889  -0.000004 -0.000022 -1.000000  0.359375 0.121094 0
#256256mgsmbag_p.bmp
0  1.305492 -10.247592 10.107086  -1.000000 -0.000001 0.000001  0.660156 0.316406 0
0  1.305478 0.402409 10.106857  -1.000000 -0.000001 0.000001  0.316406 0.316406 0
0  1.305491 -10.247606 9.427086  -1.000000 -0.000001 0.000001  0.660156 0.292969 0
#256256mgsmbag_p.bmp
0  1.305491 -10.247606 9.427086  -1.000000 -0.000001 0.000001  0.660156 0.292969 0
0  1.305478 0.402409 10.106857  -1.000000 -0.000001 0.000001  0.316406 0.316406 0
0  1.305476 0.402369 8.266853  -1.000000 -0.000001 0.000001  0.316406 0.257813 0
#256256mgsmbag_p.bmp
0  4.065488 -12.127691 5.357124  -0.000003 -0.690956 0.722897  0.730469 0.007813 0
0  1.875488 -10.247656 7.107086  -0.000002 -0.690956 0.722897  0.812500 0.078125 0
0  1.305488 -12.127695 5.357128  -0.000003 -0.690956 0.722897  0.730469 0.097656 0
#256256mgsmbag_p.bmp
0  1.305488 -12.127695 5.357128  -0.000007 -0.690955 0.722898  0.730469 0.097656 0
0  1.875488 -10.247656 7.107086  -0.000007 -0.690955 0.722898  0.812500 0.078125 0
0  1.305488 -10.247658 7.107086  0.000002 -0.690955 0.722898  0.812500 0.097656 0
#256256mgsmbag_p.bmp
0  2.925493 -11.607590 10.107117  -0.640027 -0.768353 -0.000000  0.730469 0.316406 0
0  1.305492 -10.247592 10.107086  -0.640027 -0.768353 -0.000000  0.660156 0.316406 0
0  2.925493 -11.607605 9.427116  -0.640027 -0.768353 -0.000000  0.730469 0.292969 0
#256256mgsmbag_p.bmp
0  2.925493 -11.607605 9.427116  -0.639991 -0.768383 -0.000001  0.730469 0.292969 0
0  1.305492 -10.247592 10.107086  -0.639991 -0.768383 -0.000001  0.660156 0.316406 0
0  1.305491 -10.247606 9.427086  -0.639991 -0.768383 0.000016  0.660156 0.292969 0
#256256mgsmbag_p.bmp
0  2.925491 -10.247604 9.427086  0.000001 -1.000000 0.000022  0.796875 0.187500 0
0  1.305491 -10.247606 9.427086  0.000001 -1.000000 0.000022  0.746094 0.187500 0
0  2.925488 -10.247656 7.107086  0.000001 -1.000000 0.000022  0.796875 0.113281 0
#256256mgsmbag_p.bmp
0  2.925488 -10.247656 7.107086  0.000001 -1.000000 0.000022  0.796875 0.113281 0
0  1.305491 -10.247606 9.427086  0.000001 -1.000000 0.000022  0.746094 0.187500 0
0  1.305488 -10.247658 7.107086  0.000001 -1.000000 0.000022  0.746094 0.113281 0
#256256mgsmbag_p.bmp
0  3.155492 -10.247598 9.747086  -0.707045 0.000010 0.707169  0.957031 0.992188 0
0  1.875490 -10.247627 8.457085  -0.707045 0.000010 0.707169  0.890625 0.992188 0
0  3.155504 -20.087597 9.747299  -0.707045 0.000010 0.707169  0.957031 0.628906 0
#256256mgsmbag_p.bmp
0  3.155504 -20.087597 9.747299  -0.707044 0.000010 0.707169  0.957031 0.628906 0
0  1.875490 -10.247627 8.457085  -0.707044 0.000010 0.707169  0.890625 0.992188 0
0  1.875502 -20.087627 8.457298  -0.707044 0.000015 0.707169  0.890625 0.628906 0
#256256mgsmbag_p.bmp
0  1.875490 -10.247627 8.457085  -1.000000 -0.000001 0.000001  0.890625 0.992188 0
0  1.875488 -10.247667 6.637084  -1.000000 -0.000001 0.000001  0.828125 0.992188 0
0  1.875502 -20.087627 8.457298  -1.000000 -0.000001 0.000001  0.890625 0.628906 0
#256256mgsmbag_p.bmp
0  1.875502 -20.087627 8.457298  -1.000000 -0.000001 0.000001  0.890625 0.628906 0
0  1.875488 -10.247667 6.637084  -1.000000 -0.000001 0.000001  0.828125 0.992188 0
0  1.875500 -20.087667 6.637302  -1.000000 -0.000001 0.000001  0.828125 0.628906 0
#256256mgsmbag_p.bmp
0  1.875488 -10.247667 6.637084  -0.707107 -0.000017 -0.707107  0.828125 0.992188 0
0  3.155487 -10.247693 5.357086  -0.707107 -0.000017 -0.707107  0.765625 0.992188 0
0  1.875500 -20.087667 6.637302  -0.707107 -0.000017 -0.707107  0.828125 0.628906 0
#256256mgsmbag_p.bmp
0  1.875500 -20.087667 6.637302  -0.707108 -0.000016 -0.707106  0.828125 0.628906 0
0  3.155487 -10.247693 5.357086  -0.707108 -0.000016 -0.707106  0.765625 0.992188 0
0  3.155499 -20.087694 5.357299  -0.707108 -0.000016 -0.707106  0.765625 0.628906 0
#256256mgsmbag_p.bmp
0  1.875502 -20.087627 8.457298  0.000002 -1.000000 0.000021  0.722656 0.496094 0
0  1.875500 -20.087667 6.637302  0.000002 -1.000000 0.000021  0.656250 0.496094 0
0  3.155504 -20.087597 9.747299  0.000002 -1.000000 0.000021  0.765625 0.453125 0
#256256mgsmbag_p.bmp
0  3.155504 -20.087597 9.747299  0.000001 -1.000000 0.000022  0.765625 0.453125 0
0  1.875500 -20.087667 6.637302  0.000001 -1.000000 0.000022  0.656250 0.496094 0
0  3.155499 -20.087694 5.357299  0.000001 -1.000000 0.000022  0.613281 0.453125 0
#256256mgsmbag_p.bmp
0  4.065488 -12.127691 5.357124  0.000002 -0.690956 0.722897  0.730469 0.007813 0
0  6.835488 -12.127687 5.357120  0.000003 -0.690956 0.722897  0.730469 0.097656 0
0  6.265488 -10.247651 7.107082  0.000002 -0.690956 0.722897  0.812500 0.078125 0
#256256mgsmbag_p.bmp
0  6.265488 -10.247651 7.107082  0.000007 -0.690955 0.722898  0.812500 0.078125 0
0  6.835488 -12.127687 5.357120  0.000008 -0.690955 0.722898  0.730469 0.097656 0
0  6.835488 -10.247650 7.107078  0.000007 -0.690955 0.722898  0.812500 0.097656 0
#256256mgsmbag_p.bmp
0  5.195494 -11.607586 10.107109  0.640032 -0.768348 -0.000001  0.730469 0.316406 0
0  5.195493 -11.607601 9.427109  0.640033 -0.768348 -0.000001  0.730469 0.292969 0
0  6.835492 -10.247584 10.107079  0.640032 -0.768348 -0.000001  0.660156 0.316406 0
#256256mgsmbag_p.bmp
0  6.835492 -10.247584 10.107079  0.640033 -0.768347 -0.000001  0.660156 0.316406 0
0  5.195493 -11.607601 9.427109  0.640033 -0.768347 0.000016  0.730469 0.292969 0
0  6.835491 -10.247600 9.427078  0.640033 -0.768347 -0.000001  0.660156 0.292969 0
#256256mgsmbag_p.bmp
0  6.835488 -12.127687 5.357120  1.000000 0.000000 -0.000001  0.722656 0.160156 0
0  6.835487 -11.577706 4.527111  1.000000 0.000000 -0.000001  0.707031 0.132813 0
0  6.835488 -10.247650 7.107078  1.000000 0.000000 -0.000001  0.660156 0.218750 0
#256256mgsmbag_p.bmp
0  6.835488 -10.247650 7.107078  1.000000 0.000001 -0.000001  0.660156 0.218750 0
0  6.835487 -11.577706 4.527111  1.000000 0.000001 -0.000001  0.707031 0.132813 0
0  6.835474 -1.627706 4.526893  1.000000 0.000001 -0.000001  0.382813 0.132813 0
#256256mgsmbag_p.bmp
0  5.195491 -10.247602 9.427086  0.000001 -1.000000 0.000022  0.796875 0.187500 0
0  5.195487 -10.247652 7.107082  0.000001 -1.000000 0.000022  0.796875 0.113281 0
0  6.835491 -10.247600 9.427078  0.000001 -1.000000 0.000022  0.746094 0.187500 0
#256256mgsmbag_p.bmp
0  6.835491 -10.247600 9.427078  0.000001 -1.000000 0.000021  0.746094 0.187500 0
0  5.195487 -10.247652 7.107082  0.000001 -1.000000 0.000021  0.796875 0.113281 0
0  6.835488 -10.247650 7.107078  0.000001 -1.000000 0.000021  0.746094 0.113281 0
#256256mgsmbag_p.bmp
0  4.975491 -10.247595 9.747086  0.707107 0.000016 0.707106  0.957031 0.992188 0
0  4.975504 -20.087595 9.747299  0.707107 0.000016 0.707106  0.957031 0.628906 0
0  6.265490 -10.247622 8.457085  0.707107 0.000016 0.707106  0.890625 0.992188 0
#256256mgsmbag_p.bmp
0  6.265490 -10.247622 8.457085  0.707108 0.000016 0.707106  0.890625 0.992188 0
0  4.975504 -20.087595 9.747299  0.707108 0.000016 0.707106  0.957031 0.628906 0
0  6.265501 -20.087622 8.457298  0.707108 0.000016 0.707106  0.890625 0.628906 0
#256256mgsmbag_p.bmp
0  6.265490 -10.247622 8.457085  1.000000 0.000001 -0.000001  0.890625 0.992188 0
0  6.265501 -20.087622 8.457298  1.000000 0.000001 -0.000001  0.890625 0.628906 0
0  6.265488 -10.247662 6.637081  1.000000 0.000001 -0.000001  0.828125 0.992188 0
#256256mgsmbag_p.bmp
0  6.265488 -10.247662 6.637081  1.000000 0.000001 -0.000001  0.828125 0.992188 0
0  6.265501 -20.087622 8.457298  1.000000 0.000001 -0.000001  0.890625 0.628906 0
0  6.265500 -20.087662 6.637294  1.000000 0.000001 -0.000001  0.828125 0.628906 0
#256256mgsmbag_p.bmp
0  6.265488 -10.247662 6.637081  0.707168 0.000000 -0.707045  0.828125 0.992188 0
0  6.265500 -20.087662 6.637294  0.707168 0.000000 -0.707045  0.828125 0.628906 0
0  4.975486 -10.247691 5.357082  0.707168 -0.000015 -0.707045  0.765625 0.992188 0
#256256mgsmbag_p.bmp
0  4.975486 -10.247691 5.357082  0.707202 0.000001 -0.707012  0.765625 0.992188 0
0  6.265500 -20.087662 6.637294  0.707202 0.000001 -0.707012  0.828125 0.628906 0
0  4.975499 -20.087692 5.357296  0.707202 0.000000 -0.707012  0.765625 0.628906 0
#256256mgsmbag_p.bmp
0  6.265501 -20.087622 8.457298  0.000001 -1.000000 0.000021  0.722656 0.496094 0
0  4.975504 -20.087595 9.747299  0.000001 -1.000000 0.000021  0.765625 0.453125 0
0  6.265500 -20.087662 6.637294  0.000001 -1.000000 0.000021  0.656250 0.496094 0
#256256mgsmbag_p.bmp
0  6.265500 -20.087662 6.637294  0.000002 -1.000000 0.000023  0.656250 0.496094 0
0  4.975504 -20.087595 9.747299  0.000002 -1.000000 0.000023  0.765625 0.453125 0
0  4.975499 -20.087692 5.357296  0.000002 -1.000000 0.000023  0.613281 0.453125 0
#256256mgsmbag_p.bmp
0  2.362044 -1.610451 0.165596  0.000001 -1.000000 -0.000001  0.054688 0.519531 0
0  2.362035 -1.610441 -8.804405  0.000001 -1.000000 -0.000001  0.054688 0.578125 0
0  3.812044 -1.610449 -0.524407  0.000001 -1.000000 -0.000001  0.062500 0.523438 0
#256256mgsmbag_p.bmp
0  -0.967959 2.199545 0.165603  -0.000184 0.979680 0.200565  0.589844 0.902344 0
0  -4.287959 2.079540 0.755607  -0.000184 0.979680 0.200565  0.605469 0.992188 0
0  -1.417959 2.079544 0.755603  -0.000184 0.979680 0.200565  0.605469 0.914063 0
#256256mgsmbag_p.bmp
0  -7.617956 -1.610462 0.165603  0.000001 -1.000000 -0.000001  0.031250 0.519531 0
0  -4.287955 -1.610460 0.755603  0.000001 -1.000000 -0.000001  0.007813 0.511719 0
0  -7.167955 -1.610462 0.755603  0.000001 -1.000000 -0.000001  0.027344 0.511719 0
#256256mgsmbag_p.bmp
0  3.075454 5.896250 -3.895234  1.000000 0.000001 0.000000  0.375000 0.613281 0
0  3.075456 4.281021 -4.318360  1.000000 0.000001 0.000000  0.328125 0.570313 0
0  3.075455 5.177267 -4.434735  1.000000 0.000001 0.000000  0.343750 0.601563 0
#256256mgsmbag_p.bmp
0  3.075458 7.194103 0.689849  1.000000 0.000001 -0.000001  0.554688 0.558594 0
0  3.075456 7.562000 -0.713128  1.000000 0.000001 -0.000001  0.515625 0.601563 0
0  3.075457 7.667278 0.071865  1.000000 0.000001 -0.000001  0.546875 0.589844 0
#256256mgsmbag_p.bmp
0  2.045456 7.561998 -0.713128  -0.998539 0.026987 0.046807  0.515625 0.601563 0
0  2.095458 7.194103 0.689853  -0.998539 0.026987 0.046807  0.554688 0.558594 0
0  2.085457 7.667276 0.071865  -0.998539 0.026987 0.046808  0.546875 0.589844 0
#256256mgsmbag_p.bmp
0  2.395465 3.110379 2.381500  -0.999881 -0.010895 0.010896  0.707031 0.687500 0
0  2.245458 7.312031 0.348793  -0.999881 -0.010895 0.010896  0.640625 0.511719 0
0  2.245458 6.126783 -0.828064  -0.999881 -0.010895 0.010896  0.707031 0.511719 0
#256256mgsmbag_p.bmp
0  1.305492 -10.247592 10.107086  0.000003 0.000021 1.000000  0.660156 0.316406 0
0  4.065478 0.402413 10.106850  0.000003 0.000021 1.000000  0.316406 0.406250 0
0  1.305478 0.402409 10.106857  0.000003 0.000021 1.000000  0.316406 0.316406 0
#256256mgsmbag_p.bmp
0  2.925491 -10.247604 9.427086  0.000000 -0.000022 -1.000000  0.796875 0.187500 0
0  2.925493 -11.607605 9.427116  0.000000 -0.000022 -1.000000  0.796875 0.234375 0
0  1.305491 -10.247606 9.427086  0.000000 -0.000022 -1.000000  0.746094 0.187500 0
#256256mgsmbag_p.bmp
0  0.635473 0.022307 5.496864  -1.000000 -0.000001 0.000001  0.320313 0.152344 0
0  0.635461 8.652285 4.526676  -1.000000 -0.000001 0.000001  0.039063 0.132813 0
0  0.635473 -1.137714 4.526889  -1.000000 -0.000001 0.000001  0.359375 0.121094 0
#256256mgsmbag_p.bmp
0  7.505473 -1.137705 4.526882  0.423382 -0.582387 0.693954  0.359375 0.121094 0
0  6.835474 -0.467686 5.496868  0.498620 -0.686193 0.529639  0.343750 0.167969 0
0  6.835474 -1.627706 4.526893  0.423383 -0.582387 0.693954  0.382813 0.132813 0
#256256mgsmbag_p.bmp
0  4.065493 -11.607588 10.107117  0.000006 0.000014 1.000000  0.707031 0.406250 0
0  5.195494 -11.607586 10.107109  0.000006 0.000014 1.000000  0.707031 0.367188 0
0  6.835492 -10.247584 10.107079  0.000006 0.000014 1.000000  0.660156 0.316406 0
#256256mgsmbag_p.bmp
0  4.065487 -11.577710 4.527111  0.000000 -0.000022 -1.000000  0.699219 0.007813 0
0  6.835474 -1.627706 4.526893  0.000000 -0.000022 -1.000000  0.375000 0.097656 0
0  6.835487 -11.577706 4.527111  0.000000 -0.000022 -1.000000  0.699219 0.097656 0
#256256mgsmbag_p.bmp
0  5.195491 -10.247602 9.427086  -0.000005 -0.000017 -1.000000  0.796875 0.187500 0
0  6.835491 -10.247600 9.427078  -0.000005 -0.000017 -1.000000  0.746094 0.187500 0
0  5.195493 -11.607601 9.427109  -0.000005 -0.000017 -1.000000  0.796875 0.234375 0
end
