version 1
nodes
  0 "scar_root" -1
  1 "Bone046" 0
  2 "Bone047" 0
  3 "Bone048" 0
  4 "root" -1
  5 "Bone01" 4
  6 "Bone_L_Upper" 5
  7 "Bone_Lefthand" 5
  8 "Bone13" 7
  9 "Bone14" 8
  10 "Bone15" 9
  11 "Bone17" 7
  12 "Bone18" 11
  13 "Bone19" 12
  14 "Bone21" 7
  15 "Bone22" 14
  16 "Bone23" 15
  17 "Bone09" 7
  18 "Bone10" 17
  19 "Bone11" 18
  20 "Bone05" 7
  21 "Bone06" 20
  22 "Bone07" 21
  23 "Bone_Se_Hand-L" 7
  24 "Bone04" 4
  25 "Bone_Righthand" 24
  26 "Bone39" 25
  27 "Bone40" 26
  28 "Bone41" 27
  29 "Bone35" 25
  30 "Bone36" 29
  31 "Bone37" 30
  32 "Bone31" 25
  33 "Bone32" 32
  34 "Bone33" 33
  35 "Bone43" 25
  36 "Bone44" 35
  37 "Bone45" 36
  38 "Bone27" 25
  39 "Bone28" 38
  40 "Bone29" 39
  41 "Bone_Se_Hand-R" 25
  42 "Bone_R_Upper" 24
end
skeleton
  time 0
    0 6.019037 -7.956600 -3.716981 -1.543747 -3.088056 1.492569
    1 7.544978 0.157464 0.293294 -0.000001 -1.570451 0.000000
    2 4.270654 -2.975987 -0.024055 1.570796 0.000000 -1.570797
    3 2.246859 -0.655005 0.464540 -0.000001 -1.570787 0.000000
    4 -0.862154 -0.856760 -1.276764 -0.003020 -0.360401 0.288652
    5 6.645960 0.845105 -7.440615 5.843002 -1.922962 0.025888
    6 8.073794 1.000629 -0.372470 1.568871 -3.117011 0.200740
    7 0.033551 -8.518268 -0.065070 0.236128 0.732270 0.540572
    8 -0.488518 -2.755602 -0.228260 -0.888349 0.016180 -0.254183
    9 0.039887 -1.550105 0.025948 -1.996582 -0.004231 0.044080
    10 0.028786 -1.118701 -0.097330 -0.653179 -0.012308 0.012104
    11 0.250027 -2.820665 -0.238396 -0.790610 -0.014043 -0.199190
    12 -0.049759 -1.594604 0.030164 -1.602203 -0.000683 -0.042667
    13 -0.034142 -1.171750 0.045718 -1.183605 0.006424 -0.031196
    14 0.957766 -2.746780 -0.090302 -0.082058 -0.157843 0.041008
    15 -0.033420 -1.397129 -0.026882 -0.857365 0.006352 -0.042163
    16 -0.022360 -0.957436 0.003159 -0.680276 0.007706 -0.033006
    17 -1.180681 -2.507217 -0.193859 -0.695044 0.195831 -0.247787
    18 -0.024967 -1.127840 0.017597 -1.674946 -0.016359 -0.065243
    19 -0.020057 -0.906594 0.025715 -0.860044 0.007095 -0.034791
    20 0.614761 -1.197277 0.181473 0.632188 -0.960454 -0.780381
    21 1.485144 -0.204604 0.067511 0.042194 -0.205332 -0.725395
    22 0.987486 -0.190791 0.047917 0.109955 -0.259553 -1.139777
    23 0.120153 -0.050270 -0.054489 0.287569 3.110905 1.561085
    24 -3.575557 -6.895373 -6.017092 0.493891 -4.247475 0.802621
    25 -0.192127 -8.477763 0.025792 -0.652122 -1.317280 1.190806
    26 0.447953 -2.798986 -0.200443 -1.183464 0.094973 0.272944
    27 -0.032909 -1.499736 0.024472 -1.308919 0.023094 -0.024147
    28 -0.027022 -1.092546 -0.028023 -0.391276 0.010558 -0.003523
    29 -0.249534 -2.846964 -0.174213 -0.932364 0.061823 0.183274
    30 0.043235 -1.656596 0.072574 -1.327365 -0.021074 0.005969
    31 0.031729 -1.153017 0.058838 -0.608222 -0.005962 0.005412
    32 -0.963866 -2.785145 -0.085350 -0.820520 0.141950 0.070175
    33 0.028479 -1.406973 -0.024980 -1.161324 -0.033653 -0.037212
    34 0.021413 -0.953875 0.020046 -0.184272 -0.002145 -0.008221
    35 1.164475 -2.543940 -0.170330 -1.562681 0.036862 0.334867
    36 0.024032 -1.136855 -0.001725 -0.870851 0.006771 0.046010
    37 0.014898 -0.891802 -0.019848 -0.489133 -0.002001 0.023813
    38 -0.586770 -1.264477 0.200161 0.068094 -0.661853 -2.976115
    39 1.554086 0.035243 0.016848 -0.013511 -0.005325 0.697370
    40 1.117947 0.048424 -0.005766 -0.000435 -0.025390 0.073974
    41 -0.041740 -0.154668 -0.219985 0.974656 0.100582 1.251771
    42 -5.018581 7.257098 -0.340999 1.581152 -0.017870 -1.081467
  time 1
    0 6.233887 -6.335456 -3.498224 1.553690 -0.137802 -1.646504
    1 5.544917 0.180902 0.430017 -0.000001 -1.570451 0.000000
    2 4.270654 -2.975987 -0.024055 1.570796 0.000000 -1.570797
    3 3.852377 -0.655005 0.464540 -0.000001 -1.570787 0.000000
    4 -0.862154 -0.856760 -1.276764 -0.003020 -0.360401 0.288652
    5 7.001439 1.989671 -7.182795 5.711000 -1.932079 0.146327
    6 7.999573 -0.405664 -0.392002 -1.570274 -0.027318 -3.114072
    7 0.045270 -8.537800 -0.065070 0.324312 0.725663 0.714529
    8 -0.488518 -2.755602 -0.228260 -0.888349 0.016180 -0.254183
    9 0.039887 -1.550105 0.025948 -1.996582 -0.004231 0.044080
    10 0.028786 -1.118701 -0.097330 -0.653179 -0.012308 0.012104
    11 0.250027 -2.820665 -0.238396 -0.790610 -0.014043 -0.199190
    12 -0.049759 -1.594604 0.030164 -1.602203 -0.000683 -0.042667
    13 -0.034142 -1.171750 0.045718 -1.183605 0.006424 -0.031196
    14 0.957766 -2.746780 -0.090302 -0.082058 -0.157843 0.041008
    15 -0.033420 -1.397129 -0.030789 -1.114672 0.001139 -0.054028
    16 -0.022360 -0.961342 -0.004654 -0.915447 0.004998 -0.044547
    17 -1.180681 -2.507217 -0.193859 -0.695044 0.195831 -0.247787
    18 -0.024967 -1.127840 0.017597 -1.674946 -0.016359 -0.065243
    19 -0.020057 -0.906594 0.025715 -0.860044 0.007095 -0.034791
    20 0.614761 -1.197277 0.181473 0.632188 -0.960454 -0.780394
    21 1.485144 -0.204604 0.067511 0.042194 -0.205332 -0.725395
    22 0.987486 -0.190791 0.047917 0.109955 -0.259553 -1.139777
    23 0.120153 -0.050270 -0.054489 0.287569 3.110905 1.561085
    24 -3.669310 -6.340669 -6.771021 0.751734 -4.139666 1.162003
    25 -0.172595 -8.497295 0.033605 -0.330267 -1.291659 1.020147
    26 0.447953 -2.798986 -0.200443 -1.183464 0.094973 0.272944
    27 -0.032909 -1.499736 0.024472 -1.308919 0.023094 -0.024147
    28 -0.027022 -1.092546 -0.028023 -0.391276 0.010558 -0.003523
    29 -0.249534 -2.846964 -0.174213 -0.932364 0.061823 0.183274
    30 0.043235 -1.656596 0.072574 -1.327365 -0.021074 0.005969
    31 0.031729 -1.153017 0.058838 -0.608222 -0.005962 0.005412
    32 -0.963866 -2.785145 -0.085350 -0.820520 0.141950 0.070175
    33 0.028479 -1.406973 -0.024980 -1.161324 -0.033653 -0.037212
    34 0.021413 -0.953875 0.020046 -0.184272 -0.002145 -0.008221
    35 1.164475 -2.543940 -0.170330 -1.562681 0.036862 0.334867
    36 0.024032 -1.136855 -0.001725 -0.870851 0.006771 0.046010
    37 0.014898 -0.891802 -0.019848 -0.489133 -0.002001 0.023813
    38 -0.586770 -1.264477 0.200161 0.068094 -0.661853 -2.976115
    39 1.554086 0.035243 0.016848 -0.013511 -0.005325 0.697370
    40 1.117947 0.048424 -0.005766 -0.000435 -0.025390 0.073974
    41 -0.041740 -0.154668 -0.219985 0.974656 0.100582 1.251771
    42 -7.049893 4.987497 -0.411313 1.577304 -0.026967 -0.709783
  time 2
    0 6.155760 -6.292486 -3.404472 1.568673 -0.132919 -1.650844
    1 3.544856 0.204340 0.570646 -0.000001 -1.570451 0.000000
    2 4.270654 -2.975987 -0.024055 1.570796 0.000000 -1.570797
    3 5.457895 -0.655005 0.464540 -0.000001 -1.570787 0.000000
    4 -0.862154 -0.856760 -1.276764 -0.003020 -0.360401 0.288652
    5 7.040503 2.067798 -7.139825 5.736234 -1.930814 0.124554
    6 7.972229 -0.597076 -0.395908 -1.569891 -0.027603 -3.137705
    7 0.041364 -8.537800 -0.065070 0.308440 0.720007 0.692217
    8 -0.488518 -2.755602 -0.228260 -0.888349 0.016180 -0.254183
    9 0.039887 -1.550105 0.025948 -1.996582 -0.004231 0.044080
    10 0.028786 -1.118701 -0.097330 -0.653179 -0.012308 0.012104
    11 0.250027 -2.820665 -0.238396 -0.790610 -0.014043 -0.199190
    12 -0.049759 -1.594604 0.030164 -1.602203 -0.000683 -0.042667
    13 -0.034142 -1.171750 0.045718 -1.183605 0.006424 -0.031196
    14 0.957766 -2.746780 -0.090302 -0.082058 -0.157843 0.041008
    15 -0.033420 -1.397129 -0.030789 -1.131450 0.000695 -0.054747
    16 -0.022360 -0.961342 -0.004654 -0.930763 0.004734 -0.045266
    17 -1.180681 -2.507217 -0.193859 -0.695044 0.195831 -0.247787
    18 -0.024967 -1.127840 0.017597 -1.674946 -0.016359 -0.065243
    19 -0.020057 -0.906594 0.025715 -0.860044 0.007095 -0.034791
    20 0.614761 -1.197277 0.181473 0.632188 -0.960454 -0.780394
    21 1.485144 -0.204604 0.067511 0.042194 -0.205332 -0.725395
    22 0.987486 -0.190791 0.047917 0.109955 -0.259553 -1.139777
    23 0.120153 -0.050270 -0.054489 0.287569 3.110905 1.561085
    24 -3.731812 -6.297699 -6.829617 0.765481 -4.134694 1.171135
    25 -0.180408 -8.493389 0.033605 -0.408114 -1.298261 1.072914
    26 0.447953 -2.798986 -0.200443 -1.183464 0.094973 0.272944
    27 -0.032909 -1.499736 0.024472 -1.308919 0.023094 -0.024147
    28 -0.027022 -1.092546 -0.028023 -0.391276 0.010558 -0.003523
    29 -0.249534 -2.846964 -0.174213 -0.932364 0.061823 0.183274
    30 0.043235 -1.656596 0.072574 -1.327365 -0.021074 0.005969
    31 0.031729 -1.153017 0.058838 -0.608222 -0.005962 0.005412
    32 -0.963866 -2.785145 -0.085350 -0.820520 0.141950 0.070175
    33 0.028479 -1.406973 -0.024980 -1.161324 -0.033653 -0.037212
    34 0.021413 -0.953875 0.020046 -0.184272 -0.002145 -0.008221
    35 1.164475 -2.543940 -0.170330 -1.562681 0.036862 0.334867
    36 0.024032 -1.136855 -0.001725 -0.870851 0.006771 0.046010
    37 0.014898 -0.891802 -0.019848 -0.489133 -0.002001 0.023813
    38 -0.586770 -1.264477 0.200161 0.068094 -0.661853 -2.976115
    39 1.554086 0.035243 0.016848 -0.013511 -0.005325 0.697370
    40 1.117947 0.048424 -0.005766 -0.000435 -0.025390 0.073974
    41 -0.041740 -0.154668 -0.219985 0.974656 0.100582 1.251771
    42 -7.151458 4.815617 -0.415220 1.576945 -0.027494 -0.685882
  time 3
    0 6.034662 -6.460460 -3.334157 -1.547660 -3.027547 1.485316
    1 5.544917 0.180902 0.430017 -0.000001 -1.570451 0.000000
    2 4.270654 -2.975987 -0.024055 1.570796 0.000000 -1.570797
    3 5.457895 -0.655005 0.464540 -0.000001 -1.570787 0.000000
    4 -0.862154 -0.856760 -1.276764 -0.003020 -0.360401 0.288652
    5 7.044409 2.001390 -7.143731 5.785556 -1.928552 0.080791
    6 7.964416 -0.628327 -0.395908 -1.569891 -0.027699 -3.141820
    7 0.037457 -8.529987 -0.065070 0.276884 0.713376 0.640119
    8 -0.488518 -2.755602 -0.228260 -0.888349 0.016180 -0.254183
    9 0.039887 -1.550105 0.025948 -1.996582 -0.004231 0.044080
    10 0.028786 -1.118701 -0.097330 -0.653199 -0.012308 0.012104
    11 0.250027 -2.820665 -0.238396 -0.790610 -0.014043 -0.199190
    12 -0.049759 -1.594604 0.030164 -1.602203 -0.000683 -0.042667
    13 -0.034142 -1.171750 0.045718 -1.183605 0.006424 -0.031196
    14 0.957766 -2.746780 -0.090302 -0.082058 -0.157843 0.041008
    15 -0.033420 -1.397129 -0.030789 -1.114672 0.001139 -0.054028
    16 -0.022360 -0.961342 -0.004654 -0.915418 0.004998 -0.044547
    17 -1.180681 -2.507217 -0.193859 -0.695044 0.195831 -0.247787
    18 -0.024967 -1.127840 0.017597 -1.674946 -0.016359 -0.065243
    19 -0.020057 -0.906594 0.025715 -0.860044 0.007095 -0.034791
    20 0.614761 -1.197277 0.181473 0.632188 -0.960454 -0.780381
    21 1.485144 -0.204604 0.067511 0.042194 -0.205332 -0.725395
    22 0.987486 -0.190791 0.047917 0.109955 -0.259553 -1.139777
    23 0.120153 -0.050270 -0.054489 0.287569 3.110905 1.561085
    24 -3.794314 -6.317230 -6.825710 0.755829 -4.143228 1.144500
    25 -0.188221 -8.489482 0.029699 -0.523139 -1.314526 1.156294
    26 0.447953 -2.798986 -0.200443 -1.183464 0.094973 0.272944
    27 -0.032909 -1.499736 0.024472 -1.308919 0.023094 -0.024147
    28 -0.027022 -1.092546 -0.028023 -0.391276 0.010558 -0.003523
    29 -0.249534 -2.846964 -0.174213 -0.932364 0.061823 0.183274
    30 0.043235 -1.656596 0.072574 -1.327365 -0.021074 0.005969
    31 0.031729 -1.153017 0.058838 -0.608222 -0.005962 0.005412
    32 -0.963866 -2.785145 -0.085350 -0.820520 0.141950 0.070175
    33 0.028479 -1.406973 -0.024980 -1.161324 -0.033653 -0.037212
    34 0.021413 -0.953875 0.020046 -0.184272 -0.002145 -0.008221
    35 1.164475 -2.543940 -0.170330 -1.562681 0.036862 0.334867
    36 0.024032 -1.136855 -0.001725 -0.870851 0.006771 0.046010
    37 0.014898 -0.891802 -0.019848 -0.489133 -0.002001 0.023813
    38 -0.586770 -1.264477 0.200161 0.068094 -0.661853 -2.976115
    39 1.554086 0.035243 0.016848 -0.013511 -0.005325 0.697370
    40 1.117947 0.048424 -0.005766 -0.000435 -0.025390 0.073974
    41 -0.041740 -0.154668 -0.219985 0.974656 0.100582 1.251771
    42 -7.096769 4.913276 -0.411313 1.577149 -0.027206 -0.699267
  time 4
    0 5.929190 -6.710468 -3.287281 -1.523897 -3.048515 1.480976
    1 7.544978 0.157464 0.293294 -0.000001 -1.570451 0.000000
    2 4.270654 -2.975987 -0.024055 1.570796 0.000000 -1.570797
    3 3.852377 -0.655005 0.464540 -0.000001 -1.570787 0.000000
    4 -0.862154 -0.856760 -1.276764 -0.003020 -0.360401 0.288652
    5 7.024877 1.864667 -7.174982 5.839848 -1.926755 0.032326
    6 7.976135 -0.561919 -0.395908 -1.569987 -0.027603 -3.133472
    7 0.029645 -8.526081 -0.065070 0.244677 0.708037 0.584827
    8 -0.488518 -2.755602 -0.228260 -0.888349 0.016180 -0.254183
    9 0.039887 -1.550105 0.025948 -1.996582 -0.004231 0.044080
    10 0.028786 -1.118701 -0.097330 -0.653199 -0.012308 0.012104
    11 0.250027 -2.820665 -0.238396 -0.790610 -0.014043 -0.199190
    12 -0.049759 -1.594604 0.030164 -1.602203 -0.000683 -0.042667
    13 -0.034142 -1.171750 0.045718 -1.183605 0.006424 -0.031196
    14 0.957766 -2.746780 -0.090302 -0.082058 -0.157843 0.041008
    15 -0.033420 -1.397129 -0.030789 -1.083561 0.001930 -0.052673
    16 -0.022360 -0.961342 -0.004654 -0.886981 0.005465 -0.043180
    17 -1.180681 -2.507217 -0.193859 -0.695044 0.195831 -0.247787
    18 -0.024967 -1.127840 0.017597 -1.674946 -0.016359 -0.065243
    19 -0.020057 -0.906594 0.025715 -0.860044 0.007095 -0.034791
    20 0.614761 -1.197277 0.181473 0.632188 -0.960454 -0.780394
    21 1.485144 -0.204604 0.067511 0.042194 -0.205332 -0.725395
    22 0.987486 -0.190791 0.047917 0.109955 -0.259553 -1.139777
    23 0.120153 -0.050270 -0.054489 0.287569 3.110905 1.561085
    24 -3.837284 -6.375826 -6.771021 0.733925 -4.155872 1.103977
    25 -0.192127 -8.489482 0.025792 -0.636325 -1.330397 1.244904
    26 0.447953 -2.798986 -0.200443 -1.183464 0.094973 0.272944
    27 -0.032909 -1.499736 0.024472 -1.308919 0.023094 -0.024147
    28 -0.027022 -1.092546 -0.028023 -0.391276 0.010558 -0.003523
    29 -0.249534 -2.846964 -0.174213 -0.932364 0.061823 0.183274
    30 0.043235 -1.656596 0.072574 -1.327365 -0.021074 0.005969
    31 0.031729 -1.153017 0.058838 -0.608222 -0.005962 0.005412
    32 -0.963866 -2.785145 -0.085350 -0.820520 0.141950 0.070175
    33 0.028479 -1.406973 -0.024980 -1.161324 -0.033653 -0.037212
    34 0.021413 -0.953875 0.020046 -0.184272 -0.002145 -0.008221
    35 1.164475 -2.543940 -0.170330 -1.562681 0.036862 0.334867
    36 0.024032 -1.136855 -0.001725 -0.870851 0.006771 0.046010
    37 0.014898 -0.891802 -0.019848 -0.489133 -0.002001 0.023813
    38 -0.586770 -1.264477 0.200161 0.068094 -0.661853 -2.976115
    39 1.554086 0.035243 0.016848 -0.013511 -0.005325 0.697370
    40 1.117947 0.048424 -0.005766 -0.000435 -0.025390 0.073974
    41 -0.041740 -0.154668 -0.219985 0.974656 0.100582 1.251771
    42 -6.948327 5.151565 -0.407407 1.577652 -0.026439 -0.733464
  time 5
    0 5.878407 -6.917506 -3.256030 -1.513209 -3.060004 1.477884
    1 7.099652 0.157464 0.324545 -0.000001 -1.570451 0.000000
    2 4.270654 -2.975987 -0.024055 1.570796 0.000000 -1.570797
    3 2.246859 -0.655005 0.464540 -0.000001 -1.570787 0.000000
    4 -0.862154 -0.856760 -1.276764 -0.003020 -0.360401 0.288652
    5 6.997533 1.724038 -7.206233 5.879325 -1.925823 -0.003047
    6 7.995667 -0.452540 -0.392002 -1.570179 -0.027413 -3.119774
    7 0.029645 -8.522175 -0.065070 0.225744 0.708402 0.551900
    8 -0.488518 -2.755602 -0.228260 -0.888349 0.016180 -0.254183
    9 0.039887 -1.550105 0.025948 -1.996582 -0.004231 0.044080
    10 0.028786 -1.118701 -0.097330 -0.653199 -0.012308 0.012104
    11 0.250027 -2.820665 -0.238396 -0.790610 -0.014043 -0.199190
    12 -0.049759 -1.594604 0.030164 -1.602203 -0.000683 -0.042667
    13 -0.034142 -1.171750 0.045718 -1.183605 0.006424 -0.031196
    14 0.957766 -2.746780 -0.090302 -0.082058 -0.157843 0.041008
    15 -0.033420 -1.397129 -0.030789 -1.057485 0.002553 -0.051511
    16 -0.022360 -0.961342 -0.004654 -0.863164 0.005836 -0.042042
    17 -1.180681 -2.507217 -0.193859 -0.695044 0.195831 -0.247787
    18 -0.024967 -1.127840 0.017597 -1.674946 -0.016359 -0.065243
    19 -0.020057 -0.906594 0.025715 -0.860044 0.007095 -0.034791
    20 0.614761 -1.197277 0.181473 0.632188 -0.960454 -0.780394
    21 1.485144 -0.204604 0.067511 0.042194 -0.205332 -0.725395
    22 0.987486 -0.190791 0.047917 0.109955 -0.259553 -1.139777
    23 0.120153 -0.050270 -0.054489 0.287569 3.110905 1.561085
    24 -3.845097 -6.446141 -6.688987 0.715498 -4.165463 1.072110
    25 -0.196034 -8.485576 0.021886 -0.698881 -1.336037 1.292108
    26 0.447953 -2.798986 -0.200443 -1.183464 0.094973 0.272944
    27 -0.032909 -1.499736 0.024472 -1.308919 0.023094 -0.024147
    28 -0.027022 -1.092546 -0.028023 -0.391276 0.010558 -0.003523
    29 -0.249534 -2.846964 -0.174213 -0.932364 0.061823 0.183274
    30 0.043235 -1.656596 0.072574 -1.327365 -0.021074 0.005969
    31 0.031729 -1.153017 0.058838 -0.608222 -0.005962 0.005412
    32 -0.963866 -2.785145 -0.085350 -0.820520 0.141950 0.070175
    33 0.028479 -1.406973 -0.024980 -1.161324 -0.033653 -0.037212
    34 0.021413 -0.953875 0.020046 -0.184272 -0.002145 -0.008221
    35 1.164475 -2.543940 -0.170330 -1.562681 0.036862 0.334867
    36 0.024032 -1.136855 -0.001725 -0.870851 0.006771 0.046010
    37 0.014898 -0.891802 -0.019848 -0.489133 -0.002001 0.023813
    38 -0.586770 -1.264477 0.200161 0.068094 -0.661853 -2.976115
    39 1.554086 0.035243 0.016848 -0.013511 -0.005325 0.697370
    40 1.117947 0.048424 -0.005766 -0.000435 -0.025390 0.073974
    41 -0.041740 -0.154668 -0.219985 0.974656 0.100582 1.251771
    42 -6.784260 5.397666 -0.399594 1.578155 -0.025613 -0.769426
  time 6
    0 5.921377 -7.069854 -3.232591 -1.523420 -3.056078 1.474495
    1 7.544978 0.157464 0.293294 -0.000001 -1.570451 0.000000
    2 4.270654 -2.975987 -0.024055 1.570796 0.000000 -1.570797
    3 2.407020 -0.655005 0.464540 -0.000001 -1.570787 0.000000
    4 -0.862154 -0.856760 -1.276764 -0.003020 -0.360401 0.288652
    5 6.954563 1.567783 -7.245296 5.899302 -1.925158 -0.021275
    6 8.019105 -0.268941 -0.392002 -1.570562 -0.027032 -3.096847
    7 0.029645 -8.522175 -0.065070 0.226379 0.720860 0.552930
    8 -0.488518 -2.755602 -0.228260 -0.888349 0.016180 -0.254183
    9 0.039887 -1.550105 0.025948 -1.996582 -0.004231 0.044080
    10 0.028786 -1.118701 -0.097330 -0.653179 -0.012308 0.012104
    11 0.250027 -2.820665 -0.238396 -0.790610 -0.014043 -0.199190
    12 -0.049759 -1.594604 0.030164 -1.602203 -0.000683 -0.042667
    13 -0.034142 -1.171750 0.045718 -1.183605 0.006424 -0.031196
    14 0.957766 -2.746780 -0.090302 -0.082058 -0.157843 0.041008
    15 -0.033420 -1.397129 -0.030789 -1.039168 0.002984 -0.050696
    16 -0.022360 -0.957436 -0.000748 -0.846421 0.006076 -0.041227
    17 -1.180681 -2.507217 -0.193859 -0.695044 0.195831 -0.247787
    18 -0.024967 -1.127840 0.017597 -1.674946 -0.016359 -0.065243
    19 -0.020057 -0.906594 0.025715 -0.860044 0.007095 -0.034791
    20 0.614761 -1.197277 0.181473 0.632188 -0.960454 -0.780394
    21 1.485144 -0.204604 0.067511 0.042194 -0.205332 -0.725395
    22 0.987486 -0.190791 0.047917 0.109955 -0.259553 -1.139777
    23 0.120153 -0.050270 -0.054489 0.287569 3.110905 1.561085
    24 -3.798220 -6.535987 -6.552264 0.706626 -4.169769 1.055749
    25 -0.196034 -8.485576 0.025792 -0.663606 -1.327948 1.255362
    26 0.447953 -2.798986 -0.200443 -1.183464 0.094973 0.272944
    27 -0.032909 -1.499736 0.024472 -1.308919 0.023094 -0.024147
    28 -0.027022 -1.092546 -0.028023 -0.391276 0.010558 -0.003523
    29 -0.249534 -2.846964 -0.174213 -0.932364 0.061823 0.183274
    30 0.043235 -1.656596 0.072574 -1.327365 -0.021074 0.005969
    31 0.031729 -1.153017 0.058838 -0.608222 -0.005962 0.005412
    32 -0.963866 -2.785145 -0.085350 -0.820520 0.141950 0.070175
    33 0.028479 -1.406973 -0.024980 -1.161324 -0.033653 -0.037212
    34 0.021413 -0.953875 0.020046 -0.184272 -0.002145 -0.008221
    35 1.164475 -2.543940 -0.170330 -1.562681 0.036862 0.334867
    36 0.024032 -1.136855 -0.001725 -0.870851 0.006771 0.046010
    37 0.014898 -0.891802 -0.019848 -0.489133 -0.002001 0.023813
    38 -0.586770 -1.264477 0.200161 0.068094 -0.661853 -2.976115
    39 1.554086 0.035243 0.016848 -0.013511 -0.005325 0.697370
    40 1.117947 0.048424 -0.005766 -0.000435 -0.025390 0.073974
    41 -0.041740 -0.154668 -0.219985 0.974656 0.100582 1.251771
    42 -6.600660 5.655486 -0.395688 1.578647 -0.024714 -0.807962
  time 7
    0 6.019037 -7.226109 -3.224779 -1.546896 -3.043823 1.470987
    1 7.544978 0.157464 0.293294 -0.000001 -1.570451 0.000000
    2 4.270654 -2.975987 -0.024055 1.570796 0.000000 -1.570797
    3 2.246859 -0.655005 0.464540 -0.000001 -1.570787 0.000000
    4 -0.862154 -0.856760 -1.276764 -0.003020 -0.360401 0.288652
    5 6.892061 1.372465 -7.299986 5.909912 -1.924293 -0.031330
    6 8.046450 0.008411 -0.388095 1.570500 -3.115011 0.078694
    7 0.037457 -8.522175 -0.065070 0.238640 0.741705 0.573024
    8 -0.488518 -2.755602 -0.228260 -0.888349 0.016180 -0.254183
    9 0.039887 -1.550105 0.025948 -1.996582 -0.004231 0.044080
    10 0.028786 -1.118701 -0.097330 -0.653179 -0.012308 0.012104
    11 0.250027 -2.820665 -0.238396 -0.790610 -0.014043 -0.199190
    12 -0.049759 -1.594604 0.030164 -1.602203 -0.000683 -0.042667
    13 -0.034142 -1.171750 0.045718 -1.183605 0.006424 -0.031196
    14 0.957766 -2.746780 -0.090302 -0.082058 -0.157843 0.041008
    15 -0.033420 -1.397129 -0.030789 -1.019069 0.003428 -0.049785
    16 -0.022360 -0.957436 -0.000748 -0.828053 0.006316 -0.040328
    17 -1.180681 -2.507217 -0.193859 -0.695044 0.195831 -0.247787
    18 -0.024967 -1.127840 0.017597 -1.674946 -0.016359 -0.065243
    19 -0.020057 -0.906594 0.025715 -0.860044 0.007095 -0.034791
    20 0.614761 -1.197277 0.181473 0.632188 -0.960454 -0.780394
    21 1.485144 -0.204604 0.067511 0.042194 -0.205332 -0.725395
    22 0.987486 -0.190791 0.047917 0.109955 -0.259553 -1.139777
    23 0.120153 -0.050270 -0.054489 0.287569 3.110905 1.561085
    24 -3.712280 -6.653178 -6.356946 0.697592 -4.174154 1.040529
    25 -0.188221 -8.485576 0.025792 -0.579795 -1.310066 1.174216
    26 0.447953 -2.798986 -0.200443 -1.183464 0.094973 0.272944
    27 -0.032909 -1.499736 0.024472 -1.308919 0.023094 -0.024147
    28 -0.027022 -1.092546 -0.028023 -0.391276 0.010558 -0.003523
    29 -0.249534 -2.846964 -0.174213 -0.932364 0.061823 0.183274
    30 0.043235 -1.656596 0.072574 -1.327365 -0.021074 0.005969
    31 0.031729 -1.153017 0.058838 -0.608222 -0.005962 0.005412
    32 -0.963866 -2.785145 -0.085350 -0.820520 0.141950 0.070175
    33 0.028479 -1.406973 -0.024980 -1.161324 -0.033653 -0.037212
    34 0.021413 -0.953875 0.020046 -0.184272 -0.002145 -0.008221
    35 1.164475 -2.543940 -0.170330 -1.562681 0.036862 0.334867
    36 0.024032 -1.136855 -0.001725 -0.870851 0.006771 0.046010
    37 0.014898 -0.891802 -0.019848 -0.489133 -0.002001 0.023813
    38 -0.586770 -1.264477 0.200161 0.068094 -0.661853 -2.976115
    39 1.554086 0.035243 0.016848 -0.013511 -0.005325 0.697370
    40 1.117947 0.048424 -0.005766 -0.000435 -0.025390 0.073974
    41 -0.041740 -0.154668 -0.219985 0.974656 0.100582 1.251771
    42 -6.338933 5.987528 -0.383969 1.579258 -0.023491 -0.859221
  time 8
    0 6.116696 -7.378457 -3.228685 1.570295 -0.110133 -1.672664
    1 7.544978 0.157464 0.293294 -0.000001 -1.570451 0.000000
    2 4.270654 -2.975987 -0.024055 1.570796 0.000000 -1.570797
    3 2.246859 -0.655005 0.464540 -0.000001 -1.570787 0.000000
    4 -0.862154 -0.856760 -1.276764 -0.003020 -0.360401 0.288652
    5 6.821746 1.181053 -7.342956 5.913257 -1.923494 -0.035019
    6 8.069888 0.293576 -0.384189 1.570021 -3.115582 0.113673
    7 0.041364 -8.522175 -0.061164 0.254065 0.761647 0.597026
    8 -0.488518 -2.755602 -0.228260 -0.888349 0.016180 -0.254183
    9 0.039887 -1.550105 0.025948 -1.996582 -0.004231 0.044080
    10 0.028786 -1.118701 -0.097330 -0.653199 -0.012308 0.012104
    11 0.250027 -2.820665 -0.238396 -0.790610 -0.014043 -0.199190
    12 -0.049759 -1.594604 0.030164 -1.602203 -0.000683 -0.042667
    13 -0.034142 -1.171750 0.045718 -1.183605 0.006424 -0.031196
    14 0.957766 -2.746780 -0.090302 -0.082058 -0.157843 0.041008
    15 -0.033420 -1.397129 -0.026882 -0.998270 0.003871 -0.048826
    16 -0.022360 -0.957436 -0.000748 -0.809028 0.006556 -0.039405
    17 -1.180681 -2.507217 -0.193859 -0.695044 0.195831 -0.247787
    18 -0.024967 -1.127840 0.017597 -1.674946 -0.016359 -0.065243
    19 -0.020057 -0.906594 0.025715 -0.860044 0.007095 -0.034791
    20 0.614761 -1.197277 0.181473 0.632188 -0.960454 -0.780381
    21 1.485144 -0.204604 0.067511 0.042194 -0.205332 -0.725395
    22 0.987486 -0.190791 0.047917 0.109955 -0.259553 -1.139777
    23 0.120153 -0.050270 -0.054489 0.287569 3.110905 1.561085
    24 -3.626340 -6.758650 -6.161628 0.684690 -4.180143 1.022360
    25 -0.180408 -8.481669 0.029699 -0.502329 -1.290697 1.098536
    26 0.447953 -2.798986 -0.200443 -1.183464 0.094973 0.272944
    27 -0.032909 -1.499736 0.024472 -1.308919 0.023094 -0.024147
    28 -0.027022 -1.092546 -0.028023 -0.391276 0.010558 -0.003523
    29 -0.249534 -2.846964 -0.174213 -0.932364 0.061823 0.183274
    30 0.043235 -1.656596 0.072574 -1.327365 -0.021074 0.005969
    31 0.031729 -1.153017 0.058838 -0.608222 -0.005962 0.005412
    32 -0.963866 -2.785145 -0.085350 -0.820520 0.141950 0.070175
    33 0.028479 -1.406973 -0.024980 -1.161324 -0.033653 -0.037212
    34 0.021413 -0.953875 0.020046 -0.184272 -0.002145 -0.008221
    35 1.164475 -2.543940 -0.170330 -1.562681 0.036862 0.334867
    36 0.024032 -1.136855 -0.001725 -0.870851 0.006771 0.046010
    37 0.014898 -0.891802 -0.019848 -0.489133 -0.002001 0.023813
    38 -0.586770 -1.264477 0.200161 0.068094 -0.661853 -2.976115
    39 1.554086 0.035243 0.016848 -0.013511 -0.005325 0.697370
    40 1.117947 0.048424 -0.005766 -0.000435 -0.025390 0.073974
    41 -0.041740 -0.154668 -0.219985 0.974656 0.100582 1.251771
    42 -6.045956 6.323475 -0.376156 1.579833 -0.022173 -0.913054
  time 9
    0 6.171385 -7.503461 -3.259936 1.557316 -0.114250 -1.672486
    1 7.544978 0.157464 0.293294 -0.000001 -1.570451 0.000000
    2 4.270654 -2.975987 -0.024055 1.570796 0.000000 -1.570797
    3 2.246859 -0.655005 0.464540 -0.000001 -1.570787 0.000000
    4 -0.862154 -0.856760 -1.276764 -0.003020 -0.360401 0.288652
    5 6.770963 1.044330 -7.374207 5.911441 -1.922962 -0.033934
    6 8.077701 0.500614 -0.380282 1.569733 -3.115963 0.139540
    7 0.045270 -8.522175 -0.061164 0.262456 0.771764 0.608275
    8 -0.488518 -2.755602 -0.228260 -0.888349 0.016180 -0.254183
    9 0.039887 -1.550105 0.025948 -1.996582 -0.004231 0.044080
    10 0.028786 -1.118701 -0.097330 -0.653179 -0.012308 0.012104
    11 0.250027 -2.820665 -0.238396 -0.790610 -0.014043 -0.199190
    12 -0.049759 -1.594604 0.030164 -1.602203 -0.000683 -0.042667
    13 -0.034142 -1.171750 0.045718 -1.183605 0.006424 -0.031196
    14 0.957766 -2.746780 -0.090302 -0.082058 -0.157843 0.041008
    15 -0.033420 -1.397129 -0.026882 -0.977752 0.004290 -0.047879
    16 -0.022360 -0.957436 -0.000748 -0.790288 0.006771 -0.038483
    17 -1.180681 -2.507217 -0.193859 -0.695044 0.195831 -0.247787
    18 -0.024967 -1.127840 0.017597 -1.674946 -0.016359 -0.065243
    19 -0.020057 -0.906594 0.025715 -0.860044 0.007095 -0.034791
    20 0.614761 -1.197277 0.181473 0.632188 -0.960454 -0.780381
    21 1.485144 -0.204604 0.067511 0.042194 -0.205332 -0.725395
    22 0.987486 -0.190791 0.047917 0.109955 -0.259553 -1.139777
    23 0.120153 -0.050270 -0.054489 0.287569 3.110905 1.561085
    24 -3.567744 -6.828965 -6.028811 0.666328 -4.188129 0.999054
    25 -0.180408 -8.481669 0.029699 -0.467244 -1.280729 1.061029
    26 0.447953 -2.798986 -0.200443 -1.183464 0.094973 0.272944
    27 -0.032909 -1.499736 0.024472 -1.308919 0.023094 -0.024147
    28 -0.027022 -1.092546 -0.028023 -0.391276 0.010558 -0.003523
    29 -0.249534 -2.846964 -0.174213 -0.932364 0.061823 0.183274
    30 0.043235 -1.656596 0.072574 -1.327365 -0.021074 0.005969
    31 0.031729 -1.153017 0.058838 -0.608222 -0.005962 0.005412
    32 -0.963866 -2.785145 -0.085350 -0.820520 0.141950 0.070175
    33 0.028479 -1.406973 -0.024980 -1.161324 -0.033653 -0.037212
    34 0.021413 -0.953875 0.020046 -0.184272 -0.002145 -0.008221
    35 1.164475 -2.543940 -0.170330 -1.562681 0.036862 0.334867
    36 0.024032 -1.136855 -0.001725 -0.870851 0.006771 0.046010
    37 0.014898 -0.891802 -0.019848 -0.489133 -0.002001 0.023813
    38 -0.586770 -1.264477 0.200161 0.068094 -0.661853 -2.976115
    39 1.554086 0.035243 0.016848 -0.013511 -0.005325 0.697370
    40 1.117947 0.048424 -0.005766 -0.000435 -0.025390 0.073974
    41 -0.041740 -0.154668 -0.219985 0.974656 0.100582 1.251771
    42 -5.799855 6.577389 -0.368343 1.580241 -0.021094 -0.956003
  time 10
    0 6.171385 -7.601120 -3.310719 1.557125 -0.109271 -1.670226
    1 7.544978 0.157464 0.293294 -0.000001 -1.570451 0.000000
    2 4.270654 -2.975987 -0.024055 1.570796 0.000000 -1.570797
    3 2.246859 -0.655005 0.464540 -0.000001 -1.570787 0.000000
    4 -0.862154 -0.856760 -1.276764 -0.003020 -0.360401 0.288652
    5 6.735806 0.974015 -7.389832 5.905515 -1.922629 -0.028871
    6 8.077701 0.629524 -0.380282 1.569542 -3.116249 0.155061
    7 0.045270 -8.518268 -0.061164 0.261806 0.771423 0.604024
    8 -0.488518 -2.755602 -0.228260 -0.888349 0.016180 -0.254183
    9 0.039887 -1.550105 0.025948 -1.996582 -0.004231 0.044080
    10 0.028786 -1.118701 -0.097330 -0.653179 -0.012308 0.012104
    11 0.250027 -2.820665 -0.238396 -0.790610 -0.014043 -0.199190
    12 -0.049759 -1.594604 0.030164 -1.602203 -0.000683 -0.042667
    13 -0.034142 -1.171750 0.045718 -1.183605 0.006424 -0.031196
    14 0.957766 -2.746780 -0.090302 -0.082058 -0.157843 0.041008
    15 -0.033420 -1.397129 -0.026882 -0.957722 0.004686 -0.046945
    16 -0.022360 -0.957436 -0.000748 -0.772005 0.006975 -0.037572
    17 -1.180681 -2.507217 -0.193859 -0.695044 0.195831 -0.247787
    18 -0.024967 -1.127840 0.017597 -1.674946 -0.016359 -0.065243
    19 -0.020057 -0.906594 0.025715 -0.860044 0.007095 -0.034791
    20 0.614761 -1.197277 0.181473 0.632188 -0.960454 -0.780381
    21 1.485144 -0.204604 0.067511 0.042194 -0.205332 -0.725395
    22 0.987486 -0.190791 0.047917 0.109955 -0.259553 -1.139777
    23 0.120153 -0.050270 -0.054489 0.287569 3.110905 1.561085
    24 -3.552119 -6.860216 -5.978028 0.643482 -4.197407 0.971563
    25 -0.180408 -8.477763 0.029699 -0.472510 -1.281953 1.059936
    26 0.447953 -2.798986 -0.200443 -1.183464 0.094973 0.272944
    27 -0.032909 -1.499736 0.024472 -1.308919 0.023094 -0.024147
    28 -0.027022 -1.092546 -0.028023 -0.391276 0.010558 -0.003523
    29 -0.249534 -2.846964 -0.174213 -0.932364 0.061823 0.183274
    30 0.043235 -1.656596 0.072574 -1.327365 -0.021074 0.005969
    31 0.031729 -1.153017 0.058838 -0.608222 -0.005962 0.005412
    32 -0.963866 -2.785145 -0.085350 -0.820520 0.141950 0.070175
    33 0.028479 -1.406973 -0.024980 -1.161324 -0.033653 -0.037212
    34 0.021413 -0.953875 0.020046 -0.184272 -0.002145 -0.008221
    35 1.164475 -2.543940 -0.170330 -1.562681 0.036862 0.334867
    36 0.024032 -1.136855 -0.001725 -0.870851 0.006771 0.046010
    37 0.014898 -0.891802 -0.019848 -0.489133 -0.002001 0.023813
    38 -0.586770 -1.264477 0.200161 0.068094 -0.661853 -2.976115
    39 1.554086 0.035243 0.016848 -0.013511 -0.005325 0.697370
    40 1.117947 0.048424 -0.005766 -0.000435 -0.025390 0.073974
    41 -0.041740 -0.154668 -0.219985 0.974656 0.100582 1.251771
    42 -5.627974 6.737550 -0.360530 1.580492 -0.020363 -0.984611
  time 11
    0 6.151853 -7.683154 -3.381033 1.561897 -0.100559 -1.666837
    1 7.544978 0.157464 0.293294 -0.000001 -1.570451 0.000000
    2 4.270654 -2.975987 -0.024055 1.570796 0.000000 -1.570797
    3 2.246859 -0.655005 0.464540 -0.000001 -1.570787 0.000000
    4 -0.862154 -0.856760 -1.276764 -0.003020 -0.360401 0.288652
    5 6.712368 0.931045 -7.401551 5.895574 -1.922496 -0.020190
    6 8.081607 0.723277 -0.376376 1.569350 -3.116440 0.166760
    7 0.045270 -8.518268 -0.061164 0.258239 0.766669 0.594518
    8 -0.488518 -2.755602 -0.228260 -0.888349 0.016180 -0.254183
    9 0.039887 -1.550105 0.025948 -1.996582 -0.004231 0.044080
    10 0.028786 -1.118701 -0.097330 -0.653199 -0.012308 0.012104
    11 0.250027 -2.820665 -0.238396 -0.790610 -0.014043 -0.199190
    12 -0.049759 -1.594604 0.030164 -1.602203 -0.000683 -0.042667
    13 -0.034142 -1.171750 0.045718 -1.183605 0.006424 -0.031196
    14 0.957766 -2.746780 -0.090302 -0.082058 -0.157843 0.041008
    15 -0.033420 -1.397129 -0.026882 -0.937658 0.005057 -0.046010
    16 -0.022360 -0.957436 -0.000748 -0.753665 0.007155 -0.036673
    17 -1.180681 -2.507217 -0.193859 -0.695044 0.195831 -0.247787
    18 -0.024967 -1.127840 0.017597 -1.674946 -0.016359 -0.065243
    19 -0.020057 -0.906594 0.025715 -0.860044 0.007095 -0.034791
    20 0.614761 -1.197277 0.181473 0.632188 -0.960454 -0.780394
    21 1.485144 -0.204604 0.067511 0.042194 -0.205332 -0.725395
    22 0.987486 -0.190791 0.047917 0.109955 -0.259553 -1.139777
    23 0.120153 -0.050270 -0.054489 0.287569 3.110905 1.561085
    24 -3.548213 -6.875841 -5.962403 0.617678 -4.207272 0.941599
    25 -0.180408 -8.477763 0.029699 -0.493510 -1.287331 1.073104
    26 0.447953 -2.798986 -0.200443 -1.183464 0.094973 0.272944
    27 -0.032909 -1.499736 0.024472 -1.308919 0.023094 -0.024147
    28 -0.027022 -1.092546 -0.028023 -0.391276 0.010558 -0.003523
    29 -0.249534 -2.846964 -0.174213 -0.932364 0.061823 0.183274
    30 0.043235 -1.656596 0.072574 -1.327365 -0.021074 0.005969
    31 0.031729 -1.153017 0.058838 -0.608222 -0.005962 0.005412
    32 -0.963866 -2.785145 -0.085350 -0.820520 0.141950 0.070175
    33 0.028479 -1.406973 -0.024980 -1.161324 -0.033653 -0.037212
    34 0.021413 -0.953875 0.020046 -0.184272 -0.002145 -0.008221
    35 1.164475 -2.543940 -0.170330 -1.562681 0.036862 0.334867
    36 0.024032 -1.136855 -0.001725 -0.870851 0.006771 0.046010
    37 0.014898 -0.891802 -0.019848 -0.489133 -0.002001 0.023813
    38 -0.586770 -1.264477 0.200161 0.068094 -0.661853 -2.976115
    39 1.554086 0.035243 0.016848 -0.013511 -0.005325 0.697370
    40 1.117947 0.048424 -0.005766 -0.000435 -0.025390 0.073974
    41 -0.041740 -0.154668 -0.219985 0.974656 0.100582 1.251771
    42 -5.491251 6.866461 -0.356624 1.580672 -0.019788 -1.007189
  time 12
    0 6.124509 -7.753469 -3.459161 1.569913 -0.089357 -1.662616
    1 7.544978 0.157464 0.293294 -0.000001 -1.570451 0.000000
    2 4.270654 -2.975987 -0.024055 1.570796 0.000000 -1.570797
    3 2.246859 -0.655005 0.464540 -0.000001 -1.570787 0.000000
    4 -0.862154 -0.856760 -1.276764 -0.003020 -0.360401 0.288652
    5 6.696742 0.903700 -7.413270 5.883052 -1.922496 -0.009195
    6 8.081607 0.797498 -0.376376 1.569254 -3.116630 0.175931
    7 0.041364 -8.518268 -0.061164 0.252866 0.758892 0.581632
    8 -0.488518 -2.755602 -0.228260 -0.888349 0.016180 -0.254183
    9 0.039887 -1.550105 0.025948 -1.996582 -0.004231 0.044080
    10 0.028786 -1.118701 -0.097330 -0.653179 -0.012308 0.012104
    11 0.250027 -2.820665 -0.238396 -0.790610 -0.014043 -0.199190
    12 -0.049759 -1.594604 0.030164 -1.602203 -0.000683 -0.042667
    13 -0.034142 -1.171750 0.045718 -1.183605 0.006424 -0.031196
    14 0.957766 -2.746780 -0.090302 -0.082058 -0.157843 0.041008
    15 -0.033420 -1.397129 -0.026882 -0.917593 0.005417 -0.045051
    16 -0.022360 -0.957436 -0.000748 -0.735325 0.007311 -0.035750
    17 -1.180681 -2.507217 -0.193859 -0.695044 0.195831 -0.247787
    18 -0.024967 -1.127840 0.017597 -1.674946 -0.016359 -0.065243
    19 -0.020057 -0.906594 0.025715 -0.860044 0.007095 -0.034791
    20 0.614761 -1.197277 0.181473 0.632188 -0.960454 -0.780381
    21 1.485144 -0.204604 0.067511 0.042194 -0.205332 -0.725395
    22 0.987486 -0.190791 0.047917 0.109955 -0.259553 -1.139777
    23 0.120153 -0.050270 -0.054489 0.287569 3.110905 1.561085
    24 -3.556025 -6.883654 -5.970215 0.589404 -4.217450 0.909446
    25 -0.184315 -8.477763 0.029699 -0.526565 -1.295113 1.097063
    26 0.447953 -2.798986 -0.200443 -1.183464 0.094973 0.272944
    27 -0.032909 -1.499736 0.024472 -1.308919 0.023094 -0.024147
    28 -0.027022 -1.092546 -0.028023 -0.391276 0.010558 -0.003523
    29 -0.249534 -2.846964 -0.174213 -0.932364 0.061823 0.183274
    30 0.043235 -1.656596 0.072574 -1.327365 -0.021074 0.005969
    31 0.031729 -1.153017 0.058838 -0.608222 -0.005962 0.005412
    32 -0.963866 -2.785145 -0.085350 -0.820520 0.141950 0.070175
    33 0.028479 -1.406973 -0.024980 -1.161324 -0.033653 -0.037212
    34 0.021413 -0.953875 0.020046 -0.184272 -0.002145 -0.008221
    35 1.164475 -2.543940 -0.170330 -1.562681 0.036862 0.334867
    36 0.024032 -1.136855 -0.001725 -0.870851 0.006771 0.046010
    37 0.014898 -0.891802 -0.019848 -0.489133 -0.002001 0.023813
    38 -0.586770 -1.264477 0.200161 0.068094 -0.661853 -2.976115
    39 1.554086 0.035243 0.016848 -0.013511 -0.005325 0.697370
    40 1.117947 0.048424 -0.005766 -0.000435 -0.025390 0.073974
    41 -0.041740 -0.154668 -0.219985 0.974656 0.100582 1.251771
    42 -5.377967 6.964120 -0.352718 1.580804 -0.019309 -1.025795
  time 13
    0 6.085445 -7.819877 -3.545101 -1.561879 -3.064599 1.483592
    1 7.544978 0.157464 0.293294 -0.000001 -1.570451 0.000000
    2 4.270654 -2.975987 -0.024055 1.570796 0.000000 -1.570797
    3 2.246859 -0.655005 0.464540 -0.000001 -1.570787 0.000000
    4 -0.862154 -0.856760 -1.276764 -0.003020 -0.360401 0.288652
    5 6.681117 0.888075 -7.421083 5.869288 -1.922563 0.002885
    6 8.077701 0.863906 -0.376376 1.569158 -3.116725 0.183750
    7 0.037457 -8.522175 -0.065070 0.246771 0.749579 0.567188
    8 -0.488518 -2.755602 -0.228260 -0.888349 0.016180 -0.254183
    9 0.039887 -1.550105 0.025948 -1.996582 -0.004231 0.044080
    10 0.028786 -1.118701 -0.097330 -0.653199 -0.012308 0.012104
    11 0.250027 -2.820665 -0.238396 -0.790610 -0.014043 -0.199190
    12 -0.049759 -1.594604 0.030164 -1.602203 -0.000683 -0.042667
    13 -0.034142 -1.171750 0.045718 -1.183605 0.006424 -0.031196
    14 0.957766 -2.746780 -0.090302 -0.082058 -0.157843 0.041008
    15 -0.033420 -1.397129 -0.026882 -0.897529 0.005741 -0.044092
    16 -0.022360 -0.957436 -0.000748 -0.716985 0.007466 -0.034839
    17 -1.180681 -2.507217 -0.193859 -0.695044 0.195831 -0.247787
    18 -0.024967 -1.127840 0.017597 -1.674946 -0.016359 -0.065243
    19 -0.020057 -0.906594 0.025715 -0.860044 0.007095 -0.034791
    20 0.614761 -1.197277 0.181473 0.632188 -0.960454 -0.780394
    21 1.485144 -0.204604 0.067511 0.042194 -0.205332 -0.725395
    22 0.987486 -0.190791 0.047917 0.109955 -0.259553 -1.139777
    23 0.120153 -0.050270 -0.054489 0.287569 3.110905 1.561085
    24 -3.563838 -6.883654 -5.993654 0.559051 -4.227706 0.875487
    25 -0.184315 -8.477763 0.025792 -0.567614 -1.303683 1.128105
    26 0.447953 -2.798986 -0.200443 -1.183464 0.094973 0.272944
    27 -0.032909 -1.499736 0.024472 -1.308919 0.023094 -0.024147
    28 -0.027022 -1.092546 -0.028023 -0.391276 0.010558 -0.003523
    29 -0.249534 -2.846964 -0.174213 -0.932364 0.061823 0.183274
    30 0.043235 -1.656596 0.072574 -1.327365 -0.021074 0.005969
    31 0.031729 -1.153017 0.058838 -0.608222 -0.005962 0.005412
    32 -0.963866 -2.785145 -0.085350 -0.820520 0.141950 0.070175
    33 0.028479 -1.406973 -0.024980 -1.161324 -0.033653 -0.037212
    34 0.021413 -0.953875 0.020046 -0.184272 -0.002145 -0.008221
    35 1.164475 -2.543940 -0.170330 -1.562681 0.036862 0.334867
    36 0.024032 -1.136855 -0.001725 -0.870851 0.006771 0.046010
    37 0.014898 -0.891802 -0.019848 -0.489133 -0.002001 0.023813
    38 -0.586770 -1.264477 0.200161 0.068094 -0.661853 -2.976115
    39 1.554086 0.035243 0.016848 -0.013511 -0.005325 0.697370
    40 1.117947 0.048424 -0.005766 -0.000435 -0.025390 0.073974
    41 -0.041740 -0.154668 -0.219985 0.974656 0.100582 1.251771
    42 -5.268588 7.057873 -0.348811 1.580912 -0.018877 -1.042783
  time 14
    0 6.050288 -7.886285 -3.634947 -1.551954 -3.076950 1.488288
    1 7.544978 0.157464 0.293294 -0.000001 -1.570451 0.000000
    2 4.270654 -2.975987 -0.024055 1.570796 0.000000 -1.570797
    3 2.246859 -0.655005 0.464540 -0.000001 -1.570787 0.000000
    4 -0.862154 -0.856760 -1.276764 -0.003020 -0.360401 0.288652
    5 6.665491 0.868543 -7.428896 5.855524 -1.922762 0.015037
    6 8.077701 0.926408 -0.372470 1.569062 -3.116916 0.191569
    7 0.037457 -8.522175 -0.065070 0.240922 0.740193 0.552956
    8 -0.488518 -2.755602 -0.228260 -0.888349 0.016180 -0.254183
    9 0.039887 -1.550105 0.025948 -1.996582 -0.004231 0.044080
    10 0.028786 -1.118701 -0.097330 -0.653179 -0.012308 0.012104
    11 0.250027 -2.820665 -0.238396 -0.790610 -0.014043 -0.199190
    12 -0.049759 -1.594604 0.030164 -1.602203 -0.000683 -0.042667
    13 -0.034142 -1.171750 0.045718 -1.183605 0.006424 -0.031196
    14 0.957766 -2.746780 -0.090302 -0.082058 -0.157843 0.041008
    15 -0.033420 -1.397129 -0.026882 -0.877430 0.006064 -0.043134
    16 -0.022360 -0.957436 -0.000748 -0.698616 0.007586 -0.033916
    17 -1.180681 -2.507217 -0.193859 -0.695044 0.195831 -0.247787
    18 -0.024967 -1.127840 0.017597 -1.674946 -0.016359 -0.065243
    19 -0.020057 -0.906594 0.025715 -0.860044 0.007095 -0.034791
    20 0.614761 -1.197277 0.181473 0.632188 -0.960454 -0.780381
    21 1.485144 -0.204604 0.067511 0.042194 -0.205332 -0.725395
    22 0.987486 -0.190791 0.047917 0.109955 -0.259553 -1.139777
    23 0.120153 -0.050270 -0.054489 0.287569 3.110905 1.561085
    24 -3.571651 -6.887560 -6.013186 0.527072 -4.237806 0.839720
    25 -0.188221 -8.477763 0.025792 -0.611581 -1.311465 1.161428
    26 0.447953 -2.798986 -0.200443 -1.183464 0.094973 0.272944
    27 -0.032909 -1.499736 0.024472 -1.308919 0.023094 -0.024147
    28 -0.027022 -1.092546 -0.028023 -0.391276 0.010558 -0.003523
    29 -0.249534 -2.846964 -0.174213 -0.932364 0.061823 0.183274
    30 0.043235 -1.656596 0.072574 -1.327365 -0.021074 0.005969
    31 0.031729 -1.153017 0.058838 -0.608222 -0.005962 0.005412
    32 -0.963866 -2.785145 -0.085350 -0.820520 0.141950 0.070175
    33 0.028479 -1.406973 -0.024980 -1.161324 -0.033653 -0.037212
    34 0.021413 -0.953875 0.020046 -0.184272 -0.002145 -0.008221
    35 1.164475 -2.543940 -0.170330 -1.562681 0.036862 0.334867
    36 0.024032 -1.136855 -0.001725 -0.870851 0.006771 0.046010
    37 0.014898 -0.891802 -0.019848 -0.489133 -0.002001 0.023813
    38 -0.586770 -1.264477 0.200161 0.068094 -0.661853 -2.976115
    39 1.554086 0.035243 0.016848 -0.013511 -0.005325 0.697370
    40 1.117947 0.048424 -0.005766 -0.000435 -0.025390 0.073974
    41 -0.041740 -0.154668 -0.219985 0.974656 0.100582 1.251771
    42 -5.155304 7.147719 -0.344905 1.581032 -0.018410 -1.060581
  time 15
    0 6.019037 -7.956600 -3.716981 -1.543747 -3.088056 1.492569
    1 7.544978 0.157464 0.293294 -0.000001 -1.570451 0.000000
    2 4.270654 -2.975987 -0.024055 1.570796 0.000000 -1.570797
    3 2.246859 -0.655005 0.464540 -0.000001 -1.570787 0.000000
    4 -0.862154 -0.856760 -1.276764 -0.003020 -0.360401 0.288652
    5 6.645960 0.845105 -7.440615 5.843002 -1.922962 0.025888
    6 8.073794 1.000629 -0.372470 1.568871 -3.117011 0.200740
    7 0.033551 -8.518268 -0.065070 0.236128 0.732270 0.540572
    8 -0.488518 -2.755602 -0.228260 -0.888349 0.016180 -0.254183
    9 0.039887 -1.550105 0.025948 -1.996582 -0.004231 0.044080
    10 0.028786 -1.118701 -0.097330 -0.653179 -0.012308 0.012104
    11 0.250027 -2.820665 -0.238396 -0.790610 -0.014043 -0.199190
    12 -0.049759 -1.594604 0.030164 -1.602203 -0.000683 -0.042667
    13 -0.034142 -1.171750 0.045718 -1.183605 0.006424 -0.031196
    14 0.957766 -2.746780 -0.090302 -0.082058 -0.157843 0.041008
    15 -0.033420 -1.397129 -0.026882 -0.857365 0.006352 -0.042163
    16 -0.022360 -0.957436 0.003159 -0.680276 0.007706 -0.033006
    17 -1.180681 -2.507217 -0.193859 -0.695044 0.195831 -0.247787
    18 -0.024967 -1.127840 0.017597 -1.674946 -0.016359 -0.065243
    19 -0.020057 -0.906594 0.025715 -0.860044 0.007095 -0.034791
    20 0.614761 -1.197277 0.181473 0.632188 -0.960454 -0.780394
    21 1.485144 -0.204604 0.067511 0.042194 -0.205332 -0.725395
    22 0.987486 -0.190791 0.047917 0.109955 -0.259553 -1.139777
    23 0.120153 -0.050270 -0.054489 0.287569 3.110905 1.561085
    24 -3.575557 -6.895373 -6.017092 0.493891 -4.247475 0.802621
    25 -0.192127 -8.477763 0.025792 -0.652122 -1.317280 1.190806
    26 0.447953 -2.798986 -0.200443 -1.183464 0.094973 0.272944
    27 -0.032909 -1.499736 0.024472 -1.308919 0.023094 -0.024147
    28 -0.027022 -1.092546 -0.028023 -0.391276 0.010558 -0.003523
    29 -0.249534 -2.846964 -0.174213 -0.932364 0.061823 0.183274
    30 0.043235 -1.656596 0.072574 -1.327365 -0.021074 0.005969
    31 0.031729 -1.153017 0.058838 -0.608222 -0.005962 0.005412
    32 -0.963866 -2.785145 -0.085350 -0.820520 0.141950 0.070175
    33 0.028479 -1.406973 -0.024980 -1.161324 -0.033653 -0.037212
    34 0.021413 -0.953875 0.020046 -0.184272 -0.002145 -0.008221
    35 1.164475 -2.543940 -0.170330 -1.562681 0.036862 0.334867
    36 0.024032 -1.136855 -0.001725 -0.870851 0.006771 0.046010
    37 0.014898 -0.891802 -0.019848 -0.489133 -0.002001 0.023813
    38 -0.586770 -1.264477 0.200161 0.068094 -0.661853 -2.976115
    39 1.554086 0.035243 0.016848 -0.013511 -0.005325 0.697370
    40 1.117947 0.048424 -0.005766 -0.000435 -0.025390 0.073974
    41 -0.041740 -0.154668 -0.219985 0.974656 0.100582 1.251771
    42 -5.018581 7.257098 -0.340999 1.581152 -0.017870 -1.081467
end
