version 1
nodes
  0 "[CSO]M60E4-pws" -1
end
skeleton
  time 0
    0 21.790059 -15.118233 2.181757 -0.316086 -0.005766 -0.589471
  time 1
    0 21.790059 -15.118233 2.181757 -0.316086 -0.005766 -0.589471
end
