// Created by Crowbar 0.71

// Stored modelname (without quotes): "v_aug_gflip.mdl"
$modelname "models/weapons/tfa_cso/c_aug.mdl"

$bodygroup "weapon"
{
	studio "f_aug_template"
}

$cdmaterials "models\weapons\tfa_cso\aug\"

$attachment 0 "Bone 04" 2.4 -15.7 1.1
//$attachment 1 "Bone50" -0.75 4 0.75

$sequence "idle" {
	"v_aug_anims\idle.smd"
	activity "ACT_VM_IDLE" 1
	fadein 0.2
	fadeout 0.2
	snap
	fps 30
	loop
}

$sequence "reload" {
	"v_aug_anims\reload.smd"
	activity "ACT_VM_RELOAD" 1
	{ event 5004 10 "AUG.BoltPull" }
	{ event 5004 50 "AUG.ClipOut" }
	{ event 5004 88 "AUG.ClipIn" }
	{ event 5004 112 "AUG.BoltSlap" }
	fadein 0.2
	fadeout 0.2
	snap
	fps 40
}

$sequence "draw" {
	"v_aug_anims\draw.smd"
	activity "ACT_VM_DRAW" 1
	{ event 5004 9 "AUG.Draw" }
	fadein 0.2
	fadeout 0.2
	snap
	fps 35
}

$sequence "shoot1" {
	"v_aug_anims\shoot1.smd"
	activity "ACT_VM_PRIMARYATTACK" 1
	{ event 5001 0 "22" }
	fadein 0.2
	fadeout 0.2
	snap
	fps 35
}

$sequence "shoot2" {
	"v_aug_anims\shoot2.smd"
	activity "ACT_VM_PRIMARYATTACK" 1
	{ event 5001 0 "22" }
	fadein 0.2
	fadeout 0.2
	snap
	fps 35
}

$sequence "shoot3" {
	"v_aug_anims\shoot3.smd"
	activity "ACT_VM_PRIMARYATTACK" 1
	{ event 5001 0 "22" }
	fadein 0.2
	fadeout 0.2
	snap
	fps 35
}