version 1
nodes
  0 "root" -1
  1 "Bone01" 0
  2 "Bone_Lefthand" 1
  3 "groza_root" 2
  4 "trigger" 3
  5 "reload" 3
  6 "magazine" 3
  7 "Bone_L_Upper" 1
  8 "Bone13" 2
  9 "Bone14" 8
  10 "Bone15" 9
  11 "Bone17" 2
  12 "Bone18" 11
  13 "Bone19" 12
  14 "Bone21" 2
  15 "Bone22" 14
  16 "Bone23" 15
  17 "Bone09" 2
  18 "Bone10" 17
  19 "Bone11" 18
  20 "Bone05" 2
  21 "Bone06" 20
  22 "Bone07" 21
  23 "Bone_Se_Hand-L" 2
  24 "Bone04" 0
  25 "Bone_Righthand" 24
  26 "Bone39" 25
  27 "Bone40" 26
  28 "Bone41" 27
  29 "Bone35" 25
  30 "Bone36" 29
  31 "Bone37" 30
  32 "Bone31" 25
  33 "Bone32" 32
  34 "Bone33" 33
  35 "Bone43" 25
  36 "Bone44" 35
  37 "Bone45" 36
  38 "Bone27" 25
  39 "Bone28" 38
  40 "Bone29" 39
  41 "Bone_Se_Hand-R" 25
  42 "Bone_R_Upper" 24
end
skeleton
  time 0
    0 0.000000 0.000000 -12.863674 -0.174532 0.000000 -0.785409
    1 8.186462 0.777844 -6.784957 0.768969 -1.860600 -0.890560
    2 -0.071917 -8.498687 -0.104136 0.147673 0.249490 0.024910
    3 1.848843 -3.361148 0.929803 -0.012221 0.068719 2.924626
    4 0.082599 1.146638 0.000000 0.000000 0.000000 0.000000
    5 -0.932205 -3.542499 0.364983 3.141592 0.000000 -1.570796
    6 0.200941 -5.459696 0.000001 0.000001 0.000000 0.000000
    7 1.257180 8.762585 -0.153713 -1.570562 0.002683 -1.566807
    8 -0.488518 -2.755602 -0.228260 -1.381605 -0.178341 -0.211266
    9 0.039887 -1.479790 0.029854 -0.929887 -0.052253 0.069907
    10 0.028786 -1.075731 -0.023109 -1.481385 0.000000 0.000000
    11 0.250027 -2.820665 -0.238396 -1.068206 -0.168272 -0.396342
    12 -0.049759 -1.680544 0.100479 -1.479918 -0.104086 0.165110
    13 -0.034142 -1.148312 0.084782 -1.087281 0.000000 0.000000
    14 0.957766 -2.746780 -0.090302 -0.420442 -0.171158 0.010363
    15 -0.033420 -1.397129 -0.011257 -0.255519 0.124808 -0.122316
    16 -0.022360 -0.957436 0.018784 -1.043310 0.000000 0.000000
    17 -1.180681 -2.507217 -0.193859 -1.245142 -0.058709 -0.139782
    18 -0.024967 -1.123934 0.017597 -0.977967 0.000000 0.000001
    19 -0.020057 -0.890968 0.010090 -0.933434 0.000000 0.000000
    20 0.583510 -1.197277 0.185379 0.379021 -1.169118 -0.652939
    21 1.535927 0.010246 0.005009 0.393379 -0.245252 -1.052879
    22 1.100771 0.004527 -0.010679 -0.011449 0.011491 -0.607431
    23 0.120153 -0.050270 -0.054489 0.287569 3.110905 1.561085
    24 -0.649687 -8.739179 -10.493791 -1.766649 -5.321384 -1.065166
    25 0.096944 -8.450418 -0.009365 0.228648 -0.233694 0.292789
    26 0.447953 -2.798986 -0.200443 -1.072186 -0.126515 -0.047440
    27 -0.032909 -1.480204 0.004940 -1.413632 0.000000 0.000002
    28 -0.027022 -1.076920 -0.020210 -1.481391 0.000000 0.000000
    29 -0.249534 -2.846964 -0.174213 -0.968633 -0.135815 -0.084786
    30 0.043235 -1.683941 0.096012 -1.469776 0.002823 -0.000167
    31 0.031729 -1.160830 0.058838 -1.436444 0.000642 0.008372
    32 -0.963866 -2.785145 -0.085350 -0.957802 -0.035925 -0.239075
    33 0.028479 -1.403067 0.006271 -1.158106 0.000000 0.000000
    34 0.021413 -0.957781 0.020046 -1.216858 0.000000 0.000000
    35 1.164475 -2.543940 -0.170330 -0.843989 -0.306425 0.042666
    36 0.024032 -1.129042 0.017807 -1.199105 0.000000 0.000001
    37 0.014898 -0.883989 -0.019848 -1.052873 0.000000 0.000000
    38 -0.586770 -1.264477 0.200161 -0.330638 -0.882973 -2.453541
    39 1.522835 0.058681 0.016848 -0.037192 -0.131247 0.649010
    40 1.117947 0.048424 -0.005766 -0.016374 -0.019146 0.763684
    41 -0.139399 -0.111698 0.014397 0.285382 -0.030687 1.580508
    42 -1.393470 8.839177 -0.239433 1.580804 -0.005023 -1.566847
  time 1
    0 -0.003906 0.003906 -12.754295 -0.174532 0.000000 -0.772202
    1 8.186462 0.777844 -6.784957 0.768969 -1.860600 -0.890560
    2 -0.071917 -8.498687 -0.104136 0.147673 0.249490 0.024910
    3 1.848843 -3.361148 0.929803 -0.012221 0.068719 2.924626
    4 0.082599 1.146638 0.000000 0.000000 0.000000 0.000000
    5 -0.932205 -3.542499 0.364983 3.141592 0.000000 -1.570796
    6 0.200941 -5.459696 0.000001 0.000001 0.000000 0.000000
    7 1.257180 8.762585 -0.153713 -1.570562 0.002683 -1.566807
    8 -0.488518 -2.755602 -0.228260 -1.381605 -0.178341 -0.211266
    9 0.039887 -1.479790 0.029854 -0.929887 -0.052253 0.069907
    10 0.028786 -1.075731 -0.023109 -1.481385 0.000000 0.000000
    11 0.250027 -2.820665 -0.238396 -1.068206 -0.168272 -0.396342
    12 -0.049759 -1.680544 0.100479 -1.479918 -0.104086 0.165110
    13 -0.034142 -1.148312 0.084782 -1.087281 0.000000 0.000000
    14 0.957766 -2.746780 -0.090302 -0.420442 -0.171158 0.010363
    15 -0.033420 -1.397129 -0.011257 -0.255519 0.124808 -0.122316
    16 -0.022360 -0.957436 0.018784 -1.043310 0.000000 0.000000
    17 -1.180681 -2.507217 -0.193859 -1.245142 -0.058709 -0.139782
    18 -0.024967 -1.123934 0.017597 -0.977967 0.000000 0.000001
    19 -0.020057 -0.890968 0.010090 -0.933434 0.000000 0.000000
    20 0.583510 -1.197277 0.185379 0.379009 -1.169118 -0.652939
    21 1.535927 0.010246 0.005009 0.393379 -0.245252 -1.052879
    22 1.100771 0.004527 -0.010679 -0.011449 0.011491 -0.607431
    23 0.120153 -0.050270 -0.054489 0.287569 3.110905 1.561085
    24 -0.649687 -8.739179 -10.493791 -1.766649 -5.321384 -1.065166
    25 0.096944 -8.450418 -0.009365 0.228648 -0.233694 0.292789
    26 0.447953 -2.798986 -0.200443 -1.072186 -0.126515 -0.047440
    27 -0.032909 -1.480204 0.004940 -1.413632 0.000000 0.000002
    28 -0.027022 -1.076920 -0.020210 -1.481391 0.000000 0.000000
    29 -0.249534 -2.846964 -0.174213 -0.968633 -0.135815 -0.084786
    30 0.043235 -1.683941 0.096012 -1.469776 0.002823 -0.000167
    31 0.031729 -1.160830 0.058838 -1.436444 0.000642 0.008372
    32 -0.963866 -2.785145 -0.085350 -0.957802 -0.035925 -0.239075
    33 0.028479 -1.403067 0.006271 -1.158106 0.000000 0.000000
    34 0.021413 -0.957781 0.020046 -1.216858 0.000000 0.000000
    35 1.164475 -2.543940 -0.170330 -0.843989 -0.306425 0.042666
    36 0.024032 -1.129042 0.017807 -1.199105 0.000000 0.000001
    37 0.014898 -0.883989 -0.019848 -1.052873 0.000000 0.000000
    38 -0.586770 -1.264477 0.200161 -0.330638 -0.882973 -2.453541
    39 1.522835 0.058681 0.016848 -0.037192 -0.131247 0.649010
    40 1.117947 0.048424 -0.005766 -0.016374 -0.019146 0.763684
    41 -0.139399 -0.111698 0.014397 0.285382 -0.030687 1.580508
    42 -1.393470 8.839177 -0.239433 1.580804 -0.005023 -1.566847
  time 2
    0 -0.019532 0.011719 -12.433973 -0.174532 0.000000 -0.735364
    1 8.186462 0.777844 -6.784957 0.768969 -1.860600 -0.890560
    2 -0.071917 -8.498687 -0.104136 0.147673 0.249490 0.024910
    3 1.848843 -3.361148 0.929803 -0.012221 0.068719 2.924626
    4 0.082599 1.146638 0.000000 0.000000 0.000000 0.000000
    5 -0.932205 -3.542499 0.364983 3.141592 0.000000 -1.570796
    6 0.200941 -5.459696 0.000001 0.000001 0.000000 0.000000
    7 1.257180 8.762585 -0.153713 -1.570562 0.002683 -1.566807
    8 -0.488518 -2.755602 -0.228260 -1.381605 -0.178341 -0.211266
    9 0.039887 -1.479790 0.029854 -0.929887 -0.052253 0.069907
    10 0.028786 -1.075731 -0.023109 -1.481385 0.000000 0.000000
    11 0.250027 -2.820665 -0.238396 -1.068206 -0.168272 -0.396342
    12 -0.049759 -1.680544 0.100479 -1.479918 -0.104086 0.165110
    13 -0.034142 -1.148312 0.084782 -1.087281 0.000000 0.000000
    14 0.957766 -2.746780 -0.090302 -0.420442 -0.171158 0.010363
    15 -0.033420 -1.397129 -0.011257 -0.255519 0.124808 -0.122316
    16 -0.022360 -0.957436 0.018784 -1.043310 0.000000 0.000000
    17 -1.180681 -2.507217 -0.193859 -1.245142 -0.058709 -0.139782
    18 -0.024967 -1.123934 0.017597 -0.977967 0.000000 0.000001
    19 -0.020057 -0.890968 0.010090 -0.933434 0.000000 0.000000
    20 0.583510 -1.197277 0.185379 0.379009 -1.169118 -0.652939
    21 1.535927 0.010246 0.005009 0.393379 -0.245252 -1.052879
    22 1.100771 0.004527 -0.010679 -0.011449 0.011491 -0.607431
    23 0.120153 -0.050270 -0.054489 0.287569 3.110905 1.561085
    24 -0.649687 -8.739179 -10.493791 -1.766649 -5.321384 -1.065166
    25 0.096944 -8.450418 -0.009365 0.228648 -0.233694 0.292789
    26 0.447953 -2.798986 -0.200443 -1.072186 -0.126515 -0.047440
    27 -0.032909 -1.480204 0.004940 -1.413632 0.000000 0.000002
    28 -0.027022 -1.076920 -0.020210 -1.481391 0.000000 0.000000
    29 -0.249534 -2.846964 -0.174213 -0.968633 -0.135815 -0.084786
    30 0.043235 -1.683941 0.096012 -1.469776 0.002823 -0.000167
    31 0.031729 -1.160830 0.058838 -1.436444 0.000642 0.008372
    32 -0.963866 -2.785145 -0.085350 -0.957802 -0.035925 -0.239075
    33 0.028479 -1.403067 0.006271 -1.158106 0.000000 0.000000
    34 0.021413 -0.957781 0.020046 -1.216858 0.000000 0.000000
    35 1.164475 -2.543940 -0.170330 -0.843989 -0.306425 0.042666
    36 0.024032 -1.129042 0.017807 -1.199105 0.000000 0.000001
    37 0.014898 -0.883989 -0.019848 -1.052873 0.000000 0.000000
    38 -0.586770 -1.264477 0.200161 -0.330638 -0.882973 -2.453541
    39 1.522835 0.058681 0.016848 -0.037192 -0.131247 0.649010
    40 1.117947 0.048424 -0.005766 -0.016374 -0.019146 0.763684
    41 -0.139399 -0.111698 0.014397 0.285382 -0.030687 1.580508
    42 -1.393470 8.839177 -0.239433 1.580804 -0.005023 -1.566847
  time 3
    0 -0.046876 0.031251 -11.937864 -0.174532 0.000000 -0.679247
    1 8.186462 0.777844 -6.784957 0.768969 -1.860600 -0.890560
    2 -0.071917 -8.498687 -0.104136 0.147673 0.249490 0.024910
    3 1.848843 -3.361148 0.929803 -0.012221 0.068719 2.924626
    4 0.082599 1.146638 0.000000 0.000000 0.000000 0.000000
    5 -0.932205 -3.542499 0.364983 3.141592 0.000000 -1.570796
    6 0.200941 -5.459696 0.000001 0.000001 0.000000 0.000000
    7 1.257180 8.762585 -0.153713 -1.570562 0.002683 -1.566807
    8 -0.488518 -2.755602 -0.228260 -1.381605 -0.178341 -0.211266
    9 0.039887 -1.479790 0.029854 -0.929887 -0.052253 0.069907
    10 0.028786 -1.075731 -0.023109 -1.481385 0.000000 0.000000
    11 0.250027 -2.820665 -0.238396 -1.068206 -0.168272 -0.396342
    12 -0.049759 -1.680544 0.100479 -1.479918 -0.104086 0.165110
    13 -0.034142 -1.148312 0.084782 -1.087281 0.000000 0.000000
    14 0.957766 -2.746780 -0.090302 -0.420442 -0.171158 0.010363
    15 -0.033420 -1.397129 -0.011257 -0.255519 0.124808 -0.122316
    16 -0.022360 -0.957436 0.018784 -1.043310 0.000000 0.000000
    17 -1.180681 -2.507217 -0.193859 -1.245142 -0.058709 -0.139782
    18 -0.024967 -1.123934 0.017597 -0.977967 0.000000 0.000001
    19 -0.020057 -0.890968 0.010090 -0.933434 0.000000 0.000000
    20 0.583510 -1.197277 0.185379 0.379021 -1.169118 -0.652939
    21 1.535927 0.010246 0.005009 0.393379 -0.245252 -1.052879
    22 1.100771 0.004527 -0.010679 -0.011449 0.011491 -0.607431
    23 0.120153 -0.050270 -0.054489 0.287569 3.110905 1.561085
    24 -0.649687 -8.739179 -10.493791 -1.766649 -5.321384 -1.065166
    25 0.096944 -8.450418 -0.009365 0.228648 -0.233694 0.292789
    26 0.447953 -2.798986 -0.200443 -1.072186 -0.126515 -0.047440
    27 -0.032909 -1.480204 0.004940 -1.413632 0.000000 0.000002
    28 -0.027022 -1.076920 -0.020210 -1.481391 0.000000 0.000000
    29 -0.249534 -2.846964 -0.174213 -0.968633 -0.135815 -0.084786
    30 0.043235 -1.683941 0.096012 -1.469776 0.002823 -0.000167
    31 0.031729 -1.160830 0.058838 -1.436444 0.000642 0.008372
    32 -0.963866 -2.785145 -0.085350 -0.957802 -0.035925 -0.239075
    33 0.028479 -1.403067 0.006271 -1.158106 0.000000 0.000000
    34 0.021413 -0.957781 0.020046 -1.216858 0.000000 0.000000
    35 1.164475 -2.543940 -0.170330 -0.843989 -0.306425 0.042666
    36 0.024032 -1.129042 0.017807 -1.199105 0.000000 0.000001
    37 0.014898 -0.883989 -0.019848 -1.052873 0.000000 0.000000
    38 -0.586770 -1.264477 0.200161 -0.330638 -0.882973 -2.453541
    39 1.522835 0.058681 0.016848 -0.037192 -0.131247 0.649010
    40 1.117947 0.048424 -0.005766 -0.016374 -0.019146 0.763684
    41 -0.139399 -0.111698 0.014397 0.285382 -0.030687 1.580508
    42 -1.393470 8.839177 -0.239433 1.580804 -0.005023 -1.566847
  time 4
    0 -0.082034 0.050783 -11.289407 -0.174532 0.000000 -0.608101
    1 8.186462 0.777844 -6.784957 0.768969 -1.860600 -0.890560
    2 -0.071917 -8.498687 -0.104136 0.147673 0.249490 0.024910
    3 1.848843 -3.361148 0.929803 -0.012221 0.068719 2.924626
    4 0.082599 1.146638 0.000000 0.000000 0.000000 0.000000
    5 -0.932205 -3.542499 0.364983 3.141592 0.000000 -1.570796
    6 0.200941 -5.459696 0.000001 0.000001 0.000000 0.000000
    7 1.257180 8.762585 -0.153713 -1.570562 0.002683 -1.566807
    8 -0.488518 -2.755602 -0.228260 -1.381605 -0.178341 -0.211266
    9 0.039887 -1.479790 0.029854 -0.929887 -0.052253 0.069907
    10 0.028786 -1.075731 -0.023109 -1.481385 0.000000 0.000000
    11 0.250027 -2.820665 -0.238396 -1.068206 -0.168272 -0.396342
    12 -0.049759 -1.680544 0.100479 -1.479918 -0.104086 0.165110
    13 -0.034142 -1.148312 0.084782 -1.087281 0.000000 0.000000
    14 0.957766 -2.746780 -0.090302 -0.420442 -0.171158 0.010363
    15 -0.033420 -1.397129 -0.011257 -0.255519 0.124808 -0.122316
    16 -0.022360 -0.957436 0.018784 -1.043310 0.000000 0.000000
    17 -1.180681 -2.507217 -0.193859 -1.245142 -0.058709 -0.139782
    18 -0.024967 -1.123934 0.017597 -0.977967 0.000000 0.000001
    19 -0.020057 -0.890968 0.010090 -0.933434 0.000000 0.000000
    20 0.583510 -1.197277 0.185379 0.379009 -1.169118 -0.652939
    21 1.535927 0.010246 0.005009 0.393379 -0.245252 -1.052879
    22 1.100771 0.004527 -0.010679 -0.011449 0.011491 -0.607431
    23 0.120153 -0.050270 -0.054489 0.287569 3.110905 1.561085
    24 -0.649687 -8.739179 -10.493791 -1.766649 -5.321384 -1.065166
    25 0.096944 -8.450418 -0.009365 0.228648 -0.233694 0.292789
    26 0.447953 -2.798986 -0.200443 -1.072186 -0.126515 -0.047440
    27 -0.032909 -1.480204 0.004940 -1.413632 0.000000 0.000002
    28 -0.027022 -1.076920 -0.020210 -1.481391 0.000000 0.000000
    29 -0.249534 -2.846964 -0.174213 -0.968633 -0.135815 -0.084786
    30 0.043235 -1.683941 0.096012 -1.469776 0.002823 -0.000167
    31 0.031729 -1.160830 0.058838 -1.436444 0.000642 0.008372
    32 -0.963866 -2.785145 -0.085350 -0.957802 -0.035925 -0.239075
    33 0.028479 -1.403067 0.006271 -1.158106 0.000000 0.000000
    34 0.021413 -0.957781 0.020046 -1.216858 0.000000 0.000000
    35 1.164475 -2.543940 -0.170330 -0.843989 -0.306425 0.042666
    36 0.024032 -1.129042 0.017807 -1.199105 0.000000 0.000001
    37 0.014898 -0.883989 -0.019848 -1.052873 0.000000 0.000000
    38 -0.586770 -1.264477 0.200161 -0.330638 -0.882973 -2.453541
    39 1.522835 0.058681 0.016848 -0.037192 -0.131247 0.649010
    40 1.117947 0.048424 -0.005766 -0.016374 -0.019146 0.763684
    41 -0.139399 -0.111698 0.014397 0.285382 -0.030687 1.580508
    42 -1.393470 8.839177 -0.239433 1.580804 -0.005023 -1.566847
  time 5
    0 -0.121097 0.078127 -10.515946 -0.174532 0.000000 -0.526228
    1 8.186462 0.777844 -6.784957 0.768969 -1.860600 -0.890560
    2 -0.071917 -8.498687 -0.104136 0.147673 0.249490 0.024910
    3 1.848843 -3.361148 0.929803 -0.012221 0.068719 2.924626
    4 0.082599 1.146638 0.000000 0.000000 0.000000 0.000000
    5 -0.932205 -3.542499 0.364983 3.141592 0.000000 -1.570796
    6 0.200941 -5.459696 0.000001 0.000001 0.000000 0.000000
    7 1.257180 8.762585 -0.153713 -1.570562 0.002683 -1.566807
    8 -0.488518 -2.755602 -0.228260 -1.381605 -0.178341 -0.211266
    9 0.039887 -1.479790 0.029854 -0.929887 -0.052253 0.069907
    10 0.028786 -1.075731 -0.023109 -1.481385 0.000000 0.000000
    11 0.250027 -2.820665 -0.238396 -1.068206 -0.168272 -0.396342
    12 -0.049759 -1.680544 0.100479 -1.479918 -0.104086 0.165110
    13 -0.034142 -1.148312 0.084782 -1.087313 0.000000 0.000000
    14 0.957766 -2.746780 -0.090302 -0.420442 -0.171158 0.010363
    15 -0.033420 -1.397129 -0.011257 -0.255519 0.124808 -0.122316
    16 -0.022360 -0.957436 0.018784 -1.043310 0.000000 0.000000
    17 -1.180681 -2.507217 -0.193859 -1.245142 -0.058709 -0.139782
    18 -0.024967 -1.123934 0.017597 -0.977967 0.000000 0.000001
    19 -0.020057 -0.890968 0.010090 -0.933434 0.000000 0.000000
    20 0.583510 -1.197277 0.185379 0.379021 -1.169118 -0.652939
    21 1.535927 0.010246 0.005009 0.393379 -0.245252 -1.052879
    22 1.100771 0.004527 -0.010679 -0.011449 0.011491 -0.607431
    23 0.120153 -0.050270 -0.054489 0.287569 3.110905 1.561085
    24 -0.649687 -8.739179 -10.493791 -1.766649 -5.321384 -1.065166
    25 0.096944 -8.450418 -0.009365 0.228648 -0.233694 0.292789
    26 0.447953 -2.798986 -0.200443 -1.072186 -0.126515 -0.047440
    27 -0.032909 -1.480204 0.004940 -1.413632 0.000000 0.000002
    28 -0.027022 -1.076920 -0.020210 -1.481391 0.000000 0.000000
    29 -0.249534 -2.846964 -0.174213 -0.968633 -0.135815 -0.084786
    30 0.043235 -1.683941 0.096012 -1.469776 0.002823 -0.000167
    31 0.031729 -1.160830 0.058838 -1.436444 0.000642 0.008372
    32 -0.963866 -2.785145 -0.085350 -0.957802 -0.035925 -0.239075
    33 0.028479 -1.403067 0.006271 -1.158106 0.000000 0.000000
    34 0.021413 -0.957781 0.020046 -1.216858 0.000000 0.000000
    35 1.164475 -2.543940 -0.170330 -0.843989 -0.306425 0.042666
    36 0.024032 -1.129042 0.017807 -1.199105 0.000000 0.000001
    37 0.014898 -0.883989 -0.019848 -1.052873 0.000000 0.000000
    38 -0.586770 -1.264477 0.200161 -0.330638 -0.882973 -2.453541
    39 1.522835 0.058681 0.016848 -0.037192 -0.131247 0.649010
    40 1.117947 0.048424 -0.005766 -0.016374 -0.019146 0.763684
    41 -0.139399 -0.111698 0.014397 0.285382 -0.030687 1.580508
    42 -1.393470 8.839177 -0.239433 1.580804 -0.005023 -1.566847
  time 6
    0 -0.167974 0.105472 -9.644826 -0.174532 0.000000 -0.437928
    1 8.186462 0.777844 -6.784957 0.768969 -1.860600 -0.890560
    2 -0.071917 -8.498687 -0.104136 0.147673 0.249490 0.024910
    3 1.848843 -3.361148 0.929803 -0.012221 0.068719 2.924626
    4 0.082599 1.146638 0.000000 0.000000 0.000000 0.000000
    5 -0.932205 -3.542499 0.364983 3.141592 0.000000 -1.570796
    6 0.200941 -5.459696 0.000001 0.000001 0.000000 0.000000
    7 1.257180 8.762585 -0.153713 -1.570562 0.002683 -1.566807
    8 -0.488518 -2.755602 -0.228260 -1.381605 -0.178341 -0.211266
    9 0.039887 -1.479790 0.029854 -0.929887 -0.052253 0.069907
    10 0.028786 -1.075731 -0.023109 -1.481385 0.000000 0.000000
    11 0.250027 -2.820665 -0.238396 -1.068206 -0.168272 -0.396342
    12 -0.049759 -1.680544 0.100479 -1.479918 -0.104086 0.165110
    13 -0.034142 -1.148312 0.084782 -1.087281 0.000000 0.000000
    14 0.957766 -2.746780 -0.090302 -0.420442 -0.171158 0.010363
    15 -0.033420 -1.397129 -0.011257 -0.255519 0.124808 -0.122316
    16 -0.022360 -0.957436 0.018784 -1.043310 0.000000 0.000000
    17 -1.180681 -2.507217 -0.193859 -1.245142 -0.058709 -0.139782
    18 -0.024967 -1.123934 0.017597 -0.977967 0.000000 0.000001
    19 -0.020057 -0.890968 0.010090 -0.933434 0.000000 0.000000
    20 0.583510 -1.197277 0.185379 0.379009 -1.169118 -0.652939
    21 1.535927 0.010246 0.005009 0.393379 -0.245252 -1.052879
    22 1.100771 0.004527 -0.010679 -0.011449 0.011491 -0.607431
    23 0.120153 -0.050270 -0.054489 0.287569 3.110905 1.561085
    24 -0.649687 -8.739179 -10.493791 -1.766649 -5.321384 -1.065166
    25 0.096944 -8.450418 -0.009365 0.228648 -0.233694 0.292789
    26 0.447953 -2.798986 -0.200443 -1.072186 -0.126515 -0.047440
    27 -0.032909 -1.480204 0.004940 -1.413632 0.000000 0.000002
    28 -0.027022 -1.076920 -0.020210 -1.481391 0.000000 0.000000
    29 -0.249534 -2.846964 -0.174213 -0.968633 -0.135815 -0.084786
    30 0.043235 -1.683941 0.096012 -1.469776 0.002823 -0.000167
    31 0.031729 -1.160830 0.058838 -1.436444 0.000642 0.008372
    32 -0.963866 -2.785145 -0.085350 -0.957802 -0.035925 -0.239075
    33 0.028479 -1.403067 0.006271 -1.158106 0.000000 0.000000
    34 0.021413 -0.957781 0.020046 -1.216858 0.000000 0.000000
    35 1.164475 -2.543940 -0.170330 -0.843989 -0.306425 0.042666
    36 0.024032 -1.129042 0.017807 -1.199105 0.000000 0.000001
    37 0.014898 -0.883989 -0.019848 -1.052873 0.000000 0.000000
    38 -0.586770 -1.264477 0.200161 -0.330638 -0.882973 -2.453541
    39 1.522835 0.058681 0.016848 -0.037192 -0.131247 0.649010
    40 1.117947 0.048424 -0.005766 -0.016374 -0.019146 0.763684
    41 -0.139399 -0.111698 0.014397 0.285382 -0.030687 1.580508
    42 -1.393470 8.839177 -0.239433 1.580804 -0.005023 -1.566847
  time 7
    0 -0.214850 0.136723 -8.699484 -0.174532 0.000000 -0.347503
    1 8.186462 0.777844 -6.784957 0.768969 -1.860600 -0.890560
    2 -0.071917 -8.498687 -0.104136 0.147673 0.249490 0.024910
    3 1.848843 -3.361148 0.929803 -0.012221 0.068719 2.924626
    4 0.082599 1.146638 0.000000 0.000000 0.000000 0.000000
    5 -0.932205 -3.542499 0.364983 3.141592 0.000000 -1.570796
    6 0.200941 -5.459696 0.000001 0.000001 0.000000 0.000000
    7 1.257180 8.762585 -0.153713 -1.570562 0.002683 -1.566807
    8 -0.488518 -2.755602 -0.228260 -1.381605 -0.178341 -0.211266
    9 0.039887 -1.479790 0.029854 -0.929887 -0.052253 0.069907
    10 0.028786 -1.075731 -0.023109 -1.481385 0.000000 0.000000
    11 0.250027 -2.820665 -0.238396 -1.068206 -0.168272 -0.396342
    12 -0.049759 -1.680544 0.100479 -1.479918 -0.104086 0.165110
    13 -0.034142 -1.148312 0.084782 -1.087281 0.000000 0.000000
    14 0.957766 -2.746780 -0.090302 -0.420442 -0.171158 0.010363
    15 -0.033420 -1.397129 -0.011257 -0.255519 0.124808 -0.122316
    16 -0.022360 -0.957436 0.018784 -1.043310 0.000000 0.000000
    17 -1.180681 -2.507217 -0.193859 -1.245142 -0.058709 -0.139782
    18 -0.024967 -1.123934 0.017597 -0.977967 0.000000 0.000001
    19 -0.020057 -0.890968 0.010090 -0.933434 0.000000 0.000000
    20 0.583510 -1.197277 0.185379 0.379021 -1.169118 -0.652939
    21 1.535927 0.010246 0.005009 0.393379 -0.245252 -1.052879
    22 1.100771 0.004527 -0.010679 -0.011449 0.011491 -0.607431
    23 0.120153 -0.050270 -0.054489 0.287569 3.110905 1.561085
    24 -0.649687 -8.739179 -10.493791 -1.766649 -5.321384 -1.065166
    25 0.096944 -8.450418 -0.009365 0.228648 -0.233694 0.292789
    26 0.447953 -2.798986 -0.200443 -1.072186 -0.126515 -0.047440
    27 -0.032909 -1.480204 0.004940 -1.413632 0.000000 0.000002
    28 -0.027022 -1.076920 -0.020210 -1.481391 0.000000 0.000000
    29 -0.249534 -2.846964 -0.174213 -0.968633 -0.135815 -0.084786
    30 0.043235 -1.683941 0.096012 -1.469776 0.002823 -0.000167
    31 0.031729 -1.160830 0.058838 -1.436444 0.000642 0.008372
    32 -0.963866 -2.785145 -0.085350 -0.957802 -0.035925 -0.239075
    33 0.028479 -1.403067 0.006271 -1.158106 0.000000 0.000000
    34 0.021413 -0.957781 0.020046 -1.216858 0.000000 0.000000
    35 1.164475 -2.543940 -0.170330 -0.843989 -0.306425 0.042666
    36 0.024032 -1.129042 0.017807 -1.199105 0.000000 0.000001
    37 0.014898 -0.883989 -0.019848 -1.052873 0.000000 0.000000
    38 -0.586770 -1.264477 0.200161 -0.330638 -0.882973 -2.453541
    39 1.522835 0.058681 0.016848 -0.037192 -0.131247 0.649010
    40 1.117947 0.048424 -0.005766 -0.016374 -0.019146 0.763684
    41 -0.139399 -0.111698 0.014397 0.285382 -0.030687 1.580508
    42 -1.393470 8.839177 -0.239433 1.580804 -0.005023 -1.566847
  time 8
    0 -0.261727 0.167974 -7.711173 -0.174532 0.000000 -0.259203
    1 8.186462 0.777844 -6.784957 0.768969 -1.860600 -0.890560
    2 -0.071917 -8.498687 -0.104136 0.147673 0.249490 0.024910
    3 1.848843 -3.361148 0.929803 -0.012221 0.068719 2.924626
    4 0.082599 1.146638 0.000000 0.000000 0.000000 0.000000
    5 -0.932205 -3.542499 0.364983 3.141592 0.000000 -1.570796
    6 0.200941 -5.459696 0.000001 0.000001 0.000000 0.000000
    7 1.257180 8.762585 -0.153713 -1.570562 0.002683 -1.566807
    8 -0.488518 -2.755602 -0.228260 -1.381605 -0.178341 -0.211266
    9 0.039887 -1.479790 0.029854 -0.929887 -0.052253 0.069907
    10 0.028786 -1.075731 -0.023109 -1.481385 0.000000 0.000000
    11 0.250027 -2.820665 -0.238396 -1.068206 -0.168272 -0.396342
    12 -0.049759 -1.680544 0.100479 -1.479918 -0.104086 0.165110
    13 -0.034142 -1.148312 0.084782 -1.087281 0.000000 0.000000
    14 0.957766 -2.746780 -0.090302 -0.420442 -0.171158 0.010363
    15 -0.033420 -1.397129 -0.011257 -0.255519 0.124808 -0.122316
    16 -0.022360 -0.957436 0.018784 -1.043310 0.000000 0.000000
    17 -1.180681 -2.507217 -0.193859 -1.245142 -0.058709 -0.139782
    18 -0.024967 -1.123934 0.017597 -0.977967 0.000000 0.000001
    19 -0.020057 -0.890968 0.010090 -0.933434 0.000000 0.000000
    20 0.583510 -1.197277 0.185379 0.379021 -1.169118 -0.652939
    21 1.535927 0.010246 0.005009 0.393379 -0.245252 -1.052879
    22 1.100771 0.004527 -0.010679 -0.011449 0.011491 -0.607431
    23 0.120153 -0.050270 -0.054489 0.287569 3.110905 1.561085
    24 -0.649687 -8.739179 -10.493791 -1.766649 -5.321384 -1.065166
    25 0.096944 -8.450418 -0.009365 0.228648 -0.233694 0.292789
    26 0.447953 -2.798986 -0.200443 -1.072186 -0.126515 -0.047440
    27 -0.032909 -1.480204 0.004940 -1.413632 0.000000 0.000002
    28 -0.027022 -1.076920 -0.020210 -1.481391 0.000000 0.000000
    29 -0.249534 -2.846964 -0.174213 -0.968633 -0.135815 -0.084786
    30 0.043235 -1.683941 0.096012 -1.469776 0.002823 -0.000167
    31 0.031729 -1.160830 0.058838 -1.436444 0.000642 0.008372
    32 -0.963866 -2.785145 -0.085350 -0.957802 -0.035925 -0.239075
    33 0.028479 -1.403067 0.006271 -1.158106 0.000000 0.000000
    34 0.021413 -0.957781 0.020046 -1.216858 0.000000 0.000000
    35 1.164475 -2.543940 -0.170330 -0.843989 -0.306425 0.042666
    36 0.024032 -1.129042 0.017807 -1.199105 0.000000 0.000001
    37 0.014898 -0.883989 -0.019848 -1.052873 0.000000 0.000000
    38 -0.586770 -1.264477 0.200161 -0.330638 -0.882973 -2.453541
    39 1.522835 0.058681 0.016848 -0.037192 -0.131247 0.649010
    40 1.117947 0.048424 -0.005766 -0.016374 -0.019146 0.763684
    41 -0.139399 -0.111698 0.014397 0.285382 -0.030687 1.580508
    42 -1.393470 8.839177 -0.239433 1.580804 -0.005023 -1.566847
  time 9
    0 -0.308603 0.195318 -6.707236 -0.174532 0.000000 -0.177330
    1 8.186462 0.777844 -6.784957 0.768969 -1.860600 -0.890560
    2 -0.071917 -8.498687 -0.104136 0.147673 0.249490 0.024910
    3 1.848843 -3.361148 0.929803 -0.012221 0.068719 2.924626
    4 0.082599 1.146638 0.000000 0.000000 0.000000 0.000000
    5 -0.932205 -3.542499 0.364983 3.141592 0.000000 -1.570796
    6 0.200941 -5.459696 0.000001 0.000001 0.000000 0.000000
    7 1.257180 8.762585 -0.153713 -1.570562 0.002683 -1.566807
    8 -0.488518 -2.755602 -0.228260 -1.381605 -0.178341 -0.211266
    9 0.039887 -1.479790 0.029854 -0.929887 -0.052253 0.069907
    10 0.028786 -1.075731 -0.023109 -1.481385 0.000000 0.000000
    11 0.250027 -2.820665 -0.238396 -1.068206 -0.168272 -0.396342
    12 -0.049759 -1.680544 0.100479 -1.479918 -0.104086 0.165110
    13 -0.034142 -1.148312 0.084782 -1.087313 0.000000 0.000000
    14 0.957766 -2.746780 -0.090302 -0.420442 -0.171158 0.010363
    15 -0.033420 -1.397129 -0.011257 -0.255519 0.124808 -0.122316
    16 -0.022360 -0.957436 0.018784 -1.043310 0.000000 0.000000
    17 -1.180681 -2.507217 -0.193859 -1.245142 -0.058709 -0.139782
    18 -0.024967 -1.123934 0.017597 -0.977967 0.000000 0.000001
    19 -0.020057 -0.890968 0.010090 -0.933434 0.000000 0.000000
    20 0.583510 -1.197277 0.185379 0.379021 -1.169118 -0.652939
    21 1.535927 0.010246 0.005009 0.393379 -0.245252 -1.052879
    22 1.100771 0.004527 -0.010679 -0.011449 0.011491 -0.607431
    23 0.120153 -0.050270 -0.054489 0.287569 3.110905 1.561085
    24 -0.649687 -8.739179 -10.493791 -1.766649 -5.321384 -1.065166
    25 0.096944 -8.450418 -0.009365 0.228648 -0.233694 0.292789
    26 0.447953 -2.798986 -0.200443 -1.072186 -0.126515 -0.047440
    27 -0.032909 -1.480204 0.004940 -1.413632 0.000000 0.000002
    28 -0.027022 -1.076920 -0.020210 -1.481391 0.000000 0.000000
    29 -0.249534 -2.846964 -0.174213 -0.968633 -0.135815 -0.084786
    30 0.043235 -1.683941 0.096012 -1.469776 0.002823 -0.000167
    31 0.031729 -1.160830 0.058838 -1.436444 0.000642 0.008372
    32 -0.963866 -2.785145 -0.085350 -0.957802 -0.035925 -0.239075
    33 0.028479 -1.403067 0.006271 -1.158106 0.000000 0.000000
    34 0.021413 -0.957781 0.020046 -1.216858 0.000000 0.000000
    35 1.164475 -2.543940 -0.170330 -0.843989 -0.306425 0.042666
    36 0.024032 -1.129042 0.017807 -1.199105 0.000000 0.000001
    37 0.014898 -0.883989 -0.019848 -1.052873 0.000000 0.000000
    38 -0.586770 -1.264477 0.200161 -0.330638 -0.882973 -2.453541
    39 1.522835 0.058681 0.016848 -0.037192 -0.131247 0.649010
    40 1.117947 0.048424 -0.005766 -0.016374 -0.019146 0.763684
    41 -0.139399 -0.111698 0.014397 0.285382 -0.030687 1.580508
    42 -1.393470 8.839177 -0.239433 1.580804 -0.005023 -1.566847
  time 10
    0 -0.355480 0.226569 -5.711112 -0.174532 0.000000 -0.106184
    1 8.186462 0.777844 -6.784957 0.768969 -1.860600 -0.890560
    2 -0.071917 -8.498687 -0.104136 0.147673 0.249490 0.024910
    3 1.848843 -3.361148 0.929803 -0.012221 0.068719 2.924626
    4 0.082599 1.146638 0.000000 0.000000 0.000000 0.000000
    5 -0.932205 -3.542499 0.364983 3.141592 0.000000 -1.570796
    6 0.200941 -5.459696 0.000001 0.000001 0.000000 0.000000
    7 1.257180 8.762585 -0.153713 -1.570562 0.002683 -1.566807
    8 -0.488518 -2.755602 -0.228260 -1.381605 -0.178341 -0.211266
    9 0.039887 -1.479790 0.029854 -0.929887 -0.052253 0.069907
    10 0.028786 -1.075731 -0.023109 -1.481385 0.000000 0.000000
    11 0.250027 -2.820665 -0.238396 -1.068206 -0.168272 -0.396342
    12 -0.049759 -1.680544 0.100479 -1.479918 -0.104086 0.165110
    13 -0.034142 -1.148312 0.084782 -1.087281 0.000000 0.000000
    14 0.957766 -2.746780 -0.090302 -0.420442 -0.171158 0.010363
    15 -0.033420 -1.397129 -0.011257 -0.255519 0.124808 -0.122316
    16 -0.022360 -0.957436 0.018784 -1.043310 0.000000 0.000000
    17 -1.180681 -2.507217 -0.193859 -1.245142 -0.058709 -0.139782
    18 -0.024967 -1.123934 0.017597 -0.977967 0.000000 0.000001
    19 -0.020057 -0.890968 0.010090 -0.933434 0.000000 0.000000
    20 0.583510 -1.197277 0.185379 0.379009 -1.169118 -0.652939
    21 1.535927 0.010246 0.005009 0.393379 -0.245252 -1.052879
    22 1.100771 0.004527 -0.010679 -0.011449 0.011491 -0.607431
    23 0.120153 -0.050270 -0.054489 0.287569 3.110905 1.561085
    24 -0.649687 -8.739179 -10.493791 -1.766649 -5.321384 -1.065166
    25 0.096944 -8.450418 -0.009365 0.228648 -0.233694 0.292789
    26 0.447953 -2.798986 -0.200443 -1.072186 -0.126515 -0.047440
    27 -0.032909 -1.480204 0.004940 -1.413632 0.000000 0.000002
    28 -0.027022 -1.076920 -0.020210 -1.481391 0.000000 0.000000
    29 -0.249534 -2.846964 -0.174213 -0.968633 -0.135815 -0.084786
    30 0.043235 -1.683941 0.096012 -1.469776 0.002823 -0.000167
    31 0.031729 -1.160830 0.058838 -1.436444 0.000642 0.008372
    32 -0.963866 -2.785145 -0.085350 -0.957802 -0.035925 -0.239075
    33 0.028479 -1.403067 0.006271 -1.158106 0.000000 0.000000
    34 0.021413 -0.957781 0.020046 -1.216858 0.000000 0.000000
    35 1.164475 -2.543940 -0.170330 -0.843989 -0.306425 0.042666
    36 0.024032 -1.129042 0.017807 -1.199105 0.000000 0.000001
    37 0.014898 -0.883989 -0.019848 -1.052873 0.000000 0.000000
    38 -0.586770 -1.264477 0.200161 -0.330638 -0.882973 -2.453541
    39 1.522835 0.058681 0.016848 -0.037192 -0.131247 0.649010
    40 1.117947 0.048424 -0.005766 -0.016374 -0.019146 0.763684
    41 -0.139399 -0.111698 0.014397 0.285382 -0.030687 1.580508
    42 -1.393470 8.839177 -0.239433 1.580804 -0.005023 -1.566847
  time 11
    0 -0.394543 0.250008 -4.750145 -0.174532 0.000000 -0.050067
    1 8.186462 0.777844 -6.784957 0.768969 -1.860600 -0.890560
    2 -0.071917 -8.498687 -0.104136 0.147673 0.249490 0.024910
    3 1.848843 -3.361148 0.929803 -0.012221 0.068719 2.924626
    4 0.082599 1.146638 0.000000 0.000000 0.000000 0.000000
    5 -0.932205 -3.542499 0.364983 3.141592 0.000000 -1.570796
    6 0.200941 -5.459696 0.000001 0.000001 0.000000 0.000000
    7 1.257180 8.762585 -0.153713 -1.570562 0.002683 -1.566807
    8 -0.488518 -2.755602 -0.228260 -1.381605 -0.178341 -0.211266
    9 0.039887 -1.479790 0.029854 -0.929887 -0.052253 0.069907
    10 0.028786 -1.075731 -0.023109 -1.481385 0.000000 0.000000
    11 0.250027 -2.820665 -0.238396 -1.068206 -0.168272 -0.396342
    12 -0.049759 -1.680544 0.100479 -1.479918 -0.104086 0.165110
    13 -0.034142 -1.148312 0.084782 -1.087281 0.000000 0.000000
    14 0.957766 -2.746780 -0.090302 -0.420442 -0.171158 0.010363
    15 -0.033420 -1.397129 -0.011257 -0.255519 0.124808 -0.122316
    16 -0.022360 -0.957436 0.018784 -1.043310 0.000000 0.000000
    17 -1.180681 -2.507217 -0.193859 -1.245142 -0.058709 -0.139782
    18 -0.024967 -1.123934 0.017597 -0.977967 0.000000 0.000001
    19 -0.020057 -0.890968 0.010090 -0.933434 0.000000 0.000000
    20 0.583510 -1.197277 0.185379 0.379021 -1.169118 -0.652939
    21 1.535927 0.010246 0.005009 0.393379 -0.245252 -1.052879
    22 1.100771 0.004527 -0.010679 -0.011449 0.011491 -0.607431
    23 0.120153 -0.050270 -0.054489 0.287569 3.110905 1.561085
    24 -0.649687 -8.739179 -10.493791 -1.766649 -5.321384 -1.065166
    25 0.096944 -8.450418 -0.009365 0.228648 -0.233694 0.292789
    26 0.447953 -2.798986 -0.200443 -1.072186 -0.126515 -0.047440
    27 -0.032909 -1.480204 0.004940 -1.413632 0.000000 0.000002
    28 -0.027022 -1.076920 -0.020210 -1.481391 0.000000 0.000000
    29 -0.249534 -2.846964 -0.174213 -0.968633 -0.135815 -0.084786
    30 0.043235 -1.683941 0.096012 -1.469776 0.002823 -0.000167
    31 0.031729 -1.160830 0.058838 -1.436444 0.000642 0.008372
    32 -0.963866 -2.785145 -0.085350 -0.957802 -0.035925 -0.239075
    33 0.028479 -1.403067 0.006271 -1.158106 0.000000 0.000000
    34 0.021413 -0.957781 0.020046 -1.216858 0.000000 0.000000
    35 1.164475 -2.543940 -0.170330 -0.843989 -0.306425 0.042666
    36 0.024032 -1.129042 0.017807 -1.199105 0.000000 0.000001
    37 0.014898 -0.883989 -0.019848 -1.052873 0.000000 0.000000
    38 -0.586770 -1.264477 0.200161 -0.330638 -0.882973 -2.453541
    39 1.522835 0.058681 0.016848 -0.037192 -0.131247 0.649010
    40 1.117947 0.048424 -0.005766 -0.016374 -0.019146 0.763684
    41 -0.139399 -0.111698 0.014397 0.285382 -0.030687 1.580508
    42 -1.393470 8.839177 -0.239433 1.580804 -0.005023 -1.566847
  time 12
    0 -0.429701 0.273446 -3.851680 -0.174532 0.000000 -0.013229
    1 8.186462 0.777844 -6.784957 0.768969 -1.860600 -0.890560
    2 -0.071917 -8.498687 -0.104136 0.147673 0.249490 0.024910
    3 1.848843 -3.361148 0.929803 -0.012221 0.068719 2.924626
    4 0.082599 1.146638 0.000000 0.000000 0.000000 0.000000
    5 -0.932205 -3.542499 0.364983 3.141592 0.000000 -1.570796
    6 0.200941 -5.459696 0.000001 0.000001 0.000000 0.000000
    7 1.257180 8.762585 -0.153713 -1.570562 0.002683 -1.566807
    8 -0.488518 -2.755602 -0.228260 -1.381605 -0.178341 -0.211266
    9 0.039887 -1.479790 0.029854 -0.929887 -0.052253 0.069907
    10 0.028786 -1.075731 -0.023109 -1.481385 0.000000 0.000000
    11 0.250027 -2.820665 -0.238396 -1.068206 -0.168272 -0.396342
    12 -0.049759 -1.680544 0.100479 -1.479918 -0.104086 0.165110
    13 -0.034142 -1.148312 0.084782 -1.087281 0.000000 0.000000
    14 0.957766 -2.746780 -0.090302 -0.420442 -0.171158 0.010363
    15 -0.033420 -1.397129 -0.011257 -0.255519 0.124808 -0.122316
    16 -0.022360 -0.957436 0.018784 -1.043310 0.000000 0.000000
    17 -1.180681 -2.507217 -0.193859 -1.245142 -0.058709 -0.139782
    18 -0.024967 -1.123934 0.017597 -0.977967 0.000000 0.000001
    19 -0.020057 -0.890968 0.010090 -0.933434 0.000000 0.000000
    20 0.583510 -1.197277 0.185379 0.379021 -1.169118 -0.652939
    21 1.535927 0.010246 0.005009 0.393379 -0.245252 -1.052879
    22 1.100771 0.004527 -0.010679 -0.011449 0.011491 -0.607431
    23 0.120153 -0.050270 -0.054489 0.287569 3.110905 1.561085
    24 -0.649687 -8.739179 -10.493791 -1.766649 -5.321384 -1.065166
    25 0.096944 -8.450418 -0.009365 0.228648 -0.233694 0.292789
    26 0.447953 -2.798986 -0.200443 -1.072186 -0.126515 -0.047440
    27 -0.032909 -1.480204 0.004940 -1.413632 0.000000 0.000002
    28 -0.027022 -1.076920 -0.020210 -1.481391 0.000000 0.000000
    29 -0.249534 -2.846964 -0.174213 -0.968633 -0.135815 -0.084786
    30 0.043235 -1.683941 0.096012 -1.469776 0.002823 -0.000167
    31 0.031729 -1.160830 0.058838 -1.436444 0.000642 0.008372
    32 -0.963866 -2.785145 -0.085350 -0.957802 -0.035925 -0.239075
    33 0.028479 -1.403067 0.006271 -1.158106 0.000000 0.000000
    34 0.021413 -0.957781 0.020046 -1.216858 0.000000 0.000000
    35 1.164475 -2.543940 -0.170330 -0.843989 -0.306425 0.042666
    36 0.024032 -1.129042 0.017807 -1.199105 0.000000 0.000001
    37 0.014898 -0.883989 -0.019848 -1.052873 0.000000 0.000000
    38 -0.586770 -1.264477 0.200161 -0.330638 -0.882973 -2.453541
    39 1.522835 0.058681 0.016848 -0.037192 -0.131247 0.649010
    40 1.117947 0.048424 -0.005766 -0.016374 -0.019146 0.763684
    41 -0.139399 -0.111698 0.014397 0.285382 -0.030687 1.580508
    42 -1.393470 8.839177 -0.239433 1.580804 -0.005023 -1.566847
  time 13
    0 -0.457045 0.289071 -3.043062 -0.174532 0.000000 -0.000022
    1 8.186462 0.777844 -6.784957 0.768969 -1.860600 -0.890560
    2 -0.071917 -8.498687 -0.104136 0.147673 0.249490 0.024910
    3 1.848843 -3.361148 0.929803 -0.012221 0.068719 2.924626
    4 0.082599 1.146638 0.000000 0.000000 0.000000 0.000000
    5 -0.932205 -3.542499 0.364983 3.141592 0.000000 -1.570796
    6 0.200941 -5.459696 0.000001 0.000001 0.000000 0.000000
    7 1.257180 8.762585 -0.153713 -1.570562 0.002683 -1.566807
    8 -0.488518 -2.755602 -0.228260 -1.381605 -0.178341 -0.211266
    9 0.039887 -1.479790 0.029854 -0.929887 -0.052253 0.069907
    10 0.028786 -1.075731 -0.023109 -1.481385 0.000000 0.000000
    11 0.250027 -2.820665 -0.238396 -1.068206 -0.168272 -0.396342
    12 -0.049759 -1.680544 0.100479 -1.479918 -0.104086 0.165110
    13 -0.034142 -1.148312 0.084782 -1.087313 0.000000 0.000000
    14 0.957766 -2.746780 -0.090302 -0.420442 -0.171158 0.010363
    15 -0.033420 -1.397129 -0.011257 -0.255519 0.124808 -0.122316
    16 -0.022360 -0.957436 0.018784 -1.043310 0.000000 0.000000
    17 -1.180681 -2.507217 -0.193859 -1.245142 -0.058709 -0.139782
    18 -0.024967 -1.123934 0.017597 -0.977967 0.000000 0.000001
    19 -0.020057 -0.890968 0.010090 -0.933434 0.000000 0.000000
    20 0.583510 -1.197277 0.185379 0.379021 -1.169118 -0.652939
    21 1.535927 0.010246 0.005009 0.393379 -0.245252 -1.052879
    22 1.100771 0.004527 -0.010679 -0.011449 0.011491 -0.607431
    23 0.120153 -0.050270 -0.054489 0.287569 3.110905 1.561085
    24 -0.649687 -8.739179 -10.493791 -1.766649 -5.321384 -1.065166
    25 0.096944 -8.450418 -0.009365 0.228648 -0.233694 0.292789
    26 0.447953 -2.798986 -0.200443 -1.072186 -0.126515 -0.047440
    27 -0.032909 -1.480204 0.004940 -1.413632 0.000000 0.000002
    28 -0.027022 -1.076920 -0.020210 -1.481391 0.000000 0.000000
    29 -0.249534 -2.846964 -0.174213 -0.968633 -0.135815 -0.084786
    30 0.043235 -1.683941 0.096012 -1.469776 0.002823 -0.000167
    31 0.031729 -1.160830 0.058838 -1.436444 0.000642 0.008372
    32 -0.963866 -2.785145 -0.085350 -0.957802 -0.035925 -0.239075
    33 0.028479 -1.403067 0.006271 -1.158106 0.000000 0.000000
    34 0.021413 -0.957781 0.020046 -1.216858 0.000000 0.000000
    35 1.164475 -2.543940 -0.170330 -0.843989 -0.306425 0.042666
    36 0.024032 -1.129042 0.017807 -1.199105 0.000000 0.000001
    37 0.014898 -0.883989 -0.019848 -1.052873 0.000000 0.000000
    38 -0.586770 -1.264477 0.200161 -0.330638 -0.882973 -2.453541
    39 1.522835 0.058681 0.016848 -0.037192 -0.131247 0.649010
    40 1.117947 0.048424 -0.005766 -0.016374 -0.019146 0.763684
    41 -0.139399 -0.111698 0.014397 0.285382 -0.030687 1.580508
    42 -1.393470 8.839177 -0.239433 1.580804 -0.005023 -1.566847
  time 14
    0 -0.472671 0.300790 -2.355541 -0.161600 0.000000 -0.000022
    1 8.186462 0.777844 -6.784957 0.768969 -1.860600 -0.890560
    2 -0.071917 -8.498687 -0.104136 0.147673 0.249490 0.024910
    3 1.848843 -3.361148 0.929803 -0.012221 0.068719 2.924626
    4 0.082599 1.146638 0.000000 0.000000 0.000000 0.000000
    5 -0.932205 -3.542499 0.364983 3.141592 0.000000 -1.570796
    6 0.200941 -5.459696 0.000001 0.000001 0.000000 0.000000
    7 1.257180 8.762585 -0.153713 -1.570562 0.002683 -1.566807
    8 -0.488518 -2.755602 -0.228260 -1.381605 -0.178341 -0.211266
    9 0.039887 -1.479790 0.029854 -0.929887 -0.052253 0.069907
    10 0.028786 -1.075731 -0.023109 -1.481385 0.000000 0.000000
    11 0.250027 -2.820665 -0.238396 -1.068206 -0.168272 -0.396342
    12 -0.049759 -1.680544 0.100479 -1.479918 -0.104086 0.165110
    13 -0.034142 -1.148312 0.084782 -1.087281 0.000000 0.000000
    14 0.957766 -2.746780 -0.090302 -0.420442 -0.171158 0.010363
    15 -0.033420 -1.397129 -0.011257 -0.255519 0.124808 -0.122316
    16 -0.022360 -0.957436 0.018784 -1.043310 0.000000 0.000000
    17 -1.180681 -2.507217 -0.193859 -1.245142 -0.058709 -0.139782
    18 -0.024967 -1.123934 0.017597 -0.977967 0.000000 0.000001
    19 -0.020057 -0.890968 0.010090 -0.933434 0.000000 0.000000
    20 0.583510 -1.197277 0.185379 0.379009 -1.169118 -0.652939
    21 1.535927 0.010246 0.005009 0.393379 -0.245252 -1.052879
    22 1.100771 0.004527 -0.010679 -0.011449 0.011491 -0.607431
    23 0.120153 -0.050270 -0.054489 0.287569 3.110905 1.561085
    24 -0.649687 -8.739179 -10.493791 -1.766649 -5.321384 -1.065166
    25 0.096944 -8.450418 -0.009365 0.228648 -0.233694 0.292789
    26 0.447953 -2.798986 -0.200443 -1.072186 -0.126515 -0.047440
    27 -0.032909 -1.480204 0.004940 -1.413632 0.000000 0.000002
    28 -0.027022 -1.076920 -0.020210 -1.481391 0.000000 0.000000
    29 -0.249534 -2.846964 -0.174213 -0.968633 -0.135815 -0.084786
    30 0.043235 -1.683941 0.096012 -1.469776 0.002823 -0.000167
    31 0.031729 -1.160830 0.058838 -1.436444 0.000642 0.008372
    32 -0.963866 -2.785145 -0.085350 -0.957802 -0.035925 -0.239075
    33 0.028479 -1.403067 0.006271 -1.158106 0.000000 0.000000
    34 0.021413 -0.957781 0.020046 -1.216858 0.000000 0.000000
    35 1.164475 -2.543940 -0.170330 -0.843989 -0.306425 0.042666
    36 0.024032 -1.129042 0.017807 -1.199105 0.000000 0.000001
    37 0.014898 -0.883989 -0.019848 -1.052873 0.000000 0.000000
    38 -0.586770 -1.264477 0.200161 -0.330638 -0.882973 -2.453541
    39 1.522835 0.058681 0.016848 -0.037192 -0.131247 0.649010
    40 1.117947 0.048424 -0.005766 -0.016374 -0.019146 0.763684
    41 -0.139399 -0.111698 0.014397 0.285382 -0.030687 1.580508
    42 -1.393470 8.839177 -0.239433 1.580804 -0.005023 -1.566847
  time 15
    0 -0.480483 0.304697 -1.808649 -0.129278 0.000000 -0.000022
    1 8.186462 0.777844 -6.784957 0.768969 -1.860600 -0.890560
    2 -0.071917 -8.498687 -0.104136 0.147673 0.249490 0.024910
    3 1.848843 -3.361148 0.929803 -0.012221 0.068719 2.924626
    4 0.082599 1.146638 0.000000 0.000000 0.000000 0.000000
    5 -0.932205 -3.542499 0.364983 3.141592 0.000000 -1.570796
    6 0.200941 -5.459696 0.000001 0.000001 0.000000 0.000000
    7 1.257180 8.762585 -0.153713 -1.570562 0.002683 -1.566807
    8 -0.488518 -2.755602 -0.228260 -1.381605 -0.178341 -0.211266
    9 0.039887 -1.479790 0.029854 -0.929887 -0.052253 0.069907
    10 0.028786 -1.075731 -0.023109 -1.481385 0.000000 0.000000
    11 0.250027 -2.820665 -0.238396 -1.068206 -0.168272 -0.396342
    12 -0.049759 -1.680544 0.100479 -1.479918 -0.104086 0.165110
    13 -0.034142 -1.148312 0.084782 -1.087281 0.000000 0.000000
    14 0.957766 -2.746780 -0.090302 -0.420442 -0.171158 0.010363
    15 -0.033420 -1.397129 -0.011257 -0.255519 0.124808 -0.122316
    16 -0.022360 -0.957436 0.018784 -1.043310 0.000000 0.000000
    17 -1.180681 -2.507217 -0.193859 -1.245142 -0.058709 -0.139782
    18 -0.024967 -1.123934 0.017597 -0.977967 0.000000 0.000001
    19 -0.020057 -0.890968 0.010090 -0.933434 0.000000 0.000000
    20 0.583510 -1.197277 0.185379 0.379009 -1.169118 -0.652939
    21 1.535927 0.010246 0.005009 0.393379 -0.245252 -1.052879
    22 1.100771 0.004527 -0.010679 -0.011449 0.011491 -0.607431
    23 0.120153 -0.050270 -0.054489 0.287569 3.110905 1.561085
    24 -0.649687 -8.739179 -10.493791 -1.766649 -5.321384 -1.065166
    25 0.096944 -8.450418 -0.009365 0.228648 -0.233694 0.292789
    26 0.447953 -2.798986 -0.200443 -1.072186 -0.126515 -0.047440
    27 -0.032909 -1.480204 0.004940 -1.413632 0.000000 0.000002
    28 -0.027022 -1.076920 -0.020210 -1.481391 0.000000 0.000000
    29 -0.249534 -2.846964 -0.174213 -0.968633 -0.135815 -0.084786
    30 0.043235 -1.683941 0.096012 -1.469776 0.002823 -0.000167
    31 0.031729 -1.160830 0.058838 -1.436444 0.000642 0.008372
    32 -0.963866 -2.785145 -0.085350 -0.957802 -0.035925 -0.239075
    33 0.028479 -1.403067 0.006271 -1.158106 0.000000 0.000000
    34 0.021413 -0.957781 0.020046 -1.216858 0.000000 0.000000
    35 1.164475 -2.543940 -0.170330 -0.843989 -0.306425 0.042666
    36 0.024032 -1.129042 0.017807 -1.199105 0.000000 0.000001
    37 0.014898 -0.883989 -0.019848 -1.052873 0.000000 0.000000
    38 -0.586770 -1.264477 0.200161 -0.330638 -0.882973 -2.453541
    39 1.522835 0.058681 0.016848 -0.037192 -0.131247 0.649010
    40 1.117947 0.048424 -0.005766 -0.016374 -0.019146 0.763684
    41 -0.139399 -0.111698 0.014397 0.285382 -0.030687 1.580508
    42 -1.393470 8.839177 -0.239433 1.580804 -0.005023 -1.566847
  time 16
    0 -0.472671 0.300790 -1.375042 -0.087260 0.000000 -0.000022
    1 8.186462 0.777844 -6.784957 0.768969 -1.860600 -0.890560
    2 -0.071917 -8.498687 -0.104136 0.147673 0.249490 0.024910
    3 1.848843 -3.361148 0.929803 -0.012221 0.068719 2.924626
    4 0.082599 1.146638 0.000000 0.000000 0.000000 0.000000
    5 -0.932205 -3.542499 0.364983 3.141592 0.000000 -1.570796
    6 0.200941 -5.459696 0.000001 0.000001 0.000000 0.000000
    7 1.257180 8.762585 -0.153713 -1.570562 0.002683 -1.566807
    8 -0.488518 -2.755602 -0.228260 -1.381605 -0.178341 -0.211266
    9 0.039887 -1.479790 0.029854 -0.929887 -0.052253 0.069907
    10 0.028786 -1.075731 -0.023109 -1.481385 0.000000 0.000000
    11 0.250027 -2.820665 -0.238396 -1.068206 -0.168272 -0.396342
    12 -0.049759 -1.680544 0.100479 -1.479918 -0.104086 0.165110
    13 -0.034142 -1.148312 0.084782 -1.087281 0.000000 0.000000
    14 0.957766 -2.746780 -0.090302 -0.420442 -0.171158 0.010363
    15 -0.033420 -1.397129 -0.011257 -0.255519 0.124808 -0.122316
    16 -0.022360 -0.957436 0.018784 -1.043310 0.000000 0.000000
    17 -1.180681 -2.507217 -0.193859 -1.245142 -0.058709 -0.139782
    18 -0.024967 -1.123934 0.017597 -0.977967 0.000000 0.000001
    19 -0.020057 -0.890968 0.010090 -0.933434 0.000000 0.000000
    20 0.583510 -1.197277 0.185379 0.379021 -1.169118 -0.652939
    21 1.535927 0.010246 0.005009 0.393379 -0.245252 -1.052879
    22 1.100771 0.004527 -0.010679 -0.011449 0.011491 -0.607431
    23 0.120153 -0.050270 -0.054489 0.287569 3.110905 1.561085
    24 -0.649687 -8.739179 -10.493791 -1.766649 -5.321384 -1.065166
    25 0.096944 -8.450418 -0.009365 0.228648 -0.233694 0.292789
    26 0.447953 -2.798986 -0.200443 -1.072186 -0.126515 -0.047440
    27 -0.032909 -1.480204 0.004940 -1.413632 0.000000 0.000002
    28 -0.027022 -1.076920 -0.020210 -1.481391 0.000000 0.000000
    29 -0.249534 -2.846964 -0.174213 -0.968633 -0.135815 -0.084786
    30 0.043235 -1.683941 0.096012 -1.469776 0.002823 -0.000167
    31 0.031729 -1.160830 0.058838 -1.436444 0.000642 0.008372
    32 -0.963866 -2.785145 -0.085350 -0.957802 -0.035925 -0.239075
    33 0.028479 -1.403067 0.006271 -1.158106 0.000000 0.000000
    34 0.021413 -0.957781 0.020046 -1.216858 0.000000 0.000000
    35 1.164475 -2.543940 -0.170330 -0.843989 -0.306425 0.042666
    36 0.024032 -1.129042 0.017807 -1.199105 0.000000 0.000001
    37 0.014898 -0.883989 -0.019848 -1.052873 0.000000 0.000000
    38 -0.586770 -1.264477 0.200161 -0.330638 -0.882973 -2.453541
    39 1.522835 0.058681 0.016848 -0.037192 -0.131247 0.649010
    40 1.117947 0.048424 -0.005766 -0.016374 -0.019146 0.763684
    41 -0.139399 -0.111698 0.014397 0.285382 -0.030687 1.580508
    42 -1.393470 8.839177 -0.239433 1.580804 -0.005023 -1.566847
  time 17
    0 -0.449232 0.285165 -1.011750 -0.045242 0.000000 -0.000022
    1 8.186462 0.777844 -6.784957 0.768969 -1.860600 -0.890560
    2 -0.071917 -8.498687 -0.104136 0.147673 0.249490 0.024910
    3 1.848843 -3.361148 0.929803 -0.012221 0.068719 2.924626
    4 0.082599 1.146638 0.000000 0.000000 0.000000 0.000000
    5 -0.932205 -3.542499 0.364983 3.141592 0.000000 -1.570796
    6 0.200941 -5.459696 0.000001 0.000001 0.000000 0.000000
    7 1.257180 8.762585 -0.153713 -1.570562 0.002683 -1.566807
    8 -0.488518 -2.755602 -0.228260 -1.381605 -0.178341 -0.211266
    9 0.039887 -1.479790 0.029854 -0.929887 -0.052253 0.069907
    10 0.028786 -1.075731 -0.023109 -1.481385 0.000000 0.000000
    11 0.250027 -2.820665 -0.238396 -1.068206 -0.168272 -0.396342
    12 -0.049759 -1.680544 0.100479 -1.479918 -0.104086 0.165110
    13 -0.034142 -1.148312 0.084782 -1.087281 0.000000 0.000000
    14 0.957766 -2.746780 -0.090302 -0.420442 -0.171158 0.010363
    15 -0.033420 -1.397129 -0.011257 -0.255519 0.124808 -0.122316
    16 -0.022360 -0.957436 0.018784 -1.043310 0.000000 0.000000
    17 -1.180681 -2.507217 -0.193859 -1.245142 -0.058709 -0.139782
    18 -0.024967 -1.123934 0.017597 -0.977967 0.000000 0.000001
    19 -0.020057 -0.890968 0.010090 -0.933434 0.000000 0.000000
    20 0.583510 -1.197277 0.185379 0.379021 -1.169118 -0.652939
    21 1.535927 0.010246 0.005009 0.393379 -0.245252 -1.052879
    22 1.100771 0.004527 -0.010679 -0.011449 0.011491 -0.607431
    23 0.120153 -0.050270 -0.054489 0.287569 3.110905 1.561085
    24 -0.649687 -8.739179 -10.493791 -1.766649 -5.321384 -1.065166
    25 0.096944 -8.450418 -0.009365 0.228648 -0.233694 0.292789
    26 0.447953 -2.798986 -0.200443 -1.072186 -0.126515 -0.047440
    27 -0.032909 -1.480204 0.004940 -1.413632 0.000000 0.000002
    28 -0.027022 -1.076920 -0.020210 -1.481391 0.000000 0.000000
    29 -0.249534 -2.846964 -0.174213 -0.968633 -0.135815 -0.084786
    30 0.043235 -1.683941 0.096012 -1.469776 0.002823 -0.000167
    31 0.031729 -1.160830 0.058838 -1.436444 0.000642 0.008372
    32 -0.963866 -2.785145 -0.085350 -0.957802 -0.035925 -0.239075
    33 0.028479 -1.403067 0.006271 -1.158106 0.000000 0.000000
    34 0.021413 -0.957781 0.020046 -1.216858 0.000000 0.000000
    35 1.164475 -2.543940 -0.170330 -0.843989 -0.306425 0.042666
    36 0.024032 -1.129042 0.017807 -1.199105 0.000000 0.000001
    37 0.014898 -0.883989 -0.019848 -1.052873 0.000000 0.000000
    38 -0.586770 -1.264477 0.200161 -0.330638 -0.882973 -2.453541
    39 1.522835 0.058681 0.016848 -0.037192 -0.131247 0.649010
    40 1.117947 0.048424 -0.005766 -0.016374 -0.019146 0.763684
    41 -0.139399 -0.111698 0.014397 0.285382 -0.030687 1.580508
    42 -1.393470 8.839177 -0.239433 1.580804 -0.005023 -1.566847
  time 18
    0 -0.414075 0.265633 -0.710959 -0.012919 0.000000 -0.000022
    1 8.186462 0.777844 -6.784957 0.768969 -1.860600 -0.890560
    2 -0.071917 -8.498687 -0.104136 0.147673 0.249490 0.024910
    3 1.848843 -3.361148 0.929803 -0.012221 0.068719 2.924626
    4 0.082599 1.146638 0.000000 0.000000 0.000000 0.000000
    5 -0.932205 -3.542499 0.364983 3.141592 0.000000 -1.570796
    6 0.200941 -5.459696 0.000001 0.000001 0.000000 0.000000
    7 1.257180 8.762585 -0.153713 -1.570562 0.002683 -1.566807
    8 -0.488518 -2.755602 -0.228260 -1.381605 -0.178341 -0.211266
    9 0.039887 -1.479790 0.029854 -0.929887 -0.052253 0.069907
    10 0.028786 -1.075731 -0.023109 -1.481385 0.000000 0.000000
    11 0.250027 -2.820665 -0.238396 -1.068206 -0.168272 -0.396342
    12 -0.049759 -1.680544 0.100479 -1.479918 -0.104086 0.165110
    13 -0.034142 -1.148312 0.084782 -1.087281 0.000000 0.000000
    14 0.957766 -2.746780 -0.090302 -0.420442 -0.171158 0.010363
    15 -0.033420 -1.397129 -0.011257 -0.255519 0.124808 -0.122316
    16 -0.022360 -0.957436 0.018784 -1.043310 0.000000 0.000000
    17 -1.180681 -2.507217 -0.193859 -1.245142 -0.058709 -0.139782
    18 -0.024967 -1.123934 0.017597 -0.977967 0.000000 0.000001
    19 -0.020057 -0.890968 0.010090 -0.933434 0.000000 0.000000
    20 0.583510 -1.197277 0.185379 0.379009 -1.169118 -0.652939
    21 1.535927 0.010246 0.005009 0.393379 -0.245252 -1.052879
    22 1.100771 0.004527 -0.010679 -0.011449 0.011491 -0.607431
    23 0.120153 -0.050270 -0.054489 0.287569 3.110905 1.561085
    24 -0.649687 -8.739179 -10.493791 -1.766649 -5.321384 -1.065166
    25 0.096944 -8.450418 -0.009365 0.228648 -0.233694 0.292789
    26 0.447953 -2.798986 -0.200443 -1.072186 -0.126515 -0.047440
    27 -0.032909 -1.480204 0.004940 -1.413632 0.000000 0.000002
    28 -0.027022 -1.076920 -0.020210 -1.481391 0.000000 0.000000
    29 -0.249534 -2.846964 -0.174213 -0.968633 -0.135815 -0.084786
    30 0.043235 -1.683941 0.096012 -1.469776 0.002823 -0.000167
    31 0.031729 -1.160830 0.058838 -1.436444 0.000642 0.008372
    32 -0.963866 -2.785145 -0.085350 -0.957802 -0.035925 -0.239075
    33 0.028479 -1.403067 0.006271 -1.158106 0.000000 0.000000
    34 0.021413 -0.957781 0.020046 -1.216858 0.000000 0.000000
    35 1.164475 -2.543940 -0.170330 -0.843989 -0.306425 0.042666
    36 0.024032 -1.129042 0.017807 -1.199105 0.000000 0.000001
    37 0.014898 -0.883989 -0.019848 -1.052873 0.000000 0.000000
    38 -0.586770 -1.264477 0.200161 -0.330638 -0.882973 -2.453541
    39 1.522835 0.058681 0.016848 -0.037192 -0.131247 0.649010
    40 1.117947 0.048424 -0.005766 -0.016374 -0.019146 0.763684
    41 -0.139399 -0.111698 0.014397 0.285382 -0.030687 1.580508
    42 -1.393470 8.839177 -0.239433 1.580804 -0.005023 -1.566847
  time 19
    0 -0.371105 0.234382 -0.464858 0.000000 0.000000 -0.000022
    1 8.186462 0.777844 -6.784957 0.768969 -1.860600 -0.890560
    2 -0.071917 -8.498687 -0.104136 0.147673 0.249490 0.024910
    3 1.848843 -3.361148 0.929803 -0.012221 0.068719 2.924626
    4 0.082599 1.146638 0.000000 0.000000 0.000000 0.000000
    5 -0.932205 -3.542499 0.364983 3.141592 0.000000 -1.570796
    6 0.200941 -5.459696 0.000001 0.000001 0.000000 0.000000
    7 1.257180 8.762585 -0.153713 -1.570562 0.002683 -1.566807
    8 -0.488518 -2.755602 -0.228260 -1.381605 -0.178341 -0.211266
    9 0.039887 -1.479790 0.029854 -0.929887 -0.052253 0.069907
    10 0.028786 -1.075731 -0.023109 -1.481385 0.000000 0.000000
    11 0.250027 -2.820665 -0.238396 -1.068206 -0.168272 -0.396342
    12 -0.049759 -1.680544 0.100479 -1.479918 -0.104086 0.165110
    13 -0.034142 -1.148312 0.084782 -1.087281 0.000000 0.000000
    14 0.957766 -2.746780 -0.090302 -0.420442 -0.171158 0.010363
    15 -0.033420 -1.397129 -0.011257 -0.255519 0.124808 -0.122316
    16 -0.022360 -0.957436 0.018784 -1.043310 0.000000 0.000000
    17 -1.180681 -2.507217 -0.193859 -1.245142 -0.058709 -0.139782
    18 -0.024967 -1.123934 0.017597 -0.977967 0.000000 0.000001
    19 -0.020057 -0.890968 0.010090 -0.933434 0.000000 0.000000
    20 0.583510 -1.197277 0.185379 0.379009 -1.169118 -0.652939
    21 1.535927 0.010246 0.005009 0.393379 -0.245252 -1.052879
    22 1.100771 0.004527 -0.010679 -0.011449 0.011491 -0.607431
    23 0.120153 -0.050270 -0.054489 0.287569 3.110905 1.561085
    24 -0.649687 -8.739179 -10.493791 -1.766649 -5.321384 -1.065166
    25 0.096944 -8.450418 -0.009365 0.228648 -0.233694 0.292789
    26 0.447953 -2.798986 -0.200443 -1.072186 -0.126515 -0.047440
    27 -0.032909 -1.480204 0.004940 -1.413632 0.000000 0.000002
    28 -0.027022 -1.076920 -0.020210 -1.481391 0.000000 0.000000
    29 -0.249534 -2.846964 -0.174213 -0.968633 -0.135815 -0.084786
    30 0.043235 -1.683941 0.096012 -1.469776 0.002823 -0.000167
    31 0.031729 -1.160830 0.058838 -1.436444 0.000642 0.008372
    32 -0.963866 -2.785145 -0.085350 -0.957802 -0.035925 -0.239075
    33 0.028479 -1.403067 0.006271 -1.158106 0.000000 0.000000
    34 0.021413 -0.957781 0.020046 -1.216858 0.000000 0.000000
    35 1.164475 -2.543940 -0.170330 -0.843989 -0.306425 0.042666
    36 0.024032 -1.129042 0.017807 -1.199105 0.000000 0.000001
    37 0.014898 -0.883989 -0.019848 -1.052873 0.000000 0.000000
    38 -0.586770 -1.264477 0.200161 -0.330638 -0.882973 -2.453541
    39 1.522835 0.058681 0.016848 -0.037192 -0.131247 0.649010
    40 1.117947 0.048424 -0.005766 -0.016374 -0.019146 0.763684
    41 -0.139399 -0.111698 0.014397 0.285382 -0.030687 1.580508
    42 -1.393470 8.839177 -0.239433 1.580804 -0.005023 -1.566847
  time 20
    0 -0.320322 0.203131 -0.265633 0.000000 0.000000 -0.000022
    1 8.186462 0.777844 -6.784957 0.768969 -1.860600 -0.890560
    2 -0.071917 -8.498687 -0.104136 0.147673 0.249490 0.024910
    3 1.848843 -3.361148 0.929803 -0.012221 0.068719 2.924626
    4 0.082599 1.146638 0.000000 0.000000 0.000000 0.000000
    5 -0.932205 -3.542499 0.364983 3.141592 0.000000 -1.570796
    6 0.200941 -5.459696 0.000001 0.000001 0.000000 0.000000
    7 1.257180 8.762585 -0.153713 -1.570562 0.002683 -1.566807
    8 -0.488518 -2.755602 -0.228260 -1.381605 -0.178341 -0.211266
    9 0.039887 -1.479790 0.029854 -0.929887 -0.052253 0.069907
    10 0.028786 -1.075731 -0.023109 -1.481385 0.000000 0.000000
    11 0.250027 -2.820665 -0.238396 -1.068206 -0.168272 -0.396342
    12 -0.049759 -1.680544 0.100479 -1.479918 -0.104086 0.165110
    13 -0.034142 -1.148312 0.084782 -1.087281 0.000000 0.000000
    14 0.957766 -2.746780 -0.090302 -0.420442 -0.171158 0.010363
    15 -0.033420 -1.397129 -0.011257 -0.255519 0.124808 -0.122316
    16 -0.022360 -0.957436 0.018784 -1.043310 0.000000 0.000000
    17 -1.180681 -2.507217 -0.193859 -1.245142 -0.058709 -0.139782
    18 -0.024967 -1.123934 0.017597 -0.977967 0.000000 0.000001
    19 -0.020057 -0.890968 0.010090 -0.933434 0.000000 0.000000
    20 0.583510 -1.197277 0.185379 0.379009 -1.169118 -0.652939
    21 1.535927 0.010246 0.005009 0.393379 -0.245252 -1.052879
    22 1.100771 0.004527 -0.010679 -0.011449 0.011491 -0.607431
    23 0.120153 -0.050270 -0.054489 0.287569 3.110905 1.561085
    24 -0.649687 -8.739179 -10.493791 -1.766649 -5.321384 -1.065166
    25 0.096944 -8.450418 -0.009365 0.228648 -0.233694 0.292789
    26 0.447953 -2.798986 -0.200443 -1.072186 -0.126515 -0.047440
    27 -0.032909 -1.480204 0.004940 -1.413632 0.000000 0.000002
    28 -0.027022 -1.076920 -0.020210 -1.481391 0.000000 0.000000
    29 -0.249534 -2.846964 -0.174213 -0.968633 -0.135815 -0.084786
    30 0.043235 -1.683941 0.096012 -1.469776 0.002823 -0.000167
    31 0.031729 -1.160830 0.058838 -1.436444 0.000642 0.008372
    32 -0.963866 -2.785145 -0.085350 -0.957802 -0.035925 -0.239075
    33 0.028479 -1.403067 0.006271 -1.158106 0.000000 0.000000
    34 0.021413 -0.957781 0.020046 -1.216858 0.000000 0.000000
    35 1.164475 -2.543940 -0.170330 -0.843989 -0.306425 0.042666
    36 0.024032 -1.129042 0.017807 -1.199105 0.000000 0.000001
    37 0.014898 -0.883989 -0.019848 -1.052873 0.000000 0.000000
    38 -0.586770 -1.264477 0.200161 -0.330638 -0.882973 -2.453541
    39 1.522835 0.058681 0.016848 -0.037192 -0.131247 0.649010
    40 1.117947 0.048424 -0.005766 -0.016374 -0.019146 0.763684
    41 -0.139399 -0.111698 0.014397 0.285382 -0.030687 1.580508
    42 -1.393470 8.839177 -0.239433 1.580804 -0.005023 -1.566847
  time 21
    0 -0.265633 0.167974 -0.113285 0.000000 0.000000 -0.000022
    1 8.186462 0.777844 -6.784957 0.768969 -1.860600 -0.890560
    2 -0.071917 -8.498687 -0.104136 0.147673 0.249490 0.024910
    3 1.848843 -3.361148 0.929803 -0.012221 0.068719 2.924626
    4 0.082599 1.146638 0.000000 0.000000 0.000000 0.000000
    5 -0.932205 -3.542499 0.364983 3.141592 0.000000 -1.570796
    6 0.200941 -5.459696 0.000001 0.000001 0.000000 0.000000
    7 1.257180 8.762585 -0.153713 -1.570562 0.002683 -1.566807
    8 -0.488518 -2.755602 -0.228260 -1.381605 -0.178341 -0.211266
    9 0.039887 -1.479790 0.029854 -0.929887 -0.052253 0.069907
    10 0.028786 -1.075731 -0.023109 -1.481385 0.000000 0.000000
    11 0.250027 -2.820665 -0.238396 -1.068206 -0.168272 -0.396342
    12 -0.049759 -1.680544 0.100479 -1.479918 -0.104086 0.165110
    13 -0.034142 -1.148312 0.084782 -1.087281 0.000000 0.000000
    14 0.957766 -2.746780 -0.090302 -0.420442 -0.171158 0.010363
    15 -0.033420 -1.397129 -0.011257 -0.255519 0.124808 -0.122316
    16 -0.022360 -0.957436 0.018784 -1.043310 0.000000 0.000000
    17 -1.180681 -2.507217 -0.193859 -1.245142 -0.058709 -0.139782
    18 -0.024967 -1.123934 0.017597 -0.977967 0.000000 0.000001
    19 -0.020057 -0.890968 0.010090 -0.933434 0.000000 0.000000
    20 0.583510 -1.197277 0.185379 0.379009 -1.169118 -0.652939
    21 1.535927 0.010246 0.005009 0.393379 -0.245252 -1.052879
    22 1.100771 0.004527 -0.010679 -0.011449 0.011491 -0.607431
    23 0.120153 -0.050270 -0.054489 0.287569 3.110905 1.561085
    24 -0.649687 -8.739179 -10.493791 -1.766649 -5.321384 -1.065166
    25 0.096944 -8.450418 -0.009365 0.228648 -0.233694 0.292789
    26 0.447953 -2.798986 -0.200443 -1.072186 -0.126515 -0.047440
    27 -0.032909 -1.480204 0.004940 -1.413632 0.000000 0.000002
    28 -0.027022 -1.076920 -0.020210 -1.481391 0.000000 0.000000
    29 -0.249534 -2.846964 -0.174213 -0.968633 -0.135815 -0.084786
    30 0.043235 -1.683941 0.096012 -1.469776 0.002823 -0.000167
    31 0.031729 -1.160830 0.058838 -1.436444 0.000642 0.008372
    32 -0.963866 -2.785145 -0.085350 -0.957802 -0.035925 -0.239075
    33 0.028479 -1.403067 0.006271 -1.158106 0.000000 0.000000
    34 0.021413 -0.957781 0.020046 -1.216858 0.000000 0.000000
    35 1.164475 -2.543940 -0.170330 -0.843989 -0.306425 0.042666
    36 0.024032 -1.129042 0.017807 -1.199105 0.000000 0.000001
    37 0.014898 -0.883989 -0.019848 -1.052873 0.000000 0.000000
    38 -0.586770 -1.264477 0.200161 -0.330638 -0.882973 -2.453541
    39 1.522835 0.058681 0.016848 -0.037192 -0.131247 0.649010
    40 1.117947 0.048424 -0.005766 -0.016374 -0.019146 0.763684
    41 -0.139399 -0.111698 0.014397 0.285382 -0.030687 1.580508
    42 -1.393470 8.839177 -0.239433 1.580804 -0.005023 -1.566847
  time 22
    0 -0.210944 0.132817 0.000000 0.000000 0.000000 -0.000022
    1 8.186462 0.777844 -6.784957 0.768969 -1.860600 -0.890560
    2 -0.071917 -8.498687 -0.104136 0.147673 0.249490 0.024910
    3 1.848843 -3.361148 0.929803 -0.012221 0.068719 2.924626
    4 0.082599 1.146638 0.000000 0.000000 0.000000 0.000000
    5 -0.932205 -3.542499 0.364983 3.141592 0.000000 -1.570796
    6 0.200941 -5.459696 0.000001 0.000001 0.000000 0.000000
    7 1.257180 8.762585 -0.153713 -1.570562 0.002683 -1.566807
    8 -0.488518 -2.755602 -0.228260 -1.381605 -0.178341 -0.211266
    9 0.039887 -1.479790 0.029854 -0.929887 -0.052253 0.069907
    10 0.028786 -1.075731 -0.023109 -1.481385 0.000000 0.000000
    11 0.250027 -2.820665 -0.238396 -1.068206 -0.168272 -0.396342
    12 -0.049759 -1.680544 0.100479 -1.479918 -0.104086 0.165110
    13 -0.034142 -1.148312 0.084782 -1.087281 0.000000 0.000000
    14 0.957766 -2.746780 -0.090302 -0.420442 -0.171158 0.010363
    15 -0.033420 -1.397129 -0.011257 -0.255519 0.124808 -0.122316
    16 -0.022360 -0.957436 0.018784 -1.043310 0.000000 0.000000
    17 -1.180681 -2.507217 -0.193859 -1.245142 -0.058709 -0.139782
    18 -0.024967 -1.123934 0.017597 -0.977967 0.000000 0.000001
    19 -0.020057 -0.890968 0.010090 -0.933434 0.000000 0.000000
    20 0.583510 -1.197277 0.185379 0.379009 -1.169118 -0.652939
    21 1.535927 0.010246 0.005009 0.393379 -0.245252 -1.052879
    22 1.100771 0.004527 -0.010679 -0.011449 0.011491 -0.607431
    23 0.120153 -0.050270 -0.054489 0.287569 3.110905 1.561085
    24 -0.649687 -8.739179 -10.493791 -1.766649 -5.321384 -1.065166
    25 0.096944 -8.450418 -0.009365 0.228648 -0.233694 0.292789
    26 0.447953 -2.798986 -0.200443 -1.072186 -0.126515 -0.047440
    27 -0.032909 -1.480204 0.004940 -1.413632 0.000000 0.000002
    28 -0.027022 -1.076920 -0.020210 -1.481391 0.000000 0.000000
    29 -0.249534 -2.846964 -0.174213 -0.968633 -0.135815 -0.084786
    30 0.043235 -1.683941 0.096012 -1.469776 0.002823 -0.000167
    31 0.031729 -1.160830 0.058838 -1.436444 0.000642 0.008372
    32 -0.963866 -2.785145 -0.085350 -0.957802 -0.035925 -0.239075
    33 0.028479 -1.403067 0.006271 -1.158106 0.000000 0.000000
    34 0.021413 -0.957781 0.020046 -1.216858 0.000000 0.000000
    35 1.164475 -2.543940 -0.170330 -0.843989 -0.306425 0.042666
    36 0.024032 -1.129042 0.017807 -1.199105 0.000000 0.000001
    37 0.014898 -0.883989 -0.019848 -1.052873 0.000000 0.000000
    38 -0.586770 -1.264477 0.200161 -0.330638 -0.882973 -2.453541
    39 1.522835 0.058681 0.016848 -0.037192 -0.131247 0.649010
    40 1.117947 0.048424 -0.005766 -0.016374 -0.019146 0.763684
    41 -0.139399 -0.111698 0.014397 0.285382 -0.030687 1.580508
    42 -1.393470 8.839177 -0.239433 1.580804 -0.005023 -1.566847
  time 23
    0 -0.156255 0.097659 0.074221 0.000000 0.000000 -0.000022
    1 8.186462 0.777844 -6.784957 0.768969 -1.860600 -0.890560
    2 -0.071917 -8.498687 -0.104136 0.147673 0.249490 0.024910
    3 1.848843 -3.361148 0.929803 -0.012221 0.068719 2.924626
    4 0.082599 1.146638 0.000000 0.000000 0.000000 0.000000
    5 -0.932205 -3.542499 0.364983 3.141592 0.000000 -1.570796
    6 0.200941 -5.459696 0.000001 0.000001 0.000000 0.000000
    7 1.257180 8.762585 -0.153713 -1.570562 0.002683 -1.566807
    8 -0.488518 -2.755602 -0.228260 -1.381605 -0.178341 -0.211266
    9 0.039887 -1.479790 0.029854 -0.929887 -0.052253 0.069907
    10 0.028786 -1.075731 -0.023109 -1.481385 0.000000 0.000000
    11 0.250027 -2.820665 -0.238396 -1.068206 -0.168272 -0.396342
    12 -0.049759 -1.680544 0.100479 -1.479918 -0.104086 0.165110
    13 -0.034142 -1.148312 0.084782 -1.087281 0.000000 0.000000
    14 0.957766 -2.746780 -0.090302 -0.420442 -0.171158 0.010363
    15 -0.033420 -1.397129 -0.011257 -0.255519 0.124808 -0.122316
    16 -0.022360 -0.957436 0.018784 -1.043310 0.000000 0.000000
    17 -1.180681 -2.507217 -0.193859 -1.245142 -0.058709 -0.139782
    18 -0.024967 -1.123934 0.017597 -0.977967 0.000000 0.000001
    19 -0.020057 -0.890968 0.010090 -0.933434 0.000000 0.000000
    20 0.583510 -1.197277 0.185379 0.379009 -1.169118 -0.652939
    21 1.535927 0.010246 0.005009 0.393379 -0.245252 -1.052879
    22 1.100771 0.004527 -0.010679 -0.011449 0.011491 -0.607431
    23 0.120153 -0.050270 -0.054489 0.287569 3.110905 1.561085
    24 -0.649687 -8.739179 -10.493791 -1.766649 -5.321384 -1.065166
    25 0.096944 -8.450418 -0.009365 0.228648 -0.233694 0.292789
    26 0.447953 -2.798986 -0.200443 -1.072186 -0.126515 -0.047440
    27 -0.032909 -1.480204 0.004940 -1.413632 0.000000 0.000002
    28 -0.027022 -1.076920 -0.020210 -1.481391 0.000000 0.000000
    29 -0.249534 -2.846964 -0.174213 -0.968633 -0.135815 -0.084786
    30 0.043235 -1.683941 0.096012 -1.469776 0.002823 -0.000167
    31 0.031729 -1.160830 0.058838 -1.436444 0.000642 0.008372
    32 -0.963866 -2.785145 -0.085350 -0.957802 -0.035925 -0.239075
    33 0.028479 -1.403067 0.006271 -1.158106 0.000000 0.000000
    34 0.021413 -0.957781 0.020046 -1.216858 0.000000 0.000000
    35 1.164475 -2.543940 -0.170330 -0.843989 -0.306425 0.042666
    36 0.024032 -1.129042 0.017807 -1.199105 0.000000 0.000001
    37 0.014898 -0.883989 -0.019848 -1.052873 0.000000 0.000000
    38 -0.586770 -1.264477 0.200161 -0.330638 -0.882973 -2.453541
    39 1.522835 0.058681 0.016848 -0.037192 -0.131247 0.649010
    40 1.117947 0.048424 -0.005766 -0.016374 -0.019146 0.763684
    41 -0.139399 -0.111698 0.014397 0.285382 -0.030687 1.580508
    42 -1.393470 8.839177 -0.239433 1.580804 -0.005023 -1.566847
  time 24
    0 -0.105472 0.066408 0.128910 0.000000 0.000000 -0.000022
    1 8.186462 0.777844 -6.784957 0.768969 -1.860600 -0.890560
    2 -0.071917 -8.498687 -0.104136 0.147673 0.249490 0.024910
    3 1.848843 -3.361148 0.929803 -0.012221 0.068719 2.924626
    4 0.082599 1.146638 0.000000 0.000000 0.000000 0.000000
    5 -0.932205 -3.542499 0.364983 3.141592 0.000000 -1.570796
    6 0.200941 -5.459696 0.000001 0.000001 0.000000 0.000000
    7 1.257180 8.762585 -0.153713 -1.570562 0.002683 -1.566807
    8 -0.488518 -2.755602 -0.228260 -1.381605 -0.178341 -0.211266
    9 0.039887 -1.479790 0.029854 -0.929887 -0.052253 0.069907
    10 0.028786 -1.075731 -0.023109 -1.481385 0.000000 0.000000
    11 0.250027 -2.820665 -0.238396 -1.068206 -0.168272 -0.396342
    12 -0.049759 -1.680544 0.100479 -1.479918 -0.104086 0.165110
    13 -0.034142 -1.148312 0.084782 -1.087281 0.000000 0.000000
    14 0.957766 -2.746780 -0.090302 -0.420442 -0.171158 0.010363
    15 -0.033420 -1.397129 -0.011257 -0.255519 0.124808 -0.122316
    16 -0.022360 -0.957436 0.018784 -1.043310 0.000000 0.000000
    17 -1.180681 -2.507217 -0.193859 -1.245142 -0.058709 -0.139782
    18 -0.024967 -1.123934 0.017597 -0.977967 0.000000 0.000001
    19 -0.020057 -0.890968 0.010090 -0.933434 0.000000 0.000000
    20 0.583510 -1.197277 0.185379 0.379009 -1.169118 -0.652939
    21 1.535927 0.010246 0.005009 0.393379 -0.245252 -1.052879
    22 1.100771 0.004527 -0.010679 -0.011449 0.011491 -0.607431
    23 0.120153 -0.050270 -0.054489 0.287569 3.110905 1.561085
    24 -0.649687 -8.739179 -10.493791 -1.766649 -5.321384 -1.065166
    25 0.096944 -8.450418 -0.009365 0.228648 -0.233694 0.292789
    26 0.447953 -2.798986 -0.200443 -1.072186 -0.126515 -0.047440
    27 -0.032909 -1.480204 0.004940 -1.413632 0.000000 0.000002
    28 -0.027022 -1.076920 -0.020210 -1.481391 0.000000 0.000000
    29 -0.249534 -2.846964 -0.174213 -0.968633 -0.135815 -0.084786
    30 0.043235 -1.683941 0.096012 -1.469776 0.002823 -0.000167
    31 0.031729 -1.160830 0.058838 -1.436444 0.000642 0.008372
    32 -0.963866 -2.785145 -0.085350 -0.957802 -0.035925 -0.239075
    33 0.028479 -1.403067 0.006271 -1.158106 0.000000 0.000000
    34 0.021413 -0.957781 0.020046 -1.216858 0.000000 0.000000
    35 1.164475 -2.543940 -0.170330 -0.843989 -0.306425 0.042666
    36 0.024032 -1.129042 0.017807 -1.199105 0.000000 0.000001
    37 0.014898 -0.883989 -0.019848 -1.052873 0.000000 0.000000
    38 -0.586770 -1.264477 0.200161 -0.330638 -0.882973 -2.453541
    39 1.522835 0.058681 0.016848 -0.037192 -0.131247 0.649010
    40 1.117947 0.048424 -0.005766 -0.016374 -0.019146 0.763684
    41 -0.139399 -0.111698 0.014397 0.285382 -0.030687 1.580508
    42 -1.393470 8.839177 -0.239433 1.580804 -0.005023 -1.566847
  time 25
    0 -0.062502 0.039064 0.160161 0.000000 0.000000 -0.000022
    1 8.186462 0.777844 -6.784957 0.768969 -1.860600 -0.890560
    2 -0.071917 -8.498687 -0.104136 0.147673 0.249490 0.024910
    3 1.848843 -3.361148 0.929803 -0.012221 0.068719 2.924626
    4 0.082599 1.146638 0.000000 0.000000 0.000000 0.000000
    5 -0.932205 -3.542499 0.364983 3.141592 0.000000 -1.570796
    6 0.200941 -5.459696 0.000001 0.000001 0.000000 0.000000
    7 1.257180 8.762585 -0.153713 -1.570562 0.002683 -1.566807
    8 -0.488518 -2.755602 -0.228260 -1.381605 -0.178341 -0.211266
    9 0.039887 -1.479790 0.029854 -0.929887 -0.052253 0.069907
    10 0.028786 -1.075731 -0.023109 -1.481385 0.000000 0.000000
    11 0.250027 -2.820665 -0.238396 -1.068206 -0.168272 -0.396342
    12 -0.049759 -1.680544 0.100479 -1.479918 -0.104086 0.165110
    13 -0.034142 -1.148312 0.084782 -1.087281 0.000000 0.000000
    14 0.957766 -2.746780 -0.090302 -0.420442 -0.171158 0.010363
    15 -0.033420 -1.397129 -0.011257 -0.255519 0.124808 -0.122316
    16 -0.022360 -0.957436 0.018784 -1.043310 0.000000 0.000000
    17 -1.180681 -2.507217 -0.193859 -1.245142 -0.058709 -0.139782
    18 -0.024967 -1.123934 0.017597 -0.977967 0.000000 0.000001
    19 -0.020057 -0.890968 0.010090 -0.933434 0.000000 0.000000
    20 0.583510 -1.197277 0.185379 0.379009 -1.169118 -0.652939
    21 1.535927 0.010246 0.005009 0.393379 -0.245252 -1.052879
    22 1.100771 0.004527 -0.010679 -0.011449 0.011491 -0.607431
    23 0.120153 -0.050270 -0.054489 0.287569 3.110905 1.561085
    24 -0.649687 -8.739179 -10.493791 -1.766649 -5.321384 -1.065166
    25 0.096944 -8.450418 -0.009365 0.228648 -0.233694 0.292789
    26 0.447953 -2.798986 -0.200443 -1.072186 -0.126515 -0.047440
    27 -0.032909 -1.480204 0.004940 -1.413632 0.000000 0.000002
    28 -0.027022 -1.076920 -0.020210 -1.481391 0.000000 0.000000
    29 -0.249534 -2.846964 -0.174213 -0.968633 -0.135815 -0.084786
    30 0.043235 -1.683941 0.096012 -1.469776 0.002823 -0.000167
    31 0.031729 -1.160830 0.058838 -1.436444 0.000642 0.008372
    32 -0.963866 -2.785145 -0.085350 -0.957802 -0.035925 -0.239075
    33 0.028479 -1.403067 0.006271 -1.158106 0.000000 0.000000
    34 0.021413 -0.957781 0.020046 -1.216858 0.000000 0.000000
    35 1.164475 -2.543940 -0.170330 -0.843989 -0.306425 0.042666
    36 0.024032 -1.129042 0.017807 -1.199105 0.000000 0.000001
    37 0.014898 -0.883989 -0.019848 -1.052873 0.000000 0.000000
    38 -0.586770 -1.264477 0.200161 -0.330638 -0.882973 -2.453541
    39 1.522835 0.058681 0.016848 -0.037192 -0.131247 0.649010
    40 1.117947 0.048424 -0.005766 -0.016374 -0.019146 0.763684
    41 -0.139399 -0.111698 0.014397 0.285382 -0.030687 1.580508
    42 -1.393470 8.839177 -0.239433 1.580804 -0.005023 -1.566847
  time 26
    0 -0.027345 0.019532 0.175787 0.000000 0.000000 -0.000022
    1 8.186462 0.777844 -6.784957 0.768969 -1.860600 -0.890560
    2 -0.071917 -8.498687 -0.104136 0.147673 0.249490 0.024910
    3 1.848843 -3.361148 0.929803 -0.012221 0.068719 2.924626
    4 0.082599 1.146638 0.000000 0.000000 0.000000 0.000000
    5 -0.932205 -3.542499 0.364983 3.141592 0.000000 -1.570796
    6 0.200941 -5.459696 0.000001 0.000001 0.000000 0.000000
    7 1.257180 8.762585 -0.153713 -1.570562 0.002683 -1.566807
    8 -0.488518 -2.755602 -0.228260 -1.381605 -0.178341 -0.211266
    9 0.039887 -1.479790 0.029854 -0.929887 -0.052253 0.069907
    10 0.028786 -1.075731 -0.023109 -1.481385 0.000000 0.000000
    11 0.250027 -2.820665 -0.238396 -1.068206 -0.168272 -0.396342
    12 -0.049759 -1.680544 0.100479 -1.479918 -0.104086 0.165110
    13 -0.034142 -1.148312 0.084782 -1.087281 0.000000 0.000000
    14 0.957766 -2.746780 -0.090302 -0.420442 -0.171158 0.010363
    15 -0.033420 -1.397129 -0.011257 -0.255519 0.124808 -0.122316
    16 -0.022360 -0.957436 0.018784 -1.043310 0.000000 0.000000
    17 -1.180681 -2.507217 -0.193859 -1.245142 -0.058709 -0.139782
    18 -0.024967 -1.123934 0.017597 -0.977967 0.000000 0.000001
    19 -0.020057 -0.890968 0.010090 -0.933434 0.000000 0.000000
    20 0.583510 -1.197277 0.185379 0.379009 -1.169118 -0.652939
    21 1.535927 0.010246 0.005009 0.393379 -0.245252 -1.052879
    22 1.100771 0.004527 -0.010679 -0.011449 0.011491 -0.607431
    23 0.120153 -0.050270 -0.054489 0.287569 3.110905 1.561085
    24 -0.649687 -8.739179 -10.493791 -1.766649 -5.321384 -1.065166
    25 0.096944 -8.450418 -0.009365 0.228648 -0.233694 0.292789
    26 0.447953 -2.798986 -0.200443 -1.072186 -0.126515 -0.047440
    27 -0.032909 -1.480204 0.004940 -1.413632 0.000000 0.000002
    28 -0.027022 -1.076920 -0.020210 -1.481391 0.000000 0.000000
    29 -0.249534 -2.846964 -0.174213 -0.968633 -0.135815 -0.084786
    30 0.043235 -1.683941 0.096012 -1.469776 0.002823 -0.000167
    31 0.031729 -1.160830 0.058838 -1.436444 0.000642 0.008372
    32 -0.963866 -2.785145 -0.085350 -0.957802 -0.035925 -0.239075
    33 0.028479 -1.403067 0.006271 -1.158106 0.000000 0.000000
    34 0.021413 -0.957781 0.020046 -1.216858 0.000000 0.000000
    35 1.164475 -2.543940 -0.170330 -0.843989 -0.306425 0.042666
    36 0.024032 -1.129042 0.017807 -1.199105 0.000000 0.000001
    37 0.014898 -0.883989 -0.019848 -1.052873 0.000000 0.000000
    38 -0.586770 -1.264477 0.200161 -0.330638 -0.882973 -2.453541
    39 1.522835 0.058681 0.016848 -0.037192 -0.131247 0.649010
    40 1.117947 0.048424 -0.005766 -0.016374 -0.019146 0.763684
    41 -0.139399 -0.111698 0.014397 0.285382 -0.030687 1.580508
    42 -1.393470 8.839177 -0.239433 1.580804 -0.005023 -1.566847
  time 27
    0 -0.007813 0.003906 0.183599 0.000000 0.000000 -0.000022
    1 8.186462 0.777844 -6.784957 0.768969 -1.860600 -0.890560
    2 -0.071917 -8.498687 -0.104136 0.147673 0.249490 0.024910
    3 1.848843 -3.361148 0.929803 -0.012221 0.068719 2.924626
    4 0.082599 1.146638 0.000000 0.000000 0.000000 0.000000
    5 -0.932205 -3.542499 0.364983 3.141592 0.000000 -1.570796
    6 0.200941 -5.459696 0.000001 0.000001 0.000000 0.000000
    7 1.257180 8.762585 -0.153713 -1.570562 0.002683 -1.566807
    8 -0.488518 -2.755602 -0.228260 -1.381605 -0.178341 -0.211266
    9 0.039887 -1.479790 0.029854 -0.929887 -0.052253 0.069907
    10 0.028786 -1.075731 -0.023109 -1.481385 0.000000 0.000000
    11 0.250027 -2.820665 -0.238396 -1.068206 -0.168272 -0.396342
    12 -0.049759 -1.680544 0.100479 -1.479918 -0.104086 0.165110
    13 -0.034142 -1.148312 0.084782 -1.087281 0.000000 0.000000
    14 0.957766 -2.746780 -0.090302 -0.420442 -0.171158 0.010363
    15 -0.033420 -1.397129 -0.011257 -0.255519 0.124808 -0.122316
    16 -0.022360 -0.957436 0.018784 -1.043310 0.000000 0.000000
    17 -1.180681 -2.507217 -0.193859 -1.245142 -0.058709 -0.139782
    18 -0.024967 -1.123934 0.017597 -0.977967 0.000000 0.000001
    19 -0.020057 -0.890968 0.010090 -0.933434 0.000000 0.000000
    20 0.583510 -1.197277 0.185379 0.379009 -1.169118 -0.652939
    21 1.535927 0.010246 0.005009 0.393379 -0.245252 -1.052879
    22 1.100771 0.004527 -0.010679 -0.011449 0.011491 -0.607431
    23 0.120153 -0.050270 -0.054489 0.287569 3.110905 1.561085
    24 -0.649687 -8.739179 -10.493791 -1.766649 -5.321384 -1.065166
    25 0.096944 -8.450418 -0.009365 0.228648 -0.233694 0.292789
    26 0.447953 -2.798986 -0.200443 -1.072186 -0.126515 -0.047440
    27 -0.032909 -1.480204 0.004940 -1.413632 0.000000 0.000002
    28 -0.027022 -1.076920 -0.020210 -1.481391 0.000000 0.000000
    29 -0.249534 -2.846964 -0.174213 -0.968633 -0.135815 -0.084786
    30 0.043235 -1.683941 0.096012 -1.469776 0.002823 -0.000167
    31 0.031729 -1.160830 0.058838 -1.436444 0.000642 0.008372
    32 -0.963866 -2.785145 -0.085350 -0.957802 -0.035925 -0.239075
    33 0.028479 -1.403067 0.006271 -1.158106 0.000000 0.000000
    34 0.021413 -0.957781 0.020046 -1.216858 0.000000 0.000000
    35 1.164475 -2.543940 -0.170330 -0.843989 -0.306425 0.042666
    36 0.024032 -1.129042 0.017807 -1.199105 0.000000 0.000001
    37 0.014898 -0.883989 -0.019848 -1.052873 0.000000 0.000000
    38 -0.586770 -1.264477 0.200161 -0.330638 -0.882973 -2.453541
    39 1.522835 0.058681 0.016848 -0.037192 -0.131247 0.649010
    40 1.117947 0.048424 -0.005766 -0.016374 -0.019146 0.763684
    41 -0.139399 -0.111698 0.014397 0.285382 -0.030687 1.580508
    42 -1.393470 8.839177 -0.239433 1.580804 -0.005023 -1.566847
  time 28
    0 0.000000 0.000000 0.183599 0.000000 0.000000 -0.000022
    1 8.186462 0.777844 -6.784957 0.768969 -1.860600 -0.890560
    2 -0.071917 -8.498687 -0.104136 0.147673 0.249490 0.024910
    3 1.848843 -3.361148 0.929803 -0.012221 0.068719 2.924626
    4 0.082599 1.146638 0.000000 0.000000 0.000000 0.000000
    5 -0.932205 -3.542499 0.364983 3.141592 0.000000 -1.570796
    6 0.200941 -5.459696 0.000001 0.000001 0.000000 0.000000
    7 1.257180 8.762585 -0.153713 -1.570562 0.002683 -1.566807
    8 -0.488518 -2.755602 -0.228260 -1.381605 -0.178341 -0.211266
    9 0.039887 -1.479790 0.029854 -0.929887 -0.052253 0.069907
    10 0.028786 -1.075731 -0.023109 -1.481385 0.000000 0.000000
    11 0.250027 -2.820665 -0.238396 -1.068206 -0.168272 -0.396342
    12 -0.049759 -1.680544 0.100479 -1.479918 -0.104086 0.165110
    13 -0.034142 -1.148312 0.084782 -1.087281 0.000000 0.000000
    14 0.957766 -2.746780 -0.090302 -0.420442 -0.171158 0.010363
    15 -0.033420 -1.397129 -0.011257 -0.255519 0.124808 -0.122316
    16 -0.022360 -0.957436 0.018784 -1.043310 0.000000 0.000000
    17 -1.180681 -2.507217 -0.193859 -1.245142 -0.058709 -0.139782
    18 -0.024967 -1.123934 0.017597 -0.977967 0.000000 0.000001
    19 -0.020057 -0.890968 0.010090 -0.933434 0.000000 0.000000
    20 0.583510 -1.197277 0.185379 0.379009 -1.169118 -0.652939
    21 1.535927 0.010246 0.005009 0.393379 -0.245252 -1.052879
    22 1.100771 0.004527 -0.010679 -0.011449 0.011491 -0.607431
    23 0.120153 -0.050270 -0.054489 0.287569 3.110905 1.561085
    24 -0.649687 -8.739179 -10.493791 -1.766649 -5.321384 -1.065166
    25 0.096944 -8.450418 -0.009365 0.228648 -0.233694 0.292789
    26 0.447953 -2.798986 -0.200443 -1.072186 -0.126515 -0.047440
    27 -0.032909 -1.480204 0.004940 -1.413632 0.000000 0.000002
    28 -0.027022 -1.076920 -0.020210 -1.481391 0.000000 0.000000
    29 -0.249534 -2.846964 -0.174213 -0.968633 -0.135815 -0.084786
    30 0.043235 -1.683941 0.096012 -1.469776 0.002823 -0.000167
    31 0.031729 -1.160830 0.058838 -1.436444 0.000642 0.008372
    32 -0.963866 -2.785145 -0.085350 -0.957802 -0.035925 -0.239075
    33 0.028479 -1.403067 0.006271 -1.158106 0.000000 0.000000
    34 0.021413 -0.957781 0.020046 -1.216858 0.000000 0.000000
    35 1.164475 -2.543940 -0.170330 -0.843989 -0.306425 0.042666
    36 0.024032 -1.129042 0.017807 -1.199105 0.000000 0.000001
    37 0.014898 -0.883989 -0.019848 -1.052873 0.000000 0.000000
    38 -0.586770 -1.264477 0.200161 -0.330638 -0.882973 -2.453541
    39 1.522835 0.058681 0.016848 -0.037192 -0.131247 0.649010
    40 1.117947 0.048424 -0.005766 -0.016374 -0.019146 0.763684
    41 -0.139399 -0.111698 0.014397 0.285382 -0.030687 1.580508
    42 -1.393470 8.839177 -0.239433 1.580804 -0.005023 -1.566847
  time 29
    0 0.000000 0.000000 0.089846 0.000000 0.000000 -0.000022
    1 8.186462 0.777844 -6.784957 0.768969 -1.860600 -0.890560
    2 -0.071917 -8.498687 -0.104136 0.147673 0.249490 0.024910
    3 1.848843 -3.361148 0.929803 -0.012221 0.068719 2.924626
    4 0.082599 1.146638 0.000000 0.000000 0.000000 0.000000
    5 -0.932205 -3.542499 0.364983 3.141592 0.000000 -1.570796
    6 0.200941 -5.459696 0.000001 0.000001 0.000000 0.000000
    7 1.257180 8.762585 -0.153713 -1.570562 0.002683 -1.566807
    8 -0.488518 -2.755602 -0.228260 -1.381605 -0.178341 -0.211266
    9 0.039887 -1.479790 0.029854 -0.929887 -0.052253 0.069907
    10 0.028786 -1.075731 -0.023109 -1.481385 0.000000 0.000000
    11 0.250027 -2.820665 -0.238396 -1.068206 -0.168272 -0.396342
    12 -0.049759 -1.680544 0.100479 -1.479918 -0.104086 0.165110
    13 -0.034142 -1.148312 0.084782 -1.087281 0.000000 0.000000
    14 0.957766 -2.746780 -0.090302 -0.420442 -0.171158 0.010363
    15 -0.033420 -1.397129 -0.011257 -0.255519 0.124808 -0.122316
    16 -0.022360 -0.957436 0.018784 -1.043310 0.000000 0.000000
    17 -1.180681 -2.507217 -0.193859 -1.245142 -0.058709 -0.139782
    18 -0.024967 -1.123934 0.017597 -0.977967 0.000000 0.000001
    19 -0.020057 -0.890968 0.010090 -0.933434 0.000000 0.000000
    20 0.583510 -1.197277 0.185379 0.379009 -1.169118 -0.652939
    21 1.535927 0.010246 0.005009 0.393379 -0.245252 -1.052879
    22 1.100771 0.004527 -0.010679 -0.011449 0.011491 -0.607431
    23 0.120153 -0.050270 -0.054489 0.287569 3.110905 1.561085
    24 -0.649687 -8.739179 -10.493791 -1.766649 -5.321384 -1.065166
    25 0.096944 -8.450418 -0.009365 0.228648 -0.233694 0.292789
    26 0.447953 -2.798986 -0.200443 -1.072186 -0.126515 -0.047440
    27 -0.032909 -1.480204 0.004940 -1.413632 0.000000 0.000002
    28 -0.027022 -1.076920 -0.020210 -1.481391 0.000000 0.000000
    29 -0.249534 -2.846964 -0.174213 -0.968633 -0.135815 -0.084786
    30 0.043235 -1.683941 0.096012 -1.469776 0.002823 -0.000167
    31 0.031729 -1.160830 0.058838 -1.436444 0.000642 0.008372
    32 -0.963866 -2.785145 -0.085350 -0.957802 -0.035925 -0.239075
    33 0.028479 -1.403067 0.006271 -1.158106 0.000000 0.000000
    34 0.021413 -0.957781 0.020046 -1.216858 0.000000 0.000000
    35 1.164475 -2.543940 -0.170330 -0.843989 -0.306425 0.042666
    36 0.024032 -1.129042 0.017807 -1.199105 0.000000 0.000001
    37 0.014898 -0.883989 -0.019848 -1.052873 0.000000 0.000000
    38 -0.586770 -1.264477 0.200161 -0.330638 -0.882973 -2.453541
    39 1.522835 0.058681 0.016848 -0.037192 -0.131247 0.649010
    40 1.117947 0.048424 -0.005766 -0.016374 -0.019146 0.763684
    41 -0.139399 -0.111698 0.014397 0.285382 -0.030687 1.580508
    42 -1.393470 8.839177 -0.239433 1.580804 -0.005023 -1.566847
  time 30
    0 0.000000 0.000000 0.000000 0.000000 0.000000 -0.000022
    1 8.186462 0.777844 -6.784957 0.768969 -1.860600 -0.890560
    2 -0.071917 -8.498687 -0.104136 0.147673 0.249490 0.024910
    3 1.848843 -3.361148 0.929803 -0.012221 0.068719 2.924626
    4 0.082599 1.146638 0.000000 0.000000 0.000000 0.000000
    5 -0.932205 -3.542499 0.364983 3.141592 0.000000 -1.570796
    6 0.200941 -5.459696 0.000001 0.000001 0.000000 0.000000
    7 1.257180 8.762585 -0.153713 -1.570562 0.002683 -1.566807
    8 -0.488518 -2.755602 -0.228260 -1.381605 -0.178341 -0.211266
    9 0.039887 -1.479790 0.029854 -0.929887 -0.052253 0.069907
    10 0.028786 -1.075731 -0.023109 -1.481385 0.000000 0.000000
    11 0.250027 -2.820665 -0.238396 -1.068206 -0.168272 -0.396342
    12 -0.049759 -1.680544 0.100479 -1.479918 -0.104086 0.165110
    13 -0.034142 -1.148312 0.084782 -1.087281 0.000000 0.000000
    14 0.957766 -2.746780 -0.090302 -0.420442 -0.171158 0.010363
    15 -0.033420 -1.397129 -0.011257 -0.255519 0.124808 -0.122316
    16 -0.022360 -0.957436 0.018784 -1.043310 0.000000 0.000000
    17 -1.180681 -2.507217 -0.193859 -1.245142 -0.058709 -0.139782
    18 -0.024967 -1.123934 0.017597 -0.977967 0.000000 0.000001
    19 -0.020057 -0.890968 0.010090 -0.933434 0.000000 0.000000
    20 0.583510 -1.197277 0.185379 0.379009 -1.169118 -0.652939
    21 1.535927 0.010246 0.005009 0.393379 -0.245252 -1.052879
    22 1.100771 0.004527 -0.010679 -0.011449 0.011491 -0.607431
    23 0.120153 -0.050270 -0.054489 0.287569 3.110905 1.561085
    24 -0.649687 -8.739179 -10.493791 -1.766649 -5.321384 -1.065166
    25 0.096944 -8.450418 -0.009365 0.228648 -0.233694 0.292789
    26 0.447953 -2.798986 -0.200443 -1.072186 -0.126515 -0.047440
    27 -0.032909 -1.480204 0.004940 -1.413632 0.000000 0.000002
    28 -0.027022 -1.076920 -0.020210 -1.481391 0.000000 0.000000
    29 -0.249534 -2.846964 -0.174213 -0.968633 -0.135815 -0.084786
    30 0.043235 -1.683941 0.096012 -1.469776 0.002823 -0.000167
    31 0.031729 -1.160830 0.058838 -1.436444 0.000642 0.008372
    32 -0.963866 -2.785145 -0.085350 -0.957802 -0.035925 -0.239075
    33 0.028479 -1.403067 0.006271 -1.158106 0.000000 0.000000
    34 0.021413 -0.957781 0.020046 -1.216858 0.000000 0.000000
    35 1.164475 -2.543940 -0.170330 -0.843989 -0.306425 0.042666
    36 0.024032 -1.129042 0.017807 -1.199105 0.000000 0.000001
    37 0.014898 -0.883989 -0.019848 -1.052873 0.000000 0.000000
    38 -0.586770 -1.264477 0.200161 -0.330638 -0.882973 -2.453541
    39 1.522835 0.058681 0.016848 -0.037192 -0.131247 0.649010
    40 1.117947 0.048424 -0.005766 -0.016374 -0.019146 0.763684
    41 -0.139399 -0.111698 0.014397 0.285382 -0.030687 1.580508
    42 -1.393470 8.839177 -0.239433 1.580804 -0.005023 -1.566847
end
