// Created by Crowbar 0.34.0.0

$ModelName "weapons/tfa_cso/w_ozwpnset3.mdl"

$BodyGroup "studio"
{
	studio "v_ozwpnset3_2"
}

$collisionmodel "v_ozwpnset3_2.smd"
{
	$mass 9
}

$CDMaterials "models\weapons\tfa_cso\ozwpnset3\"

$Sequence "idle" {
	"anims\idle.smd"
	fps 30
}