// Created by Crowbar 0.71

$modelname "weapons/tfa_cso/c_m134_vulcan.mdl"

$include "csonline_gmod.qci"

$bodygroup "studio"
{
	studio "v_m134hero"
}
$bodygroup "studio"
{
	studio "v_m134hero01"
}

$cdmaterials "models\weapons\tfa_cso\m134_vulcan\"

$attachment 0 "m134hero_root" 4.183 0 14.809
//$attachment 1 "m134hero_root" 2.883 -2.883 -6.176
//$attachment 2 "m134hero_root" 2.883 2.883 -6.176
//$attachment 3 "m134hero_root" 4.183 0 35.27
//$attachment 4 "m134hero_root" 3.048 -4.026 -0.423
//$attachment 5 "m134hero_root" 3.048 4.026 2.423
//$attachment 6 "m134hero_root" 4.439 -0.508 8.592

$sequence "idle" {
	"v_m134hero_anims\idle.smd"
	activity "ACT_VM_IDLE" 1
	fadein 0.2
	fadeout 0.2
	snap
	fps 30
	loop
	snap
}

$sequence "draw" {
	"v_m134hero_anims\draw.smd"
	activity "ACT_VM_DRAW" 1
	{ event 5004 5 "M134Vulcan.Draw" }
	fadein 0.2
	fadeout 0.2
	snap
	fps 30
	snap
}

$sequence "reload" {
	"v_m134hero_anims\reload.smd"
	activity "ACT_VM_RELOAD" 1
	{ event 5004 57 "M134Vulcan.ClipOff" }
	{ event 5004 81 "M134Vulcan.ClipOn" }
	fadein 0.2
	fadeout 0.2
	snap
	fps 30
	snap
}

$sequence "fire_ready" {
	"v_m134hero_anims\fire_ready.smd"
	{ event 5007 1 "weapons/m134hero_spinup.wav" }
	fadein 0.2
	fadeout 0.2
	fps 30
	snap
}

$sequence "shoot1" {
	"v_m134hero_anims\shoot1.smd"
	activity "ACT_VM_PRIMARYATTACK" 1
	{ event 5001 0 "136" }
	{ event 5001 3 "136" }
	{ event 5001 6 "136" }
	{ event 5001 9 "136" }
	{ event 5001 12 "136" }
	{ event 5001 15 "136" }
	{ event 5001 18 "136" }
	{ event 5001 21 "136" }
	{ event 5001 24 "136" }
	{ event 5001 27 "136" }
	{ event 5001 30 "136" }
	{ event 5031 0 "127" }
	{ event 5031 3 "127" }
	{ event 5031 6 "127" }
	{ event 5031 9 "127" }
	{ event 5031 12 "127" }
	{ event 5031 15 "127" }
	{ event 5031 18 "127" }
	{ event 5031 21 "127" }
	{ event 5031 24 "127" }
	{ event 5031 27 "127" }
	{ event 5031 30 "127" }
	fadein 0.2
	fadeout 0.2
	fps 30
	snap
}

$sequence "fire_after" {
	"v_m134hero_anims\fire_after.smd"
	activity "ACT_VM_PRIMARYATTACK_EMPTY" 1
	{ event 5001 0 "136" }
	fadein 0.2
	fadeout 0.2
	snap
	fps 30
	snap
}

$sequence "fire_change" {
	"v_m134hero_anims\fire_change.smd"
	{ event 5007 1 "weapons/m134ex_Spin.wav" }
	fadein 0.2
	fadeout 0.2
	fps 30
	snap
}

$sequence "idle_change" {
	"v_m134hero_anims\idle_change.smd"
	{ event 5007 1 "weapons/m134hero_spindown.wav" }
	fadein 0.2
	fadeout 0.2
	fps 30
	snap
}

$sequence "draw_overheat" {
	"v_m134hero_anims\draw_overheat.smd"
	fadein 0.2
	fadeout 0.2
	fps 30
	snap
}

$sequence "fire_after_overheat" {
	"v_m134hero_anims\fire_after_overheat.smd"
	{ event 5007 1 "weapons/m134hero_fire_after_overheat.wav" }
	fadein 0.2
	fadeout 0.2
	fps 30
	snap
}

$sequence "idle_overheat" {
	"v_m134hero_anims\idle_overheat.smd"
	fadein 0.2
	fadeout 0.2
	fps 30
	loop
	snap
}

$sequence "overheat_end" {
	"v_m134hero_anims\overheat_end.smd"
	{ event 5004 9 "weapons/m134hero_overheat_end.wav" }
	fadein 0.2
	fadeout 0.2
	fps 30
	snap
}

$sequence "fire_ready_shootb" {
	"v_m134hero_anims\fire_ready_shootb.smd"
	fadein 0.2
	fadeout 0.2
	fps 30
	snap
}

$sequence "shoot2" {
	"v_m134hero_anims\shoot2.smd"
	{ event 5001 0 "136" }
	{ event 5001 3 "136" }
	{ event 5001 6 "136" }
	{ event 5001 9 "136" }
	{ event 5001 12 "136" }
	{ event 5001 15 "136" }
	{ event 5001 18 "136" }
	{ event 5001 21 "136" }
	{ event 5001 24 "136" }
	{ event 5001 27 "136" }
	{ event 5001 30 "136" }
	{ event 5031 0 "127" }
	{ event 5031 3 "127" }
	{ event 5031 6 "127" }
	{ event 5031 9 "127" }
	{ event 5031 12 "127" }
	{ event 5031 15 "127" }
	{ event 5031 18 "127" }
	{ event 5031 21 "127" }
	{ event 5031 24 "127" }
	{ event 5031 27 "127" }
	{ event 5031 30 "127" }
	fadein 0.2
	fadeout 0.2
	fps 30
	snap
}

$sequence "fire_atfer_shootb" {
	"v_m134hero_anims\fire_atfer_shootb.smd"
	{ event 5007 1 "weapons/m134hero_spindown.wav" }
	fadein 0.2
	fadeout 0.2
	fps 30
	snap
}
