// Created by Crowbar 0.62

$modelname "weapons/tfa_cso/c_mp7unicorn.mdl"

$Include "csonline_gmod.qci"

$bodygroup "studio"
{
	studio "v_horsegun"
}

$CDMaterials "models\weapons\tfa_cso\mp7unicorn\"

$attachment 0 "Bone02" 11.2 0 0
//$attachment 1 "Bone02" 2 0 0

$definebone "root" "" -0.349714 1.166272 0.203512 0.000000 0.000000 0.000000 0.000000 0.000000 0.000000 -0.000000 0.000000 0.000000
$definebone "Bone01" "root" 9.164136 -1.116032 -9.281898 -76.217481 70.092734 -90.018486 0.000000 0.000000 0.000000 -0.000000 0.000000 0.000000
$definebone "Bone_Lefthand" "Bone01" -0.071918 -8.498730 -0.104136 5.089814 -13.452421 12.732268 0.000000 0.000000 0.000000 -0.000000 -0.000000 -0.000001
$definebone "Bone02" "Bone_Lefthand" 2.245252 -1.041409 0.570014 7.144666 -88.567071 5.072454 0.000000 0.000000 -0.000000 -0.000003 0.000000 0.000000
$definebone "Bone08(mirrored)" "Bone02" 4.790829 1.133615 0.099685 38.812223 74.837393 170.936469 0.000000 0.000000 0.000000 -0.000002 0.000001 -0.000003
$definebone "Bone12(mirrored)" "Bone08(mirrored)" 2.149457 0.000000 0.000000 -0.704337 -39.491246 -4.079976 0.000000 0.000000 -0.000000 -0.000000 -0.000011 0.000000
$definebone "Bone16(mirrored)" "Bone12(mirrored)" 1.410640 0.000027 -0.000000 -11.290872 -58.561961 -8.751411 0.000000 0.000000 0.000000 0.000007 0.000003 0.000002
$definebone "Bone26(mirrored)" "Bone16(mirrored)" 0.688373 -0.017383 -0.185035 -6.825813 -74.250345 -3.124459 -0.000000 0.000000 0.000000 0.000005 0.000001 -0.000005
$definebone "Bone30(mirrored)" "Bone26(mirrored)" 1.602878 0.000000 0.000023 12.432272 -19.749057 -6.907527 0.000000 0.000000 0.000000 0.000003 -0.000001 -0.000005
$definebone "Bone20(mirrored)" "Bone16(mirrored)" 1.789741 -0.005088 0.000520 2.771174 10.922066 1.766086 0.000000 -0.000000 0.000000 0.000005 0.000001 -0.000002
$definebone "Bone38(mirrored)" "Bone20(mirrored)" 1.179009 0.070627 -0.015056 1.943584 -100.375566 -11.920680 0.000000 0.000000 0.000000 0.000002 -0.000004 -0.000002
$definebone "Bone42(mirrored)" "Bone38(mirrored)" 1.688004 0.000000 -0.000035 6.527361 8.473530 2.901399 0.000000 0.000001 0.000000 -0.000005 0.000000 -0.000004
$definebone "Bone24(mirrored)" "Bone20(mirrored)" 2.195385 -0.000398 -0.001812 23.395299 14.694587 -4.410224 0.000000 0.000000 0.000000 -0.000002 -0.000007 0.000002
$definebone "Bone47(mirrored)" "Bone24(mirrored)" 0.343180 -0.385498 -0.103713 16.412491 -83.674169 12.529045 0.000000 0.000000 0.000000 0.000003 0.000009 -0.000002
$definebone "Bone08" "Bone02" 4.790829 1.133615 -0.100611 -38.812223 74.837393 9.063559 0.000000 0.000000 0.000000 -0.000003 -0.000006 -0.000001
$definebone "Bone12" "Bone08" 2.149457 0.000000 -0.000000 -0.704337 39.491246 4.079973 0.000000 0.000000 0.000000 -0.000000 0.000008 -0.000003
$definebone "Bone16" "Bone12" 1.410641 -0.000025 -0.000001 -11.290871 58.561961 8.751411 0.000000 0.000000 0.000000 0.000008 0.000000 -0.000005
$definebone "Bone20" "Bone16" 1.789742 0.005087 0.000521 2.771176 -10.922062 -1.766091 0.000000 0.000000 0.000000 0.000007 0.000003 -0.000005
$definebone "Bone24" "Bone20" 2.195386 0.000398 -0.001814 23.395297 -14.694584 4.410219 0.000000 0.000000 -0.000000 -0.000001 0.000010 -0.000007
$definebone "Bone47" "Bone24" 0.343183 0.385497 -0.103711 16.412550 83.674169 -12.529043 0.000000 0.000000 0.000000 0.000007 -0.000009 0.000002
$definebone "Bone38" "Bone20" 1.179009 -0.070627 -0.015057 1.943591 100.375560 11.920682 0.000000 0.000000 0.000000 0.000005 -0.000001 0.000001
$definebone "Bone42" "Bone38" 1.688004 -0.000001 -0.000034 6.527368 -8.473592 -2.901400 0.000000 0.000000 -0.000000 0.000005 -0.000005 0.000001
$definebone "Bone26" "Bone16" 0.688371 0.017383 -0.185031 -6.825813 74.250345 3.124459 0.000000 -0.000001 0.000000 0.000007 -0.000003 0.000003
$definebone "Bone30" "Bone26" 1.602879 0.000000 0.000022 12.432277 19.749052 6.907527 0.000000 0.000000 -0.000000 0.000007 -0.000002 0.000005
$definebone "Bone46" "Bone02" 7.560851 1.646851 0.323618 -11.479267 88.198889 0.000169 0.000000 0.000000 0.000000 -0.000001 -0.000001 -0.000002
$definebone "Bone48" "Bone46" 1.312626 0.000013 0.000000 47.513672 0.628479 0.146559 0.000000 0.000000 0.000000 -0.000000 0.000001 -0.000002
$definebone "Bone50" "Bone02" 6.071853 1.623898 0.234874 -3.259212 112.389746 -0.000003 0.000000 0.000000 0.000000 0.000000 0.000008 -0.000003
$definebone "Bone51" "Bone50" 1.354825 0.000001 0.000000 40.626379 -12.903631 -2.248978 0.000000 0.000000 0.000000 0.000003 0.000006 0.000002
$definebone "Bone62" "Bone02" 7.590755 1.591127 -0.256711 6.743885 88.585519 -0.000003 0.000000 0.000000 0.000000 -0.000001 -0.000000 -0.000003
$definebone "Bone63" "Bone62" 1.190014 0.000000 0.000000 -34.796300 3.250274 -0.000003 0.000000 0.000000 0.000000 -0.000000 -0.000001 -0.000003
$definebone "Bone65" "Bone02" 6.092677 1.613158 -0.256711 19.079895 114.530833 0.000169 0.000000 0.000000 0.000000 -0.000002 0.000006 0.000001
$definebone "Bone66" "Bone65" 1.272663 -0.000010 0.000000 -48.071272 -18.620838 2.166297 0.000000 0.000000 0.000000 0.000007 0.000002 -0.000003
$definebone "Bone64" "Bone02" 6.235859 1.681685 0.247134 23.464454 92.671625 -0.001493 0.000000 0.000000 0.000000 0.000002 0.000001 -0.000002
$definebone "Bone67" "Bone64" 1.181446 0.000072 0.000001 32.617740 1.676192 3.585624 0.000000 0.000000 0.000000 0.000003 0.000003 -0.000002
$definebone "Bone53" "Bone02" 4.730761 1.573702 0.266368 -9.903002 103.661017 0.000227 0.000000 0.000000 0.000000 -0.000000 0.000003 -0.000003
$definebone "Bone54" "Bone53" 0.907825 0.000018 -0.000000 28.952247 -6.097987 -1.339636 0.000000 0.000000 0.000000 0.000002 0.000003 -0.000002
$definebone "Bone56" "Bone02" 3.680717 1.603874 0.270152 -14.270603 97.124997 -0.000175 0.000000 0.000000 0.000000 -0.000000 0.000000 -0.000003
$definebone "Bone57" "Bone56" 0.803231 -0.000010 0.000000 42.252773 10.582250 2.844445 -0.000000 0.000000 0.000000 0.000002 0.000004 -0.000001
$definebone "Bone59" "Bone02" 1.906510 1.591805 0.306301 -6.978283 89.999983 -0.000003 -0.000000 0.000000 0.000000 -0.000000 -0.000000 -0.000003
$definebone "Bone60" "Bone59" 0.759968 0.000000 0.000000 38.208096 7.533197 1.617056 -0.000000 0.000000 0.000000 0.000002 0.000004 -0.000001
$definebone "Bone71" "Bone02" 1.936964 1.684355 -0.256711 -4.070979 93.310931 -0.000003 0.000000 0.000000 0.000000 -0.000000 0.000000 -0.000003
$definebone "Bone72" "Bone71" 0.876932 -0.000001 -0.000000 -34.571232 4.499723 0.071273 0.000000 0.000000 0.000000 0.000010 -0.000001 -0.000003
$definebone "Bone74" "Bone02" 4.562243 1.882184 -0.256711 14.407138 96.340332 -0.000003 0.000000 0.000000 0.000000 -0.000002 0.000002 -0.000002
$definebone "Bone75" "Bone74" 0.763398 -0.000001 0.000000 -55.940445 11.539258 -1.619526 0.000001 0.000001 0.000000 -0.000000 0.000001 -0.000004
$definebone "Bone25" "Bone02" -4.491490 1.075901 0.000163 -0.000000 89.999983 -0.000003 0.000000 0.000000 -0.000000 -0.000000 -0.000000 -0.000003
$definebone "Dummy01" "Bone02" 1.403872 -2.583259 0.014400 0.000000 -89.999983 0.000003 0.000000 0.000000 0.000000 0.000000 -0.000000 0.000003
$definebone "Bone49" "Dummy01" 7.878526 0.000002 0.000001 0.000000 -0.000000 0.000003 0.000001 0.000000 0.000000 0.000000 -0.000000 0.000003
$definebone "Bone03" "Dummy01" 7.751944 4.195028 0.000000 0.000000 -0.000000 0.000003 0.000001 0.000000 0.000000 0.000000 -0.000000 0.000003
$definebone "Bone55" "Bone02" 2.935514 -0.435579 -0.018016 -0.000000 -76.818858 0.000003 0.000000 0.000000 0.000000 -0.000000 0.000003 0.000003

$sequence "idle" {
	"v_horsegun_anims\idle"
	{ event 5004 1 "Horsegun.Idle" }
	{ event 5004 25 "Horsegun.Idle" }
	fps 30
	loop
	activity "ACT_VM_IDLE" 1
	snap
}
$sequence "reload" {
	"v_horsegun_anims\reload"
	{ event 5004 15 "Horsegun.ClipOut" }
	{ event 5004 37 "Horsegun.ClipIn" }
	{ event 5004 64 "Horsegun.Boltpull" }
	fps 30
	activity "ACT_VM_RELOAD" 1
	snap
}
$sequence "draw" {
	"v_horsegun_anims\draw"
	{ event 5004 4 "Horsegun.Draw" }
	fps 30
	activity "ACT_VM_DRAW" 1
	snap
}
$sequence "shoot1" {
	"v_horsegun_anims\shoot1"
	{ event 5001 2 "12" }
	fps 30
	activity "ACT_VM_PRIMARYATTACK" 1
	snap
}
$sequence "shoot2" {
	"v_horsegun_anims\shoot2"
	{ event 5001 2 "12" }
	fps 30
	activity "ACT_VM_PRIMARYATTACK" 1
	snap
}
