// Created by Crowbar 0.68

// Stored modelname (without quotes): "p_dualsword_skillfx2.mdl"
$modelname "effects/tfa_cso/dualsword_skillfx2.mdl"

$bodygroup "weapon"
{
	studio "skill_ref2"
}

$cdmaterials "models\weapons\tfa_cso\dual_sword\"

$sequence "idle_skill" {
	"dualsword_skillfx2_anims\idle_skill"
	fps 30
	snap
}
