// Created by Crowbar 0.34.0.0

$ModelName "weapons/tfa_cso/w_divine_blaster.mdl"

$BodyGroup "studio"
{
	studio "v_winggun01"
}

$collisionmodel "v_winggun01.smd"
{
	$mass 9
}

$CDMaterials "models\weapons\tfa_cso\divine_blaster\"

$attachment "0" "root" 0.00 -6.00 -0.40 rotate -0 -90 0

$Sequence "idle" {
	"anims\idle.smd"
	fps 30
}