version 1
nodes
  0 "Bip01 L Clavicle" -1
  1 "Bip01 L UpperArm" 0
  2 "Bip01 L Forearm" 1
  3 "Bip01 L Hand" 2
  4 "Bone_magicsg" 3
  5 "Bone_wingR" 4
  6 "Bone_wingL" 4
  7 "Bone_charge" 4
  8 "Point_blue" 7
  9 "Point_blue_glow" 8
  10 "glow_014" 9
  11 "Point_star" 7
  12 "Point_star001" 11
  13 "glow_11" 12
  14 "Point_heart" 7
  15 "Point_heart_glow" 14
  16 "glow_012" 15
  17 "Point_green" 7
  18 "Point_green_glow" 17
  19 "glow_013" 18
  20 "Point004" 7
  21 "Point016" 20
  22 "glow_018" 21
  23 "Point005" 7
  24 "Point017" 23
  25 "glow_019" 24
  26 "Point008" 7
  27 "Point015" 26
  28 "glow_023" 27
  29 "Point006" 7
  30 "Point014" 29
  31 "glow_021" 30
  32 "Point007" 7
  33 "Point012" 32
  34 "glow_020" 33
  35 "Point009" 7
  36 "Point013" 35
  37 "glow_022" 36
  38 "Point010" 4
  39 "Point011" 38
  40 "glow_024" 39
  41 "Point003" 4
  42 "Point018" 41
  43 "glow_015" 42
  44 "Point002" 4
  45 "Point019" 44
  46 "glow_016" 45
  47 "Point001" 4
  48 "Point020" 47
  49 "glow_017" 48
  50 "Point_dia" 4
  51 "Point_glow1" -1
  52 "Point_glow12" 51
  53 "Point_glow11" 51
  54 "Point_glow13" 51
  55 "Point_glow14" 51
  56 "Point_glow2" -1
  57 "Point_glow21" 56
  58 "Point_glow22" 56
  59 "Point_glow24" 56
  60 "Point_glow23" 56
  61 "Point_glow3" -1
  62 "Point_glow31" 61
  63 "Point_glow32" 61
  64 "Point_glow34" 61
  65 "Point_glow33" 61
  66 "Point_glow4" -1
  67 "Point_glow41" 66
  68 "Point_glow42" 66
  69 "Point_glow44" 66
  70 "Point_glow43" 66
  71 "Point_glow5" -1
  72 "Point_glow51" 71
  73 "Point_glow52" 71
  74 "Point_glow54" 71
  75 "Point_glow53" 71
  76 "Point_glow6" -1
  77 "Point_glow61" 76
  78 "Point_glow62" 76
  79 "Point_glow64" 76
  80 "Point_glow63" 76
  81 "Point_glow7" -1
  82 "Point_glow71" 81
  83 "Point_glow72" 81
  84 "Point_glow74" 81
  85 "Point_glow73" 81
  86 "root" -1
  87 "Bone01" 86
  88 "Bone_L_Upper" 87
  89 "Bone_Lefthand" 87
  90 "Bone13" 89
  91 "Bone14" 90
  92 "Bone15" 91
  93 "Bone17" 89
  94 "Bone18" 93
  95 "Bone19" 94
  96 "Bone21" 89
  97 "Bone22" 96
  98 "Bone23" 97
  99 "Bone09" 89
  100 "Bone10" 99
  101 "Bone11" 100
  102 "Bone05" 89
  103 "Bone06" 102
  104 "Bone07" 103
  105 "Bone_Se_Hand-L" 89
  106 "Bone04" 86
  107 "Bone_Righthand" 106
  108 "Bone39" 107
  109 "Bone40" 108
  110 "Bone41" 109
  111 "Bone35" 107
  112 "Bone36" 111
  113 "Bone37" 112
  114 "Bone31" 107
  115 "Bone32" 114
  116 "Bone33" 115
  117 "Bone43" 107
  118 "Bone44" 117
  119 "Bone45" 118
  120 "Bone27" 107
  121 "Bone28" 120
  122 "Bone29" 121
  123 "Bone_Se_Hand-R" 107
  124 "Bone_R_Upper" 106
end
skeleton
  time 0
    0 2.700561 4.966999 -0.029535 0.000000 0.966908 -0.233375
    1 4.065896 0.000000 0.000000 0.201225 0.779225 -1.330963
    2 5.727315 0.000001 0.000000 0.000000 0.000000 -0.590448
    3 9.229775 0.000000 0.000000 0.441188 -0.155104 0.033154
    4 2.060792 1.413404 4.149055 1.570806 1.483530 -1.570787
    5 12.975087 -1.531297 0.000006 0.000000 0.000000 -0.908372
    6 12.975089 1.530990 0.000007 0.000000 0.000000 0.908370
    7 8.165468 -0.000007 0.000004 1.570800 -0.000001 -0.000001
    8 3.274859 -0.000010 -2.600002 -1.556091 -1.570796 0.000000
    9 -0.045044 -0.000002 -0.000002 0.000000 0.000000 0.000000
    10 0.045043 0.000000 -0.000001 1.570707 -1.585502 -1.570715
    11 3.274858 2.661218 -0.000012 -1.556091 -1.570796 0.000000
    12 0.000001 -0.000001 0.045286 0.000000 0.000000 0.000000
    13 0.000000 0.000000 -0.045289 -0.014705 -0.000001 -0.000003
    14 3.274859 -2.599999 0.000010 -1.556091 -1.570796 0.000000
    15 0.000000 0.000000 -0.058533 0.000000 0.000000 0.000000
    16 -0.000001 0.000001 0.058531 0.014706 3.141591 -0.000003
    17 3.274858 0.000010 2.599998 -1.556091 -1.570796 0.000000
    18 0.061963 -0.000001 0.000001 0.000000 0.000000 0.000000
    19 -0.061964 0.000002 0.000002 -1.570711 1.556091 -1.570711
    20 4.731360 2.400001 -0.000012 -1.556091 -1.570796 0.000000
    21 0.000000 0.000002 0.015684 0.000000 0.000000 0.000000
    22 0.000000 0.000001 -0.015686 -0.014705 -0.000001 -0.000003
    23 4.731360 -2.400002 0.000008 -1.556091 -1.570796 0.000000
    24 0.000000 0.000001 -0.013061 0.000000 0.000000 0.000000
    25 -0.000001 -0.000002 0.013061 0.014706 3.141591 -0.000003
    26 1.342702 -0.000010 -2.400002 -1.556091 -1.570796 0.000000
    27 -0.027832 0.000001 0.000000 0.000000 0.000000 0.000000
    28 0.027832 0.000000 -0.000001 1.570683 -1.585502 -1.570691
    29 1.342702 -2.400002 0.000009 -1.556091 -1.570796 0.000000
    30 0.000000 0.000001 -0.020875 0.000000 0.000000 0.000000
    31 -0.000001 -0.000002 0.020875 0.014706 3.141591 -0.000003
    32 1.342702 2.400000 -0.000010 -1.556091 -1.570796 0.000000
    33 0.000000 0.000000 0.026095 0.000000 0.000000 0.000000
    34 0.000000 -0.000001 -0.026095 -0.014705 -0.000001 -0.000003
    35 1.342701 0.000009 2.400000 -1.556091 -1.570796 0.000000
    36 0.022216 0.000001 0.000000 0.000000 0.000000 0.000000
    37 -0.022217 0.000000 0.000001 -1.570711 1.556091 -1.570711
    38 7.211156 -0.000005 1.048106 0.000000 0.000000 -1.570798
    39 0.000000 0.000002 0.026854 0.000000 0.000000 0.000000
    40 0.000000 -0.000001 -0.026855 0.000000 0.000000 0.000000
    41 14.782638 -0.000011 1.014265 0.000000 0.000000 -1.570798
    42 0.000001 -0.000002 0.033325 0.000000 0.000000 0.000000
    43 0.000000 0.000002 -0.033326 0.000000 0.000000 0.000000
    44 16.145842 -0.000011 0.813504 0.000000 0.000000 -1.570798
    45 0.000000 0.000002 0.032471 0.000000 0.000000 0.000000
    46 -0.000001 -0.000002 -0.032473 0.000000 0.000000 0.000000
    47 17.472200 -0.000013 0.813506 0.000000 0.000000 -1.570798
    48 0.000000 -0.000004 0.027219 0.000000 0.000000 0.000000
    49 0.000000 0.000004 -0.027219 0.000000 0.000000 0.000000
    50 19.736818 -0.000015 0.000009 0.000000 0.000000 -1.570798
    51 -24.966747 -13.345499 -2.497998 1.570796 0.000000 -3.141592
    52 -2.000000 2.000000 0.000000 0.000000 -3.141592 0.000000
    53 2.000000 2.000000 0.000000 0.000000 -3.141592 0.000000
    54 2.000000 -2.000000 0.000000 0.000000 -3.141592 0.000000
    55 -2.000000 -2.000000 0.000000 0.000000 -3.141592 0.000000
    56 -25.318993 -13.345499 -6.871564 1.570796 0.000000 -3.141592
    57 2.000000 2.000000 0.000000 0.000000 -3.141592 0.000000
    58 -2.000000 2.000000 0.000000 0.000000 -3.141592 0.000000
    59 -2.000000 -2.000000 0.000000 0.000000 -3.141592 0.000000
    60 2.000000 -2.000000 0.000000 0.000000 -3.141592 0.000000
    61 -22.276421 -13.345499 -3.034990 1.570796 0.000000 -3.141592
    62 2.000000 2.000000 0.000000 0.000000 -3.141592 0.000000
    63 -2.000000 2.000000 0.000001 0.000000 -3.141592 0.000000
    64 -2.000000 -2.000000 0.000001 0.000000 -3.141592 0.000000
    65 2.000000 -2.000000 0.000000 0.000000 -3.141592 0.000000
    66 -27.477749 -13.345499 -4.857080 1.570796 0.000000 -3.141592
    67 2.000000 2.000000 -0.000001 0.000000 -3.141592 0.000000
    68 -2.000000 2.000000 0.000000 0.000000 -3.141592 0.000000
    69 -2.000000 -2.000000 0.000000 0.000000 -3.141592 0.000000
    70 2.000000 -2.000000 -0.000001 0.000000 -3.141592 0.000000
    71 -31.240051 -13.345499 -7.458954 1.570796 0.000000 -3.141592
    72 1.999998 2.000000 0.000000 0.000000 -3.141592 0.000000
    73 -2.000000 2.000000 0.000000 0.000000 -3.141592 0.000000
    74 -2.000000 -2.000000 0.000000 0.000000 -3.141592 0.000000
    75 1.999998 -2.000000 0.000000 0.000000 -3.141592 0.000000
    76 -30.260080 -13.345499 -2.840736 1.570796 0.000000 -3.141592
    77 1.999996 2.000000 0.000000 0.000000 -3.141592 0.000000
    78 -2.000000 2.000000 0.000001 0.000000 -3.141592 0.000000
    79 -2.000000 -2.000000 0.000001 0.000000 -3.141592 0.000000
    80 1.999996 -2.000000 0.000000 0.000000 -3.141592 0.000000
    81 -27.111948 -13.345499 0.145180 1.570796 0.000000 -3.141592
    82 2.000000 2.000000 -0.000001 0.000000 -3.141592 0.000000
    83 -2.000000 2.000000 0.000000 0.000000 -3.141592 0.000000
    84 -2.000000 -2.000000 0.000000 0.000000 -3.141592 0.000000
    85 2.000000 -2.000000 -0.000001 0.000000 -3.141592 0.000000
    86 0.001265 -0.569176 -20.601572 0.000000 0.000000 0.000000
    87 9.310103 -5.299614 -12.557959 3.138909 -0.000224 -1.566807
    88 1.257180 8.762585 -0.153713 -1.570562 0.002683 -1.566807
    89 -0.071921 -8.498736 -0.104134 -0.025046 0.287591 0.014898
    90 -0.488518 -2.755602 -0.228260 0.106454 0.010332 -0.264490
    91 0.039887 -1.479790 0.029854 -0.055395 0.000000 0.000001
    92 0.028786 -1.075731 -0.023109 0.002099 0.000000 0.000000
    93 0.250027 -2.820665 -0.238396 0.041826 -0.002921 0.008443
    94 -0.049759 -1.680544 0.100479 0.019826 0.000000 -0.000002
    95 -0.034142 -1.148312 0.084782 -0.040115 0.000000 0.000000
    96 0.957766 -2.746780 -0.090302 -0.017221 -0.162277 0.191558
    97 -0.033420 -1.397129 -0.011257 0.013931 0.000000 -0.000001
    98 -0.022360 -0.957436 0.018784 0.003845 0.000000 0.000000
    99 -1.180681 -2.507217 -0.193859 0.082999 0.013294 -0.477915
    100 -0.024967 -1.123934 0.017597 -0.018065 0.000000 0.000001
    101 -0.020057 -0.890968 0.010090 -0.060797 0.000000 0.000000
    102 0.583510 -1.197277 0.185379 0.158049 -0.404973 -0.364290
    103 1.535927 0.010246 0.005009 -0.002964 -0.012979 0.000887
    104 1.100771 0.004527 -0.010679 -0.002796 0.015973 0.003458
    105 0.120153 -0.050270 -0.054489 0.287569 3.110905 1.561085
    106 -9.310107 -5.231260 -12.513384 0.004984 -3.131565 -1.566847
    107 0.096944 -8.450418 -0.009365 -0.032965 -0.297907 -0.004663
    108 0.447953 -2.798986 -0.200443 0.106456 -0.010396 0.265094
    109 -0.032909 -1.480204 0.004940 -0.055403 0.000000 0.000002
    110 -0.027022 -1.076920 -0.020210 0.002094 0.000000 0.000000
    111 -0.249534 -2.846964 -0.174213 0.041903 -0.000125 -0.008396
    112 0.043235 -1.683941 0.096012 0.019757 0.002823 -0.000167
    113 0.031729 -1.160830 0.058838 -0.040181 0.000642 0.008372
    114 -0.963866 -2.785145 -0.085350 -0.017227 0.162276 -0.191556
    115 0.028479 -1.403067 0.006271 0.013941 0.000000 0.000000
    116 0.021413 -0.957781 0.020046 0.003851 0.000000 0.000000
    117 1.164475 -2.543940 -0.170330 0.083003 -0.013294 0.477915
    118 0.024032 -1.129042 0.017807 -0.018074 0.000000 0.000001
    119 0.014898 -0.883989 -0.019848 -0.060801 0.000000 0.000000
    120 -0.586770 -1.264477 0.200161 -0.152092 -0.410513 -2.814816
    121 1.522835 0.058681 0.016848 0.001410 0.008985 -0.046880
    122 1.117947 0.048424 -0.005766 -0.000243 -0.025198 0.065422
    123 -0.139399 -0.111698 0.014397 0.285382 -0.030687 1.580508
    124 -1.393470 8.839177 -0.239433 1.580804 -0.005023 -1.566847
end
triangles
$0b_magicsg_glitter_fink.bmp
  52 -22.966747 -13.345499 -0.497998 0.000000 1.000000 0.000000 0.000000 1.000000
  55 -22.966747 -13.345498 -4.497998 0.000000 1.000000 0.000000 0.000000 0.000000
  53 -26.966747 -13.345500 -0.497998 0.000000 1.000000 0.000000 1.000000 1.000000
$0b_magicsg_glitter_fink.bmp
  53 -26.966747 -13.345500 -0.497998 0.000000 1.000000 0.000000 1.000000 1.000000
  55 -22.966747 -13.345498 -4.497998 0.000000 1.000000 0.000000 0.000000 0.000000
  54 -26.966747 -13.345499 -4.497998 0.000000 1.000000 0.000000 1.000000 0.000000
$0b_magicsg_glitter_fink.bmp
  58 -23.318993 -13.345499 -4.871564 0.000000 1.000000 0.000000 0.000000 1.000000
  59 -23.318993 -13.345498 -8.871564 0.000000 1.000000 0.000000 0.000000 0.000000
  57 -27.318993 -13.345500 -4.871564 0.000000 1.000000 0.000000 1.000000 1.000000
$0b_magicsg_glitter_fink.bmp
  57 -27.318993 -13.345500 -4.871564 0.000000 1.000000 0.000000 1.000000 1.000000
  59 -23.318993 -13.345498 -8.871564 0.000000 1.000000 0.000000 0.000000 0.000000
  60 -27.318993 -13.345499 -8.871564 0.000000 1.000000 0.000000 1.000000 0.000000
$0b_magicsg_glitter_fink.bmp
  63 -20.346421 -13.345498 -1.034990 0.000000 1.000000 0.000000 0.000000 1.000000
  64 -20.346421 -13.345497 -5.034990 0.000000 1.000000 0.000000 0.000000 0.000000
  62 -24.346421 -13.345500 -1.034990 0.000000 1.000000 0.000000 1.000000 1.000000
$0b_magicsg_glitter_fink.bmp
  62 -24.346421 -13.345500 -1.034990 0.000000 1.000000 0.000000 1.000000 1.000000
  64 -20.346421 -13.345497 -5.034990 0.000000 1.000000 0.000000 0.000000 0.000000
  65 -24.346421 -13.345499 -5.034990 0.000000 1.000000 0.000000 1.000000 0.000000
$0b_magicsg_glitter_fink.bmp
  68 -25.477749 -13.345499 -2.857080 0.000000 1.000000 0.000000 0.000000 1.000000
  69 -25.477749 -13.345498 -6.857080 0.000000 1.000000 0.000000 0.000000 0.000000
  67 -29.477749 -13.345501 -2.857080 0.000000 1.000000 0.000000 1.000000 1.000000
$0b_magicsg_glitter_fink.bmp
  67 -29.477749 -13.345501 -2.857080 0.000000 1.000000 0.000000 1.000000 1.000000
  69 -25.477749 -13.345498 -6.857080 0.000000 1.000000 0.000000 0.000000 0.000000
  70 -29.477749 -13.345500 -6.857080 0.000000 1.000000 0.000000 1.000000 0.000000
$0b_magicsg_glitter_fink.bmp
  73 -29.240051 -13.345499 -5.458954 0.000000 1.000000 0.000000 0.000000 1.000000
  74 -29.240051 -13.345498 -9.458954 0.000000 1.000000 0.000000 0.000000 0.000000
  72 -33.240049 -13.345500 -5.458954 0.000000 1.000000 0.000000 1.000000 1.000000
$0b_magicsg_glitter_fink.bmp
  72 -33.240049 -13.345500 -5.458954 0.000000 1.000000 0.000000 1.000000 1.000000
  74 -29.240051 -13.345498 -9.458954 0.000000 1.000000 0.000000 0.000000 0.000000
  75 -33.240049 -13.345499 -9.458954 0.000000 1.000000 0.000000 1.000000 0.000000
$0b_magicsg_glitter_fink.bmp
  78 -28.260080 -13.345498 -0.840736 0.000000 1.000000 0.000000 0.000000 1.000000
  79 -28.260080 -13.345497 -4.840736 0.000000 1.000000 0.000000 0.000000 0.000000
  77 -32.260076 -13.345500 -0.840736 0.000000 1.000000 0.000000 1.000000 1.000000
$0b_magicsg_glitter_fink.bmp
  77 -32.260076 -13.345500 -0.840736 0.000000 1.000000 0.000000 1.000000 1.000000
  79 -28.260080 -13.345497 -4.840736 0.000000 1.000000 0.000000 0.000000 0.000000
  80 -32.260076 -13.345499 -4.840736 0.000000 1.000000 0.000000 1.000000 0.000000
$0b_magicsg_glitter_fink.bmp
  83 -25.221948 -13.345499 2.145180 0.000000 1.000000 0.000000 0.000000 1.000000
  84 -25.221948 -13.345498 -1.854820 0.000000 1.000000 0.000000 0.000000 0.000000
  82 -29.221948 -13.345502 2.145180 0.000000 1.000000 0.000000 1.000000 1.000000
$0b_magicsg_glitter_fink.bmp
  82 -29.221948 -13.345502 2.145180 0.000000 1.000000 0.000000 1.000000 1.000000
  84 -25.221948 -13.345498 -1.854820 0.000000 1.000000 0.000000 0.000000 0.000000
  85 -29.221948 -13.345500 -1.854820 0.000000 1.000000 0.000000 1.000000 0.000000
end
