version 1
nodes
  0 "root" -1
  1 "Bone01" 0
  2 "Bone_L_Upper" 1
  3 "Bone_Lefthand" 1
  4 "Bone13" 3
  5 "Bone14" 4
  6 "Bone15" 5
  7 "Bone17" 3
  8 "Bone18" 7
  9 "Bone19" 8
  10 "Bone21" 3
  11 "Bone22" 10
  12 "Bone23" 11
  13 "Bone09" 3
  14 "Bone10" 13
  15 "Bone11" 14
  16 "Bone05" 3
  17 "Bone06" 16
  18 "Bone07" 17
  19 "Bone_Se_Hand-L" 3
  20 "Bone04" 0
  21 "Bone_Righthand" 20
  22 "Bone39" 21
  23 "Bone40" 22
  24 "Bone41" 23
  25 "Bone35" 21
  26 "Bone36" 25
  27 "Bone37" 26
  28 "Bone31" 21
  29 "Bone32" 28
  30 "Bone33" 29
  31 "Bone43" 21
  32 "Bone44" 31
  33 "Bone45" 32
  34 "Bone27" 21
  35 "Bone28" 34
  36 "Bone29" 35
  37 "Bone_Se_Hand-R" 21
  38 "Bone_R_Upper" 20
  39 "M32MGL_root" 3
  40 "M32MGL_handle01" 39
  41 "M32MGL_magazine" 40
  42 "M32MGL_bullet01" 41
  43 "M32MGL_bullet02" 41
  44 "M32MGL_handle04" 39
  45 "M32MGL_trigger" 39
  46 "M32MGL_handle03" 39
end
skeleton
  time 0
    0 11.544475 -5.540497 -11.120814 0.753246 0.087284 0.555920
    1 7.938968 8.021105 2.212023 0.937659 -2.029502 -1.288301
    2 1.257180 8.762585 -0.153713 -1.570562 0.002683 -1.566807
    3 -0.071921 -8.498736 -0.104134 0.164730 0.230808 -0.387660
    4 -0.488518 -2.755602 -0.228260 -0.987556 0.010332 -0.264490
    5 0.039887 -1.479790 0.029854 -1.633593 0.000000 0.000001
    6 0.028786 -1.075731 -0.023109 -0.474516 0.000000 0.000000
    7 0.250027 -2.902699 -0.238396 0.055309 0.211328 0.148974
    8 -0.049759 -1.680544 0.100479 -0.625688 0.000000 -0.000002
    9 -0.034142 -1.148312 0.084782 -1.037833 0.000000 0.000000
    10 1.207774 -3.121791 -0.090302 -0.219964 -0.043414 0.086225
    11 -0.033420 -1.397129 -0.011257 -0.345797 0.043804 -0.037992
    12 -0.022360 -0.957436 0.018784 -0.522195 0.003452 0.001139
    13 -1.180681 -2.456434 -0.021979 -1.189698 0.133751 -0.426957
    14 -0.024967 -1.123934 0.017597 -1.225081 0.000000 0.000001
    15 -0.020057 -0.890968 0.010090 -0.829947 0.000000 0.000000
    16 0.583510 -1.197277 0.509608 0.656940 -1.082222 -0.580204
    17 1.535927 0.010246 0.005009 0.009716 -0.009096 -1.042668
    18 1.100771 0.004527 -0.010679 -0.007961 0.014127 -0.337036
    19 -0.059540 -0.081521 -0.101365 3.420906 5.967714 -1.482652
    20 -5.532648 -6.125818 0.904994 0.751313 -4.002241 1.418488
    21 0.096944 -8.450418 -0.009365 0.193640 -0.397651 0.218670
    22 0.447953 -2.798986 -0.200443 -0.628366 -0.044133 0.343869
    23 -0.032909 -1.480204 0.004940 -1.633343 0.000000 0.000002
    24 -0.027022 -1.076920 -0.020210 -0.667382 0.000000 0.000000
    25 -0.249534 -2.846964 -0.174213 -0.462244 -0.018129 0.254486
    26 0.043235 -1.683941 0.096012 -1.826616 0.002823 -0.000167
    27 0.031729 -1.160830 0.058838 -1.082887 0.000642 0.008372
    28 -0.963866 -2.785145 -0.085350 0.024169 0.000278 0.232352
    29 0.028479 -1.403067 0.006271 -1.650081 0.000000 0.000000
    30 0.021413 -0.957781 0.020046 -0.480239 0.000000 0.000000
    31 1.164475 -2.543940 -0.170330 -0.273813 -0.148943 0.314925
    32 0.024032 -1.129042 0.017807 -1.373850 -0.085666 -0.017065
    33 0.014898 -0.883989 -0.019848 -0.624918 0.000000 0.000000
    34 -0.586770 -1.264477 0.200161 -0.574792 -0.643081 -2.386700
    35 1.522835 0.058681 0.016848 -0.136772 -0.279077 0.630005
    36 1.117947 0.048424 -0.005766 0.032139 0.015394 0.802320
    37 -0.139399 -0.111698 0.014397 0.163166 0.200747 1.393884
    38 -4.264651 8.573544 -0.266778 1.578491 -0.008139 -1.218205
    39 1.602930 -3.419616 0.993028 -0.015493 0.004288 2.654875
    40 -3.004853 -0.321123 0.000001 0.000000 0.000000 2.079884
    41 5.485916 -2.877731 0.000000 0.000000 0.000000 -3.141309
    42 20.084074 2.292971 3.121190 0.000000 0.000000 3.141103
    43 3.732015 -0.731207 1.187537 1.047198 0.000000 3.141564
    44 -6.289126 8.486249 1.516290 0.000000 0.000000 0.068970
    45 -0.951095 1.245133 0.000000 0.000000 0.000000 0.651877
    46 -2.307669 -0.369492 0.683323 0.000000 0.000000 1.148170
  time 1
    0 11.313999 -5.556122 -11.050499 0.736024 0.090544 0.539369
    1 7.938968 8.021105 2.212023 0.937659 -2.029502 -1.288301
    2 1.257180 8.762585 -0.153713 -1.570562 0.002683 -1.566807
    3 -0.071921 -8.498736 -0.104134 0.164730 0.230808 -0.387660
    4 -0.488518 -2.755602 -0.228260 -0.987556 0.010332 -0.264490
    5 0.039887 -1.479790 0.029854 -1.633593 0.000000 0.000001
    6 0.028786 -1.075731 -0.023109 -0.474516 0.000000 0.000000
    7 0.250027 -2.902699 -0.238396 0.055309 0.211328 0.148974
    8 -0.049759 -1.680544 0.100479 -0.625688 0.000000 -0.000002
    9 -0.034142 -1.148312 0.084782 -1.037833 0.000000 0.000000
    10 1.207774 -3.121791 -0.090302 -0.219964 -0.043414 0.086225
    11 -0.033420 -1.397129 -0.011257 -0.345797 0.043804 -0.037992
    12 -0.022360 -0.957436 0.018784 -0.522195 0.003452 0.001139
    13 -1.180681 -2.456434 -0.021979 -1.189698 0.133751 -0.426957
    14 -0.024967 -1.123934 0.017597 -1.225081 0.000000 0.000001
    15 -0.020057 -0.890968 0.010090 -0.829947 0.000000 0.000000
    16 0.583510 -1.197277 0.509608 0.656940 -1.082222 -0.580204
    17 1.535927 0.010246 0.005009 0.009716 -0.009096 -1.042668
    18 1.100771 0.004527 -0.010679 -0.007961 0.014127 -0.337036
    19 -0.059540 -0.081521 -0.101365 3.420906 5.967714 -1.482652
    20 -5.575618 -6.121912 0.951871 0.726782 -3.976849 1.390491
    21 0.096944 -8.450418 -0.009365 0.189187 -0.433200 0.209341
    22 0.447953 -2.798986 -0.200443 -0.588411 -0.044133 0.343869
    23 -0.032909 -1.480204 0.004940 -1.562553 0.000000 0.000002
    24 -0.027022 -1.076920 -0.020210 -0.647128 0.000000 0.000000
    25 -0.249534 -2.846964 -0.174213 -0.462244 -0.018129 0.254486
    26 0.043235 -1.683941 0.096012 -1.826616 0.002823 -0.000167
    27 0.031729 -1.160830 0.058838 -1.082887 0.000642 0.008372
    28 -0.963866 -2.785145 -0.085350 0.024169 0.000278 0.232352
    29 0.028479 -1.403067 0.006271 -1.650081 0.000000 0.000000
    30 0.021413 -0.957781 0.020046 -0.480239 0.000000 0.000000
    31 1.164475 -2.543940 -0.170330 -0.219509 -0.148943 0.314925
    32 0.024032 -1.129042 0.017807 -1.311994 -0.085666 -0.017065
    33 0.014898 -0.883989 -0.019848 -0.571548 0.000000 0.000000
    34 -0.586770 -1.264477 0.200161 -0.574792 -0.643081 -2.386700
    35 1.522835 0.058681 0.016848 -0.136772 -0.279077 0.630005
    36 1.117947 0.048424 -0.005766 0.032139 0.015394 0.802320
    37 -0.139399 -0.111698 0.014397 0.191675 0.193629 1.392674
    38 -4.268558 8.565731 -0.266778 1.578491 -0.008139 -1.217288
    39 1.602930 -3.419616 0.993028 -0.015493 0.004288 2.654875
    40 -3.004853 -0.321123 0.000001 0.000000 0.000000 2.079884
    41 5.485916 -2.877731 0.000000 0.000000 0.000000 -3.141309
    42 20.084074 2.292971 3.121190 0.000000 0.000000 3.141103
    43 3.732015 -0.731207 1.187537 1.047198 0.000000 3.141564
    44 -6.289126 8.486249 1.516290 0.000000 0.000000 0.068970
    45 -0.951095 1.245133 0.000000 0.000000 0.000000 0.651877
    46 -2.307669 -0.369492 0.683323 0.000000 0.000000 1.148170
  time 2
    0 10.716325 -5.587373 -10.878619 0.690385 0.098693 0.496273
    1 7.938968 8.021105 2.212023 0.937659 -2.029502 -1.288301
    2 1.257180 8.762585 -0.153713 -1.570562 0.002683 -1.566807
    3 -0.071921 -8.498736 -0.104134 0.164730 0.230808 -0.387660
    4 -0.488518 -2.755602 -0.228260 -0.987556 0.010332 -0.264490
    5 0.039887 -1.479790 0.029854 -1.633593 0.000000 0.000001
    6 0.028786 -1.075731 -0.023109 -0.474516 0.000000 0.000000
    7 0.250027 -2.902699 -0.238396 0.055309 0.211328 0.148974
    8 -0.049759 -1.680544 0.100479 -0.625688 0.000000 -0.000002
    9 -0.034142 -1.148312 0.084782 -1.037833 0.000000 0.000000
    10 1.207774 -3.121791 -0.090302 -0.219964 -0.043414 0.086225
    11 -0.033420 -1.397129 -0.011257 -0.345797 0.043804 -0.037992
    12 -0.022360 -0.957436 0.018784 -0.522195 0.003452 0.001139
    13 -1.180681 -2.456434 -0.021979 -1.189698 0.133751 -0.426957
    14 -0.024967 -1.123934 0.017597 -1.225081 0.000000 0.000001
    15 -0.020057 -0.890968 0.010090 -0.829947 0.000000 0.000000
    16 0.583510 -1.197277 0.509608 0.656940 -1.082222 -0.580204
    17 1.535927 0.010246 0.005009 0.009716 -0.009096 -1.042668
    18 1.100771 0.004527 -0.010679 -0.007961 0.014127 -0.337036
    19 -0.059540 -0.081521 -0.101365 3.420906 5.967714 -1.482652
    20 -5.677184 -6.114099 1.069062 0.665503 -3.913224 1.320353
    21 0.096944 -8.450418 -0.009365 0.177913 -0.521945 0.185251
    22 0.447953 -2.798986 -0.200443 -0.488543 -0.044133 0.343869
    23 -0.032909 -1.480204 0.004940 -1.385578 0.000000 0.000002
    24 -0.027022 -1.076920 -0.020210 -0.596513 0.000000 0.000000
    25 -0.249534 -2.846964 -0.174213 -0.462244 -0.018129 0.254486
    26 0.043235 -1.683941 0.096012 -1.826616 0.002823 -0.000167
    27 0.031729 -1.160830 0.058838 -1.082887 0.000642 0.008372
    28 -0.963866 -2.785145 -0.085350 0.024169 0.000278 0.232352
    29 0.028479 -1.403067 0.006271 -1.650081 0.000000 0.000000
    30 0.021413 -0.957781 0.020046 -0.480239 0.000000 0.000000
    31 1.164475 -2.543940 -0.170330 -0.083732 -0.148943 0.314925
    32 0.024032 -1.129042 0.017807 -1.157459 -0.085666 -0.017065
    33 0.014898 -0.883989 -0.019848 -0.438124 0.000000 0.000000
    34 -0.586770 -1.264477 0.200161 -0.574792 -0.643081 -2.386700
    35 1.522835 0.058681 0.016848 -0.136772 -0.279077 0.630005
    36 1.117947 0.048424 -0.005766 0.032139 0.015394 0.802320
    37 -0.139399 -0.111698 0.014397 0.263040 0.175843 1.389689
    38 -4.284183 8.550106 -0.266778 1.578467 -0.008163 -1.214672
    39 1.602930 -3.419616 0.993028 -0.015493 0.004288 2.654875
    40 -3.004853 -0.321123 0.000001 0.000000 0.000000 2.079884
    41 5.485916 -2.877731 0.000000 0.000000 0.000000 -3.141309
    42 20.084074 2.292971 3.121190 0.000000 0.000000 3.141103
    43 3.732015 -0.731207 1.187537 1.047198 0.000000 3.141564
    44 -6.289126 8.486249 1.516290 0.000000 0.000000 0.068970
    45 -0.951095 1.245133 0.000000 0.000000 0.000000 0.651877
    46 -2.307669 -0.369492 0.683323 0.000000 0.000000 1.148170
  time 3
    0 9.895987 -5.634249 -10.652050 0.625557 0.109287 0.436172
    1 7.938968 8.021105 2.212023 0.937659 -2.029502 -1.288301
    2 1.257180 8.762585 -0.153713 -1.570562 0.002683 -1.566807
    3 -0.071921 -8.498736 -0.104134 0.164730 0.230808 -0.387660
    4 -0.488518 -2.755602 -0.228260 -0.987556 0.010332 -0.264490
    5 0.039887 -1.479790 0.029854 -1.633593 0.000000 0.000001
    6 0.028786 -1.075731 -0.023109 -0.474516 0.000000 0.000000
    7 0.250027 -2.902699 -0.238396 0.055309 0.211328 0.148974
    8 -0.049759 -1.680544 0.100479 -0.625688 0.000000 -0.000002
    9 -0.034142 -1.148312 0.084782 -1.037833 0.000000 0.000000
    10 1.207774 -3.121791 -0.090302 -0.219964 -0.043414 0.086225
    11 -0.033420 -1.397129 -0.011257 -0.345797 0.043804 -0.037992
    12 -0.022360 -0.957436 0.018784 -0.522195 0.003452 0.001139
    13 -1.180681 -2.456434 -0.021979 -1.189698 0.133751 -0.426957
    14 -0.024967 -1.123934 0.017597 -1.225081 0.000000 0.000001
    15 -0.020057 -0.890968 0.010090 -0.829947 0.000000 0.000000
    16 0.583510 -1.197277 0.509608 0.656940 -1.082222 -0.580204
    17 1.535927 0.010246 0.005009 0.009716 -0.009096 -1.042668
    18 1.100771 0.004527 -0.010679 -0.007961 0.014127 -0.337036
    19 -0.059540 -0.081521 -0.101365 3.420906 5.967714 -1.482652
    20 -5.813907 -6.102380 1.225317 0.585897 -3.830579 1.229289
    21 0.096944 -8.450418 -0.009365 0.163173 -0.637082 0.152276
    22 0.447953 -2.798986 -0.200443 -0.358718 -0.044133 0.343869
    23 -0.032909 -1.480204 0.004940 -1.155487 0.000000 0.000002
    24 -0.027022 -1.076920 -0.020210 -0.530688 0.000000 0.000000
    25 -0.249534 -2.846964 -0.174213 -0.462244 -0.018129 0.254486
    26 0.043235 -1.683941 0.096012 -1.826616 0.002823 -0.000167
    27 0.031729 -1.160830 0.058838 -1.082887 0.000642 0.008372
    28 -0.963866 -2.785145 -0.085350 0.024169 0.000278 0.232352
    29 0.028479 -1.403067 0.006271 -1.650081 0.000000 0.000000
    30 0.021413 -0.957781 0.020046 -0.480239 0.000000 0.000000
    31 1.164475 -2.543940 -0.170330 0.092713 -0.148943 0.314925
    32 0.024032 -1.129042 0.017807 -0.956500 -0.085666 -0.017065
    33 0.014898 -0.883989 -0.019848 -0.264656 0.000000 0.000000
    34 -0.586770 -1.264477 0.200161 -0.574792 -0.643081 -2.386700
    35 1.522835 0.058681 0.016848 -0.136772 -0.279077 0.630005
    36 1.117947 0.048424 -0.005766 0.032139 0.015394 0.802320
    37 -0.139399 -0.111698 0.014397 0.355936 0.152725 1.385854
    38 -4.311528 8.522761 -0.266778 1.578431 -0.008199 -1.210464
    39 1.602930 -3.419616 0.993028 -0.015493 0.004288 2.654875
    40 -3.004853 -0.321123 0.000001 0.000000 0.000000 2.079884
    41 5.485916 -2.877731 0.000000 0.000000 0.000000 -3.141309
    42 20.084074 2.292971 3.121190 0.000000 0.000000 3.141103
    43 3.732015 -0.731207 1.187537 1.047198 0.000000 3.141564
    44 -6.289126 8.486249 1.516290 0.000000 0.000000 0.068970
    45 -0.951095 1.245133 0.000000 0.000000 0.000000 0.651877
    46 -2.307669 -0.369492 0.683323 0.000000 0.000000 1.148170
  time 4
    0 8.997522 -5.677219 -10.429387 0.550644 0.119882 0.368606
    1 7.938968 8.021105 2.212023 0.937659 -2.029502 -1.288301
    2 1.257180 8.762585 -0.153713 -1.570562 0.002683 -1.566807
    3 -0.071921 -8.498736 -0.104134 0.164730 0.230808 -0.387660
    4 -0.488518 -2.755602 -0.228260 -0.987556 0.010332 -0.264490
    5 0.039887 -1.479790 0.029854 -1.633593 0.000000 0.000001
    6 0.028786 -1.075731 -0.023109 -0.474516 0.000000 0.000000
    7 0.250027 -2.902699 -0.238396 0.055309 0.211328 0.148974
    8 -0.049759 -1.680544 0.100479 -0.625688 0.000000 -0.000002
    9 -0.034142 -1.148312 0.084782 -1.037833 0.000000 0.000000
    10 1.207774 -3.121791 -0.090302 -0.219964 -0.043414 0.086225
    11 -0.033420 -1.397129 -0.011257 -0.345797 0.043804 -0.037992
    12 -0.022360 -0.957436 0.018784 -0.522195 0.003452 0.001139
    13 -1.180681 -2.456434 -0.021979 -1.189698 0.133751 -0.426957
    14 -0.024967 -1.123934 0.017597 -1.225081 0.000000 0.000001
    15 -0.020057 -0.890968 0.010090 -0.829947 0.000000 0.000000
    16 0.583510 -1.197277 0.509608 0.656940 -1.082222 -0.580204
    17 1.535927 0.010246 0.005009 0.009716 -0.009096 -1.042668
    18 1.100771 0.004527 -0.010679 -0.007961 0.014127 -0.337036
    19 -0.059540 -0.081521 -0.101365 3.420906 5.967714 -1.482652
    20 -5.950630 -6.090661 1.377665 0.506291 -3.747838 1.138321
    21 0.096944 -8.450418 -0.009365 0.148674 -0.751896 0.117241
    22 0.447953 -2.798986 -0.200443 -0.228892 -0.044133 0.343869
    23 -0.032909 -1.480204 0.004940 -0.925396 0.000000 0.000002
    24 -0.027022 -1.076920 -0.020210 -0.464862 0.000000 0.000000
    25 -0.249534 -2.846964 -0.174213 -0.462244 -0.018129 0.254486
    26 0.043235 -1.683941 0.096012 -1.826616 0.002823 -0.000167
    27 0.031729 -1.160830 0.058838 -1.082887 0.000642 0.008372
    28 -0.963866 -2.785145 -0.085350 0.024169 0.000278 0.232352
    29 0.028479 -1.403067 0.006271 -1.650081 0.000000 0.000000
    30 0.021413 -0.957781 0.020046 -0.480239 0.000000 0.000000
    31 1.164475 -2.543940 -0.170330 0.269227 -0.148943 0.314925
    32 0.024032 -1.129042 0.017807 -0.755583 -0.085666 -0.017065
    33 0.014898 -0.883989 -0.019848 -0.091187 0.000000 0.000000
    34 -0.586770 -1.264477 0.200161 -0.574792 -0.643081 -2.386700
    35 1.522835 0.058681 0.016848 -0.136772 -0.279077 0.630005
    36 1.117947 0.048424 -0.005766 0.032139 0.015394 0.802320
    37 -0.139399 -0.111698 0.014397 0.449016 0.129595 1.382055
    38 -4.342779 8.483698 -0.266778 1.578383 -0.008235 -1.204799
    39 1.602930 -3.419616 0.993028 -0.015493 0.004288 2.654875
    40 -3.004853 -0.321123 0.000001 0.000000 0.000000 2.079884
    41 5.485916 -2.877731 0.000000 0.000000 0.000000 -3.141309
    42 20.084074 2.292971 3.121190 0.000000 0.000000 3.141103
    43 3.732015 -0.731207 1.187537 1.047198 0.000000 3.141564
    44 -6.289126 8.486249 1.516290 0.000000 0.000000 0.068970
    45 -0.951095 1.245133 0.000000 0.000000 0.000000 0.651877
    46 -2.307669 -0.369492 0.683323 0.000000 0.000000 1.148170
  time 5
    0 8.169372 -5.712377 -10.253600 0.474823 0.128031 0.303183
    1 7.938968 8.021105 2.212023 0.937659 -2.029502 -1.288301
    2 1.257180 8.762585 -0.153713 -1.570562 0.002683 -1.566807
    3 -0.071921 -8.498736 -0.104134 0.164730 0.230808 -0.387660
    4 -0.488518 -2.755602 -0.228260 -0.987556 0.010332 -0.264490
    5 0.039887 -1.479790 0.029854 -1.633593 0.000000 0.000001
    6 0.028786 -1.075731 -0.023109 -0.474516 0.000000 0.000000
    7 0.250027 -2.902699 -0.238396 0.055309 0.211328 0.148974
    8 -0.049759 -1.680544 0.100479 -0.625688 0.000000 -0.000002
    9 -0.034142 -1.148312 0.084782 -1.037833 0.000000 0.000000
    10 1.207774 -3.121791 -0.090302 -0.219964 -0.043414 0.086225
    11 -0.033420 -1.397129 -0.011257 -0.345797 0.043804 -0.037992
    12 -0.022360 -0.957436 0.018784 -0.522195 0.003452 0.001139
    13 -1.180681 -2.456434 -0.021979 -1.189698 0.133751 -0.426957
    14 -0.024967 -1.123934 0.017597 -1.225081 0.000000 0.000001
    15 -0.020057 -0.890968 0.010090 -0.829947 0.000000 0.000000
    16 0.583510 -1.197277 0.509608 0.656940 -1.082222 -0.580204
    17 1.535927 0.010246 0.005009 0.009716 -0.009096 -1.042668
    18 1.100771 0.004527 -0.010679 -0.007961 0.014127 -0.337036
    19 -0.059540 -0.081521 -0.101365 3.420906 5.967714 -1.482652
    20 -6.052195 -6.082848 1.494856 0.445107 -3.684214 1.068470
    21 0.096944 -8.450418 -0.009365 0.137970 -0.839975 0.088689
    22 0.447953 -2.798986 -0.200443 -0.129024 -0.044133 0.343869
    23 -0.032909 -1.480204 0.004940 -0.748373 0.000000 0.000002
    24 -0.027022 -1.076920 -0.020210 -0.414227 0.000000 0.000000
    25 -0.249534 -2.846964 -0.174213 -0.462244 -0.018129 0.254486
    26 0.043235 -1.683941 0.096012 -1.826616 0.002823 -0.000167
    27 0.031729 -1.160830 0.058838 -1.082887 0.000642 0.008372
    28 -0.963866 -2.785145 -0.085350 0.024169 0.000278 0.232352
    29 0.028479 -1.403067 0.006271 -1.650081 0.000000 0.000000
    30 0.021413 -0.957781 0.020046 -0.480239 0.000000 0.000000
    31 1.164475 -2.543940 -0.170330 0.405004 -0.148943 0.314925
    32 0.024032 -1.129042 0.017807 -0.601006 -0.085666 -0.017065
    33 0.014898 -0.883989 -0.019848 0.042220 0.000000 0.000000
    34 -0.586770 -1.264477 0.200161 -0.574792 -0.643081 -2.386700
    35 1.522835 0.058681 0.016848 -0.136772 -0.279077 0.630005
    36 1.117947 0.048424 -0.005766 0.032139 0.015394 0.802320
    37 -0.139399 -0.111698 0.014397 0.520720 0.111798 1.379167
    38 -4.385749 8.436821 -0.266778 1.578323 -0.008295 -1.197759
    39 1.602930 -3.419616 0.993028 -0.015493 0.004288 2.654875
    40 -3.004853 -0.321123 0.000001 0.000000 0.000000 2.079884
    41 5.485916 -2.877731 0.000000 0.000000 0.000000 -3.141309
    42 20.084074 2.292971 3.121190 0.000000 0.000000 3.141103
    43 3.732015 -0.731207 1.187537 1.047198 0.000000 3.141564
    44 -6.289126 8.486249 1.516290 0.000000 0.000000 0.068970
    45 -0.951095 1.245133 0.000000 0.000000 0.000000 0.651877
    46 -2.307669 -0.369492 0.683323 0.000000 0.000000 1.148170
  time 6
    0 7.552166 -5.728002 -10.187192 0.407272 0.131291 0.249442
    1 7.938968 8.021105 2.212023 0.937659 -2.029502 -1.288301
    2 1.257180 8.762585 -0.153713 -1.570562 0.002683 -1.566807
    3 -0.071921 -8.498736 -0.104134 0.164730 0.230808 -0.387660
    4 -0.488518 -2.755602 -0.228260 -0.987556 0.010332 -0.264490
    5 0.039887 -1.479790 0.029854 -1.633593 0.000000 0.000001
    6 0.028786 -1.075731 -0.023109 -0.474516 0.000000 0.000000
    7 0.250027 -2.902699 -0.238396 0.055309 0.211328 0.148974
    8 -0.049759 -1.680544 0.100479 -0.625688 0.000000 -0.000002
    9 -0.034142 -1.148312 0.084782 -1.037833 0.000000 0.000000
    10 1.207774 -3.121791 -0.090302 -0.219964 -0.043414 0.086225
    11 -0.033420 -1.397129 -0.011257 -0.345797 0.043804 -0.037992
    12 -0.022360 -0.957436 0.018784 -0.522195 0.003452 0.001139
    13 -1.180681 -2.456434 -0.021979 -1.189698 0.133751 -0.426957
    14 -0.024967 -1.123934 0.017597 -1.225081 0.000000 0.000001
    15 -0.020057 -0.890968 0.010090 -0.829947 0.000000 0.000000
    16 0.583510 -1.197277 0.509608 0.656940 -1.082222 -0.580204
    17 1.535927 0.010246 0.005009 0.009716 -0.009096 -1.042668
    18 1.100771 0.004527 -0.010679 -0.007961 0.014127 -0.337036
    19 -0.059540 -0.081521 -0.101365 3.420906 5.967714 -1.482652
    20 -6.095165 -6.078942 1.541733 0.420672 -3.658726 1.040472
    21 0.096944 -8.450418 -0.009365 0.133868 -0.875155 0.076815
    22 0.447953 -2.798986 -0.200443 -0.089070 -0.044133 0.343869
    23 -0.032909 -1.480204 0.004940 -0.677583 0.000000 0.000002
    24 -0.027022 -1.076920 -0.020210 -0.393972 0.000000 0.000000
    25 -0.249534 -2.846964 -0.174213 -0.462244 -0.018129 0.254486
    26 0.043235 -1.683941 0.096012 -1.826616 0.002823 -0.000167
    27 0.031729 -1.160830 0.058838 -1.082887 0.000642 0.008372
    28 -0.963866 -2.785145 -0.085350 0.024169 0.000278 0.232352
    29 0.028479 -1.403067 0.006271 -1.650081 0.000000 0.000000
    30 0.021413 -0.957781 0.020046 -0.480239 0.000000 0.000000
    31 1.164475 -2.543940 -0.170330 0.459308 -0.148943 0.314925
    32 0.024032 -1.129042 0.017807 -0.539192 -0.085666 -0.017065
    33 0.014898 -0.883989 -0.019848 0.095606 0.000000 0.000000
    34 -0.586770 -1.264477 0.200161 -0.574792 -0.643081 -2.386700
    35 1.522835 0.058681 0.016848 -0.136772 -0.279077 0.630005
    36 1.117947 0.048424 -0.005766 0.032139 0.015394 0.802320
    37 -0.139399 -0.111698 0.014397 0.549439 0.104679 1.378004
    38 -4.432625 8.382132 -0.266778 1.578251 -0.008355 -1.189505
    39 1.602930 -3.419616 0.993028 -0.015493 0.004288 2.654875
    40 -3.004853 -0.321123 0.000001 0.000000 0.000000 2.079884
    41 5.485916 -2.877731 0.000000 0.000000 0.000000 -3.141309
    42 20.084074 2.292971 3.121190 0.000000 0.000000 3.141103
    43 3.732015 -0.731207 1.187537 1.047198 0.000000 3.141564
    44 -6.289126 8.486249 1.516290 0.000000 0.000000 0.068970
    45 -0.951095 1.245133 0.000000 0.000000 0.000000 0.651877
    46 -2.307669 -0.369492 0.683323 0.000000 0.036083 1.148170
  time 7
    0 7.099027 -5.677219 -10.308289 0.339620 0.128139 0.201478
    1 7.938968 8.021105 2.212023 0.937659 -2.029502 -1.288301
    2 1.257180 8.762585 -0.153713 -1.570562 0.002683 -1.566807
    3 -0.071921 -8.498736 -0.104134 0.164730 0.230808 -0.387660
    4 -0.488518 -2.755602 -0.228260 -0.987556 0.010332 -0.264490
    5 0.039887 -1.479790 0.029854 -1.633593 0.000000 0.000001
    6 0.028786 -1.075731 -0.023109 -0.474516 0.000000 0.000000
    7 0.250027 -2.902699 -0.238396 0.055309 0.211328 0.148974
    8 -0.049759 -1.680544 0.100479 -0.625688 0.000000 -0.000002
    9 -0.034142 -1.148312 0.084782 -1.037833 0.000000 0.000000
    10 1.207774 -3.121791 -0.090302 -0.219964 -0.043414 0.086225
    11 -0.033420 -1.397129 -0.011257 -0.345797 0.043804 -0.037992
    12 -0.022360 -0.957436 0.018784 -0.522195 0.003452 0.001139
    13 -1.180681 -2.456434 -0.021979 -1.189698 0.133751 -0.426957
    14 -0.024967 -1.123934 0.017597 -1.225081 0.000000 0.000001
    15 -0.020057 -0.890968 0.010090 -0.829947 0.000000 0.000000
    16 0.583510 -1.197277 0.509608 0.656940 -1.082222 -0.580204
    17 1.535927 0.010246 0.005009 0.009716 -0.009096 -1.042668
    18 1.100771 0.004527 -0.010679 -0.007961 0.014127 -0.337036
    19 -0.059540 -0.081521 -0.101365 3.420906 5.967714 -1.482652
    20 -6.071727 -6.078942 1.514388 0.434894 -3.673467 1.056716
    21 0.096944 -8.450418 -0.009365 0.137575 -0.849109 0.085296
    22 0.447953 -2.798986 -0.200443 -0.112248 -0.044133 0.343869
    23 -0.032909 -1.480204 0.004940 -0.718661 0.000000 0.000002
    24 -0.027022 -1.076920 -0.020210 -0.405705 0.000000 0.000000
    25 -0.249534 -2.846964 -0.174213 -0.462244 -0.018129 0.254486
    26 0.043235 -1.683941 0.096012 -1.826616 0.002823 -0.000167
    27 0.031729 -1.160830 0.058838 -1.082887 0.000642 0.008372
    28 -0.963866 -2.785145 -0.085350 0.024169 0.000278 0.232352
    29 0.028479 -1.403067 0.006271 -1.650081 0.000000 0.000000
    30 0.021413 -0.957781 0.020046 -0.480239 0.000000 0.000000
    31 1.164475 -2.543940 -0.170330 0.427808 -0.148943 0.314925
    32 0.024032 -1.129042 0.017807 -0.575064 -0.085666 -0.017065
    33 0.014898 -0.883989 -0.019848 0.064635 0.000000 0.000000
    34 -0.586770 -1.264477 0.200161 -0.574792 -0.643081 -2.386700
    35 1.522835 0.058681 0.016848 -0.136772 -0.279077 0.630005
    36 1.117947 0.048424 -0.005766 0.032139 0.015394 0.802320
    37 -0.139399 -0.111698 0.014397 0.532767 0.108802 1.378675
    38 -4.491221 8.319630 -0.266778 1.578179 -0.008427 -1.180145
    39 1.602930 -3.419616 0.993028 -0.015493 0.004288 2.654875
    40 -3.004853 -0.321123 0.000001 0.000000 0.000000 2.079884
    41 5.485916 -2.877731 0.000000 0.000000 0.000000 -3.141309
    42 20.084074 2.292971 3.121190 0.000000 0.000000 3.141103
    43 3.732015 -0.731207 1.187537 1.047198 0.000000 3.141564
    44 -6.289126 8.486249 1.516290 0.000000 0.000000 0.068970
    45 -0.951095 1.245133 0.000000 0.000000 0.000000 0.651877
    46 -2.307669 -0.369492 0.683323 0.000000 0.122113 1.148170
  time 8
    0 6.673232 -5.548309 -10.632518 0.261378 0.119594 0.149230
    1 7.938968 8.021105 2.212023 0.937659 -2.029502 -1.288301
    2 1.257180 8.762585 -0.153713 -1.570562 0.002683 -1.566807
    3 -0.071921 -8.498736 -0.104134 0.164730 0.230808 -0.387660
    4 -0.488518 -2.755602 -0.228260 -0.987556 0.010332 -0.264490
    5 0.039887 -1.479790 0.029854 -1.633593 0.000000 0.000001
    6 0.028786 -1.075731 -0.023109 -0.474516 0.000000 0.000000
    7 0.250027 -2.902699 -0.238396 0.055309 0.211328 0.148974
    8 -0.049759 -1.680544 0.100479 -0.625688 0.000000 -0.000002
    9 -0.034142 -1.148312 0.084782 -1.037833 0.000000 0.000000
    10 1.207774 -3.121791 -0.090302 -0.219964 -0.043414 0.086225
    11 -0.033420 -1.397129 -0.011257 -0.345797 0.043804 -0.037992
    12 -0.022360 -0.957436 0.018784 -0.522195 0.003452 0.001139
    13 -1.180681 -2.456434 -0.021979 -1.189698 0.133751 -0.426957
    14 -0.024967 -1.123934 0.017597 -1.225081 0.000000 0.000001
    15 -0.020057 -0.890968 0.010090 -0.829947 0.000000 0.000000
    16 0.583510 -1.197277 0.509608 0.656940 -1.082222 -0.580204
    17 1.535927 0.010246 0.005009 0.009716 -0.009096 -1.042668
    18 1.100771 0.004527 -0.010679 -0.007961 0.014127 -0.337036
    19 -0.059540 -0.081521 -0.101365 3.420906 5.967714 -1.482652
    20 -6.005319 -6.086755 1.444073 0.472311 -3.712460 1.099430
    21 0.096944 -8.450418 -0.009365 0.147555 -0.780359 0.106983
    22 0.447953 -2.798986 -0.200443 -0.173326 -0.044133 0.343869
    23 -0.032909 -1.480204 0.004940 -0.826916 0.000000 0.000002
    24 -0.027022 -1.076920 -0.020210 -0.436683 0.000000 0.000000
    25 -0.249534 -2.846964 -0.174213 -0.462244 -0.018129 0.254486
    26 0.043235 -1.683941 0.096012 -1.826616 0.002823 -0.000167
    27 0.031729 -1.160830 0.058838 -1.082887 0.000642 0.008372
    28 -0.963866 -2.785145 -0.085350 0.024169 0.000278 0.232352
    29 0.028479 -1.403067 0.006271 -1.650081 0.000000 0.000000
    30 0.021413 -0.957781 0.020046 -0.480239 0.000000 0.000000
    31 1.164475 -2.543940 -0.170330 0.344745 -0.148943 0.314925
    32 0.024032 -1.129042 0.017807 -0.669606 -0.085666 -0.017065
    33 0.014898 -0.883989 -0.019848 -0.016986 0.000000 0.000000
    34 -0.586770 -1.264477 0.200161 -0.574792 -0.643081 -2.386700
    35 1.522835 0.058681 0.016848 -0.136772 -0.279077 0.630005
    36 1.117947 0.048424 -0.005766 0.032139 0.015394 0.802320
    37 -0.139399 -0.111698 0.014397 0.488892 0.119696 1.380437
    38 -4.549816 8.249315 -0.266778 1.578083 -0.008499 -1.169814
    39 1.602930 -3.419616 0.993028 -0.015493 0.004288 2.654875
    40 -3.004853 -0.321123 0.000001 0.000000 0.000000 2.079884
    41 5.485916 -2.877731 0.000000 0.000000 0.000000 -3.141309
    42 20.084074 2.292971 3.121190 0.000000 0.000000 3.141103
    43 3.732015 -0.731207 1.187537 1.047198 0.000000 3.141564
    44 -6.289126 8.486249 1.516290 0.000000 0.000000 0.068970
    45 -0.951095 1.245133 0.000000 0.000000 0.000000 0.651877
    46 -2.307669 -0.369492 0.683323 0.000000 0.224847 1.148170
  time 9
    0 6.278689 -5.364710 -11.089563 0.178597 0.106962 0.095944
    1 7.938968 8.021105 2.212023 0.937659 -2.029502 -1.288301
    2 1.257180 8.762585 -0.153713 -1.570562 0.002683 -1.566807
    3 -0.071921 -8.498736 -0.104134 0.164730 0.230808 -0.387660
    4 -0.488518 -2.755602 -0.228260 -0.987556 0.010332 -0.264490
    5 0.039887 -1.479790 0.029854 -1.633593 0.000000 0.000001
    6 0.028786 -1.075731 -0.023109 -0.474516 0.000000 0.000000
    7 0.250027 -2.902699 -0.238396 0.055309 0.211328 0.148974
    8 -0.049759 -1.680544 0.100479 -0.625688 0.000000 -0.000002
    9 -0.034142 -1.148312 0.084782 -1.037833 0.000000 0.000000
    10 1.207774 -3.121791 -0.090302 -0.219964 -0.043414 0.086225
    11 -0.033420 -1.397129 -0.011257 -0.345797 0.043804 -0.037992
    12 -0.022360 -0.957436 0.018784 -0.522195 0.003452 0.001139
    13 -1.180681 -2.456434 -0.021979 -1.189698 0.133751 -0.426957
    14 -0.024967 -1.123934 0.017597 -1.225081 0.000000 0.000001
    15 -0.020057 -0.890968 0.010090 -0.829947 0.000000 0.000000
    16 0.583510 -1.197277 0.509608 0.656940 -1.082222 -0.580204
    17 1.535927 0.010246 0.005009 0.009716 -0.009096 -1.042668
    18 1.100771 0.004527 -0.010679 -0.007961 0.014127 -0.337036
    19 -0.059540 -0.081521 -0.101365 3.420906 5.967714 -1.482652
    20 -5.915472 -6.094567 1.338601 0.525190 -3.767525 1.159916
    21 0.096944 -8.450418 -0.009365 0.162142 -0.682985 0.136203
    22 0.447953 -2.798986 -0.200443 -0.259705 -0.044133 0.343869
    23 -0.032909 -1.480204 0.004940 -0.980005 0.000000 0.000002
    24 -0.027022 -1.076920 -0.020210 -0.480485 0.000000 0.000000
    25 -0.249534 -2.846964 -0.174213 -0.462244 -0.018129 0.254486
    26 0.043235 -1.683941 0.096012 -1.826616 0.002823 -0.000167
    27 0.031729 -1.160830 0.058838 -1.082887 0.000642 0.008372
    28 -0.963866 -2.785145 -0.085350 0.024169 0.000278 0.232352
    29 0.028479 -1.403067 0.006271 -1.650081 0.000000 0.000000
    30 0.021413 -0.957781 0.020046 -0.480239 0.000000 0.000000
    31 1.164475 -2.543940 -0.170330 0.227340 -0.148943 0.314925
    32 0.024032 -1.129042 0.017807 -0.803289 -0.085666 -0.017065
    33 0.014898 -0.883989 -0.019848 -0.132368 0.000000 0.000000
    34 -0.586770 -1.264477 0.200161 -0.574792 -0.643081 -2.386700
    35 1.522835 0.058681 0.016848 -0.136772 -0.279077 0.630005
    36 1.117947 0.048424 -0.005766 0.032139 0.015394 0.802320
    37 -0.139399 -0.111698 0.014397 0.426909 0.135084 1.382954
    38 -4.616225 8.175094 -0.266778 1.577988 -0.008582 -1.158592
    39 1.602930 -3.419616 0.993028 -0.015493 0.004288 2.654875
    40 -3.004853 -0.321123 0.000001 0.000000 0.000000 2.079884
    41 5.485916 -2.877731 0.000000 0.000000 0.000000 -3.141309
    42 20.084074 2.292971 3.121190 0.000000 0.000000 3.141103
    43 3.732015 -0.731207 1.187537 1.047198 0.000000 3.141564
    44 -6.289126 8.486249 1.516290 0.000000 0.000000 0.068970
    45 -0.951095 1.245133 0.000000 0.000000 0.000000 0.651877
    46 -2.307669 -0.369492 0.683323 0.000000 0.310932 1.148170
  time 10
    0 5.927116 -5.153766 -11.613016 0.097330 0.091586 0.044994
    1 7.938968 8.021105 2.212023 0.937659 -2.029502 -1.288301
    2 1.257180 8.762585 -0.153713 -1.570562 0.002683 -1.566807
    3 -0.071921 -8.498736 -0.104134 0.164730 0.230808 -0.387660
    4 -0.488518 -2.755602 -0.228260 -0.987556 0.010332 -0.264490
    5 0.039887 -1.479790 0.029854 -1.633593 0.000000 0.000001
    6 0.028786 -1.075731 -0.023109 -0.474516 0.000000 0.000000
    7 0.250027 -2.902699 -0.238396 0.055309 0.211328 0.148974
    8 -0.049759 -1.680544 0.100479 -0.625688 0.000000 -0.000002
    9 -0.034142 -1.148312 0.084782 -1.037833 0.000000 0.000000
    10 1.207774 -3.121791 -0.090302 -0.219964 -0.043414 0.086225
    11 -0.033420 -1.397129 -0.011257 -0.345797 0.043804 -0.037992
    12 -0.022360 -0.957436 0.018784 -0.522195 0.003452 0.001139
    13 -1.180681 -2.456434 -0.021979 -1.189698 0.133751 -0.426957
    14 -0.024967 -1.123934 0.017597 -1.225081 0.000000 0.000001
    15 -0.020057 -0.890968 0.010090 -0.829947 0.000000 0.000000
    16 0.583510 -1.197277 0.509608 0.656940 -1.082222 -0.580204
    17 1.535927 0.010246 0.005009 0.009716 -0.009096 -1.042668
    18 1.100771 0.004527 -0.010679 -0.007961 0.014127 -0.337036
    19 -0.059540 -0.081521 -0.101365 3.420906 5.967714 -1.482652
    20 -5.813907 -6.102380 1.225317 0.585897 -3.830579 1.229289
    21 0.096944 -8.450418 -0.009365 0.179163 -0.571069 0.167885
    22 0.447953 -2.798986 -0.200443 -0.358718 -0.044133 0.343869
    23 -0.032909 -1.480204 0.004940 -1.155487 0.000000 0.000002
    24 -0.027022 -1.076920 -0.020210 -0.530688 0.000000 0.000000
    25 -0.249534 -2.846964 -0.174213 -0.462244 -0.018129 0.254486
    26 0.043235 -1.683941 0.096012 -1.826616 0.002823 -0.000167
    27 0.031729 -1.160830 0.058838 -1.082887 0.000642 0.008372
    28 -0.963866 -2.785145 -0.085350 0.024169 0.000278 0.232352
    29 0.028479 -1.403067 0.006271 -1.650081 0.000000 0.000000
    30 0.021413 -0.957781 0.020046 -0.480239 0.000000 0.000000
    31 1.164475 -2.543940 -0.170330 0.092713 -0.148943 0.314925
    32 0.024032 -1.129042 0.017807 -0.956500 -0.085666 -0.017065
    33 0.014898 -0.883989 -0.019848 -0.264656 0.000000 0.000000
    34 -0.586770 -1.264477 0.200161 -0.574792 -0.643081 -2.386700
    35 1.522835 0.058681 0.016848 -0.136772 -0.279077 0.630005
    36 1.117947 0.048424 -0.005766 0.032139 0.015394 0.802320
    37 -0.139399 -0.111698 0.014397 0.355936 0.152725 1.385854
    38 -4.686539 8.096967 -0.266778 1.577892 -0.008666 -1.146670
    39 1.602930 -3.419616 0.993028 -0.015493 0.004288 2.654875
    40 -3.004853 -0.321123 0.000001 0.000000 0.000000 2.079884
    41 5.485916 -2.877731 0.000000 0.000000 0.000000 -3.141309
    42 20.084074 2.292971 3.121190 0.000000 0.000000 3.141103
    43 3.732015 -0.731207 1.187537 1.047198 0.000000 3.141564
    44 -6.289126 8.486249 1.516290 0.000000 0.000000 0.068970
    45 -0.951095 1.245133 0.000000 0.000000 0.000000 0.651877
    46 -2.307669 -0.369492 0.683323 0.000000 0.347015 1.148170
  time 11
    0 5.622419 -4.942822 -12.136470 0.023601 0.074784 -0.000374
    1 7.938968 8.021105 2.212023 0.937659 -2.029502 -1.288301
    2 1.257180 8.762585 -0.153713 -1.570562 0.002683 -1.566807
    3 -0.071921 -8.498736 -0.104134 0.164730 0.230808 -0.387660
    4 -0.488518 -2.755602 -0.228260 -0.987556 0.010332 -0.264490
    5 0.039887 -1.479790 0.029854 -1.633593 0.000000 0.000001
    6 0.028786 -1.075731 -0.023109 -0.474516 0.000000 0.000000
    7 0.250027 -2.902699 -0.238396 0.055309 0.211328 0.148974
    8 -0.049759 -1.680544 0.100479 -0.625688 0.000000 -0.000002
    9 -0.034142 -1.148312 0.084782 -1.037833 0.000000 0.000000
    10 1.207774 -3.121791 -0.090302 -0.219964 -0.043414 0.086225
    11 -0.033420 -1.397129 -0.011257 -0.345797 0.043804 -0.037992
    12 -0.022360 -0.957436 0.018784 -0.522195 0.003452 0.001139
    13 -1.180681 -2.456434 -0.021979 -1.189698 0.133751 -0.426957
    14 -0.024967 -1.123934 0.017597 -1.225081 0.000000 0.000001
    15 -0.020057 -0.890968 0.010090 -0.829947 0.000000 0.000000
    16 0.583510 -1.197277 0.509608 0.656940 -1.082222 -0.580204
    17 1.535927 0.010246 0.005009 0.009716 -0.009096 -1.042668
    18 1.100771 0.004527 -0.010679 -0.007961 0.014127 -0.337036
    19 -0.059540 -0.081521 -0.101365 3.420906 5.967714 -1.482652
    20 -5.712341 -6.110193 1.108126 0.646604 -3.893633 1.298758
    21 0.096944 -8.450418 -0.009365 0.196118 -0.458901 0.197851
    22 0.447953 -2.798986 -0.200443 -0.457730 -0.044133 0.343869
    23 -0.032909 -1.480204 0.004940 -1.330969 0.000000 0.000002
    24 -0.027022 -1.076920 -0.020210 -0.580870 0.000000 0.000000
    25 -0.249534 -2.846964 -0.174213 -0.462244 -0.018129 0.254486
    26 0.043235 -1.683941 0.096012 -1.826616 0.002823 -0.000167
    27 0.031729 -1.160830 0.058838 -1.082887 0.000642 0.008372
    28 -0.963866 -2.785145 -0.085350 0.024169 0.000278 0.232352
    29 0.028479 -1.403067 0.006271 -1.650081 0.000000 0.000000
    30 0.021413 -0.957781 0.020046 -0.480239 0.000000 0.000000
    31 1.164475 -2.543940 -0.170330 -0.041846 -0.148943 0.314925
    32 0.024032 -1.129042 0.017807 -1.109753 -0.085666 -0.017065
    33 0.014898 -0.883989 -0.019848 -0.396943 0.000000 0.000000
    34 -0.586770 -1.264477 0.200161 -0.574792 -0.643081 -2.386700
    35 1.522835 0.058681 0.016848 -0.136772 -0.279077 0.630005
    36 1.117947 0.048424 -0.005766 0.032139 0.015394 0.802320
    37 -0.139399 -0.111698 0.014397 0.285095 0.170355 1.388779
    38 -4.760760 8.014933 -0.266778 1.577784 -0.008750 -1.134127
    39 1.602930 -3.419616 0.993028 -0.015493 0.004288 2.654875
    40 -3.004853 -0.321123 0.000001 0.000000 0.000000 2.079884
    41 5.485916 -2.877731 0.000000 0.000000 0.000000 -3.141309
    42 20.084074 2.292971 3.121190 0.000000 0.000000 3.141103
    43 3.732015 -0.731207 1.187537 1.047198 0.000000 3.141564
    44 -6.289126 8.486249 1.516290 0.000000 0.000000 0.068970
    45 -0.951095 1.245133 0.000000 0.000000 0.000000 0.651877
    46 -2.307669 -0.369492 0.683323 0.000000 0.130465 1.148170
  time 12
    0 5.372412 -4.759223 -12.593515 -0.036511 0.057886 -0.036850
    1 7.938968 8.021105 2.212023 0.937659 -2.029502 -1.288301
    2 1.257180 8.762585 -0.153713 -1.570562 0.002683 -1.566807
    3 -0.071921 -8.498736 -0.104134 0.164730 0.230808 -0.387660
    4 -0.488518 -2.755602 -0.228260 -0.987556 0.010332 -0.264490
    5 0.039887 -1.479790 0.029854 -1.633593 0.000000 0.000001
    6 0.028786 -1.075731 -0.023109 -0.474516 0.000000 0.000000
    7 0.250027 -2.902699 -0.238396 0.055309 0.211328 0.148974
    8 -0.049759 -1.680544 0.100479 -0.625688 0.000000 -0.000002
    9 -0.034142 -1.148312 0.084782 -1.037833 0.000000 0.000000
    10 1.207774 -3.121791 -0.090302 -0.219964 -0.043414 0.086225
    11 -0.033420 -1.397129 -0.011257 -0.345797 0.043804 -0.037992
    12 -0.022360 -0.957436 0.018784 -0.522195 0.003452 0.001139
    13 -1.180681 -2.456434 -0.021979 -1.189698 0.133751 -0.426957
    14 -0.024967 -1.123934 0.017597 -1.225081 0.000000 0.000001
    15 -0.020057 -0.890968 0.010090 -0.829947 0.000000 0.000000
    16 0.583510 -1.197277 0.509608 0.656940 -1.082222 -0.580204
    17 1.535927 0.010246 0.005009 0.009716 -0.009096 -1.042668
    18 1.100771 0.004527 -0.010679 -0.007961 0.014127 -0.337036
    19 -0.059540 -0.081521 -0.101365 3.420906 5.967714 -1.482652
    20 -5.622495 -6.118006 1.006560 0.699579 -3.948603 1.359340
    21 0.096944 -8.450418 -0.009365 0.210683 -0.360859 0.222608
    22 0.447953 -2.798986 -0.200443 -0.544109 -0.044133 0.343869
    23 -0.032909 -1.480204 0.004940 -1.484010 0.000000 0.000002
    24 -0.027022 -1.076920 -0.020210 -0.624672 0.000000 0.000000
    25 -0.249534 -2.846964 -0.174213 -0.462244 -0.018129 0.254486
    26 0.043235 -1.683941 0.096012 -1.826616 0.002823 -0.000167
    27 0.031729 -1.160830 0.058838 -1.082887 0.000642 0.008372
    28 -0.963866 -2.785145 -0.085350 0.024169 0.000278 0.232352
    29 0.028479 -1.403067 0.006271 -1.650081 0.000000 0.000000
    30 0.021413 -0.957781 0.020046 -0.480239 0.000000 0.000000
    31 1.164475 -2.543940 -0.170330 -0.159251 -0.148943 0.314925
    32 0.024032 -1.129042 0.017807 -1.243436 -0.085666 -0.017065
    33 0.014898 -0.883989 -0.019848 -0.512342 0.000000 0.000000
    34 -0.586770 -1.264477 0.200161 -0.574792 -0.643081 -2.386700
    35 1.522835 0.058681 0.016848 -0.136772 -0.279077 0.630005
    36 1.117947 0.048424 -0.005766 0.032139 0.015394 0.802320
    37 -0.139399 -0.111698 0.014397 0.223346 0.185743 1.391343
    38 -4.838888 7.925087 -0.266778 1.577664 -0.008846 -1.121071
    39 1.602930 -3.419616 0.993028 -0.015493 0.004288 2.654875
    40 -3.004853 -0.321123 0.000001 0.000000 0.000000 2.079884
    41 5.485916 -2.877731 0.000000 0.000000 0.000000 -3.141309
    42 20.084074 2.292971 3.121190 0.000000 0.000000 3.141103
    43 3.732015 -0.731207 1.187537 1.047198 0.000000 3.141564
    44 -6.289126 8.486249 1.516290 0.000000 -0.114148 0.068970
    45 -0.951095 1.245133 0.000000 0.000000 0.000000 0.651877
    46 -2.307669 -0.369492 0.683323 0.000000 -0.385827 1.148170
  time 13
    0 5.188812 -4.630313 -12.917744 -0.077032 0.042222 -0.061124
    1 7.938968 8.021105 2.212023 0.937659 -2.029502 -1.288301
    2 1.257180 8.762585 -0.153713 -1.570562 0.002683 -1.566807
    3 -0.071921 -8.498736 -0.104134 0.164730 0.230808 -0.387660
    4 -0.488518 -2.755602 -0.228260 -0.987556 0.010332 -0.264490
    5 0.039887 -1.479790 0.029854 -1.633593 0.000000 0.000001
    6 0.028786 -1.075731 -0.023109 -0.474516 0.000000 0.000000
    7 0.250027 -2.902699 -0.238396 0.055309 0.211328 0.148974
    8 -0.049759 -1.680544 0.100479 -0.625688 0.000000 -0.000002
    9 -0.034142 -1.148312 0.084782 -1.037833 0.000000 0.000000
    10 1.207774 -3.121791 -0.090302 -0.219964 -0.043414 0.086225
    11 -0.033420 -1.397129 -0.011257 -0.345797 0.043804 -0.037992
    12 -0.022360 -0.957436 0.018784 -0.522195 0.003452 0.001139
    13 -1.180681 -2.456434 -0.021979 -1.189698 0.133751 -0.426957
    14 -0.024967 -1.123934 0.017597 -1.225081 0.000000 0.000001
    15 -0.020057 -0.890968 0.010090 -0.829947 0.000000 0.000000
    16 0.583510 -1.197277 0.509608 0.656940 -1.082222 -0.580204
    17 1.535927 0.010246 0.005009 0.009716 -0.009096 -1.042668
    18 1.100771 0.004527 -0.010679 -0.007961 0.014127 -0.337036
    19 -0.059540 -0.081521 -0.101365 3.420906 5.967714 -1.482652
    20 -5.556086 -6.121912 0.932339 0.737091 -3.987500 1.402244
    21 0.096944 -8.450418 -0.009365 0.220751 -0.291441 0.239348
    22 0.447953 -2.798986 -0.200443 -0.605187 -0.044133 0.343869
    23 -0.032909 -1.480204 0.004940 -1.592314 0.000000 0.000002
    24 -0.027022 -1.076920 -0.020210 -0.655650 0.000000 0.000000
    25 -0.249534 -2.846964 -0.174213 -0.462244 -0.018129 0.254486
    26 0.043235 -1.683941 0.096012 -1.826616 0.002823 -0.000167
    27 0.031729 -1.160830 0.058838 -1.082887 0.000642 0.008372
    28 -0.963866 -2.785145 -0.085350 0.024169 0.000278 0.232352
    29 0.028479 -1.403067 0.006271 -1.650081 0.000000 0.000000
    30 0.021413 -0.957781 0.020046 -0.480239 0.000000 0.000000
    31 1.164475 -2.543940 -0.170330 -0.242314 -0.148943 0.314925
    32 0.024032 -1.129042 0.017807 -1.337978 -0.085666 -0.017065
    33 0.014898 -0.883989 -0.019848 -0.593963 0.000000 0.000000
    34 -0.586770 -1.264477 0.200161 -0.574792 -0.643081 -2.386700
    35 1.522835 0.058681 0.016848 -0.136772 -0.279077 0.630005
    36 1.117947 0.048424 -0.005766 0.032139 0.015394 0.802320
    37 -0.139399 -0.111698 0.014397 0.179707 0.196613 1.393177
    38 -4.917015 7.839147 -0.266778 1.577544 -0.008930 -1.107665
    39 1.602930 -3.419616 0.993028 -0.015493 0.004288 2.654875
    40 -3.004853 -0.321123 0.000001 0.000000 0.000000 2.079884
    41 5.485916 -2.877731 0.000000 0.000000 0.000000 -3.141309
    42 20.084074 2.292971 3.121190 0.000000 0.000000 3.141103
    43 3.732015 -0.731207 1.187537 1.047198 0.000000 3.141564
    44 -6.289126 8.486249 1.516290 0.000000 -0.365274 0.068970
    45 -0.951095 1.245133 0.000000 0.000000 0.000000 0.651877
    46 -2.307669 -0.369492 0.683323 0.000000 -1.002069 1.148170
  time 14
    0 5.075527 -4.579530 -13.038841 -0.091883 0.029111 -0.069951
    1 7.938968 8.021105 2.212023 0.937659 -2.029502 -1.288301
    2 1.257180 8.762585 -0.153713 -1.570562 0.002683 -1.566807
    3 -0.071921 -8.498736 -0.104134 0.164730 0.230808 -0.387660
    4 -0.488518 -2.755602 -0.228260 -0.987556 0.010332 -0.264490
    5 0.039887 -1.479790 0.029854 -1.633593 0.000000 0.000001
    6 0.028786 -1.075731 -0.023109 -0.474516 0.000000 0.000000
    7 0.250027 -2.902699 -0.238396 0.055309 0.211328 0.148974
    8 -0.049759 -1.680544 0.100479 -0.625688 0.000000 -0.000002
    9 -0.034142 -1.148312 0.084782 -1.037833 0.000000 0.000000
    10 1.207774 -3.121791 -0.090302 -0.219964 -0.043414 0.086225
    11 -0.033420 -1.397129 -0.011257 -0.345797 0.043804 -0.037992
    12 -0.022360 -0.957436 0.018784 -0.522195 0.003452 0.001139
    13 -1.180681 -2.456434 -0.021979 -1.189698 0.133751 -0.426957
    14 -0.024967 -1.123934 0.017597 -1.225081 0.000000 0.000001
    15 -0.020057 -0.890968 0.010090 -0.829947 0.000000 0.000000
    16 0.583510 -1.197277 0.509608 0.656940 -1.082222 -0.580204
    17 1.535927 0.010246 0.005009 0.009716 -0.009096 -1.042668
    18 1.100771 0.004527 -0.010679 -0.007961 0.014127 -0.337036
    19 -0.059540 -0.081521 -0.101365 3.420906 5.967714 -1.482652
    20 -5.532648 -6.125818 0.904994 0.751313 -4.002241 1.418488
    21 0.096944 -8.450418 -0.009365 0.224502 -0.265073 0.245527
    22 0.447953 -2.798986 -0.200443 -0.628366 -0.044133 0.343869
    23 -0.032909 -1.480204 0.004940 -1.633343 0.000000 0.000002
    24 -0.027022 -1.076920 -0.020210 -0.667382 0.000000 0.000000
    25 -0.249534 -2.846964 -0.174213 -0.462244 -0.018129 0.254486
    26 0.043235 -1.683941 0.096012 -1.826616 0.002823 -0.000167
    27 0.031729 -1.160830 0.058838 -1.082887 0.000642 0.008372
    28 -0.963866 -2.785145 -0.085350 0.024169 0.000278 0.232352
    29 0.028479 -1.403067 0.006271 -1.650081 0.000000 0.000000
    30 0.021413 -0.957781 0.020046 -0.480239 0.000000 0.000000
    31 1.164475 -2.543940 -0.170330 -0.273813 -0.148943 0.314925
    32 0.024032 -1.129042 0.017807 -1.373850 -0.085666 -0.017065
    33 0.014898 -0.883989 -0.019848 -0.624918 0.000000 0.000000
    34 -0.586770 -1.264477 0.200161 -0.574792 -0.643081 -2.386700
    35 1.522835 0.058681 0.016848 -0.136772 -0.279077 0.630005
    36 1.117947 0.048424 -0.005766 0.032139 0.015394 0.802320
    37 -0.139399 -0.111698 0.014397 0.163166 0.200747 1.393884
    38 -4.995142 7.745394 -0.266778 1.577424 -0.009026 -1.094016
    39 1.602930 -3.419616 0.993028 -0.015493 0.004288 2.654875
    40 -3.004853 -0.321123 0.000001 0.000000 0.000000 2.079884
    41 5.485916 -2.877731 0.000000 0.000000 0.000000 -3.141309
    42 20.084074 2.292971 3.121190 0.000000 0.000000 3.141103
    43 3.732015 -0.731207 1.187537 1.047198 0.000000 3.141564
    44 -6.289126 8.486249 1.516290 0.000000 -0.616445 0.068970
    45 -0.951095 1.245133 0.000000 0.000000 0.000000 0.651877
    46 -2.307669 -0.369492 0.683323 0.000000 -1.518416 1.148170
  time 15
    0 5.013026 -4.579530 -13.019309 -0.087092 0.016958 -0.068004
    1 7.938968 8.021105 2.212023 0.937659 -2.029502 -1.288301
    2 1.257180 8.762585 -0.153713 -1.570562 0.002683 -1.566807
    3 -0.071921 -8.498736 -0.104134 0.164730 0.230808 -0.387660
    4 -0.488518 -2.755602 -0.228260 -0.987556 0.010332 -0.264490
    5 0.039887 -1.479790 0.029854 -1.633593 0.000000 0.000001
    6 0.028786 -1.075731 -0.023109 -0.474516 0.000000 0.000000
    7 0.250027 -2.902699 -0.238396 0.055309 0.211328 0.148974
    8 -0.049759 -1.680544 0.100479 -0.625688 0.000000 -0.000002
    9 -0.034142 -1.148312 0.084782 -1.037833 0.000000 0.000000
    10 1.207774 -3.121791 -0.090302 -0.219964 -0.043414 0.086225
    11 -0.033420 -1.397129 -0.011257 -0.345797 0.043804 -0.037992
    12 -0.022360 -0.957436 0.018784 -0.522195 0.003452 0.001139
    13 -1.180681 -2.456434 -0.021979 -1.189698 0.133751 -0.426957
    14 -0.024967 -1.123934 0.017597 -1.225081 0.000000 0.000001
    15 -0.020057 -0.890968 0.010090 -0.829947 0.000000 0.000000
    16 0.583510 -1.197277 0.509608 0.656940 -1.082222 -0.580204
    17 1.535927 0.010246 0.005009 0.009716 -0.009096 -1.042668
    18 1.100771 0.004527 -0.010679 -0.007961 0.014127 -0.337036
    19 -0.059540 -0.081521 -0.101365 3.420906 5.967714 -1.482652
    20 -5.532648 -6.125818 0.904994 0.751313 -4.002241 1.418488
    21 0.096944 -8.450418 -0.009365 0.221804 -0.268939 0.244780
    22 0.447953 -2.798986 -0.200443 -0.628366 -0.044133 0.343869
    23 -0.032909 -1.480204 0.004940 -1.633343 0.000000 0.000002
    24 -0.027022 -1.076920 -0.020210 -0.667382 0.000000 0.000000
    25 -0.249534 -2.846964 -0.174213 -0.462244 -0.018129 0.254486
    26 0.043235 -1.683941 0.096012 -1.826616 0.002823 -0.000167
    27 0.031729 -1.160830 0.058838 -1.082887 0.000642 0.008372
    28 -0.963866 -2.785145 -0.085350 0.024169 0.000278 0.232352
    29 0.028479 -1.403067 0.006271 -1.650081 0.000000 0.000000
    30 0.021413 -0.957781 0.020046 -0.480239 0.000000 0.000000
    31 1.164475 -2.543940 -0.170330 -0.273813 -0.148943 0.314925
    32 0.024032 -1.129042 0.017807 -1.373850 -0.085666 -0.017065
    33 0.014898 -0.883989 -0.019848 -0.624918 0.000000 0.000000
    34 -0.586770 -1.264477 0.200161 -0.574792 -0.643081 -2.386700
    35 1.522835 0.058681 0.016848 -0.136772 -0.279077 0.630005
    36 1.117947 0.048424 -0.005766 0.032139 0.015394 0.802320
    37 -0.139399 -0.111698 0.014397 0.163166 0.200747 1.393884
    38 -5.077176 7.655547 -0.266778 1.577304 -0.009110 -1.080259
    39 1.602930 -3.419616 0.993028 -0.015493 0.004288 2.654875
    40 -3.004853 -0.321123 0.000001 0.000000 0.000000 2.079884
    41 5.485916 -2.877731 0.000000 0.000000 0.000000 -3.141309
    42 20.084074 2.292971 3.121190 0.000000 0.000000 3.141103
    43 3.732015 -0.731207 1.187537 1.047198 0.000000 3.141564
    44 -6.289126 8.486249 1.516290 0.000000 -0.730593 0.068970
    45 -0.951095 1.245133 0.000000 0.000000 0.000000 0.651877
    46 -2.307669 -0.369492 0.683323 0.000000 -1.734966 1.148170
  time 16
    0 4.966149 -4.579530 -12.976339 -0.075115 0.004147 -0.063201
    1 7.938968 8.021105 2.212023 0.937659 -2.029502 -1.288301
    2 1.257180 8.762585 -0.153713 -1.570562 0.002683 -1.566807
    3 -0.071921 -8.498736 -0.104134 0.164730 0.230808 -0.387660
    4 -0.488518 -2.755602 -0.228260 -0.987556 0.010332 -0.264490
    5 0.039887 -1.479790 0.029854 -1.633593 0.000000 0.000001
    6 0.028786 -1.075731 -0.023109 -0.474516 0.000000 0.000000
    7 0.250027 -2.902699 -0.238396 0.055309 0.211328 0.148974
    8 -0.049759 -1.680544 0.100479 -0.625688 0.000000 -0.000002
    9 -0.034142 -1.148312 0.084782 -1.037833 0.000000 0.000000
    10 1.207774 -3.121791 -0.090302 -0.219964 -0.043414 0.086225
    11 -0.033420 -1.397129 -0.011257 -0.345797 0.043804 -0.037992
    12 -0.022360 -0.957436 0.018784 -0.522195 0.003452 0.001139
    13 -1.180681 -2.456434 -0.021979 -1.189698 0.133751 -0.426957
    14 -0.024967 -1.123934 0.017597 -1.225081 0.000000 0.000001
    15 -0.020057 -0.890968 0.010090 -0.829947 0.000000 0.000000
    16 0.583510 -1.197277 0.509608 0.656940 -1.082222 -0.580204
    17 1.535927 0.010246 0.005009 0.009716 -0.009096 -1.042668
    18 1.100771 0.004527 -0.010679 -0.007961 0.014127 -0.337036
    19 -0.059540 -0.081521 -0.101365 3.420906 5.967714 -1.482652
    20 -5.532648 -6.125818 0.904994 0.751313 -4.002241 1.418488
    21 0.096944 -8.450418 -0.009365 0.215114 -0.279063 0.242801
    22 0.447953 -2.798986 -0.200443 -0.628366 -0.044133 0.343869
    23 -0.032909 -1.480204 0.004940 -1.633343 0.000000 0.000002
    24 -0.027022 -1.076920 -0.020210 -0.667382 0.000000 0.000000
    25 -0.249534 -2.846964 -0.174213 -0.462244 -0.018129 0.254486
    26 0.043235 -1.683941 0.096012 -1.826616 0.002823 -0.000167
    27 0.031729 -1.160830 0.058838 -1.082887 0.000642 0.008372
    28 -0.963866 -2.785145 -0.085350 0.024169 0.000278 0.232352
    29 0.028479 -1.403067 0.006271 -1.650081 0.000000 0.000000
    30 0.021413 -0.957781 0.020046 -0.480239 0.000000 0.000000
    31 1.164475 -2.543940 -0.170330 -0.273813 -0.148943 0.314925
    32 0.024032 -1.129042 0.017807 -1.373850 -0.085666 -0.017065
    33 0.014898 -0.883989 -0.019848 -0.624918 0.000000 0.000000
    34 -0.586770 -1.264477 0.200161 -0.574792 -0.643081 -2.386700
    35 1.522835 0.058681 0.016848 -0.136772 -0.279077 0.630005
    36 1.117947 0.048424 -0.005766 0.032139 0.015394 0.802320
    37 -0.139399 -0.111698 0.014397 0.163166 0.200747 1.393884
    38 -5.159210 7.561794 -0.270684 1.577173 -0.009206 -1.066475
    39 1.602930 -3.419616 0.993028 -0.015493 0.004288 2.654875
    40 -3.004853 -0.321123 0.000001 0.000000 0.000000 2.079884
    41 5.485916 -2.877731 0.000000 0.000000 0.000000 -3.141309
    42 20.084074 2.292971 3.121190 0.000000 0.000000 3.141103
    43 3.732015 -0.731207 1.187537 1.047198 0.000000 3.141564
    44 -6.289126 8.486249 1.516290 0.000000 -0.488103 0.068970
    45 -0.951095 1.245133 0.000000 0.000000 0.000000 0.651877
    46 -2.307669 -0.369492 0.683323 0.000000 -1.421577 1.148170
  time 17
    0 4.938805 -4.579530 -12.913837 -0.059558 -0.008042 -0.056906
    1 7.938968 8.021105 2.212023 0.937659 -2.029502 -1.288301
    2 1.257180 8.762585 -0.153713 -1.570562 0.002683 -1.566807
    3 -0.071921 -8.498736 -0.104134 0.164730 0.230808 -0.387660
    4 -0.488518 -2.755602 -0.228260 -0.987556 0.010332 -0.264490
    5 0.039887 -1.479790 0.029854 -1.633593 0.000000 0.000001
    6 0.028786 -1.075731 -0.023109 -0.474516 0.000000 0.000000
    7 0.250027 -2.902699 -0.238396 0.055309 0.211328 0.148974
    8 -0.049759 -1.680544 0.100479 -0.625688 0.000000 -0.000002
    9 -0.034142 -1.148312 0.084782 -1.037833 0.000000 0.000000
    10 1.207774 -3.121791 -0.090302 -0.219964 -0.043414 0.086225
    11 -0.033420 -1.397129 -0.011257 -0.345797 0.043804 -0.037992
    12 -0.022360 -0.957436 0.018784 -0.522195 0.003452 0.001139
    13 -1.180681 -2.456434 -0.021979 -1.189698 0.133751 -0.426957
    14 -0.024967 -1.123934 0.017597 -1.225081 0.000000 0.000001
    15 -0.020057 -0.890968 0.010090 -0.829947 0.000000 0.000000
    16 0.583510 -1.197277 0.509608 0.656940 -1.082222 -0.580204
    17 1.535927 0.010246 0.005009 0.009716 -0.009096 -1.042668
    18 1.100771 0.004527 -0.010679 -0.007961 0.014127 -0.337036
    19 -0.059540 -0.081521 -0.101365 3.420906 5.967714 -1.482652
    20 -5.532648 -6.125818 0.904994 0.751313 -4.002241 1.418488
    21 0.096944 -8.450418 -0.009365 0.206428 -0.293213 0.240034
    22 0.447953 -2.798986 -0.200443 -0.628366 -0.044133 0.343869
    23 -0.032909 -1.480204 0.004940 -1.633343 0.000000 0.000002
    24 -0.027022 -1.076920 -0.020210 -0.667382 0.000000 0.000000
    25 -0.249534 -2.846964 -0.174213 -0.462244 -0.018129 0.254486
    26 0.043235 -1.683941 0.096012 -1.826616 0.002823 -0.000167
    27 0.031729 -1.160830 0.058838 -1.082887 0.000642 0.008372
    28 -0.963866 -2.785145 -0.085350 0.024169 0.000278 0.232352
    29 0.028479 -1.403067 0.006271 -1.650081 0.000000 0.000000
    30 0.021413 -0.957781 0.020046 -0.480239 0.000000 0.000000
    31 1.164475 -2.543940 -0.170330 -0.273813 -0.148943 0.314925
    32 0.024032 -1.129042 0.017807 -1.373850 -0.085666 -0.017065
    33 0.014898 -0.883989 -0.019848 -0.624918 0.000000 0.000000
    34 -0.586770 -1.264477 0.200161 -0.574792 -0.643081 -2.386700
    35 1.522835 0.058681 0.016848 -0.136772 -0.279077 0.630005
    36 1.117947 0.048424 -0.005766 0.032139 0.015394 0.802320
    37 -0.139399 -0.111698 0.014397 0.163166 0.200747 1.393884
    38 -5.241244 7.471948 -0.270684 1.577053 -0.009290 -1.052826
    39 1.602930 -3.419616 0.993028 -0.015493 0.004288 2.654875
    40 -3.004853 -0.321123 0.000001 0.000000 0.000000 2.079884
    41 5.485916 -2.877731 0.000000 0.000000 0.000000 -3.141309
    42 20.084074 2.292971 3.121190 0.000000 0.000000 3.141103
    43 3.732015 -0.731207 1.187537 1.047198 0.000000 3.141564
    44 -6.289126 8.486249 1.516290 0.000000 -0.037804 0.068970
    45 -0.951095 1.245133 0.000000 0.000000 0.000000 0.651877
    46 -2.307669 -0.369492 0.683323 0.000000 -0.732132 1.148170
  time 18
    0 4.923179 -4.579530 -12.843523 -0.043975 -0.018348 -0.050610
    1 7.938968 8.021105 2.212023 0.937659 -2.029502 -1.288301
    2 1.257180 8.762585 -0.153713 -1.570562 0.002683 -1.566807
    3 -0.071921 -8.498736 -0.104134 0.164730 0.230808 -0.387660
    4 -0.488518 -2.755602 -0.228260 -0.987556 0.010332 -0.264490
    5 0.039887 -1.479790 0.029854 -1.633593 0.000000 0.000001
    6 0.028786 -1.075731 -0.023109 -0.474516 0.000000 0.000000
    7 0.250027 -2.902699 -0.238396 0.055309 0.211328 0.148974
    8 -0.049759 -1.680544 0.100479 -0.625688 0.000000 -0.000002
    9 -0.034142 -1.148312 0.084782 -1.037833 0.000000 0.000000
    10 1.207774 -3.121791 -0.090302 -0.219964 -0.043414 0.086225
    11 -0.033420 -1.397129 -0.011257 -0.345797 0.043804 -0.037992
    12 -0.022360 -0.957436 0.018784 -0.522195 0.003452 0.001139
    13 -1.180681 -2.456434 -0.021979 -1.189698 0.133751 -0.426957
    14 -0.024967 -1.123934 0.017597 -1.225081 0.000000 0.000001
    15 -0.020057 -0.890968 0.010090 -0.829947 0.000000 0.000000
    16 0.583510 -1.197277 0.509608 0.656940 -1.082222 -0.580204
    17 1.535927 0.010246 0.005009 0.009716 -0.009096 -1.042668
    18 1.100771 0.004527 -0.010679 -0.007961 0.014127 -0.337036
    19 -0.059540 -0.081521 -0.101365 3.420906 5.967714 -1.482652
    20 -5.532648 -6.125818 0.904994 0.751313 -4.002241 1.418488
    21 0.096944 -8.450418 -0.009365 0.197851 -0.309181 0.236864
    22 0.447953 -2.798986 -0.200443 -0.628366 -0.044133 0.343869
    23 -0.032909 -1.480204 0.004940 -1.633343 0.000000 0.000002
    24 -0.027022 -1.076920 -0.020210 -0.667382 0.000000 0.000000
    25 -0.249534 -2.846964 -0.174213 -0.462244 -0.018129 0.254486
    26 0.043235 -1.683941 0.096012 -1.826616 0.002823 -0.000167
    27 0.031729 -1.160830 0.058838 -1.082887 0.000642 0.008372
    28 -0.963866 -2.785145 -0.085350 0.024169 0.000278 0.232352
    29 0.028479 -1.403067 0.006271 -1.650081 0.000000 0.000000
    30 0.021413 -0.957781 0.020046 -0.480239 0.000000 0.000000
    31 1.164475 -2.543940 -0.170330 -0.273813 -0.148943 0.314925
    32 0.024032 -1.129042 0.017807 -1.373850 -0.085666 -0.017065
    33 0.014898 -0.883989 -0.019848 -0.624918 0.000000 0.000000
    34 -0.586770 -1.264477 0.200161 -0.574792 -0.643081 -2.386700
    35 1.522835 0.058681 0.016848 -0.136772 -0.279077 0.630005
    36 1.117947 0.048424 -0.005766 0.032139 0.015394 0.802320
    37 -0.139399 -0.111698 0.014397 0.163166 0.200747 1.393884
    38 -5.319371 7.382101 -0.270684 1.576921 -0.009373 -1.039420
    39 1.602930 -3.419616 0.993028 -0.015493 0.004288 2.654875
    40 -3.004853 -0.321123 0.000001 0.000000 0.000000 2.079884
    41 5.485916 -2.877731 0.000000 0.000000 0.000000 -3.141309
    42 20.084074 2.292971 3.121190 0.000000 0.000000 3.141103
    43 3.732015 -0.731207 1.187537 1.047198 0.000000 3.141564
    44 -6.289126 8.486249 1.516290 0.000000 0.204640 0.068970
    45 -0.951095 1.245133 0.000000 0.000000 0.000000 0.651877
    46 -2.307669 -0.369492 0.683323 0.000000 -0.042633 1.148170
  time 19
    0 4.915366 -4.579530 -12.781021 -0.031998 -0.025467 -0.045742
    1 7.938968 8.021105 2.212023 0.937659 -2.029502 -1.288301
    2 1.257180 8.762585 -0.153713 -1.570562 0.002683 -1.566807
    3 -0.071921 -8.498736 -0.104134 0.164730 0.230808 -0.387660
    4 -0.488518 -2.755602 -0.228260 -0.987556 0.010332 -0.264490
    5 0.039887 -1.479790 0.029854 -1.633593 0.000000 0.000001
    6 0.028786 -1.075731 -0.023109 -0.474516 0.000000 0.000000
    7 0.250027 -2.902699 -0.238396 0.055309 0.211328 0.148974
    8 -0.049759 -1.680544 0.100479 -0.625688 0.000000 -0.000002
    9 -0.034142 -1.148312 0.084782 -1.037833 0.000000 0.000000
    10 1.207774 -3.121791 -0.090302 -0.219964 -0.043414 0.086225
    11 -0.033420 -1.397129 -0.011257 -0.345797 0.043804 -0.037992
    12 -0.022360 -0.957436 0.018784 -0.522195 0.003452 0.001139
    13 -1.180681 -2.456434 -0.021979 -1.189698 0.133751 -0.426957
    14 -0.024967 -1.123934 0.017597 -1.225081 0.000000 0.000001
    15 -0.020057 -0.890968 0.010090 -0.829947 0.000000 0.000000
    16 0.583510 -1.197277 0.509608 0.656940 -1.082222 -0.580204
    17 1.535927 0.010246 0.005009 0.009716 -0.009096 -1.042668
    18 1.100771 0.004527 -0.010679 -0.007961 0.014127 -0.337036
    19 -0.059540 -0.081521 -0.101365 3.420906 5.967714 -1.482652
    20 -5.532648 -6.125818 0.904994 0.751313 -4.002241 1.418488
    21 0.096944 -8.450418 -0.009365 0.191402 -0.324827 0.233734
    22 0.447953 -2.798986 -0.200443 -0.628366 -0.044133 0.343869
    23 -0.032909 -1.480204 0.004940 -1.633343 0.000000 0.000002
    24 -0.027022 -1.076920 -0.020210 -0.667382 0.000000 0.000000
    25 -0.249534 -2.846964 -0.174213 -0.462244 -0.018129 0.254486
    26 0.043235 -1.683941 0.096012 -1.826616 0.002823 -0.000167
    27 0.031729 -1.160830 0.058838 -1.082887 0.000642 0.008372
    28 -0.963866 -2.785145 -0.085350 0.024169 0.000278 0.232352
    29 0.028479 -1.403067 0.006271 -1.650081 0.000000 0.000000
    30 0.021413 -0.957781 0.020046 -0.480239 0.000000 0.000000
    31 1.164475 -2.543940 -0.170330 -0.273813 -0.148943 0.314925
    32 0.024032 -1.129042 0.017807 -1.373850 -0.085666 -0.017065
    33 0.014898 -0.883989 -0.019848 -0.624918 0.000000 0.000000
    34 -0.586770 -1.264477 0.200161 -0.574792 -0.643081 -2.386700
    35 1.522835 0.058681 0.016848 -0.136772 -0.279077 0.630005
    36 1.117947 0.048424 -0.005766 0.032139 0.015394 0.802320
    37 -0.139399 -0.111698 0.014397 0.163166 0.200747 1.393884
    38 -5.393592 7.296161 -0.270684 1.576801 -0.009445 -1.026392
    39 1.602930 -3.419616 0.993028 -0.015493 0.004288 2.654875
    40 -3.004853 -0.321123 0.000001 0.000000 0.000000 2.079884
    41 5.485916 -2.877731 0.000000 0.000000 0.000000 -3.141309
    42 20.084074 2.292971 3.121190 0.000000 0.000000 3.141103
    43 3.732015 -0.731207 1.187537 1.047198 0.000000 3.141564
    44 -6.289126 8.486249 1.516290 0.000000 0.145062 0.068970
    45 -0.951095 1.245133 0.000000 0.000000 0.000000 0.651877
    46 -2.307669 -0.369492 0.683323 0.000000 0.270647 1.148170
  time 20
    0 4.915366 -4.579530 -12.738051 -0.027207 -0.028128 -0.043795
    1 7.938968 8.021105 2.212023 0.937659 -2.029502 -1.288301
    2 1.257180 8.762585 -0.153713 -1.570562 0.002683 -1.566807
    3 -0.071921 -8.498736 -0.104134 0.164730 0.230808 -0.387660
    4 -0.488518 -2.755602 -0.228260 -0.987556 0.010332 -0.264490
    5 0.039887 -1.479790 0.029854 -1.633593 0.000000 0.000001
    6 0.028786 -1.075731 -0.023109 -0.474516 0.000000 0.000000
    7 0.250027 -2.902699 -0.238396 0.055309 0.211328 0.148974
    8 -0.049759 -1.680544 0.100479 -0.625688 0.000000 -0.000002
    9 -0.034142 -1.148312 0.084782 -1.037833 0.000000 0.000000
    10 1.207774 -3.121791 -0.090302 -0.219964 -0.043414 0.086225
    11 -0.033420 -1.397129 -0.011257 -0.345797 0.043804 -0.037992
    12 -0.022360 -0.957436 0.018784 -0.522195 0.003452 0.001139
    13 -1.180681 -2.456434 -0.021979 -1.189698 0.133751 -0.426957
    14 -0.024967 -1.123934 0.017597 -1.225081 0.000000 0.000001
    15 -0.020057 -0.890968 0.010090 -0.829947 0.000000 0.000000
    16 0.583510 -1.197277 0.509608 0.656940 -1.082222 -0.580204
    17 1.535927 0.010246 0.005009 0.009716 -0.009096 -1.042668
    18 1.100771 0.004527 -0.010679 -0.007961 0.014127 -0.337036
    19 -0.059540 -0.081521 -0.101365 3.420906 5.967714 -1.482652
    20 -5.532648 -6.125818 0.904994 0.751313 -4.002241 1.418488
    21 0.096944 -8.450418 -0.009365 0.189165 -0.337897 0.231089
    22 0.447953 -2.798986 -0.200443 -0.628366 -0.044133 0.343869
    23 -0.032909 -1.480204 0.004940 -1.633343 0.000000 0.000002
    24 -0.027022 -1.076920 -0.020210 -0.667382 0.000000 0.000000
    25 -0.249534 -2.846964 -0.174213 -0.462244 -0.018129 0.254486
    26 0.043235 -1.683941 0.096012 -1.826616 0.002823 -0.000167
    27 0.031729 -1.160830 0.058838 -1.082887 0.000642 0.008372
    28 -0.963866 -2.785145 -0.085350 0.024169 0.000278 0.232352
    29 0.028479 -1.403067 0.006271 -1.650081 0.000000 0.000000
    30 0.021413 -0.957781 0.020046 -0.480239 0.000000 0.000000
    31 1.164475 -2.543940 -0.170330 -0.273813 -0.148943 0.314925
    32 0.024032 -1.129042 0.017807 -1.373850 -0.085666 -0.017065
    33 0.014898 -0.883989 -0.019848 -0.624918 0.000000 0.000000
    34 -0.586770 -1.264477 0.200161 -0.574792 -0.643081 -2.386700
    35 1.522835 0.058681 0.016848 -0.136772 -0.279077 0.630005
    36 1.117947 0.048424 -0.005766 0.032139 0.015394 0.802320
    37 -0.139399 -0.111698 0.014397 0.163166 0.200747 1.393884
    38 -5.467813 7.214128 -0.270684 1.576681 -0.009529 -1.013822
    39 1.602930 -3.419616 0.993028 -0.015493 0.004288 2.654875
    40 -3.004853 -0.321123 0.000001 0.000000 0.000000 2.079884
    41 5.485916 -2.877731 0.000000 0.000000 0.000000 -3.141309
    42 20.084074 2.292971 3.121190 0.000000 0.000000 3.141103
    43 3.732015 -0.731207 1.187537 1.047198 0.000000 3.141564
    44 -6.289126 8.486249 1.516290 0.000000 0.013964 0.068970
    45 -0.951095 1.245133 0.000000 0.000000 0.000000 0.651877
    46 -2.307669 -0.369492 0.683323 0.000000 0.223101 1.148170
  time 21
    0 4.919273 -4.579530 -12.710706 -0.029148 -0.027493 -0.045482
    1 7.938968 8.021105 2.212023 0.937659 -2.029502 -1.288301
    2 1.257180 8.762585 -0.153713 -1.570562 0.002683 -1.566807
    3 -0.071921 -8.498736 -0.104134 0.164730 0.230808 -0.387660
    4 -0.488518 -2.755602 -0.228260 -0.987556 0.010332 -0.264490
    5 0.039887 -1.479790 0.029854 -1.633593 0.000000 0.000001
    6 0.028786 -1.075731 -0.023109 -0.474516 0.000000 0.000000
    7 0.250027 -2.902699 -0.238396 0.055309 0.211328 0.148974
    8 -0.049759 -1.680544 0.100479 -0.625688 0.000000 -0.000002
    9 -0.034142 -1.148312 0.084782 -1.037833 0.000000 0.000000
    10 1.207774 -3.121791 -0.090302 -0.219964 -0.043414 0.086225
    11 -0.033420 -1.397129 -0.011257 -0.345797 0.043804 -0.037992
    12 -0.022360 -0.957436 0.018784 -0.522195 0.003452 0.001139
    13 -1.180681 -2.456434 -0.021979 -1.189698 0.133751 -0.426957
    14 -0.024967 -1.123934 0.017597 -1.225081 0.000000 0.000001
    15 -0.020057 -0.890968 0.010090 -0.829947 0.000000 0.000000
    16 0.583510 -1.197277 0.509608 0.656940 -1.082222 -0.580204
    17 1.535927 0.010246 0.005009 0.009716 -0.009096 -1.042668
    18 1.100771 0.004527 -0.010679 -0.007961 0.014127 -0.337036
    19 -0.059540 -0.081521 -0.101365 3.420906 5.967714 -1.482652
    20 -5.532648 -6.125818 0.904994 0.751313 -4.002241 1.418488
    21 0.096944 -8.450418 -0.009365 0.189889 -0.349999 0.228625
    22 0.447953 -2.798986 -0.200443 -0.628366 -0.044133 0.343869
    23 -0.032909 -1.480204 0.004940 -1.633343 0.000000 0.000002
    24 -0.027022 -1.076920 -0.020210 -0.667382 0.000000 0.000000
    25 -0.249534 -2.846964 -0.174213 -0.462244 -0.018129 0.254486
    26 0.043235 -1.683941 0.096012 -1.826616 0.002823 -0.000167
    27 0.031729 -1.160830 0.058838 -1.082887 0.000642 0.008372
    28 -0.963866 -2.785145 -0.085350 0.024169 0.000278 0.232352
    29 0.028479 -1.403067 0.006271 -1.650081 0.000000 0.000000
    30 0.021413 -0.957781 0.020046 -0.480239 0.000000 0.000000
    31 1.164475 -2.543940 -0.170330 -0.273813 -0.148943 0.314925
    32 0.024032 -1.129042 0.017807 -1.373850 -0.085666 -0.017065
    33 0.014898 -0.883989 -0.019848 -0.624918 0.000000 0.000000
    34 -0.586770 -1.264477 0.200161 -0.574792 -0.643081 -2.386700
    35 1.522835 0.058681 0.016848 -0.136772 -0.279077 0.630005
    36 1.117947 0.048424 -0.005766 0.032139 0.015394 0.802320
    37 -0.139399 -0.111698 0.014397 0.163166 0.200747 1.393884
    38 -5.538128 7.132094 -0.270684 1.576561 -0.009589 -1.001899
    39 1.602930 -3.419616 0.993028 -0.015493 0.004288 2.654875
    40 -3.004853 -0.321123 0.000001 0.000000 0.000000 2.079884
    41 5.485916 -2.877731 0.000000 0.000000 0.000000 -3.141309
    42 20.084074 2.292971 3.121190 0.000000 0.000000 3.141103
    43 3.732015 -0.731207 1.187537 1.047198 0.000000 3.141564
    44 -6.289126 8.486249 1.516290 0.000000 -0.117042 0.068970
    45 -0.951095 1.245133 0.000000 0.000000 0.000000 0.651877
    46 -2.307669 -0.369492 0.683323 0.000000 0.109722 1.148170
  time 22
    0 4.930992 -4.579530 -12.691174 -0.033965 -0.025791 -0.049701
    1 7.938968 8.021105 2.212023 0.937659 -2.029502 -1.288301
    2 1.257180 8.762585 -0.153713 -1.570562 0.002683 -1.566807
    3 -0.071921 -8.498736 -0.104134 0.164730 0.230808 -0.387660
    4 -0.488518 -2.755602 -0.228260 -0.987556 0.010332 -0.264490
    5 0.039887 -1.479790 0.029854 -1.633593 0.000000 0.000001
    6 0.028786 -1.075731 -0.023109 -0.474516 0.000000 0.000000
    7 0.250027 -2.902699 -0.238396 0.055309 0.211328 0.148974
    8 -0.049759 -1.680544 0.100479 -0.625688 0.000000 -0.000002
    9 -0.034142 -1.148312 0.084782 -1.037833 0.000000 0.000000
    10 1.207774 -3.121791 -0.090302 -0.219964 -0.043414 0.086225
    11 -0.033420 -1.397129 -0.011257 -0.345797 0.043804 -0.037992
    12 -0.022360 -0.957436 0.018784 -0.522195 0.003452 0.001139
    13 -1.180681 -2.456434 -0.021979 -1.189698 0.133751 -0.426957
    14 -0.024967 -1.123934 0.017597 -1.225081 0.000000 0.000001
    15 -0.020057 -0.890968 0.010090 -0.829947 0.000000 0.000000
    16 0.583510 -1.197277 0.509608 0.656940 -1.082222 -0.580204
    17 1.535927 0.010246 0.005009 0.009716 -0.009096 -1.042668
    18 1.100771 0.004527 -0.010679 -0.007961 0.014127 -0.337036
    19 -0.059540 -0.081521 -0.101365 3.420906 5.967714 -1.482652
    20 -5.532648 -6.125818 0.904994 0.751313 -4.002241 1.418488
    21 0.096944 -8.450418 -0.009365 0.190832 -0.363206 0.225899
    22 0.447953 -2.798986 -0.200443 -0.628366 -0.044133 0.343869
    23 -0.032909 -1.480204 0.004940 -1.633343 0.000000 0.000002
    24 -0.027022 -1.076920 -0.020210 -0.667382 0.000000 0.000000
    25 -0.249534 -2.846964 -0.174213 -0.462244 -0.018129 0.254486
    26 0.043235 -1.683941 0.096012 -1.826616 0.002823 -0.000167
    27 0.031729 -1.160830 0.058838 -1.082887 0.000642 0.008372
    28 -0.963866 -2.785145 -0.085350 0.024169 0.000278 0.232352
    29 0.028479 -1.403067 0.006271 -1.650081 0.000000 0.000000
    30 0.021413 -0.957781 0.020046 -0.480239 0.000000 0.000000
    31 1.164475 -2.543940 -0.170330 -0.273813 -0.148943 0.314925
    32 0.024032 -1.129042 0.017807 -1.373850 -0.085666 -0.017065
    33 0.014898 -0.883989 -0.019848 -0.624918 0.000000 0.000000
    34 -0.586770 -1.264477 0.200161 -0.574792 -0.643081 -2.386700
    35 1.522835 0.058681 0.016848 -0.136772 -0.279077 0.630005
    36 1.117947 0.048424 -0.005766 0.032139 0.015394 0.802320
    37 -0.139399 -0.111698 0.014397 0.163166 0.200747 1.393884
    38 -5.604536 7.057873 -0.270684 1.576454 -0.009661 -0.990705
    39 1.602930 -3.419616 0.993028 -0.015493 0.004288 2.654875
    40 -3.004853 -0.321123 0.000001 0.000000 0.000000 2.079884
    41 5.485916 -2.877731 0.000000 0.000000 0.000000 -3.141309
    42 20.084074 2.292971 3.121190 0.000000 0.000000 3.141103
    43 3.732015 -0.731207 1.187537 1.047198 0.000000 3.141564
    44 -6.289126 8.486249 1.516290 0.000000 -0.176619 0.068970
    45 -0.951095 1.245133 0.000000 0.000000 0.000000 0.651877
    46 -2.307669 -0.369492 0.683323 0.000000 -0.025602 1.148170
  time 23
    0 4.942711 -4.579530 -12.675549 -0.040243 -0.023298 -0.055283
    1 7.938968 8.021105 2.212023 0.937659 -2.029502 -1.288301
    2 1.257180 8.762585 -0.153713 -1.570562 0.002683 -1.566807
    3 -0.071921 -8.498736 -0.104134 0.164730 0.230808 -0.387660
    4 -0.488518 -2.755602 -0.228260 -0.987556 0.010332 -0.264490
    5 0.039887 -1.479790 0.029854 -1.633593 0.000000 0.000001
    6 0.028786 -1.075731 -0.023109 -0.474516 0.000000 0.000000
    7 0.250027 -2.902699 -0.238396 0.055309 0.211328 0.148974
    8 -0.049759 -1.680544 0.100479 -0.625688 0.000000 -0.000002
    9 -0.034142 -1.148312 0.084782 -1.037833 0.000000 0.000000
    10 1.207774 -3.121791 -0.090302 -0.219964 -0.043414 0.086225
    11 -0.033420 -1.397129 -0.011257 -0.345797 0.043804 -0.037992
    12 -0.022360 -0.957436 0.018784 -0.522195 0.003452 0.001139
    13 -1.180681 -2.456434 -0.021979 -1.189698 0.133751 -0.426957
    14 -0.024967 -1.123934 0.017597 -1.225081 0.000000 0.000001
    15 -0.020057 -0.890968 0.010090 -0.829947 0.000000 0.000000
    16 0.583510 -1.197277 0.509608 0.656940 -1.082222 -0.580204
    17 1.535927 0.010246 0.005009 0.009716 -0.009096 -1.042668
    18 1.100771 0.004527 -0.010679 -0.007961 0.014127 -0.337036
    19 -0.059540 -0.081521 -0.101365 3.420906 5.967714 -1.482652
    20 -5.532648 -6.125818 0.904994 0.751313 -4.002241 1.418488
    21 0.096944 -8.450418 -0.009365 0.191841 -0.376068 0.223214
    22 0.447953 -2.798986 -0.200443 -0.628366 -0.044133 0.343869
    23 -0.032909 -1.480204 0.004940 -1.633343 0.000000 0.000002
    24 -0.027022 -1.076920 -0.020210 -0.667382 0.000000 0.000000
    25 -0.249534 -2.846964 -0.174213 -0.462244 -0.018129 0.254486
    26 0.043235 -1.683941 0.096012 -1.826616 0.002823 -0.000167
    27 0.031729 -1.160830 0.058838 -1.082887 0.000642 0.008372
    28 -0.963866 -2.785145 -0.085350 0.024169 0.000278 0.232352
    29 0.028479 -1.403067 0.006271 -1.650081 0.000000 0.000000
    30 0.021413 -0.957781 0.020046 -0.480239 0.000000 0.000000
    31 1.164475 -2.543940 -0.170330 -0.273813 -0.148943 0.314925
    32 0.024032 -1.129042 0.017807 -1.373850 -0.085666 -0.017065
    33 0.014898 -0.883989 -0.019848 -0.624918 0.000000 0.000000
    34 -0.586770 -1.264477 0.200161 -0.574792 -0.643081 -2.386700
    35 1.522835 0.058681 0.016848 -0.136772 -0.279077 0.630005
    36 1.117947 0.048424 -0.005766 0.032139 0.015394 0.802320
    37 -0.139399 -0.111698 0.014397 0.163166 0.200747 1.393884
    38 -5.667038 6.987558 -0.270684 1.576358 -0.009721 -0.980347
    39 1.602930 -3.419616 0.993028 -0.015493 0.004288 2.654875
    40 -3.004853 -0.321123 0.000001 0.000000 0.000000 2.079884
    41 5.485916 -2.877731 0.000000 0.000000 0.000000 -3.141309
    42 20.084074 2.292971 3.121190 0.000000 0.000000 3.141103
    43 3.732015 -0.731207 1.187537 1.047198 0.000000 3.141564
    44 -6.289126 8.486249 1.516290 0.000000 -0.149013 0.068970
    45 -0.951095 1.245133 0.000000 0.000000 0.000000 0.651877
    46 -2.307669 -0.369492 0.683323 0.000000 -0.138981 1.148170
  time 24
    0 4.958336 -4.579530 -12.667736 -0.046522 -0.020326 -0.061059
    1 7.938968 8.021105 2.212023 0.937659 -2.029502 -1.288301
    2 1.257180 8.762585 -0.153713 -1.570562 0.002683 -1.566807
    3 -0.071921 -8.498736 -0.104134 0.164730 0.230808 -0.387660
    4 -0.488518 -2.755602 -0.228260 -0.987556 0.010332 -0.264490
    5 0.039887 -1.479790 0.029854 -1.633593 0.000000 0.000001
    6 0.028786 -1.075731 -0.023109 -0.474516 0.000000 0.000000
    7 0.250027 -2.902699 -0.238396 0.055309 0.211328 0.148974
    8 -0.049759 -1.680544 0.100479 -0.625688 0.000000 -0.000002
    9 -0.034142 -1.148312 0.084782 -1.037833 0.000000 0.000000
    10 1.207774 -3.121791 -0.090302 -0.219964 -0.043414 0.086225
    11 -0.033420 -1.397129 -0.011257 -0.345797 0.043804 -0.037992
    12 -0.022360 -0.957436 0.018784 -0.522195 0.003452 0.001139
    13 -1.180681 -2.456434 -0.021979 -1.189698 0.133751 -0.426957
    14 -0.024967 -1.123934 0.017597 -1.225081 0.000000 0.000001
    15 -0.020057 -0.890968 0.010090 -0.829947 0.000000 0.000000
    16 0.583510 -1.197277 0.509608 0.656940 -1.082222 -0.580204
    17 1.535927 0.010246 0.005009 0.009716 -0.009096 -1.042668
    18 1.100771 0.004527 -0.010679 -0.007961 0.014127 -0.337036
    19 -0.059540 -0.081521 -0.101365 3.420906 5.967714 -1.482652
    20 -5.532648 -6.125818 0.904994 0.751313 -4.002241 1.418488
    21 0.096944 -8.450418 -0.009365 0.192740 -0.387067 0.220912
    22 0.447953 -2.798986 -0.200443 -0.628366 -0.044133 0.343869
    23 -0.032909 -1.480204 0.004940 -1.633343 0.000000 0.000002
    24 -0.027022 -1.076920 -0.020210 -0.667382 0.000000 0.000000
    25 -0.249534 -2.846964 -0.174213 -0.462244 -0.018129 0.254486
    26 0.043235 -1.683941 0.096012 -1.826616 0.002823 -0.000167
    27 0.031729 -1.160830 0.058838 -1.082887 0.000642 0.008372
    28 -0.963866 -2.785145 -0.085350 0.024169 0.000278 0.232352
    29 0.028479 -1.403067 0.006271 -1.650081 0.000000 0.000000
    30 0.021413 -0.957781 0.020046 -0.480239 0.000000 0.000000
    31 1.164475 -2.543940 -0.170330 -0.273813 -0.148943 0.314925
    32 0.024032 -1.129042 0.017807 -1.373850 -0.085666 -0.017065
    33 0.014898 -0.883989 -0.019848 -0.624918 0.000000 0.000000
    34 -0.586770 -1.264477 0.200161 -0.574792 -0.643081 -2.386700
    35 1.522835 0.058681 0.016848 -0.136772 -0.279077 0.630005
    36 1.117947 0.048424 -0.005766 0.032139 0.015394 0.802320
    37 -0.139399 -0.111698 0.014397 0.163166 0.200747 1.393884
    38 -5.721727 6.925056 -0.270684 1.576262 -0.009769 -0.970987
    39 1.602930 -3.419616 0.993028 -0.015493 0.004288 2.654875
    40 -3.004853 -0.321123 0.000001 0.000000 0.000000 2.079884
    41 5.485916 -2.877731 0.000000 0.000000 0.000000 -3.141309
    42 20.084074 2.292971 3.121190 0.000000 0.000000 3.141103
    43 3.732015 -0.731207 1.187537 1.047198 0.000000 3.141564
    44 -6.289126 8.486249 1.516290 0.000000 -0.088287 0.068970
    45 -0.951095 1.245133 0.000000 0.000000 0.000000 0.651877
    46 -2.307669 -0.369492 0.683323 0.000000 -0.186527 1.148170
  time 25
    0 4.970056 -4.579530 -12.663830 -0.051338 -0.017162 -0.065797
    1 7.938968 8.021105 2.212023 0.937659 -2.029502 -1.288301
    2 1.257180 8.762585 -0.153713 -1.570562 0.002683 -1.566807
    3 -0.071921 -8.498736 -0.104134 0.164730 0.230808 -0.387660
    4 -0.488518 -2.755602 -0.228260 -0.987556 0.010332 -0.264490
    5 0.039887 -1.479790 0.029854 -1.633593 0.000000 0.000001
    6 0.028786 -1.075731 -0.023109 -0.474516 0.000000 0.000000
    7 0.250027 -2.902699 -0.238396 0.055309 0.211328 0.148974
    8 -0.049759 -1.680544 0.100479 -0.625688 0.000000 -0.000002
    9 -0.034142 -1.148312 0.084782 -1.037833 0.000000 0.000000
    10 1.207774 -3.121791 -0.090302 -0.219964 -0.043414 0.086225
    11 -0.033420 -1.397129 -0.011257 -0.345797 0.043804 -0.037992
    12 -0.022360 -0.957436 0.018784 -0.522195 0.003452 0.001139
    13 -1.180681 -2.456434 -0.021979 -1.189698 0.133751 -0.426957
    14 -0.024967 -1.123934 0.017597 -1.225081 0.000000 0.000001
    15 -0.020057 -0.890968 0.010090 -0.829947 0.000000 0.000000
    16 0.583510 -1.197277 0.509608 0.656940 -1.082222 -0.580204
    17 1.535927 0.010246 0.005009 0.009716 -0.009096 -1.042668
    18 1.100771 0.004527 -0.010679 -0.007961 0.014127 -0.337036
    19 -0.059540 -0.081521 -0.101365 3.420906 5.967714 -1.482652
    20 -5.532648 -6.125818 0.904994 0.751313 -4.002241 1.418488
    21 0.096944 -8.450418 -0.009365 0.193377 -0.394775 0.219296
    22 0.447953 -2.798986 -0.200443 -0.628366 -0.044133 0.343869
    23 -0.032909 -1.480204 0.004940 -1.633343 0.000000 0.000002
    24 -0.027022 -1.076920 -0.020210 -0.667382 0.000000 0.000000
    25 -0.249534 -2.846964 -0.174213 -0.462244 -0.018129 0.254486
    26 0.043235 -1.683941 0.096012 -1.826616 0.002823 -0.000167
    27 0.031729 -1.160830 0.058838 -1.082887 0.000642 0.008372
    28 -0.963866 -2.785145 -0.085350 0.024169 0.000278 0.232352
    29 0.028479 -1.403067 0.006271 -1.650081 0.000000 0.000000
    30 0.021413 -0.957781 0.020046 -0.480239 0.000000 0.000000
    31 1.164475 -2.543940 -0.170330 -0.273813 -0.148943 0.314925
    32 0.024032 -1.129042 0.017807 -1.373850 -0.085666 -0.017065
    33 0.014898 -0.883989 -0.019848 -0.624918 0.000000 0.000000
    34 -0.586770 -1.264477 0.200161 -0.574792 -0.643081 -2.386700
    35 1.522835 0.058681 0.016848 -0.136772 -0.279077 0.630005
    36 1.117947 0.048424 -0.005766 0.032139 0.015394 0.802320
    37 -0.139399 -0.111698 0.014397 0.163166 0.200747 1.393884
    38 -5.768604 6.870367 -0.270684 1.576190 -0.009817 -0.962733
    39 1.602930 -3.419616 0.993028 -0.015493 0.004288 2.654875
    40 -3.004853 -0.321123 0.000001 0.000000 0.000000 2.079884
    41 5.485916 -2.877731 0.000000 0.000000 0.000000 -3.141309
    42 20.084074 2.292971 3.121190 0.000000 0.000000 3.141103
    43 3.732015 -0.731207 1.187537 1.047198 0.000000 3.141564
    44 -6.289126 8.486249 1.516290 0.000000 -0.027561 0.068970
    45 -0.951095 1.245133 0.000000 0.000000 0.000000 0.651877
    46 -2.307669 -0.369492 0.683323 0.000000 -0.130465 1.148170
  time 26
    0 4.973962 -4.579530 -12.659923 -0.053279 -0.014094 -0.068394
    1 7.938968 8.021105 2.212023 0.937659 -2.029502 -1.288301
    2 1.257180 8.762585 -0.153713 -1.570562 0.002683 -1.566807
    3 -0.071921 -8.498736 -0.104134 0.164730 0.230808 -0.387660
    4 -0.488518 -2.755602 -0.228260 -0.987556 0.010332 -0.264490
    5 0.039887 -1.479790 0.029854 -1.633593 0.000000 0.000001
    6 0.028786 -1.075731 -0.023109 -0.474516 0.000000 0.000000
    7 0.250027 -2.902699 -0.238396 0.055309 0.211328 0.148974
    8 -0.049759 -1.680544 0.100479 -0.625688 0.000000 -0.000002
    9 -0.034142 -1.148312 0.084782 -1.037833 0.000000 0.000000
    10 1.207774 -3.121791 -0.090302 -0.219964 -0.043414 0.086225
    11 -0.033420 -1.397129 -0.011257 -0.345797 0.043804 -0.037992
    12 -0.022360 -0.957436 0.018784 -0.522195 0.003452 0.001139
    13 -1.180681 -2.456434 -0.021979 -1.189698 0.133751 -0.426957
    14 -0.024967 -1.123934 0.017597 -1.225081 0.000000 0.000001
    15 -0.020057 -0.890968 0.010090 -0.829947 0.000000 0.000000
    16 0.583510 -1.197277 0.509608 0.656940 -1.082222 -0.580204
    17 1.535927 0.010246 0.005009 0.009716 -0.009096 -1.042668
    18 1.100771 0.004527 -0.010679 -0.007961 0.014127 -0.337036
    19 -0.059540 -0.081521 -0.101365 3.420906 5.967714 -1.482652
    20 -5.532648 -6.125818 0.904994 0.751313 -4.002241 1.418488
    21 0.096944 -8.450418 -0.009365 0.193640 -0.397651 0.218670
    22 0.447953 -2.798986 -0.200443 -0.628366 -0.044133 0.343869
    23 -0.032909 -1.480204 0.004940 -1.633343 0.000000 0.000002
    24 -0.027022 -1.076920 -0.020210 -0.667382 0.000000 0.000000
    25 -0.249534 -2.846964 -0.174213 -0.462244 -0.018129 0.254486
    26 0.043235 -1.683941 0.096012 -1.826616 0.002823 -0.000167
    27 0.031729 -1.160830 0.058838 -1.082887 0.000642 0.008372
    28 -0.963866 -2.785145 -0.085350 0.024169 0.000278 0.232352
    29 0.028479 -1.403067 0.006271 -1.650081 0.000000 0.000000
    30 0.021413 -0.957781 0.020046 -0.480239 0.000000 0.000000
    31 1.164475 -2.543940 -0.170330 -0.273813 -0.148943 0.314925
    32 0.024032 -1.129042 0.017807 -1.373850 -0.085666 -0.017065
    33 0.014898 -0.883989 -0.019848 -0.624918 0.000000 0.000000
    34 -0.586770 -1.264477 0.200161 -0.574792 -0.643081 -2.386700
    35 1.522835 0.058681 0.016848 -0.136772 -0.279077 0.630005
    36 1.117947 0.048424 -0.005766 0.032139 0.015394 0.802320
    37 -0.139399 -0.111698 0.014397 0.163166 0.200747 1.393884
    38 -5.811574 6.823491 -0.270684 1.576118 -0.009853 -0.955719
    39 1.602930 -3.419616 0.993028 -0.015493 0.004288 2.654875
    40 -3.004853 -0.321123 0.000001 0.000000 0.000000 2.079884
    41 5.485916 -2.877731 0.000000 0.000000 0.000000 -3.141309
    42 20.084074 2.292971 3.121190 0.000000 0.000000 3.141103
    43 3.732015 -0.731207 1.187537 1.047198 0.000000 3.141564
    44 -6.289126 8.486249 1.516290 0.000000 0.000000 0.068970
    45 -0.951095 1.245133 0.000000 0.000000 0.000000 0.651877
    46 -2.307669 -0.369492 0.683323 0.000000 -0.026311 1.148170
  time 27
    0 4.958336 -4.579530 -12.659923 -0.053103 -0.010091 -0.069302
    1 7.938968 8.021105 2.212023 0.937659 -2.029502 -1.288301
    2 1.257180 8.762585 -0.153713 -1.570562 0.002683 -1.566807
    3 -0.071921 -8.498736 -0.104134 0.164730 0.230808 -0.387660
    4 -0.488518 -2.755602 -0.228260 -0.987556 0.010332 -0.264490
    5 0.039887 -1.479790 0.029854 -1.633593 0.000000 0.000001
    6 0.028786 -1.075731 -0.023109 -0.474516 0.000000 0.000000
    7 0.250027 -2.902699 -0.238396 0.055309 0.211328 0.148974
    8 -0.049759 -1.680544 0.100479 -0.625688 0.000000 -0.000002
    9 -0.034142 -1.148312 0.084782 -1.037833 0.000000 0.000000
    10 1.207774 -3.121791 -0.090302 -0.219964 -0.043414 0.086225
    11 -0.033420 -1.397129 -0.011257 -0.345797 0.043804 -0.037992
    12 -0.022360 -0.957436 0.018784 -0.522195 0.003452 0.001139
    13 -1.180681 -2.456434 -0.021979 -1.189698 0.133751 -0.426957
    14 -0.024967 -1.123934 0.017597 -1.225081 0.000000 0.000001
    15 -0.020057 -0.890968 0.010090 -0.829947 0.000000 0.000000
    16 0.583510 -1.197277 0.509608 0.656940 -1.082222 -0.580204
    17 1.535927 0.010246 0.005009 0.009716 -0.009096 -1.042668
    18 1.100771 0.004527 -0.010679 -0.007961 0.014127 -0.337036
    19 -0.059540 -0.081521 -0.101365 3.420906 5.967714 -1.482652
    20 -5.532648 -6.125818 0.904994 0.751313 -4.002241 1.418488
    21 0.096944 -8.450418 -0.009365 0.193640 -0.397651 0.218670
    22 0.447953 -2.798986 -0.200443 -0.628366 -0.044133 0.343869
    23 -0.032909 -1.480204 0.004940 -1.633343 0.000000 0.000002
    24 -0.027022 -1.076920 -0.020210 -0.667382 0.000000 0.000000
    25 -0.249534 -2.846964 -0.174213 -0.462244 -0.018129 0.254486
    26 0.043235 -1.683941 0.096012 -1.826616 0.002823 -0.000167
    27 0.031729 -1.160830 0.058838 -1.082887 0.000642 0.008372
    28 -0.963866 -2.785145 -0.085350 0.024169 0.000278 0.232352
    29 0.028479 -1.403067 0.006271 -1.650081 0.000000 0.000000
    30 0.021413 -0.957781 0.020046 -0.480239 0.000000 0.000000
    31 1.164475 -2.543940 -0.170330 -0.273813 -0.148943 0.314925
    32 0.024032 -1.129042 0.017807 -1.373850 -0.085666 -0.017065
    33 0.014898 -0.883989 -0.019848 -0.624918 0.000000 0.000000
    34 -0.586770 -1.264477 0.200161 -0.574792 -0.643081 -2.386700
    35 1.522835 0.058681 0.016848 -0.136772 -0.279077 0.630005
    36 1.117947 0.048424 -0.005766 0.032139 0.015394 0.802320
    37 -0.139399 -0.111698 0.014397 0.163166 0.200747 1.393884
    38 -5.846731 6.788333 -0.270684 1.576058 -0.009877 -0.950028
    39 1.602930 -3.419616 0.993028 -0.015493 0.004288 2.654875
    40 -3.004853 -0.321123 0.000001 0.000000 0.000000 2.079884
    41 5.485916 -2.877731 0.000000 0.000000 0.000000 -3.141309
    42 20.084074 2.292971 3.121190 0.000000 0.000000 3.141103
    43 3.732015 -0.731207 1.187537 1.047198 0.000000 3.141564
    44 -6.289126 8.486249 1.516290 0.000000 0.000000 0.068970
    45 -0.951095 1.245133 0.000000 0.000000 0.000000 0.651877
    46 -2.307669 -0.369492 0.683323 0.000000 0.029696 1.148170
  time 28
    0 4.919273 -4.579530 -12.659923 -0.052750 -0.005069 -0.069757
    1 7.938968 8.021105 2.212023 0.937659 -2.029502 -1.288301
    2 1.257180 8.762585 -0.153713 -1.570562 0.002683 -1.566807
    3 -0.071921 -8.498736 -0.104134 0.164730 0.230808 -0.387660
    4 -0.488518 -2.755602 -0.228260 -0.987556 0.010332 -0.264490
    5 0.039887 -1.479790 0.029854 -1.633593 0.000000 0.000001
    6 0.028786 -1.075731 -0.023109 -0.474516 0.000000 0.000000
    7 0.250027 -2.902699 -0.238396 0.055309 0.211328 0.148974
    8 -0.049759 -1.680544 0.100479 -0.625688 0.000000 -0.000002
    9 -0.034142 -1.148312 0.084782 -1.037833 0.000000 0.000000
    10 1.207774 -3.121791 -0.090302 -0.219964 -0.043414 0.086225
    11 -0.033420 -1.397129 -0.011257 -0.345797 0.043804 -0.037992
    12 -0.022360 -0.957436 0.018784 -0.522195 0.003452 0.001139
    13 -1.180681 -2.456434 -0.021979 -1.189698 0.133751 -0.426957
    14 -0.024967 -1.123934 0.017597 -1.225081 0.000000 0.000001
    15 -0.020057 -0.890968 0.010090 -0.829947 0.000000 0.000000
    16 0.583510 -1.197277 0.509608 0.656940 -1.082222 -0.580204
    17 1.535927 0.010246 0.005009 0.009716 -0.009096 -1.042668
    18 1.100771 0.004527 -0.010679 -0.007961 0.014127 -0.337036
    19 -0.059540 -0.081521 -0.101365 3.420906 5.967714 -1.482652
    20 -5.532648 -6.125818 0.904994 0.751313 -4.002241 1.418488
    21 0.096944 -8.450418 -0.009365 0.193640 -0.397651 0.218670
    22 0.447953 -2.798986 -0.200443 -0.628366 -0.044133 0.343869
    23 -0.032909 -1.480204 0.004940 -1.633343 0.000000 0.000002
    24 -0.027022 -1.076920 -0.020210 -0.667382 0.000000 0.000000
    25 -0.249534 -2.846964 -0.174213 -0.462244 -0.018129 0.254486
    26 0.043235 -1.683941 0.096012 -1.826616 0.002823 -0.000167
    27 0.031729 -1.160830 0.058838 -1.082887 0.000642 0.008372
    28 -0.963866 -2.785145 -0.085350 0.024169 0.000278 0.232352
    29 0.028479 -1.403067 0.006271 -1.650081 0.000000 0.000000
    30 0.021413 -0.957781 0.020046 -0.480239 0.000000 0.000000
    31 1.164475 -2.543940 -0.170330 -0.273813 -0.148943 0.314925
    32 0.024032 -1.129042 0.017807 -1.373850 -0.085666 -0.017065
    33 0.014898 -0.883989 -0.019848 -0.624918 0.000000 0.000000
    34 -0.586770 -1.264477 0.200161 -0.574792 -0.643081 -2.386700
    35 1.522835 0.058681 0.016848 -0.136772 -0.279077 0.630005
    36 1.117947 0.048424 -0.005766 0.032139 0.015394 0.802320
    37 -0.139399 -0.111698 0.014397 0.163166 0.200747 1.393884
    38 -5.870169 6.760989 -0.270684 1.576022 -0.009901 -0.945820
    39 1.602930 -3.419616 0.993028 -0.015493 0.004288 2.654875
    40 -3.004853 -0.321123 0.000001 0.000000 0.000000 2.079884
    41 5.485916 -2.877731 0.000000 0.000000 0.000000 -3.141309
    42 20.084074 2.292971 3.121190 0.000000 0.000000 3.141103
    43 3.732015 -0.731207 1.187537 1.047198 0.000000 3.141564
    44 -6.289126 8.486249 1.516290 0.000000 0.000000 0.068970
    45 -0.951095 1.245133 0.000000 0.000000 0.000000 0.651877
    46 -2.307669 -0.369492 0.683323 0.000000 0.021999 1.148170
  time 29
    0 4.880209 -4.579530 -12.659923 -0.052397 -0.000767 -0.069951
    1 7.938968 8.021105 2.212023 0.937659 -2.029502 -1.288301
    2 1.257180 8.762585 -0.153713 -1.570562 0.002683 -1.566807
    3 -0.071921 -8.498736 -0.104134 0.164730 0.230808 -0.387660
    4 -0.488518 -2.755602 -0.228260 -0.987556 0.010332 -0.264490
    5 0.039887 -1.479790 0.029854 -1.633593 0.000000 0.000001
    6 0.028786 -1.075731 -0.023109 -0.474516 0.000000 0.000000
    7 0.250027 -2.902699 -0.238396 0.055309 0.211328 0.148974
    8 -0.049759 -1.680544 0.100479 -0.625688 0.000000 -0.000002
    9 -0.034142 -1.148312 0.084782 -1.037833 0.000000 0.000000
    10 1.207774 -3.121791 -0.090302 -0.219964 -0.043414 0.086225
    11 -0.033420 -1.397129 -0.011257 -0.345797 0.043804 -0.037992
    12 -0.022360 -0.957436 0.018784 -0.522195 0.003452 0.001139
    13 -1.180681 -2.456434 -0.021979 -1.189698 0.133751 -0.426957
    14 -0.024967 -1.123934 0.017597 -1.225081 0.000000 0.000001
    15 -0.020057 -0.890968 0.010090 -0.829947 0.000000 0.000000
    16 0.583510 -1.197277 0.509608 0.656940 -1.082222 -0.580204
    17 1.535927 0.010246 0.005009 0.009716 -0.009096 -1.042668
    18 1.100771 0.004527 -0.010679 -0.007961 0.014127 -0.337036
    19 -0.059540 -0.081521 -0.101365 3.420906 5.967714 -1.482652
    20 -5.532648 -6.125818 0.904994 0.751313 -4.002241 1.418488
    21 0.096944 -8.450418 -0.009365 0.193640 -0.397651 0.218670
    22 0.447953 -2.798986 -0.200443 -0.628366 -0.044133 0.343869
    23 -0.032909 -1.480204 0.004940 -1.633343 0.000000 0.000002
    24 -0.027022 -1.076920 -0.020210 -0.667382 0.000000 0.000000
    25 -0.249534 -2.846964 -0.174213 -0.462244 -0.018129 0.254486
    26 0.043235 -1.683941 0.096012 -1.826616 0.002823 -0.000167
    27 0.031729 -1.160830 0.058838 -1.082887 0.000642 0.008372
    28 -0.963866 -2.785145 -0.085350 0.024169 0.000278 0.232352
    29 0.028479 -1.403067 0.006271 -1.650081 0.000000 0.000000
    30 0.021413 -0.957781 0.020046 -0.480239 0.000000 0.000000
    31 1.164475 -2.543940 -0.170330 -0.273813 -0.148943 0.314925
    32 0.024032 -1.129042 0.017807 -1.373850 -0.085666 -0.017065
    33 0.014898 -0.883989 -0.019848 -0.624918 0.000000 0.000000
    34 -0.586770 -1.264477 0.200161 -0.574792 -0.643081 -2.386700
    35 1.522835 0.058681 0.016848 -0.136772 -0.279077 0.630005
    36 1.117947 0.048424 -0.005766 0.032139 0.015394 0.802320
    37 -0.139399 -0.111698 0.014397 0.163166 0.200747 1.393884
    38 -5.885795 6.741457 -0.270684 1.575998 -0.009913 -0.943203
    39 1.602930 -3.419616 0.993028 -0.015493 0.004288 2.654875
    40 -3.004853 -0.321123 0.000001 0.000000 0.000000 2.079884
    41 5.485916 -2.877731 0.000000 0.000000 0.000000 -3.141309
    42 20.084074 2.292971 3.121190 0.000000 0.000000 3.141103
    43 3.732015 -0.731207 1.187537 1.047198 0.000000 3.141564
    44 -6.289126 8.486249 1.516290 0.000000 0.000000 0.068970
    45 -0.951095 1.245133 0.000000 0.000000 0.000000 0.651877
    46 -2.307669 -0.369492 0.683323 0.000000 0.007697 1.148170
  time 30
    0 4.864584 -4.579530 -12.659923 -0.052245 0.001031 -0.070016
    1 7.938968 8.021105 2.212023 0.937659 -2.029502 -1.288301
    2 1.257180 8.762585 -0.153713 -1.570562 0.002683 -1.566807
    3 -0.071921 -8.498736 -0.104134 0.164730 0.230808 -0.387660
    4 -0.488518 -2.755602 -0.228260 -0.987556 0.010332 -0.264490
    5 0.039887 -1.479790 0.029854 -1.633593 0.000000 0.000001
    6 0.028786 -1.075731 -0.023109 -0.474516 0.000000 0.000000
    7 0.250027 -2.902699 -0.238396 0.055309 0.211328 0.148974
    8 -0.049759 -1.680544 0.100479 -0.625688 0.000000 -0.000002
    9 -0.034142 -1.148312 0.084782 -1.037833 0.000000 0.000000
    10 1.207774 -3.121791 -0.090302 -0.219964 -0.043414 0.086225
    11 -0.033420 -1.397129 -0.011257 -0.345797 0.043804 -0.037992
    12 -0.022360 -0.957436 0.018784 -0.522195 0.003452 0.001139
    13 -1.180681 -2.456434 -0.021979 -1.189698 0.133751 -0.426957
    14 -0.024967 -1.123934 0.017597 -1.225081 0.000000 0.000001
    15 -0.020057 -0.890968 0.010090 -0.829947 0.000000 0.000000
    16 0.583510 -1.197277 0.509608 0.656940 -1.082222 -0.580204
    17 1.535927 0.010246 0.005009 0.009716 -0.009096 -1.042668
    18 1.100771 0.004527 -0.010679 -0.007961 0.014127 -0.337036
    19 -0.059540 -0.081521 -0.101365 3.420906 5.967714 -1.482652
    20 -5.532648 -6.125818 0.904994 0.751313 -4.002241 1.418488
    21 0.096944 -8.450418 -0.009365 0.193640 -0.397651 0.218670
    22 0.447953 -2.798986 -0.200443 -0.628366 -0.044133 0.343869
    23 -0.032909 -1.480204 0.004940 -1.633343 0.000000 0.000002
    24 -0.027022 -1.076920 -0.020210 -0.667382 0.000000 0.000000
    25 -0.249534 -2.846964 -0.174213 -0.462244 -0.018129 0.254486
    26 0.043235 -1.683941 0.096012 -1.826616 0.002823 -0.000167
    27 0.031729 -1.160830 0.058838 -1.082887 0.000642 0.008372
    28 -0.963866 -2.785145 -0.085350 0.024169 0.000278 0.232352
    29 0.028479 -1.403067 0.006271 -1.650081 0.000000 0.000000
    30 0.021413 -0.957781 0.020046 -0.480239 0.000000 0.000000
    31 1.164475 -2.543940 -0.170330 -0.273813 -0.148943 0.314925
    32 0.024032 -1.129042 0.017807 -1.373850 -0.085666 -0.017065
    33 0.014898 -0.883989 -0.019848 -0.624918 0.000000 0.000000
    34 -0.586770 -1.264477 0.200161 -0.574792 -0.643081 -2.386700
    35 1.522835 0.058681 0.016848 -0.136772 -0.279077 0.630005
    36 1.117947 0.048424 -0.005766 0.032139 0.015394 0.802320
    37 -0.139399 -0.111698 0.014397 0.163166 0.200747 1.393884
    38 -5.889701 6.737550 -0.270684 1.575986 -0.009925 -0.942313
    39 1.602930 -3.419616 0.993028 -0.015493 0.004288 2.654875
    40 -3.004853 -0.321123 0.000001 0.000000 0.000000 2.079884
    41 5.485916 -2.877731 0.000000 0.000000 0.000000 -3.141309
    42 20.084074 2.292971 3.121190 0.000000 0.000000 3.141103
    43 3.732015 -0.731207 1.187537 1.047198 0.000000 3.141564
    44 -6.289126 8.486249 1.516290 0.000000 0.000000 0.068970
    45 -0.951095 1.245133 0.000000 0.000000 0.000000 0.651877
    46 -2.307669 -0.369492 0.683323 0.000000 0.000000 1.148170
end
