// Created by Crowbar 0.68

$modelname "weapons/tfa_cso/c_vulcanus1.mdl"

$include "csonline_gmod.qci"

$bodygroup "weapon"
{
	studio "v_vulcanus1"
}
$bodygroup "weapon"
{
	studio "v_vulcanus1r"
}
$bodygroup "weapon"
{
	studio "muzl"
}

$cdmaterials "models/weapons/tfa_cso/vulcanus_1"

$attachment 2 "vulcanus1_root01" -1.522 0 -4.442 rotate 90 0 0
$attachment 0 "vulcanus1_root" 1.522 0 4.442 rotate -90 0 0
//$attachment 1 "vulcanus1_root" 2.673 -0.378 -0.079
//$attachment 3 "vulcanus1_root01" -2.673 0.378 0.079

$definebone "vulcanus1_root" "" 0.000000 0.000000 0.365103 -89.999985 89.999985 0.000000 0.000000 0.000000 0.000000 -0.000000 0.000000 0.000000
$definebone "vulcanus1_root01" "" -8.086319 0.000000 0.365103 89.999985 89.999985 0.000000 0.000000 0.000000 0.000000 -0.000000 0.000000 0.000000
$definebone "save" "vulcanus1_root" 0.824964 0.483966 0.408869 -0.000000 0.000000 0.000000 0.000000 -0.000000 0.000000 -0.000000 0.000000 0.000000
$definebone "holt" "vulcanus1_root" 0.620036 0.000000 2.415075 -0.000000 -0.000172 0.000000 0.000000 0.000000 0.000000 -0.000000 0.000000 0.000000
$definebone "part1" "holt" 1.392155 0.000006 -3.431669 -0.000000 0.000000 0.000000 0.000000 0.000000 0.000000 -0.000000 0.000000 0.000000
$definebone "part2" "part1" 0.000000 0.000000 2.602845 -0.000000 0.000000 0.000000 0.000000 0.000000 0.000000 -0.000000 0.000000 0.000000
$definebone "pipe" "part2" -0.395516 -0.000002 -0.210192 -0.000000 0.000000 0.000000 0.000000 0.000000 0.000000 -0.000000 0.000000 0.000000
$definebone "trigger" "vulcanus1_root" 0.403099 0.000000 -0.214750 0.000036 -179.999939 180.000000 0.000000 0.000000 0.000000 0.000000 -0.000000 0.000000
$definebone "spartR" "holt" 1.145214 0.627735 -2.532980 -0.000000 0.000000 0.000000 0.000000 0.000000 0.000000 -0.000000 0.000000 0.000000
$definebone "simbolL" "holt" 0.997437 -0.749061 -3.941777 -0.000000 0.000000 0.000000 0.000000 0.000000 0.000000 -0.000000 0.000000 0.000000
$definebone "spartL" "holt" 1.145219 -0.627941 -2.532980 -0.000000 0.000000 0.000000 0.000000 0.000000 0.000000 -0.000000 0.000000 0.000000
$definebone "sub_hol" "holt" 0.996639 0.000004 -2.315122 0.000172 0.000057 -0.409264 0.000000 0.000000 0.000000 -0.000000 -0.000000 0.000000
$definebone "trig" "vulcanus1_root" 0.759818 0.000001 -2.525594 -0.000000 -0.000172 0.000000 0.000000 0.000000 0.000000 -0.000000 0.000000 0.000000
$definebone "megazine" "vulcanus1_root" 0.933434 0.000001 -1.316105 0.000036 -179.999939 180.000000 0.000000 0.000000 0.000000 0.000000 -0.000000 0.000000
$definebone "simbolr" "holt" 0.997431 0.729159 -3.941777 -0.000000 0.000000 0.000000 0.000000 0.000000 0.000000 -0.000000 0.000000 0.000000
$definebone "trig01" "vulcanus1_root01" -0.759818 -0.000001 2.525594 -0.000000 -0.000172 0.000000 0.000000 0.000000 0.000000 -0.000000 0.000000 0.000000
$definebone "trigger01" "vulcanus1_root01" -0.403099 0.000000 0.214750 0.000036 -179.999939 180.000000 0.000000 0.000000 0.000000 -0.000000 0.000000 0.000000
$definebone "save01" "vulcanus1_root01" -0.824964 -0.483965 -0.408869 -0.000000 0.000000 0.000000 0.000000 0.000000 0.000000 -0.000000 0.000000 0.000000
$definebone "megazine01" "vulcanus1_root01" -0.933434 -0.000001 1.316105 0.000036 -179.999939 180.000000 -0.000000 0.000000 0.000000 -0.000000 0.000000 0.000000
$definebone "holt01" "vulcanus1_root01" -0.620036 0.000000 -2.415075 -0.000000 -0.000172 0.000000 0.000000 0.000000 0.000000 -0.000000 0.000000 0.000000
$definebone "sub_hol01" "holt01" -0.996639 -0.000004 2.315122 0.000172 0.000057 -0.409264 0.000000 0.000000 0.000000 0.000000 -0.000000 0.000000
$definebone "spartL01" "holt01" -1.145219 0.627941 2.532980 -0.000000 0.000000 0.000000 0.000000 0.000000 0.000000 -0.000000 0.000000 0.000000
$definebone "simbolL01" "holt01" -0.997437 0.749063 3.941777 -0.000000 0.000000 0.000000 0.000000 0.000000 0.000000 -0.000000 0.000000 0.000000
$definebone "simbolr01" "holt01" -0.997431 -0.729159 3.941777 -0.000000 0.000000 0.000000 0.000000 0.000000 0.000000 -0.000000 0.000000 0.000000
$definebone "spartR01" "holt01" -1.145214 -0.627735 2.532980 -0.000000 0.000000 0.000000 0.000000 0.000000 0.000000 -0.000000 0.000000 0.000000
$definebone "part03" "holt01" -1.392155 -0.000006 3.431669 -0.000000 0.000000 0.000000 0.000000 0.000000 0.000000 -0.000000 0.000000 0.000000
$definebone "part04" "part03" 0.000000 0.000000 -2.602845 -0.000000 0.000000 0.000000 0.000000 0.000000 0.000000 -0.000000 0.000000 0.000000
$definebone "pipe01" "part04" 0.395516 0.000003 0.210192 -0.000000 0.000000 0.000000 0.000000 0.000000 0.000000 -0.000000 0.000000 0.000000
$definebone "R_muzl" "" -3.519106 22.104044 -40.251415 -89.999985 -179.999969 0.000000 0.000000 0.000000 0.000000 -0.000000 0.000000 0.000000
$definebone "L_muzl" "" 2.991518 22.104046 -40.251415 89.999985 -0.000000 0.000000 0.000000 0.000000 0.000000 -0.000000 0.000000 0.000000

$sequence "idleB" {
	"v_vulcanus1_anims\idleB"
	fps 30
	loop
	activity "ACT_VM_IDLE_SILENCED" 1
	snap
}
$sequence "reloadB" {
	"v_vulcanus1_anims\reloadB"
	{ event 5004 7 "VULCANUS1.ClipOut" }
	{ event 5004 53 "VULCANUS1.ClipInB" }
	fps 30
	activity "ACT_VM_RELOAD_SILENCED" 1
	snap
}
$sequence "drawB" {
	"v_vulcanus1_anims\drawB"
	{ event 5004 5 "VULCANUS1.DrawB" }
	fps 30
	activity "ACT_VM_DRAW_SILENCED" 1
	snap
}
$sequence "shootB" {
	"v_vulcanus1_anims\shootB"
	{ event 5001 0 "21" }
	{ event 5021 0 "21" }
	fps 30
	activity "ACT_VM_PRIMARYATTACK_SILENCED" 1
	snap
}
$sequence "shoot_empty" {
	"v_vulcanus1_anims\shoot_empty"
	{ event 5001 0 "21" }
	{ event 5021 0 "21" }
	fps 30
}
$sequence "idle" {
	"v_vulcanus1_anims\idle"
	fps 30
	loop
	activity "ACT_VM_IDLE" 1
	snap
}
$sequence "idle_leftempty" {
	"v_vulcanus1_anims\idle_leftempty"
	fps 30
	loop
}
$sequence "shoot_left1" {
	"v_vulcanus1_anims\shoot_left1"
	{ event 5001 0 "#I2 S0.15 R1 F0 P30 T0.01 A1 L0 O0" }
	{ event 5001 0 "#I3 S0.07 R1 F0 P30 T0.01 A1 L0 O0" }
	fps 30
	activity "ACT_VM_PRIMARYATTACK" 1
	snap
}
$sequence "shoot_left2" {
	"v_vulcanus1_anims\shoot_left2"
	{ event 5001 0 "#I2 S0.15 R1 F0 P30 T0.01 A1 L0 O0" }
	{ event 5001 0 "#I1 S0.1 R1 F0 P30 T0.01 A1 L0 O0" }
	fps 30
	activity "ACT_VM_PRIMARYATTACK" 1
	snap
}
$sequence "shoot_leftlast" {
	"v_vulcanus1_anims\shoot_leftlast"
	{ event 5001 0 "#I2 S0.15 R1 F0 P30 T0.01 A1 L0 O0" }
	{ event 5001 0 "#I3 S0.07 R1 F0 P30 T0.01 A1 L0 O0" }
	fps 30
}
$sequence "shoot_right1" {
	"v_vulcanus1_anims\shoot_right1"
	{ event 5021 0 "#I2 S0.15 R1 F0 P30 T0.01 A1 L0 O0" }
	{ event 5021 0 "#I3 S0.07 R1 F0 P30 T0.01 A1 L0 O0" }
	fps 30
	activity "ACT_VM_SECONDARYATTACK" 1
	snap
}
$sequence "shoot_right2" {
	"v_vulcanus1_anims\shoot_right2"
	{ event 5021 0 "#I2 S0.15 R1 F0 P30 T0.01 A1 L0 O0" }
	{ event 5021 0 "#I1 S0.1 R1 F0 P30 T0.01 A1 L0 O0" }
	fps 30
	activity "ACT_VM_SECONDARYATTACK" 1
	snap
}
$sequence "shoot_rightlast" {
	"v_vulcanus1_anims\shoot_rightlast"
	{ event 5021 0 "#I2 S0.15 R1 F0 P30 T0.01 A1 L0 O0" }
	{ event 5021 0 "#I3 S0.07 R1 F0 P30 T0.01 A1 L0 O0" }
	fps 30
}
$sequence "reload" {
	"v_vulcanus1_anims\reload"
	{ event 5004 7 "VULCANUS1.ClipOut" }
	{ event 5004 31 "VULCANUS1.ClipInA" }
	{ event 5004 48 "VULCANUS1.ClipOut" }
	{ event 5004 70 "VULCANUS1.ClipInA" }
	{ event 5004 86 "VULCANUS1.Reload" }
	fps 30
	activity "ACT_VM_RELOAD" 1
	snap
}
$sequence "draw" {
	"v_vulcanus1_anims\draw"
	{ event 5004 12 "VULCANUS1.Draw" }
	fps 30
	activity "ACT_VM_DRAW" 1
	snap
}
$sequence "changeB" {
	"v_vulcanus1_anims\changeB"
	{ event 5004 8 "VULCANUS1.ChangeToB" }
	fps 30
	activity "ACT_VM_DETACH_SILENCER" 1
	snap
}
$sequence "changeA" {
	"v_vulcanus1_anims\changeA"
	{ event 5004 3 "VULCANUS1.ChangeToA" }
	fps 30
	activity "ACT_VM_ATTACH_SILENCER" 1
	snap
}
