version 1
nodes
  0 "root" -1
  1 "Bone01" 0
  2 "Bone_L_Upper" 1
  3 "Bone_Lefthand" 1
  4 "Bone13" 3
  5 "Bone14" 4
  6 "Bone15" 5
  7 "Bone17" 3
  8 "Bone18" 7
  9 "Bone19" 8
  10 "Bone21" 3
  11 "Bone22" 10
  12 "Bone23" 11
  13 "Bone09" 3
  14 "Bone10" 13
  15 "Bone11" 14
  16 "Bone05" 3
  17 "Bone06" 16
  18 "Bone07" 17
  19 "Bone_Se_Hand-L" 3
  20 "Bone04" 0
  21 "Bone_Righthand" 20
  22 "Bone39" 21
  23 "Bone40" 22
  24 "Bone41" 23
  25 "Bone35" 21
  26 "Bone36" 25
  27 "Bone37" 26
  28 "Bone31" 21
  29 "Bone32" 28
  30 "Bone33" 29
  31 "Bone43" 21
  32 "Bone44" 31
  33 "Bone45" 32
  34 "Bone27" 21
  35 "Bone28" 34
  36 "Bone29" 35
  37 "Bone_Se_Hand-R" 21
  38 "Bone_R_Upper" 20
  39 "y22s3dragonsword_root" -1
  40 "y22s3dragonsword_Bone1" 39
  41 "y22s3dragonsword_Bone2" 40
  42 "Plane_effx1" -1
  43 "Plane_effx2" -1
  44 "Plane001" -1
  45 "Plane002" -1
  46 "slash2_buff_root" -1
  47 "slash2_buff004" 46
  48 "slash2_buff1" 46
  49 "slash2_buff002" 46
  50 "slash2_buff003" 46
  51 "Plane001slash3" -1
  52 "Plane002slash3" -1
end
skeleton
  time 0
    0 0.001265 -0.569176 -20.601572 0.000000 0.000000 0.000000
    1 9.310103 -5.299614 -12.557959 3.138909 -0.000224 -1.566807
    2 1.257180 8.762585 -0.153713 -1.570562 0.002683 -1.566807
    3 -0.071921 -8.498736 -0.104134 -0.025046 0.287591 0.014898
    4 -0.488518 -2.755602 -0.228260 0.106454 0.010332 -0.264490
    5 0.039887 -1.479790 0.029854 -0.055395 0.000000 0.000001
    6 0.028786 -1.075731 -0.023109 0.002099 0.000000 0.000000
    7 0.250027 -2.820665 -0.238396 0.041826 -0.002921 0.008443
    8 -0.049759 -1.680544 0.100479 0.019826 0.000000 -0.000002
    9 -0.034142 -1.148312 0.084782 -0.040115 0.000000 0.000000
    10 0.957766 -2.746780 -0.090302 -0.017221 -0.162277 0.191558
    11 -0.033420 -1.397129 -0.011257 0.013931 0.000000 -0.000001
    12 -0.022360 -0.957436 0.018784 0.003845 0.000000 0.000000
    13 -1.180681 -2.507217 -0.193859 0.082999 0.013294 -0.477915
    14 -0.024967 -1.123934 0.017597 -0.018065 0.000000 0.000001
    15 -0.020057 -0.890968 0.010090 -0.060797 0.000000 0.000000
    16 0.583510 -1.197277 0.185379 0.158049 -0.404973 -0.364290
    17 1.535927 0.010246 0.005009 -0.002964 -0.012979 0.000887
    18 1.100771 0.004527 -0.010679 -0.002796 0.015973 0.003458
    19 0.120153 -0.050270 -0.054489 0.287569 3.110905 1.561085
    20 -9.310107 -5.231260 -12.513384 0.004984 -3.131565 -1.566847
    21 0.096944 -8.450418 -0.009365 -0.032965 -0.297907 -0.004663
    22 0.447953 -2.798986 -0.200443 0.106456 -0.010396 0.265094
    23 -0.032909 -1.480204 0.004940 -0.055403 0.000000 0.000002
    24 -0.027022 -1.076920 -0.020210 0.002094 0.000000 0.000000
    25 -0.249534 -2.846964 -0.174213 0.041903 -0.000125 -0.008396
    26 0.043235 -1.683941 0.096012 0.019757 0.002823 -0.000167
    27 0.031729 -1.160830 0.058838 -0.040181 0.000642 0.008372
    28 -0.963866 -2.785145 -0.085350 -0.017227 0.162276 -0.191556
    29 0.028479 -1.403067 0.006271 0.013941 0.000000 0.000000
    30 0.021413 -0.957781 0.020046 0.003851 0.000000 0.000000
    31 1.164475 -2.543940 -0.170330 0.083003 -0.013294 0.477915
    32 0.024032 -1.129042 0.017807 -0.018074 0.000000 0.000001
    33 0.014898 -0.883989 -0.019848 -0.060801 0.000000 0.000000
    34 -0.586770 -1.264477 0.200161 -0.152092 -0.410513 -2.814816
    35 1.522835 0.058681 0.016848 0.001410 0.008985 -0.046880
    36 1.117947 0.048424 -0.005766 -0.000243 -0.025198 0.065422
    37 -0.139399 -0.111698 0.014397 0.285382 -0.030687 1.580508
    38 -1.393470 8.839177 -0.239433 1.580804 -0.005023 -1.566847
    39 0.000000 0.000000 21.484554 1.570796 -1.570796 0.000000
    40 21.622166 -2.809112 0.000004 0.000001 0.000000 3.101173
    41 2.647755 -0.048794 0.000000 0.000000 0.000000 0.285398
    42 10.986044 39.584446 -104.952026 -0.788484 0.157969 0.876020
    43 10.986044 39.584446 -104.952026 -0.788484 0.157969 0.876020
    44 27.331474 89.484497 -91.065063 1.681746 0.110993 -1.569822
    45 27.331474 89.484497 -91.065063 1.681746 0.110993 -1.569822
    46 -1.253076 -0.039783 -71.071419 0.000000 0.000000 -1.570796
    47 0.000008 -25.000000 -24.999992 0.000000 0.000000 0.000000
    48 0.000008 -24.999996 25.000008 0.000000 0.000000 0.000000
    49 -0.000008 25.000015 24.999996 0.000000 0.000000 0.000000
    50 -0.000008 25.000008 -25.000000 0.000000 0.000000 0.000000
    51 0.000000 0.000000 -269.157440 -1.570796 0.000000 0.000000
    52 0.000000 0.000000 -269.157440 -1.570796 0.000000 0.000000
end
triangles
$0b_y22s3dragonsword
  42 -50.837915 20.069669 -131.918985 0.000000 0.000000 1.000000 0.000000 1.000000
  42 10.028350 -16.232934 -62.363904 0.000000 0.000000 1.000000 0.000000 0.000000
  42 11.943738 95.401826 -147.540149 0.000000 0.000000 1.000000 1.000000 1.000000
$0b_y22s3dragonsword
  42 11.943738 95.401826 -147.540149 0.000000 0.000000 1.000000 1.000000 1.000000
  42 10.028350 -16.232934 -62.363904 0.000000 0.000000 1.000000 0.000000 0.000000
  42 72.810003 59.099223 -77.985067 0.000000 0.000000 1.000000 1.000000 0.000000
ef_y22s3dragonsword
  43 -50.837915 20.069669 -131.918985 0.000000 0.000000 1.000000 0.000000 1.000000
  43 10.028350 -16.232934 -62.363904 0.000000 0.000000 1.000000 0.000000 0.000000
  43 11.943738 95.401826 -147.540149 0.000000 0.000000 1.000000 1.000000 1.000000
ef_y22s3dragonsword
  43 11.943738 95.401826 -147.540149 0.000000 0.000000 1.000000 1.000000 1.000000
  43 10.028350 -16.232934 -62.363904 0.000000 0.000000 1.000000 0.000000 0.000000
  43 72.810003 59.099223 -77.985067 0.000000 0.000000 1.000000 1.000000 0.000000
end
