// Created by Crowbar 0.68

$modelname "weapons/tfa_cso/w_sg552.mdl"

$bodygroup "studio"
{
	studio "reference_sg552"
}

$collisionmodel "reference_sg552.smd"
{
	$mass 9
}

$CDMaterials "models\weapons\tfa_cso\sg552\"

$attachment "0" "root" 14.00 -0.20 -0.80 rotate -0 0 0

$sequence "idle" {
	"s_sg552_anims\idle"
	fps 30
}
