version 1
nodes
  0 "root" -1
  1 "Bone01" 0
  2 "Bone_Lefthand" 1
  3 "bendita_root" 2
  4 "trigger" 3
  5 "reload" 3
  6 "magazine" 3
  7 "Bone_L_Upper" 1
  8 "Bone13" 2
  9 "Bone14" 8
  10 "Bone15" 9
  11 "Bone17" 2
  12 "Bone18" 11
  13 "Bone19" 12
  14 "Bone21" 2
  15 "Bone22" 14
  16 "Bone23" 15
  17 "Bone09" 2
  18 "Bone10" 17
  19 "Bone11" 18
  20 "Bone05" 2
  21 "Bone06" 20
  22 "Bone07" 21
  23 "Bone_Se_Hand-L" 2
  24 "Bone04" 0
  25 "Bone_Righthand" 24
  26 "Bone39" 25
  27 "Bone40" 26
  28 "Bone41" 27
  29 "Bone35" 25
  30 "Bone36" 29
  31 "Bone37" 30
  32 "Bone31" 25
  33 "Bone32" 32
  34 "Bone33" 33
  35 "Bone43" 25
  36 "Bone44" 35
  37 "Bone45" 36
  38 "Bone27" 25
  39 "Bone28" 38
  40 "Bone29" 39
  41 "Bone_Se_Hand-R" 25
  42 "Bone_R_Upper" 24
end
skeleton
  time 0
    0 0.000000 0.000000 0.000000 0.000000 0.000000 0.000000
    1 6.210282 4.869267 -8.148848 -0.209396 -1.608800 0.169044
    2 -0.071918 -8.498730 -0.104136 0.013077 0.288362 0.148943
    3 1.066394 -2.853785 1.145319 -0.068397 0.250151 2.999456
    4 -0.138642 1.369231 -0.000001 0.000000 0.000000 0.005300
    5 -2.544339 6.190367 -0.177679 -1.570796 -1.570796 0.000000
    6 -0.956247 5.815759 -0.075912 0.000001 0.000000 0.000000
    7 1.257180 8.762585 -0.153713 -1.570562 0.002683 -1.566807
    8 -0.488518 -2.755602 -0.228260 -1.119640 -0.066262 -0.107564
    9 0.039887 -1.479790 0.029854 -1.451658 0.000000 0.000001
    10 0.028786 -1.075731 -0.023109 -0.870565 0.000000 0.000000
    11 0.250027 -2.820665 -0.238396 -0.916633 -0.083577 -0.024886
    12 -0.049759 -1.680544 0.100479 -1.550922 0.000000 -0.000002
    13 -0.034142 -1.148312 0.084782 -1.087281 0.000000 0.000000
    14 0.957766 -2.746780 -0.090302 -0.432127 -0.184437 0.072455
    15 -0.033420 -1.397129 -0.011257 -0.247860 0.000000 -0.000001
    16 -0.022360 -0.957436 0.018784 -0.956058 0.000000 0.000000
    17 -1.180681 -2.507217 -0.193859 -0.747365 0.130012 -0.054388
    18 -0.024967 -1.123934 0.017597 -1.414285 0.000000 0.000001
    19 -0.020057 -0.890968 0.010090 -0.846171 0.000000 0.000000
    20 0.583510 -1.197277 0.185379 0.631273 -1.323162 -0.918160
    21 1.535927 0.010246 0.005009 -0.124883 0.065220 -0.956793
    22 1.100771 0.004527 -0.010679 -0.014685 0.006877 -0.956472
    23 0.120153 -0.050270 -0.054489 0.287569 3.110905 1.561085
    24 -0.305926 -8.192288 -9.290629 -0.293852 -6.199694 0.576160
    25 0.096944 -8.450418 -0.009365 -0.098902 -0.036844 0.071180
    26 0.447953 -2.798986 -0.200443 -0.746893 -0.190644 0.074012
    27 -0.032909 -1.480204 0.004940 -0.491718 0.000000 0.000002
    28 -0.027022 -1.076920 -0.020210 -1.306864 0.000000 0.000000
    29 -0.249534 -2.846964 -0.174213 -0.305558 -0.040513 -0.085769
    30 0.043235 -1.683941 0.096012 -0.940134 0.002823 -0.000167
    31 0.031729 -1.160830 0.058838 -1.261903 0.000642 0.008372
    32 -0.963866 -2.785145 -0.085350 0.070006 0.162276 -0.191556
    33 0.028479 -1.403067 0.006271 -0.858676 0.000000 0.000000
    34 0.021413 -0.957781 0.020046 -0.432470 0.000000 0.000000
    35 1.164475 -2.543940 -0.170330 -0.514667 -0.282959 -0.086049
    36 0.024032 -1.129042 0.017807 -0.803451 0.000000 0.000001
    37 0.014898 -0.883989 -0.019848 -0.584392 0.000000 0.000000
    38 -0.586770 -1.264477 0.200161 -0.119695 -0.731399 -2.613436
    39 1.522835 0.058681 0.016848 -0.087276 -0.051738 0.379412
    40 1.117947 0.048424 -0.005766 -0.003814 -0.024910 0.208075
    41 -0.139399 -0.111698 0.014397 0.285382 -0.030687 1.580508
    42 -1.393470 8.839177 -0.239433 1.580804 -0.005023 -1.566847
  time 1
    0 0.000000 2.746178 0.000000 0.000000 0.000000 0.000000
    1 6.210282 4.869267 -8.148848 -0.209396 -1.608800 0.169044
    2 -0.071918 -8.498730 -0.104136 0.013077 0.288362 0.148943
    3 1.066394 -2.853785 1.145319 -0.068397 0.250151 2.999456
    4 -0.138642 1.369231 -0.000001 0.000000 0.000000 0.005300
    5 -2.544339 6.190367 -0.177679 -1.570796 -1.570796 0.000000
    6 -0.956247 5.815759 -0.075912 0.000001 0.000000 0.000000
    7 1.257180 8.762585 -0.153713 -1.570562 0.002683 -1.566807
    8 -0.488518 -2.755602 -0.228260 -1.119640 -0.066262 -0.107564
    9 0.039887 -1.479790 0.029854 -1.451658 0.000000 0.000001
    10 0.028786 -1.075731 -0.023109 -0.870565 0.000000 0.000000
    11 0.250027 -2.820665 -0.238396 -0.916633 -0.083577 -0.024886
    12 -0.049759 -1.680544 0.100479 -1.550922 0.000000 -0.000002
    13 -0.034142 -1.148312 0.084782 -1.087281 0.000000 0.000000
    14 0.957766 -2.746780 -0.090302 -0.432127 -0.184437 0.072455
    15 -0.033420 -1.397129 -0.011257 -0.247860 0.000000 -0.000001
    16 -0.022360 -0.957436 0.018784 -0.956058 0.000000 0.000000
    17 -1.180681 -2.507217 -0.193859 -0.747365 0.130012 -0.054388
    18 -0.024967 -1.123934 0.017597 -1.414285 0.000000 0.000001
    19 -0.020057 -0.890968 0.010090 -0.846171 0.000000 0.000000
    20 0.583510 -1.197277 0.185379 0.631273 -1.323162 -0.918160
    21 1.535927 0.010246 0.005009 -0.124883 0.065220 -0.956793
    22 1.100771 0.004527 -0.010679 -0.014685 0.006877 -0.956472
    23 0.120153 -0.050270 -0.054489 0.287569 3.110905 1.561085
    24 -0.305926 -8.192288 -9.290629 -0.293852 -6.199694 0.576160
    25 0.096944 -8.450418 -0.009365 -0.098902 -0.036844 0.071180
    26 0.447953 -2.798986 -0.200443 -0.746893 -0.190644 0.074012
    27 -0.032909 -1.480204 0.004940 -0.491718 0.000000 0.000002
    28 -0.027022 -1.076920 -0.020210 -1.306864 0.000000 0.000000
    29 -0.249534 -2.846964 -0.174213 -0.305558 -0.040513 -0.085769
    30 0.043235 -1.683941 0.096012 -0.940134 0.002823 -0.000167
    31 0.031729 -1.160830 0.058838 -1.261903 0.000642 0.008372
    32 -0.963866 -2.785145 -0.085350 0.070006 0.162276 -0.191556
    33 0.028479 -1.403067 0.006271 -0.858676 0.000000 0.000000
    34 0.021413 -0.957781 0.020046 -0.432470 0.000000 0.000000
    35 1.164475 -2.543940 -0.170330 -0.514667 -0.282959 -0.086049
    36 0.024032 -1.129042 0.017807 -0.803451 0.000000 0.000001
    37 0.014898 -0.883989 -0.019848 -0.584392 0.000000 0.000000
    38 -0.586770 -1.264477 0.200161 -0.119695 -0.731399 -2.613436
    39 1.522835 0.058681 0.016848 -0.087276 -0.051738 0.379412
    40 1.117947 0.048424 -0.005766 -0.003814 -0.024910 0.208075
    41 -0.139399 -0.111698 0.014397 0.285382 -0.030687 1.580508
    42 -1.393470 8.839177 -0.239433 1.580804 -0.005023 -1.566847
  time 2
    0 0.000000 2.652425 0.000000 -0.007119 0.000000 0.000000
    1 6.210282 4.869267 -8.148848 -0.209396 -1.608800 0.169044
    2 -0.071918 -8.498730 -0.104136 0.013077 0.288362 0.148943
    3 1.066394 -2.853785 1.145319 -0.068397 0.250151 2.999456
    4 -0.138642 1.369231 -0.000001 0.000000 0.000000 0.005300
    5 -2.544339 6.190367 -0.177679 -1.570796 -1.570796 0.000000
    6 -0.956247 5.815759 -0.075912 0.000001 0.000000 0.000000
    7 1.257180 8.762585 -0.153713 -1.570562 0.002683 -1.566807
    8 -0.488518 -2.755602 -0.228260 -1.119640 -0.066262 -0.107564
    9 0.039887 -1.479790 0.029854 -1.451658 0.000000 0.000001
    10 0.028786 -1.075731 -0.023109 -0.870565 0.000000 0.000000
    11 0.250027 -2.820665 -0.238396 -0.916633 -0.083577 -0.024886
    12 -0.049759 -1.680544 0.100479 -1.550922 0.000000 -0.000002
    13 -0.034142 -1.148312 0.084782 -1.087281 0.000000 0.000000
    14 0.957766 -2.746780 -0.090302 -0.432127 -0.184437 0.072455
    15 -0.033420 -1.397129 -0.011257 -0.247860 0.000000 -0.000001
    16 -0.022360 -0.957436 0.018784 -0.956058 0.000000 0.000000
    17 -1.180681 -2.507217 -0.193859 -0.747365 0.130012 -0.054388
    18 -0.024967 -1.123934 0.017597 -1.414285 0.000000 0.000001
    19 -0.020057 -0.890968 0.010090 -0.846171 0.000000 0.000000
    20 0.583510 -1.197277 0.185379 0.631273 -1.323162 -0.918160
    21 1.535927 0.010246 0.005009 -0.124883 0.065220 -0.956793
    22 1.100771 0.004527 -0.010679 -0.014685 0.006877 -0.956472
    23 0.120153 -0.050270 -0.054489 0.287569 3.110905 1.561085
    24 -0.305926 -8.192288 -9.290629 -0.293852 -6.199694 0.576160
    25 0.096944 -8.450418 -0.009365 -0.098902 -0.036844 0.071180
    26 0.447953 -2.798986 -0.200443 -0.746893 -0.190644 0.074012
    27 -0.032909 -1.480204 0.004940 -0.491718 0.000000 0.000002
    28 -0.027022 -1.076920 -0.020210 -1.306864 0.000000 0.000000
    29 -0.249534 -2.846964 -0.174213 -0.305558 -0.040501 -0.085769
    30 0.043235 -1.683941 0.096012 -0.940134 0.002823 -0.000167
    31 0.031729 -1.160830 0.058838 -1.261903 0.000642 0.008372
    32 -0.963866 -2.785145 -0.085350 0.070006 0.162276 -0.191556
    33 0.028479 -1.403067 0.006271 -0.858676 0.000000 0.000000
    34 0.021413 -0.957781 0.020046 -0.432470 0.000000 0.000000
    35 1.164475 -2.543940 -0.170330 -0.514667 -0.282959 -0.086049
    36 0.024032 -1.129042 0.017807 -0.803451 0.000000 0.000001
    37 0.014898 -0.883989 -0.019848 -0.584392 0.000000 0.000000
    38 -0.586770 -1.264477 0.200161 -0.119695 -0.731399 -2.613436
    39 1.522835 0.058681 0.016848 -0.087276 -0.051738 0.379412
    40 1.117947 0.048424 -0.005766 -0.003814 -0.024910 0.208075
    41 -0.139399 -0.111698 0.014397 0.285382 -0.030687 1.580508
    42 -1.393470 8.839177 -0.239433 1.580804 -0.005023 -1.566847
  time 3
    0 0.000000 2.398511 0.000000 -0.022807 0.000000 0.000000
    1 6.210282 4.869267 -8.148848 -0.209396 -1.608800 0.169044
    2 -0.071918 -8.498730 -0.104136 0.013077 0.288362 0.148943
    3 1.066394 -2.853785 1.145319 -0.068397 0.250151 2.999456
    4 -0.138642 1.369231 -0.000001 0.000000 0.000000 0.005300
    5 -2.544339 6.190367 -0.177679 -1.570796 -1.570796 0.000000
    6 -0.956247 5.815759 -0.075912 0.000001 0.000000 0.000000
    7 1.257180 8.762585 -0.153713 -1.570562 0.002683 -1.566807
    8 -0.488518 -2.755602 -0.228260 -1.119640 -0.066262 -0.107564
    9 0.039887 -1.479790 0.029854 -1.451658 0.000000 0.000001
    10 0.028786 -1.075731 -0.023109 -0.870565 0.000000 0.000000
    11 0.250027 -2.820665 -0.238396 -0.916633 -0.083577 -0.024886
    12 -0.049759 -1.680544 0.100479 -1.550922 0.000000 -0.000002
    13 -0.034142 -1.148312 0.084782 -1.087313 0.000000 0.000000
    14 0.957766 -2.746780 -0.090302 -0.432127 -0.184437 0.072455
    15 -0.033420 -1.397129 -0.011257 -0.247860 0.000000 -0.000001
    16 -0.022360 -0.957436 0.018784 -0.956058 0.000000 0.000000
    17 -1.180681 -2.507217 -0.193859 -0.747365 0.130012 -0.054388
    18 -0.024967 -1.123934 0.017597 -1.414285 0.000000 0.000001
    19 -0.020057 -0.890968 0.010090 -0.846171 0.000000 0.000000
    20 0.583510 -1.197277 0.185379 0.631273 -1.323162 -0.918160
    21 1.535927 0.010246 0.005009 -0.124883 0.065220 -0.956793
    22 1.100771 0.004527 -0.010679 -0.014685 0.006877 -0.956472
    23 0.120153 -0.050270 -0.054489 0.287569 3.110905 1.561085
    24 -0.305926 -8.192288 -9.290629 -0.293852 -6.199694 0.576160
    25 0.096944 -8.450418 -0.009365 -0.098902 -0.036844 0.071180
    26 0.447953 -2.798986 -0.200443 -0.746893 -0.190644 0.074012
    27 -0.032909 -1.480204 0.004940 -0.491718 0.000000 0.000002
    28 -0.027022 -1.076920 -0.020210 -1.306864 0.000000 0.000000
    29 -0.249534 -2.846964 -0.174213 -0.305558 -0.040513 -0.085769
    30 0.043235 -1.683941 0.096012 -0.940134 0.002823 -0.000167
    31 0.031729 -1.160830 0.058838 -1.261903 0.000642 0.008372
    32 -0.963866 -2.785145 -0.085350 0.070006 0.162276 -0.191556
    33 0.028479 -1.403067 0.006271 -0.858676 0.000000 0.000000
    34 0.021413 -0.957781 0.020046 -0.432470 0.000000 0.000000
    35 1.164475 -2.543940 -0.170330 -0.514667 -0.282959 -0.086049
    36 0.024032 -1.129042 0.017807 -0.803451 0.000000 0.000001
    37 0.014898 -0.883989 -0.019848 -0.584392 0.000000 0.000000
    38 -0.586770 -1.264477 0.200161 -0.119695 -0.731399 -2.613436
    39 1.522835 0.058681 0.016848 -0.087276 -0.051738 0.379412
    40 1.117947 0.048424 -0.005766 -0.003814 -0.024910 0.208075
    41 -0.139399 -0.111698 0.014397 0.285382 -0.030687 1.580508
    42 -1.393470 8.839177 -0.239433 1.580804 -0.005023 -1.566847
  time 4
    0 0.000000 2.035218 0.000000 -0.038495 0.000000 0.000000
    1 6.210282 4.869267 -8.148848 -0.209396 -1.608800 0.169044
    2 -0.071918 -8.498730 -0.104136 0.013077 0.288362 0.148943
    3 1.066394 -2.853785 1.145319 -0.068397 0.250151 2.999456
    4 -0.138642 1.369231 -0.000001 0.000000 0.000000 0.005300
    5 -2.544339 6.190367 -0.177679 -1.570796 -1.570796 0.000000
    6 -0.956247 5.815759 -0.075912 0.000001 0.000000 0.000000
    7 1.257180 8.762585 -0.153713 -1.570562 0.002683 -1.566807
    8 -0.488518 -2.755602 -0.228260 -1.119640 -0.066262 -0.107564
    9 0.039887 -1.479790 0.029854 -1.451658 0.000000 0.000001
    10 0.028786 -1.075731 -0.023109 -0.870565 0.000000 0.000000
    11 0.250027 -2.820665 -0.238396 -0.916633 -0.083577 -0.024886
    12 -0.049759 -1.680544 0.100479 -1.550922 0.000000 -0.000002
    13 -0.034142 -1.148312 0.084782 -1.087281 0.000000 0.000000
    14 0.957766 -2.746780 -0.090302 -0.432127 -0.184437 0.072455
    15 -0.033420 -1.397129 -0.011257 -0.247860 0.000000 -0.000001
    16 -0.022360 -0.957436 0.018784 -0.956058 0.000000 0.000000
    17 -1.180681 -2.507217 -0.193859 -0.747365 0.130012 -0.054388
    18 -0.024967 -1.123934 0.017597 -1.414285 0.000000 0.000001
    19 -0.020057 -0.890968 0.010090 -0.846171 0.000000 0.000000
    20 0.583510 -1.197277 0.185379 0.631273 -1.323162 -0.918160
    21 1.535927 0.010246 0.005009 -0.124883 0.065220 -0.956793
    22 1.100771 0.004527 -0.010679 -0.014685 0.006877 -0.956472
    23 0.120153 -0.050270 -0.054489 0.287569 3.110905 1.561085
    24 -0.305926 -8.192288 -9.290629 -0.293852 -6.199694 0.576160
    25 0.096944 -8.450418 -0.009365 -0.098902 -0.036844 0.071180
    26 0.447953 -2.798986 -0.200443 -0.746893 -0.190644 0.074012
    27 -0.032909 -1.480204 0.004940 -0.491718 0.000000 0.000002
    28 -0.027022 -1.076920 -0.020210 -1.306864 0.000000 0.000000
    29 -0.249534 -2.846964 -0.174213 -0.305558 -0.040501 -0.085769
    30 0.043235 -1.683941 0.096012 -0.940134 0.002823 -0.000167
    31 0.031729 -1.160830 0.058838 -1.261903 0.000642 0.008372
    32 -0.963866 -2.785145 -0.085350 0.070006 0.162276 -0.191556
    33 0.028479 -1.403067 0.006271 -0.858676 0.000000 0.000000
    34 0.021413 -0.957781 0.020046 -0.432470 0.000000 0.000000
    35 1.164475 -2.543940 -0.170330 -0.514667 -0.282959 -0.086049
    36 0.024032 -1.129042 0.017807 -0.803451 0.000000 0.000001
    37 0.014898 -0.883989 -0.019848 -0.584392 0.000000 0.000000
    38 -0.586770 -1.264477 0.200161 -0.119695 -0.731399 -2.613436
    39 1.522835 0.058681 0.016848 -0.087276 -0.051738 0.379412
    40 1.117947 0.048424 -0.005766 -0.003814 -0.024910 0.208075
    41 -0.139399 -0.111698 0.014397 0.285382 -0.030687 1.580508
    42 -1.393470 8.839177 -0.239433 1.580804 -0.005023 -1.566847
  time 5
    0 0.000000 1.601611 0.000000 -0.045613 0.000000 0.000000
    1 6.210282 4.869267 -8.148848 -0.209396 -1.608800 0.169044
    2 -0.071918 -8.498730 -0.104136 0.013077 0.288362 0.148943
    3 1.066394 -2.853785 1.145319 -0.068397 0.250151 2.999456
    4 -0.138642 1.369231 -0.000001 0.000000 0.000000 0.005300
    5 -2.544339 6.190367 -0.177679 -1.570796 -1.570796 0.000000
    6 -0.956247 5.815759 -0.075912 0.000001 0.000000 0.000000
    7 1.257180 8.762585 -0.153713 -1.570562 0.002683 -1.566807
    8 -0.488518 -2.755602 -0.228260 -1.119640 -0.066262 -0.107564
    9 0.039887 -1.479790 0.029854 -1.451658 0.000000 0.000001
    10 0.028786 -1.075731 -0.023109 -0.870565 0.000000 0.000000
    11 0.250027 -2.820665 -0.238396 -0.916633 -0.083577 -0.024886
    12 -0.049759 -1.680544 0.100479 -1.550922 0.000000 -0.000002
    13 -0.034142 -1.148312 0.084782 -1.087281 0.000000 0.000000
    14 0.957766 -2.746780 -0.090302 -0.432127 -0.184437 0.072455
    15 -0.033420 -1.397129 -0.011257 -0.247860 0.000000 -0.000001
    16 -0.022360 -0.957436 0.018784 -0.956058 0.000000 0.000000
    17 -1.180681 -2.507217 -0.193859 -0.747365 0.130012 -0.054388
    18 -0.024967 -1.123934 0.017597 -1.414285 0.000000 0.000001
    19 -0.020057 -0.890968 0.010090 -0.846171 0.000000 0.000000
    20 0.583510 -1.197277 0.185379 0.631273 -1.323162 -0.918160
    21 1.535927 0.010246 0.005009 -0.124883 0.065220 -0.956793
    22 1.100771 0.004527 -0.010679 -0.014685 0.006877 -0.956472
    23 0.120153 -0.050270 -0.054489 0.287569 3.110905 1.561085
    24 -0.305926 -8.192288 -9.290629 -0.293852 -6.199694 0.576160
    25 0.096944 -8.450418 -0.009365 -0.098902 -0.036844 0.071180
    26 0.447953 -2.798986 -0.200443 -0.746893 -0.190644 0.074012
    27 -0.032909 -1.480204 0.004940 -0.491718 0.000000 0.000002
    28 -0.027022 -1.076920 -0.020210 -1.306864 0.000000 0.000000
    29 -0.249534 -2.846964 -0.174213 -0.305558 -0.040513 -0.085769
    30 0.043235 -1.683941 0.096012 -0.940134 0.002823 -0.000167
    31 0.031729 -1.160830 0.058838 -1.261903 0.000642 0.008372
    32 -0.963866 -2.785145 -0.085350 0.070006 0.162276 -0.191556
    33 0.028479 -1.403067 0.006271 -0.858676 0.000000 0.000000
    34 0.021413 -0.957781 0.020046 -0.432470 0.000000 0.000000
    35 1.164475 -2.543940 -0.170330 -0.514667 -0.282959 -0.086049
    36 0.024032 -1.129042 0.017807 -0.803451 0.000000 0.000001
    37 0.014898 -0.883989 -0.019848 -0.584392 0.000000 0.000000
    38 -0.586770 -1.264477 0.200161 -0.119695 -0.731399 -2.613436
    39 1.522835 0.058681 0.016848 -0.087276 -0.051738 0.379412
    40 1.117947 0.048424 -0.005766 -0.003814 -0.024910 0.208075
    41 -0.139399 -0.111698 0.014397 0.285382 -0.030687 1.580508
    42 -1.393470 8.839177 -0.239433 1.580804 -0.005023 -1.566847
  time 6
    0 0.000000 1.144566 0.000000 -0.040424 0.000000 0.000000
    1 6.210282 4.869267 -8.148848 -0.209396 -1.608800 0.169044
    2 -0.071918 -8.498730 -0.104136 0.013077 0.288362 0.148943
    3 1.066394 -2.853785 1.145319 -0.068397 0.250151 2.999456
    4 -0.138642 1.369231 -0.000001 0.000000 0.000000 0.005300
    5 -2.544339 6.190367 -0.177679 -1.570796 -1.570796 0.000000
    6 -0.956247 5.815759 -0.075912 0.000001 0.000000 0.000000
    7 1.257180 8.762585 -0.153713 -1.570562 0.002683 -1.566807
    8 -0.488518 -2.755602 -0.228260 -1.119640 -0.066262 -0.107564
    9 0.039887 -1.479790 0.029854 -1.451658 0.000000 0.000001
    10 0.028786 -1.075731 -0.023109 -0.870565 0.000000 0.000000
    11 0.250027 -2.820665 -0.238396 -0.916633 -0.083577 -0.024886
    12 -0.049759 -1.680544 0.100479 -1.550922 0.000000 -0.000002
    13 -0.034142 -1.148312 0.084782 -1.087281 0.000000 0.000000
    14 0.957766 -2.746780 -0.090302 -0.432127 -0.184437 0.072455
    15 -0.033420 -1.397129 -0.011257 -0.247860 0.000000 -0.000001
    16 -0.022360 -0.957436 0.018784 -0.956058 0.000000 0.000000
    17 -1.180681 -2.507217 -0.193859 -0.747365 0.130012 -0.054388
    18 -0.024967 -1.123934 0.017597 -1.414285 0.000000 0.000001
    19 -0.020057 -0.890968 0.010090 -0.846171 0.000000 0.000000
    20 0.583510 -1.197277 0.185379 0.631273 -1.323162 -0.918160
    21 1.535927 0.010246 0.005009 -0.124883 0.065220 -0.956793
    22 1.100771 0.004527 -0.010679 -0.014685 0.006877 -0.956472
    23 0.120153 -0.050270 -0.054489 0.287569 3.110905 1.561085
    24 -0.305926 -8.192288 -9.290629 -0.293852 -6.199694 0.576160
    25 0.096944 -8.450418 -0.009365 -0.098902 -0.036844 0.071180
    26 0.447953 -2.798986 -0.200443 -0.746893 -0.190644 0.074012
    27 -0.032909 -1.480204 0.004940 -0.491718 0.000000 0.000002
    28 -0.027022 -1.076920 -0.020210 -1.306864 0.000000 0.000000
    29 -0.249534 -2.846964 -0.174213 -0.305558 -0.040513 -0.085769
    30 0.043235 -1.683941 0.096012 -0.940134 0.002823 -0.000167
    31 0.031729 -1.160830 0.058838 -1.261903 0.000642 0.008372
    32 -0.963866 -2.785145 -0.085350 0.070006 0.162276 -0.191556
    33 0.028479 -1.403067 0.006271 -0.858676 0.000000 0.000000
    34 0.021413 -0.957781 0.020046 -0.432470 0.000000 0.000000
    35 1.164475 -2.543940 -0.170330 -0.514667 -0.282959 -0.086049
    36 0.024032 -1.129042 0.017807 -0.803451 0.000000 0.000001
    37 0.014898 -0.883989 -0.019848 -0.584392 0.000000 0.000000
    38 -0.586770 -1.264477 0.200161 -0.119695 -0.731399 -2.613436
    39 1.522835 0.058681 0.016848 -0.087276 -0.051738 0.379412
    40 1.117947 0.048424 -0.005766 -0.003814 -0.024910 0.208075
    41 -0.139399 -0.111698 0.014397 0.285382 -0.030687 1.580508
    42 -1.393470 8.839177 -0.239433 1.580804 -0.005023 -1.566847
  time 7
    0 0.000000 0.710959 0.000000 -0.027037 0.000000 0.000000
    1 6.210282 4.869267 -8.148848 -0.209396 -1.608800 0.169044
    2 -0.071918 -8.498730 -0.104136 0.013077 0.288362 0.148943
    3 1.066394 -2.853785 1.145319 -0.068397 0.250151 2.999456
    4 -0.138642 1.369231 -0.000001 0.000000 0.000000 0.005300
    5 -2.544339 6.190367 -0.177679 -1.570796 -1.570796 0.000000
    6 -0.956247 5.815759 -0.075912 0.000001 0.000000 0.000000
    7 1.257180 8.762585 -0.153713 -1.570562 0.002683 -1.566807
    8 -0.488518 -2.755602 -0.228260 -1.119640 -0.066262 -0.107564
    9 0.039887 -1.479790 0.029854 -1.451658 0.000000 0.000001
    10 0.028786 -1.075731 -0.023109 -0.870565 0.000000 0.000000
    11 0.250027 -2.820665 -0.238396 -0.916633 -0.083577 -0.024886
    12 -0.049759 -1.680544 0.100479 -1.550922 0.000000 -0.000002
    13 -0.034142 -1.148312 0.084782 -1.087281 0.000000 0.000000
    14 0.957766 -2.746780 -0.090302 -0.432127 -0.184437 0.072455
    15 -0.033420 -1.397129 -0.011257 -0.247860 0.000000 -0.000001
    16 -0.022360 -0.957436 0.018784 -0.956058 0.000000 0.000000
    17 -1.180681 -2.507217 -0.193859 -0.747365 0.130012 -0.054388
    18 -0.024967 -1.123934 0.017597 -1.414285 0.000000 0.000001
    19 -0.020057 -0.890968 0.010090 -0.846171 0.000000 0.000000
    20 0.583510 -1.197277 0.185379 0.631273 -1.323162 -0.918177
    21 1.535927 0.010246 0.005009 -0.124883 0.065220 -0.956793
    22 1.100771 0.004527 -0.010679 -0.014685 0.006877 -0.956472
    23 0.120153 -0.050270 -0.054489 0.287569 3.110905 1.561085
    24 -0.305926 -8.192288 -9.290629 -0.293852 -6.199694 0.576160
    25 0.096944 -8.450418 -0.009365 -0.098902 -0.036844 0.071180
    26 0.447953 -2.798986 -0.200443 -0.746893 -0.190644 0.074012
    27 -0.032909 -1.480204 0.004940 -0.491718 0.000000 0.000002
    28 -0.027022 -1.076920 -0.020210 -1.306864 0.000000 0.000000
    29 -0.249534 -2.846964 -0.174213 -0.305558 -0.040501 -0.085769
    30 0.043235 -1.683941 0.096012 -0.940134 0.002823 -0.000167
    31 0.031729 -1.160830 0.058838 -1.261903 0.000642 0.008372
    32 -0.963866 -2.785145 -0.085350 0.070006 0.162276 -0.191556
    33 0.028479 -1.403067 0.006271 -0.858676 0.000000 0.000000
    34 0.021413 -0.957781 0.020046 -0.432470 0.000000 0.000000
    35 1.164475 -2.543940 -0.170330 -0.514667 -0.282959 -0.086049
    36 0.024032 -1.129042 0.017807 -0.803451 0.000000 0.000001
    37 0.014898 -0.883989 -0.019848 -0.584392 0.000000 0.000000
    38 -0.586770 -1.264477 0.200161 -0.119695 -0.731399 -2.613436
    39 1.522835 0.058681 0.016848 -0.087276 -0.051738 0.379412
    40 1.117947 0.048424 -0.005766 -0.003814 -0.024910 0.208075
    41 -0.139399 -0.111698 0.014397 0.285382 -0.030687 1.580508
    42 -1.393470 8.839177 -0.239433 1.580804 -0.005023 -1.566847
  time 8
    0 0.000000 0.343760 0.000000 -0.008713 0.000000 0.000000
    1 6.210282 4.869267 -8.148848 -0.209396 -1.608800 0.169044
    2 -0.071918 -8.498730 -0.104136 0.013077 0.288362 0.148943
    3 1.066394 -2.853785 1.145319 -0.068397 0.250151 2.999456
    4 -0.138642 1.369231 -0.000001 0.000000 0.000000 0.005300
    5 -2.544339 6.190367 -0.177679 -1.570796 -1.570796 0.000000
    6 -0.956247 5.815759 -0.075912 0.000001 0.000000 0.000000
    7 1.257180 8.762585 -0.153713 -1.570562 0.002683 -1.566807
    8 -0.488518 -2.755602 -0.228260 -1.119640 -0.066262 -0.107564
    9 0.039887 -1.479790 0.029854 -1.451658 0.000000 0.000001
    10 0.028786 -1.075731 -0.023109 -0.870565 0.000000 0.000000
    11 0.250027 -2.820665 -0.238396 -0.916633 -0.083577 -0.024886
    12 -0.049759 -1.680544 0.100479 -1.550922 0.000000 -0.000002
    13 -0.034142 -1.148312 0.084782 -1.087281 0.000000 0.000000
    14 0.957766 -2.746780 -0.090302 -0.432127 -0.184437 0.072455
    15 -0.033420 -1.397129 -0.011257 -0.247860 0.000000 -0.000001
    16 -0.022360 -0.957436 0.018784 -0.956058 0.000000 0.000000
    17 -1.180681 -2.507217 -0.193859 -0.747365 0.130012 -0.054388
    18 -0.024967 -1.123934 0.017597 -1.414285 0.000000 0.000001
    19 -0.020057 -0.890968 0.010090 -0.846171 0.000000 0.000000
    20 0.583510 -1.197277 0.185379 0.631273 -1.323162 -0.918160
    21 1.535927 0.010246 0.005009 -0.124883 0.065220 -0.956793
    22 1.100771 0.004527 -0.010679 -0.014685 0.006877 -0.956472
    23 0.120153 -0.050270 -0.054489 0.287569 3.110905 1.561085
    24 -0.305926 -8.192288 -9.290629 -0.293852 -6.199694 0.576160
    25 0.096944 -8.450418 -0.009365 -0.098902 -0.036844 0.071180
    26 0.447953 -2.798986 -0.200443 -0.746893 -0.190644 0.074012
    27 -0.032909 -1.480204 0.004940 -0.491718 0.000000 0.000002
    28 -0.027022 -1.076920 -0.020210 -1.306864 0.000000 0.000000
    29 -0.249534 -2.846964 -0.174213 -0.305558 -0.040501 -0.085769
    30 0.043235 -1.683941 0.096012 -0.940134 0.002823 -0.000167
    31 0.031729 -1.160830 0.058838 -1.261903 0.000642 0.008372
    32 -0.963866 -2.785145 -0.085350 0.070006 0.162276 -0.191556
    33 0.028479 -1.403067 0.006271 -0.858676 0.000000 0.000000
    34 0.021413 -0.957781 0.020046 -0.432470 0.000000 0.000000
    35 1.164475 -2.543940 -0.170330 -0.514667 -0.282959 -0.086049
    36 0.024032 -1.129042 0.017807 -0.803451 0.000000 0.000001
    37 0.014898 -0.883989 -0.019848 -0.584392 0.000000 0.000000
    38 -0.586770 -1.264477 0.200161 -0.119695 -0.731399 -2.613436
    39 1.522835 0.058681 0.016848 -0.087276 -0.051738 0.379412
    40 1.117947 0.048424 -0.005766 -0.003814 -0.024910 0.208075
    41 -0.139399 -0.111698 0.014397 0.285382 -0.030687 1.580508
    42 -1.393470 8.839177 -0.239433 1.580804 -0.005023 -1.566847
  time 9
    0 0.000000 0.093753 0.000000 0.011230 0.000000 0.000000
    1 6.210282 4.869267 -8.148848 -0.209396 -1.608800 0.169044
    2 -0.071918 -8.498730 -0.104136 0.013077 0.288362 0.148943
    3 1.066394 -2.853785 1.145319 -0.068397 0.250151 2.999456
    4 -0.138642 1.369231 -0.000001 0.000000 0.000000 0.005300
    5 -2.544339 6.190367 -0.177679 -1.570796 -1.570796 0.000000
    6 -0.956247 5.815759 -0.075912 0.000001 0.000000 0.000000
    7 1.257180 8.762585 -0.153713 -1.570562 0.002683 -1.566807
    8 -0.488518 -2.755602 -0.228260 -1.119640 -0.066262 -0.107564
    9 0.039887 -1.479790 0.029854 -1.451658 0.000000 0.000001
    10 0.028786 -1.075731 -0.023109 -0.870565 0.000000 0.000000
    11 0.250027 -2.820665 -0.238396 -0.916633 -0.083577 -0.024886
    12 -0.049759 -1.680544 0.100479 -1.550922 0.000000 -0.000002
    13 -0.034142 -1.148312 0.084782 -1.087281 0.000000 0.000000
    14 0.957766 -2.746780 -0.090302 -0.432127 -0.184437 0.072455
    15 -0.033420 -1.397129 -0.011257 -0.247860 0.000000 -0.000001
    16 -0.022360 -0.957436 0.018784 -0.956058 0.000000 0.000000
    17 -1.180681 -2.507217 -0.193859 -0.747365 0.130012 -0.054388
    18 -0.024967 -1.123934 0.017597 -1.414285 0.000000 0.000001
    19 -0.020057 -0.890968 0.010090 -0.846171 0.000000 0.000000
    20 0.583510 -1.197277 0.185379 0.631273 -1.323162 -0.918160
    21 1.535927 0.010246 0.005009 -0.124883 0.065220 -0.956793
    22 1.100771 0.004527 -0.010679 -0.014685 0.006877 -0.956472
    23 0.120153 -0.050270 -0.054489 0.287569 3.110905 1.561085
    24 -0.305926 -8.192288 -9.290629 -0.293852 -6.199694 0.576160
    25 0.096944 -8.450418 -0.009365 -0.098902 -0.036844 0.071180
    26 0.447953 -2.798986 -0.200443 -0.746893 -0.190644 0.074012
    27 -0.032909 -1.480204 0.004940 -0.491718 0.000000 0.000002
    28 -0.027022 -1.076920 -0.020210 -1.306864 0.000000 0.000000
    29 -0.249534 -2.846964 -0.174213 -0.305558 -0.040501 -0.085769
    30 0.043235 -1.683941 0.096012 -0.940134 0.002823 -0.000167
    31 0.031729 -1.160830 0.058838 -1.261903 0.000642 0.008372
    32 -0.963866 -2.785145 -0.085350 0.070006 0.162276 -0.191556
    33 0.028479 -1.403067 0.006271 -0.858676 0.000000 0.000000
    34 0.021413 -0.957781 0.020046 -0.432470 0.000000 0.000000
    35 1.164475 -2.543940 -0.170330 -0.514667 -0.282959 -0.086049
    36 0.024032 -1.129042 0.017807 -0.803451 0.000000 0.000001
    37 0.014898 -0.883989 -0.019848 -0.584392 0.000000 0.000000
    38 -0.586770 -1.264477 0.200161 -0.119695 -0.731399 -2.613436
    39 1.522835 0.058681 0.016848 -0.087276 -0.051738 0.379412
    40 1.117947 0.048424 -0.005766 -0.003814 -0.024910 0.208075
    41 -0.139399 -0.111698 0.014397 0.285382 -0.030687 1.580508
    42 -1.393470 8.839177 -0.239433 1.580804 -0.005023 -1.566847
  time 10
    0 0.000000 0.000000 0.000000 0.029542 0.000000 0.000000
    1 6.210282 4.869267 -8.148848 -0.209396 -1.608800 0.169044
    2 -0.071918 -8.498730 -0.104136 0.013077 0.288362 0.148943
    3 1.066394 -2.853785 1.145319 -0.068397 0.250151 2.999456
    4 -0.138642 1.369231 -0.000001 0.000000 0.000000 0.005300
    5 -2.544339 6.190367 -0.177679 -1.570796 -1.570796 0.000000
    6 -0.956247 5.815759 -0.075912 0.000001 0.000000 0.000000
    7 1.257180 8.762585 -0.153713 -1.570562 0.002683 -1.566807
    8 -0.488518 -2.755602 -0.228260 -1.119640 -0.066262 -0.107564
    9 0.039887 -1.479790 0.029854 -1.451658 0.000000 0.000001
    10 0.028786 -1.075731 -0.023109 -0.870565 0.000000 0.000000
    11 0.250027 -2.820665 -0.238396 -0.916633 -0.083577 -0.024886
    12 -0.049759 -1.680544 0.100479 -1.550922 0.000000 -0.000002
    13 -0.034142 -1.148312 0.084782 -1.087313 0.000000 0.000000
    14 0.957766 -2.746780 -0.090302 -0.432127 -0.184437 0.072455
    15 -0.033420 -1.397129 -0.011257 -0.247860 0.000000 -0.000001
    16 -0.022360 -0.957436 0.018784 -0.956058 0.000000 0.000000
    17 -1.180681 -2.507217 -0.193859 -0.747365 0.130012 -0.054388
    18 -0.024967 -1.123934 0.017597 -1.414285 0.000000 0.000001
    19 -0.020057 -0.890968 0.010090 -0.846171 0.000000 0.000000
    20 0.583510 -1.197277 0.185379 0.631273 -1.323162 -0.918160
    21 1.535927 0.010246 0.005009 -0.124883 0.065220 -0.956793
    22 1.100771 0.004527 -0.010679 -0.014685 0.006877 -0.956472
    23 0.120153 -0.050270 -0.054489 0.287569 3.110905 1.561085
    24 -0.305926 -8.192288 -9.290629 -0.293852 -6.199694 0.576160
    25 0.096944 -8.450418 -0.009365 -0.098902 -0.036844 0.071180
    26 0.447953 -2.798986 -0.200443 -0.746893 -0.190644 0.074012
    27 -0.032909 -1.480204 0.004940 -0.491718 0.000000 0.000002
    28 -0.027022 -1.076920 -0.020210 -1.306864 0.000000 0.000000
    29 -0.249534 -2.846964 -0.174213 -0.305558 -0.040501 -0.085769
    30 0.043235 -1.683941 0.096012 -0.940134 0.002823 -0.000167
    31 0.031729 -1.160830 0.058838 -1.261903 0.000642 0.008372
    32 -0.963866 -2.785145 -0.085350 0.070006 0.162276 -0.191556
    33 0.028479 -1.403067 0.006271 -0.858676 0.000000 0.000000
    34 0.021413 -0.957781 0.020046 -0.432470 0.000000 0.000000
    35 1.164475 -2.543940 -0.170330 -0.514667 -0.282959 -0.086049
    36 0.024032 -1.129042 0.017807 -0.803451 0.000000 0.000001
    37 0.014898 -0.883989 -0.019848 -0.584392 0.000000 0.000000
    38 -0.586770 -1.264477 0.200161 -0.119695 -0.731399 -2.613436
    39 1.522835 0.058681 0.016848 -0.087276 -0.051738 0.379412
    40 1.117947 0.048424 -0.005766 -0.003814 -0.024910 0.208075
    41 -0.139399 -0.111698 0.014397 0.285382 -0.030687 1.580508
    42 -1.393470 8.839177 -0.239433 1.580804 -0.005023 -1.566847
  time 11
    0 0.000000 0.000000 -0.003906 0.042929 0.000000 0.000000
    1 6.210282 4.869267 -8.148848 -0.209396 -1.608800 0.169044
    2 -0.071918 -8.498730 -0.104136 0.013077 0.288362 0.148943
    3 1.066394 -2.853785 1.145319 -0.068397 0.250151 2.999456
    4 -0.138642 1.369231 -0.000001 0.000000 0.000000 0.005300
    5 -2.544339 6.190367 -0.177679 -1.570796 -1.570796 0.000000
    6 -0.956247 5.815759 -0.075912 0.000001 0.000000 0.000000
    7 1.257180 8.762585 -0.153713 -1.570562 0.002683 -1.566807
    8 -0.488518 -2.755602 -0.228260 -1.119640 -0.066262 -0.107564
    9 0.039887 -1.479790 0.029854 -1.451658 0.000000 0.000001
    10 0.028786 -1.075731 -0.023109 -0.870565 0.000000 0.000000
    11 0.250027 -2.820665 -0.238396 -0.916633 -0.083577 -0.024886
    12 -0.049759 -1.680544 0.100479 -1.550922 0.000000 -0.000002
    13 -0.034142 -1.148312 0.084782 -1.087281 0.000000 0.000000
    14 0.957766 -2.746780 -0.090302 -0.432127 -0.184437 0.072455
    15 -0.033420 -1.397129 -0.011257 -0.247860 0.000000 -0.000001
    16 -0.022360 -0.957436 0.018784 -0.956058 0.000000 0.000000
    17 -1.180681 -2.507217 -0.193859 -0.747365 0.130012 -0.054388
    18 -0.024967 -1.123934 0.017597 -1.414285 0.000000 0.000001
    19 -0.020057 -0.890968 0.010090 -0.846171 0.000000 0.000000
    20 0.583510 -1.197277 0.185379 0.631273 -1.323162 -0.918160
    21 1.535927 0.010246 0.005009 -0.124883 0.065220 -0.956793
    22 1.100771 0.004527 -0.010679 -0.014685 0.006877 -0.956472
    23 0.120153 -0.050270 -0.054489 0.287569 3.110905 1.561085
    24 -0.305926 -8.192288 -9.290629 -0.293852 -6.199694 0.576160
    25 0.096944 -8.450418 -0.009365 -0.098902 -0.036844 0.071180
    26 0.447953 -2.798986 -0.200443 -0.746893 -0.190644 0.074012
    27 -0.032909 -1.480204 0.004940 -0.491718 0.000000 0.000002
    28 -0.027022 -1.076920 -0.020210 -1.306864 0.000000 0.000000
    29 -0.249534 -2.846964 -0.174213 -0.305558 -0.040513 -0.085769
    30 0.043235 -1.683941 0.096012 -0.940134 0.002823 -0.000167
    31 0.031729 -1.160830 0.058838 -1.261903 0.000642 0.008372
    32 -0.963866 -2.785145 -0.085350 0.070006 0.162276 -0.191556
    33 0.028479 -1.403067 0.006271 -0.858676 0.000000 0.000000
    34 0.021413 -0.957781 0.020046 -0.432470 0.000000 0.000000
    35 1.164475 -2.543940 -0.170330 -0.514667 -0.282959 -0.086049
    36 0.024032 -1.129042 0.017807 -0.803451 0.000000 0.000001
    37 0.014898 -0.883989 -0.019848 -0.584392 0.000000 0.000000
    38 -0.586770 -1.264477 0.200161 -0.119695 -0.731399 -2.613436
    39 1.522835 0.058681 0.016848 -0.087276 -0.051738 0.379412
    40 1.117947 0.048424 -0.005766 -0.003814 -0.024910 0.208075
    41 -0.139399 -0.111698 0.014397 0.285382 -0.030687 1.580508
    42 -1.393470 8.839177 -0.239433 1.580804 -0.005023 -1.566847
  time 12
    0 0.000000 0.000000 -0.019532 0.048130 0.000000 0.000000
    1 6.210282 4.869267 -8.148848 -0.209396 -1.608800 0.169044
    2 -0.071918 -8.498730 -0.104136 0.013077 0.288362 0.148943
    3 1.066394 -2.853785 1.145319 -0.068397 0.250151 2.999456
    4 -0.138642 1.369231 -0.000001 0.000000 0.000000 0.005300
    5 -2.544339 6.190367 -0.177679 -1.570796 -1.570796 0.000000
    6 -0.956247 5.815759 -0.075912 0.000001 0.000000 0.000000
    7 1.257180 8.762585 -0.153713 -1.570562 0.002683 -1.566807
    8 -0.488518 -2.755602 -0.228260 -1.119640 -0.066262 -0.107564
    9 0.039887 -1.479790 0.029854 -1.451658 0.000000 0.000001
    10 0.028786 -1.075731 -0.023109 -0.870565 0.000000 0.000000
    11 0.250027 -2.820665 -0.238396 -0.916633 -0.083577 -0.024886
    12 -0.049759 -1.680544 0.100479 -1.550922 0.000000 -0.000002
    13 -0.034142 -1.148312 0.084782 -1.087281 0.000000 0.000000
    14 0.957766 -2.746780 -0.090302 -0.432127 -0.184437 0.072455
    15 -0.033420 -1.397129 -0.011257 -0.247860 0.000000 -0.000001
    16 -0.022360 -0.957436 0.018784 -0.956058 0.000000 0.000000
    17 -1.180681 -2.507217 -0.193859 -0.747365 0.130012 -0.054388
    18 -0.024967 -1.123934 0.017597 -1.414285 0.000000 0.000001
    19 -0.020057 -0.890968 0.010090 -0.846171 0.000000 0.000000
    20 0.583510 -1.197277 0.185379 0.631273 -1.323162 -0.918160
    21 1.535927 0.010246 0.005009 -0.124883 0.065220 -0.956793
    22 1.100771 0.004527 -0.010679 -0.014685 0.006877 -0.956472
    23 0.120153 -0.050270 -0.054489 0.287569 3.110905 1.561085
    24 -0.305926 -8.192288 -9.290629 -0.293852 -6.199694 0.576160
    25 0.096944 -8.450418 -0.009365 -0.098902 -0.036844 0.071180
    26 0.447953 -2.798986 -0.200443 -0.746893 -0.190644 0.074012
    27 -0.032909 -1.480204 0.004940 -0.491718 0.000000 0.000002
    28 -0.027022 -1.076920 -0.020210 -1.306864 0.000000 0.000000
    29 -0.249534 -2.846964 -0.174213 -0.305558 -0.040501 -0.085769
    30 0.043235 -1.683941 0.096012 -0.940134 0.002823 -0.000167
    31 0.031729 -1.160830 0.058838 -1.261903 0.000642 0.008372
    32 -0.963866 -2.785145 -0.085350 0.070006 0.162276 -0.191556
    33 0.028479 -1.403067 0.006271 -0.858676 0.000000 0.000000
    34 0.021413 -0.957781 0.020046 -0.432470 0.000000 0.000000
    35 1.164475 -2.543940 -0.170330 -0.514667 -0.282959 -0.086049
    36 0.024032 -1.129042 0.017807 -0.803451 0.000000 0.000001
    37 0.014898 -0.883989 -0.019848 -0.584392 0.000000 0.000000
    38 -0.586770 -1.264477 0.200161 -0.119695 -0.731399 -2.613436
    39 1.522835 0.058681 0.016848 -0.087276 -0.051738 0.379412
    40 1.117947 0.048424 -0.005766 -0.003814 -0.024910 0.208075
    41 -0.139399 -0.111698 0.014397 0.285382 -0.030687 1.580508
    42 -1.393470 8.839177 -0.239433 1.580804 -0.005023 -1.566847
  time 13
    0 0.000000 0.000000 -0.042970 0.045865 0.000000 0.000000
    1 6.210282 4.869267 -8.148848 -0.209396 -1.608800 0.169044
    2 -0.071918 -8.498730 -0.104136 0.013077 0.288362 0.148943
    3 1.066394 -2.853785 1.145319 -0.068397 0.250151 2.999456
    4 -0.138642 1.369231 -0.000001 0.000000 0.000000 0.005300
    5 -2.544339 6.190367 -0.177679 -1.570796 -1.570796 0.000000
    6 -0.956247 5.815759 -0.075912 0.000001 0.000000 0.000000
    7 1.257180 8.762585 -0.153713 -1.570562 0.002683 -1.566807
    8 -0.488518 -2.755602 -0.228260 -1.119640 -0.066262 -0.107564
    9 0.039887 -1.479790 0.029854 -1.451658 0.000000 0.000001
    10 0.028786 -1.075731 -0.023109 -0.870565 0.000000 0.000000
    11 0.250027 -2.820665 -0.238396 -0.916633 -0.083577 -0.024886
    12 -0.049759 -1.680544 0.100479 -1.550922 0.000000 -0.000002
    13 -0.034142 -1.148312 0.084782 -1.087281 0.000000 0.000000
    14 0.957766 -2.746780 -0.090302 -0.432127 -0.184437 0.072455
    15 -0.033420 -1.397129 -0.011257 -0.247860 0.000000 -0.000001
    16 -0.022360 -0.957436 0.018784 -0.956058 0.000000 0.000000
    17 -1.180681 -2.507217 -0.193859 -0.747365 0.130012 -0.054388
    18 -0.024967 -1.123934 0.017597 -1.414285 0.000000 0.000001
    19 -0.020057 -0.890968 0.010090 -0.846171 0.000000 0.000000
    20 0.583510 -1.197277 0.185379 0.631273 -1.323162 -0.918160
    21 1.535927 0.010246 0.005009 -0.124883 0.065220 -0.956793
    22 1.100771 0.004527 -0.010679 -0.014685 0.006877 -0.956472
    23 0.120153 -0.050270 -0.054489 0.287569 3.110905 1.561085
    24 -0.305926 -8.192288 -9.290629 -0.293852 -6.199694 0.576160
    25 0.096944 -8.450418 -0.009365 -0.098902 -0.036844 0.071180
    26 0.447953 -2.798986 -0.200443 -0.746893 -0.190644 0.074012
    27 -0.032909 -1.480204 0.004940 -0.491718 0.000000 0.000002
    28 -0.027022 -1.076920 -0.020210 -1.306864 0.000000 0.000000
    29 -0.249534 -2.846964 -0.174213 -0.305558 -0.040513 -0.085769
    30 0.043235 -1.683941 0.096012 -0.940134 0.002823 -0.000167
    31 0.031729 -1.160830 0.058838 -1.261903 0.000642 0.008372
    32 -0.963866 -2.785145 -0.085350 0.070006 0.162276 -0.191556
    33 0.028479 -1.403067 0.006271 -0.858676 0.000000 0.000000
    34 0.021413 -0.957781 0.020046 -0.432470 0.000000 0.000000
    35 1.164475 -2.543940 -0.170330 -0.514667 -0.282959 -0.086049
    36 0.024032 -1.129042 0.017807 -0.803451 0.000000 0.000001
    37 0.014898 -0.883989 -0.019848 -0.584392 0.000000 0.000000
    38 -0.586770 -1.264477 0.200161 -0.119695 -0.731399 -2.613436
    39 1.522835 0.058681 0.016848 -0.087276 -0.051738 0.379412
    40 1.117947 0.048424 -0.005766 -0.003814 -0.024910 0.208075
    41 -0.139399 -0.111698 0.014397 0.285382 -0.030687 1.580508
    42 -1.393470 8.839177 -0.239433 1.580804 -0.005023 -1.566847
  time 14
    0 0.000000 0.000000 -0.066408 0.039921 0.000000 0.000000
    1 6.210282 4.869267 -8.148848 -0.209396 -1.608800 0.169044
    2 -0.071918 -8.498730 -0.104136 0.013077 0.288362 0.148943
    3 1.066394 -2.853785 1.145319 -0.068397 0.250151 2.999456
    4 -0.138642 1.369231 -0.000001 0.000000 0.000000 0.005300
    5 -2.544339 6.190367 -0.177679 -1.570796 -1.570796 0.000000
    6 -0.956247 5.815759 -0.075912 0.000001 0.000000 0.000000
    7 1.257180 8.762585 -0.153713 -1.570562 0.002683 -1.566807
    8 -0.488518 -2.755602 -0.228260 -1.119640 -0.066262 -0.107564
    9 0.039887 -1.479790 0.029854 -1.451658 0.000000 0.000001
    10 0.028786 -1.075731 -0.023109 -0.870565 0.000000 0.000000
    11 0.250027 -2.820665 -0.238396 -0.916633 -0.083577 -0.024886
    12 -0.049759 -1.680544 0.100479 -1.550922 0.000000 -0.000002
    13 -0.034142 -1.148312 0.084782 -1.087281 0.000000 0.000000
    14 0.957766 -2.746780 -0.090302 -0.432127 -0.184437 0.072455
    15 -0.033420 -1.397129 -0.011257 -0.247860 0.000000 -0.000001
    16 -0.022360 -0.957436 0.018784 -0.956058 0.000000 0.000000
    17 -1.180681 -2.507217 -0.193859 -0.747365 0.130012 -0.054388
    18 -0.024967 -1.123934 0.017597 -1.414285 0.000000 0.000001
    19 -0.020057 -0.890968 0.010090 -0.846171 0.000000 0.000000
    20 0.583510 -1.197277 0.185379 0.631273 -1.323162 -0.918160
    21 1.535927 0.010246 0.005009 -0.124883 0.065220 -0.956793
    22 1.100771 0.004527 -0.010679 -0.014685 0.006877 -0.956472
    23 0.120153 -0.050270 -0.054489 0.287569 3.110905 1.561085
    24 -0.305926 -8.192288 -9.290629 -0.293852 -6.199694 0.576160
    25 0.096944 -8.450418 -0.009365 -0.098902 -0.036844 0.071180
    26 0.447953 -2.798986 -0.200443 -0.746893 -0.190644 0.074012
    27 -0.032909 -1.480204 0.004940 -0.491718 0.000000 0.000002
    28 -0.027022 -1.076920 -0.020210 -1.306864 0.000000 0.000000
    29 -0.249534 -2.846964 -0.174213 -0.305558 -0.040513 -0.085769
    30 0.043235 -1.683941 0.096012 -0.940134 0.002823 -0.000167
    31 0.031729 -1.160830 0.058838 -1.261903 0.000642 0.008372
    32 -0.963866 -2.785145 -0.085350 0.070006 0.162276 -0.191556
    33 0.028479 -1.403067 0.006271 -0.858676 0.000000 0.000000
    34 0.021413 -0.957781 0.020046 -0.432470 0.000000 0.000000
    35 1.164475 -2.543940 -0.170330 -0.514667 -0.282959 -0.086049
    36 0.024032 -1.129042 0.017807 -0.803451 0.000000 0.000001
    37 0.014898 -0.883989 -0.019848 -0.584392 0.000000 0.000000
    38 -0.586770 -1.264477 0.200161 -0.119695 -0.731399 -2.613436
    39 1.522835 0.058681 0.016848 -0.087276 -0.051738 0.379412
    40 1.117947 0.048424 -0.005766 -0.003814 -0.024910 0.208075
    41 -0.139399 -0.111698 0.014397 0.285382 -0.030687 1.580508
    42 -1.393470 8.839177 -0.239433 1.580804 -0.005023 -1.566847
  time 15
    0 0.000000 0.000000 -0.089846 0.031507 0.000000 0.000000
    1 6.210282 4.869267 -8.148848 -0.209396 -1.608800 0.169044
    2 -0.071918 -8.498730 -0.104136 0.013077 0.288362 0.148943
    3 1.066394 -2.853785 1.145319 -0.068397 0.250151 2.999456
    4 -0.138642 1.369231 -0.000001 0.000000 0.000000 0.005300
    5 -2.544339 6.190367 -0.177679 -1.570796 -1.570796 0.000000
    6 -0.956247 5.815759 -0.075912 0.000001 0.000000 0.000000
    7 1.257180 8.762585 -0.153713 -1.570562 0.002683 -1.566807
    8 -0.488518 -2.755602 -0.228260 -1.119640 -0.066262 -0.107564
    9 0.039887 -1.479790 0.029854 -1.451658 0.000000 0.000001
    10 0.028786 -1.075731 -0.023109 -0.870565 0.000000 0.000000
    11 0.250027 -2.820665 -0.238396 -0.916633 -0.083577 -0.024886
    12 -0.049759 -1.680544 0.100479 -1.550922 0.000000 -0.000002
    13 -0.034142 -1.148312 0.084782 -1.087281 0.000000 0.000000
    14 0.957766 -2.746780 -0.090302 -0.432127 -0.184437 0.072455
    15 -0.033420 -1.397129 -0.011257 -0.247860 0.000000 -0.000001
    16 -0.022360 -0.957436 0.018784 -0.956058 0.000000 0.000000
    17 -1.180681 -2.507217 -0.193859 -0.747365 0.130012 -0.054388
    18 -0.024967 -1.123934 0.017597 -1.414285 0.000000 0.000001
    19 -0.020057 -0.890968 0.010090 -0.846171 0.000000 0.000000
    20 0.583510 -1.197277 0.185379 0.631273 -1.323162 -0.918160
    21 1.535927 0.010246 0.005009 -0.124883 0.065220 -0.956793
    22 1.100771 0.004527 -0.010679 -0.014685 0.006877 -0.956472
    23 0.120153 -0.050270 -0.054489 0.287569 3.110905 1.561085
    24 -0.305926 -8.192288 -9.290629 -0.293852 -6.199694 0.576160
    25 0.096944 -8.450418 -0.009365 -0.098902 -0.036844 0.071180
    26 0.447953 -2.798986 -0.200443 -0.746893 -0.190644 0.074012
    27 -0.032909 -1.480204 0.004940 -0.491718 0.000000 0.000002
    28 -0.027022 -1.076920 -0.020210 -1.306864 0.000000 0.000000
    29 -0.249534 -2.846964 -0.174213 -0.305558 -0.040501 -0.085769
    30 0.043235 -1.683941 0.096012 -0.940134 0.002823 -0.000167
    31 0.031729 -1.160830 0.058838 -1.261903 0.000642 0.008372
    32 -0.963866 -2.785145 -0.085350 0.070006 0.162276 -0.191556
    33 0.028479 -1.403067 0.006271 -0.858676 0.000000 0.000000
    34 0.021413 -0.957781 0.020046 -0.432470 0.000000 0.000000
    35 1.164475 -2.543940 -0.170330 -0.514667 -0.282959 -0.086049
    36 0.024032 -1.129042 0.017807 -0.803451 0.000000 0.000001
    37 0.014898 -0.883989 -0.019848 -0.584392 0.000000 0.000000
    38 -0.586770 -1.264477 0.200161 -0.119695 -0.731399 -2.613436
    39 1.522835 0.058681 0.016848 -0.087276 -0.051738 0.379412
    40 1.117947 0.048424 -0.005766 -0.003814 -0.024910 0.208075
    41 -0.139399 -0.111698 0.014397 0.285382 -0.030687 1.580508
    42 -1.393470 8.839177 -0.239433 1.580804 -0.005023 -1.566847
  time 16
    0 0.000000 0.000000 -0.105472 0.021860 0.000000 0.000000
    1 6.210282 4.869267 -8.148848 -0.209396 -1.608800 0.169044
    2 -0.071918 -8.498730 -0.104136 0.013077 0.288362 0.148943
    3 1.066394 -2.853785 1.145319 -0.068397 0.250151 2.999456
    4 -0.138642 1.369231 -0.000001 0.000000 0.000000 0.005300
    5 -2.544339 6.190367 -0.177679 -1.570796 -1.570796 0.000000
    6 -0.956247 5.815759 -0.075912 0.000001 0.000000 0.000000
    7 1.257180 8.762585 -0.153713 -1.570562 0.002683 -1.566807
    8 -0.488518 -2.755602 -0.228260 -1.119640 -0.066262 -0.107564
    9 0.039887 -1.479790 0.029854 -1.451658 0.000000 0.000001
    10 0.028786 -1.075731 -0.023109 -0.870565 0.000000 0.000000
    11 0.250027 -2.820665 -0.238396 -0.916633 -0.083577 -0.024886
    12 -0.049759 -1.680544 0.100479 -1.550922 0.000000 -0.000002
    13 -0.034142 -1.148312 0.084782 -1.087281 0.000000 0.000000
    14 0.957766 -2.746780 -0.090302 -0.432127 -0.184437 0.072455
    15 -0.033420 -1.397129 -0.011257 -0.247860 0.000000 -0.000001
    16 -0.022360 -0.957436 0.018784 -0.956058 0.000000 0.000000
    17 -1.180681 -2.507217 -0.193859 -0.747365 0.130012 -0.054388
    18 -0.024967 -1.123934 0.017597 -1.414285 0.000000 0.000001
    19 -0.020057 -0.890968 0.010090 -0.846171 0.000000 0.000000
    20 0.583510 -1.197277 0.185379 0.631273 -1.323162 -0.918160
    21 1.535927 0.010246 0.005009 -0.124883 0.065220 -0.956793
    22 1.100771 0.004527 -0.010679 -0.014685 0.006877 -0.956472
    23 0.120153 -0.050270 -0.054489 0.287569 3.110905 1.561085
    24 -0.305926 -8.192288 -9.290629 -0.293852 -6.199694 0.576160
    25 0.096944 -8.450418 -0.009365 -0.098902 -0.036844 0.071180
    26 0.447953 -2.798986 -0.200443 -0.746893 -0.190644 0.074012
    27 -0.032909 -1.480204 0.004940 -0.491718 0.000000 0.000002
    28 -0.027022 -1.076920 -0.020210 -1.306864 0.000000 0.000000
    29 -0.249534 -2.846964 -0.174213 -0.305558 -0.040513 -0.085769
    30 0.043235 -1.683941 0.096012 -0.940134 0.002823 -0.000167
    31 0.031729 -1.160830 0.058838 -1.261903 0.000642 0.008372
    32 -0.963866 -2.785145 -0.085350 0.070006 0.162276 -0.191556
    33 0.028479 -1.403067 0.006271 -0.858676 0.000000 0.000000
    34 0.021413 -0.957781 0.020046 -0.432470 0.000000 0.000000
    35 1.164475 -2.543940 -0.170330 -0.514667 -0.282959 -0.086049
    36 0.024032 -1.129042 0.017807 -0.803451 0.000000 0.000001
    37 0.014898 -0.883989 -0.019848 -0.584392 0.000000 0.000000
    38 -0.586770 -1.264477 0.200161 -0.119695 -0.731399 -2.613436
    39 1.522835 0.058681 0.016848 -0.087276 -0.051738 0.379412
    40 1.117947 0.048424 -0.005766 -0.003814 -0.024910 0.208075
    41 -0.139399 -0.111698 0.014397 0.285382 -0.030687 1.580508
    42 -1.393470 8.839177 -0.239433 1.580804 -0.005023 -1.566847
  time 17
    0 0.000000 0.000000 -0.109378 0.012224 0.000000 0.000000
    1 6.210282 4.869267 -8.148848 -0.209396 -1.608800 0.169044
    2 -0.071918 -8.498730 -0.104136 0.013077 0.288362 0.148943
    3 1.066394 -2.853785 1.145319 -0.068397 0.250151 2.999456
    4 -0.138642 1.369231 -0.000001 0.000000 0.000000 0.005300
    5 -2.544339 6.190367 -0.177679 -1.570796 -1.570796 0.000000
    6 -0.956247 5.815759 -0.075912 0.000001 0.000000 0.000000
    7 1.257180 8.762585 -0.153713 -1.570562 0.002683 -1.566807
    8 -0.488518 -2.755602 -0.228260 -1.119640 -0.066262 -0.107564
    9 0.039887 -1.479790 0.029854 -1.451658 0.000000 0.000001
    10 0.028786 -1.075731 -0.023109 -0.870565 0.000000 0.000000
    11 0.250027 -2.820665 -0.238396 -0.916633 -0.083577 -0.024886
    12 -0.049759 -1.680544 0.100479 -1.550922 0.000000 -0.000002
    13 -0.034142 -1.148312 0.084782 -1.087313 0.000000 0.000000
    14 0.957766 -2.746780 -0.090302 -0.432127 -0.184437 0.072455
    15 -0.033420 -1.397129 -0.011257 -0.247860 0.000000 -0.000001
    16 -0.022360 -0.957436 0.018784 -0.956058 0.000000 0.000000
    17 -1.180681 -2.507217 -0.193859 -0.747365 0.130012 -0.054388
    18 -0.024967 -1.123934 0.017597 -1.414285 0.000000 0.000001
    19 -0.020057 -0.890968 0.010090 -0.846171 0.000000 0.000000
    20 0.583510 -1.197277 0.185379 0.631273 -1.323162 -0.918160
    21 1.535927 0.010246 0.005009 -0.124883 0.065220 -0.956793
    22 1.100771 0.004527 -0.010679 -0.014685 0.006877 -0.956472
    23 0.120153 -0.050270 -0.054489 0.287569 3.110905 1.561085
    24 -0.305926 -8.192288 -9.290629 -0.293852 -6.199694 0.576160
    25 0.096944 -8.450418 -0.009365 -0.098902 -0.036844 0.071180
    26 0.447953 -2.798986 -0.200443 -0.746893 -0.190644 0.074012
    27 -0.032909 -1.480204 0.004940 -0.491718 0.000000 0.000002
    28 -0.027022 -1.076920 -0.020210 -1.306864 0.000000 0.000000
    29 -0.249534 -2.846964 -0.174213 -0.305558 -0.040513 -0.085769
    30 0.043235 -1.683941 0.096012 -0.940134 0.002823 -0.000167
    31 0.031729 -1.160830 0.058838 -1.261903 0.000642 0.008372
    32 -0.963866 -2.785145 -0.085350 0.070006 0.162276 -0.191556
    33 0.028479 -1.403067 0.006271 -0.858676 0.000000 0.000000
    34 0.021413 -0.957781 0.020046 -0.432470 0.000000 0.000000
    35 1.164475 -2.543940 -0.170330 -0.514667 -0.282959 -0.086049
    36 0.024032 -1.129042 0.017807 -0.803451 0.000000 0.000001
    37 0.014898 -0.883989 -0.019848 -0.584392 0.000000 0.000000
    38 -0.586770 -1.264477 0.200161 -0.119695 -0.731399 -2.613436
    39 1.522835 0.058681 0.016848 -0.087276 -0.051738 0.379412
    40 1.117947 0.048424 -0.005766 -0.003814 -0.024910 0.208075
    41 -0.139399 -0.111698 0.014397 0.285382 -0.030687 1.580508
    42 -1.393470 8.839177 -0.239433 1.580804 -0.005023 -1.566847
  time 18
    0 0.000000 0.000000 -0.105472 0.003811 0.000000 0.000000
    1 6.210282 4.869267 -8.148848 -0.209396 -1.608800 0.169044
    2 -0.071918 -8.498730 -0.104136 0.013077 0.288362 0.148943
    3 1.066394 -2.853785 1.145319 -0.068397 0.250151 2.999456
    4 -0.138642 1.369231 -0.000001 0.000000 0.000000 0.005300
    5 -2.544339 6.190367 -0.177679 -1.570796 -1.570796 0.000000
    6 -0.956247 5.815759 -0.075912 0.000001 0.000000 0.000000
    7 1.257180 8.762585 -0.153713 -1.570562 0.002683 -1.566807
    8 -0.488518 -2.755602 -0.228260 -1.119640 -0.066262 -0.107564
    9 0.039887 -1.479790 0.029854 -1.451658 0.000000 0.000001
    10 0.028786 -1.075731 -0.023109 -0.870565 0.000000 0.000000
    11 0.250027 -2.820665 -0.238396 -0.916633 -0.083577 -0.024886
    12 -0.049759 -1.680544 0.100479 -1.550922 0.000000 -0.000002
    13 -0.034142 -1.148312 0.084782 -1.087313 0.000000 0.000000
    14 0.957766 -2.746780 -0.090302 -0.432127 -0.184437 0.072455
    15 -0.033420 -1.397129 -0.011257 -0.247860 0.000000 -0.000001
    16 -0.022360 -0.957436 0.018784 -0.956058 0.000000 0.000000
    17 -1.180681 -2.507217 -0.193859 -0.747365 0.130012 -0.054388
    18 -0.024967 -1.123934 0.017597 -1.414285 0.000000 0.000001
    19 -0.020057 -0.890968 0.010090 -0.846171 0.000000 0.000000
    20 0.583510 -1.197277 0.185379 0.631273 -1.323162 -0.918160
    21 1.535927 0.010246 0.005009 -0.124883 0.065220 -0.956793
    22 1.100771 0.004527 -0.010679 -0.014685 0.006877 -0.956472
    23 0.120153 -0.050270 -0.054489 0.287569 3.110905 1.561085
    24 -0.305926 -8.192288 -9.290629 -0.293852 -6.199694 0.576160
    25 0.096944 -8.450418 -0.009365 -0.098902 -0.036844 0.071180
    26 0.447953 -2.798986 -0.200443 -0.746893 -0.190644 0.074012
    27 -0.032909 -1.480204 0.004940 -0.491718 0.000000 0.000002
    28 -0.027022 -1.076920 -0.020210 -1.306864 0.000000 0.000000
    29 -0.249534 -2.846964 -0.174213 -0.305558 -0.040513 -0.085769
    30 0.043235 -1.683941 0.096012 -0.940134 0.002823 -0.000167
    31 0.031729 -1.160830 0.058838 -1.261903 0.000642 0.008372
    32 -0.963866 -2.785145 -0.085350 0.070006 0.162276 -0.191556
    33 0.028479 -1.403067 0.006271 -0.858676 0.000000 0.000000
    34 0.021413 -0.957781 0.020046 -0.432470 0.000000 0.000000
    35 1.164475 -2.543940 -0.170330 -0.514667 -0.282959 -0.086049
    36 0.024032 -1.129042 0.017807 -0.803451 0.000000 0.000001
    37 0.014898 -0.883989 -0.019848 -0.584392 0.000000 0.000000
    38 -0.586770 -1.264477 0.200161 -0.119695 -0.731399 -2.613436
    39 1.522835 0.058681 0.016848 -0.087276 -0.051738 0.379412
    40 1.117947 0.048424 -0.005766 -0.003814 -0.024910 0.208075
    41 -0.139399 -0.111698 0.014397 0.285382 -0.030687 1.580508
    42 -1.393470 8.839177 -0.239433 1.580804 -0.005023 -1.566847
  time 19
    0 0.000000 0.000000 -0.093753 -0.002121 0.000000 0.000000
    1 6.210282 4.869267 -8.148848 -0.209396 -1.608800 0.169044
    2 -0.071918 -8.498730 -0.104136 0.013077 0.288362 0.148943
    3 1.066394 -2.853785 1.145319 -0.068397 0.250151 2.999456
    4 -0.138642 1.369231 -0.000001 0.000000 0.000000 0.005300
    5 -2.544339 6.190367 -0.177679 -1.570796 -1.570796 0.000000
    6 -0.956247 5.815759 -0.075912 0.000001 0.000000 0.000000
    7 1.257180 8.762585 -0.153713 -1.570562 0.002683 -1.566807
    8 -0.488518 -2.755602 -0.228260 -1.119640 -0.066262 -0.107564
    9 0.039887 -1.479790 0.029854 -1.451658 0.000000 0.000001
    10 0.028786 -1.075731 -0.023109 -0.870565 0.000000 0.000000
    11 0.250027 -2.820665 -0.238396 -0.916633 -0.083577 -0.024886
    12 -0.049759 -1.680544 0.100479 -1.550922 0.000000 -0.000002
    13 -0.034142 -1.148312 0.084782 -1.087281 0.000000 0.000000
    14 0.957766 -2.746780 -0.090302 -0.432127 -0.184437 0.072455
    15 -0.033420 -1.397129 -0.011257 -0.247860 0.000000 -0.000001
    16 -0.022360 -0.957436 0.018784 -0.956058 0.000000 0.000000
    17 -1.180681 -2.507217 -0.193859 -0.747365 0.130012 -0.054388
    18 -0.024967 -1.123934 0.017597 -1.414285 0.000000 0.000001
    19 -0.020057 -0.890968 0.010090 -0.846171 0.000000 0.000000
    20 0.583510 -1.197277 0.185379 0.631273 -1.323162 -0.918160
    21 1.535927 0.010246 0.005009 -0.124883 0.065220 -0.956793
    22 1.100771 0.004527 -0.010679 -0.014685 0.006877 -0.956472
    23 0.120153 -0.050270 -0.054489 0.287569 3.110905 1.561085
    24 -0.305926 -8.192288 -9.290629 -0.293852 -6.199694 0.576160
    25 0.096944 -8.450418 -0.009365 -0.098902 -0.036844 0.071180
    26 0.447953 -2.798986 -0.200443 -0.746893 -0.190644 0.074012
    27 -0.032909 -1.480204 0.004940 -0.491718 0.000000 0.000002
    28 -0.027022 -1.076920 -0.020210 -1.306864 0.000000 0.000000
    29 -0.249534 -2.846964 -0.174213 -0.305558 -0.040501 -0.085769
    30 0.043235 -1.683941 0.096012 -0.940134 0.002823 -0.000167
    31 0.031729 -1.160830 0.058838 -1.261903 0.000642 0.008372
    32 -0.963866 -2.785145 -0.085350 0.070006 0.162276 -0.191556
    33 0.028479 -1.403067 0.006271 -0.858676 0.000000 0.000000
    34 0.021413 -0.957781 0.020046 -0.432470 0.000000 0.000000
    35 1.164475 -2.543940 -0.170330 -0.514667 -0.282959 -0.086049
    36 0.024032 -1.129042 0.017807 -0.803451 0.000000 0.000001
    37 0.014898 -0.883989 -0.019848 -0.584392 0.000000 0.000000
    38 -0.586770 -1.264477 0.200161 -0.119695 -0.731399 -2.613436
    39 1.522835 0.058681 0.016848 -0.087276 -0.051738 0.379412
    40 1.117947 0.048424 -0.005766 -0.003814 -0.024910 0.208075
    41 -0.139399 -0.111698 0.014397 0.285382 -0.030687 1.580508
    42 -1.393470 8.839177 -0.239433 1.580804 -0.005023 -1.566847
  time 20
    0 0.000000 0.000000 -0.074221 -0.004386 0.000000 0.000000
    1 6.210282 4.869267 -8.148848 -0.209396 -1.608800 0.169044
    2 -0.071918 -8.498730 -0.104136 0.013077 0.288362 0.148943
    3 1.066394 -2.853785 1.145319 -0.068397 0.250151 2.999456
    4 -0.138642 1.369231 -0.000001 0.000000 0.000000 0.005300
    5 -2.544339 6.190367 -0.177679 -1.570796 -1.570796 0.000000
    6 -0.956247 5.815759 -0.075912 0.000001 0.000000 0.000000
    7 1.257180 8.762585 -0.153713 -1.570562 0.002683 -1.566807
    8 -0.488518 -2.755602 -0.228260 -1.119640 -0.066262 -0.107564
    9 0.039887 -1.479790 0.029854 -1.451658 0.000000 0.000001
    10 0.028786 -1.075731 -0.023109 -0.870565 0.000000 0.000000
    11 0.250027 -2.820665 -0.238396 -0.916633 -0.083577 -0.024886
    12 -0.049759 -1.680544 0.100479 -1.550922 0.000000 -0.000002
    13 -0.034142 -1.148312 0.084782 -1.087281 0.000000 0.000000
    14 0.957766 -2.746780 -0.090302 -0.432127 -0.184437 0.072455
    15 -0.033420 -1.397129 -0.011257 -0.247860 0.000000 -0.000001
    16 -0.022360 -0.957436 0.018784 -0.956058 0.000000 0.000000
    17 -1.180681 -2.507217 -0.193859 -0.747365 0.130012 -0.054388
    18 -0.024967 -1.123934 0.017597 -1.414285 0.000000 0.000001
    19 -0.020057 -0.890968 0.010090 -0.846171 0.000000 0.000000
    20 0.583510 -1.197277 0.185379 0.631273 -1.323162 -0.918160
    21 1.535927 0.010246 0.005009 -0.124883 0.065220 -0.956793
    22 1.100771 0.004527 -0.010679 -0.014685 0.006877 -0.956472
    23 0.120153 -0.050270 -0.054489 0.287569 3.110905 1.561085
    24 -0.305926 -8.192288 -9.290629 -0.293852 -6.199694 0.576160
    25 0.096944 -8.450418 -0.009365 -0.098902 -0.036844 0.071180
    26 0.447953 -2.798986 -0.200443 -0.746893 -0.190644 0.074012
    27 -0.032909 -1.480204 0.004940 -0.491718 0.000000 0.000002
    28 -0.027022 -1.076920 -0.020210 -1.306864 0.000000 0.000000
    29 -0.249534 -2.846964 -0.174213 -0.305558 -0.040513 -0.085769
    30 0.043235 -1.683941 0.096012 -0.940134 0.002823 -0.000167
    31 0.031729 -1.160830 0.058838 -1.261903 0.000642 0.008372
    32 -0.963866 -2.785145 -0.085350 0.070006 0.162276 -0.191556
    33 0.028479 -1.403067 0.006271 -0.858676 0.000000 0.000000
    34 0.021413 -0.957781 0.020046 -0.432470 0.000000 0.000000
    35 1.164475 -2.543940 -0.170330 -0.514667 -0.282959 -0.086049
    36 0.024032 -1.129042 0.017807 -0.803451 0.000000 0.000001
    37 0.014898 -0.883989 -0.019848 -0.584392 0.000000 0.000000
    38 -0.586770 -1.264477 0.200161 -0.119695 -0.731399 -2.613436
    39 1.522835 0.058681 0.016848 -0.087276 -0.051738 0.379412
    40 1.117947 0.048424 -0.005766 -0.003814 -0.024910 0.208075
    41 -0.139399 -0.111698 0.014397 0.285382 -0.030687 1.580508
    42 -1.393470 8.839177 -0.239433 1.580804 -0.005023 -1.566847
  time 21
    0 0.000000 0.000000 -0.054689 -0.003931 0.000000 0.000000
    1 6.210282 4.869267 -8.148848 -0.209396 -1.608800 0.169044
    2 -0.071918 -8.498730 -0.104136 0.013077 0.288362 0.148943
    3 1.066394 -2.853785 1.145319 -0.068397 0.250151 2.999456
    4 -0.138642 1.369231 -0.000001 0.000000 0.000000 0.005300
    5 -2.544339 6.190367 -0.177679 -1.570796 -1.570796 0.000000
    6 -0.956247 5.815759 -0.075912 0.000001 0.000000 0.000000
    7 1.257180 8.762585 -0.153713 -1.570562 0.002683 -1.566807
    8 -0.488518 -2.755602 -0.228260 -1.119640 -0.066262 -0.107564
    9 0.039887 -1.479790 0.029854 -1.451658 0.000000 0.000001
    10 0.028786 -1.075731 -0.023109 -0.870565 0.000000 0.000000
    11 0.250027 -2.820665 -0.238396 -0.916633 -0.083577 -0.024886
    12 -0.049759 -1.680544 0.100479 -1.550922 0.000000 -0.000002
    13 -0.034142 -1.148312 0.084782 -1.087281 0.000000 0.000000
    14 0.957766 -2.746780 -0.090302 -0.432127 -0.184437 0.072455
    15 -0.033420 -1.397129 -0.011257 -0.247860 0.000000 -0.000001
    16 -0.022360 -0.957436 0.018784 -0.956058 0.000000 0.000000
    17 -1.180681 -2.507217 -0.193859 -0.747365 0.130012 -0.054388
    18 -0.024967 -1.123934 0.017597 -1.414285 0.000000 0.000001
    19 -0.020057 -0.890968 0.010090 -0.846171 0.000000 0.000000
    20 0.583510 -1.197277 0.185379 0.631273 -1.323162 -0.918160
    21 1.535927 0.010246 0.005009 -0.124883 0.065220 -0.956793
    22 1.100771 0.004527 -0.010679 -0.014685 0.006877 -0.956472
    23 0.120153 -0.050270 -0.054489 0.287569 3.110905 1.561085
    24 -0.305926 -8.192288 -9.290629 -0.293852 -6.199694 0.576160
    25 0.096944 -8.450418 -0.009365 -0.098902 -0.036844 0.071180
    26 0.447953 -2.798986 -0.200443 -0.746893 -0.190644 0.074012
    27 -0.032909 -1.480204 0.004940 -0.491718 0.000000 0.000002
    28 -0.027022 -1.076920 -0.020210 -1.306864 0.000000 0.000000
    29 -0.249534 -2.846964 -0.174213 -0.305558 -0.040501 -0.085769
    30 0.043235 -1.683941 0.096012 -0.940134 0.002823 -0.000167
    31 0.031729 -1.160830 0.058838 -1.261903 0.000642 0.008372
    32 -0.963866 -2.785145 -0.085350 0.070006 0.162276 -0.191556
    33 0.028479 -1.403067 0.006271 -0.858676 0.000000 0.000000
    34 0.021413 -0.957781 0.020046 -0.432470 0.000000 0.000000
    35 1.164475 -2.543940 -0.170330 -0.514667 -0.282959 -0.086049
    36 0.024032 -1.129042 0.017807 -0.803451 0.000000 0.000001
    37 0.014898 -0.883989 -0.019848 -0.584392 0.000000 0.000000
    38 -0.586770 -1.264477 0.200161 -0.119695 -0.731399 -2.613436
    39 1.522835 0.058681 0.016848 -0.087276 -0.051738 0.379412
    40 1.117947 0.048424 -0.005766 -0.003814 -0.024910 0.208075
    41 -0.139399 -0.111698 0.014397 0.285382 -0.030687 1.580508
    42 -1.393470 8.839177 -0.239433 1.580804 -0.005023 -1.566847
  time 22
    0 0.000000 0.000000 -0.035157 -0.002840 0.000000 0.000000
    1 6.210282 4.869267 -8.148848 -0.209396 -1.608800 0.169044
    2 -0.071918 -8.498730 -0.104136 0.013077 0.288362 0.148943
    3 1.066394 -2.853785 1.145319 -0.068397 0.250151 2.999456
    4 -0.138642 1.369231 -0.000001 0.000000 0.000000 0.005300
    5 -2.544339 6.190367 -0.177679 -1.570796 -1.570796 0.000000
    6 -0.956247 5.815759 -0.075912 0.000001 0.000000 0.000000
    7 1.257180 8.762585 -0.153713 -1.570562 0.002683 -1.566807
    8 -0.488518 -2.755602 -0.228260 -1.119640 -0.066262 -0.107564
    9 0.039887 -1.479790 0.029854 -1.451658 0.000000 0.000001
    10 0.028786 -1.075731 -0.023109 -0.870565 0.000000 0.000000
    11 0.250027 -2.820665 -0.238396 -0.916633 -0.083577 -0.024886
    12 -0.049759 -1.680544 0.100479 -1.550922 0.000000 -0.000002
    13 -0.034142 -1.148312 0.084782 -1.087281 0.000000 0.000000
    14 0.957766 -2.746780 -0.090302 -0.432127 -0.184437 0.072455
    15 -0.033420 -1.397129 -0.011257 -0.247860 0.000000 -0.000001
    16 -0.022360 -0.957436 0.018784 -0.956058 0.000000 0.000000
    17 -1.180681 -2.507217 -0.193859 -0.747365 0.130012 -0.054388
    18 -0.024967 -1.123934 0.017597 -1.414285 0.000000 0.000001
    19 -0.020057 -0.890968 0.010090 -0.846171 0.000000 0.000000
    20 0.583510 -1.197277 0.185379 0.631273 -1.323162 -0.918160
    21 1.535927 0.010246 0.005009 -0.124883 0.065220 -0.956793
    22 1.100771 0.004527 -0.010679 -0.014685 0.006877 -0.956472
    23 0.120153 -0.050270 -0.054489 0.287569 3.110905 1.561085
    24 -0.305926 -8.192288 -9.290629 -0.293852 -6.199694 0.576160
    25 0.096944 -8.450418 -0.009365 -0.098902 -0.036844 0.071180
    26 0.447953 -2.798986 -0.200443 -0.746893 -0.190644 0.074012
    27 -0.032909 -1.480204 0.004940 -0.491718 0.000000 0.000002
    28 -0.027022 -1.076920 -0.020210 -1.306864 0.000000 0.000000
    29 -0.249534 -2.846964 -0.174213 -0.305558 -0.040513 -0.085769
    30 0.043235 -1.683941 0.096012 -0.940134 0.002823 -0.000167
    31 0.031729 -1.160830 0.058838 -1.261903 0.000642 0.008372
    32 -0.963866 -2.785145 -0.085350 0.070006 0.162276 -0.191556
    33 0.028479 -1.403067 0.006271 -0.858676 0.000000 0.000000
    34 0.021413 -0.957781 0.020046 -0.432470 0.000000 0.000000
    35 1.164475 -2.543940 -0.170330 -0.514667 -0.282959 -0.086049
    36 0.024032 -1.129042 0.017807 -0.803451 0.000000 0.000001
    37 0.014898 -0.883989 -0.019848 -0.584392 0.000000 0.000000
    38 -0.586770 -1.264477 0.200161 -0.119695 -0.731399 -2.613436
    39 1.522835 0.058681 0.016848 -0.087276 -0.051738 0.379412
    40 1.117947 0.048424 -0.005766 -0.003814 -0.024910 0.208075
    41 -0.139399 -0.111698 0.014397 0.285382 -0.030687 1.580508
    42 -1.393470 8.839177 -0.239433 1.580804 -0.005023 -1.566847
  time 23
    0 0.000000 0.000000 -0.015625 -0.001534 0.000000 0.000000
    1 6.210282 4.869267 -8.148848 -0.209396 -1.608800 0.169044
    2 -0.071918 -8.498730 -0.104136 0.013077 0.288362 0.148943
    3 1.066394 -2.853785 1.145319 -0.068397 0.250151 2.999456
    4 -0.138642 1.369231 -0.000001 0.000000 0.000000 0.005300
    5 -2.544339 6.190367 -0.177679 -1.570796 -1.570796 0.000000
    6 -0.956247 5.815759 -0.075912 0.000001 0.000000 0.000000
    7 1.257180 8.762585 -0.153713 -1.570562 0.002683 -1.566807
    8 -0.488518 -2.755602 -0.228260 -1.119640 -0.066262 -0.107564
    9 0.039887 -1.479790 0.029854 -1.451658 0.000000 0.000001
    10 0.028786 -1.075731 -0.023109 -0.870565 0.000000 0.000000
    11 0.250027 -2.820665 -0.238396 -0.916633 -0.083577 -0.024886
    12 -0.049759 -1.680544 0.100479 -1.550922 0.000000 -0.000002
    13 -0.034142 -1.148312 0.084782 -1.087313 0.000000 0.000000
    14 0.957766 -2.746780 -0.090302 -0.432127 -0.184437 0.072455
    15 -0.033420 -1.397129 -0.011257 -0.247860 0.000000 -0.000001
    16 -0.022360 -0.957436 0.018784 -0.956058 0.000000 0.000000
    17 -1.180681 -2.507217 -0.193859 -0.747365 0.130012 -0.054388
    18 -0.024967 -1.123934 0.017597 -1.414285 0.000000 0.000001
    19 -0.020057 -0.890968 0.010090 -0.846171 0.000000 0.000000
    20 0.583510 -1.197277 0.185379 0.631273 -1.323162 -0.918160
    21 1.535927 0.010246 0.005009 -0.124883 0.065220 -0.956793
    22 1.100771 0.004527 -0.010679 -0.014685 0.006877 -0.956472
    23 0.120153 -0.050270 -0.054489 0.287569 3.110905 1.561085
    24 -0.305926 -8.192288 -9.290629 -0.293852 -6.199694 0.576160
    25 0.096944 -8.450418 -0.009365 -0.098902 -0.036844 0.071180
    26 0.447953 -2.798986 -0.200443 -0.746893 -0.190644 0.074012
    27 -0.032909 -1.480204 0.004940 -0.491718 0.000000 0.000002
    28 -0.027022 -1.076920 -0.020210 -1.306864 0.000000 0.000000
    29 -0.249534 -2.846964 -0.174213 -0.305558 -0.040513 -0.085769
    30 0.043235 -1.683941 0.096012 -0.940134 0.002823 -0.000167
    31 0.031729 -1.160830 0.058838 -1.261903 0.000642 0.008372
    32 -0.963866 -2.785145 -0.085350 0.070006 0.162276 -0.191556
    33 0.028479 -1.403067 0.006271 -0.858676 0.000000 0.000000
    34 0.021413 -0.957781 0.020046 -0.432470 0.000000 0.000000
    35 1.164475 -2.543940 -0.170330 -0.514667 -0.282959 -0.086049
    36 0.024032 -1.129042 0.017807 -0.803451 0.000000 0.000001
    37 0.014898 -0.883989 -0.019848 -0.584392 0.000000 0.000000
    38 -0.586770 -1.264477 0.200161 -0.119695 -0.731399 -2.613436
    39 1.522835 0.058681 0.016848 -0.087276 -0.051738 0.379412
    40 1.117947 0.048424 -0.005766 -0.003814 -0.024910 0.208075
    41 -0.139399 -0.111698 0.014397 0.285382 -0.030687 1.580508
    42 -1.393470 8.839177 -0.239433 1.580804 -0.005023 -1.566847
  time 24
    0 0.000000 0.000000 -0.003906 -0.000455 0.000000 0.000000
    1 6.210282 4.869267 -8.148848 -0.209396 -1.608800 0.169044
    2 -0.071918 -8.498730 -0.104136 0.013077 0.288362 0.148943
    3 1.066394 -2.853785 1.145319 -0.068397 0.250151 2.999456
    4 -0.138642 1.369231 -0.000001 0.000000 0.000000 0.005300
    5 -2.544339 6.190367 -0.177679 -1.570796 -1.570796 0.000000
    6 -0.956247 5.815759 -0.075912 0.000001 0.000000 0.000000
    7 1.257180 8.762585 -0.153713 -1.570562 0.002683 -1.566807
    8 -0.488518 -2.755602 -0.228260 -1.119640 -0.066262 -0.107564
    9 0.039887 -1.479790 0.029854 -1.451658 0.000000 0.000001
    10 0.028786 -1.075731 -0.023109 -0.870565 0.000000 0.000000
    11 0.250027 -2.820665 -0.238396 -0.916633 -0.083577 -0.024886
    12 -0.049759 -1.680544 0.100479 -1.550922 0.000000 -0.000002
    13 -0.034142 -1.148312 0.084782 -1.087281 0.000000 0.000000
    14 0.957766 -2.746780 -0.090302 -0.432127 -0.184437 0.072455
    15 -0.033420 -1.397129 -0.011257 -0.247860 0.000000 -0.000001
    16 -0.022360 -0.957436 0.018784 -0.956058 0.000000 0.000000
    17 -1.180681 -2.507217 -0.193859 -0.747365 0.130012 -0.054388
    18 -0.024967 -1.123934 0.017597 -1.414285 0.000000 0.000001
    19 -0.020057 -0.890968 0.010090 -0.846171 0.000000 0.000000
    20 0.583510 -1.197277 0.185379 0.631273 -1.323162 -0.918160
    21 1.535927 0.010246 0.005009 -0.124883 0.065220 -0.956793
    22 1.100771 0.004527 -0.010679 -0.014685 0.006877 -0.956472
    23 0.120153 -0.050270 -0.054489 0.287569 3.110905 1.561085
    24 -0.305926 -8.192288 -9.290629 -0.293852 -6.199694 0.576160
    25 0.096944 -8.450418 -0.009365 -0.098902 -0.036844 0.071180
    26 0.447953 -2.798986 -0.200443 -0.746893 -0.190644 0.074012
    27 -0.032909 -1.480204 0.004940 -0.491718 0.000000 0.000002
    28 -0.027022 -1.076920 -0.020210 -1.306864 0.000000 0.000000
    29 -0.249534 -2.846964 -0.174213 -0.305558 -0.040513 -0.085769
    30 0.043235 -1.683941 0.096012 -0.940134 0.002823 -0.000167
    31 0.031729 -1.160830 0.058838 -1.261903 0.000642 0.008372
    32 -0.963866 -2.785145 -0.085350 0.070006 0.162276 -0.191556
    33 0.028479 -1.403067 0.006271 -0.858676 0.000000 0.000000
    34 0.021413 -0.957781 0.020046 -0.432470 0.000000 0.000000
    35 1.164475 -2.543940 -0.170330 -0.514667 -0.282959 -0.086049
    36 0.024032 -1.129042 0.017807 -0.803451 0.000000 0.000001
    37 0.014898 -0.883989 -0.019848 -0.584392 0.000000 0.000000
    38 -0.586770 -1.264477 0.200161 -0.119695 -0.731399 -2.613436
    39 1.522835 0.058681 0.016848 -0.087276 -0.051738 0.379412
    40 1.117947 0.048424 -0.005766 -0.003814 -0.024910 0.208075
    41 -0.139399 -0.111698 0.014397 0.285382 -0.030687 1.580508
    42 -1.393470 8.839177 -0.239433 1.580804 -0.005023 -1.566847
  time 25
    0 0.000000 0.000000 0.000000 0.000000 0.000000 0.000000
    1 6.210282 4.869267 -8.148848 -0.209396 -1.608800 0.169044
    2 -0.071918 -8.498730 -0.104136 0.013077 0.288362 0.148943
    3 1.066394 -2.853785 1.145319 -0.068397 0.250151 2.999456
    4 -0.138642 1.369231 -0.000001 0.000000 0.000000 0.005300
    5 -2.544339 6.190367 -0.177679 -1.570796 -1.570796 0.000000
    6 -0.956247 5.815759 -0.075912 0.000001 0.000000 0.000000
    7 1.257180 8.762585 -0.153713 -1.570562 0.002683 -1.566807
    8 -0.488518 -2.755602 -0.228260 -1.119640 -0.066262 -0.107564
    9 0.039887 -1.479790 0.029854 -1.451658 0.000000 0.000001
    10 0.028786 -1.075731 -0.023109 -0.870565 0.000000 0.000000
    11 0.250027 -2.820665 -0.238396 -0.916633 -0.083577 -0.024886
    12 -0.049759 -1.680544 0.100479 -1.550922 0.000000 -0.000002
    13 -0.034142 -1.148312 0.084782 -1.087281 0.000000 0.000000
    14 0.957766 -2.746780 -0.090302 -0.432127 -0.184437 0.072455
    15 -0.033420 -1.397129 -0.011257 -0.247860 0.000000 -0.000001
    16 -0.022360 -0.957436 0.018784 -0.956058 0.000000 0.000000
    17 -1.180681 -2.507217 -0.193859 -0.747365 0.130012 -0.054388
    18 -0.024967 -1.123934 0.017597 -1.414285 0.000000 0.000001
    19 -0.020057 -0.890968 0.010090 -0.846171 0.000000 0.000000
    20 0.583510 -1.197277 0.185379 0.631273 -1.323162 -0.918160
    21 1.535927 0.010246 0.005009 -0.124883 0.065220 -0.956793
    22 1.100771 0.004527 -0.010679 -0.014685 0.006877 -0.956472
    23 0.120153 -0.050270 -0.054489 0.287569 3.110905 1.561085
    24 -0.305926 -8.192288 -9.290629 -0.293852 -6.199694 0.576160
    25 0.096944 -8.450418 -0.009365 -0.098902 -0.036844 0.071180
    26 0.447953 -2.798986 -0.200443 -0.746893 -0.190644 0.074012
    27 -0.032909 -1.480204 0.004940 -0.491718 0.000000 0.000002
    28 -0.027022 -1.076920 -0.020210 -1.306864 0.000000 0.000000
    29 -0.249534 -2.846964 -0.174213 -0.305558 -0.040513 -0.085769
    30 0.043235 -1.683941 0.096012 -0.940134 0.002823 -0.000167
    31 0.031729 -1.160830 0.058838 -1.261903 0.000642 0.008372
    32 -0.963866 -2.785145 -0.085350 0.070006 0.162276 -0.191556
    33 0.028479 -1.403067 0.006271 -0.858676 0.000000 0.000000
    34 0.021413 -0.957781 0.020046 -0.432470 0.000000 0.000000
    35 1.164475 -2.543940 -0.170330 -0.514667 -0.282959 -0.086049
    36 0.024032 -1.129042 0.017807 -0.803451 0.000000 0.000001
    37 0.014898 -0.883989 -0.019848 -0.584392 0.000000 0.000000
    38 -0.586770 -1.264477 0.200161 -0.119695 -0.731399 -2.613436
    39 1.522835 0.058681 0.016848 -0.087276 -0.051738 0.379412
    40 1.117947 0.048424 -0.005766 -0.003814 -0.024910 0.208075
    41 -0.139399 -0.111698 0.014397 0.285382 -0.030687 1.580508
    42 -1.393470 8.839177 -0.239433 1.580804 -0.005023 -1.566847
  time 26
    0 0.000000 0.000000 0.000000 0.000000 0.000000 0.000000
    1 6.210282 4.869267 -8.148848 -0.209396 -1.608800 0.169044
    2 -0.071918 -8.498730 -0.104136 0.013077 0.288362 0.148943
    3 1.066394 -2.853785 1.145319 -0.068397 0.250151 2.999456
    4 -0.138642 1.369231 -0.000001 0.000000 0.000000 0.005300
    5 -2.544339 6.190367 -0.177679 -1.570796 -1.570796 0.000000
    6 -0.956247 5.815759 -0.075912 0.000001 0.000000 0.000000
    7 1.257180 8.762585 -0.153713 -1.570562 0.002683 -1.566807
    8 -0.488518 -2.755602 -0.228260 -1.119640 -0.066262 -0.107564
    9 0.039887 -1.479790 0.029854 -1.451658 0.000000 0.000001
    10 0.028786 -1.075731 -0.023109 -0.870565 0.000000 0.000000
    11 0.250027 -2.820665 -0.238396 -0.916633 -0.083577 -0.024886
    12 -0.049759 -1.680544 0.100479 -1.550922 0.000000 -0.000002
    13 -0.034142 -1.148312 0.084782 -1.087281 0.000000 0.000000
    14 0.957766 -2.746780 -0.090302 -0.432127 -0.184437 0.072455
    15 -0.033420 -1.397129 -0.011257 -0.247860 0.000000 -0.000001
    16 -0.022360 -0.957436 0.018784 -0.956058 0.000000 0.000000
    17 -1.180681 -2.507217 -0.193859 -0.747365 0.130012 -0.054388
    18 -0.024967 -1.123934 0.017597 -1.414285 0.000000 0.000001
    19 -0.020057 -0.890968 0.010090 -0.846171 0.000000 0.000000
    20 0.583510 -1.197277 0.185379 0.631273 -1.323162 -0.918160
    21 1.535927 0.010246 0.005009 -0.124883 0.065220 -0.956793
    22 1.100771 0.004527 -0.010679 -0.014685 0.006877 -0.956472
    23 0.120153 -0.050270 -0.054489 0.287569 3.110905 1.561085
    24 -0.305926 -8.192288 -9.290629 -0.293852 -6.199694 0.576160
    25 0.096944 -8.450418 -0.009365 -0.098902 -0.036844 0.071180
    26 0.447953 -2.798986 -0.200443 -0.746893 -0.190644 0.074012
    27 -0.032909 -1.480204 0.004940 -0.491718 0.000000 0.000002
    28 -0.027022 -1.076920 -0.020210 -1.306864 0.000000 0.000000
    29 -0.249534 -2.846964 -0.174213 -0.305558 -0.040513 -0.085769
    30 0.043235 -1.683941 0.096012 -0.940134 0.002823 -0.000167
    31 0.031729 -1.160830 0.058838 -1.261903 0.000642 0.008372
    32 -0.963866 -2.785145 -0.085350 0.070006 0.162276 -0.191556
    33 0.028479 -1.403067 0.006271 -0.858676 0.000000 0.000000
    34 0.021413 -0.957781 0.020046 -0.432470 0.000000 0.000000
    35 1.164475 -2.543940 -0.170330 -0.514667 -0.282959 -0.086049
    36 0.024032 -1.129042 0.017807 -0.803451 0.000000 0.000001
    37 0.014898 -0.883989 -0.019848 -0.584392 0.000000 0.000000
    38 -0.586770 -1.264477 0.200161 -0.119695 -0.731399 -2.613436
    39 1.522835 0.058681 0.016848 -0.087276 -0.051738 0.379412
    40 1.117947 0.048424 -0.005766 -0.003814 -0.024910 0.208075
    41 -0.139399 -0.111698 0.014397 0.285382 -0.030687 1.580508
    42 -1.393470 8.839177 -0.239433 1.580804 -0.005023 -1.566847
  time 27
    0 0.000000 0.000000 0.000000 0.000000 0.000000 0.000000
    1 6.210282 4.869267 -8.148848 -0.209396 -1.608800 0.169044
    2 -0.071918 -8.498730 -0.104136 0.013077 0.288362 0.148943
    3 1.066394 -2.853785 1.145319 -0.068397 0.250151 2.999456
    4 -0.138642 1.369231 -0.000001 0.000000 0.000000 0.005300
    5 -2.544339 6.190367 -0.177679 -1.570796 -1.570796 0.000000
    6 -0.956247 5.815759 -0.075912 0.000001 0.000000 0.000000
    7 1.257180 8.762585 -0.153713 -1.570562 0.002683 -1.566807
    8 -0.488518 -2.755602 -0.228260 -1.119640 -0.066262 -0.107564
    9 0.039887 -1.479790 0.029854 -1.451658 0.000000 0.000001
    10 0.028786 -1.075731 -0.023109 -0.870565 0.000000 0.000000
    11 0.250027 -2.820665 -0.238396 -0.916633 -0.083577 -0.024886
    12 -0.049759 -1.680544 0.100479 -1.550922 0.000000 -0.000002
    13 -0.034142 -1.148312 0.084782 -1.087281 0.000000 0.000000
    14 0.957766 -2.746780 -0.090302 -0.432127 -0.184437 0.072455
    15 -0.033420 -1.397129 -0.011257 -0.247860 0.000000 -0.000001
    16 -0.022360 -0.957436 0.018784 -0.956058 0.000000 0.000000
    17 -1.180681 -2.507217 -0.193859 -0.747365 0.130012 -0.054388
    18 -0.024967 -1.123934 0.017597 -1.414285 0.000000 0.000001
    19 -0.020057 -0.890968 0.010090 -0.846171 0.000000 0.000000
    20 0.583510 -1.197277 0.185379 0.631273 -1.323162 -0.918160
    21 1.535927 0.010246 0.005009 -0.124883 0.065220 -0.956793
    22 1.100771 0.004527 -0.010679 -0.014685 0.006877 -0.956472
    23 0.120153 -0.050270 -0.054489 0.287569 3.110905 1.561085
    24 -0.305926 -8.192288 -9.290629 -0.293852 -6.199694 0.576160
    25 0.096944 -8.450418 -0.009365 -0.098902 -0.036844 0.071180
    26 0.447953 -2.798986 -0.200443 -0.746893 -0.190644 0.074012
    27 -0.032909 -1.480204 0.004940 -0.491718 0.000000 0.000002
    28 -0.027022 -1.076920 -0.020210 -1.306864 0.000000 0.000000
    29 -0.249534 -2.846964 -0.174213 -0.305558 -0.040513 -0.085769
    30 0.043235 -1.683941 0.096012 -0.940134 0.002823 -0.000167
    31 0.031729 -1.160830 0.058838 -1.261903 0.000642 0.008372
    32 -0.963866 -2.785145 -0.085350 0.070006 0.162276 -0.191556
    33 0.028479 -1.403067 0.006271 -0.858676 0.000000 0.000000
    34 0.021413 -0.957781 0.020046 -0.432470 0.000000 0.000000
    35 1.164475 -2.543940 -0.170330 -0.514667 -0.282959 -0.086049
    36 0.024032 -1.129042 0.017807 -0.803451 0.000000 0.000001
    37 0.014898 -0.883989 -0.019848 -0.584392 0.000000 0.000000
    38 -0.586770 -1.264477 0.200161 -0.119695 -0.731399 -2.613436
    39 1.522835 0.058681 0.016848 -0.087276 -0.051738 0.379412
    40 1.117947 0.048424 -0.005766 -0.003814 -0.024910 0.208075
    41 -0.139399 -0.111698 0.014397 0.285382 -0.030687 1.580508
    42 -1.393470 8.839177 -0.239433 1.580804 -0.005023 -1.566847
  time 28
    0 0.000000 0.000000 0.000000 0.000000 0.000000 0.000000
    1 6.210282 4.869267 -8.148848 -0.209396 -1.608800 0.169044
    2 -0.071918 -8.498730 -0.104136 0.013077 0.288362 0.148943
    3 1.066394 -2.853785 1.145319 -0.068397 0.250151 2.999456
    4 -0.138642 1.369231 -0.000001 0.000000 0.000000 0.005300
    5 -2.544339 6.190367 -0.177679 -1.570796 -1.570796 0.000000
    6 -0.956247 5.815759 -0.075912 0.000001 0.000000 0.000000
    7 1.257180 8.762585 -0.153713 -1.570562 0.002683 -1.566807
    8 -0.488518 -2.755602 -0.228260 -1.119640 -0.066262 -0.107564
    9 0.039887 -1.479790 0.029854 -1.451658 0.000000 0.000001
    10 0.028786 -1.075731 -0.023109 -0.870565 0.000000 0.000000
    11 0.250027 -2.820665 -0.238396 -0.916633 -0.083577 -0.024886
    12 -0.049759 -1.680544 0.100479 -1.550922 0.000000 -0.000002
    13 -0.034142 -1.148312 0.084782 -1.087281 0.000000 0.000000
    14 0.957766 -2.746780 -0.090302 -0.432127 -0.184437 0.072455
    15 -0.033420 -1.397129 -0.011257 -0.247860 0.000000 -0.000001
    16 -0.022360 -0.957436 0.018784 -0.956058 0.000000 0.000000
    17 -1.180681 -2.507217 -0.193859 -0.747365 0.130012 -0.054388
    18 -0.024967 -1.123934 0.017597 -1.414285 0.000000 0.000001
    19 -0.020057 -0.890968 0.010090 -0.846171 0.000000 0.000000
    20 0.583510 -1.197277 0.185379 0.631273 -1.323162 -0.918160
    21 1.535927 0.010246 0.005009 -0.124883 0.065220 -0.956793
    22 1.100771 0.004527 -0.010679 -0.014685 0.006877 -0.956472
    23 0.120153 -0.050270 -0.054489 0.287569 3.110905 1.561085
    24 -0.305926 -8.192288 -9.290629 -0.293852 -6.199694 0.576160
    25 0.096944 -8.450418 -0.009365 -0.098902 -0.036844 0.071180
    26 0.447953 -2.798986 -0.200443 -0.746893 -0.190644 0.074012
    27 -0.032909 -1.480204 0.004940 -0.491718 0.000000 0.000002
    28 -0.027022 -1.076920 -0.020210 -1.306864 0.000000 0.000000
    29 -0.249534 -2.846964 -0.174213 -0.305558 -0.040513 -0.085769
    30 0.043235 -1.683941 0.096012 -0.940134 0.002823 -0.000167
    31 0.031729 -1.160830 0.058838 -1.261903 0.000642 0.008372
    32 -0.963866 -2.785145 -0.085350 0.070006 0.162276 -0.191556
    33 0.028479 -1.403067 0.006271 -0.858676 0.000000 0.000000
    34 0.021413 -0.957781 0.020046 -0.432470 0.000000 0.000000
    35 1.164475 -2.543940 -0.170330 -0.514667 -0.282959 -0.086049
    36 0.024032 -1.129042 0.017807 -0.803451 0.000000 0.000001
    37 0.014898 -0.883989 -0.019848 -0.584392 0.000000 0.000000
    38 -0.586770 -1.264477 0.200161 -0.119695 -0.731399 -2.613436
    39 1.522835 0.058681 0.016848 -0.087276 -0.051738 0.379412
    40 1.117947 0.048424 -0.005766 -0.003814 -0.024910 0.208075
    41 -0.139399 -0.111698 0.014397 0.285382 -0.030687 1.580508
    42 -1.393470 8.839177 -0.239433 1.580804 -0.005023 -1.566847
  time 29
    0 0.000000 0.000000 0.000000 -0.000012 0.000000 0.000000
    1 6.210282 4.869267 -8.148848 -0.209396 -1.608800 0.169044
    2 -0.071918 -8.498730 -0.104136 0.013077 0.288362 0.148943
    3 1.066394 -2.853785 1.145319 -0.068397 0.250151 2.999456
    4 -0.138642 1.369231 -0.000001 0.000000 0.000000 0.005300
    5 -2.544339 6.190367 -0.177679 -1.570796 -1.570796 0.000000
    6 -0.956247 5.815759 -0.075912 0.000001 0.000000 0.000000
    7 1.257180 8.762585 -0.153713 -1.570562 0.002683 -1.566807
    8 -0.488518 -2.755602 -0.228260 -1.119640 -0.066262 -0.107564
    9 0.039887 -1.479790 0.029854 -1.451658 0.000000 0.000001
    10 0.028786 -1.075731 -0.023109 -0.870565 0.000000 0.000000
    11 0.250027 -2.820665 -0.238396 -0.916633 -0.083577 -0.024886
    12 -0.049759 -1.680544 0.100479 -1.550922 0.000000 -0.000002
    13 -0.034142 -1.148312 0.084782 -1.087281 0.000000 0.000000
    14 0.957766 -2.746780 -0.090302 -0.432127 -0.184437 0.072455
    15 -0.033420 -1.397129 -0.011257 -0.247860 0.000000 -0.000001
    16 -0.022360 -0.957436 0.018784 -0.956058 0.000000 0.000000
    17 -1.180681 -2.507217 -0.193859 -0.747365 0.130012 -0.054388
    18 -0.024967 -1.123934 0.017597 -1.414285 0.000000 0.000001
    19 -0.020057 -0.890968 0.010090 -0.846171 0.000000 0.000000
    20 0.583510 -1.197277 0.185379 0.631273 -1.323162 -0.918160
    21 1.535927 0.010246 0.005009 -0.124883 0.065220 -0.956793
    22 1.100771 0.004527 -0.010679 -0.014685 0.006877 -0.956472
    23 0.120153 -0.050270 -0.054489 0.287569 3.110905 1.561085
    24 -0.305926 -8.192288 -9.290629 -0.293852 -6.199694 0.576160
    25 0.096944 -8.450418 -0.009365 -0.098902 -0.036844 0.071180
    26 0.447953 -2.798986 -0.200443 -0.746893 -0.190644 0.074012
    27 -0.032909 -1.480204 0.004940 -0.491718 0.000000 0.000002
    28 -0.027022 -1.076920 -0.020210 -1.306864 0.000000 0.000000
    29 -0.249534 -2.846964 -0.174213 -0.305558 -0.040513 -0.085769
    30 0.043235 -1.683941 0.096012 -0.940134 0.002823 -0.000167
    31 0.031729 -1.160830 0.058838 -1.261903 0.000642 0.008372
    32 -0.963866 -2.785145 -0.085350 0.070006 0.162276 -0.191556
    33 0.028479 -1.403067 0.006271 -0.858676 0.000000 0.000000
    34 0.021413 -0.957781 0.020046 -0.432470 0.000000 0.000000
    35 1.164475 -2.543940 -0.170330 -0.514667 -0.282959 -0.086049
    36 0.024032 -1.129042 0.017807 -0.803451 0.000000 0.000001
    37 0.014898 -0.883989 -0.019848 -0.584392 0.000000 0.000000
    38 -0.586770 -1.264477 0.200161 -0.119695 -0.731399 -2.613436
    39 1.522835 0.058681 0.016848 -0.087276 -0.051738 0.379412
    40 1.117947 0.048424 -0.005766 -0.003814 -0.024910 0.208075
    41 -0.139399 -0.111698 0.014397 0.285382 -0.030687 1.580508
    42 -1.393470 8.839177 -0.239433 1.580804 -0.005023 -1.566847
  time 30
    0 0.000000 0.000000 0.000000 -0.000012 0.000000 0.000000
    1 6.210282 4.869267 -8.148848 -0.209396 -1.608800 0.169044
    2 -0.071918 -8.498730 -0.104136 0.013077 0.288362 0.148943
    3 1.066394 -2.853785 1.145319 -0.068397 0.250151 2.999456
    4 -0.138642 1.369231 -0.000001 0.000000 0.000000 0.005300
    5 -2.544339 6.190367 -0.177679 -1.570796 -1.570796 0.000000
    6 -0.956247 5.815759 -0.075912 0.000001 0.000000 0.000000
    7 1.257180 8.762585 -0.153713 -1.570562 0.002683 -1.566807
    8 -0.488518 -2.755602 -0.228260 -1.119640 -0.066262 -0.107564
    9 0.039887 -1.479790 0.029854 -1.451658 0.000000 0.000001
    10 0.028786 -1.075731 -0.023109 -0.870565 0.000000 0.000000
    11 0.250027 -2.820665 -0.238396 -0.916633 -0.083577 -0.024886
    12 -0.049759 -1.680544 0.100479 -1.550922 0.000000 -0.000002
    13 -0.034142 -1.148312 0.084782 -1.087281 0.000000 0.000000
    14 0.957766 -2.746780 -0.090302 -0.432127 -0.184437 0.072455
    15 -0.033420 -1.397129 -0.011257 -0.247860 0.000000 -0.000001
    16 -0.022360 -0.957436 0.018784 -0.956058 0.000000 0.000000
    17 -1.180681 -2.507217 -0.193859 -0.747365 0.130012 -0.054388
    18 -0.024967 -1.123934 0.017597 -1.414285 0.000000 0.000001
    19 -0.020057 -0.890968 0.010090 -0.846171 0.000000 0.000000
    20 0.583510 -1.197277 0.185379 0.631273 -1.323162 -0.918160
    21 1.535927 0.010246 0.005009 -0.124883 0.065220 -0.956793
    22 1.100771 0.004527 -0.010679 -0.014685 0.006877 -0.956472
    23 0.120153 -0.050270 -0.054489 0.287569 3.110905 1.561085
    24 -0.305926 -8.192288 -9.290629 -0.293852 -6.199694 0.576160
    25 0.096944 -8.450418 -0.009365 -0.098902 -0.036844 0.071180
    26 0.447953 -2.798986 -0.200443 -0.746893 -0.190644 0.074012
    27 -0.032909 -1.480204 0.004940 -0.491718 0.000000 0.000002
    28 -0.027022 -1.076920 -0.020210 -1.306864 0.000000 0.000000
    29 -0.249534 -2.846964 -0.174213 -0.305558 -0.040501 -0.085769
    30 0.043235 -1.683941 0.096012 -0.940134 0.002823 -0.000167
    31 0.031729 -1.160830 0.058838 -1.261903 0.000642 0.008372
    32 -0.963866 -2.785145 -0.085350 0.070006 0.162276 -0.191556
    33 0.028479 -1.403067 0.006271 -0.858676 0.000000 0.000000
    34 0.021413 -0.957781 0.020046 -0.432470 0.000000 0.000000
    35 1.164475 -2.543940 -0.170330 -0.514667 -0.282959 -0.086049
    36 0.024032 -1.129042 0.017807 -0.803451 0.000000 0.000001
    37 0.014898 -0.883989 -0.019848 -0.584392 0.000000 0.000000
    38 -0.586770 -1.264477 0.200161 -0.119695 -0.731399 -2.613436
    39 1.522835 0.058681 0.016848 -0.087276 -0.051738 0.379412
    40 1.117947 0.048424 -0.005766 -0.003814 -0.024910 0.208075
    41 -0.139399 -0.111698 0.014397 0.285382 -0.030687 1.580508
    42 -1.393470 8.839177 -0.239433 1.580804 -0.005023 -1.566847
end
