// Created by Crowbar 0.34.0.0

$ModelName "weapons/tfa_cso/w_magnumlauncher_gs18.mdl"

$BodyGroup "studio"
{
	studio "v_sgmissilepaintgs18_v_ref03"
}

$collisionmodel "v_sgmissilepaintgs18_v_ref03.smd"
{
	$mass 9
}

$CDMaterials "models\weapons\tfa_cso\magnumlauncher_gs18\"

$attachment "0" "root" 14.40 -0.10 -0.20 rotate -0 0 0

$Sequence "idle" {
	"anims\idle.smd"
	fps 30
}