version 1
nodes
  0 "root" -1
  1 "Bone01" 0
  2 "Bone_Lefthand" 1
  3 "Dummy02" 2
  4 "Bone02" 3
  5 "Bone24" 4
  6 "Bone34" 4
  7 "Bone16" 4
  8 "Dummy01" 4
  9 "Bone08" 8
  10 "Bone26" 4
  11 "Bone_L_Upper" 1
  12 "Bone13" 2
  13 "Bone14" 12
  14 "Bone15" 13
  15 "Bone17" 2
  16 "Bone18" 15
  17 "Bone19" 16
  18 "Bone21" 2
  19 "Bone22" 18
  20 "Bone23" 19
  21 "Bone09" 2
  22 "Bone10" 21
  23 "Bone11" 22
  24 "Bone05" 2
  25 "Bone06" 24
  26 "Bone07" 25
  27 "Bone_Se_Hand-L" 2
  28 "Bone04" 0
  29 "Bone_Righthand" 28
  30 "Bone39" 29
  31 "Bone40" 30
  32 "Bone41" 31
  33 "Bone35" 29
  34 "Bone36" 33
  35 "Bone37" 34
  36 "Bone31" 29
  37 "Bone32" 36
  38 "Bone33" 37
  39 "Bone43" 29
  40 "Bone44" 39
  41 "Bone45" 40
  42 "Bone27" 29
  43 "Bone28" 42
  44 "Bone29" 43
  45 "Bone_Se_Hand-R" 29
  46 "Bone_R_Upper" 28
end
skeleton
  time 0
    0 -0.999830 3.128971 1.240267 0.000000 0.000000 0.000000
    1 9.213061 0.858847 -7.257364 -0.149965 -1.612728 -0.045697
    2 -0.071919 -8.498730 -0.104136 0.151120 0.283287 0.053592
    3 3.401225 -2.645862 1.364576 0.246376 0.052132 -1.568741
    4 0.000001 0.000000 0.000000 0.000000 0.000000 0.000000
    5 4.391918 -0.597756 0.762120 0.000001 -3.141592 -1.570796
    6 17.745667 -0.979427 -0.000002 0.000000 0.000000 -1.570796
    7 -1.334754 0.593352 0.000000 0.000001 0.000000 1.570797
    8 4.830445 -3.853928 0.000002 0.000000 0.000000 -1.570796
    9 0.000000 0.000000 0.000000 0.000000 0.000000 0.000000
    10 2.320621 -2.042388 0.000001 0.000000 0.000000 -1.570796
    11 7.687064 4.934343 -0.145900 -1.570562 0.002683 -2.512180
    12 -0.488518 -2.755602 -0.228260 -0.871614 -0.202562 -0.209541
    13 0.039887 -1.479790 0.029854 -2.058952 0.000000 0.000001
    14 0.028786 -1.075731 -0.023109 -0.606341 0.000000 0.000000
    15 0.250027 -2.820665 -0.238396 -0.797118 -0.167517 -0.114938
    16 -0.049759 -1.680544 0.100479 -1.934764 0.000000 -0.000002
    17 -0.034142 -1.148312 0.084782 -0.925906 0.000000 0.000000
    18 0.957766 -2.746780 -0.090302 0.005854 -0.162684 0.097910
    19 -0.033420 -1.397129 -0.011257 -0.521001 0.000000 -0.000001
    20 -0.022360 -0.957436 0.018784 -0.975489 0.000000 0.000000
    21 -1.180681 -2.507217 -0.193859 -0.671429 -0.081516 -0.261329
    22 -0.024967 -1.123934 0.017597 -2.056303 0.000000 0.000001
    23 -0.020057 -0.890968 0.010090 -0.677843 0.000000 0.000000
    24 0.583510 -1.197277 0.185379 0.180205 -0.812077 -1.291294
    25 1.535927 0.010246 0.005009 -0.002964 -0.012979 -0.506650
    26 1.100771 0.004527 -0.010679 -0.015488 -0.004784 -1.694062
    27 0.120153 -0.050270 -0.054489 0.287569 3.110905 1.561085
    28 0.901142 -13.383852 -10.950836 -1.766662 -5.321359 -1.065195
    29 0.096944 -8.450418 -0.009365 0.213377 -1.183830 0.197935
    30 0.447953 -2.798986 -0.200443 -0.902026 -0.067961 0.142840
    31 -0.032909 -1.480204 0.004940 -1.165539 0.000000 0.000002
    32 -0.027022 -1.076920 -0.020210 -0.581944 0.000000 0.000000
    33 -0.249534 -2.846964 -0.174213 -0.325619 -0.120522 0.016114
    34 0.043235 -1.683941 0.096012 -1.559050 0.002823 -0.000167
    35 0.031729 -1.160830 0.058838 -0.744914 0.000642 0.008372
    36 -0.963866 -2.785145 -0.085350 0.072585 -0.012819 0.054272
    37 0.028479 -1.403067 0.006271 -0.427290 0.000000 0.000000
    38 0.021413 -0.957781 0.020046 -1.030498 0.000000 0.000000
    39 1.164475 -2.543940 -0.170330 -1.138619 -0.190587 0.231604
    40 0.024032 -1.129042 0.017807 -0.709846 0.000000 0.000001
    41 0.014898 -0.883989 -0.019848 -0.845493 0.000000 0.000000
    42 -0.586770 -1.264477 0.200161 -0.014871 -0.426252 -2.569324
    43 1.522835 0.058681 0.016848 0.001410 0.008985 0.449311
    44 1.117947 0.048424 -0.005766 -0.008285 -0.023808 0.390824
    45 -0.139399 -0.111698 0.014397 0.653637 -0.030687 1.580508
    46 -1.393470 8.839177 -0.239433 1.580804 -0.005023 -1.566847
  time 1
    0 -0.999830 3.128971 1.240267 0.000000 0.000000 0.000000
    1 9.310721 3.409706 -6.866727 0.088899 -1.659089 -0.285117
    2 -0.071919 -8.498730 -0.104136 0.151120 0.283287 0.053592
    3 3.401225 -2.645862 1.364576 0.246376 0.052132 -1.568741
    4 0.000001 0.000000 0.000000 0.000000 0.000000 0.000000
    5 4.391918 -0.597756 0.762120 1.474266 -1.542425 -3.073338
    6 17.745667 -0.979427 -0.000002 0.000000 0.000000 -1.570796
    7 -1.334754 0.593352 0.000000 0.000001 0.000000 1.570797
    8 4.830445 -3.853928 0.000002 0.000000 0.000000 -1.570796
    9 0.000000 0.000000 0.000000 0.000000 0.000000 0.000000
    10 2.320621 -2.042388 0.000001 0.000000 0.000000 -1.570796
    11 7.687064 4.934343 -0.145900 -1.570562 0.002683 -2.512180
    12 -0.488518 -2.755602 -0.228260 -0.871614 -0.202562 -0.209541
    13 0.039887 -1.479790 0.029854 -2.058952 0.000000 0.000001
    14 0.028786 -1.075731 -0.023109 -0.606341 0.000000 0.000000
    15 0.250027 -2.820665 -0.238396 -0.797118 -0.167517 -0.114938
    16 -0.049759 -1.680544 0.100479 -1.934764 0.000000 -0.000002
    17 -0.034142 -1.148312 0.084782 -0.925879 0.000000 0.000000
    18 0.957766 -2.746780 -0.090302 0.005854 -0.162684 0.097910
    19 -0.033420 -1.397129 -0.011257 -1.027104 0.000000 -0.000001
    20 -0.022360 -0.957436 0.018784 -1.140254 0.000000 0.000000
    21 -1.180681 -2.507217 -0.193859 -0.671429 -0.081516 -0.261329
    22 -0.024967 -1.123934 0.017597 -2.056303 0.000000 0.000001
    23 -0.020057 -0.890968 0.010090 -0.677843 0.000000 0.000000
    24 0.583510 -1.197277 0.185379 0.180205 -0.812077 -1.291294
    25 1.535927 0.010246 0.005009 -0.002964 -0.012979 -0.506650
    26 1.100771 0.004527 -0.010679 -0.015488 -0.004784 -1.694062
    27 0.120153 -0.050270 -0.054489 0.287569 3.110905 1.561085
    28 1.147243 -10.907214 -10.587544 -1.722995 -5.362592 -1.030929
    29 0.096944 -8.450418 -0.009365 0.213377 -1.183830 0.197935
    30 0.447953 -2.798986 -0.200443 -0.902026 -0.067961 0.142840
    31 -0.032909 -1.480204 0.004940 -1.165539 0.000000 0.000002
    32 -0.027022 -1.076920 -0.020210 -0.581944 0.000000 0.000000
    33 -0.249534 -2.846964 -0.174213 -0.325619 -0.120522 0.016114
    34 0.043235 -1.683941 0.096012 -1.559050 0.002823 -0.000167
    35 0.031729 -1.160830 0.058838 -0.744914 0.000642 0.008372
    36 -0.963866 -2.785145 -0.085350 0.072585 -0.012819 0.054272
    37 0.028479 -1.403067 0.006271 -0.427290 0.000000 0.000000
    38 0.021413 -0.957781 0.020046 -1.030498 0.000000 0.000000
    39 1.164475 -2.543940 -0.170330 -1.138619 -0.190587 0.231604
    40 0.024032 -1.129042 0.017807 -0.709846 0.000000 0.000001
    41 0.014898 -0.883989 -0.019848 -0.845493 0.000000 0.000000
    42 -0.586770 -1.264477 0.200161 -0.014871 -0.426252 -2.569324
    43 1.522835 0.058681 0.016848 0.001410 0.008985 0.449311
    44 1.117947 0.048424 -0.005766 -0.008285 -0.023808 0.390824
    45 -0.139399 -0.111698 0.014397 0.653637 -0.030687 1.580508
    46 -1.393470 8.839177 -0.239433 1.580804 -0.005023 -1.566847
  time 2
    0 -0.999830 3.128971 1.240267 0.000000 0.000000 0.000000
    1 9.166185 3.772998 -6.710472 0.642650 -1.611331 -0.837748
    2 -0.071919 -8.498730 -0.104136 0.151120 0.283287 0.053592
    3 3.401225 -2.645862 1.364576 0.246376 0.052132 -1.568741
    4 0.000001 0.000000 0.000000 0.000000 0.000000 0.000000
    5 4.391918 -0.597756 0.762120 -0.055115 -2.108700 -1.551767
    6 17.745667 -0.979427 -0.000002 0.000000 0.000000 -1.570796
    7 -1.334754 0.593352 0.000000 0.000001 0.000000 1.570797
    8 4.830445 -3.853928 0.000002 0.000000 0.000000 -1.570796
    9 0.000000 0.000000 0.000000 0.000000 0.000000 0.000000
    10 2.320621 -2.042388 0.000001 0.000000 0.000000 -1.570796
    11 7.687064 4.934343 -0.145900 -1.570562 0.002683 -2.512180
    12 -0.488518 -2.755602 -0.228260 -0.871614 -0.202562 -0.209541
    13 0.039887 -1.479790 0.029854 -2.058952 0.000000 0.000001
    14 0.028786 -1.075731 -0.023109 -0.606341 0.000000 0.000000
    15 0.250027 -2.820665 -0.238396 -0.797118 -0.167517 -0.114938
    16 -0.049759 -1.680544 0.100479 -1.934764 0.000000 -0.000002
    17 -0.034142 -1.148312 0.084782 -0.925906 0.000000 0.000000
    18 0.957766 -2.746780 -0.090302 0.005854 -0.162684 0.097910
    19 -0.033420 -1.397129 -0.011257 -1.027104 0.000000 -0.000001
    20 -0.022360 -0.957436 0.018784 -1.140254 0.000000 0.000000
    21 -1.180681 -2.507217 -0.193859 -0.671429 -0.081516 -0.261329
    22 -0.024967 -1.123934 0.017597 -2.056303 0.000000 0.000001
    23 -0.020057 -0.890968 0.010090 -0.677843 0.000000 0.000000
    24 0.583510 -1.197277 0.185379 0.180205 -0.812077 -1.291294
    25 1.535927 0.010246 0.005009 -0.002964 -0.012979 -0.506650
    26 1.100771 0.004527 -0.010679 -0.015488 -0.004784 -1.694062
    27 0.120153 -0.050270 -0.054489 0.287569 3.110905 1.561085
    28 0.799576 -10.563454 -9.876585 -1.812008 -5.339357 -1.102119
    29 0.096944 -8.450418 -0.009365 0.213377 -1.183830 0.197935
    30 0.447953 -2.798986 -0.200443 -0.902026 -0.067961 0.142840
    31 -0.032909 -1.480204 0.004940 -1.165539 0.000000 0.000002
    32 -0.027022 -1.076920 -0.020210 -0.581944 0.000000 0.000000
    33 -0.249534 -2.846964 -0.174213 -0.325619 -0.120522 0.016114
    34 0.043235 -1.683941 0.096012 -1.559050 0.002823 -0.000167
    35 0.031729 -1.160830 0.058838 -0.744914 0.000642 0.008372
    36 -0.963866 -2.785145 -0.085350 0.072585 -0.012819 0.054272
    37 0.028479 -1.403067 0.006271 -0.427290 0.000000 0.000000
    38 0.021413 -0.957781 0.020046 -1.030498 0.000000 0.000000
    39 1.164475 -2.543940 -0.170330 -1.138619 -0.190587 0.231604
    40 0.024032 -1.129042 0.017807 -0.709846 0.000000 0.000001
    41 0.014898 -0.883989 -0.019848 -0.845493 0.000000 0.000000
    42 -0.586770 -1.264477 0.200161 -0.014871 -0.426252 -2.569324
    43 1.522835 0.058681 0.016848 0.001410 0.008985 0.449311
    44 1.117947 0.048424 -0.005766 -0.008285 -0.023808 0.390824
    45 -0.139399 -0.111698 0.014397 0.653637 -0.030687 1.580508
    46 -1.393470 8.839177 -0.239433 1.580804 -0.005023 -1.566847
  time 3
    0 -0.999830 3.128971 1.240267 0.000000 0.000000 0.000000
    1 9.037275 3.491740 -6.737817 -1.205045 -1.531503 1.011111
    2 -0.071919 -8.498730 -0.104136 0.151120 0.283287 0.053592
    3 3.401225 -2.645862 1.364576 0.246376 0.052132 -1.568741
    4 0.000001 0.000000 0.000000 0.000000 0.000000 0.000000
    5 4.391918 -0.597756 0.762120 0.000001 -3.141592 -1.570796
    6 17.745667 -0.979427 -0.000002 0.000000 0.000000 -1.570796
    7 -1.334754 0.593352 0.000000 0.000001 0.000000 1.570797
    8 4.830445 -3.853928 0.000002 0.000000 0.000000 -1.570796
    9 0.000000 0.000000 0.000000 0.000000 0.000000 0.000000
    10 2.320621 -2.042388 0.000001 0.000000 0.000000 -1.570796
    11 7.687064 4.934343 -0.145900 -1.570562 0.002683 -2.512180
    12 -0.488518 -2.755602 -0.228260 -0.871614 -0.202562 -0.209541
    13 0.039887 -1.479790 0.029854 -2.058952 0.000000 0.000001
    14 0.028786 -1.075731 -0.023109 -0.606341 0.000000 0.000000
    15 0.250027 -2.820665 -0.238396 -0.797118 -0.167517 -0.114938
    16 -0.049759 -1.680544 0.100479 -1.934764 0.000000 -0.000002
    17 -0.034142 -1.148312 0.084782 -0.925906 0.000000 0.000000
    18 0.957766 -2.746780 -0.090302 0.005854 -0.162684 0.097910
    19 -0.033420 -1.397129 -0.011257 -1.027104 0.000000 -0.000001
    20 -0.022360 -0.957436 0.018784 -1.140254 0.000000 0.000000
    21 -1.180681 -2.507217 -0.193859 -0.671429 -0.081516 -0.261329
    22 -0.024967 -1.123934 0.017597 -2.056303 0.000000 0.000001
    23 -0.020057 -0.890968 0.010090 -0.677843 0.000000 0.000000
    24 0.583510 -1.197277 0.185379 0.180205 -0.812077 -1.291294
    25 1.535927 0.010246 0.005009 -0.002964 -0.012979 -0.506650
    26 1.100771 0.004527 -0.010679 -0.015488 -0.004784 -1.694062
    27 0.120153 -0.050270 -0.054489 0.287569 3.110905 1.561085
    28 0.533943 -10.856431 -9.450790 -1.889398 -5.321931 -1.164861
    29 0.096944 -8.450418 -0.009365 0.213377 -1.183830 0.197935
    30 0.447953 -2.798986 -0.200443 -0.902026 -0.067961 0.142840
    31 -0.032909 -1.480204 0.004940 -1.165539 0.000000 0.000002
    32 -0.027022 -1.076920 -0.020210 -0.581944 0.000000 0.000000
    33 -0.249534 -2.846964 -0.174213 -0.325619 -0.120522 0.016114
    34 0.043235 -1.683941 0.096012 -1.559050 0.002823 -0.000167
    35 0.031729 -1.160830 0.058838 -0.744914 0.000642 0.008372
    36 -0.963866 -2.785145 -0.085350 0.072585 -0.012819 0.054272
    37 0.028479 -1.403067 0.006271 -0.427290 0.000000 0.000000
    38 0.021413 -0.957781 0.020046 -1.030498 0.000000 0.000000
    39 1.164475 -2.543940 -0.170330 -1.138619 -0.190587 0.231604
    40 0.024032 -1.129042 0.017807 -0.709846 0.000000 0.000001
    41 0.014898 -0.883989 -0.019848 -0.845493 0.000000 0.000000
    42 -0.586770 -1.264477 0.200161 -0.014871 -0.426252 -2.569324
    43 1.522835 0.058681 0.016848 0.001410 0.008985 0.449311
    44 1.117947 0.048424 -0.005766 -0.008285 -0.023808 0.390824
    45 -0.139399 -0.111698 0.014397 0.653637 -0.030687 1.580508
    46 -1.393470 8.839177 -0.239433 1.580804 -0.005023 -1.566847
  time 4
    0 -0.999830 3.128971 1.240267 0.000000 0.000000 0.000000
    1 9.076338 2.858908 -7.085484 1.323318 -1.614554 -1.517065
    2 -0.071919 -8.498730 -0.104136 0.151120 0.283287 0.053592
    3 3.401225 -2.645862 1.364576 0.246376 0.052132 -1.568741
    4 0.000001 0.000000 0.000000 0.000000 0.000000 0.000000
    5 4.391918 -0.597756 0.762120 0.000001 -3.141592 -1.570796
    6 17.745667 -0.979427 -0.000002 0.000000 0.000000 -1.570796
    7 -1.334754 0.593352 0.000000 0.000001 0.000000 1.570797
    8 4.830445 -3.853928 0.000002 0.000000 0.000000 -1.570796
    9 0.000000 0.000000 0.000000 0.000000 0.000000 0.000000
    10 2.320621 -2.042388 0.000001 0.000000 0.000000 -1.570796
    11 7.687064 4.934343 -0.145900 -1.570562 0.002683 -2.512180
    12 -0.488518 -2.755602 -0.228260 -0.871614 -0.202562 -0.209541
    13 0.039887 -1.479790 0.029854 -2.058952 0.000000 0.000001
    14 0.028786 -1.075731 -0.023109 -0.606341 0.000000 0.000000
    15 0.250027 -2.820665 -0.238396 -0.797118 -0.167517 -0.114938
    16 -0.049759 -1.680544 0.100479 -1.934764 0.000000 -0.000002
    17 -0.034142 -1.148312 0.084782 -0.925879 0.000000 0.000000
    18 0.957766 -2.746780 -0.090302 0.005854 -0.162684 0.097910
    19 -0.033420 -1.397129 -0.011257 -1.027104 0.000000 -0.000001
    20 -0.022360 -0.957436 0.018784 -1.140254 0.000000 0.000000
    21 -1.180681 -2.507217 -0.193859 -0.671429 -0.081516 -0.261329
    22 -0.024967 -1.123934 0.017597 -2.056303 0.000000 0.000001
    23 -0.020057 -0.890968 0.010090 -0.677843 0.000000 0.000000
    24 0.583510 -1.197277 0.185379 0.180205 -0.812077 -1.291294
    25 1.535927 0.010246 0.005009 -0.002964 -0.012979 -0.506650
    26 1.100771 0.004527 -0.010679 -0.015488 -0.004784 -1.694062
    27 0.120153 -0.050270 -0.054489 0.287569 3.110905 1.561085
    28 0.651134 -11.524421 -9.849240 -1.860108 -5.340881 -1.140277
    29 0.096944 -8.450418 -0.009365 0.213377 -1.183830 0.197935
    30 0.447953 -2.798986 -0.200443 -0.902026 -0.067961 0.142840
    31 -0.032909 -1.480204 0.004940 -1.165539 0.000000 0.000002
    32 -0.027022 -1.076920 -0.020210 -0.581944 0.000000 0.000000
    33 -0.249534 -2.846964 -0.174213 -0.325619 -0.120522 0.016114
    34 0.043235 -1.683941 0.096012 -1.559050 0.002823 -0.000167
    35 0.031729 -1.160830 0.058838 -0.744914 0.000642 0.008372
    36 -0.963866 -2.785145 -0.085350 0.072585 -0.012819 0.054272
    37 0.028479 -1.403067 0.006271 -0.427290 0.000000 0.000000
    38 0.021413 -0.957781 0.020046 -1.030498 0.000000 0.000000
    39 1.164475 -2.543940 -0.170330 -1.138619 -0.190587 0.231604
    40 0.024032 -1.129042 0.017807 -0.709846 0.000000 0.000001
    41 0.014898 -0.883989 -0.019848 -0.845493 0.000000 0.000000
    42 -0.586770 -1.264477 0.200161 -0.014871 -0.426252 -2.569324
    43 1.522835 0.058681 0.016848 0.001410 0.008985 0.449311
    44 1.117947 0.048424 -0.005766 -0.008285 -0.023808 0.390824
    45 -0.139399 -0.111698 0.014397 0.653637 -0.030687 1.580508
    46 -1.393470 8.839177 -0.239433 1.580804 -0.005023 -1.566847
  time 5
    0 -0.999830 3.128971 1.240267 0.000000 0.000000 0.000000
    1 9.173998 2.022945 -7.546435 0.655948 -1.643993 -0.849677
    2 -0.071919 -8.498730 -0.104136 0.151120 0.283287 0.053592
    3 3.401225 -2.645862 1.364576 0.246376 0.052132 -1.568741
    4 0.000001 0.000000 0.000000 0.000000 0.000000 0.000000
    5 4.391918 -0.597756 0.762120 0.000001 -3.141592 -1.570796
    6 17.745667 -0.979427 -0.000002 0.000000 0.000000 -1.570796
    7 -1.334754 0.593352 0.000000 0.000001 0.000000 1.570797
    8 4.830445 -3.853928 0.000002 0.000000 0.000000 -1.570796
    9 0.000000 0.000000 0.000000 0.000000 0.000000 0.000000
    10 2.320621 -2.042388 0.000001 0.000000 0.000000 -1.570796
    11 7.687064 4.934343 -0.145900 -1.570562 0.002683 -2.512180
    12 -0.488518 -2.755602 -0.228260 -0.871614 -0.202562 -0.209541
    13 0.039887 -1.479790 0.029854 -2.058952 0.000000 0.000001
    14 0.028786 -1.075731 -0.023109 -0.606341 0.000000 0.000000
    15 0.250027 -2.820665 -0.238396 -0.797118 -0.167517 -0.114938
    16 -0.049759 -1.680544 0.100479 -1.934764 0.000000 -0.000002
    17 -0.034142 -1.148312 0.084782 -0.925879 0.000000 0.000000
    18 0.957766 -2.746780 -0.090302 0.005854 -0.162684 0.097910
    19 -0.033420 -1.397129 -0.011257 -0.989586 0.000000 -0.000001
    20 -0.022360 -0.957436 0.018784 -1.128034 0.000000 0.000000
    21 -1.180681 -2.507217 -0.193859 -0.671429 -0.081516 -0.261329
    22 -0.024967 -1.123934 0.017597 -2.056303 0.000000 0.000001
    23 -0.020057 -0.890968 0.010090 -0.677843 0.000000 0.000000
    24 0.583510 -1.197277 0.185379 0.180205 -0.812077 -1.291294
    25 1.535927 0.010246 0.005009 -0.002964 -0.012979 -0.506650
    26 1.100771 0.004527 -0.010679 -0.015488 -0.004784 -1.694062
    27 0.120153 -0.050270 -0.054489 0.287569 3.110905 1.561085
    28 0.893329 -12.403354 -10.532855 -1.799512 -5.371257 -1.090919
    29 0.096944 -8.450418 -0.009365 0.213377 -1.183830 0.197935
    30 0.447953 -2.798986 -0.200443 -0.902026 -0.067961 0.142840
    31 -0.032909 -1.480204 0.004940 -1.165539 0.000000 0.000002
    32 -0.027022 -1.076920 -0.020210 -0.581944 0.000000 0.000000
    33 -0.249534 -2.846964 -0.174213 -0.325619 -0.120522 0.016114
    34 0.043235 -1.683941 0.096012 -1.559050 0.002823 -0.000167
    35 0.031729 -1.160830 0.058838 -0.744914 0.000642 0.008372
    36 -0.963866 -2.785145 -0.085350 0.072585 -0.012819 0.054272
    37 0.028479 -1.403067 0.006271 -0.427290 0.000000 0.000000
    38 0.021413 -0.957781 0.020046 -1.030498 0.000000 0.000000
    39 1.164475 -2.543940 -0.170330 -1.138619 -0.190587 0.231604
    40 0.024032 -1.129042 0.017807 -0.709846 0.000000 0.000001
    41 0.014898 -0.883989 -0.019848 -0.845493 0.000000 0.000000
    42 -0.586770 -1.264477 0.200161 -0.014871 -0.426252 -2.569324
    43 1.522835 0.058681 0.016848 0.001410 0.008985 0.449311
    44 1.117947 0.048424 -0.005766 -0.008285 -0.023808 0.390824
    45 -0.139399 -0.111698 0.014397 0.653637 -0.030687 1.580508
    46 -1.393470 8.839177 -0.239433 1.580804 -0.005023 -1.566847
  time 6
    0 -0.999830 3.128971 1.240267 0.000000 0.000000 0.000000
    1 9.236500 1.362769 -7.815975 0.440128 -1.666072 -0.634067
    2 -0.071919 -8.498730 -0.104136 0.151120 0.283287 0.053592
    3 3.401225 -2.645862 1.364576 0.246376 0.052132 -1.568741
    4 0.000001 0.000000 0.000000 0.000000 0.000000 0.000000
    5 4.391918 -0.597756 0.762120 0.000001 -3.141592 -1.570796
    6 17.745667 -0.979427 -0.000002 0.000000 0.000000 -1.570796
    7 -1.334754 0.593352 0.000000 0.000001 0.000000 1.570797
    8 4.830445 -3.853928 0.000002 0.000000 0.000000 -1.570796
    9 0.000000 0.000000 0.000000 0.000000 0.000000 0.000000
    10 2.320621 -2.042388 0.000001 0.000000 0.000000 -1.570796
    11 7.687064 4.934343 -0.145900 -1.570562 0.002683 -2.512180
    12 -0.488518 -2.755602 -0.228260 -0.871614 -0.202562 -0.209541
    13 0.039887 -1.479790 0.029854 -2.058952 0.000000 0.000001
    14 0.028786 -1.075731 -0.023109 -0.606341 0.000000 0.000000
    15 0.250027 -2.820665 -0.238396 -0.797118 -0.167517 -0.114938
    16 -0.049759 -1.680544 0.100479 -1.934764 0.000000 -0.000002
    17 -0.034142 -1.148312 0.084782 -0.925906 0.000000 0.000000
    18 0.957766 -2.746780 -0.090302 0.005854 -0.162684 0.097910
    19 -0.033420 -1.397129 -0.011257 -0.895878 0.000000 -0.000001
    20 -0.022360 -0.957436 0.018784 -1.097518 0.000000 0.000000
    21 -1.180681 -2.507217 -0.193859 -0.671429 -0.081516 -0.261329
    22 -0.024967 -1.123934 0.017597 -2.056303 0.000000 0.000001
    23 -0.020057 -0.890968 0.010090 -0.677843 0.000000 0.000000
    24 0.583510 -1.197277 0.185379 0.180205 -0.812077 -1.291294
    25 1.535927 0.010246 0.005009 -0.002964 -0.012979 -0.506650
    26 1.100771 0.004527 -0.010679 -0.015488 -0.004784 -1.694062
    27 0.120153 -0.050270 -0.054489 0.287569 3.110905 1.561085
    28 1.053490 -13.071343 -11.017244 -1.760212 -5.386017 -1.059405
    29 0.096944 -8.450418 -0.009365 0.213377 -1.183830 0.197935
    30 0.447953 -2.798986 -0.200443 -0.902026 -0.067961 0.142840
    31 -0.032909 -1.480204 0.004940 -1.165539 0.000000 0.000002
    32 -0.027022 -1.076920 -0.020210 -0.581944 0.000000 0.000000
    33 -0.249534 -2.846964 -0.174213 -0.325619 -0.120522 0.016114
    34 0.043235 -1.683941 0.096012 -1.559050 0.002823 -0.000167
    35 0.031729 -1.160830 0.058838 -0.744914 0.000642 0.008372
    36 -0.963866 -2.785145 -0.085350 0.072585 -0.012819 0.054272
    37 0.028479 -1.403067 0.006271 -0.427290 0.000000 0.000000
    38 0.021413 -0.957781 0.020046 -1.030498 0.000000 0.000000
    39 1.164475 -2.543940 -0.170330 -1.138619 -0.190587 0.231604
    40 0.024032 -1.129042 0.017807 -0.709846 0.000000 0.000001
    41 0.014898 -0.883989 -0.019848 -0.845493 0.000000 0.000000
    42 -0.586770 -1.264477 0.200161 -0.014871 -0.426252 -2.569324
    43 1.522835 0.058681 0.016848 0.001410 0.008985 0.449311
    44 1.117947 0.048424 -0.005766 -0.008285 -0.023808 0.390824
    45 -0.139399 -0.111698 0.014397 0.653637 -0.030687 1.580508
    46 -1.393470 8.839177 -0.239433 1.580804 -0.005023 -1.566847
  time 7
    0 -0.999830 3.128971 1.240267 0.000000 0.000000 0.000000
    1 9.248219 0.944787 -7.819881 0.341756 -1.659626 -0.535972
    2 -0.071919 -8.498730 -0.104136 0.151120 0.283287 0.053592
    3 3.401225 -2.645862 1.364576 0.246376 0.052132 -1.568741
    4 0.000001 0.000000 0.000000 0.000000 0.000000 0.000000
    5 4.391918 -0.597756 0.762120 0.000001 -3.141592 -1.570796
    6 17.745667 -0.979427 -0.000002 0.000000 0.000000 -1.570796
    7 -1.334754 0.593352 0.000000 0.000001 0.000000 1.570797
    8 4.830445 -3.853928 0.000002 0.000000 0.000000 -1.570796
    9 0.000000 0.000000 0.000000 0.000000 0.000000 0.000000
    10 2.320621 -2.042388 0.000001 0.000000 0.000000 -1.570796
    11 7.687064 4.934343 -0.145900 -1.570562 0.002683 -2.512180
    12 -0.488518 -2.755602 -0.228260 -0.871614 -0.202562 -0.209541
    13 0.039887 -1.479790 0.029854 -2.058952 0.000000 0.000001
    14 0.028786 -1.075731 -0.023109 -0.606341 0.000000 0.000000
    15 0.250027 -2.820665 -0.238396 -0.797118 -0.167517 -0.114938
    16 -0.049759 -1.680544 0.100479 -1.934764 0.000000 -0.000002
    17 -0.034142 -1.148312 0.084782 -0.925906 0.000000 0.000000
    18 0.957766 -2.746780 -0.090302 0.005854 -0.162684 0.097910
    19 -0.033420 -1.397129 -0.011257 -0.774031 0.000000 -0.000001
    20 -0.022360 -0.957436 0.018784 -1.057854 0.000000 0.000000
    21 -1.180681 -2.507217 -0.193859 -0.671429 -0.081516 -0.261329
    22 -0.024967 -1.123934 0.017597 -2.056303 0.000000 0.000001
    23 -0.020057 -0.890968 0.010090 -0.677843 0.000000 0.000000
    24 0.583510 -1.197277 0.185379 0.180205 -0.812077 -1.291294
    25 1.535927 0.010246 0.005009 -0.002964 -0.012979 -0.506650
    26 1.100771 0.004527 -0.010679 -0.015488 -0.004784 -1.694062
    27 0.120153 -0.050270 -0.054489 0.287569 3.110905 1.561085
    28 1.069116 -13.454167 -11.177406 -1.751949 -5.376209 -1.052856
    29 0.096944 -8.450418 -0.009365 0.213377 -1.183830 0.197935
    30 0.447953 -2.798986 -0.200443 -0.902026 -0.067961 0.142840
    31 -0.032909 -1.480204 0.004940 -1.165539 0.000000 0.000002
    32 -0.027022 -1.076920 -0.020210 -0.581944 0.000000 0.000000
    33 -0.249534 -2.846964 -0.174213 -0.325619 -0.120522 0.016114
    34 0.043235 -1.683941 0.096012 -1.559050 0.002823 -0.000167
    35 0.031729 -1.160830 0.058838 -0.744914 0.000642 0.008372
    36 -0.963866 -2.785145 -0.085350 0.072585 -0.012819 0.054272
    37 0.028479 -1.403067 0.006271 -0.427290 0.000000 0.000000
    38 0.021413 -0.957781 0.020046 -1.030498 0.000000 0.000000
    39 1.164475 -2.543940 -0.170330 -1.138619 -0.190587 0.231604
    40 0.024032 -1.129042 0.017807 -0.709846 0.000000 0.000001
    41 0.014898 -0.883989 -0.019848 -0.845493 0.000000 0.000000
    42 -0.586770 -1.264477 0.200161 -0.014871 -0.426252 -2.569324
    43 1.522835 0.058681 0.016848 0.001410 0.008985 0.449311
    44 1.117947 0.048424 -0.005766 -0.008285 -0.023808 0.390824
    45 -0.139399 -0.111698 0.014397 0.653637 -0.030687 1.580508
    46 -1.393470 8.839177 -0.239433 1.580804 -0.005023 -1.566847
  time 8
    0 -0.999830 3.128971 1.240267 0.000000 0.000000 0.000000
    1 9.244312 0.601027 -7.722222 0.210941 -1.642865 -0.405640
    2 -0.071919 -8.498730 -0.104136 0.151120 0.283287 0.053592
    3 3.401225 -2.645862 1.364576 0.246376 0.052132 -1.568741
    4 0.000001 0.000000 0.000000 0.000000 0.000000 0.000000
    5 4.391918 -0.597756 0.762120 0.000001 -3.141592 -1.570796
    6 17.745667 -0.979427 -0.000002 0.000000 0.000000 -1.570796
    7 -1.334754 0.593352 0.000000 0.000001 0.000000 1.570797
    8 4.830445 -3.853928 0.000002 0.000000 0.000000 -1.570796
    9 0.000000 0.000000 0.000000 0.000000 0.000000 0.000000
    10 2.320621 -2.042388 0.000001 0.000000 0.000000 -1.570796
    11 7.687064 4.934343 -0.145900 -1.570562 0.002683 -2.512180
    12 -0.488518 -2.755602 -0.228260 -0.871614 -0.202562 -0.209541
    13 0.039887 -1.479790 0.029854 -2.058952 0.000000 0.000001
    14 0.028786 -1.075731 -0.023109 -0.606341 0.000000 0.000000
    15 0.250027 -2.820665 -0.238396 -0.797118 -0.167517 -0.114938
    16 -0.049759 -1.680544 0.100479 -1.934764 0.000000 -0.000002
    17 -0.034142 -1.148312 0.084782 -0.925906 0.000000 0.000000
    18 0.957766 -2.746780 -0.090302 0.005854 -0.162684 0.097910
    19 -0.033420 -1.397129 -0.011257 -0.652227 0.000000 -0.000001
    20 -0.022360 -0.957436 0.018784 -1.018191 0.000000 0.000000
    21 -1.180681 -2.507217 -0.193859 -0.671429 -0.081516 -0.261329
    22 -0.024967 -1.123934 0.017597 -2.056303 0.000000 0.000001
    23 -0.020057 -0.890968 0.010090 -0.677843 0.000000 0.000000
    24 0.583510 -1.197277 0.185379 0.180205 -0.812077 -1.291294
    25 1.535927 0.010246 0.005009 -0.002964 -0.012979 -0.506650
    26 1.100771 0.004527 -0.010679 -0.015488 -0.004784 -1.694062
    27 0.120153 -0.050270 -0.054489 0.287569 3.110905 1.561085
    28 1.030052 -13.743238 -11.239908 -1.752621 -5.356498 -1.053330
    29 0.096944 -8.450418 -0.009365 0.213377 -1.183830 0.197935
    30 0.447953 -2.798986 -0.200443 -0.902026 -0.067961 0.142840
    31 -0.032909 -1.480204 0.004940 -1.165539 0.000000 0.000002
    32 -0.027022 -1.076920 -0.020210 -0.581944 0.000000 0.000000
    33 -0.249534 -2.846964 -0.174213 -0.325619 -0.120522 0.016114
    34 0.043235 -1.683941 0.096012 -1.559050 0.002823 -0.000167
    35 0.031729 -1.160830 0.058838 -0.744914 0.000642 0.008372
    36 -0.963866 -2.785145 -0.085350 0.072585 -0.012819 0.054272
    37 0.028479 -1.403067 0.006271 -0.427290 0.000000 0.000000
    38 0.021413 -0.957781 0.020046 -1.030498 0.000000 0.000000
    39 1.164475 -2.543940 -0.170330 -1.138619 -0.190587 0.231604
    40 0.024032 -1.129042 0.017807 -0.709846 0.000000 0.000001
    41 0.014898 -0.883989 -0.019848 -0.845493 0.000000 0.000000
    42 -0.586770 -1.264477 0.200161 -0.014871 -0.426252 -2.569324
    43 1.522835 0.058681 0.016848 0.001410 0.008985 0.449311
    44 1.117947 0.048424 -0.005766 -0.008285 -0.023808 0.390824
    45 -0.139399 -0.111698 0.014397 0.653637 -0.030687 1.580508
    46 -1.393470 8.839177 -0.239433 1.580804 -0.005023 -1.566847
  time 9
    0 -0.999830 3.128971 1.240267 0.000000 0.000000 0.000000
    1 9.232593 0.315862 -7.569873 -0.019290 -1.623096 -0.175832
    2 -0.071919 -8.498730 -0.104136 0.151120 0.283287 0.053592
    3 3.401225 -2.645862 1.364576 0.246376 0.052132 -1.568741
    4 0.000001 0.000000 0.000000 0.000000 0.000000 0.000000
    5 4.391918 -0.597756 0.762120 0.000001 -3.141592 -1.570796
    6 17.745667 -0.979427 -0.000002 0.000000 0.000000 -1.570796
    7 -1.334754 0.593352 0.000000 0.000001 0.000000 1.570797
    8 4.830445 -3.853928 0.000002 0.000000 0.000000 -1.570796
    9 0.000000 0.000000 0.000000 0.000000 0.000000 0.000000
    10 2.320621 -2.042388 0.000001 0.000000 0.000000 -1.570796
    11 7.687064 4.934343 -0.145900 -1.570562 0.002683 -2.512180
    12 -0.488518 -2.755602 -0.228260 -0.871614 -0.202562 -0.209541
    13 0.039887 -1.479790 0.029854 -2.058952 0.000000 0.000001
    14 0.028786 -1.075731 -0.023109 -0.606341 0.000000 0.000000
    15 0.250027 -2.820665 -0.238396 -0.797118 -0.167517 -0.114938
    16 -0.049759 -1.680544 0.100479 -1.934764 0.000000 -0.000002
    17 -0.034142 -1.148312 0.084782 -0.925906 0.000000 0.000000
    18 0.957766 -2.746780 -0.090302 0.005854 -0.162684 0.097910
    19 -0.033420 -1.397129 -0.011257 -0.558476 0.000000 -0.000001
    20 -0.022360 -0.957436 0.018784 -0.987710 0.000000 0.000000
    21 -1.180681 -2.507217 -0.193859 -0.671429 -0.081516 -0.261329
    22 -0.024967 -1.123934 0.017597 -2.056303 0.000000 0.000001
    23 -0.020057 -0.890968 0.010090 -0.677843 0.000000 0.000000
    24 0.583510 -1.197277 0.185379 0.180205 -0.812077 -1.291294
    25 1.535927 0.010246 0.005009 -0.002964 -0.012979 -0.506650
    26 1.100771 0.004527 -0.010679 -0.015488 -0.004784 -1.694062
    27 0.120153 -0.050270 -0.054489 0.287569 3.110905 1.561085
    28 0.963644 -13.961995 -11.243814 -1.758197 -5.332406 -1.057887
    29 0.096944 -8.450418 -0.009365 0.213377 -1.183830 0.197935
    30 0.447953 -2.798986 -0.200443 -0.902026 -0.067961 0.142840
    31 -0.032909 -1.480204 0.004940 -1.165539 0.000000 0.000002
    32 -0.027022 -1.076920 -0.020210 -0.581944 0.000000 0.000000
    33 -0.249534 -2.846964 -0.174213 -0.325619 -0.120522 0.016114
    34 0.043235 -1.683941 0.096012 -1.559050 0.002823 -0.000167
    35 0.031729 -1.160830 0.058838 -0.744914 0.000642 0.008372
    36 -0.963866 -2.785145 -0.085350 0.072585 -0.012819 0.054272
    37 0.028479 -1.403067 0.006271 -0.427290 0.000000 0.000000
    38 0.021413 -0.957781 0.020046 -1.030498 0.000000 0.000000
    39 1.164475 -2.543940 -0.170330 -1.138619 -0.190587 0.231604
    40 0.024032 -1.129042 0.017807 -0.709846 0.000000 0.000001
    41 0.014898 -0.883989 -0.019848 -0.845493 0.000000 0.000000
    42 -0.586770 -1.264477 0.200161 -0.014871 -0.426252 -2.569324
    43 1.522835 0.058681 0.016848 0.001410 0.008985 0.449311
    44 1.117947 0.048424 -0.005766 -0.008285 -0.023808 0.390824
    45 -0.139399 -0.111698 0.014397 0.653637 -0.030687 1.580508
    46 -1.393470 8.839177 -0.239433 1.580804 -0.005023 -1.566847
  time 10
    0 -0.999830 3.128971 1.240267 0.000000 0.000000 0.000000
    1 9.220874 0.081480 -7.413619 -0.434986 -1.609182 0.239418
    2 -0.071919 -8.498730 -0.104136 0.151120 0.283287 0.053592
    3 3.401225 -2.645862 1.364576 0.246376 0.052132 -1.568741
    4 0.000001 0.000000 0.000000 0.000000 0.000000 0.000000
    5 4.391918 -0.597756 0.762120 0.000001 -3.141592 -1.570796
    6 17.745667 -0.979427 -0.000002 0.000000 0.000000 -1.570796
    7 -1.334754 0.593352 0.000000 0.000001 0.000000 1.570797
    8 4.830445 -3.853928 0.000002 0.000000 0.000000 -1.570796
    9 0.000000 0.000000 0.000000 0.000000 0.000000 0.000000
    10 2.320621 -2.042388 0.000001 0.000000 0.000000 -1.570796
    11 7.687064 4.934343 -0.145900 -1.570562 0.002683 -2.512180
    12 -0.488518 -2.755602 -0.228260 -0.871614 -0.202562 -0.209541
    13 0.039887 -1.479790 0.029854 -2.058952 0.000000 0.000001
    14 0.028786 -1.075731 -0.023109 -0.606341 0.000000 0.000000
    15 0.250027 -2.820665 -0.238396 -0.797118 -0.167517 -0.114938
    16 -0.049759 -1.680544 0.100479 -1.934764 0.000000 -0.000002
    17 -0.034142 -1.148312 0.084782 -0.925906 0.000000 0.000000
    18 0.957766 -2.746780 -0.090302 0.005854 -0.162684 0.097910
    19 -0.033420 -1.397129 -0.011257 -0.521001 0.000000 -0.000001
    20 -0.022360 -0.957436 0.018784 -0.975489 0.000000 0.000000
    21 -1.180681 -2.507217 -0.193859 -0.671429 -0.081516 -0.261329
    22 -0.024967 -1.123934 0.017597 -2.056303 0.000000 0.000001
    23 -0.020057 -0.890968 0.010090 -0.677843 0.000000 0.000000
    24 0.583510 -1.197277 0.185379 0.180205 -0.812077 -1.291294
    25 1.535927 0.010246 0.005009 -0.002964 -0.012979 -0.506650
    26 1.100771 0.004527 -0.010679 -0.015488 -0.004784 -1.694062
    27 0.120153 -0.050270 -0.054489 0.287569 3.110905 1.561085
    28 0.897236 -14.126063 -11.228188 -1.764310 -5.309552 -1.063012
    29 0.096944 -8.450418 -0.009365 0.213377 -1.183830 0.197935
    30 0.447953 -2.798986 -0.200443 -0.902026 -0.067961 0.142840
    31 -0.032909 -1.480204 0.004940 -1.165539 0.000000 0.000002
    32 -0.027022 -1.076920 -0.020210 -0.581944 0.000000 0.000000
    33 -0.249534 -2.846964 -0.174213 -0.325619 -0.120522 0.016114
    34 0.043235 -1.683941 0.096012 -1.559050 0.002823 -0.000167
    35 0.031729 -1.160830 0.058838 -0.744914 0.000642 0.008372
    36 -0.963866 -2.785145 -0.085350 0.072585 -0.012819 0.054272
    37 0.028479 -1.403067 0.006271 -0.427290 0.000000 0.000000
    38 0.021413 -0.957781 0.020046 -1.030498 0.000000 0.000000
    39 1.164475 -2.543940 -0.170330 -1.138619 -0.190587 0.231604
    40 0.024032 -1.129042 0.017807 -0.709846 0.000000 0.000001
    41 0.014898 -0.883989 -0.019848 -0.845493 0.000000 0.000000
    42 -0.586770 -1.264477 0.200161 -0.014871 -0.426252 -2.569324
    43 1.522835 0.058681 0.016848 0.001410 0.008985 0.449311
    44 1.117947 0.048424 -0.005766 -0.008285 -0.023808 0.390824
    45 -0.139399 -0.111698 0.014397 0.653637 -0.030687 1.580508
    46 -1.393470 8.839177 -0.239433 1.580804 -0.005023 -1.566847
  time 11
    0 -0.999830 3.128971 1.240267 0.000000 0.000000 0.000000
    1 9.213061 -0.109933 -7.304240 -0.869967 -1.607463 0.674040
    2 -0.071919 -8.498730 -0.104136 0.151120 0.283287 0.053592
    3 3.401225 -2.645862 1.364576 0.246376 0.052132 -1.568741
    4 0.000001 0.000000 0.000000 0.000000 0.000000 0.000000
    5 4.391918 -0.597756 0.762120 0.000001 -3.141592 -1.570796
    6 17.745667 -0.979427 -0.000002 0.000000 0.000000 -1.570796
    7 -1.334754 0.593352 0.000000 0.000001 0.000000 1.570797
    8 4.830445 -3.853928 0.000002 0.000000 0.000000 -1.570796
    9 0.000000 0.000000 0.000000 0.000000 0.000000 0.000000
    10 2.320621 -2.042388 0.000001 0.000000 0.000000 -1.570796
    11 7.687064 4.934343 -0.145900 -1.570562 0.002683 -2.512180
    12 -0.488518 -2.755602 -0.228260 -0.871614 -0.202562 -0.209541
    13 0.039887 -1.479790 0.029854 -2.058952 0.000000 0.000001
    14 0.028786 -1.075731 -0.023109 -0.606341 0.000000 0.000000
    15 0.250027 -2.820665 -0.238396 -0.797118 -0.167517 -0.114938
    16 -0.049759 -1.680544 0.100479 -1.934764 0.000000 -0.000002
    17 -0.034142 -1.148312 0.084782 -0.925879 0.000000 0.000000
    18 0.957766 -2.746780 -0.090302 0.005854 -0.162684 0.097910
    19 -0.033420 -1.397129 -0.011257 -0.521001 0.000000 -0.000001
    20 -0.022360 -0.957436 0.018784 -0.975489 0.000000 0.000000
    21 -1.180681 -2.507217 -0.193859 -0.671429 -0.081516 -0.261329
    22 -0.024967 -1.123934 0.017597 -2.056303 0.000000 0.000001
    23 -0.020057 -0.890968 0.010090 -0.677843 0.000000 0.000000
    24 0.583510 -1.197277 0.185379 0.180205 -0.812077 -1.291294
    25 1.535927 0.010246 0.005009 -0.002964 -0.012979 -0.506650
    26 1.100771 0.004527 -0.010679 -0.015488 -0.004784 -1.694062
    27 0.120153 -0.050270 -0.054489 0.287569 3.110905 1.561085
    28 0.854265 -14.258879 -11.239908 -1.765923 -5.293268 -1.064341
    29 0.096944 -8.450418 -0.009365 0.213377 -1.183830 0.197935
    30 0.447953 -2.798986 -0.200443 -0.902026 -0.067961 0.142840
    31 -0.032909 -1.480204 0.004940 -1.165539 0.000000 0.000002
    32 -0.027022 -1.076920 -0.020210 -0.581944 0.000000 0.000000
    33 -0.249534 -2.846964 -0.174213 -0.325619 -0.120522 0.016114
    34 0.043235 -1.683941 0.096012 -1.559050 0.002823 -0.000167
    35 0.031729 -1.160830 0.058838 -0.744914 0.000642 0.008372
    36 -0.963866 -2.785145 -0.085350 0.072585 -0.012819 0.054272
    37 0.028479 -1.403067 0.006271 -0.427290 0.000000 0.000000
    38 0.021413 -0.957781 0.020046 -1.030498 0.000000 0.000000
    39 1.164475 -2.543940 -0.170330 -1.138619 -0.190587 0.231604
    40 0.024032 -1.129042 0.017807 -0.709846 0.000000 0.000001
    41 0.014898 -0.883989 -0.019848 -0.845493 0.000000 0.000000
    42 -0.586770 -1.264477 0.200161 -0.014871 -0.426252 -2.569324
    43 1.522835 0.058681 0.016848 0.001410 0.008985 0.449311
    44 1.117947 0.048424 -0.005766 -0.008285 -0.023808 0.390824
    45 -0.139399 -0.111698 0.014397 0.653637 -0.030687 1.580508
    46 -1.393470 8.839177 -0.239433 1.580804 -0.005023 -1.566847
  time 12
    0 -0.999830 3.128971 1.240267 0.000000 0.000000 0.000000
    1 9.213061 -0.168528 -7.257364 -0.968479 -1.611868 0.772332
    2 -0.071919 -8.498730 -0.104136 0.151120 0.283287 0.053592
    3 3.401225 -2.645862 1.364576 0.246376 0.052132 -1.568741
    4 0.000001 0.000000 0.000000 0.000000 0.000000 0.000000
    5 4.391918 -0.597756 0.762120 0.000001 -3.141592 -1.570796
    6 17.745667 -0.979427 -0.000002 0.000000 0.000000 -1.570796
    7 -1.334754 0.593352 0.000000 0.000001 0.000000 1.570797
    8 4.830445 -3.853928 0.000002 0.000000 0.000000 -1.570796
    9 0.000000 0.000000 0.000000 0.000000 0.000000 0.000000
    10 2.320621 -2.042388 0.000001 0.000000 0.000000 -1.570796
    11 7.687064 4.934343 -0.145900 -1.570562 0.002683 -2.512180
    12 -0.488518 -2.755602 -0.228260 -0.871614 -0.202562 -0.209541
    13 0.039887 -1.479790 0.029854 -2.058952 0.000000 0.000001
    14 0.028786 -1.075731 -0.023109 -0.606341 0.000000 0.000000
    15 0.250027 -2.820665 -0.238396 -0.797118 -0.167517 -0.114938
    16 -0.049759 -1.680544 0.100479 -1.934764 0.000000 -0.000002
    17 -0.034142 -1.148312 0.084782 -0.925906 0.000000 0.000000
    18 0.957766 -2.746780 -0.090302 0.005854 -0.162684 0.097910
    19 -0.033420 -1.397129 -0.011257 -0.521001 0.000000 -0.000001
    20 -0.022360 -0.957436 0.018784 -0.975489 0.000000 0.000000
    21 -1.180681 -2.507217 -0.193859 -0.671429 -0.081516 -0.261329
    22 -0.024967 -1.123934 0.017597 -2.056303 0.000000 0.000001
    23 -0.020057 -0.890968 0.010090 -0.677843 0.000000 0.000000
    24 0.583510 -1.197277 0.185379 0.180205 -0.812077 -1.291294
    25 1.535927 0.010246 0.005009 -0.002964 -0.012979 -0.506650
    26 1.100771 0.004527 -0.010679 -0.015488 -0.004784 -1.694062
    27 0.120153 -0.050270 -0.054489 0.287569 3.110905 1.561085
    28 0.854265 -14.297943 -11.282878 -1.759541 -5.288602 -1.059215
    29 0.096944 -8.450418 -0.009365 0.213377 -1.183830 0.197935
    30 0.447953 -2.798986 -0.200443 -0.902026 -0.067961 0.142840
    31 -0.032909 -1.480204 0.004940 -1.165539 0.000000 0.000002
    32 -0.027022 -1.076920 -0.020210 -0.581944 0.000000 0.000000
    33 -0.249534 -2.846964 -0.174213 -0.325619 -0.120522 0.016114
    34 0.043235 -1.683941 0.096012 -1.559050 0.002823 -0.000167
    35 0.031729 -1.160830 0.058838 -0.744914 0.000642 0.008372
    36 -0.963866 -2.785145 -0.085350 0.072585 -0.012819 0.054272
    37 0.028479 -1.403067 0.006271 -0.427290 0.000000 0.000000
    38 0.021413 -0.957781 0.020046 -1.030498 0.000000 0.000000
    39 1.164475 -2.543940 -0.170330 -1.138619 -0.190587 0.231604
    40 0.024032 -1.129042 0.017807 -0.709846 0.000000 0.000001
    41 0.014898 -0.883989 -0.019848 -0.845493 0.000000 0.000000
    42 -0.586770 -1.264477 0.200161 -0.014871 -0.426252 -2.569324
    43 1.522835 0.058681 0.016848 0.001410 0.008985 0.449311
    44 1.117947 0.048424 -0.005766 -0.008285 -0.023808 0.390824
    45 -0.139399 -0.111698 0.014397 0.653637 -0.030687 1.580508
    46 -1.393470 8.839177 -0.239433 1.580804 -0.005023 -1.566847
  time 13
    0 -0.999830 3.128971 1.240267 0.000000 0.000000 0.000000
    1 9.213061 -0.090401 -7.245645 -0.859176 -1.616703 0.662900
    2 -0.071919 -8.498730 -0.104136 0.151120 0.283287 0.053592
    3 3.401225 -2.645862 1.364576 0.246376 0.052132 -1.568741
    4 0.000001 0.000000 0.000000 0.000000 0.000000 0.000000
    5 4.391918 -0.597756 0.762120 0.000001 -3.141592 -1.570796
    6 17.745667 -0.979427 -0.000002 0.000000 0.000000 -1.570796
    7 -1.334754 0.593352 0.000000 0.000001 0.000000 1.570797
    8 4.830445 -3.853928 0.000002 0.000000 0.000000 -1.570796
    9 0.000000 0.000000 0.000000 0.000000 0.000000 0.000000
    10 2.320621 -2.042388 0.000001 0.000000 0.000000 -1.570796
    11 7.687064 4.934343 -0.145900 -1.570562 0.002683 -2.512180
    12 -0.488518 -2.755602 -0.228260 -0.871614 -0.202562 -0.209541
    13 0.039887 -1.479790 0.029854 -2.058952 0.000000 0.000001
    14 0.028786 -1.075731 -0.023109 -0.606341 0.000000 0.000000
    15 0.250027 -2.820665 -0.238396 -0.797118 -0.167517 -0.114938
    16 -0.049759 -1.680544 0.100479 -1.934764 0.000000 -0.000002
    17 -0.034142 -1.148312 0.084782 -0.925906 0.000000 0.000000
    18 0.957766 -2.746780 -0.090302 0.005854 -0.162684 0.097910
    19 -0.033420 -1.397129 -0.011257 -0.521001 0.000000 -0.000001
    20 -0.022360 -0.957436 0.018784 -0.975489 0.000000 0.000000
    21 -1.180681 -2.507217 -0.193859 -0.671429 -0.081516 -0.261329
    22 -0.024967 -1.123934 0.017597 -2.056303 0.000000 0.000001
    23 -0.020057 -0.890968 0.010090 -0.677843 0.000000 0.000000
    24 0.583510 -1.197277 0.185379 0.180205 -0.812077 -1.291294
    25 1.535927 0.010246 0.005009 -0.002964 -0.012979 -0.506650
    26 1.100771 0.004527 -0.010679 -0.015488 -0.004784 -1.694062
    27 0.120153 -0.050270 -0.054489 0.287569 3.110905 1.561085
    28 0.877704 -14.219815 -11.321941 -1.748994 -5.292316 -1.050578
    29 0.096944 -8.450418 -0.009365 0.213377 -1.183830 0.197935
    30 0.447953 -2.798986 -0.200443 -0.902026 -0.067961 0.142840
    31 -0.032909 -1.480204 0.004940 -1.165539 0.000000 0.000002
    32 -0.027022 -1.076920 -0.020210 -0.581944 0.000000 0.000000
    33 -0.249534 -2.846964 -0.174213 -0.325619 -0.120522 0.016114
    34 0.043235 -1.683941 0.096012 -1.559050 0.002823 -0.000167
    35 0.031729 -1.160830 0.058838 -0.744914 0.000642 0.008372
    36 -0.963866 -2.785145 -0.085350 0.072585 -0.012819 0.054272
    37 0.028479 -1.403067 0.006271 -0.427290 0.000000 0.000000
    38 0.021413 -0.957781 0.020046 -1.030498 0.000000 0.000000
    39 1.164475 -2.543940 -0.170330 -1.138619 -0.190587 0.231604
    40 0.024032 -1.129042 0.017807 -0.709846 0.000000 0.000001
    41 0.014898 -0.883989 -0.019848 -0.845493 0.000000 0.000000
    42 -0.586770 -1.264477 0.200161 -0.014871 -0.426252 -2.569324
    43 1.522835 0.058681 0.016848 0.001410 0.008985 0.449311
    44 1.117947 0.048424 -0.005766 -0.008285 -0.023808 0.390824
    45 -0.139399 -0.111698 0.014397 0.653637 -0.030687 1.580508
    46 -1.393470 8.839177 -0.239433 1.580804 -0.005023 -1.566847
  time 14
    0 -0.999830 3.128971 1.240267 0.000000 0.000000 0.000000
    1 9.213061 0.026790 -7.245645 -0.743748 -1.621646 0.547356
    2 -0.071919 -8.498730 -0.104136 0.151120 0.283287 0.053592
    3 3.401225 -2.645862 1.364576 0.246376 0.052132 -1.568741
    4 0.000001 0.000000 0.000000 0.000000 0.000000 0.000000
    5 4.391918 -0.597756 0.762120 0.000001 -3.141592 -1.570796
    6 17.745667 -0.979427 -0.000002 0.000000 0.000000 -1.570796
    7 -1.334754 0.593352 0.000000 0.000001 0.000000 1.570797
    8 4.830445 -3.853928 0.000002 0.000000 0.000000 -1.570796
    9 0.000000 0.000000 0.000000 0.000000 0.000000 0.000000
    10 2.320621 -2.042388 0.000001 0.000000 0.000000 -1.570796
    11 7.687064 4.934343 -0.145900 -1.570562 0.002683 -2.512180
    12 -0.488518 -2.755602 -0.228260 -0.871614 -0.202562 -0.209541
    13 0.039887 -1.479790 0.029854 -2.058952 0.000000 0.000001
    14 0.028786 -1.075731 -0.023109 -0.606341 0.000000 0.000000
    15 0.250027 -2.820665 -0.238396 -0.797118 -0.167517 -0.114938
    16 -0.049759 -1.680544 0.100479 -1.934764 0.000000 -0.000002
    17 -0.034142 -1.148312 0.084782 -0.925906 0.000000 0.000000
    18 0.957766 -2.746780 -0.090302 0.005854 -0.162684 0.097910
    19 -0.033420 -1.397129 -0.011257 -0.521001 0.000000 -0.000001
    20 -0.022360 -0.957436 0.018784 -0.975489 0.000000 0.000000
    21 -1.180681 -2.507217 -0.193859 -0.671429 -0.081516 -0.261329
    22 -0.024967 -1.123934 0.017597 -2.056303 0.000000 0.000001
    23 -0.020057 -0.890968 0.010090 -0.677843 0.000000 0.000000
    24 0.583510 -1.197277 0.185379 0.180205 -0.812077 -1.291294
    25 1.535927 0.010246 0.005009 -0.002964 -0.012979 -0.506650
    26 1.100771 0.004527 -0.010679 -0.015488 -0.004784 -1.694062
    27 0.120153 -0.050270 -0.054489 0.287569 3.110905 1.561085
    28 0.905048 -14.106531 -11.353192 -1.739253 -5.297458 -1.042604
    29 0.096944 -8.450418 -0.009365 0.213377 -1.183830 0.197935
    30 0.447953 -2.798986 -0.200443 -0.902026 -0.067961 0.142840
    31 -0.032909 -1.480204 0.004940 -1.165539 0.000000 0.000002
    32 -0.027022 -1.076920 -0.020210 -0.581944 0.000000 0.000000
    33 -0.249534 -2.846964 -0.174213 -0.325619 -0.120522 0.016114
    34 0.043235 -1.683941 0.096012 -1.559050 0.002823 -0.000167
    35 0.031729 -1.160830 0.058838 -0.744914 0.000642 0.008372
    36 -0.963866 -2.785145 -0.085350 0.072585 -0.012819 0.054272
    37 0.028479 -1.403067 0.006271 -0.427290 0.000000 0.000000
    38 0.021413 -0.957781 0.020046 -1.030498 0.000000 0.000000
    39 1.164475 -2.543940 -0.170330 -1.138619 -0.190587 0.231604
    40 0.024032 -1.129042 0.017807 -0.709846 0.000000 0.000001
    41 0.014898 -0.883989 -0.019848 -0.845493 0.000000 0.000000
    42 -0.586770 -1.264477 0.200161 -0.014871 -0.426252 -2.569324
    43 1.522835 0.058681 0.016848 0.001410 0.008985 0.449311
    44 1.117947 0.048424 -0.005766 -0.008285 -0.023808 0.390824
    45 -0.139399 -0.111698 0.014397 0.653637 -0.030687 1.580508
    46 -1.393470 8.839177 -0.239433 1.580804 -0.005023 -1.566847
  time 15
    0 -0.999830 3.128971 1.240267 0.000000 0.000000 0.000000
    1 9.213061 0.140075 -7.241738 -0.643009 -1.627018 0.446550
    2 -0.071919 -8.498730 -0.104136 0.151120 0.283287 0.053592
    3 3.401225 -2.645862 1.364576 0.246376 0.052132 -1.568741
    4 0.000001 0.000000 0.000000 0.000000 0.000000 0.000000
    5 4.391918 -0.597756 0.762120 0.000001 -3.141592 -1.570796
    6 17.745667 -0.979427 -0.000002 0.000000 0.000000 -1.570796
    7 -1.334754 0.593352 0.000000 0.000001 0.000000 1.570797
    8 4.830445 -3.853928 0.000002 0.000000 0.000000 -1.570796
    9 0.000000 0.000000 0.000000 0.000000 0.000000 0.000000
    10 2.320621 -2.042388 0.000001 0.000000 0.000000 -1.570796
    11 7.687064 4.934343 -0.145900 -1.570562 0.002683 -2.512180
    12 -0.488518 -2.755602 -0.228260 -0.871614 -0.202562 -0.209541
    13 0.039887 -1.479790 0.029854 -2.058952 0.000000 0.000001
    14 0.028786 -1.075731 -0.023109 -0.606341 0.000000 0.000000
    15 0.250027 -2.820665 -0.238396 -0.797118 -0.167517 -0.114938
    16 -0.049759 -1.680544 0.100479 -1.934764 0.000000 -0.000002
    17 -0.034142 -1.148312 0.084782 -0.925906 0.000000 0.000000
    18 0.957766 -2.746780 -0.090302 0.005854 -0.162684 0.097910
    19 -0.033420 -1.397129 -0.011257 -0.521001 0.000000 -0.000001
    20 -0.022360 -0.957436 0.018784 -0.975489 0.000000 0.000000
    21 -1.180681 -2.507217 -0.193859 -0.671429 -0.081516 -0.261329
    22 -0.024967 -1.123934 0.017597 -2.056303 0.000000 0.000001
    23 -0.020057 -0.890968 0.010090 -0.677843 0.000000 0.000000
    24 0.583510 -1.197277 0.185379 0.180205 -0.812077 -1.291294
    25 1.535927 0.010246 0.005009 -0.002964 -0.012979 -0.506650
    26 1.100771 0.004527 -0.010679 -0.015488 -0.004784 -1.694062
    27 0.120153 -0.050270 -0.054489 0.287569 3.110905 1.561085
    28 0.932393 -14.001059 -11.380537 -1.729915 -5.302981 -1.035106
    29 0.096944 -8.450418 -0.009365 0.213377 -1.183830 0.197935
    30 0.447953 -2.798986 -0.200443 -0.902026 -0.067961 0.142840
    31 -0.032909 -1.480204 0.004940 -1.165539 0.000000 0.000002
    32 -0.027022 -1.076920 -0.020210 -0.581944 0.000000 0.000000
    33 -0.249534 -2.846964 -0.174213 -0.325619 -0.120522 0.016114
    34 0.043235 -1.683941 0.096012 -1.559050 0.002823 -0.000167
    35 0.031729 -1.160830 0.058838 -0.744914 0.000642 0.008372
    36 -0.963866 -2.785145 -0.085350 0.072585 -0.012819 0.054272
    37 0.028479 -1.403067 0.006271 -0.427290 0.000000 0.000000
    38 0.021413 -0.957781 0.020046 -1.030498 0.000000 0.000000
    39 1.164475 -2.543940 -0.170330 -1.138619 -0.190587 0.231604
    40 0.024032 -1.129042 0.017807 -0.709846 0.000000 0.000001
    41 0.014898 -0.883989 -0.019848 -0.845493 0.000000 0.000000
    42 -0.586770 -1.264477 0.200161 -0.014871 -0.426252 -2.569324
    43 1.522835 0.058681 0.016848 0.001410 0.008985 0.449311
    44 1.117947 0.048424 -0.005766 -0.008285 -0.023808 0.390824
    45 -0.139399 -0.111698 0.014397 0.653637 -0.030687 1.580508
    46 -1.393470 8.839177 -0.239433 1.580804 -0.005023 -1.566847
  time 16
    0 -0.999830 3.128971 1.240267 0.000000 0.000000 0.000000
    1 9.213061 0.268985 -7.241738 -0.536491 -1.632766 0.340026
    2 -0.071919 -8.498730 -0.104136 0.151120 0.283287 0.053592
    3 3.401225 -2.645862 1.364576 0.246376 0.052132 -1.568741
    4 0.000001 0.000000 0.000000 0.000000 0.000000 0.000000
    5 4.391918 -0.597756 0.762120 0.000001 -3.141592 -1.570796
    6 17.745667 -0.979427 -0.000002 0.000000 0.000000 -1.570796
    7 -1.334754 0.593352 0.000000 0.000001 0.000000 1.570797
    8 4.830445 -3.853928 0.000002 0.000000 0.000000 -1.570796
    9 0.000000 0.000000 0.000000 0.000000 0.000000 0.000000
    10 2.320621 -2.042388 0.000001 0.000000 0.000000 -1.570796
    11 7.687064 4.934343 -0.145900 -1.570562 0.002683 -2.512180
    12 -0.488518 -2.755602 -0.228260 -0.871614 -0.202562 -0.209541
    13 0.039887 -1.479790 0.029854 -2.058952 0.000000 0.000001
    14 0.028786 -1.075731 -0.023109 -0.606341 0.000000 0.000000
    15 0.250027 -2.820665 -0.238396 -0.797118 -0.167517 -0.114938
    16 -0.049759 -1.680544 0.100479 -1.934764 0.000000 -0.000002
    17 -0.034142 -1.148312 0.084782 -0.925879 0.000000 0.000000
    18 0.957766 -2.746780 -0.090302 0.005854 -0.162684 0.097910
    19 -0.033420 -1.397129 -0.011257 -0.521001 0.000000 -0.000001
    20 -0.022360 -0.957436 0.018784 -0.975489 0.000000 0.000000
    21 -1.180681 -2.507217 -0.193859 -0.671429 -0.081516 -0.261329
    22 -0.024967 -1.123934 0.017597 -2.056303 0.000000 0.000001
    23 -0.020057 -0.890968 0.010090 -0.677843 0.000000 0.000000
    24 0.583510 -1.197277 0.185379 0.180205 -0.812077 -1.291294
    25 1.535927 0.010246 0.005009 -0.002964 -0.012979 -0.506650
    26 1.100771 0.004527 -0.010679 -0.015488 -0.004784 -1.694062
    27 0.120153 -0.050270 -0.054489 0.287569 3.110905 1.561085
    28 0.959737 -13.887774 -11.392256 -1.721383 -5.310123 -1.028177
    29 0.096944 -8.450418 -0.009365 0.213377 -1.183830 0.197935
    30 0.447953 -2.798986 -0.200443 -0.902026 -0.067961 0.142840
    31 -0.032909 -1.480204 0.004940 -1.165539 0.000000 0.000002
    32 -0.027022 -1.076920 -0.020210 -0.581944 0.000000 0.000000
    33 -0.249534 -2.846964 -0.174213 -0.325619 -0.120522 0.016114
    34 0.043235 -1.683941 0.096012 -1.559050 0.002823 -0.000167
    35 0.031729 -1.160830 0.058838 -0.744914 0.000642 0.008372
    36 -0.963866 -2.785145 -0.085350 0.072585 -0.012819 0.054272
    37 0.028479 -1.403067 0.006271 -0.427290 0.000000 0.000000
    38 0.021413 -0.957781 0.020046 -1.030498 0.000000 0.000000
    39 1.164475 -2.543940 -0.170330 -1.138619 -0.190587 0.231604
    40 0.024032 -1.129042 0.017807 -0.709846 0.000000 0.000001
    41 0.014898 -0.883989 -0.019848 -0.845493 0.000000 0.000000
    42 -0.586770 -1.264477 0.200161 -0.014871 -0.426252 -2.569324
    43 1.522835 0.058681 0.016848 0.001410 0.008985 0.449311
    44 1.117947 0.048424 -0.005766 -0.008285 -0.023808 0.390824
    45 -0.139399 -0.111698 0.014397 0.653637 -0.030687 1.580508
    46 -1.393470 8.839177 -0.239433 1.580804 -0.005023 -1.566847
  time 17
    0 -0.999830 3.128971 1.240267 0.000000 0.000000 0.000000
    1 9.213061 0.405708 -7.241738 -0.466593 -1.635076 0.270177
    2 -0.071919 -8.498730 -0.104136 0.151120 0.283287 0.053592
    3 3.401225 -2.645862 1.364576 0.246376 0.052132 -1.568741
    4 0.000001 0.000000 0.000000 0.000000 0.000000 0.000000
    5 4.391918 -0.597756 0.762120 0.000001 -3.141592 -1.570796
    6 17.745667 -0.979427 -0.000002 0.000000 0.000000 -1.570796
    7 -1.334754 0.593352 0.000000 0.000001 0.000000 1.570797
    8 4.830445 -3.853928 0.000002 0.000000 0.000000 -1.570796
    9 0.000000 0.000000 0.000000 0.000000 0.000000 0.000000
    10 2.320621 -2.042388 0.000001 0.000000 0.000000 -1.570796
    11 7.687064 4.934343 -0.145900 -1.570562 0.002683 -2.512180
    12 -0.488518 -2.755602 -0.228260 -0.871614 -0.202562 -0.209541
    13 0.039887 -1.479790 0.029854 -2.058952 0.000000 0.000001
    14 0.028786 -1.075731 -0.023109 -0.606341 0.000000 0.000000
    15 0.250027 -2.820665 -0.238396 -0.797118 -0.167517 -0.114938
    16 -0.049759 -1.680544 0.100479 -1.934764 0.000000 -0.000002
    17 -0.034142 -1.148312 0.084782 -0.925879 0.000000 0.000000
    18 0.957766 -2.746780 -0.090302 0.005854 -0.162684 0.097910
    19 -0.033420 -1.397129 -0.011257 -0.521001 0.000000 -0.000001
    20 -0.022360 -0.957436 0.018784 -0.975489 0.000000 0.000000
    21 -1.180681 -2.507217 -0.193859 -0.671429 -0.081516 -0.261329
    22 -0.024967 -1.123934 0.017597 -2.056303 0.000000 0.000001
    23 -0.020057 -0.890968 0.010090 -0.677843 0.000000 0.000000
    24 0.583510 -1.197277 0.185379 0.180205 -0.812077 -1.291294
    25 1.535927 0.010246 0.005009 -0.002964 -0.012979 -0.506650
    26 1.100771 0.004527 -0.010679 -0.015488 -0.004784 -1.694062
    27 0.120153 -0.050270 -0.054489 0.287569 3.110905 1.561085
    28 0.971457 -13.758864 -11.372724 -1.719300 -5.314884 -1.026563
    29 0.096944 -8.450418 -0.009365 0.213377 -1.183830 0.197935
    30 0.447953 -2.798986 -0.200443 -0.902026 -0.067961 0.142840
    31 -0.032909 -1.480204 0.004940 -1.165539 0.000000 0.000002
    32 -0.027022 -1.076920 -0.020210 -0.581944 0.000000 0.000000
    33 -0.249534 -2.846964 -0.174213 -0.325619 -0.120522 0.016114
    34 0.043235 -1.683941 0.096012 -1.559050 0.002823 -0.000167
    35 0.031729 -1.160830 0.058838 -0.744914 0.000642 0.008372
    36 -0.963866 -2.785145 -0.085350 0.072585 -0.012819 0.054272
    37 0.028479 -1.403067 0.006271 -0.427290 0.000000 0.000000
    38 0.021413 -0.957781 0.020046 -1.030498 0.000000 0.000000
    39 1.164475 -2.543940 -0.170330 -1.138619 -0.190587 0.231604
    40 0.024032 -1.129042 0.017807 -0.709846 0.000000 0.000001
    41 0.014898 -0.883989 -0.019848 -0.845493 0.000000 0.000000
    42 -0.586770 -1.264477 0.200161 -0.014871 -0.426252 -2.569324
    43 1.522835 0.058681 0.016848 0.001410 0.008985 0.449311
    44 1.117947 0.048424 -0.005766 -0.008285 -0.023808 0.390824
    45 -0.139399 -0.111698 0.014397 0.653637 -0.030687 1.580508
    46 -1.393470 8.839177 -0.239433 1.580804 -0.005023 -1.566847
  time 18
    0 -0.999830 3.128971 1.240267 0.000000 0.000000 0.000000
    1 9.213061 0.550244 -7.245645 -0.423708 -1.632981 0.227390
    2 -0.071919 -8.498730 -0.104136 0.151120 0.283287 0.053592
    3 3.401225 -2.645862 1.364576 0.246376 0.052132 -1.568741
    4 0.000001 0.000000 0.000000 0.000000 0.000000 0.000000
    5 4.391918 -0.597756 0.762120 0.000001 -3.141592 -1.570796
    6 17.745667 -0.979427 -0.000002 0.000000 0.000000 -1.570796
    7 -1.334754 0.593352 0.000000 0.000001 0.000000 1.570797
    8 4.830445 -3.853928 0.000002 0.000000 0.000000 -1.570796
    9 0.000000 0.000000 0.000000 0.000000 0.000000 0.000000
    10 2.320621 -2.042388 0.000001 0.000000 0.000000 -1.570796
    11 7.687064 4.934343 -0.145900 -1.570562 0.002683 -2.512180
    12 -0.488518 -2.755602 -0.228260 -0.871614 -0.202562 -0.209541
    13 0.039887 -1.479790 0.029854 -2.058952 0.000000 0.000001
    14 0.028786 -1.075731 -0.023109 -0.606341 0.000000 0.000000
    15 0.250027 -2.820665 -0.238396 -0.797118 -0.167517 -0.114938
    16 -0.049759 -1.680544 0.100479 -1.934764 0.000000 -0.000002
    17 -0.034142 -1.148312 0.084782 -0.925906 0.000000 0.000000
    18 0.957766 -2.746780 -0.090302 0.005854 -0.162684 0.097910
    19 -0.033420 -1.397129 -0.011257 -0.521001 0.000000 -0.000001
    20 -0.022360 -0.957436 0.018784 -0.975489 0.000000 0.000000
    21 -1.180681 -2.507217 -0.193859 -0.671429 -0.081516 -0.261329
    22 -0.024967 -1.123934 0.017597 -2.056303 0.000000 0.000001
    23 -0.020057 -0.890968 0.010090 -0.677843 0.000000 0.000000
    24 0.583510 -1.197277 0.185379 0.180205 -0.812077 -1.291294
    25 1.535927 0.010246 0.005009 -0.002964 -0.012979 -0.506650
    26 1.100771 0.004527 -0.010679 -0.015488 -0.004784 -1.694062
    27 0.120153 -0.050270 -0.054489 0.287569 3.110905 1.561085
    28 0.967550 -13.629954 -11.318035 -1.724204 -5.316884 -1.030645
    29 0.096944 -8.450418 -0.009365 0.213377 -1.183830 0.197935
    30 0.447953 -2.798986 -0.200443 -0.902026 -0.067961 0.142840
    31 -0.032909 -1.480204 0.004940 -1.165539 0.000000 0.000002
    32 -0.027022 -1.076920 -0.020210 -0.581944 0.000000 0.000000
    33 -0.249534 -2.846964 -0.174213 -0.325619 -0.120522 0.016114
    34 0.043235 -1.683941 0.096012 -1.559050 0.002823 -0.000167
    35 0.031729 -1.160830 0.058838 -0.744914 0.000642 0.008372
    36 -0.963866 -2.785145 -0.085350 0.072585 -0.012819 0.054272
    37 0.028479 -1.403067 0.006271 -0.427290 0.000000 0.000000
    38 0.021413 -0.957781 0.020046 -1.030498 0.000000 0.000000
    39 1.164475 -2.543940 -0.170330 -1.138619 -0.190587 0.231604
    40 0.024032 -1.129042 0.017807 -0.709846 0.000000 0.000001
    41 0.014898 -0.883989 -0.019848 -0.845493 0.000000 0.000000
    42 -0.586770 -1.264477 0.200161 -0.014871 -0.426252 -2.569324
    43 1.522835 0.058681 0.016848 0.001410 0.008985 0.449311
    44 1.117947 0.048424 -0.005766 -0.008285 -0.023808 0.390824
    45 -0.139399 -0.111698 0.014397 0.653637 -0.030687 1.580508
    46 -1.393470 8.839177 -0.239433 1.580804 -0.005023 -1.566847
  time 19
    0 -0.999830 3.128971 1.240267 0.000000 0.000000 0.000000
    1 9.213061 0.690873 -7.249551 -0.380266 -1.629166 0.184061
    2 -0.071919 -8.498730 -0.104136 0.151120 0.283287 0.053592
    3 3.401225 -2.645862 1.364576 0.246376 0.052132 -1.568741
    4 0.000001 0.000000 0.000000 0.000000 0.000000 0.000000
    5 4.391918 -0.597756 0.762120 0.000001 -3.141592 -1.570796
    6 17.745667 -0.979427 -0.000002 0.000000 0.000000 -1.570796
    7 -1.334754 0.593352 0.000000 0.000001 0.000000 1.570797
    8 4.830445 -3.853928 0.000002 0.000000 0.000000 -1.570796
    9 0.000000 0.000000 0.000000 0.000000 0.000000 0.000000
    10 2.320621 -2.042388 0.000001 0.000000 0.000000 -1.570796
    11 7.687064 4.934343 -0.145900 -1.570562 0.002683 -2.512180
    12 -0.488518 -2.755602 -0.228260 -0.871614 -0.202562 -0.209541
    13 0.039887 -1.479790 0.029854 -2.058952 0.000000 0.000001
    14 0.028786 -1.075731 -0.023109 -0.606341 0.000000 0.000000
    15 0.250027 -2.820665 -0.238396 -0.797118 -0.167517 -0.114938
    16 -0.049759 -1.680544 0.100479 -1.934764 0.000000 -0.000002
    17 -0.034142 -1.148312 0.084782 -0.925906 0.000000 0.000000
    18 0.957766 -2.746780 -0.090302 0.005854 -0.162684 0.097910
    19 -0.033420 -1.397129 -0.011257 -0.521001 0.000000 -0.000001
    20 -0.022360 -0.957436 0.018784 -0.975489 0.000000 0.000000
    21 -1.180681 -2.507217 -0.193859 -0.671429 -0.081516 -0.261329
    22 -0.024967 -1.123934 0.017597 -2.056303 0.000000 0.000001
    23 -0.020057 -0.890968 0.010090 -0.677843 0.000000 0.000000
    24 0.583510 -1.197277 0.185379 0.180205 -0.812077 -1.291294
    25 1.535927 0.010246 0.005009 -0.002964 -0.012979 -0.506650
    26 1.100771 0.004527 -0.010679 -0.015488 -0.004784 -1.694062
    27 0.120153 -0.050270 -0.054489 0.287569 3.110905 1.561085
    28 0.955831 -13.501043 -11.247720 -1.732064 -5.318122 -1.037004
    29 0.096944 -8.450418 -0.009365 0.213377 -1.183830 0.197935
    30 0.447953 -2.798986 -0.200443 -0.902026 -0.067961 0.142840
    31 -0.032909 -1.480204 0.004940 -1.165539 0.000000 0.000002
    32 -0.027022 -1.076920 -0.020210 -0.581944 0.000000 0.000000
    33 -0.249534 -2.846964 -0.174213 -0.325619 -0.120522 0.016114
    34 0.043235 -1.683941 0.096012 -1.559050 0.002823 -0.000167
    35 0.031729 -1.160830 0.058838 -0.744914 0.000642 0.008372
    36 -0.963866 -2.785145 -0.085350 0.072585 -0.012819 0.054272
    37 0.028479 -1.403067 0.006271 -0.427290 0.000000 0.000000
    38 0.021413 -0.957781 0.020046 -1.030498 0.000000 0.000000
    39 1.164475 -2.543940 -0.170330 -1.138619 -0.190587 0.231604
    40 0.024032 -1.129042 0.017807 -0.709846 0.000000 0.000001
    41 0.014898 -0.883989 -0.019848 -0.845493 0.000000 0.000000
    42 -0.586770 -1.264477 0.200161 -0.014871 -0.426252 -2.569324
    43 1.522835 0.058681 0.016848 0.001410 0.008985 0.449311
    44 1.117947 0.048424 -0.005766 -0.008285 -0.023808 0.390824
    45 -0.139399 -0.111698 0.014397 0.653637 -0.030687 1.580508
    46 -1.393470 8.839177 -0.239433 1.580804 -0.005023 -1.566847
  time 20
    0 -0.999830 3.128971 1.240267 0.000000 0.000000 0.000000
    1 9.213061 0.823690 -7.253457 -0.333899 -1.624439 0.137873
    2 -0.071919 -8.498730 -0.104136 0.151120 0.283287 0.053592
    3 3.401225 -2.645862 1.364576 0.246376 0.052132 -1.568741
    4 0.000001 0.000000 0.000000 0.000000 0.000000 0.000000
    5 4.391918 -0.597756 0.762120 0.000001 -3.141592 -1.570796
    6 17.745667 -0.979427 -0.000002 0.000000 0.000000 -1.570796
    7 -1.334754 0.593352 0.000000 0.000001 0.000000 1.570797
    8 4.830445 -3.853928 0.000002 0.000000 0.000000 -1.570796
    9 0.000000 0.000000 0.000000 0.000000 0.000000 0.000000
    10 2.320621 -2.042388 0.000001 0.000000 0.000000 -1.570796
    11 7.687064 4.934343 -0.145900 -1.570562 0.002683 -2.512180
    12 -0.488518 -2.755602 -0.228260 -0.871614 -0.202562 -0.209541
    13 0.039887 -1.479790 0.029854 -2.058952 0.000000 0.000001
    14 0.028786 -1.075731 -0.023109 -0.606341 0.000000 0.000000
    15 0.250027 -2.820665 -0.238396 -0.797118 -0.167517 -0.114938
    16 -0.049759 -1.680544 0.100479 -1.934764 0.000000 -0.000002
    17 -0.034142 -1.148312 0.084782 -0.925906 0.000000 0.000000
    18 0.957766 -2.746780 -0.090302 0.005854 -0.162684 0.097910
    19 -0.033420 -1.397129 -0.011257 -0.521001 0.000000 -0.000001
    20 -0.022360 -0.957436 0.018784 -0.975489 0.000000 0.000000
    21 -1.180681 -2.507217 -0.193859 -0.671429 -0.081516 -0.261329
    22 -0.024967 -1.123934 0.017597 -2.056303 0.000000 0.000001
    23 -0.020057 -0.890968 0.010090 -0.677843 0.000000 0.000000
    24 0.583510 -1.197277 0.185379 0.180205 -0.812077 -1.291294
    25 1.535927 0.010246 0.005009 -0.002964 -0.012979 -0.506650
    26 1.100771 0.004527 -0.010679 -0.015488 -0.004784 -1.694062
    27 0.120153 -0.050270 -0.054489 0.287569 3.110905 1.561085
    28 0.940206 -13.383852 -11.169593 -1.741470 -5.318884 -1.044693
    29 0.096944 -8.450418 -0.009365 0.213377 -1.183830 0.197935
    30 0.447953 -2.798986 -0.200443 -0.902026 -0.067961 0.142840
    31 -0.032909 -1.480204 0.004940 -1.165539 0.000000 0.000002
    32 -0.027022 -1.076920 -0.020210 -0.581944 0.000000 0.000000
    33 -0.249534 -2.846964 -0.174213 -0.325619 -0.120522 0.016114
    34 0.043235 -1.683941 0.096012 -1.559050 0.002823 -0.000167
    35 0.031729 -1.160830 0.058838 -0.744914 0.000642 0.008372
    36 -0.963866 -2.785145 -0.085350 0.072585 -0.012819 0.054272
    37 0.028479 -1.403067 0.006271 -0.427290 0.000000 0.000000
    38 0.021413 -0.957781 0.020046 -1.030498 0.000000 0.000000
    39 1.164475 -2.543940 -0.170330 -1.138619 -0.190587 0.231604
    40 0.024032 -1.129042 0.017807 -0.709846 0.000000 0.000001
    41 0.014898 -0.883989 -0.019848 -0.845493 0.000000 0.000000
    42 -0.586770 -1.264477 0.200161 -0.014871 -0.426252 -2.569324
    43 1.522835 0.058681 0.016848 0.001410 0.008985 0.449311
    44 1.117947 0.048424 -0.005766 -0.008285 -0.023808 0.390824
    45 -0.139399 -0.111698 0.014397 0.653637 -0.030687 1.580508
    46 -1.393470 8.839177 -0.239433 1.580804 -0.005023 -1.566847
  time 21
    0 -0.999830 3.128971 1.240267 0.000000 0.000000 0.000000
    1 9.213061 0.936974 -7.253457 -0.284191 -1.619604 0.088283
    2 -0.071919 -8.498730 -0.104136 0.151120 0.283287 0.053592
    3 3.401225 -2.645862 1.364576 0.246376 0.052132 -1.568741
    4 0.000001 0.000000 0.000000 0.000000 0.000000 0.000000
    5 4.391918 -0.597756 0.762120 0.000001 -3.141592 -1.570796
    6 17.745667 -0.979427 -0.000002 0.000000 0.000000 -1.570796
    7 -1.334754 0.593352 0.000000 0.000001 0.000000 1.570797
    8 4.830445 -3.853928 0.000002 0.000000 0.000000 -1.570796
    9 0.000000 0.000000 0.000000 0.000000 0.000000 0.000000
    10 2.320621 -2.042388 0.000001 0.000000 0.000000 -1.570796
    11 7.687064 4.934343 -0.145900 -1.570562 0.002683 -2.512180
    12 -0.488518 -2.755602 -0.228260 -0.871614 -0.202562 -0.209541
    13 0.039887 -1.479790 0.029854 -2.058952 0.000000 0.000001
    14 0.028786 -1.075731 -0.023109 -0.606341 0.000000 0.000000
    15 0.250027 -2.820665 -0.238396 -0.797118 -0.167517 -0.114938
    16 -0.049759 -1.680544 0.100479 -1.934764 0.000000 -0.000002
    17 -0.034142 -1.148312 0.084782 -0.925906 0.000000 0.000000
    18 0.957766 -2.746780 -0.090302 0.005854 -0.162684 0.097910
    19 -0.033420 -1.397129 -0.011257 -0.521001 0.000000 -0.000001
    20 -0.022360 -0.957436 0.018784 -0.975489 0.000000 0.000000
    21 -1.180681 -2.507217 -0.193859 -0.671429 -0.081516 -0.261329
    22 -0.024967 -1.123934 0.017597 -2.056303 0.000000 0.000001
    23 -0.020057 -0.890968 0.010090 -0.677843 0.000000 0.000000
    24 0.583510 -1.197277 0.185379 0.180205 -0.812077 -1.291294
    25 1.535927 0.010246 0.005009 -0.002964 -0.012979 -0.506650
    26 1.100771 0.004527 -0.010679 -0.015488 -0.004784 -1.694062
    27 0.120153 -0.050270 -0.054489 0.287569 3.110905 1.561085
    28 0.924580 -13.278380 -11.091465 -1.751009 -5.319265 -1.052476
    29 0.096944 -8.450418 -0.009365 0.213377 -1.183830 0.197935
    30 0.447953 -2.798986 -0.200443 -0.902026 -0.067961 0.142840
    31 -0.032909 -1.480204 0.004940 -1.165539 0.000000 0.000002
    32 -0.027022 -1.076920 -0.020210 -0.581944 0.000000 0.000000
    33 -0.249534 -2.846964 -0.174213 -0.325619 -0.120522 0.016114
    34 0.043235 -1.683941 0.096012 -1.559050 0.002823 -0.000167
    35 0.031729 -1.160830 0.058838 -0.744914 0.000642 0.008372
    36 -0.963866 -2.785145 -0.085350 0.072585 -0.012819 0.054272
    37 0.028479 -1.403067 0.006271 -0.427290 0.000000 0.000000
    38 0.021413 -0.957781 0.020046 -1.030498 0.000000 0.000000
    39 1.164475 -2.543940 -0.170330 -1.138619 -0.190587 0.231604
    40 0.024032 -1.129042 0.017807 -0.709846 0.000000 0.000001
    41 0.014898 -0.883989 -0.019848 -0.845493 0.000000 0.000000
    42 -0.586770 -1.264477 0.200161 -0.014871 -0.426252 -2.569324
    43 1.522835 0.058681 0.016848 0.001410 0.008985 0.449311
    44 1.117947 0.048424 -0.005766 -0.008285 -0.023808 0.390824
    45 -0.139399 -0.111698 0.014397 0.653637 -0.030687 1.580508
    46 -1.393470 8.839177 -0.239433 1.580804 -0.005023 -1.566847
  time 22
    0 -0.999830 3.128971 1.240267 0.000000 0.000000 0.000000
    1 9.213061 1.034634 -7.257364 -0.234065 -1.615521 0.038250
    2 -0.071919 -8.498730 -0.104136 0.151120 0.283287 0.053592
    3 3.401225 -2.645862 1.364576 0.246376 0.052132 -1.568741
    4 0.000001 0.000000 0.000000 0.000000 0.000000 0.000000
    5 4.391918 -0.597756 0.762120 0.000001 -3.141592 -1.570796
    6 17.745667 -0.979427 -0.000002 0.000000 0.000000 -1.570796
    7 -1.334754 0.593352 0.000000 0.000001 0.000000 1.570797
    8 4.830445 -3.853928 0.000002 0.000000 0.000000 -1.570796
    9 0.000000 0.000000 0.000000 0.000000 0.000000 0.000000
    10 2.320621 -2.042388 0.000001 0.000000 0.000000 -1.570796
    11 7.687064 4.934343 -0.145900 -1.570562 0.002683 -2.512180
    12 -0.488518 -2.755602 -0.228260 -0.871614 -0.202562 -0.209541
    13 0.039887 -1.479790 0.029854 -2.058952 0.000000 0.000001
    14 0.028786 -1.075731 -0.023109 -0.606341 0.000000 0.000000
    15 0.250027 -2.820665 -0.238396 -0.797118 -0.167517 -0.114938
    16 -0.049759 -1.680544 0.100479 -1.934764 0.000000 -0.000002
    17 -0.034142 -1.148312 0.084782 -0.925906 0.000000 0.000000
    18 0.957766 -2.746780 -0.090302 0.005854 -0.162684 0.097910
    19 -0.033420 -1.397129 -0.011257 -0.521001 0.000000 -0.000001
    20 -0.022360 -0.957436 0.018784 -0.975489 0.000000 0.000000
    21 -1.180681 -2.507217 -0.193859 -0.671429 -0.081516 -0.261329
    22 -0.024967 -1.123934 0.017597 -2.056303 0.000000 0.000001
    23 -0.020057 -0.890968 0.010090 -0.677843 0.000000 0.000000
    24 0.583510 -1.197277 0.185379 0.180205 -0.812077 -1.291294
    25 1.535927 0.010246 0.005009 -0.002964 -0.012979 -0.506650
    26 1.100771 0.004527 -0.010679 -0.015488 -0.004784 -1.694062
    27 0.120153 -0.050270 -0.054489 0.287569 3.110905 1.561085
    28 0.912861 -13.192440 -11.025057 -1.759205 -5.319550 -1.059120
    29 0.096944 -8.450418 -0.009365 0.213377 -1.183830 0.197935
    30 0.447953 -2.798986 -0.200443 -0.902026 -0.067961 0.142840
    31 -0.032909 -1.480204 0.004940 -1.165539 0.000000 0.000002
    32 -0.027022 -1.076920 -0.020210 -0.581944 0.000000 0.000000
    33 -0.249534 -2.846964 -0.174213 -0.325619 -0.120522 0.016114
    34 0.043235 -1.683941 0.096012 -1.559050 0.002823 -0.000167
    35 0.031729 -1.160830 0.058838 -0.744914 0.000642 0.008372
    36 -0.963866 -2.785145 -0.085350 0.072585 -0.012819 0.054272
    37 0.028479 -1.403067 0.006271 -0.427290 0.000000 0.000000
    38 0.021413 -0.957781 0.020046 -1.030498 0.000000 0.000000
    39 1.164475 -2.543940 -0.170330 -1.138619 -0.190587 0.231604
    40 0.024032 -1.129042 0.017807 -0.709846 0.000000 0.000001
    41 0.014898 -0.883989 -0.019848 -0.845493 0.000000 0.000000
    42 -0.586770 -1.264477 0.200161 -0.014871 -0.426252 -2.569324
    43 1.522835 0.058681 0.016848 0.001410 0.008985 0.449311
    44 1.117947 0.048424 -0.005766 -0.008285 -0.023808 0.390824
    45 -0.139399 -0.111698 0.014397 0.653637 -0.030687 1.580508
    46 -1.393470 8.839177 -0.239433 1.580804 -0.005023 -1.566847
  time 23
    0 -0.999830 3.128971 1.240267 0.000000 0.000000 0.000000
    1 9.213061 1.101042 -7.257364 -0.191388 -1.612943 -0.004340
    2 -0.071919 -8.498730 -0.104136 0.151120 0.283287 0.053592
    3 3.401225 -2.645862 1.364576 0.246376 0.052132 -1.568741
    4 0.000001 0.000000 0.000000 0.000000 0.000000 0.000000
    5 4.391918 -0.597756 0.762120 0.000001 -3.141592 -1.570796
    6 17.745667 -0.979427 -0.000002 0.000000 0.000000 -1.570796
    7 -1.334754 0.593352 0.000000 0.000001 0.000000 1.570797
    8 4.830445 -3.853928 0.000002 0.000000 0.000000 -1.570796
    9 0.000000 0.000000 0.000000 0.000000 0.000000 0.000000
    10 2.320621 -2.042388 0.000001 0.000000 0.000000 -1.570796
    11 7.687064 4.934343 -0.145900 -1.570562 0.002683 -2.512180
    12 -0.488518 -2.755602 -0.228260 -0.871614 -0.202562 -0.209541
    13 0.039887 -1.479790 0.029854 -2.058952 0.000000 0.000001
    14 0.028786 -1.075731 -0.023109 -0.606341 0.000000 0.000000
    15 0.250027 -2.820665 -0.238396 -0.797118 -0.167517 -0.114938
    16 -0.049759 -1.680544 0.100479 -1.934764 0.000000 -0.000002
    17 -0.034142 -1.148312 0.084782 -0.925906 0.000000 0.000000
    18 0.957766 -2.746780 -0.090302 0.005854 -0.162684 0.097910
    19 -0.033420 -1.397129 -0.011257 -0.521001 0.000000 -0.000001
    20 -0.022360 -0.957436 0.018784 -0.975489 0.000000 0.000000
    21 -1.180681 -2.507217 -0.193859 -0.671429 -0.081516 -0.261329
    22 -0.024967 -1.123934 0.017597 -2.056303 0.000000 0.000001
    23 -0.020057 -0.890968 0.010090 -0.677843 0.000000 0.000000
    24 0.583510 -1.197277 0.185379 0.180205 -0.812077 -1.291294
    25 1.535927 0.010246 0.005009 -0.002964 -0.012979 -0.506650
    26 1.100771 0.004527 -0.010679 -0.015488 -0.004784 -1.694062
    27 0.120153 -0.050270 -0.054489 0.287569 3.110905 1.561085
    28 0.901142 -13.133845 -10.978181 -1.764713 -5.320026 -1.063582
    29 0.096944 -8.450418 -0.009365 0.213377 -1.183830 0.197935
    30 0.447953 -2.798986 -0.200443 -0.902026 -0.067961 0.142840
    31 -0.032909 -1.480204 0.004940 -1.165539 0.000000 0.000002
    32 -0.027022 -1.076920 -0.020210 -0.581944 0.000000 0.000000
    33 -0.249534 -2.846964 -0.174213 -0.325619 -0.120522 0.016114
    34 0.043235 -1.683941 0.096012 -1.559050 0.002823 -0.000167
    35 0.031729 -1.160830 0.058838 -0.744914 0.000642 0.008372
    36 -0.963866 -2.785145 -0.085350 0.072585 -0.012819 0.054272
    37 0.028479 -1.403067 0.006271 -0.427290 0.000000 0.000000
    38 0.021413 -0.957781 0.020046 -1.030498 0.000000 0.000000
    39 1.164475 -2.543940 -0.170330 -1.138619 -0.190587 0.231604
    40 0.024032 -1.129042 0.017807 -0.709846 0.000000 0.000001
    41 0.014898 -0.883989 -0.019848 -0.845493 0.000000 0.000000
    42 -0.586770 -1.264477 0.200161 -0.014871 -0.426252 -2.569324
    43 1.522835 0.058681 0.016848 0.001410 0.008985 0.449311
    44 1.117947 0.048424 -0.005766 -0.008285 -0.023808 0.390824
    45 -0.139399 -0.111698 0.014397 0.653637 -0.030687 1.580508
    46 -1.393470 8.839177 -0.239433 1.580804 -0.005023 -1.566847
  time 24
    0 -0.999830 3.128971 1.240267 0.000000 0.000000 0.000000
    1 9.213061 1.136199 -7.257364 -0.163332 -1.611868 -0.032338
    2 -0.071919 -8.498730 -0.104136 0.151120 0.283287 0.053592
    3 3.401225 -2.645862 1.364576 0.246376 0.052132 -1.568741
    4 0.000001 0.000000 0.000000 0.000000 0.000000 0.000000
    5 4.391918 -0.597756 0.762120 0.000001 -3.141592 -1.570796
    6 17.745667 -0.979427 -0.000002 0.000000 0.000000 -1.570796
    7 -1.334754 0.593352 0.000000 0.000001 0.000000 1.570797
    8 4.830445 -3.853928 0.000002 0.000000 0.000000 -1.570796
    9 0.000000 0.000000 0.000000 0.000000 0.000000 0.000000
    10 2.320621 -2.042388 0.000001 0.000000 0.000000 -1.570796
    11 7.687064 4.934343 -0.145900 -1.570562 0.002683 -2.512180
    12 -0.488518 -2.755602 -0.228260 -0.871614 -0.202562 -0.209541
    13 0.039887 -1.479790 0.029854 -2.058952 0.000000 0.000001
    14 0.028786 -1.075731 -0.023109 -0.606341 0.000000 0.000000
    15 0.250027 -2.820665 -0.238396 -0.797118 -0.167517 -0.114938
    16 -0.049759 -1.680544 0.100479 -1.934764 0.000000 -0.000002
    17 -0.034142 -1.148312 0.084782 -0.925906 0.000000 0.000000
    18 0.957766 -2.746780 -0.090302 0.005854 -0.162684 0.097910
    19 -0.033420 -1.397129 -0.011257 -0.521001 0.000000 -0.000001
    20 -0.022360 -0.957436 0.018784 -0.975489 0.000000 0.000000
    21 -1.180681 -2.507217 -0.193859 -0.671429 -0.081516 -0.261329
    22 -0.024967 -1.123934 0.017597 -2.056303 0.000000 0.000001
    23 -0.020057 -0.890968 0.010090 -0.677843 0.000000 0.000000
    24 0.583510 -1.197277 0.185379 0.180205 -0.812077 -1.291294
    25 1.535927 0.010246 0.005009 -0.002964 -0.012979 -0.506650
    26 1.100771 0.004527 -0.010679 -0.015488 -0.004784 -1.694062
    27 0.120153 -0.050270 -0.054489 0.287569 3.110905 1.561085
    28 0.897236 -13.102594 -10.954743 -1.767401 -5.320502 -1.065860
    29 0.096944 -8.450418 -0.009365 0.213377 -1.183830 0.197935
    30 0.447953 -2.798986 -0.200443 -0.902026 -0.067961 0.142840
    31 -0.032909 -1.480204 0.004940 -1.165539 0.000000 0.000002
    32 -0.027022 -1.076920 -0.020210 -0.581944 0.000000 0.000000
    33 -0.249534 -2.846964 -0.174213 -0.325619 -0.120522 0.016114
    34 0.043235 -1.683941 0.096012 -1.559050 0.002823 -0.000167
    35 0.031729 -1.160830 0.058838 -0.744914 0.000642 0.008372
    36 -0.963866 -2.785145 -0.085350 0.072585 -0.012819 0.054272
    37 0.028479 -1.403067 0.006271 -0.427290 0.000000 0.000000
    38 0.021413 -0.957781 0.020046 -1.030498 0.000000 0.000000
    39 1.164475 -2.543940 -0.170330 -1.138619 -0.190587 0.231604
    40 0.024032 -1.129042 0.017807 -0.709846 0.000000 0.000001
    41 0.014898 -0.883989 -0.019848 -0.845493 0.000000 0.000000
    42 -0.586770 -1.264477 0.200161 -0.014871 -0.426252 -2.569324
    43 1.522835 0.058681 0.016848 0.001410 0.008985 0.449311
    44 1.117947 0.048424 -0.005766 -0.008285 -0.023808 0.390824
    45 -0.139399 -0.111698 0.014397 0.653637 -0.030687 1.580508
    46 -1.393470 8.839177 -0.239433 1.580804 -0.005023 -1.566847
  time 25
    0 -0.999830 3.128971 1.240267 0.000000 0.000000 0.000000
    1 9.213061 1.140106 -7.257364 -0.148364 -1.611439 -0.047324
    2 -0.071919 -8.498730 -0.104136 0.151120 0.283287 0.053592
    3 3.401225 -2.645862 1.364576 0.246376 0.052132 -1.568741
    4 0.000001 0.000000 0.000000 0.000000 0.000000 0.000000
    5 4.391918 -0.597756 0.762120 0.000001 -3.141592 -1.570796
    6 17.745667 -0.979427 -0.000002 0.000000 0.000000 -1.570796
    7 -1.334754 0.593352 0.000000 0.000001 0.000000 1.570797
    8 4.830445 -3.853928 0.000002 0.000000 0.000000 -1.570796
    9 0.000000 0.000000 0.000000 0.000000 0.000000 0.000000
    10 2.320621 -2.042388 0.000001 0.000000 0.000000 -1.570796
    11 7.687064 4.934343 -0.145900 -1.570562 0.002683 -2.512180
    12 -0.488518 -2.755602 -0.228260 -0.871614 -0.202562 -0.209541
    13 0.039887 -1.479790 0.029854 -2.058952 0.000000 0.000001
    14 0.028786 -1.075731 -0.023109 -0.606341 0.000000 0.000000
    15 0.250027 -2.820665 -0.238396 -0.797118 -0.167517 -0.114938
    16 -0.049759 -1.680544 0.100479 -1.934764 0.000000 -0.000002
    17 -0.034142 -1.148312 0.084782 -0.925879 0.000000 0.000000
    18 0.957766 -2.746780 -0.090302 0.005854 -0.162684 0.097910
    19 -0.033420 -1.397129 -0.011257 -0.521001 0.000000 -0.000001
    20 -0.022360 -0.957436 0.018784 -0.975489 0.000000 0.000000
    21 -1.180681 -2.507217 -0.193859 -0.671429 -0.081516 -0.261329
    22 -0.024967 -1.123934 0.017597 -2.056303 0.000000 0.000001
    23 -0.020057 -0.890968 0.010090 -0.677843 0.000000 0.000000
    24 0.583510 -1.197277 0.185379 0.180205 -0.812077 -1.291294
    25 1.535927 0.010246 0.005009 -0.002964 -0.012979 -0.506650
    26 1.100771 0.004527 -0.010679 -0.015488 -0.004784 -1.694062
    27 0.120153 -0.050270 -0.054489 0.287569 3.110905 1.561085
    28 0.897236 -13.102594 -10.943023 -1.768677 -5.320788 -1.066809
    29 0.096944 -8.450418 -0.009365 0.213377 -1.183830 0.197935
    30 0.447953 -2.798986 -0.200443 -0.902026 -0.067961 0.142840
    31 -0.032909 -1.480204 0.004940 -1.165539 0.000000 0.000002
    32 -0.027022 -1.076920 -0.020210 -0.581944 0.000000 0.000000
    33 -0.249534 -2.846964 -0.174213 -0.325619 -0.120522 0.016114
    34 0.043235 -1.683941 0.096012 -1.559050 0.002823 -0.000167
    35 0.031729 -1.160830 0.058838 -0.744914 0.000642 0.008372
    36 -0.963866 -2.785145 -0.085350 0.072585 -0.012819 0.054272
    37 0.028479 -1.403067 0.006271 -0.427290 0.000000 0.000000
    38 0.021413 -0.957781 0.020046 -1.030498 0.000000 0.000000
    39 1.164475 -2.543940 -0.170330 -1.138619 -0.190587 0.231604
    40 0.024032 -1.129042 0.017807 -0.709846 0.000000 0.000001
    41 0.014898 -0.883989 -0.019848 -0.845493 0.000000 0.000000
    42 -0.586770 -1.264477 0.200161 -0.014871 -0.426252 -2.569324
    43 1.522835 0.058681 0.016848 0.001410 0.008985 0.449311
    44 1.117947 0.048424 -0.005766 -0.008285 -0.023808 0.390824
    45 -0.139399 -0.111698 0.014397 0.653637 -0.030687 1.580508
    46 -1.393470 8.839177 -0.239433 1.580804 -0.005023 -1.566847
  time 26
    0 -0.999830 3.128971 1.240267 0.000000 0.000000 0.000000
    1 9.213061 1.112761 -7.257364 -0.143490 -1.611492 -0.052154
    2 -0.071919 -8.498730 -0.104136 0.151120 0.283287 0.053592
    3 3.401225 -2.645862 1.364576 0.246376 0.052132 -1.568741
    4 0.000001 0.000000 0.000000 0.000000 0.000000 0.000000
    5 4.391918 -0.597756 0.762120 0.000001 -3.141592 -1.570796
    6 17.745667 -0.979427 -0.000002 0.000000 0.000000 -1.570796
    7 -1.334754 0.593352 0.000000 0.000001 0.000000 1.570797
    8 4.830445 -3.853928 0.000002 0.000000 0.000000 -1.570796
    9 0.000000 0.000000 0.000000 0.000000 0.000000 0.000000
    10 2.320621 -2.042388 0.000001 0.000000 0.000000 -1.570796
    11 7.687064 4.934343 -0.145900 -1.570562 0.002683 -2.512180
    12 -0.488518 -2.755602 -0.228260 -0.871614 -0.202562 -0.209541
    13 0.039887 -1.479790 0.029854 -2.058952 0.000000 0.000001
    14 0.028786 -1.075731 -0.023109 -0.606341 0.000000 0.000000
    15 0.250027 -2.820665 -0.238396 -0.797118 -0.167517 -0.114938
    16 -0.049759 -1.680544 0.100479 -1.934764 0.000000 -0.000002
    17 -0.034142 -1.148312 0.084782 -0.925906 0.000000 0.000000
    18 0.957766 -2.746780 -0.090302 0.005854 -0.162684 0.097910
    19 -0.033420 -1.397129 -0.011257 -0.521001 0.000000 -0.000001
    20 -0.022360 -0.957436 0.018784 -0.975489 0.000000 0.000000
    21 -1.180681 -2.507217 -0.193859 -0.671429 -0.081516 -0.261329
    22 -0.024967 -1.123934 0.017597 -2.056303 0.000000 0.000001
    23 -0.020057 -0.890968 0.010090 -0.677843 0.000000 0.000000
    24 0.583510 -1.197277 0.185379 0.180205 -0.812077 -1.291294
    25 1.535927 0.010246 0.005009 -0.002964 -0.012979 -0.506650
    26 1.100771 0.004527 -0.010679 -0.015488 -0.004784 -1.694062
    27 0.120153 -0.050270 -0.054489 0.287569 3.110905 1.561085
    28 0.897236 -13.126032 -10.939117 -1.768811 -5.320979 -1.066904
    29 0.096944 -8.450418 -0.009365 0.213377 -1.183830 0.197935
    30 0.447953 -2.798986 -0.200443 -0.902026 -0.067961 0.142840
    31 -0.032909 -1.480204 0.004940 -1.165539 0.000000 0.000002
    32 -0.027022 -1.076920 -0.020210 -0.581944 0.000000 0.000000
    33 -0.249534 -2.846964 -0.174213 -0.325619 -0.120522 0.016114
    34 0.043235 -1.683941 0.096012 -1.559050 0.002823 -0.000167
    35 0.031729 -1.160830 0.058838 -0.744914 0.000642 0.008372
    36 -0.963866 -2.785145 -0.085350 0.072585 -0.012819 0.054272
    37 0.028479 -1.403067 0.006271 -0.427290 0.000000 0.000000
    38 0.021413 -0.957781 0.020046 -1.030498 0.000000 0.000000
    39 1.164475 -2.543940 -0.170330 -1.138619 -0.190587 0.231604
    40 0.024032 -1.129042 0.017807 -0.709846 0.000000 0.000001
    41 0.014898 -0.883989 -0.019848 -0.845493 0.000000 0.000000
    42 -0.586770 -1.264477 0.200161 -0.014871 -0.426252 -2.569324
    43 1.522835 0.058681 0.016848 0.001410 0.008985 0.449311
    44 1.117947 0.048424 -0.005766 -0.008285 -0.023808 0.390824
    45 -0.139399 -0.111698 0.014397 0.653637 -0.030687 1.580508
    46 -1.393470 8.839177 -0.239433 1.580804 -0.005023 -1.566847
  time 27
    0 -0.999830 3.128971 1.240267 0.000000 0.000000 0.000000
    1 9.213061 1.069791 -7.257364 -0.145161 -1.611815 -0.050528
    2 -0.071919 -8.498730 -0.104136 0.151120 0.283287 0.053592
    3 3.401225 -2.645862 1.364576 0.246376 0.052132 -1.568741
    4 0.000001 0.000000 0.000000 0.000000 0.000000 0.000000
    5 4.391918 -0.597756 0.762120 0.000001 -3.141592 -1.570796
    6 17.745667 -0.979427 -0.000002 0.000000 0.000000 -1.570796
    7 -1.334754 0.593352 0.000000 0.000001 0.000000 1.570797
    8 4.830445 -3.853928 0.000002 0.000000 0.000000 -1.570796
    9 0.000000 0.000000 0.000000 0.000000 0.000000 0.000000
    10 2.320621 -2.042388 0.000001 0.000000 0.000000 -1.570796
    11 7.687064 4.934343 -0.145900 -1.570562 0.002683 -2.512180
    12 -0.488518 -2.755602 -0.228260 -0.871614 -0.202562 -0.209541
    13 0.039887 -1.479790 0.029854 -2.058952 0.000000 0.000001
    14 0.028786 -1.075731 -0.023109 -0.606341 0.000000 0.000000
    15 0.250027 -2.820665 -0.238396 -0.797118 -0.167517 -0.114938
    16 -0.049759 -1.680544 0.100479 -1.934764 0.000000 -0.000002
    17 -0.034142 -1.148312 0.084782 -0.925906 0.000000 0.000000
    18 0.957766 -2.746780 -0.090302 0.005854 -0.162684 0.097910
    19 -0.033420 -1.397129 -0.011257 -0.521001 0.000000 -0.000001
    20 -0.022360 -0.957436 0.018784 -0.975489 0.000000 0.000000
    21 -1.180681 -2.507217 -0.193859 -0.671429 -0.081516 -0.261329
    22 -0.024967 -1.123934 0.017597 -2.056303 0.000000 0.000001
    23 -0.020057 -0.890968 0.010090 -0.677843 0.000000 0.000000
    24 0.583510 -1.197277 0.185379 0.180205 -0.812077 -1.291294
    25 1.535927 0.010246 0.005009 -0.002964 -0.012979 -0.506650
    26 1.100771 0.004527 -0.010679 -0.015488 -0.004784 -1.694062
    27 0.120153 -0.050270 -0.054489 0.287569 3.110905 1.561085
    28 0.897236 -13.172908 -10.943023 -1.768274 -5.321074 -1.066524
    29 0.096944 -8.450418 -0.009365 0.213377 -1.183830 0.197935
    30 0.447953 -2.798986 -0.200443 -0.902026 -0.067961 0.142840
    31 -0.032909 -1.480204 0.004940 -1.165539 0.000000 0.000002
    32 -0.027022 -1.076920 -0.020210 -0.581944 0.000000 0.000000
    33 -0.249534 -2.846964 -0.174213 -0.325619 -0.120522 0.016114
    34 0.043235 -1.683941 0.096012 -1.559050 0.002823 -0.000167
    35 0.031729 -1.160830 0.058838 -0.744914 0.000642 0.008372
    36 -0.963866 -2.785145 -0.085350 0.072585 -0.012819 0.054272
    37 0.028479 -1.403067 0.006271 -0.427290 0.000000 0.000000
    38 0.021413 -0.957781 0.020046 -1.030498 0.000000 0.000000
    39 1.164475 -2.543940 -0.170330 -1.138619 -0.190587 0.231604
    40 0.024032 -1.129042 0.017807 -0.709846 0.000000 0.000001
    41 0.014898 -0.883989 -0.019848 -0.845493 0.000000 0.000000
    42 -0.586770 -1.264477 0.200161 -0.014871 -0.426252 -2.569324
    43 1.522835 0.058681 0.016848 0.001410 0.008985 0.449311
    44 1.117947 0.048424 -0.005766 -0.008285 -0.023808 0.390824
    45 -0.139399 -0.111698 0.014397 0.653637 -0.030687 1.580508
    46 -1.393470 8.839177 -0.239433 1.580804 -0.005023 -1.566847
  time 28
    0 -0.999830 3.128971 1.240267 0.000000 0.000000 0.000000
    1 9.213061 1.007289 -7.257364 -0.149338 -1.612245 -0.046338
    2 -0.071919 -8.498730 -0.104136 0.151120 0.283287 0.053592
    3 3.401225 -2.645862 1.364576 0.246376 0.052132 -1.568741
    4 0.000001 0.000000 0.000000 0.000000 0.000000 0.000000
    5 4.391918 -0.597756 0.762120 0.000001 -3.141592 -1.570796
    6 17.745667 -0.979427 -0.000002 0.000000 0.000000 -1.570796
    7 -1.334754 0.593352 0.000000 0.000001 0.000000 1.570797
    8 4.830445 -3.853928 0.000002 0.000000 0.000000 -1.570796
    9 0.000000 0.000000 0.000000 0.000000 0.000000 0.000000
    10 2.320621 -2.042388 0.000001 0.000000 0.000000 -1.570796
    11 7.687064 4.934343 -0.145900 -1.570562 0.002683 -2.512180
    12 -0.488518 -2.755602 -0.228260 -0.871614 -0.202562 -0.209541
    13 0.039887 -1.479790 0.029854 -2.058952 0.000000 0.000001
    14 0.028786 -1.075731 -0.023109 -0.606341 0.000000 0.000000
    15 0.250027 -2.820665 -0.238396 -0.797118 -0.167517 -0.114938
    16 -0.049759 -1.680544 0.100479 -1.934764 0.000000 -0.000002
    17 -0.034142 -1.148312 0.084782 -0.925906 0.000000 0.000000
    18 0.957766 -2.746780 -0.090302 0.005854 -0.162684 0.097910
    19 -0.033420 -1.397129 -0.011257 -0.521001 0.000000 -0.000001
    20 -0.022360 -0.957436 0.018784 -0.975489 0.000000 0.000000
    21 -1.180681 -2.507217 -0.193859 -0.671429 -0.081516 -0.261329
    22 -0.024967 -1.123934 0.017597 -2.056303 0.000000 0.000001
    23 -0.020057 -0.890968 0.010090 -0.677843 0.000000 0.000000
    24 0.583510 -1.197277 0.185379 0.180205 -0.812077 -1.291294
    25 1.535927 0.010246 0.005009 -0.002964 -0.012979 -0.506650
    26 1.100771 0.004527 -0.010679 -0.015488 -0.004784 -1.694062
    27 0.120153 -0.050270 -0.054489 0.287569 3.110905 1.561085
    28 0.901142 -13.235410 -10.946930 -1.767468 -5.321169 -1.065860
    29 0.096944 -8.450418 -0.009365 0.213377 -1.183830 0.197935
    30 0.447953 -2.798986 -0.200443 -0.902026 -0.067961 0.142840
    31 -0.032909 -1.480204 0.004940 -1.165539 0.000000 0.000002
    32 -0.027022 -1.076920 -0.020210 -0.581944 0.000000 0.000000
    33 -0.249534 -2.846964 -0.174213 -0.325619 -0.120522 0.016114
    34 0.043235 -1.683941 0.096012 -1.559050 0.002823 -0.000167
    35 0.031729 -1.160830 0.058838 -0.744914 0.000642 0.008372
    36 -0.963866 -2.785145 -0.085350 0.072585 -0.012819 0.054272
    37 0.028479 -1.403067 0.006271 -0.427290 0.000000 0.000000
    38 0.021413 -0.957781 0.020046 -1.030498 0.000000 0.000000
    39 1.164475 -2.543940 -0.170330 -1.138619 -0.190587 0.231604
    40 0.024032 -1.129042 0.017807 -0.709846 0.000000 0.000001
    41 0.014898 -0.883989 -0.019848 -0.845493 0.000000 0.000000
    42 -0.586770 -1.264477 0.200161 -0.014871 -0.426252 -2.569324
    43 1.522835 0.058681 0.016848 0.001410 0.008985 0.449311
    44 1.117947 0.048424 -0.005766 -0.008285 -0.023808 0.390824
    45 -0.139399 -0.111698 0.014397 0.653637 -0.030687 1.580508
    46 -1.393470 8.839177 -0.239433 1.580804 -0.005023 -1.566847
  time 29
    0 -0.999830 3.128971 1.240267 0.000000 0.000000 0.000000
    1 9.213061 0.933068 -7.257364 -0.152123 -1.612621 -0.043528
    2 -0.071919 -8.498730 -0.104136 0.151120 0.283287 0.053592
    3 3.401225 -2.645862 1.364576 0.246376 0.052132 -1.568741
    4 0.000001 0.000000 0.000000 0.000000 0.000000 0.000000
    5 4.391918 -0.597756 0.762120 0.000001 -3.141592 -1.570796
    6 17.745667 -0.979427 -0.000002 0.000000 0.000000 -1.570796
    7 -1.334754 0.593352 0.000000 0.000001 0.000000 1.570797
    8 4.830445 -3.853928 0.000002 0.000000 0.000000 -1.570796
    9 0.000000 0.000000 0.000000 0.000000 0.000000 0.000000
    10 2.320621 -2.042388 0.000001 0.000000 0.000000 -1.570796
    11 7.687064 4.934343 -0.145900 -1.570562 0.002683 -2.512180
    12 -0.488518 -2.755602 -0.228260 -0.871614 -0.202562 -0.209541
    13 0.039887 -1.479790 0.029854 -2.058952 0.000000 0.000001
    14 0.028786 -1.075731 -0.023109 -0.606341 0.000000 0.000000
    15 0.250027 -2.820665 -0.238396 -0.797118 -0.167517 -0.114938
    16 -0.049759 -1.680544 0.100479 -1.934764 0.000000 -0.000002
    17 -0.034142 -1.148312 0.084782 -0.925879 0.000000 0.000000
    18 0.957766 -2.746780 -0.090302 0.005854 -0.162684 0.097910
    19 -0.033420 -1.397129 -0.011257 -0.521001 0.000000 -0.000001
    20 -0.022360 -0.957436 0.018784 -0.975489 0.000000 0.000000
    21 -1.180681 -2.507217 -0.193859 -0.671429 -0.081516 -0.261329
    22 -0.024967 -1.123934 0.017597 -2.056303 0.000000 0.000001
    23 -0.020057 -0.890968 0.010090 -0.677843 0.000000 0.000000
    24 0.583510 -1.197277 0.185379 0.180205 -0.812077 -1.291294
    25 1.535927 0.010246 0.005009 -0.002964 -0.012979 -0.506650
    26 1.100771 0.004527 -0.010679 -0.015488 -0.004784 -1.694062
    27 0.120153 -0.050270 -0.054489 0.287569 3.110905 1.561085
    28 0.901142 -13.305725 -10.950836 -1.766796 -5.321264 -1.065290
    29 0.096944 -8.450418 -0.009365 0.213377 -1.183830 0.197935
    30 0.447953 -2.798986 -0.200443 -0.902026 -0.067961 0.142840
    31 -0.032909 -1.480204 0.004940 -1.165539 0.000000 0.000002
    32 -0.027022 -1.076920 -0.020210 -0.581944 0.000000 0.000000
    33 -0.249534 -2.846964 -0.174213 -0.325619 -0.120522 0.016114
    34 0.043235 -1.683941 0.096012 -1.559050 0.002823 -0.000167
    35 0.031729 -1.160830 0.058838 -0.744914 0.000642 0.008372
    36 -0.963866 -2.785145 -0.085350 0.072585 -0.012819 0.054272
    37 0.028479 -1.403067 0.006271 -0.427290 0.000000 0.000000
    38 0.021413 -0.957781 0.020046 -1.030498 0.000000 0.000000
    39 1.164475 -2.543940 -0.170330 -1.138619 -0.190587 0.231604
    40 0.024032 -1.129042 0.017807 -0.709846 0.000000 0.000001
    41 0.014898 -0.883989 -0.019848 -0.845493 0.000000 0.000000
    42 -0.586770 -1.264477 0.200161 -0.014871 -0.426252 -2.569324
    43 1.522835 0.058681 0.016848 0.001410 0.008985 0.449311
    44 1.117947 0.048424 -0.005766 -0.008285 -0.023808 0.390824
    45 -0.139399 -0.111698 0.014397 0.653637 -0.030687 1.580508
    46 -1.393470 8.839177 -0.239433 1.580804 -0.005023 -1.566847
  time 30
    0 -0.999830 3.128971 1.240267 0.000000 0.000000 0.000000
    1 9.213061 0.858847 -7.257364 -0.149965 -1.612728 -0.045697
    2 -0.071919 -8.498730 -0.104136 0.151120 0.283287 0.053592
    3 3.401225 -2.645862 1.364576 0.246376 0.052132 -1.568741
    4 0.000001 0.000000 0.000000 0.000000 0.000000 0.000000
    5 4.391918 -0.597756 0.762120 0.000001 -3.141592 -1.570796
    6 17.745667 -0.979427 -0.000002 0.000000 0.000000 -1.570796
    7 -1.334754 0.593352 0.000000 0.000001 0.000000 1.570797
    8 4.830445 -3.853928 0.000002 0.000000 0.000000 -1.570796
    9 0.000000 0.000000 0.000000 0.000000 0.000000 0.000000
    10 2.320621 -2.042388 0.000001 0.000000 0.000000 -1.570796
    11 7.687064 4.934343 -0.145900 -1.570562 0.002683 -2.512180
    12 -0.488518 -2.755602 -0.228260 -0.871614 -0.202562 -0.209541
    13 0.039887 -1.479790 0.029854 -2.058952 0.000000 0.000001
    14 0.028786 -1.075731 -0.023109 -0.606341 0.000000 0.000000
    15 0.250027 -2.820665 -0.238396 -0.797118 -0.167517 -0.114938
    16 -0.049759 -1.680544 0.100479 -1.934764 0.000000 -0.000002
    17 -0.034142 -1.148312 0.084782 -0.925906 0.000000 0.000000
    18 0.957766 -2.746780 -0.090302 0.005854 -0.162684 0.097910
    19 -0.033420 -1.397129 -0.011257 -0.521001 0.000000 -0.000001
    20 -0.022360 -0.957436 0.018784 -0.975489 0.000000 0.000000
    21 -1.180681 -2.507217 -0.193859 -0.671429 -0.081516 -0.261329
    22 -0.024967 -1.123934 0.017597 -2.056303 0.000000 0.000001
    23 -0.020057 -0.890968 0.010090 -0.677843 0.000000 0.000000
    24 0.583510 -1.197277 0.185379 0.180205 -0.812077 -1.291294
    25 1.535927 0.010246 0.005009 -0.002964 -0.012979 -0.506650
    26 1.100771 0.004527 -0.010679 -0.015488 -0.004784 -1.694062
    27 0.120153 -0.050270 -0.054489 0.287569 3.110905 1.561085
    28 0.901142 -13.383852 -10.950836 -1.766662 -5.321359 -1.065195
    29 0.096944 -8.450418 -0.009365 0.213377 -1.183830 0.197935
    30 0.447953 -2.798986 -0.200443 -0.902026 -0.067961 0.142840
    31 -0.032909 -1.480204 0.004940 -1.165539 0.000000 0.000002
    32 -0.027022 -1.076920 -0.020210 -0.581944 0.000000 0.000000
    33 -0.249534 -2.846964 -0.174213 -0.325619 -0.120522 0.016114
    34 0.043235 -1.683941 0.096012 -1.559050 0.002823 -0.000167
    35 0.031729 -1.160830 0.058838 -0.744914 0.000642 0.008372
    36 -0.963866 -2.785145 -0.085350 0.072585 -0.012819 0.054272
    37 0.028479 -1.403067 0.006271 -0.427290 0.000000 0.000000
    38 0.021413 -0.957781 0.020046 -1.030498 0.000000 0.000000
    39 1.164475 -2.543940 -0.170330 -1.138619 -0.190587 0.231604
    40 0.024032 -1.129042 0.017807 -0.709846 0.000000 0.000001
    41 0.014898 -0.883989 -0.019848 -0.845493 0.000000 0.000000
    42 -0.586770 -1.264477 0.200161 -0.014871 -0.426252 -2.569324
    43 1.522835 0.058681 0.016848 0.001410 0.008985 0.449311
    44 1.117947 0.048424 -0.005766 -0.008285 -0.023808 0.390824
    45 -0.139399 -0.111698 0.014397 0.653637 -0.030687 1.580508
    46 -1.393470 8.839177 -0.239433 1.580804 -0.005023 -1.566847
end
