version 1
nodes
  0 "argus3_root" -1
  1 "magazine" 0
  2 "lever" 0
  3 "trigger" 0
  4 "scope_L" 0
  5 "scope_R" 0
  6 "scope_U" 0
  7 "scope_D" 0
  8 "ef" 0
  9 "PUPPET" 0
  10 "argus3_scope" 9
  11 "root" -1
  12 "Bone01" 11
  13 "Bone_L_Upper" 12
  14 "Bone_Lefthand" 12
  15 "Bone13" 14
  16 "Bone14" 15
  17 "Bone15" 16
  18 "Bone17" 14
  19 "Bone18" 18
  20 "Bone19" 19
  21 "Bone21" 14
  22 "Bone22" 21
  23 "Bone23" 22
  24 "Bone09" 14
  25 "Bone10" 24
  26 "Bone11" 25
  27 "Bone05" 14
  28 "Bone06" 27
  29 "Bone07" 28
  30 "Bone_Se_Hand-L" 14
  31 "Bone04" 11
  32 "Bone_Righthand" 31
  33 "Bone39" 32
  34 "Bone40" 33
  35 "Bone41" 34
  36 "Bone35" 32
  37 "Bone36" 36
  38 "Bone37" 37
  39 "Bone31" 32
  40 "Bone32" 39
  41 "Bone33" 40
  42 "Bone43" 32
  43 "Bone44" 42
  44 "Bone45" 43
  45 "Bone27" 32
  46 "Bone28" 45
  47 "Bone29" 46
  48 "Bone_Se_Hand-R" 32
  49 "Bone_R_Upper" 31
end
skeleton
  time 0
    0 4.799997 -0.792005 -3.547516 1.562584 -0.110821 -1.683627
    1 2.038456 0.636575 0.000000 0.000000 0.000000 0.000000
    2 6.143580 -0.180660 0.586458 0.000000 0.000000 0.000000
    3 6.090415 -1.244443 0.000000 0.000000 0.000000 -0.000652
    4 6.578644 2.163212 -0.325584 0.000000 1.570451 0.000000
    5 6.578643 2.163213 0.330873 3.141592 1.570451 0.000000
    6 5.881130 2.291028 -0.000001 -1.570796 0.000000 1.570796
    7 5.881131 2.042809 0.000000 1.570797 0.000000 1.570796
    8 5.474092 2.888420 0.000000 0.000000 0.000000 0.000000
    9 6.916467 2.907834 -0.002619 0.000000 -1.570451 0.000000
    10 0.002616 0.001794 0.000000 0.000000 0.000000 0.000000
    11 0.001265 -0.569176 -20.601572 0.000000 0.000000 0.000000
    12 9.310103 -5.299614 -12.557959 3.138909 -0.000224 -1.566807
    13 1.257180 8.762585 -0.153713 -1.570562 0.002683 -1.566807
    14 -0.071921 -8.498736 -0.104134 -0.025046 0.287591 0.014898
    15 -0.488518 -2.755602 -0.228260 0.106454 0.010332 -0.264490
    16 0.039887 -1.479790 0.029854 -0.055395 0.000000 0.000001
    17 0.028786 -1.075731 -0.023109 0.002099 0.000000 0.000000
    18 0.250027 -2.820665 -0.238396 0.041826 -0.002921 0.008443
    19 -0.049759 -1.680544 0.100479 0.019826 0.000000 -0.000002
    20 -0.034142 -1.148312 0.084782 -0.040115 0.000000 0.000000
    21 0.957766 -2.746780 -0.090302 -0.017221 -0.162277 0.191558
    22 -0.033420 -1.397129 -0.011257 0.013931 0.000000 -0.000001
    23 -0.022360 -0.957436 0.018784 0.003845 0.000000 0.000000
    24 -1.180681 -2.507217 -0.193859 0.082999 0.013294 -0.477915
    25 -0.024967 -1.123934 0.017597 -0.018065 0.000000 0.000001
    26 -0.020057 -0.890968 0.010090 -0.060797 0.000000 0.000000
    27 0.583510 -1.197277 0.185379 0.158049 -0.404973 -0.364290
    28 1.535927 0.010246 0.005009 -0.002964 -0.012979 0.000887
    29 1.100771 0.004527 -0.010679 -0.002796 0.015973 0.003458
    30 0.120153 -0.050270 -0.054489 0.287569 3.110905 1.561085
    31 -9.310107 -5.231260 -12.513384 0.004984 -3.131565 -1.566847
    32 0.096944 -8.450418 -0.009365 -0.032965 -0.297907 -0.004663
    33 0.447953 -2.798986 -0.200443 0.106456 -0.010396 0.265094
    34 -0.032909 -1.480204 0.004940 -0.055403 0.000000 0.000002
    35 -0.027022 -1.076920 -0.020210 0.002094 0.000000 0.000000
    36 -0.249534 -2.846964 -0.174213 0.041903 -0.000125 -0.008396
    37 0.043235 -1.683941 0.096012 0.019757 0.002823 -0.000167
    38 0.031729 -1.160830 0.058838 -0.040181 0.000642 0.008372
    39 -0.963866 -2.785145 -0.085350 -0.017227 0.162276 -0.191556
    40 0.028479 -1.403067 0.006271 0.013941 0.000000 0.000000
    41 0.021413 -0.957781 0.020046 0.003851 0.000000 0.000000
    42 1.164475 -2.543940 -0.170330 0.083003 -0.013294 0.477915
    43 0.024032 -1.129042 0.017807 -0.018074 0.000000 0.000001
    44 0.014898 -0.883989 -0.019848 -0.060801 0.000000 0.000000
    45 -0.586770 -1.264477 0.200161 -0.152092 -0.410513 -2.814816
    46 1.522835 0.058681 0.016848 0.001410 0.008985 -0.046880
    47 1.117947 0.048424 -0.005766 -0.000243 -0.025198 0.065422
    48 -0.139399 -0.111698 0.014397 0.285382 -0.030687 1.580508
    49 -1.393470 8.839177 -0.239433 1.580804 -0.005023 -1.566847
end
triangles
argus5_scope_effect.bmp
  8 4.261935 -5.808077 0.704787 0.111901 0.987546 -0.110594 0.003922 0.992157
  8 4.235552 -5.947549 -0.567318 0.111901 0.987546 -0.110594 0.003922 0.403922
  8 3.973818 -5.775165 0.707154 0.111901 0.987546 -0.110594 0.137255 0.992157
argus5_scope_effect.bmp
  8 3.973818 -5.775165 0.707154 0.111901 0.987546 -0.110594 0.137255 0.992157
  8 4.235552 -5.947549 -0.567318 0.111901 0.987546 -0.110594 0.003922 0.403922
  8 3.760235 -5.777483 0.470348 0.111901 0.987546 -0.110594 0.231373 0.882353
argus5_scope_effect.bmp
  8 4.235552 -5.947549 -0.567318 0.111901 0.987546 -0.110594 0.003922 0.403922
  8 3.788474 -5.896479 -0.563645 0.111901 0.987546 -0.110594 0.176471 0.403922
  8 3.760235 -5.777483 0.470348 0.111901 0.987546 -0.110594 0.231373 0.882353
argus5_scope_effect.bmp
  8 3.760235 -5.777483 0.470348 0.111901 0.987546 -0.110594 0.231373 0.882353
  8 3.788474 -5.896479 -0.563645 0.111901 0.987546 -0.110594 0.176471 0.403922
  8 3.412714 -5.736672 0.483143 0.111901 0.987546 -0.110594 0.392157 0.886275
argus5_scope_effect.bmp
  8 3.788474 -5.896479 -0.563645 0.111901 0.987546 -0.110594 0.176471 0.403922
  8 2.195732 -5.677802 -0.222540 0.111901 0.987546 -0.110594 0.937255 0.556863
  8 3.412714 -5.736672 0.483143 0.111901 0.987546 -0.110594 0.392157 0.886275
argus5_scope_effect.bmp
  8 3.412714 -5.736672 0.483143 0.111901 0.987546 -0.110594 0.392157 0.886275
  8 2.195732 -5.677802 -0.222540 0.111901 0.987546 -0.110594 0.937255 0.556863
  8 2.202328 -5.642934 0.095486 0.111901 0.987546 -0.110594 0.937255 0.705882
argus5_scope_effect.bmp
  8 5.101674 -5.929605 0.469268 0.111901 0.987546 -0.110594 0.392157 0.886275
  8 4.692564 -5.999755 -0.571073 0.111901 0.987546 -0.110594 0.176471 0.403922
  8 4.753741 -5.890973 0.462186 0.111901 0.987546 -0.110594 0.231373 0.882353
argus5_scope_effect.bmp
  8 5.101674 -5.929605 0.469268 0.111901 0.987546 -0.110594 0.392157 0.886275
  8 6.288975 -6.145381 -0.256167 0.111901 0.987546 -0.110594 0.937255 0.556863
  8 4.692564 -5.999755 -0.571073 0.111901 0.987546 -0.110594 0.176471 0.403922
argus5_scope_effect.bmp
  8 5.101674 -5.929605 0.469268 0.111901 0.987546 -0.110594 0.392157 0.886275
  8 6.295571 -6.110513 0.061859 0.111901 0.987546 -0.110594 0.937255 0.705882
  8 6.288975 -6.145381 -0.256167 0.111901 0.987546 -0.110594 0.937255 0.556863
argus5_scope_effect.bmp
  8 5.101674 -5.929605 0.469268 0.111901 0.987546 -0.110594 0.392157 0.886275
  8 6.416440 -6.115415 0.140387 0.111901 0.987546 -0.110594 0.992157 0.741176
  8 6.295571 -6.110513 0.061859 0.111901 0.987546 -0.110594 0.937255 0.705882
argus5_scope_effect.bmp
  8 5.101674 -5.929605 0.469268 0.111901 0.987546 -0.110594 0.392157 0.886275
  8 5.233921 -5.928014 0.617282 0.111901 0.987546 -0.110594 0.447059 0.952941
  8 6.416440 -6.115415 0.140387 0.111901 0.987546 -0.110594 0.992157 0.741176
argus5_scope_effect.bmp
  8 2.202328 -5.642934 0.095486 0.111901 0.987546 -0.110594 0.937255 0.705882
  8 2.084756 -5.620598 0.175972 0.111901 0.987546 -0.110594 0.992157 0.741176
  8 3.412714 -5.736672 0.483143 0.111901 0.987546 -0.110594 0.392157 0.886275
argus5_scope_effect.bmp
  8 3.412714 -5.736672 0.483143 0.111901 0.987546 -0.110594 0.392157 0.886275
  8 2.084756 -5.620598 0.175972 0.111901 0.987546 -0.110594 0.992157 0.741176
  8 3.286650 -5.705574 0.633279 0.111901 0.987546 -0.110594 0.447059 0.952941
argus5_scope_effect.bmp
  8 2.084756 -5.620598 0.175972 0.111901 0.987546 -0.110594 0.992157 0.741176
  8 2.089703 -5.594447 0.414492 0.111901 0.987546 -0.110594 0.992157 0.850980
  8 3.286650 -5.705574 0.633279 0.111901 0.987546 -0.110594 0.447059 0.952941
argus5_scope_effect.bmp
  8 3.788474 -5.896479 -0.563645 0.111901 0.987546 -0.110594 0.176471 0.403922
  8 3.614838 -5.902247 -0.790839 0.111901 0.987546 -0.110594 0.262745 0.325490
  8 2.195732 -5.677802 -0.222540 0.111901 0.987546 -0.110594 0.937255 0.556863
argus5_scope_effect.bmp
  8 2.195732 -5.677802 -0.222540 0.111901 0.987546 -0.110594 0.937255 0.556863
  8 3.614838 -5.902247 -0.790839 0.111901 0.987546 -0.110594 0.262745 0.325490
  8 2.074862 -5.672900 -0.301067 0.111901 0.987546 -0.110594 0.992157 0.521569
argus5_scope_effect.bmp
  8 3.614838 -5.902247 -0.790839 0.111901 0.987546 -0.110594 0.262745 0.325490
  8 2.070946 -5.693603 -0.489895 0.111901 0.987546 -0.110594 0.992157 0.435294
  8 2.074862 -5.672900 -0.301067 0.111901 0.987546 -0.110594 0.992157 0.521569
argus5_scope_effect.bmp
  8 6.402631 -6.188420 -0.525481 0.111901 0.987546 -0.110594 0.992157 0.435294
  8 4.846785 -6.042975 -0.800960 0.111901 0.987546 -0.110594 0.262745 0.325490
  8 6.406547 -6.167717 -0.336653 0.111901 0.987546 -0.110594 0.992157 0.521569
argus5_scope_effect.bmp
  8 6.406547 -6.167717 -0.336653 0.111901 0.987546 -0.110594 0.992157 0.521569
  8 4.846785 -6.042975 -0.800960 0.111901 0.987546 -0.110594 0.262745 0.325490
  8 6.288975 -6.145381 -0.256167 0.111901 0.987546 -0.110594 0.937255 0.556863
argus5_scope_effect.bmp
  8 4.846785 -6.042975 -0.800960 0.111901 0.987546 -0.110594 0.262745 0.325490
  8 4.692564 -5.999755 -0.571073 0.111901 0.987546 -0.110594 0.176471 0.403922
  8 6.288975 -6.145381 -0.256167 0.111901 0.987546 -0.110594 0.937255 0.556863
argus5_scope_effect.bmp
  8 4.692564 -5.999755 -0.571073 0.111901 0.987546 -0.110594 0.176471 0.403922
  8 4.235552 -5.947549 -0.567318 0.111901 0.987546 -0.110594 0.003922 0.403922
  8 4.753741 -5.890973 0.462186 0.111901 0.987546 -0.110594 0.231373 0.882353
argus5_scope_effect.bmp
  8 4.753741 -5.890973 0.462186 0.111901 0.987546 -0.110594 0.231373 0.882353
  8 4.235552 -5.947549 -0.567318 0.111901 0.987546 -0.110594 0.003922 0.403922
  8 4.550051 -5.840989 0.702420 0.111901 0.987546 -0.110594 0.137255 0.992157
argus5_scope_effect.bmp
  8 4.235552 -5.947549 -0.567318 0.111901 0.987546 -0.110594 0.003922 0.403922
  8 4.261935 -5.808077 0.704787 0.111901 0.987546 -0.110594 0.003922 0.992157
  8 4.550051 -5.840989 0.702420 0.111901 0.987546 -0.110594 0.137255 0.992157
argus5_scope_effect.bmp
  8 6.421387 -6.089264 0.378906 0.111901 0.987546 -0.110594 0.992157 0.850980
  8 6.416440 -6.115415 0.140387 0.111901 0.987546 -0.110594 0.992157 0.741176
  8 5.233921 -5.928014 0.617282 0.111901 0.987546 -0.110594 0.447059 0.952941
$0b_argus3_dotsight_v_02.bmp
  10 3.771007 -7.307266 -0.226273 0.111901 0.987546 -0.110594 1.000000 0.000000
  10 3.784817 -7.234261 0.439594 0.111901 0.987546 -0.110594 1.000000 1.000000
  10 4.396940 -7.378550 -0.231439 0.111901 0.987546 -0.110594 0.000000 0.000000
$0b_argus3_dotsight_v_02.bmp
  10 4.396940 -7.378550 -0.231439 0.111901 0.987546 -0.110594 0.000000 0.000000
  10 3.784817 -7.234261 0.439594 0.111901 0.987546 -0.110594 1.000000 1.000000
  10 4.410750 -7.305545 0.434428 0.111901 0.987546 -0.110594 0.000000 1.000000
end
