// Created by Crowbar 0.49.0.0

$modelname "weapons/tfa_cso/c_skull4.mdl"

$Include "csonline_gmod.qci"

$bodygroup "weapon"
{
	studio "v_skull4L"
}
$bodygroup "weapon"
{
	studio "v_skull4R"
}

$CDMaterials "models\weapons\tfa_cso\skull4\"

$attachment 1 "right_skull4_root" -2.51 31.450001 0
$attachment 0 "left_skull4_root" -2.51 31.450001 0
//$attachment 2 "left_skull4_root" -2.1 7.5 0.7
//$attachment 3 "right_skull4_root" -2.1 7.5 0.7

$definebone "root" "" 0.000000 0.000000 -2.000000 0.000000 0.000000 -10.000005 0.000000 0.000000 0.000000 -0.000000 0.000000 0.000000
$definebone "Bone01" "root" 6.440000 5.712999 -5.020000 -59.117023 176.501980 -157.555992 0.000000 0.000000 0.000000 -0.000000 0.000000 0.000003
$definebone "Bone_Lefthand" "Bone01" -0.071918 -8.498730 -0.104138 16.928209 -18.789347 -16.976167 0.000000 0.000000 -0.000000 -0.000000 0.000002 0.000001
$definebone "left_skull4_root" "Bone_Lefthand" 1.085567 -2.000495 1.142958 -8.097153 178.423558 8.354413 0.000000 0.000000 0.000000 0.000002 0.000002 0.000000
$definebone "Bone04" "root" -7.744000 5.721000 -5.051000 62.609039 -167.859032 -151.166022 0.000000 0.000000 0.000000 0.000002 -0.000001 0.000002
$definebone "Bone_Righthand" "Bone04" 0.096945 -8.450418 -0.009365 -7.333287 24.819443 -20.020290 0.000000 0.000000 0.000000 -0.000001 0.000000 -0.000000
$definebone "right_skull4_root" "Bone_Righthand" -1.846293 -2.698978 0.383817 -11.720771 -5.115825 176.949877 0.000000 0.000000 0.000001 0.000001 -0.000000 -0.000000
$definebone "left_skull4_grib" "left_skull4_root" -2.536481 9.152777 0.850404 0.000000 -89.999983 -0.000002 0.000000 0.000000 0.000000 0.000000 -0.000002 -0.000002
$definebone "left_skull4_magazine" "left_skull4_root" -1.546743 7.218122 0.000000 0.000002 -0.114819 0.000000 0.000000 0.000000 -0.000000 0.000002 0.000002 0.000000
$definebone "left_skull4_trigger" "left_skull4_root" -0.284830 2.417173 0.000000 0.000002 0.000002 0.000057 0.000000 0.000000 -0.000000 0.000002 0.000002 0.000000
$definebone "right_skull4_grib" "right_skull4_root" -2.536482 9.152781 0.850404 -0.000000 -89.999983 -0.000001 0.000000 0.000000 0.000000 -0.000000 0.000000 -0.000001
$definebone "right_skull4_magazine" "right_skull4_root" -1.546742 7.218124 0.000000 0.000001 -0.114821 -0.000000 -0.000000 0.000000 0.000000 0.000001 -0.000000 -0.000000
$definebone "right_skull4_trigger" "right_skull4_root" -0.284830 2.417173 0.000001 0.000001 -0.000000 0.000057 0.000000 0.000000 0.000000 0.000001 -0.000000 -0.000000

$sequence "idle" {
	"v_skull4_anims\idle"
	fps 30
	activity "ACT_VM_IDLE" 1
	snap
	loop
}
$sequence "idle_leftempty" {
	"v_skull4_anims\idle_leftempty"
	fps 30
}
$sequence "shoot_left1" {
	"v_skull4_anims\shoot_left1"
	{ event 5001 0 "#I3 S0.25 R2 F0 P30 T0.01 A1 L0 O0" }
	fps 30
	activity "ACT_VM_PRIMARYATTACK" 1
	snap
}
$sequence "shoot_left2" {
	"v_skull4_anims\shoot_left2"
	{ event 5001 0 "#I3 S0.25 R2 F0 P30 T0.01 A1 L0 O0" }
	fps 30
	activity "ACT_VM_PRIMARYATTACK" 1
	snap
}
$sequence "shoot_leftlast" {
	"v_skull4_anims\shoot_leftlast"
	{ event 5001 0 "#I3 S0.25 R2 F0 P30 T0.01 A1 L0 O0" }
	fps 30
}
$sequence "shoot_right1" {
	"v_skull4_anims\shoot_right1"
	{ event 5011 0 "#I3 S0.25 R2 F0 P30 T0.01 A1 L0 O0" }
	fps 30
	activity "ACT_VM_SECONDARYATTACK" 1
	snap
}
$sequence "shoot_right2" {
	"v_skull4_anims\shoot_right2"
	{ event 5011 0 "#I3 S0.25 R2 F0 P30 T0.01 A1 L0 O0" }
	fps 30
	activity "ACT_VM_SECONDARYATTACK" 1
	snap
}
$sequence "shoot_rightlast" {
	"v_skull4_anims\shoot_rightlast"
	{ event 5011 0 "#I3 S0.25 R2 F0 P30 T0.01 A1 L0 O0" }
	fps 30
}
$sequence "reload" {
	"v_skull4_anims\reload"
	{ event 5004 3 "Skull4.ClipOut" }
	{ event 5004 48 "Skull4.Clipin" }
	fps 30
	activity "ACT_VM_RELOAD" 1
	snap
}
$sequence "draw" {
	"v_skull4_anims\draw"
	{ event 5004 5 "Skull4.Draw" }
	fps 30
	activity "ACT_VM_DRAW" 1
	snap
}
