// Created by Crowbar 0.71

$modelname "weapons/tfa_cso/c_rocketpistol.mdl"

$Include "csonline_gmod.qci"

$bodygroup "weapon"
{
	studio "v_l1"
}
$bodygroup "weapon"
{
	studio "v_l2"
}
$bodygroup "weapon"
{
	studio "v_r1"
}
$bodygroup "weapon"
{
	studio "v_r2"
}
$bodygroup "weapon"
{
	studio "v_rocket"
}

$CDMaterials "models\weapons\tfa_cso\rocketpistol"

$attachment 0 "Bone_root" 10.5 0 0
$attachment 1 "Bone_root_R" 10.5 0 0
//$attachment 2 "root" 0 -13 6

$sequence "idle" {
	"v_rocketpistol_anims\idle"
	fps 30
	loop
	snap
}
$sequence "idle2" {
	"v_rocketpistol_anims\idle2"
	activity "ACT_VM_IDLE" 1
	fps 30
	loop
	snap
}
$sequence "reload1" {
	"v_rocketpistol_anims\reload1"
	{ event 5021 20 "#I286 S0.12 R0 F0 P30 T999 A1 L0 O0 X0" }
	{ event 5031 20 "#I286 S0.12 R0 F0 P30 T999 A1 L0 O0 X1" }
	{ event 5004 7 "weapons/rocketpistol_reload1.wav" }
	fps 30
	snap
}
$sequence "reload2" {
	"v_rocketpistol_anims\reload2"
	activity "ACT_VM_RELOAD" 1
	{ event 5021 20 "#I286 S0.12 R0 F0 P30 T999 A1 L0 O0 X0" }
	{ event 5031 20 "#I286 S0.12 R0 F0 P30 T999 A1 L0 O0 X1" }
	{ event 5004 7 "RocketPistol.Reload" }
	fps 30
	snap
}
$sequence "draw" {
	"v_rocketpistol_anims\draw"
	{ event 5004 3 "weapons/rocketpistol_draw.wav" }
	fps 30
	snap
}
$sequence "draw2" {
	"v_rocketpistol_anims\draw2"
	activity "ACT_VM_DRAW" 1
	{ event 5004 3 "RocketPistol.Draw" }
	fps 30
	snap
}
$sequence "shoot11" {
	"v_rocketpistol_anims\shoot11"
	{ event 5011 0 "#I283 S0.1 R0 F0 P30 T999 A1 L0 O0 X1" }
	{ event 5004 10 "weapons/rocketpistol_shoot1.wav" }
	fps 30
	snap
}
$sequence "shoot12" {
	"v_rocketpistol_anims\shoot12"
	{ event 5001 0 "#I283 S0.1 R0 F0 P30 T999 A1 L0 O0 X0" }
	{ event 5004 10 "weapons/rocketpistol_shoot1.wav" }
	fps 30
	snap
}
$sequence "shoot21" {
	"v_rocketpistol_anims\shoot21"
	{ event 5011 0 "#I283 S0.1 R0 F0 P30 T999 A1 L0 O0 X1" }
	{ event 5004 10 "RocketPistol.Fire1" }
	fps 30
	snap
}
$sequence "shoot22" {
	"v_rocketpistol_anims\shoot22"
	{ event 5001 0 "#I283 S0.1 R0 F0 P30 T999 A1 L0 O0 X0" }
	{ event 5004 10 "RocketPistol.Fire1" }
	fps 30
	snap
}
$sequence "shoot_31" {
	"v_rocketpistol_anims\shoot_31"
	{ event 5001 0 "#I284 S0.12 R0 F0 P30 T999 A1 L0 O0 X0" }
	{ event 5011 0 "#I284 S0.12 R0 F0 P30 T999 A1 L0 O0 X1" }
	{ event 5001 0 "#I272 S0.12 R0 F0 P30 T999 A1 L0 O0 X2" }
	fps 30
	snap
}
$sequence "shoot_32" {
	"v_rocketpistol_anims\shoot_32"
	{ event 5001 0 "#I284 S0.12 R0 F0 P30 T999 A1 L0 O0 X0" }
	{ event 5011 0 "#I284 S0.12 R0 F0 P30 T999 A1 L0 O0 X1" }
	{ event 5001 0 "#I272 S0.3 R0 F0 P30 T999 A1 L0 O0 X2" }
	fps 30
	snap
}
$sequence "shoot_b_start" {
	"v_rocketpistol_anims\shoot_b_start"
	{ event 5001 0 "#I284 S0.12 R0 F0 P30 T999 A1 L0 O0 X0" }
	{ event 5011 0 "#I284 S0.12 R0 F0 P30 T999 A1 L0 O0 X1" }
	fps 30
	snap
}
$sequence "shoot_b_loop" {
	"v_rocketpistol_anims\shoot_b_loop"
	{ event 5001 0 "#I285 S0.08 R1 F0 P30 T999 A1 L0 O0 X0" }
	{ event 5011 0 "#I285 S0.08 R1 F0 P30 T999 A1 L0 O0 X1" }
	{ event 5041 0 "#I287 S0.18 R0 F0 P30 T999 A1 L0 O0 X2" }
	fps 30
	loop
	snap
}
$sequence "shoot_b_end" {
	"v_rocketpistol_anims\shoot_b_end"
	fps 30
	snap
}
$sequence "shoot2_b_start" {
	"v_rocketpistol_anims\shoot2_b_start"
	{ event 5001 0 "#I284 S0.12 R0 F0 P30 T999 A1 L0 O0 X0" }
	{ event 5011 0 "#I284 S0.12 R0 F0 P30 T999 A1 L0 O0 X1" }
	fps 30
	snap
}
$sequence "shoot2_b_loop_r" {
	"v_rocketpistol_anims\shoot2_b_loop_r"
	activity "ACT_VM_PRIMARYATTACK" 1
	{ event 5001 0 "#I285 S0.08 R1 F0 P30 T999 A1 L0 O0 X0" }
	{ event 5011 0 "#I285 S0.08 R1 F0 P30 T999 A1 L0 O0 X1" }
	{ event 5041 0 "#I287 S0.18 R0 F0 P30 T999 A1 L0 O0 X2" }
	fps 30
	loop
	snap
}
$sequence "shoot2_b_loop_l" {
	"v_rocketpistol_anims\shoot2_b_loop_l"
	activity "ACT_VM_SECONDARYATTACK" 1
	{ event 5001 0 "#I285 S0.08 R1 F0 P30 T999 A1 L0 O0 X0" }
	{ event 5011 0 "#I285 S0.08 R1 F0 P30 T999 A1 L0 O0 X1" }
	{ event 5041 0 "#I287 S0.18 R0 F0 P30 T999 A1 L0 O0 X2" }
	fps 30
	loop
	snap
}
$sequence "shoot2_b_end" {
	"v_rocketpistol_anims\shoot2_b_end"
	activity "ACT_VM_PRIMARYATTACK_EMPTY" 1
	fps 30
	snap
}
