version 1
nodes
  0 "y20s1_root" -1
  1 "Bone053" 0
  2 "Bone054" 0
  3 "Bone052" 0
  4 "Bone055" 0
  5 "Bone057" 0
  6 "Bone056" 0
  7 "Bone058" 0
  8 "Bone060" 7
  9 "Bone061" 7
  10 "Bone062" 7
  11 "Bone063" 7
  12 "Bone064" 7
  13 "Bone059" 7
  14 "Bone046" 0
  15 "Bone048" 14
  16 "Bone049" 15
  17 "Bone051" 14
  18 "Bone050" 17
  19 "Bone068" 0
  20 "Bone067" 19
  21 "Bone065" 0
  22 "Bone066" 21
  23 "Bone047" 14
  24 "y20s1_root001" -1
  25 "Bone070" 24
  26 "Bone071" 24
  27 "Bone072" 24
  28 "Bone073" 24
  29 "Bone074" 24
  30 "Bone075" 24
  31 "Bone078" 24
  32 "Bone079" 31
  33 "Bone080" 31
  34 "Bone081" 31
  35 "Bone082" 31
  36 "Bone083" 31
  37 "Bone084" 31
  38 "Bone085" 24
  39 "Bone087" 38
  40 "Bone088" 39
  41 "Bone089" 38
  42 "Bone090" 41
  43 "Bone069" 24
  44 "Bone077" 43
  45 "Bone086" 38
  46 "Bone091" 24
  47 "Bone076" 46
  48 "Bone105" 4
  49 "Bone106" 5
  50 "Bone104" 6
  51 "Bone098" 7
  52 "Bone099" 51
  53 "Bone094" 7
  54 "Bone095" 53
  55 "Bone102" 14
  56 "Bone108" 28
  57 "Bone109" 29
  58 "Bone107" 30
  59 "Bone092" 31
  60 "Bone093" 59
  61 "Bone100" 31
  62 "Bone101" 61
  63 "Bone103" 38
  64 "Bone110" -1
  65 "Bone111" 64
  66 "Bone112" -1
  67 "Bone113" 66
  68 "root" -1
  69 "Bone01" 68
  70 "Bone_Lefthand" 69
  71 "Bone_L_Upper" 69
  72 "Bone13" 70
  73 "Bone14" 72
  74 "Bone15" 73
  75 "Bone17" 70
  76 "Bone18" 75
  77 "Bone19" 76
  78 "Bone21" 70
  79 "Bone22" 78
  80 "Bone23" 79
  81 "Bone09" 70
  82 "Bone10" 81
  83 "Bone11" 82
  84 "Bone05" 70
  85 "Bone06" 84
  86 "Bone07" 85
  87 "Bone_Se_Hand-L" 70
  88 "Bone04" 68
  89 "Bone_Righthand" 88
  90 "Bone39" 89
  91 "Bone40" 90
  92 "Bone41" 91
  93 "Bone35" 89
  94 "Bone36" 93
  95 "Bone37" 94
  96 "Bone31" 89
  97 "Bone32" 96
  98 "Bone33" 97
  99 "Bone43" 89
  100 "Bone44" 99
  101 "Bone45" 100
  102 "Bone27" 89
  103 "Bone28" 102
  104 "Bone29" 103
  105 "Bone_Se_Hand-R" 89
  106 "Bone_R_Upper" 88
end
skeleton
  time 0
    0 10.298086 7.345442 1.507315 0.000000 -3.141592 1.570796
    1 5.492746 -0.508946 -0.763181 0.000000 -3.141592 1.570796
    2 6.225239 -0.508947 -0.763181 0.000000 -3.141592 1.570796
    3 4.765635 -0.508946 -0.763181 0.000000 -3.141592 1.570796
    4 5.492747 0.440855 -0.763181 0.000000 0.000000 -1.570796
    5 4.765635 0.440854 -0.763181 0.000000 0.000000 -1.570796
    6 6.225239 0.440854 -0.763181 0.000000 0.000000 -1.570796
    7 0.734516 -0.034953 -1.157406 3.141592 0.000000 0.000000
    8 1.383715 1.775293 -0.363650 0.000000 0.000000 0.000000
    9 1.826590 1.775292 -0.363650 0.000000 0.000000 0.000000
    10 1.383717 -1.761114 -0.363650 0.000000 3.141592 0.000000
    11 1.826591 -1.761114 -0.363650 0.000000 3.141592 0.000000
    12 0.938831 -1.761113 -0.363650 0.000000 3.141592 0.000000
    13 0.938830 1.775293 -0.363650 0.000000 0.000000 0.000000
    14 3.665390 -0.034953 -2.563084 0.000000 0.000000 0.000000
    15 0.753651 -1.638261 0.188614 0.000000 0.000001 0.000000
    16 1.245361 -0.376737 -0.047506 0.000000 -0.000001 0.000000
    17 0.753652 1.639442 0.188613 0.000001 -3.141592 0.000000
    18 -1.245362 0.378591 0.047506 0.000000 -0.000001 0.000001
    19 1.613046 -3.350949 0.877643 0.000000 0.000000 -3.054334
    20 -5.013273 -0.000002 0.000000 0.000000 0.000000 0.000000
    21 1.613047 3.280648 0.877641 3.141592 0.000000 -0.087259
    22 5.013275 0.000001 0.000000 0.000000 0.000000 0.000000
    23 2.620763 0.000000 -0.918122 0.000001 1.570451 0.000000
    24 -10.297997 7.345000 1.507000 0.000000 0.000000 1.570796
    25 -5.492747 0.508945 0.763181 0.000000 -3.141592 1.570796
    26 -6.225240 0.508945 0.763181 0.000000 -3.141592 1.570796
    27 -4.765636 0.508945 0.763181 0.000000 -3.141592 1.570796
    28 -5.492747 -0.440856 0.763181 0.000000 0.000000 -1.570796
    29 -4.765636 -0.440856 0.763181 0.000000 0.000000 -1.570796
    30 -6.225240 -0.440856 0.763181 0.000000 0.000000 -1.570796
    31 -0.734516 0.034951 1.157406 3.141592 0.000000 0.000000
    32 -1.383715 -1.775294 0.363650 0.000000 0.000000 0.000000
    33 -1.826590 -1.775294 0.363650 0.000000 0.000000 0.000000
    34 -1.383717 1.761112 0.363650 0.000000 3.141592 0.000000
    35 -1.826591 1.761112 0.363650 0.000000 3.141592 0.000000
    36 -0.938831 1.761112 0.363650 0.000000 3.141592 0.000000
    37 -0.938830 -1.775294 0.363650 0.000000 0.000000 0.000000
    38 -3.665390 0.034952 2.563085 0.000000 0.000000 0.000000
    39 -0.753652 1.638261 -0.188614 0.000000 0.000001 0.000000
    40 -1.245361 0.376737 0.047506 0.000000 -0.000001 0.000000
    41 -0.753652 -1.639441 -0.188613 0.000001 -3.141592 0.000000
    42 1.245362 -0.378591 -0.047506 0.000000 -0.000001 0.000001
    43 -1.613047 -3.280649 -0.877641 3.141592 0.000000 -0.087259
    44 -5.013275 -0.000001 0.000000 0.000000 0.000000 0.000000
    45 -2.620764 0.000000 0.918122 0.000001 1.570451 0.000000
    46 -1.613046 3.350949 -0.877643 0.000000 0.000000 -3.054334
    47 5.013275 0.000001 0.000000 0.000000 0.000000 0.000000
    48 -1.557277 -0.000002 0.000000 0.000001 -3.141592 0.000000
    49 -1.584028 -0.000002 -0.000002 0.000001 -3.141592 0.000000
    50 -1.578958 -0.000001 0.000000 0.000001 3.141592 0.000000
    51 2.008074 -1.587027 0.492986 0.000000 -0.261799 -1.570796
    52 3.174276 0.000001 0.000000 0.000000 0.000000 0.000000
    53 1.336141 -1.587025 0.492987 0.000000 -0.261799 -1.570796
    54 3.174276 0.000002 0.000001 0.000000 0.000000 0.000000
    55 2.630224 0.000001 -1.540956 -0.114884 2.916971 -0.754774
    56 1.537684 -0.000002 0.000003 0.000002 -0.000001 0.000000
    57 1.522417 -0.000004 0.000002 0.000002 -0.000001 0.000000
    58 1.543590 -0.000002 0.000001 0.000000 0.000000 0.000000
    59 -1.334419 1.611833 -0.495547 0.000000 0.349065 1.570797
    60 3.174276 0.000000 0.000000 0.000000 0.000000 0.000000
    61 -2.005603 1.611833 -0.495546 -0.000001 0.349065 1.570797
    62 3.174276 0.000001 0.000001 0.000000 0.000000 0.000000
    63 -2.675037 -0.025829 1.506733 0.231202 -0.233651 -0.743466
    64 -0.931789 58.654182 2.138133 0.000000 0.000000 0.000000
    65 0.903015 -0.000011 0.000001 0.000000 0.000000 0.000000
    66 -0.292747 60.070263 6.857915 0.000000 0.000000 0.000000
    67 0.903015 -0.000011 0.000000 0.000000 0.000000 0.000000
    68 0.001265 15.734154 -36.189949 0.000000 0.000000 0.000000
    69 0.496437 0.571350 22.470005 3.138933 -0.000224 -1.566807
    70 -0.071922 -8.498732 -0.104136 -0.025046 0.287591 0.014898
    71 1.257180 8.762585 -0.153713 -1.570562 0.002683 -1.566807
    72 -0.488518 -2.755602 -0.228260 0.106454 0.010332 -0.264490
    73 0.039887 -1.479790 0.029854 -0.055395 0.000000 0.000001
    74 0.028786 -1.075731 -0.023109 0.002099 0.000000 0.000000
    75 0.250027 -2.820665 -0.238396 0.041826 -0.002921 0.008443
    76 -0.049759 -1.680544 0.100479 0.019826 0.000000 -0.000002
    77 -0.034142 -1.148312 0.084782 -0.040115 0.000000 0.000000
    78 0.957766 -2.746780 -0.090302 -0.017221 -0.162277 0.191558
    79 -0.033420 -1.397129 -0.011257 0.013931 0.000000 -0.000001
    80 -0.022360 -0.957436 0.018784 0.003845 0.000000 0.000000
    81 -1.180681 -2.507217 -0.193859 0.082999 0.013294 -0.477915
    82 -0.024967 -1.123934 0.017597 -0.018065 0.000000 0.000001
    83 -0.020057 -0.890968 0.010090 -0.060797 0.000000 0.000000
    84 0.583510 -1.197277 0.185379 0.158049 -0.404973 -0.364290
    85 1.535927 0.010246 0.005009 -0.002964 -0.012979 0.000887
    86 1.100771 0.004527 -0.010679 -0.002796 0.015973 0.003458
    87 0.120153 -0.050270 -0.054489 0.287569 3.110905 1.561085
    88 -9.310107 -5.231260 -12.513384 0.004984 -3.131565 -1.566847
    89 0.096944 -8.450418 -0.009365 -0.032965 -0.297907 -0.004663
    90 0.447953 -2.798986 -0.200443 0.106456 -0.010396 0.265094
    91 -0.032909 -1.480204 0.004940 -0.055403 0.000000 0.000002
    92 -0.027022 -1.076920 -0.020210 0.002094 0.000000 0.000000
    93 -0.249534 -2.846964 -0.174213 0.041903 -0.000125 -0.008396
    94 0.043235 -1.683941 0.096012 0.019757 0.002823 -0.000167
    95 0.031729 -1.160830 0.058838 -0.040181 0.000642 0.008372
    96 -0.963866 -2.785145 -0.085350 -0.017227 0.162276 -0.191556
    97 0.028479 -1.403067 0.006271 0.013941 0.000000 0.000000
    98 0.021413 -0.957781 0.020046 0.003851 0.000000 0.000000
    99 1.164475 -2.543940 -0.170330 0.083003 -0.013294 0.477915
    100 0.024032 -1.129042 0.017807 -0.018074 0.000000 0.000001
    101 0.014898 -0.883989 -0.019848 -0.060801 0.000000 0.000000
    102 -0.586770 -1.264477 0.200161 -0.152092 -0.410513 -2.814816
    103 1.522835 0.058681 0.016848 0.001410 0.008985 -0.046880
    104 1.117947 0.048424 -0.005766 -0.000243 -0.025198 0.065422
    105 -0.139399 -0.111698 0.014397 0.285382 -0.030687 1.580508
    106 -1.393470 8.839177 -0.239433 1.580804 -0.005023 -1.566847
end
triangles
$0b_y20s1gunteltfx.bmp
  60 -5.946904 5.356062 4.818832 -0.451317 0.172296 0.875573 0.991903 1.000000
  60 -5.919543 5.566062 4.743657 -0.411007 0.496103 0.764823 0.935223 1.000000
  59 -8.782680 5.386064 3.329099 -0.411008 0.496099 0.764826 0.935223 0.000000
$0b_y20s1gunteltfx.bmp
  59 -8.782680 5.386064 3.329099 -0.411008 0.496099 0.764826 0.935223 0.000000
  60 -5.919543 5.566062 4.743657 -0.411007 0.496103 0.764823 0.935223 1.000000
  59 -8.768999 5.446064 3.291511 -0.335251 0.760072 0.556684 0.878543 0.000000
$0b_y20s1gunteltfx.bmp
  60 -5.919543 5.566062 4.743657 -0.411007 0.496103 0.764823 0.935223 1.000000
  60 -5.871660 5.726062 4.612100 -0.335250 0.760073 0.556684 0.878543 1.000000
  59 -8.768999 5.446064 3.291511 -0.335251 0.760072 0.556684 0.878543 0.000000
$0b_y20s1gunteltfx.bmp
  59 -8.768999 5.446064 3.291511 -0.335251 0.760072 0.556684 0.878543 0.000000
  60 -5.871660 5.726062 4.612100 -0.335250 0.760073 0.556684 0.878543 1.000000
  59 -8.745058 5.476064 3.225732 -0.233184 0.932366 0.276259 0.821862 0.000000
$0b_y20s1gunteltfx.bmp
  60 -5.871660 5.726062 4.612100 -0.335250 0.760073 0.556684 0.878543 1.000000
  60 -5.810096 5.846061 4.442955 -0.233184 0.932366 0.276259 0.821862 1.000000
  59 -8.745058 5.476064 3.225732 -0.233184 0.932366 0.276259 0.821862 0.000000
$0b_y20s1gunteltfx.bmp
  59 -8.745058 5.476064 3.225732 -0.233184 0.932366 0.276259 0.821862 0.000000
  60 -5.810096 5.846061 4.442955 -0.233184 0.932366 0.276259 0.821862 1.000000
  59 -8.721116 5.496064 3.159954 -0.117118 0.992203 -0.042629 0.765182 0.000000
$0b_y20s1gunteltfx.bmp
  60 -5.810096 5.846061 4.442955 -0.233184 0.932366 0.276259 0.821862 1.000000
  60 -5.738272 5.886061 4.245620 -0.117118 0.992203 -0.042630 0.765182 1.000000
  59 -8.721116 5.496064 3.159954 -0.117118 0.992203 -0.042629 0.765182 0.000000
$0b_y20s1gunteltfx.bmp
  59 -8.721116 5.496064 3.159954 -0.117118 0.992203 -0.042629 0.765182 0.000000
  60 -5.738272 5.886061 4.245620 -0.117118 0.992203 -0.042630 0.765182 1.000000
  59 -8.704015 5.476064 3.112969 -0.001051 0.932364 -0.361520 0.708502 0.000000
$0b_y20s1gunteltfx.bmp
  60 -5.738272 5.886061 4.245620 -0.117118 0.992203 -0.042630 0.765182 1.000000
  60 -5.673288 5.846061 4.067078 -0.001051 0.932365 -0.361518 0.708502 1.000000
  59 -8.704015 5.476064 3.112969 -0.001051 0.932364 -0.361520 0.708502 0.000000
$0b_y20s1gunteltfx.bmp
  59 -8.704015 5.476064 3.112969 -0.001051 0.932364 -0.361520 0.708502 0.000000
  60 -5.673288 5.846061 4.067078 -0.001051 0.932365 -0.361518 0.708502 1.000000
  59 -8.680074 5.446064 3.047191 0.101014 0.760070 -0.641943 0.651822 0.000000
$0b_y20s1gunteltfx.bmp
  60 -5.673288 5.846061 4.067078 -0.001051 0.932365 -0.361518 0.708502 1.000000
  60 -5.608304 5.736061 3.888536 0.101014 0.760071 -0.641942 0.651822 1.000000
  59 -8.680074 5.446064 3.047191 0.101014 0.760070 -0.641943 0.651822 0.000000
$0b_y20s1gunteltfx.bmp
  59 -8.680074 5.446064 3.047191 0.101014 0.760070 -0.641943 0.651822 0.000000
  60 -5.608304 5.736061 3.888536 0.101014 0.760071 -0.641942 0.651822 1.000000
  59 -8.662973 5.386064 3.000206 0.176770 0.496099 -0.850081 0.595142 0.000000
$0b_y20s1gunteltfx.bmp
  60 -5.608304 5.736061 3.888536 0.101014 0.760071 -0.641942 0.651822 1.000000
  60 -5.563842 5.586061 3.766376 0.176770 0.496101 -0.850080 0.595142 1.000000
  59 -8.662973 5.386064 3.000206 0.176770 0.496099 -0.850081 0.595142 0.000000
$0b_y20s1gunteltfx.bmp
  59 -8.662973 5.386064 3.000206 0.176770 0.496099 -0.850081 0.595142 0.000000
  60 -5.563842 5.586061 3.766376 0.176770 0.496101 -0.850080 0.595142 1.000000
  59 -8.652712 5.306064 2.972015 0.217079 0.172290 -0.960829 0.534413 0.000000
$0b_y20s1gunteltfx.bmp
  60 -5.563842 5.586061 3.766376 0.176770 0.496101 -0.850080 0.595142 1.000000
  60 -5.536481 5.376061 3.691201 0.217079 0.172293 -0.960829 0.534413 1.000000
  59 -8.652712 5.306064 2.972015 0.217079 0.172290 -0.960829 0.534413 0.000000
$0b_y20s1gunteltfx.bmp
  59 -8.652712 5.306064 2.972015 0.217079 0.172290 -0.960829 0.534413 0.000000
  60 -5.536481 5.376061 3.691201 0.217079 0.172293 -0.960829 0.534413 1.000000
  59 -8.652712 5.266064 2.972015 0.217079 -0.172295 -0.960828 0.477733 0.000000
$0b_y20s1gunteltfx.bmp
  60 -5.536481 5.376061 3.691201 0.217079 0.172293 -0.960829 0.534413 1.000000
  60 -5.536481 5.196061 3.691201 0.217079 -0.172297 -0.960828 0.477733 1.000000
  59 -8.652712 5.266064 2.972015 0.217079 -0.172295 -0.960828 0.477733 0.000000
$0b_y20s1gunteltfx.bmp
  59 -8.652712 5.266064 2.972015 0.217079 -0.172295 -0.960828 0.477733 0.000000
  60 -5.536481 5.196061 3.691201 0.217079 -0.172297 -0.960828 0.477733 1.000000
  59 -8.662973 5.166064 3.000206 0.176769 -0.496100 -0.850081 0.417004 0.000000
$0b_y20s1gunteltfx.bmp
  60 -5.536481 5.196061 3.691201 0.217079 -0.172297 -0.960828 0.477733 1.000000
  60 -5.563843 4.976061 3.766376 0.176769 -0.496104 -0.850079 0.417004 1.000000
  59 -8.662973 5.166064 3.000206 0.176769 -0.496100 -0.850081 0.417004 0.000000
$0b_y20s1gunteltfx.bmp
  59 -8.662973 5.166064 3.000206 0.176769 -0.496100 -0.850081 0.417004 0.000000
  60 -5.563843 4.976061 3.766376 0.176769 -0.496104 -0.850079 0.417004 1.000000
  59 -8.680074 5.106064 3.047191 0.101012 -0.760074 -0.641938 0.360324 0.000000
$0b_y20s1gunteltfx.bmp
  60 -5.563843 4.976061 3.766376 0.176769 -0.496104 -0.850079 0.417004 1.000000
  60 -5.608305 4.806061 3.888536 0.101013 -0.760072 -0.641940 0.360324 1.000000
  59 -8.680074 5.106064 3.047191 0.101012 -0.760074 -0.641938 0.360324 0.000000
$0b_y20s1gunteltfx.bmp
  59 -8.680074 5.106064 3.047191 0.101012 -0.760074 -0.641938 0.360324 0.000000
  60 -5.608305 4.806061 3.888536 0.101013 -0.760072 -0.641940 0.360324 1.000000
  59 -8.700595 5.086064 3.103572 -0.001054 -0.932366 -0.361514 0.303644 0.000000
$0b_y20s1gunteltfx.bmp
  60 -5.608305 4.806061 3.888536 0.101013 -0.760072 -0.641940 0.360324 1.000000
  60 -5.673289 4.706061 4.067078 -0.001054 -0.932366 -0.361514 0.303644 1.000000
  59 -8.700595 5.086064 3.103572 -0.001054 -0.932366 -0.361514 0.303644 0.000000
$0b_y20s1gunteltfx.bmp
  59 -8.700595 5.086064 3.103572 -0.001054 -0.932366 -0.361514 0.303644 0.000000
  60 -5.673289 4.706061 4.067078 -0.001054 -0.932366 -0.361514 0.303644 1.000000
  59 -8.721117 5.066064 3.159954 -0.117120 -0.992203 -0.042626 0.246964 0.000000
$0b_y20s1gunteltfx.bmp
  60 -5.673289 4.706061 4.067078 -0.001054 -0.932366 -0.361514 0.303644 1.000000
  60 -5.738273 4.666061 4.245620 -0.117120 -0.992203 -0.042626 0.246964 1.000000
  59 -8.721117 5.066064 3.159954 -0.117120 -0.992203 -0.042626 0.246964 0.000000
$0b_y20s1gunteltfx.bmp
  59 -8.721117 5.066064 3.159954 -0.117120 -0.992203 -0.042626 0.246964 0.000000
  60 -5.738273 4.666061 4.245620 -0.117120 -0.992203 -0.042626 0.246964 1.000000
  59 -8.745058 5.086064 3.225732 -0.233186 -0.932364 0.276264 0.190283 0.000000
$0b_y20s1gunteltfx.bmp
  60 -5.738273 4.666061 4.245620 -0.117120 -0.992203 -0.042626 0.246964 1.000000
  60 -5.810097 4.706061 4.442955 -0.233185 -0.932365 0.276262 0.190283 1.000000
  59 -8.745058 5.086064 3.225732 -0.233186 -0.932364 0.276264 0.190283 0.000000
$0b_y20s1gunteltfx.bmp
  59 -8.745058 5.086064 3.225732 -0.233186 -0.932364 0.276264 0.190283 0.000000
  60 -5.810097 4.706061 4.442955 -0.233185 -0.932365 0.276262 0.190283 1.000000
  59 -8.768999 5.106064 3.291511 -0.335251 -0.760071 0.556686 0.133603 0.000000
$0b_y20s1gunteltfx.bmp
  60 -5.810097 4.706061 4.442955 -0.233185 -0.932365 0.276262 0.190283 1.000000
  60 -5.871661 4.806062 4.612100 -0.335251 -0.760071 0.556686 0.133603 1.000000
  59 -8.768999 5.106064 3.291511 -0.335251 -0.760071 0.556686 0.133603 0.000000
$0b_y20s1gunteltfx.bmp
  59 -8.768999 5.106064 3.291511 -0.335251 -0.760071 0.556686 0.133603 0.000000
  60 -5.871661 4.806062 4.612100 -0.335251 -0.760071 0.556686 0.133603 1.000000
  59 -8.786100 5.166064 3.338496 -0.411008 -0.496101 0.764824 0.076923 0.000000
$0b_y20s1gunteltfx.bmp
  60 -5.871661 4.806062 4.612100 -0.335251 -0.760071 0.556686 0.133603 1.000000
  60 -5.919543 4.966062 4.743657 -0.411008 -0.496100 0.764825 0.076923 1.000000
  59 -8.786100 5.166064 3.338496 -0.411008 -0.496101 0.764824 0.076923 0.000000
$0b_y20s1gunteltfx.bmp
  59 -8.786100 5.166064 3.338496 -0.411008 -0.496101 0.764824 0.076923 0.000000
  60 -5.919543 4.966062 4.743657 -0.411008 -0.496100 0.764825 0.076923 1.000000
  59 -8.792941 5.256064 3.357289 -0.451317 -0.172292 0.875573 0.020243 0.000000
$0b_y20s1gunteltfx.bmp
  60 -5.919543 4.966062 4.743657 -0.411008 -0.496100 0.764825 0.076923 1.000000
  60 -5.946905 5.176062 4.818832 -0.451317 -0.172293 0.875573 0.020243 1.000000
  59 -8.792941 5.256064 3.357289 -0.451317 -0.172292 0.875573 0.020243 0.000000
$0b_y20s1gunteltfx.bmp
  59 -8.792941 5.256064 3.357289 -0.451317 -0.172292 0.875573 0.020243 0.000000
  60 -5.946905 5.176062 4.818832 -0.451317 -0.172293 0.875573 0.020243 1.000000
  59 -8.792941 5.306064 3.357289 -0.451317 0.172297 0.875572 0.000000 0.000000
$0b_y20s1gunteltfx.bmp
  60 -5.946905 5.176062 4.818832 -0.451317 -0.172293 0.875573 0.020243 1.000000
  60 -5.946904 5.356062 4.818832 -0.451317 0.172296 0.875573 0.000000 1.000000
  59 -8.792941 5.306064 3.357289 -0.451317 0.172297 0.875572 0.000000 0.000000
$0b_y20s1gunteltfx.bmp
  54 5.527196 5.364784 3.409379 -0.132511 0.172291 -0.976093 0.991903 1.000000
  54 5.547901 5.574785 3.486653 -0.102008 0.496101 -0.862252 0.935223 1.000000
  53 8.702014 5.364786 2.993503 -0.102008 0.496100 -0.862253 0.935223 0.000000
$0b_y20s1gunteltfx.bmp
  53 8.702014 5.364786 2.993503 -0.102008 0.496100 -0.862253 0.935223 0.000000
  54 5.547901 5.574785 3.486653 -0.102008 0.496101 -0.862252 0.935223 1.000000
  53 8.712367 5.424786 3.032140 -0.044681 0.760069 -0.648304 0.878543 0.000000
$0b_y20s1gunteltfx.bmp
  54 5.547901 5.574785 3.486653 -0.102008 0.496101 -0.862252 0.935223 1.000000
  54 5.584136 5.734785 3.621882 -0.044681 0.760071 -0.648302 0.878543 1.000000
  53 8.712367 5.424786 3.032140 -0.044681 0.760069 -0.648304 0.878543 0.000000
$0b_y20s1gunteltfx.bmp
  53 8.712367 5.424786 3.032140 -0.044681 0.760069 -0.648304 0.878543 0.000000
  54 5.584136 5.734785 3.621882 -0.044681 0.760071 -0.648302 0.878543 1.000000
  53 8.733073 5.464786 3.109414 0.032557 0.932366 -0.360047 0.821862 0.000000
$0b_y20s1gunteltfx.bmp
  54 5.584136 5.734785 3.621882 -0.044681 0.760071 -0.648302 0.878543 1.000000
  54 5.630723 5.844785 3.795749 0.032557 0.932366 -0.360048 0.821862 1.000000
  53 8.733073 5.464786 3.109414 0.032557 0.932366 -0.360047 0.821862 0.000000
$0b_y20s1gunteltfx.bmp
  53 8.733073 5.464786 3.109414 0.032557 0.932366 -0.360047 0.821862 0.000000
  54 5.630723 5.844785 3.795749 0.032557 0.932366 -0.360048 0.821862 1.000000
  53 8.746014 5.484786 3.157710 0.120388 0.992203 -0.032259 0.765182 0.000000
$0b_y20s1gunteltfx.bmp
  54 5.630723 5.844785 3.795749 0.032557 0.932366 -0.360048 0.821862 1.000000
  54 5.679899 5.884785 3.979275 0.120388 0.992203 -0.032259 0.765182 1.000000
  53 8.746014 5.484786 3.157710 0.120388 0.992203 -0.032259 0.765182 0.000000
$0b_y20s1gunteltfx.bmp
  53 8.746014 5.484786 3.157710 0.120388 0.992203 -0.032259 0.765182 0.000000
  54 5.679899 5.884785 3.979275 0.120388 0.992203 -0.032259 0.765182 1.000000
  53 8.764131 5.464786 3.225325 0.208219 0.932366 0.295530 0.708502 0.000000
$0b_y20s1gunteltfx.bmp
  54 5.679899 5.884785 3.979275 0.120388 0.992203 -0.032259 0.765182 1.000000
  54 5.731663 5.844785 4.172460 0.208219 0.932366 0.295532 0.708502 1.000000
  53 8.764131 5.464786 3.225325 0.208219 0.932366 0.295530 0.708502 0.000000
$0b_y20s1gunteltfx.bmp
  53 8.764131 5.464786 3.225325 0.208219 0.932366 0.295530 0.708502 0.000000
  54 5.731663 5.844785 4.172460 0.208219 0.932366 0.295532 0.708502 1.000000
  53 8.779660 5.424786 3.283281 0.285456 0.760071 0.583787 0.651822 0.000000
$0b_y20s1gunteltfx.bmp
  54 5.731663 5.844785 4.172460 0.208219 0.932366 0.295532 0.708502 1.000000
  54 5.780838 5.724785 4.355986 0.285456 0.760071 0.583787 0.651822 1.000000
  53 8.779660 5.424786 3.283281 0.285456 0.760071 0.583787 0.651822 0.000000
$0b_y20s1gunteltfx.bmp
  53 8.779660 5.424786 3.283281 0.285456 0.760071 0.583787 0.651822 0.000000
  54 5.780838 5.724785 4.355986 0.285456 0.760071 0.583787 0.651822 1.000000
  53 8.795189 5.364786 3.341236 0.342784 0.496102 0.797736 0.595142 0.000000
$0b_y20s1gunteltfx.bmp
  54 5.780838 5.724785 4.355986 0.285456 0.760071 0.583787 0.651822 1.000000
  54 5.817073 5.564785 4.491216 0.342784 0.496102 0.797736 0.595142 1.000000
  53 8.795189 5.364786 3.341236 0.342784 0.496102 0.797736 0.595142 0.000000
$0b_y20s1gunteltfx.bmp
  53 8.795189 5.364786 3.341236 0.342784 0.496102 0.797736 0.595142 0.000000
  54 5.817073 5.564785 4.491216 0.342784 0.496102 0.797736 0.595142 1.000000
  53 8.795189 5.284786 3.341236 0.373288 0.172296 0.911576 0.534413 0.000000
$0b_y20s1gunteltfx.bmp
  54 5.817073 5.564785 4.491216 0.342784 0.496102 0.797736 0.595142 1.000000
  54 5.837779 5.354785 4.568490 0.373288 0.172295 0.911576 0.534413 1.000000
  53 8.795189 5.284786 3.341236 0.373288 0.172296 0.911576 0.534413 0.000000
$0b_y20s1gunteltfx.bmp
  53 8.795189 5.284786 3.341236 0.373288 0.172296 0.911576 0.534413 0.000000
  54 5.837779 5.354785 4.568490 0.373288 0.172295 0.911576 0.534413 1.000000
  53 8.795189 5.254786 3.341236 0.373288 -0.172294 0.911576 0.477733 0.000000
$0b_y20s1gunteltfx.bmp
  54 5.837779 5.354785 4.568490 0.373288 0.172295 0.911576 0.534413 1.000000
  54 5.837779 5.184785 4.568490 0.373288 -0.172292 0.911576 0.477733 1.000000
  53 8.795189 5.254786 3.341236 0.373288 -0.172294 0.911576 0.477733 0.000000
$0b_y20s1gunteltfx.bmp
  53 8.795189 5.254786 3.341236 0.373288 -0.172294 0.911576 0.477733 0.000000
  54 5.837779 5.184785 4.568490 0.373288 -0.172292 0.911576 0.477733 1.000000
  53 8.792601 5.174786 3.331577 0.342785 -0.496103 0.797735 0.417004 0.000000
$0b_y20s1gunteltfx.bmp
  54 5.837779 5.184785 4.568490 0.373288 -0.172292 0.911576 0.477733 1.000000
  54 5.814485 4.974785 4.481557 0.342785 -0.496101 0.797735 0.417004 1.000000
  53 8.792601 5.174786 3.331577 0.342785 -0.496103 0.797735 0.417004 0.000000
$0b_y20s1gunteltfx.bmp
  53 8.792601 5.174786 3.331577 0.342785 -0.496103 0.797735 0.417004 0.000000
  54 5.814485 4.974785 4.481557 0.342785 -0.496101 0.797735 0.417004 1.000000
  53 8.779660 5.104786 3.283281 0.285458 -0.760071 0.583785 0.360324 0.000000
$0b_y20s1gunteltfx.bmp
  54 5.814485 4.974785 4.481557 0.342785 -0.496101 0.797735 0.417004 1.000000
  54 5.780838 4.804785 4.355986 0.285457 -0.760072 0.583785 0.360324 1.000000
  53 8.779660 5.104786 3.283281 0.285458 -0.760071 0.583785 0.360324 0.000000
$0b_y20s1gunteltfx.bmp
  53 8.779660 5.104786 3.283281 0.285458 -0.760071 0.583785 0.360324 0.000000
  54 5.780838 4.804785 4.355986 0.285457 -0.760072 0.583785 0.360324 1.000000
  53 8.764131 5.084786 3.225325 0.208221 -0.932364 0.295536 0.303644 0.000000
$0b_y20s1gunteltfx.bmp
  54 5.780838 4.804785 4.355986 0.285457 -0.760072 0.583785 0.360324 1.000000
  54 5.731663 4.694785 4.172461 0.208221 -0.932365 0.295533 0.303644 1.000000
  53 8.764131 5.084786 3.225325 0.208221 -0.932364 0.295536 0.303644 0.000000
$0b_y20s1gunteltfx.bmp
  53 8.764131 5.084786 3.225325 0.208221 -0.932364 0.295536 0.303644 0.000000
  54 5.731663 4.694785 4.172461 0.208221 -0.932365 0.295533 0.303644 1.000000
  53 8.746014 5.064786 3.157710 0.120389 -0.992203 -0.032258 0.246964 0.000000
$0b_y20s1gunteltfx.bmp
  54 5.731663 4.694785 4.172461 0.208221 -0.932365 0.295533 0.303644 1.000000
  54 5.679899 4.664785 3.979276 0.120389 -0.992203 -0.032257 0.246964 1.000000
  53 8.746014 5.064786 3.157710 0.120389 -0.992203 -0.032258 0.246964 0.000000
$0b_y20s1gunteltfx.bmp
  53 8.746014 5.064786 3.157710 0.120389 -0.992203 -0.032258 0.246964 0.000000
  54 5.679899 4.664785 3.979276 0.120389 -0.992203 -0.032257 0.246964 1.000000
  53 8.733073 5.084786 3.109414 0.032558 -0.932366 -0.360047 0.190283 0.000000
$0b_y20s1gunteltfx.bmp
  54 5.679899 4.664785 3.979276 0.120389 -0.992203 -0.032257 0.246964 1.000000
  54 5.628135 4.704785 3.786090 0.032558 -0.932366 -0.360047 0.190283 1.000000
  53 8.733073 5.084786 3.109414 0.032558 -0.932366 -0.360047 0.190283 0.000000
$0b_y20s1gunteltfx.bmp
  53 8.733073 5.084786 3.109414 0.032558 -0.932366 -0.360047 0.190283 0.000000
  54 5.628135 4.704785 3.786090 0.032558 -0.932366 -0.360047 0.190283 1.000000
  53 8.712367 5.104786 3.032140 -0.044679 -0.760072 -0.648301 0.133603 0.000000
$0b_y20s1gunteltfx.bmp
  54 5.628135 4.704785 3.786090 0.032558 -0.932366 -0.360047 0.190283 1.000000
  54 5.584136 4.804785 3.621883 -0.044679 -0.760072 -0.648302 0.133603 1.000000
  53 8.712367 5.104786 3.032140 -0.044679 -0.760072 -0.648301 0.133603 0.000000
$0b_y20s1gunteltfx.bmp
  53 8.712367 5.104786 3.032140 -0.044679 -0.760072 -0.648301 0.133603 0.000000
  54 5.584136 4.804785 3.621883 -0.044679 -0.760072 -0.648302 0.133603 1.000000
  53 8.702014 5.164786 2.993503 -0.102008 -0.496100 -0.862252 0.076923 0.000000
$0b_y20s1gunteltfx.bmp
  54 5.584136 4.804785 3.621883 -0.044679 -0.760072 -0.648302 0.133603 1.000000
  54 5.547901 4.974785 3.486653 -0.102008 -0.496100 -0.862252 0.076923 1.000000
  53 8.702014 5.164786 2.993503 -0.102008 -0.496100 -0.862252 0.076923 0.000000
$0b_y20s1gunteltfx.bmp
  53 8.702014 5.164786 2.993503 -0.102008 -0.496100 -0.862252 0.076923 0.000000
  54 5.547901 4.974785 3.486653 -0.102008 -0.496100 -0.862252 0.076923 1.000000
  53 8.694250 5.244786 2.964525 -0.132511 -0.172295 -0.976092 0.020243 0.000000
$0b_y20s1gunteltfx.bmp
  54 5.547901 4.974785 3.486653 -0.102008 -0.496100 -0.862252 0.076923 1.000000
  54 5.527196 5.184784 3.409379 -0.132511 -0.172295 -0.976092 0.020243 1.000000
  53 8.694250 5.244786 2.964525 -0.132511 -0.172295 -0.976092 0.020243 0.000000
$0b_y20s1gunteltfx.bmp
  53 8.694250 5.244786 2.964525 -0.132511 -0.172295 -0.976092 0.020243 0.000000
  54 5.527196 5.184784 3.409379 -0.132511 -0.172295 -0.976092 0.020243 1.000000
  53 8.694250 5.284786 2.964525 -0.132511 0.172293 -0.976092 0.000000 0.000000
$0b_y20s1gunteltfx.bmp
  54 5.527196 5.184784 3.409379 -0.132511 -0.172295 -0.976092 0.020243 1.000000
  54 5.527196 5.364784 3.409379 -0.132511 0.172291 -0.976093 0.000000 1.000000
  53 8.694250 5.284786 2.964525 -0.132511 0.172293 -0.976092 0.000000 0.000000
$0b_y20s1gunteltfx.bmp
  52 5.524605 4.692852 3.399718 -0.132512 0.172292 -0.976092 0.991903 1.000000
  52 5.545311 4.902852 3.476992 -0.102008 0.496101 -0.862252 0.935223 1.000000
  51 8.699424 4.702853 2.983843 -0.102008 0.496100 -0.862252 0.935223 0.000000
$0b_y20s1gunteltfx.bmp
  51 8.699424 4.702853 2.983843 -0.102008 0.496100 -0.862252 0.935223 0.000000
  52 5.545311 4.902852 3.476992 -0.102008 0.496101 -0.862252 0.935223 1.000000
  51 8.709777 4.762853 3.022480 -0.044682 0.760069 -0.648304 0.878543 0.000000
$0b_y20s1gunteltfx.bmp
  52 5.545311 4.902852 3.476992 -0.102008 0.496101 -0.862252 0.935223 1.000000
  52 5.581545 5.062853 3.612222 -0.044681 0.760070 -0.648303 0.878543 1.000000
  51 8.709777 4.762853 3.022480 -0.044682 0.760069 -0.648304 0.878543 0.000000
$0b_y20s1gunteltfx.bmp
  51 8.709777 4.762853 3.022480 -0.044682 0.760069 -0.648304 0.878543 0.000000
  52 5.581545 5.062853 3.612222 -0.044681 0.760070 -0.648303 0.878543 1.000000
  51 8.730483 4.792853 3.099754 0.032557 0.932366 -0.360047 0.821862 0.000000
$0b_y20s1gunteltfx.bmp
  52 5.581545 5.062853 3.612222 -0.044681 0.760070 -0.648303 0.878543 1.000000
  52 5.628133 5.172853 3.786088 0.032556 0.932365 -0.360050 0.821862 1.000000
  51 8.730483 4.792853 3.099754 0.032557 0.932366 -0.360047 0.821862 0.000000
$0b_y20s1gunteltfx.bmp
  51 8.730483 4.792853 3.099754 0.032557 0.932366 -0.360047 0.821862 0.000000
  52 5.628133 5.172853 3.786088 0.032556 0.932365 -0.360050 0.821862 1.000000
  51 8.746012 4.812853 3.157710 0.120388 0.992203 -0.032259 0.765182 0.000000
$0b_y20s1gunteltfx.bmp
  52 5.628133 5.172853 3.786088 0.032556 0.932365 -0.360050 0.821862 1.000000
  52 5.679897 5.212853 3.979273 0.120388 0.992203 -0.032258 0.765182 1.000000
  51 8.746012 4.812853 3.157710 0.120388 0.992203 -0.032259 0.765182 0.000000
$0b_y20s1gunteltfx.bmp
  51 8.746012 4.812853 3.157710 0.120388 0.992203 -0.032259 0.765182 0.000000
  52 5.679897 5.212853 3.979273 0.120388 0.992203 -0.032258 0.765182 1.000000
  51 8.758953 4.792853 3.206006 0.208219 0.932366 0.295530 0.708502 0.000000
$0b_y20s1gunteltfx.bmp
  52 5.679897 5.212853 3.979273 0.120388 0.992203 -0.032258 0.765182 1.000000
  52 5.731660 5.172853 4.172458 0.208219 0.932365 0.295533 0.708502 1.000000
  51 8.758953 4.792853 3.206006 0.208219 0.932366 0.295530 0.708502 0.000000
$0b_y20s1gunteltfx.bmp
  51 8.758953 4.792853 3.206006 0.208219 0.932366 0.295530 0.708502 0.000000
  52 5.731660 5.172853 4.172458 0.208219 0.932365 0.295533 0.708502 1.000000
  51 8.777070 4.762853 3.273621 0.285457 0.760071 0.583786 0.651822 0.000000
$0b_y20s1gunteltfx.bmp
  52 5.731660 5.172853 4.172458 0.208219 0.932365 0.295533 0.708502 1.000000
  52 5.778248 5.052853 4.346325 0.285457 0.760071 0.583786 0.651822 1.000000
  51 8.777070 4.762853 3.273621 0.285457 0.760071 0.583786 0.651822 0.000000
$0b_y20s1gunteltfx.bmp
  51 8.777070 4.762853 3.273621 0.285457 0.760071 0.583786 0.651822 0.000000
  52 5.778248 5.052853 4.346325 0.285457 0.760071 0.583786 0.651822 1.000000
  51 8.790011 4.702853 3.321917 0.342785 0.496101 0.797736 0.595142 0.000000
$0b_y20s1gunteltfx.bmp
  52 5.778248 5.052853 4.346325 0.285457 0.760071 0.583786 0.651822 1.000000
  52 5.814483 4.892853 4.481555 0.342785 0.496101 0.797736 0.595142 1.000000
  51 8.790011 4.702853 3.321917 0.342785 0.496101 0.797736 0.595142 0.000000
$0b_y20s1gunteltfx.bmp
  51 8.790011 4.702853 3.321917 0.342785 0.496101 0.797736 0.595142 0.000000
  52 5.814483 4.892853 4.481555 0.342785 0.496101 0.797736 0.595142 1.000000
  51 8.795187 4.622853 3.341236 0.373288 0.172295 0.911576 0.534413 0.000000
$0b_y20s1gunteltfx.bmp
  52 5.814483 4.892853 4.481555 0.342785 0.496101 0.797736 0.595142 1.000000
  52 5.835188 4.682853 4.558829 0.373288 0.172295 0.911576 0.534413 1.000000
  51 8.795187 4.622853 3.341236 0.373288 0.172295 0.911576 0.534413 0.000000
$0b_y20s1gunteltfx.bmp
  51 8.795187 4.622853 3.341236 0.373288 0.172295 0.911576 0.534413 0.000000
  52 5.835188 4.682853 4.558829 0.373288 0.172295 0.911576 0.534413 1.000000
  51 8.795187 4.582853 3.341236 0.373288 -0.172294 0.911576 0.477733 0.000000
$0b_y20s1gunteltfx.bmp
  52 5.835188 4.682853 4.558829 0.373288 0.172295 0.911576 0.534413 1.000000
  52 5.835188 4.512853 4.558829 0.373289 -0.172293 0.911576 0.477733 1.000000
  51 8.795187 4.582853 3.341236 0.373288 -0.172294 0.911576 0.477733 0.000000
$0b_y20s1gunteltfx.bmp
  51 8.795187 4.582853 3.341236 0.373288 -0.172294 0.911576 0.477733 0.000000
  52 5.835188 4.512853 4.558829 0.373289 -0.172293 0.911576 0.477733 1.000000
  51 8.790011 4.502853 3.321917 0.342785 -0.496103 0.797735 0.417004 0.000000
$0b_y20s1gunteltfx.bmp
  52 5.835188 4.512853 4.558829 0.373289 -0.172293 0.911576 0.477733 1.000000
  52 5.811894 4.302853 4.471896 0.342785 -0.496101 0.797735 0.417004 1.000000
  51 8.790011 4.502853 3.321917 0.342785 -0.496103 0.797735 0.417004 0.000000
$0b_y20s1gunteltfx.bmp
  51 8.790011 4.502853 3.321917 0.342785 -0.496103 0.797735 0.417004 0.000000
  52 5.811894 4.302853 4.471896 0.342785 -0.496101 0.797735 0.417004 1.000000
  51 8.777070 4.442853 3.273621 0.285458 -0.760071 0.583785 0.360324 0.000000
$0b_y20s1gunteltfx.bmp
  52 5.811894 4.302853 4.471896 0.342785 -0.496101 0.797735 0.417004 1.000000
  52 5.780836 4.142853 4.355985 0.285458 -0.760071 0.583785 0.360324 1.000000
  51 8.777070 4.442853 3.273621 0.285458 -0.760071 0.583785 0.360324 0.000000
$0b_y20s1gunteltfx.bmp
  51 8.777070 4.442853 3.273621 0.285458 -0.760071 0.583785 0.360324 0.000000
  52 5.780836 4.142853 4.355985 0.285458 -0.760071 0.583785 0.360324 1.000000
  51 8.758953 4.412853 3.206006 0.208222 -0.932364 0.295536 0.303644 0.000000
$0b_y20s1gunteltfx.bmp
  52 5.780836 4.142853 4.355985 0.285458 -0.760071 0.583785 0.360324 1.000000
  52 5.729072 4.022853 4.162800 0.208221 -0.932365 0.295534 0.303644 1.000000
  51 8.758953 4.412853 3.206006 0.208222 -0.932364 0.295536 0.303644 0.000000
$0b_y20s1gunteltfx.bmp
  51 8.758953 4.412853 3.206006 0.208222 -0.932364 0.295536 0.303644 0.000000
  52 5.729072 4.022853 4.162800 0.208221 -0.932365 0.295534 0.303644 1.000000
  51 8.746012 4.392853 3.157710 0.120389 -0.992203 -0.032258 0.246964 0.000000
$0b_y20s1gunteltfx.bmp
  52 5.729072 4.022853 4.162800 0.208221 -0.932365 0.295534 0.303644 1.000000
  52 5.679897 3.992853 3.979274 0.120389 -0.992203 -0.032257 0.246964 1.000000
  51 8.746012 4.392853 3.157710 0.120389 -0.992203 -0.032258 0.246964 0.000000
$0b_y20s1gunteltfx.bmp
  51 8.746012 4.392853 3.157710 0.120389 -0.992203 -0.032258 0.246964 0.000000
  52 5.679897 3.992853 3.979274 0.120389 -0.992203 -0.032257 0.246964 1.000000
  51 8.727894 4.412853 3.090095 0.032558 -0.932366 -0.360047 0.190283 0.000000
$0b_y20s1gunteltfx.bmp
  52 5.679897 3.992853 3.979274 0.120389 -0.992203 -0.032257 0.246964 1.000000
  52 5.630721 4.032853 3.795748 0.032558 -0.932366 -0.360047 0.190283 1.000000
  51 8.727894 4.412853 3.090095 0.032558 -0.932366 -0.360047 0.190283 0.000000
$0b_y20s1gunteltfx.bmp
  51 8.727894 4.412853 3.090095 0.032558 -0.932366 -0.360047 0.190283 0.000000
  52 5.630721 4.032853 3.795748 0.032558 -0.932366 -0.360047 0.190283 1.000000
  51 8.709777 4.442853 3.022480 -0.044680 -0.760073 -0.648300 0.133603 0.000000
$0b_y20s1gunteltfx.bmp
  52 5.630721 4.032853 3.795748 0.032558 -0.932366 -0.360047 0.190283 1.000000
  52 5.581545 4.142853 3.612222 -0.044680 -0.760072 -0.648301 0.133603 1.000000
  51 8.709777 4.442853 3.022480 -0.044680 -0.760073 -0.648300 0.133603 0.000000
$0b_y20s1gunteltfx.bmp
  51 8.709777 4.442853 3.022480 -0.044680 -0.760073 -0.648300 0.133603 0.000000
  52 5.581545 4.142853 3.612222 -0.044680 -0.760072 -0.648301 0.133603 1.000000
  51 8.699424 4.502853 2.983843 -0.102009 -0.496100 -0.862252 0.076923 0.000000
$0b_y20s1gunteltfx.bmp
  52 5.581545 4.142853 3.612222 -0.044680 -0.760072 -0.648301 0.133603 1.000000
  52 5.545311 4.302852 3.476992 -0.102009 -0.496100 -0.862252 0.076923 1.000000
  51 8.699424 4.502853 2.983843 -0.102009 -0.496100 -0.862252 0.076923 0.000000
$0b_y20s1gunteltfx.bmp
  51 8.699424 4.502853 2.983843 -0.102009 -0.496100 -0.862252 0.076923 0.000000
  52 5.545311 4.302852 3.476992 -0.102009 -0.496100 -0.862252 0.076923 1.000000
  51 8.696836 4.582853 2.974184 -0.132512 -0.172295 -0.976092 0.020243 0.000000
$0b_y20s1gunteltfx.bmp
  52 5.545311 4.302852 3.476992 -0.102009 -0.496100 -0.862252 0.076923 1.000000
  52 5.522017 4.512852 3.390059 -0.132512 -0.172296 -0.976092 0.020243 1.000000
  51 8.696836 4.582853 2.974184 -0.132512 -0.172295 -0.976092 0.020243 0.000000
$0b_y20s1gunteltfx.bmp
  51 8.696836 4.582853 2.974184 -0.132512 -0.172295 -0.976092 0.020243 0.000000
  52 5.522017 4.512852 3.390059 -0.132512 -0.172296 -0.976092 0.020243 1.000000
  51 8.696836 4.622853 2.974184 -0.132511 0.172293 -0.976092 0.000000 0.000000
$0b_y20s1gunteltfx.bmp
  52 5.522017 4.512852 3.390059 -0.132512 -0.172296 -0.976092 0.020243 1.000000
  52 5.524605 4.692852 3.399718 -0.132512 0.172292 -0.976092 0.000000 1.000000
  51 8.696836 4.622853 2.974184 -0.132511 0.172293 -0.976092 0.000000 0.000000
$0b_y20s1gunteltfx.bmp
  62 -5.943484 4.684877 4.809433 -0.451316 0.172296 0.875573 0.991903 1.000000
  62 -5.919542 4.894877 4.743655 -0.411007 0.496102 0.764824 0.935223 1.000000
  61 -8.782680 4.694880 3.329098 -0.411007 0.496101 0.764825 0.935223 0.000000
$0b_y20s1gunteltfx.bmp
  61 -8.782680 4.694880 3.329098 -0.411007 0.496101 0.764825 0.935223 0.000000
  62 -5.919542 4.894877 4.743655 -0.411007 0.496102 0.764824 0.935223 1.000000
  61 -8.768999 4.754880 3.291510 -0.335250 0.760072 0.556685 0.878543 0.000000
$0b_y20s1gunteltfx.bmp
  62 -5.919542 4.894877 4.743655 -0.411007 0.496102 0.764824 0.935223 1.000000
  62 -5.871659 5.054877 4.612097 -0.335250 0.760072 0.556685 0.878543 1.000000
  61 -8.768999 4.754880 3.291510 -0.335250 0.760072 0.556685 0.878543 0.000000
$0b_y20s1gunteltfx.bmp
  61 -8.768999 4.754880 3.291510 -0.335250 0.760072 0.556685 0.878543 0.000000
  62 -5.871659 5.054877 4.612097 -0.335250 0.760072 0.556685 0.878543 1.000000
  61 -8.738217 4.784880 3.206937 -0.233184 0.932366 0.276259 0.821862 0.000000
$0b_y20s1gunteltfx.bmp
  62 -5.871659 5.054877 4.612097 -0.335250 0.760072 0.556685 0.878543 1.000000
  62 -5.810096 5.164877 4.442953 -0.233184 0.932366 0.276259 0.821862 1.000000
  61 -8.738217 4.784880 3.206937 -0.233184 0.932366 0.276259 0.821862 0.000000
$0b_y20s1gunteltfx.bmp
  61 -8.738217 4.784880 3.206937 -0.233184 0.932366 0.276259 0.821862 0.000000
  62 -5.810096 5.164877 4.442953 -0.233184 0.932366 0.276259 0.821862 1.000000
  61 -8.721116 4.804880 3.159953 -0.117118 0.992203 -0.042629 0.765182 0.000000
$0b_y20s1gunteltfx.bmp
  62 -5.810096 5.164877 4.442953 -0.233184 0.932366 0.276259 0.821862 1.000000
  62 -5.738271 5.204876 4.245617 -0.117118 0.992203 -0.042630 0.765182 1.000000
  61 -8.721116 4.804880 3.159953 -0.117118 0.992203 -0.042629 0.765182 0.000000
$0b_y20s1gunteltfx.bmp
  61 -8.721116 4.804880 3.159953 -0.117118 0.992203 -0.042629 0.765182 0.000000
  62 -5.738271 5.204876 4.245617 -0.117118 0.992203 -0.042630 0.765182 1.000000
  61 -8.697175 4.784880 3.094174 -0.001051 0.932364 -0.361520 0.708502 0.000000
$0b_y20s1gunteltfx.bmp
  62 -5.738271 5.204876 4.245617 -0.117118 0.992203 -0.042630 0.765182 1.000000
  62 -5.673288 5.164876 4.067076 -0.001053 0.932365 -0.361517 0.708502 1.000000
  61 -8.697175 4.784880 3.094174 -0.001051 0.932364 -0.361520 0.708502 0.000000
$0b_y20s1gunteltfx.bmp
  61 -8.697175 4.784880 3.094174 -0.001051 0.932364 -0.361520 0.708502 0.000000
  62 -5.673288 5.164876 4.067076 -0.001053 0.932365 -0.361517 0.708502 1.000000
  61 -8.680074 4.764880 3.047190 0.101014 0.760070 -0.641943 0.651822 0.000000
$0b_y20s1gunteltfx.bmp
  62 -5.673288 5.164876 4.067076 -0.001053 0.932365 -0.361517 0.708502 1.000000
  62 -5.611724 5.054876 3.897931 0.101014 0.760070 -0.641943 0.651822 1.000000
  61 -8.680074 4.764880 3.047190 0.101014 0.760070 -0.641943 0.651822 0.000000
$0b_y20s1gunteltfx.bmp
  61 -8.680074 4.764880 3.047190 0.101014 0.760070 -0.641943 0.651822 0.000000
  62 -5.611724 5.054876 3.897931 0.101014 0.760070 -0.641943 0.651822 1.000000
  61 -8.656133 4.704880 2.981411 0.176770 0.496100 -0.850081 0.595142 0.000000
$0b_y20s1gunteltfx.bmp
  62 -5.611724 5.054876 3.897931 0.101014 0.760070 -0.641943 0.651822 1.000000
  62 -5.560422 4.894876 3.756977 0.176770 0.496099 -0.850081 0.595142 1.000000
  61 -8.656133 4.704880 2.981411 0.176770 0.496100 -0.850081 0.595142 0.000000
$0b_y20s1gunteltfx.bmp
  61 -8.656133 4.704880 2.981411 0.176770 0.496100 -0.850081 0.595142 0.000000
  62 -5.560422 4.894876 3.756977 0.176770 0.496099 -0.850081 0.595142 1.000000
  61 -8.649292 4.634880 2.962617 0.217079 0.172291 -0.960829 0.534413 0.000000
$0b_y20s1gunteltfx.bmp
  62 -5.560422 4.894876 3.756977 0.176770 0.496099 -0.850081 0.595142 1.000000
  62 -5.536480 4.684876 3.691199 0.217079 0.172293 -0.960829 0.534413 1.000000
  61 -8.649292 4.634880 2.962617 0.217079 0.172291 -0.960829 0.534413 0.000000
$0b_y20s1gunteltfx.bmp
  61 -8.649292 4.634880 2.962617 0.217079 0.172291 -0.960829 0.534413 0.000000
  62 -5.536480 4.684876 3.691199 0.217079 0.172293 -0.960829 0.534413 1.000000
  61 -8.649293 4.584880 2.962618 0.217078 -0.172296 -0.960828 0.477733 0.000000
$0b_y20s1gunteltfx.bmp
  62 -5.536480 4.684876 3.691199 0.217079 0.172293 -0.960829 0.534413 1.000000
  62 -5.533060 4.504876 3.681802 0.217078 -0.172296 -0.960828 0.477733 1.000000
  61 -8.649293 4.584880 2.962618 0.217078 -0.172296 -0.960828 0.477733 0.000000
$0b_y20s1gunteltfx.bmp
  61 -8.649293 4.584880 2.962618 0.217078 -0.172296 -0.960828 0.477733 0.000000
  62 -5.533060 4.504876 3.681802 0.217078 -0.172296 -0.960828 0.477733 1.000000
  61 -8.656133 4.504880 2.981411 0.176769 -0.496101 -0.850080 0.417004 0.000000
$0b_y20s1gunteltfx.bmp
  62 -5.533060 4.504876 3.681802 0.217078 -0.172296 -0.960828 0.477733 1.000000
  62 -5.563842 4.294876 3.766375 0.176770 -0.496102 -0.850079 0.417004 1.000000
  61 -8.656133 4.504880 2.981411 0.176769 -0.496101 -0.850080 0.417004 0.000000
$0b_y20s1gunteltfx.bmp
  61 -8.656133 4.504880 2.981411 0.176769 -0.496101 -0.850080 0.417004 0.000000
  62 -5.563842 4.294876 3.766375 0.176770 -0.496102 -0.850079 0.417004 1.000000
  61 -8.676654 4.434880 3.037793 0.101011 -0.760074 -0.641938 0.360324 0.000000
$0b_y20s1gunteltfx.bmp
  62 -5.563842 4.294876 3.766375 0.176770 -0.496102 -0.850079 0.417004 1.000000
  62 -5.611725 4.134876 3.897932 0.101012 -0.760072 -0.641940 0.360324 1.000000
  61 -8.676654 4.434880 3.037793 0.101011 -0.760074 -0.641938 0.360324 0.000000
$0b_y20s1gunteltfx.bmp
  61 -8.676654 4.434880 3.037793 0.101011 -0.760074 -0.641938 0.360324 0.000000
  62 -5.611725 4.134876 3.897932 0.101012 -0.760072 -0.641940 0.360324 1.000000
  61 -8.700596 4.404880 3.103572 -0.001054 -0.932366 -0.361513 0.303644 0.000000
$0b_y20s1gunteltfx.bmp
  62 -5.611725 4.134876 3.897932 0.101012 -0.760072 -0.641940 0.360324 1.000000
  62 -5.673289 4.024876 4.067077 -0.001054 -0.932366 -0.361513 0.303644 1.000000
  61 -8.700596 4.404880 3.103572 -0.001054 -0.932366 -0.361513 0.303644 0.000000
$0b_y20s1gunteltfx.bmp
  61 -8.700596 4.404880 3.103572 -0.001054 -0.932366 -0.361513 0.303644 0.000000
  62 -5.673289 4.024876 4.067077 -0.001054 -0.932366 -0.361513 0.303644 1.000000
  61 -8.721117 4.384880 3.159953 -0.117119 -0.992203 -0.042627 0.246964 0.000000
$0b_y20s1gunteltfx.bmp
  62 -5.673289 4.024876 4.067077 -0.001054 -0.932366 -0.361513 0.303644 1.000000
  62 -5.738273 3.984876 4.245618 -0.117120 -0.992203 -0.042626 0.246964 1.000000
  61 -8.721117 4.384880 3.159953 -0.117119 -0.992203 -0.042627 0.246964 0.000000
$0b_y20s1gunteltfx.bmp
  61 -8.721117 4.384880 3.159953 -0.117119 -0.992203 -0.042627 0.246964 0.000000
  62 -5.738273 3.984876 4.245618 -0.117120 -0.992203 -0.042626 0.246964 1.000000
  61 -8.745058 4.404880 3.225732 -0.233186 -0.932364 0.276264 0.190283 0.000000
$0b_y20s1gunteltfx.bmp
  62 -5.738273 3.984876 4.245618 -0.117120 -0.992203 -0.042626 0.246964 1.000000
  62 -5.810097 4.024877 4.442954 -0.233185 -0.932365 0.276261 0.190283 1.000000
  61 -8.745058 4.404880 3.225732 -0.233186 -0.932364 0.276264 0.190283 0.000000
$0b_y20s1gunteltfx.bmp
  61 -8.745058 4.404880 3.225732 -0.233186 -0.932364 0.276264 0.190283 0.000000
  62 -5.810097 4.024877 4.442954 -0.233185 -0.932365 0.276261 0.190283 1.000000
  61 -8.769000 4.434880 3.291510 -0.335251 -0.760071 0.556685 0.133603 0.000000
$0b_y20s1gunteltfx.bmp
  62 -5.810097 4.024877 4.442954 -0.233185 -0.932365 0.276261 0.190283 1.000000
  62 -5.868240 4.134877 4.602701 -0.335251 -0.760071 0.556686 0.133603 1.000000
  61 -8.769000 4.434880 3.291510 -0.335251 -0.760071 0.556685 0.133603 0.000000
$0b_y20s1gunteltfx.bmp
  61 -8.769000 4.434880 3.291510 -0.335251 -0.760071 0.556685 0.133603 0.000000
  62 -5.868240 4.134877 4.602701 -0.335251 -0.760071 0.556686 0.133603 1.000000
  61 -8.786101 4.494880 3.338495 -0.411008 -0.496101 0.764824 0.076923 0.000000
$0b_y20s1gunteltfx.bmp
  62 -5.868240 4.134877 4.602701 -0.335251 -0.760071 0.556686 0.133603 1.000000
  62 -5.919543 4.294877 4.743655 -0.411008 -0.496099 0.764826 0.076923 1.000000
  61 -8.786101 4.494880 3.338495 -0.411008 -0.496101 0.764824 0.076923 0.000000
$0b_y20s1gunteltfx.bmp
  61 -8.786101 4.494880 3.338495 -0.411008 -0.496101 0.764824 0.076923 0.000000
  62 -5.919543 4.294877 4.743655 -0.411008 -0.496099 0.764826 0.076923 1.000000
  61 -8.786100 4.574880 3.338495 -0.451316 -0.172293 0.875573 0.020243 0.000000
$0b_y20s1gunteltfx.bmp
  62 -5.919543 4.294877 4.743655 -0.411008 -0.496099 0.764826 0.076923 1.000000
  62 -5.943484 4.504877 4.809433 -0.451316 -0.172293 0.875573 0.020243 1.000000
  61 -8.786100 4.574880 3.338495 -0.451316 -0.172293 0.875573 0.020243 0.000000
$0b_y20s1gunteltfx.bmp
  61 -8.786100 4.574880 3.338495 -0.451316 -0.172293 0.875573 0.020243 0.000000
  62 -5.943484 4.504877 4.809433 -0.451316 -0.172293 0.875573 0.020243 1.000000
  61 -8.786100 4.614880 3.338495 -0.451317 0.172297 0.875572 0.000000 0.000000
$0b_y20s1gunteltfx.bmp
  62 -5.943484 4.504877 4.809433 -0.451316 -0.172293 0.875573 0.020243 1.000000
  62 -5.943484 4.684877 4.809433 -0.451316 0.172296 0.875573 0.000000 1.000000
  61 -8.786100 4.614880 3.338495 -0.451317 0.172297 0.875572 0.000000 0.000000
$0b_y20s1gunteltfx.bmp
  59 -8.782680 5.386064 3.329099 -0.411008 0.496099 0.764826 0.935223 0.000000
  59 -8.792941 5.306064 3.357289 -0.451317 0.172297 0.875572 0.991903 0.000000
  60 -5.946904 5.356062 4.818832 -0.451317 0.172296 0.875573 0.991903 1.000000
$0b_y20s1gunteltfx.bmp
  53 8.702014 5.364786 2.993503 -0.102008 0.496100 -0.862253 0.935223 0.000000
  53 8.694250 5.284786 2.964525 -0.132511 0.172293 -0.976092 0.991903 0.000000
  54 5.527196 5.364784 3.409379 -0.132511 0.172291 -0.976093 0.991903 1.000000
$0b_y20s1gunteltfx.bmp
  51 8.699424 4.702853 2.983843 -0.102008 0.496100 -0.862252 0.935223 0.000000
  51 8.696836 4.622853 2.974184 -0.132511 0.172293 -0.976092 0.991903 0.000000
  52 5.524605 4.692852 3.399718 -0.132512 0.172292 -0.976092 0.991903 1.000000
$0b_y20s1gunteltfx.bmp
  61 -8.782680 4.694880 3.329098 -0.411007 0.496101 0.764825 0.935223 0.000000
  61 -8.786100 4.614880 3.338495 -0.451317 0.172297 0.875572 0.991903 0.000000
  62 -5.943484 4.684877 4.809433 -0.451316 0.172296 0.875573 0.991903 1.000000
$0b_y20s1gunteltfx2.bmp
  63 -11.260175 2.171137 4.679032 0.658452 0.716125 0.231531 0.000000 1.000000
  63 -11.227830 1.384469 7.020208 0.658452 0.716125 0.231531 0.000000 0.000000
  63 -9.393778 0.627665 4.145126 0.658452 0.716125 0.231531 0.992157 1.000000
$0b_y20s1gunteltfx2.bmp
  63 -9.393778 0.627665 4.145126 0.658452 0.716125 0.231531 0.992157 1.000000
  63 -11.227830 1.384469 7.020208 0.658452 0.716125 0.231531 0.000000 0.000000
  63 -9.354070 -0.161991 6.474604 0.658452 0.716125 0.231531 0.992157 0.000000
$0b_y20s1gunteltfx2.bmp
  55 9.337022 0.532806 4.273024 -0.667913 0.710128 0.222736 0.000000 1.000000
  55 9.505219 -0.059290 6.665101 -0.667913 0.710128 0.222736 0.000000 0.000000
  55 11.167583 2.167967 4.549050 -0.667913 0.710128 0.222736 0.992157 1.000000
$0b_y20s1gunteltfx2.bmp
  55 11.167583 2.167967 4.549050 -0.667913 0.710128 0.222736 0.992157 1.000000
  55 9.505219 -0.059290 6.665101 -0.667913 0.710128 0.222736 0.000000 0.000000
  55 11.335781 1.575872 6.941127 -0.667913 0.710128 0.222736 0.992157 0.000000
$0b_y20s1gunteltfx2.bmp
  48 8.299952 0.872697 1.280501 -1.000000 -0.000002 0.000000 0.000000 1.000000
  48 8.299951 0.872700 3.250501 -1.000000 -0.000002 0.000000 0.000000 0.000000
  48 8.299954 2.842697 1.290498 -1.000000 -0.000002 0.000000 0.992157 1.000000
$0b_y20s1gunteltfx2.bmp
  48 8.299954 2.842697 1.290498 -1.000000 -0.000002 0.000000 0.992157 1.000000
  48 8.299951 0.872700 3.250501 -1.000000 -0.000002 0.000000 0.000000 0.000000
  48 8.299952 2.832700 3.260498 -1.000000 -0.000002 0.000000 0.992157 0.000000
$0b_y20s1gunteltfx2.bmp
  56 -8.319458 2.752253 1.400186 1.000000 0.000001 0.000001 0.000000 1.000000
  56 -8.319460 2.732249 3.170186 1.000000 0.000001 0.000001 0.000000 0.000000
  56 -8.319458 0.982253 1.380182 1.000000 0.000001 0.000001 0.992157 1.000000
$0b_y20s1gunteltfx2.bmp
  56 -8.319458 0.982253 1.380182 1.000000 0.000001 0.000001 0.992157 1.000000
  56 -8.319460 2.732249 3.170186 1.000000 0.000001 0.000001 0.000000 0.000000
  56 -8.319460 0.962249 3.150182 1.000000 0.000001 0.000001 0.992157 0.000000
$0b_y20s1gunteltfx3.bmp
  50 8.278271 0.140204 1.290501 -1.000000 -0.000001 0.000002 0.000000 1.000000
  50 8.278272 0.150207 3.250502 -1.000000 -0.000001 0.000002 0.000000 0.000000
  50 8.278272 2.120204 1.280498 -1.000000 -0.000001 0.000002 0.992157 1.000000
$0b_y20s1gunteltfx3.bmp
  50 8.278272 2.120204 1.280498 -1.000000 -0.000001 0.000002 0.992157 1.000000
  50 8.278272 0.150207 3.250502 -1.000000 -0.000001 0.000002 0.000000 0.000000
  50 8.278273 2.120207 3.250498 -1.000000 -0.000001 0.000002 0.992157 0.000000
$0b_y20s1gunteltfx3.bmp
  49 8.273203 1.849809 1.530502 -1.000000 -0.000002 0.000000 0.000000 1.000000
  49 8.273202 1.849812 3.010502 -1.000000 -0.000002 0.000000 0.000000 0.000000
  49 8.273204 3.309809 1.540500 -1.000000 -0.000002 0.000000 0.992157 1.000000
$0b_y20s1gunteltfx3.bmp
  49 8.273204 3.309809 1.540500 -1.000000 -0.000002 0.000000 0.992157 1.000000
  49 8.273202 1.849812 3.010502 -1.000000 -0.000002 0.000000 0.000000 0.000000
  49 8.273203 3.319812 3.010500 -1.000000 -0.000002 0.000000 0.992157 0.000000
$0b_y20s1gunteltfx3.bmp
  58 -8.313553 2.109757 1.300182 1.000000 0.000001 0.000000 0.000000 1.000000
  58 -8.313553 2.119757 3.270182 1.000000 0.000001 0.000000 0.000000 0.000000
  58 -8.313553 0.139757 1.300182 1.000000 0.000001 0.000000 0.992157 1.000000
$0b_y20s1gunteltfx3.bmp
  58 -8.313553 0.139757 1.300182 1.000000 0.000001 0.000000 0.992157 1.000000
  58 -8.313553 2.119757 3.270182 1.000000 0.000001 0.000000 0.000000 0.000000
  58 -8.313553 0.149757 3.270182 1.000000 0.000001 0.000000 0.992157 0.000000
$0b_y20s1gunteltfx3.bmp
  57 -8.334725 3.309361 1.530184 1.000000 0.000001 0.000001 0.000000 1.000000
  57 -8.334727 3.309358 3.000184 1.000000 0.000001 0.000001 0.000000 0.000000
  57 -8.334725 1.859361 1.530181 1.000000 0.000001 0.000001 0.992157 1.000000
$0b_y20s1gunteltfx3.bmp
  57 -8.334725 1.859361 1.530181 1.000000 0.000001 0.000001 0.992157 1.000000
  57 -8.334727 3.309358 3.000184 1.000000 0.000001 0.000001 0.000000 0.000000
  57 -8.334727 1.859358 3.000182 1.000000 0.000001 0.000001 0.992157 0.000000
$0b_y20s1gunteltfx4.bmp
  23 7.863035 3.559037 5.719387 0.000001 0.000000 -1.000000 0.000000 1.000000
  23 12.823035 3.549041 5.719383 0.000001 0.000000 -1.000000 0.000000 0.000000
  23 7.843039 -1.410966 5.727673 0.000001 0.000000 -1.000000 0.992157 1.000000
$0b_y20s1gunteltfx4.bmp
  23 7.843039 -1.410966 5.727673 0.000001 0.000000 -1.000000 0.992157 1.000000
  23 12.823035 3.549041 5.719383 0.000001 0.000000 -1.000000 0.000000 0.000000
  23 12.833039 -1.420962 5.727670 0.000001 0.000000 -1.000000 0.992157 0.000000
$0b_y20s1gunteltfx4.bmp
  45 -12.822948 3.558586 5.749070 -0.000001 0.000001 -1.000000 0.000000 1.000000
  45 -7.832948 3.558580 5.749070 -0.000001 0.000001 -1.000000 0.000000 0.000000
  45 -12.822955 -1.411406 5.727354 -0.000001 0.000001 -1.000000 0.992157 1.000000
$0b_y20s1gunteltfx4.bmp
  45 -12.822955 -1.411406 5.727354 -0.000001 0.000001 -1.000000 0.992157 1.000000
  45 -7.832948 3.558580 5.749070 -0.000001 0.000001 -1.000000 0.000000 0.000000
  45 -7.852955 -1.411413 5.727354 -0.000001 0.000001 -1.000000 0.992157 0.000000
end
