version 1
nodes
  0 "Bip01" -1
  1 "Bip01 Pelvis" 0
  2 "Bip01 Spine" 1
  3 "Bip01 Spine1" 2
  4 "Bip01 Spine2" 3
  5 "Bip01 Spine3" 4
  6 "Bip01 Neck" 5
  7 "Bip01 R Clavicle" 6
  8 "Bip01 R UpperArm" 7
  9 "Bip01 R Forearm" 8
  10 "Bip01 R Hand" 9
  11 "Bone13" 10
  12 "Bones01" 11
  13 "Bone11" 11
  14 "Bone05" 11
  15 "Bone03" 11
  16 "Bone07" 11
  17 "Bone09" 11
  18 "Bone26" 11
  19 "Bone22" 18
  20 "Bone24" 18
  21 "Bone38" 18
  22 "Bone20" 21
  23 "Bone18" 21
  24 "Bone06" 11
  25 "Bone36" 24
  26 "Bone16" 24
  27 "Bone10" 24
  28 "Bone02" 27
  29 "Bone14" 27
  30 "Bone28" 11
  31 "Bone30" 30
  32 "Bone42" 30
  33 "Bone40" 30
  34 "Bone32" 33
  35 "Bone34" 33
end
skeleton
  time 0
    0 0.232772 -2.249535 38.192150 0.000000 0.000000 -1.570795
    1 -2.276925 0.000003 -1.238186 -1.570795 -1.570796 0.000000
    2 1.797146 0.711796 -0.000002 -0.000004 -0.000001 0.000739
    3 4.118603 -0.003280 0.000000 0.000000 0.000000 0.000035
    4 4.118599 -0.003280 0.000000 0.000000 0.000000 0.000049
    5 4.118603 -0.003280 0.000000 0.000000 0.000000 -0.000009
    6 4.118534 -0.003538 0.000000 0.000000 0.000000 -0.019437
    7 0.000004 0.003543 -1.732721 -0.000040 1.501696 -3.122992
    8 6.384777 0.000000 0.000000 -0.025648 0.046980 0.004099
    9 10.242683 0.000000 0.000004 0.000000 0.000000 -0.008014
    10 11.375561 0.000000 -0.000004 1.580468 0.132234 0.009455
    11 5.377136 0.227821 1.494020 0.036046 -0.351561 0.050162
    12 35.791470 0.000004 0.000001 0.000000 -2.094395 1.570796
    13 35.791470 0.000004 0.000001 3.141592 0.000000 -1.570796
    14 35.791470 0.000004 0.000001 0.000000 -1.047198 1.570797
    15 35.791470 0.000004 0.000001 0.000000 0.000000 1.570796
    16 35.791470 0.000004 0.000001 0.000000 1.047198 1.570797
    17 35.791470 0.000004 0.000001 -3.141592 1.047197 -1.570796
    18 16.402442 0.000004 -0.000006 -1.047198 0.000000 0.000000
    19 -0.372248 -0.001063 0.000000 2.094395 0.000000 0.000000
    20 -0.372234 0.001289 0.000000 2.094395 0.000000 0.000000
    21 0.020853 -0.020681 0.000004 0.000000 0.000000 0.000000
    22 0.002630 -0.001313 -0.000004 0.000000 0.000000 0.000000
    23 -0.002948 0.002275 -0.000004 0.000000 0.000000 0.000000
    24 16.402946 0.000008 -0.000002 0.000000 0.000000 0.000000
    25 -0.373726 0.003423 0.000001 1.047197 0.000000 0.000000
    26 -0.372662 -0.000772 -0.000001 1.047197 0.000000 0.000000
    27 -0.015207 0.049515 0.000000 0.000000 0.000000 0.000000
    28 0.036260 -0.057797 0.015623 -1.047198 0.000000 0.000000
    29 0.036117 -0.062159 0.015625 -1.047198 0.000000 0.000000
    30 16.028017 0.000011 0.000004 1.047197 0.000000 0.000000
    31 0.001244 -0.003286 0.000000 0.000000 0.000000 0.000000
    32 0.000739 0.002423 0.000000 0.000000 0.000000 0.000000
    33 0.060973 0.041096 -0.000004 0.000000 0.000000 0.000000
    34 0.331630 -0.034632 0.015625 -2.094395 0.000000 0.000000
    35 0.335183 -0.030536 0.015625 -2.094395 0.000000 0.000000
  time 1
    0 0.232772 -2.249535 38.192150 0.000000 0.000000 -1.570795
    1 -2.276925 0.000003 -1.238186 -1.570795 -1.570796 0.000000
    2 1.797146 0.711796 -0.000002 -0.000004 -0.000001 0.000739
    3 4.118603 -0.003280 0.000000 0.000000 0.000000 0.000035
    4 4.118599 -0.003280 0.000000 0.000000 0.000000 0.000049
    5 4.118603 -0.003280 0.000000 0.000000 0.000000 -0.000009
    6 4.118534 -0.003538 0.000000 0.000000 0.000000 -0.019437
    7 0.000004 0.003543 -1.732721 -0.000040 1.501696 -3.122992
    8 6.384777 0.000000 0.000000 -0.025648 0.046980 0.004099
    9 10.242683 0.000000 0.000004 0.000000 0.000000 -0.008014
    10 11.375561 0.000000 -0.000004 1.580468 0.132234 0.009455
    11 5.377136 0.227821 1.494020 0.036046 -0.351561 0.050162
    12 35.791470 0.000004 0.000001 0.000000 -2.094395 1.570796
    13 35.791470 0.000004 0.000001 3.141592 0.000000 -1.570796
    14 35.791470 0.000004 0.000001 0.000000 -1.047198 1.570797
    15 35.791470 0.000004 0.000001 0.000000 0.000000 1.570796
    16 35.791470 0.000004 0.000001 0.000000 1.047198 1.570797
    17 35.791470 0.000004 0.000001 -3.141592 1.047197 -1.570796
    18 16.402442 0.000004 -0.000006 -1.047198 0.000000 0.000000
    19 -0.372248 -0.001063 0.000000 2.094395 0.000000 0.000000
    20 -0.372234 0.001289 0.000000 2.094395 0.000000 0.000000
    21 0.020853 -0.020681 0.000004 0.000000 0.000000 0.000000
    22 0.002630 -0.001313 -0.000004 0.000000 0.000000 0.000000
    23 -0.002948 0.002275 -0.000004 0.000000 0.000000 0.000000
    24 16.402946 0.000008 -0.000002 0.000000 0.000000 0.000000
    25 -0.373726 0.003423 0.000001 1.047197 0.000000 0.000000
    26 -0.372662 -0.000772 -0.000001 1.047197 0.000000 0.000000
    27 -0.015207 0.049515 0.000000 0.000000 0.000000 0.000000
    28 0.036260 -0.057797 0.015623 -1.047198 0.000000 0.000000
    29 0.036117 -0.062159 0.015625 -1.047198 0.000000 0.000000
    30 16.028017 0.000011 0.000004 1.047197 0.000000 0.000000
    31 0.001244 -0.003286 0.000000 0.000000 0.000000 0.000000
    32 0.000739 0.002423 0.000000 0.000000 0.000000 0.000000
    33 0.060973 0.041096 -0.000004 0.000000 0.000000 0.000000
    34 0.331630 -0.034632 0.015625 -2.094395 0.000000 0.000000
    35 0.335183 -0.030536 0.015625 -2.094395 0.000000 0.000000
end
