version 1
nodes
  0 "Bip01" -1
  1 "Bip01 Pelvis" 0
  2 "Bip01 Spine" 1
  3 "Bip01 Spine1" 2
  4 "Bip01 Spine2" 3
  5 "Bip01 Spine3" 4
  6 "Bip01 Neck" 5
  7 "Bip01 R Clavicle" 6
  8 "Bip01 R UpperArm" 7
  9 "Bip01 R Forearm" 8
  10 "Bip01 R Hand" 9
  11 "gungnir_3p" 10
end
skeleton
  time 0
    0 -0.648455 0.001543 -2.600389 -0.025849 0.174554 -1.569172
    1 -2.276896 0.000003 -1.238186 -1.570795 -1.570796 0.000000
    2 1.796638 0.711923 0.000752 -0.232207 0.033517 -0.167319
    3 4.118331 -0.003193 0.000697 -0.214169 -0.019808 -0.080858
    4 4.118798 -0.003195 0.000715 -0.219764 0.008637 0.058868
    5 4.118255 -0.003181 0.000717 -0.220368 0.007343 -0.111498
    6 4.119252 -0.003469 -0.000260 0.074520 -0.170884 0.173103
    7 -0.254876 -0.106420 -1.472924 -0.715338 1.446132 2.228981
    8 5.449907 0.000001 0.000000 1.118223 -0.515134 -0.219510
    9 10.242682 0.000000 0.000000 0.000000 0.000000 -2.181551
    10 10.987491 0.000000 0.000002 -2.878595 0.494286 0.099543
    11 2.389729 0.854999 -4.121541 -0.614236 1.728793 -0.041222
end
