// Created by Crowbar 0.68

$modelname "weapons/tfa_cso/w_jetleft.mdl"

$bodygroup "studio"
{
	studio "w_jetleft"
}

$collisionmodel "w_jetleft.smd"
{
	$mass 9
}

$cdmaterials "models/weapons/tfa_cso/jetgun"

$sequence "idle" {
	"w_jetgun_anims\idle"
	fps 30
}
