// Created by Crowbar 0.68

$modelname "weapons/tfa_cso/w_jetpack.mdl"

$bodygroup "studio"
{
	studio "w_jetpack"
}

$collisionmodel "w_jetpack.smd"
{
	$mass 9
}

$cdmaterials "models/weapons/tfa_cso/jetgun"

$attachment "0" "root" -5.20 10.25 -45.10 rotate 0 170 180

$sequence "idle" {
	"w_jetgun_anims\idle"
	fps 30
}
