// Created by Crowbar 0.49.0.0

$modelname "weapons/tfa_cso/c_glock18.mdl"

$Include "csonline_gmod.qci"

$bodygroup "weapon"
{
	studio "v_glock18_f_glock18_template"
}

$CDMaterials "models\weapons\tfa_cso\glock18\"

$attachment 0 "Bone 04" 2.5 -8.7 1.7
//$attachment 1 "USP_Slide-handle" 0 -2.5 0

$definebone "Bone01" "" 6.608080 0.168823 -6.694014 -76.282511 32.504758 -44.363380 0.000000 0.000000 0.000000 -0.000001 0.000000 -0.000002
$definebone "Bone_Lefthand" "Bone01" 0.000000 -8.563284 0.000000 -6.704924 -9.544846 19.890800 0.000000 0.000000 0.000000 0.000001 0.000001 -0.000006
$definebone "Bone 04" "Bone_Lefthand" -0.003480 -0.404830 0.000000 0.000001 0.000001 -0.000006 0.000000 0.000000 0.000000 0.000001 0.000001 -0.000006
$definebone "USP" "Bone_Lefthand" 0.022535 -3.459974 0.747359 82.620633 -82.855079 -83.212967 0.000000 0.000000 0.000000 -0.000001 0.000004 0.000001
$definebone "Bone02" "USP" -0.000001 2.373978 0.699474 -0.000001 0.000004 0.000001 0.000000 0.000000 0.000000 -0.000001 0.000004 0.000001
$definebone "USP_Slide-handle" "Bone02" -0.000001 0.306529 1.718291 -0.000001 0.000004 0.000001 0.000000 0.000000 -0.000000 -0.000001 0.000004 0.000001
$definebone "USP_Magazine-handle" "Bone02" 0.000000 -1.759287 0.975027 -0.000001 0.000004 0.000001 0.000000 0.000000 0.000000 -0.000001 0.000004 0.000001
$definebone "USP_Trigger-Handle" "Bone02" -0.000966 -2.992971 0.968136 -0.103477 -0.556739 -15.489227 0.000000 0.000000 0.000000 -0.000003 0.000003 0.000000

$sequence "idle1" {
	"v_glock18_anims\idle1"
	fps 16
	loop
	activity "ACT_VM_IDLE" 1
	snap
}
$sequence "idle2" {
	"v_glock18_anims\idle2"
	fps 20
}
$sequence "idle3" {
	"v_glock18_anims\idle3"
	fps 18
}
$sequence "shoot" {
	"v_glock18_anims\shoot"
	{ event 5001 0 "21" }
	{ event 5001 2 "21" }
	{ event 5001 4 "21" }
	fps 40
}
$sequence "shoot2" {
	"v_glock18_anims\shoot2"
	{ event 5001 0 "21" }
	{ event 5001 2 "21" }
	{ event 5001 4 "21" }
	fps 40
}
$sequence "shoot3" {
	"v_glock18_anims\shoot3"
	{ event 5001 0 "21" }
	fps 40
	activity "ACT_VM_PRIMARYATTACK" 1
	snap
}
$sequence "shoot_empty" {
	"v_glock18_anims\shoot_empty"
	{ event 5001 0 "21" }
	fps 35
	activity "ACT_VM_PRIMARYATTACK_EMPTY" 1
	snap
}
$sequence "reload" {
	"v_glock18_anims\reload"
	{ event 5004 16 "Glock.ClipOut" }
	{ event 5004 48 "Glock.ClipIn" }
	{ event 5004 62 "Glock.SlideRelease" }
	fps 35
	activity "ACT_VM_RELOAD" 1
	snap
}
$sequence "draw" {
	"v_glock18_anims\draw"
	{ event 5004 17 "Glock.Draw" }
	fps 45
	activity "ACT_VM_DRAW" 1
	snap
}
$sequence "holster" {
	"v_glock18_anims\holster"
	fps 25
}
$sequence "add_silencer" {
	"v_glock18_anims\add_silencer"
	fps 20
}
$sequence "draw2" {
	"v_glock18_anims\draw2"
	{ event 5004 22 "weapons/slideback1.wav" }
	fps 45
}
$sequence "reload2" {
	"v_glock18_anims\reload2"
	{ event 5004 11 "weapons/clipout1.wav" }
	{ event 5004 32 "weapons/clipin1.wav" }
	{ event 5004 43 "weapons/sliderelease1.wav" }
	fps 30
}
