// Created by Crowbar 0.49.0.0

$modelname "weapons/tfa_cso/c_sprifle_v6.mdl"

$Include "csonline_gmod.qci"

$bodygroup "weapon"
{
	studio "v_sprifle"
}

$CDMaterials "models\weapons\tfa_cso\savery_v6\"

$attachment 0 "sprifle_root" -1 32 0
//$attachment 1 "sprifle_root" 0 15 1

$definebone "root" "" -1.000000 0.000000 1.800000 0.000000 0.000000 0.000000 0.000000 0.000000 0.000000 -0.000000 0.000000 0.000000
$definebone "Bone01" "root" 9.213061 3.757194 -9.113669 -87.597498 177.381763 171.407643 0.000000 0.000000 0.000000 -0.000000 0.000000 -0.000001
$definebone "Bone_Lefthand" "Bone01" -0.071918 -8.498731 -0.104137 16.186515 3.297717 8.666100 0.000000 0.000000 0.000000 0.000001 0.000000 -0.000000
$definebone "sprifle_root" "Bone_Lefthand" 2.733911 -2.087656 1.626838 14.096770 179.366958 -3.079763 0.000000 0.000000 -0.000000 0.000002 0.000001 -0.000000
$definebone "trigger1" "sprifle_root" 0.974667 3.050010 0.000333 0.000117 -0.229870 0.000515 0.000000 0.000000 0.000000 0.000002 0.000001 -0.000000
$definebone "trigger2" "sprifle_root" -0.325162 1.868349 0.019495 0.000457 -113.717392 -0.000346 0.000001 0.000000 0.000000 -0.000001 0.000002 -0.000002
$definebone "wheel02" "sprifle_root" 1.078273 6.143588 0.056377 -89.999983 -0.229871 0.000000 0.000000 0.000000 0.000000 -0.000002 -0.000000 -0.000001
$definebone "wheel01" "sprifle_root" -0.229161 7.782847 0.458929 -89.999983 -0.229871 0.000000 0.000000 0.000000 0.000000 -0.000002 -0.000000 -0.000001
$definebone "wheel_link1" "wheel01" 0.864836 0.017996 -0.821000 0.000001 89.999983 90.000154 0.000000 0.000000 -0.000000 0.000000 -0.000001 0.000002
$definebone "wheel03" "sprifle_root" 0.916864 9.033262 -0.145396 -89.999983 -0.229871 0.000000 0.000000 0.000000 0.000000 -0.000002 -0.000000 -0.000001
$definebone "pump" "sprifle_root" -0.248193 9.936768 1.328514 -0.000515 89.770113 0.000117 0.000000 0.000000 0.000000 0.000000 -0.000001 0.000002
$definebone "revolver_link" "sprifle_root" 0.938609 4.841143 0.465839 -0.000117 179.770117 -0.000515 -0.000000 0.000000 0.000000 -0.000002 0.000001 0.000000
$definebone "revolver_root" "revolver_link" 0.998565 3.087641 -0.174531 0.000000 -89.999983 0.000002 0.000000 0.000000 0.000000 0.000000 -0.000001 0.000002
$definebone "revolver" "revolver_root" 1.137329 -0.000000 0.000000 0.000000 -0.000001 0.000002 0.000000 0.000000 -0.000000 0.000000 -0.000001 0.000002
$definebone "magazine" "revolver" -0.819369 -0.001998 0.011001 0.000000 -0.000001 0.000002 0.000000 0.000000 0.000000 0.000000 -0.000001 0.000002
$definebone "bullet1" "magazine" 0.681056 0.557127 0.103592 0.000000 -0.000001 0.000002 0.000000 0.000000 0.000000 0.000000 -0.000001 0.000002
$definebone "bullet2" "magazine" 0.681055 0.247698 0.494205 0.000000 -0.000001 -179.999966 0.000000 0.000000 0.000000 -0.000000 0.000001 0.000002
$definebone "bullet3" "magazine" 0.681055 -0.265101 0.489439 0.000000 -0.000001 0.000002 0.000000 0.000000 -0.000000 0.000000 -0.000001 0.000002
$definebone "bullet4" "magazine" 0.681055 -0.576983 0.103931 0.000000 -0.000001 -179.999966 0.000000 0.000000 0.000000 -0.000000 0.000001 0.000002
$definebone "bullet5" "magazine" 0.681055 -0.452399 -0.364148 0.000000 -0.000001 0.000002 0.000000 0.000000 0.000000 0.000000 -0.000001 0.000002
$definebone "bullet6" "magazine" 0.681055 -0.012558 -0.578705 0.000000 -0.000001 -179.999966 0.000000 0.000000 0.000000 -0.000000 0.000001 0.000002
$definebone "bullet7" "magazine" 0.681055 0.450127 -0.379953 0.000000 -0.000001 0.000002 0.000000 0.000000 -0.000000 0.000000 -0.000001 0.000002

$sequence "idle1" {
	"v_sprifle_anims\idle1"
	{ event 5004 0 "Savery.Idle" }
	fps 30
	loop
	activity "ACT_VM_IDLE" 1
	snap
}
$sequence "shoot1" {
	"v_sprifle_anims\shoot1"
	{ event 5001 0 "23" }
	fps 30
	activity "ACT_VM_PRIMARYATTACK" 1
	snap
}
$sequence "shoot2" {
	"v_sprifle_anims\shoot2"
	{ event 5001 0 "23" }
	fps 30
	activity "ACT_VM_PRIMARYATTACK" 2
	snap
}
$sequence "reload" {
	"v_sprifle_anims\reload"
	{ event 5004 0 "Savery.ClipOut" }
	{ event 5004 48 "Savery.ClipIn" }
	fps 30
	activity "ACT_VM_RELOAD" 1
	snap
}
$sequence "draw" {
	"v_sprifle_anims\draw"
	{ event 5004 2 "Savery.Draw" }
	fps 30
	activity "ACT_VM_DRAW" 1
	snap
}
