version 1
nodes
  0 "Bone01" -1
  1 "Bone_Lefthand" 0
  2 "USP" 1
  3 "Bone02" 2
  4 "USP_Slide-handle" 3
  5 "USP_Magazine-handle" 3
  6 "USP_Trigger-Handle" 3
  7 "Bone 04" 1
  8 "Bone13" 7
  9 "Bone14" 8
  10 "Bone15" 9
  11 "Bone17" 7
  12 "Bone18" 11
  13 "Bone19" 12
  14 "Bone21" 7
  15 "Bone22" 14
  16 "Bone23" 15
  17 "Bone05" 7
  18 "Bone06" 17
  19 "Bone07" 18
  20 "Bone09" 7
  21 "Bone10" 20
  22 "Bone11" 21
  23 "Bone04" -1
  24 "Bone_Righthand" 23
  25 "Bone26" 24
  26 "Bone35" 25
  27 "Bone36" 26
  28 "Bone37" 27
  29 "Bone31" 25
  30 "Bone32" 29
  31 "Bone33" 30
  32 "Bone39" 25
  33 "Bone40" 32
  34 "Bone41" 33
  35 "Bone43" 25
  36 "Bone44" 35
  37 "Bone45" 36
  38 "Bone27" 25
  39 "Bone28" 38
  40 "Bone29" 39
end
skeleton
  time 0
    0 6.606519 0.271036 -6.694014 -0.730649 -1.343438 0.521961
    1 0.000000 -8.563284 0.000000 0.345307 -0.122548 -0.151123
    2 0.022535 -3.459973 0.747359 -1.452340 1.442002 -1.446094
    3 -0.000001 2.373979 0.699475 0.000000 0.000000 0.000000
    4 -0.000001 -0.369274 1.718291 0.000000 0.000000 0.000000
    5 0.000000 -1.759287 0.975027 0.000000 0.000000 0.000000
    6 -0.000966 -2.992972 0.968136 0.131076 -0.001806 -0.009717
    7 -0.003480 -0.404829 0.000000 0.000000 0.000000 0.000000
    8 -0.519308 -2.501155 -0.278957 -1.003564 0.000000 -0.122173
    9 -0.010598 -1.208184 0.000001 -1.090831 0.000000 0.000000
    10 0.000000 -0.763066 0.000000 -1.343903 0.000000 0.000000
    11 0.105982 -2.607134 -0.278957 -0.890118 0.000000 -0.148353
    12 0.000000 -1.250580 0.000000 -1.213004 0.000000 0.000000
    13 0.000000 -0.932634 0.000001 -1.483530 0.000000 0.000000
    14 0.763064 -2.490556 -0.278957 -0.349065 0.000000 0.130900
    15 -0.012321 -1.280916 0.000000 -0.758771 0.000000 0.000000
    16 -0.001697 -0.749371 0.000001 -1.153835 0.000000 0.000000
    17 0.354567 0.016268 0.318133 0.342077 -0.443527 -1.083976
    18 1.887166 0.012877 0.000000 -0.305433 0.000000 -0.401426
    19 1.001874 -0.000270 0.000000 0.000000 0.000000 -0.488692
    20 -1.123358 -2.195092 -0.278957 -0.933751 0.000000 -0.087266
    21 0.010773 -0.963791 0.000000 -0.610865 0.000000 0.000000
    22 -0.010412 -0.631916 0.000000 -1.213004 0.000000 0.000000
    23 -1.147985 -2.857270 -11.037740 -0.373969 -0.009605 0.604275
    24 0.089929 -8.543163 -0.000001 0.064253 -0.284686 0.455196
    25 0.000000 -0.359713 0.000000 0.000000 0.000000 0.000000
    26 -0.170480 -2.636147 -0.277655 -0.820345 0.000000 0.000000
    27 0.010599 -1.261177 0.000000 -0.584683 0.000000 0.000000
    28 -0.000001 -0.943233 0.000000 -0.532326 0.000000 0.000000
    29 -0.827563 -2.508973 -0.277656 -0.942486 0.000000 0.000000
    30 0.000001 -1.292971 0.000000 -0.287992 0.000000 0.000000
    31 0.000000 -0.752466 0.000000 -0.445059 0.000000 0.000000
    32 0.444212 -2.561960 -0.277655 -1.081578 -0.046226 -0.024599
    33 0.021022 -1.208186 0.000000 -0.427606 0.000000 0.000000
    34 0.010597 -0.741867 0.000000 -0.453786 0.000000 0.000000
    35 1.047444 -2.222821 -0.277655 -1.019692 -0.066950 -0.041090
    36 0.000000 -0.996223 -0.000001 -0.584716 0.000000 0.000000
    37 -0.000002 -0.614690 0.000000 -0.523599 0.000000 0.000000
    38 -0.308254 -0.007814 0.307166 -0.318048 -0.539821 -2.424630
    39 1.978378 0.019543 0.000000 -0.000002 -0.000010 0.549775
    40 0.982427 0.003186 0.000000 0.000000 0.000000 0.593399
  time 1
    0 6.606519 -0.018035 -6.694014 -0.740647 -1.340795 0.532270
    1 0.000000 -8.563284 0.000000 0.349086 -0.110839 -0.183714
    2 0.022535 -3.459973 0.747359 -1.452340 1.442002 -1.446094
    3 -0.000001 2.373979 0.699475 0.000000 0.000000 0.000000
    4 -0.000001 0.451064 1.718291 0.000000 0.000000 0.000000
    5 0.000000 -1.759287 0.975027 0.000000 0.000000 0.000000
    6 -0.000966 -2.992972 0.968136 0.131076 -0.001806 -0.009717
    7 -0.003480 -0.404829 0.000000 0.000000 0.000000 0.000000
    8 -0.519308 -2.501155 -0.278957 -1.003564 0.000000 -0.122173
    9 -0.010598 -1.208184 0.000001 -1.090831 0.000000 0.000000
    10 0.000000 -0.763066 0.000000 -1.343903 0.000000 0.000000
    11 0.105982 -2.607134 -0.278957 -0.890118 0.000000 -0.148353
    12 0.000000 -1.250580 0.000000 -1.213004 0.000000 0.000000
    13 0.000000 -0.932634 0.000001 -1.483530 0.000000 0.000000
    14 0.763064 -2.490556 -0.278957 -0.349065 0.000000 0.130900
    15 -0.012321 -1.280916 0.000000 -0.763577 0.000000 0.000000
    16 -0.001697 -0.749371 0.000001 -1.160013 0.000000 0.000000
    17 0.354567 0.016268 0.318133 0.342077 -0.443527 -1.083976
    18 1.887166 0.012877 0.000000 -0.305433 0.000000 -0.401426
    19 1.001874 -0.000270 0.000000 0.000000 0.000000 -0.488692
    20 -1.123358 -2.195092 -0.278957 -0.933751 0.000000 -0.087266
    21 0.010773 -0.963791 0.000000 -0.610865 0.000000 0.000000
    22 -0.010412 -0.631916 0.000000 -1.213004 0.000000 0.000000
    23 -1.147985 -3.083840 -11.088522 -0.374243 -0.007500 0.603858
    24 0.089929 -8.543163 -0.000001 0.067662 -0.284686 0.455196
    25 0.000000 -0.359713 0.000000 0.000000 0.000000 0.000000
    26 -0.170480 -2.636147 -0.277655 -0.820345 0.000000 0.000000
    27 0.010599 -1.261177 0.000000 -0.584683 0.000000 0.000000
    28 -0.000001 -0.943233 0.000000 -0.532326 0.000000 0.000000
    29 -0.827563 -2.508973 -0.277656 -0.942486 0.000000 0.000000
    30 0.000001 -1.292971 0.000000 -0.287992 0.000000 0.000000
    31 0.000000 -0.752466 0.000000 -0.445059 0.000000 0.000000
    32 0.444212 -2.561960 -0.277655 -1.081578 -0.046226 -0.024599
    33 0.021022 -1.208186 0.000000 -0.427606 0.000000 0.000000
    34 0.010597 -0.741867 0.000000 -0.453786 0.000000 0.000000
    35 1.047444 -2.222821 -0.277655 -1.019692 -0.066950 -0.041090
    36 0.000000 -0.996223 -0.000001 -0.584716 0.000000 0.000000
    37 -0.000002 -0.614690 0.000000 -0.523599 0.000000 0.000000
    38 -0.308254 -0.007814 0.307166 -0.318048 -0.539821 -2.424630
    39 1.978378 0.019543 0.000000 -0.000002 -0.000010 0.549775
    40 0.982427 0.003186 0.000000 0.000000 0.000000 0.593399
  time 2
    0 6.606519 0.271036 -6.694014 -0.774287 -1.331381 0.567261
    1 0.000000 -8.563284 0.000000 0.349122 -0.110719 -0.184061
    2 0.022535 -3.459973 0.747359 -1.452340 1.442002 -1.446094
    3 -0.000001 2.373979 0.699475 0.000000 0.000000 0.000000
    4 -0.000001 0.095584 1.718291 0.000000 0.000000 0.000000
    5 0.000000 -1.759287 0.975027 0.000000 0.000000 0.000000
    6 -0.000966 -2.992972 0.968136 0.131076 -0.001806 -0.009717
    7 -0.003480 -0.404829 0.000000 0.000000 0.000000 0.000000
    8 -0.519308 -2.501155 -0.278957 -1.003564 0.000000 -0.122173
    9 -0.010598 -1.208184 0.000001 -1.090831 0.000000 0.000000
    10 0.000000 -0.763066 0.000000 -1.343903 0.000000 0.000000
    11 0.105982 -2.607134 -0.278957 -0.890118 0.000000 -0.148353
    12 0.000000 -1.250580 0.000000 -1.213004 0.000000 0.000000
    13 0.000000 -0.932634 0.000001 -1.483530 0.000000 0.000000
    14 0.763064 -2.490556 -0.278957 -0.349065 0.000000 0.130900
    15 -0.012321 -1.280916 0.000000 -0.768396 0.000000 0.000000
    16 -0.001697 -0.749371 0.000001 -1.166228 0.000000 0.000000
    17 0.354567 0.016268 0.318133 0.342077 -0.443527 -1.083976
    18 1.887166 0.012877 0.000000 -0.305433 0.000000 -0.401426
    19 1.001874 -0.000270 0.000000 0.000000 0.000000 -0.488692
    20 -1.123358 -2.195092 -0.278957 -0.933751 0.000000 -0.087266
    21 0.010773 -0.963791 0.000000 -0.610865 0.000000 0.000000
    22 -0.010412 -0.631916 0.000000 -1.213004 0.000000 0.000000
    23 -1.147985 -2.814300 -10.963519 -0.375247 0.000057 0.602052
    24 0.089929 -8.543163 -0.000001 0.079777 -0.284686 0.455196
    25 0.000000 -0.359713 0.000000 0.000000 0.000000 0.000000
    26 -0.170480 -2.636147 -0.277655 -0.820345 0.000000 0.000000
    27 0.010599 -1.261177 0.000000 -0.584683 0.000000 0.000000
    28 -0.000001 -0.943233 0.000000 -0.532326 0.000000 0.000000
    29 -0.827563 -2.508973 -0.277656 -0.942486 0.000000 0.000000
    30 0.000001 -1.292971 0.000000 -0.287992 0.000000 0.000000
    31 0.000000 -0.752466 0.000000 -0.445059 0.000000 0.000000
    32 0.444212 -2.561960 -0.277655 -1.081578 -0.046226 -0.024599
    33 0.021022 -1.208186 0.000000 -0.427606 0.000000 0.000000
    34 0.010597 -0.741867 0.000000 -0.453786 0.000000 0.000000
    35 1.047444 -2.222821 -0.277655 -1.019692 -0.066950 -0.041090
    36 0.000000 -0.996223 -0.000001 -0.584716 0.000000 0.000000
    37 -0.000002 -0.614690 0.000000 -0.523599 0.000000 0.000000
    38 -0.308254 -0.007814 0.307166 -0.318048 -0.539821 -2.424630
    39 1.978378 0.019543 0.000000 -0.000002 -0.000010 0.549775
    40 0.982427 0.003186 0.000000 0.000000 0.000000 0.593399
  time 3
    0 6.606519 0.454636 -6.768235 -0.886034 -1.290937 0.684182
    1 0.000000 -8.563284 0.000000 0.355344 -0.081549 -0.287161
    2 0.022535 -3.459973 0.747359 -1.452340 1.442002 -1.446094
    3 -0.000001 2.373979 0.699475 0.000000 0.000000 0.000000
    4 -0.000001 -0.572405 1.710478 0.000000 0.000000 0.000000
    5 0.000000 -1.759287 0.975027 0.000000 0.000000 0.000000
    6 -0.000966 -2.992972 0.968136 0.131076 -0.001806 -0.009717
    7 -0.003480 -0.404829 0.000000 0.000000 0.000000 0.000000
    8 -0.519308 -2.501155 -0.278957 -1.003564 0.000000 -0.122173
    9 -0.010598 -1.208184 0.000001 -1.090831 0.000000 0.000000
    10 0.000000 -0.763066 0.000000 -1.343903 0.000000 0.000000
    11 0.105982 -2.607134 -0.278957 -0.890118 0.000000 -0.148353
    12 0.000000 -1.250580 0.000000 -1.213004 0.000000 0.000000
    13 0.000000 -0.932634 0.000001 -1.483530 0.000000 0.000000
    14 0.763064 -2.490556 -0.278957 -0.349065 0.000000 0.130900
    15 -0.012321 -1.280916 0.000000 -0.772607 0.000000 0.000000
    16 -0.001697 -0.749371 0.000001 -1.171605 0.000000 0.000000
    17 0.354567 0.016268 0.318133 0.342077 -0.443527 -1.083976
    18 1.887166 0.012877 0.000000 -0.305433 0.000000 -0.401426
    19 1.001874 -0.000270 0.000000 0.000000 0.000000 -0.488692
    20 -1.123358 -2.195092 -0.278957 -0.933751 0.000000 -0.087266
    21 0.010773 -0.963791 0.000000 -0.610865 0.000000 0.000000
    22 -0.010412 -0.631916 0.000000 -1.213004 0.000000 0.000000
    23 -1.108921 -2.501791 -10.557256 -0.377939 0.019572 0.597537
    24 0.089929 -8.543163 -0.000001 0.152468 -0.295951 0.452548
    25 0.000000 -0.359713 0.000000 0.000000 0.000000 0.000000
    26 -0.170480 -2.636147 -0.277655 -0.820345 0.000000 0.000000
    27 0.010599 -1.261177 0.000000 -0.584683 0.000000 0.000000
    28 -0.000001 -0.943233 0.000000 -0.532326 0.000000 0.000000
    29 -0.827563 -2.508973 -0.277656 -0.942486 0.000000 0.000000
    30 0.000001 -1.292971 0.000000 -0.287992 0.000000 0.000000
    31 0.000000 -0.752466 0.000000 -0.445059 0.000000 0.000000
    32 0.444212 -2.561960 -0.277655 -1.081578 -0.046226 -0.024599
    33 0.021022 -1.208186 0.000000 -0.427606 0.000000 0.000000
    34 0.010597 -0.741867 0.000000 -0.453786 0.000000 0.000000
    35 1.047444 -2.222821 -0.277655 -1.019692 -0.066950 -0.041090
    36 0.000000 -0.996223 -0.000001 -0.584716 0.000000 0.000000
    37 -0.000002 -0.614690 0.000000 -0.523599 0.000000 0.000000
    38 -0.308254 -0.007814 0.307166 -0.318048 -0.539821 -2.424630
    39 1.978378 0.019543 0.000000 -0.000002 -0.000010 0.549775
    40 0.982427 0.003186 0.000000 0.000000 0.000000 0.593399
  time 4
    0 6.606519 0.552295 -6.920583 -0.999991 -1.226597 0.805555
    1 0.000000 -8.563284 0.000000 0.361458 -0.055973 -0.331826
    2 0.022535 -3.459973 0.747359 -1.452340 1.442002 -1.446094
    3 -0.000001 2.373979 0.699475 0.000000 0.000000 0.000000
    4 -0.000001 -0.931791 1.710478 0.000000 0.000000 0.000000
    5 0.000000 -1.759287 0.975027 0.000000 0.000000 0.000000
    6 -0.000966 -2.992972 0.968136 0.131076 -0.001806 -0.009717
    7 -0.003480 -0.404829 0.000000 0.000000 0.000000 0.000000
    8 -0.519308 -2.501155 -0.278957 -1.003564 0.000000 -0.122173
    9 -0.010598 -1.208184 0.000001 -1.090831 0.000000 0.000000
    10 0.000000 -0.763066 0.000000 -1.343903 0.000000 0.000000
    11 0.105982 -2.607134 -0.278957 -0.890118 0.000000 -0.148353
    12 0.000000 -1.250580 0.000000 -1.213004 0.000000 0.000000
    13 0.000000 -0.932634 0.000001 -1.483530 0.000000 0.000000
    14 0.763064 -2.490556 -0.278957 -0.349065 0.000000 0.130900
    15 -0.012321 -1.280916 0.000000 -0.775570 0.000000 0.000000
    16 -0.001697 -0.749371 0.000001 -1.175434 0.000000 0.000000
    17 0.354567 0.016268 0.318133 0.342077 -0.443527 -1.083976
    18 1.887166 0.012877 0.000000 -0.305433 0.000000 -0.401426
    19 1.001874 -0.000270 0.000000 0.000000 0.000000 -0.488692
    20 -1.123358 -2.195092 -0.278957 -0.933751 0.000000 -0.087266
    21 0.010773 -0.963791 0.000000 -0.610865 0.000000 0.000000
    22 -0.010412 -0.631916 0.000000 -1.213004 0.000000 0.000000
    23 -1.054232 -2.251783 -10.092398 -0.382366 0.050278 0.590382
    24 0.089929 -8.543163 -0.000001 0.219381 -0.284686 0.455196
    25 0.000000 -0.359713 0.000000 0.000000 0.000000 0.000000
    26 -0.170480 -2.636147 -0.277655 -0.820345 0.000000 0.000000
    27 0.010599 -1.261177 0.000000 -0.584683 0.000000 0.000000
    28 -0.000001 -0.943233 0.000000 -0.532326 0.000000 0.000000
    29 -0.827563 -2.508973 -0.277656 -0.942486 0.000000 0.000000
    30 0.000001 -1.292971 0.000000 -0.287992 0.000000 0.000000
    31 0.000000 -0.752466 0.000000 -0.445059 0.000000 0.000000
    32 0.444212 -2.561960 -0.277655 -1.081578 -0.046226 -0.024599
    33 0.021022 -1.208186 0.000000 -0.427606 0.000000 0.000000
    34 0.010597 -0.741867 0.000000 -0.453786 0.000000 0.000000
    35 1.047444 -2.222821 -0.277655 -1.019692 -0.066950 -0.041090
    36 0.000000 -0.996223 -0.000001 -0.584716 0.000000 0.000000
    37 -0.000002 -0.614690 0.000000 -0.523599 0.000000 0.000000
    38 -0.308254 -0.007814 0.307166 -0.318048 -0.539821 -2.424630
    39 1.978378 0.019543 0.000000 -0.000002 -0.000010 0.549775
    40 0.982427 0.003186 0.000000 0.000000 0.000000 0.593399
  time 5
    0 6.606519 0.685111 -7.119808 -1.041364 -1.193033 0.850464
    1 0.000000 -8.563284 0.000000 0.374626 -0.054068 -0.168595
    2 0.022535 -3.459973 0.747359 -1.452340 1.442002 -1.446094
    3 -0.000001 2.373979 0.699475 0.000000 0.000000 0.000000
    4 -0.000001 -0.931791 1.710478 0.000000 0.000000 0.000000
    5 0.000000 -1.759287 0.975027 0.000000 0.000000 0.000000
    6 -0.000966 -2.992972 0.968136 0.131076 -0.001806 -0.009717
    7 -0.003480 -0.404829 0.000000 0.000000 0.000000 0.000000
    8 -0.519308 -2.501155 -0.278957 -1.003564 0.000000 -0.122173
    9 -0.010598 -1.208184 0.000001 -1.090831 0.000000 0.000000
    10 0.000000 -0.763066 0.000000 -1.343903 0.000000 0.000000
    11 0.105982 -2.607134 -0.278957 -0.890118 0.000000 -0.148353
    12 0.000000 -1.250580 0.000000 -1.213004 0.000000 0.000000
    13 0.000000 -0.932634 0.000001 -1.483530 0.000000 0.000000
    14 0.763064 -2.490556 -0.278957 -0.349065 0.000000 0.130900
    15 -0.012321 -1.280916 0.000000 -0.776706 0.000000 0.000000
    16 -0.001697 -0.749371 0.000001 -1.176894 0.000000 0.000000
    17 0.354567 0.016268 0.318133 0.342077 -0.443527 -1.083976
    18 1.887166 0.012877 0.000000 -0.305433 0.000000 -0.401426
    19 1.001874 -0.000270 0.000000 0.000000 0.000000 -0.488692
    20 -1.123358 -2.195092 -0.278957 -0.933751 0.000000 -0.087266
    21 0.010773 -0.963791 0.000000 -0.610865 0.000000 0.000000
    22 -0.010412 -0.631916 0.000000 -1.213004 0.000000 0.000000
    23 -1.011262 -2.173656 -9.807233 -0.387385 0.083281 0.582463
    24 0.089929 -8.543163 -0.000001 0.199465 -0.217336 0.472493
    25 0.000000 -0.359713 0.000000 0.000000 0.000000 0.000000
    26 -0.170480 -2.636147 -0.277655 -0.820345 0.000000 0.000000
    27 0.010599 -1.261177 0.000000 -0.584683 0.000000 0.000000
    28 -0.000001 -0.943233 0.000000 -0.532326 0.000000 0.000000
    29 -0.827563 -2.508973 -0.277656 -0.942486 0.000000 0.000000
    30 0.000001 -1.292971 0.000000 -0.287992 0.000000 0.000000
    31 0.000000 -0.752466 0.000000 -0.445059 0.000000 0.000000
    32 0.444212 -2.561960 -0.277655 -1.081578 -0.046226 -0.024599
    33 0.021022 -1.208186 0.000000 -0.427606 0.000000 0.000000
    34 0.010597 -0.741867 0.000000 -0.453786 0.000000 0.000000
    35 1.047444 -2.222821 -0.277655 -1.019692 -0.066950 -0.041090
    36 0.000000 -0.996223 -0.000001 -0.584716 0.000000 0.000000
    37 -0.000002 -0.614690 0.000000 -0.523599 0.000000 0.000000
    38 -0.308254 -0.007814 0.307166 -0.318048 -0.539821 -2.424630
    39 1.978378 0.019543 0.000000 -0.000002 -0.000010 0.549775
    40 0.982427 0.003186 0.000000 0.000000 0.000000 0.593399
  time 6
    0 6.606519 0.989808 -7.354190 -1.040922 -1.193250 0.849996
    1 0.000000 -8.563284 0.000000 0.387901 -0.063380 0.054383
    2 0.022535 -3.459973 0.747359 -1.452340 1.442002 -1.446094
    3 -0.000001 2.373979 0.699475 0.000000 0.000000 0.000000
    4 -0.000001 -0.931791 1.710478 0.000000 0.000000 0.000000
    5 0.000000 -1.759287 0.975027 0.000000 0.000000 0.000000
    6 -0.000966 -2.992972 0.968136 0.131076 -0.001806 -0.009717
    7 -0.003480 -0.404829 0.000000 0.000000 0.000000 0.000000
    8 -0.519308 -2.501155 -0.278957 -1.003564 0.000000 -0.122173
    9 -0.010598 -1.208184 0.000001 -1.090831 0.000000 0.000000
    10 0.000000 -0.763066 0.000000 -1.343903 0.000000 0.000000
    11 0.105982 -2.607134 -0.278957 -0.890118 0.000000 -0.148353
    12 0.000000 -1.250580 0.000000 -1.213004 0.000000 0.000000
    13 0.000000 -0.932634 0.000001 -1.483530 0.000000 0.000000
    14 0.763064 -2.490556 -0.278957 -0.349065 0.000000 0.130900
    15 -0.012321 -1.280916 0.000000 -0.775349 0.000000 0.000000
    16 -0.001697 -0.749371 0.000001 -1.175167 0.000000 0.000000
    17 0.354567 0.016268 0.318133 0.342077 -0.443527 -1.083976
    18 1.887166 0.012877 0.000000 -0.305433 0.000000 -0.401426
    19 1.001874 -0.000270 0.000000 0.000000 0.000000 -0.488692
    20 -1.123358 -2.195092 -0.278957 -0.933751 0.000000 -0.087266
    21 0.010773 -0.963791 0.000000 -0.610865 0.000000 0.000000
    22 -0.010412 -0.631916 0.000000 -1.213004 0.000000 0.000000
    23 -1.011262 -2.204907 -9.635353 -0.391584 0.109587 0.576003
    24 0.089929 -8.543163 -0.000001 0.153604 -0.129301 0.490868
    25 0.000000 -0.359713 0.000000 0.000000 0.000000 0.000000
    26 -0.170480 -2.636147 -0.277655 -0.820345 0.000000 0.000000
    27 0.010599 -1.261177 0.000000 -0.584683 0.000000 0.000000
    28 -0.000001 -0.943233 0.000000 -0.532326 0.000000 0.000000
    29 -0.827563 -2.508973 -0.277656 -0.942486 0.000000 0.000000
    30 0.000001 -1.292971 0.000000 -0.287992 0.000000 0.000000
    31 0.000000 -0.752466 0.000000 -0.445059 0.000000 0.000000
    32 0.444212 -2.561960 -0.277655 -1.081578 -0.046226 -0.024599
    33 0.021022 -1.208186 0.000000 -0.427606 0.000000 0.000000
    34 0.010597 -0.741867 0.000000 -0.453786 0.000000 0.000000
    35 1.047444 -2.222821 -0.277655 -1.019692 -0.066950 -0.041090
    36 0.000000 -0.996223 -0.000001 -0.584716 0.000000 0.000000
    37 -0.000002 -0.614690 0.000000 -0.523599 0.000000 0.000000
    38 -0.308254 -0.007814 0.307166 -0.318048 -0.539821 -2.424630
    39 1.978378 0.019543 0.000000 -0.000002 -0.000010 0.549775
    40 0.982427 0.003186 0.000000 0.000000 0.000000 0.593399
  time 7
    0 6.606519 1.474198 -7.612011 -1.039376 -1.194445 0.848043
    1 0.000000 -8.563284 0.000000 0.392631 -0.068138 0.150003
    2 0.022535 -3.459973 0.747359 -1.452340 1.442002 -1.446094
    3 -0.000001 2.373979 0.699475 0.000000 0.000000 0.000000
    4 -0.000001 -0.931791 1.710478 0.000000 0.000000 0.000000
    5 0.000000 -1.759287 0.975027 0.000000 0.000000 0.000000
    6 -0.000966 -2.992972 0.968136 0.131076 -0.001806 -0.009717
    7 -0.003480 -0.404829 0.000000 0.000000 0.000000 0.000000
    8 -0.519308 -2.501155 -0.278957 -1.003564 0.000000 -0.122173
    9 -0.010598 -1.208184 0.000001 -1.090831 0.000000 0.000000
    10 0.000000 -0.763066 0.000000 -1.343903 0.000000 0.000000
    11 0.105982 -2.607134 -0.278957 -0.890118 0.000000 -0.148353
    12 0.000000 -1.250580 0.000000 -1.213004 0.000000 0.000000
    13 0.000000 -0.932634 0.000001 -1.483530 0.000000 0.000000
    14 0.763064 -2.490556 -0.278957 -0.349065 0.000000 0.130900
    15 -0.012321 -1.280916 0.000000 -0.770958 0.000000 0.000000
    16 -0.001697 -0.749371 0.000001 -1.169486 0.000000 0.000000
    17 0.354567 0.016268 0.318133 0.342077 -0.443527 -1.083976
    18 1.887166 0.012877 0.000000 -0.305433 0.000000 -0.401426
    19 1.001874 -0.000270 0.000000 0.000000 0.000000 -0.488692
    20 -1.123358 -2.195092 -0.278957 -0.933751 0.000000 -0.087266
    21 0.010773 -0.963791 0.000000 -0.610865 0.000000 0.000000
    22 -0.010412 -0.631916 0.000000 -1.213004 0.000000 0.000000
    23 -0.956573 -2.005682 -9.709574 -0.393363 0.120301 0.573363
    24 0.089929 -8.543163 -0.000001 0.115699 -0.058854 0.502610
    25 0.000000 -0.359713 0.000000 0.000000 0.000000 0.000000
    26 -0.170480 -2.636147 -0.277655 -0.820345 0.000000 0.000000
    27 0.010599 -1.261177 0.000000 -0.584683 0.000000 0.000000
    28 -0.000001 -0.943233 0.000000 -0.532326 0.000000 0.000000
    29 -0.827563 -2.508973 -0.277656 -0.942486 0.000000 0.000000
    30 0.000001 -1.292971 0.000000 -0.287992 0.000000 0.000000
    31 0.000000 -0.752466 0.000000 -0.445059 0.000000 0.000000
    32 0.444212 -2.561960 -0.277655 -1.081578 -0.046226 -0.024599
    33 0.021022 -1.208186 0.000000 -0.427606 0.000000 0.000000
    34 0.010597 -0.741867 0.000000 -0.453786 0.000000 0.000000
    35 1.047444 -2.222821 -0.277655 -1.019692 -0.066950 -0.041090
    36 0.000000 -0.996223 -0.000001 -0.584716 0.000000 0.000000
    37 -0.000002 -0.614690 0.000000 -0.523599 0.000000 0.000000
    38 -0.308254 -0.007814 0.307166 -0.318048 -0.539821 -2.424630
    39 1.978378 0.019543 0.000000 -0.000002 -0.000010 0.549775
    40 0.982427 0.003186 0.000000 0.000000 0.000000 0.593399
  time 8
    0 6.606519 1.829678 -7.803423 -1.035288 -1.197486 0.843279
    1 0.000000 -8.563284 0.000000 0.392908 -0.065298 0.140394
    2 0.022535 -3.459973 0.747359 -1.452340 1.442002 -1.446094
    3 -0.000001 2.373979 0.699475 0.000000 0.000000 0.000000
    4 -0.000001 -0.931791 1.710478 0.000000 0.000000 0.000000
    5 0.000000 -1.759287 0.975027 0.000000 0.000000 0.000000
    6 -0.000966 -2.992972 0.968136 0.131076 -0.001806 -0.009717
    7 -0.003480 -0.404829 0.000000 0.000000 0.000000 0.000000
    8 -0.519308 -2.501155 -0.278957 -1.003564 0.000000 -0.122173
    9 -0.010598 -1.208184 0.000001 -1.090831 0.000000 0.000000
    10 0.000000 -0.763066 0.000000 -1.343903 0.000000 0.000000
    11 0.105982 -2.607134 -0.278957 -0.890118 0.000000 -0.148353
    12 0.000000 -1.250580 0.000000 -1.213004 0.000000 0.000000
    13 0.000000 -0.932634 0.000001 -1.483530 0.000000 0.000000
    14 0.763064 -2.490556 -0.278957 -0.349065 0.000000 0.130900
    15 -0.012321 -1.280916 0.000000 -0.762870 0.000000 0.000000
    16 -0.001697 -0.749371 0.000001 -1.159087 0.000000 0.000000
    17 0.354567 0.016268 0.318133 0.342077 -0.443527 -1.083976
    18 1.887166 0.012877 0.000000 -0.305433 0.000000 -0.401426
    19 1.001874 -0.000270 0.000000 0.000000 0.000000 -0.488692
    20 -1.123358 -2.195092 -0.278957 -0.933751 0.000000 -0.087266
    21 0.010773 -0.963791 0.000000 -0.610865 0.000000 0.000000
    22 -0.010412 -0.631916 0.000000 -1.213004 0.000000 0.000000
    23 -0.874539 -1.654109 -9.971301 -0.393272 0.119631 0.573502
    24 0.089929 -8.543163 -0.000001 0.095706 -0.033194 0.507462
    25 0.000000 -0.359713 0.000000 0.000000 0.000000 0.000000
    26 -0.170480 -2.636147 -0.277655 -0.820345 0.000000 0.000000
    27 0.010599 -1.261177 0.000000 -0.584683 0.000000 0.000000
    28 -0.000001 -0.943233 0.000000 -0.532326 0.000000 0.000000
    29 -0.827563 -2.508973 -0.277656 -0.942486 0.000000 0.000000
    30 0.000001 -1.292971 0.000000 -0.287992 0.000000 0.000000
    31 0.000000 -0.752466 0.000000 -0.445059 0.000000 0.000000
    32 0.444212 -2.561960 -0.277655 -1.081578 -0.046226 -0.024599
    33 0.021022 -1.208186 0.000000 -0.427606 0.000000 0.000000
    34 0.010597 -0.741867 0.000000 -0.453786 0.000000 0.000000
    35 1.047444 -2.222821 -0.277655 -1.019692 -0.066950 -0.041090
    36 0.000000 -0.996223 -0.000001 -0.584716 0.000000 0.000000
    37 -0.000002 -0.614690 0.000000 -0.523599 0.000000 0.000000
    38 -0.308254 -0.007814 0.307166 -0.318048 -0.539821 -2.424630
    39 1.978378 0.019543 0.000000 -0.000002 -0.000010 0.549775
    40 0.982427 0.003186 0.000000 0.000000 0.000000 0.593399
  time 9
    0 6.606519 2.028902 -7.912801 -1.026726 -1.203931 0.833516
    1 0.000000 -8.563284 0.000000 0.391524 -0.059940 0.096336
    2 0.022535 -3.459973 0.747359 -1.452340 1.442002 -1.446094
    3 -0.000001 2.373979 0.699475 0.000000 0.000000 0.000000
    4 -0.000001 -0.931791 1.710478 0.000000 0.000000 0.000000
    5 0.000000 -1.759287 0.975027 0.000000 0.000000 0.000000
    6 -0.000966 -2.992972 0.968136 0.131076 -0.001806 -0.009717
    7 -0.003480 -0.404829 0.000000 0.000000 0.000000 0.000000
    8 -0.519308 -2.501155 -0.278957 -1.003564 0.000000 -0.122173
    9 -0.010598 -1.208184 0.000001 -1.090831 0.000000 0.000000
    10 0.000000 -0.763066 0.000000 -1.343903 0.000000 0.000000
    11 0.105982 -2.607134 -0.278957 -0.890118 0.000000 -0.148353
    12 0.000000 -1.250580 0.000000 -1.213004 0.000000 0.000000
    13 0.000000 -0.932634 0.000001 -1.483530 0.000000 0.000000
    14 0.763064 -2.490556 -0.278957 -0.349065 0.000000 0.130900
    15 -0.012321 -1.280916 0.000000 -0.750475 0.000000 0.000000
    16 -0.001697 -0.749371 0.000001 -1.143169 0.000000 0.000000
    17 0.354567 0.016268 0.318133 0.342077 -0.443527 -1.083976
    18 1.887166 0.012877 0.000000 -0.305433 0.000000 -0.401426
    19 1.001874 -0.000270 0.000000 0.000000 0.000000 -0.488692
    20 -1.123358 -2.195092 -0.278957 -0.933751 0.000000 -0.087266
    21 0.010773 -0.963791 0.000000 -0.610865 0.000000 0.000000
    22 -0.010412 -0.631916 0.000000 -1.213004 0.000000 0.000000
    23 -0.831569 -1.388476 -10.229121 -0.392953 0.117814 0.573988
    24 0.089929 -8.543163 -0.000001 0.096399 -0.044235 0.507227
    25 0.000000 -0.359713 0.000000 0.000000 0.000000 0.000000
    26 -0.170480 -2.636147 -0.277655 -0.820345 0.000000 0.000000
    27 0.010599 -1.261177 0.000000 -0.584683 0.000000 0.000000
    28 -0.000001 -0.943233 0.000000 -0.532326 0.000000 0.000000
    29 -0.827563 -2.508973 -0.277656 -0.942486 0.000000 0.000000
    30 0.000001 -1.292971 0.000000 -0.287992 0.000000 0.000000
    31 0.000000 -0.752466 0.000000 -0.445059 0.000000 0.000000
    32 0.444212 -2.561960 -0.277655 -1.081578 -0.046226 -0.024599
    33 0.021022 -1.208186 0.000000 -0.427606 0.000000 0.000000
    34 0.010597 -0.741867 0.000000 -0.453786 0.000000 0.000000
    35 1.047444 -2.222821 -0.277655 -1.019692 -0.066950 -0.041090
    36 0.000000 -0.996223 -0.000001 -0.584716 0.000000 0.000000
    37 -0.000002 -0.614690 0.000000 -0.523599 0.000000 0.000000
    38 -0.308254 -0.007814 0.307166 -0.318048 -0.539821 -2.424630
    39 1.978378 0.019543 0.000000 -0.000002 -0.000010 0.549775
    40 0.982427 0.003186 0.000000 0.000000 0.000000 0.593399
  time 10
    0 6.606519 2.095311 -7.955771 -1.013524 -1.213598 0.818676
    1 0.000000 -8.563284 0.000000 0.388563 -0.053409 0.030001
    2 0.022535 -3.459973 0.747359 -1.452340 1.442002 -1.446094
    3 -0.000001 2.373979 0.699475 0.000000 0.000000 0.000000
    4 -0.000001 -0.931791 1.710478 0.000000 0.000000 0.000000
    5 0.000000 -1.759287 0.975027 0.000000 0.000000 0.000000
    6 -0.000966 -2.992972 0.968136 0.131076 -0.001806 -0.009717
    7 -0.003480 -0.404829 0.000000 0.000000 0.000000 0.000000
    8 -0.519308 -2.501155 -0.278957 -1.003564 0.000000 -0.122173
    9 -0.010598 -1.208184 0.000001 -1.090831 0.000000 0.000000
    10 0.000000 -0.763066 0.000000 -1.343903 0.000000 0.000000
    11 0.105982 -2.607134 -0.278957 -0.890118 0.000000 -0.148353
    12 0.000000 -1.250580 0.000000 -1.213004 0.000000 0.000000
    13 0.000000 -0.932634 0.000001 -1.483530 0.000000 0.000000
    14 0.763064 -2.490556 -0.278957 -0.349065 0.000000 0.130900
    15 -0.012321 -1.280916 0.000000 -0.734548 0.000000 0.000000
    16 -0.001697 -0.749371 0.000001 -1.122673 0.000000 0.000000
    17 0.354567 0.016268 0.318133 0.342077 -0.443527 -1.083976
    18 1.887166 0.012877 0.000000 -0.305433 0.000000 -0.401426
    19 1.001874 -0.000270 0.000000 0.000000 0.000000 -0.488692
    20 -1.123358 -2.195092 -0.278957 -0.933751 0.000000 -0.087266
    21 0.010773 -0.963791 0.000000 -0.610865 0.000000 0.000000
    22 -0.010412 -0.631916 0.000000 -1.213004 0.000000 0.000000
    23 -0.855007 -1.302536 -10.440065 -0.392451 0.114848 0.574683
    24 0.089929 -8.543163 -0.000001 0.118511 -0.072301 0.504063
    25 0.000000 -0.359713 0.000000 0.000000 0.000000 0.000000
    26 -0.170480 -2.636147 -0.277655 -0.820345 0.000000 0.000000
    27 0.010599 -1.261177 0.000000 -0.584683 0.000000 0.000000
    28 -0.000001 -0.943233 0.000000 -0.532326 0.000000 0.000000
    29 -0.827563 -2.508973 -0.277656 -0.942486 0.000000 0.000000
    30 0.000001 -1.292971 0.000000 -0.287992 0.000000 0.000000
    31 0.000000 -0.752466 0.000000 -0.445059 0.000000 0.000000
    32 0.444212 -2.561960 -0.277655 -1.081578 -0.046226 -0.024599
    33 0.021022 -1.208186 0.000000 -0.427606 0.000000 0.000000
    34 0.010597 -0.741867 0.000000 -0.453786 0.000000 0.000000
    35 1.047444 -2.222821 -0.277655 -1.019692 -0.066950 -0.041090
    36 0.000000 -0.996223 -0.000001 -0.584716 0.000000 0.000000
    37 -0.000002 -0.614690 0.000000 -0.523599 0.000000 0.000000
    38 -0.308254 -0.007814 0.307166 -0.318048 -0.539821 -2.424630
    39 1.978378 0.019543 0.000000 -0.000002 -0.000010 0.549775
    40 0.982427 0.003186 0.000000 0.000000 0.000000 0.593399
  time 11
    0 6.606519 2.044528 -7.940146 -0.996345 -1.225402 0.799541
    1 0.000000 -8.563284 0.000000 0.384302 -0.047093 -0.046463
    2 0.022535 -3.459973 0.747359 -1.452340 1.442002 -1.446094
    3 -0.000001 2.373979 0.699475 0.000000 0.000000 0.000000
    4 -0.000001 -0.931791 1.710478 0.000000 0.000000 0.000000
    5 0.000000 -1.759287 0.975027 0.000000 0.000000 0.000000
    6 -0.000966 -2.992972 0.968136 0.131076 -0.001806 -0.009717
    7 -0.003480 -0.404829 0.000000 0.000000 0.000000 0.000000
    8 -0.519308 -2.501155 -0.278957 -1.003564 0.000000 -0.122173
    9 -0.010598 -1.208184 0.000001 -1.090831 0.000000 0.000000
    10 0.000000 -0.763066 0.000000 -1.343903 0.000000 0.000000
    11 0.105982 -2.607134 -0.278957 -0.890118 0.000000 -0.148353
    12 0.000000 -1.250580 0.000000 -1.213004 0.000000 0.000000
    13 0.000000 -0.932634 0.000001 -1.483530 0.000000 0.000000
    14 0.763064 -2.490556 -0.278957 -0.349065 0.000000 0.130900
    15 -0.012321 -1.280916 0.000000 -0.716378 0.000000 0.000000
    16 -0.001697 -0.749371 0.000001 -1.099347 0.000000 0.000000
    17 0.354567 0.016268 0.318133 0.342077 -0.443527 -1.083976
    18 1.887166 0.012877 0.000000 -0.305433 0.000000 -0.401426
    19 1.001874 -0.000270 0.000000 0.000000 0.000000 -0.488692
    20 -1.123358 -2.195092 -0.278957 -0.933751 0.000000 -0.087266
    21 0.010773 -0.963791 0.000000 -0.610865 0.000000 0.000000
    22 -0.010412 -0.631916 0.000000 -1.213004 0.000000 0.000000
    23 -0.921415 -1.302536 -10.654915 -0.391766 0.110831 0.575725
    24 0.089929 -8.543163 -0.000001 0.146940 -0.105535 0.499493
    25 0.000000 -0.359713 0.000000 0.000000 0.000000 0.000000
    26 -0.170480 -2.636147 -0.277655 -0.820345 0.000000 0.000000
    27 0.010599 -1.261177 0.000000 -0.584683 0.000000 0.000000
    28 -0.000001 -0.943233 0.000000 -0.532326 0.000000 0.000000
    29 -0.827563 -2.508973 -0.277656 -0.942486 0.000000 0.000000
    30 0.000001 -1.292971 0.000000 -0.287992 0.000000 0.000000
    31 0.000000 -0.752466 0.000000 -0.445059 0.000000 0.000000
    32 0.444212 -2.561960 -0.277655 -1.081578 -0.046226 -0.024599
    33 0.021022 -1.208186 0.000000 -0.427606 0.000000 0.000000
    34 0.010597 -0.741867 0.000000 -0.453786 0.000000 0.000000
    35 1.047444 -2.222821 -0.277655 -1.019692 -0.066950 -0.041090
    36 0.000000 -0.996223 -0.000001 -0.584716 0.000000 0.000000
    37 -0.000002 -0.614690 0.000000 -0.523599 0.000000 0.000000
    38 -0.308254 -0.007814 0.307166 -0.318048 -0.539821 -2.424630
    39 1.978378 0.019543 0.000000 -0.000002 -0.000010 0.549775
    40 0.982427 0.003186 0.000000 0.000000 0.000000 0.593399
  time 12
    0 6.606519 1.907805 -7.877644 -0.975244 -1.238871 0.776266
    1 0.000000 -8.563284 0.000000 0.379368 -0.042263 -0.120933
    2 0.022535 -3.459973 0.747359 -1.452340 1.442002 -1.446094
    3 -0.000001 2.373979 0.699475 0.000000 0.000000 0.000000
    4 -0.000001 -0.931791 1.710478 0.000000 0.000000 0.000000
    5 0.000000 -1.759287 0.975027 0.000000 0.000000 0.000000
    6 -0.000966 -2.992972 0.968136 0.131076 -0.001806 -0.009717
    7 -0.003480 -0.404829 0.000000 0.000000 0.000000 0.000000
    8 -0.519308 -2.501155 -0.278957 -1.003564 0.000000 -0.122173
    9 -0.010598 -1.208184 0.000001 -1.090831 0.000000 0.000000
    10 0.000000 -0.763066 0.000000 -1.343903 0.000000 0.000000
    11 0.105982 -2.607134 -0.278957 -0.890118 0.000000 -0.148353
    12 0.000000 -1.250580 0.000000 -1.213004 0.000000 0.000000
    13 0.000000 -0.932634 0.000001 -1.483530 0.000000 0.000000
    14 0.763064 -2.490556 -0.278957 -0.349065 0.000000 0.130900
    15 -0.012321 -1.280916 0.000000 -0.696185 0.000000 0.000000
    16 -0.001697 -0.749371 0.000001 -1.073367 0.000000 0.000000
    17 0.354567 0.016268 0.318133 0.342077 -0.443527 -1.083976
    18 1.887166 0.012877 0.000000 -0.305433 0.000000 -0.401426
    19 1.001874 -0.000270 0.000000 0.000000 0.000000 -0.488692
    20 -1.123358 -2.195092 -0.278957 -0.933751 0.000000 -0.087266
    21 0.010773 -0.963791 0.000000 -0.610865 0.000000 0.000000
    22 -0.010412 -0.631916 0.000000 -1.213004 0.000000 0.000000
    23 -0.987824 -1.345506 -10.834608 -0.390990 0.105856 0.576906
    24 0.089929 -8.543163 -0.000001 0.179453 -0.142010 0.493282
    25 0.000000 -0.359713 0.000000 0.000000 0.000000 0.000000
    26 -0.170480 -2.636147 -0.277655 -0.820345 0.000000 0.000000
    27 0.010599 -1.261177 0.000000 -0.584683 0.000000 0.000000
    28 -0.000001 -0.943233 0.000000 -0.532326 0.000000 0.000000
    29 -0.827563 -2.508973 -0.277656 -0.942486 0.000000 0.000000
    30 0.000001 -1.292971 0.000000 -0.287992 0.000000 0.000000
    31 0.000000 -0.752466 0.000000 -0.445059 0.000000 0.000000
    32 0.444212 -2.561960 -0.277655 -1.081578 -0.046226 -0.024599
    33 0.021022 -1.208186 0.000000 -0.427606 0.000000 0.000000
    34 0.010597 -0.741867 0.000000 -0.453786 0.000000 0.000000
    35 1.047444 -2.222821 -0.277655 -1.019692 -0.066950 -0.041090
    36 0.000000 -0.996223 -0.000001 -0.584716 0.000000 0.000000
    37 -0.000002 -0.614690 0.000000 -0.523599 0.000000 0.000000
    38 -0.308254 -0.007814 0.307166 -0.318048 -0.539821 -2.424630
    39 1.978378 0.019543 0.000000 -0.000002 -0.000010 0.549775
    40 0.982427 0.003186 0.000000 0.000000 0.000000 0.593399
  time 13
    0 6.606519 1.700767 -7.779985 -0.950055 -1.253499 0.748773
    1 0.000000 -8.563284 0.000000 0.374662 -0.039950 -0.181213
    2 0.022535 -3.459973 0.747359 -1.452340 1.442002 -1.446094
    3 -0.000001 2.373979 0.699475 0.000000 0.000000 0.000000
    4 -0.000001 -0.931791 1.710478 0.000000 0.000000 0.000000
    5 0.000000 -1.759287 0.975027 0.000000 0.000000 0.000000
    6 -0.000966 -2.992972 0.968136 0.131076 -0.001806 -0.009717
    7 -0.003480 -0.404829 0.000000 0.000000 0.000000 0.000000
    8 -0.519308 -2.501155 -0.278957 -1.003564 0.000000 -0.122173
    9 -0.010598 -1.208184 0.000001 -1.090831 0.000000 0.000000
    10 0.000000 -0.763066 0.000000 -1.343903 0.000000 0.000000
    11 0.105982 -2.607134 -0.278957 -0.890118 0.000000 -0.148353
    12 0.000000 -1.250580 0.000000 -1.213004 0.000000 0.000000
    13 0.000000 -0.932634 0.000001 -1.483530 0.000000 0.000000
    14 0.763064 -2.490556 -0.278957 -0.349065 0.000000 0.130900
    15 -0.012321 -1.280916 0.000000 -0.674220 0.000000 0.000000
    16 -0.001697 -0.749371 0.000001 -1.045108 0.000000 0.000000
    17 0.354567 0.016268 0.318133 0.342077 -0.443527 -1.083976
    18 1.887166 0.012877 0.000000 -0.305433 0.000000 -0.401426
    19 1.001874 -0.000270 0.000000 0.000000 0.000000 -0.488692
    20 -1.123358 -2.195092 -0.278957 -0.933751 0.000000 -0.087266
    21 0.010773 -0.963791 0.000000 -0.610865 0.000000 0.000000
    22 -0.010412 -0.631916 0.000000 -1.213004 0.000000 0.000000
    23 -1.054232 -1.454884 -10.955706 -0.390032 0.100117 0.578295
    24 0.089929 -8.543163 -0.000001 0.213853 -0.179834 0.485407
    25 0.000000 -0.359713 0.000000 0.000000 0.000000 0.000000
    26 -0.170480 -2.636147 -0.277655 -0.820345 0.000000 0.000000
    27 0.010599 -1.261177 0.000000 -0.584683 0.000000 0.000000
    28 -0.000001 -0.943233 0.000000 -0.532326 0.000000 0.000000
    29 -0.827563 -2.508973 -0.277656 -0.942486 0.000000 0.000000
    30 0.000001 -1.292971 0.000000 -0.287992 0.000000 0.000000
    31 0.000000 -0.752466 0.000000 -0.445059 0.000000 0.000000
    32 0.444212 -2.561960 -0.277655 -1.081578 -0.046226 -0.024599
    33 0.021022 -1.208186 0.000000 -0.427606 0.000000 0.000000
    34 0.010597 -0.741867 0.000000 -0.453786 0.000000 0.000000
    35 1.047444 -2.222821 -0.277655 -1.019692 -0.066950 -0.041090
    36 0.000000 -0.996223 -0.000001 -0.584716 0.000000 0.000000
    37 -0.000002 -0.614690 0.000000 -0.523599 0.000000 0.000000
    38 -0.308254 -0.007814 0.307166 -0.318048 -0.539821 -2.424630
    39 1.978378 0.019543 0.000000 -0.000002 -0.000010 0.549775
    40 0.982427 0.003186 0.000000 0.000000 0.000000 0.593399
  time 14
    0 6.606519 1.446853 -7.654981 -0.920779 -1.268670 0.717141
    1 0.000000 -8.563284 0.000000 0.371147 -0.040969 -0.215179
    2 0.022535 -3.459973 0.747359 -1.452340 1.442002 -1.446094
    3 -0.000001 2.373979 0.699475 0.000000 0.000000 0.000000
    4 -0.000001 -0.931791 1.710478 0.000000 0.000000 0.000000
    5 0.000000 -1.759287 0.975027 0.000000 0.000000 0.000000
    6 -0.000966 -2.992972 0.968136 0.131076 -0.001806 -0.009717
    7 -0.003480 -0.404829 0.000000 0.000000 0.000000 0.000000
    8 -0.519308 -2.501155 -0.278957 -1.003564 0.000000 -0.122173
    9 -0.010598 -1.208184 0.000001 -1.090831 0.000000 0.000000
    10 0.000000 -0.763066 0.000000 -1.343903 0.000000 0.000000
    11 0.105982 -2.607134 -0.278957 -0.890118 0.000000 -0.148353
    12 0.000000 -1.250580 0.000000 -1.213004 0.000000 0.000000
    13 0.000000 -0.932634 0.000001 -1.483530 0.000000 0.000000
    14 0.763064 -2.490556 -0.278957 -0.349065 0.000000 0.130900
    15 -0.012321 -1.280916 0.000000 -0.650648 0.000000 0.000000
    16 -0.001697 -0.749371 0.000001 -1.014820 0.000000 0.000000
    17 0.354567 0.016268 0.318133 0.342077 -0.443527 -1.083976
    18 1.887166 0.012877 0.000000 -0.305433 0.000000 -0.401426
    19 1.001874 -0.000270 0.000000 0.000000 0.000000 -0.488692
    20 -1.123358 -2.195092 -0.278957 -0.933751 0.000000 -0.087266
    21 0.010773 -0.963791 0.000000 -0.610865 0.000000 0.000000
    22 -0.010412 -0.631916 0.000000 -1.213004 0.000000 0.000000
    23 -1.136266 -1.646296 -11.029927 -0.389028 0.093708 0.579893
    24 0.089929 -8.543163 -0.000001 0.247791 -0.217127 0.476126
    25 0.000000 -0.359713 0.000000 0.000000 0.000000 0.000000
    26 -0.170480 -2.636147 -0.277655 -0.820345 0.000000 0.000000
    27 0.010599 -1.261177 0.000000 -0.584683 0.000000 0.000000
    28 -0.000001 -0.943233 0.000000 -0.532326 0.000000 0.000000
    29 -0.827563 -2.508973 -0.277656 -0.942486 0.000000 0.000000
    30 0.000001 -1.292971 0.000000 -0.287992 0.000000 0.000000
    31 0.000000 -0.752466 0.000000 -0.445059 0.000000 0.000000
    32 0.444212 -2.561960 -0.277655 -1.081578 -0.046226 -0.024599
    33 0.021022 -1.208186 0.000000 -0.427606 0.000000 0.000000
    34 0.010597 -0.741867 0.000000 -0.453786 0.000000 0.000000
    35 1.047444 -2.222821 -0.277655 -1.019692 -0.066950 -0.041090
    36 0.000000 -0.996223 -0.000001 -0.584716 0.000000 0.000000
    37 -0.000002 -0.614690 0.000000 -0.523599 0.000000 0.000000
    38 -0.308254 -0.007814 0.307166 -0.318048 -0.539821 -2.424630
    39 1.978378 0.019543 0.000000 -0.000002 -0.000010 0.549775
    40 0.982427 0.003186 0.000000 0.000000 0.000000 0.593399
  time 15
    0 6.606519 1.173408 -7.522164 -0.887636 -1.283913 0.681526
    1 0.000000 -8.563284 0.000000 0.368704 -0.044480 -0.228639
    2 0.022535 -3.459973 0.747359 -1.452340 1.442002 -1.446094
    3 -0.000001 2.373979 0.699475 0.000000 0.000000 0.000000
    4 -0.000001 -0.931791 1.710478 0.000000 0.000000 0.000000
    5 0.000000 -1.759287 0.975027 0.000000 0.000000 0.000000
    6 -0.000966 -2.992972 0.968136 0.131076 -0.001806 -0.009717
    7 -0.003480 -0.404829 0.000000 0.000000 0.000000 0.000000
    8 -0.519308 -2.501155 -0.278957 -1.003564 0.000000 -0.122173
    9 -0.010598 -1.208184 0.000001 -1.090831 0.000000 0.000000
    10 0.000000 -0.763066 0.000000 -1.343903 0.000000 0.000000
    11 0.105982 -2.607134 -0.278957 -0.890118 0.000000 -0.148353
    12 0.000000 -1.250580 0.000000 -1.213004 0.000000 0.000000
    13 0.000000 -0.932634 0.000001 -1.483530 0.000000 0.000000
    14 0.763064 -2.490556 -0.278957 -0.349065 0.000000 0.130900
    15 -0.012321 -1.280916 0.000000 -0.625705 0.000000 0.000000
    16 -0.001697 -0.749371 0.000001 -0.982768 0.000000 0.000000
    17 0.354567 0.016268 0.318133 0.342077 -0.443527 -1.083976
    18 1.887166 0.012877 0.000000 -0.305433 0.000000 -0.401426
    19 1.001874 -0.000270 0.000000 0.000000 0.000000 -0.488692
    20 -1.123358 -2.195092 -0.278957 -0.933751 0.000000 -0.087266
    21 0.010773 -0.963791 0.000000 -0.610865 0.000000 0.000000
    22 -0.010412 -0.631916 0.000000 -1.213004 0.000000 0.000000
    23 -1.218300 -1.884585 -11.072897 -0.387933 0.086725 0.581629
    24 0.089929 -8.543163 -0.000001 0.278878 -0.252062 0.466001
    25 0.000000 -0.359713 0.000000 0.000000 0.000000 0.000000
    26 -0.170480 -2.636147 -0.277655 -0.820345 0.000000 0.000000
    27 0.010599 -1.261177 0.000000 -0.584683 0.000000 0.000000
    28 -0.000001 -0.943233 0.000000 -0.532326 0.000000 0.000000
    29 -0.827563 -2.508973 -0.277656 -0.942486 0.000000 0.000000
    30 0.000001 -1.292971 0.000000 -0.287992 0.000000 0.000000
    31 0.000000 -0.752466 0.000000 -0.445059 0.000000 0.000000
    32 0.444212 -2.561960 -0.277655 -1.081578 -0.046226 -0.024599
    33 0.021022 -1.208186 0.000000 -0.427606 0.000000 0.000000
    34 0.010597 -0.741867 0.000000 -0.453786 0.000000 0.000000
    35 1.047444 -2.222821 -0.277655 -1.019692 -0.066950 -0.041090
    36 0.000000 -0.996223 -0.000001 -0.584716 0.000000 0.000000
    37 -0.000002 -0.614690 0.000000 -0.523599 0.000000 0.000000
    38 -0.308254 -0.007814 0.307166 -0.318048 -0.539821 -2.424630
    39 1.978378 0.019543 0.000000 -0.000002 -0.000010 0.549775
    40 0.982427 0.003186 0.000000 0.000000 0.000000 0.593399
  time 16
    0 6.606519 0.896055 -7.389348 -0.850792 -1.298758 0.642240
    1 0.000000 -8.563284 0.000000 0.366489 -0.049070 -0.236057
    2 0.022535 -3.459973 0.747359 -1.452340 1.442002 -1.446094
    3 -0.000001 2.373979 0.699475 0.000000 0.000000 0.000000
    4 -0.000001 -0.931791 1.710478 0.000000 0.000000 0.000000
    5 0.000000 -1.759287 0.975027 0.000000 0.000000 0.000000
    6 -0.000966 -2.992972 0.968136 0.131076 -0.001806 -0.009717
    7 -0.003480 -0.404829 0.000000 0.000000 0.000000 0.000000
    8 -0.519308 -2.501155 -0.278957 -1.003564 0.000000 -0.122173
    9 -0.010598 -1.208184 0.000001 -1.090831 0.000000 0.000000
    10 0.000000 -0.763066 0.000000 -1.343903 0.000000 0.000000
    11 0.105982 -2.607134 -0.278957 -0.890118 0.000000 -0.148353
    12 0.000000 -1.250580 0.000000 -1.213004 0.000000 0.000000
    13 0.000000 -0.932634 0.000001 -1.483530 0.000000 0.000000
    14 0.763064 -2.490556 -0.278957 -0.349065 0.000000 0.130900
    15 -0.012321 -1.280916 0.000000 -0.599613 0.000000 0.000000
    16 -0.001697 -0.749371 0.000001 -0.949221 0.000000 0.000000
    17 0.354567 0.016268 0.318133 0.342077 -0.443527 -1.083976
    18 1.887166 0.012877 0.000000 -0.305433 0.000000 -0.401426
    19 1.001874 -0.000270 0.000000 0.000000 0.000000 -0.488692
    20 -1.123358 -2.195092 -0.278957 -0.933751 0.000000 -0.087266
    21 0.010773 -0.963791 0.000000 -0.610865 0.000000 0.000000
    22 -0.010412 -0.631916 0.000000 -1.213004 0.000000 0.000000
    23 -1.300333 -2.134592 -11.104148 -0.386792 0.079167 0.583435
    24 0.089929 -8.543163 -0.000001 0.304515 -0.282937 0.455923
    25 0.000000 -0.359713 0.000000 0.000000 0.000000 0.000000
    26 -0.170480 -2.636147 -0.277655 -0.820345 0.000000 0.000000
    27 0.010599 -1.261177 0.000000 -0.584683 0.000000 0.000000
    28 -0.000001 -0.943233 0.000000 -0.532326 0.000000 0.000000
    29 -0.827563 -2.508973 -0.277656 -0.942486 0.000000 0.000000
    30 0.000001 -1.292971 0.000000 -0.287992 0.000000 0.000000
    31 0.000000 -0.752466 0.000000 -0.445059 0.000000 0.000000
    32 0.444212 -2.561960 -0.277655 -1.081578 -0.046226 -0.024599
    33 0.021022 -1.208186 0.000000 -0.427606 0.000000 0.000000
    34 0.010597 -0.741867 0.000000 -0.453786 0.000000 0.000000
    35 1.047444 -2.222821 -0.277655 -1.019692 -0.066950 -0.041090
    36 0.000000 -0.996223 -0.000001 -0.584716 0.000000 0.000000
    37 -0.000002 -0.614690 0.000000 -0.523599 0.000000 0.000000
    38 -0.308254 -0.007814 0.307166 -0.318048 -0.539821 -2.424630
    39 1.978378 0.019543 0.000000 -0.000002 -0.000010 0.549775
    40 0.982427 0.003186 0.000000 0.000000 0.000000 0.593399
  time 17
    0 6.606519 0.642141 -7.264344 -0.811131 -1.312734 0.600298
    1 0.000000 -8.563284 0.000000 0.364455 -0.054559 -0.238298
    2 0.022535 -3.459973 0.747359 -1.452340 1.442002 -1.446094
    3 -0.000001 2.373979 0.699475 0.000000 0.000000 0.000000
    4 -0.000001 -0.931791 1.710478 0.000000 0.000000 0.000000
    5 0.000000 -1.759287 0.975027 0.000000 0.000000 0.000000
    6 -0.000966 -2.992972 0.968136 0.131076 -0.001806 -0.009717
    7 -0.003480 -0.404829 0.000000 0.000000 0.000000 0.000000
    8 -0.519308 -2.501155 -0.278957 -1.003564 0.000000 -0.122173
    9 -0.010598 -1.208184 0.000001 -1.090831 0.000000 0.000000
    10 0.000000 -0.763066 0.000000 -1.343903 0.000000 0.000000
    11 0.105982 -2.607134 -0.278957 -0.890118 0.000000 -0.148353
    12 0.000000 -1.250580 0.000000 -1.213004 0.000000 0.000000
    13 0.000000 -0.932634 0.000001 -1.483530 0.000000 0.000000
    14 0.763064 -2.490556 -0.278957 -0.349065 0.000000 0.130900
    15 -0.012321 -1.280916 0.000000 -0.572593 0.000000 0.000000
    16 -0.001697 -0.749371 0.000001 -0.914445 0.000000 0.000000
    17 0.354567 0.016268 0.318133 0.342077 -0.443527 -1.083976
    18 1.887166 0.012877 0.000000 -0.305433 0.000000 -0.401426
    19 1.001874 -0.000270 0.000000 0.000000 0.000000 -0.488692
    20 -1.123358 -2.195092 -0.278957 -0.933751 0.000000 -0.087266
    21 0.010773 -0.963791 0.000000 -0.610865 0.000000 0.000000
    22 -0.010412 -0.631916 0.000000 -1.213004 0.000000 0.000000
    23 -1.362835 -2.357255 -11.131492 -0.385560 0.071228 0.585311
    24 0.089929 -8.543163 -0.000001 0.322004 -0.308115 0.447063
    25 0.000000 -0.359713 0.000000 0.000000 0.000000 0.000000
    26 -0.170480 -2.636147 -0.277655 -0.820345 0.000000 0.000000
    27 0.010599 -1.261177 0.000000 -0.584683 0.000000 0.000000
    28 -0.000001 -0.943233 0.000000 -0.532326 0.000000 0.000000
    29 -0.827563 -2.508973 -0.277656 -0.942486 0.000000 0.000000
    30 0.000001 -1.292971 0.000000 -0.287992 0.000000 0.000000
    31 0.000000 -0.752466 0.000000 -0.445059 0.000000 0.000000
    32 0.444212 -2.561960 -0.277655 -1.081578 -0.046226 -0.024599
    33 0.021022 -1.208186 0.000000 -0.427606 0.000000 0.000000
    34 0.010597 -0.741867 0.000000 -0.453786 0.000000 0.000000
    35 1.047444 -2.222821 -0.277655 -1.019692 -0.066950 -0.041090
    36 0.000000 -0.996223 -0.000001 -0.584716 0.000000 0.000000
    37 -0.000002 -0.614690 0.000000 -0.523599 0.000000 0.000000
    38 -0.308254 -0.007814 0.307166 -0.318048 -0.539821 -2.424630
    39 1.978378 0.019543 0.000000 -0.000002 -0.000010 0.549775
    40 0.982427 0.003186 0.000000 0.000000 0.000000 0.593399
  time 18
    0 6.606519 0.431197 -7.162778 -0.769978 -1.325479 0.556795
    1 0.000000 -8.563284 0.000000 0.362542 -0.060791 -0.236218
    2 0.022535 -3.459973 0.747359 -1.452340 1.442002 -1.446094
    3 -0.000001 2.373979 0.699475 0.000000 0.000000 0.000000
    4 -0.000001 -0.931791 1.710478 0.000000 0.000000 0.000000
    5 0.000000 -1.759287 0.975027 0.000000 0.000000 0.000000
    6 -0.000966 -2.992972 0.968136 0.131076 -0.001806 -0.009717
    7 -0.003480 -0.404829 0.000000 0.000000 0.000000 0.000000
    8 -0.519308 -2.501155 -0.278957 -1.003564 0.000000 -0.122173
    9 -0.010598 -1.208184 0.000001 -1.090831 0.000000 0.000000
    10 0.000000 -0.763066 0.000000 -1.343903 0.000000 0.000000
    11 0.105982 -2.607134 -0.278957 -0.890118 0.000000 -0.148353
    12 0.000000 -1.250580 0.000000 -1.213004 0.000000 0.000000
    13 0.000000 -0.932634 0.000001 -1.483530 0.000000 0.000000
    14 0.763064 -2.490556 -0.278957 -0.349065 0.000000 0.130900
    15 -0.012321 -1.280916 0.000000 -0.544838 0.000000 0.000000
    16 -0.001697 -0.749371 0.000001 -0.878778 0.000000 0.000000
    17 0.354567 0.016268 0.318133 0.342077 -0.443527 -1.083976
    18 1.887166 0.012877 0.000000 -0.305433 0.000000 -0.401426
    19 1.001874 -0.000270 0.000000 0.000000 0.000000 -0.488692
    20 -1.123358 -2.195092 -0.278957 -0.933751 0.000000 -0.087266
    21 0.010773 -0.963791 0.000000 -0.610865 0.000000 0.000000
    22 -0.010412 -0.631916 0.000000 -1.213004 0.000000 0.000000
    23 -1.405805 -2.513510 -11.178369 -0.384282 0.063097 0.587326
    24 0.089929 -8.543163 -0.000001 0.328514 -0.326008 0.440547
    25 0.000000 -0.359713 0.000000 0.000000 0.000000 0.000000
    26 -0.170480 -2.636147 -0.277655 -0.820345 0.000000 0.000000
    27 0.010599 -1.261177 0.000000 -0.584683 0.000000 0.000000
    28 -0.000001 -0.943233 0.000000 -0.532326 0.000000 0.000000
    29 -0.827563 -2.508973 -0.277656 -0.942486 0.000000 0.000000
    30 0.000001 -1.292971 0.000000 -0.287992 0.000000 0.000000
    31 0.000000 -0.752466 0.000000 -0.445059 0.000000 0.000000
    32 0.444212 -2.561960 -0.277655 -1.081578 -0.046226 -0.024599
    33 0.021022 -1.208186 0.000000 -0.427606 0.000000 0.000000
    34 0.010597 -0.741867 0.000000 -0.453786 0.000000 0.000000
    35 1.047444 -2.222821 -0.277655 -1.019692 -0.066950 -0.041090
    36 0.000000 -0.996223 -0.000001 -0.584716 0.000000 0.000000
    37 -0.000002 -0.614690 0.000000 -0.523599 0.000000 0.000000
    38 -0.308254 -0.007814 0.307166 -0.318048 -0.539821 -2.424630
    39 1.978378 0.019543 0.000000 -0.000002 -0.000010 0.549775
    40 0.982427 0.003186 0.000000 0.000000 0.000000 0.593399
  time 19
    0 6.606519 0.286662 -7.096370 -0.728881 -1.336450 0.513682
    1 0.000000 -8.563284 0.000000 0.360676 -0.067599 -0.230658
    2 0.022535 -3.459973 0.747359 -1.452340 1.442002 -1.446094
    3 -0.000001 2.373979 0.699475 0.000000 0.000000 0.000000
    4 -0.000001 -0.931791 1.710478 0.000000 0.000000 0.000000
    5 0.000000 -1.759287 0.975027 0.000000 0.000000 0.000000
    6 -0.000966 -2.992972 0.968136 0.131076 -0.001806 -0.009717
    7 -0.003480 -0.404829 0.000000 0.000000 0.000000 0.000000
    8 -0.519308 -2.501155 -0.278957 -1.003564 0.000000 -0.122173
    9 -0.010598 -1.208184 0.000001 -1.090831 0.000000 0.000000
    10 0.000000 -0.763066 0.000000 -1.343903 0.000000 0.000000
    11 0.105982 -2.607134 -0.278957 -0.890118 0.000000 -0.148353
    12 0.000000 -1.250580 0.000000 -1.213004 0.000000 0.000000
    13 0.000000 -0.932634 0.000001 -1.483530 0.000000 0.000000
    14 0.763064 -2.490556 -0.278957 -0.349065 0.000000 0.130900
    15 -0.012321 -1.280916 0.000000 -0.516585 0.000000 0.000000
    16 -0.001697 -0.749371 0.000001 -0.842471 0.000000 0.000000
    17 0.354567 0.016268 0.318133 0.342077 -0.443527 -1.083976
    18 1.887166 0.012877 0.000000 -0.305433 0.000000 -0.401426
    19 1.001874 -0.000270 0.000000 0.000000 0.000000 -0.488692
    20 -1.123358 -2.195092 -0.278957 -0.933751 0.000000 -0.087266
    21 0.010773 -0.963791 0.000000 -0.610865 0.000000 0.000000
    22 -0.010412 -0.631916 0.000000 -1.213004 0.000000 0.000000
    23 -1.429243 -2.611169 -11.252590 -0.383050 0.054774 0.589340
    24 0.089929 -8.543163 -0.000001 0.321195 -0.335395 0.437407
    25 0.000000 -0.359713 0.000000 0.000000 0.000000 0.000000
    26 -0.170480 -2.636147 -0.277655 -0.820345 0.000000 0.000000
    27 0.010599 -1.261177 0.000000 -0.584683 0.000000 0.000000
    28 -0.000001 -0.943233 0.000000 -0.532326 0.000000 0.000000
    29 -0.827563 -2.508973 -0.277656 -0.942486 0.000000 0.000000
    30 0.000001 -1.292971 0.000000 -0.287992 0.000000 0.000000
    31 0.000000 -0.752466 0.000000 -0.445059 0.000000 0.000000
    32 0.444212 -2.561960 -0.277655 -1.081578 -0.046226 -0.024599
    33 0.021022 -1.208186 0.000000 -0.427606 0.000000 0.000000
    34 0.010597 -0.741867 0.000000 -0.453786 0.000000 0.000000
    35 1.047444 -2.222821 -0.277655 -1.019692 -0.066950 -0.041090
    36 0.000000 -0.996223 -0.000001 -0.584716 0.000000 0.000000
    37 -0.000002 -0.614690 0.000000 -0.523599 0.000000 0.000000
    38 -0.308254 -0.007814 0.307166 -0.318048 -0.539821 -2.424630
    39 1.978378 0.019543 0.000000 -0.000002 -0.000010 0.549775
    40 0.982427 0.003186 0.000000 0.000000 0.000000 0.593399
  time 20
    0 6.606519 0.169471 -7.049494 -0.690491 -1.345683 0.473536
    1 0.000000 -8.563284 0.000000 0.358835 -0.074825 -0.222522
    2 0.022535 -3.459973 0.747359 -1.452340 1.442002 -1.446094
    3 -0.000001 2.373979 0.699475 0.000000 0.000000 0.000000
    4 -0.000001 -0.931791 1.710478 0.000000 0.000000 0.000000
    5 0.000000 -1.759287 0.975027 0.000000 0.000000 0.000000
    6 -0.000966 -2.992972 0.968136 0.131076 -0.001806 -0.009717
    7 -0.003480 -0.404829 0.000000 0.000000 0.000000 0.000000
    8 -0.519308 -2.501155 -0.278957 -1.003564 0.000000 -0.122173
    9 -0.010598 -1.208184 0.000001 -1.090831 0.000000 0.000000
    10 0.000000 -0.763066 0.000000 -1.343903 0.000000 0.000000
    11 0.105982 -2.607134 -0.278957 -0.890118 0.000000 -0.148353
    12 0.000000 -1.250580 0.000000 -1.213004 0.000000 0.000000
    13 0.000000 -0.932634 0.000001 -1.483530 0.000000 0.000000
    14 0.763064 -2.490556 -0.278957 -0.349065 0.000000 0.130900
    15 -0.012321 -1.280916 0.000000 -0.488056 0.000000 0.000000
    16 -0.001697 -0.749371 0.000001 -0.805772 0.000000 0.000000
    17 0.354567 0.016268 0.318133 0.342077 -0.443527 -1.083976
    18 1.887166 0.012877 0.000000 -0.305433 0.000000 -0.401426
    19 1.001874 -0.000270 0.000000 0.000000 0.000000 -0.488692
    20 -1.123358 -2.195092 -0.278957 -0.933751 0.000000 -0.087266
    21 0.010773 -0.963791 0.000000 -0.610865 0.000000 0.000000
    22 -0.010412 -0.631916 0.000000 -1.213004 0.000000 0.000000
    23 -1.437056 -2.677577 -11.330717 -0.381773 0.046261 0.591285
    24 0.089929 -8.543163 -0.000001 0.301086 -0.337225 0.437360
    25 0.000000 -0.359713 0.000000 0.000000 0.000000 0.000000
    26 -0.170480 -2.636147 -0.277655 -0.820345 0.000000 0.000000
    27 0.010599 -1.261177 0.000000 -0.584683 0.000000 0.000000
    28 -0.000001 -0.943233 0.000000 -0.532326 0.000000 0.000000
    29 -0.827563 -2.508973 -0.277656 -0.942486 0.000000 0.000000
    30 0.000001 -1.292971 0.000000 -0.287992 0.000000 0.000000
    31 0.000000 -0.752466 0.000000 -0.445059 0.000000 0.000000
    32 0.444212 -2.561960 -0.277655 -1.081578 -0.046226 -0.024599
    33 0.021022 -1.208186 0.000000 -0.427606 0.000000 0.000000
    34 0.010597 -0.741867 0.000000 -0.453786 0.000000 0.000000
    35 1.047444 -2.222821 -0.277655 -1.019692 -0.066950 -0.041090
    36 0.000000 -0.996223 -0.000001 -0.584716 0.000000 0.000000
    37 -0.000002 -0.614690 0.000000 -0.523599 0.000000 0.000000
    38 -0.308254 -0.007814 0.307166 -0.318048 -0.539821 -2.424630
    39 1.978378 0.019543 0.000000 -0.000002 -0.000010 0.549775
    40 0.982427 0.003186 0.000000 0.000000 0.000000 0.593399
  time 21
    0 6.606519 0.048373 -6.998711 -0.657789 -1.352707 0.439327
    1 0.000000 -8.563284 0.000000 0.356945 -0.082328 -0.212641
    2 0.022535 -3.459973 0.747359 -1.452340 1.442002 -1.446094
    3 -0.000001 2.373979 0.699475 0.000000 0.000000 0.000000
    4 -0.000001 -0.931791 1.710478 0.000000 0.000000 0.000000
    5 0.000000 -1.759287 0.975027 0.000000 0.000000 0.000000
    6 -0.000966 -2.992972 0.968136 0.131076 -0.001806 -0.009717
    7 -0.003480 -0.404829 0.000000 0.000000 0.000000 0.000000
    8 -0.519308 -2.501155 -0.278957 -1.003564 0.000000 -0.122173
    9 -0.010598 -1.208184 0.000001 -1.090831 0.000000 0.000000
    10 0.000000 -0.763066 0.000000 -1.343903 0.000000 0.000000
    11 0.105982 -2.607134 -0.278957 -0.890118 0.000000 -0.148353
    12 0.000000 -1.250580 0.000000 -1.213004 0.000000 0.000000
    13 0.000000 -0.932634 0.000001 -1.483530 0.000000 0.000000
    14 0.763064 -2.490556 -0.278957 -0.349065 0.000000 0.130900
    15 -0.012321 -1.280916 0.000000 -0.459443 0.000000 0.000000
    16 -0.001697 -0.749371 0.000001 -0.768984 0.000000 0.000000
    17 0.354567 0.016268 0.318133 0.342077 -0.443527 -1.083976
    18 1.887166 0.012877 0.000000 -0.305433 0.000000 -0.401426
    19 1.001874 -0.000270 0.000000 0.000000 0.000000 -0.488692
    20 -1.123358 -2.195092 -0.278957 -0.933751 0.000000 -0.087266
    21 0.010773 -0.963791 0.000000 -0.610865 0.000000 0.000000
    22 -0.010412 -0.631916 0.000000 -1.213004 0.000000 0.000000
    23 -1.425337 -2.736173 -11.365875 -0.380540 0.037843 0.593300
    24 0.089929 -8.543163 -0.000001 0.271174 -0.333165 0.439587
    25 0.000000 -0.359713 0.000000 0.000000 0.000000 0.000000
    26 -0.170480 -2.636147 -0.277655 -0.820345 0.000000 0.000000
    27 0.010599 -1.261177 0.000000 -0.584683 0.000000 0.000000
    28 -0.000001 -0.943233 0.000000 -0.532326 0.000000 0.000000
    29 -0.827563 -2.508973 -0.277656 -0.942486 0.000000 0.000000
    30 0.000001 -1.292971 0.000000 -0.287992 0.000000 0.000000
    31 0.000000 -0.752466 0.000000 -0.445059 0.000000 0.000000
    32 0.444212 -2.561960 -0.277655 -1.081578 -0.046226 -0.024599
    33 0.021022 -1.208186 0.000000 -0.427606 0.000000 0.000000
    34 0.010597 -0.741867 0.000000 -0.453786 0.000000 0.000000
    35 1.047444 -2.222821 -0.277655 -1.019692 -0.066950 -0.041090
    36 0.000000 -0.996223 -0.000001 -0.584716 0.000000 0.000000
    37 -0.000002 -0.614690 0.000000 -0.523599 0.000000 0.000000
    38 -0.308254 -0.007814 0.307166 -0.318048 -0.539821 -2.424630
    39 1.978378 0.019543 0.000000 -0.000002 -0.000010 0.549775
    40 0.982427 0.003186 0.000000 0.000000 0.000000 0.593399
  time 22
    0 6.606519 -0.025848 -6.947928 -0.650001 -1.354409 0.431126
    1 0.000000 -8.563284 0.000000 0.354995 -0.089950 -0.201855
    2 0.022535 -3.459973 0.747359 -1.452340 1.442002 -1.446094
    3 -0.000001 2.373979 0.699475 0.000000 0.000000 0.000000
    4 -0.000001 -0.931791 1.710478 0.000000 0.000000 0.000000
    5 0.000000 -1.759287 0.975027 0.000000 0.000000 0.000000
    6 -0.000966 -2.992972 0.968136 0.131076 -0.001806 -0.009717
    7 -0.003480 -0.404829 0.000000 0.000000 0.000000 0.000000
    8 -0.519308 -2.501155 -0.278957 -1.003564 0.000000 -0.122173
    9 -0.010598 -1.208184 0.000001 -1.090831 0.000000 0.000000
    10 0.000000 -0.763066 0.000000 -1.343903 0.000000 0.000000
    11 0.105982 -2.607134 -0.278957 -0.890118 0.000000 -0.148353
    12 0.000000 -1.250580 0.000000 -1.213004 0.000000 0.000000
    13 0.000000 -0.932634 0.000001 -1.483530 0.000000 0.000000
    14 0.763064 -2.490556 -0.278957 -0.349065 0.000000 0.130900
    15 -0.012321 -1.280916 0.000000 -0.430982 0.000000 0.000000
    16 -0.001697 -0.749371 0.000001 -0.732374 0.000000 0.000000
    17 0.354567 0.016268 0.318133 0.342077 -0.443527 -1.083976
    18 1.887166 0.012877 0.000000 -0.305433 0.000000 -0.401426
    19 1.001874 -0.000270 0.000000 0.000000 0.000000 -0.488692
    20 -1.123358 -2.195092 -0.278957 -0.933751 0.000000 -0.087266
    21 0.010773 -0.963791 0.000000 -0.610865 0.000000 0.000000
    22 -0.010412 -0.631916 0.000000 -1.213004 0.000000 0.000000
    23 -1.401899 -2.786956 -11.346343 -0.379354 0.029520 0.595245
    24 0.089929 -8.543163 -0.000001 0.234501 -0.324916 0.443102
    25 0.000000 -0.359713 0.000000 0.000000 0.000000 0.000000
    26 -0.170480 -2.636147 -0.277655 -0.820345 0.000000 0.000000
    27 0.010599 -1.261177 0.000000 -0.584683 0.000000 0.000000
    28 -0.000001 -0.943233 0.000000 -0.532326 0.000000 0.000000
    29 -0.827563 -2.508973 -0.277656 -0.942486 0.000000 0.000000
    30 0.000001 -1.292971 0.000000 -0.287992 0.000000 0.000000
    31 0.000000 -0.752466 0.000000 -0.445059 0.000000 0.000000
    32 0.444212 -2.561960 -0.277655 -1.081578 -0.046226 -0.024599
    33 0.021022 -1.208186 0.000000 -0.427606 0.000000 0.000000
    34 0.010597 -0.741867 0.000000 -0.453786 0.000000 0.000000
    35 1.047444 -2.222821 -0.277655 -1.019692 -0.066950 -0.041090
    36 0.000000 -0.996223 -0.000001 -0.584716 0.000000 0.000000
    37 -0.000002 -0.614690 0.000000 -0.523599 0.000000 0.000000
    38 -0.308254 -0.007814 0.307166 -0.318048 -0.539821 -2.424630
    39 1.978378 0.019543 0.000000 -0.000002 -0.000010 0.549775
    40 0.982427 0.003186 0.000000 0.000000 0.000000 0.593399
  time 23
    0 6.606519 -0.045380 -6.889333 -0.660054 -1.353069 0.441201
    1 0.000000 -8.563284 0.000000 0.352949 -0.097560 -0.191058
    2 0.022535 -3.459973 0.747359 -1.452340 1.442002 -1.446094
    3 -0.000001 2.373979 0.699475 0.000000 0.000000 0.000000
    4 -0.000001 -0.931791 1.710478 0.000000 0.000000 0.000000
    5 0.000000 -1.759287 0.975027 0.000000 0.000000 0.000000
    6 -0.000966 -2.992972 0.968136 0.131076 -0.001806 -0.009717
    7 -0.003480 -0.404829 0.000000 0.000000 0.000000 0.000000
    8 -0.519308 -2.501155 -0.278957 -1.003564 0.000000 -0.122173
    9 -0.010598 -1.208184 0.000001 -1.090831 0.000000 0.000000
    10 0.000000 -0.763066 0.000000 -1.343903 0.000000 0.000000
    11 0.105982 -2.607134 -0.278957 -0.890118 0.000000 -0.148353
    12 0.000000 -1.250580 0.000000 -1.213004 0.000000 0.000000
    13 0.000000 -0.932634 0.000001 -1.483530 0.000000 0.000000
    14 0.763064 -2.490556 -0.278957 -0.349065 0.000000 0.130900
    15 -0.012321 -1.280916 0.000000 -0.402868 0.000000 0.000000
    16 -0.001697 -0.749371 0.000001 -0.696244 0.000000 0.000000
    17 0.354567 0.016268 0.318133 0.342077 -0.443527 -1.083976
    18 1.887166 0.012877 0.000000 -0.305433 0.000000 -0.401426
    19 1.001874 -0.000270 0.000000 0.000000 0.000000 -0.488692
    20 -1.123358 -2.195092 -0.278957 -0.933751 0.000000 -0.087266
    21 0.010773 -0.963791 0.000000 -0.610865 0.000000 0.000000
    22 -0.010412 -0.631916 0.000000 -1.213004 0.000000 0.000000
    23 -1.362835 -2.822113 -11.283841 -0.378259 0.021580 0.597120
    24 0.089929 -8.543163 -0.000001 0.194130 -0.314133 0.447016
    25 0.000000 -0.359713 0.000000 0.000000 0.000000 0.000000
    26 -0.170480 -2.636147 -0.277655 -0.820345 0.000000 0.000000
    27 0.010599 -1.261177 0.000000 -0.584683 0.000000 0.000000
    28 -0.000001 -0.943233 0.000000 -0.532326 0.000000 0.000000
    29 -0.827563 -2.508973 -0.277656 -0.942486 0.000000 0.000000
    30 0.000001 -1.292971 0.000000 -0.287992 0.000000 0.000000
    31 0.000000 -0.752466 0.000000 -0.445059 0.000000 0.000000
    32 0.444212 -2.561960 -0.277655 -1.081578 -0.046226 -0.024599
    33 0.021022 -1.208186 0.000000 -0.427606 0.000000 0.000000
    34 0.010597 -0.741867 0.000000 -0.453786 0.000000 0.000000
    35 1.047444 -2.222821 -0.277655 -1.019692 -0.066950 -0.041090
    36 0.000000 -0.996223 -0.000001 -0.584716 0.000000 0.000000
    37 -0.000002 -0.614690 0.000000 -0.523599 0.000000 0.000000
    38 -0.308254 -0.007814 0.307166 -0.318048 -0.539821 -2.424630
    39 1.978378 0.019543 0.000000 -0.000002 -0.000010 0.549775
    40 0.982427 0.003186 0.000000 0.000000 0.000000 0.593399
  time 24
    0 6.606519 -0.018035 -6.826831 -0.695738 -1.346552 0.477910
    1 0.000000 -8.563284 0.000000 0.350831 -0.104990 -0.181102
    2 0.022535 -3.459973 0.747359 -1.452340 1.442002 -1.446094
    3 -0.000001 2.373979 0.699475 0.000000 0.000000 0.000000
    4 -0.000001 -0.931791 1.710478 0.000000 0.000000 0.000000
    5 0.000000 -1.759287 0.975027 0.000000 0.000000 0.000000
    6 -0.000966 -2.992972 0.968136 0.131076 -0.001806 -0.009717
    7 -0.003480 -0.404829 0.000000 0.000000 0.000000 0.000000
    8 -0.519308 -2.501155 -0.278957 -1.003564 0.000000 -0.122173
    9 -0.010598 -1.208184 0.000001 -1.090831 0.000000 0.000000
    10 0.000000 -0.763066 0.000000 -1.343903 0.000000 0.000000
    11 0.105982 -2.607134 -0.278957 -0.890118 0.000000 -0.148353
    12 0.000000 -1.250580 0.000000 -1.213004 0.000000 0.000000
    13 0.000000 -0.932634 0.000001 -1.483530 0.000000 0.000000
    14 0.763064 -2.490556 -0.278957 -0.349065 0.000000 0.130900
    15 -0.012321 -1.280916 0.000000 -0.375349 0.000000 0.000000
    16 -0.001697 -0.749371 0.000001 -0.660863 0.000000 0.000000
    17 0.354567 0.016268 0.318133 0.342077 -0.443527 -1.083976
    18 1.887166 0.012877 0.000000 -0.305433 0.000000 -0.401426
    19 1.001874 -0.000270 0.000000 0.000000 0.000000 -0.488692
    20 -1.123358 -2.195092 -0.278957 -0.933751 0.000000 -0.087266
    21 0.010773 -0.963791 0.000000 -0.610865 0.000000 0.000000
    22 -0.010412 -0.631916 0.000000 -1.213004 0.000000 0.000000
    23 -1.308146 -2.849458 -11.182275 -0.377164 0.013928 0.598857
    24 0.089929 -8.543163 -0.000001 0.153007 -0.302595 0.450649
    25 0.000000 -0.359713 0.000000 0.000000 0.000000 0.000000
    26 -0.170480 -2.636147 -0.277655 -0.820345 0.000000 0.000000
    27 0.010599 -1.261177 0.000000 -0.584683 0.000000 0.000000
    28 -0.000001 -0.943233 0.000000 -0.532326 0.000000 0.000000
    29 -0.827563 -2.508973 -0.277656 -0.942486 0.000000 0.000000
    30 0.000001 -1.292971 0.000000 -0.287992 0.000000 0.000000
    31 0.000000 -0.752466 0.000000 -0.445059 0.000000 0.000000
    32 0.444212 -2.561960 -0.277655 -1.081578 -0.046226 -0.024599
    33 0.021022 -1.208186 0.000000 -0.427606 0.000000 0.000000
    34 0.010597 -0.741867 0.000000 -0.453786 0.000000 0.000000
    35 1.047444 -2.222821 -0.277655 -1.019692 -0.066950 -0.041090
    36 0.000000 -0.996223 -0.000001 -0.584716 0.000000 0.000000
    37 -0.000002 -0.614690 0.000000 -0.523599 0.000000 0.000000
    38 -0.308254 -0.007814 0.307166 -0.318048 -0.539821 -2.424630
    39 1.978378 0.019543 0.000000 -0.000002 -0.000010 0.549775
    40 0.982427 0.003186 0.000000 0.000000 0.000000 0.593399
  time 25
    0 6.606519 0.052280 -6.760422 -0.737664 -1.337826 0.521023
    1 0.000000 -8.563284 0.000000 0.348640 -0.112133 -0.172855
    2 0.022535 -3.459973 0.747359 -1.452340 1.442002 -1.446094
    3 -0.000001 2.373979 0.699475 0.000000 0.000000 0.000000
    4 -0.000001 -0.931791 1.710478 0.000000 0.000000 0.000000
    5 0.000000 -1.759287 0.975027 0.000000 0.000000 0.000000
    6 -0.000966 -2.992972 0.968136 0.131076 -0.001806 -0.009717
    7 -0.003480 -0.404829 0.000000 0.000000 0.000000 0.000000
    8 -0.519308 -2.501155 -0.278957 -1.003564 0.000000 -0.122173
    9 -0.010598 -1.208184 0.000001 -1.090831 0.000000 0.000000
    10 0.000000 -0.763066 0.000000 -1.343903 0.000000 0.000000
    11 0.105982 -2.607134 -0.278957 -0.890118 0.000000 -0.148353
    12 0.000000 -1.250580 0.000000 -1.213004 0.000000 0.000000
    13 0.000000 -0.932634 0.000001 -1.483530 0.000000 0.000000
    14 0.763064 -2.490556 -0.278957 -0.349065 0.000000 0.130900
    15 -0.012321 -1.280916 0.000000 -0.348619 0.000000 0.000000
    16 -0.001697 -0.749371 0.000001 -0.626479 0.000000 0.000000
    17 0.354567 0.016268 0.318133 0.342077 -0.443527 -1.083976
    18 1.887166 0.012877 0.000000 -0.305433 0.000000 -0.401426
    19 1.001874 -0.000270 0.000000 0.000000 0.000000 -0.488692
    20 -1.123358 -2.195092 -0.278957 -0.933751 0.000000 -0.087266
    21 0.010773 -0.963791 0.000000 -0.610865 0.000000 0.000000
    22 -0.010412 -0.631916 0.000000 -1.213004 0.000000 0.000000
    23 -1.233925 -2.861177 -11.037740 -0.376160 0.006658 0.600593
    24 0.089929 -8.543163 -0.000001 0.113965 -0.292164 0.453462
    25 0.000000 -0.359713 0.000000 0.000000 0.000000 0.000000
    26 -0.170480 -2.636147 -0.277655 -0.820345 0.000000 0.000000
    27 0.010599 -1.261177 0.000000 -0.584683 0.000000 0.000000
    28 -0.000001 -0.943233 0.000000 -0.532326 0.000000 0.000000
    29 -0.827563 -2.508973 -0.277656 -0.942486 0.000000 0.000000
    30 0.000001 -1.292971 0.000000 -0.287992 0.000000 0.000000
    31 0.000000 -0.752466 0.000000 -0.445059 0.000000 0.000000
    32 0.444212 -2.561960 -0.277655 -1.081578 -0.046226 -0.024599
    33 0.021022 -1.208186 0.000000 -0.427606 0.000000 0.000000
    34 0.010597 -0.741867 0.000000 -0.453786 0.000000 0.000000
    35 1.047444 -2.222821 -0.277655 -1.019692 -0.066950 -0.041090
    36 0.000000 -0.996223 -0.000001 -0.584716 0.000000 0.000000
    37 -0.000002 -0.614690 0.000000 -0.523599 0.000000 0.000000
    38 -0.308254 -0.007814 0.307166 -0.318048 -0.539821 -2.424630
    39 1.978378 0.019543 0.000000 -0.000002 -0.000010 0.549775
    40 0.982427 0.003186 0.000000 0.000000 0.000000 0.593399
  time 26
    0 6.606519 0.165564 -6.694014 -0.769702 -1.330548 0.554139
    1 0.000000 -8.563284 0.000000 0.346438 -0.118821 -0.167196
    2 0.022535 -3.459973 0.747359 -1.452340 1.442002 -1.446094
    3 -0.000001 2.373979 0.699475 0.000000 0.000000 0.000000
    4 -0.000001 -0.931791 1.710478 0.000000 0.000000 0.000000
    5 0.000000 -1.759287 0.975027 0.000000 0.000000 0.000000
    6 -0.000966 -2.992972 0.968136 0.131076 -0.001806 -0.009717
    7 -0.003480 -0.404829 0.000000 0.000000 0.000000 0.000000
    8 -0.519308 -2.501155 -0.278957 -1.003564 0.000000 -0.122173
    9 -0.010598 -1.208184 0.000001 -1.090831 0.000000 0.000000
    10 0.000000 -0.763066 0.000000 -1.343903 0.000000 0.000000
    11 0.105982 -2.607134 -0.278957 -0.890118 0.000000 -0.148353
    12 0.000000 -1.250580 0.000000 -1.213004 0.000000 0.000000
    13 0.000000 -0.932634 0.000001 -1.483530 0.000000 0.000000
    14 0.763064 -2.490556 -0.278957 -0.349065 0.000000 0.130900
    15 -0.012321 -1.280916 0.000000 -0.322887 0.000000 0.000000
    16 -0.001697 -0.749371 0.000001 -0.593412 0.000000 0.000000
    17 0.354567 0.016268 0.318133 0.342077 -0.443527 -1.083976
    18 1.887166 0.012877 0.000000 -0.305433 0.000000 -0.401426
    19 1.001874 -0.000270 0.000000 0.000000 0.000000 -0.488692
    20 -1.123358 -2.195092 -0.278957 -0.933751 0.000000 -0.087266
    21 0.010773 -0.963791 0.000000 -0.610865 0.000000 0.000000
    22 -0.010412 -0.631916 0.000000 -1.213004 0.000000 0.000000
    23 -1.147985 -2.861177 -10.854140 -0.375247 0.000057 0.602052
    24 0.089929 -8.543163 -0.000001 0.079777 -0.284686 0.455196
    25 0.000000 -0.359713 0.000000 0.000000 0.000000 0.000000
    26 -0.170480 -2.636147 -0.277655 -0.820345 0.000000 0.000000
    27 0.010599 -1.261177 0.000000 -0.584683 0.000000 0.000000
    28 -0.000001 -0.943233 0.000000 -0.532326 0.000000 0.000000
    29 -0.827563 -2.508973 -0.277656 -0.942486 0.000000 0.000000
    30 0.000001 -1.292971 0.000000 -0.287992 0.000000 0.000000
    31 0.000000 -0.752466 0.000000 -0.445059 0.000000 0.000000
    32 0.444212 -2.561960 -0.277655 -1.081578 -0.046226 -0.024599
    33 0.021022 -1.208186 0.000000 -0.427606 0.000000 0.000000
    34 0.010597 -0.741867 0.000000 -0.453786 0.000000 0.000000
    35 1.047444 -2.222821 -0.277655 -1.019692 -0.066950 -0.041090
    36 0.000000 -0.996223 -0.000001 -0.584716 0.000000 0.000000
    37 -0.000002 -0.614690 0.000000 -0.523599 0.000000 0.000000
    38 -0.308254 -0.007814 0.307166 -0.318048 -0.539821 -2.424630
    39 1.978378 0.019543 0.000000 -0.000002 -0.000010 0.549775
    40 0.982427 0.003186 0.000000 0.000000 0.000000 0.593399
end
