version 1
nodes
  0 "Bone01" -1
  1 "Bone_Lefthand" 0
  2 "windleo_VIPGun_Root" 1
  3 "windleo_VIPGun_Grenade" 2
  4 "windleo_VIPGun_Safety" 2
  5 "windleo_VIPGun_Slide" 2
  6 "windleo_VIPGun_GN_Slide" 2
  7 "windleo_VIPGun_Magazine" 2
  8 "windleo_VIPGun_GN_Trigger" 2
  9 "windleo_VIPGun_Trigger" 2
  10 "Bone13" 1
  11 "Bone14" 10
  12 "Bone15" 11
  13 "Bone17" 1
  14 "Bone18" 13
  15 "Bone19" 14
  16 "Bone21" 1
  17 "Bone22" 16
  18 "Bone23" 17
  19 "Bone09" 1
  20 "Bone10" 19
  21 "Bone11" 20
  22 "Bone05" 1
  23 "Bone06" 22
  24 "Bone07" 23
  25 "Bone_Se_Hand-L" 1
  26 "Bone_L_Upper" 0
  27 "Bone04" -1
  28 "Bone_Righthand" 27
  29 "Bone39" 28
  30 "Bone40" 29
  31 "Bone41" 30
  32 "Bone35" 28
  33 "Bone36" 32
  34 "Bone37" 33
  35 "Bone31" 28
  36 "Bone32" 35
  37 "Bone33" 36
  38 "Bone43" 28
  39 "Bone44" 38
  40 "Bone45" 39
  41 "Bone27" 28
  42 "Bone28" 41
  43 "Bone29" 42
  44 "Bone_Se_Hand-R" 28
  45 "Bone_R_Upper" 27
end
skeleton
  time 0
    0 4.953300 7.608381 -10.439732 0.739279 -1.495366 -1.034770
    1 -0.071919 -8.498734 -0.104136 -0.018083 0.564336 -0.404441
    2 0.521574 -2.341931 0.944898 0.192476 1.308143 0.129949
    3 0.250714 25.919879 -8.640471 0.000000 0.000000 0.000000
    4 -0.000001 -5.493355 -0.179960 0.000000 0.000000 0.000000
    5 -0.670049 -8.175868 2.510258 0.000000 0.000000 0.000000
    6 -0.000001 -16.111864 -1.715292 0.000000 0.000000 0.000000
    7 -0.000001 -7.461284 -0.759587 0.000000 0.000000 0.000000
    8 -0.000001 -10.320615 -1.410366 0.000000 0.000000 0.000000
    9 -0.000001 -2.553366 0.694624 0.000000 0.000000 0.000000
    10 -0.488517 -2.755600 -0.228261 -1.125915 -0.132656 -0.266599
    11 0.039887 -1.479790 0.029853 -1.195951 0.000000 0.000000
    12 0.028785 -1.075733 -0.023111 -1.114265 0.000000 0.000000
    13 0.250028 -2.820663 -0.238396 -0.897278 -0.150104 -0.211378
    14 -0.049759 -1.680546 0.100480 -1.455996 0.000000 -0.000002
    15 -0.034141 -1.148310 0.084779 -1.197915 0.000000 0.000000
    16 0.957766 -2.746777 -0.090300 -0.168610 -0.360143 -0.074009
    17 -0.033419 -1.397129 -0.011255 -0.108946 0.000000 -0.000001
    18 -0.022360 -0.957436 0.018783 -0.423640 0.000000 0.000000
    19 -1.180680 -2.507214 -0.193861 -0.919163 -0.054420 -0.368807
    20 -0.024966 -1.123934 0.017594 -1.368378 0.000000 0.000001
    21 -0.020057 -0.890966 0.010091 -0.855336 0.000000 0.000000
    22 0.583510 -1.197275 0.185377 -0.876575 -1.052204 0.140503
    23 1.535927 0.010246 0.005008 0.012053 -0.005632 -1.358008
    24 1.100770 0.004526 -0.010676 -0.012959 0.009741 -0.750357
    25 0.120152 -0.050266 -0.054488 0.287568 3.110905 1.561085
    26 1.304055 8.801644 -0.126373 -4.678056 -1.493055 -0.161010
    27 -7.177776 4.501367 -11.859566 -1.180240 -4.087596 -1.367029
    28 0.096944 -8.450418 -0.009364 0.346512 -0.475678 0.346794
    29 0.447952 -2.798983 -0.200442 -1.057133 -0.010396 0.265094
    30 -0.032910 -1.480204 0.004936 -1.882322 0.000000 0.000002
    31 -0.027022 -1.076918 -0.020212 -1.190467 0.000000 0.000000
    32 -0.249534 -2.846960 -0.174216 -0.658662 -0.089063 0.213487
    33 0.043235 -1.683941 0.096014 -1.915797 0.002823 -0.000167
    34 0.031729 -1.160830 0.058836 -1.026511 0.000642 0.008372
    35 -0.963867 -2.785143 -0.085346 0.395556 0.190464 0.007688
    36 0.028479 -1.403067 0.006271 -0.565286 0.000000 0.000000
    37 0.021413 -0.957779 0.020047 -0.873357 0.000000 0.000000
    38 1.164475 -2.543938 -0.170328 -1.299294 -0.064792 0.339786
    39 0.024033 -1.129040 0.017806 -1.555531 0.000000 0.000001
    40 0.014897 -0.883989 -0.019845 -1.061123 0.000000 0.000000
    41 -0.590676 -1.260571 0.231415 -0.172266 -0.205502 -2.685506
    42 1.522835 0.058680 0.016850 0.565863 0.052717 0.459923
    43 1.117948 0.048426 -0.005764 0.085219 0.037242 0.250030
    44 -0.100335 -0.115604 0.006584 0.280984 0.050161 1.422275
    45 -1.440346 8.796207 -0.165213 4.639975 1.483718 0.062637
  time 1
    0 5.086117 7.581036 -10.381137 0.598985 -1.496965 -0.896093
    1 -0.071919 -8.498734 -0.104136 -0.036437 0.570384 -0.419563
    2 0.521574 -2.341931 0.944898 0.192476 1.308143 0.129949
    3 0.250714 25.919879 -8.640471 0.000000 0.000000 0.000000
    4 -0.000001 -5.493355 -0.179960 0.000000 0.000000 0.000000
    5 -0.670049 -8.175868 2.510258 0.000000 0.000000 0.000000
    6 -0.000001 -16.111864 -1.715292 0.000000 0.000000 0.000000
    7 -0.000001 -7.461284 -0.759587 0.000000 0.000000 0.000000
    8 -0.000001 -10.320615 -1.410366 0.000000 0.000000 0.000000
    9 -0.000001 -2.553366 0.694624 0.000000 0.000000 0.000000
    10 -0.488517 -2.755600 -0.228261 -1.125952 -0.132656 -0.266599
    11 0.039887 -1.479790 0.029853 -1.195881 0.000000 0.000000
    12 0.028785 -1.075733 -0.023111 -1.114265 0.000000 0.000000
    13 0.250028 -2.820663 -0.238396 -0.897278 -0.150104 -0.211378
    14 -0.049759 -1.680546 0.100480 -1.455996 0.000000 -0.000002
    15 -0.034141 -1.148310 0.084779 -1.197915 0.000000 0.000000
    16 0.957766 -2.746777 -0.090300 -0.168610 -0.360143 -0.074009
    17 -0.033419 -1.397129 -0.011255 -0.108946 0.000000 -0.000001
    18 -0.022360 -0.957436 0.018783 -0.423640 0.000000 0.000000
    19 -1.180680 -2.507214 -0.193861 -0.919163 -0.054420 -0.368807
    20 -0.024966 -1.123934 0.017594 -1.368378 0.000000 0.000001
    21 -0.020057 -0.890966 0.010091 -0.855336 0.000000 0.000000
    22 0.583510 -1.197275 0.185377 -0.876575 -1.052204 0.140503
    23 1.535927 0.010246 0.005008 0.012053 -0.005632 -1.358008
    24 1.100770 0.004526 -0.010676 -0.012959 0.009741 -0.750357
    25 0.120152 -0.050266 -0.054488 0.287568 3.110905 1.561085
    26 1.304055 8.801644 -0.126373 -4.678056 -1.493055 -0.161010
    27 -7.158244 4.458397 -11.836128 -1.175248 -4.097675 -1.360226
    28 0.096944 -8.450418 -0.009364 0.337419 -0.471757 0.347576
    29 0.447952 -2.798983 -0.200442 -1.045901 -0.009138 0.264615
    30 -0.032910 -1.480204 0.004936 -1.864780 0.000000 0.000002
    31 -0.027022 -1.076918 -0.020212 -1.179152 0.000000 0.000000
    32 -0.249534 -2.846960 -0.174216 -0.651728 -0.088392 0.211461
    33 0.043235 -1.683941 0.096014 -1.899641 0.002823 -0.000167
    34 0.031729 -1.160830 0.058836 -1.016158 0.000642 0.008372
    35 -0.963867 -2.785143 -0.085346 0.396439 0.194862 0.007748
    36 0.028479 -1.403067 0.006271 -0.557803 0.000000 0.000000
    37 0.021413 -0.957779 0.020047 -0.863775 0.000000 0.000000
    38 1.164475 -2.543938 -0.170328 -1.286790 -0.063761 0.338570
    39 0.024033 -1.129040 0.017806 -1.553157 0.000000 0.000001
    40 0.014897 -0.883989 -0.019845 -1.058039 0.000000 0.000000
    41 -0.590676 -1.260571 0.231415 -0.168829 -0.207844 -2.684874
    42 1.522835 0.058680 0.016850 0.563730 0.053448 0.460877
    43 1.117948 0.048426 -0.005764 0.085974 0.035144 0.240827
    44 -0.100335 -0.115604 0.006584 0.281056 0.049346 1.423654
    45 -1.440346 8.796207 -0.165213 4.639975 1.483718 0.062637
  time 2
    0 5.437690 7.526347 -10.220976 0.232081 -1.494367 -0.533824
    1 -0.071919 -8.498734 -0.104136 -0.084965 0.585989 -0.459354
    2 0.521574 -2.341931 0.944898 0.192476 1.308143 0.129949
    3 0.250714 25.919879 -8.640471 0.000000 0.000000 0.000000
    4 -0.000001 -5.493355 -0.179960 0.000000 0.000000 0.000000
    5 -0.670049 -8.175868 2.510258 0.000000 0.000000 0.000000
    6 -0.000001 -16.111864 -1.715292 0.000000 0.000000 0.000000
    7 -0.000001 -7.461284 -0.759587 0.000000 0.000000 0.000000
    8 -0.000001 -10.320615 -1.410366 0.000000 0.000000 0.000000
    9 -0.000001 -2.553366 0.694624 0.000000 0.000000 0.000000
    10 -0.488517 -2.755600 -0.228261 -1.125915 -0.132656 -0.266599
    11 0.039887 -1.479790 0.029853 -1.195951 0.000000 0.000000
    12 0.028785 -1.075733 -0.023111 -1.114265 0.000000 0.000000
    13 0.250028 -2.820663 -0.238396 -0.897278 -0.150104 -0.211378
    14 -0.049759 -1.680546 0.100480 -1.455996 0.000000 -0.000002
    15 -0.034141 -1.148310 0.084779 -1.197915 0.000000 0.000000
    16 0.957766 -2.746777 -0.090300 -0.168610 -0.360143 -0.074009
    17 -0.033419 -1.397129 -0.011255 -0.108946 0.000000 -0.000001
    18 -0.022360 -0.957436 0.018783 -0.423640 0.000000 0.000000
    19 -1.180680 -2.507214 -0.193861 -0.919163 -0.054420 -0.368807
    20 -0.024966 -1.123934 0.017594 -1.368378 0.000000 0.000001
    21 -0.020057 -0.890966 0.010091 -0.855336 0.000000 0.000000
    22 0.583510 -1.197275 0.185377 -0.876575 -1.052204 0.140503
    23 1.535927 0.010246 0.005008 0.012053 -0.005632 -1.358008
    24 1.100770 0.004526 -0.010676 -0.012959 0.009741 -0.750357
    25 0.120152 -0.050266 -0.054488 0.287568 3.110905 1.561085
    26 1.304055 8.801644 -0.126373 -4.678056 -1.493055 -0.161010
    27 -7.111367 4.333393 -11.781439 -1.159892 -4.126123 -1.339720
    28 0.096944 -8.450418 -0.009364 0.312101 -0.460745 0.349792
    29 0.447952 -2.798983 -0.200442 -1.014138 -0.005518 0.263236
    30 -0.032910 -1.480204 0.004936 -1.814908 0.000000 0.000002
    31 -0.027022 -1.076918 -0.020212 -1.146906 0.000000 0.000000
    32 -0.249534 -2.846960 -0.174216 -0.631951 -0.086474 0.205733
    33 0.043235 -1.683941 0.096014 -1.853652 0.002823 -0.000167
    34 0.031729 -1.160830 0.058836 -0.986862 0.000642 0.008372
    35 -0.963867 -2.785143 -0.085346 0.398898 0.207266 0.007904
    36 0.028479 -1.403067 0.006271 -0.536530 0.000000 0.000000
    37 0.021413 -0.957779 0.020047 -0.836593 0.000000 0.000000
    38 1.164475 -2.543938 -0.170328 -1.251263 -0.060885 0.335098
    39 0.024033 -1.129040 0.017806 -1.546443 0.000000 0.000001
    40 0.014897 -0.883989 -0.019845 -1.049381 0.000000 0.000000
    41 -0.590676 -1.260571 0.231415 -0.159116 -0.214607 -2.682979
    42 1.522835 0.058680 0.016850 0.557652 0.055521 0.463473
    43 1.117948 0.048426 -0.005764 0.088131 0.029224 0.214861
    44 -0.100335 -0.115604 0.006584 0.281247 0.047045 1.427549
    45 -1.440346 8.796207 -0.165213 4.639975 1.483718 0.062637
  time 3
    0 5.914267 7.436500 -10.006125 -0.171954 -1.476977 -0.136435
    1 -0.071919 -8.498734 -0.104136 -0.153439 0.607144 -0.515735
    2 0.521574 -2.341931 0.944898 0.192476 1.308143 0.129949
    3 0.250714 25.919879 -8.640471 0.000000 0.000000 0.000000
    4 -0.000001 -5.493355 -0.179960 0.000000 0.000000 0.000000
    5 -0.670049 -8.175868 2.510258 0.000000 0.000000 0.000000
    6 -0.000001 -16.111864 -1.715292 0.000000 0.000000 0.000000
    7 -0.000001 -7.461284 -0.759587 0.000000 0.000000 0.000000
    8 -0.000001 -10.320615 -1.410366 0.000000 0.000000 0.000000
    9 -0.000001 -2.553366 0.694624 0.000000 0.000000 0.000000
    10 -0.488517 -2.755600 -0.228261 -1.125952 -0.132656 -0.266599
    11 0.039887 -1.479790 0.029853 -1.195881 0.000000 0.000000
    12 0.028785 -1.075733 -0.023111 -1.114265 0.000000 0.000000
    13 0.250028 -2.820663 -0.238396 -0.897278 -0.150104 -0.211378
    14 -0.049759 -1.680546 0.100480 -1.455996 0.000000 -0.000002
    15 -0.034141 -1.148310 0.084779 -1.197915 0.000000 0.000000
    16 0.957766 -2.746777 -0.090300 -0.168610 -0.360143 -0.074009
    17 -0.033419 -1.397129 -0.011255 -0.108946 0.000000 -0.000001
    18 -0.022360 -0.957436 0.018783 -0.423640 0.000000 0.000000
    19 -1.180680 -2.507214 -0.193861 -0.919163 -0.054420 -0.368807
    20 -0.024966 -1.123934 0.017594 -1.368378 0.000000 0.000001
    21 -0.020057 -0.890966 0.010091 -0.855336 0.000000 0.000000
    22 0.583510 -1.197275 0.185377 -0.876575 -1.052204 0.140503
    23 1.535927 0.010246 0.005008 0.012053 -0.005632 -1.358008
    24 1.100770 0.004526 -0.010676 -0.012959 0.009741 -0.750357
    25 0.120152 -0.050266 -0.054488 0.287568 3.110905 1.561085
    26 1.304055 8.801644 -0.126373 -4.678056 -1.493055 -0.161010
    27 -7.029334 4.138074 -11.691592 -1.131961 -4.169926 -1.303786
    28 0.096944 -8.450418 -0.009364 0.273093 -0.443866 0.353023
    29 0.447952 -2.798983 -0.200442 -0.964315 0.000162 0.261079
    30 -0.032910 -1.480204 0.004936 -1.736693 0.000000 0.000002
    31 -0.027022 -1.076918 -0.020212 -1.096414 0.000000 0.000000
    32 -0.249534 -2.846960 -0.174216 -0.600902 -0.083478 0.196732
    33 0.043235 -1.683941 0.096014 -1.781587 0.002823 -0.000167
    34 0.031729 -1.160830 0.058836 -0.940769 0.000642 0.008372
    35 -0.963867 -2.785143 -0.085346 0.402745 0.226441 0.008131
    36 0.028479 -1.403067 0.006271 -0.503396 0.000000 0.000000
    37 0.021413 -0.957779 0.020047 -0.794112 0.000000 0.000000
    38 1.164475 -2.543938 -0.170328 -1.195577 -0.056331 0.329667
    39 0.024033 -1.129040 0.017806 -1.535849 0.000000 0.000001
    40 0.014897 -0.883989 -0.019845 -1.035748 0.000000 0.000000
    41 -0.590676 -1.260571 0.231415 -0.144082 -0.225257 -2.679801
    42 1.522835 0.058680 0.016850 0.547986 0.058889 0.467500
    43 1.117948 0.048426 -0.005764 0.091535 0.019996 0.174010
    44 -0.100335 -0.115604 0.006584 0.281535 0.043426 1.433673
    45 -1.440346 8.796207 -0.165213 4.639975 1.483718 0.062637
  time 4
    0 6.445533 7.342748 -9.763930 -0.450363 -1.446876 0.133624
    1 -0.071919 -8.498734 -0.104136 -0.231755 0.630001 -0.580239
    2 0.521574 -2.341931 0.944898 0.192476 1.308143 0.129949
    3 0.250714 25.919879 -8.640471 0.000000 0.000000 0.000000
    4 -0.000001 -5.493355 -0.179960 0.000000 0.000000 0.000000
    5 -0.670049 -8.175868 2.510258 0.000000 0.000000 0.000000
    6 -0.000001 -16.111864 -1.715292 0.000000 0.000000 0.000000
    7 -0.000001 -7.461284 -0.759587 0.000000 0.000000 0.000000
    8 -0.000001 -10.320615 -1.410366 0.000000 0.000000 0.000000
    9 -0.000001 -2.553366 0.694624 0.000000 0.000000 0.000000
    10 -0.488517 -2.755600 -0.228261 -1.125915 -0.132656 -0.266599
    11 0.039887 -1.479790 0.029853 -1.195881 0.000000 0.000000
    12 0.028785 -1.075733 -0.023111 -1.114265 0.000000 0.000000
    13 0.250028 -2.820663 -0.238396 -0.897278 -0.150104 -0.211378
    14 -0.049759 -1.680546 0.100480 -1.455996 0.000000 -0.000002
    15 -0.034141 -1.148310 0.084779 -1.197915 0.000000 0.000000
    16 0.957766 -2.746777 -0.090300 -0.168610 -0.360143 -0.074009
    17 -0.033419 -1.397129 -0.011255 -0.108946 0.000000 -0.000001
    18 -0.022360 -0.957436 0.018783 -0.423640 0.000000 0.000000
    19 -1.180680 -2.507214 -0.193861 -0.919163 -0.054420 -0.368807
    20 -0.024966 -1.123934 0.017594 -1.368378 0.000000 0.000001
    21 -0.020057 -0.890966 0.010091 -0.855336 0.000000 0.000000
    22 0.583510 -1.197275 0.185377 -0.876575 -1.052204 0.140503
    23 1.535927 0.010246 0.005008 0.012053 -0.005632 -1.358008
    24 1.100770 0.004526 -0.010676 -0.012959 0.009741 -0.750357
    25 0.120152 -0.050266 -0.054488 0.287568 3.110905 1.561085
    26 1.304055 8.801644 -0.126373 -4.678056 -1.493055 -0.161010
    27 -6.927768 3.880254 -11.578307 -1.086147 -4.225787 -1.247826
    28 0.096944 -8.450418 -0.009364 0.223235 -0.422232 0.357011
    29 0.447952 -2.798983 -0.200442 -0.898948 0.007617 0.258251
    30 -0.032910 -1.480204 0.004936 -1.634268 0.000000 0.000002
    31 -0.027022 -1.076918 -0.020212 -1.030294 0.000000 0.000000
    32 -0.249534 -2.846960 -0.174216 -0.560289 -0.079547 0.184951
    33 0.043235 -1.683941 0.096014 -1.687130 0.002823 -0.000167
    34 0.031729 -1.160830 0.058836 -0.880525 0.000642 0.008372
    35 -0.963867 -2.785143 -0.085346 0.407685 0.251166 0.008455
    36 0.028479 -1.403067 0.006271 -0.460143 0.000000 0.000000
    37 0.021413 -0.957779 0.020047 -0.738759 0.000000 0.000000
    38 1.164475 -2.543938 -0.170328 -1.122596 -0.050362 0.322547
    39 0.024033 -1.129040 0.017806 -1.522015 0.000000 0.000001
    40 0.014897 -0.883989 -0.019845 -1.017886 0.000000 0.000000
    41 -0.590676 -1.260571 0.231415 -0.124595 -0.239288 -2.675360
    42 1.522835 0.058680 0.016850 0.535244 0.063371 0.472691
    43 1.117948 0.048426 -0.005764 0.095957 0.007939 0.120476
    44 -0.100335 -0.115604 0.006584 0.281906 0.038692 1.441702
    45 -1.440346 8.796207 -0.165213 4.639975 1.483718 0.062637
  time 5
    0 6.949455 7.252901 -9.537361 -0.613216 -1.413416 0.288149
    1 -0.071919 -8.498734 -0.104136 -0.309513 0.651209 -0.644008
    2 0.521574 -2.341931 0.944898 0.192476 1.308143 0.129949
    3 0.250714 25.919879 -8.640471 0.000000 0.000000 0.000000
    4 -0.000001 -5.493355 -0.179960 0.000000 0.000000 0.000000
    5 -0.670049 -8.175868 2.510258 0.000000 0.000000 0.000000
    6 -0.000001 -16.111864 -1.715292 0.000000 0.000000 0.000000
    7 -0.000001 -7.461284 -0.759587 0.000000 0.000000 0.000000
    8 -0.000001 -10.320615 -1.410366 0.000000 0.000000 0.000000
    9 -0.000001 -2.553366 0.694624 0.000000 0.000000 0.000000
    10 -0.488517 -2.755600 -0.228261 -1.125952 -0.132656 -0.266599
    11 0.039887 -1.479790 0.029853 -1.195881 0.000000 0.000000
    12 0.028785 -1.075733 -0.023111 -1.114265 0.000000 0.000000
    13 0.250028 -2.820663 -0.238396 -0.897278 -0.150104 -0.211378
    14 -0.049759 -1.680546 0.100480 -1.455996 0.000000 -0.000002
    15 -0.034141 -1.148310 0.084779 -1.197915 0.000000 0.000000
    16 0.957766 -2.746777 -0.090300 -0.168610 -0.360143 -0.074009
    17 -0.033419 -1.397129 -0.011255 -0.108946 0.000000 -0.000001
    18 -0.022360 -0.957436 0.018783 -0.423640 0.000000 0.000000
    19 -1.180680 -2.507214 -0.193861 -0.919163 -0.054420 -0.368807
    20 -0.024966 -1.123934 0.017594 -1.368378 0.000000 0.000001
    21 -0.020057 -0.890966 0.010091 -0.855336 0.000000 0.000000
    22 0.583510 -1.197275 0.185377 -0.876575 -1.052204 0.140503
    23 1.535927 0.010246 0.005008 0.012053 -0.005632 -1.358008
    24 1.100770 0.004526 -0.010676 -0.012959 0.009741 -0.750357
    25 0.120152 -0.050266 -0.054488 0.287568 3.110905 1.561085
    26 1.304055 8.801644 -0.126373 -4.678056 -1.493055 -0.161010
    27 -6.798858 3.571651 -11.441584 -1.013034 -4.289748 -1.163023
    28 0.096944 -8.450418 -0.009364 0.165062 -0.397039 0.361416
    29 0.447952 -2.798983 -0.200442 -0.820686 0.016533 0.254871
    30 -0.032910 -1.480204 0.004936 -1.511618 0.000000 0.000002
    31 -0.027022 -1.076918 -0.020212 -0.951021 0.000000 0.000000
    32 -0.249534 -2.846960 -0.174216 -0.511683 -0.074837 0.170858
    33 0.043235 -1.683941 0.096014 -1.574108 0.002823 -0.000167
    34 0.031729 -1.160830 0.058836 -0.808330 0.000642 0.008372
    35 -0.963867 -2.785143 -0.085346 0.413507 0.280168 0.008802
    36 0.028479 -1.403067 0.006271 -0.408654 0.000000 0.000000
    37 0.021413 -0.957779 0.020047 -0.672838 0.000000 0.000000
    38 1.164475 -2.543938 -0.170328 -1.035238 -0.043243 0.314022
    39 0.024033 -1.129040 0.017806 -1.505517 0.000000 0.000001
    40 0.014897 -0.883989 -0.019845 -0.996542 0.000000 0.000000
    41 -0.590676 -1.260571 0.231415 -0.101671 -0.256241 -2.669636
    42 1.522835 0.058680 0.016850 0.519840 0.068920 0.478807
    43 1.117948 0.048426 -0.005764 0.101278 -0.006382 0.056500
    44 -0.108148 -0.115604 0.006584 0.282338 0.033023 1.451302
    45 -1.440346 8.796207 -0.165213 4.639975 1.483718 0.062637
  time 6
    0 7.340092 7.182586 -9.361574 -0.706116 -1.385553 0.374327
    1 -0.071919 -8.498734 -0.104136 -0.376396 0.667756 -0.697883
    2 0.521574 -2.341931 0.944898 0.192476 1.308143 0.129949
    3 0.250714 25.919879 -8.640471 0.000000 0.000000 0.000000
    4 -0.000001 -5.493355 -0.179960 0.000000 0.000000 0.000000
    5 -0.670049 -8.175868 2.510258 0.000000 0.000000 0.000000
    6 -0.000001 -16.111864 -1.715292 0.000000 0.000000 0.000000
    7 -0.000001 -7.461284 -0.759587 0.000000 0.000000 0.000000
    8 -0.000001 -10.320615 -1.410366 0.000000 0.000000 0.000000
    9 -0.000001 -2.553366 0.694624 0.000000 0.000000 0.000000
    10 -0.488517 -2.755600 -0.228261 -1.125952 -0.132656 -0.266599
    11 0.039887 -1.479790 0.029853 -1.195881 0.000000 0.000000
    12 0.028785 -1.075733 -0.023111 -1.114265 0.000000 0.000000
    13 0.250028 -2.820663 -0.238396 -0.897278 -0.150104 -0.211378
    14 -0.049759 -1.680546 0.100480 -1.455996 0.000000 -0.000002
    15 -0.034141 -1.148310 0.084779 -1.197915 0.000000 0.000000
    16 0.957766 -2.746777 -0.090300 -0.168610 -0.360143 -0.074009
    17 -0.033419 -1.397129 -0.011255 -0.108946 0.000000 -0.000001
    18 -0.022360 -0.957436 0.018783 -0.423640 0.000000 0.000000
    19 -1.180680 -2.507214 -0.193861 -0.919163 -0.054420 -0.368807
    20 -0.024966 -1.123934 0.017594 -1.368378 0.000000 0.000001
    21 -0.020057 -0.890966 0.010091 -0.855336 0.000000 0.000000
    22 0.583510 -1.197275 0.185377 -0.876575 -1.052204 0.140503
    23 1.535927 0.010246 0.005008 0.012053 -0.005632 -1.358008
    24 1.100770 0.004526 -0.010676 -0.012959 0.009741 -0.750357
    25 0.120152 -0.050266 -0.054488 0.287568 3.110905 1.561085
    26 1.304055 8.801644 -0.126373 -4.678056 -1.493055 -0.161010
    27 -6.638697 3.220078 -11.289236 -0.895940 -4.356535 -1.033374
    28 0.096944 -8.450418 -0.009364 0.101389 -0.369455 0.365846
    29 0.447952 -2.798983 -0.200442 -0.732182 0.026624 0.251036
    30 -0.032910 -1.480204 0.004936 -1.372803 0.000000 0.000002
    31 -0.027022 -1.076918 -0.020212 -0.861353 0.000000 0.000000
    32 -0.249534 -2.846960 -0.174216 -0.456656 -0.069504 0.154882
    33 0.043235 -1.683941 0.096014 -1.446063 0.002823 -0.000167
    34 0.031729 -1.160830 0.058836 -0.726553 0.000642 0.008372
    35 -0.963867 -2.785143 -0.085346 0.419961 0.312263 0.009222
    36 0.028479 -1.403067 0.006271 -0.350765 0.000000 0.000000
    37 0.021413 -0.957779 0.020047 -0.598692 0.000000 0.000000
    38 1.164475 -2.543938 -0.170328 -0.936314 -0.035178 0.304376
    39 0.024033 -1.129040 0.017806 -1.486646 0.000000 0.000001
    40 0.014897 -0.883989 -0.019845 -0.972361 0.000000 0.000000
    41 -0.590676 -1.260571 0.231415 -0.076236 -0.275586 -2.662592
    42 1.522835 0.058680 0.016850 0.502228 0.075368 0.485549
    43 1.117948 0.048426 -0.005764 0.107319 -0.022477 -0.016119
    44 -0.108148 -0.115604 0.006584 0.282781 0.026599 1.462172
    45 -1.440346 8.796207 -0.165213 4.639975 1.483718 0.062637
  time 7
    0 7.613537 7.127897 -9.236570 -0.768227 -1.364766 0.431778
    1 -0.071919 -8.498734 -0.104136 -0.421958 0.677050 -0.732187
    2 0.521574 -2.341931 0.944898 0.192476 1.308143 0.129949
    3 0.250714 25.919879 -8.640471 0.000000 0.000000 0.000000
    4 -0.000001 -5.493355 -0.179960 0.000000 0.000000 0.000000
    5 -0.670049 -8.175868 2.510258 0.000000 0.000000 0.000000
    6 -0.000001 -16.111864 -1.715292 0.000000 0.000000 0.000000
    7 -0.000001 -7.461284 -0.759587 0.000000 0.000000 0.000000
    8 -0.000001 -10.320615 -1.410366 0.000000 0.000000 0.000000
    9 -0.000001 -2.553366 0.694624 0.000000 0.000000 0.000000
    10 -0.488517 -2.755600 -0.228261 -1.125952 -0.132656 -0.266599
    11 0.039887 -1.479790 0.029853 -1.195881 0.000000 0.000000
    12 0.028785 -1.075733 -0.023111 -1.114265 0.000000 0.000000
    13 0.250028 -2.820663 -0.238396 -0.897278 -0.150104 -0.211378
    14 -0.049759 -1.680546 0.100480 -1.455996 0.000000 -0.000002
    15 -0.034141 -1.148310 0.084779 -1.197915 0.000000 0.000000
    16 0.957766 -2.746777 -0.090300 -0.168610 -0.360143 -0.074009
    17 -0.033419 -1.397129 -0.011255 -0.108946 0.000000 -0.000001
    18 -0.022360 -0.957436 0.018783 -0.423640 0.000000 0.000000
    19 -1.180680 -2.507214 -0.193861 -0.919163 -0.054420 -0.368807
    20 -0.024966 -1.123934 0.017594 -1.368378 0.000000 0.000001
    21 -0.020057 -0.890966 0.010091 -0.855336 0.000000 0.000000
    22 0.583510 -1.197275 0.185377 -0.876575 -1.052204 0.140503
    23 1.535927 0.010246 0.005008 0.012053 -0.005632 -1.358008
    24 1.100770 0.004526 -0.010676 -0.012959 0.009741 -0.750357
    25 0.120152 -0.050266 -0.054488 0.287568 3.110905 1.561085
    26 1.304055 8.801644 -0.126373 -4.678056 -1.493055 -0.161010
    27 -6.470723 2.833347 -11.121262 -0.708008 -4.418519 -0.832242
    28 0.096944 -8.450418 -0.009364 0.034878 -0.340674 0.370147
    29 0.447952 -2.798983 -0.200442 -0.635905 0.037590 0.246877
    30 -0.032910 -1.480204 0.004936 -1.221810 0.000000 0.000002
    31 -0.027022 -1.076918 -0.020212 -0.763835 0.000000 0.000000
    32 -0.249534 -2.846960 -0.174216 -0.396847 -0.063691 0.137528
    33 0.043235 -1.683941 0.096014 -1.306893 0.002823 -0.000167
    34 0.031729 -1.160830 0.058836 -0.637673 0.000642 0.008372
    35 -0.963867 -2.785143 -0.085346 0.426813 0.346204 0.009629
    36 0.028479 -1.403067 0.006271 -0.288262 0.000000 0.000000
    37 0.021413 -0.957779 0.020047 -0.518707 0.000000 0.000000
    38 1.164475 -2.543938 -0.170328 -0.828797 -0.026393 0.293878
    39 0.024033 -1.129040 0.017806 -1.466270 0.000000 0.000001
    40 0.014897 -0.883989 -0.019845 -0.945991 0.000000 0.000000
    41 -0.590676 -1.260571 0.231415 -0.049218 -0.296814 -2.654207
    42 1.522835 0.058680 0.016850 0.482822 0.082618 0.492709
    43 1.117948 0.048426 -0.005764 0.113850 -0.039795 -0.095220
    44 -0.112054 -0.115604 0.006584 0.283237 0.019612 1.473989
    45 -1.440346 8.796207 -0.165213 4.639975 1.483718 0.062637
  time 8
    0 7.828388 7.077114 -9.142818 -0.821527 -1.347057 0.482026
    1 -0.071919 -8.498734 -0.104136 -0.443966 0.678098 -0.743291
    2 0.521574 -2.341931 0.944898 0.192476 1.308143 0.129949
    3 0.250714 25.919879 -8.640471 0.000000 0.000000 0.000000
    4 -0.000001 -5.493355 -0.179960 0.000000 0.000000 0.000000
    5 -0.670049 -8.175868 2.510258 0.000000 0.000000 0.000000
    6 -0.000001 -16.111864 -1.715292 0.000000 0.000000 0.000000
    7 -0.000001 -7.461284 -0.759587 0.000000 0.000000 0.000000
    8 -0.000001 -10.320615 -1.410366 0.000000 0.000000 0.000000
    9 -0.000001 -2.553366 0.694624 0.000000 0.000000 0.000000
    10 -0.488517 -2.755600 -0.228261 -1.125952 -0.132656 -0.266599
    11 0.039887 -1.479790 0.029853 -1.195881 0.000000 0.000000
    12 0.028785 -1.075733 -0.023111 -1.114265 0.000000 0.000000
    13 0.250028 -2.820663 -0.238396 -0.897278 -0.150104 -0.211378
    14 -0.049759 -1.680546 0.100480 -1.455996 0.000000 -0.000002
    15 -0.034141 -1.148310 0.084779 -1.197915 0.000000 0.000000
    16 0.957766 -2.746777 -0.090300 -0.168610 -0.360143 -0.074009
    17 -0.033419 -1.397129 -0.011255 -0.108946 0.000000 -0.000001
    18 -0.022360 -0.957436 0.018783 -0.423640 0.000000 0.000000
    19 -1.180680 -2.507214 -0.193861 -0.919163 -0.054420 -0.368807
    20 -0.024966 -1.123934 0.017594 -1.368378 0.000000 0.000001
    21 -0.020057 -0.890966 0.010091 -0.855336 0.000000 0.000000
    22 0.583510 -1.197275 0.185377 -0.876575 -1.052204 0.140503
    23 1.535927 0.010246 0.005008 0.012053 -0.005632 -1.358008
    24 1.100770 0.004526 -0.010676 -0.012959 0.009741 -0.750357
    25 0.120152 -0.050266 -0.054488 0.287568 3.110905 1.561085
    26 1.304055 8.801644 -0.126373 -4.678056 -1.493055 -0.161010
    27 -6.279311 2.419272 -10.949382 -0.419348 -4.464111 -0.530113
    28 0.096944 -8.450418 -0.009364 -0.031784 -0.311838 0.373874
    29 0.447952 -2.798983 -0.200442 -0.534416 0.049155 0.242491
    30 -0.032910 -1.480204 0.004936 -1.062771 0.000000 0.000002
    31 -0.027022 -1.076918 -0.020212 -0.661084 0.000000 0.000000
    32 -0.249534 -2.846960 -0.174216 -0.333826 -0.057579 0.119252
    33 0.043235 -1.683941 0.096014 -1.160282 0.002823 -0.000167
    34 0.031729 -1.160830 0.058836 -0.544112 0.000642 0.008372
    35 -0.963867 -2.785143 -0.085346 0.433813 0.380755 0.010073
    36 0.028479 -1.403067 0.006271 -0.223031 0.000000 0.000000
    37 0.021413 -0.957779 0.020047 -0.435185 0.000000 0.000000
    38 1.164475 -2.543938 -0.170328 -0.715497 -0.017153 0.282827
    39 0.024033 -1.129040 0.017806 -1.444737 0.000000 0.000001
    40 0.014897 -0.883989 -0.019845 -0.918327 0.000000 0.000000
    41 -0.590676 -1.260571 0.231415 -0.021631 -0.319443 -2.644444
    42 1.522835 0.058680 0.016850 0.462038 0.090576 0.499958
    43 1.117948 0.048426 -0.005764 0.120717 -0.057916 -0.178521
    44 -0.119867 -0.115604 0.006584 0.283668 0.012266 1.486441
    45 -1.440346 8.796207 -0.165213 4.639975 1.483718 0.062637
  time 9
    0 7.988549 7.022425 -9.072503 -0.869598 -1.332266 0.528041
    1 -0.071919 -8.498734 -0.104136 -0.448350 0.672180 -0.735169
    2 0.521574 -2.341931 0.944898 0.192476 1.308143 0.129949
    3 0.250714 25.919879 -8.640471 0.000000 0.000000 0.000000
    4 -0.000001 -5.493355 -0.179960 0.000000 0.000000 0.000000
    5 -0.670049 -8.175868 2.510258 0.000000 0.000000 0.000000
    6 -0.000001 -16.111864 -1.715292 0.000000 0.000000 0.000000
    7 -0.000001 -7.461284 -0.759587 0.000000 0.000000 0.000000
    8 -0.000001 -10.320615 -1.410366 0.000000 0.000000 0.000000
    9 -0.000001 -2.553366 0.694624 0.000000 0.000000 0.000000
    10 -0.488517 -2.755600 -0.228261 -1.125952 -0.132656 -0.266599
    11 0.039887 -1.479790 0.029853 -1.195951 0.000000 0.000000
    12 0.028785 -1.075733 -0.023111 -1.114265 0.000000 0.000000
    13 0.250028 -2.820663 -0.238396 -0.897278 -0.150104 -0.211378
    14 -0.049759 -1.680546 0.100480 -1.455996 0.000000 -0.000002
    15 -0.034141 -1.148310 0.084779 -1.197915 0.000000 0.000000
    16 0.957766 -2.746777 -0.090300 -0.168610 -0.360143 -0.074009
    17 -0.033419 -1.397129 -0.011255 -0.108946 0.000000 -0.000001
    18 -0.022360 -0.957436 0.018783 -0.423640 0.000000 0.000000
    19 -1.180680 -2.507214 -0.193861 -0.919163 -0.054420 -0.368807
    20 -0.024966 -1.123934 0.017594 -1.368378 0.000000 0.000001
    21 -0.020057 -0.890966 0.010091 -0.855336 0.000000 0.000000
    22 0.583510 -1.197275 0.185377 -0.876575 -1.052204 0.140503
    23 1.535927 0.010246 0.005008 0.012053 -0.005632 -1.358008
    24 1.100770 0.004526 -0.010676 -0.012959 0.009741 -0.750357
    25 0.120152 -0.050266 -0.054488 0.287568 3.110905 1.561085
    26 1.304055 8.801644 -0.126373 -4.678056 -1.493055 -0.161010
    27 -6.068367 1.993478 -10.773595 -0.045885 -4.478901 -0.142605
    28 0.096944 -8.450418 -0.009364 -0.095784 -0.284198 0.376819
    29 0.447952 -2.798983 -0.200442 -0.430367 0.061008 0.237997
    30 -0.032910 -1.480204 0.004936 -0.899673 0.000000 0.000002
    31 -0.027022 -1.076918 -0.020212 -0.555717 0.000000 0.000000
    32 -0.249534 -2.846960 -0.174216 -0.269201 -0.051299 0.100508
    33 0.043235 -1.683941 0.096014 -1.009917 0.002823 -0.000167
    34 0.031729 -1.160830 0.058836 -0.448128 0.000642 0.008372
    35 -0.963867 -2.785143 -0.085346 0.440708 0.414695 0.010492
    36 0.028479 -1.403067 0.006271 -0.156857 0.000000 0.000000
    37 0.021413 -0.957779 0.020047 -0.350470 0.000000 0.000000
    38 1.164475 -2.543938 -0.170328 -0.599332 -0.007697 0.271492
    39 0.024033 -1.129040 0.017806 -1.422740 0.000000 0.000001
    40 0.014897 -0.883989 -0.019845 -0.889917 0.000000 0.000000
    41 -0.590676 -1.260571 0.231415 0.005626 -0.342941 -2.633284
    42 1.522835 0.058680 0.016850 0.440347 0.099109 0.507118
    43 1.117948 0.048426 -0.005764 0.127728 -0.076300 -0.264063
    44 -0.119867 -0.111698 0.014397 0.284064 0.004727 1.499217
    45 -1.440346 8.796207 -0.165213 4.639975 1.483718 0.062637
  time 10
    0 8.101834 6.979455 -9.021720 -0.914088 -1.320153 0.571985
    1 -0.071919 -8.498734 -0.104136 -0.437003 0.660006 -0.710153
    2 0.521574 -2.341931 0.944898 0.192476 1.308143 0.129949
    3 0.250714 25.919879 -8.640471 0.000000 0.000000 0.000000
    4 -0.000001 -5.493355 -0.179960 0.000000 0.000000 0.000000
    5 -0.670049 -8.175868 2.510258 0.000000 0.000000 0.000000
    6 -0.000001 -16.111864 -1.715292 0.000000 0.000000 0.000000
    7 -0.000001 -7.461284 -0.759587 0.000000 0.000000 0.000000
    8 -0.000001 -10.320615 -1.410366 0.000000 0.000000 0.000000
    9 -0.000001 -2.553366 0.694624 0.000000 0.000000 0.000000
    10 -0.488517 -2.755600 -0.228261 -1.125915 -0.132656 -0.266599
    11 0.039887 -1.479790 0.029853 -1.195951 0.000000 0.000000
    12 0.028785 -1.075733 -0.023111 -1.114265 0.000000 0.000000
    13 0.250028 -2.820663 -0.238396 -0.897278 -0.150104 -0.211378
    14 -0.049759 -1.680546 0.100480 -1.455996 0.000000 -0.000002
    15 -0.034141 -1.148310 0.084779 -1.197915 0.000000 0.000000
    16 0.957766 -2.746777 -0.090300 -0.168610 -0.360143 -0.074009
    17 -0.033419 -1.397129 -0.011255 -0.108946 0.000000 -0.000001
    18 -0.022360 -0.957436 0.018783 -0.423640 0.000000 0.000000
    19 -1.180680 -2.507214 -0.193861 -0.919163 -0.054420 -0.368807
    20 -0.024966 -1.123934 0.017594 -1.368378 0.000000 0.000001
    21 -0.020057 -0.890966 0.010091 -0.855336 0.000000 0.000000
    22 0.583510 -1.197275 0.185377 -0.876575 -1.052204 0.140503
    23 1.535927 0.010246 0.005008 0.012053 -0.005632 -1.358008
    24 1.100770 0.004526 -0.010676 -0.012959 0.009741 -0.750357
    25 0.120152 -0.050266 -0.054488 0.287568 3.110905 1.561085
    26 1.304055 8.801644 -0.126373 -4.678056 -1.493055 -0.161010
    27 -5.853517 1.555964 -10.601715 0.308241 -4.457800 -6.056694
    28 0.096944 -8.450418 -0.009364 -0.154509 -0.258810 0.378643
    29 0.447952 -2.798983 -0.200442 -0.326273 0.072861 0.233515
    30 -0.032910 -1.480204 0.004936 -0.736574 0.000000 0.000002
    31 -0.027022 -1.076918 -0.020212 -0.450349 0.000000 0.000000
    32 -0.249534 -2.846960 -0.174216 -0.204610 -0.045031 0.081752
    33 0.043235 -1.683941 0.096014 -0.859551 0.002823 -0.000167
    34 0.031729 -1.160830 0.058836 -0.352033 0.000642 0.008372
    35 -0.963867 -2.785143 -0.085346 0.447224 0.446790 0.010900
    36 0.028479 -1.403067 0.006271 -0.091625 0.000000 0.000000
    37 0.021413 -0.957779 0.020047 -0.266948 0.000000 0.000000
    38 1.164475 -2.543938 -0.170328 -0.483168 0.001783 0.260157
    39 0.024033 -1.129040 0.017806 -1.400627 0.000000 0.000001
    40 0.014897 -0.883989 -0.019845 -0.861407 0.000000 0.000000
    41 -0.590676 -1.260571 0.231415 0.031599 -0.366825 -2.620726
    42 1.522835 0.058680 0.016850 0.418167 0.108134 0.513890
    43 1.117948 0.048426 -0.005764 0.134692 -0.094529 -0.349645
    44 -0.119867 -0.111698 0.014397 0.284423 -0.002811 1.511980
    45 -1.440346 8.796207 -0.165213 4.639975 1.483718 0.062637
  time 11
    0 8.172148 6.940392 -8.990469 -0.956399 -1.310319 0.614849
    1 -0.071919 -8.498734 -0.104136 -0.411986 0.642149 -0.670708
    2 0.521574 -2.341931 0.944898 0.192476 1.308143 0.129949
    3 0.250714 25.919879 -8.640471 0.000000 0.000000 0.000000
    4 -0.000001 -5.493355 -0.179960 0.000000 0.000000 0.000000
    5 -0.670049 -8.175868 2.510258 0.000000 0.000000 0.000000
    6 -0.000001 -16.111864 -1.715292 0.000000 0.000000 0.000000
    7 -0.000001 -7.461284 -0.759587 0.000000 0.000000 0.000000
    8 -0.000001 -10.320615 -1.410366 0.000000 0.000000 0.000000
    9 -0.000001 -2.553366 0.694624 0.000000 0.000000 0.000000
    10 -0.488517 -2.755600 -0.228261 -1.125952 -0.132656 -0.266599
    11 0.039887 -1.479790 0.029853 -1.195951 0.000000 0.000000
    12 0.028785 -1.075733 -0.023111 -1.114265 0.000000 0.000000
    13 0.250028 -2.820663 -0.238396 -0.897278 -0.150104 -0.211378
    14 -0.049759 -1.680546 0.100480 -1.455996 0.000000 -0.000002
    15 -0.034141 -1.148310 0.084779 -1.197915 0.000000 0.000000
    16 0.957766 -2.746777 -0.090300 -0.168610 -0.360143 -0.074009
    17 -0.033419 -1.397129 -0.011255 -0.108946 0.000000 -0.000001
    18 -0.022360 -0.957436 0.018783 -0.423640 0.000000 0.000000
    19 -1.180680 -2.507214 -0.193861 -0.919163 -0.054420 -0.368807
    20 -0.024966 -1.123934 0.017594 -1.368378 0.000000 0.000001
    21 -0.020057 -0.890966 0.010091 -0.855336 0.000000 0.000000
    22 0.583510 -1.197275 0.185377 -0.876575 -1.052204 0.140503
    23 1.535927 0.010246 0.005008 0.012053 -0.005632 -1.358008
    24 1.100770 0.004526 -0.010676 -0.012959 0.009741 -0.750357
    25 0.120152 -0.050266 -0.054488 0.287568 3.110905 1.561085
    26 1.304055 8.801644 -0.126373 -4.678056 -1.493055 -0.161010
    27 -5.623041 1.126264 -10.437648 0.560376 -4.411642 -5.788677
    28 0.096944 -8.450418 -0.009364 -0.205146 -0.236926 0.379138
    29 0.447952 -2.798983 -0.200442 -0.224785 0.084426 0.229140
    30 -0.032910 -1.480204 0.004936 -0.577535 0.000000 0.000002
    31 -0.027022 -1.076918 -0.020212 -0.347669 0.000000 0.000000
    32 -0.249534 -2.846960 -0.174216 -0.141624 -0.038907 0.063488
    33 0.043235 -1.683941 0.096014 -0.712869 0.002823 -0.000167
    34 0.031729 -1.160830 0.058836 -0.258417 0.000642 0.008372
    35 -0.963867 -2.785143 -0.085346 0.453152 0.475817 0.011223
    36 0.028479 -1.403067 0.006271 -0.029123 0.000000 0.000000
    37 0.021413 -0.957779 0.020047 -0.186963 0.000000 0.000000
    38 1.164475 -2.543938 -0.170328 -0.369868 0.011023 0.249092
    39 0.024033 -1.129040 0.017806 -1.379151 0.000000 0.000001
    40 0.014897 -0.883989 -0.019845 -0.833744 0.000000 0.000000
    41 -0.590676 -1.260571 0.231415 0.055330 -0.390565 -2.606733
    42 1.522835 0.058680 0.016850 0.395929 0.117493 0.520036
    43 1.117948 0.048426 -0.005764 0.141415 -0.112122 -0.433267
    44 -0.127680 -0.111698 0.014397 0.284735 -0.010157 1.524444
    45 -1.440346 8.796207 -0.165213 4.639975 1.483718 0.062637
  time 12
    0 8.199493 6.909141 -8.978750 -0.997209 -1.302564 0.657353
    1 -0.071919 -8.498734 -0.104136 -0.375321 0.619109 -0.619338
    2 0.521574 -2.341931 0.944898 0.192476 1.308143 0.129949
    3 0.250714 25.919879 -8.640471 0.000000 0.000000 0.000000
    4 -0.000001 -5.493355 -0.179960 0.000000 0.000000 0.000000
    5 -0.670049 -8.175868 2.510258 0.000000 0.000000 0.000000
    6 -0.000001 -16.111864 -1.715292 0.000000 0.000000 0.000000
    7 -0.000001 -7.461284 -0.759587 0.000000 0.000000 0.000000
    8 -0.000001 -10.320615 -1.410366 0.000000 0.000000 0.000000
    9 -0.000001 -2.553366 0.694624 0.000000 0.000000 0.000000
    10 -0.488517 -2.755600 -0.228261 -1.125952 -0.132656 -0.266599
    11 0.039887 -1.479790 0.029853 -1.195881 0.000000 0.000000
    12 0.028785 -1.075733 -0.023111 -1.114265 0.000000 0.000000
    13 0.250028 -2.820663 -0.238396 -0.897278 -0.150104 -0.211378
    14 -0.049759 -1.680546 0.100480 -1.455996 0.000000 -0.000002
    15 -0.034141 -1.148310 0.084779 -1.197915 0.000000 0.000000
    16 0.957766 -2.746777 -0.090300 -0.168610 -0.360143 -0.074009
    17 -0.033419 -1.397129 -0.011255 -0.108946 0.000000 -0.000001
    18 -0.022360 -0.957436 0.018783 -0.423640 0.000000 0.000000
    19 -1.180680 -2.507214 -0.193861 -0.919163 -0.054420 -0.368807
    20 -0.024966 -1.123934 0.017594 -1.368378 0.000000 0.000001
    21 -0.020057 -0.890966 0.010091 -0.855336 0.000000 0.000000
    22 0.583510 -1.197275 0.185377 -0.876575 -1.052204 0.140503
    23 1.535927 0.010246 0.005008 0.012053 -0.005632 -1.358008
    24 1.100770 0.004526 -0.010676 -0.012959 0.009741 -0.750357
    25 0.120152 -0.050266 -0.054488 0.287568 3.110905 1.561085
    26 1.304055 8.801644 -0.126373 -4.678056 -1.493055 -0.161010
    27 -5.388659 0.704376 -10.281393 0.715322 -4.355122 -5.615813
    28 0.096944 -8.450418 -0.009364 -0.244958 -0.219714 0.378044
    29 0.447952 -2.798983 -0.200442 -0.128418 0.095404 0.224982
    30 -0.032910 -1.480204 0.004936 -0.426542 0.000000 0.000002
    31 -0.027022 -1.076918 -0.020212 -0.250151 0.000000 0.000000
    32 -0.249534 -2.846960 -0.174216 -0.081849 -0.033119 0.046134
    33 0.043235 -1.683941 0.096014 -0.573699 0.002823 -0.000167
    34 0.031729 -1.160830 0.058836 -0.169647 0.000642 0.008372
    35 -0.963867 -2.785143 -0.085346 0.458218 0.500517 0.011499
    36 0.028479 -1.403067 0.006271 0.028672 0.000000 0.000000
    37 0.021413 -0.957779 0.020047 -0.112817 0.000000 0.000000
    38 1.164475 -2.543938 -0.170328 -0.262351 0.019783 0.238594
    39 0.024033 -1.129040 0.017806 -1.358776 0.000000 0.000001
    40 0.014897 -0.883989 -0.019845 -0.807373 0.000000 0.000000
    41 -0.590676 -1.260571 0.231415 0.075893 -0.413604 -2.591303
    42 1.522835 0.058680 0.016850 0.374088 0.127105 0.525227
    43 1.117948 0.048426 -0.005764 0.147743 -0.128709 -0.512567
    44 -0.131586 -0.111698 0.014397 0.284987 -0.017120 1.536273
    45 -1.440346 8.796207 -0.165213 4.639975 1.483718 0.062637
  time 13
    0 8.195586 6.877890 -8.982656 -1.036954 -1.296487 0.699856
    1 -0.071919 -8.498734 -0.104136 -0.329027 0.591382 -0.558593
    2 0.521574 -2.341931 0.944898 0.192476 1.308143 0.129949
    3 0.250714 25.919879 -8.640471 0.000000 0.000000 0.000000
    4 -0.000001 -5.493355 -0.179960 0.000000 0.000000 0.000000
    5 -0.670049 -8.175868 2.510258 0.000000 0.000000 0.000000
    6 -0.000001 -16.111864 -1.715292 0.000000 0.000000 0.000000
    7 -0.000001 -7.461284 -0.759587 0.000000 0.000000 0.000000
    8 -0.000001 -10.320615 -1.410366 0.000000 0.000000 0.000000
    9 -0.000001 -2.553366 0.694624 0.000000 0.000000 0.000000
    10 -0.488517 -2.755600 -0.228261 -1.125952 -0.132656 -0.266599
    11 0.039887 -1.479790 0.029853 -1.195951 0.000000 0.000000
    12 0.028785 -1.075733 -0.023111 -1.114265 0.000000 0.000000
    13 0.250028 -2.820663 -0.238396 -0.897278 -0.150104 -0.211378
    14 -0.049759 -1.680546 0.100480 -1.455996 0.000000 -0.000002
    15 -0.034141 -1.148310 0.084779 -1.197915 0.000000 0.000000
    16 0.957766 -2.746777 -0.090300 -0.168610 -0.360143 -0.074009
    17 -0.033419 -1.397129 -0.011255 -0.108946 0.000000 -0.000001
    18 -0.022360 -0.957436 0.018783 -0.423640 0.000000 0.000000
    19 -1.180680 -2.507214 -0.193861 -0.919163 -0.054420 -0.368807
    20 -0.024966 -1.123934 0.017594 -1.368378 0.000000 0.000001
    21 -0.020057 -0.890966 0.010091 -0.855336 0.000000 0.000000
    22 0.583510 -1.197275 0.185377 -0.876575 -1.052204 0.140503
    23 1.535927 0.010246 0.005008 0.012053 -0.005632 -1.358008
    24 1.100770 0.004526 -0.010676 -0.012959 0.009741 -0.750357
    25 0.120152 -0.050266 -0.054488 0.287568 3.110905 1.561085
    26 1.304055 8.801644 -0.126373 -4.678056 -1.493055 -0.161010
    27 -5.142557 0.305926 -10.148576 0.803790 -4.298885 -5.506479
    28 0.096944 -8.450418 -0.009364 -0.271080 -0.208340 0.375020
    29 0.447952 -2.798983 -0.200442 -0.039824 0.105495 0.221170
    30 -0.032910 -1.480204 0.004936 -0.287728 0.000000 0.000002
    31 -0.027022 -1.076918 -0.020212 -0.160412 0.000000 0.000000
    32 -0.249534 -2.846960 -0.174216 -0.026890 -0.027761 0.030170
    33 0.043235 -1.683941 0.096014 -0.445725 0.002823 -0.000167
    34 0.031729 -1.160830 0.058836 -0.087870 0.000642 0.008372
    35 -0.963867 -2.785143 -0.085346 0.462128 0.519692 0.011655
    36 0.028479 -1.403067 0.006271 0.080161 0.000000 0.000000
    37 0.021413 -0.957779 0.020047 -0.046896 0.000000 0.000000
    38 1.164475 -2.543938 -0.170328 -0.163482 0.027849 0.228948
    39 0.024033 -1.129040 0.017806 -1.339963 0.000000 0.000001
    40 0.014897 -0.883989 -0.019845 -0.783193 0.000000 0.000000
    41 -0.590676 -1.260571 0.231415 0.092361 -0.435508 -2.574438
    42 1.522835 0.058680 0.016850 0.353077 0.136873 0.529314
    43 1.117948 0.048426 -0.005764 0.153471 -0.143809 -0.585586
    44 -0.131586 -0.111698 0.014397 0.285178 -0.023520 1.547155
    45 -1.440346 8.796207 -0.165213 4.639975 1.483718 0.062637
  time 14
    0 8.160429 6.846639 -9.006095 -1.076070 -1.291890 0.742359
    1 -0.071919 -8.498734 -0.104136 -0.275040 0.559466 -0.491022
    2 0.521574 -2.341931 0.944898 0.192476 1.308143 0.129949
    3 0.250714 25.919879 -8.640471 0.000000 0.000000 0.000000
    4 -0.000001 -5.493355 -0.179960 0.000000 0.000000 0.000000
    5 -0.670049 -8.175868 2.510258 0.000000 0.000000 0.000000
    6 -0.000001 -16.111864 -1.715292 0.000000 0.000000 0.000000
    7 -0.000001 -7.461284 -0.759587 0.000000 0.000000 0.000000
    8 -0.000001 -10.320615 -1.410366 0.000000 0.000000 0.000000
    9 -0.000001 -2.553366 0.694624 0.000000 0.000000 0.000000
    10 -0.488517 -2.755600 -0.228261 -1.125952 -0.132656 -0.266599
    11 0.039887 -1.479790 0.029853 -1.195881 0.000000 0.000000
    12 0.028785 -1.075733 -0.023111 -1.114265 0.000000 0.000000
    13 0.250028 -2.820663 -0.238396 -0.897278 -0.150104 -0.211378
    14 -0.049759 -1.680546 0.100480 -1.455996 0.000000 -0.000002
    15 -0.034141 -1.148310 0.084779 -1.197915 0.000000 0.000000
    16 0.957766 -2.746777 -0.090300 -0.168610 -0.360143 -0.074009
    17 -0.033419 -1.397129 -0.011255 -0.108946 0.000000 -0.000001
    18 -0.022360 -0.957436 0.018783 -0.423640 0.000000 0.000000
    19 -1.180680 -2.507214 -0.193861 -0.919163 -0.054420 -0.368807
    20 -0.024966 -1.123934 0.017594 -1.368378 0.000000 0.000001
    21 -0.020057 -0.890966 0.010091 -0.855336 0.000000 0.000000
    22 0.583510 -1.197275 0.185377 -0.876575 -1.052204 0.140503
    23 1.535927 0.010246 0.005008 0.012053 -0.005632 -1.358008
    24 1.100770 0.004526 -0.010676 -0.012959 0.009741 -0.750357
    25 0.120152 -0.050266 -0.054488 0.287568 3.110905 1.561085
    26 1.304055 8.801644 -0.126373 -4.678056 -1.493055 -0.161010
    27 -4.892550 -0.061273 -10.031385 0.848341 -4.249431 -5.436912
    28 0.096944 -8.450418 -0.009364 -0.280851 -0.203975 0.369860
    29 0.447952 -2.798983 -0.200442 0.038483 0.114412 0.217803
    30 -0.032910 -1.480204 0.004936 -0.165078 0.000000 0.000002
    31 -0.027022 -1.076918 -0.020212 -0.081210 0.000000 0.000000
    32 -0.249534 -2.846960 -0.174216 0.021648 -0.023052 0.016089
    33 0.043235 -1.683941 0.096014 -0.332632 0.002823 -0.000167
    34 0.031729 -1.160830 0.058836 -0.015786 0.000642 0.008372
    35 -0.963867 -2.785143 -0.085346 0.464651 0.532108 0.011679
    36 0.028479 -1.403067 0.006271 0.123414 0.000000 0.000000
    37 0.021413 -0.957779 0.020047 0.008416 0.000000 0.000000
    38 1.164475 -2.543938 -0.170328 -0.076179 0.034992 0.220423
    39 0.024033 -1.129040 0.017806 -1.323407 0.000000 0.000001
    40 0.014897 -0.883989 -0.019845 -0.761848 0.000000 0.000000
    41 -0.590676 -1.260571 0.231415 0.103778 -0.455746 -2.556214
    42 1.522835 0.058680 0.016850 0.333331 0.146628 0.531969
    43 1.117948 0.048426 -0.005764 0.158505 -0.157076 -0.650163
    44 -0.139399 -0.111698 0.014397 0.285322 -0.029177 1.556779
    45 -1.440346 8.796207 -0.165213 4.639975 1.483718 0.062637
  time 15
    0 8.101834 6.823200 -9.033439 -1.114508 -1.288532 0.785133
    1 -0.071919 -8.498734 -0.104136 -0.215421 0.523937 -0.419001
    2 0.521574 -2.341931 0.944898 0.192476 1.308143 0.129949
    3 0.250714 25.919879 -8.640471 0.000000 0.000000 0.000000
    4 -0.000001 -5.493355 -0.179960 0.000000 0.000000 0.000000
    5 -0.670049 -8.175868 2.510258 0.000000 0.000000 0.000000
    6 -0.000001 -16.111864 -1.715292 0.000000 0.000000 0.000000
    7 -0.000001 -7.461284 -0.759587 0.000000 0.000000 0.000000
    8 -0.000001 -10.320615 -1.410366 0.000000 0.000000 0.000000
    9 -0.000001 -2.553366 0.694624 0.000000 0.000000 0.000000
    10 -0.488517 -2.755600 -0.228261 -1.125915 -0.132656 -0.266599
    11 0.039887 -1.479790 0.029853 -1.195881 0.000000 0.000000
    12 0.028785 -1.075733 -0.023111 -1.114265 0.000000 0.000000
    13 0.250028 -2.820663 -0.238396 -0.897278 -0.150104 -0.211378
    14 -0.049759 -1.680546 0.100480 -1.455996 0.000000 -0.000002
    15 -0.034141 -1.148310 0.084779 -1.197915 0.000000 0.000000
    16 0.957766 -2.746777 -0.090300 -0.168610 -0.360143 -0.074009
    17 -0.033419 -1.397129 -0.011255 -0.108946 0.000000 -0.000001
    18 -0.022360 -0.957436 0.018783 -0.423640 0.000000 0.000000
    19 -1.180680 -2.507214 -0.193861 -0.919163 -0.054420 -0.368807
    20 -0.024966 -1.123934 0.017594 -1.368378 0.000000 0.000001
    21 -0.020057 -0.890966 0.010091 -0.855336 0.000000 0.000000
    22 0.583510 -1.197275 0.185377 -0.876575 -1.052204 0.140503
    23 1.535927 0.010246 0.005008 0.012053 -0.005632 -1.358008
    24 1.100770 0.004526 -0.010676 -0.012959 0.009741 -0.750357
    25 0.120152 -0.050266 -0.054488 0.287568 3.110905 1.561085
    26 1.304055 8.801644 -0.126373 -4.678056 -1.493055 -0.161010
    27 -4.646449 -0.393314 -9.945445 0.861611 -4.211280 -5.393025
    28 0.096944 -8.450418 -0.009364 -0.271457 -0.207812 0.362250
    29 0.447952 -2.798983 -0.200442 0.103895 0.121854 0.214986
    30 -0.032910 -1.480204 0.004936 -0.062579 0.000000 0.000002
    31 -0.027022 -1.076918 -0.020212 -0.015019 0.000000 0.000000
    32 -0.249534 -2.846960 -0.174216 0.062124 -0.019109 0.004320
    33 0.043235 -1.683941 0.096014 -0.238175 0.002823 -0.000167
    34 0.031729 -1.160830 0.058836 0.044514 0.000642 0.008372
    35 -0.963867 -2.785143 -0.085346 0.465533 0.536531 0.011547
    36 0.028479 -1.403067 0.006271 0.156548 0.000000 0.000000
    37 0.021413 -0.957779 0.020047 0.050896 0.000000 0.000000
    38 1.164475 -2.543938 -0.170328 -0.003198 0.040936 0.213290
    39 0.024033 -1.129040 0.017806 -1.309514 0.000000 0.000001
    40 0.014897 -0.883989 -0.019845 -0.743986 0.000000 0.000000
    41 -0.590676 -1.260571 0.231415 0.109278 -0.473787 -2.536650
    42 1.522835 0.058680 0.016850 0.315266 0.156312 0.532954
    43 1.117948 0.048426 -0.005764 0.162652 -0.168090 -0.704057
    44 -0.139399 -0.111698 0.014397 0.285418 -0.033887 1.564808
    45 -1.440346 8.796207 -0.165213 4.639975 1.483718 0.062637
  time 16
    0 8.027613 6.799762 -9.072503 -1.152365 -1.286134 0.827726
    1 -0.071919 -8.498734 -0.104136 -0.152063 0.485476 -0.344906
    2 0.521574 -2.341931 0.944898 0.192476 1.308143 0.129949
    3 0.250714 25.919879 -8.640471 0.000000 0.000000 0.000000
    4 -0.000001 -5.493355 -0.179960 0.000000 0.000000 0.000000
    5 -0.670049 -8.175868 2.510258 0.000000 0.000000 0.000000
    6 -0.000001 -16.111864 -1.715292 0.000000 0.000000 0.000000
    7 -0.000001 -7.461284 -0.759587 0.000000 0.000000 0.000000
    8 -0.000001 -10.320615 -1.410366 0.000000 0.000000 0.000000
    9 -0.000001 -2.553366 0.694624 0.000000 0.000000 0.000000
    10 -0.488517 -2.755600 -0.228261 -1.125915 -0.132656 -0.266599
    11 0.039887 -1.479790 0.029853 -1.195951 0.000000 0.000000
    12 0.028785 -1.075733 -0.023111 -1.114265 0.000000 0.000000
    13 0.250028 -2.820663 -0.238396 -0.897278 -0.150104 -0.211378
    14 -0.049759 -1.680546 0.100480 -1.455996 0.000000 -0.000002
    15 -0.034141 -1.148310 0.084779 -1.197915 0.000000 0.000000
    16 0.957766 -2.746777 -0.090300 -0.168610 -0.360143 -0.074009
    17 -0.033419 -1.397129 -0.011255 -0.108946 0.000000 -0.000001
    18 -0.022360 -0.957436 0.018783 -0.423640 0.000000 0.000000
    19 -1.180680 -2.507214 -0.193861 -0.919163 -0.054420 -0.368807
    20 -0.024966 -1.123934 0.017594 -1.368378 0.000000 0.000001
    21 -0.020057 -0.890966 0.010091 -0.855336 0.000000 0.000000
    22 0.583510 -1.197275 0.185377 -0.876575 -1.052204 0.140503
    23 1.535927 0.010246 0.005008 0.012053 -0.005632 -1.358008
    24 1.100770 0.004526 -0.010676 -0.012959 0.009741 -0.750357
    25 0.120152 -0.050266 -0.054488 0.287568 3.110905 1.561085
    26 1.304055 8.801644 -0.126373 -4.678056 -1.493055 -0.161010
    27 -4.384722 -0.721449 -9.867318 0.848530 -4.183114 -5.363895
    28 0.096944 -8.450418 -0.009364 -0.234835 -0.219213 0.350365
    29 0.447952 -2.798983 -0.200442 0.153718 0.127535 0.212841
    30 -0.032910 -1.480204 0.004936 0.015490 0.000000 0.000002
    31 -0.027022 -1.076918 -0.020212 0.035331 0.000000 0.000000
    32 -0.249534 -2.846960 -0.174216 0.093036 -0.016088 -0.004669
    33 0.043235 -1.683941 0.096014 -0.166110 0.002823 -0.000167
    34 0.031729 -1.160830 0.058836 0.090496 0.000642 0.008372
    35 -0.963867 -2.785143 -0.085346 0.461308 0.448732 -0.001624
    36 0.028479 -1.403067 0.006271 0.177821 0.000000 0.000000
    37 0.021413 -0.957779 0.020047 0.078079 0.000000 0.000000
    38 1.164475 -2.543938 -0.170328 0.052488 0.045478 0.207859
    39 0.024033 -1.129040 0.017806 -1.298979 0.000000 0.000001
    40 0.014897 -0.883989 -0.019845 -0.730403 0.000000 0.000000
    41 -0.590676 -1.260571 0.231415 0.093557 -0.490498 -2.476312
    42 1.522835 0.058680 0.016850 0.292802 0.178699 0.481850
    43 1.117948 0.048426 -0.005764 0.165780 -0.176468 -0.745268
    44 -0.139399 -0.111698 0.014397 0.285478 -0.037494 1.570944
    45 -1.440346 8.796207 -0.165213 4.639975 1.483718 0.062637
  time 17
    0 7.933860 6.788043 -9.115473 -1.189302 -1.284415 0.870050
    1 -0.071919 -8.498734 -0.104136 -0.086900 0.444867 -0.270854
    2 0.521574 -2.341931 0.944898 0.192476 1.308143 0.129949
    3 0.250714 25.919879 -8.640471 0.000000 0.000000 0.000000
    4 -0.000001 -5.493355 -0.179960 0.000000 0.000000 0.000000
    5 -0.670049 -8.175868 2.510258 0.000000 0.000000 0.000000
    6 -0.000001 -16.111864 -1.715292 0.000000 0.000000 0.000000
    7 -0.000001 -7.461284 -0.759587 0.000000 0.000000 0.000000
    8 -0.000001 -10.320615 -1.410366 0.000000 0.000000 0.000000
    9 -0.000001 -2.553366 0.694624 0.000000 0.000000 0.000000
    10 -0.488517 -2.755600 -0.228261 -1.125952 -0.132656 -0.266599
    11 0.039887 -1.479790 0.029853 -1.195951 0.000000 0.000000
    12 0.028785 -1.075733 -0.023111 -1.114265 0.000000 0.000000
    13 0.250028 -2.820663 -0.238396 -0.897278 -0.150104 -0.211378
    14 -0.049759 -1.680546 0.100480 -1.455996 0.000000 -0.000002
    15 -0.034141 -1.148310 0.084779 -1.197915 0.000000 0.000000
    16 0.957766 -2.746777 -0.090300 -0.168610 -0.360143 -0.074009
    17 -0.033419 -1.397129 -0.011255 -0.108946 0.000000 -0.000001
    18 -0.022360 -0.957436 0.018783 -0.423640 0.000000 0.000000
    19 -1.180680 -2.507214 -0.193861 -0.919163 -0.054420 -0.368807
    20 -0.024966 -1.123934 0.017594 -1.368378 0.000000 0.000001
    21 -0.020057 -0.890966 0.010091 -0.855336 0.000000 0.000000
    22 0.583510 -1.197275 0.185377 -0.876575 -1.052204 0.140503
    23 1.535927 0.010246 0.005008 0.012053 -0.005632 -1.358008
    24 1.100770 0.004526 -0.010676 -0.012959 0.009741 -0.750357
    25 0.120152 -0.050266 -0.054488 0.287568 3.110905 1.561085
    26 1.304055 8.801644 -0.126373 -4.678056 -1.493055 -0.161010
    27 -4.099557 -1.084741 -9.777471 0.814343 -4.160600 -5.341855
    28 0.096944 -8.450418 -0.009364 -0.171137 -0.236147 0.333711
    29 0.447952 -2.798983 -0.200442 0.185571 0.131166 0.211475
    30 -0.032910 -1.480204 0.004936 0.065362 0.000000 0.000002
    31 -0.027022 -1.076918 -0.020212 0.067577 0.000000 0.000000
    32 -0.249534 -2.846960 -0.174216 0.112779 -0.014183 -0.010373
    33 0.043235 -1.683941 0.096014 -0.120122 0.002823 -0.000167
    34 0.031729 -1.160830 0.058836 0.119903 0.000642 0.008372
    35 -0.963867 -2.785143 -0.085346 0.450188 0.284279 -0.026312
    36 0.028479 -1.403067 0.006271 0.185304 0.000000 0.000000
    37 0.021413 -0.957779 0.020047 0.087661 0.000000 0.000000
    38 1.164475 -2.543938 -0.170328 0.087850 0.048379 0.204386
    39 0.024033 -1.129040 0.017806 -1.292206 0.000000 0.000001
    40 0.014897 -0.883989 -0.019845 -0.721646 0.000000 0.000000
    41 -0.590676 -1.260571 0.231415 0.062294 -0.501704 -2.384751
    42 1.522835 0.058680 0.016850 0.268922 0.210158 0.386862
    43 1.117948 0.048426 -0.005764 0.167769 -0.181801 -0.771514
    44 -0.139399 -0.111698 0.014397 0.285526 -0.039783 1.574863
    45 -1.440346 8.796207 -0.165213 4.639975 1.483718 0.062637
  time 18
    0 7.828388 6.768511 -9.166256 -1.225126 -1.283175 0.911292
    1 -0.071919 -8.498734 -0.104136 -0.021736 0.403080 -0.198876
    2 0.521574 -2.341931 0.944898 0.192476 1.308143 0.129949
    3 0.250714 25.919879 -8.640471 0.000000 0.000000 0.000000
    4 -0.000001 -5.493355 -0.179960 0.000000 0.000000 0.000000
    5 -0.670049 -8.175868 2.510258 0.000000 0.000000 0.000000
    6 -0.000001 -16.111864 -1.715292 0.000000 0.000000 0.000000
    7 -0.000001 -7.461284 -0.759587 0.000000 0.000000 0.000000
    8 -0.000001 -10.320615 -1.410366 0.000000 0.000000 0.000000
    9 -0.000001 -2.553366 0.694624 0.000000 0.000000 0.000000
    10 -0.488517 -2.755600 -0.228261 -1.125952 -0.132656 -0.266599
    11 0.039887 -1.479790 0.029853 -1.195881 0.000000 0.000000
    12 0.028785 -1.075733 -0.023111 -1.114265 0.000000 0.000000
    13 0.250028 -2.820663 -0.238396 -0.897278 -0.150104 -0.211378
    14 -0.049759 -1.680546 0.100480 -1.455996 0.000000 -0.000002
    15 -0.034141 -1.148310 0.084779 -1.197915 0.000000 0.000000
    16 0.957766 -2.746777 -0.090300 -0.168610 -0.360143 -0.074009
    17 -0.033419 -1.397129 -0.011255 -0.108946 0.000000 -0.000001
    18 -0.022360 -0.957436 0.018783 -0.423640 0.000000 0.000000
    19 -1.180680 -2.507214 -0.193861 -0.919163 -0.054420 -0.368807
    20 -0.024966 -1.123934 0.017594 -1.368378 0.000000 0.000001
    21 -0.020057 -0.890966 0.010091 -0.855336 0.000000 0.000000
    22 0.583510 -1.197275 0.185377 -0.876575 -1.052204 0.140503
    23 1.535927 0.010246 0.005008 0.012053 -0.005632 -1.358008
    24 1.100770 0.004526 -0.010676 -0.012959 0.009741 -0.750357
    25 0.120152 -0.050266 -0.054488 0.287568 3.110905 1.561085
    26 1.304055 8.801644 -0.126373 -4.678056 -1.493055 -0.161010
    27 -3.783141 -1.459753 -9.691531 0.766634 -4.142891 -5.324416
    28 0.096944 -8.450418 -0.009364 -0.089756 -0.257531 0.313851
    29 0.447952 -2.798983 -0.200442 0.196758 0.132436 0.210996
    30 -0.032910 -1.480204 0.004936 0.082904 0.000000 0.000002
    31 -0.027022 -1.076918 -0.020212 0.078892 0.000000 0.000000
    32 -0.249534 -2.846960 -0.174216 0.119713 -0.013512 -0.012399
    33 0.043235 -1.683941 0.096014 -0.103965 0.002823 -0.000167
    34 0.031729 -1.160830 0.058836 0.130256 0.000642 0.008372
    35 -0.963867 -2.785143 -0.085346 0.432279 0.191806 -0.043978
    36 0.028479 -1.403067 0.006271 -0.010156 0.000000 0.000000
    37 0.021413 -0.957779 0.020047 -0.006101 0.000000 0.000000
    38 1.164475 -2.543938 -0.170328 0.100408 0.049385 0.203170
    39 0.024033 -1.129040 0.017806 -1.289833 0.000000 0.000001
    40 0.014897 -0.883989 -0.019845 -0.718611 0.000000 0.000000
    41 -0.590676 -1.260571 0.231415 0.045527 -0.504964 -2.337373
    42 1.522835 0.058680 0.016850 0.257784 0.226098 0.335668
    43 1.117948 0.048426 -0.005764 0.168452 -0.183658 -0.780757
    44 -0.139399 -0.111698 0.014397 0.285526 -0.040586 1.576229
    45 -1.440346 8.796207 -0.165213 4.639975 1.483718 0.062637
  time 19
    0 7.711197 6.756792 -9.220945 -1.259352 -1.282416 0.951274
    1 -0.071919 -8.498734 -0.104136 0.041665 0.361215 -0.130786
    2 0.521574 -2.341931 0.944898 0.192476 1.308143 0.129949
    3 0.250714 25.919879 -8.640471 0.000000 0.000000 0.000000
    4 -0.000001 -5.493355 -0.179960 0.000000 0.000000 0.000000
    5 -0.670049 -8.175868 2.510258 0.000000 0.000000 0.000000
    6 -0.000001 -16.111864 -1.715292 0.000000 0.000000 0.000000
    7 -0.000001 -7.461284 -0.759587 0.000000 0.000000 0.000000
    8 -0.000001 -10.320615 -1.410366 0.000000 0.000000 0.000000
    9 -0.000001 -2.553366 0.694624 0.000000 0.000000 0.000000
    10 -0.488517 -2.755600 -0.228261 -1.125952 -0.132656 -0.266599
    11 0.039887 -1.479790 0.029853 -1.195881 0.000000 0.000000
    12 0.028785 -1.075733 -0.023111 -1.114265 0.000000 0.000000
    13 0.250028 -2.820663 -0.238396 -0.897278 -0.150104 -0.211378
    14 -0.049759 -1.680546 0.100480 -1.455996 0.000000 -0.000002
    15 -0.034141 -1.148310 0.084779 -1.197915 0.000000 0.000000
    16 0.957766 -2.746777 -0.090300 -0.168610 -0.360143 -0.074009
    17 -0.033419 -1.397129 -0.011255 -0.108946 0.000000 -0.000001
    18 -0.022360 -0.957436 0.018783 -0.423640 0.000000 0.000000
    19 -1.180680 -2.507214 -0.193861 -0.919163 -0.054420 -0.368807
    20 -0.024966 -1.123934 0.017594 -1.368378 0.000000 0.000001
    21 -0.020057 -0.890966 0.010091 -0.855336 0.000000 0.000000
    22 0.583510 -1.197275 0.185377 -0.876575 -1.052204 0.140503
    23 1.535927 0.010246 0.005008 0.012053 -0.005632 -1.358008
    24 1.100770 0.004526 -0.010676 -0.012959 0.009741 -0.750357
    25 0.120152 -0.050266 -0.054488 0.287568 3.110905 1.561085
    26 1.304055 8.801644 -0.126373 -4.678056 -1.493055 -0.161010
    27 -3.466725 -1.834764 -9.609497 0.712162 -4.128855 -5.309946
    28 0.096944 -8.450418 -0.009364 -0.000136 -0.282252 0.292297
    29 0.447952 -2.798983 -0.200442 0.103895 0.121854 0.214986
    30 -0.032910 -1.480204 0.004936 0.010996 0.000000 0.000002
    31 -0.027022 -1.076918 -0.020212 0.061708 0.000000 0.000000
    32 -0.249534 -2.846960 -0.174216 0.076641 -0.017682 0.000089
    33 0.043235 -1.683941 0.096014 -0.138900 0.002823 -0.000167
    34 0.031729 -1.160830 0.058836 0.108283 0.000642 0.008372
    35 -0.963867 -2.785143 -0.085346 0.389228 0.185502 -0.052583
    36 0.028479 -1.403067 0.006271 -0.205711 0.000000 0.000000
    37 0.021413 -0.957779 0.020047 -0.180301 0.000000 0.000000
    38 1.164475 -2.543938 -0.170328 -0.003198 0.040936 0.213290
    39 0.024033 -1.129040 0.017806 -1.290123 0.000000 0.000001
    40 0.014897 -0.883989 -0.019845 -0.749409 0.000000 0.000000
    41 -0.590676 -1.260571 0.231415 0.041402 -0.489629 -2.348609
    42 1.522835 0.058680 0.016850 0.264429 0.208984 0.338055
    43 1.117948 0.048426 -0.005764 0.163467 -0.171446 -0.761712
    44 -0.139399 -0.111698 0.014397 0.285502 -0.038813 1.573197
    45 -1.440346 8.796207 -0.165213 4.639975 1.483718 0.062637
  time 20
    0 7.605725 6.745073 -9.267821 -1.291642 -1.281776 0.989095
    1 -0.071919 -8.498734 -0.104136 0.101584 0.320450 -0.068184
    2 0.521574 -2.341931 0.944898 0.192476 1.308143 0.129949
    3 0.250714 25.919879 -8.640471 0.000000 0.000000 0.000000
    4 -0.000001 -5.493355 -0.179960 0.000000 0.000000 0.000000
    5 -0.670049 -8.175868 2.510258 0.000000 0.000000 0.000000
    6 -0.000001 -16.111864 -1.715292 0.000000 0.000000 0.000000
    7 -0.000001 -7.461284 -0.759587 0.000000 0.000000 0.000000
    8 -0.000001 -10.320615 -1.410366 0.000000 0.000000 0.000000
    9 -0.000001 -2.553366 0.694624 0.000000 0.000000 0.000000
    10 -0.488517 -2.755600 -0.228261 -1.125952 -0.132656 -0.266599
    11 0.039887 -1.479790 0.029853 -1.195951 0.000000 0.000000
    12 0.028785 -1.075733 -0.023111 -1.114265 0.000000 0.000000
    13 0.250028 -2.820663 -0.238396 -0.897278 -0.150104 -0.211378
    14 -0.049759 -1.680546 0.100480 -1.455996 0.000000 -0.000002
    15 -0.034141 -1.148310 0.084779 -1.197915 0.000000 0.000000
    16 0.957766 -2.746777 -0.090300 -0.168610 -0.360143 -0.074009
    17 -0.033419 -1.397129 -0.011255 -0.108946 0.000000 -0.000001
    18 -0.022360 -0.957436 0.018783 -0.423640 0.000000 0.000000
    19 -1.180680 -2.507214 -0.193861 -0.919163 -0.054420 -0.368807
    20 -0.024966 -1.123934 0.017594 -1.368378 0.000000 0.000001
    21 -0.020057 -0.890966 0.010091 -0.855336 0.000000 0.000000
    22 0.583510 -1.197275 0.185377 -0.876575 -1.052204 0.140503
    23 1.535927 0.010246 0.005008 0.012053 -0.005632 -1.358008
    24 1.100770 0.004526 -0.010676 -0.012959 0.009741 -0.750357
    25 0.120152 -0.050266 -0.054488 0.287568 3.110905 1.561085
    26 1.304055 8.801644 -0.126373 -4.678056 -1.493055 -0.161010
    27 -3.146403 -2.190244 -9.543089 0.657186 -4.117457 -5.297010
    28 0.096944 -8.450418 -0.009364 0.088328 -0.309224 0.270717
    29 0.447952 -2.798983 -0.200442 -0.128418 0.095404 0.224982
    30 -0.032910 -1.480204 0.004936 -0.175516 0.000000 0.000002
    31 -0.027022 -1.076918 -0.020212 0.014257 0.000000 0.000000
    32 -0.249534 -2.846960 -0.174216 -0.034404 -0.028505 0.032364
    33 0.043235 -1.683941 0.096014 -0.233427 0.002823 -0.000167
    34 0.031729 -1.160830 0.058836 0.048975 0.000642 0.008372
    35 -0.963867 -2.785143 -0.085346 0.313092 0.180301 -0.060552
    36 0.028479 -1.403067 0.006271 -0.199686 0.000000 0.000000
    37 0.021413 -0.957779 0.020047 -0.274104 0.000000 0.000000
    38 1.164475 -2.543938 -0.170328 -0.262351 0.019783 0.238594
    39 0.024033 -1.129040 0.017806 -1.291280 0.000000 0.000001
    40 0.014897 -0.883989 -0.019845 -0.826380 0.000000 0.000000
    41 -0.590676 -1.260571 0.231415 0.029836 -0.449805 -2.377688
    42 1.522835 0.058680 0.016850 0.282381 0.164845 0.344827
    43 1.117948 0.048426 -0.005764 0.150499 -0.139903 -0.709818
    44 -0.139399 -0.111698 0.014397 0.285418 -0.033887 1.564808
    45 -1.440346 8.796207 -0.165213 4.639975 1.483718 0.062637
  time 21
    0 7.496346 6.733354 -9.322511 -1.321318 -1.281377 1.023944
    1 -0.071919 -8.498734 -0.104136 0.156389 0.282171 -0.012493
    2 0.521574 -2.341931 0.944898 0.192476 1.308143 0.129949
    3 0.250714 25.919879 -8.640471 0.000000 0.000000 0.000000
    4 -0.000001 -5.493355 -0.179960 0.000000 0.000000 0.000000
    5 -0.670049 -8.175868 2.510258 0.000000 0.000000 0.000000
    6 -0.000001 -16.111864 -1.715292 0.000000 0.000000 0.000000
    7 -0.000001 -7.461284 -0.759587 0.000000 0.000000 0.000000
    8 -0.000001 -10.320615 -1.410366 0.000000 0.000000 0.000000
    9 -0.000001 -2.553366 0.694624 0.000000 0.000000 0.000000
    10 -0.488517 -2.755600 -0.228261 -1.125952 -0.132656 -0.266599
    11 0.039887 -1.479790 0.029853 -1.195881 0.000000 0.000000
    12 0.028785 -1.075733 -0.023111 -1.114265 0.000000 0.000000
    13 0.250028 -2.820663 -0.238396 -0.897278 -0.150104 -0.211378
    14 -0.049759 -1.680546 0.100480 -1.455996 0.000000 -0.000002
    15 -0.034141 -1.148310 0.084779 -1.197915 0.000000 0.000000
    16 0.957766 -2.746777 -0.090300 -0.168610 -0.360143 -0.074009
    17 -0.033419 -1.397129 -0.011255 -0.108946 0.000000 -0.000001
    18 -0.022360 -0.957436 0.018783 -0.423640 0.000000 0.000000
    19 -1.180680 -2.507214 -0.193861 -0.919163 -0.054420 -0.368807
    20 -0.024966 -1.123934 0.017594 -1.368378 0.000000 0.000001
    21 -0.020057 -0.890966 0.010091 -0.855336 0.000000 0.000000
    22 0.583510 -1.197275 0.185377 -0.876575 -1.052204 0.140503
    23 1.535927 0.010246 0.005008 0.012053 -0.005632 -1.358008
    24 1.100770 0.004526 -0.010676 -0.012959 0.009741 -0.750357
    25 0.120152 -0.050266 -0.054488 0.287568 3.110905 1.561085
    26 1.304055 8.801644 -0.126373 -4.678056 -1.493055 -0.161010
    27 -2.829987 -2.506660 -9.500119 0.607833 -4.107472 -5.284745
    28 0.096944 -8.450418 -0.009364 0.166092 -0.337615 0.250779
    29 0.447952 -2.798983 -0.200442 -0.430367 0.061008 0.237997
    30 -0.032910 -1.480204 0.004936 -0.433066 0.000000 0.000002
    31 -0.027022 -1.076918 -0.020212 -0.056954 0.000000 0.000000
    32 -0.249534 -2.846960 -0.174216 -0.186370 -0.043270 0.076479
    33 0.043235 -1.683941 0.096014 -0.372314 0.002823 -0.000167
    34 0.031729 -1.160830 0.058836 -0.038474 0.000642 0.008372
    35 -0.963867 -2.785143 -0.085346 0.218288 0.176142 -0.067659
    36 0.028479 -1.403067 0.006271 -0.184626 0.000000 0.000000
    37 0.021413 -0.957779 0.020047 -0.231047 0.000000 0.000000
    38 1.164475 -2.543938 -0.170328 -0.599332 -0.007697 0.271492
    39 0.024033 -1.129040 0.017806 -1.294059 0.000000 0.000001
    40 0.014897 -0.883989 -0.019845 -0.926337 0.000000 0.000000
    41 -0.590676 -1.260571 0.231415 0.011783 -0.394719 -2.417601
    42 1.522835 0.058680 0.016850 0.308678 0.104478 0.355388
    43 1.117948 0.048426 -0.005764 0.132642 -0.096830 -0.633279
    44 -0.139399 -0.111698 0.014397 0.285262 -0.026456 1.552140
    45 -1.440346 8.796207 -0.165213 4.639975 1.483718 0.062637
  time 22
    0 7.394781 6.725541 -9.365481 -1.347653 -1.280977 1.055282
    1 -0.071919 -8.498734 -0.104136 0.204359 0.247716 0.034858
    2 0.521574 -2.341931 0.944898 0.192476 1.308143 0.129949
    3 0.250714 25.919879 -8.640471 0.000000 0.000000 0.000000
    4 -0.000001 -5.493355 -0.179960 0.000000 0.000000 0.000000
    5 -0.670049 -8.175868 2.510258 0.000000 0.000000 0.000000
    6 -0.000001 -16.111864 -1.715292 0.000000 0.000000 0.000000
    7 -0.000001 -7.461284 -0.759587 0.000000 0.000000 0.000000
    8 -0.000001 -10.320615 -1.410366 0.000000 0.000000 0.000000
    9 -0.000001 -2.553366 0.694624 0.000000 0.000000 0.000000
    10 -0.488517 -2.755600 -0.228261 -1.125952 -0.132656 -0.266599
    11 0.039887 -1.479790 0.029853 -1.195881 0.000000 0.000000
    12 0.028785 -1.075733 -0.023111 -1.114265 0.000000 0.000000
    13 0.250028 -2.820663 -0.238396 -0.897278 -0.150104 -0.211378
    14 -0.049759 -1.680546 0.100480 -1.455996 0.000000 -0.000002
    15 -0.034141 -1.148310 0.084779 -1.197915 0.000000 0.000000
    16 0.957766 -2.746777 -0.090300 -0.168610 -0.360143 -0.074009
    17 -0.033419 -1.397129 -0.011255 -0.108946 0.000000 -0.000001
    18 -0.022360 -0.957436 0.018783 -0.423640 0.000000 0.000000
    19 -1.180680 -2.507214 -0.193861 -0.919163 -0.054420 -0.368807
    20 -0.024966 -1.123934 0.017594 -1.368378 0.000000 0.000001
    21 -0.020057 -0.890966 0.010091 -0.855336 0.000000 0.000000
    22 0.583510 -1.197275 0.185377 -0.876575 -1.052204 0.140503
    23 1.535927 0.010246 0.005008 0.012053 -0.005632 -1.358008
    24 1.100770 0.004526 -0.010676 -0.012959 0.009741 -0.750357
    25 0.120152 -0.050266 -0.054488 0.287568 3.110905 1.561085
    26 1.304055 8.801644 -0.126373 -4.678056 -1.493055 -0.161010
    27 -2.529196 -2.768386 -9.492306 0.569981 -4.097864 -5.272480
    28 0.096944 -8.450418 -0.009364 0.223737 -0.366312 0.234255
    29 0.447952 -2.798983 -0.200442 -0.732182 0.026624 0.251036
    30 -0.032910 -1.480204 0.004936 -0.717872 0.000000 0.000002
    31 -0.027022 -1.076918 -0.020212 -0.145845 0.000000 0.000000
    32 -0.249534 -2.846960 -0.174216 -0.352066 -0.059353 0.124537
    33 0.043235 -1.683941 0.096014 -0.540466 0.002823 -0.000167
    34 0.031729 -1.160830 0.058836 -0.144150 0.000642 0.008372
    35 -0.963867 -2.785143 -0.085346 0.119344 0.173002 -0.073640
    36 0.028479 -1.403067 0.006271 -0.165000 0.000000 0.000000
    37 0.021413 -0.957779 0.020047 -0.128361 0.000000 0.000000
    38 1.164475 -2.543938 -0.170328 -0.936314 -0.035178 0.304376
    39 0.024033 -1.129040 0.017806 -1.299095 0.000000 0.000001
    40 0.014897 -0.883989 -0.019845 -1.026395 0.000000 0.000000
    41 -0.590676 -1.260571 0.231415 -0.011200 -0.333619 -2.461935
    42 1.522835 0.058680 0.016850 0.340392 0.038707 0.369111
    43 1.117948 0.048426 -0.005764 0.112927 -0.049886 -0.539935
    44 -0.131586 -0.111698 0.014397 0.284987 -0.017120 1.536273
    45 -1.440346 8.796207 -0.165213 4.639975 1.483718 0.062637
  time 23
    0 7.312747 6.717728 -9.408451 -1.370019 -1.280577 1.081846
    1 -0.071919 -8.498734 -0.104136 0.243904 0.218549 0.072705
    2 0.521574 -2.341931 0.944898 0.192476 1.308143 0.129949
    3 0.250714 25.919879 -8.640471 0.000000 0.000000 0.000000
    4 -0.000001 -5.493355 -0.179960 0.000000 0.000000 0.000000
    5 -0.670049 -8.175868 2.510258 0.000000 0.000000 0.000000
    6 -0.000001 -16.111864 -1.715292 0.000000 0.000000 0.000000
    7 -0.000001 -7.461284 -0.759587 0.000000 0.000000 0.000000
    8 -0.000001 -10.320615 -1.410366 0.000000 0.000000 0.000000
    9 -0.000001 -2.553366 0.694624 0.000000 0.000000 0.000000
    10 -0.488517 -2.755600 -0.228261 -1.125915 -0.132656 -0.266599
    11 0.039887 -1.479790 0.029853 -1.195881 0.000000 0.000000
    12 0.028785 -1.075733 -0.023111 -1.114265 0.000000 0.000000
    13 0.250028 -2.820663 -0.238396 -0.897278 -0.150104 -0.211378
    14 -0.049759 -1.680546 0.100480 -1.455996 0.000000 -0.000002
    15 -0.034141 -1.148310 0.084779 -1.197915 0.000000 0.000000
    16 0.957766 -2.746777 -0.090300 -0.168610 -0.360143 -0.074009
    17 -0.033419 -1.397129 -0.011255 -0.108946 0.000000 -0.000001
    18 -0.022360 -0.957436 0.018783 -0.423640 0.000000 0.000000
    19 -1.180680 -2.507214 -0.193861 -0.919163 -0.054420 -0.368807
    20 -0.024966 -1.123934 0.017594 -1.368378 0.000000 0.000001
    21 -0.020057 -0.890966 0.010091 -0.855336 0.000000 0.000000
    22 0.583510 -1.197275 0.185377 -0.876575 -1.052204 0.140503
    23 1.535927 0.010246 0.005008 0.012053 -0.005632 -1.358008
    24 1.100770 0.004526 -0.010676 -0.012959 0.009741 -0.750357
    25 0.120152 -0.050266 -0.054488 0.287568 3.110905 1.561085
    26 1.304055 8.801644 -0.126373 -4.678056 -1.493055 -0.161010
    27 -2.255751 -2.955892 -9.519651 0.549317 -4.087313 -5.259448
    28 0.096944 -8.450418 -0.009364 0.251693 -0.394453 0.223022
    29 0.447952 -2.798983 -0.200442 -0.964315 0.000162 0.261079
    30 -0.032910 -1.480204 0.004936 -0.986368 0.000000 0.000002
    31 -0.027022 -1.076918 -0.020212 -0.246191 0.000000 0.000000
    32 -0.249534 -2.846960 -0.174216 -0.504203 -0.074106 0.168664
    33 0.043235 -1.683941 0.096014 -0.722506 0.002823 -0.000167
    34 0.031729 -1.160830 0.058836 -0.259133 0.000642 0.008372
    35 -0.963867 -2.785143 -0.085346 0.030742 0.170845 -0.078218
    36 0.028479 -1.403067 0.006271 -0.145421 0.000000 0.000000
    37 0.021413 -0.957779 0.020047 -0.005731 0.000000 0.000000
    38 1.164475 -2.543938 -0.170328 -1.195577 -0.056331 0.329667
    39 0.024033 -1.129040 0.017806 -1.307025 0.000000 0.000001
    40 0.014897 -0.883989 -0.019845 -1.103316 0.000000 0.000000
    41 -0.590676 -1.260571 0.231415 -0.036814 -0.276141 -2.505466
    42 1.522835 0.058680 0.016850 0.374541 -0.021672 0.385370
    43 1.117948 0.048426 -0.005764 0.094399 -0.006886 -0.437788
    44 -0.127680 -0.111698 0.014397 0.284579 -0.006514 1.518272
    45 -1.440346 8.796207 -0.165213 4.639975 1.483718 0.062637
  time 24
    0 7.238526 6.713822 -9.439702 -1.387834 -1.280177 1.102918
    1 -0.071919 -8.498734 -0.104136 0.273348 0.196137 0.099751
    2 0.521574 -2.341931 0.944898 0.192476 1.308143 0.129949
    3 0.250714 25.919879 -8.640471 0.000000 0.000000 0.000000
    4 -0.000001 -5.493355 -0.179960 0.000000 0.000000 0.000000
    5 -0.670049 -8.175868 2.510258 0.000000 0.000000 0.000000
    6 -0.000001 -16.111864 -1.715292 0.000000 0.000000 0.000000
    7 -0.000001 -7.461284 -0.759587 0.000000 0.000000 0.000000
    8 -0.000001 -10.320615 -1.410366 0.000000 0.000000 0.000000
    9 -0.000001 -2.553366 0.694624 0.000000 0.000000 0.000000
    10 -0.488517 -2.755600 -0.228261 -1.125952 -0.132656 -0.266599
    11 0.039887 -1.479790 0.029853 -1.195951 0.000000 0.000000
    12 0.028785 -1.075733 -0.023111 -1.114265 0.000000 0.000000
    13 0.250028 -2.820663 -0.238396 -0.897278 -0.150104 -0.211378
    14 -0.049759 -1.680546 0.100480 -1.455996 0.000000 -0.000002
    15 -0.034141 -1.148310 0.084779 -1.197915 0.000000 0.000000
    16 0.957766 -2.746777 -0.090300 -0.168610 -0.360143 -0.074009
    17 -0.033419 -1.397129 -0.011255 -0.108946 0.000000 -0.000001
    18 -0.022360 -0.957436 0.018783 -0.423640 0.000000 0.000000
    19 -1.180680 -2.507214 -0.193861 -0.919163 -0.054420 -0.368807
    20 -0.024966 -1.123934 0.017594 -1.368378 0.000000 0.000001
    21 -0.020057 -0.890966 0.010091 -0.855336 0.000000 0.000000
    22 0.583510 -1.197275 0.185377 -0.876575 -1.052204 0.140503
    23 1.535927 0.010246 0.005008 0.012053 -0.005632 -1.358008
    24 1.100770 0.004526 -0.010676 -0.012959 0.009741 -0.750357
    25 0.120152 -0.050266 -0.054488 0.287568 3.110905 1.561085
    26 1.304055 8.801644 -0.126373 -4.678056 -1.493055 -0.161010
    27 -2.009649 -3.049645 -9.597778 0.551466 -4.074785 -5.245266
    28 0.096944 -8.450418 -0.009364 0.240415 -0.421065 0.219008
    29 0.447952 -2.798983 -0.200442 -1.057133 -0.010396 0.265094
    30 -0.032910 -1.480204 0.004936 -1.194699 0.000000 0.000002
    31 -0.027022 -1.076918 -0.020212 -0.351559 0.000000 0.000000
    32 -0.249534 -2.846960 -0.174216 -0.615453 -0.084868 0.200963
    33 0.043235 -1.683941 0.096014 -0.903271 0.002823 -0.000167
    34 0.031729 -1.160830 0.058836 -0.373510 0.000642 0.008372
    35 -0.963867 -2.785143 -0.085346 -0.033014 0.169563 -0.081154
    36 0.028479 -1.403067 0.006271 -0.130360 0.000000 0.000000
    37 0.021413 -0.957779 0.020047 0.096914 0.000000 0.000000
    38 1.164475 -2.543938 -0.170328 -1.299294 -0.064792 0.339786
    39 0.024033 -1.129040 0.017806 -1.318603 0.000000 0.000001
    40 0.014897 -0.883989 -0.019845 -1.134114 0.000000 0.000000
    41 -0.590676 -1.260571 0.231415 -0.062189 -0.232212 -2.544039
    42 1.522835 0.058680 0.016850 0.408124 -0.065871 0.403598
    43 1.117948 0.048426 -0.005764 0.080126 0.024454 -0.334761
    44 -0.119867 -0.111698 0.014397 0.284064 0.004727 1.499217
    45 -1.440346 8.796207 -0.165213 4.639975 1.483718 0.062637
  time 25
    0 7.195556 6.706009 -9.455327 -1.400082 -1.279738 1.117596
    1 -0.071919 -8.498734 -0.104136 0.291057 0.181841 0.114743
    2 0.521574 -2.341931 0.944898 0.192476 1.308143 0.129949
    3 0.250714 25.919879 -8.640471 0.000000 0.000000 0.000000
    4 -0.000001 -5.493355 -0.179960 0.000000 0.000000 0.000000
    5 -0.670049 -8.175868 2.510258 0.000000 0.000000 0.000000
    6 -0.000001 -16.111864 -1.715292 0.000000 0.000000 0.000000
    7 -0.000001 -7.461284 -0.759587 0.000000 0.000000 0.000000
    8 -0.000001 -10.320615 -1.410366 0.000000 0.000000 0.000000
    9 -0.000001 -2.553366 0.694624 0.000000 0.000000 0.000000
    10 -0.488517 -2.755600 -0.228261 -1.125952 -0.132656 -0.266599
    11 0.039887 -1.479790 0.029853 -1.195881 0.000000 0.000000
    12 0.028785 -1.075733 -0.023111 -1.114265 0.000000 0.000000
    13 0.250028 -2.820663 -0.238396 -0.897278 -0.150104 -0.211378
    14 -0.049759 -1.680546 0.100480 -1.455996 0.000000 -0.000002
    15 -0.034141 -1.148310 0.084779 -1.197915 0.000000 0.000000
    16 0.957766 -2.746777 -0.090300 -0.168610 -0.360143 -0.074009
    17 -0.033419 -1.397129 -0.011255 -0.108946 0.000000 -0.000001
    18 -0.022360 -0.957436 0.018783 -0.423640 0.000000 0.000000
    19 -1.180680 -2.507214 -0.193861 -0.919163 -0.054420 -0.368807
    20 -0.024966 -1.123934 0.017594 -1.368378 0.000000 0.000001
    21 -0.020057 -0.890966 0.010091 -0.855336 0.000000 0.000000
    22 0.583510 -1.197275 0.185377 -0.876575 -1.052204 0.140503
    23 1.535927 0.010246 0.005008 0.012053 -0.005632 -1.358008
    24 1.100770 0.004526 -0.010676 -0.012959 0.009741 -0.750357
    25 0.120152 -0.050266 -0.054488 0.287568 3.110905 1.561085
    26 1.304055 8.801644 -0.126373 -4.678056 -1.493055 -0.161010
    27 -1.747923 -3.041832 -9.738407 0.581229 -4.059336 -5.228210
    28 0.096944 -8.450418 -0.009364 0.180434 -0.449150 0.222318
    29 0.447952 -2.798983 -0.200442 -1.057133 -0.010396 0.265094
    30 -0.032910 -1.480204 0.004936 -1.359393 0.000000 0.000002
    31 -0.027022 -1.076918 -0.020212 -0.487122 0.000000 0.000000
    32 -0.249534 -2.846960 -0.174216 -0.658662 -0.089063 0.213487
    33 0.043235 -1.683941 0.096014 -1.067597 0.002823 -0.000167
    34 0.031729 -1.160830 0.058836 -0.478085 0.000642 0.008372
    35 -0.963867 -2.785143 -0.085346 -0.057503 0.169143 -0.082185
    36 0.028479 -1.403067 0.006271 -0.124336 0.000000 0.000000
    37 0.021413 -0.957779 0.020047 0.139970 0.000000 0.000000
    38 1.164475 -2.543938 -0.170328 -1.299294 -0.064792 0.339786
    39 0.024033 -1.129040 0.017806 -1.345578 0.000000 0.000001
    40 0.014897 -0.883989 -0.019845 -1.128691 0.000000 0.000000
    41 -0.590676 -1.260571 0.231415 -0.084306 -0.212022 -2.574266
    42 1.522835 0.058680 0.016850 0.438177 -0.083081 0.423168
    43 1.117948 0.048426 -0.005764 0.073223 0.036223 -0.238657
    44 -0.112054 -0.115604 0.006584 0.283452 0.015981 1.480149
    45 -1.440346 8.796207 -0.165213 4.639975 1.483718 0.062637
  time 26
    0 7.183837 6.702103 -9.467046 -1.406230 -1.279178 1.124800
    1 -0.071919 -8.498734 -0.104136 0.295269 0.177024 0.116341
    2 0.521574 -2.341931 0.944898 0.192476 1.308143 0.129949
    3 0.250714 25.919879 -8.640471 0.000000 0.000000 0.000000
    4 -0.000001 -5.493355 -0.179960 0.000000 0.000000 0.000000
    5 -0.670049 -8.175868 2.510258 0.000000 0.000000 0.000000
    6 -0.000001 -16.111864 -1.715292 0.000000 0.000000 0.000000
    7 -0.000001 -7.461284 -0.759587 0.000000 0.000000 0.000000
    8 -0.000001 -10.320615 -1.410366 0.000000 0.000000 0.000000
    9 -0.000001 -2.553366 0.694624 0.000000 0.000000 0.000000
    10 -0.488517 -2.755600 -0.228261 -1.125952 -0.132656 -0.266599
    11 0.039887 -1.479790 0.029853 -1.195881 0.000000 0.000000
    12 0.028785 -1.075733 -0.023111 -1.114265 0.000000 0.000000
    13 0.250028 -2.820663 -0.238396 -0.897278 -0.150104 -0.211378
    14 -0.049759 -1.680546 0.100480 -1.455996 0.000000 -0.000002
    15 -0.034141 -1.148310 0.084779 -1.197915 0.000000 0.000000
    16 0.957766 -2.746777 -0.090300 -0.168610 -0.360143 -0.074009
    17 -0.033419 -1.397129 -0.011255 -0.108946 0.000000 -0.000001
    18 -0.022360 -0.957436 0.018783 -0.423640 0.000000 0.000000
    19 -1.180680 -2.507214 -0.193861 -0.919163 -0.054420 -0.368807
    20 -0.024966 -1.123934 0.017594 -1.368378 0.000000 0.000001
    21 -0.020057 -0.890966 0.010091 -0.855336 0.000000 0.000000
    22 0.583510 -1.197275 0.185377 -0.876575 -1.052204 0.140503
    23 1.535927 0.010246 0.005008 0.012053 -0.005632 -1.358008
    24 1.100770 0.004526 -0.010676 -0.012959 0.009741 -0.750357
    25 0.120152 -0.050266 -0.054488 0.287568 3.110905 1.561085
    26 1.304055 8.801644 -0.126373 -4.678056 -1.493055 -0.161010
    27 -1.513540 -2.983237 -9.914194 0.622051 -4.044076 -5.211441
    28 0.096944 -8.450418 -0.009364 0.100058 -0.477708 0.229616
    29 0.447952 -2.798983 -0.200442 -1.057133 -0.010396 0.265094
    30 -0.032910 -1.480204 0.004936 -1.518577 0.000000 0.000002
    31 -0.027022 -1.076918 -0.020212 -0.663064 0.000000 0.000000
    32 -0.249534 -2.846960 -0.174216 -0.658662 -0.089063 0.213487
    33 0.043235 -1.683941 0.096014 -1.252472 0.002823 -0.000167
    34 0.031729 -1.160830 0.058836 -0.596757 0.000642 0.008372
    35 -0.963867 -2.785143 -0.085346 -0.010395 0.171420 -0.072873
    36 0.028479 -1.403067 0.006271 -0.170177 0.000000 0.000000
    37 0.021413 -0.957779 0.020047 0.034611 0.000000 0.000000
    38 1.164475 -2.543938 -0.170328 -1.299294 -0.064792 0.339786
    39 0.024033 -1.129040 0.017806 -1.392176 0.000000 0.000001
    40 0.014897 -0.883989 -0.019845 -1.115157 0.000000 0.000000
    41 -0.590676 -1.260571 0.231415 -0.105945 -0.208327 -2.601851
    42 1.522835 0.058680 0.016850 0.471137 -0.021168 0.474392
    43 1.117948 0.048426 -0.005764 0.075691 0.032987 -0.103662
    44 -0.108148 -0.115604 0.006584 0.282781 0.026599 1.462172
    45 -1.440346 8.796207 -0.165213 4.639975 1.483718 0.062637
  time 27
    0 7.183837 6.702103 -9.470953 -1.407440 -1.279258 1.126421
    1 -0.071919 -8.498734 -0.104136 0.286458 0.181475 0.103855
    2 0.521574 -2.341931 0.944898 0.192476 1.308143 0.129949
    3 0.250714 25.919879 -8.640471 0.000000 0.000000 0.000000
    4 -0.000001 -5.493355 -0.179960 0.000000 0.000000 0.000000
    5 -0.670049 -8.175868 2.510258 0.000000 0.000000 0.000000
    6 -0.000001 -16.111864 -1.715292 0.000000 0.000000 0.000000
    7 -0.000001 -7.461284 -0.759587 0.000000 0.000000 0.000000
    8 -0.000001 -10.320615 -1.410366 0.000000 0.000000 0.000000
    9 -0.000001 -2.553366 0.694624 0.000000 0.000000 0.000000
    10 -0.488517 -2.755600 -0.228261 -1.125915 -0.132656 -0.266599
    11 0.039887 -1.479790 0.029853 -1.195881 0.000000 0.000000
    12 0.028785 -1.075733 -0.023111 -1.114265 0.000000 0.000000
    13 0.250028 -2.820663 -0.238396 -0.897278 -0.150104 -0.211378
    14 -0.049759 -1.680546 0.100480 -1.455996 0.000000 -0.000002
    15 -0.034141 -1.148310 0.084779 -1.197915 0.000000 0.000000
    16 0.957766 -2.746777 -0.090300 -0.168610 -0.360143 -0.074009
    17 -0.033419 -1.397129 -0.011255 -0.108946 0.000000 -0.000001
    18 -0.022360 -0.957436 0.018783 -0.423640 0.000000 0.000000
    19 -1.180680 -2.507214 -0.193861 -0.919163 -0.054420 -0.368807
    20 -0.024966 -1.123934 0.017594 -1.368378 0.000000 0.000001
    21 -0.020057 -0.890966 0.010091 -0.855336 0.000000 0.000000
    22 0.583510 -1.197275 0.185377 -0.876575 -1.052204 0.140503
    23 1.535927 0.010246 0.005008 0.012053 -0.005632 -1.358008
    24 1.100770 0.004526 -0.010676 -0.012959 0.009741 -0.750357
    25 0.120152 -0.050266 -0.054488 0.287568 3.110905 1.561085
    26 1.304055 8.801644 -0.126373 -4.678056 -1.493055 -0.161010
    27 -1.388537 -2.928548 -10.058730 0.648149 -4.033714 -5.201475
    28 0.096944 -8.450418 -0.009364 0.046432 -0.499731 0.237513
    29 0.447952 -2.798983 -0.200442 -1.057133 -0.010396 0.265094
    30 -0.032910 -1.480204 0.004936 -1.661378 0.000000 0.000002
    31 -0.027022 -1.076918 -0.020212 -0.850321 0.000000 0.000000
    32 -0.249534 -2.846960 -0.174216 -0.658662 -0.089063 0.213487
    33 0.043235 -1.683941 0.096014 -1.474903 0.002823 -0.000167
    34 0.031729 -1.160830 0.058836 -0.740541 0.000642 0.008372
    35 -0.963867 -2.785143 -0.085346 0.101960 0.176789 -0.050617
    36 0.028479 -1.403067 0.006271 -0.279555 0.000000 0.000000
    37 0.021413 -0.957779 0.020047 -0.216695 0.000000 0.000000
    38 1.164475 -2.543938 -0.170328 -1.299294 -0.064792 0.339786
    39 0.024033 -1.129040 0.017806 -1.447284 0.000000 0.000001
    40 0.014897 -0.883989 -0.019845 -1.097644 0.000000 0.000000
    41 -0.590676 -1.260571 0.231415 -0.129347 -0.206395 -2.631427
    42 1.522835 0.058680 0.016850 0.503209 0.044136 0.515621
    43 1.117948 0.048426 -0.005764 0.080425 0.030207 0.035134
    44 -0.100335 -0.115604 0.006584 0.282122 0.035959 1.446317
    45 -1.440346 8.796207 -0.165213 4.639975 1.483718 0.062637
  time 28
    0 7.183837 6.702103 -9.467046 -1.406617 -1.280297 1.125430
    1 -0.071919 -8.498734 -0.104136 0.271069 0.190769 0.083679
    2 0.521574 -2.341931 0.944898 0.192476 1.308143 0.129949
    3 0.250714 25.919879 -8.640471 0.000000 0.000000 0.000000
    4 -0.000001 -5.493355 -0.179960 0.000000 0.000000 0.000000
    5 -0.670049 -8.175868 2.510258 0.000000 0.000000 0.000000
    6 -0.000001 -16.111864 -1.715292 0.000000 0.000000 0.000000
    7 -0.000001 -7.461284 -0.759587 0.000000 0.000000 0.000000
    8 -0.000001 -10.320615 -1.410366 0.000000 0.000000 0.000000
    9 -0.000001 -2.553366 0.694624 0.000000 0.000000 0.000000
    10 -0.488517 -2.755600 -0.228261 -1.125915 -0.132656 -0.266599
    11 0.039887 -1.479790 0.029853 -1.195881 0.000000 0.000000
    12 0.028785 -1.075733 -0.023111 -1.114265 0.000000 0.000000
    13 0.250028 -2.820663 -0.238396 -0.897278 -0.150104 -0.211378
    14 -0.049759 -1.680546 0.100480 -1.455996 0.000000 -0.000002
    15 -0.034141 -1.148310 0.084779 -1.197915 0.000000 0.000000
    16 0.957766 -2.746777 -0.090300 -0.168610 -0.360143 -0.074009
    17 -0.033419 -1.397129 -0.011255 -0.108946 0.000000 -0.000001
    18 -0.022360 -0.957436 0.018783 -0.423640 0.000000 0.000000
    19 -1.180680 -2.507214 -0.193861 -0.919163 -0.054420 -0.368807
    20 -0.024966 -1.123934 0.017594 -1.368378 0.000000 0.000001
    21 -0.020057 -0.890966 0.010091 -0.855336 0.000000 0.000000
    22 0.583510 -1.197275 0.185377 -0.876575 -1.052204 0.140503
    23 1.535927 0.010246 0.005008 0.012053 -0.005632 -1.358008
    24 1.100770 0.004526 -0.010676 -0.012959 0.009741 -0.750357
    25 0.120152 -0.050266 -0.054488 0.287568 3.110905 1.561085
    26 1.304055 8.801644 -0.126373 -4.678056 -1.493055 -0.161010
    27 -1.497915 -2.905109 -10.160295 0.644358 -4.031924 -5.202817
    28 0.096944 -8.450418 -0.009364 0.047914 -0.512216 0.246661
    29 0.447952 -2.798983 -0.200442 -1.057133 -0.010396 0.265094
    30 -0.032910 -1.480204 0.004936 -1.776852 0.000000 0.000002
    31 -0.027022 -1.076918 -0.020212 -1.019970 0.000000 0.000000
    32 -0.249534 -2.846960 -0.174216 -0.658662 -0.089063 0.213487
    33 0.043235 -1.683941 0.096014 -1.689681 0.002823 -0.000167
    34 0.031729 -1.160830 0.058836 -0.879754 0.000642 0.008372
    35 -0.963867 -2.785143 -0.085346 0.236072 0.183093 -0.024011
    36 0.028479 -1.403067 0.006271 -0.410066 0.000000 0.000000
    37 0.021413 -0.957779 0.020047 -0.516651 0.000000 0.000000
    38 1.164475 -2.543938 -0.170328 -1.299294 -0.064792 0.339786
    39 0.024033 -1.129040 0.017806 -1.500134 0.000000 0.000001
    40 0.014897 -0.883989 -0.019845 -1.080030 0.000000 0.000000
    41 -0.590676 -1.260571 0.231415 -0.150717 -0.205623 -2.658342
    42 1.522835 0.058680 0.016850 0.530789 0.049349 0.501182
    43 1.117948 0.048426 -0.005764 0.082726 0.031968 0.134280
    44 -0.100335 -0.115604 0.006584 0.281535 0.043426 1.433673
    45 -1.440346 8.796207 -0.165213 4.639975 1.483718 0.062637
  time 29
    0 7.183837 6.702103 -9.467046 -1.405068 -1.281536 1.123809
    1 -0.071919 -8.498734 -0.104136 0.256455 0.199855 0.064842
    2 0.521574 -2.341931 0.944898 0.192476 1.308143 0.129949
    3 0.250714 25.919879 -8.640471 0.000000 0.000000 0.000000
    4 -0.000001 -5.493355 -0.179960 0.000000 0.000000 0.000000
    5 -0.670049 -8.175868 2.510258 0.000000 0.000000 0.000000
    6 -0.000001 -16.111864 -1.715292 0.000000 0.000000 0.000000
    7 -0.000001 -7.461284 -0.759587 0.000000 0.000000 0.000000
    8 -0.000001 -10.320615 -1.410366 0.000000 0.000000 0.000000
    9 -0.000001 -2.553366 0.694624 0.000000 0.000000 0.000000
    10 -0.488517 -2.755600 -0.228261 -1.125952 -0.132656 -0.266599
    11 0.039887 -1.479790 0.029853 -1.195881 0.000000 0.000000
    12 0.028785 -1.075733 -0.023111 -1.114265 0.000000 0.000000
    13 0.250028 -2.820663 -0.238396 -0.897278 -0.150104 -0.211378
    14 -0.049759 -1.680546 0.100480 -1.455996 0.000000 -0.000002
    15 -0.034141 -1.148310 0.084779 -1.197915 0.000000 0.000000
    16 0.957766 -2.746777 -0.090300 -0.168610 -0.360143 -0.074009
    17 -0.033419 -1.397129 -0.011255 -0.108946 0.000000 -0.000001
    18 -0.022360 -0.957436 0.018783 -0.423640 0.000000 0.000000
    19 -1.180680 -2.507214 -0.193861 -0.919163 -0.054420 -0.368807
    20 -0.024966 -1.123934 0.017594 -1.368378 0.000000 0.000001
    21 -0.020057 -0.890966 0.010091 -0.855336 0.000000 0.000000
    22 0.583510 -1.197275 0.185377 -0.876575 -1.052204 0.140503
    23 1.535927 0.010246 0.005008 0.012053 -0.005632 -1.358008
    24 1.100770 0.004526 -0.010676 -0.012959 0.009741 -0.750357
    25 0.120152 -0.050266 -0.054488 0.287568 3.110905 1.561085
    26 1.304055 8.801644 -0.126373 -4.678056 -1.493055 -0.161010
    27 -1.728391 -2.889484 -10.238423 0.626601 -4.035315 -5.210195
    28 0.096944 -8.450418 -0.009364 0.076297 -0.518139 0.256304
    29 0.447952 -2.798983 -0.200442 -1.057133 -0.010396 0.265094
    30 -0.032910 -1.480204 0.004936 -1.854124 0.000000 0.000002
    31 -0.027022 -1.076918 -0.020212 -1.143016 0.000000 0.000000
    32 -0.249534 -2.846960 -0.174216 -0.658662 -0.089063 0.213487
    33 0.043235 -1.683941 0.096014 -1.851739 0.002823 -0.000167
    34 0.031729 -1.160830 0.058836 -0.984824 0.000642 0.008372
    35 -0.963867 -2.785143 -0.085346 0.348427 0.188307 -0.001684
    36 0.028479 -1.403067 0.006271 -0.519398 0.000000 0.000000
    37 0.021413 -0.957779 0.020047 -0.767957 0.000000 0.000000
    38 1.164475 -2.543938 -0.170328 -1.299294 -0.064792 0.339786
    39 0.024033 -1.129040 0.017806 -1.539901 0.000000 0.000001
    40 0.014897 -0.883989 -0.019845 -1.066547 0.000000 0.000000
    41 -0.590676 -1.260571 0.231415 -0.166259 -0.205454 -2.677925
    42 1.522835 0.058680 0.016850 0.555311 0.051998 0.474392
    43 1.117948 0.048426 -0.005764 0.084500 0.035372 0.216021
    44 -0.100335 -0.115604 0.006584 0.281127 0.048375 1.425308
    45 -1.440346 8.796207 -0.165213 4.639975 1.483718 0.062637
  time 30
    0 7.183837 6.702103 -9.467046 -1.404245 -1.282136 1.122909
    1 -0.071919 -8.498734 -0.104136 0.249964 0.203965 0.056460
    2 0.521574 -2.341931 0.944898 0.192476 1.308143 0.129949
    3 0.250714 25.919879 -8.640471 0.000000 0.000000 0.000000
    4 -0.000001 -5.493355 -0.179960 0.000000 0.000000 0.000000
    5 -0.670049 -8.175868 2.510258 0.000000 0.000000 0.000000
    6 -0.000001 -16.111864 -1.715292 0.000000 0.000000 0.000000
    7 -0.000001 -7.461284 -0.759587 0.000000 0.000000 0.000000
    8 -0.000001 -10.320615 -1.410366 0.000000 0.000000 0.000000
    9 -0.000001 -2.553366 0.694624 0.000000 0.000000 0.000000
    10 -0.488517 -2.755600 -0.228261 -1.125952 -0.132656 -0.266599
    11 0.039887 -1.479790 0.029853 -1.195951 0.000000 0.000000
    12 0.028785 -1.075733 -0.023111 -1.114265 0.000000 0.000000
    13 0.250028 -2.820663 -0.238396 -0.897278 -0.150104 -0.211378
    14 -0.049759 -1.680546 0.100480 -1.455996 0.000000 -0.000002
    15 -0.034141 -1.148310 0.084779 -1.197915 0.000000 0.000000
    16 0.957766 -2.746777 -0.090300 -0.168610 -0.360143 -0.074009
    17 -0.033419 -1.397129 -0.011255 -0.108946 0.000000 -0.000001
    18 -0.022360 -0.957436 0.018783 -0.423640 0.000000 0.000000
    19 -1.180680 -2.507214 -0.193861 -0.919163 -0.054420 -0.368807
    20 -0.024966 -1.123934 0.017594 -1.368378 0.000000 0.000001
    21 -0.020057 -0.890966 0.010091 -0.855336 0.000000 0.000000
    22 0.583510 -1.197275 0.185377 -0.876575 -1.052204 0.140503
    23 1.535927 0.010246 0.005008 0.012053 -0.005632 -1.358008
    24 1.100770 0.004526 -0.010676 -0.012959 0.009741 -0.750357
    25 0.120152 -0.050266 -0.054488 0.287568 3.110905 1.561085
    26 1.304055 8.801644 -0.126373 -4.678056 -1.493055 -0.161010
    27 -1.857301 -2.885577 -10.269674 0.615921 -4.037670 -5.214794
    28 0.096944 -8.450418 -0.009364 0.094080 -0.519641 0.260787
    29 0.447952 -2.798983 -0.200442 -1.057133 -0.010396 0.265094
    30 -0.032910 -1.480204 0.004936 -1.882322 0.000000 0.000002
    31 -0.027022 -1.076918 -0.020212 -1.190467 0.000000 0.000000
    32 -0.249534 -2.846960 -0.174216 -0.658662 -0.089063 0.213487
    33 0.043235 -1.683941 0.096014 -1.915797 0.002823 -0.000167
    34 0.031729 -1.160830 0.058836 -1.026511 0.000642 0.008372
    35 -0.963867 -2.785143 -0.085346 0.395556 0.190464 0.007688
    36 0.028479 -1.403067 0.006271 -0.565286 0.000000 0.000000
    37 0.021413 -0.957779 0.020047 -0.873357 0.000000 0.000000
    38 1.164475 -2.543938 -0.170328 -1.299294 -0.064792 0.339786
    39 0.024033 -1.129040 0.017806 -1.555531 0.000000 0.000001
    40 0.014897 -0.883989 -0.019845 -1.061123 0.000000 0.000000
    41 -0.590676 -1.260571 0.231415 -0.172266 -0.205502 -2.685506
    42 1.522835 0.058680 0.016850 0.565863 0.052717 0.459923
    43 1.117948 0.048426 -0.005764 0.085219 0.037242 0.250030
    44 -0.100335 -0.115604 0.006584 0.280984 0.050161 1.422275
    45 -1.440346 8.796207 -0.165213 4.639975 1.483718 0.062637
end
