// Created by Crowbar 0.58

$modelname "weapons/tfa_cso/w_spear.mdl"

$bodygroup "studio"
{
	studio "spear"
}

$collisionmodel "spear.smd"
{
	$mass 1
}

$CDMaterials "models\weapons\tfa_cso\speargun"

$sequence "idle" {
	"spear_anims\idle"
	fps 30
}
