"UnlitGeneric"
{
	"$baseTexture" "tracers/ef_y23s1sfsmg_laser_hit"
    "$translucent" 1
	"$additive" 1
	"Proxies"
	{
	"AnimatedTexture"
		{
		"animatedTextureVar" "$basetexture"
		"animatedTextureFrameNumVar" "$frame"
		"animatedTextureFrameRate" "4"
		}
	}
}