"VertexLitGeneric"
{
	$basetexture	"models\weapons\tfa_cso\g3sg1\cso_g3sg1"
	$bumpmap "models\weapons\tfa_cso\g3sg1\cso_g3sg1_n"
	$phongexponenttexture "models\weapons\v_models\Request CSO\Dragon TMP S"
	$nocull "1"
	$phong "1"
	$phongexponent "20"
	$phongfresnelranges "[0.15 0.65 1.00]"
	$phongalbedotint "1"
	$phongboost "16"
}