// Created by Crowbar 0.71

$modelname "weapons/tfa_cso/c_qbb95.mdl"

$include "qbb95_bones.qci"

$bodygroup "weapon"
{
	studio "v_qbb95_f_qbb95_template"
}

$CDMaterials "models\weapons\tfa_cso\qbb95"

$attachment 0 "Bone_Bullet_Case" 0.519 -19.725 0

$sequence "qbb95_idle" {
	"v_qbb95_anims\qbb95_idle"
	activity "ACT_VM_IDLE" 1
	fps 16
	snap
}
$sequence "qbb95_reload" {
	"v_qbb95_anims\qbb95_reload"
	{ event 5004 19 "Qbb95.ClipOut" }
	{ event 5004 46 "Qbb95.ClipIn" }
	{ event 5004 65 "Qbb95.ClipOn" }
	{ event 5004 87 "Qbb95.Draw" }
	fps 30
	activity "ACT_VM_RELOAD" 1
	snap
}
$sequence "qbb95_draw" {
	"v_qbb95_anims\qbb95_draw"
	{ event 5004 10 "Qbb95.Draw" }
	fps 30
	activity "ACT_VM_DRAW" 1
	snap
}
$sequence "qbb95_shoot1" {
	"v_qbb95_anims\qbb95_shoot1"
	{ event 5001 1 "33" }
	fps 28
	activity "ACT_VM_PRIMARYATTACK" 1
	snap
}
$sequence "qbb95_shoot2" {
	"v_qbb95_anims\qbb95_shoot2"
	{ event 5001 1 "23" }
	fps 28
	activity "ACT_VM_PRIMARYATTACK" 1
	snap
}
$sequence "qbb95_shoot3" {
	"v_qbb95_anims\qbb95_shoot3"
	{ event 5001 1 "23" }
	fps 28
	activity "ACT_VM_PRIMARYATTACK" 1
	snap
}