// Created by Crowbar 0.49.0.0

$modelname "weapons/tfa_cso/c_hk23g.mdl"

$Include "csonline_gmod.qci"

$bodygroup "weapon"
{
	studio "v_hk23g_ref_hk23gold"
}

$CDMaterials "models\weapons\tfa_cso\hk23g\"

$attachment 0 "load01" -0.1 -8 0.7
//$attachment 1 "load02" 1.326 0 0.31

$definebone "Bone01" "" 0.497702 0.002174 -11.414404 -0.012834 -89.771431 179.847612 0.000000 0.000000 -0.000001 0.000000 0.000000 -0.000000
$definebone "Bone_Lefthand" "Bone01" -0.071918 -8.498729 -0.104137 16.477755 0.853593 -1.435030 0.000000 0.000000 0.000000 0.000005 0.000000 -0.000000
$definebone "handle01" "Bone_Lefthand" 9.272744 3.136420 -4.620238 -51.758833 -178.324056 87.158570 0.000000 0.000000 0.000000 0.000000 -0.000003 -0.000000
$definebone "load01" "handle01" -4.902069 6.630353 0.081153 -50.763254 -158.810561 -0.039649 0.000000 0.000000 -0.000000 -0.000002 -0.000005 0.000007
$definebone "trigger01" "handle01" -0.118678 1.567191 0.000000 0.000000 13.275482 -0.000000 0.000000 0.000000 0.000000 0.000000 -0.000007 -0.000000
$definebone "magazine01" "handle01" -0.823142 4.646927 0.000001 0.000000 21.763623 0.000000 0.000000 0.000000 0.000000 0.000000 -0.000010 0.000000
$definebone "magazine02" "magazine01" 0.427322 -0.000246 0.217324 -85.396770 179.583967 -179.600318 0.000000 0.000000 -0.000000 -0.000001 0.000001 0.000010
$definebone "bullet01" "magazine01" -1.442295 -1.581690 0.214198 0.000057 89.966652 0.000000 0.000000 0.000000 0.000000 -0.000000 0.000010 0.000000
$definebone "safety01" "handle01" -0.239236 0.559897 0.649938 0.000000 -39.590632 -0.000000 0.000000 0.000000 0.000000 0.000000 0.000005 -0.000000
$definebone "bullet02" "bullet01" 0.000001 -0.052012 0.447393 -0.000000 0.000010 0.000000 0.000000 0.000000 0.000000 -0.000000 0.000010 0.000000
$definebone "bullet03" "bullet02" 0.000000 -0.324151 0.415907 -0.000000 0.000010 0.000000 0.000000 0.000000 -0.000000 -0.000000 0.000010 0.000000
$definebone "bullet04" "bullet03" 0.000000 -0.345663 0.380311 -0.000000 0.000010 0.000000 0.000000 0.000000 -0.000000 -0.000000 0.000010 0.000000
$definebone "bullet05" "bullet04" 0.000000 -0.454453 0.135643 -0.000000 0.000010 0.000000 0.000000 0.000000 0.000000 -0.000000 0.000010 0.000000
$definebone "bullet06" "bullet05" 0.000000 -0.447436 0.082059 -0.000000 0.000010 0.000000 0.000000 0.000000 0.000000 -0.000000 0.000010 0.000000
$definebone "bullet07" "bullet06" -0.000001 -0.453525 0.000000 -0.000000 0.000010 0.000000 0.000000 0.000000 0.000000 -0.000000 0.000010 0.000000
$definebone "bullet08" "bullet01" 0.611766 -0.053929 -0.899281 -0.000000 0.000125 -3.843630 0.000000 0.000000 0.000000 -0.000001 0.000010 0.000000
$definebone "load02" "handle01" -2.536006 1.416414 0.570209 0.000057 111.730217 0.000000 0.000000 0.000000 -0.000000 -0.000000 0.000010 0.000000
$definebone "handle02" "handle01" -3.668925 7.593625 0.584395 -45.134123 22.143547 178.656495 0.000000 0.000000 0.000000 -0.000003 0.000007 0.000005
$definebone "tripod01" "handle01" -5.870332 15.481465 0.000002 0.000000 -68.245400 -0.000000 0.000000 0.000000 -0.000000 0.000000 0.000009 -0.000000
$definebone "tripod02" "tripod01" 0.822683 -0.041323 0.607532 0.000000 -0.018212 -0.000000 0.000000 0.000000 0.000000 0.000000 0.000009 -0.000000
$definebone "tripod03" "tripod01" 0.822683 -0.041325 -0.438070 0.000000 -0.018212 -0.000000 0.000000 0.000000 0.000000 0.000000 0.000009 -0.000000

$sequence "idle1" {
	"v_hk23g_anims\idle1"
	fps 30
	loop
	activity "ACT_VM_IDLE" 1
	snap
}
$sequence "shoot01" {
	"v_hk23g_anims\shoot01"
	{ event 5001 0 "22" }
	fps 30
	activity "ACT_VM_PRIMARYATTACK" 1
	snap
}
$sequence "shoot02" {
	"v_hk23g_anims\shoot02"
	{ event 5001 0 "22" }
	fps 30
	activity "ACT_VM_PRIMARYATTACK" 2
	snap
}
$sequence "reload" {
	"v_hk23g_anims\reload"
	{ event 5004 15 "HK23.Foley1" }
	{ event 5004 39 "HK23.Foley2" }
	{ event 5004 53 "HK23.Foley3" }
	{ event 5004 82 "HK23.Draw" }
	fps 30
	activity "ACT_VM_RELOAD" 1
	snap
}
$sequence "draw" {
	"v_hk23g_anims\draw"
	fps 30
	activity "ACT_VM_DRAW" 1
	snap
}
