version 1
nodes
  0 "Bone01" -1
  1 "Bone_Lefthand" 0
  2 "Bone52" 1
  3 "Bone53" 2
  4 "Bone54" 3
  5 "Bone56" 3
  6 "Bone57" 5
  7 "Bone02" 6
  8 "Bone03" 7
  9 "Bone25" 8
  10 "Bone47" 9
  11 "Bone48" 10
  12 "Bone49" 11
  13 "Bone50" 12
  14 "Bone51" 13
  15 "Bone58" 3
  16 "Bone 04" 1
  17 "Bone17" 16
  18 "Bone18" 17
  19 "Bone19" 18
  20 "Bone21" 16
  21 "Bone22" 20
  22 "Bone23" 21
  23 "Bone05" 16
  24 "Bone06" 23
  25 "Bone07" 24
  26 "Bone04" -1
  27 "Bone_Righthand" 26
  28 "Bone26" 27
  29 "Bone35" 28
  30 "Bone36" 29
  31 "Bone37" 30
  32 "Bone31" 28
  33 "Bone32" 32
  34 "Bone33" 33
  35 "Bone39" 28
  36 "Bone40" 35
  37 "Bone41" 36
  38 "Bone43" 28
  39 "Bone44" 38
  40 "Bone45" 39
  41 "Bone27" 28
  42 "Bone28" 41
  43 "Bone29" 42
  44 "Bone09" 16
  45 "Bone10" 44
  46 "Bone11" 45
  47 "Bone13" 16
  48 "Bone14" 47
  49 "Bone15" 48
end
skeleton
  time 0
    0 7.106535 5.864956 -7.397159 -0.774287 -1.331381 0.567320
    1 0.000000 -8.563281 0.000000 0.347509 -0.125220 -0.169558
    2 -0.725000 -3.341000 0.707000 -1.247039 1.437607 -1.233857
    3 0.000001 1.851472 0.849855 0.000000 0.000000 0.000000
    4 0.000000 -2.655797 1.578303 0.000000 0.000000 0.000000
    5 0.004569 -5.341948 1.579176 0.000000 0.000000 0.000000
    6 0.000000 0.030354 -1.365839 0.000000 0.000000 0.000000
    7 -1.703881 0.381351 1.509396 0.000000 0.000014 0.000000
    8 0.306899 0.000000 0.000000 0.000000 -0.811579 0.000000
    9 0.311222 0.000001 0.000000 0.000000 -0.305433 0.000000
    10 0.293932 -0.000001 0.000000 0.000000 -0.139626 0.000000
    11 0.298254 0.000000 0.000000 0.000000 -0.095991 0.000000
    12 0.306899 0.000000 0.000000 0.000000 0.296708 0.000000
    13 0.298254 -0.000001 0.000000 0.000000 0.471239 0.000000
    14 0.306899 0.000000 0.000000 0.000000 0.401426 0.000000
    15 0.600744 -5.369449 3.607356 0.000000 0.000000 0.000000
    16 -0.003480 -0.404829 0.000000 0.000000 0.000000 0.000000
    17 0.105981 -2.607135 -0.278958 -0.890118 0.000000 -0.148353
    18 0.000000 -1.250579 0.000000 -1.213004 0.000000 0.000000
    19 0.000000 -0.932634 0.000000 -1.483530 0.000000 0.000000
    20 0.763063 -2.490557 -0.278958 -0.349065 0.000000 0.130900
    21 -0.012322 -1.280917 0.000000 -0.200713 0.000000 0.000000
    22 -0.001697 -0.749371 0.000000 -0.724295 0.000000 0.000000
    23 0.354566 0.016267 0.318133 0.342077 -0.443527 -1.083976
    24 1.887165 0.012878 0.000000 -0.301502 -0.049640 -0.559682
    25 1.001874 -0.000270 0.000000 0.000000 0.000000 -0.715584
    26 -2.273020 -7.130839 -9.283781 -0.796360 0.785496 0.290127
    27 0.089928 -8.543161 -0.000001 0.162661 -0.696867 0.411523
    28 0.000000 -0.359712 0.000000 0.000000 0.000000 0.000000
    29 -0.170479 -2.636146 -0.277655 -1.483539 0.000000 0.000000
    30 0.010598 -1.261177 0.000001 -0.340297 0.000000 0.000000
    31 -0.000001 -0.943233 -0.000002 -0.532326 0.000000 0.000000
    32 -0.827563 -2.508972 -0.277656 -1.265405 0.000000 0.000000
    33 -0.000001 -1.292971 0.000000 -0.558504 0.000000 0.000000
    34 -0.000001 -0.752466 0.000000 -0.445059 0.000000 0.000000
    35 0.444214 -2.561959 -0.277655 -1.605179 -0.046226 -0.024599
    36 0.021022 -1.208186 0.000001 -0.427606 0.000000 0.000000
    37 0.010597 -0.741867 -0.000001 -0.453786 0.000000 0.000000
    38 1.047445 -2.222820 -0.277655 -1.508123 -0.078971 -0.038609
    39 0.000000 -0.996223 -0.000002 -0.689433 0.000000 0.000000
    40 -0.000001 -0.614690 -0.000001 -0.523599 0.000000 0.000000
    41 -0.308254 -0.007813 0.307166 -0.124628 -0.088654 -2.592079
    42 1.978378 0.019542 0.000001 -0.084829 -0.061467 -0.075917
    43 0.982426 0.003185 0.000000 0.000000 0.000000 0.314179
    44 -1.122644 -2.197476 -0.281120 -1.064647 0.000001 -0.087266
    45 0.007812 -0.964973 0.000001 -0.715574 0.000000 0.000000
    46 -0.007812 -0.630317 0.000000 -1.396260 0.000000 0.000000
    47 -0.515544 -2.501512 -0.280215 -1.003564 0.000003 -0.122182
    48 -0.013191 -1.208188 0.000000 -1.090831 0.000000 0.000000
    49 -0.002946 -0.761399 0.000001 -1.343903 0.000000 0.000000
  time 1
    0 7.106535 5.864956 -7.397159 -0.774287 -1.331381 0.567320
    1 0.000000 -8.563281 0.000000 0.347509 -0.125220 -0.169558
    2 -0.725000 -3.341000 0.707000 -1.247039 1.437607 -1.233857
    3 0.000001 1.851472 0.849855 0.000000 0.000000 0.000000
    4 0.000000 -2.655797 1.578303 0.000000 0.000000 0.000000
    5 0.004569 -5.341948 1.579176 0.000000 0.000000 0.000000
    6 0.000000 0.030354 -1.365839 0.000000 0.000000 0.000000
    7 -1.703881 0.381351 1.509396 0.000000 0.000014 0.000000
    8 0.306899 0.000000 0.000000 0.000000 -0.811579 0.000000
    9 0.311222 0.000001 0.000000 0.000000 -0.305433 0.000000
    10 0.293932 -0.000001 0.000000 0.000000 -0.139626 0.000000
    11 0.298254 0.000000 0.000000 0.000000 -0.095991 0.000000
    12 0.306899 0.000000 0.000000 0.000000 0.296708 0.000000
    13 0.298254 -0.000001 0.000000 0.000000 0.471239 0.000000
    14 0.306899 0.000000 0.000000 0.000000 0.401426 0.000000
    15 0.600744 -5.369449 3.607356 0.000000 0.000000 0.000000
    16 -0.003480 -0.404829 0.000000 0.000000 0.000000 0.000000
    17 0.105981 -2.607135 -0.278958 -0.890118 0.000000 -0.148353
    18 0.000000 -1.250579 0.000000 -1.213004 0.000000 0.000000
    19 0.000000 -0.932634 0.000000 -1.483530 0.000000 0.000000
    20 0.763063 -2.490557 -0.278958 -0.349065 0.000000 0.130900
    21 -0.012322 -1.280917 0.000000 -0.200713 0.000000 0.000000
    22 -0.001697 -0.749371 0.000000 -0.724295 0.000000 0.000000
    23 0.354566 0.016267 0.318133 0.342077 -0.443527 -1.083976
    24 1.887165 0.012878 0.000000 -0.301502 -0.049640 -0.559682
    25 1.001874 -0.000270 0.000000 0.000000 0.000000 -0.715584
    26 -2.273020 -7.130839 -9.283781 -0.796360 0.785496 0.290127
    27 0.089928 -8.543161 -0.000001 0.162661 -0.696867 0.411523
    28 0.000000 -0.359712 0.000000 0.000000 0.000000 0.000000
    29 -0.170479 -2.636146 -0.277655 -1.483539 0.000000 0.000000
    30 0.010598 -1.261177 0.000001 -0.340297 0.000000 0.000000
    31 -0.000001 -0.943233 -0.000002 -0.532326 0.000000 0.000000
    32 -0.827563 -2.508972 -0.277656 -1.265405 0.000000 0.000000
    33 -0.000001 -1.292971 0.000000 -0.558504 0.000000 0.000000
    34 -0.000001 -0.752466 0.000000 -0.445059 0.000000 0.000000
    35 0.444214 -2.561959 -0.277655 -1.605179 -0.046226 -0.024599
    36 0.021022 -1.208186 0.000001 -0.427606 0.000000 0.000000
    37 0.010597 -0.741867 -0.000001 -0.453786 0.000000 0.000000
    38 1.047445 -2.222820 -0.277655 -1.508123 -0.078971 -0.038609
    39 0.000000 -0.996223 -0.000002 -0.689433 0.000000 0.000000
    40 -0.000001 -0.614690 -0.000001 -0.523599 0.000000 0.000000
    41 -0.308254 -0.007813 0.307166 -0.124628 -0.088654 -2.592079
    42 1.978378 0.019542 0.000001 -0.084829 -0.061467 -0.075917
    43 0.982426 0.003185 0.000000 0.000000 0.000000 0.314179
    44 -1.122644 -2.197476 -0.281120 -1.064647 0.000001 -0.087266
    45 0.007812 -0.964973 0.000001 -0.715574 0.000000 0.000000
    46 -0.007812 -0.630317 0.000000 -1.396260 0.000000 0.000000
    47 -0.515544 -2.501512 -0.280215 -1.003564 0.000003 -0.122182
    48 -0.013191 -1.208188 0.000000 -1.090831 0.000000 0.000000
    49 -0.002946 -0.761399 0.000001 -1.343903 0.000000 0.000000
end
